version 1
nodes
  0 "charger5_root" -1
  1 "magazineroof" 0
  2 "charge_ef01" 1
  3 "charge_ef02" 1
  4 "charge_ef03" 1
  5 "trigar" 0
  6 "magazine" 0
  7 "charge_rotation" 0
  8 "laser" 0
  9 "root" -1
  10 "Bone01" 9
  11 "Bone_L_Upper" 10
  12 "Bone_Lefthand" 10
  13 "Bone13" 12
  14 "Bone14" 13
  15 "Bone15" 14
  16 "Bone17" 12
  17 "Bone18" 16
  18 "Bone19" 17
  19 "Bone21" 12
  20 "Bone22" 19
  21 "Bone23" 20
  22 "Bone09" 12
  23 "Bone10" 22
  24 "Bone11" 23
  25 "Bone05" 12
  26 "Bone06" 25
  27 "Bone07" 26
  28 "Bone_Se_Hand-L" 12
  29 "Bone04" 9
  30 "Bone_Righthand" 29
  31 "Bone39" 30
  32 "Bone40" 31
  33 "Bone41" 32
  34 "Bone35" 30
  35 "Bone36" 34
  36 "Bone37" 35
  37 "Bone31" 30
  38 "Bone32" 37
  39 "Bone33" 38
  40 "Bone43" 30
  41 "Bone44" 40
  42 "Bone45" 41
  43 "Bone27" 30
  44 "Bone28" 43
  45 "Bone29" 44
  46 "Bone_Se_Hand-R" 30
  47 "Bone_R_Upper" 29
end
skeleton
  time 0
    0 4.628719 -12.483489 -5.148760 0.000000 0.000000 -0.000013
    1 0.000126 5.380603 2.085688 -1.570793 0.000000 3.141592
    2 -0.000003 8.744292 -22.250452 0.000000 0.000000 0.000000
    3 -0.000003 8.744292 -22.250454 0.000000 0.000000 0.000000
    4 -0.000002 8.744292 -22.250454 0.000000 0.000000 0.000000
    5 -0.003704 -0.088851 0.612631 1.570801 1.570796 0.000000
    6 -0.009867 6.068303 0.294611 0.000000 1.570796 0.000000
    7 0.000027 3.816548 1.626610 -1.570793 -1.396250 3.141592
    8 -0.003843 0.913138 2.654824 -1.570793 -3.141592 1.570796
    9 1.286349 -0.821603 -3.140102 0.000000 0.000000 0.000000
    10 7.149881 1.165427 -3.463931 6.229091 -2.062251 -0.244197
    11 3.448653 9.391510 -0.282623 1.545826 -3.132864 1.309055
    12 0.010113 -8.498736 -0.068977 0.144204 0.662564 0.173616
    13 -0.488518 -2.755602 -0.228260 -0.244746 -0.005464 -0.145879
    14 0.039887 -1.546198 0.025948 -1.950276 -0.005165 0.043253
    15 0.028786 -1.173390 -0.128581 -1.116701 -0.015172 0.024089
    16 0.250027 -2.820665 -0.238396 -0.156638 -0.100116 -0.057748
    17 -0.049759 -1.594604 0.022352 -1.692623 -0.002732 -0.044381
    18 -0.034142 -1.179563 0.045718 -1.331115 0.004566 -0.035115
    19 0.957766 -2.746780 -0.090302 0.165424 -0.223746 0.095945
    20 -0.033420 -1.397129 -0.015163 -0.248252 0.005789 -0.011866
    21 -0.022360 -0.957436 0.010971 -0.329898 0.006604 -0.015424
    22 -1.180681 -2.507217 -0.193859 -0.078589 0.198780 -0.051661
    23 -0.024967 -1.127840 0.017597 -1.331203 -0.004099 -0.055560
    24 -0.020057 -0.902687 0.049154 -1.514903 -0.007634 -0.060187
    25 0.606948 -1.197277 0.185379 0.455111 -0.925238 -0.684422
    26 1.426549 -0.267106 0.087043 0.093188 -0.260641 -1.002715
    27 1.053895 -0.140009 0.028385 0.033433 -0.179999 -0.730264
    28 0.120153 -0.050270 -0.054489 0.287569 3.110905 1.561085
    29 -2.966164 -7.743055 -7.063999 0.854771 -4.110277 1.383056
    30 0.085225 -8.403542 -0.013271 -0.077172 -0.303670 0.266479
    31 0.447953 -2.798986 -0.200443 -1.223404 -0.150987 0.357291
    32 -0.032909 -1.499736 0.036191 -1.682550 0.022555 -0.034717
    33 -0.027022 -1.127703 -0.020210 -1.224256 0.024233 -0.022076
    34 -0.249534 -2.846964 -0.174213 -0.919524 -0.167550 0.229534
    35 0.043235 -1.656596 0.053042 -1.990981 -0.025053 0.018229
    36 0.031729 -1.141298 0.054932 -1.091808 -0.012110 0.006059
    37 -0.963866 -2.785145 -0.085350 -0.709627 -0.020214 0.038322
    38 0.028479 -1.418692 -0.028886 -1.498275 -0.048777 -0.038411
    39 0.021413 -0.942156 0.008327 -1.125372 -0.032155 -0.036205
    40 1.164475 -2.543940 -0.170330 -1.400985 -0.293602 0.576548
    41 0.024032 -1.148574 -0.009538 -1.327987 0.025096 0.063759
    42 0.014898 -0.899614 -0.015942 -0.966253 0.007562 0.048610
    43 -0.586770 -1.264477 0.200161 -0.213368 -0.653007 -2.515594
    44 1.565805 0.035243 0.016848 -0.017693 -0.006691 0.852145
    45 1.114041 0.044518 -0.005766 -0.027915 -0.034498 1.008552
    46 -0.139399 -0.111698 0.014397 0.286241 -0.054300 1.367747
    47 -1.295811 8.889960 -0.204276 1.570809 -0.000001 -1.570790
  time 1
    0 4.632625 -10.897503 -5.281576 0.039550 0.072472 -0.028403
    1 0.000126 5.380603 2.085688 -1.570793 0.000000 3.141592
    2 -0.000003 8.744292 -22.250452 0.000000 0.000000 0.000000
    3 -0.000003 8.744292 -22.250454 0.000000 0.000000 0.000000
    4 -0.000002 8.744292 -22.250454 0.000000 0.000000 0.000000
    5 -0.003704 -0.088851 0.612631 3.141545 1.172920 1.570792
    6 -0.009867 6.068303 0.294611 0.000000 1.570796 0.000000
    7 0.000027 3.816548 1.626610 -4.712385 -1.440011 0.000096
    8 -0.003843 0.913138 2.654824 -1.570793 -3.141592 1.570796
    9 1.286349 -0.821603 -3.140102 0.000000 0.000000 0.000000
    10 7.165507 2.763132 -3.206111 6.137936 -2.010023 -0.159096
    11 5.444808 8.286008 -0.329500 1.543910 -3.127976 1.064067
    12 0.014019 -8.494830 -0.065070 0.120846 0.689750 0.190315
    13 -0.488518 -2.755602 -0.228260 -0.244746 -0.005464 -0.145879
    14 0.039887 -1.546198 0.025948 -1.950276 -0.005165 0.043253
    15 0.028786 -1.173390 -0.128581 -1.116701 -0.015172 0.024089
    16 0.250027 -2.820665 -0.238396 -0.156638 -0.100116 -0.057748
    17 -0.049759 -1.594604 0.022352 -1.692623 -0.002732 -0.044381
    18 -0.034142 -1.179563 0.045718 -1.331115 0.004566 -0.035115
    19 0.957766 -2.746780 -0.090302 0.165424 -0.223746 0.095945
    20 -0.033420 -1.393223 -0.022976 -0.619141 0.008353 -0.030322
    21 -0.022360 -0.957436 0.007065 -0.441090 0.007622 -0.020949
    22 -1.180681 -2.507217 -0.193859 -0.078589 0.198780 -0.051661
    23 -0.024967 -1.127840 0.017597 -1.331203 -0.004099 -0.055560
    24 -0.020057 -0.902687 0.049154 -1.514903 -0.007634 -0.060187
    25 0.606948 -1.197277 0.185379 0.455111 -0.925238 -0.684422
    26 1.426549 -0.267106 0.087043 0.093188 -0.260641 -1.002715
    27 1.053895 -0.140009 0.028385 0.033433 -0.179999 -0.730264
    28 0.120153 -0.050270 -0.054489 0.287569 3.110905 1.561085
    29 -3.477898 -6.746931 -7.774958 0.938739 -4.041596 1.539132
    30 0.077412 -8.384010 -0.021084 -0.031699 -0.244196 0.440141
    31 0.447953 -2.798986 -0.200443 -1.223404 -0.150987 0.357291
    32 -0.032909 -1.499736 0.036191 -1.682550 0.022555 -0.034717
    33 -0.027022 -1.127703 -0.020210 -1.224256 0.024233 -0.022076
    34 -0.249534 -2.846964 -0.174213 -0.919524 -0.167550 0.229534
    35 0.043235 -1.656596 0.053042 -1.990981 -0.025053 0.018229
    36 0.031729 -1.141298 0.054932 -1.091808 -0.012110 0.006059
    37 -0.963866 -2.785145 -0.085350 -0.709627 -0.020214 0.038322
    38 0.028479 -1.418692 -0.028886 -1.498275 -0.048777 -0.038411
    39 0.021413 -0.942156 0.008327 -1.125372 -0.032155 -0.036205
    40 1.164475 -2.543940 -0.170330 -1.400985 -0.293602 0.576548
    41 0.024032 -1.148574 -0.009538 -1.327987 0.025096 0.063759
    42 0.014898 -0.899614 -0.015942 -0.966253 0.007562 0.048610
    43 -0.586770 -1.264477 0.200161 -0.213368 -0.653007 -2.515594
    44 1.565805 0.035243 0.016848 -0.017693 -0.006691 0.852145
    45 1.114041 0.044518 -0.005766 -0.027915 -0.034498 1.008552
    46 -0.139399 -0.111698 0.014397 0.286241 -0.054300 1.367747
    47 -1.295811 8.889960 -0.204276 1.570809 -0.000001 -1.570790
  time 2
    0 4.620906 -10.874065 -5.340172 0.016447 0.052639 -0.030519
    1 0.000126 5.380603 2.085688 -1.570793 0.000000 3.141592
    2 -0.000003 8.744292 -22.250452 0.000000 0.000000 0.000000
    3 -0.000003 8.744292 -22.250454 0.000000 0.000000 0.000000
    4 -0.000002 8.744292 -22.250454 0.000000 0.000000 0.000000
    5 -0.003704 -0.088851 0.612631 3.141545 1.172920 1.570792
    6 -0.009867 6.068303 0.294611 0.000000 1.570796 0.000000
    7 0.000027 3.816548 1.626610 -4.712385 -1.134710 0.000096
    8 -0.003843 0.913138 2.654824 -1.570793 -3.141592 1.570796
    9 1.286349 -0.821603 -3.140102 0.000000 0.000000 0.000000
    10 7.239728 2.727975 -3.190485 6.099786 -2.023426 -0.132418
    11 5.323710 8.371948 -0.329500 1.544006 -3.128263 1.080090
    12 0.010113 -8.498736 -0.068977 0.145118 0.671498 0.234139
    13 -0.488518 -2.755602 -0.228260 -0.244746 -0.005464 -0.145879
    14 0.039887 -1.546198 0.025948 -1.950276 -0.005165 0.043253
    15 0.028786 -1.173390 -0.128581 -1.116701 -0.015172 0.024089
    16 0.250027 -2.820665 -0.238396 -0.156638 -0.100116 -0.057748
    17 -0.049759 -1.594604 0.022352 -1.692623 -0.002732 -0.044381
    18 -0.034142 -1.179563 0.045718 -1.331115 0.004566 -0.035115
    19 0.957766 -2.746780 -0.090302 0.165424 -0.223746 0.095945
    20 -0.033420 -1.393223 -0.022976 -0.643859 0.008281 -0.031568
    21 -0.022360 -0.957436 0.007065 -0.447944 0.007658 -0.021297
    22 -1.180681 -2.507217 -0.193859 -0.078589 0.198780 -0.051661
    23 -0.024967 -1.127840 0.017597 -1.331203 -0.004099 -0.055560
    24 -0.020057 -0.902687 0.049154 -1.514903 -0.007634 -0.060187
    25 0.606948 -1.197277 0.185379 0.455111 -0.925238 -0.684422
    26 1.426549 -0.267106 0.087043 0.093188 -0.260641 -1.002715
    27 1.053895 -0.140009 0.028385 0.033433 -0.179999 -0.730264
    28 0.120153 -0.050270 -0.054489 0.287569 3.110905 1.561085
    29 -3.481804 -6.735212 -7.786677 0.935001 -4.045669 1.536464
    30 0.081319 -8.387917 -0.021084 -0.017021 -0.247935 0.404771
    31 0.447953 -2.798986 -0.200443 -1.223404 -0.150987 0.357291
    32 -0.032909 -1.499736 0.036191 -1.682550 0.022555 -0.034717
    33 -0.027022 -1.127703 -0.020210 -1.224256 0.024233 -0.022076
    34 -0.249534 -2.846964 -0.174213 -0.919524 -0.167550 0.229534
    35 0.043235 -1.656596 0.053042 -1.990981 -0.025053 0.018229
    36 0.031729 -1.141298 0.054932 -1.091808 -0.012110 0.006059
    37 -0.963866 -2.785145 -0.085350 -0.709627 -0.020214 0.038322
    38 0.028479 -1.418692 -0.028886 -1.498275 -0.048777 -0.038411
    39 0.021413 -0.942156 0.008327 -1.125372 -0.032155 -0.036205
    40 1.164475 -2.543940 -0.170330 -1.400985 -0.293602 0.576548
    41 0.024032 -1.148574 -0.009538 -1.327987 0.025096 0.063759
    42 0.014898 -0.899614 -0.015942 -0.966253 0.007562 0.048610
    43 -0.586770 -1.264477 0.200161 -0.213368 -0.653007 -2.515594
    44 1.565805 0.035243 0.016848 -0.017693 -0.006691 0.852145
    45 1.114041 0.044518 -0.005766 -0.027915 -0.034498 1.008552
    46 -0.139399 -0.111698 0.014397 0.286241 -0.054300 1.367747
    47 -1.295811 8.889960 -0.204276 1.570809 -0.000001 -1.570790
  time 3
    0 4.601374 -10.936567 -5.394861 -0.009234 0.028315 -0.030568
    1 0.000126 5.380603 2.085688 -1.570793 0.000000 3.141592
    2 -0.000003 8.744292 -22.250452 0.000000 0.000000 0.000000
    3 -0.000003 8.744292 -22.250454 0.000000 0.000000 0.000000
    4 -0.000002 8.744292 -22.250454 0.000000 0.000000 0.000000
    5 -0.003704 -0.088851 0.612631 3.141545 1.172920 1.570792
    6 -0.009867 6.068303 0.294611 0.000000 1.570796 0.000000
    7 0.000027 3.816548 1.626610 -4.712385 -0.829408 0.000096
    8 -0.003843 0.913138 2.654824 -1.570793 -3.141592 1.570796
    9 1.286349 -0.821603 -3.140102 0.000000 0.000000 0.000000
    10 7.313949 2.602971 -3.198298 6.071414 -2.040326 -0.115589
    11 5.097141 8.528203 -0.321687 1.544198 -3.128838 1.109386
    12 0.010113 -8.506549 -0.068977 0.170477 0.650844 0.275167
    13 -0.488518 -2.755602 -0.228260 -0.244746 -0.005464 -0.145879
    14 0.039887 -1.546198 0.025948 -1.950276 -0.005165 0.043253
    15 0.028786 -1.173390 -0.128581 -1.116701 -0.015172 0.024089
    16 0.250027 -2.820665 -0.238396 -0.156638 -0.100116 -0.057748
    17 -0.049759 -1.594604 0.022352 -1.692623 -0.002732 -0.044381
    18 -0.034142 -1.179563 0.045718 -1.331115 0.004566 -0.035115
    19 0.957766 -2.746780 -0.090302 0.165424 -0.223746 0.095945
    20 -0.033420 -1.393223 -0.022976 -0.649030 0.008257 -0.031832
    21 -0.022360 -0.957436 0.007065 -0.448925 0.007670 -0.021345
    22 -1.180681 -2.507217 -0.193859 -0.078589 0.198780 -0.051661
    23 -0.024967 -1.127840 0.017597 -1.331203 -0.004099 -0.055560
    24 -0.020057 -0.902687 0.049154 -1.514903 -0.007634 -0.060187
    25 0.606948 -1.197277 0.185379 0.455111 -0.925238 -0.684422
    26 1.426549 -0.267106 0.087043 0.093188 -0.260641 -1.002715
    27 1.053895 -0.140009 0.028385 0.033433 -0.179999 -0.730264
    28 0.120153 -0.050270 -0.054489 0.287569 3.110905 1.561085
    29 -3.458366 -6.774276 -7.767145 0.927871 -4.052778 1.525983
    30 0.085225 -8.399636 -0.017178 -0.005010 -0.254501 0.359922
    31 0.447953 -2.798986 -0.200443 -1.223404 -0.150987 0.357291
    32 -0.032909 -1.499736 0.036191 -1.682550 0.022555 -0.034717
    33 -0.027022 -1.127703 -0.020210 -1.224256 0.024233 -0.022076
    34 -0.249534 -2.846964 -0.174213 -0.919524 -0.167550 0.229534
    35 0.043235 -1.656596 0.053042 -1.990981 -0.025053 0.018229
    36 0.031729 -1.141298 0.054932 -1.091808 -0.012110 0.006059
    37 -0.963866 -2.785145 -0.085350 -0.709627 -0.020214 0.038322
    38 0.028479 -1.418692 -0.028886 -1.498275 -0.048777 -0.038411
    39 0.021413 -0.942156 0.008327 -1.125372 -0.032155 -0.036205
    40 1.164475 -2.543940 -0.170330 -1.400985 -0.293602 0.576548
    41 0.024032 -1.148574 -0.009538 -1.327987 0.025096 0.063759
    42 0.014898 -0.899614 -0.015942 -0.966253 0.007562 0.048610
    43 -0.586770 -1.264477 0.200161 -0.213368 -0.653007 -2.515594
    44 1.565805 0.035243 0.016848 -0.017693 -0.006691 0.852145
    45 1.114041 0.044518 -0.005766 -0.027915 -0.034498 1.008552
    46 -0.139399 -0.111698 0.014397 0.286241 -0.054300 1.367747
    47 -1.295811 8.889960 -0.204276 1.570809 -0.000001 -1.570790
  time 4
    0 4.570123 -11.116260 -5.406580 -0.025751 0.006767 -0.028699
    1 0.000126 5.380603 2.085688 -1.570793 0.000000 3.141592
    2 -0.000003 8.744292 -22.250452 0.000000 0.000000 0.000000
    3 -0.000003 8.744292 -22.250454 0.000000 0.000000 0.000000
    4 -0.000002 8.744292 -22.250454 0.000000 0.000000 0.000000
    5 -0.003704 -0.088851 0.612631 3.141545 1.172920 1.570792
    6 -0.009867 6.068303 0.294611 0.000000 1.570796 0.000000
    7 0.000027 3.816548 1.626610 -4.712385 -0.524153 0.000096
    8 -0.003843 0.913138 2.654824 -1.570793 -3.141592 1.570796
    9 1.286349 -0.821603 -3.140102 0.000000 0.000000 0.000000
    10 7.345200 2.384214 -3.241268 6.072564 -2.052417 -0.122282
    11 4.811976 8.711802 -0.313874 1.544389 -3.129605 1.145793
    12 0.006206 -8.510455 -0.068977 0.182178 0.635154 0.288590
    13 -0.488518 -2.755602 -0.228260 -0.244746 -0.005464 -0.145879
    14 0.039887 -1.546198 0.025948 -1.950276 -0.005165 0.043253
    15 0.028786 -1.173390 -0.128581 -1.116701 -0.015172 0.024089
    16 0.250027 -2.820665 -0.238396 -0.156638 -0.100116 -0.057748
    17 -0.049759 -1.594604 0.022352 -1.692623 -0.002732 -0.044381
    18 -0.034142 -1.179563 0.045718 -1.331115 0.004566 -0.035115
    19 0.957766 -2.746780 -0.090302 0.165424 -0.223746 0.095945
    20 -0.033420 -1.393223 -0.022976 -0.646698 0.008269 -0.031712
    21 -0.022360 -0.957436 0.007065 -0.447709 0.007658 -0.021285
    22 -1.180681 -2.507217 -0.193859 -0.078589 0.198780 -0.051661
    23 -0.024967 -1.127840 0.017597 -1.331203 -0.004099 -0.055560
    24 -0.020057 -0.902687 0.049154 -1.514903 -0.007634 -0.060187
    25 0.606948 -1.197277 0.185379 0.455111 -0.925238 -0.684422
    26 1.426549 -0.267106 0.087043 0.093188 -0.260641 -1.002715
    27 1.053895 -0.140009 0.028385 0.033433 -0.179999 -0.730264
    28 0.120153 -0.050270 -0.054489 0.287569 3.110905 1.561085
    29 -3.407583 -6.883654 -7.708550 0.918179 -4.061407 1.505782
    30 0.089131 -8.403542 -0.017178 -0.003225 -0.265589 0.321070
    31 0.447953 -2.798986 -0.200443 -1.223404 -0.150987 0.357291
    32 -0.032909 -1.499736 0.036191 -1.682550 0.022555 -0.034717
    33 -0.027022 -1.127703 -0.020210 -1.224256 0.024233 -0.022076
    34 -0.249534 -2.846964 -0.174213 -0.919524 -0.167550 0.229534
    35 0.043235 -1.656596 0.053042 -1.990981 -0.025053 0.018229
    36 0.031729 -1.141298 0.054932 -1.091808 -0.012110 0.006059
    37 -0.963866 -2.785145 -0.085350 -0.709627 -0.020214 0.038322
    38 0.028479 -1.418692 -0.028886 -1.498275 -0.048777 -0.038411
    39 0.021413 -0.942156 0.008327 -1.125372 -0.032155 -0.036205
    40 1.164475 -2.543940 -0.170330 -1.400985 -0.293602 0.576548
    41 0.024032 -1.148574 -0.009538 -1.327987 0.025096 0.063759
    42 0.014898 -0.899614 -0.015942 -0.966253 0.007562 0.048610
    43 -0.586770 -1.264477 0.200161 -0.213368 -0.653007 -2.515594
    44 1.565805 0.035243 0.016848 -0.017693 -0.006691 0.852145
    45 1.114041 0.044518 -0.005766 -0.027915 -0.034498 1.008552
    46 -0.139399 -0.111698 0.014397 0.286241 -0.054300 1.367747
    47 -1.295811 8.889960 -0.204276 1.570809 -0.000001 -1.570790
  time 5
    0 4.515434 -11.475646 -5.359704 -0.029375 -0.012443 -0.025353
    1 0.000126 5.380603 2.085688 -1.570793 0.000000 3.141592
    2 -0.000003 8.744292 -22.250452 0.000000 0.000000 0.000000
    3 -0.000003 8.744292 -22.250454 0.000000 0.000000 0.000000
    4 -0.000002 8.744292 -22.250454 0.000000 0.000000 0.000000
    5 -0.003704 -0.088851 0.612631 3.141545 1.172920 1.570792
    6 -0.009867 6.068303 0.294611 0.000000 1.570796 0.000000
    7 0.000027 3.816548 1.626610 -4.712385 -0.218851 0.000096
    8 -0.003843 0.913138 2.654824 -1.570793 -3.141592 1.570796
    9 1.286349 -0.821603 -3.140102 0.000000 0.000000 0.000000
    10 7.310042 2.032641 -3.327208 6.111768 -2.057152 -0.157853
    11 4.421339 8.930559 -0.306061 1.544772 -3.130563 1.193861
    12 0.002300 -8.506549 -0.068977 0.173565 0.625355 0.264141
    13 -0.488518 -2.755602 -0.228260 -0.244746 -0.005464 -0.145879
    14 0.039887 -1.546198 0.025948 -1.950276 -0.005165 0.043253
    15 0.028786 -1.173390 -0.128581 -1.116701 -0.015172 0.024089
    16 0.250027 -2.820665 -0.238396 -0.156638 -0.100116 -0.057748
    17 -0.049759 -1.594604 0.022352 -1.692623 -0.002732 -0.044381
    18 -0.034142 -1.179563 0.045718 -1.331115 0.004566 -0.035115
    19 0.957766 -2.746780 -0.090302 0.165424 -0.223746 0.095945
    20 -0.033420 -1.393223 -0.022976 -0.643859 0.008281 -0.031568
    21 -0.022360 -0.957436 0.007065 -0.446217 0.007646 -0.021201
    22 -1.180681 -2.507217 -0.193859 -0.078589 0.198780 -0.051661
    23 -0.024967 -1.127840 0.017597 -1.331203 -0.004099 -0.055560
    24 -0.020057 -0.902687 0.049154 -1.514903 -0.007634 -0.060187
    25 0.606948 -1.197277 0.185379 0.455111 -0.925238 -0.684422
    26 1.426549 -0.267106 0.087043 0.093188 -0.260641 -1.002715
    27 1.053895 -0.140009 0.028385 0.033433 -0.179999 -0.730264
    28 0.120153 -0.050270 -0.054489 0.287569 3.110905 1.561085
    29 -3.325550 -7.094598 -7.579640 0.903642 -4.073348 1.470432
    30 0.089131 -8.407448 -0.013271 -0.014776 -0.284958 0.289035
    31 0.447953 -2.798986 -0.200443 -1.223404 -0.150987 0.357291
    32 -0.032909 -1.499736 0.036191 -1.682550 0.022555 -0.034717
    33 -0.027022 -1.127703 -0.020210 -1.224256 0.024233 -0.022076
    34 -0.249534 -2.846964 -0.174213 -0.919524 -0.167550 0.229534
    35 0.043235 -1.656596 0.053042 -1.990981 -0.025053 0.018229
    36 0.031729 -1.141298 0.054932 -1.091808 -0.012110 0.006059
    37 -0.963866 -2.785145 -0.085350 -0.709627 -0.020214 0.038322
    38 0.028479 -1.418692 -0.028886 -1.498275 -0.048777 -0.038411
    39 0.021413 -0.942156 0.008327 -1.125372 -0.032155 -0.036205
    40 1.164475 -2.543940 -0.170330 -1.400985 -0.293602 0.576548
    41 0.024032 -1.148574 -0.009538 -1.327987 0.025096 0.063759
    42 0.014898 -0.899614 -0.015942 -0.966253 0.007562 0.048610
    43 -0.586770 -1.264477 0.200161 -0.213368 -0.653007 -2.515594
    44 1.565805 0.035243 0.016848 -0.017693 -0.006691 0.852145
    45 1.114041 0.044518 -0.005766 -0.027915 -0.034498 1.008552
    46 -0.139399 -0.111698 0.014397 0.286241 -0.054300 1.367747
    47 -1.295811 8.889960 -0.204276 1.570809 -0.000001 -1.570790
  time 6
    0 4.445120 -11.952223 -5.277670 -0.026657 -0.031621 -0.020974
    1 0.000126 5.380603 2.085688 -1.570793 0.000000 3.141592
    2 -0.000003 8.744292 -22.250452 0.000000 0.000000 0.000000
    3 -0.000003 8.744292 -22.250454 0.000000 0.000000 0.000000
    4 -0.000002 8.744292 -22.250454 0.000000 0.000000 0.000000
    5 -0.003704 -0.088851 0.612631 3.141545 1.172920 1.570792
    6 -0.009867 6.068303 0.294611 0.000000 1.570796 0.000000
    7 0.000027 3.816548 1.626610 -4.712385 0.086404 0.000096
    8 -0.003843 0.913138 2.654824 -1.570793 -3.141592 1.570796
    9 1.286349 -0.821603 -3.140102 0.000000 0.000000 0.000000
    10 7.228009 1.583409 -3.417055 6.166212 -2.058973 -0.203559
    11 3.917417 9.188379 -0.294342 1.545251 -3.131809 1.254066
    12 -0.001606 -8.502643 -0.068977 0.154426 0.616421 0.222434
    13 -0.488518 -2.755602 -0.228260 -0.244746 -0.005464 -0.145879
    14 0.039887 -1.546198 0.025948 -1.950276 -0.005165 0.043253
    15 0.028786 -1.173390 -0.128581 -1.116701 -0.015172 0.024089
    16 0.250027 -2.820665 -0.238396 -0.156638 -0.100116 -0.057748
    17 -0.049759 -1.594604 0.022352 -1.692623 -0.002732 -0.044381
    18 -0.034142 -1.179563 0.045718 -1.331115 0.004566 -0.035115
    19 0.957766 -2.746780 -0.090302 0.165424 -0.223746 0.095945
    20 -0.033420 -1.393223 -0.022976 -0.637735 0.008293 -0.031257
    21 -0.022360 -0.957436 0.007065 -0.443619 0.007634 -0.021069
    22 -1.180681 -2.507217 -0.193859 -0.078589 0.198780 -0.051661
    23 -0.024967 -1.127840 0.017597 -1.331203 -0.004099 -0.055560
    24 -0.020057 -0.902687 0.049154 -1.514903 -0.007634 -0.060187
    25 0.606948 -1.197277 0.185379 0.455111 -0.925238 -0.684422
    26 1.426549 -0.267106 0.087043 0.093188 -0.260641 -1.002715
    27 1.053895 -0.140009 0.028385 0.033433 -0.179999 -0.730264
    28 0.120153 -0.050270 -0.054489 0.287569 3.110905 1.561085
    29 -3.223984 -7.371950 -7.392134 0.882875 -4.089431 1.423457
    30 0.085225 -8.411355 -0.009365 -0.032428 -0.309579 0.256766
    31 0.447953 -2.798986 -0.200443 -1.223404 -0.150987 0.357291
    32 -0.032909 -1.499736 0.036191 -1.682550 0.022555 -0.034717
    33 -0.027022 -1.127703 -0.020210 -1.224256 0.024233 -0.022076
    34 -0.249534 -2.846964 -0.174213 -0.919524 -0.167550 0.229534
    35 0.043235 -1.656596 0.053042 -1.990981 -0.025053 0.018229
    36 0.031729 -1.141298 0.054932 -1.091808 -0.012110 0.006059
    37 -0.963866 -2.785145 -0.085350 -0.709627 -0.020214 0.038322
    38 0.028479 -1.418692 -0.028886 -1.498275 -0.048777 -0.038411
    39 0.021413 -0.942156 0.008327 -1.125372 -0.032155 -0.036205
    40 1.164475 -2.543940 -0.170330 -1.400985 -0.293602 0.576548
    41 0.024032 -1.148574 -0.009538 -1.327987 0.025096 0.063759
    42 0.014898 -0.899614 -0.015942 -0.966253 0.007562 0.048610
    43 -0.586770 -1.264477 0.200161 -0.213368 -0.653007 -2.515594
    44 1.565805 0.035243 0.016848 -0.017693 -0.006691 0.852145
    45 1.114041 0.044518 -0.005766 -0.027915 -0.034498 1.008552
    46 -0.139399 -0.111698 0.014397 0.286241 -0.054300 1.367747
    47 -1.295811 8.889960 -0.204276 1.570809 -0.000001 -1.570790
  time 7
    0 4.378711 -12.401456 -5.195636 -0.021326 -0.046277 -0.016594
    1 0.000126 5.380603 2.085688 -1.570793 0.000000 3.141592
    2 -0.000003 8.744292 -22.250452 0.000000 0.000000 0.000000
    3 -0.000003 8.744292 -22.250454 0.000000 0.000000 0.000000
    4 -0.000002 8.744292 -22.250454 0.000000 0.000000 0.000000
    5 -0.003704 -0.088851 0.612631 3.141545 1.172920 1.570792
    6 -0.009867 6.068303 0.294611 0.000000 1.570796 0.000000
    7 0.000027 3.816548 1.626610 -4.712385 0.391705 0.000096
    8 -0.003843 0.913138 2.654824 -1.570793 -3.141592 1.570796
    9 1.286349 -0.821603 -3.140102 0.000000 0.000000 0.000000
    10 7.134256 1.165427 -3.471744 6.212892 -2.059337 -0.240564
    11 3.421309 9.403229 -0.282623 1.545826 -3.132864 1.312279
    12 -0.001606 -8.498736 -0.072883 0.135548 0.608992 0.183724
    13 -0.488518 -2.755602 -0.228260 -0.244746 -0.005464 -0.145879
    14 0.039887 -1.546198 0.025948 -1.950276 -0.005165 0.043253
    15 0.028786 -1.173390 -0.128581 -1.116701 -0.015172 0.024089
    16 0.250027 -2.820665 -0.238396 -0.156638 -0.100116 -0.057748
    17 -0.049759 -1.594604 0.022352 -1.692623 -0.002732 -0.044381
    18 -0.034142 -1.179563 0.045718 -1.331115 0.004566 -0.035115
    19 0.957766 -2.746780 -0.090302 0.165424 -0.223746 0.095945
    20 -0.033420 -1.393223 -0.022976 -0.625508 0.008329 -0.030646
    21 -0.022360 -0.957436 0.007065 -0.439501 0.007610 -0.020865
    22 -1.180681 -2.507217 -0.193859 -0.078589 0.198780 -0.051661
    23 -0.024967 -1.127840 0.017597 -1.331203 -0.004099 -0.055560
    24 -0.020057 -0.902687 0.049154 -1.514903 -0.007634 -0.060187
    25 0.606948 -1.197277 0.185379 0.455111 -0.925238 -0.684422
    26 1.426549 -0.267106 0.087043 0.093188 -0.260641 -1.002715
    27 1.053895 -0.140009 0.028385 0.033433 -0.179999 -0.730264
    28 0.120153 -0.050270 -0.054489 0.287569 3.110905 1.561085
    29 -3.126325 -7.629771 -7.192909 0.859962 -4.106135 1.377244
    30 0.085225 -8.415261 -0.009365 -0.049715 -0.331301 0.229090
    31 0.447953 -2.798986 -0.200443 -1.223404 -0.150987 0.357291
    32 -0.032909 -1.499736 0.036191 -1.682550 0.022555 -0.034717
    33 -0.027022 -1.127703 -0.020210 -1.224256 0.024233 -0.022076
    34 -0.249534 -2.846964 -0.174213 -0.919524 -0.167550 0.229534
    35 0.043235 -1.656596 0.053042 -1.990981 -0.025053 0.018229
    36 0.031729 -1.141298 0.054932 -1.091808 -0.012110 0.006059
    37 -0.963866 -2.785145 -0.085350 -0.709627 -0.020214 0.038322
    38 0.028479 -1.418692 -0.028886 -1.498275 -0.048777 -0.038411
    39 0.021413 -0.942156 0.008327 -1.125372 -0.032155 -0.036205
    40 1.164475 -2.543940 -0.170330 -1.400985 -0.293602 0.576548
    41 0.024032 -1.148574 -0.009538 -1.327987 0.025096 0.063759
    42 0.014898 -0.899614 -0.015942 -0.966253 0.007562 0.048610
    43 -0.586770 -1.264477 0.200161 -0.213368 -0.653007 -2.515594
    44 1.565805 0.035243 0.016848 -0.017693 -0.006691 0.852145
    45 1.114041 0.044518 -0.005766 -0.027915 -0.034498 1.008552
    46 -0.139399 -0.111698 0.014397 0.286241 -0.054300 1.367747
    47 -1.295811 8.889960 -0.204276 1.570809 -0.000001 -1.570790
  time 8
    0 4.347460 -12.678808 -5.152666 -0.017005 -0.051859 -0.012953
    1 0.000126 5.380603 2.085688 -1.570793 0.000000 3.141592
    2 -0.000003 8.744292 -22.250452 0.000000 0.000000 0.000000
    3 -0.000003 8.744292 -22.250454 0.000000 0.000000 0.000000
    4 -0.000002 8.744292 -22.250454 0.000000 0.000000 0.000000
    5 -0.003704 -0.088851 0.612631 3.141545 1.172920 1.570792
    6 -0.009867 6.068303 0.294611 0.000000 1.570796 0.000000
    7 0.000027 3.816548 1.626610 -4.712385 0.697007 0.000096
    8 -0.003843 0.913138 2.654824 -1.570793 -3.141592 1.570796
    9 1.286349 -0.821603 -3.140102 0.000000 0.000000 0.000000
    10 7.067847 0.907607 -3.495182 6.236568 -2.059337 -0.259018
    11 3.089267 9.532139 -0.274810 1.546305 -3.133630 1.350108
    12 -0.005513 -8.498736 -0.072883 0.126849 0.606750 0.163230
    13 -0.488518 -2.755602 -0.228260 -0.244746 -0.005464 -0.145879
    14 0.039887 -1.546198 0.025948 -1.950276 -0.005165 0.043253
    15 0.028786 -1.173390 -0.128581 -1.116701 -0.015172 0.024089
    16 0.250027 -2.820665 -0.238396 -0.156638 -0.100116 -0.057748
    17 -0.049759 -1.594604 0.022352 -1.692623 -0.002732 -0.044381
    18 -0.034142 -1.179563 0.045718 -1.331115 0.004566 -0.035115
    19 0.957766 -2.746780 -0.090302 0.165424 -0.223746 0.095945
    20 -0.033420 -1.393223 -0.019070 -0.604440 0.008377 -0.029579
    21 -0.022360 -0.957436 0.007065 -0.433408 0.007574 -0.020566
    22 -1.180681 -2.507217 -0.193859 -0.078589 0.198780 -0.051661
    23 -0.024967 -1.127840 0.017597 -1.331203 -0.004099 -0.055560
    24 -0.020057 -0.902687 0.049154 -1.514903 -0.007634 -0.060187
    25 0.606948 -1.197277 0.185379 0.455111 -0.925238 -0.684422
    26 1.426549 -0.267106 0.087043 0.093188 -0.260641 -1.002715
    27 1.053895 -0.140009 0.028385 0.033433 -0.179999 -0.730264
    28 0.120153 -0.050270 -0.054489 0.287569 3.110905 1.561085
    29 -3.063823 -7.789932 -7.056186 0.843349 -4.117593 1.346944
    30 0.085225 -8.415261 -0.009365 -0.062033 -0.342335 0.213292
    31 0.447953 -2.798986 -0.200443 -1.223404 -0.150987 0.357291
    32 -0.032909 -1.499736 0.036191 -1.682550 0.022555 -0.034717
    33 -0.027022 -1.127703 -0.020210 -1.224256 0.024233 -0.022076
    34 -0.249534 -2.846964 -0.174213 -0.919524 -0.167550 0.229534
    35 0.043235 -1.656596 0.053042 -1.990981 -0.025053 0.018229
    36 0.031729 -1.141298 0.054932 -1.091808 -0.012110 0.006059
    37 -0.963866 -2.785145 -0.085350 -0.709627 -0.020214 0.038322
    38 0.028479 -1.418692 -0.028886 -1.498275 -0.048777 -0.038411
    39 0.021413 -0.942156 0.008327 -1.125372 -0.032155 -0.036205
    40 1.164475 -2.543940 -0.170330 -1.400985 -0.293602 0.576548
    41 0.024032 -1.148574 -0.009538 -1.327987 0.025096 0.063759
    42 0.014898 -0.899614 -0.015942 -0.966253 0.007562 0.048610
    43 -0.586770 -1.264477 0.200161 -0.213368 -0.653007 -2.515594
    44 1.565805 0.035243 0.016848 -0.017693 -0.006691 0.852145
    45 1.114041 0.044518 -0.005766 -0.027915 -0.034498 1.008552
    46 -0.139399 -0.111698 0.014397 0.286241 -0.054300 1.367747
    47 -1.295811 8.889960 -0.204276 1.570809 -0.000001 -1.570790
  time 9
    0 4.343554 -12.768654 -5.148760 -0.014148 -0.047618 -0.009854
    1 0.000126 5.380603 2.085688 -1.570793 0.000000 3.141592
    2 -0.000003 8.744292 -22.250452 0.000000 0.000000 0.000000
    3 -0.000003 8.744292 -22.250454 0.000000 0.000000 0.000000
    4 -0.000002 8.744292 -22.250454 0.000000 0.000000 0.000000
    5 -0.003704 -0.088851 0.612631 3.110673 1.180752 1.539872
    6 -0.009867 6.068303 0.294611 0.000000 1.570796 0.000000
    7 0.000027 3.816548 1.626610 -4.712385 1.002262 6.283184
    8 -0.003843 0.913138 2.654824 -1.570793 -3.141592 1.570796
    9 1.286349 -0.821603 -3.140102 0.000000 0.000000 0.000000
    10 7.048316 0.821667 -3.499088 6.239827 -2.059629 -0.262461
    11 2.968170 9.571203 -0.274810 1.546401 -3.133822 1.363571
    12 -0.001606 -8.498736 -0.072883 0.130024 0.611618 0.160633
    13 -0.488518 -2.755602 -0.228260 -0.244746 -0.005464 -0.145879
    14 0.039887 -1.546198 0.025948 -1.950276 -0.005165 0.043253
    15 0.028786 -1.173390 -0.128581 -1.116701 -0.015172 0.024089
    16 0.250027 -2.820665 -0.238396 -0.156638 -0.100116 -0.057748
    17 -0.049759 -1.594604 0.022352 -1.692623 -0.002732 -0.044381
    18 -0.034142 -1.179563 0.045718 -1.331115 0.004566 -0.035115
    19 0.957766 -2.746780 -0.090302 0.165424 -0.223746 0.095945
    20 -0.033420 -1.393223 -0.019070 -0.573761 0.008413 -0.028033
    21 -0.022360 -0.957436 0.007065 -0.425297 0.007514 -0.020158
    22 -1.180681 -2.507217 -0.193859 -0.078589 0.198780 -0.051661
    23 -0.024967 -1.127840 0.017597 -1.331203 -0.004099 -0.055560
    24 -0.020057 -0.902687 0.049154 -1.514903 -0.007634 -0.060187
    25 0.606948 -1.197277 0.185379 0.455111 -0.925238 -0.684422
    26 1.426549 -0.267106 0.087043 0.093188 -0.260641 -1.002715
    27 1.053895 -0.140009 0.028385 0.033433 -0.179999 -0.730264
    28 0.120153 -0.050270 -0.054489 0.287569 3.110905 1.561085
    29 -3.040385 -7.844621 -7.005403 0.836703 -4.122080 1.336081
    30 0.085225 -8.415261 -0.009365 -0.070264 -0.341879 0.211449
    31 0.447953 -2.798986 -0.200443 -1.223404 -0.150987 0.357291
    32 -0.032909 -1.499736 0.036191 -1.682550 0.022555 -0.034717
    33 -0.027022 -1.127703 -0.020210 -1.224256 0.024233 -0.022076
    34 -0.249534 -2.846964 -0.174213 -0.919524 -0.167550 0.229534
    35 0.043235 -1.656596 0.053042 -1.990981 -0.025053 0.018229
    36 0.031729 -1.141298 0.054932 -1.091808 -0.012110 0.006059
    37 -0.963866 -2.785145 -0.085350 -0.709627 -0.020214 0.038322
    38 0.028479 -1.418692 -0.028886 -1.498275 -0.048777 -0.038411
    39 0.021413 -0.942156 0.008327 -1.125372 -0.032155 -0.036205
    40 1.164475 -2.543940 -0.170330 -1.400985 -0.293602 0.576548
    41 0.024032 -1.148574 -0.009538 -1.327987 0.025096 0.063759
    42 0.014898 -0.899614 -0.015942 -0.966253 0.007562 0.048610
    43 -0.586770 -1.264477 0.200161 -0.213368 -0.653007 -2.515594
    44 1.565805 0.035243 0.016848 -0.017693 -0.006691 0.852145
    45 1.114041 0.044518 -0.005766 -0.027915 -0.034498 1.008552
    46 -0.139399 -0.111698 0.014397 0.286241 -0.054300 1.367747
    47 -1.295811 8.889960 -0.204276 1.570809 -0.000001 -1.570790
  time 10
    0 4.351367 -12.776467 -5.168292 -0.010942 -0.037577 -0.006704
    1 0.000126 5.380603 2.085688 -1.570793 0.000000 3.141592
    2 -0.000003 8.744292 -22.250452 0.000000 0.000000 0.000000
    3 -0.000003 8.744292 -22.250454 0.000000 0.000000 0.000000
    4 -0.000002 8.744292 -22.250454 0.000000 0.000000 0.000000
    5 -0.003704 -0.088851 0.612631 3.025199 1.202401 1.454398
    6 -0.009867 6.068303 0.294611 0.000000 1.570796 0.000000
    7 0.000027 3.816548 1.626610 -4.712385 1.307564 0.000096
    8 -0.003843 0.913138 2.654824 -1.570793 -3.141592 1.570796
    9 1.286349 -0.821603 -3.140102 0.000000 0.000000 0.000000
    10 7.044409 0.821667 -3.499088 6.235322 -2.059483 -0.260453
    11 2.956451 9.579016 -0.274810 1.546401 -3.133822 1.365277
    12 -0.001606 -8.498736 -0.068977 0.138723 0.621000 0.164987
    13 -0.488518 -2.755602 -0.228260 -0.244746 -0.005464 -0.145879
    14 0.039887 -1.546198 0.025948 -1.950276 -0.005165 0.043253
    15 0.028786 -1.173390 -0.128581 -1.116701 -0.015172 0.024089
    16 0.250027 -2.820665 -0.238396 -0.156638 -0.100116 -0.057748
    17 -0.049759 -1.594604 0.022352 -1.692623 -0.002732 -0.044381
    18 -0.034142 -1.179563 0.045718 -1.331115 0.004566 -0.035115
    19 0.957766 -2.746780 -0.090302 0.165424 -0.223746 0.095945
    20 -0.033420 -1.393223 -0.019070 -0.536553 0.008377 -0.026151
    21 -0.022360 -0.957436 0.007065 -0.415790 0.007442 -0.019679
    22 -1.180681 -2.507217 -0.193859 -0.078589 0.198780 -0.051661
    23 -0.024967 -1.127840 0.017597 -1.331203 -0.004099 -0.055560
    24 -0.020057 -0.902687 0.049154 -1.514903 -0.007634 -0.060187
    25 0.606948 -1.197277 0.185379 0.455111 -0.925238 -0.684422
    26 1.426549 -0.267106 0.087043 0.093188 -0.260641 -1.002715
    27 1.053895 -0.140009 0.028385 0.033433 -0.179999 -0.730264
    28 0.120153 -0.050270 -0.054489 0.287569 3.110905 1.561085
    29 -3.036478 -7.848527 -7.001497 0.835042 -4.123184 1.334461
    30 0.085225 -8.411355 -0.009365 -0.077824 -0.335623 0.217827
    31 0.447953 -2.798986 -0.200443 -1.223404 -0.150987 0.357291
    32 -0.032909 -1.499736 0.036191 -1.682550 0.022555 -0.034717
    33 -0.027022 -1.127703 -0.020210 -1.224256 0.024233 -0.022076
    34 -0.249534 -2.846964 -0.174213 -0.919524 -0.167550 0.229534
    35 0.043235 -1.656596 0.053042 -1.990981 -0.025053 0.018229
    36 0.031729 -1.141298 0.054932 -1.091808 -0.012110 0.006059
    37 -0.963866 -2.785145 -0.085350 -0.709627 -0.020214 0.038322
    38 0.028479 -1.418692 -0.028886 -1.498275 -0.048777 -0.038411
    39 0.021413 -0.942156 0.008327 -1.125372 -0.032155 -0.036205
    40 1.164475 -2.543940 -0.170330 -1.400985 -0.293602 0.576548
    41 0.024032 -1.148574 -0.009538 -1.327987 0.025096 0.063759
    42 0.014898 -0.899614 -0.015942 -0.966253 0.007562 0.048610
    43 -0.586770 -1.264477 0.200161 -0.213368 -0.653007 -2.515594
    44 1.565805 0.035243 0.016848 -0.017693 -0.006691 0.852145
    45 1.114041 0.044518 -0.005766 -0.027915 -0.034498 1.008552
    46 -0.139399 -0.111698 0.014397 0.286241 -0.054300 1.367747
    47 -1.295811 8.889960 -0.204276 1.570809 -0.000001 -1.570790
  time 11
    0 4.370899 -12.729591 -5.199543 -0.007596 -0.024199 -0.003703
    1 0.000126 5.380603 2.085688 -1.570793 0.000000 3.141592
    2 -0.000003 8.744292 -22.250452 0.000000 0.000000 0.000000
    3 -0.000003 8.744292 -22.250454 0.000000 0.000000 0.000000
    4 -0.000002 8.744292 -22.250454 0.000000 0.000000 0.000000
    5 -0.003704 -0.088851 0.612631 2.896149 1.235088 1.325348
    6 -0.009867 6.068303 0.294611 0.000000 1.570796 0.000000
    7 0.000027 3.816548 1.626610 -1.570793 1.528655 3.141592
    8 -0.003843 0.913138 2.654824 -1.570793 -3.141592 1.570796
    9 1.286349 -0.821603 -3.140102 0.000000 0.000000 0.000000
    10 7.056128 0.868543 -3.499088 6.226311 -2.059046 -0.255385
    11 3.011140 9.559484 -0.274810 1.546401 -3.133726 1.358925
    12 0.002300 -8.498736 -0.068977 0.150424 0.632912 0.173576
    13 -0.488518 -2.755602 -0.228260 -0.244746 -0.005464 -0.145879
    14 0.039887 -1.546198 0.025948 -1.950276 -0.005165 0.043253
    15 0.028786 -1.173390 -0.128581 -1.116701 -0.015172 0.024089
    16 0.250027 -2.820665 -0.238396 -0.156638 -0.100116 -0.057748
    17 -0.049759 -1.594604 0.022352 -1.692623 -0.002732 -0.044381
    18 -0.034142 -1.179563 0.045718 -1.331115 0.004566 -0.035115
    19 0.957766 -2.746780 -0.090302 0.165424 -0.223746 0.095945
    20 -0.033420 -1.393223 -0.019070 -0.495836 0.008269 -0.024090
    21 -0.022360 -0.957436 0.010971 -0.405482 0.007359 -0.019163
    22 -1.180681 -2.507217 -0.193859 -0.078589 0.198780 -0.051661
    23 -0.024967 -1.127840 0.017597 -1.331203 -0.004099 -0.055560
    24 -0.020057 -0.902687 0.049154 -1.514903 -0.007634 -0.060187
    25 0.606948 -1.197277 0.185379 0.455111 -0.925238 -0.684422
    26 1.426549 -0.267106 0.087043 0.093188 -0.260641 -1.002715
    27 1.053895 -0.140009 0.028385 0.033433 -0.179999 -0.730264
    28 0.120153 -0.050270 -0.054489 0.287569 3.110905 1.561085
    29 -3.044291 -7.821183 -7.028841 0.837049 -4.121873 1.339226
    30 0.085225 -8.411355 -0.013271 -0.084482 -0.325811 0.229441
    31 0.447953 -2.798986 -0.200443 -1.223404 -0.150987 0.357291
    32 -0.032909 -1.499736 0.036191 -1.682550 0.022555 -0.034717
    33 -0.027022 -1.127703 -0.020210 -1.224256 0.024233 -0.022076
    34 -0.249534 -2.846964 -0.174213 -0.919524 -0.167550 0.229534
    35 0.043235 -1.656596 0.053042 -1.990981 -0.025053 0.018229
    36 0.031729 -1.141298 0.054932 -1.091808 -0.012110 0.006059
    37 -0.963866 -2.785145 -0.085350 -0.709627 -0.020214 0.038322
    38 0.028479 -1.418692 -0.028886 -1.498275 -0.048777 -0.038411
    39 0.021413 -0.942156 0.008327 -1.125372 -0.032155 -0.036205
    40 1.164475 -2.543940 -0.170330 -1.400985 -0.293602 0.576548
    41 0.024032 -1.148574 -0.009538 -1.327987 0.025096 0.063759
    42 0.014898 -0.899614 -0.015942 -0.966253 0.007562 0.048610
    43 -0.586770 -1.264477 0.200161 -0.213368 -0.653007 -2.515594
    44 1.565805 0.035243 0.016848 -0.017693 -0.006691 0.852145
    45 1.114041 0.044518 -0.005766 -0.027915 -0.034498 1.008552
    46 -0.139399 -0.111698 0.014397 0.286241 -0.054300 1.367747
    47 -1.295811 8.889960 -0.204276 1.570809 -0.000001 -1.570790
  time 12
    0 4.398243 -12.659276 -5.226887 -0.004286 -0.009885 -0.000997
    1 0.000126 5.380603 2.085688 -1.570793 0.000000 3.141592
    2 -0.000003 8.744292 -22.250452 0.000000 0.000000 0.000000
    3 -0.000003 8.744292 -22.250454 0.000000 0.000000 0.000000
    4 -0.000002 8.744292 -22.250454 0.000000 0.000000 0.000000
    5 -0.003704 -0.088851 0.612631 2.734310 1.276080 1.163509
    6 -0.009867 6.068303 0.294611 0.000000 1.570796 0.000000
    7 0.000027 3.816548 1.626610 -1.570793 1.223400 3.141592
    8 -0.003843 0.913138 2.654824 -1.570793 -3.141592 1.570796
    9 1.286349 -0.821603 -3.140102 0.000000 0.000000 0.000000
    10 7.071754 0.942764 -3.499088 6.215959 -2.058609 -0.249361
    11 3.100986 9.524327 -0.274810 1.546209 -3.133534 1.348780
    12 0.006206 -8.498736 -0.068977 0.162691 0.645432 0.183644
    13 -0.488518 -2.755602 -0.228260 -0.244746 -0.005464 -0.145879
    14 0.039887 -1.546198 0.025948 -1.950276 -0.005165 0.043253
    15 0.028786 -1.173390 -0.128581 -1.116701 -0.015172 0.024089
    16 0.250027 -2.820665 -0.238396 -0.156638 -0.100116 -0.057748
    17 -0.049759 -1.594604 0.022352 -1.692623 -0.002732 -0.044381
    18 -0.034142 -1.179563 0.045718 -1.331115 0.004566 -0.035115
    19 0.957766 -2.746780 -0.090302 0.165424 -0.223746 0.095945
    20 -0.033420 -1.397129 -0.019070 -0.454572 0.008066 -0.022017
    21 -0.022360 -0.957436 0.010971 -0.394939 0.007275 -0.018636
    22 -1.180681 -2.507217 -0.193859 -0.078589 0.198780 -0.051661
    23 -0.024967 -1.127840 0.017597 -1.331203 -0.004099 -0.055560
    24 -0.020057 -0.902687 0.049154 -1.514903 -0.007634 -0.060187
    25 0.606948 -1.197277 0.185379 0.455111 -0.925238 -0.684422
    26 1.426549 -0.267106 0.087043 0.093188 -0.260641 -1.002715
    27 1.053895 -0.140009 0.028385 0.033433 -0.179999 -0.730264
    28 0.120153 -0.050270 -0.054489 0.287569 3.110905 1.561085
    29 -3.056010 -7.782119 -7.063999 0.840857 -4.119388 1.347134
    30 0.085225 -8.407448 -0.013271 -0.090027 -0.314759 0.243162
    31 0.447953 -2.798986 -0.200443 -1.223404 -0.150987 0.357291
    32 -0.032909 -1.499736 0.036191 -1.682550 0.022555 -0.034717
    33 -0.027022 -1.127703 -0.020210 -1.224256 0.024233 -0.022076
    34 -0.249534 -2.846964 -0.174213 -0.919524 -0.167550 0.229534
    35 0.043235 -1.656596 0.053042 -1.990981 -0.025053 0.018229
    36 0.031729 -1.141298 0.054932 -1.091808 -0.012110 0.006059
    37 -0.963866 -2.785145 -0.085350 -0.709627 -0.020214 0.038322
    38 0.028479 -1.418692 -0.028886 -1.498275 -0.048777 -0.038411
    39 0.021413 -0.942156 0.008327 -1.125372 -0.032155 -0.036205
    40 1.164475 -2.543940 -0.170330 -1.400985 -0.293602 0.576548
    41 0.024032 -1.148574 -0.009538 -1.327987 0.025096 0.063759
    42 0.014898 -0.899614 -0.015942 -0.966253 0.007562 0.048610
    43 -0.586770 -1.264477 0.200161 -0.213368 -0.653007 -2.515594
    44 1.565805 0.035243 0.016848 -0.017693 -0.006691 0.852145
    45 1.114041 0.044518 -0.005766 -0.027915 -0.034498 1.008552
    46 -0.139399 -0.111698 0.014397 0.286241 -0.054300 1.367747
    47 -1.295811 8.889960 -0.204276 1.570809 -0.000001 -1.570790
  time 13
    0 4.425588 -12.588961 -5.250325 -0.001254 0.002838 0.001168
    1 0.000126 5.380603 2.085688 -1.570793 0.000000 3.141592
    2 -0.000003 8.744292 -22.250452 0.000000 0.000000 0.000000
    3 -0.000003 8.744292 -22.250454 0.000000 0.000000 0.000000
    4 -0.000002 8.744292 -22.250454 0.000000 0.000000 0.000000
    5 -0.003704 -0.088851 0.612631 2.550706 1.322585 0.979905
    6 -0.009867 6.068303 0.294611 0.000000 1.570796 0.000000
    7 0.000027 3.816548 1.626610 -1.570793 0.918099 3.141592
    8 -0.003843 0.913138 2.654824 -1.570793 -3.141592 1.570796
    9 1.286349 -0.821603 -3.140102 0.000000 0.000000 0.000000
    10 7.087379 1.013079 -3.495182 6.207812 -2.058245 -0.244293
    11 3.190833 9.493076 -0.278717 1.546114 -3.133343 1.338541
    12 0.010113 -8.502643 -0.068977 0.172826 0.656704 0.192153
    13 -0.488518 -2.755602 -0.228260 -0.244746 -0.005464 -0.145879
    14 0.039887 -1.546198 0.025948 -1.950276 -0.005165 0.043253
    15 0.028786 -1.173390 -0.128581 -1.116701 -0.015172 0.024089
    16 0.250027 -2.820665 -0.238396 -0.156638 -0.100116 -0.057748
    17 -0.049759 -1.594604 0.022352 -1.692623 -0.002732 -0.044381
    18 -0.034142 -1.179563 0.045718 -1.331115 0.004566 -0.035115
    19 0.957766 -2.746780 -0.090302 0.165424 -0.223746 0.095945
    20 -0.033420 -1.397129 -0.015163 -0.415762 0.007802 -0.020075
    21 -0.022360 -0.957436 0.010971 -0.384741 0.007179 -0.018133
    22 -1.180681 -2.507217 -0.193859 -0.078589 0.198780 -0.051661
    23 -0.024967 -1.127840 0.017597 -1.331203 -0.004099 -0.055560
    24 -0.020057 -0.902687 0.049154 -1.514903 -0.007634 -0.060187
    25 0.606948 -1.197277 0.185379 0.455111 -0.925238 -0.684422
    26 1.426549 -0.267106 0.087043 0.093188 -0.260641 -1.002715
    27 1.053895 -0.140009 0.028385 0.033433 -0.179999 -0.730264
    28 0.120153 -0.050270 -0.054489 0.287569 3.110905 1.561085
    29 -3.063823 -7.743055 -7.095250 0.844941 -4.116696 1.355233
    30 0.085225 -8.403542 -0.017178 -0.094363 -0.304728 0.256064
    31 0.447953 -2.798986 -0.200443 -1.223404 -0.150987 0.357291
    32 -0.032909 -1.499736 0.036191 -1.682550 0.022555 -0.034717
    33 -0.027022 -1.127703 -0.020210 -1.224256 0.024233 -0.022076
    34 -0.249534 -2.846964 -0.174213 -0.919524 -0.167550 0.229534
    35 0.043235 -1.656596 0.053042 -1.990981 -0.025053 0.018229
    36 0.031729 -1.141298 0.054932 -1.091808 -0.012110 0.006059
    37 -0.963866 -2.785145 -0.085350 -0.709627 -0.020214 0.038322
    38 0.028479 -1.418692 -0.028886 -1.498275 -0.048777 -0.038411
    39 0.021413 -0.942156 0.008327 -1.125372 -0.032155 -0.036205
    40 1.164475 -2.543940 -0.170330 -1.400985 -0.293602 0.576548
    41 0.024032 -1.148574 -0.009538 -1.327987 0.025096 0.063759
    42 0.014898 -0.899614 -0.015942 -0.966253 0.007562 0.048610
    43 -0.586770 -1.264477 0.200161 -0.213368 -0.653007 -2.515594
    44 1.565805 0.035243 0.016848 -0.017693 -0.006691 0.852145
    45 1.114041 0.044518 -0.005766 -0.027915 -0.034498 1.008552
    46 -0.139399 -0.111698 0.014397 0.286241 -0.054300 1.367747
    47 -1.295811 8.889960 -0.204276 1.570809 -0.000001 -1.570790
  time 14
    0 4.445120 -12.553804 -5.254232 0.001185 0.011601 0.002546
    1 0.000126 5.380603 2.085688 -1.570793 0.000000 3.141592
    2 -0.000003 8.744292 -22.250452 0.000000 0.000000 0.000000
    3 -0.000003 8.744292 -22.250454 0.000000 0.000000 0.000000
    4 -0.000002 8.744292 -22.250454 0.000000 0.000000 0.000000
    5 -0.003704 -0.088851 0.612631 2.356173 1.371858 0.785372
    6 -0.009867 6.068303 0.294611 0.000000 1.570796 0.000000
    7 0.000027 3.816548 1.626610 -1.570793 0.612797 3.141592
    8 -0.003843 0.913138 2.654824 -1.570793 -3.141592 1.570796
    9 1.286349 -0.821603 -3.140102 0.000000 0.000000 0.000000
    10 7.099098 1.056049 -3.491276 6.205320 -2.058172 -0.242954
    11 3.249428 9.473544 -0.278717 1.546018 -3.133247 1.331999
    12 0.010113 -8.502643 -0.068977 0.177959 0.665126 0.195748
    13 -0.488518 -2.755602 -0.228260 -0.244746 -0.005464 -0.145879
    14 0.039887 -1.546198 0.025948 -1.950276 -0.005165 0.043253
    15 0.028786 -1.173390 -0.128581 -1.116701 -0.015172 0.024089
    16 0.250027 -2.820665 -0.238396 -0.156638 -0.100116 -0.057748
    17 -0.049759 -1.594604 0.022352 -1.692623 -0.002732 -0.044381
    18 -0.034142 -1.179563 0.045718 -1.331115 0.004566 -0.035115
    19 0.957766 -2.746780 -0.090302 0.165424 -0.223746 0.095945
    20 -0.033420 -1.397129 -0.015163 -0.382365 0.007502 -0.018421
    21 -0.022360 -0.957436 0.010971 -0.375456 0.007095 -0.017677
    22 -1.180681 -2.507217 -0.193859 -0.078589 0.198780 -0.051661
    23 -0.024967 -1.127840 0.017597 -1.331203 -0.004099 -0.055560
    24 -0.020057 -0.902687 0.049154 -1.514903 -0.007634 -0.060187
    25 0.606948 -1.197277 0.185379 0.455111 -0.925238 -0.684422
    26 1.426549 -0.267106 0.087043 0.093188 -0.260641 -1.002715
    27 1.053895 -0.140009 0.028385 0.033433 -0.179999 -0.730264
    28 0.120153 -0.050270 -0.054489 0.287569 3.110905 1.561085
    29 -3.063823 -7.727430 -7.106969 0.847779 -4.114763 1.360569
    30 0.085225 -8.403542 -0.017178 -0.097587 -0.298071 0.265309
    31 0.447953 -2.798986 -0.200443 -1.223404 -0.150987 0.357291
    32 -0.032909 -1.499736 0.036191 -1.682550 0.022555 -0.034717
    33 -0.027022 -1.127703 -0.020210 -1.224256 0.024233 -0.022076
    34 -0.249534 -2.846964 -0.174213 -0.919524 -0.167550 0.229534
    35 0.043235 -1.656596 0.053042 -1.990981 -0.025053 0.018229
    36 0.031729 -1.141298 0.054932 -1.091808 -0.012110 0.006059
    37 -0.963866 -2.785145 -0.085350 -0.709627 -0.020214 0.038322
    38 0.028479 -1.418692 -0.028886 -1.498275 -0.048777 -0.038411
    39 0.021413 -0.942156 0.008327 -1.125372 -0.032155 -0.036205
    40 1.164475 -2.543940 -0.170330 -1.400985 -0.293602 0.576548
    41 0.024032 -1.148574 -0.009538 -1.327987 0.025096 0.063759
    42 0.014898 -0.899614 -0.015942 -0.966253 0.007562 0.048610
    43 -0.586770 -1.264477 0.200161 -0.213368 -0.653007 -2.515594
    44 1.565805 0.035243 0.016848 -0.017693 -0.006691 0.852145
    45 1.114041 0.044518 -0.005766 -0.027915 -0.034498 1.008552
    46 -0.139399 -0.111698 0.014397 0.286241 -0.054300 1.367747
    47 -1.295811 8.889960 -0.204276 1.570809 -0.000001 -1.570790
  time 15
    0 4.468558 -12.549898 -5.234700 0.003206 0.016403 0.002890
    1 0.000126 5.380603 2.085688 -1.570793 0.000000 3.141592
    2 -0.000003 8.744292 -22.250452 0.000000 0.000000 0.000000
    3 -0.000003 8.744292 -22.250454 0.000000 0.000000 0.000000
    4 -0.000002 8.744292 -22.250454 0.000000 0.000000 0.000000
    5 -0.003704 -0.088851 0.612631 2.161640 1.421143 0.590839
    6 -0.009867 6.068303 0.294611 0.000000 1.570796 0.000000
    7 0.000027 3.816548 1.626610 -1.570793 0.307495 3.141592
    8 -0.003843 0.913138 2.654824 -1.570793 -3.141592 1.570796
    9 1.286349 -0.821603 -3.140102 0.000000 0.000000 0.000000
    10 7.103005 1.067768 -3.487369 6.210112 -2.058536 -0.246205
    11 3.280679 9.457918 -0.278717 1.546018 -3.133151 1.328112
    12 0.014019 -8.502643 -0.068977 0.176958 0.671082 0.193152
    13 -0.488518 -2.755602 -0.228260 -0.244746 -0.005464 -0.145879
    14 0.039887 -1.546198 0.025948 -1.950276 -0.005165 0.043253
    15 0.028786 -1.173390 -0.128581 -1.116701 -0.015172 0.024089
    16 0.250027 -2.820665 -0.238396 -0.156638 -0.100116 -0.057748
    17 -0.049759 -1.594604 0.022352 -1.692623 -0.002732 -0.044381
    18 -0.034142 -1.179563 0.045718 -1.331115 0.004566 -0.035115
    19 0.957766 -2.746780 -0.090302 0.165424 -0.223746 0.095945
    20 -0.033420 -1.397129 -0.015163 -0.352984 0.007203 -0.016959
    21 -0.022360 -0.957436 0.010971 -0.366488 0.007011 -0.017234
    22 -1.180681 -2.507217 -0.193859 -0.078589 0.198780 -0.051661
    23 -0.024967 -1.127840 0.017597 -1.331203 -0.004099 -0.055560
    24 -0.020057 -0.902687 0.049154 -1.514903 -0.007634 -0.060187
    25 0.606948 -1.197277 0.185379 0.455111 -0.925238 -0.684422
    26 1.426549 -0.267106 0.087043 0.093188 -0.260641 -1.002715
    27 1.053895 -0.140009 0.028385 0.033433 -0.179999 -0.730264
    28 0.120153 -0.050270 -0.054489 0.287569 3.110905 1.561085
    29 -3.056010 -7.735242 -7.095250 0.850271 -4.113107 1.364095
    30 0.085225 -8.399636 -0.017178 -0.099505 -0.294661 0.271833
    31 0.447953 -2.798986 -0.200443 -1.223404 -0.150987 0.357291
    32 -0.032909 -1.499736 0.036191 -1.682550 0.022555 -0.034717
    33 -0.027022 -1.127703 -0.020210 -1.224256 0.024233 -0.022076
    34 -0.249534 -2.846964 -0.174213 -0.919524 -0.167550 0.229534
    35 0.043235 -1.656596 0.053042 -1.990981 -0.025053 0.018229
    36 0.031729 -1.141298 0.054932 -1.091808 -0.012110 0.006059
    37 -0.963866 -2.785145 -0.085350 -0.709627 -0.020214 0.038322
    38 0.028479 -1.418692 -0.028886 -1.498275 -0.048777 -0.038411
    39 0.021413 -0.942156 0.008327 -1.125372 -0.032155 -0.036205
    40 1.164475 -2.543940 -0.170330 -1.400985 -0.293602 0.576548
    41 0.024032 -1.148574 -0.009538 -1.327987 0.025096 0.063759
    42 0.014898 -0.899614 -0.015942 -0.966253 0.007562 0.048610
    43 -0.586770 -1.264477 0.200161 -0.213368 -0.653007 -2.515594
    44 1.565805 0.035243 0.016848 -0.017693 -0.006691 0.852145
    45 1.114041 0.044518 -0.005766 -0.027915 -0.034498 1.008552
    46 -0.139399 -0.111698 0.014397 0.286241 -0.054300 1.367747
    47 -1.295811 8.889960 -0.204276 1.570809 -0.000001 -1.570790
  time 16
    0 4.491996 -12.549898 -5.195636 0.004948 0.019241 0.002251
    1 0.000126 5.380603 2.085688 -1.570793 0.000000 3.141592
    2 -0.000003 8.744292 -22.250452 0.000000 0.000000 0.000000
    3 -0.000003 8.744292 -22.250454 0.000000 0.000000 0.000000
    4 -0.000002 8.744292 -22.250454 0.000000 0.000000 0.000000
    5 -0.003704 -0.088851 0.612631 1.978036 1.467648 0.407235
    6 -0.009867 6.068303 0.294611 0.000000 1.570796 0.000000
    7 0.000027 3.816548 1.626610 -1.570793 0.002194 3.141592
    8 -0.003843 0.913138 2.654824 -1.570793 -3.141592 1.570796
    9 1.286349 -0.821603 -3.140102 0.000000 0.000000 0.000000
    10 7.110818 1.071674 -3.479557 6.219410 -2.059192 -0.252325
    11 3.319743 9.442293 -0.278717 1.546018 -3.133055 1.323656
    12 0.014019 -8.498736 -0.065070 0.171695 0.676013 0.186720
    13 -0.488518 -2.755602 -0.228260 -0.244746 -0.005464 -0.145879
    14 0.039887 -1.546198 0.025948 -1.950276 -0.005165 0.043253
    15 0.028786 -1.173390 -0.128581 -1.116701 -0.015172 0.024089
    16 0.250027 -2.820665 -0.238396 -0.156638 -0.100116 -0.057748
    17 -0.049759 -1.594604 0.022352 -1.692623 -0.002721 -0.044381
    18 -0.034142 -1.179563 0.045718 -1.331115 0.004566 -0.035115
    19 0.957766 -2.746780 -0.090302 0.165424 -0.223746 0.095945
    20 -0.033420 -1.397129 -0.015163 -0.324940 0.006879 -0.015581
    21 -0.022360 -0.957436 0.010971 -0.357244 0.006903 -0.016766
    22 -1.180681 -2.507217 -0.193859 -0.078589 0.198780 -0.051661
    23 -0.024967 -1.127840 0.017597 -1.331203 -0.004099 -0.055560
    24 -0.020057 -0.902687 0.049154 -1.514903 -0.007634 -0.060187
    25 0.606948 -1.197277 0.185379 0.455111 -0.925238 -0.684422
    26 1.426549 -0.267106 0.087043 0.093188 -0.260641 -1.002715
    27 1.053895 -0.140009 0.028385 0.033433 -0.179999 -0.730264
    28 0.120153 -0.050270 -0.054489 0.287569 3.110905 1.561085
    29 -3.040385 -7.746962 -7.079624 0.853663 -4.110760 1.368383
    30 0.085225 -8.399636 -0.017178 -0.100119 -0.292654 0.278123
    31 0.447953 -2.798986 -0.200443 -1.223404 -0.150987 0.357291
    32 -0.032909 -1.499736 0.036191 -1.682550 0.022555 -0.034717
    33 -0.027022 -1.127703 -0.020210 -1.224256 0.024233 -0.022076
    34 -0.249534 -2.846964 -0.174213 -0.919524 -0.167550 0.229534
    35 0.043235 -1.656596 0.053042 -1.990981 -0.025053 0.018229
    36 0.031729 -1.141298 0.054932 -1.091808 -0.012110 0.006059
    37 -0.963866 -2.785145 -0.085350 -0.709627 -0.020214 0.038322
    38 0.028479 -1.418692 -0.028886 -1.498275 -0.048777 -0.038411
    39 0.021413 -0.942156 0.008327 -1.125372 -0.032155 -0.036205
    40 1.164475 -2.543940 -0.170330 -1.400985 -0.293602 0.576548
    41 0.024032 -1.148574 -0.009538 -1.327987 0.025096 0.063759
    42 0.014898 -0.899614 -0.015942 -0.966253 0.007562 0.048610
    43 -0.586770 -1.264477 0.200161 -0.213368 -0.653007 -2.515594
    44 1.565805 0.035243 0.016848 -0.017693 -0.006691 0.852145
    45 1.114041 0.044518 -0.005766 -0.027915 -0.034498 1.008552
    46 -0.139399 -0.111698 0.014397 0.286241 -0.054300 1.367747
    47 -1.295811 8.889960 -0.204276 1.570809 -0.000001 -1.570790
  time 17
    0 4.515434 -12.549898 -5.148760 0.006342 0.020550 0.001070
    1 0.000126 5.380603 2.085688 -1.570793 0.000000 3.141592
    2 -0.000003 8.744292 -22.250452 0.000000 0.000000 0.000000
    3 -0.000003 8.744292 -22.250454 0.000000 0.000000 0.000000
    4 -0.000002 8.744292 -22.250454 0.000000 0.000000 0.000000
    5 -0.003704 -0.088851 0.612631 1.816197 1.508640 0.245396
    6 -0.009867 6.068303 0.294611 0.000000 1.570796 0.000000
    7 0.000027 3.816548 1.626610 -1.570793 -0.303015 3.141592
    8 -0.003843 0.913138 2.654824 -1.570793 -3.141592 1.570796
    9 1.286349 -0.821603 -3.140102 0.000000 0.000000 0.000000
    10 7.114724 1.075581 -3.475650 6.231008 -2.060066 -0.259783
    11 3.358807 9.426667 -0.282623 1.545922 -3.132959 1.319105
    12 0.014019 -8.498736 -0.065070 0.163952 0.679920 0.178211
    13 -0.488518 -2.755602 -0.228260 -0.244746 -0.005464 -0.145879
    14 0.039887 -1.546198 0.025948 -1.950276 -0.005165 0.043253
    15 0.028786 -1.173390 -0.128581 -1.116701 -0.015172 0.024089
    16 0.250027 -2.820665 -0.238396 -0.156638 -0.100116 -0.057748
    17 -0.049759 -1.594604 0.022352 -1.692623 -0.002732 -0.044381
    18 -0.034142 -1.179563 0.045718 -1.331115 0.004566 -0.035115
    19 0.957766 -2.746780 -0.090302 0.165424 -0.223746 0.095945
    20 -0.033420 -1.397129 -0.015163 -0.299330 0.006544 -0.014335
    21 -0.022360 -0.957436 0.010971 -0.348345 0.006807 -0.016335
    22 -1.180681 -2.507217 -0.193859 -0.078589 0.198780 -0.051661
    23 -0.024967 -1.127840 0.017597 -1.331203 -0.004099 -0.055560
    24 -0.020057 -0.902687 0.049154 -1.514903 -0.007634 -0.060187
    25 0.606948 -1.197277 0.185379 0.455111 -0.925238 -0.684422
    26 1.426549 -0.267106 0.087043 0.093188 -0.260641 -1.002715
    27 1.053895 -0.140009 0.028385 0.033433 -0.179999 -0.730264
    28 0.120153 -0.050270 -0.054489 0.287569 3.110905 1.561085
    29 -3.020853 -7.762587 -7.060092 0.857332 -4.108206 1.372861
    30 0.085225 -8.399636 -0.017178 -0.099755 -0.291743 0.283769
    31 0.447953 -2.798986 -0.200443 -1.223404 -0.150987 0.357291
    32 -0.032909 -1.499736 0.036191 -1.682550 0.022555 -0.034717
    33 -0.027022 -1.127703 -0.020210 -1.224256 0.024233 -0.022076
    34 -0.249534 -2.846964 -0.174213 -0.919524 -0.167550 0.229534
    35 0.043235 -1.656596 0.053042 -1.990981 -0.025053 0.018229
    36 0.031729 -1.141298 0.054932 -1.091808 -0.012110 0.006059
    37 -0.963866 -2.785145 -0.085350 -0.709627 -0.020214 0.038322
    38 0.028479 -1.418692 -0.028886 -1.498275 -0.048777 -0.038411
    39 0.021413 -0.942156 0.008327 -1.125372 -0.032155 -0.036205
    40 1.164475 -2.543940 -0.170330 -1.400985 -0.293602 0.576548
    41 0.024032 -1.148574 -0.009538 -1.327987 0.025096 0.063759
    42 0.014898 -0.899614 -0.015942 -0.966253 0.007562 0.048610
    43 -0.586770 -1.264477 0.200161 -0.213368 -0.653007 -2.515594
    44 1.565805 0.035243 0.016848 -0.017693 -0.006691 0.852145
    45 1.114041 0.044518 -0.005766 -0.027915 -0.034498 1.008552
    46 -0.139399 -0.111698 0.014397 0.286241 -0.054300 1.367747
    47 -1.295811 8.889960 -0.204276 1.570809 -0.000001 -1.570790
  time 18
    0 4.538872 -12.557710 -5.105790 0.007387 0.020738 -0.000308
    1 0.000126 5.380603 2.085688 -1.570793 0.000000 3.141592
    2 -0.000003 8.744292 -22.250452 0.000000 0.000000 0.000000
    3 -0.000003 8.744292 -22.250454 0.000000 0.000000 0.000000
    4 -0.000002 8.744292 -22.250454 0.000000 0.000000 0.000000
    5 -0.003704 -0.088851 0.612631 1.687147 1.541327 0.116346
    6 -0.009867 6.068303 0.294611 0.000000 1.570796 0.000000
    7 0.000027 3.816548 1.626610 -1.570793 -0.303015 3.141592
    8 -0.003843 0.913138 2.654824 -1.570793 -3.141592 1.570796
    9 1.286349 -0.821603 -3.140102 0.000000 0.000000 0.000000
    10 7.118630 1.079487 -3.471744 6.242511 -2.061013 -0.266955
    11 3.397870 9.414948 -0.282623 1.545922 -3.132959 1.314933
    12 0.014019 -8.498736 -0.065070 0.155557 0.682642 0.169462
    13 -0.488518 -2.755602 -0.228260 -0.244746 -0.005464 -0.145879
    14 0.039887 -1.546198 0.025948 -1.950276 -0.005165 0.043253
    15 0.028786 -1.173390 -0.128581 -1.116701 -0.015172 0.024089
    16 0.250027 -2.820665 -0.238396 -0.156638 -0.100116 -0.057748
    17 -0.049759 -1.594604 0.022352 -1.692623 -0.002732 -0.044381
    18 -0.034142 -1.179563 0.045718 -1.331115 0.004566 -0.035115
    19 0.957766 -2.746780 -0.090302 0.165424 -0.223746 0.095945
    20 -0.033420 -1.397129 -0.015163 -0.277289 0.006232 -0.013268
    21 -0.022360 -0.957436 0.010971 -0.340413 0.006723 -0.015940
    22 -1.180681 -2.507217 -0.193859 -0.078589 0.198780 -0.051661
    23 -0.024967 -1.127840 0.017597 -1.331203 -0.004099 -0.055560
    24 -0.020057 -0.902687 0.049154 -1.514903 -0.007634 -0.060187
    25 0.606948 -1.197277 0.185379 0.455111 -0.925238 -0.684422
    26 1.426549 -0.267106 0.087043 0.093188 -0.260641 -1.002715
    27 1.053895 -0.140009 0.028385 0.033433 -0.179999 -0.730264
    28 0.120153 -0.050270 -0.054489 0.287569 3.110905 1.561085
    29 -3.005227 -7.778213 -7.036654 0.860793 -4.105790 1.376958
    30 0.085225 -8.399636 -0.017178 -0.098719 -0.291597 0.288304
    31 0.447953 -2.798986 -0.200443 -1.223404 -0.150987 0.357291
    32 -0.032909 -1.499736 0.036191 -1.682550 0.022555 -0.034717
    33 -0.027022 -1.127703 -0.020210 -1.224256 0.024233 -0.022076
    34 -0.249534 -2.846964 -0.174213 -0.919524 -0.167550 0.229534
    35 0.043235 -1.656596 0.053042 -1.990981 -0.025053 0.018229
    36 0.031729 -1.141298 0.054932 -1.091808 -0.012110 0.006059
    37 -0.963866 -2.785145 -0.085350 -0.709627 -0.020214 0.038322
    38 0.028479 -1.418692 -0.028886 -1.498275 -0.048777 -0.038411
    39 0.021413 -0.942156 0.008327 -1.125372 -0.032155 -0.036205
    40 1.164475 -2.543940 -0.170330 -1.400985 -0.293602 0.576548
    41 0.024032 -1.148574 -0.009538 -1.327987 0.025096 0.063759
    42 0.014898 -0.899614 -0.015942 -0.966253 0.007562 0.048610
    43 -0.586770 -1.264477 0.200161 -0.213368 -0.653007 -2.515594
    44 1.565805 0.035243 0.016848 -0.017693 -0.006691 0.852145
    45 1.114041 0.044518 -0.005766 -0.027915 -0.034498 1.008552
    46 -0.139399 -0.111698 0.014397 0.286241 -0.054300 1.367747
    47 -1.295811 8.889960 -0.204276 1.570809 -0.000001 -1.570790
  time 19
    0 4.562311 -12.557710 -5.066726 0.008015 0.020270 -0.001489
    1 0.000126 5.380603 2.085688 -1.570793 0.000000 3.141592
    2 -0.000003 8.744292 -22.250452 0.000000 0.000000 0.000000
    3 -0.000003 8.744292 -22.250454 0.000000 0.000000 0.000000
    4 -0.000002 8.744292 -22.250454 0.000000 0.000000 0.000000
    5 -0.003704 -0.088851 0.612631 1.601673 1.562989 0.030872
    6 -0.009867 6.068303 0.294611 0.000000 1.570796 0.000000
    7 0.000027 3.816548 1.626610 -1.570793 -0.232474 3.141592
    8 -0.003843 0.913138 2.654824 -1.570793 -3.141592 1.570796
    9 1.286349 -0.821603 -3.140102 0.000000 0.000000 0.000000
    10 7.126443 1.083393 -3.463931 6.251712 -2.061887 -0.272309
    11 3.425215 9.403229 -0.282623 1.545826 -3.132864 1.311615
    12 0.014019 -8.498736 -0.065070 0.148336 0.684243 0.162271
    13 -0.488518 -2.755602 -0.228260 -0.244746 -0.005464 -0.145879
    14 0.039887 -1.546198 0.025948 -1.950276 -0.005165 0.043253
    15 0.028786 -1.173390 -0.128581 -1.116701 -0.015172 0.024089
    16 0.250027 -2.820665 -0.238396 -0.156638 -0.100116 -0.057748
    17 -0.049759 -1.594604 0.022352 -1.692623 -0.002732 -0.044381
    18 -0.034142 -1.179563 0.045718 -1.331115 0.004566 -0.035115
    19 0.957766 -2.746780 -0.090302 0.165424 -0.223746 0.095945
    20 -0.033420 -1.397129 -0.015163 -0.259891 0.005980 -0.012429
    21 -0.022360 -0.957436 0.010971 -0.334057 0.006651 -0.015628
    22 -1.180681 -2.507217 -0.193859 -0.078589 0.198780 -0.051661
    23 -0.024967 -1.127840 0.017597 -1.331203 -0.004099 -0.055560
    24 -0.020057 -0.902687 0.049154 -1.514903 -0.007634 -0.060187
    25 0.606948 -1.197277 0.185379 0.455111 -0.925238 -0.684422
    26 1.426549 -0.267106 0.087043 0.093188 -0.260641 -1.002715
    27 1.053895 -0.140009 0.028385 0.033433 -0.179999 -0.730264
    28 0.120153 -0.050270 -0.054489 0.287569 3.110905 1.561085
    29 -2.989602 -7.789932 -7.021029 0.863424 -4.103926 1.380293
    30 0.085225 -8.399636 -0.017178 -0.097356 -0.291907 0.291376
    31 0.447953 -2.798986 -0.200443 -1.223404 -0.150987 0.357291
    32 -0.032909 -1.499736 0.036191 -1.682550 0.022555 -0.034717
    33 -0.027022 -1.127703 -0.020210 -1.224256 0.024233 -0.022076
    34 -0.249534 -2.846964 -0.174213 -0.919524 -0.167550 0.229534
    35 0.043235 -1.656596 0.053042 -1.990981 -0.025053 0.018229
    36 0.031729 -1.141298 0.054932 -1.091808 -0.012110 0.006059
    37 -0.963866 -2.785145 -0.085350 -0.709627 -0.020214 0.038322
    38 0.028479 -1.418692 -0.028886 -1.498275 -0.048777 -0.038411
    39 0.021413 -0.942156 0.008327 -1.125372 -0.032155 -0.036205
    40 1.164475 -2.543940 -0.170330 -1.400985 -0.293602 0.576548
    41 0.024032 -1.148574 -0.009538 -1.327987 0.025096 0.063759
    42 0.014898 -0.899614 -0.015942 -0.966253 0.007562 0.048610
    43 -0.586770 -1.264477 0.200161 -0.213368 -0.653007 -2.515594
    44 1.565805 0.035243 0.016848 -0.017693 -0.006691 0.852145
    45 1.114041 0.044518 -0.005766 -0.027915 -0.034498 1.008552
    46 -0.139399 -0.111698 0.014397 0.286241 -0.054300 1.367747
    47 -1.295811 8.889960 -0.204276 1.570809 -0.000001 -1.570790
  time 20
    0 4.574030 -12.557710 -5.047194 0.008189 0.019521 -0.002079
    1 0.000126 5.380603 2.085688 -1.570793 0.000000 3.141592
    2 -0.000003 8.744292 -22.250452 0.000000 0.000000 0.000000
    3 -0.000003 8.744292 -22.250454 0.000000 0.000000 0.000000
    4 -0.000002 8.744292 -22.250454 0.000000 0.000000 0.000000
    5 -0.003704 -0.088851 0.612631 1.570801 1.570796 0.000000
    6 -0.009867 6.068303 0.294611 0.000000 1.570796 0.000000
    7 0.000027 3.816548 1.626610 -1.570793 -0.161887 3.141592
    8 -0.003843 0.913138 2.654824 -1.570793 -3.141592 1.570796
    9 1.286349 -0.821603 -3.140102 0.000000 0.000000 0.000000
    10 7.130349 1.087300 -3.463931 6.256217 -2.062397 -0.274509
    11 3.444747 9.395416 -0.282623 1.545826 -3.132864 1.309434
    12 0.014019 -8.498736 -0.065070 0.144074 0.684659 0.158516
    13 -0.488518 -2.755602 -0.228260 -0.244746 -0.005464 -0.145879
    14 0.039887 -1.546198 0.025948 -1.950276 -0.005165 0.043253
    15 0.028786 -1.173390 -0.128581 -1.116701 -0.015172 0.024089
    16 0.250027 -2.820665 -0.238396 -0.156638 -0.100116 -0.057748
    17 -0.049759 -1.594604 0.022352 -1.692623 -0.002732 -0.044381
    18 -0.034142 -1.179563 0.045718 -1.331115 0.004566 -0.035115
    19 0.957766 -2.746780 -0.090302 0.165424 -0.223746 0.095945
    20 -0.033420 -1.397129 -0.015163 -0.248252 0.005789 -0.011866
    21 -0.022360 -0.957436 0.010971 -0.329898 0.006604 -0.015424
    22 -1.180681 -2.507217 -0.193859 -0.078589 0.198780 -0.051661
    23 -0.024967 -1.127840 0.017597 -1.331203 -0.004099 -0.055560
    24 -0.020057 -0.902687 0.049154 -1.514903 -0.007634 -0.060187
    25 0.606948 -1.197277 0.185379 0.455111 -0.925238 -0.684422
    26 1.426549 -0.267106 0.087043 0.093188 -0.260641 -1.002715
    27 1.053895 -0.140009 0.028385 0.033433 -0.179999 -0.730264
    28 0.120153 -0.050270 -0.054489 0.287569 3.110905 1.561085
    29 -2.981789 -7.797744 -7.013216 0.864670 -4.103029 1.382485
    30 0.085225 -8.399636 -0.017178 -0.095994 -0.292326 0.292517
    31 0.447953 -2.798986 -0.200443 -1.223404 -0.150987 0.357291
    32 -0.032909 -1.499736 0.036191 -1.682550 0.022555 -0.034717
    33 -0.027022 -1.127703 -0.020210 -1.224256 0.024233 -0.022076
    34 -0.249534 -2.846964 -0.174213 -0.919524 -0.167550 0.229534
    35 0.043235 -1.656596 0.053042 -1.990981 -0.025053 0.018229
    36 0.031729 -1.141298 0.054932 -1.091808 -0.012110 0.006059
    37 -0.963866 -2.785145 -0.085350 -0.709627 -0.020214 0.038322
    38 0.028479 -1.418692 -0.028886 -1.498275 -0.048777 -0.038411
    39 0.021413 -0.942156 0.008327 -1.125372 -0.032155 -0.036205
    40 1.164475 -2.543940 -0.170330 -1.400985 -0.293602 0.576548
    41 0.024032 -1.148574 -0.009538 -1.327987 0.025096 0.063759
    42 0.014898 -0.899614 -0.015942 -0.966253 0.007562 0.048610
    43 -0.586770 -1.264477 0.200161 -0.213368 -0.653007 -2.515594
    44 1.565805 0.035243 0.016848 -0.017693 -0.006691 0.852145
    45 1.114041 0.044518 -0.005766 -0.027915 -0.034498 1.008552
    46 -0.139399 -0.111698 0.014397 0.286241 -0.054300 1.367747
    47 -1.295811 8.889960 -0.204276 1.570809 -0.000001 -1.570790
  time 21
    0 4.585749 -12.549898 -5.047194 0.007910 0.018368 -0.002178
    1 0.000126 5.380603 2.085688 -1.570793 0.000000 3.141592
    2 -0.000003 8.744292 -22.250452 0.000000 0.000000 0.000000
    3 -0.000003 8.744292 -22.250454 0.000000 0.000000 0.000000
    4 -0.000002 8.744292 -22.250454 0.000000 0.000000 0.000000
    5 -0.003704 -0.088851 0.612631 1.570801 1.570796 0.000000
    6 -0.009867 6.068303 0.294611 0.000000 1.570796 0.000000
    7 0.000027 3.816548 1.626610 -1.570793 -0.091300 3.141592
    8 -0.003843 0.913138 2.654824 -1.570793 -3.141592 1.570796
    9 1.286349 -0.821603 -3.140102 0.000000 0.000000 0.000000
    10 7.130349 1.095112 -3.460025 6.256697 -2.062615 -0.273744
    11 3.452559 9.391510 -0.282623 1.545826 -3.132768 1.308297
    12 0.014019 -8.498736 -0.065070 0.142334 0.683890 0.157796
    13 -0.488518 -2.755602 -0.228260 -0.244746 -0.005464 -0.145879
    14 0.039887 -1.546198 0.025948 -1.950276 -0.005165 0.043253
    15 0.028786 -1.173390 -0.128581 -1.116701 -0.015172 0.024089
    16 0.250027 -2.820665 -0.238396 -0.156638 -0.100116 -0.057748
    17 -0.049759 -1.594604 0.022352 -1.692623 -0.002732 -0.044381
    18 -0.034142 -1.179563 0.045718 -1.331115 0.004566 -0.035115
    19 0.957766 -2.746780 -0.090302 0.165424 -0.223746 0.095945
    20 -0.033420 -1.397129 -0.015163 -0.241459 0.005681 -0.011542
    21 -0.022360 -0.957436 0.010971 -0.327590 0.006580 -0.015316
    22 -1.180681 -2.507217 -0.193859 -0.078589 0.198780 -0.051661
    23 -0.024967 -1.127840 0.017597 -1.331203 -0.004099 -0.055560
    24 -0.020057 -0.902687 0.049154 -1.514903 -0.007634 -0.060187
    25 0.606948 -1.197277 0.185379 0.455111 -0.925238 -0.684422
    26 1.426549 -0.267106 0.087043 0.093188 -0.260641 -1.002715
    27 1.053895 -0.140009 0.028385 0.033433 -0.179999 -0.730264
    28 0.120153 -0.050270 -0.054489 0.287569 3.110905 1.561085
    29 -2.973976 -7.797744 -7.009310 0.864670 -4.103029 1.383533
    30 0.085225 -8.399636 -0.017178 -0.094440 -0.292965 0.291873
    31 0.447953 -2.798986 -0.200443 -1.223404 -0.150987 0.357291
    32 -0.032909 -1.499736 0.036191 -1.682550 0.022555 -0.034717
    33 -0.027022 -1.127703 -0.020210 -1.224256 0.024233 -0.022076
    34 -0.249534 -2.846964 -0.174213 -0.919524 -0.167550 0.229534
    35 0.043235 -1.656596 0.053042 -1.990981 -0.025053 0.018229
    36 0.031729 -1.141298 0.054932 -1.091808 -0.012110 0.006059
    37 -0.963866 -2.785145 -0.085350 -0.709627 -0.020214 0.038322
    38 0.028479 -1.418692 -0.028886 -1.498275 -0.048777 -0.038411
    39 0.021413 -0.942156 0.008327 -1.125372 -0.032155 -0.036205
    40 1.164475 -2.543940 -0.170330 -1.400985 -0.293602 0.576548
    41 0.024032 -1.148574 -0.009538 -1.327987 0.025096 0.063759
    42 0.014898 -0.899614 -0.015942 -0.966253 0.007562 0.048610
    43 -0.586770 -1.264477 0.200161 -0.213368 -0.653007 -2.515594
    44 1.565805 0.035243 0.016848 -0.017693 -0.006691 0.852145
    45 1.114041 0.044518 -0.005766 -0.027915 -0.034498 1.008552
    46 -0.139399 -0.111698 0.014397 0.286241 -0.054300 1.367747
    47 -1.295811 8.889960 -0.204276 1.570809 -0.000001 -1.570790
  time 22
    0 4.597468 -12.542085 -5.051101 0.007248 0.016559 -0.002129
    1 0.000126 5.380603 2.085688 -1.570793 0.000000 3.141592
    2 -0.000003 8.744292 -22.250452 0.000000 0.000000 0.000000
    3 -0.000003 8.744292 -22.250454 0.000000 0.000000 0.000000
    4 -0.000002 8.744292 -22.250454 0.000000 0.000000 0.000000
    5 -0.003704 -0.088851 0.612631 1.570801 1.570796 0.000000
    6 -0.009867 6.068303 0.294611 0.000000 1.570796 0.000000
    7 0.000027 3.816548 1.626610 -1.570793 -0.020713 3.141592
    8 -0.003843 0.913138 2.654824 -1.570793 -3.141592 1.570796
    9 1.286349 -0.821603 -3.140102 0.000000 0.000000 0.000000
    10 7.134256 1.102925 -3.460025 6.255355 -2.062761 -0.271449
    11 3.460372 9.387604 -0.282623 1.545826 -3.132768 1.307633
    12 0.014019 -8.498736 -0.068977 0.141333 0.682129 0.158276
    13 -0.488518 -2.755602 -0.228260 -0.244746 -0.005464 -0.145879
    14 0.039887 -1.546198 0.025948 -1.950276 -0.005165 0.043253
    15 0.028786 -1.173390 -0.128581 -1.116701 -0.015172 0.024089
    16 0.250027 -2.820665 -0.238396 -0.156638 -0.100116 -0.057748
    17 -0.049759 -1.594604 0.022352 -1.692623 -0.002732 -0.044381
    18 -0.034142 -1.179563 0.045718 -1.331115 0.004566 -0.035115
    19 0.957766 -2.746780 -0.090302 0.165424 -0.223746 0.095945
    20 -0.033420 -1.397129 -0.015163 -0.237526 0.005621 -0.011350
    21 -0.022360 -0.957436 0.010971 -0.326250 0.006556 -0.015244
    22 -1.180681 -2.507217 -0.193859 -0.078589 0.198780 -0.051661
    23 -0.024967 -1.127840 0.017597 -1.331203 -0.004099 -0.055560
    24 -0.020057 -0.902687 0.049154 -1.514903 -0.007634 -0.060187
    25 0.606948 -1.197277 0.185379 0.455111 -0.925238 -0.684422
    26 1.426549 -0.267106 0.087043 0.093188 -0.260641 -1.002715
    27 1.053895 -0.140009 0.028385 0.033433 -0.179999 -0.730264
    28 0.120153 -0.050270 -0.054489 0.287569 3.110905 1.561085
    29 -2.970070 -7.793838 -7.013216 0.864116 -4.103443 1.384295
    30 0.085225 -8.399636 -0.017178 -0.092425 -0.294022 0.289942
    31 0.447953 -2.798986 -0.200443 -1.223404 -0.150987 0.357291
    32 -0.032909 -1.499736 0.036191 -1.682550 0.022555 -0.034717
    33 -0.027022 -1.127703 -0.020210 -1.224256 0.024233 -0.022076
    34 -0.249534 -2.846964 -0.174213 -0.919524 -0.167550 0.229534
    35 0.043235 -1.656596 0.053042 -1.990981 -0.025053 0.018229
    36 0.031729 -1.141298 0.054932 -1.091808 -0.012110 0.006059
    37 -0.963866 -2.785145 -0.085350 -0.709627 -0.020214 0.038322
    38 0.028479 -1.418692 -0.028886 -1.498275 -0.048777 -0.038411
    39 0.021413 -0.942156 0.008327 -1.125372 -0.032155 -0.036205
    40 1.164475 -2.543940 -0.170330 -1.400985 -0.293602 0.576548
    41 0.024032 -1.148574 -0.009538 -1.327987 0.025096 0.063759
    42 0.014898 -0.899614 -0.015942 -0.966253 0.007562 0.048610
    43 -0.586770 -1.264477 0.200161 -0.213368 -0.653007 -2.515594
    44 1.565805 0.035243 0.016848 -0.017693 -0.006691 0.852145
    45 1.114041 0.044518 -0.005766 -0.027915 -0.034498 1.008552
    46 -0.139399 -0.111698 0.014397 0.286241 -0.054300 1.367747
    47 -1.295811 8.889960 -0.204276 1.570809 -0.000001 -1.570790
  time 23
    0 4.605281 -12.534272 -5.058913 0.006307 0.014220 -0.001932
    1 0.000126 5.380603 2.085688 -1.570793 0.000000 3.141592
    2 -0.000003 8.744292 -22.250452 0.000000 0.000000 0.000000
    3 -0.000003 8.744292 -22.250454 0.000000 0.000000 0.000000
    4 -0.000002 8.744292 -22.250454 0.000000 0.000000 0.000000
    5 -0.003704 -0.088851 0.612631 1.570801 1.570796 0.000000
    6 -0.009867 6.068303 0.294611 0.000000 1.570796 0.000000
    7 0.000027 3.816548 1.626610 -1.570793 0.049827 3.141592
    8 -0.003843 0.913138 2.654824 -1.570793 -3.141592 1.570796
    9 1.286349 -0.821603 -3.140102 0.000000 0.000000 0.000000
    10 7.138162 1.114644 -3.460025 6.252575 -2.062761 -0.268102
    11 3.464279 9.387604 -0.282623 1.545826 -3.132768 1.307254
    12 0.014019 -8.498736 -0.068977 0.140942 0.679632 0.159674
    13 -0.488518 -2.755602 -0.228260 -0.244746 -0.005464 -0.145879
    14 0.039887 -1.546198 0.025948 -1.950276 -0.005165 0.043253
    15 0.028786 -1.173390 -0.128581 -1.116701 -0.015172 0.024089
    16 0.250027 -2.820665 -0.238396 -0.156638 -0.100116 -0.057748
    17 -0.049759 -1.594604 0.022352 -1.692623 -0.002732 -0.044381
    18 -0.034142 -1.179563 0.045718 -1.331115 0.004566 -0.035115
    19 0.957766 -2.746780 -0.090302 0.165424 -0.223746 0.095945
    20 -0.033420 -1.397129 -0.015163 -0.235924 0.005597 -0.011278
    21 -0.022360 -0.957436 0.010971 -0.325711 0.006556 -0.015220
    22 -1.180681 -2.507217 -0.193859 -0.078589 0.198780 -0.051661
    23 -0.024967 -1.127840 0.017597 -1.331203 -0.004099 -0.055560
    24 -0.020057 -0.902687 0.049154 -1.514903 -0.007634 -0.060187
    25 0.606948 -1.197277 0.185379 0.455111 -0.925238 -0.684422
    26 1.426549 -0.267106 0.087043 0.093188 -0.260641 -1.002715
    27 1.053895 -0.140009 0.028385 0.033433 -0.179999 -0.730264
    28 0.120153 -0.050270 -0.054489 0.287569 3.110905 1.561085
    29 -2.970070 -7.786025 -7.017122 0.863147 -4.104133 1.384581
    30 0.085225 -8.399636 -0.017178 -0.090085 -0.295390 0.287075
    31 0.447953 -2.798986 -0.200443 -1.223404 -0.150987 0.357291
    32 -0.032909 -1.499736 0.036191 -1.682550 0.022555 -0.034717
    33 -0.027022 -1.127703 -0.020210 -1.224256 0.024233 -0.022076
    34 -0.249534 -2.846964 -0.174213 -0.919524 -0.167550 0.229534
    35 0.043235 -1.656596 0.053042 -1.990981 -0.025053 0.018229
    36 0.031729 -1.141298 0.054932 -1.091808 -0.012110 0.006059
    37 -0.963866 -2.785145 -0.085350 -0.709627 -0.020214 0.038322
    38 0.028479 -1.418692 -0.028886 -1.498275 -0.048777 -0.038411
    39 0.021413 -0.942156 0.008327 -1.125372 -0.032155 -0.036205
    40 1.164475 -2.543940 -0.170330 -1.400985 -0.293602 0.576548
    41 0.024032 -1.148574 -0.009538 -1.327987 0.025096 0.063759
    42 0.014898 -0.899614 -0.015942 -0.966253 0.007562 0.048610
    43 -0.586770 -1.264477 0.200161 -0.213368 -0.653007 -2.515594
    44 1.565805 0.035243 0.016848 -0.017693 -0.006691 0.852145
    45 1.114041 0.044518 -0.005766 -0.027915 -0.034498 1.008552
    46 -0.139399 -0.111698 0.014397 0.286241 -0.054300 1.367747
    47 -1.295811 8.889960 -0.204276 1.570809 -0.000001 -1.570790
  time 24
    0 4.613093 -12.522553 -5.074539 0.005192 0.011601 -0.001636
    1 0.000126 5.380603 2.085688 -1.570793 0.000000 3.141592
    2 -0.000003 8.744292 -22.250452 0.000000 0.000000 0.000000
    3 -0.000003 8.744292 -22.250454 0.000000 0.000000 0.000000
    4 -0.000002 8.744292 -22.250454 0.000000 0.000000 0.000000
    5 -0.003704 -0.088851 0.612631 1.570801 1.570796 0.000000
    6 -0.009867 6.068303 0.294611 0.000000 1.570796 0.000000
    7 0.000027 3.816548 1.626610 -1.570793 0.049827 3.141592
    8 -0.003843 0.913138 2.654824 -1.570793 -3.141592 1.570796
    9 1.286349 -0.821603 -3.140102 0.000000 0.000000 0.000000
    10 7.142069 1.126363 -3.460025 6.248837 -2.062688 -0.263991
    11 3.464279 9.387604 -0.282623 1.545826 -3.132768 1.307254
    12 0.014019 -8.498736 -0.068977 0.141029 0.676622 0.161791
    13 -0.488518 -2.755602 -0.228260 -0.244746 -0.005464 -0.145879
    14 0.039887 -1.546198 0.025948 -1.950276 -0.005165 0.043253
    15 0.028786 -1.173390 -0.128581 -1.116701 -0.015172 0.024089
    16 0.250027 -2.820665 -0.238396 -0.156638 -0.100116 -0.057748
    17 -0.049759 -1.594604 0.022352 -1.692623 -0.002732 -0.044381
    18 -0.034142 -1.179563 0.045718 -1.331115 0.004566 -0.035115
    19 0.957766 -2.746780 -0.090302 0.165424 -0.223746 0.095945
    20 -0.033420 -1.397129 -0.015163 -0.236187 0.005597 -0.011290
    21 -0.022360 -0.957436 0.010971 -0.325794 0.006556 -0.015220
    22 -1.180681 -2.507217 -0.193859 -0.078589 0.198780 -0.051661
    23 -0.024967 -1.127840 0.017597 -1.331203 -0.004099 -0.055560
    24 -0.020057 -0.902687 0.049154 -1.514903 -0.007634 -0.060187
    25 0.606948 -1.197277 0.185379 0.455111 -0.925238 -0.684422
    26 1.426549 -0.267106 0.087043 0.093188 -0.260641 -1.002715
    27 1.053895 -0.140009 0.028385 0.033433 -0.179999 -0.730264
    28 0.120153 -0.050270 -0.054489 0.287569 3.110905 1.561085
    29 -2.966164 -7.778213 -7.024935 0.861762 -4.105169 1.384676
    30 0.085225 -8.399636 -0.017178 -0.087571 -0.296940 0.283535
    31 0.447953 -2.798986 -0.200443 -1.223404 -0.150987 0.357291
    32 -0.032909 -1.499736 0.036191 -1.682550 0.022555 -0.034717
    33 -0.027022 -1.127703 -0.020210 -1.224256 0.024233 -0.022076
    34 -0.249534 -2.846964 -0.174213 -0.919524 -0.167550 0.229534
    35 0.043235 -1.656596 0.053042 -1.990981 -0.025053 0.018229
    36 0.031729 -1.141298 0.054932 -1.091808 -0.012110 0.006059
    37 -0.963866 -2.785145 -0.085350 -0.709627 -0.020214 0.038322
    38 0.028479 -1.418692 -0.028886 -1.498275 -0.048777 -0.038411
    39 0.021413 -0.942156 0.008327 -1.125372 -0.032155 -0.036205
    40 1.164475 -2.543940 -0.170330 -1.400985 -0.293602 0.576548
    41 0.024032 -1.148574 -0.009538 -1.327987 0.025096 0.063759
    42 0.014898 -0.899614 -0.015942 -0.966253 0.007562 0.048610
    43 -0.586770 -1.264477 0.200161 -0.213368 -0.653007 -2.515594
    44 1.565805 0.035243 0.016848 -0.017693 -0.006691 0.852145
    45 1.114041 0.044518 -0.005766 -0.027915 -0.034498 1.008552
    46 -0.139399 -0.111698 0.014397 0.286241 -0.054300 1.367747
    47 -1.295811 8.889960 -0.204276 1.570809 -0.000001 -1.570790
  time 25
    0 4.617000 -12.514740 -5.090164 0.004007 0.008856 -0.001292
    1 0.000126 5.380603 2.085688 -1.570793 0.000000 3.141592
    2 -0.000003 8.744292 -22.250452 0.000000 0.000000 0.000000
    3 -0.000003 8.744292 -22.250454 0.000000 0.000000 0.000000
    4 -0.000002 8.744292 -22.250454 0.000000 0.000000 0.000000
    5 -0.003704 -0.088851 0.612631 1.570801 1.570796 0.000000
    6 -0.009867 6.068303 0.294611 0.000000 1.570796 0.000000
    7 0.000027 3.816548 1.626610 -1.570793 0.011478 3.141592
    8 -0.003843 0.913138 2.654824 -1.570793 -3.141592 1.570796
    9 1.286349 -0.821603 -3.140102 0.000000 0.000000 0.000000
    10 7.142069 1.134176 -3.460025 6.244523 -2.062615 -0.259496
    11 3.460372 9.387604 -0.282623 1.545826 -3.132768 1.307443
    12 0.014019 -8.498736 -0.068977 0.141464 0.673387 0.164308
    13 -0.488518 -2.755602 -0.228260 -0.244746 -0.005464 -0.145879
    14 0.039887 -1.546198 0.025948 -1.950276 -0.005165 0.043253
    15 0.028786 -1.173390 -0.128581 -1.116701 -0.015172 0.024089
    16 0.250027 -2.820665 -0.238396 -0.156638 -0.100116 -0.057748
    17 -0.049759 -1.594604 0.022352 -1.692623 -0.002732 -0.044381
    18 -0.034142 -1.179563 0.045718 -1.331115 0.004566 -0.035115
    19 0.957766 -2.746780 -0.090302 0.165424 -0.223746 0.095945
    20 -0.033420 -1.397129 -0.015163 -0.237769 0.005621 -0.011362
    21 -0.022360 -0.957436 0.010971 -0.326333 0.006556 -0.015244
    22 -1.180681 -2.507217 -0.193859 -0.078589 0.198780 -0.051661
    23 -0.024967 -1.127840 0.017597 -1.331203 -0.004099 -0.055560
    24 -0.020057 -0.902687 0.049154 -1.514903 -0.007634 -0.060187
    25 0.606948 -1.197277 0.185379 0.455111 -0.925238 -0.684422
    26 1.426549 -0.267106 0.087043 0.093188 -0.260641 -1.002715
    27 1.053895 -0.140009 0.028385 0.033433 -0.179999 -0.730264
    28 0.120153 -0.050270 -0.054489 0.287569 3.110905 1.561085
    29 -2.966164 -7.770400 -7.032748 0.860239 -4.106273 1.384486
    30 0.085225 -8.399636 -0.017178 -0.085019 -0.298527 0.279673
    31 0.447953 -2.798986 -0.200443 -1.223404 -0.150987 0.357291
    32 -0.032909 -1.499736 0.036191 -1.682550 0.022555 -0.034717
    33 -0.027022 -1.127703 -0.020210 -1.224256 0.024233 -0.022076
    34 -0.249534 -2.846964 -0.174213 -0.919524 -0.167550 0.229534
    35 0.043235 -1.656596 0.053042 -1.990981 -0.025053 0.018229
    36 0.031729 -1.141298 0.054932 -1.091808 -0.012110 0.006059
    37 -0.963866 -2.785145 -0.085350 -0.709627 -0.020214 0.038322
    38 0.028479 -1.418692 -0.028886 -1.498275 -0.048777 -0.038411
    39 0.021413 -0.942156 0.008327 -1.125372 -0.032155 -0.036205
    40 1.164475 -2.543940 -0.170330 -1.400985 -0.293602 0.576548
    41 0.024032 -1.148574 -0.009538 -1.327987 0.025096 0.063759
    42 0.014898 -0.899614 -0.015942 -0.966253 0.007562 0.048610
    43 -0.586770 -1.264477 0.200161 -0.213368 -0.653007 -2.515594
    44 1.565805 0.035243 0.016848 -0.017693 -0.006691 0.852145
    45 1.114041 0.044518 -0.005766 -0.027915 -0.034498 1.008552
    46 -0.139399 -0.111698 0.014397 0.286241 -0.054300 1.367747
    47 -1.295811 8.889960 -0.204276 1.570809 -0.000001 -1.570790
  time 26
    0 4.620906 -12.503021 -5.109696 0.002788 0.006174 -0.000948
    1 0.000126 5.380603 2.085688 -1.570793 0.000000 3.141592
    2 -0.000003 8.744292 -22.250452 0.000000 0.000000 0.000000
    3 -0.000003 8.744292 -22.250454 0.000000 0.000000 0.000000
    4 -0.000002 8.744292 -22.250454 0.000000 0.000000 0.000000
    5 -0.003704 -0.088851 0.612631 1.570801 1.570796 0.000000
    6 -0.009867 6.068303 0.294611 0.000000 1.570796 0.000000
    7 0.000027 3.816548 1.626610 -1.570793 -0.026825 3.141592
    8 -0.003843 0.913138 2.654824 -1.570793 -3.141592 1.570796
    9 1.286349 -0.821603 -3.140102 0.000000 0.000000 0.000000
    10 7.145975 1.145895 -3.463931 6.240018 -2.062543 -0.255002
    11 3.460372 9.387604 -0.282623 1.545826 -3.132768 1.307823
    12 0.010113 -8.498736 -0.068977 0.142116 0.670185 0.166985
    13 -0.488518 -2.755602 -0.228260 -0.244746 -0.005464 -0.145879
    14 0.039887 -1.546198 0.025948 -1.950276 -0.005165 0.043253
    15 0.028786 -1.173390 -0.128581 -1.116701 -0.015172 0.024089
    16 0.250027 -2.820665 -0.238396 -0.156638 -0.100116 -0.057748
    17 -0.049759 -1.594604 0.022352 -1.692623 -0.002732 -0.044381
    18 -0.034142 -1.179563 0.045718 -1.331115 0.004566 -0.035115
    19 0.957766 -2.746780 -0.090302 0.165424 -0.223746 0.095945
    20 -0.033420 -1.397129 -0.015163 -0.240202 0.005657 -0.011482
    21 -0.022360 -0.957436 0.010971 -0.327162 0.006568 -0.015292
    22 -1.180681 -2.507217 -0.193859 -0.078589 0.198780 -0.051661
    23 -0.024967 -1.127840 0.017597 -1.331203 -0.004099 -0.055560
    24 -0.020057 -0.902687 0.049154 -1.514903 -0.007634 -0.060187
    25 0.606948 -1.197277 0.185379 0.455111 -0.925238 -0.684422
    26 1.426549 -0.267106 0.087043 0.093188 -0.260641 -1.002715
    27 1.053895 -0.140009 0.028385 0.033433 -0.179999 -0.730264
    28 0.120153 -0.050270 -0.054489 0.287569 3.110905 1.561085
    29 -2.966164 -7.762587 -7.044467 0.858647 -4.107447 1.384200
    30 0.085225 -8.403542 -0.017178 -0.082602 -0.300096 0.275782
    31 0.447953 -2.798986 -0.200443 -1.223404 -0.150987 0.357291
    32 -0.032909 -1.499736 0.036191 -1.682550 0.022555 -0.034717
    33 -0.027022 -1.127703 -0.020210 -1.224256 0.024233 -0.022076
    34 -0.249534 -2.846964 -0.174213 -0.919524 -0.167550 0.229534
    35 0.043235 -1.656596 0.053042 -1.990981 -0.025053 0.018229
    36 0.031729 -1.141298 0.054932 -1.091808 -0.012110 0.006059
    37 -0.963866 -2.785145 -0.085350 -0.709627 -0.020214 0.038322
    38 0.028479 -1.418692 -0.028886 -1.498275 -0.048777 -0.038411
    39 0.021413 -0.942156 0.008327 -1.125372 -0.032155 -0.036205
    40 1.164475 -2.543940 -0.170330 -1.400985 -0.293602 0.576548
    41 0.024032 -1.148574 -0.009538 -1.327987 0.025096 0.063759
    42 0.014898 -0.899614 -0.015942 -0.966253 0.007562 0.048610
    43 -0.586770 -1.264477 0.200161 -0.213368 -0.653007 -2.515594
    44 1.565805 0.035243 0.016848 -0.017693 -0.006691 0.852145
    45 1.114041 0.044518 -0.005766 -0.027915 -0.034498 1.008552
    46 -0.139399 -0.111698 0.014397 0.286241 -0.054300 1.367747
    47 -1.295811 8.889960 -0.204276 1.570809 -0.000001 -1.570790
  time 27
    0 4.624813 -12.495208 -5.125322 0.001707 0.003742 -0.000603
    1 0.000126 5.380603 2.085688 -1.570793 0.000000 3.141592
    2 -0.000003 8.744292 -22.250452 0.000000 0.000000 0.000000
    3 -0.000003 8.744292 -22.250454 0.000000 0.000000 0.000000
    4 -0.000002 8.744292 -22.250454 0.000000 0.000000 0.000000
    5 -0.003704 -0.088851 0.612631 1.570801 1.570796 0.000000
    6 -0.009867 6.068303 0.294611 0.000000 1.570796 0.000000
    7 0.000027 3.816548 1.626610 -1.570793 -0.065174 3.141592
    8 -0.003843 0.913138 2.654824 -1.570793 -3.141592 1.570796
    9 1.286349 -0.821603 -3.140102 0.000000 0.000000 0.000000
    10 7.145975 1.153708 -3.463931 6.235897 -2.062397 -0.250795
    11 3.456466 9.391510 -0.282623 1.545826 -3.132768 1.308202
    12 0.010113 -8.498736 -0.068977 0.142856 0.667239 0.169502
    13 -0.488518 -2.755602 -0.228260 -0.244746 -0.005464 -0.145879
    14 0.039887 -1.546198 0.025948 -1.950276 -0.005165 0.043253
    15 0.028786 -1.173390 -0.128581 -1.116701 -0.015172 0.024089
    16 0.250027 -2.820665 -0.238396 -0.156638 -0.100116 -0.057748
    17 -0.049759 -1.594604 0.022352 -1.692623 -0.002732 -0.044381
    18 -0.034142 -1.179563 0.045718 -1.331115 0.004566 -0.035115
    19 0.957766 -2.746780 -0.090302 0.165424 -0.223746 0.095945
    20 -0.033420 -1.397129 -0.015163 -0.242980 0.005705 -0.011614
    21 -0.022360 -0.957436 0.010971 -0.328102 0.006580 -0.015340
    22 -1.180681 -2.507217 -0.193859 -0.078589 0.198780 -0.051661
    23 -0.024967 -1.127840 0.017597 -1.331203 -0.004099 -0.055560
    24 -0.020057 -0.902687 0.049154 -1.514903 -0.007634 -0.060187
    25 0.606948 -1.197277 0.185379 0.455111 -0.925238 -0.684422
    26 1.426549 -0.267106 0.087043 0.093188 -0.260641 -1.002715
    27 1.053895 -0.140009 0.028385 0.033433 -0.179999 -0.730264
    28 0.120153 -0.050270 -0.054489 0.287569 3.110905 1.561085
    29 -2.966164 -7.754774 -7.052280 0.857193 -4.108482 1.383819
    30 0.085225 -8.403542 -0.013271 -0.080453 -0.301500 0.272213
    31 0.447953 -2.798986 -0.200443 -1.223404 -0.150987 0.357291
    32 -0.032909 -1.499736 0.036191 -1.682550 0.022555 -0.034717
    33 -0.027022 -1.127703 -0.020210 -1.224256 0.024233 -0.022076
    34 -0.249534 -2.846964 -0.174213 -0.919524 -0.167550 0.229534
    35 0.043235 -1.656596 0.053042 -1.990981 -0.025053 0.018229
    36 0.031729 -1.141298 0.054932 -1.091808 -0.012110 0.006059
    37 -0.963866 -2.785145 -0.085350 -0.709627 -0.020214 0.038322
    38 0.028479 -1.418692 -0.028886 -1.498275 -0.048777 -0.038411
    39 0.021413 -0.942156 0.008327 -1.125372 -0.032155 -0.036205
    40 1.164475 -2.543940 -0.170330 -1.400985 -0.293602 0.576548
    41 0.024032 -1.148574 -0.009538 -1.327987 0.025096 0.063759
    42 0.014898 -0.899614 -0.015942 -0.966253 0.007562 0.048610
    43 -0.586770 -1.264477 0.200161 -0.213368 -0.653007 -2.515594
    44 1.565805 0.035243 0.016848 -0.017693 -0.006691 0.852145
    45 1.114041 0.044518 -0.005766 -0.027915 -0.034498 1.008552
    46 -0.139399 -0.111698 0.014397 0.286241 -0.054300 1.367747
    47 -1.295811 8.889960 -0.204276 1.570809 -0.000001 -1.570790
  time 28
    0 4.628719 -12.487396 -5.137041 0.000801 0.001778 -0.000308
    1 0.000126 5.380603 2.085688 -1.570793 0.000000 3.141592
    2 -0.000003 8.744292 -22.250452 0.000000 0.000000 0.000000
    3 -0.000003 8.744292 -22.250454 0.000000 0.000000 0.000000
    4 -0.000002 8.744292 -22.250454 0.000000 0.000000 0.000000
    5 -0.003704 -0.088851 0.612631 1.570801 1.570796 0.000000
    6 -0.009867 6.068303 0.294611 0.000000 1.570796 0.000000
    7 0.000027 3.816548 1.626610 -1.570793 -0.043434 3.141592
    8 -0.003843 0.913138 2.654824 -1.570793 -3.141592 1.570796
    9 1.286349 -0.821603 -3.140102 0.000000 0.000000 0.000000
    10 7.149881 1.161521 -3.463931 6.232350 -2.062324 -0.247353
    11 3.452559 9.391510 -0.282623 1.545826 -3.132768 1.308676
    12 0.010113 -8.498736 -0.068977 0.143508 0.664806 0.171619
    13 -0.488518 -2.755602 -0.228260 -0.244746 -0.005464 -0.145879
    14 0.039887 -1.546198 0.025948 -1.950276 -0.005165 0.043253
    15 0.028786 -1.173390 -0.128581 -1.116701 -0.015172 0.024089
    16 0.250027 -2.820665 -0.238396 -0.156638 -0.100116 -0.057748
    17 -0.049759 -1.594604 0.022352 -1.692623 -0.002732 -0.044381
    18 -0.034142 -1.179563 0.045718 -1.331115 0.004566 -0.035115
    19 0.957766 -2.746780 -0.090302 0.165424 -0.223746 0.095945
    20 -0.033420 -1.397129 -0.015163 -0.245576 0.005753 -0.011734
    21 -0.022360 -0.957436 0.010971 -0.328986 0.006592 -0.015376
    22 -1.180681 -2.507217 -0.193859 -0.078589 0.198780 -0.051661
    23 -0.024967 -1.127840 0.017597 -1.331203 -0.004099 -0.055560
    24 -0.020057 -0.902687 0.049154 -1.514903 -0.007634 -0.060187
    25 0.606948 -1.197277 0.185379 0.455111 -0.925238 -0.684422
    26 1.426549 -0.267106 0.087043 0.093188 -0.260641 -1.002715
    27 1.053895 -0.140009 0.028385 0.033433 -0.179999 -0.730264
    28 0.120153 -0.050270 -0.054489 0.287569 3.110905 1.561085
    29 -2.966164 -7.750868 -7.056186 0.855947 -4.109379 1.383438
    30 0.085225 -8.403542 -0.013271 -0.078745 -0.302631 0.269258
    31 0.447953 -2.798986 -0.200443 -1.223404 -0.150987 0.357291
    32 -0.032909 -1.499736 0.036191 -1.682550 0.022555 -0.034717
    33 -0.027022 -1.127703 -0.020210 -1.224256 0.024233 -0.022076
    34 -0.249534 -2.846964 -0.174213 -0.919524 -0.167550 0.229534
    35 0.043235 -1.656596 0.053042 -1.990981 -0.025053 0.018229
    36 0.031729 -1.141298 0.054932 -1.091808 -0.012110 0.006059
    37 -0.963866 -2.785145 -0.085350 -0.709627 -0.020214 0.038322
    38 0.028479 -1.418692 -0.028886 -1.498275 -0.048777 -0.038411
    39 0.021413 -0.942156 0.008327 -1.125372 -0.032155 -0.036205
    40 1.164475 -2.543940 -0.170330 -1.400985 -0.293602 0.576548
    41 0.024032 -1.148574 -0.009538 -1.327987 0.025096 0.063759
    42 0.014898 -0.899614 -0.015942 -0.966253 0.007562 0.048610
    43 -0.586770 -1.264477 0.200161 -0.213368 -0.653007 -2.515594
    44 1.565805 0.035243 0.016848 -0.017693 -0.006691 0.852145
    45 1.114041 0.044518 -0.005766 -0.027915 -0.034498 1.008552
    46 -0.139399 -0.111698 0.014397 0.286241 -0.054300 1.367747
    47 -1.295811 8.889960 -0.204276 1.570809 -0.000001 -1.570790
  time 29
    0 4.628719 -12.483489 -5.148760 0.000209 0.000468 -0.000111
    1 0.000126 5.380603 2.085688 -1.570793 0.000000 3.141592
    2 -0.000003 8.744292 -22.250452 0.000000 0.000000 0.000000
    3 -0.000003 8.744292 -22.250454 0.000000 0.000000 0.000000
    4 -0.000002 8.744292 -22.250454 0.000000 0.000000 0.000000
    5 -0.003704 -0.088851 0.612631 1.570801 1.570796 0.000000
    6 -0.009867 6.068303 0.294611 0.000000 1.570796 0.000000
    7 0.000027 3.816548 1.626610 -1.570793 -0.021693 3.141592
    8 -0.003843 0.913138 2.654824 -1.570793 -3.141592 1.570796
    9 1.286349 -0.821603 -3.140102 0.000000 0.000000 0.000000
    10 7.149881 1.165427 -3.463931 6.229954 -2.062251 -0.245058
    11 3.448653 9.391510 -0.282623 1.545826 -3.132768 1.308960
    12 0.010113 -8.498736 -0.068977 0.144030 0.663140 0.173057
    13 -0.488518 -2.755602 -0.228260 -0.244746 -0.005464 -0.145879
    14 0.039887 -1.546198 0.025948 -1.950276 -0.005165 0.043253
    15 0.028786 -1.173390 -0.128581 -1.116701 -0.015172 0.024089
    16 0.250027 -2.820665 -0.238396 -0.156638 -0.100116 -0.057748
    17 -0.049759 -1.594604 0.022352 -1.692623 -0.002732 -0.044381
    18 -0.034142 -1.179563 0.045718 -1.331115 0.004566 -0.035115
    19 0.957766 -2.746780 -0.090302 0.165424 -0.223746 0.095945
    20 -0.033420 -1.397129 -0.015163 -0.247502 0.005777 -0.011830
    21 -0.022360 -0.957436 0.010971 -0.329636 0.006604 -0.015412
    22 -1.180681 -2.507217 -0.193859 -0.078589 0.198780 -0.051661
    23 -0.024967 -1.127840 0.017597 -1.331203 -0.004099 -0.055560
    24 -0.020057 -0.902687 0.049154 -1.514903 -0.007634 -0.060187
    25 0.606948 -1.197277 0.185379 0.455111 -0.925238 -0.684422
    26 1.426549 -0.267106 0.087043 0.093188 -0.260641 -1.002715
    27 1.053895 -0.140009 0.028385 0.033433 -0.179999 -0.730264
    28 0.120153 -0.050270 -0.054489 0.287569 3.110905 1.561085
    29 -2.966164 -7.746962 -7.063999 0.855048 -4.110001 1.383152
    30 0.085225 -8.403542 -0.013271 -0.077594 -0.303397 0.267240
    31 0.447953 -2.798986 -0.200443 -1.223404 -0.150987 0.357291
    32 -0.032909 -1.499736 0.036191 -1.682550 0.022555 -0.034717
    33 -0.027022 -1.127703 -0.020210 -1.224256 0.024233 -0.022076
    34 -0.249534 -2.846964 -0.174213 -0.919524 -0.167550 0.229534
    35 0.043235 -1.656596 0.053042 -1.990981 -0.025053 0.018229
    36 0.031729 -1.141298 0.054932 -1.091808 -0.012110 0.006059
    37 -0.963866 -2.785145 -0.085350 -0.709627 -0.020214 0.038322
    38 0.028479 -1.418692 -0.028886 -1.498275 -0.048777 -0.038411
    39 0.021413 -0.942156 0.008327 -1.125372 -0.032155 -0.036205
    40 1.164475 -2.543940 -0.170330 -1.400985 -0.293602 0.576548
    41 0.024032 -1.148574 -0.009538 -1.327987 0.025096 0.063759
    42 0.014898 -0.899614 -0.015942 -0.966253 0.007562 0.048610
    43 -0.586770 -1.264477 0.200161 -0.213368 -0.653007 -2.515594
    44 1.565805 0.035243 0.016848 -0.017693 -0.006691 0.852145
    45 1.114041 0.044518 -0.005766 -0.027915 -0.034498 1.008552
    46 -0.139399 -0.111698 0.014397 0.286241 -0.054300 1.367747
    47 -1.295811 8.889960 -0.204276 1.570809 -0.000001 -1.570790
  time 30
    0 4.628719 -12.483489 -5.148760 0.000000 0.000000 -0.000013
    1 0.000126 5.380603 2.085688 -1.570793 0.000000 3.141592
    2 -0.000003 8.744292 -22.250452 0.000000 0.000000 0.000000
    3 -0.000003 8.744292 -22.250454 0.000000 0.000000 0.000000
    4 -0.000002 8.744292 -22.250454 0.000000 0.000000 0.000000
    5 -0.003704 -0.088851 0.612631 1.570801 1.570796 0.000000
    6 -0.009867 6.068303 0.294611 0.000000 1.570796 0.000000
    7 0.000027 3.816548 1.626610 -1.570793 0.000001 3.141592
    8 -0.003843 0.913138 2.654824 -1.570793 -3.141592 1.570796
    9 1.286349 -0.821603 -3.140102 0.000000 0.000000 0.000000
    10 7.149881 1.165427 -3.463931 6.229091 -2.062251 -0.244197
    11 3.448653 9.391510 -0.282623 1.545826 -3.132864 1.309055
    12 0.010113 -8.498736 -0.068977 0.144204 0.662564 0.173616
    13 -0.488518 -2.755602 -0.228260 -0.244746 -0.005464 -0.145879
    14 0.039887 -1.546198 0.025948 -1.950276 -0.005165 0.043253
    15 0.028786 -1.173390 -0.128581 -1.116701 -0.015172 0.024089
    16 0.250027 -2.820665 -0.238396 -0.156638 -0.100116 -0.057748
    17 -0.049759 -1.594604 0.022352 -1.692623 -0.002732 -0.044381
    18 -0.034142 -1.179563 0.045718 -1.331115 0.004566 -0.035115
    19 0.957766 -2.746780 -0.090302 0.165424 -0.223746 0.095945
    20 -0.033420 -1.397129 -0.015163 -0.248252 0.005789 -0.011866
    21 -0.022360 -0.957436 0.010971 -0.329898 0.006604 -0.015424
    22 -1.180681 -2.507217 -0.193859 -0.078589 0.198780 -0.051661
    23 -0.024967 -1.127840 0.017597 -1.331203 -0.004099 -0.055560
    24 -0.020057 -0.902687 0.049154 -1.514903 -0.007634 -0.060187
    25 0.606948 -1.197277 0.185379 0.455111 -0.925238 -0.684422
    26 1.426549 -0.267106 0.087043 0.093188 -0.260641 -1.002715
    27 1.053895 -0.140009 0.028385 0.033433 -0.179999 -0.730264
    28 0.120153 -0.050270 -0.054489 0.287569 3.110905 1.561085
    29 -2.966164 -7.743055 -7.063999 0.854771 -4.110277 1.383056
    30 0.085225 -8.403542 -0.013271 -0.077172 -0.303670 0.266479
    31 0.447953 -2.798986 -0.200443 -1.223404 -0.150987 0.357291
    32 -0.032909 -1.499736 0.036191 -1.682550 0.022555 -0.034717
    33 -0.027022 -1.127703 -0.020210 -1.224256 0.024233 -0.022076
    34 -0.249534 -2.846964 -0.174213 -0.919524 -0.167550 0.229534
    35 0.043235 -1.656596 0.053042 -1.990981 -0.025053 0.018229
    36 0.031729 -1.141298 0.054932 -1.091808 -0.012110 0.006059
    37 -0.963866 -2.785145 -0.085350 -0.709627 -0.020214 0.038322
    38 0.028479 -1.418692 -0.028886 -1.498275 -0.048777 -0.038411
    39 0.021413 -0.942156 0.008327 -1.125372 -0.032155 -0.036205
    40 1.164475 -2.543940 -0.170330 -1.400985 -0.293602 0.576548
    41 0.024032 -1.148574 -0.009538 -1.327987 0.025096 0.063759
    42 0.014898 -0.899614 -0.015942 -0.966253 0.007562 0.048610
    43 -0.586770 -1.264477 0.200161 -0.213368 -0.653007 -2.515594
    44 1.565805 0.035243 0.016848 -0.017693 -0.006691 0.852145
    45 1.114041 0.044518 -0.005766 -0.027915 -0.034498 1.008552
    46 -0.139399 -0.111698 0.014397 0.286241 -0.054300 1.367747
    47 -1.295811 8.889960 -0.204276 1.570809 -0.000001 -1.570790
end
