// Created by Crowbar 0.34.0.0

$ModelName "weapons/tfa_cso/w_gilboa.mdl"

$BodyGroup "studio"
{
	studio "v_gilboa"
}

$collisionmodel "v_gilboa.smd"
{
	$mass 9
}

$CDMaterials "models\weapons\tfa_cso\gilboa"

$attachment "0" "root" 0.00 -10.50 -0.30 rotate -0 0 0

$Sequence "idle" {
	"anims\idle.smd"
	fps 30
}