version 1
nodes
  0 "root" -1
  1 "Bone01" 0
  2 "Bone_Lefthand" 1
  3 "M136AT4_root" 2
  4 "M136AT4_lens" 3
  5 "M136AT4_bullet" 3
  6 "Bone_L_Upper" 1
  7 "Bone13" 2
  8 "Bone14" 7
  9 "Bone15" 8
  10 "Bone17" 2
  11 "Bone18" 10
  12 "Bone19" 11
  13 "Bone21" 2
  14 "Bone22" 13
  15 "Bone23" 14
  16 "Bone09" 2
  17 "Bone10" 16
  18 "Bone11" 17
  19 "Bone05" 2
  20 "Bone06" 19
  21 "Bone07" 20
  22 "Bone_Se_Hand-L" 2
  23 "Bone04" 0
  24 "Bone_Righthand" 23
  25 "Bone39" 24
  26 "Bone40" 25
  27 "Bone41" 26
  28 "Bone35" 24
  29 "Bone36" 28
  30 "Bone37" 29
  31 "Bone31" 24
  32 "Bone32" 31
  33 "Bone33" 32
  34 "Bone43" 24
  35 "Bone44" 34
  36 "Bone45" 35
  37 "Bone27" 24
  38 "Bone28" 37
  39 "Bone29" 38
  40 "Bone_Se_Hand-R" 24
  41 "Bone_R_Upper" 23
end
skeleton
  time 0
    0 0.723832 0.494844 -24.285278 0.000000 0.000000 -0.000011
    1 18.009588 -8.897380 10.325552 1.158698 -2.719237 -1.238854
    2 -0.071921 -8.498736 -0.104134 -0.323165 0.102720 0.079213
    3 -1.881053 -3.582361 0.909712 0.316169 -0.168190 0.360360
    4 -2.855124 1.648684 1.176711 0.050587 0.000000 -3.140162
    5 27.389181 1.263549 1.155637 -0.002627 0.000009 0.003313
    6 1.343120 8.715708 1.092419 -1.422480 0.140206 -1.590417
    7 -0.488518 -2.755602 -0.228260 -0.381043 -0.035162 0.165783
    8 0.039887 -1.479790 0.029854 -1.069855 0.000000 0.000001
    9 0.028786 -1.075731 -0.023109 -0.231031 0.000000 0.000000
    10 0.250027 -2.820665 -0.238396 0.040164 -0.012053 0.230266
    11 -0.049759 -1.680544 0.100479 -1.590087 0.000000 -0.000002
    12 -0.034142 -1.148312 0.084782 -0.460177 0.000000 0.000000
    13 0.957766 -2.746780 -0.090302 -0.017221 -0.162277 0.191558
    14 -0.033420 -1.397129 -0.011257 -1.261472 0.000000 -0.000001
    15 -0.022360 -0.957436 0.018784 -0.566969 0.000000 0.000000
    16 -1.180681 -2.507217 -0.193859 -0.234848 -0.038887 0.160527
    17 -0.024967 -1.123934 0.017597 -0.664637 0.000000 0.000001
    18 -0.020057 -0.890968 0.010090 -0.340158 0.000000 0.000000
    19 0.583510 -1.197277 0.185379 0.396231 -0.133810 -0.943146
    20 1.535927 0.010246 0.005009 -0.365210 -0.013303 -0.218193
    21 1.100771 0.004527 -0.010679 -0.001813 0.016105 0.065324
    22 0.120153 -0.050270 -0.054489 0.287569 3.110905 1.561085
    23 1.076928 -16.883959 5.854364 1.016987 -3.006557 0.735744
    24 0.096944 -8.450418 -0.009365 1.130448 -0.612287 -0.432668
    25 0.447953 -2.798986 -0.200443 0.000771 0.016521 0.013537
    26 -0.032909 -1.480204 0.004940 -0.791053 0.000000 0.000002
    27 -0.027022 -1.076920 -0.020210 -0.564545 0.000000 0.000000
    28 -0.249534 -2.846964 -0.174213 0.099026 -0.000125 -0.008396
    29 0.043235 -1.683941 0.096012 -1.004802 0.002823 -0.000167
    30 0.031729 -1.160830 0.058838 -0.413503 0.000642 0.008372
    31 -0.963866 -2.785145 -0.085350 0.278227 0.162612 -0.001720
    32 0.028479 -1.403067 0.006271 -0.723373 0.000000 0.000000
    33 0.021413 -0.957781 0.020046 -0.392959 0.000000 0.000000
    34 1.164475 -2.543940 -0.170330 0.316827 0.028640 -0.027594
    35 0.024032 -1.129042 0.017807 -0.797302 0.000000 0.000001
    36 0.014898 -0.883989 -0.019848 -0.236551 0.000000 0.000000
    37 -0.676616 -1.377762 0.418918 -0.355063 0.069824 -2.574583
    38 1.432989 0.253999 0.016848 0.607925 -0.166785 0.683317
    39 1.117947 0.048424 -0.005766 -0.011113 -0.022621 0.512575
    40 -0.334717 -0.252327 -0.087169 0.818937 0.632833 1.806394
    41 -7.038174 6.628172 -0.282403 1.574392 -0.010596 -0.787827
  time 1
    0 0.743364 0.119832 -24.285278 0.000000 0.000000 -0.000011
    1 18.009588 -8.897380 10.263050 1.158698 -2.719237 -1.238854
    2 -0.071921 -8.498736 -0.104134 -0.354250 0.093702 0.080492
    3 -1.881053 -3.582361 0.909712 0.316169 -0.168190 0.360360
    4 -2.855124 1.648684 1.176711 0.050587 0.000000 -3.140162
    5 27.389181 1.263549 1.155637 -0.002627 0.000009 0.003313
    6 1.343120 8.715708 1.092419 -1.422480 0.140206 -1.590417
    7 -0.488518 -2.755602 -0.228260 -0.381043 -0.035162 0.165783
    8 0.039887 -1.479790 0.029854 -1.069855 0.000000 0.000001
    9 0.028786 -1.075731 -0.023109 -0.231031 0.000000 0.000000
    10 0.250027 -2.820665 -0.238396 0.040164 -0.012053 0.230266
    11 -0.049759 -1.680544 0.100479 -1.590087 0.000000 -0.000002
    12 -0.034142 -1.148312 0.084782 -0.460177 0.000000 0.000000
    13 0.957766 -2.746780 -0.090302 -0.017221 -0.162277 0.191558
    14 -0.033420 -1.397129 -0.011257 -1.261472 0.000000 -0.000001
    15 -0.022360 -0.957436 0.018784 -0.566969 0.000000 0.000000
    16 -1.180681 -2.507217 -0.193859 -0.234848 -0.038887 0.160527
    17 -0.024967 -1.123934 0.017597 -0.664637 0.000000 0.000001
    18 -0.020057 -0.890968 0.010090 -0.340158 0.000000 0.000000
    19 0.583510 -1.197277 0.185379 0.396231 -0.133810 -0.943146
    20 1.535927 0.010246 0.005009 -0.365210 -0.013303 -0.218193
    21 1.100771 0.004527 -0.010679 -0.001813 0.016105 0.065324
    22 0.120153 -0.050270 -0.054489 0.287569 3.110905 1.561085
    23 1.155056 -16.883959 5.452008 1.016987 -3.006557 0.735744
    24 0.096944 -8.450418 -0.009365 1.151560 -0.612287 -0.432668
    25 0.447953 -2.798986 -0.200443 0.000771 0.016521 0.013537
    26 -0.032909 -1.480204 0.004940 -0.791053 0.000000 0.000002
    27 -0.027022 -1.076920 -0.020210 -0.564545 0.000000 0.000000
    28 -0.249534 -2.846964 -0.174213 0.099026 -0.000125 -0.008396
    29 0.043235 -1.683941 0.096012 -1.004802 0.002823 -0.000167
    30 0.031729 -1.160830 0.058838 -0.413503 0.000642 0.008372
    31 -0.963866 -2.785145 -0.085350 0.278227 0.162612 -0.001720
    32 0.028479 -1.403067 0.006271 -0.723373 0.000000 0.000000
    33 0.021413 -0.957781 0.020046 -0.392959 0.000000 0.000000
    34 1.164475 -2.543940 -0.170330 0.316827 0.028640 -0.027594
    35 0.024032 -1.129042 0.017807 -0.797302 0.000000 0.000001
    36 0.014898 -0.883989 -0.019848 -0.236551 0.000000 0.000000
    37 -0.676616 -1.377762 0.418918 -0.355063 0.069824 -2.574583
    38 1.432989 0.253999 0.016848 0.607925 -0.166785 0.683317
    39 1.117947 0.048424 -0.005766 -0.011113 -0.022621 0.512575
    40 -0.334717 -0.252327 -0.087169 0.818937 0.632833 1.806394
    41 -7.038174 6.628172 -0.282403 1.574392 -0.010596 -0.787827
  time 2
    0 0.786334 -0.255179 -24.285278 0.000000 0.000000 -0.000011
    1 18.009588 -8.897380 10.200548 1.158698 -2.719237 -1.238854
    2 -0.071921 -8.498736 -0.104134 -0.385355 0.084702 0.081772
    3 -1.881053 -3.582361 0.909712 0.316169 -0.168190 0.360360
    4 -2.855124 1.648684 1.176711 0.050587 0.000000 -3.140162
    5 27.389181 1.263549 1.155637 -0.002627 0.000009 0.003313
    6 1.343120 8.715708 1.092419 -1.422480 0.140206 -1.590417
    7 -0.488518 -2.755602 -0.228260 -0.381043 -0.035162 0.165783
    8 0.039887 -1.479790 0.029854 -1.069855 0.000000 0.000001
    9 0.028786 -1.075731 -0.023109 -0.231031 0.000000 0.000000
    10 0.250027 -2.820665 -0.238396 0.040164 -0.012053 0.230266
    11 -0.049759 -1.680544 0.100479 -1.590087 0.000000 -0.000002
    12 -0.034142 -1.148312 0.084782 -0.460177 0.000000 0.000000
    13 0.957766 -2.746780 -0.090302 -0.017221 -0.162277 0.191558
    14 -0.033420 -1.397129 -0.011257 -1.261472 0.000000 -0.000001
    15 -0.022360 -0.957436 0.018784 -0.566969 0.000000 0.000000
    16 -1.180681 -2.507217 -0.193859 -0.234848 -0.038887 0.160527
    17 -0.024967 -1.123934 0.017597 -0.664637 0.000000 0.000001
    18 -0.020057 -0.890968 0.010090 -0.340158 0.000000 0.000000
    19 0.583510 -1.197277 0.185379 0.396231 -0.133810 -0.943146
    20 1.535927 0.010246 0.005009 -0.365210 -0.013303 -0.218193
    21 1.100771 0.004527 -0.010679 -0.001813 0.016105 0.065324
    22 0.120153 -0.050270 -0.054489 0.287569 3.110905 1.561085
    23 1.233183 -16.883959 5.045746 1.016987 -3.006557 0.735744
    24 0.096944 -8.450418 -0.009365 1.172672 -0.612287 -0.432668
    25 0.447953 -2.798986 -0.200443 0.000771 0.016521 0.013537
    26 -0.032909 -1.480204 0.004940 -0.791053 0.000000 0.000002
    27 -0.027022 -1.076920 -0.020210 -0.564545 0.000000 0.000000
    28 -0.249534 -2.846964 -0.174213 0.099026 -0.000125 -0.008396
    29 0.043235 -1.683941 0.096012 -1.004802 0.002823 -0.000167
    30 0.031729 -1.160830 0.058838 -0.413503 0.000642 0.008372
    31 -0.963866 -2.785145 -0.085350 0.278227 0.162612 -0.001720
    32 0.028479 -1.403067 0.006271 -0.723373 0.000000 0.000000
    33 0.021413 -0.957781 0.020046 -0.392959 0.000000 0.000000
    34 1.164475 -2.543940 -0.170330 0.316827 0.028640 -0.027594
    35 0.024032 -1.129042 0.017807 -0.797302 0.000000 0.000001
    36 0.014898 -0.883989 -0.019848 -0.236551 0.000000 0.000000
    37 -0.676616 -1.377762 0.418918 -0.355063 0.069824 -2.574583
    38 1.432989 0.253999 0.016848 0.607925 -0.166785 0.683317
    39 1.117947 0.048424 -0.005766 -0.011113 -0.022621 0.512575
    40 -0.334717 -0.252327 -0.087169 0.818937 0.632833 1.806394
    41 -7.038174 6.628172 -0.282403 1.574392 -0.010596 -0.787827
  time 3
    0 0.829304 -0.165333 -24.285278 0.000000 0.000000 -0.000011
    1 18.009588 -8.897380 10.208361 1.158698 -2.719237 -1.238854
    2 -0.071921 -8.498736 -0.104134 -0.381905 0.085708 0.081637
    3 -1.881053 -3.582361 0.909712 0.316206 -0.168190 0.360360
    4 -2.855124 1.648684 1.176711 0.050587 0.000000 -3.140162
    5 27.389181 1.263549 1.155637 -0.002627 0.000009 0.003313
    6 1.343120 8.715708 1.092419 -1.422480 0.140206 -1.590417
    7 -0.488518 -2.755602 -0.228260 -0.381043 -0.035162 0.165783
    8 0.039887 -1.479790 0.029854 -1.069855 0.000000 0.000001
    9 0.028786 -1.075731 -0.023109 -0.231031 0.000000 0.000000
    10 0.250027 -2.820665 -0.238396 0.040164 -0.012053 0.230266
    11 -0.049759 -1.680544 0.100479 -1.590087 0.000000 -0.000002
    12 -0.034142 -1.148312 0.084782 -0.460177 0.000000 0.000000
    13 0.957766 -2.746780 -0.090302 -0.017221 -0.162277 0.191558
    14 -0.033420 -1.397129 -0.011257 -1.261472 0.000000 -0.000001
    15 -0.022360 -0.957436 0.018784 -0.566969 0.000000 0.000000
    16 -1.180681 -2.507217 -0.193859 -0.234848 -0.038887 0.160527
    17 -0.024967 -1.123934 0.017597 -0.664637 0.000000 0.000001
    18 -0.020057 -0.890968 0.010090 -0.340158 0.000000 0.000000
    19 0.583510 -1.197277 0.185379 0.396231 -0.133810 -0.943146
    20 1.535927 0.010246 0.005009 -0.365210 -0.013303 -0.218193
    21 1.100771 0.004527 -0.010679 -0.001813 0.016105 0.065324
    22 0.120153 -0.050270 -0.054489 0.287569 3.110905 1.561085
    23 1.225371 -16.883959 5.088716 1.016987 -3.006557 0.735744
    24 0.096944 -8.450418 -0.009365 1.170363 -0.612287 -0.432668
    25 0.447953 -2.798986 -0.200443 0.000771 0.016521 0.013537
    26 -0.032909 -1.480204 0.004940 -0.791053 0.000000 0.000002
    27 -0.027022 -1.076920 -0.020210 -0.564545 0.000000 0.000000
    28 -0.249534 -2.846964 -0.174213 0.099026 -0.000125 -0.008396
    29 0.043235 -1.683941 0.096012 -1.004802 0.002823 -0.000167
    30 0.031729 -1.160830 0.058838 -0.413503 0.000642 0.008372
    31 -0.963866 -2.785145 -0.085350 0.278227 0.162612 -0.001720
    32 0.028479 -1.403067 0.006271 -0.723373 0.000000 0.000000
    33 0.021413 -0.957781 0.020046 -0.392959 0.000000 0.000000
    34 1.164475 -2.543940 -0.170330 0.316827 0.028640 -0.027594
    35 0.024032 -1.129042 0.017807 -0.797302 0.000000 0.000001
    36 0.014898 -0.883989 -0.019848 -0.236551 0.000000 0.000000
    37 -0.676616 -1.377762 0.418918 -0.355063 0.069824 -2.574583
    38 1.432989 0.253999 0.016848 0.607925 -0.166785 0.683317
    39 1.117947 0.048424 -0.005766 -0.011113 -0.022621 0.512575
    40 -0.334717 -0.252327 -0.087169 0.818937 0.632833 1.806394
    41 -7.038174 6.628172 -0.282403 1.574392 -0.010596 -0.787827
  time 4
    0 0.880087 0.018267 -24.285278 0.000000 0.000000 -0.000011
    1 18.009588 -8.897380 10.227893 1.158698 -2.719237 -1.238854
    2 -0.071921 -8.498736 -0.104134 -0.373029 0.088272 0.081267
    3 -1.881053 -3.582361 0.909712 0.316169 -0.168190 0.360360
    4 -2.855124 1.648684 1.176711 0.050587 0.000000 -3.140162
    5 27.389181 1.263549 1.155637 -0.002627 0.000009 0.003313
    6 1.343120 8.715708 1.092419 -1.422480 0.140206 -1.590417
    7 -0.488518 -2.755602 -0.228260 -0.381043 -0.035162 0.165783
    8 0.039887 -1.479790 0.029854 -1.069855 0.000000 0.000001
    9 0.028786 -1.075731 -0.023109 -0.231031 0.000000 0.000000
    10 0.250027 -2.820665 -0.238396 0.040164 -0.012053 0.230266
    11 -0.049759 -1.680544 0.100479 -1.590087 0.000000 -0.000002
    12 -0.034142 -1.148312 0.084782 -0.460177 0.000000 0.000000
    13 0.957766 -2.746780 -0.090302 -0.017221 -0.162277 0.191558
    14 -0.033420 -1.397129 -0.011257 -1.261472 0.000000 -0.000001
    15 -0.022360 -0.957436 0.018784 -0.566969 0.000000 0.000000
    16 -1.180681 -2.507217 -0.193859 -0.234848 -0.038887 0.160527
    17 -0.024967 -1.123934 0.017597 -0.664637 0.000000 0.000001
    18 -0.020057 -0.890968 0.010090 -0.340158 0.000000 0.000000
    19 0.583510 -1.197277 0.185379 0.396231 -0.133810 -0.943146
    20 1.535927 0.010246 0.005009 -0.365210 -0.013303 -0.218193
    21 1.100771 0.004527 -0.010679 -0.001813 0.016105 0.065324
    22 0.120153 -0.050270 -0.054489 0.287569 3.110905 1.561085
    23 1.201932 -16.883959 5.205907 1.016987 -3.006557 0.735744
    24 0.096944 -8.450418 -0.009365 1.164325 -0.612287 -0.432668
    25 0.447953 -2.798986 -0.200443 0.000771 0.016521 0.013537
    26 -0.032909 -1.480204 0.004940 -0.791053 0.000000 0.000002
    27 -0.027022 -1.076920 -0.020210 -0.564545 0.000000 0.000000
    28 -0.249534 -2.846964 -0.174213 0.099026 -0.000125 -0.008396
    29 0.043235 -1.683941 0.096012 -1.004802 0.002823 -0.000167
    30 0.031729 -1.160830 0.058838 -0.413503 0.000642 0.008372
    31 -0.963866 -2.785145 -0.085350 0.278227 0.162612 -0.001720
    32 0.028479 -1.403067 0.006271 -0.723373 0.000000 0.000000
    33 0.021413 -0.957781 0.020046 -0.392959 0.000000 0.000000
    34 1.164475 -2.543940 -0.170330 0.316827 0.028640 -0.027594
    35 0.024032 -1.129042 0.017807 -0.797302 0.000000 0.000001
    36 0.014898 -0.883989 -0.019848 -0.236551 0.000000 0.000000
    37 -0.676616 -1.377762 0.418918 -0.355063 0.069824 -2.574583
    38 1.432989 0.253999 0.016848 0.607925 -0.166785 0.683317
    39 1.117947 0.048424 -0.005766 -0.011113 -0.022621 0.512575
    40 -0.334717 -0.252327 -0.087169 0.818937 0.632833 1.806394
    41 -7.038174 6.628172 -0.282403 1.574392 -0.010596 -0.787827
  time 5
    0 0.899619 0.174522 -24.285278 0.000000 0.000000 -0.000011
    1 18.009588 -8.897380 10.251331 1.158698 -2.719237 -1.238854
    2 -0.071921 -8.498736 -0.104134 -0.360870 0.091784 0.080763
    3 -1.881053 -3.582361 0.909712 0.316206 -0.168190 0.360360
    4 -2.855124 1.648684 1.176711 0.050587 0.000000 -3.140162
    5 27.389181 1.263549 1.155637 -0.002627 0.000009 0.003313
    6 1.343120 8.715708 1.092419 -1.422480 0.140206 -1.590417
    7 -0.488518 -2.755602 -0.228260 -0.381043 -0.035162 0.165783
    8 0.039887 -1.479790 0.029854 -1.069855 0.000000 0.000001
    9 0.028786 -1.075731 -0.023109 -0.231031 0.000000 0.000000
    10 0.250027 -2.820665 -0.238396 0.040164 -0.012053 0.230266
    11 -0.049759 -1.680544 0.100479 -1.590087 0.000000 -0.000002
    12 -0.034142 -1.148312 0.084782 -0.460177 0.000000 0.000000
    13 0.957766 -2.746780 -0.090302 -0.017221 -0.162277 0.191558
    14 -0.033420 -1.397129 -0.011257 -1.261472 0.000000 -0.000001
    15 -0.022360 -0.957436 0.018784 -0.566969 0.000000 0.000000
    16 -1.180681 -2.507217 -0.193859 -0.234848 -0.038887 0.160527
    17 -0.024967 -1.123934 0.017597 -0.664637 0.000000 0.000001
    18 -0.020057 -0.890968 0.010090 -0.340158 0.000000 0.000000
    19 0.583510 -1.197277 0.185379 0.396231 -0.133810 -0.943146
    20 1.535927 0.010246 0.005009 -0.365210 -0.013303 -0.218193
    21 1.100771 0.004527 -0.010679 -0.001813 0.016105 0.065324
    22 0.120153 -0.050270 -0.054489 0.287569 3.110905 1.561085
    23 1.170681 -16.883959 5.362162 1.016987 -3.006557 0.735744
    24 0.096944 -8.450418 -0.009365 1.156058 -0.612287 -0.432668
    25 0.447953 -2.798986 -0.200443 0.000771 0.016521 0.013537
    26 -0.032909 -1.480204 0.004940 -0.791053 0.000000 0.000002
    27 -0.027022 -1.076920 -0.020210 -0.564545 0.000000 0.000000
    28 -0.249534 -2.846964 -0.174213 0.099026 -0.000125 -0.008396
    29 0.043235 -1.683941 0.096012 -1.004802 0.002823 -0.000167
    30 0.031729 -1.160830 0.058838 -0.413503 0.000642 0.008372
    31 -0.963866 -2.785145 -0.085350 0.278227 0.162612 -0.001720
    32 0.028479 -1.403067 0.006271 -0.723373 0.000000 0.000000
    33 0.021413 -0.957781 0.020046 -0.392959 0.000000 0.000000
    34 1.164475 -2.543940 -0.170330 0.316827 0.028640 -0.027594
    35 0.024032 -1.129042 0.017807 -0.797302 0.000000 0.000001
    36 0.014898 -0.883989 -0.019848 -0.236551 0.000000 0.000000
    37 -0.676616 -1.377762 0.418918 -0.355063 0.069824 -2.574583
    38 1.432989 0.253999 0.016848 0.607925 -0.166785 0.683317
    39 1.117947 0.048424 -0.005766 -0.011113 -0.022621 0.512575
    40 -0.334717 -0.252327 -0.087169 0.818937 0.632833 1.806394
    41 -7.038174 6.628172 -0.282403 1.574392 -0.010596 -0.787827
  time 6
    0 0.872274 0.276087 -24.285278 0.000000 0.000000 -0.000011
    1 18.009588 -8.897380 10.278676 1.158698 -2.719237 -1.238854
    2 -0.071921 -8.498736 -0.104134 -0.347631 0.095619 0.080222
    3 -1.881053 -3.582361 0.909712 0.316169 -0.168190 0.360360
    4 -2.855124 1.648684 1.176711 0.050587 0.000000 -3.140162
    5 27.389181 1.263549 1.155637 -0.002627 0.000009 0.003313
    6 1.343120 8.715708 1.092419 -1.422480 0.140206 -1.590417
    7 -0.488518 -2.755602 -0.228260 -0.381043 -0.035162 0.165783
    8 0.039887 -1.479790 0.029854 -1.069855 0.000000 0.000001
    9 0.028786 -1.075731 -0.023109 -0.231031 0.000000 0.000000
    10 0.250027 -2.820665 -0.238396 0.040164 -0.012053 0.230266
    11 -0.049759 -1.680544 0.100479 -1.590087 0.000000 -0.000002
    12 -0.034142 -1.148312 0.084782 -0.460177 0.000000 0.000000
    13 0.957766 -2.746780 -0.090302 -0.017221 -0.162277 0.191558
    14 -0.033420 -1.397129 -0.011257 -1.261472 0.000000 -0.000001
    15 -0.022360 -0.957436 0.018784 -0.566969 0.000000 0.000000
    16 -1.180681 -2.507217 -0.193859 -0.234848 -0.038887 0.160527
    17 -0.024967 -1.123934 0.017597 -0.664637 0.000000 0.000001
    18 -0.020057 -0.890968 0.010090 -0.340158 0.000000 0.000000
    19 0.583510 -1.197277 0.185379 0.396231 -0.133810 -0.943146
    20 1.535927 0.010246 0.005009 -0.365210 -0.013303 -0.218193
    21 1.100771 0.004527 -0.010679 -0.001813 0.016105 0.065324
    22 0.120153 -0.050270 -0.054489 0.287569 3.110905 1.561085
    23 1.139430 -16.883959 5.537948 1.016987 -3.006557 0.735744
    24 0.096944 -8.450418 -0.009365 1.147062 -0.612287 -0.432668
    25 0.447953 -2.798986 -0.200443 0.000771 0.016521 0.013537
    26 -0.032909 -1.480204 0.004940 -0.791053 0.000000 0.000002
    27 -0.027022 -1.076920 -0.020210 -0.564545 0.000000 0.000000
    28 -0.249534 -2.846964 -0.174213 0.099026 -0.000125 -0.008396
    29 0.043235 -1.683941 0.096012 -1.004802 0.002823 -0.000167
    30 0.031729 -1.160830 0.058838 -0.413503 0.000642 0.008372
    31 -0.963866 -2.785145 -0.085350 0.278227 0.162612 -0.001720
    32 0.028479 -1.403067 0.006271 -0.723373 0.000000 0.000000
    33 0.021413 -0.957781 0.020046 -0.392959 0.000000 0.000000
    34 1.164475 -2.543940 -0.170330 0.316827 0.028640 -0.027594
    35 0.024032 -1.129042 0.017807 -0.797302 0.000000 0.000001
    36 0.014898 -0.883989 -0.019848 -0.236551 0.000000 0.000000
    37 -0.676616 -1.377762 0.418918 -0.355063 0.069824 -2.574583
    38 1.432989 0.253999 0.016848 0.607925 -0.166785 0.683317
    39 1.117947 0.048424 -0.005766 -0.011113 -0.022621 0.512575
    40 -0.334717 -0.252327 -0.087169 0.818937 0.632833 1.806394
    41 -7.038174 6.628172 -0.282403 1.574392 -0.010596 -0.787827
  time 7
    0 0.809772 0.365934 -24.285278 0.000000 0.000000 -0.000011
    1 18.009588 -8.897380 10.302114 1.158698 -2.719237 -1.238854
    2 -0.071921 -8.498736 -0.104134 -0.335491 0.099151 0.079717
    3 -1.881053 -3.582361 0.909712 0.316169 -0.168190 0.360360
    4 -2.855124 1.648684 1.176711 0.050587 0.000000 -3.140162
    5 27.389181 1.263549 1.155637 -0.002627 0.000009 0.003313
    6 1.343120 8.715708 1.092419 -1.422480 0.140206 -1.590417
    7 -0.488518 -2.755602 -0.228260 -0.381043 -0.035162 0.165783
    8 0.039887 -1.479790 0.029854 -1.069855 0.000000 0.000001
    9 0.028786 -1.075731 -0.023109 -0.231031 0.000000 0.000000
    10 0.250027 -2.820665 -0.238396 0.040164 -0.012053 0.230266
    11 -0.049759 -1.680544 0.100479 -1.590087 0.000000 -0.000002
    12 -0.034142 -1.148312 0.084782 -0.460177 0.000000 0.000000
    13 0.957766 -2.746780 -0.090302 -0.017221 -0.162277 0.191558
    14 -0.033420 -1.397129 -0.011257 -1.261472 0.000000 -0.000001
    15 -0.022360 -0.957436 0.018784 -0.566969 0.000000 0.000000
    16 -1.180681 -2.507217 -0.193859 -0.234848 -0.038887 0.160527
    17 -0.024967 -1.123934 0.017597 -0.664637 0.000000 0.000001
    18 -0.020057 -0.890968 0.010090 -0.340158 0.000000 0.000000
    19 0.583510 -1.197277 0.185379 0.396231 -0.133810 -0.943146
    20 1.535927 0.010246 0.005009 -0.365210 -0.013303 -0.218193
    21 1.100771 0.004527 -0.010679 -0.001813 0.016105 0.065324
    22 0.120153 -0.050270 -0.054489 0.287569 3.110905 1.561085
    23 1.108179 -16.883959 5.694203 1.016987 -3.006557 0.735744
    24 0.096944 -8.450418 -0.009365 1.138836 -0.612287 -0.432668
    25 0.447953 -2.798986 -0.200443 0.000771 0.016521 0.013537
    26 -0.032909 -1.480204 0.004940 -0.791053 0.000000 0.000002
    27 -0.027022 -1.076920 -0.020210 -0.564545 0.000000 0.000000
    28 -0.249534 -2.846964 -0.174213 0.099026 -0.000125 -0.008396
    29 0.043235 -1.683941 0.096012 -1.004802 0.002823 -0.000167
    30 0.031729 -1.160830 0.058838 -0.413503 0.000642 0.008372
    31 -0.963866 -2.785145 -0.085350 0.278227 0.162612 -0.001720
    32 0.028479 -1.403067 0.006271 -0.723373 0.000000 0.000000
    33 0.021413 -0.957781 0.020046 -0.392959 0.000000 0.000000
    34 1.164475 -2.543940 -0.170330 0.316827 0.028640 -0.027594
    35 0.024032 -1.129042 0.017807 -0.797302 0.000000 0.000001
    36 0.014898 -0.883989 -0.019848 -0.236551 0.000000 0.000000
    37 -0.676616 -1.377762 0.418918 -0.355063 0.069824 -2.574583
    38 1.432989 0.253999 0.016848 0.607925 -0.166785 0.683317
    39 1.117947 0.048424 -0.005766 -0.011113 -0.022621 0.512575
    40 -0.334717 -0.252327 -0.087169 0.818937 0.632833 1.806394
    41 -7.038174 6.628172 -0.282403 1.574392 -0.010596 -0.787827
  time 8
    0 0.751177 0.428436 -24.285278 0.000000 0.000000 -0.000011
    1 18.009588 -8.897380 10.317739 1.158698 -2.719237 -1.238854
    2 -0.071921 -8.498736 -0.104134 -0.326615 0.101714 0.079360
    3 -1.881053 -3.582361 0.909712 0.316169 -0.168190 0.360360
    4 -2.855124 1.648684 1.176711 0.050587 0.000000 -3.140162
    5 27.389181 1.263549 1.155637 -0.002627 0.000009 0.003313
    6 1.343120 8.715708 1.092419 -1.422480 0.140206 -1.590417
    7 -0.488518 -2.755602 -0.228260 -0.381043 -0.035162 0.165783
    8 0.039887 -1.479790 0.029854 -1.069855 0.000000 0.000001
    9 0.028786 -1.075731 -0.023109 -0.231031 0.000000 0.000000
    10 0.250027 -2.820665 -0.238396 0.040164 -0.012053 0.230266
    11 -0.049759 -1.680544 0.100479 -1.590087 0.000000 -0.000002
    12 -0.034142 -1.148312 0.084782 -0.460177 0.000000 0.000000
    13 0.957766 -2.746780 -0.090302 -0.017221 -0.162277 0.191558
    14 -0.033420 -1.397129 -0.011257 -1.261472 0.000000 -0.000001
    15 -0.022360 -0.957436 0.018784 -0.566969 0.000000 0.000000
    16 -1.180681 -2.507217 -0.193859 -0.234848 -0.038887 0.160527
    17 -0.024967 -1.123934 0.017597 -0.664637 0.000000 0.000001
    18 -0.020057 -0.890968 0.010090 -0.340158 0.000000 0.000000
    19 0.583510 -1.197277 0.185379 0.396231 -0.133810 -0.943146
    20 1.535927 0.010246 0.005009 -0.365210 -0.013303 -0.218193
    21 1.100771 0.004527 -0.010679 -0.001813 0.016105 0.065324
    22 0.120153 -0.050270 -0.054489 0.287569 3.110905 1.561085
    23 1.084741 -16.883959 5.811394 1.016987 -3.006557 0.735744
    24 0.096944 -8.450418 -0.009365 1.132798 -0.612287 -0.432668
    25 0.447953 -2.798986 -0.200443 0.000771 0.016521 0.013537
    26 -0.032909 -1.480204 0.004940 -0.791053 0.000000 0.000002
    27 -0.027022 -1.076920 -0.020210 -0.564545 0.000000 0.000000
    28 -0.249534 -2.846964 -0.174213 0.099026 -0.000125 -0.008396
    29 0.043235 -1.683941 0.096012 -1.004802 0.002823 -0.000167
    30 0.031729 -1.160830 0.058838 -0.413503 0.000642 0.008372
    31 -0.963866 -2.785145 -0.085350 0.278227 0.162612 -0.001720
    32 0.028479 -1.403067 0.006271 -0.723373 0.000000 0.000000
    33 0.021413 -0.957781 0.020046 -0.392959 0.000000 0.000000
    34 1.164475 -2.543940 -0.170330 0.316827 0.028640 -0.027594
    35 0.024032 -1.129042 0.017807 -0.797302 0.000000 0.000001
    36 0.014898 -0.883989 -0.019848 -0.236551 0.000000 0.000000
    37 -0.676616 -1.377762 0.418918 -0.355063 0.069824 -2.574583
    38 1.432989 0.253999 0.016848 0.607925 -0.166785 0.683317
    39 1.117947 0.048424 -0.005766 -0.011113 -0.022621 0.512575
    40 -0.334717 -0.252327 -0.087169 0.818937 0.632833 1.806394
    41 -7.038174 6.628172 -0.282403 1.574392 -0.010596 -0.787827
  time 9
    0 0.723832 0.451874 -24.285278 0.000000 0.000000 -0.000011
    1 18.009588 -8.897380 10.325552 1.158698 -2.719237 -1.238854
    2 -0.071921 -8.498736 -0.104134 -0.323165 0.102720 0.079213
    3 -1.881053 -3.582361 0.909712 0.316169 -0.168190 0.360360
    4 -2.855124 1.648684 1.176711 0.050587 0.000000 -3.140162
    5 27.389181 1.263549 1.155637 -0.002627 0.000009 0.003313
    6 1.343120 8.715708 1.092419 -1.422480 0.140206 -1.590417
    7 -0.488518 -2.755602 -0.228260 -0.381043 -0.035162 0.165783
    8 0.039887 -1.479790 0.029854 -1.069855 0.000000 0.000001
    9 0.028786 -1.075731 -0.023109 -0.231031 0.000000 0.000000
    10 0.250027 -2.820665 -0.238396 0.040164 -0.012053 0.230266
    11 -0.049759 -1.680544 0.100479 -1.590087 0.000000 -0.000002
    12 -0.034142 -1.148312 0.084782 -0.460177 0.000000 0.000000
    13 0.957766 -2.746780 -0.090302 -0.017221 -0.162277 0.191558
    14 -0.033420 -1.397129 -0.011257 -1.261472 0.000000 -0.000001
    15 -0.022360 -0.957436 0.018784 -0.566969 0.000000 0.000000
    16 -1.180681 -2.507217 -0.193859 -0.234848 -0.038887 0.160527
    17 -0.024967 -1.123934 0.017597 -0.664637 0.000000 0.000001
    18 -0.020057 -0.890968 0.010090 -0.340158 0.000000 0.000000
    19 0.583510 -1.197277 0.185379 0.396231 -0.133810 -0.943146
    20 1.535927 0.010246 0.005009 -0.365210 -0.013303 -0.218193
    21 1.100771 0.004527 -0.010679 -0.001813 0.016105 0.065324
    22 0.120153 -0.050270 -0.054489 0.287569 3.110905 1.561085
    23 1.076928 -16.883959 5.854364 1.016987 -3.006557 0.735744
    24 0.096944 -8.450418 -0.009365 1.130448 -0.612287 -0.432668
    25 0.447953 -2.798986 -0.200443 0.000771 0.016521 0.013537
    26 -0.032909 -1.480204 0.004940 -0.791053 0.000000 0.000002
    27 -0.027022 -1.076920 -0.020210 -0.564545 0.000000 0.000000
    28 -0.249534 -2.846964 -0.174213 0.099026 -0.000125 -0.008396
    29 0.043235 -1.683941 0.096012 -1.004802 0.002823 -0.000167
    30 0.031729 -1.160830 0.058838 -0.413503 0.000642 0.008372
    31 -0.963866 -2.785145 -0.085350 0.278227 0.162612 -0.001720
    32 0.028479 -1.403067 0.006271 -0.723373 0.000000 0.000000
    33 0.021413 -0.957781 0.020046 -0.392959 0.000000 0.000000
    34 1.164475 -2.543940 -0.170330 0.316827 0.028640 -0.027594
    35 0.024032 -1.129042 0.017807 -0.797302 0.000000 0.000001
    36 0.014898 -0.883989 -0.019848 -0.236551 0.000000 0.000000
    37 -0.676616 -1.377762 0.418918 -0.355063 0.069824 -2.574583
    38 1.432989 0.253999 0.016848 0.607925 -0.166785 0.683317
    39 1.117947 0.048424 -0.005766 -0.011113 -0.022621 0.512575
    40 -0.334717 -0.252327 -0.087169 0.818937 0.632833 1.806394
    41 -7.038174 6.628172 -0.282403 1.574392 -0.010596 -0.787827
end
