version 1
nodes
  0 "root" -1
  1 "Bone01" 0
  2 "Bone_Lefthand" 1
  3 "Bone02" 2
  4 "Dummy01" 3
  5 "Bone08" 4
  6 "Bone16" 3
  7 "Bone_L_Upper" 1
  8 "Bone13" 2
  9 "Bone14" 8
  10 "Bone15" 9
  11 "Bone17" 2
  12 "Bone18" 11
  13 "Bone19" 12
  14 "Bone21" 2
  15 "Bone22" 14
  16 "Bone23" 15
  17 "Bone09" 2
  18 "Bone10" 17
  19 "Bone11" 18
  20 "Bone05" 2
  21 "Bone06" 20
  22 "Bone07" 21
  23 "Bone_Se_Hand-L" 2
  24 "Bone04" 0
  25 "Bone_Righthand" 24
  26 "Bone39" 25
  27 "Bone40" 26
  28 "Bone41" 27
  29 "Bone35" 25
  30 "Bone36" 29
  31 "Bone37" 30
  32 "Bone31" 25
  33 "Bone32" 32
  34 "Bone33" 33
  35 "Bone43" 25
  36 "Bone44" 35
  37 "Bone45" 36
  38 "Bone27" 25
  39 "Bone28" 38
  40 "Bone29" 39
  41 "Bone_Se_Hand-R" 25
  42 "Bone_R_Upper" 24
end
skeleton
  time 0
    0 -0.368931 1.166145 0.203512 0.000000 0.000000 0.000000
    1 12.609231 -2.328725 -9.752672 0.627801 -1.805080 -1.263981
    2 -0.071918 -8.498730 -0.104136 0.143713 0.104209 -0.240639
    3 5.233845 1.354622 1.688628 -0.065772 2.858007 1.272336
    4 19.997025 0.102143 0.000001 0.000000 0.000000 0.000000
    5 0.000000 0.000000 0.000000 0.000000 0.000000 0.000000
    6 6.506417 1.675302 0.000001 0.000000 0.000000 1.570796
    7 1.257180 8.762585 -0.153713 -1.570562 0.002683 -1.566807
    8 -0.488518 -2.755602 -0.228260 -0.636863 -0.077551 -0.298478
    9 0.039887 -1.479790 0.029854 -2.230118 0.000000 0.000001
    10 0.028786 -1.075731 -0.023109 -0.271941 0.000000 0.000000
    11 0.250027 -2.820665 -0.238396 -0.437192 -0.061406 -0.314674
    12 -0.049759 -1.680544 0.100479 -2.308624 0.000000 -0.000002
    13 -0.034142 -1.148312 0.084782 -0.535851 0.000000 0.000000
    14 0.957766 -2.746780 -0.090302 0.398790 -0.132819 0.006168
    15 -0.033420 -1.397129 -0.011257 -0.767419 0.000000 -0.000001
    16 -0.022360 -0.957436 0.018784 -0.380385 0.000000 0.000000
    17 -1.180681 -2.507217 -0.193859 -0.535961 0.112898 -0.284556
    18 -0.024967 -1.123934 0.017597 -1.884509 0.000000 0.000001
    19 -0.020057 -0.890968 0.010090 -0.772262 0.000000 0.000000
    20 0.583510 -1.197277 0.185379 0.385373 -0.553917 -0.837084
    21 1.535927 0.010246 0.005009 -0.002964 -0.012979 -0.682290
    22 1.100771 0.004527 -0.010679 -0.016147 -0.001453 -1.484153
    23 0.120153 -0.050270 -0.054489 0.287569 3.110905 1.561085
    24 2.998862 3.464318 -9.212502 0.308071 -3.498061 0.518997
    25 0.096944 -8.450418 -0.009365 -0.763037 -1.346425 1.363381
    26 0.447953 -2.798986 -0.200443 -1.456960 0.099071 0.252834
    27 -0.032909 -1.480204 0.004940 -1.601340 0.000000 0.000002
    28 -0.027022 -1.076920 -0.020210 -0.353735 0.000000 0.000000
    29 -0.249534 -2.846964 -0.174213 -1.241183 0.075210 0.132159
    30 0.043235 -1.683941 0.096012 -1.813709 0.002823 -0.000167
    31 0.031729 -1.160830 0.058838 -0.456154 0.000642 0.008372
    32 -0.963866 -2.785145 -0.085350 -1.148608 0.139589 0.121877
    33 0.028479 -1.403067 0.006271 -1.391232 0.000000 0.000000
    34 0.021413 -0.957781 0.020046 -0.471322 0.000000 0.000000
    35 1.164475 -2.543940 -0.170330 -1.423710 -0.066254 0.446863
    36 0.024032 -1.129042 0.017807 -1.462507 0.000000 0.000001
    37 0.014898 -0.883989 -0.019848 -0.549408 0.000000 0.000000
    38 -0.586770 -1.264477 0.200161 0.313906 -0.927915 -2.922977
    39 1.522835 0.058681 0.016848 0.001410 0.008985 1.029593
    40 1.117947 0.048424 -0.005766 -0.023469 -0.009175 1.254246
    41 -0.139399 -0.111698 0.014397 0.407653 0.171241 1.393752
    42 -6.260806 6.983652 -0.294122 1.580804 -0.005023 -0.912799
  time 1
    0 -0.368931 1.166145 0.203512 0.000000 0.000000 0.000000
    1 11.913897 -2.328725 -9.994867 0.727737 -1.832231 -1.345415
    2 -0.071918 -8.498730 -0.104136 0.263032 0.160201 -0.219198
    3 5.233845 1.354622 1.688628 -0.065772 2.858007 1.272336
    4 19.997025 0.102143 0.000001 0.000000 0.000000 0.000000
    5 0.000000 0.000000 0.000000 0.000000 0.000000 0.000000
    6 6.506417 1.675302 0.000001 0.000000 0.000000 1.570796
    7 1.257180 8.762585 -0.153713 -1.570562 0.002683 -1.566807
    8 -0.488518 -2.755602 -0.228260 -0.636863 -0.077551 -0.298478
    9 0.039887 -1.479790 0.029854 -2.230118 0.000000 0.000001
    10 0.028786 -1.075731 -0.023109 -0.271941 0.000000 0.000000
    11 0.250027 -2.820665 -0.238396 -0.437192 -0.061406 -0.314674
    12 -0.049759 -1.680544 0.100479 -2.308624 0.000000 -0.000002
    13 -0.034142 -1.148312 0.084782 -0.535851 0.000000 0.000000
    14 0.957766 -2.746780 -0.090302 0.398790 -0.132819 0.006168
    15 -0.033420 -1.397129 -0.011257 -0.767419 0.000000 -0.000001
    16 -0.022360 -0.957436 0.018784 -0.380385 0.000000 0.000000
    17 -1.180681 -2.507217 -0.193859 -0.535961 0.112898 -0.284556
    18 -0.024967 -1.123934 0.017597 -1.884509 0.000000 0.000001
    19 -0.020057 -0.890968 0.010090 -0.772262 0.000000 0.000000
    20 0.583510 -1.197277 0.185379 0.385373 -0.553917 -0.837084
    21 1.535927 0.010246 0.005009 -0.002964 -0.012979 -0.682290
    22 1.100771 0.004527 -0.010679 -0.016147 -0.001453 -1.484153
    23 0.120153 -0.050270 -0.054489 0.287569 3.110905 1.561085
    24 0.748793 2.683044 -9.118749 0.291954 -3.422285 0.648192
    25 0.096944 -8.450418 -0.009365 -0.763037 -1.346425 1.363381
    26 0.447953 -2.798986 -0.200443 -1.456960 0.099071 0.252834
    27 -0.032909 -1.480204 0.004940 -1.601340 0.000000 0.000002
    28 -0.027022 -1.076920 -0.020210 -0.353735 0.000000 0.000000
    29 -0.249534 -2.846964 -0.174213 -1.241183 0.075210 0.132159
    30 0.043235 -1.683941 0.096012 -1.813709 0.002823 -0.000167
    31 0.031729 -1.160830 0.058838 -0.456154 0.000642 0.008372
    32 -0.963866 -2.785145 -0.085350 -1.148608 0.139589 0.121877
    33 0.028479 -1.403067 0.006271 -1.391232 0.000000 0.000000
    34 0.021413 -0.957781 0.020046 -0.471322 0.000000 0.000000
    35 1.164475 -2.543940 -0.170330 -1.423710 -0.066254 0.446863
    36 0.024032 -1.129042 0.017807 -1.462507 0.000000 0.000001
    37 0.014898 -0.883989 -0.019848 -0.549408 0.000000 0.000000
    38 -0.586770 -1.264477 0.200161 0.313906 -0.927915 -2.922977
    39 1.522835 0.058681 0.016848 0.001410 0.008985 1.029593
    40 1.117947 0.048424 -0.005766 -0.023469 -0.009175 1.254246
    41 -0.139399 -0.111698 0.014397 0.407653 0.171241 1.393752
    42 -6.260806 6.983652 -0.294122 1.580804 -0.005023 -0.912799
  time 2
    0 -0.368931 1.166145 0.203512 0.000000 0.000000 0.000000
    1 11.214657 -2.328725 -10.240968 0.810164 -1.861092 -1.409299
    2 -0.071918 -8.498730 -0.104136 0.335814 0.192008 -0.202132
    3 5.233845 1.354622 1.688628 -0.065772 2.858007 1.272336
    4 19.997025 0.102143 0.000001 0.000000 0.000000 0.000000
    5 0.000000 0.000000 0.000000 0.000000 0.000000 0.000000
    6 6.506417 1.675302 0.000001 0.000000 0.000000 1.570796
    7 1.257180 8.762585 -0.153713 -1.570562 0.002683 -1.566807
    8 -0.488518 -2.755602 -0.228260 -0.636863 -0.077551 -0.298478
    9 0.039887 -1.479790 0.029854 -2.230118 0.000000 0.000001
    10 0.028786 -1.075731 -0.023109 -0.271941 0.000000 0.000000
    11 0.250027 -2.820665 -0.238396 -0.437192 -0.061406 -0.314674
    12 -0.049759 -1.680544 0.100479 -2.308624 0.000000 -0.000002
    13 -0.034142 -1.148312 0.084782 -0.535851 0.000000 0.000000
    14 0.957766 -2.746780 -0.090302 0.398790 -0.132819 0.006168
    15 -0.033420 -1.397129 -0.011257 -0.767419 0.000000 -0.000001
    16 -0.022360 -0.957436 0.018784 -0.380385 0.000000 0.000000
    17 -1.180681 -2.507217 -0.193859 -0.535961 0.112898 -0.284556
    18 -0.024967 -1.123934 0.017597 -1.884509 0.000000 0.000001
    19 -0.020057 -0.890968 0.010090 -0.772262 0.000000 0.000000
    20 0.583510 -1.197277 0.185379 0.385373 -0.553917 -0.837084
    21 1.535927 0.010246 0.005009 -0.002964 -0.012979 -0.682290
    22 1.100771 0.004527 -0.010679 -0.016147 -0.001453 -1.484153
    23 0.120153 -0.050270 -0.054489 0.287569 3.110905 1.561085
    24 -0.833286 2.061931 -9.064060 0.282257 -3.362467 0.731184
    25 0.096944 -8.450418 -0.009365 -0.763037 -1.346425 1.363381
    26 0.447953 -2.798986 -0.200443 -1.456960 0.099071 0.252834
    27 -0.032909 -1.480204 0.004940 -1.601340 0.000000 0.000002
    28 -0.027022 -1.076920 -0.020210 -0.353735 0.000000 0.000000
    29 -0.249534 -2.846964 -0.174213 -1.241183 0.075210 0.132159
    30 0.043235 -1.683941 0.096012 -1.813709 0.002823 -0.000167
    31 0.031729 -1.160830 0.058838 -0.456154 0.000642 0.008372
    32 -0.963866 -2.785145 -0.085350 -1.148608 0.139589 0.121877
    33 0.028479 -1.403067 0.006271 -1.391232 0.000000 0.000000
    34 0.021413 -0.957781 0.020046 -0.471322 0.000000 0.000000
    35 1.164475 -2.543940 -0.170330 -1.423710 -0.066254 0.446863
    36 0.024032 -1.129042 0.017807 -1.462507 0.000000 0.000001
    37 0.014898 -0.883989 -0.019848 -0.549408 0.000000 0.000000
    38 -0.586770 -1.264477 0.200161 0.313906 -0.927915 -2.922977
    39 1.522835 0.058681 0.016848 0.001410 0.008985 1.029593
    40 1.117947 0.048424 -0.005766 -0.023469 -0.009175 1.254246
    41 -0.139399 -0.111698 0.014397 0.407653 0.171241 1.393752
    42 -6.260806 6.983652 -0.294122 1.580804 -0.005023 -0.912799
  time 3
    0 -0.368931 1.166145 0.203512 0.000000 0.000000 0.000000
    1 10.519323 -2.328725 -10.487069 0.879302 -1.891206 -1.459844
    2 -0.071918 -8.498730 -0.104136 0.330241 0.188425 -0.201138
    3 5.233845 1.354622 1.688628 -0.065772 2.858007 1.272336
    4 19.997025 0.102143 0.000001 0.000000 0.000000 0.000000
    5 0.000000 0.000000 0.000000 0.000000 0.000000 0.000000
    6 6.506417 1.675302 0.000001 0.000000 0.000000 1.570796
    7 1.257180 8.762585 -0.153713 -1.570562 0.002683 -1.566807
    8 -0.488518 -2.755602 -0.228260 -0.636863 -0.077551 -0.298478
    9 0.039887 -1.479790 0.029854 -2.230118 0.000000 0.000001
    10 0.028786 -1.075731 -0.023109 -0.271941 0.000000 0.000000
    11 0.250027 -2.820665 -0.238396 -0.437192 -0.061406 -0.314674
    12 -0.049759 -1.680544 0.100479 -2.308624 0.000000 -0.000002
    13 -0.034142 -1.148312 0.084782 -0.535851 0.000000 0.000000
    14 0.957766 -2.746780 -0.090302 0.398790 -0.132819 0.006168
    15 -0.033420 -1.397129 -0.011257 -0.767419 0.000000 -0.000001
    16 -0.022360 -0.957436 0.018784 -0.380385 0.000000 0.000000
    17 -1.180681 -2.507217 -0.193859 -0.535961 0.112898 -0.284556
    18 -0.024967 -1.123934 0.017597 -1.884509 0.000000 0.000001
    19 -0.020057 -0.890968 0.010090 -0.772262 0.000000 0.000000
    20 0.583510 -1.197277 0.185379 0.385373 -0.553917 -0.837084
    21 1.535927 0.010246 0.005009 -0.002964 -0.012979 -0.682290
    22 1.100771 0.004527 -0.010679 -0.016147 -0.001453 -1.484153
    23 0.120153 -0.050270 -0.054489 0.287569 3.110905 1.561085
    24 -1.512994 1.952553 -9.302348 0.299444 -3.328373 0.744494
    25 0.096944 -8.450418 -0.009365 -0.763037 -1.346425 1.363381
    26 0.447953 -2.798986 -0.200443 -1.456960 0.099071 0.252834
    27 -0.032909 -1.480204 0.004940 -1.601340 0.000000 0.000002
    28 -0.027022 -1.076920 -0.020210 -0.353735 0.000000 0.000000
    29 -0.249534 -2.846964 -0.174213 -1.241183 0.075210 0.132159
    30 0.043235 -1.683941 0.096012 -1.813709 0.002823 -0.000167
    31 0.031729 -1.160830 0.058838 -0.456154 0.000642 0.008372
    32 -0.963866 -2.785145 -0.085350 -1.148608 0.139589 0.121877
    33 0.028479 -1.403067 0.006271 -1.391232 0.000000 0.000000
    34 0.021413 -0.957781 0.020046 -0.471322 0.000000 0.000000
    35 1.164475 -2.543940 -0.170330 -1.423710 -0.066254 0.446863
    36 0.024032 -1.129042 0.017807 -1.462507 0.000000 0.000001
    37 0.014898 -0.883989 -0.019848 -0.549408 0.000000 0.000000
    38 -0.586770 -1.264477 0.200161 0.313906 -0.927915 -2.922977
    39 1.522835 0.058681 0.016848 0.001410 0.008985 1.029593
    40 1.117947 0.048424 -0.005766 -0.023469 -0.009175 1.254246
    41 -0.139399 -0.111698 0.014397 0.407653 0.171241 1.393752
    42 -6.260806 6.983652 -0.294122 1.580804 -0.005023 -0.912799
  time 4
    0 -0.368931 1.166145 0.203512 0.000000 0.000000 0.000000
    1 9.820083 -2.328725 -10.733171 0.938204 -1.922205 -1.499947
    2 -0.071918 -8.498730 -0.104136 0.314793 0.180467 -0.202216
    3 5.233845 1.354622 1.688628 -0.065772 2.858007 1.272336
    4 19.997025 0.102143 0.000001 0.000000 0.000000 0.000000
    5 0.000000 0.000000 0.000000 0.000000 0.000000 0.000000
    6 6.506417 1.675302 0.000001 0.000000 0.000000 1.570796
    7 1.257180 8.762585 -0.153713 -1.570562 0.002683 -1.566807
    8 -0.488518 -2.755602 -0.228260 -0.636863 -0.077551 -0.298478
    9 0.039887 -1.479790 0.029854 -2.230118 0.000000 0.000001
    10 0.028786 -1.075731 -0.023109 -0.271941 0.000000 0.000000
    11 0.250027 -2.820665 -0.238396 -0.437192 -0.061406 -0.314674
    12 -0.049759 -1.680544 0.100479 -2.308695 0.000000 -0.000002
    13 -0.034142 -1.148312 0.084782 -0.535851 0.000000 0.000000
    14 0.957766 -2.746780 -0.090302 0.398790 -0.132819 0.006168
    15 -0.033420 -1.397129 -0.011257 -0.767419 0.000000 -0.000001
    16 -0.022360 -0.957436 0.018784 -0.380385 0.000000 0.000000
    17 -1.180681 -2.507217 -0.193859 -0.535961 0.112898 -0.284556
    18 -0.024967 -1.123934 0.017597 -1.884509 0.000000 0.000001
    19 -0.020057 -0.890968 0.010090 -0.772262 0.000000 0.000000
    20 0.583510 -1.197277 0.185379 0.385373 -0.553917 -0.837084
    21 1.535927 0.010246 0.005009 -0.002964 -0.012979 -0.682290
    22 1.100771 0.004527 -0.010679 -0.016147 -0.001453 -1.484153
    23 0.120153 -0.050270 -0.054489 0.287569 3.110905 1.561085
    24 -2.083324 1.909583 -9.591420 0.320778 -3.297766 0.748962
    25 0.096944 -8.450418 -0.009365 -0.763037 -1.346425 1.363381
    26 0.447953 -2.798986 -0.200443 -1.456960 0.099071 0.252834
    27 -0.032909 -1.480204 0.004940 -1.601340 0.000000 0.000002
    28 -0.027022 -1.076920 -0.020210 -0.353735 0.000000 0.000000
    29 -0.249534 -2.846964 -0.174213 -1.241183 0.075210 0.132159
    30 0.043235 -1.683941 0.096012 -1.813709 0.002823 -0.000167
    31 0.031729 -1.160830 0.058838 -0.456154 0.000642 0.008372
    32 -0.963866 -2.785145 -0.085350 -1.148608 0.139589 0.121877
    33 0.028479 -1.403067 0.006271 -1.391232 0.000000 0.000000
    34 0.021413 -0.957781 0.020046 -0.471322 0.000000 0.000000
    35 1.164475 -2.543940 -0.170330 -1.423710 -0.066254 0.446863
    36 0.024032 -1.129042 0.017807 -1.462507 0.000000 0.000001
    37 0.014898 -0.883989 -0.019848 -0.549408 0.000000 0.000000
    38 -0.586770 -1.264477 0.200161 0.313906 -0.927915 -2.922977
    39 1.522835 0.058681 0.016848 0.001410 0.008985 1.029593
    40 1.117947 0.048424 -0.005766 -0.023469 -0.009175 1.254246
    41 -0.139399 -0.111698 0.014397 0.407653 0.171241 1.393752
    42 -6.260806 6.983652 -0.294122 1.580804 -0.005023 -0.912799
  time 5
    0 -0.368931 1.166145 0.203512 0.000000 0.000000 0.000000
    1 9.128656 -2.328725 -10.975366 0.989025 -1.953876 -1.531977
    2 -0.071918 -8.498730 -0.104136 0.291807 0.169106 -0.204685
    3 5.233845 1.354622 1.688628 -0.065772 2.858007 1.272336
    4 19.997025 0.102143 0.000001 0.000000 0.000000 0.000000
    5 0.000000 0.000000 0.000000 0.000000 0.000000 0.000000
    6 6.506417 1.675302 0.000001 0.000000 0.000000 1.570796
    7 1.257180 8.762585 -0.153713 -1.570562 0.002683 -1.566807
    8 -0.488518 -2.755602 -0.228260 -0.636863 -0.077551 -0.298478
    9 0.039887 -1.479790 0.029854 -2.230118 0.000000 0.000001
    10 0.028786 -1.075731 -0.023109 -0.271941 0.000000 0.000000
    11 0.250027 -2.820665 -0.238396 -0.437192 -0.061406 -0.314674
    12 -0.049759 -1.680544 0.100479 -2.308624 0.000000 -0.000002
    13 -0.034142 -1.148312 0.084782 -0.535851 0.000000 0.000000
    14 0.957766 -2.746780 -0.090302 0.398790 -0.132819 0.006168
    15 -0.033420 -1.397129 -0.011257 -0.767419 0.000000 -0.000001
    16 -0.022360 -0.957436 0.018784 -0.380385 0.000000 0.000000
    17 -1.180681 -2.507217 -0.193859 -0.535961 0.112898 -0.284556
    18 -0.024967 -1.123934 0.017597 -1.884509 0.000000 0.000001
    19 -0.020057 -0.890968 0.010090 -0.772262 0.000000 0.000000
    20 0.583510 -1.197277 0.185379 0.385373 -0.553917 -0.837084
    21 1.535927 0.010246 0.005009 -0.002964 -0.012979 -0.682290
    22 1.100771 0.004527 -0.010679 -0.016147 -0.001453 -1.484153
    23 0.120153 -0.050270 -0.054489 0.287569 3.110905 1.561085
    24 -2.575527 1.917396 -9.927367 0.345857 -3.270298 0.746680
    25 0.096944 -8.450418 -0.009365 -0.763037 -1.346425 1.363381
    26 0.447953 -2.798986 -0.200443 -1.456960 0.099071 0.252834
    27 -0.032909 -1.480204 0.004940 -1.601340 0.000000 0.000002
    28 -0.027022 -1.076920 -0.020210 -0.353735 0.000000 0.000000
    29 -0.249534 -2.846964 -0.174213 -1.241183 0.075210 0.132159
    30 0.043235 -1.683941 0.096012 -1.813709 0.002823 -0.000167
    31 0.031729 -1.160830 0.058838 -0.456154 0.000642 0.008372
    32 -0.963866 -2.785145 -0.085350 -1.148608 0.139589 0.121877
    33 0.028479 -1.403067 0.006271 -1.391232 0.000000 0.000000
    34 0.021413 -0.957781 0.020046 -0.471322 0.000000 0.000000
    35 1.164475 -2.543940 -0.170330 -1.423710 -0.066254 0.446863
    36 0.024032 -1.129042 0.017807 -1.462507 0.000000 0.000001
    37 0.014898 -0.883989 -0.019848 -0.549408 0.000000 0.000000
    38 -0.586770 -1.264477 0.200161 0.313906 -0.927915 -2.922977
    39 1.522835 0.058681 0.016848 0.001410 0.008985 1.029593
    40 1.117947 0.048424 -0.005766 -0.023469 -0.009175 1.254246
    41 -0.139399 -0.111698 0.014397 0.407653 0.171241 1.393752
    42 -6.260806 6.983652 -0.294122 1.580804 -0.005023 -0.912799
  time 6
    0 -0.368931 1.166145 0.203512 0.000000 0.000000 0.000000
    1 8.429416 -2.328725 -11.221467 1.033651 -1.986067 -1.557688
    2 -0.071918 -8.498730 -0.104136 0.263619 0.155276 -0.207873
    3 5.233845 1.354622 1.688628 -0.065772 2.858007 1.272336
    4 19.997025 0.102143 0.000001 0.000000 0.000000 0.000000
    5 0.000000 0.000000 0.000000 0.000000 0.000000 0.000000
    6 6.506417 1.675302 0.000001 0.000000 0.000000 1.570796
    7 1.257180 8.762585 -0.153713 -1.570562 0.002683 -1.566807
    8 -0.488518 -2.755602 -0.228260 -0.636863 -0.077551 -0.298478
    9 0.039887 -1.479790 0.029854 -2.230118 0.000000 0.000001
    10 0.028786 -1.075731 -0.023109 -0.271941 0.000000 0.000000
    11 0.250027 -2.820665 -0.238396 -0.437192 -0.061406 -0.314674
    12 -0.049759 -1.680544 0.100479 -2.308624 0.000000 -0.000002
    13 -0.034142 -1.148312 0.084782 -0.535851 0.000000 0.000000
    14 0.957766 -2.746780 -0.090302 0.398790 -0.132819 0.006168
    15 -0.033420 -1.397129 -0.011257 -0.767419 0.000000 -0.000001
    16 -0.022360 -0.957436 0.018784 -0.380385 0.000000 0.000000
    17 -1.180681 -2.507217 -0.193859 -0.535961 0.112898 -0.284556
    18 -0.024967 -1.123934 0.017597 -1.884509 0.000000 0.000001
    19 -0.020057 -0.890968 0.010090 -0.772262 0.000000 0.000000
    20 0.583510 -1.197277 0.185379 0.385373 -0.553917 -0.837084
    21 1.535927 0.010246 0.005009 -0.002964 -0.012979 -0.682290
    22 1.100771 0.004527 -0.010679 -0.016147 -0.001453 -1.484153
    23 0.120153 -0.050270 -0.054489 0.287569 3.110905 1.561085
    24 -3.009134 1.948647 -10.302379 0.374146 -3.245447 0.740026
    25 0.096944 -8.450418 -0.009365 -0.763037 -1.346425 1.363381
    26 0.447953 -2.798986 -0.200443 -1.456960 0.099071 0.252834
    27 -0.032909 -1.480204 0.004940 -1.601340 0.000000 0.000002
    28 -0.027022 -1.076920 -0.020210 -0.353735 0.000000 0.000000
    29 -0.249534 -2.846964 -0.174213 -1.241183 0.075210 0.132159
    30 0.043235 -1.683941 0.096012 -1.813709 0.002823 -0.000167
    31 0.031729 -1.160830 0.058838 -0.456154 0.000642 0.008372
    32 -0.963866 -2.785145 -0.085350 -1.148608 0.139589 0.121877
    33 0.028479 -1.403067 0.006271 -1.391232 0.000000 0.000000
    34 0.021413 -0.957781 0.020046 -0.471322 0.000000 0.000000
    35 1.164475 -2.543940 -0.170330 -1.423710 -0.066254 0.446863
    36 0.024032 -1.129042 0.017807 -1.462507 0.000000 0.000001
    37 0.014898 -0.883989 -0.019848 -0.549408 0.000000 0.000000
    38 -0.586770 -1.264477 0.200161 0.313906 -0.927915 -2.922977
    39 1.522835 0.058681 0.016848 0.001410 0.008985 1.029593
    40 1.117947 0.048424 -0.005766 -0.023469 -0.009175 1.254246
    41 -0.139399 -0.111698 0.014397 0.407653 0.171241 1.393752
    42 -6.260806 6.983652 -0.294122 1.580804 -0.005023 -0.912799
  time 7
    0 -0.368931 1.166145 0.203512 0.000000 0.000000 0.000000
    1 7.734082 -2.328725 -11.467568 -2.068143 -1.122942 1.563223
    2 -0.071918 -8.498730 -0.104136 0.232519 0.139983 -0.211181
    3 5.233845 1.354622 1.688628 -0.065772 2.858007 1.272336
    4 19.997025 0.102143 0.000001 0.000000 0.000000 0.000000
    5 0.000000 0.000000 0.000000 0.000000 0.000000 0.000000
    6 6.506417 1.675302 0.000001 0.000000 0.000000 1.570796
    7 1.257180 8.762585 -0.153713 -1.570562 0.002683 -1.566807
    8 -0.488518 -2.755602 -0.228260 -0.636863 -0.077551 -0.298478
    9 0.039887 -1.479790 0.029854 -2.230118 0.000000 0.000001
    10 0.028786 -1.075731 -0.023109 -0.271941 0.000000 0.000000
    11 0.250027 -2.820665 -0.238396 -0.437192 -0.061406 -0.314674
    12 -0.049759 -1.680544 0.100479 -2.308624 0.000000 -0.000002
    13 -0.034142 -1.148312 0.084782 -0.535851 0.000000 0.000000
    14 0.957766 -2.746780 -0.090302 0.398790 -0.132819 0.006168
    15 -0.033420 -1.397129 -0.011257 -0.767419 0.000000 -0.000001
    16 -0.022360 -0.957436 0.018784 -0.380385 0.000000 0.000000
    17 -1.180681 -2.507217 -0.193859 -0.535961 0.112898 -0.284556
    18 -0.024967 -1.123934 0.017597 -1.884509 0.000000 0.000001
    19 -0.020057 -0.890968 0.010090 -0.772262 0.000000 0.000000
    20 0.583510 -1.197277 0.185379 0.385373 -0.553917 -0.837084
    21 1.535927 0.010246 0.005009 -0.002964 -0.012979 -0.682290
    22 1.100771 0.004527 -0.010679 -0.016147 -0.001453 -1.484153
    23 0.120153 -0.050270 -0.054489 0.287569 3.110905 1.561085
    24 -3.411490 1.983804 -10.704735 0.404842 -3.222688 0.730994
    25 0.096944 -8.450418 -0.009365 -0.763037 -1.346425 1.363381
    26 0.447953 -2.798986 -0.200443 -1.456960 0.099071 0.252834
    27 -0.032909 -1.480204 0.004940 -1.601340 0.000000 0.000002
    28 -0.027022 -1.076920 -0.020210 -0.353735 0.000000 0.000000
    29 -0.249534 -2.846964 -0.174213 -1.241183 0.075210 0.132159
    30 0.043235 -1.683941 0.096012 -1.813709 0.002823 -0.000167
    31 0.031729 -1.160830 0.058838 -0.456154 0.000642 0.008372
    32 -0.963866 -2.785145 -0.085350 -1.148608 0.139589 0.121877
    33 0.028479 -1.403067 0.006271 -1.391232 0.000000 0.000000
    34 0.021413 -0.957781 0.020046 -0.471322 0.000000 0.000000
    35 1.164475 -2.543940 -0.170330 -1.423710 -0.066254 0.446863
    36 0.024032 -1.129042 0.017807 -1.462507 0.000000 0.000001
    37 0.014898 -0.883989 -0.019848 -0.549408 0.000000 0.000000
    38 -0.586770 -1.264477 0.200161 0.313906 -0.927915 -2.922977
    39 1.522835 0.058681 0.016848 0.001410 0.008985 1.029593
    40 1.117947 0.048424 -0.005766 -0.023469 -0.009175 1.254246
    41 -0.139399 -0.111698 0.014397 0.407653 0.171241 1.393752
    42 -6.260806 6.983652 -0.294122 1.580804 -0.005023 -0.912799
  time 8
    0 -0.368931 1.166145 0.203512 0.000000 0.000000 0.000000
    1 7.034842 -2.328725 -11.713669 -2.032406 -1.090079 1.546814
    2 -0.071918 -8.498730 -0.104136 0.200808 0.124248 -0.214105
    3 5.233845 1.354622 1.688628 -0.065772 2.858007 1.272336
    4 19.997025 0.102143 0.000001 0.000000 0.000000 0.000000
    5 0.000000 0.000000 0.000000 0.000000 0.000000 0.000000
    6 6.506417 1.675302 0.000001 0.000000 0.000000 1.570796
    7 1.257180 8.762585 -0.153713 -1.570562 0.002683 -1.566807
    8 -0.488518 -2.755602 -0.228260 -0.636863 -0.077551 -0.298478
    9 0.039887 -1.479790 0.029854 -2.230118 0.000000 0.000001
    10 0.028786 -1.075731 -0.023109 -0.271941 0.000000 0.000000
    11 0.250027 -2.820665 -0.238396 -0.437192 -0.061406 -0.314674
    12 -0.049759 -1.680544 0.100479 -2.308695 0.000000 -0.000002
    13 -0.034142 -1.148312 0.084782 -0.535851 0.000000 0.000000
    14 0.957766 -2.746780 -0.090302 0.398790 -0.132819 0.006168
    15 -0.033420 -1.397129 -0.011257 -0.767419 0.000000 -0.000001
    16 -0.022360 -0.957436 0.018784 -0.380385 0.000000 0.000000
    17 -1.180681 -2.507217 -0.193859 -0.535961 0.112898 -0.284556
    18 -0.024967 -1.123934 0.017597 -1.884509 0.000000 0.000001
    19 -0.020057 -0.890968 0.010090 -0.772262 0.000000 0.000000
    20 0.583510 -1.197277 0.185379 0.385373 -0.553917 -0.837084
    21 1.535927 0.010246 0.005009 -0.002964 -0.012979 -0.682290
    22 1.100771 0.004527 -0.010679 -0.016147 -0.001453 -1.484153
    23 0.120153 -0.050270 -0.054489 0.287569 3.110905 1.561085
    24 -3.806033 2.015055 -11.126623 0.436810 -3.201237 0.721393
    25 0.096944 -8.450418 -0.009365 -0.763037 -1.346425 1.363381
    26 0.447953 -2.798986 -0.200443 -1.456960 0.099071 0.252834
    27 -0.032909 -1.480204 0.004940 -1.601340 0.000000 0.000002
    28 -0.027022 -1.076920 -0.020210 -0.353735 0.000000 0.000000
    29 -0.249534 -2.846964 -0.174213 -1.241183 0.075210 0.132159
    30 0.043235 -1.683941 0.096012 -1.813709 0.002823 -0.000167
    31 0.031729 -1.160830 0.058838 -0.456154 0.000642 0.008372
    32 -0.963866 -2.785145 -0.085350 -1.148608 0.139589 0.121877
    33 0.028479 -1.403067 0.006271 -1.391232 0.000000 0.000000
    34 0.021413 -0.957781 0.020046 -0.471322 0.000000 0.000000
    35 1.164475 -2.543940 -0.170330 -1.423710 -0.066254 0.446863
    36 0.024032 -1.129042 0.017807 -1.462507 0.000000 0.000001
    37 0.014898 -0.883989 -0.019848 -0.549408 0.000000 0.000000
    38 -0.586770 -1.264477 0.200161 0.313906 -0.927915 -2.922977
    39 1.522835 0.058681 0.016848 0.001410 0.008985 1.029593
    40 1.117947 0.048424 -0.005766 -0.023469 -0.009175 1.254246
    41 -0.139399 -0.111698 0.014397 0.407653 0.171241 1.393752
    42 -6.260806 6.983652 -0.294122 1.580804 -0.005023 -0.912799
  time 9
    0 -0.368931 1.166145 0.203512 0.000000 0.000000 0.000000
    1 6.339508 -2.328725 -11.959771 -1.999902 -1.056973 1.533651
    2 -0.071918 -8.498730 -0.104136 0.170679 0.109135 -0.216322
    3 5.233845 1.354622 1.688628 -0.065772 2.858007 1.272336
    4 19.997025 0.102143 0.000001 0.000000 0.000000 0.000000
    5 0.000000 0.000000 0.000000 0.000000 0.000000 0.000000
    6 6.506417 1.675302 0.000001 0.000000 0.000000 1.570796
    7 1.257180 8.762585 -0.153713 -1.570562 0.002683 -1.566807
    8 -0.488518 -2.755602 -0.228260 -0.636863 -0.077551 -0.298478
    9 0.039887 -1.479790 0.029854 -2.230118 0.000000 0.000001
    10 0.028786 -1.075731 -0.023109 -0.271941 0.000000 0.000000
    11 0.250027 -2.820665 -0.238396 -0.437192 -0.061406 -0.314674
    12 -0.049759 -1.680544 0.100479 -2.308624 0.000000 -0.000002
    13 -0.034142 -1.148312 0.084782 -0.535851 0.000000 0.000000
    14 0.957766 -2.746780 -0.090302 0.398790 -0.132819 0.006168
    15 -0.033420 -1.397129 -0.011257 -0.767419 0.000000 -0.000001
    16 -0.022360 -0.957436 0.018784 -0.380385 0.000000 0.000000
    17 -1.180681 -2.507217 -0.193859 -0.535961 0.112898 -0.284556
    18 -0.024967 -1.123934 0.017597 -1.884509 0.000000 0.000001
    19 -0.020057 -0.890968 0.010090 -0.772262 0.000000 0.000000
    20 0.583510 -1.197277 0.185379 0.385373 -0.553917 -0.837084
    21 1.535927 0.010246 0.005009 -0.002964 -0.012979 -0.682269
    22 1.100771 0.004527 -0.010679 -0.016147 -0.001453 -1.484153
    23 0.120153 -0.050270 -0.054489 0.287569 3.110905 1.561085
    24 -4.216202 2.022868 -11.544604 0.468777 -3.179960 0.713217
    25 0.096944 -8.450418 -0.009365 -0.763037 -1.346425 1.363381
    26 0.447953 -2.798986 -0.200443 -1.456960 0.099071 0.252834
    27 -0.032909 -1.480204 0.004940 -1.601340 0.000000 0.000002
    28 -0.027022 -1.076920 -0.020210 -0.353735 0.000000 0.000000
    29 -0.249534 -2.846964 -0.174213 -1.241183 0.075210 0.132159
    30 0.043235 -1.683941 0.096012 -1.813709 0.002823 -0.000167
    31 0.031729 -1.160830 0.058838 -0.456154 0.000642 0.008372
    32 -0.963866 -2.785145 -0.085350 -1.148608 0.139589 0.121877
    33 0.028479 -1.403067 0.006271 -1.391232 0.000000 0.000000
    34 0.021413 -0.957781 0.020046 -0.471322 0.000000 0.000000
    35 1.164475 -2.543940 -0.170330 -1.423710 -0.066254 0.446863
    36 0.024032 -1.129042 0.017807 -1.462507 0.000000 0.000001
    37 0.014898 -0.883989 -0.019848 -0.549408 0.000000 0.000000
    38 -0.586770 -1.264477 0.200161 0.313906 -0.927915 -2.922977
    39 1.522835 0.058681 0.016848 0.001410 0.008985 1.029593
    40 1.117947 0.048424 -0.005766 -0.023469 -0.009175 1.254246
    41 -0.139399 -0.111698 0.014397 0.407653 0.171241 1.393752
    42 -6.260806 6.983652 -0.294122 1.580804 -0.005023 -0.912799
  time 10
    0 -0.368931 1.166145 0.203512 0.000000 0.000000 0.000000
    1 5.644175 -2.328725 -12.205872 -1.970092 -1.023683 1.523384
    2 -0.071918 -8.498730 -0.104136 0.144348 0.095736 -0.217592
    3 5.233845 1.354622 1.688628 -0.065772 2.858007 1.272336
    4 19.997025 0.102143 0.000001 0.000000 0.000000 0.000000
    5 0.000000 0.000000 0.000000 0.000000 0.000000 0.000000
    6 6.506417 1.675302 0.000001 0.000000 0.000000 1.570796
    7 1.257180 8.762585 -0.153713 -1.570562 0.002683 -1.566807
    8 -0.488518 -2.755602 -0.228260 -0.636863 -0.077551 -0.298478
    9 0.039887 -1.479790 0.029854 -2.230118 0.000000 0.000001
    10 0.028786 -1.075731 -0.023109 -0.271941 0.000000 0.000000
    11 0.250027 -2.820665 -0.238396 -0.437192 -0.061406 -0.314674
    12 -0.049759 -1.680544 0.100479 -2.308695 0.000000 -0.000002
    13 -0.034142 -1.148312 0.084782 -0.535851 0.000000 0.000000
    14 0.957766 -2.746780 -0.090302 0.398790 -0.132819 0.006168
    15 -0.033420 -1.397129 -0.011257 -0.767419 0.000000 -0.000001
    16 -0.022360 -0.957436 0.018784 -0.380385 0.000000 0.000000
    17 -1.180681 -2.507217 -0.193859 -0.535961 0.112898 -0.284556
    18 -0.024967 -1.123934 0.017597 -1.884509 0.000000 0.000001
    19 -0.020057 -0.890968 0.010090 -0.772262 0.000000 0.000000
    20 0.583510 -1.197277 0.185379 0.385373 -0.553917 -0.837084
    21 1.535927 0.010246 0.005009 -0.002964 -0.012979 -0.682290
    22 1.100771 0.004527 -0.010679 -0.016147 -0.001453 -1.484153
    23 0.120153 -0.050270 -0.054489 0.287569 3.110905 1.561085
    24 -4.669341 2.003336 -11.950867 0.499407 -3.157637 0.708178
    25 0.096944 -8.450418 -0.009365 -0.763037 -1.346425 1.363381
    26 0.447953 -2.798986 -0.200443 -1.456960 0.099071 0.252834
    27 -0.032909 -1.480204 0.004940 -1.601340 0.000000 0.000002
    28 -0.027022 -1.076920 -0.020210 -0.353735 0.000000 0.000000
    29 -0.249534 -2.846964 -0.174213 -1.241183 0.075210 0.132159
    30 0.043235 -1.683941 0.096012 -1.813709 0.002823 -0.000167
    31 0.031729 -1.160830 0.058838 -0.456154 0.000642 0.008372
    32 -0.963866 -2.785145 -0.085350 -1.148608 0.139589 0.121877
    33 0.028479 -1.403067 0.006271 -1.391232 0.000000 0.000000
    34 0.021413 -0.957781 0.020046 -0.471322 0.000000 0.000000
    35 1.164475 -2.543940 -0.170330 -1.423710 -0.066254 0.446863
    36 0.024032 -1.129042 0.017807 -1.462507 0.000000 0.000001
    37 0.014898 -0.883989 -0.019848 -0.549408 0.000000 0.000000
    38 -0.586770 -1.264477 0.200161 0.313906 -0.927915 -2.922977
    39 1.522835 0.058681 0.016848 0.001410 0.008985 1.029593
    40 1.117947 0.048424 -0.005766 -0.023469 -0.009175 1.254246
    41 -0.139399 -0.111698 0.014397 0.407653 0.171241 1.393752
    42 -6.260806 6.983652 -0.294122 1.580804 -0.005023 -0.912799
end
