version 1
nodes
  0 "Bone01" -1
  1 "Bone_Lefthand" 0
  2 "Bone02" 1
  3 "Bone03" 2
  4 "Bone48" 3
  5 "Bone56" 3
  6 "Bone25" 3
  7 "Bone54" 3
  8 "Bone50" 3
  9 "Bone52" 3
  10 "Bone_Button" 3
  11 "Bone04" -1
  12 "Bone_Righthand" 11
  13 "Bone27" 12
  14 "Bone28" 13
  15 "Bone29" 14
  16 "Bone31" 12
  17 "Bone32" 16
  18 "Bone33" 17
  19 "Bone35" 12
  20 "Bone36" 19
  21 "Bone37" 20
  22 "Bone39" 12
  23 "Bone40" 22
  24 "Bone41" 23
  25 "Bone43" 12
  26 "Bone44" 25
  27 "Bone45" 26
  28 "Bone_Se_Hand-R" 12
  29 "Bone05" 1
  30 "Bone06" 29
  31 "Bone07" 30
  32 "Bone21" 1
  33 "Bone22" 32
  34 "Bone23" 33
  35 "Bone17" 1
  36 "Bone18" 35
  37 "Bone19" 36
  38 "Bone13" 1
  39 "Bone14" 38
  40 "Bone15" 39
  41 "Bone09" 1
  42 "Bone10" 41
  43 "Bone11" 42
  44 "Bone_Se_Hand-L" 1
end
skeleton
  time 0
    0 7.602645 3.724267 -5.924458 -0.981508 -1.423763 0.743275
    1 -0.069508 -8.500779 -0.100989 0.351238 -0.142149 -0.182270
    2 -0.549791 -3.387297 1.031815 0.764876 1.739162 0.794019
    3 0.000000 1.888488 0.974220 0.000000 0.000000 0.000000
    4 -0.291301 13.772059 -1.094121 0.000000 0.000000 0.000000
    5 -0.482113 -4.704160 2.234720 0.000000 -2.835044 0.000000
    6 -0.013948 -2.720513 1.100493 0.553130 0.000000 0.000000
    7 -0.013949 -4.784637 0.953041 0.000000 0.000000 0.000000
    8 0.013504 -3.609847 2.576681 0.000000 0.000000 0.000000
    9 -0.061524 -0.623888 2.571739 0.000000 0.000000 0.000000
    10 -0.640636 -3.730933 1.422005 -1.570796 0.000000 -1.570796
    11 -0.339367 -3.110133 -8.176842 1.112484 2.086520 1.553969
    12 0.096946 -8.450419 -0.009363 0.022718 -0.623393 0.384990
    13 -0.586769 -1.264477 0.200164 -0.151994 -0.262831 -2.348678
    14 1.522835 0.058680 0.016850 0.407312 0.043542 0.324442
    15 1.117947 0.048424 -0.005765 0.209870 -0.001474 -0.115466
    16 -0.963867 -2.785143 -0.085346 -0.991575 0.384655 0.005354
    17 0.028478 -1.403067 0.006272 -1.138366 -0.049204 -0.002683
    18 0.021412 -0.957782 0.020047 -0.469066 -0.033045 -0.015228
    19 -0.249534 -2.846963 -0.174215 -0.833400 0.272817 0.172600
    20 0.043235 -1.683940 0.096015 -1.470641 0.000001 0.000000
    21 0.031729 -1.160830 0.058836 -0.875961 0.000000 0.000000
    22 0.447951 -2.798983 -0.200441 -1.034777 0.344592 0.302295
    23 -0.032909 -1.480207 0.004935 -1.539428 0.000000 0.000000
    24 -0.027023 -1.076921 -0.020212 -0.358738 0.000000 0.000000
    25 1.164474 -2.543939 -0.170327 -1.126103 0.241153 0.235942
    26 0.024033 -1.129040 0.017807 -1.349622 0.000000 -0.000001
    27 0.014896 -0.883992 -0.019846 -0.511010 0.000000 0.000000
    28 -0.064620 -0.124786 0.029284 0.384017 0.052253 1.458040
    29 0.583509 -1.197274 0.185379 0.377232 -0.745798 -1.043320
    30 1.535926 0.010247 0.005009 -0.290357 -0.063207 -0.837499
    31 1.100770 0.004528 -0.010675 0.000000 0.000000 -0.577704
    32 0.957766 -2.746777 -0.090301 -0.311663 0.016530 0.045802
    33 -0.033419 -1.397128 -0.011255 -1.192059 0.000000 0.000000
    34 -0.022361 -0.957433 0.018783 -0.593413 0.000000 0.000000
    35 0.250029 -2.820664 -0.238396 -0.872208 -0.049326 -0.238818
    36 -0.049759 -1.680544 0.100479 -1.454738 0.000000 0.000000
    37 -0.034141 -1.148311 0.084779 -1.567306 0.000000 0.000000
    38 -0.488517 -2.755600 -0.228261 -1.098181 -0.096000 -0.264903
    39 0.039889 -1.479791 0.029854 -1.354100 0.000000 0.000000
    40 0.028785 -1.075733 -0.023110 -1.435200 0.000000 0.000000
    41 -1.180679 -2.507216 -0.193861 -1.163678 -0.049451 -0.281014
    42 -0.024967 -1.123934 0.017595 -0.883852 0.000000 0.000000
    43 -0.020058 -0.890965 0.010091 -1.435318 0.000000 0.000000
    44 0.120180 -0.051600 -0.063059 0.012085 -2.987703 1.512552
  time 1
    0 8.079222 3.962555 -7.647167 -1.375153 -1.243156 1.065858
    1 -0.069508 -8.500779 -0.100989 0.425131 -0.049416 -0.331647
    2 -0.549791 -3.387297 1.031815 0.764876 1.739162 0.794019
    3 0.000000 1.888488 0.974220 0.000000 0.000000 0.000000
    4 -0.291301 13.772059 -1.094121 0.000000 0.000000 0.000000
    5 -0.482113 -4.704160 2.234720 0.000000 -2.645205 0.000000
    6 -0.013948 -2.720513 1.100493 0.559064 0.000000 0.000000
    7 -0.013949 -4.784637 0.953041 0.000000 0.000000 0.000000
    8 0.017410 -1.262119 2.580587 0.000000 0.000000 0.000000
    9 -0.061524 -0.623888 2.571739 0.000000 0.000000 0.000000
    10 -0.640636 -3.730933 1.422005 -1.570796 0.000000 -1.570796
    11 -0.374524 -2.746840 -8.294033 -2.008311 0.998513 -1.536502
    12 0.096946 -8.450419 -0.009363 0.032245 -0.545506 0.446578
    13 -0.586769 -1.264477 0.200164 -0.134056 -0.272197 -2.416295
    14 1.522835 0.058680 0.016850 0.409457 0.006857 0.408958
    15 1.117947 0.048424 -0.005765 0.204380 0.048022 -0.350054
    16 -0.963867 -2.785143 -0.085346 -0.991575 0.384655 0.005354
    17 0.028478 -1.403067 0.006272 -1.138366 -0.049204 -0.002683
    18 0.021412 -0.957782 0.020047 -0.469066 -0.033045 -0.015228
    19 -0.249534 -2.846963 -0.174215 -0.799527 0.272002 0.171773
    20 0.043235 -1.683940 0.096015 -1.483698 0.000001 0.000000
    21 0.031729 -1.160830 0.058836 -0.876709 0.000000 0.000000
    22 0.447951 -2.798983 -0.200441 -1.034204 0.333051 0.295056
    23 -0.032909 -1.480207 0.004935 -1.540034 0.000000 0.000000
    24 -0.027023 -1.076921 -0.020212 -0.358738 0.000000 0.000000
    25 1.164474 -2.543939 -0.170327 -1.126103 0.241153 0.235942
    26 0.024033 -1.129040 0.017807 -1.349622 0.000000 -0.000001
    27 0.014896 -0.883992 -0.019846 -0.511010 0.000000 0.000000
    28 -0.064620 -0.124786 0.029284 0.384017 0.052253 1.458040
    29 0.583509 -1.197274 0.185379 0.377232 -0.745798 -1.043320
    30 1.535926 0.010247 0.005009 -0.290357 -0.063207 -0.837499
    31 1.100770 0.004528 -0.010675 0.000000 0.000000 -0.577704
    32 0.957766 -2.746777 -0.090301 -0.311663 0.016530 0.045802
    33 -0.033419 -1.397128 -0.011255 -1.192059 0.000000 0.000000
    34 -0.022361 -0.957433 0.018783 -0.755725 0.000000 0.000000
    35 0.250029 -2.820664 -0.238396 -0.872208 -0.049326 -0.238818
    36 -0.049759 -1.680544 0.100479 -1.454738 0.000000 0.000000
    37 -0.034141 -1.148311 0.084779 -1.567306 0.000000 0.000000
    38 -0.488517 -2.755600 -0.228261 -1.098181 -0.096000 -0.264903
    39 0.039889 -1.479791 0.029854 -1.354100 0.000000 0.000000
    40 0.028785 -1.075733 -0.023110 -1.435200 0.000000 0.000000
    41 -1.180679 -2.507216 -0.193861 -1.163678 -0.049451 -0.281014
    42 -0.024967 -1.123934 0.017595 -0.883852 0.000000 0.000000
    43 -0.020058 -0.890965 0.010091 -1.435318 0.000000 0.000000
    44 0.120180 -0.051600 -0.063059 0.012085 -2.987703 1.512552
  time 2
    0 7.926874 3.493791 -7.057305 -1.373048 -1.250928 1.058798
    1 -0.069508 -8.500779 -0.100989 0.425962 -0.044652 -0.336591
    2 -0.549791 -3.387297 1.031815 0.764876 1.739162 0.794019
    3 0.000000 1.888488 0.974220 0.000000 0.000000 0.000000
    4 -0.291301 13.772059 -1.094121 0.000000 0.000000 0.000000
    5 -0.482113 -4.704160 2.234720 0.000000 -2.645301 0.000000
    6 -0.013948 -2.720513 1.100493 0.570957 0.000000 0.000000
    7 -0.013949 -4.784637 0.953041 0.000000 0.000000 0.000000
    8 0.029129 -1.176179 2.600119 0.000000 0.000000 0.000000
    9 -0.061524 -0.623888 2.571739 0.000000 0.000000 0.000000
    10 -0.640636 -3.730933 1.422005 -1.570796 0.000000 -1.570796
    11 0.004394 -2.965597 -8.157310 -1.921784 0.982112 -1.531865
    12 0.096946 -8.450419 -0.009363 -0.043486 -0.518534 0.528922
    13 -0.586769 -1.264477 0.200164 -0.132479 -0.272920 -2.422132
    14 1.522835 0.058680 0.016850 0.409536 0.000263 0.423901
    15 1.117947 0.048424 -0.005765 0.207307 0.032994 -0.278019
    16 -0.963867 -2.785143 -0.085346 -0.991575 0.384655 0.005354
    17 0.028478 -1.403067 0.006272 -1.138366 -0.049204 -0.002683
    18 0.021412 -0.957782 0.020047 -0.469066 -0.033045 -0.015228
    19 -0.249534 -2.846963 -0.174215 -0.760548 0.270412 0.170059
    20 0.043235 -1.683940 0.096015 -1.498596 0.000001 0.000000
    21 0.031729 -1.160830 0.058836 -0.878504 0.000000 0.000000
    22 0.447951 -2.798983 -0.200441 -1.033583 0.321509 0.287853
    23 -0.032909 -1.480207 0.004935 -1.541446 0.000000 0.000000
    24 -0.027023 -1.076921 -0.020212 -0.358738 0.000000 0.000000
    25 1.164474 -2.543939 -0.170327 -1.126103 0.241153 0.235942
    26 0.024033 -1.129040 0.017807 -1.349622 0.000000 -0.000001
    27 0.014896 -0.883992 -0.019846 -0.511010 0.000000 0.000000
    28 -0.064620 -0.124786 0.029284 0.384017 0.052253 1.458040
    29 0.583509 -1.197274 0.185379 0.377232 -0.745798 -1.043320
    30 1.535926 0.010247 0.005009 -0.290357 -0.063207 -0.837499
    31 1.100770 0.004528 -0.010675 0.000000 0.000000 -0.577704
    32 0.957766 -2.746777 -0.090301 -0.314383 0.016530 0.045802
    33 -0.033419 -1.397128 -0.011255 -1.203100 0.000000 0.000000
    34 -0.022361 -0.957433 0.018783 -0.777760 0.000000 0.000000
    35 0.250029 -2.820664 -0.238396 -0.872208 -0.049326 -0.238818
    36 -0.049759 -1.680544 0.100479 -1.454738 0.000000 0.000000
    37 -0.034141 -1.148311 0.084779 -1.567306 0.000000 0.000000
    38 -0.488517 -2.755600 -0.228261 -1.098181 -0.096000 -0.264903
    39 0.039889 -1.479791 0.029854 -1.354100 0.000000 0.000000
    40 0.028785 -1.075733 -0.023110 -1.435200 0.000000 0.000000
    41 -1.180679 -2.507216 -0.193861 -1.163678 -0.049451 -0.281014
    42 -0.024967 -1.123934 0.017595 -0.883852 0.000000 0.000000
    43 -0.020058 -0.890965 0.010091 -1.435318 0.000000 0.000000
    44 0.120180 -0.051600 -0.063059 0.012085 -2.987703 1.512552
  time 3
    0 7.813589 3.161749 -6.639324 -1.329026 -1.292891 1.023161
    1 -0.069508 -8.500779 -0.100989 0.416957 -0.054821 -0.318949
    2 -0.549791 -3.387297 1.031815 0.764876 1.739162 0.794019
    3 0.000000 1.888488 0.974220 0.000000 0.000000 0.000000
    4 -0.291301 13.772059 -1.094121 0.000000 0.000000 0.000000
    5 -0.482113 -4.704160 2.234720 0.000000 -2.547508 0.000000
    6 -0.013948 -2.720513 1.100493 0.579896 0.000000 0.000000
    7 -0.013949 -4.784637 0.953041 0.000000 0.000000 0.000000
    8 0.029129 -1.719164 2.596213 0.000000 0.000000 0.000000
    9 -0.061524 -0.623888 2.571739 0.000000 0.000000 0.000000
    10 -0.640636 -3.730933 1.422005 -1.570796 0.000000 -1.570796
    11 0.387218 -3.188260 -8.001055 -1.890739 1.017584 -1.561555
    12 0.096946 -8.450419 -0.009363 -0.112061 -0.509860 0.526608
    13 -0.586769 -1.264477 0.200164 -0.134126 -0.272082 -2.415831
    14 1.522835 0.058680 0.016850 0.409536 -0.000499 0.425431
    15 1.117947 0.048424 -0.005765 0.209784 0.006196 -0.151577
    16 -0.963867 -2.785143 -0.085346 -0.991575 0.384655 0.005354
    17 0.028478 -1.403067 0.006272 -1.138366 -0.049204 -0.002683
    18 0.021412 -0.957782 0.020047 -0.469066 -0.033045 -0.015228
    19 -0.249534 -2.846963 -0.174215 -0.724168 0.269281 0.168741
    20 0.043235 -1.683940 0.096015 -1.512553 0.000001 0.000000
    21 0.031729 -1.160830 0.058836 -0.880747 0.000000 0.000000
    22 0.447951 -2.798983 -0.200441 -1.034013 0.313084 0.283191
    23 -0.032909 -1.480207 0.004935 -1.543212 0.000000 0.000000
    24 -0.027023 -1.076921 -0.020212 -0.358738 0.000000 0.000000
    25 1.164474 -2.543939 -0.170327 -1.126103 0.241153 0.235942
    26 0.024033 -1.129040 0.017807 -1.349622 0.000000 -0.000001
    27 0.014896 -0.883992 -0.019846 -0.511010 0.000000 0.000000
    28 -0.064620 -0.124786 0.029284 0.384017 0.052253 1.458040
    29 0.583509 -1.197274 0.185379 0.377232 -0.745798 -1.043320
    30 1.535926 0.010247 0.005009 -0.290357 -0.063207 -0.837499
    31 1.100770 0.004528 -0.010675 0.000000 0.000000 -0.577704
    32 0.957766 -2.746777 -0.090301 -0.317092 0.016530 0.045802
    33 -0.033419 -1.397128 -0.011255 -1.214170 0.000000 0.000000
    34 -0.022361 -0.957433 0.018783 -0.772747 0.000000 0.000000
    35 0.250029 -2.820664 -0.238396 -0.872208 -0.049326 -0.238818
    36 -0.049759 -1.680544 0.100479 -1.454738 0.000000 0.000000
    37 -0.034141 -1.148311 0.084779 -1.567306 0.000000 0.000000
    38 -0.488517 -2.755600 -0.228261 -1.098181 -0.096000 -0.264903
    39 0.039889 -1.479791 0.029854 -1.354100 0.000000 0.000000
    40 0.028785 -1.075733 -0.023110 -1.435200 0.000000 0.000000
    41 -1.180679 -2.507216 -0.193861 -1.163678 -0.049451 -0.281014
    42 -0.024967 -1.123934 0.017595 -0.883852 0.000000 0.000000
    43 -0.020058 -0.890965 0.010091 -1.435318 0.000000 0.000000
    44 0.120180 -0.051600 -0.063059 0.012085 -2.987703 1.512552
  time 4
    0 7.751087 2.962525 -6.385410 -1.256805 -1.341167 0.963653
    1 -0.069508 -8.500779 -0.100989 0.402637 -0.072427 -0.290062
    2 -0.549791 -3.387297 1.031815 0.764876 1.739162 0.794019
    3 0.000000 1.888488 0.974220 0.000000 0.000000 0.000000
    4 -0.291301 13.772059 -1.094121 0.000000 0.000000 0.000000
    5 -0.482113 -4.704160 2.234720 0.000000 -2.669725 0.000000
    6 -0.013948 -2.720513 1.100493 0.576916 0.000000 0.000000
    7 -0.013949 -4.784637 0.953041 0.000000 0.000000 0.000000
    8 0.021317 -2.664506 2.588400 0.000000 0.000000 0.000000
    9 -0.061524 -0.623888 2.571739 0.000000 0.000000 0.000000
    10 -0.640636 -3.730933 1.422005 -1.570796 0.000000 -1.570796
    11 0.324716 -3.199979 -7.973711 1.217481 2.075078 1.541280
    12 0.096946 -8.450419 -0.009363 -0.100350 -0.527356 0.493652
    13 -0.586769 -1.264477 0.200164 -0.137805 -0.270225 -2.402036
    14 1.522835 0.058680 0.016850 0.409563 0.001472 0.420645
    15 1.117947 0.048424 -0.005765 0.209611 -0.010678 -0.072260
    16 -0.963867 -2.785143 -0.085346 -0.991575 0.384655 0.005354
    17 0.028478 -1.403067 0.006272 -1.138366 -0.049204 -0.002683
    18 0.021412 -0.957782 0.020047 -0.469066 -0.033045 -0.015228
    19 -0.249534 -2.846963 -0.174215 -0.697954 0.269715 0.169124
    20 0.043235 -1.683940 0.096015 -1.522956 0.000001 0.000000
    21 0.031729 -1.160830 0.058836 -0.882803 0.000000 0.000000
    22 0.447951 -2.798983 -0.200441 -1.034204 0.305690 0.281573
    23 -0.032909 -1.480207 0.004935 -1.544827 0.000000 0.000000
    24 -0.027023 -1.076921 -0.020212 -0.358738 0.000000 0.000000
    25 1.164474 -2.543939 -0.170327 -1.126103 0.241153 0.235942
    26 0.024033 -1.129040 0.017807 -1.349622 0.000000 -0.000001
    27 0.014896 -0.883992 -0.019846 -0.511010 0.000000 0.000000
    28 -0.064620 -0.124786 0.029284 0.384017 0.052253 1.458040
    29 0.583509 -1.197274 0.185379 0.377232 -0.745798 -1.043320
    30 1.535926 0.010247 0.005009 -0.290357 -0.063207 -0.837499
    31 1.100770 0.004528 -0.010675 0.000000 0.000000 -0.577704
    32 0.957766 -2.746777 -0.090301 -0.311663 0.016530 0.045802
    33 -0.033419 -1.397128 -0.011255 -1.192059 0.000000 0.000000
    34 -0.022361 -0.957433 0.018783 -0.755725 0.000000 0.000000
    35 0.250029 -2.820664 -0.238396 -0.872208 -0.049326 -0.238818
    36 -0.049759 -1.680544 0.100479 -1.454738 0.000000 0.000000
    37 -0.034141 -1.148311 0.084779 -1.567306 0.000000 0.000000
    38 -0.488517 -2.755600 -0.228261 -1.098181 -0.096000 -0.264903
    39 0.039889 -1.479791 0.029854 -1.354100 0.000000 0.000000
    40 0.028785 -1.075733 -0.023110 -1.435200 0.000000 0.000000
    41 -1.180679 -2.507216 -0.193861 -1.163678 -0.049451 -0.281014
    42 -0.024967 -1.123934 0.017595 -0.883852 0.000000 0.000000
    43 -0.020058 -0.890965 0.010091 -1.435318 0.000000 0.000000
    44 0.120180 -0.051600 -0.063059 0.012085 -2.987703 1.512552
  time 5
    0 7.727649 2.896116 -6.299469 -1.198747 -1.369017 0.914064
    1 -0.069508 -8.500779 -0.100989 0.387931 -0.090201 -0.261505
    2 -0.549791 -3.387297 1.031815 0.764876 1.739162 0.794019
    3 0.000000 1.888488 0.974220 0.000000 0.000000 0.000000
    4 -0.291301 13.772059 -1.094121 0.000000 0.000000 0.000000
    5 -0.482113 -4.704160 2.234720 0.000000 -2.835044 0.000000
    6 -0.013948 -2.720513 1.100493 0.553130 0.000000 0.000000
    7 -0.013949 -4.784637 0.953041 0.000000 0.000000 0.000000
    8 0.013504 -3.609847 2.576681 0.000000 0.000000 0.000000
    9 -0.061524 -0.623888 2.571739 0.000000 0.000000 0.000000
    10 -0.640636 -3.730933 1.422005 -1.570796 0.000000 -1.570796
    11 0.172368 -3.203885 -7.961992 1.182814 2.051048 1.519073
    12 0.096946 -8.450419 -0.009363 -0.076361 -0.548358 0.454128
    13 -0.586769 -1.264477 0.200164 -0.145162 -0.266380 -2.374179
    14 1.522835 0.058680 0.016850 0.409510 0.006962 0.407786
    15 1.117947 0.048424 -0.005765 0.209818 -0.004662 -0.100504
    16 -0.963867 -2.785143 -0.085346 -0.991575 0.384655 0.005354
    17 0.028478 -1.403067 0.006272 -1.138366 -0.049204 -0.002683
    18 0.021412 -0.957782 0.020047 -0.469066 -0.033045 -0.015228
    19 -0.249534 -2.846963 -0.174215 -0.689565 0.272817 0.172600
    20 0.043235 -1.683940 0.096015 -1.526980 0.000001 0.000000
    21 0.031729 -1.160830 0.058836 -0.883962 0.000000 0.000000
    22 0.447951 -2.798983 -0.200441 -1.035493 0.301399 0.282496
    23 -0.032909 -1.480207 0.004935 -1.545786 0.000000 0.000000
    24 -0.027023 -1.076921 -0.020212 -0.358738 0.000000 0.000000
    25 1.164474 -2.543939 -0.170327 -1.126103 0.241153 0.235942
    26 0.024033 -1.129040 0.017807 -1.349622 0.000000 -0.000001
    27 0.014896 -0.883992 -0.019846 -0.511010 0.000000 0.000000
    28 -0.064620 -0.124786 0.029284 0.384017 0.052253 1.458040
    29 0.583509 -1.197274 0.185379 0.377232 -0.745798 -1.043320
    30 1.535926 0.010247 0.005009 -0.290357 -0.063207 -0.837499
    31 1.100770 0.004528 -0.010675 0.000000 0.000000 -0.577704
    32 0.957766 -2.746777 -0.090301 -0.295627 0.016530 0.045802
    33 -0.033419 -1.397128 -0.011255 -1.126560 0.000000 0.000000
    34 -0.022361 -0.957433 0.018783 -0.732035 0.000000 0.000000
    35 0.250029 -2.820664 -0.238396 -0.872208 -0.049326 -0.238818
    36 -0.049759 -1.680544 0.100479 -1.454738 0.000000 0.000000
    37 -0.034141 -1.148311 0.084779 -1.567306 0.000000 0.000000
    38 -0.488517 -2.755600 -0.228261 -1.098181 -0.096000 -0.264903
    39 0.039889 -1.479791 0.029854 -1.354100 0.000000 0.000000
    40 0.028785 -1.075733 -0.023110 -1.435200 0.000000 0.000000
    41 -1.180679 -2.507216 -0.193861 -1.163678 -0.049451 -0.281014
    42 -0.024967 -1.123934 0.017595 -0.883852 0.000000 0.000000
    43 -0.020058 -0.890965 0.010091 -1.435318 0.000000 0.000000
    44 0.120180 -0.051600 -0.063059 0.012085 -2.987703 1.512552
  time 6
    0 7.739368 3.005495 -6.354159 -1.181393 -1.375773 0.899523
    1 -0.069508 -8.500779 -0.100989 0.378459 -0.101409 -0.245239
    2 -0.549791 -3.387297 1.031815 0.764876 1.739162 0.794019
    3 0.000000 1.888488 0.974220 0.000000 0.000000 0.000000
    4 -0.291301 13.772059 -1.094121 0.000000 0.000000 0.000000
    5 -0.482113 -4.704160 2.234720 0.000000 -2.885808 0.000000
    6 -0.013948 -2.720513 1.100493 0.454516 0.000000 0.000000
    7 -0.013949 -4.784637 0.953041 0.000000 0.000000 0.000000
    8 0.013504 -3.609847 2.576681 0.000000 0.000000 0.000000
    9 -0.061524 -0.623888 2.571739 0.000000 0.000000 0.000000
    10 -0.640636 -3.730933 1.422005 -1.570796 0.000000 -1.570796
    11 -0.022951 -3.207792 -7.954179 1.155037 2.049427 1.516958
    12 0.096946 -8.450419 -0.009363 -0.046159 -0.568350 0.415141
    13 -0.586769 -1.264477 0.200164 -0.154342 -0.261204 -2.338862
    14 1.522835 0.058680 0.016850 0.409324 0.015171 0.388643
    15 1.117947 0.048424 -0.005765 0.209576 0.011361 -0.175820
    16 -0.963867 -2.785143 -0.085346 -0.991575 0.384655 0.005354
    17 0.028478 -1.403067 0.006272 -1.138366 -0.049204 -0.002683
    18 0.021412 -0.957782 0.020047 -0.469066 -0.033045 -0.015228
    19 -0.249534 -2.846963 -0.174215 -0.730596 0.285252 0.186059
    20 0.043235 -1.683940 0.096015 -1.512895 0.000001 0.000000
    21 0.031729 -1.160830 0.058836 -0.883663 0.000000 0.000000
    22 0.447951 -2.798983 -0.200441 -1.042992 0.309549 0.286870
    23 -0.032909 -1.480207 0.004935 -1.545533 0.000000 0.000000
    24 -0.027023 -1.076921 -0.020212 -0.358738 0.000000 0.000000
    25 1.164474 -2.543939 -0.170327 -1.126103 0.241153 0.235942
    26 0.024033 -1.129040 0.017807 -1.349622 0.000000 -0.000001
    27 0.014896 -0.883992 -0.019846 -0.511010 0.000000 0.000000
    28 -0.064620 -0.124786 0.029284 0.384017 0.052253 1.458040
    29 0.583509 -1.197274 0.185379 0.377232 -0.745798 -1.043320
    30 1.535926 0.010247 0.005009 -0.290357 -0.063207 -0.837499
    31 1.100770 0.004528 -0.010675 0.000000 0.000000 -0.577704
    32 0.957766 -2.746777 -0.090301 -0.274175 0.016530 0.045802
    33 -0.033419 -1.397128 -0.011255 -1.038919 0.000000 0.000000
    34 -0.022361 -0.957433 0.018783 -0.700370 0.000000 0.000000
    35 0.250029 -2.820664 -0.238396 -0.872208 -0.049326 -0.238818
    36 -0.049759 -1.680544 0.100479 -1.454738 0.000000 0.000000
    37 -0.034141 -1.148311 0.084779 -1.567306 0.000000 0.000000
    38 -0.488517 -2.755600 -0.228261 -1.098181 -0.096000 -0.264903
    39 0.039889 -1.479791 0.029854 -1.354100 0.000000 0.000000
    40 0.028785 -1.075733 -0.023110 -1.435200 0.000000 0.000000
    41 -1.180679 -2.507216 -0.193861 -1.163678 -0.049451 -0.281014
    42 -0.024967 -1.123934 0.017595 -0.883852 0.000000 0.000000
    43 -0.020058 -0.890965 0.010091 -1.435318 0.000000 0.000000
    44 0.120180 -0.051600 -0.063059 0.012085 -2.987703 1.512552
  time 7
    0 7.751087 3.107060 -6.404941 -1.174758 -1.378025 0.894564
    1 -0.069508 -8.500779 -0.100989 0.374585 -0.106189 -0.241071
    2 -0.549791 -3.387297 1.031815 0.764876 1.739162 0.794019
    3 0.000000 1.888488 0.974220 0.000000 0.000000 0.000000
    4 -0.291301 13.772059 -1.094121 0.000000 0.000000 0.000000
    5 -0.482113 -4.704160 2.234720 0.000000 3.389803 0.000000
    6 -0.013948 -2.720513 1.100493 0.292995 0.000000 0.000000
    7 -0.013949 -4.784637 0.953041 0.000000 0.000000 0.000000
    8 0.013504 -3.609847 2.576681 0.000000 0.000000 0.000000
    9 -0.061524 -0.623888 2.571739 0.000000 0.000000 0.000000
    10 -0.640636 -3.730933 1.422005 -1.570796 0.000000 -1.570796
    11 -0.206550 -3.215605 -7.938553 1.126052 2.047329 1.514192
    12 0.096946 -8.450419 -0.009363 -0.016861 -0.583588 0.384756
    13 -0.586769 -1.264477 0.200164 -0.159037 -0.258345 -2.320390
    14 1.522835 0.058680 0.016850 0.409112 0.020714 0.375620
    15 1.117947 0.048424 -0.005765 0.208900 0.020422 -0.218465
    16 -0.963867 -2.785143 -0.085346 -0.991575 0.384655 0.005354
    17 0.028478 -1.403067 0.006272 -1.138366 -0.049204 -0.002683
    18 0.021412 -0.957782 0.020047 -0.469066 -0.033045 -0.015228
    19 -0.249534 -2.846963 -0.174215 -0.807049 0.304311 0.204299
    20 0.043235 -1.683940 0.096015 -1.486267 0.000001 0.000000
    21 0.031729 -1.160830 0.058836 -0.881196 0.000000 0.000000
    22 0.447951 -2.798983 -0.200441 -1.071934 0.357319 0.301144
    23 -0.032909 -1.480207 0.004935 -1.543566 0.000000 0.000000
    24 -0.027023 -1.076921 -0.020212 -0.358738 0.000000 0.000000
    25 1.164474 -2.543939 -0.170327 -1.126103 0.241153 0.235942
    26 0.024033 -1.129040 0.017807 -1.349622 0.000000 -0.000001
    27 0.014896 -0.883992 -0.019846 -0.511010 0.000000 0.000000
    28 -0.064620 -0.124786 0.029284 0.384017 0.052253 1.458040
    29 0.583509 -1.197274 0.185379 0.377232 -0.745798 -1.043320
    30 1.535926 0.010247 0.005009 -0.290357 -0.063207 -0.837499
    31 1.100770 0.004528 -0.010675 0.000000 0.000000 -0.577704
    32 0.957766 -2.746777 -0.090301 -0.250697 0.016530 0.045802
    33 -0.033419 -1.397128 -0.011255 -0.943013 0.000000 0.000000
    34 -0.022361 -0.957433 0.018783 -0.665720 0.000000 0.000000
    35 0.250029 -2.820664 -0.238396 -0.872208 -0.049326 -0.238818
    36 -0.049759 -1.680544 0.100479 -1.454738 0.000000 0.000000
    37 -0.034141 -1.148311 0.084779 -1.567306 0.000000 0.000000
    38 -0.488517 -2.755600 -0.228261 -1.098181 -0.096000 -0.264903
    39 0.039889 -1.479791 0.029854 -1.354100 0.000000 0.000000
    40 0.028785 -1.075733 -0.023110 -1.435200 0.000000 0.000000
    41 -1.180679 -2.507216 -0.193861 -1.163678 -0.049451 -0.281014
    42 -0.024967 -1.123934 0.017595 -0.883852 0.000000 0.000000
    43 -0.020058 -0.890965 0.010091 -1.435318 0.000000 0.000000
    44 0.120180 -0.051600 -0.063059 0.012085 -2.987703 1.512552
  time 8
    0 7.758900 3.196907 -6.451818 -1.177438 -1.376597 0.898010
    1 -0.069508 -8.500779 -0.100989 0.372495 -0.109059 -0.240315
    2 -0.549791 -3.387297 1.031815 0.764876 1.739162 0.794019
    3 0.000000 1.888488 0.974220 0.000000 0.000000 0.000000
    4 -0.291301 13.772059 -1.094121 0.000000 0.000000 0.000000
    5 -0.482113 -4.704160 2.234720 0.000000 -2.878241 0.000000
    6 -0.013948 -2.720513 1.100493 0.082077 0.000000 0.000000
    7 -0.013949 -4.784637 0.953041 0.000000 0.000000 0.000000
    8 0.013504 -3.609847 2.576681 0.000000 0.000000 0.000000
    9 -0.061524 -0.623888 2.571739 0.000000 0.000000 0.000000
    10 -0.640636 -3.730933 1.422005 -1.570796 0.000000 -1.570796
    11 -0.397962 -3.219511 -7.903396 1.098773 2.047901 1.514111
    12 0.096946 -8.450419 -0.009363 0.013717 -0.594579 0.363417
    13 -0.586769 -1.264477 0.200164 -0.159457 -0.258049 -2.318633
    14 1.522835 0.058680 0.016850 0.409007 0.023052 0.369956
    15 1.117947 0.048424 -0.005765 0.208935 0.020014 -0.216544
    16 -0.963867 -2.785143 -0.085346 -0.991575 0.384655 0.005354
    17 0.028478 -1.403067 0.006272 -1.138366 -0.049204 -0.002683
    18 0.021412 -0.957782 0.020047 -0.469066 -0.033045 -0.015228
    19 -0.249534 -2.846963 -0.174215 -0.858064 0.314722 0.212796
    20 0.043235 -1.683940 0.096015 -1.470641 0.000001 0.000000
    21 0.031729 -1.160830 0.058836 -0.875961 0.000000 0.000000
    22 0.447951 -2.798983 -0.200441 -1.094763 0.401135 0.312973
    23 -0.032909 -1.480207 0.004935 -1.539428 0.000000 0.000000
    24 -0.027023 -1.076921 -0.020212 -0.358738 0.000000 0.000000
    25 1.164474 -2.543939 -0.170327 -1.126103 0.241153 0.235942
    26 0.024033 -1.129040 0.017807 -1.349622 0.000000 -0.000001
    27 0.014896 -0.883992 -0.019846 -0.511010 0.000000 0.000000
    28 -0.064620 -0.124786 0.029284 0.384017 0.052253 1.458040
    29 0.583509 -1.197274 0.185379 0.377232 -0.745798 -1.043320
    30 1.535926 0.010247 0.005009 -0.290357 -0.063207 -0.837499
    31 1.100770 0.004528 -0.010675 0.000000 0.000000 -0.577704
    32 0.957766 -2.746777 -0.090301 -0.228550 0.016530 0.045802
    33 -0.033419 -1.397128 -0.011255 -0.852627 0.000000 0.000000
    34 -0.022361 -0.957433 0.018783 -0.633006 0.000000 0.000000
    35 0.250029 -2.820664 -0.238396 -0.872208 -0.049326 -0.238818
    36 -0.049759 -1.680544 0.100479 -1.454738 0.000000 0.000000
    37 -0.034141 -1.148311 0.084779 -1.567306 0.000000 0.000000
    38 -0.488517 -2.755600 -0.228261 -1.098181 -0.096000 -0.264903
    39 0.039889 -1.479791 0.029854 -1.354100 0.000000 0.000000
    40 0.028785 -1.075733 -0.023110 -1.435200 0.000000 0.000000
    41 -1.180679 -2.507216 -0.193861 -1.163678 -0.049451 -0.281014
    42 -0.024967 -1.123934 0.017595 -0.883852 0.000000 0.000000
    43 -0.020058 -0.890965 0.010091 -1.435318 0.000000 0.000000
    44 0.120180 -0.051600 -0.063059 0.012085 -2.987703 1.512552
  time 9
    0 7.770619 3.278941 -6.490882 -1.187135 -1.372252 0.907760
    1 -0.069508 -8.500779 -0.100989 0.371867 -0.110357 -0.242331
    2 -0.549791 -3.387297 1.031815 0.764876 1.739162 0.794019
    3 0.000000 1.888488 0.974220 0.000000 0.000000 0.000000
    4 -0.291301 13.772059 -1.094121 0.000000 0.000000 0.000000
    5 -0.482113 -4.704160 2.234720 0.000000 -2.850177 0.000000
    6 -0.013948 -2.720513 1.100493 -0.143483 0.000000 0.000000
    7 -0.013949 -4.784637 0.953041 0.000000 0.000000 0.000000
    8 0.013504 -3.609847 2.576681 0.000000 0.000000 0.000000
    9 -0.061524 -0.623888 2.571739 0.000000 0.000000 0.000000
    10 -0.640636 -3.730933 1.422005 -1.570796 0.000000 -1.570796
    11 -0.628438 -3.227324 -7.864332 1.070996 2.050762 1.516714
    12 0.096946 -8.450419 -0.009363 0.048740 -0.603610 0.345957
    13 -0.586769 -1.264477 0.200164 -0.159737 -0.257835 -2.317406
    14 1.522835 0.058680 0.016850 0.408901 0.025258 0.364584
    15 1.117947 0.048424 -0.005765 0.209022 0.018984 -0.211691
    16 -0.963867 -2.785143 -0.085346 -0.991575 0.384655 0.005354
    17 0.028478 -1.403067 0.006272 -1.138366 -0.049204 -0.002683
    18 0.021412 -0.957782 0.020047 -0.469066 -0.033045 -0.015228
    19 -0.249534 -2.846963 -0.174215 -0.872562 0.313604 0.211238
    20 0.043235 -1.683940 0.096015 -1.468586 0.000001 0.000000
    21 0.031729 -1.160830 0.058836 -0.861491 0.000264 0.000240
    22 0.447951 -2.798983 -0.200441 -1.092422 0.407607 0.315442
    23 -0.032909 -1.480207 0.004935 -1.532061 0.000923 0.000060
    24 -0.027023 -1.076921 -0.020212 -0.358738 0.000000 0.000000
    25 1.164474 -2.543939 -0.170327 -1.126103 0.241153 0.235942
    26 0.024033 -1.129040 0.017807 -1.349622 0.000000 -0.000001
    27 0.014896 -0.883992 -0.019846 -0.511010 0.000000 0.000000
    28 -0.064620 -0.124786 0.029284 0.384017 0.052253 1.458040
    29 0.583509 -1.197274 0.185379 0.377232 -0.745798 -1.043320
    30 1.535926 0.010247 0.005009 -0.290357 -0.063207 -0.837499
    31 1.100770 0.004528 -0.010675 0.000000 0.000000 -0.577704
    32 0.957766 -2.746777 -0.090301 -0.211088 0.016530 0.045802
    33 -0.033419 -1.397128 -0.011255 -0.781637 0.000000 0.000000
    34 -0.022361 -0.957433 0.018783 -0.607263 0.000000 0.000000
    35 0.250029 -2.820664 -0.238396 -0.872208 -0.049326 -0.238818
    36 -0.049759 -1.680544 0.100479 -1.454738 0.000000 0.000000
    37 -0.034141 -1.148311 0.084779 -1.567306 0.000000 0.000000
    38 -0.488517 -2.755600 -0.228261 -1.098181 -0.096000 -0.264903
    39 0.039889 -1.479791 0.029854 -1.354100 0.000000 0.000000
    40 0.028785 -1.075733 -0.023110 -1.435200 0.000000 0.000000
    41 -1.180679 -2.507216 -0.193861 -1.163678 -0.049451 -0.281014
    42 -0.024967 -1.123934 0.017595 -0.883852 0.000000 0.000000
    43 -0.020058 -0.890965 0.010091 -1.435318 0.000000 0.000000
    44 0.120180 -0.051600 -0.063059 0.012085 -2.987703 1.512552
  time 10
    0 7.778432 3.349255 -6.526039 -1.201171 -1.365813 0.921292
    1 -0.069508 -8.500779 -0.100989 0.372414 -0.110434 -0.246441
    2 -0.549791 -3.387297 1.031815 0.764876 1.739162 0.794019
    3 0.000000 1.888488 0.974220 0.000000 0.000000 0.000000
    4 -0.291301 13.772059 -1.094121 0.000000 0.000000 0.000000
    5 -0.482113 -4.704160 2.234720 0.000000 -2.835044 0.000000
    6 -0.013948 -2.720513 1.100493 -0.261799 0.000000 0.000000
    7 -0.013949 -4.784637 0.953041 0.000000 0.000000 0.000000
    8 0.013504 -3.609847 2.576681 0.000000 0.000000 0.000000
    9 -0.061524 -0.623888 2.571739 0.000000 0.000000 0.000000
    10 -0.640636 -3.730933 1.422005 -1.570796 0.000000 -1.570796
    11 -0.847195 -3.231230 -7.821362 1.047624 2.055720 1.521839
    12 0.096946 -8.450419 -0.009363 0.082180 -0.610591 0.332821
    13 -0.586769 -1.264477 0.200164 -0.159878 -0.257687 -2.316676
    14 1.522835 0.058680 0.016850 0.408795 0.027360 0.359440
    15 1.117947 0.048424 -0.005765 0.209160 0.017414 -0.204276
    16 -0.963867 -2.785143 -0.085346 -0.991575 0.384655 0.005354
    17 0.028478 -1.403067 0.006272 -1.138366 -0.049204 -0.002683
    18 0.021412 -0.957782 0.020047 -0.469066 -0.033045 -0.015228
    19 -0.249534 -2.846963 -0.174215 -0.881269 0.310029 0.207643
    20 0.043235 -1.683940 0.096015 -1.466916 0.000001 0.000000
    21 0.031729 -1.160830 0.058836 -0.837412 0.000695 0.000671
    22 0.447951 -2.798983 -0.200441 -1.086070 0.409524 0.316940
    23 -0.032909 -1.480207 0.004935 -1.521415 0.003104 0.000240
    24 -0.027023 -1.076921 -0.020212 -0.358738 0.000000 0.000000
    25 1.164474 -2.543939 -0.170327 -1.126103 0.241153 0.235942
    26 0.024033 -1.129040 0.017807 -1.349622 0.000000 -0.000001
    27 0.014896 -0.883992 -0.019846 -0.511010 0.000000 0.000000
    28 -0.064620 -0.124786 0.029284 0.384017 0.052253 1.458040
    29 0.583509 -1.197274 0.185379 0.377232 -0.745798 -1.043320
    30 1.535926 0.010247 0.005009 -0.290357 -0.063207 -0.837499
    31 1.100770 0.004528 -0.010675 0.000000 0.000000 -0.577704
    32 0.957766 -2.746777 -0.090301 -0.201716 0.016530 0.045802
    33 -0.033419 -1.397128 -0.011255 -0.743949 0.000000 0.000000
    34 -0.022361 -0.957433 0.018783 -0.593413 0.000000 0.000000
    35 0.250029 -2.820664 -0.238396 -0.872208 -0.049326 -0.238818
    36 -0.049759 -1.680544 0.100479 -1.454738 0.000000 0.000000
    37 -0.034141 -1.148311 0.084779 -1.567306 0.000000 0.000000
    38 -0.488517 -2.755600 -0.228261 -1.098181 -0.096000 -0.264903
    39 0.039889 -1.479791 0.029854 -1.354100 0.000000 0.000000
    40 0.028785 -1.075733 -0.023110 -1.435200 0.000000 0.000000
    41 -1.180679 -2.507216 -0.193861 -1.163678 -0.049451 -0.281014
    42 -0.024967 -1.123934 0.017595 -0.883852 0.000000 0.000000
    43 -0.020058 -0.890965 0.010091 -1.435318 0.000000 0.000000
    44 0.120180 -0.051600 -0.063059 0.012085 -2.987703 1.512552
  time 11
    0 7.782338 3.411757 -6.557290 -1.217057 -1.358042 0.936505
    1 -0.069508 -8.500779 -0.100989 0.373834 -0.109594 -0.252005
    2 -0.549791 -3.387297 1.031815 0.764876 1.739162 0.794019
    3 0.000000 1.888488 0.974220 0.000000 0.000000 0.000000
    4 -0.291301 13.772059 -1.094121 0.000000 0.000000 0.000000
    5 -0.482113 -4.704160 2.234720 0.000000 -2.835044 0.000000
    6 -0.013948 -2.720513 1.100493 -0.283556 0.000000 0.000000
    7 -0.013949 -4.784637 0.953041 0.000000 0.000000 0.000000
    8 0.013504 -3.609847 2.576681 0.000000 0.000000 0.000000
    9 -0.061524 -0.623888 2.571739 0.000000 0.000000 0.000000
    10 -0.640636 -3.730933 1.422005 -1.570796 0.000000 -1.570796
    11 -1.011262 -3.235136 -7.790111 1.033132 2.062300 1.529241
    12 0.096946 -8.450419 -0.009363 0.107750 -0.615670 0.324453
    13 -0.586769 -1.264477 0.200164 -0.159948 -0.257622 -2.316378
    14 1.522835 0.058680 0.016850 0.408689 0.029343 0.354557
    15 1.117947 0.048424 -0.005765 0.209316 0.015388 -0.194755
    16 -0.963867 -2.785143 -0.085346 -0.991575 0.384655 0.005354
    17 0.028478 -1.403067 0.006272 -1.138366 -0.049204 -0.002683
    18 0.021412 -0.957782 0.020047 -0.469066 -0.033045 -0.015228
    19 -0.249534 -2.846963 -0.174215 -0.885509 0.304640 0.202561
    20 0.043235 -1.683940 0.096015 -1.465589 0.000001 0.000000
    21 0.031729 -1.160830 0.058836 -0.812062 0.000779 0.000767
    22 0.447951 -2.798983 -0.200441 -1.077139 0.408038 0.317623
    23 -0.032909 -1.480207 0.004935 -1.508649 0.005585 0.000479
    24 -0.027023 -1.076921 -0.020212 -0.358738 0.000000 0.000000
    25 1.164474 -2.543939 -0.170327 -1.126103 0.241153 0.235942
    26 0.024033 -1.129040 0.017807 -1.349622 0.000000 -0.000001
    27 0.014896 -0.883992 -0.019846 -0.511010 0.000000 0.000000
    28 -0.064620 -0.124786 0.029284 0.384017 0.052253 1.458040
    29 0.583509 -1.197274 0.185379 0.377232 -0.745798 -1.043320
    30 1.535926 0.010247 0.005009 -0.290357 -0.063207 -0.837499
    31 1.100770 0.004528 -0.010675 0.000000 0.000000 -0.577704
    32 0.957766 -2.746777 -0.090301 -0.197905 0.016530 0.045802
    33 -0.033419 -1.397128 -0.011255 -0.729178 0.000000 0.000000
    34 -0.022361 -0.957433 0.018783 -0.587794 0.000000 0.000000
    35 0.250029 -2.820664 -0.238396 -0.872208 -0.049326 -0.238818
    36 -0.049759 -1.680544 0.100479 -1.454738 0.000000 0.000000
    37 -0.034141 -1.148311 0.084779 -1.567306 0.000000 0.000000
    38 -0.488517 -2.755600 -0.228261 -1.098181 -0.096000 -0.264903
    39 0.039889 -1.479791 0.029854 -1.354100 0.000000 0.000000
    40 0.028785 -1.075733 -0.023110 -1.435200 0.000000 0.000000
    41 -1.180679 -2.507216 -0.193861 -1.163678 -0.049451 -0.281014
    42 -0.024967 -1.123934 0.017595 -0.883852 0.000000 0.000000
    43 -0.020058 -0.890965 0.010091 -1.435318 0.000000 0.000000
    44 0.120180 -0.051600 -0.063059 0.012085 -2.987703 1.512552
  time 12
    0 7.790151 3.466446 -6.584634 -1.232688 -1.349763 0.951298
    1 -0.069508 -8.500779 -0.100989 0.375781 -0.108189 -0.258345
    2 -0.549791 -3.387297 1.031815 0.764876 1.739162 0.794019
    3 0.000000 1.888488 0.974220 0.000000 0.000000 0.000000
    4 -0.291301 13.772059 -1.094121 0.000000 0.000000 0.000000
    5 -0.482113 -4.704160 2.234720 0.000000 -2.835044 0.000000
    6 -0.013948 -2.720513 1.100493 -0.300869 0.000000 0.000000
    7 -0.013949 -4.784637 0.953041 0.000000 0.000000 0.000000
    8 0.013504 -3.609847 2.576681 0.000000 0.000000 0.000000
    9 -0.061524 -0.623888 2.571739 0.000000 0.000000 0.000000
    10 -0.640636 -3.730933 1.422005 -1.570796 0.000000 -1.570796
    11 -1.073764 -3.239043 -7.778392 1.031498 2.070500 1.538433
    12 0.096946 -8.450419 -0.009363 0.119311 -0.618849 0.321415
    13 -0.586769 -1.264477 0.200164 -0.159878 -0.257605 -2.316543
    14 1.522835 0.058680 0.016850 0.408583 0.031221 0.349934
    15 1.117947 0.048424 -0.005765 0.209472 0.012991 -0.183500
    16 -0.963867 -2.785143 -0.085346 -0.991575 0.384655 0.005354
    17 0.028478 -1.403067 0.006272 -1.138366 -0.049204 -0.002683
    18 0.021412 -0.957782 0.020047 -0.469066 -0.033045 -0.015228
    19 -0.249534 -2.846963 -0.174215 -0.886466 0.298068 0.196521
    20 0.043235 -1.683940 0.096015 -1.464604 0.000001 0.000000
    21 0.031729 -1.160830 0.058836 -0.793779 0.000000 0.000000
    22 0.447951 -2.798983 -0.200441 -1.067158 0.404299 0.317659
    23 -0.032909 -1.480207 0.004935 -1.494874 0.007442 0.000683
    24 -0.027023 -1.076921 -0.020212 -0.358738 0.000000 0.000000
    25 1.164474 -2.543939 -0.170327 -1.126103 0.241153 0.235942
    26 0.024033 -1.129040 0.017807 -1.349622 0.000000 -0.000001
    27 0.014896 -0.883992 -0.019846 -0.511010 0.000000 0.000000
    28 -0.064620 -0.124786 0.029284 0.384017 0.052253 1.458040
    29 0.583509 -1.197274 0.185379 0.377232 -0.745798 -1.043320
    30 1.535926 0.010247 0.005009 -0.290357 -0.063207 -0.837499
    31 1.100770 0.004528 -0.010675 0.000000 0.000000 -0.577704
    32 0.957766 -2.746777 -0.090301 -0.194873 0.016530 0.045802
    33 -0.033419 -1.397128 -0.011255 -0.717630 0.000000 0.000000
    34 -0.022361 -0.957433 0.018783 -0.583317 0.000000 0.000000
    35 0.250029 -2.820664 -0.238396 -0.872208 -0.049326 -0.238818
    36 -0.049759 -1.680544 0.100479 -1.454738 0.000000 0.000000
    37 -0.034141 -1.148311 0.084779 -1.567306 0.000000 0.000000
    38 -0.488517 -2.755600 -0.228261 -1.098181 -0.096000 -0.264903
    39 0.039889 -1.479791 0.029854 -1.354100 0.000000 0.000000
    40 0.028785 -1.075733 -0.023110 -1.435200 0.000000 0.000000
    41 -1.180679 -2.507216 -0.193861 -1.163678 -0.049451 -0.281014
    42 -0.024967 -1.123934 0.017595 -0.883852 0.000000 0.000000
    43 -0.020058 -0.890965 0.010091 -1.435318 0.000000 0.000000
    44 0.120180 -0.051600 -0.063059 0.012085 -2.987703 1.512552
  time 13
    0 7.794057 3.509416 -6.604166 -1.246469 -1.341770 0.964578
    1 -0.069508 -8.500779 -0.100989 0.377972 -0.106540 -0.264781
    2 -0.549791 -3.387297 1.031815 0.764876 1.739162 0.794019
    3 0.000000 1.888488 0.974220 0.000000 0.000000 0.000000
    4 -0.291301 13.772059 -1.094121 0.000000 0.000000 0.000000
    5 -0.482113 -4.704160 2.234720 0.000000 -2.835044 0.000000
    6 -0.013948 -2.720513 1.100493 -0.314073 0.000000 0.000000
    7 -0.013949 -4.784637 0.953041 0.000000 0.000000 0.000000
    8 0.013504 -3.609847 2.576681 0.000000 0.000000 0.000000
    9 -0.061524 -0.623888 2.571739 0.000000 0.000000 0.000000
    10 -0.640636 -3.730933 1.422005 -1.570796 0.000000 -1.570796
    11 -1.062045 -3.235136 -7.786205 1.039241 2.079464 1.548275
    12 0.096946 -8.450419 -0.009363 0.119951 -0.620869 0.322210
    13 -0.586769 -1.264477 0.200164 -0.159702 -0.257671 -2.317074
    14 1.522835 0.058680 0.016850 0.408477 0.032995 0.345571
    15 1.117947 0.048424 -0.005765 0.209628 0.010319 -0.170939
    16 -0.963867 -2.785143 -0.085346 -0.991575 0.384655 0.005354
    17 0.028478 -1.403067 0.006272 -1.138366 -0.049204 -0.002683
    18 0.021412 -0.957782 0.020047 -0.469066 -0.033045 -0.015228
    19 -0.249534 -2.846963 -0.174215 -0.885555 0.290930 0.190014
    20 0.043235 -1.683940 0.096015 -1.463919 0.000001 0.000000
    21 0.031729 -1.160830 0.058836 -0.784132 -0.002493 -0.002505
    22 0.447951 -2.798983 -0.200441 -1.057463 0.399457 0.317239
    23 -0.032909 -1.480207 0.004935 -1.481200 0.007742 0.000767
    24 -0.027023 -1.076921 -0.020212 -0.358738 0.000000 0.000000
    25 1.164474 -2.543939 -0.170327 -1.126103 0.241153 0.235942
    26 0.024033 -1.129040 0.017807 -1.349622 0.000000 -0.000001
    27 0.014896 -0.883992 -0.019846 -0.511010 0.000000 0.000000
    28 -0.064620 -0.124786 0.029284 0.384017 0.052253 1.458040
    29 0.583509 -1.197274 0.185379 0.377232 -0.745798 -1.043320
    30 1.535926 0.010247 0.005009 -0.290357 -0.063207 -0.837499
    31 1.100770 0.004528 -0.010675 0.000000 0.000000 -0.577704
    32 0.957766 -2.746777 -0.090301 -0.192560 0.016530 0.045802
    33 -0.033419 -1.397128 -0.011255 -0.709066 0.000000 0.000000
    34 -0.022361 -0.957433 0.018783 -0.579889 0.000000 0.000000
    35 0.250029 -2.820664 -0.238396 -0.872208 -0.049326 -0.238818
    36 -0.049759 -1.680544 0.100479 -1.454738 0.000000 0.000000
    37 -0.034141 -1.148311 0.084779 -1.567306 0.000000 0.000000
    38 -0.488517 -2.755600 -0.228261 -1.098181 -0.096000 -0.264903
    39 0.039889 -1.479791 0.029854 -1.354100 0.000000 0.000000
    40 0.028785 -1.075733 -0.023110 -1.435200 0.000000 0.000000
    41 -1.180679 -2.507216 -0.193861 -1.163678 -0.049451 -0.281014
    42 -0.024967 -1.123934 0.017595 -0.883852 0.000000 0.000000
    43 -0.020058 -0.890965 0.010091 -1.435318 0.000000 0.000000
    44 0.120180 -0.051600 -0.063059 0.012085 -2.987703 1.512552
  time 14
    0 7.797964 3.540667 -6.623698 -1.257187 -1.334951 0.975084
    1 -0.069508 -8.500779 -0.100989 0.380081 -0.104982 -0.270675
    2 -0.549791 -3.387297 1.031815 0.764876 1.739162 0.794019
    3 0.000000 1.888488 0.974220 0.000000 0.000000 0.000000
    4 -0.291301 13.772059 -1.094121 0.000000 0.000000 0.000000
    5 -0.482113 -4.704160 2.234720 0.000000 -2.835044 0.000000
    6 -0.013948 -2.720513 1.100493 -0.323551 0.000000 0.000000
    7 -0.013949 -4.784637 0.953041 0.000000 0.000000 0.000000
    8 0.013504 -3.609847 2.576681 0.000000 0.000000 0.000000
    9 -0.061524 -0.623888 2.571739 0.000000 0.000000 0.000000
    10 -0.640636 -3.730933 1.422005 -1.570796 0.000000 -1.570796
    11 -1.026888 -3.231230 -7.805737 1.048903 2.087760 1.556979
    12 0.096946 -8.450419 -0.009363 0.117202 -0.622443 0.324827
    13 -0.586769 -1.264477 0.200164 -0.159422 -0.257770 -2.317936
    14 1.522835 0.058680 0.016850 0.408345 0.034650 0.341437
    15 1.117947 0.048424 -0.005765 0.209749 0.007466 -0.157497
    16 -0.963867 -2.785143 -0.085346 -0.991575 0.384655 0.005354
    17 0.028478 -1.403067 0.006272 -1.138366 -0.049204 -0.002683
    18 0.021412 -0.957782 0.020047 -0.469066 -0.033045 -0.015228
    19 -0.249534 -2.846963 -0.174215 -0.884050 0.283885 0.183578
    20 0.043235 -1.683940 0.096015 -1.463491 0.000001 0.000000
    21 0.031729 -1.160830 0.058836 -0.778785 -0.006172 -0.006256
    22 0.447951 -2.798983 -0.200441 -1.049535 0.394663 0.316592
    23 -0.032909 -1.480207 0.004935 -1.468687 0.005573 0.000587
    24 -0.027023 -1.076921 -0.020212 -0.358738 0.000000 0.000000
    25 1.164474 -2.543939 -0.170327 -1.126103 0.241153 0.235942
    26 0.024033 -1.129040 0.017807 -1.349622 0.000000 -0.000001
    27 0.014896 -0.883992 -0.019846 -0.511010 0.000000 0.000000
    28 -0.064620 -0.124786 0.029284 0.384017 0.052253 1.458040
    29 0.583509 -1.197274 0.185379 0.377232 -0.745798 -1.043320
    30 1.535926 0.010247 0.005009 -0.290357 -0.063207 -0.837499
    31 1.100770 0.004528 -0.010675 0.000000 0.000000 -0.577704
    32 0.957766 -2.746777 -0.090301 -0.190894 0.016530 0.045802
    33 -0.033419 -1.397128 -0.011255 -0.703188 0.000000 0.000000
    34 -0.022361 -0.957433 0.018783 -0.577441 0.000000 0.000000
    35 0.250029 -2.820664 -0.238396 -0.872208 -0.049326 -0.238818
    36 -0.049759 -1.680544 0.100479 -1.454738 0.000000 0.000000
    37 -0.034141 -1.148311 0.084779 -1.567306 0.000000 0.000000
    38 -0.488517 -2.755600 -0.228261 -1.098181 -0.096000 -0.264903
    39 0.039889 -1.479791 0.029854 -1.354100 0.000000 0.000000
    40 0.028785 -1.075733 -0.023110 -1.435200 0.000000 0.000000
    41 -1.180679 -2.507216 -0.193861 -1.163678 -0.049451 -0.281014
    42 -0.024967 -1.123934 0.017595 -0.883852 0.000000 0.000000
    43 -0.020058 -0.890965 0.010091 -1.435318 0.000000 0.000000
    44 0.120180 -0.051600 -0.063059 0.012085 -2.987703 1.512552
  time 15
    0 7.801870 3.564106 -6.635417 -1.263886 -1.330129 0.982229
    1 -0.069508 -8.500779 -0.100989 0.381806 -0.103883 -0.275386
    2 -0.549791 -3.387297 1.031815 0.764876 1.739162 0.794019
    3 0.000000 1.888488 0.974220 0.000000 0.000000 0.000000
    4 -0.291301 13.772059 -1.094121 0.000000 0.000000 0.000000
    5 -0.482113 -4.704160 2.234720 0.000000 -2.835044 0.000000
    6 -0.013948 -2.720513 1.100493 -0.329639 0.000000 0.000000
    7 -0.013949 -4.784637 0.953041 0.000000 0.000000 0.000000
    8 0.013504 -3.609847 2.576681 0.000000 0.000000 0.000000
    9 -0.061524 -0.623888 2.571739 0.000000 0.000000 0.000000
    10 -0.640636 -3.730933 1.422005 -1.570796 0.000000 -1.570796
    11 -0.972198 -3.219511 -7.833081 1.058848 2.094244 1.563568
    12 0.096946 -8.450419 -0.009363 0.111516 -0.623572 0.328964
    13 -0.586769 -1.264477 0.200164 -0.159107 -0.257934 -2.319130
    14 1.522835 0.058680 0.016850 0.408239 0.036226 0.337530
    15 1.117947 0.048424 -0.005765 0.209836 0.004494 -0.143549
    16 -0.963867 -2.785143 -0.085346 -0.991575 0.384655 0.005354
    17 0.028478 -1.403067 0.006272 -1.138366 -0.049204 -0.002683
    18 0.021412 -0.957782 0.020047 -0.469066 -0.033045 -0.015228
    19 -0.249534 -2.846963 -0.174215 -0.883321 0.277497 0.177753
    20 0.043235 -1.683940 0.096015 -1.463277 0.000001 0.000000
    21 0.031729 -1.160830 0.058836 -0.777589 -0.009516 -0.009648
    22 0.447951 -2.798983 -0.200441 -1.044807 0.391080 0.315981
    23 -0.032909 -1.480207 0.004935 -1.458444 0.000000 0.000000
    24 -0.027023 -1.076921 -0.020212 -0.358738 0.000000 0.000000
    25 1.164474 -2.543939 -0.170327 -1.126103 0.241153 0.235942
    26 0.024033 -1.129040 0.017807 -1.349622 0.000000 -0.000001
    27 0.014896 -0.883992 -0.019846 -0.511010 0.000000 0.000000
    28 -0.064620 -0.124786 0.029284 0.384017 0.052253 1.458040
    29 0.583509 -1.197274 0.185379 0.377232 -0.745798 -1.043320
    30 1.535926 0.010247 0.005009 -0.290357 -0.063207 -0.837499
    31 1.100770 0.004528 -0.010675 0.000000 0.000000 -0.577704
    32 0.957766 -2.746777 -0.090301 -0.189827 0.016530 0.045802
    33 -0.033419 -1.397128 -0.011255 -0.699756 0.000000 0.000000
    34 -0.022361 -0.957433 0.018783 -0.575855 0.000000 0.000000
    35 0.250029 -2.820664 -0.238396 -0.872208 -0.049326 -0.238818
    36 -0.049759 -1.680544 0.100479 -1.454738 0.000000 0.000000
    37 -0.034141 -1.148311 0.084779 -1.567306 0.000000 0.000000
    38 -0.488517 -2.755600 -0.228261 -1.098181 -0.096000 -0.264903
    39 0.039889 -1.479791 0.029854 -1.354100 0.000000 0.000000
    40 0.028785 -1.075733 -0.023110 -1.435200 0.000000 0.000000
    41 -1.180679 -2.507216 -0.193861 -1.163678 -0.049451 -0.281014
    42 -0.024967 -1.123934 0.017595 -0.883852 0.000000 0.000000
    43 -0.020058 -0.890965 0.010091 -1.435318 0.000000 0.000000
    44 0.120180 -0.051600 -0.063059 0.012085 -2.987703 1.512552
  time 16
    0 7.801870 3.579731 -6.643230 -1.265481 -1.328194 0.985254
    1 -0.069508 -8.500779 -0.100989 0.382881 -0.103562 -0.278216
    2 -0.549791 -3.387297 1.031815 0.764876 1.739162 0.794019
    3 0.000000 1.888488 0.974220 0.000000 0.000000 0.000000
    4 -0.291301 13.772059 -1.094121 0.000000 0.000000 0.000000
    5 -0.482113 -4.704160 2.234720 0.000000 -2.835044 0.000000
    6 -0.013948 -2.720513 1.100493 -0.332696 0.000000 0.000000
    7 -0.013949 -4.784637 0.953041 0.000000 0.000000 0.000000
    8 0.013504 -3.609847 2.576681 0.000000 0.000000 0.000000
    9 -0.061524 -0.623888 2.571739 0.000000 0.000000 0.000000
    10 -0.640636 -3.730933 1.422005 -1.570796 0.000000 -1.570796
    11 -0.901884 -3.207792 -7.872145 1.067515 2.097963 1.566984
    12 0.096946 -8.450419 -0.009363 0.103570 -0.624285 0.334340
    13 -0.586769 -1.264477 0.200164 -0.158686 -0.258131 -2.320589
    14 1.522835 0.058680 0.016850 0.408133 0.037684 0.333851
    15 1.117947 0.048424 -0.005765 0.209870 0.001510 -0.129547
    16 -0.963867 -2.785143 -0.085346 -0.991575 0.384655 0.005354
    17 0.028478 -1.403067 0.006272 -1.138366 -0.049204 -0.002683
    18 0.021412 -0.957782 0.020047 -0.469066 -0.033045 -0.015228
    19 -0.249534 -2.846963 -0.174215 -0.884643 0.272397 0.173103
    20 0.043235 -1.683940 0.096015 -1.463320 0.000001 0.000000
    21 0.031729 -1.160830 0.058836 -0.780281 -0.010990 -0.011110
    22 0.447951 -2.798983 -0.200441 -1.042371 0.388395 0.315406
    23 -0.032909 -1.480207 0.004935 -1.456173 -0.036002 -0.004051
    24 -0.027023 -1.076921 -0.020212 -0.358738 0.000000 0.000000
    25 1.164474 -2.543939 -0.170327 -1.126103 0.241153 0.235942
    26 0.024033 -1.129040 0.017807 -1.349622 0.000000 -0.000001
    27 0.014896 -0.883992 -0.019846 -0.511010 0.000000 0.000000
    28 -0.064620 -0.124786 0.029284 0.384017 0.052253 1.458040
    29 0.583509 -1.197274 0.185379 0.377232 -0.745798 -1.043320
    30 1.535926 0.010247 0.005009 -0.290357 -0.063207 -0.837499
    31 1.100770 0.004528 -0.010675 0.000000 0.000000 -0.577704
    32 0.957766 -2.746777 -0.090301 -0.189288 0.016530 0.045802
    33 -0.033419 -1.397128 -0.011255 -0.698503 0.000000 0.000000
    34 -0.022361 -0.957433 0.018783 -0.575062 0.000000 0.000000
    35 0.250029 -2.820664 -0.238396 -0.872208 -0.049326 -0.238818
    36 -0.049759 -1.680544 0.100479 -1.454738 0.000000 0.000000
    37 -0.034141 -1.148311 0.084779 -1.567306 0.000000 0.000000
    38 -0.488517 -2.755600 -0.228261 -1.098181 -0.096000 -0.264903
    39 0.039889 -1.479791 0.029854 -1.354100 0.000000 0.000000
    40 0.028785 -1.075733 -0.023110 -1.435200 0.000000 0.000000
    41 -1.180679 -2.507216 -0.193861 -1.163678 -0.049451 -0.281014
    42 -0.024967 -1.123934 0.017595 -0.883852 0.000000 0.000000
    43 -0.020058 -0.890965 0.010091 -1.435318 0.000000 0.000000
    44 0.120180 -0.051600 -0.063059 0.012085 -2.987703 1.512552
  time 17
    0 7.801870 3.583637 -6.643230 -1.260888 -1.329939 0.983069
    1 -0.069508 -8.500779 -0.100989 0.382982 -0.104372 -0.278546
    2 -0.549791 -3.387297 1.031815 0.764876 1.739162 0.794019
    3 0.000000 1.888488 0.974220 0.000000 0.000000 0.000000
    4 -0.291301 13.772059 -1.094121 0.000000 0.000000 0.000000
    5 -0.482113 -4.704160 2.234720 0.000000 -2.835044 0.000000
    6 -0.013948 -2.720513 1.100493 -0.333133 0.000000 0.000000
    7 -0.013949 -4.784637 0.953041 0.000000 0.000000 0.000000
    8 0.013504 -3.609847 2.576681 0.000000 0.000000 0.000000
    9 -0.061524 -0.623888 2.571739 0.000000 0.000000 0.000000
    10 -0.640636 -3.730933 1.422005 -1.570796 0.000000 -1.570796
    11 -0.823756 -3.196073 -7.915115 1.073412 2.097581 1.566333
    12 0.096946 -8.450419 -0.009363 0.093817 -0.624701 0.340651
    13 -0.586769 -1.264477 0.200164 -0.158231 -0.258361 -2.322280
    14 1.522835 0.058680 0.016850 0.408027 0.039050 0.330400
    15 1.117947 0.048424 -0.005765 0.209870 -0.001390 -0.115866
    16 -0.963867 -2.785143 -0.085346 -0.991575 0.384655 0.005354
    17 0.028478 -1.403067 0.006272 -1.138366 -0.049204 -0.002683
    18 0.021412 -0.957782 0.020047 -0.469066 -0.033045 -0.015228
    19 -0.249534 -2.846963 -0.174215 -0.887561 0.271319 0.172133
    20 0.043235 -1.683940 0.096015 -1.463534 0.000001 0.000000
    21 0.031729 -1.160830 0.058836 -0.785179 -0.010918 -0.010966
    22 0.447951 -2.798983 -0.200441 -1.040413 0.385591 0.314723
    23 -0.032909 -1.480207 0.004935 -1.460866 -0.068252 -0.007514
    24 -0.027023 -1.076921 -0.020212 -0.358738 0.000000 0.000000
    25 1.164474 -2.543939 -0.170327 -1.126103 0.241153 0.235942
    26 0.024033 -1.129040 0.017807 -1.349622 0.000000 -0.000001
    27 0.014896 -0.883992 -0.019846 -0.511010 0.000000 0.000000
    28 -0.064620 -0.124786 0.029284 0.384017 0.052253 1.458040
    29 0.583509 -1.197274 0.185379 0.377232 -0.745798 -1.043320
    30 1.535926 0.010247 0.005009 -0.290357 -0.063207 -0.837499
    31 1.100770 0.004528 -0.010675 0.000000 0.000000 -0.577704
    32 0.957766 -2.746777 -0.090301 -0.189216 0.016530 0.045802
    33 -0.033419 -1.397128 -0.011255 -0.699189 0.000000 0.000000
    34 -0.022361 -0.957433 0.018783 -0.574969 0.000000 0.000000
    35 0.250029 -2.820664 -0.238396 -0.872208 -0.049326 -0.238818
    36 -0.049759 -1.680544 0.100479 -1.454738 0.000000 0.000000
    37 -0.034141 -1.148311 0.084779 -1.567306 0.000000 0.000000
    38 -0.488517 -2.755600 -0.228261 -1.098181 -0.096000 -0.264903
    39 0.039889 -1.479791 0.029854 -1.354100 0.000000 0.000000
    40 0.028785 -1.075733 -0.023110 -1.435200 0.000000 0.000000
    41 -1.180679 -2.507216 -0.193861 -1.163678 -0.049451 -0.281014
    42 -0.024967 -1.123934 0.017595 -0.883852 0.000000 0.000000
    43 -0.020058 -0.890965 0.010091 -1.435318 0.000000 0.000000
    44 0.120180 -0.051600 -0.063059 0.012085 -2.987703 1.512552
  time 18
    0 7.774525 3.607076 -6.537758 -1.252530 -1.333936 0.977606
    1 -0.069508 -8.500779 -0.100989 0.381826 -0.106677 -0.275677
    2 -0.549791 -3.387297 1.031815 0.764876 1.739162 0.794019
    3 0.000000 1.888488 0.974220 0.000000 0.000000 0.000000
    4 -0.291301 13.772059 -1.094121 0.000000 0.000000 0.000000
    5 -0.482113 -4.704160 2.234720 0.000000 -2.835044 0.000000
    6 -0.013948 -2.720513 1.100493 -0.331257 0.000000 0.000000
    7 -0.013949 -4.784637 0.953041 0.000000 0.000000 0.000000
    8 0.013504 -3.609847 2.576681 0.000000 0.000000 0.000000
    9 -0.061524 -0.623888 2.571739 0.000000 0.000000 0.000000
    10 -0.640636 -3.730933 1.422005 -1.570796 0.000000 -1.570796
    11 -0.737816 -3.180447 -7.961992 -2.048733 1.035034 -1.567168
    12 0.096946 -8.450419 -0.009363 0.082858 -0.624819 0.347569
    13 -0.586769 -1.264477 0.200164 -0.157705 -0.258624 -2.324171
    14 1.522835 0.058680 0.016850 0.407921 0.040324 0.327210
    15 1.117947 0.048424 -0.005765 0.209836 -0.004147 -0.102931
    16 -0.963867 -2.785143 -0.085346 -0.991575 0.384655 0.005354
    17 0.028478 -1.403067 0.006272 -1.138366 -0.049204 -0.002683
    18 0.021412 -0.957782 0.020047 -0.469066 -0.033045 -0.015228
    19 -0.249534 -2.846963 -0.174215 -0.887241 0.272397 0.173103
    20 0.043235 -1.683940 0.096015 -1.463919 0.000001 0.000000
    21 0.031729 -1.160830 0.058836 -0.790638 -0.010630 -0.010630
    22 0.447951 -2.798983 -0.200441 -1.038932 0.382667 0.313956
    23 -0.032909 -1.480207 0.004935 -1.466366 -0.067497 -0.007251
    24 -0.027023 -1.076921 -0.020212 -0.358738 0.000000 0.000000
    25 1.164474 -2.543939 -0.170327 -1.126103 0.241153 0.235942
    26 0.024033 -1.129040 0.017807 -1.349622 0.000000 -0.000001
    27 0.014896 -0.883992 -0.019846 -0.511010 0.000000 0.000000
    28 -0.064620 -0.124786 0.029284 0.384017 0.052253 1.458040
    29 0.583509 -1.197274 0.185379 0.377232 -0.745798 -1.043320
    30 1.535926 0.010247 0.005009 -0.290357 -0.063207 -0.837499
    31 1.100770 0.004528 -0.010675 0.000000 0.000000 -0.577704
    32 0.957766 -2.746777 -0.090301 -0.189540 0.016530 0.045802
    33 -0.033419 -1.397128 -0.011255 -0.701517 0.000000 0.000000
    34 -0.022361 -0.957433 0.018783 -0.575435 0.000000 0.000000
    35 0.250029 -2.820664 -0.238396 -0.872208 -0.049326 -0.238818
    36 -0.049759 -1.680544 0.100479 -1.454738 0.000000 0.000000
    37 -0.034141 -1.148311 0.084779 -1.567306 0.000000 0.000000
    38 -0.488517 -2.755600 -0.228261 -1.098181 -0.096000 -0.264903
    39 0.039889 -1.479791 0.029854 -1.354100 0.000000 0.000000
    40 0.028785 -1.075733 -0.023110 -1.435200 0.000000 0.000000
    41 -1.180679 -2.507216 -0.193861 -1.163678 -0.049451 -0.281014
    42 -0.024967 -1.123934 0.017595 -0.883852 0.000000 0.000000
    43 -0.020058 -0.890965 0.010091 -1.435318 0.000000 0.000000
    44 0.120180 -0.051600 -0.063059 0.012085 -2.987703 1.512552
  time 19
    0 7.747181 3.622701 -6.440099 -1.243726 -1.338218 0.971386
    1 -0.069508 -8.500779 -0.100989 0.379960 -0.109655 -0.270907
    2 -0.549791 -3.387297 1.031815 0.764876 1.739162 0.794019
    3 0.000000 1.888488 0.974220 0.000000 0.000000 0.000000
    4 -0.291301 13.772059 -1.094121 0.000000 0.000000 0.000000
    5 -0.482113 -4.704160 2.234720 0.000000 -2.835044 0.000000
    6 -0.013948 -2.720513 1.100493 -0.327456 0.000000 0.000000
    7 -0.013949 -4.784637 0.953041 0.000000 0.000000 0.000000
    8 0.013504 -3.609847 2.576681 0.000000 0.000000 0.000000
    9 -0.061524 -0.623888 2.571739 0.000000 0.000000 0.000000
    10 -0.640636 -3.730933 1.422005 -1.570796 0.000000 -1.570796
    11 -0.651876 -3.164822 -8.008868 -2.029339 1.026071 -1.559684
    12 0.096946 -8.450419 -0.009363 0.071259 -0.624701 0.354815
    13 -0.586769 -1.264477 0.200164 -0.157145 -0.258920 -2.326227
    14 1.522835 0.058680 0.016850 0.407841 0.041506 0.324215
    15 1.117947 0.048424 -0.005765 0.209766 -0.006651 -0.091169
    16 -0.963867 -2.785143 -0.085346 -0.991575 0.384655 0.005354
    17 0.028478 -1.403067 0.006272 -1.138366 -0.049204 -0.002683
    18 0.021412 -0.957782 0.020047 -0.469066 -0.033045 -0.015228
    19 -0.249534 -2.846963 -0.174215 -0.883503 0.272384 0.173103
    20 0.043235 -1.683940 0.096015 -1.464433 0.000001 0.000000
    21 0.031729 -1.160830 0.058836 -0.796583 -0.010175 -0.010115
    22 0.447951 -2.798983 -0.200441 -1.037786 0.379635 0.313105
    23 -0.032909 -1.480207 0.004935 -1.472067 -0.065304 -0.006831
    24 -0.027023 -1.076921 -0.020212 -0.358738 0.000000 0.000000
    25 1.164474 -2.543939 -0.170327 -1.126103 0.241153 0.235942
    26 0.024033 -1.129040 0.017807 -1.349622 0.000000 -0.000001
    27 0.014896 -0.883992 -0.019846 -0.511010 0.000000 0.000000
    28 -0.064620 -0.124786 0.029284 0.384017 0.052253 1.458040
    29 0.583509 -1.197274 0.185379 0.377232 -0.745798 -1.043320
    30 1.535926 0.010247 0.005009 -0.290357 -0.063207 -0.837499
    31 1.100770 0.004528 -0.010675 0.000000 0.000000 -0.577704
    32 0.957766 -2.746777 -0.090301 -0.190211 0.016530 0.045802
    33 -0.033419 -1.397128 -0.011255 -0.705247 0.000000 0.000000
    34 -0.022361 -0.957433 0.018783 -0.576438 0.000000 0.000000
    35 0.250029 -2.820664 -0.238396 -0.872208 -0.049326 -0.238818
    36 -0.049759 -1.680544 0.100479 -1.454738 0.000000 0.000000
    37 -0.034141 -1.148311 0.084779 -1.567306 0.000000 0.000000
    38 -0.488517 -2.755600 -0.228261 -1.098181 -0.096000 -0.264903
    39 0.039889 -1.479791 0.029854 -1.354100 0.000000 0.000000
    40 0.028785 -1.075733 -0.023110 -1.435200 0.000000 0.000000
    41 -1.180679 -2.507216 -0.193861 -1.163678 -0.049451 -0.281014
    42 -0.024967 -1.123934 0.017595 -0.883852 0.000000 0.000000
    43 -0.020058 -0.890965 0.010091 -1.435318 0.000000 0.000000
    44 0.120180 -0.051600 -0.063059 0.012085 -2.987703 1.512552
  time 20
    0 7.719836 3.642233 -6.350252 -1.234219 -1.342849 0.964326
    1 -0.069508 -8.500779 -0.100989 0.378114 -0.112373 -0.265847
    2 -0.549791 -3.387297 1.031815 0.764876 1.739162 0.794019
    3 0.000000 1.888488 0.974220 0.000000 0.000000 0.000000
    4 -0.291301 13.772059 -1.094121 0.000000 0.000000 0.000000
    5 -0.482113 -4.704160 2.234720 0.000000 -2.835044 0.000000
    6 -0.013948 -2.720513 1.100493 -0.322087 0.000000 0.000000
    7 -0.013949 -4.784637 0.953041 0.000000 0.000000 0.000000
    8 0.013504 -3.609847 2.576681 0.000000 0.000000 0.000000
    9 -0.061524 -0.623888 2.571739 0.000000 0.000000 0.000000
    10 -0.640636 -3.730933 1.422005 -1.570796 0.000000 -1.570796
    11 -0.565936 -3.149196 -8.051838 -2.011792 1.018347 -1.553746
    12 0.096946 -8.450419 -0.009363 0.059548 -0.624403 0.362037
    13 -0.586769 -1.264477 0.200164 -0.156584 -0.259216 -2.328415
    14 1.522835 0.058680 0.016850 0.407736 0.042609 0.321415
    15 1.117947 0.048424 -0.005765 0.209697 -0.008821 -0.080981
    16 -0.963867 -2.785143 -0.085346 -0.991575 0.384655 0.005354
    17 0.028478 -1.403067 0.006272 -1.138366 -0.049204 -0.002683
    18 0.021412 -0.957782 0.020047 -0.469066 -0.033045 -0.015228
    19 -0.249534 -2.846963 -0.174215 -0.879491 0.272384 0.173091
    20 0.043235 -1.683940 0.096015 -1.465032 0.000001 0.000000
    21 0.031729 -1.160830 0.058836 -0.803014 -0.009564 -0.009444
    22 0.447951 -2.798983 -0.200441 -1.036974 0.376531 0.312182
    23 -0.032909 -1.480207 0.004935 -1.477920 -0.061876 -0.006280
    24 -0.027023 -1.076921 -0.020212 -0.358738 0.000000 0.000000
    25 1.164474 -2.543939 -0.170327 -1.126103 0.241153 0.235942
    26 0.024033 -1.129040 0.017807 -1.349622 0.000000 -0.000001
    27 0.014896 -0.883992 -0.019846 -0.511010 0.000000 0.000000
    28 -0.064620 -0.124786 0.029284 0.384017 0.052253 1.458040
    29 0.583509 -1.197274 0.185379 0.377232 -0.745798 -1.043320
    30 1.535926 0.010247 0.005009 -0.290357 -0.063207 -0.837499
    31 1.100770 0.004528 -0.010675 0.000000 0.000000 -0.577704
    32 0.957766 -2.746777 -0.090301 -0.191146 0.016530 0.045802
    33 -0.033419 -1.397128 -0.011255 -0.710110 0.000000 0.000000
    34 -0.022361 -0.957433 0.018783 -0.577814 0.000000 0.000000
    35 0.250029 -2.820664 -0.238396 -0.872208 -0.049326 -0.238818
    36 -0.049759 -1.680544 0.100479 -1.454738 0.000000 0.000000
    37 -0.034141 -1.148311 0.084779 -1.567306 0.000000 0.000000
    38 -0.488517 -2.755600 -0.228261 -1.098181 -0.096000 -0.264903
    39 0.039889 -1.479791 0.029854 -1.354100 0.000000 0.000000
    40 0.028785 -1.075733 -0.023110 -1.435200 0.000000 0.000000
    41 -1.180679 -2.507216 -0.193861 -1.163678 -0.049451 -0.281014
    42 -0.024967 -1.123934 0.017595 -0.883852 0.000000 0.000000
    43 -0.020058 -0.890965 0.010091 -1.435318 0.000000 0.000000
    44 0.120180 -0.051600 -0.063059 0.012085 -2.987703 1.512552
  time 21
    0 7.700304 3.657858 -6.268219 -1.223693 -1.347924 0.956005
    1 -0.069508 -8.500779 -0.100989 0.376268 -0.114877 -0.260419
    2 -0.549791 -3.387297 1.031815 0.764876 1.739162 0.794019
    3 0.000000 1.888488 0.974220 0.000000 0.000000 0.000000
    4 -0.291301 13.772059 -1.094121 0.000000 0.000000 0.000000
    5 -0.482113 -4.704160 2.234720 0.000000 -2.835044 0.000000
    6 -0.013948 -2.720513 1.100493 -0.315511 0.000000 0.000000
    7 -0.013949 -4.784637 0.953041 0.000000 0.000000 0.000000
    8 0.013504 -3.609847 2.576681 0.000000 0.000000 0.000000
    9 -0.061524 -0.623888 2.571739 0.000000 0.000000 0.000000
    10 -0.640636 -3.730933 1.422005 -1.570796 0.000000 -1.570796
    11 -0.487809 -3.133571 -8.094808 -1.996873 1.012149 -1.549354
    12 0.096946 -8.450419 -0.009363 0.048288 -0.624047 0.368979
    13 -0.586769 -1.264477 0.200164 -0.155953 -0.259544 -2.330670
    14 1.522835 0.058680 0.016850 0.407656 0.043620 0.318843
    15 1.117947 0.048424 -0.005765 0.209611 -0.010570 -0.072767
    16 -0.963867 -2.785143 -0.085346 -0.991575 0.384655 0.005354
    17 0.028478 -1.403067 0.006272 -1.138366 -0.049204 -0.002683
    18 0.021412 -0.957782 0.020047 -0.469066 -0.033045 -0.015228
    19 -0.249534 -2.846963 -0.174215 -0.875343 0.272384 0.173091
    20 0.043235 -1.683940 0.096015 -1.465717 0.000001 0.000000
    21 0.031729 -1.160830 0.058836 -0.809781 -0.008821 -0.008653
    22 0.447951 -2.798983 -0.200441 -1.036449 0.373343 0.311211
    23 -0.032909 -1.480207 0.004935 -1.483874 -0.057394 -0.005657
    24 -0.027023 -1.076921 -0.020212 -0.358738 0.000000 0.000000
    25 1.164474 -2.543939 -0.170327 -1.126103 0.241153 0.235942
    26 0.024033 -1.129040 0.017807 -1.349622 0.000000 -0.000001
    27 0.014896 -0.883992 -0.019846 -0.511010 0.000000 0.000000
    28 -0.064620 -0.124786 0.029284 0.384017 0.052253 1.458040
    29 0.583509 -1.197274 0.185379 0.377232 -0.745798 -1.043320
    30 1.535926 0.010247 0.005009 -0.290357 -0.063207 -0.837499
    31 1.100770 0.004528 -0.010675 0.000000 0.000000 -0.577704
    32 0.957766 -2.746777 -0.090301 -0.192296 0.016530 0.045802
    33 -0.033419 -1.397128 -0.011255 -0.715870 0.000000 0.000000
    34 -0.022361 -0.957433 0.018783 -0.579516 0.000000 0.000000
    35 0.250029 -2.820664 -0.238396 -0.872208 -0.049326 -0.238818
    36 -0.049759 -1.680544 0.100479 -1.454738 0.000000 0.000000
    37 -0.034141 -1.148311 0.084779 -1.567306 0.000000 0.000000
    38 -0.488517 -2.755600 -0.228261 -1.098181 -0.096000 -0.264903
    39 0.039889 -1.479791 0.029854 -1.354100 0.000000 0.000000
    40 0.028785 -1.075733 -0.023110 -1.435200 0.000000 0.000000
    41 -1.180679 -2.507216 -0.193861 -1.163678 -0.049451 -0.281014
    42 -0.024967 -1.123934 0.017595 -0.883852 0.000000 0.000000
    43 -0.020058 -0.890965 0.010091 -1.435318 0.000000 0.000000
    44 0.120180 -0.051600 -0.063059 0.012085 -2.987703 1.512552
  time 22
    0 7.676866 3.673484 -6.197904 -1.211762 -1.353506 0.946339
    1 -0.069508 -8.500779 -0.100989 0.374362 -0.117290 -0.254564
    2 -0.549791 -3.387297 1.031815 0.764876 1.739162 0.794019
    3 0.000000 1.888488 0.974220 0.000000 0.000000 0.000000
    4 -0.291301 13.772059 -1.094121 0.000000 0.000000 0.000000
    5 -0.482113 -4.704160 2.234720 0.000000 -2.835044 0.000000
    6 -0.013948 -2.720513 1.100493 -0.308113 0.000000 0.000000
    7 -0.013949 -4.784637 0.953041 0.000000 0.000000 0.000000
    8 0.013504 -3.609847 2.576681 0.000000 0.000000 0.000000
    9 -0.061524 -0.623888 2.571739 0.000000 0.000000 0.000000
    10 -0.640636 -3.730933 1.422005 -1.570796 0.000000 -1.570796
    11 -0.421400 -3.121852 -8.129966 -1.985081 1.007858 -1.546588
    12 0.096946 -8.450419 -0.009363 0.038045 -0.623691 0.375313
    13 -0.586769 -1.264477 0.200164 -0.155323 -0.259857 -2.332992
    14 1.522835 0.058680 0.016850 0.407577 0.044540 0.316466
    15 1.117947 0.048424 -0.005765 0.209541 -0.011805 -0.066980
    16 -0.963867 -2.785143 -0.085346 -0.991575 0.384655 0.005354
    17 0.028478 -1.403067 0.006272 -1.138366 -0.049204 -0.002683
    18 0.021412 -0.957782 0.020047 -0.469066 -0.033045 -0.015228
    19 -0.249534 -2.846963 -0.174215 -0.870966 0.272384 0.173091
    20 0.043235 -1.683940 0.096015 -1.466445 0.000001 0.000000
    21 0.031729 -1.160830 0.058836 -0.816848 -0.007970 -0.007754
    22 0.447951 -2.798983 -0.200441 -1.036162 0.370095 0.310192
    23 -0.032909 -1.480207 0.004935 -1.489980 -0.052025 -0.004962
    24 -0.027023 -1.076921 -0.020212 -0.358738 0.000000 0.000000
    25 1.164474 -2.543939 -0.170327 -1.126103 0.241153 0.235942
    26 0.024033 -1.129040 0.017807 -1.349622 0.000000 -0.000001
    27 0.014896 -0.883992 -0.019846 -0.511010 0.000000 0.000000
    28 -0.064620 -0.124786 0.029284 0.384017 0.052253 1.458040
    29 0.583509 -1.197274 0.185379 0.377232 -0.745798 -1.043320
    30 1.535926 0.010247 0.005009 -0.290357 -0.063207 -0.837499
    31 1.100770 0.004528 -0.010675 0.000000 0.000000 -0.577704
    32 0.957766 -2.746777 -0.090301 -0.193602 0.016530 0.045802
    33 -0.033419 -1.397128 -0.011255 -0.722226 0.000000 0.000000
    34 -0.022361 -0.957433 0.018783 -0.581428 0.000000 0.000000
    35 0.250029 -2.820664 -0.238396 -0.872208 -0.049326 -0.238818
    36 -0.049759 -1.680544 0.100479 -1.454738 0.000000 0.000000
    37 -0.034141 -1.148311 0.084779 -1.567306 0.000000 0.000000
    38 -0.488517 -2.755600 -0.228261 -1.098181 -0.096000 -0.264903
    39 0.039889 -1.479791 0.029854 -1.354100 0.000000 0.000000
    40 0.028785 -1.075733 -0.023110 -1.435200 0.000000 0.000000
    41 -1.180679 -2.507216 -0.193861 -1.163678 -0.049451 -0.281014
    42 -0.024967 -1.123934 0.017595 -0.883852 0.000000 0.000000
    43 -0.020058 -0.890965 0.010091 -1.435318 0.000000 0.000000
    44 0.120180 -0.051600 -0.063059 0.012085 -2.987703 1.512552
  time 23
    0 7.661241 3.685203 -6.131496 -1.198045 -1.359659 0.934908
    1 -0.069508 -8.500779 -0.100989 0.372353 -0.119657 -0.248205
    2 -0.549791 -3.387297 1.031815 0.764876 1.739162 0.794019
    3 0.000000 1.888488 0.974220 0.000000 0.000000 0.000000
    4 -0.291301 13.772059 -1.094121 0.000000 0.000000 0.000000
    5 -0.482113 -4.704160 2.234720 0.000000 -2.835044 0.000000
    6 -0.013948 -2.720513 1.100493 -0.300201 0.000000 0.000000
    7 -0.013949 -4.784637 0.953041 0.000000 0.000000 0.000000
    8 0.013504 -3.609847 2.576681 0.000000 0.000000 0.000000
    9 -0.061524 -0.623888 2.571739 0.000000 0.000000 0.000000
    10 -0.640636 -3.730933 1.422005 -1.570796 0.000000 -1.570796
    11 -0.370618 -3.114039 -8.157310 -1.977124 1.005665 -1.545368
    12 0.096946 -8.450419 -0.009363 0.029346 -0.623423 0.380736
    13 -0.586769 -1.264477 0.200164 -0.154692 -0.260185 -2.335313
    14 1.522835 0.058680 0.016850 0.407524 0.045118 0.314903
    15 1.117947 0.048424 -0.005765 0.209524 -0.012224 -0.064953
    16 -0.963867 -2.785143 -0.085346 -0.991575 0.384655 0.005354
    17 0.028478 -1.403067 0.006272 -1.138366 -0.049204 -0.002683
    18 0.021412 -0.957782 0.020047 -0.469066 -0.033045 -0.015228
    19 -0.249534 -2.846963 -0.174215 -0.866453 0.272384 0.173091
    20 0.043235 -1.683940 0.096015 -1.467216 0.000001 0.000000
    21 0.031729 -1.160830 0.058836 -0.824176 -0.007023 -0.006783
    22 0.447951 -2.798983 -0.200441 -1.036019 0.366811 0.309138
    23 -0.032909 -1.480207 0.004935 -1.496085 -0.045973 -0.004243
    24 -0.027023 -1.076921 -0.020212 -0.358738 0.000000 0.000000
    25 1.164474 -2.543939 -0.170327 -1.126103 0.241153 0.235942
    26 0.024033 -1.129040 0.017807 -1.349622 0.000000 -0.000001
    27 0.014896 -0.883992 -0.019846 -0.511010 0.000000 0.000000
    28 -0.064620 -0.124786 0.029284 0.384017 0.052253 1.458040
    29 0.583509 -1.197274 0.185379 0.377232 -0.745798 -1.043320
    30 1.535926 0.010247 0.005009 -0.290357 -0.063207 -0.837499
    31 1.100770 0.004528 -0.010675 0.000000 0.000000 -0.577704
    32 0.957766 -2.746777 -0.090301 -0.194981 0.016530 0.045802
    33 -0.033419 -1.397128 -0.011255 -0.728910 0.000000 0.000000
    34 -0.022361 -0.957433 0.018783 -0.583480 0.000000 0.000000
    35 0.250029 -2.820664 -0.238396 -0.872208 -0.049326 -0.238818
    36 -0.049759 -1.680544 0.100479 -1.454738 0.000000 0.000000
    37 -0.034141 -1.148311 0.084779 -1.567306 0.000000 0.000000
    38 -0.488517 -2.755600 -0.228261 -1.098181 -0.096000 -0.264903
    39 0.039889 -1.479791 0.029854 -1.354100 0.000000 0.000000
    40 0.028785 -1.075733 -0.023110 -1.435200 0.000000 0.000000
    41 -1.180679 -2.507216 -0.193861 -1.163678 -0.049451 -0.281014
    42 -0.024967 -1.123934 0.017595 -0.883852 0.000000 0.000000
    43 -0.020058 -0.890965 0.010091 -1.435318 0.000000 0.000000
    44 0.120180 -0.051600 -0.063059 0.012085 -2.987703 1.512552
  time 24
    0 7.645615 3.693016 -6.076806 -1.181967 -1.366479 0.921292
    1 -0.069508 -8.500779 -0.100989 0.370183 -0.122085 -0.241226
    2 -0.549791 -3.387297 1.031815 0.764876 1.739162 0.794019
    3 0.000000 1.888488 0.974220 0.000000 0.000000 0.000000
    4 -0.291301 13.772059 -1.094121 0.000000 0.000000 0.000000
    5 -0.482113 -4.704160 2.234720 0.000000 -2.835044 0.000000
    6 -0.013948 -2.720513 1.100493 -0.292187 0.000000 0.000000
    7 -0.013949 -4.784637 0.953041 0.000000 0.000000 0.000000
    8 0.013504 -3.609847 2.576681 0.000000 0.000000 0.000000
    9 -0.061524 -0.623888 2.571739 0.000000 0.000000 0.000000
    10 -0.640636 -3.730933 1.422005 -1.570796 0.000000 -1.570796
    11 -0.339367 -3.110133 -8.176842 -1.973714 1.005855 -1.545856
    12 0.096946 -8.450419 -0.009363 0.022718 -0.623393 0.384990
    13 -0.586769 -1.264477 0.200164 -0.154062 -0.260497 -2.337635
    14 1.522835 0.058680 0.016850 0.407524 0.045157 0.314643
    15 1.117947 0.048424 -0.005765 0.209559 -0.011745 -0.067246
    16 -0.963867 -2.785143 -0.085346 -0.991575 0.384655 0.005354
    17 0.028478 -1.403067 0.006272 -1.138366 -0.049204 -0.002683
    18 0.021412 -0.957782 0.020047 -0.469066 -0.033045 -0.015228
    19 -0.249534 -2.846963 -0.174215 -0.861848 0.272384 0.173091
    20 0.043235 -1.683940 0.096015 -1.467943 0.000001 0.000000
    21 0.031729 -1.160830 0.058836 -0.831654 -0.006016 -0.005777
    22 0.447951 -2.798983 -0.200441 -1.035971 0.363503 0.308071
    23 -0.032909 -1.480207 0.004935 -1.502342 -0.039417 -0.003511
    24 -0.027023 -1.076921 -0.020212 -0.358738 0.000000 0.000000
    25 1.164474 -2.543939 -0.170327 -1.126103 0.241153 0.235942
    26 0.024033 -1.129040 0.017807 -1.349622 0.000000 -0.000001
    27 0.014896 -0.883992 -0.019846 -0.511010 0.000000 0.000000
    28 -0.064620 -0.124786 0.029284 0.384017 0.052253 1.458040
    29 0.583509 -1.197274 0.185379 0.377232 -0.745798 -1.043320
    30 1.535926 0.010247 0.005009 -0.290357 -0.063207 -0.837499
    31 1.100770 0.004528 -0.010675 0.000000 0.000000 -0.577704
    32 0.957766 -2.746777 -0.090301 -0.196395 0.016530 0.045802
    33 -0.033419 -1.397128 -0.011255 -0.735713 0.000000 0.000000
    34 -0.022361 -0.957433 0.018783 -0.585555 0.000000 0.000000
    35 0.250029 -2.820664 -0.238396 -0.872208 -0.049326 -0.238818
    36 -0.049759 -1.680544 0.100479 -1.454738 0.000000 0.000000
    37 -0.034141 -1.148311 0.084779 -1.567306 0.000000 0.000000
    38 -0.488517 -2.755600 -0.228261 -1.098181 -0.096000 -0.264903
    39 0.039889 -1.479791 0.029854 -1.354100 0.000000 0.000000
    40 0.028785 -1.075733 -0.023110 -1.435200 0.000000 0.000000
    41 -1.180679 -2.507216 -0.193861 -1.163678 -0.049451 -0.281014
    42 -0.024967 -1.123934 0.017595 -0.883852 0.000000 0.000000
    43 -0.020058 -0.890965 0.010091 -1.435318 0.000000 0.000000
    44 0.120180 -0.051600 -0.063059 0.012085 -2.987703 1.512552
  time 25
    0 7.633896 3.704735 -6.029930 -1.162891 -1.374028 0.904903
    1 -0.069508 -8.500779 -0.100989 0.367830 -0.124635 -0.233587
    2 -0.549791 -3.387297 1.031815 0.764876 1.739162 0.794019
    3 0.000000 1.888488 0.974220 0.000000 0.000000 0.000000
    4 -0.291301 13.772059 -1.094121 0.000000 0.000000 0.000000
    5 -0.482113 -4.704160 2.234720 0.000000 -2.835044 0.000000
    6 -0.013948 -2.720513 1.100493 -0.284404 0.000000 0.000000
    7 -0.013949 -4.784637 0.953041 0.000000 0.000000 0.000000
    8 0.013504 -3.609847 2.576681 0.000000 0.000000 0.000000
    9 -0.061524 -0.623888 2.571739 0.000000 0.000000 0.000000
    10 -0.640636 -3.730933 1.422005 -1.570796 0.000000 -1.570796
    11 -0.319835 -3.106226 -8.184655 -1.974211 1.008430 -1.547971
    12 0.096946 -8.450419 -0.009363 0.018990 -0.623453 0.387444
    13 -0.586769 -1.264477 0.200164 -0.153466 -0.260810 -2.339856
    14 1.522835 0.058680 0.016850 0.407577 0.044789 0.315327
    15 1.117947 0.048424 -0.005765 0.209611 -0.010558 -0.072794
    16 -0.963867 -2.785143 -0.085346 -0.991575 0.384655 0.005354
    17 0.028478 -1.403067 0.006272 -1.138366 -0.049204 -0.002683
    18 0.021412 -0.957782 0.020047 -0.469066 -0.033045 -0.015228
    19 -0.249534 -2.846963 -0.174215 -0.857198 0.272384 0.173091
    20 0.043235 -1.683940 0.096015 -1.468671 0.000001 0.000000
    21 0.031729 -1.160830 0.058836 -0.839207 -0.004974 -0.004734
    22 0.447951 -2.798983 -0.200441 -1.035971 0.360172 0.306993
    23 -0.032909 -1.480207 0.004935 -1.508548 -0.032538 -0.002804
    24 -0.027023 -1.076921 -0.020212 -0.358738 0.000000 0.000000
    25 1.164474 -2.543939 -0.170327 -1.126103 0.241153 0.235942
    26 0.024033 -1.129040 0.017807 -1.349622 0.000000 -0.000001
    27 0.014896 -0.883992 -0.019846 -0.511010 0.000000 0.000000
    28 -0.064620 -0.124786 0.029284 0.384017 0.052253 1.458040
    29 0.583509 -1.197274 0.185379 0.377232 -0.745798 -1.043320
    30 1.535926 0.010247 0.005009 -0.290357 -0.063207 -0.837499
    31 1.100770 0.004528 -0.010675 0.000000 0.000000 -0.577704
    32 0.957766 -2.746777 -0.090301 -0.197761 0.016530 0.045802
    33 -0.033419 -1.397128 -0.011255 -0.742308 0.000000 0.000000
    34 -0.022361 -0.957433 0.018783 -0.587560 0.000000 0.000000
    35 0.250029 -2.820664 -0.238396 -0.872208 -0.049326 -0.238818
    36 -0.049759 -1.680544 0.100479 -1.454738 0.000000 0.000000
    37 -0.034141 -1.148311 0.084779 -1.567306 0.000000 0.000000
    38 -0.488517 -2.755600 -0.228261 -1.098181 -0.096000 -0.264903
    39 0.039889 -1.479791 0.029854 -1.354100 0.000000 0.000000
    40 0.028785 -1.075733 -0.023110 -1.435200 0.000000 0.000000
    41 -1.180679 -2.507216 -0.193861 -1.163678 -0.049451 -0.281014
    42 -0.024967 -1.123934 0.017595 -0.883852 0.000000 0.000000
    43 -0.020058 -0.890965 0.010091 -1.435318 0.000000 0.000000
    44 0.120180 -0.051600 -0.063059 0.012085 -2.987703 1.512552
  time 26
    0 7.622177 3.712548 -5.990866 -1.140051 -1.382338 0.884983
    1 -0.069508 -8.500779 -0.100989 0.365234 -0.127414 -0.225173
    2 -0.549791 -3.387297 1.031815 0.764876 1.739162 0.794019
    3 0.000000 1.888488 0.974220 0.000000 0.000000 0.000000
    4 -0.291301 13.772059 -1.094121 0.000000 0.000000 0.000000
    5 -0.482113 -4.704160 2.234720 0.000000 -2.835044 0.000000
    6 -0.013948 -2.720513 1.100493 -0.277211 0.000000 0.000000
    7 -0.013949 -4.784637 0.953041 0.000000 0.000000 0.000000
    8 0.013504 -3.609847 2.576681 0.000000 0.000000 0.000000
    9 -0.061524 -0.623888 2.571739 0.000000 0.000000 0.000000
    10 -0.640636 -3.730933 1.422005 -1.570796 0.000000 -1.570796
    11 -0.312022 -3.106226 -8.188561 -1.977692 1.013198 -1.551713
    12 0.096946 -8.450419 -0.009363 0.017935 -0.623483 0.388145
    13 -0.586769 -1.264477 0.200164 -0.152870 -0.261105 -2.342012
    14 1.522835 0.058680 0.016850 0.407656 0.044146 0.316727
    15 1.117947 0.048424 -0.005765 0.209697 -0.008881 -0.080688
    16 -0.963867 -2.785143 -0.085346 -0.991575 0.384655 0.005354
    17 0.028478 -1.403067 0.006272 -1.138366 -0.049204 -0.002683
    18 0.021412 -0.957782 0.020047 -0.469066 -0.033045 -0.015228
    19 -0.249534 -2.846963 -0.174215 -0.852502 0.272370 0.173079
    20 0.043235 -1.683940 0.096015 -1.469271 0.000001 0.000000
    21 0.031729 -1.160830 0.058836 -0.846797 -0.003907 -0.003691
    22 0.447951 -2.798983 -0.200441 -1.035971 0.356840 0.305914
    23 -0.032909 -1.480207 0.004935 -1.514805 -0.025539 -0.002109
    24 -0.027023 -1.076921 -0.020212 -0.358738 0.000000 0.000000
    25 1.164474 -2.543939 -0.170327 -1.126103 0.241153 0.235942
    26 0.024033 -1.129040 0.017807 -1.349622 0.000000 -0.000001
    27 0.014896 -0.883992 -0.019846 -0.511010 0.000000 0.000000
    28 -0.064620 -0.124786 0.029284 0.384017 0.052253 1.458040
    29 0.583509 -1.197274 0.185379 0.377232 -0.745798 -1.043320
    30 1.535926 0.010247 0.005009 -0.290357 -0.063207 -0.837499
    31 1.100770 0.004528 -0.010675 0.000000 0.000000 -0.577704
    32 0.957766 -2.746777 -0.090301 -0.199019 0.016530 0.045802
    33 -0.033419 -1.397128 -0.011255 -0.748485 0.000000 0.000000
    34 -0.022361 -0.957433 0.018783 -0.589426 0.000000 0.000000
    35 0.250029 -2.820664 -0.238396 -0.872208 -0.049326 -0.238818
    36 -0.049759 -1.680544 0.100479 -1.454738 0.000000 0.000000
    37 -0.034141 -1.148311 0.084779 -1.567306 0.000000 0.000000
    38 -0.488517 -2.755600 -0.228261 -1.098181 -0.096000 -0.264903
    39 0.039889 -1.479791 0.029854 -1.354100 0.000000 0.000000
    40 0.028785 -1.075733 -0.023110 -1.435200 0.000000 0.000000
    41 -1.180679 -2.507216 -0.193861 -1.163678 -0.049451 -0.281014
    42 -0.024967 -1.123934 0.017595 -0.883852 0.000000 0.000000
    43 -0.020058 -0.890965 0.010091 -1.435318 0.000000 0.000000
    44 0.120180 -0.051600 -0.063059 0.012085 -2.987703 1.512552
  time 27
    0 7.614364 3.716454 -5.963522 -1.112234 -1.391473 0.860608
    1 -0.069508 -8.500779 -0.100989 0.362333 -0.130483 -0.215926
    2 -0.549791 -3.387297 1.031815 0.764876 1.739162 0.794019
    3 0.000000 1.888488 0.974220 0.000000 0.000000 0.000000
    4 -0.291301 13.772059 -1.094121 0.000000 0.000000 0.000000
    5 -0.482113 -4.704160 2.234720 0.000000 -2.835044 0.000000
    6 -0.013948 -2.720513 1.100493 -0.271021 0.000000 0.000000
    7 -0.013949 -4.784637 0.953041 0.000000 0.000000 0.000000
    8 0.013504 -3.609847 2.576681 0.000000 0.000000 0.000000
    9 -0.061524 -0.623888 2.571739 0.000000 0.000000 0.000000
    10 -0.640636 -3.730933 1.422005 -1.570796 0.000000 -1.570796
    11 -0.308116 -3.102320 -8.192467 -1.984512 1.020063 -1.557244
    12 0.096946 -8.450419 -0.009363 0.018688 -0.623483 0.387655
    13 -0.586769 -1.264477 0.200164 -0.152345 -0.261368 -2.344002
    14 1.522835 0.058680 0.016850 0.407736 0.043318 0.318517
    15 1.117947 0.048424 -0.005765 0.209766 -0.006927 -0.089862
    16 -0.963867 -2.785143 -0.085346 -0.991575 0.384655 0.005354
    17 0.028478 -1.403067 0.006272 -1.138366 -0.049204 -0.002683
    18 0.021412 -0.957782 0.020047 -0.469066 -0.033045 -0.015228
    19 -0.249534 -2.846963 -0.174215 -0.847761 0.272370 0.173079
    20 0.043235 -1.683940 0.096015 -1.469827 0.000001 0.000000
    21 0.031729 -1.160830 0.058836 -0.854312 -0.002852 -0.002673
    22 0.447951 -2.798983 -0.200441 -1.035923 0.353532 0.304859
    23 -0.032909 -1.480207 0.004935 -1.521011 -0.018600 -0.001486
    24 -0.027023 -1.076921 -0.020212 -0.358738 0.000000 0.000000
    25 1.164474 -2.543939 -0.170327 -1.126103 0.241153 0.235942
    26 0.024033 -1.129040 0.017807 -1.349622 0.000000 -0.000001
    27 0.014896 -0.883992 -0.019846 -0.511010 0.000000 0.000000
    28 -0.064620 -0.124786 0.029284 0.384017 0.052253 1.458040
    29 0.583509 -1.197274 0.185379 0.377232 -0.745798 -1.043320
    30 1.535926 0.010247 0.005009 -0.290357 -0.063207 -0.837499
    31 1.100770 0.004528 -0.010675 0.000000 0.000000 -0.577704
    32 0.957766 -2.746777 -0.090301 -0.200098 0.016530 0.045802
    33 -0.033419 -1.397128 -0.011255 -0.753975 0.000000 0.000000
    34 -0.022361 -0.957433 0.018783 -0.591035 0.000000 0.000000
    35 0.250029 -2.820664 -0.238396 -0.872208 -0.049326 -0.238818
    36 -0.049759 -1.680544 0.100479 -1.454738 0.000000 0.000000
    37 -0.034141 -1.148311 0.084779 -1.567306 0.000000 0.000000
    38 -0.488517 -2.755600 -0.228261 -1.098181 -0.096000 -0.264903
    39 0.039889 -1.479791 0.029854 -1.354100 0.000000 0.000000
    40 0.028785 -1.075733 -0.023110 -1.435200 0.000000 0.000000
    41 -1.180679 -2.507216 -0.193861 -1.163678 -0.049451 -0.281014
    42 -0.024967 -1.123934 0.017595 -0.883852 0.000000 0.000000
    43 -0.020058 -0.890965 0.010091 -1.435318 0.000000 0.000000
    44 0.120180 -0.051600 -0.063059 0.012085 -2.987703 1.512552
  time 28
    0 7.606551 3.720360 -5.940084 -1.078101 -1.401433 0.830350
    1 -0.069508 -8.500779 -0.100989 0.359068 -0.133903 -0.205748
    2 -0.549791 -3.387297 1.031815 0.764876 1.739162 0.794019
    3 0.000000 1.888488 0.974220 0.000000 0.000000 0.000000
    4 -0.291301 13.772059 -1.094121 0.000000 0.000000 0.000000
    5 -0.482113 -4.704160 2.234720 0.000000 -2.835044 0.000000
    6 -0.013948 -2.720513 1.100493 -0.266140 0.000000 0.000000
    7 -0.013949 -4.784637 0.953041 0.000000 0.000000 0.000000
    8 0.013504 -3.609847 2.576681 0.000000 0.000000 0.000000
    9 -0.061524 -0.623888 2.571739 0.000000 0.000000 0.000000
    10 -0.640636 -3.730933 1.422005 -1.570796 0.000000 -1.570796
    11 -0.312022 -3.106226 -8.188561 -1.995026 1.029313 -1.564728
    12 0.096946 -8.450419 -0.009363 0.020345 -0.623453 0.386556
    13 -0.586769 -1.264477 0.200164 -0.151819 -0.261615 -2.345859
    14 1.522835 0.058680 0.016850 0.407841 0.042465 0.320373
    15 1.117947 0.048424 -0.005765 0.209818 -0.004902 -0.099384
    16 -0.963867 -2.785143 -0.085346 -0.991575 0.384655 0.005354
    17 0.028478 -1.403067 0.006272 -1.138366 -0.049204 -0.002683
    18 0.021412 -0.957782 0.020047 -0.469066 -0.033045 -0.015228
    19 -0.249534 -2.846963 -0.174215 -0.843111 0.272370 0.173079
    20 0.043235 -1.683940 0.096015 -1.470255 0.000001 0.000000
    21 0.031729 -1.160830 0.058836 -0.861753 -0.001834 -0.001702
    22 0.447951 -2.798983 -0.200441 -1.035732 0.350248 0.303805
    23 -0.032909 -1.480207 0.004935 -1.527217 -0.011901 -0.000911
    24 -0.027023 -1.076921 -0.020212 -0.358738 0.000000 0.000000
    25 1.164474 -2.543939 -0.170327 -1.126103 0.241153 0.235942
    26 0.024033 -1.129040 0.017807 -1.349622 0.000000 -0.000001
    27 0.014896 -0.883992 -0.019846 -0.511010 0.000000 0.000000
    28 -0.064620 -0.124786 0.029284 0.384017 0.052253 1.458040
    29 0.583509 -1.197274 0.185379 0.377232 -0.745798 -1.043320
    30 1.535926 0.010247 0.005009 -0.290357 -0.063207 -0.837499
    31 1.100770 0.004528 -0.010675 0.000000 0.000000 -0.577704
    32 0.957766 -2.746777 -0.090301 -0.200961 0.016530 0.045802
    33 -0.033419 -1.397128 -0.011255 -0.758481 0.000000 0.000000
    34 -0.022361 -0.957433 0.018783 -0.592294 0.000000 0.000000
    35 0.250029 -2.820664 -0.238396 -0.872208 -0.049326 -0.238818
    36 -0.049759 -1.680544 0.100479 -1.454738 0.000000 0.000000
    37 -0.034141 -1.148311 0.084779 -1.567306 0.000000 0.000000
    38 -0.488517 -2.755600 -0.228261 -1.098181 -0.096000 -0.264903
    39 0.039889 -1.479791 0.029854 -1.354100 0.000000 0.000000
    40 0.028785 -1.075733 -0.023110 -1.435200 0.000000 0.000000
    41 -1.180679 -2.507216 -0.193861 -1.163678 -0.049451 -0.281014
    42 -0.024967 -1.123934 0.017595 -0.883852 0.000000 0.000000
    43 -0.020058 -0.890965 0.010091 -1.435318 0.000000 0.000000
    44 0.120180 -0.051600 -0.063059 0.012085 -2.987703 1.512552
  time 29
    0 7.602645 3.724267 -5.928364 -1.035483 -1.412217 0.792192
    1 -0.069508 -8.500779 -0.100989 0.355397 -0.137767 -0.194561
    2 -0.549791 -3.387297 1.031815 0.764876 1.739162 0.794019
    3 0.000000 1.888488 0.974220 0.000000 0.000000 0.000000
    4 -0.291301 13.772059 -1.094121 0.000000 0.000000 0.000000
    5 -0.482113 -4.704160 2.234720 0.000000 -2.835044 0.000000
    6 -0.013948 -2.720513 1.100493 -0.262929 0.000000 0.000000
    7 -0.013949 -4.784637 0.953041 0.000000 0.000000 0.000000
    8 0.013504 -3.609847 2.576681 0.000000 0.000000 0.000000
    9 -0.061524 -0.623888 2.571739 0.000000 0.000000 0.000000
    10 -0.640636 -3.730933 1.422005 -1.570796 0.000000 -1.570796
    11 -0.319835 -3.106226 -8.184655 1.131878 2.100633 1.566821
    12 0.096946 -8.450419 -0.009363 0.021965 -0.623393 0.385481
    13 -0.586769 -1.264477 0.200164 -0.151364 -0.261828 -2.347484
    14 1.522835 0.058680 0.016850 0.407921 0.041690 0.322066
    15 1.117947 0.048424 -0.005765 0.209853 -0.003008 -0.108265
    16 -0.963867 -2.785143 -0.085346 -0.991575 0.384655 0.005354
    17 0.028478 -1.403067 0.006272 -1.138366 -0.049204 -0.002683
    18 0.021412 -0.957782 0.020047 -0.469066 -0.033045 -0.015228
    19 -0.249534 -2.846963 -0.174215 -0.838506 0.272370 0.173079
    20 0.043235 -1.683940 0.096015 -1.470555 0.000001 0.000000
    21 0.031729 -1.160830 0.058836 -0.868969 -0.000875 -0.000803
    22 0.447951 -2.798983 -0.200441 -1.035398 0.347001 0.302798
    23 -0.032909 -1.480207 0.004935 -1.533373 -0.005633 -0.000407
    24 -0.027023 -1.076921 -0.020212 -0.358738 0.000000 0.000000
    25 1.164474 -2.543939 -0.170327 -1.126103 0.241153 0.235942
    26 0.024033 -1.129040 0.017807 -1.349622 0.000000 -0.000001
    27 0.014896 -0.883992 -0.019846 -0.511010 0.000000 0.000000
    28 -0.064620 -0.124786 0.029284 0.384017 0.052253 1.458040
    29 0.583509 -1.197274 0.185379 0.377232 -0.745798 -1.043320
    30 1.535926 0.010247 0.005009 -0.290357 -0.063207 -0.837499
    31 1.100770 0.004528 -0.010675 0.000000 0.000000 -0.577704
    32 0.957766 -2.746777 -0.090301 -0.201524 0.016530 0.045802
    33 -0.033419 -1.397128 -0.011255 -0.761794 0.000000 0.000000
    34 -0.022361 -0.957433 0.018783 -0.593133 0.000000 0.000000
    35 0.250029 -2.820664 -0.238396 -0.872208 -0.049326 -0.238818
    36 -0.049759 -1.680544 0.100479 -1.454738 0.000000 0.000000
    37 -0.034141 -1.148311 0.084779 -1.567306 0.000000 0.000000
    38 -0.488517 -2.755600 -0.228261 -1.098181 -0.096000 -0.264903
    39 0.039889 -1.479791 0.029854 -1.354100 0.000000 0.000000
    40 0.028785 -1.075733 -0.023110 -1.435200 0.000000 0.000000
    41 -1.180679 -2.507216 -0.193861 -1.163678 -0.049451 -0.281014
    42 -0.024967 -1.123934 0.017595 -0.883852 0.000000 0.000000
    43 -0.020058 -0.890965 0.010091 -1.435318 0.000000 0.000000
    44 0.120180 -0.051600 -0.063059 0.012085 -2.987703 1.512552
  time 30
    0 7.602645 3.724267 -5.924458 -0.981508 -1.423763 0.743275
    1 -0.069508 -8.500779 -0.100989 0.351238 -0.142149 -0.182270
    2 -0.549791 -3.387297 1.031815 0.764876 1.739162 0.794019
    3 0.000000 1.888488 0.974220 0.000000 0.000000 0.000000
    4 -0.291301 13.772059 -1.094121 0.000000 0.000000 0.000000
    5 -0.482113 -4.704160 2.234720 0.000000 -2.835044 0.000000
    6 -0.013948 -2.720513 1.100493 -0.261799 0.000000 0.000000
    7 -0.013949 -4.784637 0.953041 0.000000 0.000000 0.000000
    8 0.013504 -3.609847 2.576681 0.000000 0.000000 0.000000
    9 -0.061524 -0.623888 2.571739 0.000000 0.000000 0.000000
    10 -0.640636 -3.730933 1.422005 -1.570796 0.000000 -1.570796
    11 -0.339367 -3.110133 -8.176842 1.112484 2.086520 1.553969
    12 0.096946 -8.450419 -0.009363 0.022718 -0.623393 0.384990
    13 -0.586769 -1.264477 0.200164 -0.150978 -0.262009 -2.348843
    14 1.522835 0.058680 0.016850 0.407974 0.041112 0.323270
    15 1.117947 0.048424 -0.005765 0.209870 -0.001474 -0.115466
    16 -0.963867 -2.785143 -0.085346 -0.991575 0.384655 0.005354
    17 0.028478 -1.403067 0.006272 -1.138366 -0.049204 -0.002683
    18 0.021412 -0.957782 0.020047 -0.469066 -0.033045 -0.015228
    19 -0.249534 -2.846963 -0.174215 -0.833993 0.272370 0.173079
    20 0.043235 -1.683940 0.096015 -1.470641 0.000001 0.000000
    21 0.031729 -1.160830 0.058836 -0.875961 0.000000 0.000000
    22 0.447951 -2.798983 -0.200441 -1.034873 0.343825 0.301815
    23 -0.032909 -1.480207 0.004935 -1.539428 0.000000 0.000000
    24 -0.027023 -1.076921 -0.020212 -0.358738 0.000000 0.000000
    25 1.164474 -2.543939 -0.170327 -1.126103 0.241153 0.235942
    26 0.024033 -1.129040 0.017807 -1.349622 0.000000 -0.000001
    27 0.014896 -0.883992 -0.019846 -0.511010 0.000000 0.000000
    28 -0.064620 -0.124786 0.029284 0.384017 0.052253 1.458040
    29 0.583509 -1.197274 0.185379 0.377232 -0.745798 -1.043320
    30 1.535926 0.010247 0.005009 -0.290357 -0.063207 -0.837499
    31 1.100770 0.004528 -0.010675 0.000000 0.000000 -0.577704
    32 0.957766 -2.746777 -0.090301 -0.201716 0.016530 0.045802
    33 -0.033419 -1.397128 -0.011255 -0.763584 0.000000 0.000000
    34 -0.022361 -0.957433 0.018783 -0.593413 0.000000 0.000000
    35 0.250029 -2.820664 -0.238396 -0.872208 -0.049326 -0.238818
    36 -0.049759 -1.680544 0.100479 -1.454738 0.000000 0.000000
    37 -0.034141 -1.148311 0.084779 -1.567306 0.000000 0.000000
    38 -0.488517 -2.755600 -0.228261 -1.098181 -0.096000 -0.264903
    39 0.039889 -1.479791 0.029854 -1.354100 0.000000 0.000000
    40 0.028785 -1.075733 -0.023110 -1.435200 0.000000 0.000000
    41 -1.180679 -2.507216 -0.193861 -1.163678 -0.049451 -0.281014
    42 -0.024967 -1.123934 0.017595 -0.883852 0.000000 0.000000
    43 -0.020058 -0.890965 0.010091 -1.435318 0.000000 0.000000
    44 0.120180 -0.051600 -0.063059 0.012085 -2.987703 1.512552
end
