// Created by Crowbar 0.49.0.0

$modelname "weapons/tfa_cso/c_m249_xmas.mdl"

$Include "csonline_gmod.qci"

$bodygroup "weapon"
{
	studio "v_m249_xmas_f_m249_xmas_template"
}

$CDMaterials "models\weapons\tfa_cso\m249_xmas"

$attachment 0 "Bone 04" 3.6 -18.4 2.75
//$attachment 1 "Bone58" 0 0 0


$sequence "idle1" {
	"v_m249_xmas_anims\idle1"
	fps 16
	activity "ACT_VM_IDLE" 1
	snap
	loop
}
$sequence "shoot1" {
	"v_m249_xmas_anims\shoot1"
	{ event 5001 0 "22" }
	fps 30
	activity "ACT_VM_PRIMARYATTACK" 1
	snap
}
$sequence "shoot2" {
	"v_m249_xmas_anims\shoot2"
	{ event 5001 0 "22" }
	fps 30
	activity "ACT_VM_PRIMARYATTACK" 2
	snap
}
$sequence "reload" {
	"v_m249_xmas_anims\reload"
	{ event 5004 25 "M249EP.CoverUp" }
	{ event 5004 46 "M249EP.BoxOut" }
	{ event 5004 67 "M249EP.BoxIn" }
	{ event 5004 87 "M249EP.Chain" }
	{ event 5004 107 "M249EP.CoverDown" }
	fps 30
	activity "ACT_VM_RELOAD" 1
	snap
}
$sequence "draw" {
	"v_m249_xmas_anims\draw"
	{ event 5004 21 "M249.Draw" }
	fps 30
	activity "ACT_VM_DRAW" 1
	snap
}
