version 1
nodes
  0 "argus3_root" -1
  1 "magazine" 0
  2 "lever" 0
  3 "trigger" 0
  4 "scope_L" 0
  5 "scope_R" 0
  6 "scope_U" 0
  7 "scope_D" 0
  8 "ef" 0
  9 "PUPPET" 0
  10 "argus3_scope" 9
  11 "root" -1
  12 "Bone01" 11
  13 "Bone_L_Upper" 12
  14 "Bone_Lefthand" 12
  15 "Bone13" 14
  16 "Bone14" 15
  17 "Bone15" 16
  18 "Bone17" 14
  19 "Bone18" 18
  20 "Bone19" 19
  21 "Bone21" 14
  22 "Bone22" 21
  23 "Bone23" 22
  24 "Bone09" 14
  25 "Bone10" 24
  26 "Bone11" 25
  27 "Bone05" 14
  28 "Bone06" 27
  29 "Bone07" 28
  30 "Bone_Se_Hand-L" 14
  31 "Bone04" 11
  32 "Bone_Righthand" 31
  33 "Bone39" 32
  34 "Bone40" 33
  35 "Bone41" 34
  36 "Bone35" 32
  37 "Bone36" 36
  38 "Bone37" 37
  39 "Bone31" 32
  40 "Bone32" 39
  41 "Bone33" 40
  42 "Bone43" 32
  43 "Bone44" 42
  44 "Bone45" 43
  45 "Bone27" 32
  46 "Bone28" 45
  47 "Bone29" 46
  48 "Bone_Se_Hand-R" 32
  49 "Bone_R_Upper" 31
end
skeleton
  time 0
    0 4.919107 -1.210044 -3.844400 -1.570028 -3.070871 -4.802553
    1 2.233774 0.695171 0.000000 0.000000 0.000000 0.000000
    2 6.733442 -0.196285 0.641147 0.000000 0.000000 0.000000
    3 6.676370 -1.361634 0.000000 0.000000 0.000000 -0.000652
    4 6.680209 2.139774 0.092398 0.000000 1.570451 0.000000
    5 6.668489 2.135868 -0.094921 3.141592 1.570451 0.000000
    6 5.908475 2.138680 -0.000001 -1.570796 0.000000 1.570796
    7 5.900663 2.183438 0.000000 1.570797 0.000000 1.570796
    8 4.923294 -7.123604 -0.093753 0.000000 0.000000 0.000000
    9 6.826621 2.896115 -0.002619 0.000000 -1.570787 0.000000
    10 0.002616 0.001794 0.000000 0.000000 0.000000 0.000000
    11 -0.002752 -0.001265 -0.003287 0.000000 0.000000 0.000000
    12 6.017034 4.024889 -7.936724 1.202588 -1.730463 -1.248496
    13 7.788629 -1.425226 -0.403721 -1.568261 -0.029147 -3.241874
    14 -0.095359 -8.455766 -0.131479 -0.098133 0.155320 0.029578
    15 -0.488518 -2.755602 -0.228260 -1.298350 0.189322 -0.563158
    16 0.039887 -1.522760 0.010322 -1.322195 -0.013315 0.028824
    17 0.028786 -1.114795 -0.093424 -0.619026 -0.011889 0.011289
    18 0.250027 -2.820665 -0.238396 -1.050916 0.227243 -0.420355
    19 -0.049759 -1.602417 0.049696 -1.314758 -0.064885 -0.044525
    20 -0.030236 -1.171750 0.045718 -1.205284 -0.118072 -0.078427
    21 0.957766 -2.746780 -0.090302 -0.092628 -0.150640 0.125858
    22 -0.033420 -1.393223 -0.019070 -0.600109 0.008389 -0.029363
    23 -0.022360 -0.961342 -0.004654 -0.961139 0.004159 -0.046692
    24 -1.180681 -2.507217 -0.193859 -1.675178 0.258966 -0.570879
    25 -0.024967 -1.123934 0.017597 -0.442076 0.101390 0.095962
    26 -0.020057 -0.902687 0.021809 -0.661508 0.007994 -0.025791
    27 0.583510 -1.197277 0.185379 0.245968 -0.714739 -0.750502
    28 1.504676 -0.173353 0.067511 0.291210 -0.168203 -0.611852
    29 1.065614 -0.128290 0.028385 -0.243734 -0.207444 -0.700792
    30 0.120153 -0.050270 -0.054489 0.287569 3.110905 1.561085
    31 -0.774691 -1.028007 -10.079716 0.564456 -4.036451 0.945505
    32 -0.082749 -8.516827 0.057043 0.500215 -1.019773 -0.420670
    33 0.447953 -2.798986 -0.200443 -1.097799 0.006143 0.545691
    34 -0.032909 -1.499736 0.036191 -1.658992 0.022711 -0.034070
    35 -0.027022 -1.092546 -0.028023 -0.440957 0.011769 -0.004255
    36 -0.249534 -2.846964 -0.174213 -0.842445 0.089328 0.502056
    37 0.043235 -1.656596 0.060855 -1.618932 -0.023831 0.011015
    38 0.031729 -1.137392 0.051025 -1.351253 -0.015082 0.007581
    39 -0.963866 -2.785145 -0.085350 -0.391242 0.243460 0.427445
    40 0.028479 -1.406973 -0.021074 -1.092231 -0.030645 -0.036337
    41 0.021413 -0.938249 0.008327 -1.221799 -0.036397 -0.037212
    42 1.164475 -2.543940 -0.170330 -1.131105 -0.277926 0.648745
    43 0.024032 -1.152480 -0.009538 -1.452510 0.031304 0.066983
    44 0.014898 -0.899614 -0.015942 -0.858363 0.004374 0.043444
    45 -0.586770 -1.264477 0.200161 -0.004477 0.016935 -2.138016
    46 1.546273 0.039149 0.009035 0.229586 0.005865 0.576088
    47 1.114041 0.048424 -0.005766 0.036585 0.173291 -0.079292
    48 -0.139399 -0.111698 0.014397 0.285382 -0.030687 1.580508
    49 -5.588911 6.776614 -0.360530 1.580612 -0.020148 -0.991013
  time 1
    0 4.891762 -1.444426 -3.602205 -1.568594 -3.085589 -4.795768
    1 2.233774 0.695171 0.000000 0.000000 0.000000 0.000000
    2 6.733442 -0.196285 0.641147 0.000000 0.000000 0.000000
    3 6.676370 -1.361634 0.000000 0.000000 0.000000 -0.000652
    4 6.680209 2.139774 0.092398 0.000000 1.570451 0.000000
    5 6.668489 2.135868 -0.094921 3.141592 1.570451 0.000000
    6 5.908475 2.138680 -0.000001 -1.570796 0.000000 1.570796
    7 5.900663 2.183438 0.000000 1.570797 0.000000 1.570796
    8 4.923294 -7.123604 -0.093753 0.000000 0.000000 0.000000
    9 6.826621 2.896115 -0.002619 0.000000 -1.570787 0.000000
    10 0.002616 0.001794 0.000000 0.000000 0.000000 0.000000
    11 -0.002752 -0.001265 -0.003287 0.000000 0.000000 0.000000
    12 6.009221 3.802226 -7.948443 1.251149 -1.753943 -1.295377
    13 7.823787 -1.304129 -0.403721 -1.568453 -0.028859 -3.226503
    14 -0.095359 -8.451860 -0.131479 -0.094821 0.152605 -0.009780
    15 -0.488518 -2.755602 -0.228260 -1.298350 0.189322 -0.563158
    16 0.039887 -1.522760 0.010322 -1.322195 -0.013315 0.028824
    17 0.028786 -1.114795 -0.093424 -0.619026 -0.011889 0.011289
    18 0.250027 -2.820665 -0.238396 -1.050916 0.227243 -0.420355
    19 -0.049759 -1.602417 0.049696 -1.314758 -0.064885 -0.044525
    20 -0.030236 -1.171750 0.045718 -1.205284 -0.118072 -0.078427
    21 0.957766 -2.746780 -0.090302 -0.092628 -0.150640 0.125858
    22 -0.033420 -1.393223 -0.022976 -0.695599 0.008018 -0.034169
    23 -0.022360 -0.969155 -0.012467 -1.245388 -0.003128 -0.059012
    24 -1.180681 -2.507217 -0.193859 -1.675178 0.258966 -0.570879
    25 -0.024967 -1.123934 0.017597 -0.442076 0.101390 0.095962
    26 -0.020057 -0.902687 0.021809 -0.661508 0.007994 -0.025791
    27 0.583510 -1.197277 0.185379 0.245968 -0.714739 -0.750502
    28 1.504676 -0.173353 0.067511 0.291210 -0.168203 -0.611852
    29 1.065614 -0.128290 0.028385 -0.243734 -0.207444 -0.700792
    30 0.120153 -0.050270 -0.054489 0.287569 3.110905 1.561085
    31 -0.548121 -1.086602 -9.853146 0.596870 -4.085389 0.959266
    32 -0.071030 -8.505108 0.057043 0.391964 -0.990782 -0.326053
    33 0.447953 -2.798986 -0.200443 -1.097799 0.006143 0.545691
    34 -0.032909 -1.499736 0.036191 -1.658992 0.022711 -0.034070
    35 -0.027022 -1.092546 -0.028023 -0.440957 0.011769 -0.004255
    36 -0.249534 -2.846964 -0.174213 -0.842445 0.089328 0.502056
    37 0.043235 -1.656596 0.060855 -1.618932 -0.023831 0.011015
    38 0.031729 -1.137392 0.051025 -1.351253 -0.015082 0.007581
    39 -0.963866 -2.785145 -0.085350 -0.391242 0.243460 0.427445
    40 0.028479 -1.406973 -0.021074 -1.092231 -0.030645 -0.036337
    41 0.021413 -0.938249 0.008327 -1.221799 -0.036397 -0.037212
    42 1.164475 -2.543940 -0.170330 -1.131105 -0.277926 0.648745
    43 0.024032 -1.152480 -0.009538 -1.452510 0.031304 0.066983
    44 0.014898 -0.899614 -0.015942 -0.858363 0.004374 0.043444
    45 -0.586770 -1.264477 0.200161 0.000355 0.023737 -2.117695
    46 1.546273 0.039149 0.009035 0.229586 0.005865 0.576088
    47 1.114041 0.048424 -0.005766 0.036585 0.173291 -0.079292
    48 -0.139399 -0.111698 0.014397 0.285382 -0.030687 1.580508
    49 -5.116240 7.178970 -0.344905 1.580996 -0.018233 -1.066715
  time 2
    0 4.962077 -0.741279 -4.149097 1.569469 -0.094765 -1.672025
    1 2.233774 0.695171 0.000000 0.000000 0.000000 0.000000
    2 6.733442 -0.196285 0.641147 0.000000 0.000000 0.000000
    3 6.676370 -1.361634 0.000000 0.000000 0.000000 -0.000652
    4 6.680209 2.139774 0.092398 0.000000 1.570451 0.000000
    5 6.668489 2.135868 -0.094921 3.141592 1.570451 0.000000
    6 5.908475 2.138680 -0.000001 -1.570796 0.000000 1.570796
    7 5.900663 2.183438 0.000000 1.570797 0.000000 1.570796
    8 4.923294 -7.123604 -0.093753 0.000000 0.000000 0.000000
    9 6.826621 2.896115 -0.002619 0.000000 -1.570787 0.000000
    10 0.002616 0.001794 0.000000 0.000000 0.000000 0.000000
    11 -0.002752 -0.001265 -0.003287 0.000000 0.000000 0.000000
    12 6.032660 4.462403 -7.874222 1.103076 -1.698338 -1.152438
    13 7.690970 -1.765080 -0.407627 -1.567494 -0.029626 -3.285245
    14 -0.099266 -8.467485 -0.131479 -0.102806 0.159596 0.088177
    15 -0.488518 -2.755602 -0.228260 -1.298350 0.189322 -0.563158
    16 0.039887 -1.522760 0.010322 -1.322195 -0.013315 0.028824
    17 0.028786 -1.114795 -0.093424 -0.619026 -0.011889 0.011289
    18 0.250027 -2.820665 -0.238396 -1.050916 0.227243 -0.420355
    19 -0.049759 -1.602417 0.049696 -1.314758 -0.064885 -0.044525
    20 -0.030236 -1.171750 0.045718 -1.205284 -0.118072 -0.078427
    21 0.957766 -2.746780 -0.090302 -0.092628 -0.150640 0.125858
    22 -0.033420 -1.393223 -0.019070 -0.600109 0.008389 -0.029363
    23 -0.022360 -0.965249 -0.012467 -1.236543 -0.002852 -0.058665
    24 -1.180681 -2.507217 -0.193859 -1.675178 0.258966 -0.570879
    25 -0.024967 -1.123934 0.017597 -0.442076 0.101390 0.095962
    26 -0.020057 -0.902687 0.021809 -0.661508 0.007994 -0.025791
    27 0.583510 -1.197277 0.185379 0.245968 -0.714739 -0.750502
    28 1.504676 -0.173353 0.067511 0.291210 -0.168203 -0.611852
    29 1.053895 -0.136102 0.036197 -0.232253 -0.240857 -0.762988
    30 0.120153 -0.050270 -0.054489 0.287569 3.110905 1.561085
    31 -0.841099 -0.785812 -10.599263 0.703690 -4.065687 1.093843
    32 -0.051498 -8.509014 0.057043 0.385344 -0.919540 -0.258042
    33 0.447953 -2.798986 -0.200443 -1.097799 0.006143 0.545691
    34 -0.032909 -1.499736 0.036191 -1.658992 0.022711 -0.034070
    35 -0.027022 -1.092546 -0.028023 -0.440957 0.011769 -0.004255
    36 -0.249534 -2.846964 -0.174213 -0.842445 0.089328 0.502056
    37 0.043235 -1.656596 0.060855 -1.618932 -0.023831 0.011015
    38 0.031729 -1.137392 0.051025 -1.351253 -0.015082 0.007581
    39 -0.963866 -2.785145 -0.085350 -0.391242 0.243460 0.427445
    40 0.028479 -1.406973 -0.021074 -1.092231 -0.030645 -0.036337
    41 0.021413 -0.938249 0.008327 -1.221799 -0.036397 -0.037212
    42 1.164475 -2.543940 -0.170330 -1.131105 -0.277926 0.648745
    43 0.024032 -1.152480 -0.009538 -1.452510 0.031304 0.066983
    44 0.014898 -0.899614 -0.015942 -0.858363 0.004374 0.043444
    45 -0.586770 -1.264477 0.200161 0.005440 0.027794 -2.106766
    46 1.546273 0.039149 0.009035 0.229586 0.005865 0.576088
    47 1.114041 0.048424 -0.005766 0.036585 0.173291 -0.079292
    48 -0.139399 -0.111698 0.014397 0.285382 -0.030687 1.580508
    49 -6.448312 5.850805 -0.387875 1.579078 -0.023977 -0.837699
  time 3
    0 4.977702 -0.752998 -4.266288 1.568895 -0.101168 -1.673464
    1 2.233774 0.695171 0.000000 0.000000 0.000000 0.000000
    2 6.733442 -0.196285 0.641147 0.000000 0.000000 0.000000
    3 6.676370 -1.361634 0.000000 0.000000 0.000000 -0.000652
    4 6.680209 2.139774 0.092398 0.000000 1.570451 0.000000
    5 6.668489 2.135868 -0.094921 3.141592 1.570451 0.000000
    6 5.908475 2.138680 -0.000001 -1.570796 0.000000 1.570796
    7 5.900663 2.183438 0.000000 1.570797 0.000000 1.570796
    8 4.923294 -7.123604 -0.093753 0.000000 0.000000 0.000000
    9 6.826621 2.896115 -0.002619 0.000000 -1.570787 0.000000
    10 0.002616 0.001794 0.000000 0.000000 0.000000 0.000000
    11 -0.002752 -0.001265 -0.003287 0.000000 0.000000 0.000000
    12 6.032660 4.438964 -7.885941 1.064456 -1.689328 -1.113212
    13 7.722221 -1.655702 -0.407627 -1.567686 -0.029530 -3.271428
    14 -0.099266 -8.471392 -0.131479 -0.104012 0.160773 0.104606
    15 -0.488518 -2.755602 -0.228260 -1.298350 0.189322 -0.563158
    16 0.039887 -1.522760 0.010322 -1.322195 -0.013315 0.028824
    17 0.028786 -1.114795 -0.093424 -0.619026 -0.011889 0.011289
    18 0.250027 -2.820665 -0.238396 -1.050916 0.227243 -0.420355
    19 -0.049759 -1.602417 0.049696 -1.314758 -0.064885 -0.044525
    20 -0.030236 -1.171750 0.045718 -1.205284 -0.118072 -0.078427
    21 0.957766 -2.746780 -0.090302 -0.092628 -0.150640 0.125858
    22 -0.033420 -1.393223 -0.019070 -0.589499 0.008401 -0.028824
    23 -0.022360 -0.965249 -0.008561 -1.202613 -0.001810 -0.057298
    24 -1.180681 -2.507217 -0.193859 -1.675178 0.258966 -0.570879
    25 -0.024967 -1.123934 0.017597 -0.442076 0.101390 0.095962
    26 -0.020057 -0.902687 0.021809 -0.661508 0.007994 -0.025791
    27 0.583510 -1.197277 0.185379 0.245968 -0.714739 -0.750502
    28 1.504676 -0.173353 0.067511 0.291210 -0.168203 -0.611852
    29 1.057801 -0.136102 0.032291 -0.235129 -0.233103 -0.748368
    30 0.120153 -0.050270 -0.054489 0.287569 3.110905 1.561085
    31 -0.848912 -0.789718 -10.603169 0.685739 -4.066958 1.077234
    32 -0.055404 -8.512920 0.057043 0.402206 -0.920631 -0.287807
    33 0.447953 -2.798986 -0.200443 -1.097799 0.006143 0.545691
    34 -0.032909 -1.499736 0.036191 -1.658992 0.022711 -0.034070
    35 -0.027022 -1.092546 -0.028023 -0.440957 0.011769 -0.004255
    36 -0.249534 -2.846964 -0.174213 -0.842445 0.089328 0.502056
    37 0.043235 -1.656596 0.060855 -1.618932 -0.023831 0.011015
    38 0.031729 -1.137392 0.051025 -1.351253 -0.015082 0.007581
    39 -0.963866 -2.785145 -0.085350 -0.391242 0.243460 0.427445
    40 0.028479 -1.406973 -0.021074 -1.092231 -0.030645 -0.036337
    41 0.021413 -0.938249 0.008327 -1.221799 -0.036397 -0.037212
    42 1.164475 -2.543940 -0.170330 -1.131105 -0.277926 0.648745
    43 0.024032 -1.152480 -0.009538 -1.452510 0.031304 0.066983
    44 0.014898 -0.899614 -0.015942 -0.858363 0.004386 0.043444
    45 -0.586770 -1.264477 0.200161 0.011914 0.026385 -2.115708
    46 1.546273 0.039149 0.009035 0.229586 0.005865 0.576088
    47 1.114041 0.048424 -0.005766 0.036585 0.173291 -0.079292
    48 -0.139399 -0.111698 0.014397 0.285382 -0.030687 1.580508
    49 -6.409248 5.901587 -0.387875 1.579174 -0.023786 -0.845718
  time 4
    0 4.981609 -0.901440 -4.301445 1.568991 -0.101264 -1.671819
    1 2.233774 0.695171 0.000000 0.000000 0.000000 0.000000
    2 6.733442 -0.196285 0.641147 0.000000 0.000000 0.000000
    3 6.676370 -1.361634 0.000000 0.000000 0.000000 -0.000652
    4 6.680209 2.139774 0.092398 0.000000 1.570451 0.000000
    5 6.668489 2.135868 -0.094921 3.141592 1.570451 0.000000
    6 5.908475 2.138680 -0.000001 -1.570796 0.000000 1.570796
    7 5.900663 2.183438 0.000000 1.570797 0.000000 1.570796
    8 4.923294 -7.123604 -0.093753 0.000000 0.000000 0.000000
    9 6.826621 2.896115 -0.002619 0.000000 -1.570787 0.000000
    10 0.002616 0.001794 0.000000 0.000000 0.000000 0.000000
    11 -0.002752 -0.001265 -0.003287 0.000000 0.000000 0.000000
    12 6.028753 4.294429 -7.921098 1.061971 -1.688873 -1.109098
    13 7.784723 -1.448664 -0.403721 -1.568165 -0.029147 -3.244619
    14 -0.099266 -8.471392 -0.131479 -0.104012 0.160773 0.105275
    15 -0.488518 -2.755602 -0.228260 -1.298350 0.189322 -0.563158
    16 0.039887 -1.522760 0.010322 -1.322195 -0.013315 0.028824
    17 0.028786 -1.114795 -0.093424 -0.619026 -0.011889 0.011289
    18 0.250027 -2.820665 -0.238396 -1.050916 0.227243 -0.420355
    19 -0.049759 -1.602417 0.049696 -1.314758 -0.064885 -0.044525
    20 -0.030236 -1.171750 0.045718 -1.205284 -0.118072 -0.078427
    21 0.957766 -2.746780 -0.090302 -0.092628 -0.150640 0.125858
    22 -0.033420 -1.393223 -0.019070 -0.594804 0.008389 -0.029088
    23 -0.022360 -0.965249 -0.008561 -1.164261 -0.000695 -0.055716
    24 -1.180681 -2.507217 -0.193859 -1.675178 0.258966 -0.570879
    25 -0.024967 -1.123934 0.017597 -0.442076 0.101390 0.095962
    26 -0.020057 -0.902687 0.021809 -0.661508 0.007994 -0.025791
    27 0.583510 -1.197277 0.185379 0.245968 -0.714739 -0.750502
    28 1.504676 -0.173353 0.067511 0.291210 -0.168203 -0.611852
    29 1.061707 -0.128290 0.028385 -0.240402 -0.217882 -0.719995
    30 0.120153 -0.050270 -0.054489 0.287569 3.110905 1.561085
    31 -0.821567 -0.860033 -10.474259 0.639243 -4.067593 1.028358
    32 -0.059311 -8.516827 0.057043 0.434015 -0.940120 -0.345633
    33 0.447953 -2.798986 -0.200443 -1.097799 0.006143 0.545691
    34 -0.032909 -1.499736 0.036191 -1.658992 0.022711 -0.034070
    35 -0.027022 -1.092546 -0.028023 -0.440957 0.011769 -0.004255
    36 -0.249534 -2.846964 -0.174213 -0.842445 0.089328 0.502056
    37 0.043235 -1.656596 0.060855 -1.618932 -0.023831 0.011015
    38 0.031729 -1.137392 0.051025 -1.351253 -0.015082 0.007581
    39 -0.963866 -2.785145 -0.085350 -0.391242 0.243460 0.427445
    40 0.028479 -1.406973 -0.021074 -1.092231 -0.030645 -0.036337
    41 0.021413 -0.938249 0.008327 -1.221799 -0.036397 -0.037212
    42 1.164475 -2.543940 -0.170330 -1.131105 -0.277926 0.648745
    43 0.024032 -1.152480 -0.009538 -1.452510 0.031304 0.066983
    44 0.014898 -0.899614 -0.015942 -0.858363 0.004374 0.043444
    45 -0.586770 -1.264477 0.200161 0.019304 0.023251 -2.131638
    46 1.546273 0.039149 0.009035 0.229586 0.005865 0.576088
    47 1.114041 0.048424 -0.005766 0.036585 0.173291 -0.079292
    48 -0.139399 -0.111698 0.014397 0.285382 -0.030687 1.580508
    49 -6.139709 6.218003 -0.380062 1.579749 -0.022541 -0.896122
  time 5
    0 4.977702 -1.026444 -4.281914 1.569086 -0.098206 -1.669968
    1 2.233774 0.695171 0.000000 0.000000 0.000000 0.000000
    2 6.733442 -0.196285 0.641147 0.000000 0.000000 0.000000
    3 6.676370 -1.361634 0.000000 0.000000 0.000000 -0.000652
    4 6.680209 2.139774 0.092398 0.000000 1.570451 0.000000
    5 6.668489 2.135868 -0.094921 3.141592 1.570451 0.000000
    6 5.908475 2.138680 -0.000001 -1.570796 0.000000 1.570796
    7 5.900663 2.183438 0.000000 1.570797 0.000000 1.570796
    8 4.923294 -7.123604 -0.093753 0.000000 0.000000 0.000000
    9 6.826621 2.896115 -0.002619 0.000000 -1.570787 0.000000
    10 0.002616 0.001794 0.000000 0.000000 0.000000 0.000000
    11 -0.002752 -0.001265 -0.003287 0.000000 0.000000 0.000000
    12 6.024847 4.177238 -7.940630 1.076979 -1.692240 -1.122970
    13 7.819880 -1.311942 -0.403721 -1.568453 -0.028955 -3.227601
    14 -0.099266 -8.467485 -0.131479 -0.103617 0.160365 0.098501
    15 -0.488518 -2.755602 -0.228260 -1.298350 0.189322 -0.563158
    16 0.039887 -1.522760 0.010322 -1.322195 -0.013315 0.028824
    17 0.028786 -1.114795 -0.093424 -0.619026 -0.011889 0.011289
    18 0.250027 -2.820665 -0.238396 -1.050916 0.227243 -0.420355
    19 -0.049759 -1.602417 0.049696 -1.314758 -0.064885 -0.044525
    20 -0.030236 -1.171750 0.045718 -1.205284 -0.118072 -0.078427
    21 0.957766 -2.746780 -0.090302 -0.092628 -0.150640 0.125858
    22 -0.033420 -1.393223 -0.019070 -0.600109 0.008389 -0.029363
    23 -0.022360 -0.965249 -0.008561 -1.130865 0.000216 -0.054302
    24 -1.180681 -2.507217 -0.193859 -1.675178 0.258966 -0.570879
    25 -0.024967 -1.123934 0.017597 -0.442076 0.101390 0.095962
    26 -0.020057 -0.902687 0.021809 -0.661508 0.007994 -0.025791
    27 0.583510 -1.197277 0.185379 0.245968 -0.714739 -0.750502
    28 1.504676 -0.173353 0.067511 0.291210 -0.168203 -0.611852
    29 1.065614 -0.128290 0.028385 -0.243734 -0.207444 -0.700792
    30 0.120153 -0.050270 -0.054489 0.287569 3.110905 1.561085
    31 -0.805941 -0.926441 -10.345349 0.595475 -4.060523 0.983088
    32 -0.067124 -8.520733 0.057043 0.472528 -0.964576 -0.402295
    33 0.447953 -2.798986 -0.200443 -1.097799 0.006143 0.545691
    34 -0.032909 -1.499736 0.036191 -1.658992 0.022711 -0.034070
    35 -0.027022 -1.092546 -0.028023 -0.440957 0.011769 -0.004255
    36 -0.249534 -2.846964 -0.174213 -0.842445 0.089328 0.502056
    37 0.043235 -1.656596 0.060855 -1.618932 -0.023831 0.011015
    38 0.031729 -1.137392 0.051025 -1.351253 -0.015082 0.007581
    39 -0.963866 -2.785145 -0.085350 -0.391242 0.243460 0.427445
    40 0.028479 -1.406973 -0.021074 -1.092231 -0.030645 -0.036337
    41 0.021413 -0.938249 0.008327 -1.221799 -0.036397 -0.037212
    42 1.164475 -2.543940 -0.170330 -1.131105 -0.277926 0.648745
    43 0.024032 -1.152480 -0.009538 -1.452510 0.031304 0.066983
    44 0.014898 -0.899614 -0.015942 -0.858363 0.004374 0.043444
    45 -0.586770 -1.264477 0.200161 0.025147 0.019898 -2.147792
    46 1.546273 0.039149 0.009035 0.229586 0.005865 0.576088
    47 1.114041 0.048424 -0.005766 0.036585 0.173291 -0.079292
    48 -0.139399 -0.111698 0.014397 0.285382 -0.030687 1.580508
    49 -5.897514 6.475824 -0.372250 1.580133 -0.021488 -0.938890
  time 6
    0 4.973796 -1.077227 -4.223318 1.569182 -0.093331 -1.668735
    1 2.233774 0.695171 0.000000 0.000000 0.000000 0.000000
    2 6.733442 -0.196285 0.641147 0.000000 0.000000 0.000000
    3 6.676370 -1.361634 0.000000 0.000000 0.000000 -0.000652
    4 6.680209 2.139774 0.092398 0.000000 1.570451 0.000000
    5 6.668489 2.135868 -0.094921 3.141592 1.570451 0.000000
    6 5.908475 2.138680 -0.000001 -1.570796 0.000000 1.570796
    7 5.900663 2.183438 0.000000 1.570797 0.000000 1.570796
    8 4.923294 -7.123604 -0.093753 0.000000 0.000000 0.000000
    9 6.826621 2.896115 -0.002619 0.000000 -1.570787 0.000000
    10 0.002616 0.001794 0.000000 0.000000 0.000000 0.000000
    11 -0.002752 -0.001265 -0.003287 0.000000 0.000000 0.000000
    12 6.020941 4.134268 -7.944537 1.098296 -1.697246 -1.143923
    13 7.823787 -1.296316 -0.403721 -1.568549 -0.028859 -3.225496
    14 -0.099266 -8.467485 -0.131479 -0.103200 0.159935 0.087971
    15 -0.488518 -2.755602 -0.228260 -1.298350 0.189322 -0.563158
    16 0.039887 -1.522760 0.010322 -1.322195 -0.013315 0.028824
    17 0.028786 -1.114795 -0.093424 -0.619026 -0.011889 0.011289
    18 0.250027 -2.820665 -0.238396 -1.050916 0.227243 -0.420355
    19 -0.049759 -1.602417 0.049696 -1.314758 -0.064885 -0.044525
    20 -0.030236 -1.171750 0.045718 -1.205284 -0.118072 -0.078427
    21 0.957766 -2.746780 -0.090302 -0.092628 -0.150640 0.125858
    22 -0.033420 -1.393223 -0.019070 -0.600109 0.008389 -0.029363
    23 -0.022360 -0.965249 -0.008561 -1.102768 0.000959 -0.053092
    24 -1.180681 -2.507217 -0.193859 -1.675178 0.258966 -0.570879
    25 -0.024967 -1.123934 0.017597 -0.442076 0.101390 0.095962
    26 -0.020057 -0.902687 0.021809 -0.661508 0.007994 -0.025791
    27 0.583510 -1.197277 0.185379 0.245968 -0.714739 -0.750502
    28 1.504676 -0.173353 0.067511 0.291210 -0.168203 -0.611852
    29 1.065614 -0.124383 0.028385 -0.244573 -0.204675 -0.695739
    30 0.120153 -0.050270 -0.054489 0.287569 3.110905 1.561085
    31 -0.813754 -0.957692 -10.278941 0.571370 -4.049242 0.959361
    32 -0.074936 -8.520733 0.057043 0.502713 -0.984553 -0.435635
    33 0.447953 -2.798986 -0.200443 -1.097799 0.006143 0.545691
    34 -0.032909 -1.499736 0.036191 -1.658992 0.022711 -0.034070
    35 -0.027022 -1.092546 -0.028023 -0.440957 0.011769 -0.004255
    36 -0.249534 -2.846964 -0.174213 -0.842445 0.089328 0.502056
    37 0.043235 -1.656596 0.060855 -1.618932 -0.023831 0.011015
    38 0.031729 -1.137392 0.051025 -1.351253 -0.015082 0.007581
    39 -0.963866 -2.785145 -0.085350 -0.391242 0.243460 0.427445
    40 0.028479 -1.406973 -0.021074 -1.092231 -0.030645 -0.036337
    41 0.021413 -0.938249 0.008327 -1.221799 -0.036397 -0.037212
    42 1.164475 -2.543940 -0.170330 -1.131105 -0.277926 0.648745
    43 0.024032 -1.152480 -0.009538 -1.452510 0.031304 0.066983
    44 0.014898 -0.899614 -0.015942 -0.858363 0.004374 0.043444
    45 -0.586770 -1.264477 0.200161 0.026852 0.017591 -2.157279
    46 1.546273 0.039149 0.009035 0.229586 0.005865 0.576088
    47 1.114041 0.048424 -0.005766 0.036585 0.173291 -0.079292
    48 -0.139399 -0.111698 0.014397 0.285382 -0.030687 1.580508
    49 -5.799855 6.573483 -0.368343 1.580325 -0.021010 -0.955787
  time 7
    0 4.965983 -1.120197 -4.133471 1.569373 -0.086641 -1.667295
    1 2.233774 0.695171 0.000000 0.000000 0.000000 0.000000
    2 6.733442 -0.196285 0.641147 0.000000 0.000000 0.000000
    3 6.676370 -1.361634 0.000000 0.000000 0.000000 -0.000652
    4 6.680209 2.139774 0.092398 0.000000 1.570451 0.000000
    5 6.668489 2.135868 -0.094921 3.141592 1.570451 0.000000
    6 5.908475 2.138680 -0.000001 -1.570796 0.000000 1.570796
    7 5.900663 2.183438 0.000000 1.570797 0.000000 1.570796
    8 4.923294 -7.123604 -0.093753 0.000000 0.000000 0.000000
    9 6.826621 2.896115 -0.002619 0.000000 -1.570787 0.000000
    10 0.002616 0.001794 0.000000 0.000000 0.000000 0.000000
    11 -0.002752 -0.001265 -0.003287 0.000000 0.000000 0.000000
    12 6.020941 4.099110 -7.944537 1.125349 -1.704526 -1.170904
    13 7.819880 -1.311942 -0.403721 -1.568453 -0.028955 -3.227235
    14 -0.099266 -8.463579 -0.131479 -0.102630 0.159347 0.073292
    15 -0.488518 -2.755602 -0.228260 -1.298350 0.189322 -0.563158
    16 0.039887 -1.522760 0.010322 -1.322195 -0.013315 0.028824
    17 0.028786 -1.114795 -0.093424 -0.619026 -0.011889 0.011289
    18 0.250027 -2.820665 -0.238396 -1.050916 0.227243 -0.420355
    19 -0.049759 -1.602417 0.049696 -1.314758 -0.064885 -0.044525
    20 -0.030236 -1.171750 0.045718 -1.205284 -0.118072 -0.078427
    21 0.957766 -2.746780 -0.090302 -0.092628 -0.150640 0.125858
    22 -0.033420 -1.393223 -0.019070 -0.600109 0.008389 -0.029363
    23 -0.022360 -0.965249 -0.008561 -1.074747 0.001666 -0.051857
    24 -1.180681 -2.507217 -0.193859 -1.675178 0.258966 -0.570879
    25 -0.024967 -1.123934 0.017597 -0.442076 0.101390 0.095962
    26 -0.020057 -0.902687 0.021809 -0.661508 0.007994 -0.025791
    27 0.583510 -1.197277 0.185379 0.245968 -0.714739 -0.750502
    28 1.504676 -0.173353 0.067511 0.291210 -0.168203 -0.611852
    29 1.065614 -0.124383 0.028385 -0.244861 -0.203729 -0.694008
    30 0.120153 -0.050270 -0.054489 0.287569 3.110905 1.561085
    31 -0.821567 -0.981130 -10.216439 0.557669 -4.039629 0.945220
    32 -0.078843 -8.520733 0.057043 0.518493 -1.000771 -0.448356
    33 0.447953 -2.798986 -0.200443 -1.097799 0.006143 0.545691
    34 -0.032909 -1.499736 0.036191 -1.658992 0.022711 -0.034070
    35 -0.027022 -1.092546 -0.028023 -0.440957 0.011769 -0.004255
    36 -0.249534 -2.846964 -0.174213 -0.842445 0.089328 0.502056
    37 0.043235 -1.656596 0.060855 -1.618932 -0.023831 0.011015
    38 0.031729 -1.137392 0.051025 -1.351253 -0.015082 0.007581
    39 -0.963866 -2.785145 -0.085350 -0.391242 0.243460 0.427445
    40 0.028479 -1.406973 -0.021074 -1.092231 -0.030645 -0.036337
    41 0.021413 -0.938249 0.008327 -1.221799 -0.036397 -0.037212
    42 1.164475 -2.543940 -0.170330 -1.131105 -0.277926 0.648745
    43 0.024032 -1.152480 -0.009538 -1.452510 0.031304 0.066983
    44 0.014898 -0.899614 -0.015942 -0.858363 0.004386 0.043444
    45 -0.586770 -1.264477 0.200161 0.021610 0.016716 -2.156670
    46 1.546273 0.039149 0.009035 0.229586 0.005865 0.576088
    47 1.114041 0.048424 -0.005766 0.036585 0.173291 -0.079292
    48 -0.139399 -0.111698 0.014397 0.285382 -0.030687 1.580508
    49 -5.733446 6.639891 -0.364437 1.580420 -0.020722 -0.967338
  time 8
    0 4.954264 -1.159261 -4.031906 1.569469 -0.079187 -1.665719
    1 2.233774 0.695171 0.000000 0.000000 0.000000 0.000000
    2 6.733442 -0.196285 0.641147 0.000000 0.000000 0.000000
    3 6.676370 -1.361634 0.000000 0.000000 0.000000 -0.000652
    4 6.680209 2.139774 0.092398 0.000000 1.570451 0.000000
    5 6.668489 2.135868 -0.094921 3.141592 1.570451 0.000000
    6 5.908475 2.138680 -0.000001 -1.570796 0.000000 1.570796
    7 5.900663 2.183438 0.000000 1.570797 0.000000 1.570796
    8 4.923294 -7.123604 -0.093753 0.000000 0.000000 0.000000
    9 6.826621 2.896115 -0.002619 0.000000 -1.570787 0.000000
    10 0.002616 0.001794 0.000000 0.000000 0.000000 0.000000
    11 -0.002752 -0.001265 -0.003287 0.000000 0.000000 0.000000
    12 6.020941 4.071766 -7.940630 1.152784 -1.712808 -1.198171
    13 7.812068 -1.343192 -0.403721 -1.568357 -0.028955 -3.231535
    14 -0.095359 -8.463579 -0.131479 -0.101928 0.158646 0.056760
    15 -0.488518 -2.755602 -0.228260 -1.298350 0.189322 -0.563158
    16 0.039887 -1.522760 0.010322 -1.322195 -0.013315 0.028824
    17 0.028786 -1.114795 -0.093424 -0.619026 -0.011889 0.011289
    18 0.250027 -2.820665 -0.238396 -1.050916 0.227243 -0.420355
    19 -0.049759 -1.602417 0.049696 -1.314758 -0.064885 -0.044525
    20 -0.030236 -1.171750 0.045718 -1.205284 -0.118072 -0.078427
    21 0.957766 -2.746780 -0.090302 -0.092628 -0.150640 0.125858
    22 -0.033420 -1.393223 -0.019070 -0.600109 0.008389 -0.029363
    23 -0.022360 -0.961342 -0.008561 -1.047946 0.002301 -0.050671
    24 -1.180681 -2.507217 -0.193859 -1.675178 0.258966 -0.570879
    25 -0.024967 -1.123934 0.017597 -0.442076 0.101390 0.095962
    26 -0.020057 -0.902687 0.021809 -0.661508 0.007994 -0.025791
    27 0.583510 -1.197277 0.185379 0.245968 -0.714739 -0.750502
    28 1.504676 -0.173353 0.067511 0.291210 -0.168203 -0.611852
    29 1.065614 -0.124383 0.028385 -0.244777 -0.204004 -0.694523
    30 0.120153 -0.050270 -0.054489 0.287569 3.110905 1.561085
    31 -0.833286 -1.004568 -10.161750 0.548408 -4.029618 0.935350
    32 -0.082749 -8.520733 0.057043 0.528194 -1.016185 -0.451308
    33 0.447953 -2.798986 -0.200443 -1.097799 0.006143 0.545691
    34 -0.032909 -1.499736 0.036191 -1.658992 0.022711 -0.034070
    35 -0.027022 -1.092546 -0.028023 -0.440957 0.011769 -0.004255
    36 -0.249534 -2.846964 -0.174213 -0.842445 0.089328 0.502056
    37 0.043235 -1.656596 0.060855 -1.618932 -0.023831 0.011015
    38 0.031729 -1.137392 0.051025 -1.351253 -0.015082 0.007581
    39 -0.963866 -2.785145 -0.085350 -0.391242 0.243460 0.427445
    40 0.028479 -1.406973 -0.021074 -1.092231 -0.030645 -0.036337
    41 0.021413 -0.938249 0.008327 -1.221799 -0.036397 -0.037212
    42 1.164475 -2.543940 -0.170330 -1.131105 -0.277926 0.648745
    43 0.024032 -1.152480 -0.009538 -1.452510 0.031304 0.066983
    44 0.014898 -0.899614 -0.015942 -0.858363 0.004374 0.043444
    45 -0.586770 -1.264477 0.200161 0.011440 0.016522 -2.150132
    46 1.546273 0.039149 0.009035 0.229586 0.005865 0.576088
    47 1.114041 0.048424 -0.005766 0.036585 0.173291 -0.079292
    48 -0.139399 -0.111698 0.014397 0.285382 -0.030687 1.580508
    49 -5.686570 6.682861 -0.364437 1.580420 -0.020531 -0.974880
  time 9
    0 4.946451 -1.190512 -3.934247 1.569660 -0.071923 -1.664280
    1 2.233774 0.695171 0.000000 0.000000 0.000000 0.000000
    2 6.733442 -0.196285 0.641147 0.000000 0.000000 0.000000
    3 6.676370 -1.361634 0.000000 0.000000 0.000000 -0.000652
    4 6.680209 2.139774 0.092398 0.000000 1.570451 0.000000
    5 6.668489 2.135868 -0.094921 3.141592 1.570451 0.000000
    6 5.908475 2.138680 -0.000001 -1.570796 0.000000 1.570796
    7 5.900663 2.183438 0.000000 1.570797 0.000000 1.570796
    8 4.923294 -7.123604 -0.093753 0.000000 0.000000 0.000000
    9 6.826621 2.896115 -0.002619 0.000000 -1.570787 0.000000
    10 0.002616 0.001794 0.000000 0.000000 0.000000 0.000000
    11 -0.002752 -0.001265 -0.003287 0.000000 0.000000 0.000000
    12 6.017034 4.052234 -7.940630 1.176778 -1.720999 -1.222185
    13 7.800348 -1.386163 -0.403721 -1.568357 -0.029051 -3.236750
    14 -0.095359 -8.459673 -0.131479 -0.101226 0.157967 0.040639
    15 -0.488518 -2.755602 -0.228260 -1.298350 0.189322 -0.563158
    16 0.039887 -1.522760 0.010322 -1.322195 -0.013315 0.028824
    17 0.028786 -1.114795 -0.093424 -0.619026 -0.011889 0.011289
    18 0.250027 -2.820665 -0.238396 -1.050916 0.227243 -0.420355
    19 -0.049759 -1.602417 0.049696 -1.314758 -0.064885 -0.044525
    20 -0.030236 -1.171750 0.045718 -1.205284 -0.118072 -0.078427
    21 0.957766 -2.746780 -0.090302 -0.092628 -0.150640 0.125858
    22 -0.033420 -1.393223 -0.019070 -0.600109 0.008389 -0.029363
    23 -0.022360 -0.961342 -0.008561 -1.023623 0.002864 -0.049568
    24 -1.180681 -2.507217 -0.193859 -1.675178 0.258966 -0.570879
    25 -0.024967 -1.123934 0.017597 -0.442076 0.101390 0.095962
    26 -0.020057 -0.902687 0.021809 -0.661508 0.007994 -0.025791
    27 0.583510 -1.197277 0.185379 0.245968 -0.714739 -0.750502
    28 1.504676 -0.173353 0.067511 0.291210 -0.168203 -0.611852
    29 1.065614 -0.124383 0.028385 -0.244489 -0.204939 -0.696207
    30 0.120153 -0.050270 -0.054489 0.287569 3.110905 1.561085
    31 -0.841099 -1.020194 -10.118780 0.543524 -4.021436 0.929750
    32 -0.086655 -8.520733 0.057043 0.532274 -1.028986 -0.447774
    33 0.447953 -2.798986 -0.200443 -1.097799 0.006143 0.545691
    34 -0.032909 -1.499736 0.036191 -1.658992 0.022711 -0.034070
    35 -0.027022 -1.092546 -0.028023 -0.440957 0.011769 -0.004255
    36 -0.249534 -2.846964 -0.174213 -0.842445 0.089328 0.502056
    37 0.043235 -1.656596 0.060855 -1.618932 -0.023831 0.011015
    38 0.031729 -1.137392 0.051025 -1.351253 -0.015082 0.007581
    39 -0.963866 -2.785145 -0.085350 -0.391242 0.243460 0.427445
    40 0.028479 -1.406973 -0.021074 -1.092231 -0.030645 -0.036337
    41 0.021413 -0.938249 0.008327 -1.221799 -0.036397 -0.037212
    42 1.164475 -2.543940 -0.170330 -1.131105 -0.277926 0.648745
    43 0.024032 -1.152480 -0.009538 -1.452510 0.031304 0.066983
    44 0.014898 -0.899614 -0.015942 -0.858363 0.004386 0.043444
    45 -0.586770 -1.264477 0.200161 0.001176 0.016740 -2.142343
    46 1.546273 0.039149 0.009035 0.229586 0.005865 0.576088
    47 1.114041 0.048424 -0.005766 0.036585 0.173291 -0.079292
    48 -0.139399 -0.111698 0.014397 0.285382 -0.030687 1.580508
    49 -5.659225 6.710206 -0.364437 1.580516 -0.020435 -0.979748
  time 10
    0 4.934732 -1.210044 -3.848307 1.569851 -0.065998 -1.663046
    1 2.233774 0.695171 0.000000 0.000000 0.000000 0.000000
    2 6.733442 -0.196285 0.641147 0.000000 0.000000 0.000000
    3 6.676370 -1.361634 0.000000 0.000000 0.000000 -0.000652
    4 6.680209 2.139774 0.092398 0.000000 1.570451 0.000000
    5 6.668489 2.135868 -0.094921 3.141592 1.570451 0.000000
    6 5.908475 2.138680 -0.000001 -1.570796 0.000000 1.570796
    7 5.900663 2.183438 0.000000 1.570797 0.000000 1.570796
    8 4.923294 -7.123604 -0.093753 0.000000 0.000000 0.000000
    9 6.826621 2.896115 -0.002619 0.000000 -1.570787 0.000000
    10 0.002616 0.001794 0.000000 0.000000 0.000000 0.000000
    11 -0.002752 -0.001265 -0.003287 0.000000 0.000000 0.000000
    12 6.017034 4.036608 -7.936724 1.195036 -1.728006 -1.240651
    13 7.792536 -1.421320 -0.403721 -1.568261 -0.029147 -3.241325
    14 -0.095359 -8.455766 -0.131479 -0.100546 0.157356 0.027211
    15 -0.488518 -2.755602 -0.228260 -1.298350 0.189322 -0.563158
    16 0.039887 -1.522760 0.010322 -1.322195 -0.013315 0.028824
    17 0.028786 -1.114795 -0.093424 -0.619026 -0.011889 0.011289
    18 0.250027 -2.820665 -0.238396 -1.050916 0.227243 -0.420355
    19 -0.049759 -1.602417 0.049696 -1.314758 -0.064885 -0.044525
    20 -0.030236 -1.171750 0.045718 -1.205284 -0.118072 -0.078427
    21 0.957766 -2.746780 -0.090302 -0.092628 -0.150640 0.125858
    22 -0.033420 -1.393223 -0.019070 -0.600109 0.008389 -0.029363
    23 -0.022360 -0.961342 -0.004654 -1.002884 0.003308 -0.048633
    24 -1.180681 -2.507217 -0.193859 -1.675178 0.258966 -0.570879
    25 -0.024967 -1.123934 0.017597 -0.442076 0.101390 0.095962
    26 -0.020057 -0.902687 0.021809 -0.661508 0.007994 -0.025791
    27 0.583510 -1.197277 0.185379 0.245968 -0.714739 -0.750502
    28 1.504676 -0.173353 0.067511 0.291210 -0.168203 -0.611852
    29 1.065614 -0.128290 0.028385 -0.244190 -0.205922 -0.698008
    30 0.120153 -0.050270 -0.054489 0.287569 3.110905 1.561085
    31 -0.837192 -1.031913 -10.087529 0.542826 -4.017225 0.928137
    32 -0.090562 -8.520733 0.057043 0.531566 -1.037224 -0.441455
    33 0.447953 -2.798986 -0.200443 -1.097799 0.006143 0.545691
    34 -0.032909 -1.499736 0.036191 -1.658992 0.022711 -0.034070
    35 -0.027022 -1.092546 -0.028023 -0.440957 0.011769 -0.004255
    36 -0.249534 -2.846964 -0.174213 -0.842445 0.089328 0.502056
    37 0.043235 -1.656596 0.060855 -1.618932 -0.023831 0.011015
    38 0.031729 -1.137392 0.051025 -1.351253 -0.015082 0.007581
    39 -0.963866 -2.785145 -0.085350 -0.391242 0.243460 0.427445
    40 0.028479 -1.406973 -0.021074 -1.092231 -0.030645 -0.036337
    41 0.021413 -0.938249 0.008327 -1.221799 -0.036397 -0.037212
    42 1.164475 -2.543940 -0.170330 -1.131105 -0.277926 0.648745
    43 0.024032 -1.152480 -0.009538 -1.452510 0.031304 0.066983
    44 0.014898 -0.899614 -0.015942 -0.858363 0.004374 0.043444
    45 -0.586770 -1.264477 0.200161 -0.004477 0.016935 -2.138016
    46 1.546273 0.039149 0.009035 0.229586 0.005865 0.576088
    47 1.114041 0.048424 -0.005766 0.036585 0.173291 -0.079292
    48 -0.139399 -0.111698 0.014397 0.285382 -0.030687 1.580508
    49 -5.635787 6.733644 -0.360530 1.580516 -0.020339 -0.983376
  time 11
    0 4.930826 -1.229575 -3.793617 1.570043 -0.062462 -1.662155
    1 2.233774 0.695171 0.000000 0.000000 0.000000 0.000000
    2 6.733442 -0.196285 0.641147 0.000000 0.000000 0.000000
    3 6.676370 -1.361634 0.000000 0.000000 0.000000 -0.000652
    4 6.680209 2.139774 0.092398 0.000000 1.570451 0.000000
    5 6.668489 2.135868 -0.094921 3.141592 1.570451 0.000000
    6 5.908475 2.138680 -0.000001 -1.570796 0.000000 1.570796
    7 5.900663 2.183438 0.000000 1.570797 0.000000 1.570796
    8 4.923294 -7.123604 -0.093753 0.000000 0.000000 0.000000
    9 6.826621 2.896115 -0.002619 0.000000 -1.570787 0.000000
    10 0.002616 0.001794 0.000000 0.000000 0.000000 0.000000
    11 -0.002752 -0.001265 -0.003287 0.000000 0.000000 0.000000
    12 6.017034 4.024889 -7.936724 1.206316 -1.732648 -1.251845
    13 7.784723 -1.440852 -0.403721 -1.568165 -0.029147 -3.243979
    14 -0.095359 -8.455766 -0.131479 -0.100020 0.156881 0.018774
    15 -0.488518 -2.755602 -0.228260 -1.298350 0.189322 -0.563158
    16 0.039887 -1.522760 0.010322 -1.322195 -0.013315 0.028824
    17 0.028786 -1.114795 -0.093424 -0.619026 -0.011889 0.011289
    18 0.250027 -2.820665 -0.238396 -1.050916 0.227243 -0.420355
    19 -0.049759 -1.602417 0.049696 -1.314758 -0.064885 -0.044525
    20 -0.030236 -1.171750 0.045718 -1.205284 -0.118072 -0.078427
    21 0.957766 -2.746780 -0.090302 -0.092628 -0.150640 0.125858
    22 -0.033420 -1.393223 -0.019070 -0.600109 0.008389 -0.029363
    23 -0.022360 -0.961342 -0.004654 -0.987025 0.003643 -0.047902
    24 -1.180681 -2.507217 -0.193859 -1.675178 0.258966 -0.570879
    25 -0.024967 -1.123934 0.017597 -0.442076 0.101390 0.095962
    26 -0.020057 -0.902687 0.021809 -0.661508 0.007994 -0.025791
    27 0.583510 -1.197277 0.185379 0.245968 -0.714739 -0.750502
    28 1.504676 -0.173353 0.067511 0.291210 -0.168203 -0.611852
    29 1.065614 -0.128290 0.028385 -0.244058 -0.206377 -0.698850
    30 0.120153 -0.050270 -0.054489 0.287569 3.110905 1.561085
    31 -0.833286 -1.039726 -10.064090 0.543650 -4.016431 0.928042
    32 -0.090562 -8.516827 0.057043 0.529235 -1.041099 -0.436883
    33 0.447953 -2.798986 -0.200443 -1.097799 0.006143 0.545691
    34 -0.032909 -1.499736 0.036191 -1.658992 0.022711 -0.034070
    35 -0.027022 -1.092546 -0.028023 -0.440957 0.011769 -0.004255
    36 -0.249534 -2.846964 -0.174213 -0.842445 0.089328 0.502056
    37 0.043235 -1.656596 0.060855 -1.618932 -0.023831 0.011015
    38 0.031729 -1.137392 0.051025 -1.351253 -0.015082 0.007581
    39 -0.963866 -2.785145 -0.085350 -0.391242 0.243460 0.427445
    40 0.028479 -1.406973 -0.021074 -1.092231 -0.030645 -0.036337
    41 0.021413 -0.938249 0.008327 -1.221799 -0.036397 -0.037212
    42 1.164475 -2.543940 -0.170330 -1.131105 -0.277926 0.648745
    43 0.024032 -1.152480 -0.009538 -1.452510 0.031304 0.066983
    44 0.014898 -0.899614 -0.015942 -0.858363 0.004374 0.043444
    45 -0.586770 -1.264477 0.200161 -0.005993 0.016910 -2.137087
    46 1.546273 0.039149 0.009035 0.229586 0.005865 0.576088
    47 1.114041 0.048424 -0.005766 0.036585 0.173291 -0.079292
    48 -0.139399 -0.111698 0.014397 0.285382 -0.030687 1.580508
    49 -5.616255 6.753176 -0.360530 1.580516 -0.020244 -0.986908
  time 12
    0 4.926920 -1.237388 -3.774086 1.570234 -0.061410 -1.661607
    1 2.233774 0.695171 0.000000 0.000000 0.000000 0.000000
    2 6.733442 -0.196285 0.641147 0.000000 0.000000 0.000000
    3 6.676370 -1.361634 0.000000 0.000000 0.000000 -0.000652
    4 6.680209 2.139774 0.092398 0.000000 1.570451 0.000000
    5 6.668489 2.135868 -0.094921 3.141592 1.570451 0.000000
    6 5.908475 2.138680 -0.000001 -1.570796 0.000000 1.570796
    7 5.900663 2.183438 0.000000 1.570797 0.000000 1.570796
    8 4.923294 -7.123604 -0.093753 0.000000 0.000000 0.000000
    9 6.826621 2.896115 -0.002619 0.000000 -1.570787 0.000000
    10 0.002616 0.001794 0.000000 0.000000 0.000000 0.000000
    11 -0.002752 -0.001265 -0.003287 0.000000 0.000000 0.000000
    12 6.017034 4.017077 -7.936724 1.211287 -1.734741 -1.256915
    13 7.784723 -1.448664 -0.403721 -1.568165 -0.029147 -3.244711
    14 -0.095359 -8.455766 -0.131479 -0.099625 0.156542 0.015498
    15 -0.488518 -2.755602 -0.228260 -1.298350 0.189322 -0.563158
    16 0.039887 -1.522760 0.010322 -1.322195 -0.013315 0.028824
    17 0.028786 -1.114795 -0.093424 -0.619026 -0.011889 0.011289
    18 0.250027 -2.820665 -0.238396 -1.050916 0.227243 -0.420355
    19 -0.049759 -1.602417 0.049696 -1.314758 -0.064885 -0.044525
    20 -0.030236 -1.171750 0.045718 -1.205284 -0.118072 -0.078427
    21 0.957766 -2.746780 -0.090302 -0.092628 -0.150640 0.125858
    22 -0.033420 -1.393223 -0.019070 -0.600109 0.008389 -0.029363
    23 -0.022360 -0.961342 -0.004654 -0.976274 0.003859 -0.047399
    24 -1.180681 -2.507217 -0.193859 -1.675178 0.258966 -0.570879
    25 -0.024967 -1.123934 0.017597 -0.442076 0.101390 0.095962
    26 -0.020057 -0.902687 0.021809 -0.661508 0.007994 -0.025791
    27 0.583510 -1.197277 0.185379 0.245968 -0.714739 -0.750502
    28 1.504676 -0.173353 0.067511 0.291210 -0.168203 -0.611852
    29 1.065614 -0.128290 0.028385 -0.244034 -0.206425 -0.698944
    30 0.120153 -0.050270 -0.054489 0.287569 3.110905 1.561085
    31 -0.825473 -1.043632 -10.052371 0.544031 -4.016589 0.927757
    32 -0.090562 -8.516827 0.057043 0.527653 -1.042420 -0.435303
    33 0.447953 -2.798986 -0.200443 -1.097799 0.006143 0.545691
    34 -0.032909 -1.499736 0.036191 -1.658992 0.022711 -0.034070
    35 -0.027022 -1.092546 -0.028023 -0.440957 0.011769 -0.004255
    36 -0.249534 -2.846964 -0.174213 -0.842445 0.089328 0.502056
    37 0.043235 -1.656596 0.060855 -1.618932 -0.023831 0.011015
    38 0.031729 -1.137392 0.051025 -1.351253 -0.015082 0.007581
    39 -0.963866 -2.785145 -0.085350 -0.391242 0.243460 0.427445
    40 0.028479 -1.406973 -0.021074 -1.092231 -0.030645 -0.036337
    41 0.021413 -0.938249 0.008327 -1.221799 -0.036397 -0.037212
    42 1.164475 -2.543940 -0.170330 -1.131105 -0.277926 0.648745
    43 0.024032 -1.152480 -0.009538 -1.452510 0.031304 0.066983
    44 0.014898 -0.899614 -0.015942 -0.858363 0.004374 0.043444
    45 -0.586770 -1.264477 0.200161 -0.007035 0.016886 -2.136414
    46 1.546273 0.039149 0.009035 0.229586 0.005865 0.576088
    47 1.114041 0.048424 -0.005766 0.036585 0.173291 -0.079292
    48 -0.139399 -0.111698 0.014397 0.285382 -0.030687 1.580508
    49 -5.596723 6.768801 -0.360530 1.580612 -0.020148 -0.989772
  time 13
    0 4.923013 -1.237388 -3.770179 1.570425 -0.061984 -1.661333
    1 2.233774 0.695171 0.000000 0.000000 0.000000 0.000000
    2 6.733442 -0.196285 0.641147 0.000000 0.000000 0.000000
    3 6.676370 -1.361634 0.000000 0.000000 0.000000 -0.000652
    4 6.680209 2.139774 0.092398 0.000000 1.570451 0.000000
    5 6.668489 2.135868 -0.094921 3.141592 1.570451 0.000000
    6 5.908475 2.138680 -0.000001 -1.570796 0.000000 1.570796
    7 5.900663 2.183438 0.000000 1.570797 0.000000 1.570796
    8 4.923294 -7.123604 -0.093753 0.000000 0.000000 0.000000
    9 6.826621 2.896115 -0.002619 0.000000 -1.570787 0.000000
    10 0.002616 0.001794 0.000000 0.000000 0.000000 0.000000
    11 -0.002752 -0.001265 -0.003287 0.000000 0.000000 0.000000
    12 6.017034 4.013170 -7.936724 1.212912 -1.735378 -1.258446
    13 7.784723 -1.448664 -0.403721 -1.568165 -0.029147 -3.244711
    14 -0.095359 -8.455766 -0.131479 -0.099296 0.156270 0.015464
    15 -0.488518 -2.755602 -0.228260 -1.298350 0.189322 -0.563158
    16 0.039887 -1.522760 0.010322 -1.322195 -0.013315 0.028824
    17 0.028786 -1.114795 -0.093424 -0.619026 -0.011889 0.011289
    18 0.250027 -2.820665 -0.238396 -1.050916 0.227243 -0.420355
    19 -0.049759 -1.602417 0.049696 -1.314758 -0.064885 -0.044525
    20 -0.030236 -1.171750 0.045718 -1.205284 -0.118072 -0.078427
    21 0.957766 -2.746780 -0.090302 -0.092628 -0.150640 0.125858
    22 -0.033420 -1.393223 -0.019070 -0.600109 0.008389 -0.029363
    23 -0.022360 -0.961342 -0.004654 -0.969450 0.004003 -0.047087
    24 -1.180681 -2.507217 -0.193859 -1.675178 0.258966 -0.570879
    25 -0.024967 -1.123934 0.017597 -0.442076 0.101390 0.095962
    26 -0.020057 -0.902687 0.021809 -0.661508 0.007994 -0.025791
    27 0.583510 -1.197277 0.185379 0.245968 -0.714739 -0.750502
    28 1.504676 -0.173353 0.067511 0.291210 -0.168203 -0.611852
    29 1.065614 -0.128290 0.028385 -0.243998 -0.206557 -0.699178
    30 0.120153 -0.050270 -0.054489 0.287569 3.110905 1.561085
    31 -0.821567 -1.043632 -10.044559 0.544729 -4.017225 0.927947
    32 -0.090562 -8.516827 0.057043 0.526320 -1.041989 -0.435053
    33 0.447953 -2.798986 -0.200443 -1.097799 0.006143 0.545691
    34 -0.032909 -1.499736 0.036191 -1.658992 0.022711 -0.034070
    35 -0.027022 -1.092546 -0.028023 -0.440957 0.011769 -0.004255
    36 -0.249534 -2.846964 -0.174213 -0.842445 0.089328 0.502056
    37 0.043235 -1.656596 0.060855 -1.618932 -0.023831 0.011015
    38 0.031729 -1.137392 0.051025 -1.351253 -0.015082 0.007581
    39 -0.963866 -2.785145 -0.085350 -0.391242 0.243460 0.427445
    40 0.028479 -1.406973 -0.021074 -1.092231 -0.030645 -0.036337
    41 0.021413 -0.938249 0.008327 -1.221799 -0.036397 -0.037212
    42 1.164475 -2.543940 -0.170330 -1.131105 -0.277926 0.648745
    43 0.024032 -1.152480 -0.009538 -1.452510 0.031304 0.066983
    44 0.014898 -0.899614 -0.015942 -0.858363 0.004374 0.043444
    45 -0.586770 -1.264477 0.200161 -0.007698 0.016886 -2.136029
    46 1.546273 0.039149 0.009035 0.229586 0.005865 0.576088
    47 1.114041 0.048424 -0.005766 0.036585 0.173291 -0.079292
    48 -0.139399 -0.111698 0.014397 0.285382 -0.030687 1.580508
    49 -5.588911 6.776614 -0.360530 1.580612 -0.020148 -0.991395
  time 14
    0 4.923013 -1.233482 -3.777992 1.570712 -0.063704 -1.661196
    1 2.233774 0.695171 0.000000 0.000000 0.000000 0.000000
    2 6.733442 -0.196285 0.641147 0.000000 0.000000 0.000000
    3 6.676370 -1.361634 0.000000 0.000000 0.000000 -0.000652
    4 6.680209 2.139774 0.092398 0.000000 1.570451 0.000000
    5 6.668489 2.135868 -0.094921 3.141592 1.570451 0.000000
    6 5.908475 2.138680 -0.000001 -1.570796 0.000000 1.570796
    7 5.900663 2.183438 0.000000 1.570797 0.000000 1.570796
    8 4.923294 -7.123604 -0.093753 0.000000 0.000000 0.000000
    9 6.826621 2.896115 -0.002619 0.000000 -1.570787 0.000000
    10 0.002616 0.001794 0.000000 0.000000 0.000000 0.000000
    11 -0.002752 -0.001265 -0.003287 0.000000 0.000000 0.000000
    12 6.017034 4.013170 -7.936724 1.211956 -1.734923 -1.257681
    13 7.784723 -1.444758 -0.403721 -1.568165 -0.029147 -3.244345
    14 -0.095359 -8.455766 -0.131479 -0.099011 0.156044 0.017728
    15 -0.488518 -2.755602 -0.228260 -1.298350 0.189322 -0.563158
    16 0.039887 -1.522760 0.010322 -1.322195 -0.013315 0.028824
    17 0.028786 -1.114795 -0.093424 -0.619026 -0.011889 0.011289
    18 0.250027 -2.820665 -0.238396 -1.050916 0.227243 -0.420355
    19 -0.049759 -1.602417 0.049696 -1.314758 -0.064885 -0.044525
    20 -0.030236 -1.171750 0.045718 -1.205284 -0.118072 -0.078427
    21 0.957766 -2.746780 -0.090302 -0.092628 -0.150640 0.125858
    22 -0.033420 -1.393223 -0.019070 -0.600109 0.008389 -0.029363
    23 -0.022360 -0.961342 -0.004654 -0.965637 0.004075 -0.046908
    24 -1.180681 -2.507217 -0.193859 -1.675178 0.258966 -0.570879
    25 -0.024967 -1.123934 0.017597 -0.442076 0.101390 0.095962
    26 -0.020057 -0.902687 0.021809 -0.661508 0.007994 -0.025791
    27 0.583510 -1.197277 0.185379 0.245968 -0.714739 -0.750502
    28 1.504676 -0.173353 0.067511 0.291210 -0.168203 -0.611852
    29 1.065614 -0.128290 0.028385 -0.243950 -0.206737 -0.699505
    30 0.120153 -0.050270 -0.054489 0.287569 3.110905 1.561085
    31 -0.817661 -1.043632 -10.044559 0.545744 -4.018258 0.928706
    32 -0.090562 -8.516827 0.057043 0.525113 -1.040296 -0.435594
    33 0.447953 -2.798986 -0.200443 -1.097799 0.006143 0.545691
    34 -0.032909 -1.499736 0.036191 -1.658992 0.022711 -0.034070
    35 -0.027022 -1.092546 -0.028023 -0.440957 0.011769 -0.004255
    36 -0.249534 -2.846964 -0.174213 -0.842445 0.089328 0.502056
    37 0.043235 -1.656596 0.060855 -1.618932 -0.023831 0.011015
    38 0.031729 -1.137392 0.051025 -1.351253 -0.015082 0.007581
    39 -0.963866 -2.785145 -0.085350 -0.391242 0.243460 0.427445
    40 0.028479 -1.406973 -0.021074 -1.092231 -0.030645 -0.036337
    41 0.021413 -0.938249 0.008327 -1.221799 -0.036397 -0.037212
    42 1.164475 -2.543940 -0.170330 -1.131105 -0.277926 0.648745
    43 0.024032 -1.152480 -0.009538 -1.452510 0.031304 0.066983
    44 0.014898 -0.899614 -0.015942 -0.858363 0.004386 0.043444
    45 -0.586770 -1.264477 0.200161 -0.008046 0.016886 -2.135805
    46 1.546273 0.039149 0.009035 0.229586 0.005865 0.576088
    47 1.114041 0.048424 -0.005766 0.036585 0.173291 -0.079292
    48 -0.139399 -0.111698 0.014397 0.285382 -0.030687 1.580508
    49 -5.585004 6.780521 -0.360530 1.580612 -0.020148 -0.991968
  time 15
    0 4.923013 -1.225669 -3.797524 -1.570602 -3.075458 -4.802690
    1 2.233774 0.695171 0.000000 0.000000 0.000000 0.000000
    2 6.733442 -0.196285 0.641147 0.000000 0.000000 0.000000
    3 6.676370 -1.361634 0.000000 0.000000 0.000000 -0.000652
    4 6.680209 2.139774 0.092398 0.000000 1.570451 0.000000
    5 6.668489 2.135868 -0.094921 3.141592 1.570451 0.000000
    6 5.908475 2.138680 -0.000001 -1.570796 0.000000 1.570796
    7 5.900663 2.183438 0.000000 1.570797 0.000000 1.570796
    8 4.923294 -7.123604 -0.093753 0.000000 0.000000 0.000000
    9 6.826621 2.896115 -0.002619 0.000000 -1.570787 0.000000
    10 0.002616 0.001794 0.000000 0.000000 0.000000 0.000000
    11 -0.002752 -0.001265 -0.003287 0.000000 0.000000 0.000000
    12 6.017034 4.017077 -7.936724 1.209566 -1.733740 -1.255289
    13 7.784723 -1.440852 -0.403721 -1.568165 -0.029147 -3.243613
    14 -0.095359 -8.455766 -0.131479 -0.098770 0.155840 0.021346
    15 -0.488518 -2.755602 -0.228260 -1.298350 0.189322 -0.563158
    16 0.039887 -1.522760 0.010322 -1.322195 -0.013315 0.028824
    17 0.028786 -1.114795 -0.093424 -0.619026 -0.011889 0.011289
    18 0.250027 -2.820665 -0.238396 -1.050916 0.227243 -0.420355
    19 -0.049759 -1.602417 0.049696 -1.314758 -0.064885 -0.044525
    20 -0.030236 -1.171750 0.045718 -1.205284 -0.118072 -0.078427
    21 0.957766 -2.746780 -0.090302 -0.092628 -0.150640 0.125858
    22 -0.033420 -1.393223 -0.019070 -0.600109 0.008389 -0.029363
    23 -0.022360 -0.961342 -0.004654 -0.963845 0.004111 -0.046824
    24 -1.180681 -2.507217 -0.193859 -1.675178 0.258966 -0.570879
    25 -0.024967 -1.123934 0.017597 -0.442076 0.101390 0.095962
    26 -0.020057 -0.902687 0.021809 -0.661508 0.007994 -0.025791
    27 0.583510 -1.197277 0.185379 0.245968 -0.714739 -0.750502
    28 1.504676 -0.173353 0.067511 0.291210 -0.168203 -0.611852
    29 1.065614 -0.128290 0.028385 -0.243878 -0.206940 -0.699879
    30 0.120153 -0.050270 -0.054489 0.287569 3.110905 1.561085
    31 -0.813754 -1.043632 -10.048465 0.547012 -4.019688 0.929845
    32 -0.086655 -8.516827 0.057043 0.523822 -1.037712 -0.436508
    33 0.447953 -2.798986 -0.200443 -1.097799 0.006143 0.545691
    34 -0.032909 -1.499736 0.036191 -1.658992 0.022711 -0.034070
    35 -0.027022 -1.092546 -0.028023 -0.440957 0.011769 -0.004255
    36 -0.249534 -2.846964 -0.174213 -0.842445 0.089328 0.502056
    37 0.043235 -1.656596 0.060855 -1.618932 -0.023831 0.011015
    38 0.031729 -1.137392 0.051025 -1.351253 -0.015082 0.007581
    39 -0.963866 -2.785145 -0.085350 -0.391242 0.243460 0.427445
    40 0.028479 -1.406973 -0.021074 -1.092231 -0.030645 -0.036337
    41 0.021413 -0.938249 0.008327 -1.221799 -0.036397 -0.037212
    42 1.164475 -2.543940 -0.170330 -1.131105 -0.277926 0.648745
    43 0.024032 -1.152480 -0.009538 -1.452510 0.031304 0.066983
    44 0.014898 -0.899614 -0.015942 -0.858363 0.004374 0.043444
    45 -0.586770 -1.264477 0.200161 -0.008077 0.016886 -2.135805
    46 1.546273 0.039149 0.009035 0.229586 0.005865 0.576088
    47 1.114041 0.048424 -0.005766 0.036585 0.173291 -0.079292
    48 -0.139399 -0.111698 0.014397 0.285382 -0.030687 1.580508
    49 -5.585004 6.780521 -0.360530 1.580612 -0.020148 -0.991872
  time 16
    0 4.923013 -1.217856 -3.817056 -1.570411 -3.072973 -4.802759
    1 2.233774 0.695171 0.000000 0.000000 0.000000 0.000000
    2 6.733442 -0.196285 0.641147 0.000000 0.000000 0.000000
    3 6.676370 -1.361634 0.000000 0.000000 0.000000 -0.000652
    4 6.680209 2.139774 0.092398 0.000000 1.570451 0.000000
    5 6.668489 2.135868 -0.094921 3.141592 1.570451 0.000000
    6 5.908475 2.138680 -0.000001 -1.570796 0.000000 1.570796
    7 5.900663 2.183438 0.000000 1.570797 0.000000 1.570796
    8 4.923294 -7.123604 -0.093753 0.000000 0.000000 0.000000
    9 6.826621 2.896115 -0.002619 0.000000 -1.570787 0.000000
    10 0.002616 0.001794 0.000000 0.000000 0.000000 0.000000
    11 -0.002752 -0.001265 -0.003287 0.000000 0.000000 0.000000
    12 6.017034 4.020983 -7.936724 1.206602 -1.732284 -1.252419
    13 7.788629 -1.433039 -0.403721 -1.568165 -0.029147 -3.242881
    14 -0.095359 -8.455766 -0.131479 -0.098572 0.155682 0.025359
    15 -0.488518 -2.755602 -0.228260 -1.298350 0.189322 -0.563158
    16 0.039887 -1.522760 0.010322 -1.322195 -0.013315 0.028824
    17 0.028786 -1.114795 -0.093424 -0.619026 -0.011889 0.011289
    18 0.250027 -2.820665 -0.238396 -1.050916 0.227243 -0.420355
    19 -0.049759 -1.602417 0.049696 -1.314758 -0.064885 -0.044525
    20 -0.030236 -1.171750 0.045718 -1.205284 -0.118072 -0.078427
    21 0.957766 -2.746780 -0.090302 -0.092628 -0.150640 0.125858
    22 -0.033420 -1.393223 -0.019070 -0.600109 0.008389 -0.029363
    23 -0.022360 -0.961342 -0.004654 -0.963159 0.004123 -0.046788
    24 -1.180681 -2.507217 -0.193859 -1.675178 0.258966 -0.570879
    25 -0.024967 -1.123934 0.017597 -0.442076 0.101390 0.095962
    26 -0.020057 -0.902687 0.021809 -0.661508 0.007994 -0.025791
    27 0.583510 -1.197277 0.185379 0.245968 -0.714739 -0.750502
    28 1.504676 -0.173353 0.067511 0.291210 -0.168203 -0.611852
    29 1.065614 -0.128290 0.028385 -0.243818 -0.207144 -0.700230
    30 0.120153 -0.050270 -0.054489 0.287569 3.110905 1.561085
    31 -0.809848 -1.039726 -10.052371 0.548598 -4.021356 0.931364
    32 -0.086655 -8.516827 0.057043 0.522240 -1.034756 -0.437215
    33 0.447953 -2.798986 -0.200443 -1.097799 0.006143 0.545691
    34 -0.032909 -1.499736 0.036191 -1.658992 0.022711 -0.034070
    35 -0.027022 -1.092546 -0.028023 -0.440957 0.011769 -0.004255
    36 -0.249534 -2.846964 -0.174213 -0.842445 0.089328 0.502056
    37 0.043235 -1.656596 0.060855 -1.618932 -0.023831 0.011015
    38 0.031729 -1.137392 0.051025 -1.351253 -0.015082 0.007581
    39 -0.963866 -2.785145 -0.085350 -0.391242 0.243460 0.427445
    40 0.028479 -1.406973 -0.021074 -1.092231 -0.030645 -0.036337
    41 0.021413 -0.938249 0.008327 -1.221799 -0.036397 -0.037212
    42 1.164475 -2.543940 -0.170330 -1.131105 -0.277926 0.648745
    43 0.024032 -1.152480 -0.009538 -1.452510 0.031304 0.066995
    44 0.014898 -0.899614 -0.015942 -0.858363 0.004386 0.043444
    45 -0.586770 -1.264477 0.200161 -0.007888 0.016886 -2.135901
    46 1.546273 0.039149 0.009035 0.229586 0.005865 0.576088
    47 1.114041 0.048424 -0.005766 0.036585 0.173291 -0.079292
    48 -0.139399 -0.111698 0.014397 0.285382 -0.030687 1.580508
    49 -5.588911 6.776614 -0.360530 1.580612 -0.020148 -0.991490
  time 17
    0 4.923013 -1.210044 -3.836587 -1.570219 -3.070871 -4.802827
    1 2.233774 0.695171 0.000000 0.000000 0.000000 0.000000
    2 6.733442 -0.196285 0.641147 0.000000 0.000000 0.000000
    3 6.676370 -1.361634 0.000000 0.000000 0.000000 -0.000652
    4 6.680209 2.139774 0.092398 0.000000 1.570451 0.000000
    5 6.668489 2.135868 -0.094921 3.141592 1.570451 0.000000
    6 5.908475 2.138680 -0.000001 -1.570796 0.000000 1.570796
    7 5.900663 2.183438 0.000000 1.570797 0.000000 1.570796
    8 4.923294 -7.123604 -0.093753 0.000000 0.000000 0.000000
    9 6.826621 2.896115 -0.002619 0.000000 -1.570787 0.000000
    10 0.002616 0.001794 0.000000 0.000000 0.000000 0.000000
    11 -0.002752 -0.001265 -0.003287 0.000000 0.000000 0.000000
    12 6.017034 4.024889 -7.936724 1.203926 -1.731100 -1.249740
    13 7.788629 -1.429133 -0.403721 -1.568261 -0.029147 -3.242240
    14 -0.095359 -8.455766 -0.131479 -0.098397 0.155546 0.028823
    15 -0.488518 -2.755602 -0.228260 -1.298350 0.189322 -0.563158
    16 0.039887 -1.522760 0.010322 -1.322195 -0.013315 0.028824
    17 0.028786 -1.114795 -0.093424 -0.619026 -0.011889 0.011289
    18 0.250027 -2.820665 -0.238396 -1.050916 0.227243 -0.420355
    19 -0.049759 -1.602417 0.049696 -1.314758 -0.064885 -0.044525
    20 -0.030236 -1.171750 0.045718 -1.205284 -0.118072 -0.078427
    21 0.957766 -2.746780 -0.090302 -0.092628 -0.150640 0.125858
    22 -0.033420 -1.393223 -0.019070 -0.600109 0.008389 -0.029363
    23 -0.022360 -0.961342 -0.004654 -0.962587 0.004135 -0.046764
    24 -1.180681 -2.507217 -0.193859 -1.675178 0.258966 -0.570879
    25 -0.024967 -1.123934 0.017597 -0.442076 0.101390 0.095962
    26 -0.020057 -0.902687 0.021809 -0.661508 0.007994 -0.025791
    27 0.583510 -1.197277 0.185379 0.245968 -0.714739 -0.750502
    28 1.504676 -0.173353 0.067511 0.291210 -0.168203 -0.611852
    29 1.065614 -0.128290 0.028385 -0.243770 -0.207312 -0.700558
    30 0.120153 -0.050270 -0.054489 0.287569 3.110905 1.561085
    31 -0.805941 -1.039726 -10.056278 0.550374 -4.023183 0.932977
    32 -0.086655 -8.516827 0.057043 0.520200 -1.031828 -0.437257
    33 0.447953 -2.798986 -0.200443 -1.097799 0.006143 0.545691
    34 -0.032909 -1.499736 0.036191 -1.658992 0.022711 -0.034070
    35 -0.027022 -1.092546 -0.028023 -0.440957 0.011769 -0.004255
    36 -0.249534 -2.846964 -0.174213 -0.842445 0.089328 0.502056
    37 0.043235 -1.656596 0.060855 -1.618932 -0.023831 0.011015
    38 0.031729 -1.137392 0.051025 -1.351253 -0.015082 0.007581
    39 -0.963866 -2.785145 -0.085350 -0.391242 0.243460 0.427445
    40 0.028479 -1.406973 -0.021074 -1.092231 -0.030645 -0.036337
    41 0.021413 -0.938249 0.008327 -1.221799 -0.036397 -0.037212
    42 1.164475 -2.543940 -0.170330 -1.131105 -0.277926 0.648745
    43 0.024032 -1.152480 -0.009538 -1.452510 0.031304 0.066983
    44 0.014898 -0.899614 -0.015942 -0.858363 0.004374 0.043444
    45 -0.586770 -1.264477 0.200161 -0.007540 0.016886 -2.136125
    46 1.546273 0.039149 0.009035 0.229586 0.005865 0.576088
    47 1.114041 0.048424 -0.005766 0.036585 0.173291 -0.079292
    48 -0.139399 -0.111698 0.014397 0.285382 -0.030687 1.580508
    49 -5.588911 6.776614 -0.360530 1.580612 -0.020148 -0.991108
  time 18
    0 4.923013 -1.206137 -3.844400 -1.570028 -3.069628 -4.802759
    1 2.233774 0.695171 0.000000 0.000000 0.000000 0.000000
    2 6.733442 -0.196285 0.641147 0.000000 0.000000 0.000000
    3 6.676370 -1.361634 0.000000 0.000000 0.000000 -0.000652
    4 6.680209 2.139774 0.092398 0.000000 1.570451 0.000000
    5 6.668489 2.135868 -0.094921 3.141592 1.570451 0.000000
    6 5.908475 2.138680 -0.000001 -1.570796 0.000000 1.570796
    7 5.900663 2.183438 0.000000 1.570797 0.000000 1.570796
    8 4.923294 -7.123604 -0.093753 0.000000 0.000000 0.000000
    9 6.826621 2.896115 -0.002619 0.000000 -1.570787 0.000000
    10 0.002616 0.001794 0.000000 0.000000 0.000000 0.000000
    11 -0.002752 -0.001265 -0.003287 0.000000 0.000000 0.000000
    12 6.017034 4.024889 -7.936724 1.202588 -1.730463 -1.248496
    13 7.788629 -1.425226 -0.403721 -1.568261 -0.029147 -3.241874
    14 -0.095359 -8.459673 -0.131479 -0.098221 0.155410 0.030778
    15 -0.488518 -2.755602 -0.228260 -1.298350 0.189322 -0.563158
    16 0.039887 -1.522760 0.010322 -1.322195 -0.013315 0.028824
    17 0.028786 -1.114795 -0.093424 -0.619026 -0.011889 0.011289
    18 0.250027 -2.820665 -0.238396 -1.050916 0.227243 -0.420355
    19 -0.049759 -1.602417 0.049696 -1.314758 -0.064885 -0.044525
    20 -0.030236 -1.171750 0.045718 -1.205284 -0.118072 -0.078427
    21 0.957766 -2.746780 -0.090302 -0.092628 -0.150640 0.125858
    22 -0.033420 -1.393223 -0.019070 -0.600109 0.008389 -0.029363
    23 -0.022360 -0.961342 -0.004654 -0.961139 0.004159 -0.046692
    24 -1.180681 -2.507217 -0.193859 -1.675178 0.258966 -0.570879
    25 -0.024967 -1.123934 0.017597 -0.442076 0.101390 0.095962
    26 -0.020057 -0.902687 0.021809 -0.661508 0.007994 -0.025791
    27 0.583510 -1.197277 0.185379 0.245968 -0.714739 -0.750502
    28 1.504676 -0.173353 0.067511 0.291210 -0.168203 -0.611852
    29 1.065614 -0.128290 0.028385 -0.243734 -0.207444 -0.700792
    30 0.120153 -0.050270 -0.054489 0.287569 3.110905 1.561085
    31 -0.802035 -1.035819 -10.060184 0.552404 -4.025170 0.934780
    32 -0.086655 -8.516827 0.057043 0.517577 -1.029360 -0.436134
    33 0.447953 -2.798986 -0.200443 -1.097799 0.006143 0.545691
    34 -0.032909 -1.499736 0.036191 -1.658992 0.022711 -0.034070
    35 -0.027022 -1.092546 -0.028023 -0.440957 0.011769 -0.004255
    36 -0.249534 -2.846964 -0.174213 -0.842445 0.089328 0.502056
    37 0.043235 -1.656596 0.060855 -1.618932 -0.023831 0.011015
    38 0.031729 -1.137392 0.051025 -1.351253 -0.015082 0.007581
    39 -0.963866 -2.785145 -0.085350 -0.391242 0.243460 0.427445
    40 0.028479 -1.406973 -0.021074 -1.092231 -0.030645 -0.036337
    41 0.021413 -0.938249 0.008327 -1.221799 -0.036397 -0.037212
    42 1.164475 -2.543940 -0.170330 -1.131105 -0.277926 0.648745
    43 0.024032 -1.152480 -0.009538 -1.452510 0.031304 0.066983
    44 0.014898 -0.899614 -0.015942 -0.858363 0.004386 0.043444
    45 -0.586770 -1.264477 0.200161 -0.007035 0.016886 -2.136414
    46 1.546273 0.039149 0.009035 0.229586 0.005865 0.576088
    47 1.114041 0.048424 -0.005766 0.036585 0.173291 -0.079292
    48 -0.139399 -0.111698 0.014397 0.285382 -0.030687 1.580508
    49 -5.588911 6.776614 -0.360530 1.580612 -0.020148 -0.991108
  time 19
    0 4.919107 -1.206137 -3.848307 -1.570028 -3.069246 -4.802690
    1 2.233774 0.695171 0.000000 0.000000 0.000000 0.000000
    2 6.733442 -0.196285 0.641147 0.000000 0.000000 0.000000
    3 6.676370 -1.361634 0.000000 0.000000 0.000000 -0.000652
    4 6.680209 2.139774 0.092398 0.000000 1.570451 0.000000
    5 6.668489 2.135868 -0.094921 3.141592 1.570451 0.000000
    6 5.908475 2.138680 -0.000001 -1.570796 0.000000 1.570796
    7 5.900663 2.183438 0.000000 1.570797 0.000000 1.570796
    8 4.923294 -7.123604 -0.093753 0.000000 0.000000 0.000000
    9 6.826621 2.896115 -0.002619 0.000000 -1.570787 0.000000
    10 0.002616 0.001794 0.000000 0.000000 0.000000 0.000000
    11 -0.002752 -0.001265 -0.003287 0.000000 0.000000 0.000000
    12 6.017034 4.024889 -7.936724 1.202301 -1.730372 -1.248305
    13 7.792536 -1.425226 -0.403721 -1.568261 -0.029147 -3.241691
    14 -0.095359 -8.459673 -0.131479 -0.098111 0.155320 0.031276
    15 -0.488518 -2.755602 -0.228260 -1.298350 0.189322 -0.563158
    16 0.039887 -1.522760 0.010322 -1.322195 -0.013315 0.028824
    17 0.028786 -1.114795 -0.093424 -0.619026 -0.011889 0.011289
    18 0.250027 -2.820665 -0.238396 -1.050916 0.227243 -0.420355
    19 -0.049759 -1.602417 0.049696 -1.314758 -0.064885 -0.044525
    20 -0.030236 -1.171750 0.045718 -1.205284 -0.118072 -0.078427
    21 0.957766 -2.746780 -0.090302 -0.092628 -0.150640 0.125858
    22 -0.033420 -1.393223 -0.019070 -0.600109 0.008389 -0.029363
    23 -0.022360 -0.961342 -0.004654 -0.959766 0.004183 -0.046632
    24 -1.180681 -2.507217 -0.193859 -1.675178 0.258966 -0.570879
    25 -0.024967 -1.123934 0.017597 -0.442076 0.101390 0.095962
    26 -0.020057 -0.902687 0.021809 -0.661508 0.007994 -0.025791
    27 0.583510 -1.197277 0.185379 0.245968 -0.714739 -0.750502
    28 1.504676 -0.173353 0.067511 0.291210 -0.168203 -0.611852
    29 1.065614 -0.128290 0.028385 -0.243710 -0.207492 -0.700885
    30 0.120153 -0.050270 -0.054489 0.287569 3.110905 1.561085
    31 -0.798129 -1.035819 -10.064090 0.554561 -4.027235 0.936584
    32 -0.086655 -8.516827 0.057043 0.514496 -1.027379 -0.433931
    33 0.447953 -2.798986 -0.200443 -1.097799 0.006143 0.545691
    34 -0.032909 -1.499736 0.036191 -1.658992 0.022711 -0.034070
    35 -0.027022 -1.092546 -0.028023 -0.440957 0.011769 -0.004255
    36 -0.249534 -2.846964 -0.174213 -0.842445 0.089328 0.502056
    37 0.043235 -1.656596 0.060855 -1.618932 -0.023831 0.011015
    38 0.031729 -1.137392 0.051025 -1.351253 -0.015082 0.007581
    39 -0.963866 -2.785145 -0.085350 -0.391242 0.243460 0.427445
    40 0.028479 -1.406973 -0.021074 -1.092231 -0.030645 -0.036337
    41 0.021413 -0.938249 0.008327 -1.221799 -0.036397 -0.037212
    42 1.164475 -2.543940 -0.170330 -1.131105 -0.277926 0.648745
    43 0.024032 -1.152480 -0.009538 -1.452510 0.031304 0.066983
    44 0.014898 -0.899614 -0.015942 -0.858363 0.004374 0.043444
    45 -0.586770 -1.264477 0.200161 -0.006498 0.016910 -2.136766
    46 1.546273 0.039149 0.009035 0.229586 0.005865 0.576088
    47 1.114041 0.048424 -0.005766 0.036585 0.173291 -0.079292
    48 -0.139399 -0.111698 0.014397 0.285382 -0.030687 1.580508
    49 -5.588911 6.776614 -0.360530 1.580612 -0.020148 -0.991299
  time 20
    0 4.919107 -1.206137 -3.848307 -1.569932 -3.069437 -4.802622
    1 2.233774 0.695171 0.000000 0.000000 0.000000 0.000000
    2 6.733442 -0.196285 0.641147 0.000000 0.000000 0.000000
    3 6.676370 -1.361634 0.000000 0.000000 0.000000 -0.000652
    4 6.680209 2.139774 0.092398 0.000000 1.570451 0.000000
    5 6.668489 2.135868 -0.094921 3.141592 1.570451 0.000000
    6 5.908475 2.138680 -0.000001 -1.570796 0.000000 1.570796
    7 5.900663 2.183438 0.000000 1.570797 0.000000 1.570796
    8 4.923294 -7.123604 -0.093753 0.000000 0.000000 0.000000
    9 6.826621 2.896115 -0.002619 0.000000 -1.570787 0.000000
    10 0.002616 0.001794 0.000000 0.000000 0.000000 0.000000
    11 -0.002752 -0.001265 -0.003287 0.000000 0.000000 0.000000
    12 6.017034 4.024889 -7.936724 1.202301 -1.730281 -1.248305
    13 7.792536 -1.425226 -0.403721 -1.568261 -0.029147 -3.241691
    14 -0.095359 -8.459673 -0.131479 -0.098090 0.155297 0.031121
    15 -0.488518 -2.755602 -0.228260 -1.298350 0.189322 -0.563158
    16 0.039887 -1.522760 0.010322 -1.322195 -0.013315 0.028824
    17 0.028786 -1.114795 -0.093424 -0.619026 -0.011889 0.011289
    18 0.250027 -2.820665 -0.238396 -1.050916 0.227243 -0.420355
    19 -0.049759 -1.602417 0.049696 -1.314758 -0.064885 -0.044525
    20 -0.030236 -1.171750 0.045718 -1.205284 -0.118072 -0.078427
    21 0.957766 -2.746780 -0.090302 -0.092628 -0.150640 0.125858
    22 -0.033420 -1.393223 -0.019070 -0.600109 0.008389 -0.029363
    23 -0.022360 -0.961342 -0.004654 -0.959614 0.004195 -0.046620
    24 -1.180681 -2.507217 -0.193859 -1.675178 0.258966 -0.570879
    25 -0.024967 -1.123934 0.017597 -0.442076 0.101390 0.095962
    26 -0.020057 -0.902687 0.021809 -0.661508 0.007994 -0.025791
    27 0.583510 -1.197277 0.185379 0.245968 -0.714739 -0.750502
    28 1.504676 -0.173353 0.067511 0.291210 -0.168203 -0.611852
    29 1.065614 -0.128290 0.028385 -0.243710 -0.207504 -0.700908
    30 0.120153 -0.050270 -0.054489 0.287569 3.110905 1.561085
    31 -0.790316 -1.035819 -10.064090 0.556717 -4.029221 0.938577
    32 -0.086655 -8.516827 0.057043 0.511332 -1.025628 -0.431146
    33 0.447953 -2.798986 -0.200443 -1.097799 0.006143 0.545691
    34 -0.032909 -1.499736 0.036191 -1.658992 0.022711 -0.034070
    35 -0.027022 -1.092546 -0.028023 -0.440957 0.011769 -0.004255
    36 -0.249534 -2.846964 -0.174213 -0.842445 0.089328 0.502056
    37 0.043235 -1.656596 0.060855 -1.618932 -0.023831 0.011015
    38 0.031729 -1.137392 0.051025 -1.351253 -0.015082 0.007581
    39 -0.963866 -2.785145 -0.085350 -0.391242 0.243460 0.427445
    40 0.028479 -1.406973 -0.021074 -1.092231 -0.030645 -0.036337
    41 0.021413 -0.938249 0.008327 -1.221799 -0.036397 -0.037212
    42 1.164475 -2.543940 -0.170330 -1.131105 -0.277926 0.648745
    43 0.024032 -1.152480 -0.009538 -1.452510 0.031304 0.066983
    44 0.014898 -0.899614 -0.015942 -0.858363 0.004374 0.043444
    45 -0.586770 -1.264477 0.200161 -0.005898 0.016910 -2.137119
    46 1.546273 0.039149 0.009035 0.229586 0.005865 0.576088
    47 1.114041 0.048424 -0.005766 0.036585 0.173291 -0.079292
    48 -0.139399 -0.111698 0.014397 0.285382 -0.030687 1.580508
    49 -5.588911 6.776614 -0.360530 1.580612 -0.020148 -0.991299
  time 21
    0 4.919107 -1.206137 -3.844400 -1.570028 -3.069915 -4.802622
    1 2.233774 0.695171 0.000000 0.000000 0.000000 0.000000
    2 6.733442 -0.196285 0.641147 0.000000 0.000000 0.000000
    3 6.676370 -1.361634 0.000000 0.000000 0.000000 -0.000652
    4 6.680209 2.139774 0.092398 0.000000 1.570451 0.000000
    5 6.668489 2.135868 -0.094921 3.141592 1.570451 0.000000
    6 5.908475 2.138680 -0.000001 -1.570796 0.000000 1.570796
    7 5.900663 2.183438 0.000000 1.570797 0.000000 1.570796
    8 4.923294 -7.123604 -0.093753 0.000000 0.000000 0.000000
    9 6.826621 2.896115 -0.002619 0.000000 -1.570787 0.000000
    10 0.002616 0.001794 0.000000 0.000000 0.000000 0.000000
    11 -0.002752 -0.001265 -0.003287 0.000000 0.000000 0.000000
    12 6.017034 4.024889 -7.936724 1.202396 -1.730372 -1.248305
    13 7.788629 -1.425226 -0.403721 -1.568261 -0.029147 -3.241783
    14 -0.095359 -8.459673 -0.131479 -0.098090 0.155297 0.030607
    15 -0.488518 -2.755602 -0.228260 -1.298350 0.189322 -0.563158
    16 0.039887 -1.522760 0.010322 -1.322195 -0.013315 0.028824
    17 0.028786 -1.114795 -0.093424 -0.619026 -0.011889 0.011289
    18 0.250027 -2.820665 -0.238396 -1.050916 0.227243 -0.420355
    19 -0.049759 -1.602417 0.049696 -1.314758 -0.064885 -0.044525
    20 -0.030236 -1.171750 0.045718 -1.205284 -0.118072 -0.078427
    21 0.957766 -2.746780 -0.090302 -0.092628 -0.150640 0.125858
    22 -0.033420 -1.393223 -0.019070 -0.600109 0.008389 -0.029363
    23 -0.022360 -0.961342 -0.004654 -0.960109 0.004183 -0.046644
    24 -1.180681 -2.507217 -0.193859 -1.675178 0.258966 -0.570879
    25 -0.024967 -1.123934 0.017597 -0.442076 0.101390 0.095962
    26 -0.020057 -0.902687 0.021809 -0.661508 0.007994 -0.025791
    27 0.583510 -1.197277 0.185379 0.245968 -0.714739 -0.750502
    28 1.504676 -0.173353 0.067511 0.291210 -0.168203 -0.611852
    29 1.065614 -0.128290 0.028385 -0.243722 -0.207480 -0.700862
    30 0.120153 -0.050270 -0.054489 0.287569 3.110905 1.561085
    31 -0.786410 -1.031913 -10.067997 0.558811 -4.031287 0.940475
    32 -0.082749 -8.516827 0.057043 0.508209 -1.024049 -0.428153
    33 0.447953 -2.798986 -0.200443 -1.097799 0.006143 0.545691
    34 -0.032909 -1.499736 0.036191 -1.658992 0.022711 -0.034070
    35 -0.027022 -1.092546 -0.028023 -0.440957 0.011769 -0.004255
    36 -0.249534 -2.846964 -0.174213 -0.842445 0.089328 0.502056
    37 0.043235 -1.656596 0.060855 -1.618932 -0.023831 0.011015
    38 0.031729 -1.137392 0.051025 -1.351253 -0.015082 0.007581
    39 -0.963866 -2.785145 -0.085350 -0.391242 0.243460 0.427445
    40 0.028479 -1.406973 -0.021074 -1.092231 -0.030645 -0.036337
    41 0.021413 -0.938249 0.008327 -1.221799 -0.036397 -0.037212
    42 1.164475 -2.543940 -0.170330 -1.131105 -0.277926 0.648745
    43 0.024032 -1.152480 -0.009538 -1.452510 0.031304 0.066983
    44 0.014898 -0.899614 -0.015942 -0.858363 0.004374 0.043444
    45 -0.586770 -1.264477 0.200161 -0.005361 0.016910 -2.137471
    46 1.546273 0.039149 0.009035 0.229586 0.005865 0.576088
    47 1.114041 0.048424 -0.005766 0.036585 0.173291 -0.079292
    48 -0.139399 -0.111698 0.014397 0.285382 -0.030687 1.580508
    49 -5.588911 6.776614 -0.360530 1.580612 -0.020148 -0.991204
  time 22
    0 4.919107 -1.206137 -3.844400 -1.570028 -3.070393 -4.802622
    1 2.233774 0.695171 0.000000 0.000000 0.000000 0.000000
    2 6.733442 -0.196285 0.641147 0.000000 0.000000 0.000000
    3 6.676370 -1.361634 0.000000 0.000000 0.000000 -0.000652
    4 6.680209 2.139774 0.092398 0.000000 1.570451 0.000000
    5 6.668489 2.135868 -0.094921 3.141592 1.570451 0.000000
    6 5.908475 2.138680 -0.000001 -1.570796 0.000000 1.570796
    7 5.900663 2.183438 0.000000 1.570797 0.000000 1.570796
    8 4.923294 -7.123604 -0.093753 0.000000 0.000000 0.000000
    9 6.826621 2.896115 -0.002619 0.000000 -1.570787 0.000000
    10 0.002616 0.001794 0.000000 0.000000 0.000000 0.000000
    11 -0.002752 -0.001265 -0.003287 0.000000 0.000000 0.000000
    12 6.017034 4.024889 -7.936724 1.202492 -1.730463 -1.248400
    13 7.788629 -1.425226 -0.403721 -1.568261 -0.029147 -3.241783
    14 -0.095359 -8.455766 -0.131479 -0.098111 0.155320 0.030007
    15 -0.488518 -2.755602 -0.228260 -1.298350 0.189322 -0.563158
    16 0.039887 -1.522760 0.010322 -1.322195 -0.013315 0.028824
    17 0.028786 -1.114795 -0.093424 -0.619026 -0.011889 0.011289
    18 0.250027 -2.820665 -0.238396 -1.050916 0.227243 -0.420355
    19 -0.049759 -1.602417 0.049696 -1.314758 -0.064885 -0.044525
    20 -0.030236 -1.171750 0.045718 -1.205284 -0.118072 -0.078427
    21 0.957766 -2.746780 -0.090302 -0.092628 -0.150640 0.125858
    22 -0.033420 -1.393223 -0.019070 -0.600109 0.008389 -0.029363
    23 -0.022360 -0.961342 -0.004654 -0.960796 0.004171 -0.046680
    24 -1.180681 -2.507217 -0.193859 -1.675178 0.258966 -0.570879
    25 -0.024967 -1.123934 0.017597 -0.442076 0.101390 0.095962
    26 -0.020057 -0.902687 0.021809 -0.661508 0.007994 -0.025791
    27 0.583510 -1.197277 0.185379 0.245968 -0.714739 -0.750502
    28 1.504676 -0.173353 0.067511 0.291210 -0.168203 -0.611852
    29 1.065614 -0.128290 0.028385 -0.243722 -0.207456 -0.700815
    30 0.120153 -0.050270 -0.054489 0.287569 3.110905 1.561085
    31 -0.782503 -1.031913 -10.071903 0.560841 -4.033194 0.942278
    32 -0.082749 -8.516827 0.057043 0.505211 -1.022557 -0.425201
    33 0.447953 -2.798986 -0.200443 -1.097799 0.006143 0.545691
    34 -0.032909 -1.499736 0.036191 -1.658992 0.022711 -0.034070
    35 -0.027022 -1.092546 -0.028023 -0.440957 0.011769 -0.004255
    36 -0.249534 -2.846964 -0.174213 -0.842445 0.089328 0.502056
    37 0.043235 -1.656596 0.060855 -1.618932 -0.023831 0.011015
    38 0.031729 -1.137392 0.051025 -1.351253 -0.015082 0.007581
    39 -0.963866 -2.785145 -0.085350 -0.391242 0.243460 0.427445
    40 0.028479 -1.406973 -0.021074 -1.092231 -0.030645 -0.036337
    41 0.021413 -0.938249 0.008327 -1.221799 -0.036397 -0.037212
    42 1.164475 -2.543940 -0.170330 -1.131105 -0.277926 0.648745
    43 0.024032 -1.152480 -0.009538 -1.452510 0.031304 0.066983
    44 0.014898 -0.899614 -0.015942 -0.858363 0.004374 0.043444
    45 -0.586770 -1.264477 0.200161 -0.004919 0.016910 -2.137728
    46 1.546273 0.039149 0.009035 0.229586 0.005865 0.576088
    47 1.114041 0.048424 -0.005766 0.036585 0.173291 -0.079292
    48 -0.139399 -0.111698 0.014397 0.285382 -0.030687 1.580508
    49 -5.588911 6.776614 -0.360530 1.580612 -0.020148 -0.991108
  time 23
    0 4.919107 -1.210044 -3.844400 -1.570028 -3.070871 -4.802553
    1 2.233774 0.695171 0.000000 0.000000 0.000000 0.000000
    2 6.733442 -0.196285 0.641147 0.000000 0.000000 0.000000
    3 6.676370 -1.361634 0.000000 0.000000 0.000000 -0.000652
    4 6.680209 2.139774 0.092398 0.000000 1.570451 0.000000
    5 6.668489 2.135868 -0.094921 3.141592 1.570451 0.000000
    6 5.908475 2.138680 -0.000001 -1.570796 0.000000 1.570796
    7 5.900663 2.183438 0.000000 1.570797 0.000000 1.570796
    8 4.923294 -7.123604 -0.093753 0.000000 0.000000 0.000000
    9 6.826621 2.896115 -0.002619 0.000000 -1.570787 0.000000
    10 0.002616 0.001794 0.000000 0.000000 0.000000 0.000000
    11 -0.002752 -0.001265 -0.003287 0.000000 0.000000 0.000000
    12 6.017034 4.024889 -7.936724 1.202588 -1.730463 -1.248496
    13 7.788629 -1.425226 -0.403721 -1.568261 -0.029147 -3.241874
    14 -0.095359 -8.455766 -0.131479 -0.098133 0.155320 0.029578
    15 -0.488518 -2.755602 -0.228260 -1.298350 0.189322 -0.563158
    16 0.039887 -1.522760 0.010322 -1.322195 -0.013315 0.028824
    17 0.028786 -1.114795 -0.093424 -0.619026 -0.011889 0.011289
    18 0.250027 -2.820665 -0.238396 -1.050916 0.227243 -0.420355
    19 -0.049759 -1.602417 0.049696 -1.314758 -0.064885 -0.044525
    20 -0.030236 -1.171750 0.045718 -1.205284 -0.118072 -0.078427
    21 0.957766 -2.746780 -0.090302 -0.092628 -0.150640 0.125858
    22 -0.033420 -1.393223 -0.019070 -0.600109 0.008389 -0.029363
    23 -0.022360 -0.961342 -0.004654 -0.961139 0.004159 -0.046692
    24 -1.180681 -2.507217 -0.193859 -1.675178 0.258966 -0.570879
    25 -0.024967 -1.123934 0.017597 -0.442076 0.101390 0.095962
    26 -0.020057 -0.902687 0.021809 -0.661508 0.007994 -0.025791
    27 0.583510 -1.197277 0.185379 0.245968 -0.714739 -0.750502
    28 1.504676 -0.173353 0.067511 0.291210 -0.168203 -0.611852
    29 1.065614 -0.128290 0.028385 -0.243734 -0.207444 -0.700792
    30 0.120153 -0.050270 -0.054489 0.287569 3.110905 1.561085
    31 -0.778597 -1.028007 -10.075809 0.562744 -4.034941 0.943986
    32 -0.082749 -8.516827 0.057043 0.502547 -1.021179 -0.422665
    33 0.447953 -2.798986 -0.200443 -1.097799 0.006143 0.545691
    34 -0.032909 -1.499736 0.036191 -1.658992 0.022711 -0.034070
    35 -0.027022 -1.092546 -0.028023 -0.440957 0.011769 -0.004255
    36 -0.249534 -2.846964 -0.174213 -0.842445 0.089328 0.502056
    37 0.043235 -1.656596 0.060855 -1.618932 -0.023831 0.011015
    38 0.031729 -1.137392 0.051025 -1.351253 -0.015082 0.007581
    39 -0.963866 -2.785145 -0.085350 -0.391242 0.243460 0.427445
    40 0.028479 -1.406973 -0.021074 -1.092231 -0.030645 -0.036337
    41 0.021413 -0.938249 0.008327 -1.221799 -0.036397 -0.037212
    42 1.164475 -2.543940 -0.170330 -1.131105 -0.277926 0.648745
    43 0.024032 -1.152480 -0.009538 -1.452510 0.031304 0.066983
    44 0.014898 -0.899614 -0.015942 -0.858363 0.004374 0.043444
    45 -0.586770 -1.264477 0.200161 -0.004603 0.016935 -2.137920
    46 1.546273 0.039149 0.009035 0.229586 0.005865 0.576088
    47 1.114041 0.048424 -0.005766 0.036585 0.173291 -0.079292
    48 -0.139399 -0.111698 0.014397 0.285382 -0.030687 1.580508
    49 -5.588911 6.776614 -0.360530 1.580612 -0.020148 -0.991013
  time 24
    0 4.919107 -1.210044 -3.844400 -1.570028 -3.070871 -4.802553
    1 2.233774 0.695171 0.000000 0.000000 0.000000 0.000000
    2 6.733442 -0.196285 0.641147 0.000000 0.000000 0.000000
    3 6.676370 -1.361634 0.000000 0.000000 0.000000 -0.000652
    4 6.680209 2.139774 0.092398 0.000000 1.570451 0.000000
    5 6.668489 2.135868 -0.094921 3.141592 1.570451 0.000000
    6 5.908475 2.138680 -0.000001 -1.570796 0.000000 1.570796
    7 5.900663 2.183438 0.000000 1.570797 0.000000 1.570796
    8 4.923294 -7.123604 -0.093753 0.000000 0.000000 0.000000
    9 6.826621 2.896115 -0.002619 0.000000 -1.570787 0.000000
    10 0.002616 0.001794 0.000000 0.000000 0.000000 0.000000
    11 -0.002752 -0.001265 -0.003287 0.000000 0.000000 0.000000
    12 6.017034 4.024889 -7.936724 1.202588 -1.730463 -1.248496
    13 7.788629 -1.425226 -0.403721 -1.568261 -0.029147 -3.241874
    14 -0.095359 -8.455766 -0.131479 -0.098133 0.155320 0.029578
    15 -0.488518 -2.755602 -0.228260 -1.298350 0.189322 -0.563158
    16 0.039887 -1.522760 0.010322 -1.322195 -0.013315 0.028824
    17 0.028786 -1.114795 -0.093424 -0.619026 -0.011889 0.011289
    18 0.250027 -2.820665 -0.238396 -1.050916 0.227243 -0.420355
    19 -0.049759 -1.602417 0.049696 -1.314758 -0.064885 -0.044525
    20 -0.030236 -1.171750 0.045718 -1.205284 -0.118072 -0.078427
    21 0.957766 -2.746780 -0.090302 -0.092628 -0.150640 0.125858
    22 -0.033420 -1.393223 -0.019070 -0.600109 0.008389 -0.029363
    23 -0.022360 -0.961342 -0.004654 -0.961139 0.004159 -0.046692
    24 -1.180681 -2.507217 -0.193859 -1.675178 0.258966 -0.570879
    25 -0.024967 -1.123934 0.017597 -0.442076 0.101390 0.095962
    26 -0.020057 -0.902687 0.021809 -0.661508 0.007994 -0.025791
    27 0.583510 -1.197277 0.185379 0.245968 -0.714739 -0.750502
    28 1.504676 -0.173353 0.067511 0.291210 -0.168203 -0.611852
    29 1.065614 -0.128290 0.028385 -0.243734 -0.207444 -0.700792
    30 0.120153 -0.050270 -0.054489 0.287569 3.110905 1.561085
    31 -0.774691 -1.028007 -10.079716 0.564456 -4.036451 0.945505
    32 -0.082749 -8.516827 0.057043 0.500215 -1.019773 -0.420670
    33 0.447953 -2.798986 -0.200443 -1.097799 0.006143 0.545691
    34 -0.032909 -1.499736 0.036191 -1.658992 0.022711 -0.034070
    35 -0.027022 -1.092546 -0.028023 -0.440957 0.011769 -0.004255
    36 -0.249534 -2.846964 -0.174213 -0.842445 0.089328 0.502056
    37 0.043235 -1.656596 0.060855 -1.618932 -0.023831 0.011015
    38 0.031729 -1.137392 0.051025 -1.351253 -0.015082 0.007581
    39 -0.963866 -2.785145 -0.085350 -0.391242 0.243460 0.427445
    40 0.028479 -1.406973 -0.021074 -1.092231 -0.030645 -0.036337
    41 0.021413 -0.938249 0.008327 -1.221799 -0.036397 -0.037212
    42 1.164475 -2.543940 -0.170330 -1.131105 -0.277926 0.648745
    43 0.024032 -1.152480 -0.009538 -1.452510 0.031304 0.066983
    44 0.014898 -0.899614 -0.015942 -0.858363 0.004386 0.043444
    45 -0.586770 -1.264477 0.200161 -0.004477 0.016935 -2.138016
    46 1.546273 0.039149 0.009035 0.229586 0.005865 0.576088
    47 1.114041 0.048424 -0.005766 0.036585 0.173291 -0.079292
    48 -0.139399 -0.111698 0.014397 0.285382 -0.030687 1.580508
    49 -5.588911 6.776614 -0.360530 1.580612 -0.020148 -0.991013
end
