version 1
nodes
  0 "argus3_root" -1
  1 "magazine" 0
  2 "lever" 0
  3 "trigger" 0
  4 "scope_L" 0
  5 "scope_R" 0
  6 "scope_U" 0
  7 "scope_D" 0
  8 "ef" 0
  9 "PUPPET" 0
  10 "argus3_scope" 9
  11 "root" -1
  12 "Bone01" 11
  13 "Bone_L_Upper" 12
  14 "Bone_Lefthand" 12
  15 "Bone13" 14
  16 "Bone14" 15
  17 "Bone15" 16
  18 "Bone17" 14
  19 "Bone18" 18
  20 "Bone19" 19
  21 "Bone21" 14
  22 "Bone22" 21
  23 "Bone23" 22
  24 "Bone09" 14
  25 "Bone10" 24
  26 "Bone11" 25
  27 "Bone05" 14
  28 "Bone06" 27
  29 "Bone07" 28
  30 "Bone_Se_Hand-L" 14
  31 "Bone04" 11
  32 "Bone_Righthand" 31
  33 "Bone39" 32
  34 "Bone40" 33
  35 "Bone41" 34
  36 "Bone35" 32
  37 "Bone36" 36
  38 "Bone37" 37
  39 "Bone31" 32
  40 "Bone32" 39
  41 "Bone33" 40
  42 "Bone43" 32
  43 "Bone44" 42
  44 "Bone45" 43
  45 "Bone27" 32
  46 "Bone28" 45
  47 "Bone29" 46
  48 "Bone_Se_Hand-R" 32
  49 "Bone_R_Upper" 31
end
skeleton
  time 0
    0 4.919107 -1.210044 -3.844400 -1.570028 -3.070871 -4.802553
    1 2.233774 0.695171 0.000000 0.000000 0.000000 0.000000
    2 6.733442 -0.196285 0.641147 0.000000 0.000000 0.000000
    3 6.676370 -1.361634 0.000000 0.000000 0.000000 -0.000652
    4 6.664584 2.139774 -0.388086 0.000000 1.570451 0.000000
    5 6.664583 2.139775 0.389469 3.141592 1.570787 0.000000
    6 5.904568 2.208994 -0.000001 -1.570796 0.000000 1.570796
    7 5.904569 2.109217 0.000000 1.570797 0.000000 1.570796
    8 5.083455 2.900139 0.000000 0.000000 0.000000 0.000000
    9 6.826621 2.896115 -0.002619 0.000000 -1.570451 0.000000
    10 0.002616 0.001794 0.000000 0.000000 0.000000 0.000000
    11 -0.002752 -0.001265 -0.003287 0.000000 0.000000 0.000000
    12 6.017034 4.024889 -7.936724 1.202588 -1.730463 -1.248496
    13 7.788629 -1.425226 -0.403721 -1.568261 -0.029147 -3.241874
    14 -0.095359 -8.455766 -0.131479 -0.098133 0.155320 0.029578
    15 -0.488518 -2.755602 -0.228260 -1.298350 0.189322 -0.563158
    16 0.039887 -1.522760 0.010322 -1.322195 -0.013315 0.028824
    17 0.028786 -1.114795 -0.093424 -0.619026 -0.011889 0.011289
    18 0.250027 -2.820665 -0.238396 -1.050916 0.227243 -0.420355
    19 -0.049759 -1.602417 0.049696 -1.314758 -0.064885 -0.044525
    20 -0.030236 -1.171750 0.045718 -1.205284 -0.118072 -0.078427
    21 0.957766 -2.746780 -0.090302 -0.092628 -0.150640 0.125858
    22 -0.033420 -1.393223 -0.019070 -0.600109 0.008389 -0.029363
    23 -0.022360 -0.961342 -0.004654 -0.961139 0.004159 -0.046692
    24 -1.180681 -2.507217 -0.193859 -1.675178 0.258966 -0.570879
    25 -0.024967 -1.123934 0.017597 -0.442076 0.101390 0.095962
    26 -0.020057 -0.902687 0.021809 -0.661508 0.007994 -0.025791
    27 0.583510 -1.197277 0.185379 0.245968 -0.714739 -0.750502
    28 1.504676 -0.173353 0.067511 0.291210 -0.168203 -0.611852
    29 1.065614 -0.128290 0.028385 -0.243734 -0.207444 -0.700792
    30 0.120153 -0.050270 -0.054489 0.287569 3.110905 1.561085
    31 -0.770784 -1.028007 -10.079716 0.565344 -4.037245 0.946264
    32 -0.082749 -8.516827 0.057043 0.499008 -1.019055 -0.419630
    33 0.447953 -2.798986 -0.200443 -1.097799 0.006143 0.545691
    34 -0.032909 -1.499736 0.036191 -1.658992 0.022711 -0.034070
    35 -0.027022 -1.092546 -0.028023 -0.440957 0.011769 -0.004255
    36 -0.249534 -2.846964 -0.174213 -0.842445 0.089328 0.502056
    37 0.043235 -1.656596 0.060855 -1.618932 -0.023831 0.011015
    38 0.031729 -1.137392 0.051025 -1.351253 -0.015082 0.007581
    39 -0.963866 -2.785145 -0.085350 -0.391242 0.243460 0.427445
    40 0.028479 -1.406973 -0.021074 -1.092231 -0.030645 -0.036337
    41 0.021413 -0.938249 0.008327 -1.221799 -0.036397 -0.037212
    42 1.164475 -2.543940 -0.170330 -1.131105 -0.277926 0.648745
    43 0.024032 -1.152480 -0.009538 -1.452510 0.031304 0.066983
    44 0.014898 -0.899614 -0.015942 -0.858363 0.004374 0.043444
    45 -0.586770 -1.264477 0.200161 -0.004477 0.016935 -2.138016
    46 1.546273 0.039149 0.009035 0.229586 0.005865 0.576088
    47 1.114041 0.048424 -0.005766 0.036585 0.173291 -0.079292
    48 -0.139399 -0.111698 0.014397 0.285382 -0.030687 1.580508
    49 -5.588911 6.776614 -0.360530 1.580612 -0.020148 -0.991013
  time 1
    0 4.782384 -1.663182 -3.836587 -1.518392 -3.098778 -4.778976
    1 2.233774 0.695171 0.000000 0.000000 0.000000 0.000000
    2 6.733442 -0.196285 0.641147 0.000000 0.000000 0.000000
    3 6.676370 -1.361634 0.000000 0.000000 0.000000 -0.000652
    4 6.664584 2.139774 -0.388086 0.000000 1.570451 0.000000
    5 6.664583 2.139775 0.389469 3.141592 1.570787 0.000000
    6 5.904568 2.208994 -0.000001 -1.570796 0.000000 1.570796
    7 5.904569 2.109217 0.000000 1.570797 0.000000 1.570796
    8 5.083455 2.900139 0.000000 0.000000 0.000000 0.000000
    9 6.826621 2.896115 -0.002619 0.000000 -1.570451 0.000000
    10 0.002616 0.001794 0.000000 0.000000 0.000000 0.000000
    11 -0.002752 -0.001265 -0.003287 0.000000 0.000000 0.000000
    12 6.048285 3.661597 -7.979694 1.169321 -1.736470 -1.207356
    13 7.905820 -0.948649 -0.399814 -1.569220 -0.028284 -3.181577
    14 -0.103172 -8.455766 -0.139291 -0.089425 0.107805 0.000270
    15 -0.488518 -2.755602 -0.228260 -1.298350 0.189322 -0.563158
    16 0.039887 -1.522760 0.010322 -1.322195 -0.013315 0.028824
    17 0.028786 -1.114795 -0.093424 -0.619026 -0.011889 0.011289
    18 0.250027 -2.820665 -0.238396 -1.050916 0.227243 -0.420355
    19 -0.049759 -1.602417 0.049696 -1.314758 -0.064885 -0.044525
    20 -0.030236 -1.171750 0.045718 -1.205284 -0.118072 -0.078427
    21 0.957766 -2.746780 -0.090302 -0.092628 -0.150640 0.125858
    22 -0.033420 -1.393223 -0.019070 -0.600109 0.008389 -0.029363
    23 -0.022360 -0.961342 -0.004654 -0.961139 0.004159 -0.046692
    24 -1.180681 -2.507217 -0.193859 -1.675178 0.258966 -0.570879
    25 -0.024967 -1.123934 0.017597 -0.442076 0.101390 0.095962
    26 -0.020057 -0.902687 0.021809 -0.661508 0.007994 -0.025791
    27 0.583510 -1.197277 0.185379 0.245968 -0.714739 -0.750502
    28 1.504676 -0.173353 0.067511 0.291210 -0.168203 -0.611852
    29 1.065614 -0.128290 0.028385 -0.243734 -0.207444 -0.700792
    30 0.120153 -0.050270 -0.054489 0.287569 3.110905 1.561085
    31 -0.395773 -1.141291 -9.696892 0.455289 -4.082291 0.829530
    32 -0.098374 -8.516827 0.057043 0.576407 -1.065182 -0.577270
    33 0.447953 -2.798986 -0.200443 -1.097799 0.006143 0.545691
    34 -0.032909 -1.499736 0.036191 -1.658992 0.022711 -0.034070
    35 -0.027022 -1.092546 -0.028023 -0.440957 0.011769 -0.004255
    36 -0.249534 -2.846964 -0.174213 -0.842445 0.089328 0.502056
    37 0.043235 -1.656596 0.060855 -1.618932 -0.023831 0.011015
    38 0.031729 -1.137392 0.051025 -1.351253 -0.015082 0.007581
    39 -0.963866 -2.785145 -0.085350 -0.391242 0.243460 0.427445
    40 0.028479 -1.406973 -0.021074 -1.092231 -0.030645 -0.036337
    41 0.021413 -0.938249 0.008327 -1.221799 -0.036397 -0.037212
    42 1.164475 -2.543940 -0.170330 -1.131105 -0.277926 0.648745
    43 0.024032 -1.152480 -0.009538 -1.452510 0.031304 0.066983
    44 0.014898 -0.899614 -0.015942 -0.858363 0.004374 0.043444
    45 -0.586770 -1.264477 0.200161 -0.004477 0.016935 -2.138016
    46 1.546273 0.039149 0.009035 0.229586 0.005865 0.576088
    47 1.114041 0.048424 -0.005766 0.036585 0.173291 -0.079292
    48 -0.139399 -0.111698 0.014397 0.285382 -0.030687 1.580508
    49 -4.370123 7.706330 -0.321467 1.581571 -0.015266 -1.177834
  time 2
    0 3.883919 -1.760842 -3.852213 -1.528336 -3.119899 -4.726751
    1 2.233774 0.695171 0.000000 0.000000 0.000000 0.000000
    2 6.733442 -0.196285 0.641147 0.000000 0.000000 0.000000
    3 6.676370 -1.361634 0.000000 0.000000 0.000000 -0.000652
    4 6.664584 2.139774 -0.388086 0.000000 1.570451 0.000000
    5 6.664583 2.139775 0.389469 3.141592 1.570787 0.000000
    6 5.904568 2.208994 -0.000001 -1.570796 0.000000 1.570796
    7 5.904569 2.109217 0.000000 1.570797 0.000000 1.570796
    8 5.083455 2.900139 0.000000 0.000000 0.000000 0.000000
    9 6.826621 2.896115 -0.002619 0.000000 -1.570451 0.000000
    10 0.002616 0.001794 0.000000 0.000000 0.000000 0.000000
    11 -0.002752 -0.001265 -0.003287 0.000000 0.000000 0.000000
    12 5.962345 3.669410 -7.983600 1.221993 -1.722637 -1.342832
    13 7.921446 -0.878335 -0.399814 -1.569412 -0.028188 -3.172793
    14 -0.107078 -8.471392 -0.135385 0.043983 0.086288 -0.005578
    15 -0.488518 -2.755602 -0.228260 -1.298350 0.189322 -0.563158
    16 0.039887 -1.522760 0.010322 -1.322195 -0.013315 0.028824
    17 0.028786 -1.114795 -0.093424 -0.619026 -0.011889 0.011289
    18 0.250027 -2.820665 -0.238396 -1.050916 0.227243 -0.420355
    19 -0.049759 -1.602417 0.049696 -1.314758 -0.064885 -0.044525
    20 -0.030236 -1.171750 0.045718 -1.205284 -0.118072 -0.078427
    21 0.957766 -2.746780 -0.090302 -0.092628 -0.150640 0.125858
    22 -0.033420 -1.393223 -0.019070 -0.600109 0.008389 -0.029363
    23 -0.022360 -0.961342 -0.004654 -0.961139 0.004159 -0.046692
    24 -1.180681 -2.507217 -0.193859 -1.675178 0.258966 -0.570879
    25 -0.024967 -1.123934 0.017597 -0.442076 0.101390 0.095962
    26 -0.020057 -0.902687 0.021809 -0.661508 0.007994 -0.025791
    27 0.583510 -1.197277 0.185379 0.245968 -0.714739 -0.750502
    28 1.504676 -0.173353 0.067511 0.291210 -0.168203 -0.611852
    29 1.065614 -0.128290 0.028385 -0.243734 -0.207444 -0.700792
    30 0.120153 -0.050270 -0.054489 0.287569 3.110905 1.561085
    31 -0.716095 -1.137385 -9.872678 0.461125 -4.083085 0.801248
    32 -0.102281 -8.497295 0.057043 0.442592 -1.125459 -0.481156
    33 0.447953 -2.798986 -0.200443 -1.097799 0.006143 0.545691
    34 -0.032909 -1.499736 0.036191 -1.658992 0.022711 -0.034070
    35 -0.027022 -1.092546 -0.028023 -0.440957 0.011769 -0.004255
    36 -0.249534 -2.846964 -0.174213 -0.842445 0.089328 0.502056
    37 0.043235 -1.656596 0.060855 -1.618932 -0.023831 0.011015
    38 0.031729 -1.137392 0.051025 -1.351253 -0.015082 0.007581
    39 -0.963866 -2.785145 -0.085350 -0.391242 0.243460 0.427445
    40 0.028479 -1.406973 -0.021074 -1.092231 -0.030645 -0.036337
    41 0.021413 -0.938249 0.008327 -1.221799 -0.036397 -0.037212
    42 1.164475 -2.543940 -0.170330 -1.131105 -0.277926 0.648745
    43 0.024032 -1.152480 -0.009538 -1.452510 0.031304 0.066983
    44 0.014898 -0.899614 -0.015942 -0.858363 0.004374 0.043444
    45 -0.586770 -1.264477 0.200161 -0.004477 0.016935 -2.138016
    46 1.546273 0.039149 0.009035 0.229586 0.005865 0.576088
    47 1.114041 0.048424 -0.005766 0.036585 0.173291 -0.079292
    48 -0.139399 -0.111698 0.014397 0.285382 -0.030687 1.580508
    49 -4.643569 7.526637 -0.329279 1.581379 -0.016319 -1.137740
  time 3
    0 2.860450 -1.721778 -3.856119 1.595670 0.001380 -1.529055
    1 2.233774 0.695171 0.000000 0.000000 0.000000 0.000000
    2 6.733442 -0.196285 0.641147 0.000000 0.000000 0.000000
    3 6.676370 -1.361634 0.000000 0.000000 0.000000 -0.000652
    4 6.664584 2.139774 -0.388086 0.000000 1.570451 0.000000
    5 6.664583 2.139775 0.389469 3.141592 1.570787 0.000000
    6 5.904568 2.208994 -0.000001 -1.570796 0.000000 1.570796
    7 5.904569 2.109217 0.000000 1.570797 0.000000 1.570796
    8 5.083455 2.900139 0.000000 0.000000 0.000000 0.000000
    9 6.826621 2.896115 -0.002619 0.000000 -1.570451 0.000000
    10 0.002616 0.001794 0.000000 0.000000 0.000000 0.000000
    11 -0.002752 -0.001265 -0.003287 0.000000 0.000000 0.000000
    12 5.864686 3.755350 -7.987507 1.314813 -1.707438 -1.534565
    13 7.917539 -0.882241 -0.399814 -1.569316 -0.028188 -3.173433
    14 -0.107078 -8.494830 -0.135385 0.199042 0.070224 -0.009128
    15 -0.488518 -2.755602 -0.228260 -1.298350 0.189322 -0.563158
    16 0.039887 -1.522760 0.010322 -1.322195 -0.013315 0.028824
    17 0.028786 -1.114795 -0.093424 -0.619026 -0.011889 0.011289
    18 0.250027 -2.820665 -0.238396 -1.050916 0.227243 -0.420355
    19 -0.049759 -1.602417 0.049696 -1.314758 -0.064885 -0.044525
    20 -0.030236 -1.171750 0.045718 -1.205284 -0.118072 -0.078427
    21 0.957766 -2.746780 -0.090302 -0.092628 -0.150640 0.125858
    22 -0.033420 -1.393223 -0.019070 -0.600109 0.008389 -0.029363
    23 -0.022360 -0.961342 -0.004654 -0.961139 0.004159 -0.046692
    24 -1.180681 -2.507217 -0.193859 -1.675178 0.258966 -0.570879
    25 -0.024967 -1.123934 0.017597 -0.442076 0.101390 0.095962
    26 -0.020057 -0.902687 0.021809 -0.661508 0.007994 -0.025791
    27 0.583510 -1.197277 0.185379 0.245968 -0.714739 -0.750502
    28 1.504676 -0.173353 0.067511 0.291210 -0.168203 -0.611852
    29 1.065614 -0.128290 0.028385 -0.243734 -0.207444 -0.700792
    30 0.120153 -0.050270 -0.054489 0.287569 3.110905 1.561085
    31 -1.188766 -1.055351 -10.200813 0.496013 -4.071645 0.801343
    32 -0.110094 -8.469950 0.053137 0.238829 -1.179450 -0.296662
    33 0.447953 -2.798986 -0.200443 -1.097799 0.006143 0.545691
    34 -0.032909 -1.499736 0.036191 -1.658992 0.022711 -0.034070
    35 -0.027022 -1.092546 -0.028023 -0.440957 0.011769 -0.004255
    36 -0.249534 -2.846964 -0.174213 -0.842445 0.089328 0.502056
    37 0.043235 -1.656596 0.060855 -1.618932 -0.023831 0.011015
    38 0.031729 -1.137392 0.051025 -1.351253 -0.015082 0.007581
    39 -0.963866 -2.785145 -0.085350 -0.391242 0.243460 0.427445
    40 0.028479 -1.406973 -0.021074 -1.092231 -0.030645 -0.036337
    41 0.021413 -0.938249 0.008327 -1.221799 -0.036397 -0.037212
    42 1.164475 -2.543940 -0.170330 -1.131105 -0.277926 0.648745
    43 0.024032 -1.152480 -0.009538 -1.452510 0.031304 0.066983
    44 0.014898 -0.899614 -0.015942 -0.858363 0.004374 0.043444
    45 -0.586770 -1.264477 0.200161 -0.004477 0.016935 -2.138016
    46 1.546273 0.039149 0.009035 0.229586 0.005865 0.576088
    47 1.114041 0.048424 -0.005766 0.036585 0.173291 -0.079292
    48 -0.139399 -0.111698 0.014397 0.285382 -0.030687 1.580508
    49 -5.315465 7.018809 -0.352718 1.580804 -0.018999 -1.035785
  time 4
    0 2.004955 -1.628025 -3.840494 1.585438 0.016576 -1.484917
    1 2.233774 0.695171 0.000000 0.000000 0.000000 0.000000
    2 6.733442 -0.196285 0.641147 0.000000 0.000000 0.000000
    3 6.676370 -1.361634 0.000000 0.000000 0.000000 -0.000652
    4 6.664584 2.139774 -0.388086 0.000000 1.570451 0.000000
    5 6.664583 2.139775 0.389469 3.141592 1.570787 0.000000
    6 5.904568 2.208994 -0.000001 -1.570796 0.000000 1.570796
    7 5.904569 2.109217 0.000000 1.570797 0.000000 1.570796
    8 5.083455 2.900139 0.000000 0.000000 0.000000 0.000000
    9 6.826621 2.896115 -0.002619 0.000000 -1.570451 0.000000
    10 0.002616 0.001794 0.000000 0.000000 0.000000 0.000000
    11 -0.002752 -0.001265 -0.003287 0.000000 0.000000 0.000000
    12 5.806090 3.798320 -7.987507 4.529111 -1.440877 1.447245
    13 7.921446 -0.870522 -0.399814 -1.569412 -0.028188 -3.171969
    14 -0.110985 -8.514362 -0.139291 0.330411 0.058119 -0.011203
    15 -0.488518 -2.755602 -0.228260 -1.298350 0.189322 -0.563158
    16 0.039887 -1.522760 0.010322 -1.322195 -0.013315 0.028824
    17 0.028786 -1.114795 -0.093424 -0.619026 -0.011889 0.011289
    18 0.250027 -2.820665 -0.238396 -1.050916 0.227243 -0.420355
    19 -0.049759 -1.602417 0.049696 -1.314758 -0.064885 -0.044525
    20 -0.030236 -1.171750 0.045718 -1.205284 -0.118072 -0.078427
    21 0.957766 -2.746780 -0.090302 -0.092628 -0.150640 0.125858
    22 -0.033420 -1.393223 -0.019070 -0.600109 0.008389 -0.029363
    23 -0.022360 -0.961342 -0.004654 -0.961139 0.004159 -0.046692
    24 -1.180681 -2.507217 -0.193859 -1.675178 0.258966 -0.570879
    25 -0.024967 -1.123934 0.017597 -0.442062 0.101390 0.095962
    26 -0.020057 -0.902687 0.021809 -0.661508 0.007994 -0.025791
    27 0.583510 -1.197277 0.185379 0.245968 -0.714739 -0.750502
    28 1.504676 -0.173353 0.067511 0.291210 -0.168203 -0.611852
    29 1.065614 -0.128290 0.028385 -0.243734 -0.207444 -0.700792
    30 0.120153 -0.050270 -0.054489 0.287569 3.110905 1.561085
    31 -1.591122 -0.938160 -10.462540 0.528236 -4.058537 0.803051
    32 -0.114000 -8.450418 0.049231 0.042728 -1.214268 -0.116033
    33 0.447953 -2.798986 -0.200443 -1.097799 0.006143 0.545691
    34 -0.032909 -1.499736 0.036191 -1.658992 0.022711 -0.034070
    35 -0.027022 -1.092546 -0.028023 -0.440957 0.011769 -0.004255
    36 -0.249534 -2.846964 -0.174213 -0.842445 0.089328 0.502056
    37 0.043235 -1.656596 0.060855 -1.618932 -0.023831 0.011015
    38 0.031729 -1.137392 0.051025 -1.351253 -0.015082 0.007581
    39 -0.963866 -2.785145 -0.085350 -0.391242 0.243460 0.427445
    40 0.028479 -1.406973 -0.021074 -1.092231 -0.030645 -0.036337
    41 0.021413 -0.938249 0.008327 -1.221799 -0.036397 -0.037212
    42 1.164475 -2.543940 -0.170330 -1.131105 -0.277926 0.648745
    43 0.024032 -1.152480 -0.009538 -1.452510 0.031304 0.066995
    44 0.014898 -0.899614 -0.015942 -0.858363 0.004386 0.043444
    45 -0.586770 -1.264477 0.200161 -0.004477 0.016935 -2.138016
    46 1.546273 0.039149 0.009035 0.229586 0.005865 0.576088
    47 1.114041 0.048424 -0.005766 0.036585 0.173291 -0.079292
    48 -0.139399 -0.111698 0.014397 0.285382 -0.030687 1.580508
    49 -5.850637 6.522700 -0.368343 1.580229 -0.021297 -0.947195
  time 5
    0 1.524472 -1.592868 -3.820962 1.587350 0.005585 -1.468330
    1 2.233774 0.695171 0.000000 0.000000 0.000000 0.000000
    2 6.733442 -0.196285 0.641147 0.000000 0.000000 0.000000
    3 6.676370 -1.361634 0.000000 0.000000 0.000000 -0.000652
    4 6.664584 2.139774 -0.388086 0.000000 1.570451 0.000000
    5 6.664583 2.139775 0.389469 3.141592 1.570787 0.000000
    6 5.904568 2.208994 -0.000001 -1.570796 0.000000 1.570796
    7 5.904569 2.109217 0.000000 1.570797 0.000000 1.570796
    8 5.083455 2.900139 0.000000 0.000000 0.000000 0.000000
    9 6.826621 2.896115 -0.002619 0.000000 -1.570451 0.000000
    10 0.002616 0.001794 0.000000 0.000000 0.000000 0.000000
    11 -0.002752 -0.001265 -0.003287 0.000000 0.000000 0.000000
    12 5.809997 3.685035 -7.991413 4.477108 -1.432322 1.446096
    13 7.940978 -0.772863 -0.395908 -1.569603 -0.027997 -3.159434
    14 -0.110985 -8.522175 -0.139291 0.399528 0.051942 -0.006985
    15 -0.488518 -2.755602 -0.228260 -1.298350 0.189322 -0.563158
    16 0.039887 -1.522760 0.010322 -1.322195 -0.013315 0.028824
    17 0.028786 -1.114795 -0.093424 -0.619026 -0.011889 0.011289
    18 0.250027 -2.820665 -0.238396 -1.050916 0.227243 -0.420355
    19 -0.049759 -1.602417 0.049696 -1.314758 -0.064885 -0.044525
    20 -0.030236 -1.171750 0.045718 -1.205284 -0.118072 -0.078427
    21 0.957766 -2.746780 -0.090302 -0.092628 -0.150640 0.125858
    22 -0.033420 -1.393223 -0.019070 -0.600109 0.008389 -0.029363
    23 -0.022360 -0.961342 -0.004654 -0.961139 0.004159 -0.046692
    24 -1.180681 -2.507217 -0.193859 -1.675178 0.258966 -0.570879
    25 -0.024967 -1.123934 0.017597 -0.442062 0.101390 0.095962
    26 -0.020057 -0.902687 0.021809 -0.661508 0.007994 -0.025791
    27 0.583510 -1.197277 0.185379 0.245968 -0.714739 -0.750502
    28 1.504676 -0.173353 0.067511 0.291210 -0.168203 -0.611852
    29 1.065614 -0.128290 0.028385 -0.243734 -0.207444 -0.700792
    30 0.120153 -0.050270 -0.054489 0.287569 3.110905 1.561085
    31 -1.766908 -0.926441 -10.466446 0.544729 -4.052181 0.793370
    32 -0.114000 -8.446512 0.045324 -0.045539 -1.229481 -0.053052
    33 0.447953 -2.798986 -0.200443 -1.097799 0.006143 0.545691
    34 -0.032909 -1.499736 0.036191 -1.658992 0.022711 -0.034070
    35 -0.027022 -1.092546 -0.028023 -0.440957 0.011769 -0.004255
    36 -0.249534 -2.846964 -0.174213 -0.842445 0.089328 0.502056
    37 0.043235 -1.656596 0.060855 -1.618932 -0.023831 0.011015
    38 0.031729 -1.137392 0.051025 -1.351253 -0.015082 0.007581
    39 -0.963866 -2.785145 -0.085350 -0.391242 0.243460 0.427445
    40 0.028479 -1.406973 -0.021074 -1.092231 -0.030645 -0.036337
    41 0.021413 -0.938249 0.008327 -1.221799 -0.036397 -0.037212
    42 1.164475 -2.543940 -0.170330 -1.131105 -0.277926 0.648745
    43 0.024032 -1.152480 -0.009538 -1.452510 0.031304 0.066983
    44 0.014898 -0.899614 -0.015942 -0.858363 0.004386 0.043444
    45 -0.586770 -1.264477 0.200161 -0.004477 0.016935 -2.138016
    46 1.546273 0.039149 0.009035 0.229586 0.005865 0.576088
    47 1.114041 0.048424 -0.005766 0.036585 0.173291 -0.079292
    48 -0.139399 -0.111698 0.014397 0.285382 -0.030687 1.580508
    49 -5.940484 6.432854 -0.372250 1.580037 -0.021680 -0.931348
  time 6
    0 1.258839 -1.542085 -3.805336 1.592132 -0.020697 -1.470866
    1 2.233774 0.695171 0.000000 0.000000 0.000000 0.000000
    2 6.733442 -0.196285 0.641147 0.000000 0.000000 0.000000
    3 6.676370 -1.361634 0.000000 0.000000 0.000000 -0.000652
    4 6.664584 2.139774 -0.388086 0.000000 1.570451 0.000000
    5 6.664583 2.139775 0.389469 3.141592 1.570787 0.000000
    6 5.904568 2.208994 -0.000001 -1.570796 0.000000 1.570796
    7 5.904569 2.109217 0.000000 1.570797 0.000000 1.570796
    8 5.083455 2.900139 0.000000 0.000000 0.000000 0.000000
    9 6.826621 2.896115 -0.002619 0.000000 -1.570451 0.000000
    10 0.002616 0.001794 0.000000 0.000000 0.000000 0.000000
    11 -0.002752 -0.001265 -0.003287 0.000000 0.000000 0.000000
    12 5.856873 3.532687 -7.995319 4.369854 -1.415759 1.516418
    13 7.956603 -0.686922 -0.395908 -1.569795 -0.027805 -3.148729
    14 -0.110985 -8.529987 -0.143198 0.433330 0.050675 0.003013
    15 -0.488518 -2.755602 -0.228260 -1.298350 0.189322 -0.563158
    16 0.039887 -1.522760 0.010322 -1.322195 -0.013315 0.028824
    17 0.028786 -1.114795 -0.093424 -0.619026 -0.011889 0.011289
    18 0.250027 -2.820665 -0.238396 -1.050916 0.227243 -0.420355
    19 -0.049759 -1.602417 0.049696 -1.314758 -0.064885 -0.044525
    20 -0.030236 -1.171750 0.045718 -1.205284 -0.118072 -0.078427
    21 0.957766 -2.746780 -0.090302 -0.092628 -0.150640 0.125858
    22 -0.033420 -1.393223 -0.019070 -0.600109 0.008389 -0.029363
    23 -0.022360 -0.961342 -0.004654 -0.961139 0.004159 -0.046692
    24 -1.180681 -2.507217 -0.193859 -1.675178 0.258966 -0.570879
    25 -0.024967 -1.123934 0.017597 -0.442062 0.101390 0.095962
    26 -0.020057 -0.902687 0.021809 -0.661508 0.007994 -0.025791
    27 0.583510 -1.197277 0.185379 0.245968 -0.714739 -0.750502
    28 1.504676 -0.173353 0.067511 0.291210 -0.168203 -0.611852
    29 1.065614 -0.128290 0.028385 -0.243734 -0.207444 -0.700792
    30 0.120153 -0.050270 -0.054489 0.287569 3.110905 1.561085
    31 -1.864568 -0.953786 -10.376600 0.562997 -4.046064 0.788151
    32 -0.114000 -8.446512 0.045324 -0.063026 -1.234504 -0.057209
    33 0.447953 -2.798986 -0.200443 -1.097799 0.006143 0.545691
    34 -0.032909 -1.499736 0.036191 -1.658992 0.022711 -0.034070
    35 -0.027022 -1.092546 -0.028023 -0.440957 0.011769 -0.004255
    36 -0.249534 -2.846964 -0.174213 -0.842445 0.089328 0.502056
    37 0.043235 -1.656596 0.060855 -1.618932 -0.023831 0.011015
    38 0.031729 -1.137392 0.051025 -1.351253 -0.015082 0.007581
    39 -0.963866 -2.785145 -0.085350 -0.391242 0.243460 0.427445
    40 0.028479 -1.406973 -0.021074 -1.092231 -0.030645 -0.036337
    41 0.021413 -0.938249 0.008327 -1.221799 -0.036397 -0.037212
    42 1.164475 -2.543940 -0.170330 -1.131105 -0.277926 0.648745
    43 0.024032 -1.152480 -0.009538 -1.452510 0.031304 0.066983
    44 0.014898 -0.899614 -0.015942 -0.858363 0.004374 0.043444
    45 -0.586770 -1.264477 0.200161 -0.004477 0.016935 -2.138016
    46 1.546273 0.039149 0.009035 0.229586 0.005865 0.576088
    47 1.114041 0.048424 -0.005766 0.036585 0.173291 -0.079292
    48 -0.139399 -0.111698 0.014397 0.285382 -0.030687 1.580508
    49 -5.920952 6.452386 -0.372250 1.580133 -0.021584 -0.935071
  time 7
    0 1.008831 -1.413175 -3.789711 1.596435 -0.047170 -1.480325
    1 2.233774 0.695171 0.000000 0.000000 0.000000 0.000000
    2 6.733442 -0.196285 0.641147 0.000000 0.000000 0.000000
    3 6.676370 -1.361634 0.000000 0.000000 0.000000 -0.000652
    4 6.664584 2.139774 -0.388086 0.000000 1.570451 0.000000
    5 6.664583 2.139775 0.389469 3.141592 1.570787 0.000000
    6 5.904568 2.208994 -0.000001 -1.570796 0.000000 1.570796
    7 5.904569 2.109217 0.000000 1.570797 0.000000 1.570796
    8 5.083455 2.900139 0.000000 0.000000 0.000000 0.000000
    9 6.826621 2.896115 -0.002619 0.000000 -1.570451 0.000000
    10 0.002616 0.001794 0.000000 0.000000 0.000000 0.000000
    11 -0.002752 -0.001265 -0.003287 0.000000 0.000000 0.000000
    12 5.919375 3.427215 -7.991413 4.278850 -1.398467 1.568178
    13 7.960510 -0.667391 -0.395908 -1.569795 -0.027805 -3.146533
    14 -0.110985 -8.537800 -0.143198 0.462964 0.049498 0.013252
    15 -0.488518 -2.755602 -0.228260 -1.298350 0.189322 -0.563158
    16 0.039887 -1.522760 0.010322 -1.322195 -0.013315 0.028824
    17 0.028786 -1.114795 -0.093424 -0.619026 -0.011889 0.011289
    18 0.250027 -2.820665 -0.238396 -1.050916 0.227243 -0.420355
    19 -0.049759 -1.602417 0.049696 -1.314758 -0.064885 -0.044525
    20 -0.030236 -1.171750 0.045718 -1.205284 -0.118072 -0.078427
    21 0.957766 -2.746780 -0.090302 -0.092628 -0.150640 0.125858
    22 -0.033420 -1.393223 -0.019070 -0.600109 0.008389 -0.029363
    23 -0.022360 -0.961342 -0.004654 -0.961139 0.004159 -0.046692
    24 -1.180681 -2.507217 -0.193859 -1.675178 0.258966 -0.570879
    25 -0.024967 -1.123934 0.017597 -0.442076 0.101390 0.095962
    26 -0.020057 -0.902687 0.021809 -0.661508 0.007994 -0.025791
    27 0.583510 -1.197277 0.185379 0.245968 -0.714739 -0.750502
    28 1.504676 -0.173353 0.067511 0.291210 -0.168203 -0.611852
    29 1.065614 -0.128290 0.028385 -0.243734 -0.207444 -0.700792
    30 0.120153 -0.050270 -0.054489 0.287569 3.110905 1.561085
    31 -2.016916 -0.938160 -10.357068 0.592366 -4.034385 0.794889
    32 -0.114000 -8.442606 0.045324 -0.069979 -1.237460 -0.058540
    33 0.447953 -2.798986 -0.200443 -1.097799 0.006143 0.545691
    34 -0.032909 -1.499736 0.036191 -1.658992 0.022711 -0.034070
    35 -0.027022 -1.092546 -0.028023 -0.440957 0.011769 -0.004255
    36 -0.249534 -2.846964 -0.174213 -0.842445 0.089328 0.502056
    37 0.043235 -1.656596 0.060855 -1.618932 -0.023831 0.011015
    38 0.031729 -1.137392 0.051025 -1.351253 -0.015082 0.007581
    39 -0.963866 -2.785145 -0.085350 -0.391242 0.243460 0.427445
    40 0.028479 -1.406973 -0.021074 -1.092231 -0.030645 -0.036337
    41 0.021413 -0.938249 0.008327 -1.221799 -0.036397 -0.037212
    42 1.164475 -2.543940 -0.170330 -1.131105 -0.277926 0.648745
    43 0.024032 -1.152480 -0.009538 -1.452510 0.031304 0.066983
    44 0.014898 -0.899614 -0.015942 -0.858363 0.004374 0.043444
    45 -0.586770 -1.264477 0.200161 -0.004477 0.016935 -2.138016
    46 1.546273 0.039149 0.009035 0.229586 0.005865 0.576088
    47 1.114041 0.048424 -0.005766 0.036585 0.173291 -0.079292
    48 -0.139399 -0.111698 0.014397 0.285382 -0.030687 1.580508
    49 -6.049862 6.315663 -0.376156 1.579845 -0.022158 -0.911969
  time 8
    0 0.793981 -1.264733 -3.781898 1.601311 -0.076320 -1.494923
    1 2.233774 0.695171 0.000000 0.000000 0.000000 0.000000
    2 6.733442 -0.196285 0.641147 0.000000 0.000000 0.000000
    3 6.676370 -1.361634 0.000000 0.000000 0.000000 -0.000652
    4 6.664584 2.139774 -0.388086 0.000000 1.570451 0.000000
    5 6.664583 2.139775 0.389469 3.141592 1.570787 0.000000
    6 5.904568 2.208994 -0.000001 -1.570796 0.000000 1.570796
    7 5.904569 2.109217 0.000000 1.570797 0.000000 1.570796
    8 5.083455 2.900139 0.000000 0.000000 0.000000 0.000000
    9 6.826621 2.896115 -0.002619 0.000000 -1.570451 0.000000
    10 0.002616 0.001794 0.000000 0.000000 0.000000 0.000000
    11 -0.002752 -0.001265 -0.003287 0.000000 0.000000 0.000000
    12 5.985783 3.321743 -7.983600 1.055566 -1.762862 -1.530068
    13 7.960510 -0.667391 -0.395908 -1.569795 -0.027805 -3.146441
    14 -0.110985 -8.541706 -0.143198 0.486829 0.048412 0.024142
    15 -0.488518 -2.755602 -0.228260 -1.298350 0.189322 -0.563158
    16 0.039887 -1.522760 0.010322 -1.322195 -0.013315 0.028824
    17 0.028786 -1.114795 -0.093424 -0.619026 -0.011889 0.011289
    18 0.250027 -2.820665 -0.238396 -1.050916 0.227243 -0.420355
    19 -0.049759 -1.602417 0.049696 -1.314758 -0.064885 -0.044525
    20 -0.030236 -1.171750 0.045718 -1.205284 -0.118072 -0.078427
    21 0.957766 -2.746780 -0.090302 -0.092628 -0.150640 0.125858
    22 -0.033420 -1.393223 -0.019070 -0.600109 0.008389 -0.029363
    23 -0.022360 -0.961342 -0.004654 -0.961139 0.004159 -0.046692
    24 -1.180681 -2.507217 -0.193859 -1.675178 0.258966 -0.570879
    25 -0.024967 -1.123934 0.017597 -0.442076 0.101390 0.095962
    26 -0.020057 -0.902687 0.021809 -0.661508 0.007994 -0.025791
    27 0.583510 -1.197277 0.185379 0.245968 -0.714739 -0.750502
    28 1.504676 -0.173353 0.067511 0.291210 -0.168203 -0.611852
    29 1.065614 -0.128290 0.028385 -0.243734 -0.207444 -0.700792
    30 0.120153 -0.050270 -0.054489 0.287569 3.110905 1.561085
    31 -2.173171 -0.914722 -10.341443 0.624717 -4.020721 0.804000
    32 -0.114000 -8.442606 0.045324 -0.064483 -1.238465 -0.068600
    33 0.447953 -2.798986 -0.200443 -1.097799 0.006143 0.545691
    34 -0.032909 -1.499736 0.036191 -1.658992 0.022711 -0.034070
    35 -0.027022 -1.092546 -0.028023 -0.440957 0.011769 -0.004255
    36 -0.249534 -2.846964 -0.174213 -0.842445 0.089328 0.502056
    37 0.043235 -1.656596 0.060855 -1.618932 -0.023831 0.011015
    38 0.031729 -1.137392 0.051025 -1.351253 -0.015082 0.007581
    39 -0.963866 -2.785145 -0.085350 -0.391242 0.243460 0.427445
    40 0.028479 -1.406973 -0.021074 -1.092231 -0.030645 -0.036337
    41 0.021413 -0.938249 0.008327 -1.221799 -0.036397 -0.037212
    42 1.164475 -2.543940 -0.170330 -1.131105 -0.277926 0.648745
    43 0.024032 -1.152480 -0.009538 -1.452510 0.031304 0.066983
    44 0.014898 -0.899614 -0.015942 -0.858363 0.004374 0.043444
    45 -0.586770 -1.264477 0.200161 -0.004477 0.016935 -2.138016
    46 1.546273 0.039149 0.009035 0.229586 0.005865 0.576088
    47 1.114041 0.048424 -0.005766 0.036585 0.173291 -0.079292
    48 -0.139399 -0.111698 0.014397 0.285382 -0.030687 1.580508
    49 -6.202211 6.147689 -0.380062 1.579558 -0.022828 -0.884667
  time 9
    0 0.610382 -1.100665 -3.785805 1.604754 -0.103366 -1.509659
    1 2.233774 0.695171 0.000000 0.000000 0.000000 0.000000
    2 6.733442 -0.196285 0.641147 0.000000 0.000000 0.000000
    3 6.676370 -1.361634 0.000000 0.000000 0.000000 -0.000652
    4 6.664584 2.139774 -0.388086 0.000000 1.570451 0.000000
    5 6.664583 2.139775 0.389469 3.141592 1.570787 0.000000
    6 5.904568 2.208994 -0.000001 -1.570796 0.000000 1.570796
    7 5.904569 2.109217 0.000000 1.570797 0.000000 1.570796
    8 5.083455 2.900139 0.000000 0.000000 0.000000 0.000000
    9 6.826621 2.896115 -0.002619 0.000000 -1.570451 0.000000
    10 0.002616 0.001794 0.000000 0.000000 0.000000 0.000000
    11 -0.002752 -0.001265 -0.003287 0.000000 0.000000 0.000000
    12 6.056098 3.231896 -7.971881 0.982820 -1.781337 -1.493711
    13 7.956603 -0.683016 -0.395908 -1.569795 -0.027805 -3.148637
    14 -0.110985 -8.549519 -0.143198 0.509027 0.048887 0.035940
    15 -0.488518 -2.755602 -0.228260 -1.298350 0.189322 -0.563158
    16 0.039887 -1.522760 0.010322 -1.322195 -0.013315 0.028824
    17 0.028786 -1.114795 -0.093424 -0.619026 -0.011889 0.011289
    18 0.250027 -2.820665 -0.238396 -1.050916 0.227243 -0.420355
    19 -0.049759 -1.602417 0.049696 -1.314758 -0.064885 -0.044525
    20 -0.030236 -1.171750 0.045718 -1.205284 -0.118072 -0.078427
    21 0.957766 -2.746780 -0.090302 -0.092628 -0.150640 0.125858
    22 -0.033420 -1.393223 -0.019070 -0.600109 0.008389 -0.029363
    23 -0.022360 -0.961342 -0.004654 -0.961139 0.004159 -0.046692
    24 -1.180681 -2.507217 -0.193859 -1.675178 0.258966 -0.570879
    25 -0.024967 -1.123934 0.017597 -0.442076 0.101390 0.095962
    26 -0.020057 -0.902687 0.021809 -0.661508 0.007994 -0.025791
    27 0.583510 -1.197277 0.185379 0.245968 -0.714739 -0.750502
    28 1.504676 -0.173353 0.067511 0.291210 -0.168203 -0.611852
    29 1.065614 -0.128290 0.028385 -0.243734 -0.207444 -0.700792
    30 0.120153 -0.050270 -0.054489 0.287569 3.110905 1.561085
    31 -2.329425 -0.875658 -10.349255 0.655735 -4.006579 0.814345
    32 -0.114000 -8.442606 0.045324 -0.057613 -1.237690 -0.076873
    33 0.447953 -2.798986 -0.200443 -1.097799 0.006143 0.545691
    34 -0.032909 -1.499736 0.036191 -1.658992 0.022711 -0.034070
    35 -0.027022 -1.092546 -0.028023 -0.440957 0.011769 -0.004255
    36 -0.249534 -2.846964 -0.174213 -0.842445 0.089328 0.502056
    37 0.043235 -1.656596 0.060855 -1.618932 -0.023831 0.011015
    38 0.031729 -1.137392 0.051025 -1.351253 -0.015082 0.007581
    39 -0.963866 -2.785145 -0.085350 -0.391242 0.243460 0.427445
    40 0.028479 -1.406973 -0.021074 -1.092231 -0.030645 -0.036337
    41 0.021413 -0.938249 0.008327 -1.221799 -0.036397 -0.037212
    42 1.164475 -2.543940 -0.170330 -1.131105 -0.277926 0.648745
    43 0.024032 -1.152480 -0.009538 -1.452510 0.031304 0.066983
    44 0.014898 -0.899614 -0.015942 -0.858363 0.004374 0.043444
    45 -0.586770 -1.264477 0.200161 -0.004477 0.016935 -2.138016
    46 1.546273 0.039149 0.009035 0.229586 0.005865 0.576088
    47 1.114041 0.048424 -0.005766 0.036585 0.173291 -0.079292
    48 -0.139399 -0.111698 0.014397 0.285382 -0.030687 1.580508
    49 -6.370184 5.948464 -0.387875 1.579270 -0.023594 -0.852687
  time 10
    0 0.461940 -0.936598 -3.817056 1.604563 -0.123628 -1.519528
    1 2.233774 0.695171 0.000000 0.000000 0.000000 0.000000
    2 6.733442 -0.196285 0.641147 0.000000 0.000000 0.000000
    3 6.676370 -1.361634 0.000000 0.000000 0.000000 -0.000652
    4 6.664584 2.139774 -0.388086 0.000000 1.570451 0.000000
    5 6.664583 2.139775 0.389469 3.141592 1.570787 0.000000
    6 5.904568 2.208994 -0.000001 -1.570796 0.000000 1.570796
    7 5.904569 2.109217 0.000000 1.570797 0.000000 1.570796
    8 5.083455 2.900139 0.000000 0.000000 0.000000 0.000000
    9 6.826621 2.896115 -0.002619 0.000000 -1.570451 0.000000
    10 0.002616 0.001794 0.000000 0.000000 0.000000 0.000000
    11 -0.002752 -0.001265 -0.003287 0.000000 0.000000 0.000000
    12 6.138132 3.185020 -7.960162 0.915715 -1.794715 -1.459555
    13 7.948790 -0.722080 -0.395908 -1.569699 -0.027901 -3.153121
    14 -0.110985 -8.553426 -0.143198 0.533682 0.052236 0.048922
    15 -0.488518 -2.755602 -0.228260 -1.298350 0.189322 -0.563158
    16 0.039887 -1.522760 0.010322 -1.322195 -0.013315 0.028824
    17 0.028786 -1.114795 -0.093424 -0.619026 -0.011889 0.011289
    18 0.250027 -2.820665 -0.238396 -1.050916 0.227243 -0.420355
    19 -0.049759 -1.602417 0.049696 -1.314758 -0.064885 -0.044525
    20 -0.030236 -1.171750 0.045718 -1.205284 -0.118072 -0.078427
    21 0.957766 -2.746780 -0.090302 -0.092628 -0.150640 0.125858
    22 -0.033420 -1.393223 -0.019070 -0.600109 0.008389 -0.029363
    23 -0.022360 -0.961342 -0.004654 -0.961139 0.004159 -0.046692
    24 -1.180681 -2.507217 -0.193859 -1.675178 0.258966 -0.570879
    25 -0.024967 -1.123934 0.017597 -0.442062 0.101390 0.095962
    26 -0.020057 -0.902687 0.021809 -0.661508 0.007994 -0.025791
    27 0.583510 -1.197277 0.185379 0.245968 -0.714739 -0.750502
    28 1.504676 -0.173353 0.067511 0.291210 -0.168203 -0.611852
    29 1.065614 -0.128290 0.028385 -0.243734 -0.207444 -0.700792
    30 0.120153 -0.050270 -0.054489 0.287569 3.110905 1.561085
    31 -2.470055 -0.820969 -10.396132 0.681298 -3.993312 0.824879
    32 -0.114000 -8.442606 0.045324 -0.060028 -1.235566 -0.073422
    33 0.447953 -2.798986 -0.200443 -1.097799 0.006143 0.545691
    34 -0.032909 -1.499736 0.036191 -1.658992 0.022711 -0.034070
    35 -0.027022 -1.092546 -0.028023 -0.440957 0.011769 -0.004255
    36 -0.249534 -2.846964 -0.174213 -0.842445 0.089328 0.502056
    37 0.043235 -1.656596 0.060855 -1.618932 -0.023831 0.011015
    38 0.031729 -1.137392 0.051025 -1.351253 -0.015082 0.007581
    39 -0.963866 -2.785145 -0.085350 -0.391242 0.243460 0.427445
    40 0.028479 -1.406973 -0.021074 -1.092231 -0.030645 -0.036337
    41 0.021413 -0.938249 0.008327 -1.221799 -0.036397 -0.037212
    42 1.164475 -2.543940 -0.170330 -1.131105 -0.277926 0.648745
    43 0.024032 -1.152480 -0.009538 -1.452510 0.031304 0.066983
    44 0.014898 -0.899614 -0.015942 -0.858363 0.004374 0.043444
    45 -0.586770 -1.264477 0.200161 -0.004477 0.016935 -2.138016
    46 1.546273 0.039149 0.009035 0.229586 0.005865 0.576088
    47 1.114041 0.048424 -0.005766 0.036585 0.173291 -0.079292
    48 -0.139399 -0.111698 0.014397 0.285382 -0.030687 1.580508
    49 -6.561597 5.710175 -0.391781 1.578791 -0.024456 -0.815838
  time 11
    0 0.340842 -0.760811 -3.879557 1.599495 -0.137199 -1.522612
    1 2.233774 0.695171 0.000000 0.000000 0.000000 0.000000
    2 6.733442 -0.196285 0.641147 0.000000 0.000000 0.000000
    3 6.676370 -1.361634 0.000000 0.000000 0.000000 -0.000652
    4 6.664584 2.139774 -0.388086 0.000000 1.570451 0.000000
    5 6.664583 2.139775 0.389469 3.141592 1.570787 0.000000
    6 5.904568 2.208994 -0.000001 -1.570796 0.000000 1.570796
    7 5.904569 2.109217 0.000000 1.570797 0.000000 1.570796
    8 5.083455 2.900139 0.000000 0.000000 0.000000 0.000000
    9 6.826621 2.896115 -0.002619 0.000000 -1.570451 0.000000
    10 0.002616 0.001794 0.000000 0.000000 0.000000 0.000000
    11 -0.002752 -0.001265 -0.003287 0.000000 0.000000 0.000000
    12 6.231884 3.185020 -7.952349 0.844498 -1.802086 -1.419276
    13 7.940978 -0.776769 -0.395908 -1.569603 -0.027997 -3.159983
    14 -0.107078 -8.561238 -0.143198 0.563865 0.059114 0.065128
    15 -0.488518 -2.755602 -0.228260 -1.298350 0.189322 -0.563158
    16 0.039887 -1.522760 0.010322 -1.322195 -0.013315 0.028824
    17 0.028786 -1.114795 -0.093424 -0.619026 -0.011889 0.011289
    18 0.250027 -2.820665 -0.238396 -1.050916 0.227243 -0.420355
    19 -0.049759 -1.602417 0.049696 -1.314758 -0.064885 -0.044525
    20 -0.030236 -1.171750 0.045718 -1.205284 -0.118072 -0.078427
    21 0.957766 -2.746780 -0.090302 -0.092628 -0.150640 0.125858
    22 -0.033420 -1.393223 -0.019070 -0.600109 0.008389 -0.029363
    23 -0.022360 -0.961342 -0.004654 -0.961139 0.004159 -0.046692
    24 -1.180681 -2.507217 -0.193859 -1.675178 0.258966 -0.570879
    25 -0.024967 -1.123934 0.017597 -0.442076 0.101390 0.095962
    26 -0.020057 -0.902687 0.021809 -0.661508 0.007994 -0.025791
    27 0.583510 -1.197277 0.185379 0.245968 -0.714739 -0.750502
    28 1.504676 -0.173353 0.067511 0.291210 -0.168203 -0.611852
    29 1.065614 -0.128290 0.028385 -0.243734 -0.207444 -0.700792
    30 0.120153 -0.050270 -0.054489 0.287569 3.110905 1.561085
    31 -2.595059 -0.742842 -10.485978 0.700772 -3.981395 0.835604
    32 -0.114000 -8.442606 0.045324 -0.074642 -1.231777 -0.056503
    33 0.447953 -2.798986 -0.200443 -1.097799 0.006143 0.545691
    34 -0.032909 -1.499736 0.036191 -1.658992 0.022711 -0.034070
    35 -0.027022 -1.092546 -0.028023 -0.440957 0.011769 -0.004255
    36 -0.249534 -2.846964 -0.174213 -0.842445 0.089328 0.502056
    37 0.043235 -1.656596 0.060855 -1.618932 -0.023831 0.011015
    38 0.031729 -1.137392 0.051025 -1.351253 -0.015082 0.007581
    39 -0.963866 -2.785145 -0.085350 -0.391242 0.243460 0.427445
    40 0.028479 -1.406973 -0.021074 -1.092231 -0.030645 -0.036337
    41 0.021413 -0.938249 0.008327 -1.221799 -0.036397 -0.037212
    42 1.164475 -2.543940 -0.170330 -1.131105 -0.277926 0.648745
    43 0.024032 -1.152480 -0.009538 -1.452510 0.031304 0.066995
    44 0.014898 -0.899614 -0.015942 -0.858363 0.004386 0.043444
    45 -0.586770 -1.264477 0.200161 -0.004477 0.016935 -2.138016
    46 1.546273 0.039149 0.009035 0.229586 0.005865 0.576088
    47 1.114041 0.048424 -0.005766 0.036585 0.173291 -0.079292
    48 -0.139399 -0.111698 0.014397 0.285382 -0.030687 1.580508
    49 -6.764728 5.425010 -0.399594 1.578215 -0.025509 -0.773166
  time 12
    0 0.247089 -0.581118 -3.965498 1.591080 -0.146947 -1.522064
    1 2.233774 0.695171 0.000000 0.000000 0.000000 0.000000
    2 6.733442 -0.196285 0.641147 0.000000 0.000000 0.000000
    3 6.676370 -1.361634 0.000000 0.000000 0.000000 -0.000652
    4 6.664584 2.139774 -0.388086 0.000000 1.570451 0.000000
    5 6.664583 2.139775 0.389469 3.141592 1.570787 0.000000
    6 5.904568 2.208994 -0.000001 -1.570796 0.000000 1.570796
    7 5.904569 2.109217 0.000000 1.570797 0.000000 1.570796
    8 5.083455 2.900139 0.000000 0.000000 0.000000 0.000000
    9 6.826621 2.896115 -0.002619 0.000000 -1.570451 0.000000
    10 0.002616 0.001794 0.000000 0.000000 0.000000 0.000000
    11 -0.002752 -0.001265 -0.003287 0.000000 0.000000 0.000000
    12 6.337356 3.212365 -7.940630 0.767929 -1.806364 -1.372587
    13 7.925352 -0.847084 -0.399814 -1.569412 -0.028092 -3.168858
    14 -0.103172 -8.569051 -0.143198 0.597469 0.068142 0.084421
    15 -0.488518 -2.755602 -0.228260 -1.298350 0.189322 -0.563158
    16 0.039887 -1.522760 0.010322 -1.322195 -0.013315 0.028824
    17 0.028786 -1.114795 -0.093424 -0.619026 -0.011889 0.011289
    18 0.250027 -2.820665 -0.238396 -1.050916 0.227243 -0.420355
    19 -0.049759 -1.602417 0.049696 -1.314758 -0.064885 -0.044525
    20 -0.030236 -1.171750 0.045718 -1.205284 -0.118072 -0.078427
    21 0.957766 -2.746780 -0.090302 -0.092628 -0.150640 0.125858
    22 -0.033420 -1.393223 -0.019070 -0.600109 0.008389 -0.029363
    23 -0.022360 -0.961342 -0.004654 -0.961139 0.004159 -0.046692
    24 -1.180681 -2.507217 -0.193859 -1.675178 0.258966 -0.570879
    25 -0.024967 -1.123934 0.017597 -0.442076 0.101390 0.095962
    26 -0.020057 -0.902687 0.021809 -0.661508 0.007994 -0.025791
    27 0.583510 -1.197277 0.185379 0.245968 -0.714739 -0.750502
    28 1.504676 -0.173353 0.067511 0.291210 -0.168203 -0.611852
    29 1.065614 -0.128290 0.028385 -0.243734 -0.207444 -0.700792
    30 0.120153 -0.050270 -0.054489 0.287569 3.110905 1.561085
    31 -2.708343 -0.645182 -10.603169 0.716567 -3.970034 0.846803
    32 -0.114000 -8.442606 0.045324 -0.094502 -1.226209 -0.033264
    33 0.447953 -2.798986 -0.200443 -1.097799 0.006143 0.545691
    34 -0.032909 -1.499736 0.036191 -1.658992 0.022711 -0.034070
    35 -0.027022 -1.092546 -0.028023 -0.440957 0.011769 -0.004255
    36 -0.249534 -2.846964 -0.174213 -0.842445 0.089328 0.502056
    37 0.043235 -1.656596 0.060855 -1.618932 -0.023831 0.011015
    38 0.031729 -1.137392 0.051025 -1.351253 -0.015082 0.007581
    39 -0.963866 -2.785145 -0.085350 -0.391242 0.243460 0.427445
    40 0.028479 -1.406973 -0.021074 -1.092231 -0.030645 -0.036337
    41 0.021413 -0.938249 0.008327 -1.221799 -0.036397 -0.037212
    42 1.164475 -2.543940 -0.170330 -1.131105 -0.277926 0.648745
    43 0.024032 -1.152480 -0.009538 -1.452510 0.031304 0.066983
    44 0.014898 -0.899614 -0.015942 -0.858363 0.004374 0.043444
    45 -0.586770 -1.264477 0.200161 -0.004477 0.016935 -2.138016
    46 1.546273 0.039149 0.009035 0.229586 0.005865 0.576088
    47 1.114041 0.048424 -0.005766 0.036585 0.173291 -0.079292
    48 -0.139399 -0.111698 0.014397 0.285382 -0.030687 1.580508
    49 -6.979578 5.104688 -0.407407 1.577640 -0.026562 -0.726675
  time 13
    0 0.176775 -0.401425 -4.051438 1.581231 -0.153255 -1.520008
    1 2.233774 0.695171 0.000000 0.000000 0.000000 0.000000
    2 6.733442 -0.196285 0.641147 0.000000 0.000000 0.000000
    3 6.676370 -1.361634 0.000000 0.000000 0.000000 -0.000652
    4 6.664584 2.139774 -0.388086 0.000000 1.570451 0.000000
    5 6.664583 2.139775 0.389469 3.141592 1.570787 0.000000
    6 5.904568 2.208994 -0.000001 -1.570796 0.000000 1.570796
    7 5.904569 2.109217 0.000000 1.570797 0.000000 1.570796
    8 5.083455 2.900139 0.000000 0.000000 0.000000 0.000000
    9 6.826621 2.896115 -0.002619 0.000000 -1.570451 0.000000
    10 0.002616 0.001794 0.000000 0.000000 0.000000 0.000000
    11 -0.002752 -0.001265 -0.003287 0.000000 0.000000 0.000000
    12 6.450641 3.255335 -7.932817 0.693749 -1.809003 -1.326280
    13 7.909727 -0.929117 -0.399814 -1.569316 -0.028284 -3.178923
    14 -0.099266 -8.576864 -0.143198 0.630723 0.077758 0.103732
    15 -0.488518 -2.755602 -0.228260 -1.298350 0.189322 -0.563158
    16 0.039887 -1.522760 0.010322 -1.322195 -0.013315 0.028824
    17 0.028786 -1.114795 -0.093424 -0.619026 -0.011889 0.011289
    18 0.250027 -2.820665 -0.238396 -1.050916 0.227243 -0.420355
    19 -0.049759 -1.602417 0.049696 -1.314758 -0.064885 -0.044525
    20 -0.030236 -1.171750 0.045718 -1.205284 -0.118072 -0.078427
    21 0.957766 -2.746780 -0.090302 -0.092628 -0.150640 0.125858
    22 -0.033420 -1.393223 -0.019070 -0.600109 0.008389 -0.029363
    23 -0.022360 -0.961342 -0.004654 -0.961139 0.004159 -0.046692
    24 -1.180681 -2.507217 -0.193859 -1.675178 0.258966 -0.570879
    25 -0.024967 -1.123934 0.017597 -0.442076 0.101390 0.095962
    26 -0.020057 -0.902687 0.021809 -0.661508 0.007994 -0.025791
    27 0.583510 -1.197277 0.185379 0.245968 -0.714739 -0.750502
    28 1.504676 -0.173353 0.067511 0.291210 -0.168203 -0.611852
    29 1.065614 -0.128290 0.028385 -0.243734 -0.207444 -0.700792
    30 0.120153 -0.050270 -0.054489 0.287569 3.110905 1.561085
    31 -2.813815 -0.543617 -10.732080 0.729317 -3.959627 0.857717
    32 -0.110094 -8.442606 0.045324 -0.115403 -1.219836 -0.007448
    33 0.447953 -2.798986 -0.200443 -1.097799 0.006143 0.545691
    34 -0.032909 -1.499736 0.036191 -1.658992 0.022711 -0.034070
    35 -0.027022 -1.092546 -0.028023 -0.440957 0.011769 -0.004255
    36 -0.249534 -2.846964 -0.174213 -0.842445 0.089328 0.502056
    37 0.043235 -1.656596 0.060855 -1.618932 -0.023831 0.011015
    38 0.031729 -1.137392 0.051025 -1.351253 -0.015082 0.007581
    39 -0.963866 -2.785145 -0.085350 -0.391242 0.243460 0.427445
    40 0.028479 -1.406973 -0.021074 -1.092231 -0.030645 -0.036337
    41 0.021413 -0.938249 0.008327 -1.221799 -0.036397 -0.037212
    42 1.164475 -2.543940 -0.170330 -1.131105 -0.277926 0.648745
    43 0.024032 -1.152480 -0.009538 -1.452510 0.031304 0.066983
    44 0.014898 -0.899614 -0.015942 -0.858363 0.004386 0.043444
    45 -0.586770 -1.264477 0.200161 -0.004477 0.016935 -2.138016
    46 1.546273 0.039149 0.009035 0.229586 0.005865 0.576088
    47 1.114041 0.048424 -0.005766 0.036585 0.173291 -0.079292
    48 -0.139399 -0.111698 0.014397 0.285382 -0.030687 1.580508
    49 -7.174896 4.772647 -0.415220 1.576873 -0.027615 -0.679803
  time 14
    0 0.125992 -0.237358 -4.125659 1.572146 -0.156409 -1.518637
    1 2.233774 0.695171 0.000000 0.000000 0.000000 0.000000
    2 6.733442 -0.196285 0.641147 0.000000 0.000000 0.000000
    3 6.676370 -1.361634 0.000000 0.000000 0.000000 -0.000652
    4 6.664584 2.139774 -0.388086 0.000000 1.570451 0.000000
    5 6.664583 2.139775 0.389469 3.141592 1.570787 0.000000
    6 5.904568 2.208994 -0.000001 -1.570796 0.000000 1.570796
    7 5.904569 2.109217 0.000000 1.570797 0.000000 1.570796
    8 5.083455 2.900139 0.000000 0.000000 0.000000 0.000000
    9 6.826621 2.896115 -0.002619 0.000000 -1.570451 0.000000
    10 0.002616 0.001794 0.000000 0.000000 0.000000 0.000000
    11 -0.002752 -0.001265 -0.003287 0.000000 0.000000 0.000000
    12 6.556113 3.302211 -7.917192 0.630849 -1.811369 -1.287819
    13 7.890195 -1.011151 -0.399814 -1.569124 -0.028380 -3.189537
    14 -0.099266 -8.584677 -0.143198 0.659743 0.086718 0.119886
    15 -0.488518 -2.755602 -0.228260 -1.298350 0.189322 -0.563158
    16 0.039887 -1.522760 0.010322 -1.322195 -0.013315 0.028824
    17 0.028786 -1.114795 -0.093424 -0.619026 -0.011889 0.011289
    18 0.250027 -2.820665 -0.238396 -1.050916 0.227243 -0.420355
    19 -0.049759 -1.602417 0.049696 -1.314758 -0.064885 -0.044525
    20 -0.030236 -1.171750 0.045718 -1.205284 -0.118072 -0.078427
    21 0.957766 -2.746780 -0.090302 -0.092628 -0.150640 0.125858
    22 -0.033420 -1.393223 -0.019070 -0.600109 0.008389 -0.029363
    23 -0.022360 -0.961342 -0.004654 -0.961139 0.004159 -0.046692
    24 -1.180681 -2.507217 -0.193859 -1.675178 0.258966 -0.570879
    25 -0.024967 -1.123934 0.017597 -0.442076 0.101390 0.095962
    26 -0.020057 -0.902687 0.021809 -0.661508 0.007994 -0.025791
    27 0.583510 -1.197277 0.185379 0.245968 -0.714739 -0.750502
    28 1.504676 -0.173353 0.067511 0.291210 -0.168203 -0.611852
    29 1.065614 -0.128290 0.028385 -0.243734 -0.207444 -0.700792
    30 0.120153 -0.050270 -0.054489 0.287569 3.110905 1.561085
    31 -2.903662 -0.438145 -10.849271 0.739910 -3.950252 0.867492
    32 -0.110094 -8.438699 0.045324 -0.133764 -1.213837 0.017744
    33 0.447953 -2.798986 -0.200443 -1.097799 0.006143 0.545691
    34 -0.032909 -1.499736 0.036191 -1.658992 0.022711 -0.034070
    35 -0.027022 -1.092546 -0.028023 -0.440957 0.011769 -0.004255
    36 -0.249534 -2.846964 -0.174213 -0.842445 0.089328 0.502056
    37 0.043235 -1.656596 0.060855 -1.618932 -0.023831 0.011015
    38 0.031729 -1.137392 0.051025 -1.351253 -0.015082 0.007581
    39 -0.963866 -2.785145 -0.085350 -0.391242 0.243460 0.427445
    40 0.028479 -1.406973 -0.021074 -1.092231 -0.030645 -0.036337
    41 0.021413 -0.938249 0.008327 -1.221799 -0.036397 -0.037212
    42 1.164475 -2.543940 -0.170330 -1.131105 -0.277926 0.648745
    43 0.024032 -1.152480 -0.009538 -1.452510 0.031304 0.066983
    44 0.014898 -0.899614 -0.015942 -0.858363 0.004386 0.043444
    45 -0.586770 -1.264477 0.200161 -0.004477 0.016935 -2.138016
    46 1.546273 0.039149 0.009035 0.229586 0.005865 0.576088
    47 1.114041 0.048424 -0.005766 0.036585 0.173291 -0.079292
    48 -0.139399 -0.111698 0.014397 0.285382 -0.030687 1.580508
    49 -7.346777 4.456231 -0.423032 1.576202 -0.028572 -0.636176
  time 15
    0 0.094741 -0.096728 -4.160816 1.565931 -0.157078 -1.520213
    1 2.233774 0.695171 0.000000 0.000000 0.000000 0.000000
    2 6.733442 -0.196285 0.641147 0.000000 0.000000 0.000000
    3 6.676370 -1.361634 0.000000 0.000000 0.000000 -0.000652
    4 6.664584 2.139774 -0.388086 0.000000 1.570451 0.000000
    5 6.664583 2.139775 0.389469 3.141592 1.570787 0.000000
    6 5.904568 2.208994 -0.000001 -1.570796 0.000000 1.570796
    7 5.904569 2.109217 0.000000 1.570797 0.000000 1.570796
    8 5.083455 2.900139 0.000000 0.000000 0.000000 0.000000
    9 6.826621 2.896115 -0.002619 0.000000 -1.570451 0.000000
    10 0.002616 0.001794 0.000000 0.000000 0.000000 0.000000
    11 -0.002752 -0.001265 -0.003287 0.000000 0.000000 0.000000
    12 6.638147 3.341275 -7.905473 0.588215 -1.814190 -1.265144
    13 7.874569 -1.097091 -0.399814 -1.568932 -0.028572 -3.200059
    14 -0.095359 -8.588583 -0.143198 0.680559 0.094094 0.129507
    15 -0.488518 -2.755602 -0.228260 -1.298350 0.189322 -0.563158
    16 0.039887 -1.522760 0.010322 -1.322195 -0.013315 0.028824
    17 0.028786 -1.114795 -0.093424 -0.619026 -0.011889 0.011289
    18 0.250027 -2.820665 -0.238396 -1.050916 0.227243 -0.420355
    19 -0.049759 -1.602417 0.049696 -1.314758 -0.064885 -0.044525
    20 -0.030236 -1.171750 0.045718 -1.205284 -0.118072 -0.078427
    21 0.957766 -2.746780 -0.090302 -0.092628 -0.150640 0.125858
    22 -0.033420 -1.393223 -0.019070 -0.600109 0.008389 -0.029363
    23 -0.022360 -0.961342 -0.004654 -0.961139 0.004159 -0.046692
    24 -1.180681 -2.507217 -0.193859 -1.675178 0.258966 -0.570879
    25 -0.024967 -1.123934 0.017597 -0.442062 0.101390 0.095962
    26 -0.020057 -0.902687 0.021809 -0.661508 0.007994 -0.025791
    27 0.583510 -1.197277 0.185379 0.245968 -0.714739 -0.750502
    28 1.504676 -0.173353 0.067511 0.291210 -0.168203 -0.611852
    29 1.065614 -0.128290 0.028385 -0.243734 -0.207444 -0.700792
    30 0.120153 -0.050270 -0.054489 0.287569 3.110905 1.561085
    31 -2.981789 -0.348298 -10.946930 0.749425 -3.941831 0.875559
    32 -0.110094 -8.438699 0.045324 -0.146754 -1.209446 0.039943
    33 0.447953 -2.798986 -0.200443 -1.097799 0.006143 0.545691
    34 -0.032909 -1.499736 0.036191 -1.658992 0.022711 -0.034070
    35 -0.027022 -1.092546 -0.028023 -0.440957 0.011769 -0.004255
    36 -0.249534 -2.846964 -0.174213 -0.842445 0.089328 0.502056
    37 0.043235 -1.656596 0.060855 -1.618932 -0.023831 0.011015
    38 0.031729 -1.137392 0.051025 -1.351253 -0.015082 0.007581
    39 -0.963866 -2.785145 -0.085350 -0.391242 0.243460 0.427445
    40 0.028479 -1.406973 -0.021074 -1.092231 -0.030645 -0.036337
    41 0.021413 -0.938249 0.008327 -1.221799 -0.036397 -0.037212
    42 1.164475 -2.543940 -0.170330 -1.131105 -0.277926 0.648745
    43 0.024032 -1.152480 -0.009538 -1.452510 0.031304 0.066983
    44 0.014898 -0.899614 -0.015942 -0.858363 0.004386 0.043444
    45 -0.586770 -1.264477 0.200161 -0.004477 0.016935 -2.138016
    46 1.546273 0.039149 0.009035 0.229586 0.005865 0.576088
    47 1.114041 0.048424 -0.005766 0.036585 0.173291 -0.079292
    48 -0.139399 -0.111698 0.014397 0.285382 -0.030687 1.580508
    49 -7.479593 4.178879 -0.426939 1.575531 -0.029338 -0.598659
  time 16
    0 0.102554 -0.022507 -4.125659 1.564592 -0.153064 -1.526587
    1 2.233774 0.695171 0.000000 0.000000 0.000000 0.000000
    2 6.733442 -0.196285 0.641147 0.000000 0.000000 0.000000
    3 6.676370 -1.361634 0.000000 0.000000 0.000000 -0.000652
    4 6.664584 2.139774 -0.388086 0.000000 1.570451 0.000000
    5 6.664583 2.139775 0.389469 3.141592 1.570787 0.000000
    6 5.904568 2.208994 -0.000001 -1.570796 0.000000 1.570796
    7 5.904569 2.109217 0.000000 1.570797 0.000000 1.570796
    8 5.083455 2.900139 0.000000 0.000000 0.000000 0.000000
    9 6.826621 2.896115 -0.002619 0.000000 -1.570451 0.000000
    10 0.002616 0.001794 0.000000 0.000000 0.000000 0.000000
    11 -0.002752 -0.001265 -0.003287 0.000000 0.000000 0.000000
    12 6.688930 3.360807 -7.893754 0.578751 -1.819469 -1.265526
    13 7.855038 -1.179125 -0.399814 -1.568741 -0.028668 -3.210765
    14 -0.095359 -8.588583 -0.143198 0.685187 0.102466 0.126214
    15 -0.488518 -2.755602 -0.228260 -1.298350 0.189322 -0.563158
    16 0.039887 -1.522760 0.010322 -1.322195 -0.013315 0.028824
    17 0.028786 -1.114795 -0.093424 -0.619026 -0.011889 0.011289
    18 0.250027 -2.820665 -0.238396 -1.050916 0.227243 -0.420355
    19 -0.049759 -1.602417 0.049696 -1.314758 -0.064885 -0.044525
    20 -0.030236 -1.171750 0.045718 -1.205284 -0.118072 -0.078427
    21 0.957766 -2.746780 -0.090302 -0.092628 -0.150640 0.125858
    22 -0.033420 -1.393223 -0.019070 -0.600109 0.008389 -0.029363
    23 -0.022360 -0.961342 -0.004654 -0.961139 0.004159 -0.046692
    24 -1.180681 -2.507217 -0.193859 -1.675178 0.258966 -0.570879
    25 -0.024967 -1.123934 0.017597 -0.442076 0.101390 0.095962
    26 -0.020057 -0.902687 0.021809 -0.661508 0.007994 -0.025791
    27 0.583510 -1.197277 0.185379 0.245968 -0.714739 -0.750502
    28 1.504676 -0.173353 0.067511 0.291210 -0.168203 -0.611852
    29 1.065614 -0.128290 0.028385 -0.243734 -0.207444 -0.700792
    30 0.120153 -0.050270 -0.054489 0.287569 3.110905 1.561085
    31 -3.028666 -0.293609 -11.001619 0.757417 -3.935555 0.881823
    32 -0.110094 -8.438699 0.045324 -0.150293 -1.207523 0.057445
    33 0.447953 -2.798986 -0.200443 -1.097799 0.006143 0.545691
    34 -0.032909 -1.499736 0.036191 -1.658992 0.022711 -0.034070
    35 -0.027022 -1.092546 -0.028023 -0.440957 0.011769 -0.004255
    36 -0.249534 -2.846964 -0.174213 -0.842445 0.089328 0.502056
    37 0.043235 -1.656596 0.060855 -1.618932 -0.023831 0.011015
    38 0.031729 -1.137392 0.051025 -1.351253 -0.015082 0.007581
    39 -0.963866 -2.785145 -0.085350 -0.391242 0.243460 0.427445
    40 0.028479 -1.406973 -0.021074 -1.092231 -0.030645 -0.036337
    41 0.021413 -0.938249 0.008327 -1.221799 -0.036397 -0.037212
    42 1.164475 -2.543940 -0.170330 -1.131105 -0.277926 0.648745
    43 0.024032 -1.152480 -0.009538 -1.452510 0.031304 0.066983
    44 0.014898 -0.899614 -0.015942 -0.858363 0.004374 0.043444
    45 -0.586770 -1.264477 0.200161 -0.004477 0.016935 -2.138016
    46 1.546273 0.039149 0.009035 0.229586 0.005865 0.576088
    47 1.114041 0.048424 -0.005766 0.036585 0.173291 -0.079292
    48 -0.139399 -0.111698 0.014397 0.285382 -0.030687 1.580508
    49 -7.557721 4.006998 -0.430845 1.575147 -0.029816 -0.575653
  time 17
    0 0.122085 0.043901 -4.055344 1.566313 -0.143507 -1.536251
    1 2.233774 0.695171 0.000000 0.000000 0.000000 0.000000
    2 6.733442 -0.196285 0.641147 0.000000 0.000000 0.000000
    3 6.676370 -1.361634 0.000000 0.000000 0.000000 -0.000652
    4 6.664584 2.139774 -0.388086 0.000000 1.570451 0.000000
    5 6.664583 2.139775 0.389469 3.141592 1.570787 0.000000
    6 5.904568 2.208994 -0.000001 -1.570796 0.000000 1.570796
    7 5.904569 2.109217 0.000000 1.570797 0.000000 1.570796
    8 5.083455 2.900139 0.000000 0.000000 0.000000 0.000000
    9 6.826621 2.896115 -0.002619 0.000000 -1.570451 0.000000
    10 0.002616 0.001794 0.000000 0.000000 0.000000 0.000000
    11 -0.002752 -0.001265 -0.003287 0.000000 0.000000 0.000000
    12 6.720181 3.403777 -7.882035 0.590987 -1.821198 -1.283800
    13 7.827693 -1.288503 -0.403721 -1.568549 -0.028859 -3.224490
    14 -0.095359 -8.588583 -0.143198 0.681239 0.108371 0.114844
    15 -0.488518 -2.755602 -0.228260 -1.298350 0.189322 -0.563158
    16 0.039887 -1.522760 0.010322 -1.322195 -0.013315 0.028824
    17 0.028786 -1.114795 -0.093424 -0.619026 -0.011889 0.011289
    18 0.250027 -2.820665 -0.238396 -1.050916 0.227243 -0.420355
    19 -0.049759 -1.602417 0.049696 -1.314758 -0.064885 -0.044525
    20 -0.030236 -1.171750 0.045718 -1.205284 -0.118072 -0.078427
    21 0.957766 -2.746780 -0.090302 -0.092628 -0.150640 0.125858
    22 -0.033420 -1.393223 -0.019070 -0.600109 0.008389 -0.029363
    23 -0.022360 -0.961342 -0.004654 -0.961139 0.004159 -0.046692
    24 -1.180681 -2.507217 -0.193859 -1.675178 0.258966 -0.570879
    25 -0.024967 -1.123934 0.017597 -0.442076 0.101390 0.095962
    26 -0.020057 -0.902687 0.021809 -0.661508 0.007994 -0.025791
    27 0.583510 -1.197277 0.185379 0.245968 -0.714739 -0.750502
    28 1.504676 -0.173353 0.067511 0.291210 -0.168203 -0.611852
    29 1.065614 -0.128290 0.028385 -0.243734 -0.207444 -0.700792
    30 0.120153 -0.050270 -0.054489 0.287569 3.110905 1.561085
    31 -3.083355 -0.223294 -11.064121 0.765092 -3.928881 0.888182
    32 -0.114000 -8.438699 0.045324 -0.150668 -1.208269 0.078688
    33 0.447953 -2.798986 -0.200443 -1.097799 0.006143 0.545691
    34 -0.032909 -1.499736 0.036191 -1.658992 0.022711 -0.034070
    35 -0.027022 -1.092546 -0.028023 -0.440957 0.011769 -0.004255
    36 -0.249534 -2.846964 -0.174213 -0.842445 0.089328 0.502056
    37 0.043235 -1.656596 0.060855 -1.618932 -0.023831 0.011015
    38 0.031729 -1.137392 0.051025 -1.351253 -0.015082 0.007581
    39 -0.963866 -2.785145 -0.085350 -0.391242 0.243460 0.427445
    40 0.028479 -1.406973 -0.021074 -1.092231 -0.030645 -0.036337
    41 0.021413 -0.938249 0.008327 -1.221799 -0.036397 -0.037212
    42 1.164475 -2.543940 -0.170330 -1.131105 -0.277926 0.648745
    43 0.024032 -1.152480 -0.009538 -1.452510 0.031304 0.066983
    44 0.014898 -0.899614 -0.015942 -0.858363 0.004386 0.043444
    45 -0.586770 -1.264477 0.200161 -0.004477 0.016935 -2.138016
    46 1.546273 0.039149 0.009035 0.229586 0.005865 0.576088
    47 1.114041 0.048424 -0.005766 0.036585 0.173291 -0.079292
    48 -0.139399 -0.111698 0.014397 0.285382 -0.030687 1.580508
    49 -7.643661 3.799961 -0.434751 1.574668 -0.030295 -0.548732
  time 18
    0 0.137711 0.102497 -3.985029 1.569182 -0.132707 -1.545778
    1 2.233774 0.695171 0.000000 0.000000 0.000000 0.000000
    2 6.733442 -0.196285 0.641147 0.000000 0.000000 0.000000
    3 6.676370 -1.361634 0.000000 0.000000 0.000000 -0.000652
    4 6.664584 2.139774 -0.388086 0.000000 1.570451 0.000000
    5 6.664583 2.139775 0.389469 3.141592 1.570787 0.000000
    6 5.904568 2.208994 -0.000001 -1.570796 0.000000 1.570796
    7 5.904569 2.109217 0.000000 1.570797 0.000000 1.570796
    8 5.083455 2.900139 0.000000 0.000000 0.000000 0.000000
    9 6.826621 2.896115 -0.002619 0.000000 -1.570451 0.000000
    10 0.002616 0.001794 0.000000 0.000000 0.000000 0.000000
    11 -0.002752 -0.001265 -0.003287 0.000000 0.000000 0.000000
    12 6.735806 3.450653 -7.874222 0.610105 -1.821016 -1.306475
    13 7.800348 -1.386163 -0.403721 -1.568357 -0.029051 -3.237025
    14 -0.095359 -8.584677 -0.143198 0.674220 0.112240 0.101571
    15 -0.488518 -2.755602 -0.228260 -1.298350 0.189322 -0.563158
    16 0.039887 -1.522760 0.010322 -1.322195 -0.013315 0.028824
    17 0.028786 -1.114795 -0.093424 -0.619026 -0.011889 0.011289
    18 0.250027 -2.820665 -0.238396 -1.050916 0.227243 -0.420355
    19 -0.049759 -1.602417 0.049696 -1.314758 -0.064885 -0.044525
    20 -0.030236 -1.171750 0.045718 -1.205284 -0.118072 -0.078427
    21 0.957766 -2.746780 -0.090302 -0.092628 -0.150640 0.125858
    22 -0.033420 -1.393223 -0.019070 -0.600109 0.008389 -0.029363
    23 -0.022360 -0.961342 -0.004654 -0.961139 0.004159 -0.046692
    24 -1.180681 -2.507217 -0.193859 -1.675178 0.258966 -0.570879
    25 -0.024967 -1.123934 0.017597 -0.442076 0.101390 0.095962
    26 -0.020057 -0.902687 0.021809 -0.661508 0.007994 -0.025791
    27 0.583510 -1.197277 0.185379 0.245968 -0.714739 -0.750502
    28 1.504676 -0.173353 0.067511 0.291210 -0.168203 -0.611852
    29 1.065614 -0.128290 0.028385 -0.243734 -0.207444 -0.700792
    30 0.120153 -0.050270 -0.054489 0.287569 3.110905 1.561085
    31 -3.130231 -0.160793 -11.126623 0.771118 -3.923241 0.893117
    32 -0.114000 -8.442606 0.045324 -0.149752 -1.210249 0.098434
    33 0.447953 -2.798986 -0.200443 -1.097799 0.006143 0.545691
    34 -0.032909 -1.499736 0.036191 -1.658992 0.022711 -0.034070
    35 -0.027022 -1.092546 -0.028023 -0.440957 0.011769 -0.004255
    36 -0.249534 -2.846964 -0.174213 -0.842445 0.089328 0.502056
    37 0.043235 -1.656596 0.060855 -1.618932 -0.023831 0.011015
    38 0.031729 -1.137392 0.051025 -1.351253 -0.015082 0.007581
    39 -0.963866 -2.785145 -0.085350 -0.391242 0.243460 0.427445
    40 0.028479 -1.406973 -0.021074 -1.092231 -0.030645 -0.036337
    41 0.021413 -0.938249 0.008327 -1.221799 -0.036397 -0.037212
    42 1.164475 -2.543940 -0.170330 -1.131105 -0.277926 0.648745
    43 0.024032 -1.152480 -0.009538 -1.452510 0.031304 0.066983
    44 0.014898 -0.899614 -0.015942 -0.858363 0.004374 0.043444
    45 -0.586770 -1.264477 0.200161 -0.004477 0.016935 -2.138016
    46 1.546273 0.039149 0.009035 0.229586 0.005865 0.576088
    47 1.114041 0.048424 -0.005766 0.036585 0.173291 -0.079292
    48 -0.139399 -0.111698 0.014397 0.285382 -0.030687 1.580508
    49 -7.717882 3.612455 -0.438658 1.574189 -0.030774 -0.524293
  time 19
    0 0.149430 0.133747 -3.942059 1.571190 -0.124870 -1.551672
    1 2.233774 0.695171 0.000000 0.000000 0.000000 0.000000
    2 6.733442 -0.196285 0.641147 0.000000 0.000000 0.000000
    3 6.676370 -1.361634 0.000000 0.000000 0.000000 -0.000652
    4 6.664584 2.139774 -0.388086 0.000000 1.570451 0.000000
    5 6.664583 2.139775 0.389469 3.141592 1.570787 0.000000
    6 5.904568 2.208994 -0.000001 -1.570796 0.000000 1.570796
    7 5.904569 2.109217 0.000000 1.570797 0.000000 1.570796
    8 5.083455 2.900139 0.000000 0.000000 0.000000 0.000000
    9 6.826621 2.896115 -0.002619 0.000000 -1.570451 0.000000
    10 0.002616 0.001794 0.000000 0.000000 0.000000 0.000000
    11 -0.002752 -0.001265 -0.003287 0.000000 0.000000 0.000000
    12 6.743619 3.485810 -7.870316 0.622054 -1.820197 -1.320539
    13 7.784723 -1.448664 -0.403721 -1.568165 -0.029147 -3.244619
    14 -0.095359 -8.580770 -0.139291 0.669635 0.114525 0.092722
    15 -0.488518 -2.755602 -0.228260 -1.298350 0.189322 -0.563158
    16 0.039887 -1.522760 0.010322 -1.322195 -0.013315 0.028824
    17 0.028786 -1.114795 -0.093424 -0.619026 -0.011889 0.011289
    18 0.250027 -2.820665 -0.238396 -1.050916 0.227243 -0.420355
    19 -0.049759 -1.602417 0.049696 -1.314758 -0.064885 -0.044525
    20 -0.030236 -1.171750 0.045718 -1.205284 -0.118072 -0.078427
    21 0.957766 -2.746780 -0.090302 -0.092628 -0.150640 0.125858
    22 -0.033420 -1.393223 -0.019070 -0.600109 0.008389 -0.029363
    23 -0.022360 -0.961342 -0.004654 -0.961139 0.004159 -0.046692
    24 -1.180681 -2.507217 -0.193859 -1.675178 0.258966 -0.570879
    25 -0.024967 -1.123934 0.017597 -0.442076 0.101390 0.095962
    26 -0.020057 -0.902687 0.021809 -0.661508 0.007994 -0.025791
    27 0.583510 -1.197277 0.185379 0.245968 -0.714739 -0.750502
    28 1.504676 -0.173353 0.067511 0.291210 -0.168203 -0.611852
    29 1.065614 -0.128290 0.028385 -0.243734 -0.207444 -0.700792
    30 0.120153 -0.050270 -0.054489 0.287569 3.110905 1.561085
    31 -3.161482 -0.113916 -11.169593 0.774036 -3.920063 0.895679
    32 -0.114000 -8.442606 0.045324 -0.149335 -1.212000 0.111239
    33 0.447953 -2.798986 -0.200443 -1.097799 0.006143 0.545691
    34 -0.032909 -1.499736 0.036191 -1.658992 0.022711 -0.034070
    35 -0.027022 -1.092546 -0.028023 -0.440957 0.011769 -0.004255
    36 -0.249534 -2.846964 -0.174213 -0.842445 0.089328 0.502056
    37 0.043235 -1.656596 0.060855 -1.618932 -0.023831 0.011015
    38 0.031729 -1.137392 0.051025 -1.351253 -0.015082 0.007581
    39 -0.963866 -2.785145 -0.085350 -0.391242 0.243460 0.427445
    40 0.028479 -1.406973 -0.021074 -1.092231 -0.030645 -0.036337
    41 0.021413 -0.938249 0.008327 -1.221799 -0.036397 -0.037212
    42 1.164475 -2.543940 -0.170330 -1.131105 -0.277926 0.648745
    43 0.024032 -1.152480 -0.009538 -1.452510 0.031304 0.066983
    44 0.014898 -0.899614 -0.015942 -0.858363 0.004374 0.043444
    45 -0.586770 -1.264477 0.200161 -0.004477 0.016935 -2.138016
    46 1.546273 0.039149 0.009035 0.229586 0.005865 0.576088
    47 1.114041 0.048424 -0.005766 0.036585 0.173291 -0.079292
    48 -0.139399 -0.111698 0.014397 0.285382 -0.030687 1.580508
    49 -7.760852 3.491358 -0.438658 1.573901 -0.031061 -0.508542
  time 20
    0 0.149430 0.145467 -3.930340 1.572242 -0.120665 -1.553728
    1 2.233774 0.695171 0.000000 0.000000 0.000000 0.000000
    2 6.733442 -0.196285 0.641147 0.000000 0.000000 0.000000
    3 6.676370 -1.361634 0.000000 0.000000 0.000000 -0.000652
    4 6.664584 2.139774 -0.388086 0.000000 1.570451 0.000000
    5 6.664583 2.139775 0.389469 3.141592 1.570787 0.000000
    6 5.904568 2.208994 -0.000001 -1.570796 0.000000 1.570796
    7 5.904569 2.109217 0.000000 1.570797 0.000000 1.570796
    8 5.083455 2.900139 0.000000 0.000000 0.000000 0.000000
    9 6.826621 2.896115 -0.002619 0.000000 -1.570451 0.000000
    10 0.002616 0.001794 0.000000 0.000000 0.000000 0.000000
    11 -0.002752 -0.001265 -0.003287 0.000000 0.000000 0.000000
    12 6.747525 3.501436 -7.870316 0.624635 -1.819105 -1.324175
    13 7.780817 -1.464290 -0.403721 -1.568165 -0.029147 -3.246998
    14 -0.095359 -8.580770 -0.139291 0.668319 0.115543 0.089120
    15 -0.488518 -2.755602 -0.228260 -1.298350 0.189322 -0.563158
    16 0.039887 -1.522760 0.010322 -1.322195 -0.013315 0.028824
    17 0.028786 -1.114795 -0.093424 -0.619026 -0.011889 0.011289
    18 0.250027 -2.820665 -0.238396 -1.050916 0.227243 -0.420355
    19 -0.049759 -1.602417 0.049696 -1.314758 -0.064885 -0.044525
    20 -0.030236 -1.171750 0.045718 -1.205284 -0.118072 -0.078427
    21 0.957766 -2.746780 -0.090302 -0.092628 -0.150640 0.125858
    22 -0.033420 -1.393223 -0.019070 -0.600109 0.008389 -0.029363
    23 -0.022360 -0.961342 -0.004654 -0.961139 0.004159 -0.046692
    24 -1.180681 -2.507217 -0.193859 -1.675178 0.258966 -0.570879
    25 -0.024967 -1.123934 0.017597 -0.442076 0.101390 0.095962
    26 -0.020057 -0.902687 0.021809 -0.661508 0.007994 -0.025791
    27 0.583510 -1.197277 0.185379 0.245968 -0.714739 -0.750502
    28 1.504676 -0.173353 0.067511 0.291210 -0.168203 -0.611852
    29 1.065614 -0.128290 0.028385 -0.243734 -0.207444 -0.700792
    30 0.120153 -0.050270 -0.054489 0.287569 3.110905 1.561085
    31 -3.177108 -0.094384 -11.193031 0.774100 -3.919268 0.895869
    32 -0.117906 -8.442606 0.045324 -0.149502 -1.213292 0.116684
    33 0.447953 -2.798986 -0.200443 -1.097799 0.006143 0.545691
    34 -0.032909 -1.499736 0.036191 -1.658992 0.022711 -0.034070
    35 -0.027022 -1.092546 -0.028023 -0.440957 0.011769 -0.004255
    36 -0.249534 -2.846964 -0.174213 -0.842445 0.089328 0.502056
    37 0.043235 -1.656596 0.060855 -1.618932 -0.023831 0.011015
    38 0.031729 -1.137392 0.051025 -1.351253 -0.015082 0.007581
    39 -0.963866 -2.785145 -0.085350 -0.391242 0.243460 0.427445
    40 0.028479 -1.406973 -0.021074 -1.092231 -0.030645 -0.036337
    41 0.021413 -0.938249 0.008327 -1.221799 -0.036397 -0.037212
    42 1.164475 -2.543940 -0.170330 -1.131105 -0.277926 0.648745
    43 0.024032 -1.152480 -0.009538 -1.452510 0.031304 0.066983
    44 0.014898 -0.899614 -0.015942 -0.858363 0.004374 0.043444
    45 -0.586770 -1.264477 0.200161 -0.004477 0.016935 -2.138016
    46 1.546273 0.039149 0.009035 0.229586 0.005865 0.576088
    47 1.114041 0.048424 -0.005766 0.036585 0.173291 -0.079292
    48 -0.139399 -0.111698 0.014397 0.285382 -0.030687 1.580508
    49 -7.780384 3.436669 -0.442564 1.573805 -0.031252 -0.501669
  time 21
    0 0.145524 0.145467 -3.930340 1.573103 -0.117511 -1.554140
    1 2.233774 0.695171 0.000000 0.000000 0.000000 0.000000
    2 6.733442 -0.196285 0.641147 0.000000 0.000000 0.000000
    3 6.676370 -1.361634 0.000000 0.000000 0.000000 -0.000652
    4 6.664584 2.139774 -0.388086 0.000000 1.570451 0.000000
    5 6.664583 2.139775 0.389469 3.141592 1.570787 0.000000
    6 5.904568 2.208994 -0.000001 -1.570796 0.000000 1.570796
    7 5.904569 2.109217 0.000000 1.570797 0.000000 1.570796
    8 5.083455 2.900139 0.000000 0.000000 0.000000 0.000000
    9 6.826621 2.896115 -0.002619 0.000000 -1.570451 0.000000
    10 0.002616 0.001794 0.000000 0.000000 0.000000 0.000000
    11 -0.002752 -0.001265 -0.003287 0.000000 0.000000 0.000000
    12 6.743619 3.509249 -7.870316 0.625687 -1.817194 -1.325036
    13 7.780817 -1.464290 -0.403721 -1.568165 -0.029147 -3.246998
    14 -0.095359 -8.580770 -0.139291 0.667420 0.115430 0.087045
    15 -0.488518 -2.755602 -0.228260 -1.298350 0.189322 -0.563158
    16 0.039887 -1.522760 0.010322 -1.322195 -0.013315 0.028824
    17 0.028786 -1.114795 -0.093424 -0.619026 -0.011889 0.011289
    18 0.250027 -2.820665 -0.238396 -1.050916 0.227243 -0.420355
    19 -0.049759 -1.602417 0.049696 -1.314758 -0.064885 -0.044525
    20 -0.030236 -1.171750 0.045718 -1.205284 -0.118072 -0.078427
    21 0.957766 -2.746780 -0.090302 -0.092628 -0.150640 0.125858
    22 -0.033420 -1.393223 -0.019070 -0.600109 0.008389 -0.029363
    23 -0.022360 -0.961342 -0.004654 -0.961139 0.004159 -0.046692
    24 -1.180681 -2.507217 -0.193859 -1.675178 0.258966 -0.570879
    25 -0.024967 -1.123934 0.017597 -0.442076 0.101390 0.095962
    26 -0.020057 -0.902687 0.021809 -0.661508 0.007994 -0.025791
    27 0.583510 -1.197277 0.185379 0.245968 -0.714739 -0.750502
    28 1.504676 -0.173353 0.067511 0.291210 -0.168203 -0.611852
    29 1.065614 -0.128290 0.028385 -0.243734 -0.207444 -0.700792
    30 0.120153 -0.050270 -0.054489 0.287569 3.110905 1.561085
    31 -3.181014 -0.078759 -11.208657 0.772577 -3.919825 0.894920
    32 -0.117906 -8.442606 0.045324 -0.149502 -1.214756 0.118763
    33 0.447953 -2.798986 -0.200443 -1.097799 0.006143 0.545691
    34 -0.032909 -1.499736 0.036191 -1.658992 0.022711 -0.034070
    35 -0.027022 -1.092546 -0.028023 -0.440957 0.011769 -0.004255
    36 -0.249534 -2.846964 -0.174213 -0.842445 0.089328 0.502056
    37 0.043235 -1.656596 0.060855 -1.618932 -0.023831 0.011015
    38 0.031729 -1.137392 0.051025 -1.351253 -0.015082 0.007581
    39 -0.963866 -2.785145 -0.085350 -0.391242 0.243460 0.427445
    40 0.028479 -1.406973 -0.021074 -1.092231 -0.030645 -0.036337
    41 0.021413 -0.938249 0.008327 -1.221799 -0.036397 -0.037212
    42 1.164475 -2.543940 -0.170330 -1.131105 -0.277926 0.648745
    43 0.024032 -1.152480 -0.009538 -1.452510 0.031304 0.066983
    44 0.014898 -0.899614 -0.015942 -0.858363 0.004374 0.043444
    45 -0.586770 -1.264477 0.200161 -0.004477 0.016935 -2.138016
    46 1.546273 0.039149 0.009035 0.229586 0.005865 0.576088
    47 1.114041 0.048424 -0.005766 0.036585 0.173291 -0.079292
    48 -0.139399 -0.111698 0.014397 0.285382 -0.030687 1.580508
    49 -7.788196 3.417137 -0.442564 1.573709 -0.031252 -0.498900
  time 22
    0 0.137711 0.133747 -3.938153 1.574059 -0.115122 -1.553454
    1 2.233774 0.695171 0.000000 0.000000 0.000000 0.000000
    2 6.733442 -0.196285 0.641147 0.000000 0.000000 0.000000
    3 6.676370 -1.361634 0.000000 0.000000 0.000000 -0.000652
    4 6.664584 2.139774 -0.388086 0.000000 1.570451 0.000000
    5 6.664583 2.139775 0.389469 3.141592 1.570787 0.000000
    6 5.904568 2.208994 -0.000001 -1.570796 0.000000 1.570796
    7 5.904569 2.109217 0.000000 1.570797 0.000000 1.570796
    8 5.083455 2.900139 0.000000 0.000000 0.000000 0.000000
    9 6.826621 2.896115 -0.002619 0.000000 -1.570451 0.000000
    10 0.002616 0.001794 0.000000 0.000000 0.000000 0.000000
    11 -0.002752 -0.001265 -0.003287 0.000000 0.000000 0.000000
    12 6.735806 3.513155 -7.874222 0.625687 -1.814828 -1.324079
    13 7.780817 -1.452571 -0.403721 -1.568165 -0.029147 -3.245351
    14 -0.095359 -8.580770 -0.139291 0.666784 0.114570 0.085999
    15 -0.488518 -2.755602 -0.228260 -1.298350 0.189322 -0.563158
    16 0.039887 -1.522760 0.010322 -1.322195 -0.013315 0.028824
    17 0.028786 -1.114795 -0.093424 -0.619026 -0.011889 0.011289
    18 0.250027 -2.820665 -0.238396 -1.050916 0.227243 -0.420355
    19 -0.049759 -1.602417 0.049696 -1.314758 -0.064885 -0.044525
    20 -0.030236 -1.171750 0.045718 -1.205284 -0.118072 -0.078427
    21 0.957766 -2.746780 -0.090302 -0.092628 -0.150640 0.125858
    22 -0.033420 -1.393223 -0.019070 -0.600109 0.008389 -0.029363
    23 -0.022360 -0.961342 -0.004654 -0.961139 0.004159 -0.046692
    24 -1.180681 -2.507217 -0.193859 -1.675178 0.258966 -0.570879
    25 -0.024967 -1.123934 0.017597 -0.442076 0.101390 0.095962
    26 -0.020057 -0.902687 0.021809 -0.661508 0.007994 -0.025791
    27 0.583510 -1.197277 0.185379 0.245968 -0.714739 -0.750502
    28 1.504676 -0.173353 0.067511 0.291210 -0.168203 -0.611852
    29 1.065614 -0.128290 0.028385 -0.243734 -0.207444 -0.700792
    30 0.120153 -0.050270 -0.054489 0.287569 3.110905 1.561085
    31 -3.184920 -0.074852 -11.216469 0.769977 -3.921175 0.893212
    32 -0.117906 -8.442606 0.045324 -0.149335 -1.216363 0.118555
    33 0.447953 -2.798986 -0.200443 -1.097799 0.006143 0.545691
    34 -0.032909 -1.499736 0.036191 -1.658992 0.022711 -0.034070
    35 -0.027022 -1.092546 -0.028023 -0.440957 0.011769 -0.004255
    36 -0.249534 -2.846964 -0.174213 -0.842445 0.089328 0.502056
    37 0.043235 -1.656596 0.060855 -1.618932 -0.023831 0.011015
    38 0.031729 -1.137392 0.051025 -1.351253 -0.015082 0.007581
    39 -0.963866 -2.785145 -0.085350 -0.391242 0.243460 0.427445
    40 0.028479 -1.406973 -0.021074 -1.092231 -0.030645 -0.036337
    41 0.021413 -0.938249 0.008327 -1.221799 -0.036397 -0.037212
    42 1.164475 -2.543940 -0.170330 -1.131105 -0.277926 0.648745
    43 0.024032 -1.152480 -0.009538 -1.452510 0.031304 0.066995
    44 0.014898 -0.899614 -0.015942 -0.858363 0.004374 0.043444
    45 -0.586770 -1.264477 0.200161 -0.004477 0.016935 -2.138016
    46 1.546273 0.039149 0.009035 0.229586 0.005865 0.576088
    47 1.114041 0.048424 -0.005766 0.036585 0.173291 -0.079292
    48 -0.139399 -0.111698 0.014397 0.285382 -0.030687 1.580508
    49 -7.788196 3.417137 -0.442564 1.573805 -0.031252 -0.498996
  time 23
    0 0.133805 0.122028 -3.949872 1.574919 -0.113019 -1.552289
    1 2.233774 0.695171 0.000000 0.000000 0.000000 0.000000
    2 6.733442 -0.196285 0.641147 0.000000 0.000000 0.000000
    3 6.676370 -1.361634 0.000000 0.000000 0.000000 -0.000652
    4 6.664584 2.139774 -0.388086 0.000000 1.570451 0.000000
    5 6.664583 2.139775 0.389469 3.141592 1.570787 0.000000
    6 5.904568 2.208994 -0.000001 -1.570796 0.000000 1.570796
    7 5.904569 2.109217 0.000000 1.570797 0.000000 1.570796
    8 5.083455 2.900139 0.000000 0.000000 0.000000 0.000000
    9 6.826621 2.896115 -0.002619 0.000000 -1.570451 0.000000
    10 0.002616 0.001794 0.000000 0.000000 0.000000 0.000000
    11 -0.002752 -0.001265 -0.003287 0.000000 0.000000 0.000000
    12 6.724087 3.517061 -7.878128 0.625113 -1.812279 -1.322070
    13 7.788629 -1.433039 -0.403721 -1.568165 -0.029147 -3.242972
    14 -0.095359 -8.580770 -0.139291 0.666279 0.113349 0.085468
    15 -0.488518 -2.755602 -0.228260 -1.298350 0.189322 -0.563158
    16 0.039887 -1.522760 0.010322 -1.322195 -0.013315 0.028824
    17 0.028786 -1.114795 -0.093424 -0.619026 -0.011889 0.011289
    18 0.250027 -2.820665 -0.238396 -1.050916 0.227243 -0.420355
    19 -0.049759 -1.602417 0.049696 -1.314758 -0.064885 -0.044525
    20 -0.030236 -1.171750 0.045718 -1.205284 -0.118072 -0.078427
    21 0.957766 -2.746780 -0.090302 -0.092628 -0.150640 0.125858
    22 -0.033420 -1.393223 -0.019070 -0.600109 0.008389 -0.029363
    23 -0.022360 -0.961342 -0.004654 -0.961139 0.004159 -0.046692
    24 -1.180681 -2.507217 -0.193859 -1.675178 0.258966 -0.570879
    25 -0.024967 -1.123934 0.017597 -0.442076 0.101390 0.095962
    26 -0.020057 -0.902687 0.021809 -0.661508 0.007994 -0.025791
    27 0.583510 -1.197277 0.185379 0.245968 -0.714739 -0.750502
    28 1.504676 -0.173353 0.067511 0.291210 -0.168203 -0.611852
    29 1.065614 -0.128290 0.028385 -0.243734 -0.207444 -0.700792
    30 0.120153 -0.050270 -0.054489 0.287569 3.110905 1.561085
    31 -3.181014 -0.070946 -11.224282 0.766805 -3.922923 0.891124
    32 -0.117906 -8.442606 0.041418 -0.149127 -1.218028 0.117225
    33 0.447953 -2.798986 -0.200443 -1.097799 0.006143 0.545691
    34 -0.032909 -1.499736 0.036191 -1.658992 0.022711 -0.034070
    35 -0.027022 -1.092546 -0.028023 -0.440957 0.011769 -0.004255
    36 -0.249534 -2.846964 -0.174213 -0.842445 0.089328 0.502056
    37 0.043235 -1.656596 0.060855 -1.618932 -0.023831 0.011015
    38 0.031729 -1.137392 0.051025 -1.351253 -0.015082 0.007581
    39 -0.963866 -2.785145 -0.085350 -0.391242 0.243460 0.427445
    40 0.028479 -1.406973 -0.021074 -1.092231 -0.030645 -0.036337
    41 0.021413 -0.938249 0.008327 -1.221799 -0.036397 -0.037212
    42 1.164475 -2.543940 -0.170330 -1.131105 -0.277926 0.648745
    43 0.024032 -1.152480 -0.009538 -1.452510 0.031304 0.066983
    44 0.014898 -0.899614 -0.015942 -0.858363 0.004374 0.043444
    45 -0.586770 -1.264477 0.200161 -0.004477 0.016935 -2.138016
    46 1.546273 0.039149 0.009035 0.229586 0.005865 0.576088
    47 1.114041 0.048424 -0.005766 0.036585 0.173291 -0.079292
    48 -0.139399 -0.111698 0.014397 0.285382 -0.030687 1.580508
    49 -7.784290 3.428856 -0.442564 1.573805 -0.031252 -0.500428
  time 24
    0 0.125992 0.106403 -3.961591 1.575780 -0.110917 -1.551124
    1 2.233774 0.695171 0.000000 0.000000 0.000000 0.000000
    2 6.733442 -0.196285 0.641147 0.000000 0.000000 0.000000
    3 6.676370 -1.361634 0.000000 0.000000 0.000000 -0.000652
    4 6.664584 2.139774 -0.388086 0.000000 1.570451 0.000000
    5 6.664583 2.139775 0.389469 3.141592 1.570787 0.000000
    6 5.904568 2.208994 -0.000001 -1.570796 0.000000 1.570796
    7 5.904569 2.109217 0.000000 1.570797 0.000000 1.570796
    8 5.083455 2.900139 0.000000 0.000000 0.000000 0.000000
    9 6.826621 2.896115 -0.002619 0.000000 -1.570451 0.000000
    10 0.002616 0.001794 0.000000 0.000000 0.000000 0.000000
    11 -0.002752 -0.001265 -0.003287 0.000000 0.000000 0.000000
    12 6.712368 3.524874 -7.882035 0.624444 -1.809731 -1.320061
    13 7.792536 -1.417413 -0.403721 -1.568261 -0.029051 -3.240593
    14 -0.095359 -8.580770 -0.139291 0.665775 0.112104 0.084936
    15 -0.488518 -2.755602 -0.228260 -1.298350 0.189322 -0.563158
    16 0.039887 -1.522760 0.010322 -1.322195 -0.013315 0.028824
    17 0.028786 -1.114795 -0.093424 -0.619026 -0.011889 0.011289
    18 0.250027 -2.820665 -0.238396 -1.050916 0.227243 -0.420355
    19 -0.049759 -1.602417 0.049696 -1.314758 -0.064885 -0.044525
    20 -0.030236 -1.171750 0.045718 -1.205284 -0.118072 -0.078427
    21 0.957766 -2.746780 -0.090302 -0.092628 -0.150640 0.125858
    22 -0.033420 -1.393223 -0.019070 -0.600109 0.008389 -0.029363
    23 -0.022360 -0.961342 -0.004654 -0.961139 0.004159 -0.046692
    24 -1.180681 -2.507217 -0.193859 -1.675178 0.258966 -0.570879
    25 -0.024967 -1.123934 0.017597 -0.442076 0.101390 0.095962
    26 -0.020057 -0.902687 0.021809 -0.661508 0.007994 -0.025791
    27 0.583510 -1.197277 0.185379 0.245968 -0.714739 -0.750502
    28 1.504676 -0.173353 0.067511 0.291210 -0.168203 -0.611852
    29 1.065614 -0.128290 0.028385 -0.243734 -0.207444 -0.700792
    30 0.120153 -0.050270 -0.054489 0.287569 3.110905 1.561085
    31 -3.181014 -0.070946 -11.232095 0.763697 -3.924671 0.889036
    32 -0.117906 -8.442606 0.041418 -0.148919 -1.219693 0.115895
    33 0.447953 -2.798986 -0.200443 -1.097799 0.006143 0.545691
    34 -0.032909 -1.499736 0.036191 -1.658992 0.022711 -0.034070
    35 -0.027022 -1.092546 -0.028023 -0.440957 0.011769 -0.004255
    36 -0.249534 -2.846964 -0.174213 -0.842445 0.089328 0.502056
    37 0.043235 -1.656596 0.060855 -1.618932 -0.023831 0.011015
    38 0.031729 -1.137392 0.051025 -1.351253 -0.015082 0.007581
    39 -0.963866 -2.785145 -0.085350 -0.391242 0.243460 0.427445
    40 0.028479 -1.406973 -0.021074 -1.092231 -0.030645 -0.036337
    41 0.021413 -0.938249 0.008327 -1.221799 -0.036397 -0.037212
    42 1.164475 -2.543940 -0.170330 -1.131105 -0.277926 0.648745
    43 0.024032 -1.152480 -0.009538 -1.452510 0.031304 0.066983
    44 0.014898 -0.899614 -0.015942 -0.858363 0.004374 0.043444
    45 -0.586770 -1.264477 0.200161 -0.004477 0.016935 -2.138016
    46 1.546273 0.039149 0.009035 0.229586 0.005865 0.576088
    47 1.114041 0.048424 -0.005766 0.036585 0.173291 -0.079292
    48 -0.139399 -0.111698 0.014397 0.285382 -0.030687 1.580508
    49 -7.780384 3.440575 -0.442564 1.573805 -0.031157 -0.501859
  time 25
    0 0.122085 0.098590 -3.969404 1.576736 -0.108623 -1.550439
    1 2.233774 0.695171 0.000000 0.000000 0.000000 0.000000
    2 6.733442 -0.196285 0.641147 0.000000 0.000000 0.000000
    3 6.676370 -1.361634 0.000000 0.000000 0.000000 -0.000652
    4 6.664584 2.139774 -0.388086 0.000000 1.570451 0.000000
    5 6.664583 2.139775 0.389469 3.141592 1.570787 0.000000
    6 5.904568 2.208994 -0.000001 -1.570796 0.000000 1.570796
    7 5.904569 2.109217 0.000000 1.570797 0.000000 1.570796
    8 5.083455 2.900139 0.000000 0.000000 0.000000 0.000000
    9 6.826621 2.896115 -0.002619 0.000000 -1.570451 0.000000
    10 0.002616 0.001794 0.000000 0.000000 0.000000 0.000000
    11 -0.002752 -0.001265 -0.003287 0.000000 0.000000 0.000000
    12 6.704555 3.528780 -7.882035 0.624349 -1.807365 -1.319009
    13 7.796442 -1.401788 -0.403721 -1.568261 -0.029051 -3.239038
    14 -0.095359 -8.580770 -0.139291 0.665139 0.111267 0.083890
    15 -0.488518 -2.755602 -0.228260 -1.298350 0.189322 -0.563158
    16 0.039887 -1.522760 0.010322 -1.322195 -0.013315 0.028824
    17 0.028786 -1.114795 -0.093424 -0.619026 -0.011889 0.011289
    18 0.250027 -2.820665 -0.238396 -1.050916 0.227243 -0.420355
    19 -0.049759 -1.602417 0.049696 -1.314758 -0.064885 -0.044525
    20 -0.030236 -1.171750 0.045718 -1.205284 -0.118072 -0.078427
    21 0.957766 -2.746780 -0.090302 -0.092628 -0.150640 0.125858
    22 -0.033420 -1.393223 -0.019070 -0.600109 0.008389 -0.029363
    23 -0.022360 -0.961342 -0.004654 -0.961139 0.004159 -0.046692
    24 -1.180681 -2.507217 -0.193859 -1.675178 0.258966 -0.570879
    25 -0.024967 -1.123934 0.017597 -0.442076 0.101390 0.095962
    26 -0.020057 -0.902687 0.021809 -0.661508 0.007994 -0.025791
    27 0.583510 -1.197277 0.185379 0.245968 -0.714739 -0.750502
    28 1.504676 -0.173353 0.067511 0.291210 -0.168203 -0.611852
    29 1.065614 -0.128290 0.028385 -0.243734 -0.207444 -0.700792
    30 0.120153 -0.050270 -0.054489 0.287569 3.110905 1.561085
    31 -3.181014 -0.063133 -11.243814 0.761096 -3.926021 0.887233
    32 -0.117906 -8.442606 0.041418 -0.148794 -1.221272 0.115687
    33 0.447953 -2.798986 -0.200443 -1.097799 0.006143 0.545691
    34 -0.032909 -1.499736 0.036191 -1.658992 0.022711 -0.034070
    35 -0.027022 -1.092546 -0.028023 -0.440957 0.011769 -0.004255
    36 -0.249534 -2.846964 -0.174213 -0.842445 0.089328 0.502056
    37 0.043235 -1.656596 0.060855 -1.618932 -0.023831 0.011015
    38 0.031729 -1.137392 0.051025 -1.351253 -0.015082 0.007581
    39 -0.963866 -2.785145 -0.085350 -0.391242 0.243460 0.427445
    40 0.028479 -1.406973 -0.021074 -1.092231 -0.030645 -0.036337
    41 0.021413 -0.938249 0.008327 -1.221799 -0.036397 -0.037212
    42 1.164475 -2.543940 -0.170330 -1.131105 -0.277926 0.648745
    43 0.024032 -1.152480 -0.009538 -1.452510 0.031304 0.066983
    44 0.014898 -0.899614 -0.015942 -0.858363 0.004386 0.043444
    45 -0.586770 -1.264477 0.200161 -0.004477 0.016935 -2.138016
    46 1.546273 0.039149 0.009035 0.229586 0.005865 0.576088
    47 1.114041 0.048424 -0.005766 0.036585 0.173291 -0.079292
    48 -0.139399 -0.111698 0.014397 0.285382 -0.030687 1.580508
    49 -7.780384 3.440575 -0.442564 1.573805 -0.031157 -0.501955
end
