// Created by Crowbar 0.34.0.0

$ModelName "weapons/tfa_cso/w_kh2002.mdl"

$BodyGroup "studio"
{
	studio "v_kh2002_v_khaybar"
}

$collisionmodel "v_kh2002_v_khaybar.smd"
{
	$mass 9
}

$CDMaterials "models\weapons\tfa_cso\kh2002"

$attachment "0" "root" 0.00 -15.50 0.60 rotate -0 0 0

$Sequence "idle" {
	"anims\idle.smd"
	fps 30
}