// Created by Crowbar 0.34.0.0

$ModelName "weapons/tfa_cso/w_wa2000gs.mdl"

$BodyGroup "studio"
{
	studio "v_wa2000gs_v_ref_wa2000g"
}

$collisionmodel "v_wa2000gs_v_ref_wa2000g.smd"
{
	$mass 9
}

$CDMaterials "models\weapons\tfa_cso\wa2000gs"

$attachment "0" "root" 0.00 -15.00 -0.60 rotate -0 0 -2

$Sequence "idle" {
	"anims\idle.smd"
	fps 30
}