// Created by Crowbar 0.34.0.0

$ModelName "weapons/tfa_cso/w_desperado_women_v6.mdl"

$BodyGroup "studio"
{
	studio "v_desperado_d3a3_v_ref"
}

$collisionmodel "v_desperado_d3a3_v_ref.smd"
{
	$mass 9
}

$CDMaterials "models\weapons\tfa_cso\desperado_v6"

$attachment "1" "root" -5.10 -10.10 10.00 rotate -0 0 0

$Sequence "idle" {
	"anims\idle.smd"
	fps 30
}