// Created by Crowbar 0.49.0.0

$modelname "weapons/tfa_cso/c_hk121.mdl"

$Include "csonline_gmod.qci"

$bodygroup "weapon"
{
	studio "v_hk121_11"
}
$bodygroup "weapon"
{
	studio "v_hk121_12"
}

$CDMaterials "models\weapons\tfa_cso\hk121\"

$attachment 0 "cover1" -17 -1 0
//$attachment 1 "cover1" 3 0 0
//$attachment 2 "cover1" -18 -3.7 0

$definebone "root" "" 0.000000 0.000000 0.000000 0.000000 0.000000 0.000000 0.000000 0.000000 0.000000 -0.000000 0.000000 0.000000
$definebone "Bone01" "root" 7.323211 3.017017 -8.440301 -80.763368 100.118970 -103.387407 0.000000 0.000000 0.000000 0.000000 -0.000001 -0.000000
$definebone "Bone_Lefthand" "Bone01" -0.071918 -8.498728 -0.104137 16.439477 -0.545228 -1.831345 0.000000 0.000000 0.000000 -0.000001 -0.000001 -0.000000
$definebone "hk121_root" "Bone_Lefthand" 2.011656 -1.841113 1.374567 7.204805 -97.369231 -166.043444 0.000000 0.000000 0.000000 -0.000000 -0.000001 0.000001
$definebone "cover1" "hk121_root" 7.182899 -3.253160 0.000001 0.000000 179.999966 -0.000001 0.000000 0.000000 0.000000 0.000000 -0.000001 -0.000001
$definebone "magazine" "hk121_root" 6.773117 4.766941 0.000001 -0.000035 -90.000017 90.000024 0.000000 0.000000 0.000000 0.000001 -0.000001 -0.000000
$definebone "bullet15" "magazine" 2.900896 -2.166695 2.091953 89.999983 89.999812 0.000000 0.000000 0.000000 0.000000 -0.000000 -0.000001 0.000001
$definebone "bullet14" "bullet15" 0.000000 -0.445470 0.039303 -0.000000 0.000056 -179.999966 0.000000 0.000000 0.000000 0.000000 0.000001 0.000001
$definebone "bullet13" "bullet14" -0.000001 0.442244 0.000028 0.000000 0.000001 -179.999966 0.000000 0.000000 0.000000 -0.000000 -0.000001 0.000001
$definebone "bullet12" "bullet13" 0.000000 -0.447623 0.039050 -0.000000 -0.000001 179.999966 0.000000 0.000000 0.000000 0.000000 0.000001 0.000001
$definebone "bullet11" "bullet12" 0.000001 0.441041 0.014801 0.000000 0.000001 -179.999966 0.000000 0.000000 0.000000 -0.000000 -0.000001 0.000001
$definebone "trigger" "hk121_root" 2.081892 0.705662 0.000000 -0.000001 69.331100 0.000000 0.000000 0.000000 0.000000 -0.000001 -0.000003 0.000000
$definebone "bullet10" "bullet11" 0.000000 -0.444421 0.124136 -0.000000 -0.000001 179.999966 0.000000 0.000000 0.000000 0.000000 0.000001 0.000001
$definebone "bullet09" "bullet10" 0.000001 0.444464 -0.056353 0.000000 0.000001 -179.999966 0.000000 -0.000000 0.000000 -0.000000 -0.000001 0.000001
$definebone "bullet08" "bullet09" 0.000000 -0.439980 0.070949 -0.000000 -0.000001 179.999966 0.000000 0.000000 0.000000 0.000000 0.000001 0.000001
$definebone "bullet07" "bullet08" 0.000000 0.449310 -0.145717 0.000000 0.000001 -179.999966 0.000000 0.000000 0.000000 -0.000000 -0.000001 0.000001
$definebone "bullet06" "bullet07" 0.000000 -0.398229 0.108713 -0.000000 -0.000001 179.999966 0.000000 0.000000 -0.000000 0.000000 0.000001 0.000001
$definebone "bullet05" "bullet06" -0.000001 0.308841 -0.253826 0.000000 0.000001 -179.999966 0.000000 -0.000000 0.000000 -0.000000 -0.000001 0.000001
$definebone "bullet04" "bullet05" 0.000001 -0.113095 0.388759 -0.000000 -0.000001 179.999966 0.000000 0.000000 0.000000 0.000000 0.000001 0.000001
$definebone "bullet03" "bullet04" 0.000000 0.007931 -0.400177 0.000000 0.000001 -179.999966 0.000000 0.000000 0.000000 -0.000000 -0.000001 0.000001
$definebone "bullet02" "bullet03" 0.000000 0.063779 0.394642 -0.000000 -0.000001 179.999966 0.000000 0.000000 0.000000 0.000000 0.000001 0.000001
$definebone "bullet01" "bullet02" -0.000001 -0.191146 -0.355387 0.000000 0.000001 -179.999966 0.000000 0.000000 0.000000 -0.000000 -0.000001 0.000001
$definebone "reload" "hk121_root" 8.478132 -2.802346 -0.617692 89.999983 -89.999983 0.000000 -0.000000 0.000000 0.000000 -0.000001 -0.000000 0.000001
$definebone "handle" "hk121_root" 9.382010 -2.359824 -0.013181 -33.816373 -89.999983 -89.999983 0.000000 0.000000 0.000000 -0.000001 0.000000 0.000001


$sequence "idle1" {
	"v_hk121_anims\idle1"
	fps 30
	loop
	activity "ACT_VM_IDLE" 1
	snap
}
$sequence "shoot1" {
	"v_hk121_anims\shoot1"
	{ event 5001 0 "31" }
	fps 30
	activity "ACT_VM_PRIMARYATTACK" 1
	snap
}
$sequence "shoot2" {
	"v_hk121_anims\shoot2"
	{ event 5001 0 "31" }
	fps 30
	activity "ACT_VM_PRIMARYATTACK" 2
	snap
}
$sequence "reload" {
	"v_hk121_anims\reload"
	{ event 5004 16 "HK121.ClipOut1" }
	{ event 5004 31 "HK121.ClipOut2" }
	{ event 5004 55 "HK121.ClipIn1" }
	{ event 5004 73 "HK121.ClipIn2" }
	{ event 5004 106 "HK121.ClipIn3" }
	{ event 5004 134 "HK121.ClipIn4" }
	fps 30
	activity "ACT_VM_RELOAD" 1
	snap
}
$sequence "draw" {
	"v_hk121_anims\draw"
	{ event 5004 16 "HK121.Draw" }
	fps 30
	activity "ACT_VM_DRAW" 1
	snap
}
