version 1
nodes
  0 "root" -1
  1 "Bone01" 0
  2 "Bone_L_Upper" 1
  3 "Bone_Lefthand" 1
  4 "Bone13" 3
  5 "Bone14" 4
  6 "Bone15" 5
  7 "Bone17" 3
  8 "Bone18" 7
  9 "Bone19" 8
  10 "Bone21" 3
  11 "Bone22" 10
  12 "Bone23" 11
  13 "Bone09" 3
  14 "Bone10" 13
  15 "Bone11" 14
  16 "Bone05" 3
  17 "Bone06" 16
  18 "Bone07" 17
  19 "Bone_Se_Hand-L" 3
  20 "Bone04" 0
  21 "Bone_Righthand" 20
  22 "Bone39" 21
  23 "Bone40" 22
  24 "Bone41" 23
  25 "Bone35" 21
  26 "Bone36" 25
  27 "Bone37" 26
  28 "Bone31" 21
  29 "Bone32" 28
  30 "Bone33" 29
  31 "Bone43" 21
  32 "Bone44" 31
  33 "Bone45" 32
  34 "Bone27" 21
  35 "Bone28" 34
  36 "Bone29" 35
  37 "Bone_Se_Hand-R" 21
  38 "Bone_R_Upper" 20
  39 "Bip01 L Clavicle" -1
  40 "Bip01 L UpperArm" 39
  41 "Bip01 L Forearm" 40
  42 "Bip01 L Hand" 41
  43 "gungnir" 42
  44 "Bone064" 43
  45 "magicball" 44
  46 "Bone070" 44
  47 "Bone073" 44
  48 "Bone071" 44
  49 "Bone072" 44
  50 "Bone074" 44
  51 "Bone076" 44
  52 "Bone075" 44
  53 "Bone069" 44
  54 "Bone053" 53
  55 "Bone060" 53
  56 "Bone048" 53
  57 "Bone066" 44
  58 "Bone052" 57
  59 "Bone063" 57
  60 "Bone050" 57
  61 "Bone065" 44
  62 "Bone054" 61
  63 "Bone058" 61
  64 "Bone046" 61
  65 "adlightningbon" -1
  66 "gungnir_chagrefxB01" 44
  67 "gungnir_chagrefxB02" 66
  68 "gungnir_chagrefxB03" 66
  69 "gungnir_chagrefxc01" 44
  70 "gungnir_chagrefx01" 44
  71 "gungnir_chagrefx02" 70
  72 "gungnir_chagrefx03" 70
  73 "gungnir_chagrefxd01" 44
  74 "Bone077" -1
  75 "Dummy001" -1
  76 "Dummy005" 75
  77 "Dummy003" 75
  78 "Dummy004" 75
  79 "Dummy002" 75
  80 "Dummy006" -1
  81 "Dummy007" 80
  82 "Dummy008" 80
  83 "Dummy009" 80
  84 "Dummy010" 80
  85 "Dummy011" -1
  86 "Dummy012" 85
  87 "Dummy013" 85
  88 "Dummy014" 85
  89 "Dummy015" 85
  90 "Dummy016" -1
  91 "Dummy017" 90
  92 "Dummy018" 90
  93 "Dummy019" 90
  94 "Dummy020" 90
  95 "Bone078" -1
  96 "efxline1" -1
  97 "efelecdumr" -1
  98 "efelecdums" 97
  99 "Dummy81021" -1
  100 "Dummy81022" 99
  101 "Dummy81023" 99
  102 "Dummy81024" 99
  103 "Dummy81025" 99
  104 "Dummy01119" -1
  105 "Dummy01219" 104
  106 "Dummy01319" 104
  107 "Dummy01419" 104
  108 "Dummy01519" 104
  109 "Dummy01619" -1
  110 "Dummy01719" 109
  111 "Dummy01819" 109
  112 "Dummy01919" 109
  113 "Dummy02019" 109
  114 "Dummy8102119" -1
  115 "Dummy8102219" 114
  116 "Dummy8102319" 114
  117 "Dummy8102419" 114
  118 "Dummy8102519" 114
  119 "ballfx02" 45
  120 "ballfx01" 45
  121 "shoot_elecr" -1
  122 "shoot_elecs" 121
  123 "gungnir_blade001" -1
  124 "gungnir_blade003" -1
  125 "gungnir_blade002" -1
end
skeleton
  time 0
    0 9.735826 1.365964 -9.859057 0.028775 -0.365218 0.230166
    1 5.950626 -5.162891 -2.178736 0.116548 -2.303317 -0.721119
    2 6.101078 6.051564 -0.266998 1.565116 -3.130798 0.879227
    3 0.014019 -8.502643 -0.065070 0.216693 0.668959 0.103095
    4 -0.488518 -2.755602 -0.228260 -1.624050 -0.173655 -0.380393
    5 0.039887 -1.499322 0.014229 -0.760111 -0.012116 0.013987
    6 0.028786 -1.114795 -0.093424 -0.611124 -0.011781 0.011110
    7 0.250027 -2.820665 -0.238396 -0.891745 -0.094519 -0.342634
    8 -0.049759 -1.606323 0.065322 -1.119523 0.007083 -0.030946
    9 -0.034142 -1.171750 0.045718 -1.201807 0.006220 -0.031687
    10 0.957766 -2.746780 -0.090302 0.013124 -0.165141 -0.257303
    11 -0.033420 -1.393223 -0.022976 -0.680809 0.008102 -0.033426
    12 -0.022360 -0.957436 -0.000748 -0.764143 0.007047 -0.037188
    13 -1.180681 -2.507217 -0.193859 -1.718411 -0.099373 -0.432445
    14 -0.024967 -1.123934 0.017597 -0.661184 0.007442 -0.027863
    15 -0.020057 -0.902687 0.017903 -0.580622 0.007838 -0.022100
    16 0.575697 -1.193371 0.185379 0.145297 -0.467065 -0.601465
    17 1.520302 -0.146009 0.047979 0.013359 -0.150910 -0.501168
    18 1.089052 -0.085319 0.012759 0.000871 -0.103226 -0.426765
    19 0.120153 -0.050270 -0.054489 0.287569 3.110905 1.561085
    20 -5.407644 -7.137568 -0.384107 0.271920 -4.438856 0.445476
    21 -0.086655 -8.411355 0.037511 -0.392774 -1.047190 0.370880
    22 0.447953 -2.798986 -0.200443 -1.276689 -0.000904 0.126384
    23 -0.032909 -1.495829 0.016659 -0.997752 0.020554 -0.015698
    24 -0.027022 -1.108171 -0.028023 -0.741998 0.018205 -0.009887
    25 -0.249534 -2.846964 -0.174213 -0.939650 0.028183 0.119144
    26 0.043235 -1.656596 0.072574 -1.310796 -0.020871 0.005717
    27 0.031729 -1.149111 0.058838 -0.767750 -0.008011 0.005292
    28 -0.963866 -2.785145 -0.085350 -0.232722 0.158033 0.099622
    29 0.028479 -1.410880 -0.024980 -1.255111 -0.037799 -0.038063
    30 0.021413 -0.949968 0.020046 -0.574948 -0.011242 -0.023238
    31 1.164475 -2.543940 -0.170330 -1.333869 -0.158092 0.191771
    32 0.024032 -1.136855 -0.001725 -0.786679 0.004374 0.041935
    33 0.014898 -0.891802 -0.019848 -0.469878 -0.002133 0.022735
    34 -0.586770 -1.264477 0.200161 0.473950 -0.896110 -2.898205
    35 1.565805 0.035243 0.016848 -0.018353 -0.006847 0.875859
    36 1.114041 0.044518 -0.005766 -0.027124 -0.034606 0.983702
    37 -0.139399 -0.111698 0.014397 0.285382 -0.030687 1.580508
    38 0.340958 8.948555 -0.196463 4.720237 -3.141824 1.363100
    39 12.503160 0.714327 -8.955355 -0.124316 -0.576456 0.654575
    40 4.065896 0.000000 -0.000001 -0.932970 0.472624 -2.035579
    41 5.727316 0.000001 0.000000 0.000000 0.000000 -0.910343
    42 9.229777 0.000002 0.000000 -2.002447 -0.175770 0.062462
    43 3.121754 1.118371 -0.913563 2.558465 0.253146 -0.182021
    44 11.071188 0.000000 -0.000001 0.000000 0.000000 0.000000
    45 3.556409 -1.843847 1.155964 0.000000 0.498387 1.570796
    46 2.390777 -1.292302 1.978140 0.749127 -0.286789 -1.340332
    47 4.594266 -1.214511 2.080248 -0.738399 -0.246311 -1.743235
    48 2.359571 -2.305063 0.250360 -0.983482 -0.667108 -1.354557
    49 4.656978 -2.343248 0.146677 1.011314 -0.719578 -1.858369
    50 3.215159 0.000003 2.620673 0.000000 -0.481368 -3.141592
    51 3.121354 -2.072975 -1.172838 1.116134 2.891032 0.469420
    52 3.124867 2.103987 -1.190379 -1.117015 2.889357 -0.472963
    53 7.014220 -2.797903 -1.582981 -1.570796 0.514872 -1.570796
    54 0.000000 0.000002 0.000000 0.000000 0.349066 -0.000001
    55 0.000000 0.000002 0.000000 -0.000001 0.872665 -0.000001
    56 -0.443073 0.000006 3.458307 -0.000001 0.000000 0.000000
    57 6.887265 0.000003 3.240103 -3.141592 -1.570451 0.000000
    58 0.000000 0.000000 0.000000 0.000000 0.349066 0.000000
    59 0.000000 0.000000 0.000000 0.000000 0.872665 0.000000
    60 -0.438941 0.000000 3.585266 0.000000 0.000000 0.000000
    61 6.917892 2.827009 -1.599447 1.570796 0.514872 1.570796
    62 0.000000 0.000000 0.000000 0.000000 0.349066 0.000000
    63 0.000000 0.000000 0.000000 0.000000 0.872665 0.000000
    64 -0.481428 -0.000002 3.554642 0.000000 0.000000 0.000000
    65 -26.539349 -8.068464 -6.371304 1.545101 -0.556542 -4.602303
    66 -139.476181 -6.847344 30.242878 -0.449627 2.071722 1.047993
    67 -0.000001 0.000000 0.000000 0.000000 0.000000 0.000000
    68 -0.000002 0.000008 0.000003 0.000000 0.000000 0.000000
    69 -135.943268 -15.671940 3.954328 0.185069 -0.608022 0.332936
    70 -128.156448 -11.260362 19.049923 0.312408 -1.396518 1.339534
    71 0.000000 0.000000 0.000000 0.000000 0.000000 0.000000
    72 0.000000 0.000000 0.000000 0.000000 0.001990 0.000000
    73 -106.568375 -4.477859 31.493366 -0.911486 0.308585 0.576328
    74 84.051888 0.903572 -75.625259 1.570797 -1.570796 -1.570796
    75 76.324181 43.703346 -84.497192 0.000000 0.000000 -1.570796
    76 -16.526161 16.526237 0.000000 0.000000 0.000000 0.000000
    77 16.525921 16.525917 0.000000 0.000000 0.000000 0.000000
    78 16.525682 -16.525612 0.000000 0.000000 0.000000 0.000000
    79 -16.525921 -16.525917 0.000000 0.000000 0.000000 0.000000
    80 76.265152 121.150276 -84.497192 0.000000 0.000000 -1.570796
    81 -16.740288 16.740356 0.000000 0.000000 0.000000 0.000000
    82 16.740044 16.740044 0.000000 0.000000 0.000000 0.000000
    83 16.739799 -16.739731 0.000000 0.000000 0.000000 0.000000
    84 -16.740044 -16.740044 0.000000 0.000000 0.000000 0.000000
    85 75.715485 158.853149 -84.497192 0.000000 0.000000 -1.570796
    86 -14.652008 14.652077 0.000000 0.000000 0.000000 0.000000
    87 14.651794 14.651802 0.000000 0.000000 0.000000 0.000000
    88 14.651581 -14.651527 0.000000 0.000000 0.000000 0.000000
    89 -14.651794 -14.651798 0.000000 0.000000 0.000000 0.000000
    90 76.586624 82.086914 -84.497192 0.000000 0.000000 -1.570796
    91 -16.421143 16.421211 0.000000 0.000000 0.000000 0.000000
    92 16.420898 16.420898 0.000000 0.000000 0.000000 0.000000
    93 16.420662 -16.420593 0.000000 0.000000 0.000000 0.000000
    94 -16.420898 -16.420898 0.000000 0.000000 0.000000 0.000000
    95 104.671562 5.020584 -75.625259 1.570797 -1.570796 -1.570796
    96 5.998868 -28.998531 -4.679408 1.730427 -1.282231 -5.112140
    97 7.035257 -33.093829 -4.808735 -0.389308 -0.741838 0.037175
    98 0.000000 -10.593928 -0.000071 0.000000 0.000000 0.000000
    99 -85.857788 -39.947548 -50.510788 -0.449173 0.062892 -2.510897
    100 -14.651985 14.652081 -0.000019 0.000000 0.000000 0.000000
    101 14.651802 14.651814 -0.000008 0.000000 0.000000 0.000000
    102 14.651573 -14.651527 0.000011 0.000000 0.000000 0.000000
    103 -14.651794 -14.651812 0.000004 0.000000 0.000000 0.000000
    104 -92.616295 101.545227 -81.998543 1.051518 -2.158346 -2.089831
    105 -14.652016 14.652081 0.000015 0.000000 0.000000 0.000000
    106 14.651810 14.651814 0.000015 0.000000 0.000000 0.000000
    107 14.651585 -14.651522 -0.000015 0.000000 0.000000 0.000000
    108 -14.651802 -14.651802 -0.000015 0.000000 0.000000 0.000000
    109 -88.541824 -3.090007 126.922211 0.504917 -0.042813 -1.783580
    110 -16.421141 16.421215 0.000000 0.000000 0.000000 0.000000
    111 16.420900 16.420910 0.000015 0.000000 0.000000 0.000000
    112 16.420660 -16.420589 0.000015 0.000000 0.000000 0.000000
    113 -16.420902 -16.420895 0.000000 0.000000 0.000000 0.000000
    114 -153.887299 -84.320137 -12.565396 -0.449173 0.062892 -2.510897
    115 -14.651993 14.652077 -0.000015 0.000000 0.000000 0.000000
    116 14.651794 14.651807 -0.000011 0.000000 0.000000 0.000000
    117 14.651581 -14.651535 0.000013 0.000000 0.000000 0.000000
    118 -14.651779 -14.651814 0.000005 0.000000 0.000000 0.000000
    119 0.001769 0.000002 0.000001 0.000000 -1.570451 0.000000
    120 0.001771 0.000002 0.000002 3.141496 1.570412 0.000000
    121 5.757384 -35.788147 -5.130273 0.015777 2.430219 -0.106709
    122 -0.000010 -50.272392 -0.000009 0.000000 0.000000 0.000000
    123 -134.110794 39.663200 -14.498636 3.112200 -0.406702 -0.300851
    124 -104.675583 77.418777 0.364775 0.836412 0.398371 -0.722376
    125 -116.304535 -76.120850 28.837309 -0.901921 0.453801 0.302725
  time 1
    0 9.735826 1.365964 -9.859057 0.028775 -0.365218 0.230166
    1 6.149851 -5.073045 -2.307646 0.111183 -2.302971 -0.711958
    2 6.296396 5.813276 -0.274810 1.565020 -3.130031 0.841225
    3 0.014019 -8.502643 -0.065070 0.208378 0.669792 0.098983
    4 -0.488518 -2.755602 -0.228260 -1.624050 -0.173655 -0.380393
    5 0.039887 -1.499322 0.014229 -0.760111 -0.012116 0.013987
    6 0.028786 -1.114795 -0.093424 -0.611124 -0.011781 0.011110
    7 0.250027 -2.820665 -0.238396 -0.891745 -0.094519 -0.342634
    8 -0.049759 -1.606323 0.065322 -1.119523 0.007083 -0.030946
    9 -0.034142 -1.171750 0.045718 -1.201772 0.006220 -0.031687
    10 0.957766 -2.746780 -0.090302 0.013124 -0.165141 -0.257303
    11 -0.033420 -1.393223 -0.022976 -0.680809 0.008102 -0.033426
    12 -0.022360 -0.957436 -0.000748 -0.764143 0.007047 -0.037188
    13 -1.180681 -2.507217 -0.193859 -1.718411 -0.099373 -0.432445
    14 -0.024967 -1.123934 0.017597 -0.661184 0.007442 -0.027863
    15 -0.020057 -0.902687 0.017903 -0.580622 0.007838 -0.022100
    16 0.575697 -1.193371 0.185379 0.145297 -0.467077 -0.601465
    17 1.520302 -0.146009 0.047979 0.013359 -0.150910 -0.501168
    18 1.089052 -0.085319 0.012759 0.000871 -0.103226 -0.426765
    19 0.120153 -0.050270 -0.054489 0.287569 3.110905 1.561085
    20 -5.309985 -7.125849 -0.470048 0.220444 -4.438776 0.411025
    21 -0.086655 -8.415261 0.037511 -0.364441 -1.060573 0.342033
    22 0.447953 -2.798986 -0.200443 -1.276689 -0.000904 0.126384
    23 -0.032909 -1.495829 0.016659 -0.997752 0.020554 -0.015698
    24 -0.027022 -1.108171 -0.028023 -0.741998 0.018205 -0.009887
    25 -0.249534 -2.846964 -0.174213 -0.939650 0.028183 0.119144
    26 0.043235 -1.656596 0.072574 -1.310796 -0.020871 0.005717
    27 0.031729 -1.149111 0.058838 -0.767750 -0.008011 0.005292
    28 -0.963866 -2.785145 -0.085350 -0.232722 0.158033 0.099622
    29 0.028479 -1.410880 -0.024980 -1.256535 -0.037871 -0.038063
    30 0.021413 -0.949968 0.020046 -0.574948 -0.011242 -0.023238
    31 1.164475 -2.543940 -0.170330 -1.333869 -0.158092 0.191771
    32 0.024032 -1.136855 -0.001725 -0.786679 0.004374 0.041935
    33 0.014898 -0.891802 -0.019848 -0.469878 -0.002133 0.022735
    34 -0.586770 -1.264477 0.200161 0.473950 -0.896110 -2.898205
    35 1.565805 0.035243 0.016848 -0.018353 -0.006847 0.875859
    36 1.114041 0.044518 -0.005766 -0.027124 -0.034606 0.983702
    37 -0.139399 -0.111698 0.014397 0.285382 -0.030687 1.580508
    38 0.340958 8.948555 -0.196463 4.720237 -3.141824 1.363100
    39 12.503160 0.714327 -8.955355 -0.124316 -0.576456 0.654575
    40 4.065896 0.000000 -0.000001 -0.919276 0.507119 -2.004462
    41 5.727316 0.000001 0.000000 0.000000 0.000000 -0.948318
    42 9.229777 0.000002 0.000000 -2.002331 -0.169190 0.061459
    43 3.121754 1.118371 -0.913563 2.558465 0.253146 -0.182021
    44 11.071188 0.000000 -0.000001 0.000000 0.000000 0.000000
    45 3.556409 -1.843847 1.155964 0.000000 0.498387 1.570796
    46 2.390777 -1.292302 1.978140 0.749127 -0.286789 -1.340332
    47 4.594266 -1.214511 2.080248 -0.738399 -0.246311 -1.743235
    48 2.359571 -2.305063 0.250360 -0.983482 -0.667108 -1.354557
    49 4.656978 -2.343248 0.146677 1.011314 -0.719578 -1.858369
    50 3.215159 0.000003 2.620673 0.000000 -0.481368 -3.141592
    51 3.121354 -2.072975 -1.172838 1.116134 2.891032 0.469420
    52 3.124867 2.103987 -1.190379 -1.117015 2.889357 -0.472963
    53 7.014220 -2.797903 -1.582981 -1.570796 0.514872 -1.570796
    54 0.000000 0.000002 0.000000 0.000000 0.349066 -0.000001
    55 0.000000 0.000002 0.000000 -0.000001 0.872665 -0.000001
    56 -0.443073 0.000006 3.458307 -0.000001 0.000000 0.000000
    57 6.887265 0.000003 3.240103 -3.141592 -1.570451 0.000000
    58 0.000000 0.000000 0.000000 0.000000 0.349066 0.000000
    59 0.000000 0.000000 0.000000 0.000000 0.872665 0.000000
    60 -0.438941 0.000000 3.585266 0.000000 0.000000 0.000000
    61 6.917892 2.827009 -1.599447 1.570796 0.514872 1.570796
    62 0.000000 0.000000 0.000000 0.000000 0.349066 0.000000
    63 0.000000 0.000000 0.000000 0.000000 0.872665 0.000000
    64 -0.481428 -0.000002 3.554642 0.000000 0.000000 0.000000
    65 -26.539349 -8.068464 -6.371304 1.545101 -0.556542 -4.602303
    66 -139.476181 -6.847344 30.242878 -0.449627 2.071722 1.047993
    67 -0.000001 0.000000 0.000000 0.000000 0.000000 0.000000
    68 -0.000002 0.000008 0.000003 0.000000 0.000000 0.000000
    69 -135.943268 -15.671940 3.954328 0.185069 -0.608022 0.332936
    70 -128.156448 -11.260362 19.049923 0.312408 -1.396518 1.339534
    71 0.000000 0.000000 0.000000 0.000000 0.000000 0.000000
    72 0.000000 0.000000 0.000000 0.000000 0.001990 0.000000
    73 -106.568375 -4.477859 31.493366 -0.911486 0.308585 0.576328
    74 84.051888 0.903572 -75.625259 1.570797 -1.570796 -1.570796
    75 76.324181 43.703346 -84.497192 0.000000 0.000000 -1.570796
    76 -16.526161 16.526237 0.000000 0.000000 0.000000 0.000000
    77 16.525921 16.525917 0.000000 0.000000 0.000000 0.000000
    78 16.525682 -16.525612 0.000000 0.000000 0.000000 0.000000
    79 -16.525921 -16.525917 0.000000 0.000000 0.000000 0.000000
    80 76.265152 121.150276 -84.497192 0.000000 0.000000 -1.570796
    81 -16.740288 16.740356 0.000000 0.000000 0.000000 0.000000
    82 16.740044 16.740044 0.000000 0.000000 0.000000 0.000000
    83 16.739799 -16.739731 0.000000 0.000000 0.000000 0.000000
    84 -16.740044 -16.740044 0.000000 0.000000 0.000000 0.000000
    85 75.715485 158.853149 -84.497192 0.000000 0.000000 -1.570796
    86 -14.652008 14.652077 0.000000 0.000000 0.000000 0.000000
    87 14.651794 14.651802 0.000000 0.000000 0.000000 0.000000
    88 14.651581 -14.651527 0.000000 0.000000 0.000000 0.000000
    89 -14.651794 -14.651798 0.000000 0.000000 0.000000 0.000000
    90 76.586624 82.086914 -84.497192 0.000000 0.000000 -1.570796
    91 -16.421143 16.421211 0.000000 0.000000 0.000000 0.000000
    92 16.420898 16.420898 0.000000 0.000000 0.000000 0.000000
    93 16.420662 -16.420593 0.000000 0.000000 0.000000 0.000000
    94 -16.420898 -16.420898 0.000000 0.000000 0.000000 0.000000
    95 104.671562 5.020584 -75.625259 1.570797 -1.570796 -1.570796
    96 6.260595 -28.924310 -4.890352 0.313839 -0.476692 -3.521862
    97 7.304797 -33.015701 -5.043117 -0.978763 -1.234281 0.720064
    98 0.000000 -12.715086 -0.000071 0.000000 0.000000 0.000000
    99 -85.857788 -39.947548 -50.510788 -0.449173 0.062892 -2.510897
    100 -14.651985 14.652081 -0.000019 0.000000 0.000000 0.000000
    101 14.651802 14.651814 -0.000008 0.000000 0.000000 0.000000
    102 14.651573 -14.651527 0.000011 0.000000 0.000000 0.000000
    103 -14.651794 -14.651812 0.000004 0.000000 0.000000 0.000000
    104 -92.616295 101.545227 -81.998543 1.051518 -2.158346 -2.089831
    105 -14.652016 14.652081 0.000015 0.000000 0.000000 0.000000
    106 14.651810 14.651814 0.000015 0.000000 0.000000 0.000000
    107 14.651585 -14.651522 -0.000015 0.000000 0.000000 0.000000
    108 -14.651802 -14.651802 -0.000015 0.000000 0.000000 0.000000
    109 -88.541824 -3.090007 126.922211 0.504917 -0.042813 -1.783580
    110 -16.421141 16.421215 0.000000 0.000000 0.000000 0.000000
    111 16.420900 16.420910 0.000015 0.000000 0.000000 0.000000
    112 16.420660 -16.420589 0.000015 0.000000 0.000000 0.000000
    113 -16.420902 -16.420895 0.000000 0.000000 0.000000 0.000000
    114 -153.887299 -84.320137 -12.565396 -0.449173 0.062892 -2.510897
    115 -14.651993 14.652077 -0.000015 0.000000 0.000000 0.000000
    116 14.651794 14.651807 -0.000011 0.000000 0.000000 0.000000
    117 14.651581 -14.651535 0.000013 0.000000 0.000000 0.000000
    118 -14.651779 -14.651814 0.000005 0.000000 0.000000 0.000000
    119 0.001769 0.000002 0.000001 0.000000 -1.570451 0.000000
    120 0.001771 0.000002 0.000002 3.141496 1.570412 0.000000
    121 6.030829 -35.710019 -5.384187 0.006937 2.427864 -0.110934
    122 -0.000010 -50.272392 -0.000009 0.000000 0.000000 0.000000
    123 -134.110794 39.663200 -14.498636 3.112200 -0.406702 -0.300851
    124 -104.675583 77.418777 0.364775 0.836412 0.398371 -0.722376
    125 -116.304535 -76.120850 28.837309 -0.901921 0.453801 0.302725
  time 2
    0 9.735826 1.365964 -9.859057 0.028775 -0.365218 0.230166
    1 6.403765 -4.944134 -2.463901 0.107254 -2.302537 -0.703656
    2 6.546404 5.485141 -0.282623 1.565020 -3.128880 0.790681
    3 0.014019 -8.498736 -0.068977 0.197299 0.670463 0.091433
    4 -0.488518 -2.755602 -0.228260 -1.624050 -0.173655 -0.380393
    5 0.039887 -1.499322 0.014229 -0.760111 -0.012116 0.013987
    6 0.028786 -1.114795 -0.093424 -0.611124 -0.011781 0.011110
    7 0.250027 -2.820665 -0.238396 -0.891745 -0.094519 -0.342634
    8 -0.049759 -1.606323 0.065322 -1.119523 0.007083 -0.030946
    9 -0.034142 -1.171750 0.045718 -1.201772 0.006220 -0.031687
    10 0.957766 -2.746780 -0.090302 0.013124 -0.165141 -0.257303
    11 -0.033420 -1.393223 -0.022976 -0.680809 0.008102 -0.033426
    12 -0.022360 -0.957436 -0.000748 -0.764143 0.007047 -0.037188
    13 -1.180681 -2.507217 -0.193859 -1.718411 -0.099373 -0.432445
    14 -0.024967 -1.123934 0.017597 -0.661184 0.007442 -0.027863
    15 -0.020057 -0.902687 0.017903 -0.580622 0.007838 -0.022100
    16 0.575697 -1.193371 0.185379 0.145297 -0.467065 -0.601465
    17 1.520302 -0.146009 0.047979 0.013359 -0.150910 -0.501168
    18 1.089052 -0.085319 0.012759 0.000871 -0.103226 -0.426765
    19 0.120153 -0.050270 -0.054489 0.287569 3.110905 1.561085
    20 -5.188888 -7.102411 -0.571613 0.162597 -4.438456 0.374468
    21 -0.090562 -8.419168 0.037511 -0.327009 -1.076138 0.305374
    22 0.447953 -2.798986 -0.200443 -1.276689 -0.000904 0.126384
    23 -0.032909 -1.495829 0.016659 -0.997752 0.020554 -0.015698
    24 -0.027022 -1.108171 -0.028023 -0.741998 0.018205 -0.009887
    25 -0.249534 -2.846964 -0.174213 -0.939650 0.028183 0.119144
    26 0.043235 -1.656596 0.072574 -1.310796 -0.020871 0.005717
    27 0.031729 -1.149111 0.058838 -0.767750 -0.008011 0.005292
    28 -0.963866 -2.785145 -0.085350 -0.232722 0.158033 0.099622
    29 0.028479 -1.410880 -0.024980 -1.257999 -0.037931 -0.038075
    30 0.021413 -0.949968 0.020046 -0.574948 -0.011242 -0.023238
    31 1.164475 -2.543940 -0.170330 -1.333869 -0.158092 0.191771
    32 0.024032 -1.136855 -0.001725 -0.786679 0.004374 0.041935
    33 0.014898 -0.891802 -0.019848 -0.469878 -0.002133 0.022735
    34 -0.586770 -1.264477 0.200161 0.473950 -0.896110 -2.898205
    35 1.565805 0.035243 0.016848 -0.018353 -0.006847 0.875859
    36 1.114041 0.044518 -0.005766 -0.027124 -0.034606 0.983702
    37 -0.139399 -0.111698 0.014397 0.285382 -0.030687 1.580508
    38 0.340958 8.948555 -0.196463 4.720237 -3.141824 1.363100
    39 12.503160 0.714327 -8.955355 -0.124316 -0.576456 0.654575
    40 4.065896 0.000000 -0.000001 -0.900221 0.550486 -1.963064
    41 5.727316 0.000001 0.000000 0.000000 0.000000 -0.998871
    42 9.229777 0.000002 0.000000 -2.001712 -0.160504 0.062211
    43 3.121754 1.118371 -0.913563 2.558465 0.253146 -0.182021
    44 11.071188 0.000000 -0.000001 0.000000 0.000000 0.000000
    45 3.556409 -1.843847 1.155964 0.000000 0.498387 1.570796
    46 2.390777 -1.292302 1.978140 0.749127 -0.286789 -1.340332
    47 4.594266 -1.214511 2.080248 -0.738399 -0.246311 -1.743235
    48 2.359571 -2.305063 0.250360 -0.983482 -0.667108 -1.354557
    49 4.656978 -2.343248 0.146677 1.011314 -0.719578 -1.858369
    50 3.215159 0.000003 2.620673 0.000000 -0.481368 -3.141592
    51 3.121354 -2.072975 -1.172838 1.116134 2.891032 0.469420
    52 3.124867 2.103987 -1.190379 -1.117015 2.889357 -0.472963
    53 7.014220 -2.797903 -1.582981 -1.570796 0.514872 -1.570796
    54 0.000000 0.000002 0.000000 0.000000 0.349066 -0.000001
    55 0.000000 0.000002 0.000000 -0.000001 0.872665 -0.000001
    56 -0.443073 0.000006 3.458307 -0.000001 0.000000 0.000000
    57 6.887265 0.000003 3.240103 -3.141592 -1.570451 0.000000
    58 0.000000 0.000000 0.000000 0.000000 0.349066 0.000000
    59 0.000000 0.000000 0.000000 0.000000 0.872665 0.000000
    60 -0.438941 0.000000 3.585266 0.000000 0.000000 0.000000
    61 6.917892 2.827009 -1.599447 1.570796 0.514872 1.570796
    62 0.000000 0.000000 0.000000 0.000000 0.349066 0.000000
    63 0.000000 0.000000 0.000000 0.000000 0.872665 0.000000
    64 -0.481428 -0.000002 3.554642 0.000000 0.000000 0.000000
    65 -26.539349 -8.068464 -6.371304 1.545101 -0.556542 -4.602303
    66 -139.476181 -6.847344 30.242878 -0.449627 2.071722 1.047993
    67 -0.000001 0.000000 0.000000 0.000000 0.000000 0.000000
    68 -0.000002 0.000008 0.000003 0.000000 0.000000 0.000000
    69 -135.943268 -15.671940 3.954328 0.185069 -0.608022 0.332936
    70 -128.156448 -11.260362 19.049923 0.312408 -1.396518 1.339534
    71 0.000000 0.000000 0.000000 0.000000 0.000000 0.000000
    72 0.000000 0.000000 0.000000 0.000000 0.001990 0.000000
    73 -106.568375 -4.477859 31.493366 -0.911486 0.308585 0.576328
    74 84.051888 0.903572 -75.625259 1.570797 -1.570796 -1.570796
    75 76.324181 43.703346 -84.497192 0.000000 0.000000 -1.570796
    76 -16.526161 16.526237 0.000000 0.000000 0.000000 0.000000
    77 16.525921 16.525917 0.000000 0.000000 0.000000 0.000000
    78 16.525682 -16.525612 0.000000 0.000000 0.000000 0.000000
    79 -16.525921 -16.525917 0.000000 0.000000 0.000000 0.000000
    80 76.265152 121.150276 -84.497192 0.000000 0.000000 -1.570796
    81 -16.740288 16.740356 0.000000 0.000000 0.000000 0.000000
    82 16.740044 16.740044 0.000000 0.000000 0.000000 0.000000
    83 16.739799 -16.739731 0.000000 0.000000 0.000000 0.000000
    84 -16.740044 -16.740044 0.000000 0.000000 0.000000 0.000000
    85 75.715485 158.853149 -84.497192 0.000000 0.000000 -1.570796
    86 -14.652008 14.652077 0.000000 0.000000 0.000000 0.000000
    87 14.651794 14.651802 0.000000 0.000000 0.000000 0.000000
    88 14.651581 -14.651527 0.000000 0.000000 0.000000 0.000000
    89 -14.651794 -14.651798 0.000000 0.000000 0.000000 0.000000
    90 76.586624 82.086914 -84.497192 0.000000 0.000000 -1.570796
    91 -16.421143 16.421211 0.000000 0.000000 0.000000 0.000000
    92 16.420898 16.420898 0.000000 0.000000 0.000000 0.000000
    93 16.420662 -16.420593 0.000000 0.000000 0.000000 0.000000
    94 -16.420898 -16.420898 0.000000 0.000000 0.000000 0.000000
    95 104.671562 5.020584 -75.625259 1.570797 -1.570796 -1.570796
    96 6.573104 -28.807119 -5.132547 0.327690 0.597772 -3.183598
    97 7.625119 -32.894604 -5.312656 0.611807 -2.053434 -0.786535
    98 0.000000 -0.003761 -0.000071 0.000000 0.000000 0.000000
    99 -85.857788 -39.947548 -50.510788 -0.449173 0.062892 -2.510897
    100 -14.651985 14.652081 -0.000019 0.000000 0.000000 0.000000
    101 14.651802 14.651814 -0.000008 0.000000 0.000000 0.000000
    102 14.651573 -14.651527 0.000011 0.000000 0.000000 0.000000
    103 -14.651794 -14.651812 0.000004 0.000000 0.000000 0.000000
    104 -92.616295 101.545227 -81.998543 1.051518 -2.158346 -2.089831
    105 -14.652016 14.652081 0.000015 0.000000 0.000000 0.000000
    106 14.651810 14.651814 0.000015 0.000000 0.000000 0.000000
    107 14.651585 -14.651522 -0.000015 0.000000 0.000000 0.000000
    108 -14.651802 -14.651802 -0.000015 0.000000 0.000000 0.000000
    109 -88.541824 -3.090007 126.922211 0.504917 -0.042813 -1.783580
    110 -16.421141 16.421215 0.000000 0.000000 0.000000 0.000000
    111 16.420900 16.420910 0.000015 0.000000 0.000000 0.000000
    112 16.420660 -16.420589 0.000015 0.000000 0.000000 0.000000
    113 -16.420902 -16.420895 0.000000 0.000000 0.000000 0.000000
    114 -153.887299 -84.320137 -12.565396 -0.449173 0.062892 -2.510897
    115 -14.651993 14.652077 -0.000015 0.000000 0.000000 0.000000
    116 14.651794 14.651807 -0.000011 0.000000 0.000000 0.000000
    117 14.651581 -14.651535 0.000013 0.000000 0.000000 0.000000
    118 -14.651779 -14.651814 0.000005 0.000000 0.000000 0.000000
    119 0.001769 0.000002 0.000001 0.000000 -1.570451 0.000000
    120 0.001771 0.000002 0.000002 3.141496 1.570412 0.000000
    121 6.358964 -35.592828 -5.681071 -0.003986 2.424966 -0.116319
    122 -0.000010 -50.272392 -0.000009 0.000000 0.000000 0.000000
    123 -134.110794 39.663200 -14.498636 3.112200 -0.406702 -0.300851
    124 -104.675583 77.418777 0.364775 0.836412 0.398371 -0.722376
    125 -116.304535 -76.120850 28.837309 -0.901921 0.453801 0.302725
  time 3
    0 9.735826 1.365964 -9.859057 0.028775 -0.365218 0.230166
    1 6.692836 -4.776160 -2.635781 0.104667 -2.302104 -0.696021
    2 6.823756 5.074972 -0.294342 1.565116 -3.127634 0.730216
    3 0.014019 -8.498736 -0.068977 0.184043 0.670920 0.081122
    4 -0.488518 -2.755602 -0.228260 -1.624050 -0.173655 -0.380393
    5 0.039887 -1.499322 0.014229 -0.760111 -0.012116 0.013987
    6 0.028786 -1.114795 -0.093424 -0.611124 -0.011781 0.011110
    7 0.250027 -2.820665 -0.238396 -0.891745 -0.094519 -0.342634
    8 -0.049759 -1.606323 0.065322 -1.119523 0.007083 -0.030946
    9 -0.034142 -1.171750 0.045718 -1.201807 0.006220 -0.031687
    10 0.957766 -2.746780 -0.090302 0.013124 -0.165141 -0.257303
    11 -0.033420 -1.393223 -0.022976 -0.680809 0.008102 -0.033426
    12 -0.022360 -0.957436 -0.000748 -0.764143 0.007047 -0.037188
    13 -1.180681 -2.507217 -0.193859 -1.718411 -0.099373 -0.432445
    14 -0.024967 -1.123934 0.017597 -0.661184 0.007442 -0.027863
    15 -0.020057 -0.902687 0.017903 -0.580622 0.007838 -0.022100
    16 0.575697 -1.193371 0.185379 0.145297 -0.467065 -0.601465
    17 1.520302 -0.146009 0.047979 0.013359 -0.150910 -0.501168
    18 1.089052 -0.085319 0.012759 0.000871 -0.103226 -0.426765
    19 0.120153 -0.050270 -0.054489 0.287569 3.110905 1.561085
    20 -5.126386 -7.090692 -1.001314 0.238685 -4.430701 0.479831
    21 -0.094468 -8.426980 0.041418 -0.283131 -1.092999 0.302787
    22 0.447953 -2.798986 -0.200443 -1.276689 -0.000904 0.126384
    23 -0.032909 -1.495829 0.016659 -0.997752 0.020554 -0.015698
    24 -0.027022 -1.108171 -0.028023 -0.741998 0.018205 -0.009887
    25 -0.249534 -2.846964 -0.174213 -0.939650 0.028183 0.119144
    26 0.043235 -1.656596 0.072574 -1.310796 -0.020871 0.005717
    27 0.031729 -1.149111 0.058838 -0.767750 -0.008011 0.005292
    28 -0.963866 -2.785145 -0.085350 -0.232722 0.158033 0.099622
    29 0.028479 -1.410880 -0.024980 -1.259464 -0.038003 -0.038087
    30 0.021413 -0.949968 0.020046 -0.574948 -0.011242 -0.023238
    31 1.164475 -2.543940 -0.170330 -1.333869 -0.158092 0.191771
    32 0.024032 -1.136855 -0.001725 -0.786679 0.004374 0.041935
    33 0.014898 -0.891802 -0.019848 -0.469878 -0.002133 0.022735
    34 -0.586770 -1.264477 0.200161 0.473950 -0.896110 -2.898205
    35 1.565805 0.035243 0.016848 -0.018353 -0.006847 0.875859
    36 1.114041 0.044518 -0.005766 -0.027124 -0.034606 0.983702
    37 -0.139399 -0.111698 0.014397 0.285382 -0.030687 1.580508
    38 -0.506724 8.940743 -0.215995 4.721387 -3.139240 1.466051
    39 12.503160 0.714327 -8.955355 -0.124316 -0.576456 0.654575
    40 4.065896 0.000000 -0.000001 -0.875029 0.600171 -1.912021
    41 5.727316 0.000001 0.000000 0.000000 0.000000 -1.059371
    42 9.229777 0.000002 0.000000 -2.000745 -0.150194 0.064280
    43 3.121754 1.118371 -0.913563 2.558465 0.253146 -0.182021
    44 11.071188 0.000000 -0.000001 0.000000 0.000000 0.000000
    45 3.556409 -1.843847 1.155964 0.000000 0.498387 1.570796
    46 2.390777 -1.292302 1.978140 0.749127 -0.286789 -1.340332
    47 4.594266 -1.214511 2.080248 -0.738399 -0.246311 -1.743235
    48 2.359571 -2.305063 0.250360 -0.983482 -0.667108 -1.354557
    49 4.656978 -2.343248 0.146677 1.011314 -0.719578 -1.858369
    50 3.215159 0.000003 2.620673 0.000000 -0.481368 -3.141592
    51 3.121354 -2.072975 -1.172838 1.116134 2.891032 0.469420
    52 3.124867 2.103987 -1.190379 -1.117015 2.889357 -0.472963
    53 7.014220 -2.797903 -1.582981 -1.570796 0.514872 -1.570796
    54 0.000000 0.000002 0.000000 0.000000 0.349066 -0.000001
    55 0.000000 0.000002 0.000000 -0.000001 0.872665 -0.000001
    56 -0.443073 0.000006 3.458307 -0.000001 0.000000 0.000000
    57 6.887265 0.000003 3.240103 -3.141592 -1.570451 0.000000
    58 0.000000 0.000000 0.000000 0.000000 0.349066 0.000000
    59 0.000000 0.000000 0.000000 0.000000 0.872665 0.000000
    60 -0.438941 0.000000 3.585266 0.000000 0.000000 0.000000
    61 6.917892 2.827009 -1.599447 1.570796 0.514872 1.570796
    62 0.000000 0.000000 0.000000 0.000000 0.349066 0.000000
    63 0.000000 0.000000 0.000000 0.000000 0.872665 0.000000
    64 -0.481428 -0.000002 3.554642 0.000000 0.000000 0.000000
    65 -26.539349 -8.068464 -6.371304 1.545101 -0.556542 -4.602303
    66 -139.476181 -6.847344 30.242878 -0.449627 2.071722 1.047993
    67 -0.000001 0.000000 0.000000 0.000000 0.000000 0.000000
    68 -0.000002 0.000008 0.000003 0.000000 0.000000 0.000000
    69 -135.943268 -15.671940 3.954328 0.185069 -0.608022 0.332936
    70 -128.156448 -11.260362 19.049923 0.312408 -1.396518 1.339534
    71 0.000000 0.000000 0.000000 0.000000 0.000000 0.000000
    72 0.000000 0.000000 0.000000 0.000000 0.001990 0.000000
    73 -106.568375 -4.477859 31.493366 -0.911486 0.308585 0.576328
    74 84.051888 0.903572 -75.625259 1.570797 -1.570796 -1.570796
    75 76.324181 43.703346 -84.497192 0.000000 0.000000 -1.570796
    76 -16.526161 16.526237 0.000000 0.000000 0.000000 0.000000
    77 16.525921 16.525917 0.000000 0.000000 0.000000 0.000000
    78 16.525682 -16.525612 0.000000 0.000000 0.000000 0.000000
    79 -16.525921 -16.525917 0.000000 0.000000 0.000000 0.000000
    80 76.265152 121.150276 -84.497192 0.000000 0.000000 -1.570796
    81 -16.740288 16.740356 0.000000 0.000000 0.000000 0.000000
    82 16.740044 16.740044 0.000000 0.000000 0.000000 0.000000
    83 16.739799 -16.739731 0.000000 0.000000 0.000000 0.000000
    84 -16.740044 -16.740044 0.000000 0.000000 0.000000 0.000000
    85 75.715485 158.853149 -84.497192 0.000000 0.000000 -1.570796
    86 -14.652008 14.652077 0.000000 0.000000 0.000000 0.000000
    87 14.651794 14.651802 0.000000 0.000000 0.000000 0.000000
    88 14.651581 -14.651527 0.000000 0.000000 0.000000 0.000000
    89 -14.651794 -14.651798 0.000000 0.000000 0.000000 0.000000
    90 76.586624 82.086914 -84.497192 0.000000 0.000000 -1.570796
    91 -16.421143 16.421211 0.000000 0.000000 0.000000 0.000000
    92 16.420898 16.420898 0.000000 0.000000 0.000000 0.000000
    93 16.420662 -16.420593 0.000000 0.000000 0.000000 0.000000
    94 -16.420898 -16.420898 0.000000 0.000000 0.000000 0.000000
    95 104.671562 5.020584 -75.625259 1.570797 -1.570796 -1.570796
    96 6.916865 -28.650864 -5.390367 2.148678 1.259417 -7.482755
    97 7.976692 -32.734443 -5.605634 0.306237 -2.595891 -0.392330
    98 0.000000 -9.949377 -0.000071 0.000000 0.000000 0.000000
    99 -85.857788 -39.947548 -50.510788 -0.449173 0.062892 -2.510897
    100 -14.651985 14.652081 -0.000019 0.000000 0.000000 0.000000
    101 14.651802 14.651814 -0.000008 0.000000 0.000000 0.000000
    102 14.651573 -14.651527 0.000011 0.000000 0.000000 0.000000
    103 -14.651794 -14.651812 0.000004 0.000000 0.000000 0.000000
    104 -92.616295 101.545227 -81.998543 1.051518 -2.158346 -2.089831
    105 -14.652016 14.652081 0.000015 0.000000 0.000000 0.000000
    106 14.651810 14.651814 0.000015 0.000000 0.000000 0.000000
    107 14.651585 -14.651522 -0.000015 0.000000 0.000000 0.000000
    108 -14.651802 -14.651802 -0.000015 0.000000 0.000000 0.000000
    109 -88.541824 -3.090007 126.922211 0.504917 -0.042813 -1.783580
    110 -16.421141 16.421215 0.000000 0.000000 0.000000 0.000000
    111 16.420900 16.420910 0.000015 0.000000 0.000000 0.000000
    112 16.420660 -16.420589 0.000015 0.000000 0.000000 0.000000
    113 -16.420902 -16.420895 0.000000 0.000000 0.000000 0.000000
    114 -153.887299 -84.320137 -12.565396 -0.449173 0.062892 -2.510897
    115 -14.651993 14.652077 -0.000015 0.000000 0.000000 0.000000
    116 14.651794 14.651807 -0.000011 0.000000 0.000000 0.000000
    117 14.651581 -14.651535 0.000013 0.000000 0.000000 0.000000
    118 -14.651779 -14.651814 0.000005 0.000000 0.000000 0.000000
    119 0.001769 0.000002 0.000001 0.000000 -1.570451 0.000000
    120 0.001771 0.000002 0.000002 3.141496 1.570412 0.000000
    121 6.718350 -35.428761 -6.005300 -0.016598 2.421615 -0.122532
    122 -0.000010 -50.272392 -0.000009 0.000000 0.000000 0.000000
    123 -134.110794 39.663200 -14.498636 3.112200 -0.406702 -0.300851
    124 -104.675583 77.418777 0.364775 0.836412 0.398371 -0.722376
    125 -116.304535 -76.120850 28.837309 -0.901921 0.453801 0.302725
  time 4
    0 9.735826 1.365964 -9.859057 0.028775 -0.365218 0.230166
    1 7.009252 -4.565217 -2.803755 0.102847 -2.301931 -0.688769
    2 7.101108 4.598395 -0.306061 1.565307 -3.126196 0.662544
    3 0.014019 -8.498736 -0.068977 0.169220 0.671161 0.068847
    4 -0.488518 -2.755602 -0.228260 -1.624050 -0.173655 -0.380393
    5 0.039887 -1.499322 0.014229 -0.760111 -0.012116 0.013987
    6 0.028786 -1.114795 -0.093424 -0.611124 -0.011781 0.011110
    7 0.250027 -2.820665 -0.238396 -0.891745 -0.094519 -0.342634
    8 -0.049759 -1.606323 0.065322 -1.119523 0.007083 -0.030946
    9 -0.034142 -1.171750 0.045718 -1.201772 0.006220 -0.031687
    10 0.957766 -2.746780 -0.090302 0.013124 -0.165141 -0.257303
    11 -0.033420 -1.393223 -0.022976 -0.680809 0.008102 -0.033426
    12 -0.022360 -0.957436 -0.000748 -0.764143 0.007047 -0.037188
    13 -1.180681 -2.507217 -0.193859 -1.718411 -0.099373 -0.432445
    14 -0.024967 -1.123934 0.017597 -0.661184 0.007442 -0.027863
    15 -0.020057 -0.902687 0.017903 -0.580622 0.007838 -0.022100
    16 0.575697 -1.193371 0.185379 0.145297 -0.467077 -0.601465
    17 1.520302 -0.146009 0.047979 0.013359 -0.150910 -0.501168
    18 1.089052 -0.085319 0.012759 0.000871 -0.103226 -0.426765
    19 0.120153 -0.050270 -0.054489 0.287569 3.110905 1.561085
    20 -5.091228 -7.028190 -1.556018 0.357629 -4.417191 0.632564
    21 -0.102281 -8.434793 0.045324 -0.232287 -1.110097 0.309352
    22 0.447953 -2.798986 -0.200443 -1.276689 -0.000904 0.126384
    23 -0.032909 -1.495829 0.016659 -0.997752 0.020554 -0.015698
    24 -0.027022 -1.108171 -0.028023 -0.741998 0.018205 -0.009887
    25 -0.249534 -2.846964 -0.174213 -0.939650 0.028183 0.119144
    26 0.043235 -1.656596 0.072574 -1.310796 -0.020871 0.005717
    27 0.031729 -1.149111 0.058838 -0.767750 -0.008011 0.005292
    28 -0.963866 -2.785145 -0.085350 -0.232722 0.158033 0.099622
    29 0.028479 -1.410880 -0.024980 -1.260928 -0.038063 -0.038099
    30 0.021413 -0.949968 0.020046 -0.574948 -0.011242 -0.023238
    31 1.164475 -2.543940 -0.170330 -1.333869 -0.158092 0.191771
    32 0.024032 -1.136855 -0.001725 -0.786679 0.004374 0.041935
    33 0.014898 -0.891802 -0.019848 -0.469878 -0.002133 0.022735
    34 -0.586770 -1.264477 0.200161 0.473950 -0.896110 -2.898205
    35 1.565805 0.035243 0.016848 -0.018353 -0.006847 0.875859
    36 1.114041 0.044518 -0.005766 -0.027124 -0.034606 0.983702
    37 -0.139399 -0.111698 0.014397 0.285382 -0.030687 1.580508
    38 -1.666916 8.788394 -0.243339 1.580996 -0.005885 -1.532780
    39 12.503160 0.714327 -8.955355 -0.124316 -0.576456 0.654575
    40 4.065896 0.000000 -0.000001 -0.842602 0.653688 -1.851698
    41 5.727316 0.000001 0.000000 0.000000 0.000000 -1.127064
    42 9.229777 0.000002 0.000000 -1.999468 -0.138679 0.067353
    43 3.121754 1.118371 -0.913563 2.558465 0.253146 -0.182021
    44 11.071188 0.000000 -0.000001 0.000000 0.000000 0.000000
    45 3.556409 -1.843847 1.155964 0.000000 0.498387 1.570796
    46 2.390777 -1.292302 1.978140 0.749127 -0.286789 -1.340332
    47 4.594266 -1.214511 2.080248 -0.738399 -0.246311 -1.743235
    48 2.359571 -2.305063 0.250360 -0.983482 -0.667108 -1.354557
    49 4.656978 -2.343248 0.146677 1.011314 -0.719578 -1.858369
    50 3.215159 0.000003 2.620673 0.000000 -0.481368 -3.141592
    51 3.121354 -2.072975 -1.172838 1.116134 2.891032 0.469420
    52 3.124867 2.103987 -1.190379 -1.117015 2.889357 -0.472963
    53 7.014220 -2.797903 -1.582981 -1.570796 0.514872 -1.570796
    54 0.000000 0.000002 0.000000 0.000000 0.349066 -0.000001
    55 0.000000 0.000002 0.000000 -0.000001 0.872665 -0.000001
    56 -0.443073 0.000006 3.458307 -0.000001 0.000000 0.000000
    57 6.887265 0.000003 3.240103 -3.141592 -1.570451 0.000000
    58 0.000000 0.000000 0.000000 0.000000 0.349066 0.000000
    59 0.000000 0.000000 0.000000 0.000000 0.872665 0.000000
    60 -0.438941 0.000000 3.585266 0.000000 0.000000 0.000000
    61 6.917892 2.827009 -1.599447 1.570796 0.514872 1.570796
    62 0.000000 0.000000 0.000000 0.000000 0.349066 0.000000
    63 0.000000 0.000000 0.000000 0.000000 0.872665 0.000000
    64 -0.481428 -0.000002 3.554642 0.000000 0.000000 0.000000
    65 -26.539349 -8.068464 -6.371304 1.545101 -0.556542 -4.602303
    66 -139.476181 -6.847344 30.242878 -0.449627 2.071722 1.047993
    67 -0.000001 0.000000 0.000000 0.000000 0.000000 0.000000
    68 -0.000002 0.000008 0.000003 0.000000 0.000000 0.000000
    69 -135.943268 -15.671940 3.954328 0.185069 -0.608022 0.332936
    70 -128.156448 -11.260362 19.049923 0.312408 -1.396518 1.339534
    71 0.000000 0.000000 0.000000 0.000000 0.000000 0.000000
    72 0.000000 0.000000 0.000000 0.000000 0.001990 0.000000
    73 -106.568375 -4.477859 31.493366 -0.911486 0.308585 0.576328
    74 84.051888 0.903572 -75.625259 1.570797 -1.570796 -1.570796
    75 76.324181 43.703346 -84.497192 0.000000 0.000000 -1.570796
    76 -16.526161 16.526237 0.000000 0.000000 0.000000 0.000000
    77 16.525921 16.525917 0.000000 0.000000 0.000000 0.000000
    78 16.525682 -16.525612 0.000000 0.000000 0.000000 0.000000
    79 -16.525921 -16.525917 0.000000 0.000000 0.000000 0.000000
    80 76.265152 121.150276 -84.497192 0.000000 0.000000 -1.570796
    81 -16.740288 16.740356 0.000000 0.000000 0.000000 0.000000
    82 16.740044 16.740044 0.000000 0.000000 0.000000 0.000000
    83 16.739799 -16.739731 0.000000 0.000000 0.000000 0.000000
    84 -16.740044 -16.740044 0.000000 0.000000 0.000000 0.000000
    85 75.715485 158.853149 -84.497192 0.000000 0.000000 -1.570796
    86 -14.652008 14.652077 0.000000 0.000000 0.000000 0.000000
    87 14.651794 14.651802 0.000000 0.000000 0.000000 0.000000
    88 14.651581 -14.651527 0.000000 0.000000 0.000000 0.000000
    89 -14.651794 -14.651798 0.000000 0.000000 0.000000 0.000000
    90 76.586624 82.086914 -84.497192 0.000000 0.000000 -1.570796
    91 -16.421143 16.421211 0.000000 0.000000 0.000000 0.000000
    92 16.420898 16.420898 0.000000 0.000000 0.000000 0.000000
    93 16.420662 -16.420593 0.000000 0.000000 0.000000 0.000000
    94 -16.420898 -16.420898 0.000000 0.000000 0.000000 0.000000
    95 104.671562 5.020584 -75.625259 1.570797 -1.570796 -1.570796
    96 7.272344 -28.451640 -5.656000 2.883489 0.266285 -6.580560
    97 8.343891 -32.531311 -5.906424 0.250255 -3.172674 -0.221061
    98 0.000000 -19.894993 -0.000071 0.000000 0.000000 0.000000
    99 -85.857788 -39.947548 -50.510788 -0.449173 0.062892 -2.510897
    100 -14.651985 14.652081 -0.000019 0.000000 0.000000 0.000000
    101 14.651802 14.651814 -0.000008 0.000000 0.000000 0.000000
    102 14.651573 -14.651527 0.000011 0.000000 0.000000 0.000000
    103 -14.651794 -14.651812 0.000004 0.000000 0.000000 0.000000
    104 -92.616295 101.545227 -81.998543 1.051518 -2.158346 -2.089831
    105 -14.652016 14.652081 0.000015 0.000000 0.000000 0.000000
    106 14.651810 14.651814 0.000015 0.000000 0.000000 0.000000
    107 14.651585 -14.651522 -0.000015 0.000000 0.000000 0.000000
    108 -14.651802 -14.651802 -0.000015 0.000000 0.000000 0.000000
    109 -88.541824 -3.090007 126.922211 0.504917 -0.042813 -1.783580
    110 -16.421141 16.421215 0.000000 0.000000 0.000000 0.000000
    111 16.420900 16.420910 0.000015 0.000000 0.000000 0.000000
    112 16.420660 -16.420589 0.000015 0.000000 0.000000 0.000000
    113 -16.420902 -16.420895 0.000000 0.000000 0.000000 0.000000
    114 -153.887299 -84.320137 -12.565396 -0.449173 0.062892 -2.510897
    115 -14.651993 14.652077 -0.000015 0.000000 0.000000 0.000000
    116 14.651794 14.651807 -0.000011 0.000000 0.000000 0.000000
    117 14.651581 -14.651535 0.000013 0.000000 0.000000 0.000000
    118 -14.651779 -14.651814 0.000005 0.000000 0.000000 0.000000
    119 0.001769 0.000002 0.000001 0.000000 -1.570451 0.000000
    120 0.001771 0.000002 0.000002 3.141496 1.570412 0.000000
    121 7.093362 -35.225630 -6.337341 -0.030393 2.417721 -0.129408
    122 -0.000010 -50.272392 -0.000009 0.000000 0.000000 0.000000
    123 -134.110794 39.663200 -14.498636 3.112200 -0.406702 -0.300851
    124 -104.675583 77.418777 0.364775 0.836412 0.398371 -0.722376
    125 -116.304535 -76.120850 28.837309 -0.901921 0.453801 0.302725
  time 5
    0 9.735826 1.365964 -9.859057 0.028775 -0.365218 0.230166
    1 7.337387 -4.319115 -2.963916 0.101506 -2.301931 -0.681803
    2 7.362835 4.074942 -0.317781 1.565595 -3.124662 0.590379
    3 0.014019 -8.494830 -0.068977 0.153396 0.671188 0.055283
    4 -0.488518 -2.755602 -0.228260 -1.624050 -0.173655 -0.380393
    5 0.039887 -1.499322 0.014229 -0.760111 -0.012116 0.013987
    6 0.028786 -1.114795 -0.093424 -0.611124 -0.011781 0.011110
    7 0.250027 -2.820665 -0.238396 -0.891745 -0.094519 -0.342634
    8 -0.049759 -1.606323 0.065322 -1.119523 0.007083 -0.030946
    9 -0.034142 -1.171750 0.045718 -1.201807 0.006220 -0.031687
    10 0.957766 -2.746780 -0.090302 0.013124 -0.165141 -0.257303
    11 -0.033420 -1.393223 -0.022976 -0.680809 0.008102 -0.033426
    12 -0.022360 -0.957436 -0.000748 -0.764143 0.007047 -0.037188
    13 -1.180681 -2.507217 -0.193859 -1.718411 -0.099373 -0.432445
    14 -0.024967 -1.123934 0.017597 -0.661184 0.007442 -0.027863
    15 -0.020057 -0.902687 0.017903 -0.580622 0.007838 -0.022100
    16 0.575697 -1.193371 0.185379 0.145297 -0.467077 -0.601465
    17 1.520302 -0.146009 0.047979 0.013359 -0.150910 -0.501168
    18 1.089052 -0.085319 0.012759 0.000871 -0.103226 -0.426765
    19 0.120153 -0.050270 -0.054489 0.287569 3.110905 1.561085
    20 -5.028727 -6.926624 -1.981812 0.423160 -4.407039 0.731802
    21 -0.106187 -8.442606 0.045324 -0.173593 -1.126723 0.294017
    22 0.447953 -2.798986 -0.200443 -1.276689 -0.000904 0.126384
    23 -0.032909 -1.495829 0.016659 -0.997752 0.020554 -0.015698
    24 -0.027022 -1.108171 -0.028023 -0.741998 0.018205 -0.009887
    25 -0.249534 -2.846964 -0.174213 -0.939650 0.028183 0.119144
    26 0.043235 -1.656596 0.072574 -1.310796 -0.020871 0.005717
    27 0.031729 -1.149111 0.058838 -0.767750 -0.008011 0.005292
    28 -0.963866 -2.785145 -0.085350 -0.232722 0.158033 0.099622
    29 0.028479 -1.410880 -0.024980 -1.262352 -0.038135 -0.038111
    30 0.021413 -0.949968 0.020046 -0.574948 -0.011242 -0.023238
    31 1.164475 -2.543940 -0.170330 -1.333869 -0.158092 0.191771
    32 0.024032 -1.136855 -0.001725 -0.786679 0.004374 0.041935
    33 0.014898 -0.891802 -0.019848 -0.469878 -0.002133 0.022735
    34 -0.586770 -1.264477 0.200161 0.473950 -0.896110 -2.898205
    35 1.565805 0.035243 0.016848 -0.018353 -0.006847 0.875859
    36 1.114041 0.044518 -0.005766 -0.027124 -0.034606 0.983702
    37 -0.139399 -0.111698 0.014397 0.285382 -0.030687 1.580508
    38 -2.487253 8.577450 -0.266778 1.581475 -0.008565 -1.429922
    39 12.503160 0.714327 -8.955355 -0.124316 -0.576456 0.654575
    40 4.065896 0.000000 -0.000001 -0.802359 0.708553 -1.782458
    41 5.727316 0.000001 0.000000 0.000000 0.000000 -1.199239
    42 9.229777 0.000002 0.000000 -1.997998 -0.126423 0.070989
    43 3.121754 1.118371 -0.913563 2.558465 0.253146 -0.182021
    44 11.071188 0.000000 -0.000001 0.000000 0.000000 0.000000
    45 3.556409 -1.843847 1.155964 0.000000 0.498387 1.570796
    46 2.390777 -1.292302 1.978140 0.749127 -0.286789 -1.340332
    47 4.594266 -1.214511 2.080248 -0.738399 -0.246311 -1.743235
    48 2.359571 -2.305063 0.250360 -0.983482 -0.667108 -1.354557
    49 4.656978 -2.343248 0.146677 1.011314 -0.719578 -1.858369
    50 3.215159 0.000003 2.620673 0.000000 -0.481368 -3.141592
    51 3.121354 -2.072975 -1.172838 1.116134 2.891032 0.469420
    52 3.124867 2.103987 -1.190379 -1.117015 2.889357 -0.472963
    53 7.014220 -2.797903 -1.582981 -1.570796 0.514872 -1.570796
    54 0.000000 0.000002 0.000000 0.000000 0.349066 -0.000001
    55 0.000000 0.000002 0.000000 -0.000001 0.872665 -0.000001
    56 -0.443073 0.000006 3.458307 -0.000001 0.000000 0.000000
    57 6.887265 0.000003 3.240103 -3.141592 -1.570451 0.000000
    58 0.000000 0.000000 0.000000 0.000000 0.349066 0.000000
    59 0.000000 0.000000 0.000000 0.000000 0.872665 0.000000
    60 -0.438941 0.000000 3.585266 0.000000 0.000000 0.000000
    61 6.917892 2.827009 -1.599447 1.570796 0.514872 1.570796
    62 0.000000 0.000000 0.000000 0.000000 0.349066 0.000000
    63 0.000000 0.000000 0.000000 0.000000 0.872665 0.000000
    64 -0.481428 -0.000002 3.554642 0.000000 0.000000 0.000000
    65 -26.539349 -8.068464 -6.371304 1.545101 -0.556542 -4.602303
    66 -139.476181 -6.847344 30.242878 -0.449627 2.071722 1.047993
    67 -0.000001 0.000000 0.000000 0.000000 0.000000 0.000000
    68 -0.000002 0.000008 0.000003 0.000000 0.000000 0.000000
    69 -135.943268 -15.671940 3.954328 0.185069 -0.608022 0.332936
    70 -128.156448 -11.260362 19.049923 0.312408 -1.396518 1.339534
    71 0.000000 0.000000 0.000000 0.000000 0.000000 0.000000
    72 0.000000 0.000000 0.000000 0.000000 0.001990 0.000000
    73 -106.568375 -4.477859 31.493366 -0.911486 0.308585 0.576328
    74 84.051888 0.903572 -75.625259 1.570797 -1.570796 -1.570796
    75 76.324181 43.703346 -84.497192 0.000000 0.000000 -1.570796
    76 -16.526161 16.526237 0.000000 0.000000 0.000000 0.000000
    77 16.525921 16.525917 0.000000 0.000000 0.000000 0.000000
    78 16.525682 -16.525612 0.000000 0.000000 0.000000 0.000000
    79 -16.525921 -16.525917 0.000000 0.000000 0.000000 0.000000
    80 76.265152 121.150276 -84.497192 0.000000 0.000000 -1.570796
    81 -16.740288 16.740356 0.000000 0.000000 0.000000 0.000000
    82 16.740044 16.740044 0.000000 0.000000 0.000000 0.000000
    83 16.739799 -16.739731 0.000000 0.000000 0.000000 0.000000
    84 -16.740044 -16.740044 0.000000 0.000000 0.000000 0.000000
    85 75.715485 158.853149 -84.497192 0.000000 0.000000 -1.570796
    86 -14.652008 14.652077 0.000000 0.000000 0.000000 0.000000
    87 14.651794 14.651802 0.000000 0.000000 0.000000 0.000000
    88 14.651581 -14.651527 0.000000 0.000000 0.000000 0.000000
    89 -14.651794 -14.651798 0.000000 0.000000 0.000000 0.000000
    90 76.586624 82.086914 -84.497192 0.000000 0.000000 -1.570796
    91 -16.421143 16.421211 0.000000 0.000000 0.000000 0.000000
    92 16.420898 16.420898 0.000000 0.000000 0.000000 0.000000
    93 16.420662 -16.420593 0.000000 0.000000 0.000000 0.000000
    94 -16.420898 -16.420898 0.000000 0.000000 0.000000 0.000000
    95 104.671562 5.020584 -75.625259 1.570797 -1.570796 -1.570796
    96 7.627824 -28.217257 -5.921634 2.791091 -0.816046 -6.249363
    97 8.711089 -32.289117 -6.203308 0.292587 -3.752499 -0.057023
    98 0.000000 -20.035622 -0.000071 0.000000 0.000000 0.000000
    99 -85.857788 -39.947548 -50.510788 -0.449173 0.062892 -2.510897
    100 -14.651985 14.652081 -0.000019 0.000000 0.000000 0.000000
    101 14.651802 14.651814 -0.000008 0.000000 0.000000 0.000000
    102 14.651573 -14.651527 0.000011 0.000000 0.000000 0.000000
    103 -14.651794 -14.651812 0.000004 0.000000 0.000000 0.000000
    104 -92.616295 101.545227 -81.998543 1.051518 -2.158346 -2.089831
    105 -14.652016 14.652081 0.000015 0.000000 0.000000 0.000000
    106 14.651810 14.651814 0.000015 0.000000 0.000000 0.000000
    107 14.651585 -14.651522 -0.000015 0.000000 0.000000 0.000000
    108 -14.651802 -14.651802 -0.000015 0.000000 0.000000 0.000000
    109 -88.541824 -3.090007 126.922211 0.504917 -0.042813 -1.783580
    110 -16.421141 16.421215 0.000000 0.000000 0.000000 0.000000
    111 16.420900 16.420910 0.000015 0.000000 0.000000 0.000000
    112 16.420660 -16.420589 0.000015 0.000000 0.000000 0.000000
    113 -16.420902 -16.420895 0.000000 0.000000 0.000000 0.000000
    114 -153.887299 -84.320137 -12.565396 -0.449173 0.062892 -2.510897
    115 -14.651993 14.652077 -0.000015 0.000000 0.000000 0.000000
    116 14.651794 14.651807 -0.000011 0.000000 0.000000 0.000000
    117 14.651581 -14.651535 0.000013 0.000000 0.000000 0.000000
    118 -14.651779 -14.651814 0.000005 0.000000 0.000000 0.000000
    119 0.001769 0.000002 0.000001 0.000000 -1.570451 0.000000
    120 0.001771 0.000002 0.000002 3.141496 1.570412 0.000000
    121 7.468373 -34.983435 -6.669382 -0.045033 2.413465 -0.136781
    122 -0.000010 -50.272392 -0.000009 0.000000 0.000000 0.000000
    123 -134.110794 39.663200 -14.498636 3.112200 -0.406702 -0.300851
    124 -104.675583 77.418777 0.364775 0.836412 0.398371 -0.722376
    125 -116.304535 -76.120850 28.837309 -0.901921 0.453801 0.302725
  time 6
    0 9.735826 1.365964 -9.859057 0.028775 -0.365218 0.230166
    1 7.661616 -4.037857 -3.104545 0.100260 -2.302278 -0.674836
    2 7.589404 3.516331 -0.329500 1.565979 -3.123128 0.516342
    3 0.014019 -8.490924 -0.068977 0.137180 0.671000 0.041290
    4 -0.488518 -2.755602 -0.228260 -1.624050 -0.173655 -0.380393
    5 0.039887 -1.499322 0.014229 -0.760111 -0.012116 0.013987
    6 0.028786 -1.114795 -0.093424 -0.611124 -0.011781 0.011110
    7 0.250027 -2.820665 -0.238396 -0.891745 -0.094519 -0.342634
    8 -0.049759 -1.606323 0.065322 -1.119523 0.007083 -0.030946
    9 -0.034142 -1.171750 0.045718 -1.201772 0.006220 -0.031687
    10 0.957766 -2.746780 -0.090302 0.013124 -0.165141 -0.257303
    11 -0.033420 -1.393223 -0.022976 -0.680809 0.008102 -0.033426
    12 -0.022360 -0.957436 -0.000748 -0.764143 0.007047 -0.037188
    13 -1.180681 -2.507217 -0.193859 -1.718411 -0.099373 -0.432445
    14 -0.024967 -1.123934 0.017597 -0.661184 0.007442 -0.027863
    15 -0.020057 -0.902687 0.017903 -0.580622 0.007838 -0.022100
    16 0.575697 -1.193371 0.185379 0.145297 -0.467065 -0.601465
    17 1.520302 -0.146009 0.047979 0.013359 -0.150910 -0.501168
    18 1.089052 -0.085319 0.012759 0.000871 -0.103226 -0.426765
    19 0.120153 -0.050270 -0.054489 0.287569 3.110905 1.561085
    20 -4.962318 -6.805527 -2.352918 0.474011 -4.398485 0.816494
    21 -0.110094 -8.450418 0.045324 -0.109231 -1.141993 0.268812
    22 0.447953 -2.798986 -0.200443 -1.276689 -0.000904 0.126384
    23 -0.032909 -1.495829 0.016659 -0.997752 0.020554 -0.015698
    24 -0.027022 -1.108171 -0.028023 -0.741998 0.018205 -0.009887
    25 -0.249534 -2.846964 -0.174213 -0.939650 0.028183 0.119144
    26 0.043235 -1.656596 0.072574 -1.310796 -0.020871 0.005717
    27 0.031729 -1.149111 0.058838 -0.767750 -0.008011 0.005292
    28 -0.963866 -2.785145 -0.085350 -0.232722 0.158033 0.099622
    29 0.028479 -1.410880 -0.024980 -1.263817 -0.038195 -0.038123
    30 0.021413 -0.949968 0.020046 -0.574948 -0.011242 -0.023238
    31 1.164475 -2.543940 -0.170330 -1.333869 -0.158092 0.191771
    32 0.024032 -1.136855 -0.001725 -0.786679 0.004374 0.041935
    33 0.014898 -0.891802 -0.019848 -0.469878 -0.002133 0.022735
    34 -0.586770 -1.264477 0.200161 0.473950 -0.896110 -2.898205
    35 1.565805 0.035243 0.016848 -0.018353 -0.006847 0.875859
    36 1.114041 0.044518 -0.005766 -0.027124 -0.034606 0.983702
    37 -0.139399 -0.111698 0.014397 0.285382 -0.030687 1.580508
    38 -3.182587 8.319630 -0.286309 1.581667 -0.010958 -1.340203
    39 12.503160 0.714327 -8.955355 -0.124316 -0.576456 0.654575
    40 4.065896 0.000000 -0.000001 -0.753849 0.762070 -1.705121
    41 5.727316 0.000001 0.000000 0.000000 0.000000 -1.273223
    42 9.229777 0.000002 0.000000 -1.996373 -0.113886 0.074939
    43 3.121754 1.118371 -0.913563 2.558465 0.253146 -0.182021
    44 11.071188 0.000000 -0.000001 0.000000 0.000000 0.000000
    45 3.556409 -1.843847 1.155964 0.000000 0.498387 1.570796
    46 2.390777 -1.292302 1.978140 0.749127 -0.286789 -1.340332
    47 4.594266 -1.214511 2.080248 -0.738399 -0.246311 -1.743235
    48 2.359571 -2.305063 0.250360 -0.983482 -0.667108 -1.354557
    49 4.656978 -2.343248 0.146677 1.011314 -0.719578 -1.858369
    50 3.215159 0.000003 2.620673 0.000000 -0.481368 -3.141592
    51 3.121354 -2.072975 -1.172838 1.116134 2.891032 0.469420
    52 3.124867 2.103987 -1.190379 -1.117015 2.889357 -0.472963
    53 7.014220 -2.797903 -1.582981 -1.570796 0.514872 -1.570796
    54 0.000000 0.000002 0.000000 0.000000 0.349066 -0.000001
    55 0.000000 0.000002 0.000000 -0.000001 0.872665 -0.000001
    56 -0.443073 0.000006 3.458307 -0.000001 0.000000 0.000000
    57 6.887265 0.000003 3.240103 -3.141592 -1.570451 0.000000
    58 0.000000 0.000000 0.000000 0.000000 0.349066 0.000000
    59 0.000000 0.000000 0.000000 0.000000 0.872665 0.000000
    60 -0.438941 0.000000 3.585266 0.000000 0.000000 0.000000
    61 6.917892 2.827009 -1.599447 1.570796 0.514872 1.570796
    62 0.000000 0.000000 0.000000 0.000000 0.349066 0.000000
    63 0.000000 0.000000 0.000000 0.000000 0.872665 0.000000
    64 -0.481428 -0.000002 3.554642 0.000000 0.000000 0.000000
    65 -26.539349 -8.068464 -6.371304 1.545101 -0.556542 -4.602303
    66 -139.476181 -6.847344 30.242878 -0.449627 2.071722 1.047993
    67 -0.000001 0.000000 0.000000 0.000000 0.000000 0.000000
    68 -0.000002 0.000008 0.000003 0.000000 0.000000 0.000000
    69 -135.943268 -15.671940 3.954328 0.185069 -0.608022 0.332936
    70 -128.156448 -11.260362 19.049923 0.312408 -1.396518 1.339534
    71 0.000000 0.000000 0.000000 0.000000 0.000000 0.000000
    72 0.000000 0.000000 0.000000 0.000000 0.001990 0.000000
    73 -106.568375 -4.477859 31.493366 -0.911486 0.308585 0.576328
    74 84.051888 0.903572 -75.625259 1.570797 -1.570796 -1.570796
    75 76.324181 43.703346 -84.497192 0.000000 0.000000 -1.570796
    76 -16.526161 16.526237 0.000000 0.000000 0.000000 0.000000
    77 16.525921 16.525917 0.000000 0.000000 0.000000 0.000000
    78 16.525682 -16.525612 0.000000 0.000000 0.000000 0.000000
    79 -16.525921 -16.525917 0.000000 0.000000 0.000000 0.000000
    80 76.265152 121.150276 -84.497192 0.000000 0.000000 -1.570796
    81 -16.740288 16.740356 0.000000 0.000000 0.000000 0.000000
    82 16.740044 16.740044 0.000000 0.000000 0.000000 0.000000
    83 16.739799 -16.739731 0.000000 0.000000 0.000000 0.000000
    84 -16.740044 -16.740044 0.000000 0.000000 0.000000 0.000000
    85 75.715485 158.853149 -84.497192 0.000000 0.000000 -1.570796
    86 -14.652008 14.652077 0.000000 0.000000 0.000000 0.000000
    87 14.651794 14.651802 0.000000 0.000000 0.000000 0.000000
    88 14.651581 -14.651527 0.000000 0.000000 0.000000 0.000000
    89 -14.651794 -14.651798 0.000000 0.000000 0.000000 0.000000
    90 76.586624 82.086914 -84.497192 0.000000 0.000000 -1.570796
    91 -16.421143 16.421211 0.000000 0.000000 0.000000 0.000000
    92 16.420898 16.420898 0.000000 0.000000 0.000000 0.000000
    93 16.420662 -16.420593 0.000000 0.000000 0.000000 0.000000
    94 -16.420898 -16.420898 0.000000 0.000000 0.000000 0.000000
    95 104.671562 5.020584 -75.625259 1.570797 -1.570796 -1.570796
    96 7.963772 -27.951624 -6.171641 0.534173 -1.115208 -3.855064
    97 9.058756 -32.019577 -6.488473 0.604895 1.976438 0.338800
    98 0.000000 -20.172345 -0.000071 0.000000 0.000000 0.000000
    99 -85.857788 -39.947548 -50.510788 -0.449173 0.062892 -2.510897
    100 -14.651985 14.652081 -0.000019 0.000000 0.000000 0.000000
    101 14.651802 14.651814 -0.000008 0.000000 0.000000 0.000000
    102 14.651573 -14.651527 0.000011 0.000000 0.000000 0.000000
    103 -14.651794 -14.651812 0.000004 0.000000 0.000000 0.000000
    104 -92.616295 101.545227 -81.998543 1.051518 -2.158346 -2.089831
    105 -14.652016 14.652081 0.000015 0.000000 0.000000 0.000000
    106 14.651810 14.651814 0.000015 0.000000 0.000000 0.000000
    107 14.651585 -14.651522 -0.000015 0.000000 0.000000 0.000000
    108 -14.651802 -14.651802 -0.000015 0.000000 0.000000 0.000000
    109 -88.541824 -3.090007 126.922211 0.504917 -0.042813 -1.783580
    110 -16.421141 16.421215 0.000000 0.000000 0.000000 0.000000
    111 16.420900 16.420910 0.000015 0.000000 0.000000 0.000000
    112 16.420660 -16.420589 0.000015 0.000000 0.000000 0.000000
    113 -16.420902 -16.420895 0.000000 0.000000 0.000000 0.000000
    114 -153.887299 -84.320137 -12.565396 -0.449173 0.062892 -2.510897
    115 -14.651993 14.652077 -0.000015 0.000000 0.000000 0.000000
    116 14.651794 14.651807 -0.000011 0.000000 0.000000 0.000000
    117 14.651581 -14.651535 0.000013 0.000000 0.000000 0.000000
    118 -14.651779 -14.651814 0.000005 0.000000 0.000000 0.000000
    119 0.001769 0.000002 0.000001 0.000000 -1.570451 0.000000
    120 0.001771 0.000002 0.000002 3.141496 1.570412 0.000000
    121 7.823853 -34.709989 -6.993611 -0.060066 2.409027 -0.144568
    122 -0.000010 -50.272392 -0.000009 0.000000 0.000000 0.000000
    123 -134.110794 39.663200 -14.498636 3.112200 -0.406702 -0.300851
    124 -104.675583 77.418777 0.364775 0.836412 0.398371 -0.722376
    125 -116.304535 -76.120850 28.837309 -0.901921 0.453801 0.302725
  time 7
    0 9.735826 1.365964 -9.859057 0.028775 -0.365218 0.230166
    1 7.970219 -3.740973 -3.221736 0.098919 -2.302884 -0.667870
    2 7.773004 2.949907 -0.341219 1.566458 -3.121594 0.443334
    3 0.014019 -8.487017 -0.068977 0.121160 0.670678 0.027541
    4 -0.488518 -2.755602 -0.228260 -1.624050 -0.173655 -0.380393
    5 0.039887 -1.499322 0.014229 -0.760111 -0.012116 0.013987
    6 0.028786 -1.114795 -0.093424 -0.611124 -0.011781 0.011110
    7 0.250027 -2.820665 -0.238396 -0.891745 -0.094519 -0.342634
    8 -0.049759 -1.606323 0.065322 -1.119523 0.007083 -0.030946
    9 -0.034142 -1.171750 0.045718 -1.201807 0.006220 -0.031687
    10 0.957766 -2.746780 -0.090302 0.013124 -0.165141 -0.257303
    11 -0.033420 -1.393223 -0.022976 -0.680809 0.008102 -0.033426
    12 -0.022360 -0.957436 -0.000748 -0.764143 0.007047 -0.037188
    13 -1.180681 -2.507217 -0.193859 -1.718411 -0.099373 -0.432445
    14 -0.024967 -1.123934 0.017597 -0.661184 0.007442 -0.027863
    15 -0.020057 -0.902687 0.017903 -0.580622 0.007838 -0.022100
    16 0.575697 -1.193371 0.185379 0.145297 -0.467065 -0.601465
    17 1.520302 -0.146009 0.047979 0.013359 -0.150910 -0.501168
    18 1.089052 -0.085319 0.012759 0.000871 -0.103226 -0.426765
    19 0.120153 -0.050270 -0.054489 0.287569 3.110905 1.561085
    20 -4.895910 -6.664897 -2.681053 0.517490 -4.390890 0.893243
    21 -0.114000 -8.458231 0.049231 -0.041439 -1.155553 0.237281
    22 0.447953 -2.798986 -0.200443 -1.276689 -0.000904 0.126384
    23 -0.032909 -1.495829 0.016659 -0.997752 0.020554 -0.015698
    24 -0.027022 -1.108171 -0.028023 -0.741998 0.018205 -0.009887
    25 -0.249534 -2.846964 -0.174213 -0.939650 0.028183 0.119144
    26 0.043235 -1.656596 0.072574 -1.310796 -0.020871 0.005717
    27 0.031729 -1.149111 0.058838 -0.767750 -0.008011 0.005292
    28 -0.963866 -2.785145 -0.085350 -0.232722 0.158033 0.099622
    29 0.028479 -1.410880 -0.024980 -1.265281 -0.038255 -0.038123
    30 0.021413 -0.949968 0.020046 -0.574948 -0.011242 -0.023238
    31 1.164475 -2.543940 -0.170330 -1.333869 -0.158092 0.191771
    32 0.024032 -1.136855 -0.001725 -0.786679 0.004374 0.041935
    33 0.014898 -0.891802 -0.019848 -0.469878 -0.002133 0.022735
    34 -0.586770 -1.264477 0.200161 0.473950 -0.896110 -2.898205
    35 1.565805 0.035243 0.016848 -0.018353 -0.006847 0.875859
    36 1.114041 0.044518 -0.005766 -0.027124 -0.034606 0.983702
    37 -0.139399 -0.111698 0.014397 0.285382 -0.030687 1.580508
    38 -3.784168 8.038371 -0.305841 1.581667 -0.013160 -1.259400
    39 12.503160 0.714327 -8.955355 -0.124316 -0.576456 0.654575
    40 4.065896 0.000000 -0.000001 -0.697587 0.812039 -1.620778
    41 5.727316 0.000001 0.000000 0.000000 0.000000 -1.346341
    42 9.229777 0.000002 0.000000 -1.994787 -0.101509 0.078701
    43 3.121754 1.118371 -0.913563 2.558465 0.253146 -0.182021
    44 11.071188 0.000000 -0.000001 0.000000 0.000000 0.000000
    45 3.556409 -1.843847 1.155964 0.000000 0.498387 1.570796
    46 2.390777 -1.292302 1.978140 0.749127 -0.286789 -1.340332
    47 4.594266 -1.214511 2.080248 -0.738399 -0.246311 -1.743235
    48 2.359571 -2.305063 0.250360 -0.983482 -0.667108 -1.354557
    49 4.656978 -2.343248 0.146677 1.011314 -0.719578 -1.858369
    50 3.215159 0.000003 2.620673 0.000000 -0.481368 -3.141592
    51 3.121354 -2.072975 -1.172838 1.116134 2.891032 0.469420
    52 3.124867 2.103987 -1.190379 -1.117015 2.889357 -0.472963
    53 7.014220 -2.797903 -1.582981 -1.570796 0.514872 -1.570796
    54 0.000000 0.000002 0.000000 0.000000 0.349066 -0.000001
    55 0.000000 0.000002 0.000000 -0.000001 0.872665 -0.000001
    56 -0.443073 0.000006 3.458307 -0.000001 0.000000 0.000000
    57 6.887265 0.000003 3.240103 -3.141592 -1.570451 0.000000
    58 0.000000 0.000000 0.000000 0.000000 0.349066 0.000000
    59 0.000000 0.000000 0.000000 0.000000 0.872665 0.000000
    60 -0.438941 0.000000 3.585266 0.000000 0.000000 0.000000
    61 6.917892 2.827009 -1.599447 1.570796 0.514872 1.570796
    62 0.000000 0.000000 0.000000 0.000000 0.349066 0.000000
    63 0.000000 0.000000 0.000000 0.000000 0.872665 0.000000
    64 -0.481428 -0.000002 3.554642 0.000000 0.000000 0.000000
    65 -26.539349 -8.068464 -6.371304 1.545101 -0.556542 -4.602303
    66 -139.476181 -6.847344 30.242878 -0.449627 2.071722 1.047993
    67 -0.000001 0.000000 0.000000 0.000000 0.000000 0.000000
    68 -0.000002 0.000008 0.000003 0.000000 0.000000 0.000000
    69 -135.943268 -15.671940 3.954328 0.185069 -0.608022 0.332936
    70 -128.156448 -11.260362 19.049923 0.312408 -1.396518 1.339534
    71 0.000000 0.000000 0.000000 0.000000 0.000000 0.000000
    72 0.000000 0.000000 0.000000 0.000000 0.001990 0.000000
    73 -106.568375 -4.477859 31.493366 -0.911486 0.308585 0.576328
    74 84.051888 0.903572 -75.625259 1.570797 -1.570796 -1.570796
    75 76.324181 43.703346 -84.497192 0.000000 0.000000 -1.570796
    76 -16.526161 16.526237 0.000000 0.000000 0.000000 0.000000
    77 16.525921 16.525917 0.000000 0.000000 0.000000 0.000000
    78 16.525682 -16.525612 0.000000 0.000000 0.000000 0.000000
    79 -16.525921 -16.525917 0.000000 0.000000 0.000000 0.000000
    80 76.265152 121.150276 -84.497192 0.000000 0.000000 -1.570796
    81 -16.740288 16.740356 0.000000 0.000000 0.000000 0.000000
    82 16.740044 16.740044 0.000000 0.000000 0.000000 0.000000
    83 16.739799 -16.739731 0.000000 0.000000 0.000000 0.000000
    84 -16.740044 -16.740044 0.000000 0.000000 0.000000 0.000000
    85 75.715485 158.853149 -84.497192 0.000000 0.000000 -1.570796
    86 -14.652008 14.652077 0.000000 0.000000 0.000000 0.000000
    87 14.651794 14.651802 0.000000 0.000000 0.000000 0.000000
    88 14.651581 -14.651527 0.000000 0.000000 0.000000 0.000000
    89 -14.651794 -14.651798 0.000000 0.000000 0.000000 0.000000
    90 76.586624 82.086914 -84.497192 0.000000 0.000000 -1.570796
    91 -16.421143 16.421211 0.000000 0.000000 0.000000 0.000000
    92 16.420898 16.420898 0.000000 0.000000 0.000000 0.000000
    93 16.420662 -16.420593 0.000000 0.000000 0.000000 0.000000
    94 -16.420898 -16.420898 0.000000 0.000000 0.000000 0.000000
    95 104.671562 5.020584 -75.625259 1.570797 -1.570796 -1.570796
    96 8.276281 -27.670366 -6.402117 0.214789 -0.047854 -3.375746
    97 9.379079 -31.734412 -6.758013 -0.701617 1.235349 -0.899383
    98 0.000000 -20.312974 -0.000071 0.000000 0.000000 0.000000
    99 -85.857788 -39.947548 -50.510788 -0.449173 0.062892 -2.510897
    100 -14.651985 14.652081 -0.000019 0.000000 0.000000 0.000000
    101 14.651802 14.651814 -0.000008 0.000000 0.000000 0.000000
    102 14.651573 -14.651527 0.000011 0.000000 0.000000 0.000000
    103 -14.651794 -14.651812 0.000004 0.000000 0.000000 0.000000
    104 -92.616295 101.545227 -81.998543 1.051518 -2.158346 -2.089831
    105 -14.652016 14.652081 0.000015 0.000000 0.000000 0.000000
    106 14.651810 14.651814 0.000015 0.000000 0.000000 0.000000
    107 14.651585 -14.651522 -0.000015 0.000000 0.000000 0.000000
    108 -14.651802 -14.651802 -0.000015 0.000000 0.000000 0.000000
    109 -88.541824 -3.090007 126.922211 0.504917 -0.042813 -1.783580
    110 -16.421141 16.421215 0.000000 0.000000 0.000000 0.000000
    111 16.420900 16.420910 0.000015 0.000000 0.000000 0.000000
    112 16.420660 -16.420589 0.000015 0.000000 0.000000 0.000000
    113 -16.420902 -16.420895 0.000000 0.000000 0.000000 0.000000
    114 -153.887299 -84.320137 -12.565396 -0.449173 0.062892 -2.510897
    115 -14.651993 14.652077 -0.000015 0.000000 0.000000 0.000000
    116 14.651794 14.651807 -0.000011 0.000000 0.000000 0.000000
    117 14.651581 -14.651535 0.000013 0.000000 0.000000 0.000000
    118 -14.651779 -14.651814 0.000005 0.000000 0.000000 0.000000
    119 0.001769 0.000002 0.000001 0.000000 -1.570451 0.000000
    120 0.001771 0.000002 0.000002 3.141496 1.570412 0.000000
    121 8.155894 -34.420918 -7.294402 -0.075100 2.404499 -0.152355
    122 -0.000010 -50.272392 -0.000009 0.000000 0.000000 0.000000
    123 -134.110794 39.663200 -14.498636 3.112200 -0.406702 -0.300851
    124 -104.675583 77.418777 0.364775 0.836412 0.398371 -0.722376
    125 -116.304535 -76.120850 28.837309 -0.901921 0.453801 0.302725
  time 8
    0 9.735826 1.365964 -9.859057 0.028775 -0.365218 0.230166
    1 8.251477 -3.436276 -3.311583 0.096907 -2.303750 -0.660617
    2 7.905820 2.399109 -0.349031 1.567033 -3.120252 0.373790
    3 0.014019 -8.483111 -0.068977 0.105945 0.670248 0.014837
    4 -0.488518 -2.755602 -0.228260 -1.624050 -0.173655 -0.380393
    5 0.039887 -1.499322 0.014229 -0.760111 -0.012116 0.013987
    6 0.028786 -1.114795 -0.093424 -0.611124 -0.011781 0.011110
    7 0.250027 -2.820665 -0.238396 -0.891745 -0.094519 -0.342634
    8 -0.049759 -1.606323 0.065322 -1.119523 0.007083 -0.030946
    9 -0.034142 -1.171750 0.045718 -1.201807 0.006220 -0.031687
    10 0.957766 -2.746780 -0.090302 0.013124 -0.165141 -0.257303
    11 -0.033420 -1.393223 -0.022976 -0.680809 0.008102 -0.033426
    12 -0.022360 -0.957436 -0.000748 -0.764143 0.007047 -0.037188
    13 -1.180681 -2.507217 -0.193859 -1.718411 -0.099373 -0.432445
    14 -0.024967 -1.123934 0.017597 -0.661184 0.007442 -0.027863
    15 -0.020057 -0.902687 0.017903 -0.580622 0.007838 -0.022100
    16 0.575697 -1.193371 0.185379 0.145297 -0.467065 -0.601465
    17 1.520302 -0.146009 0.047979 0.013359 -0.150910 -0.501168
    18 1.089052 -0.085319 0.012759 0.000871 -0.103226 -0.426765
    19 0.120153 -0.050270 -0.054489 0.287569 3.110905 1.561085
    20 -4.833408 -6.520362 -2.970124 0.555410 -4.384175 0.962624
    21 -0.117906 -8.466044 0.049231 0.027029 -1.166872 0.201917
    22 0.447953 -2.798986 -0.200443 -1.276689 -0.000904 0.126384
    23 -0.032909 -1.495829 0.016659 -0.997752 0.020554 -0.015698
    24 -0.027022 -1.108171 -0.028023 -0.741998 0.018205 -0.009887
    25 -0.249534 -2.846964 -0.174213 -0.939650 0.028183 0.119144
    26 0.043235 -1.656596 0.072574 -1.310796 -0.020871 0.005717
    27 0.031729 -1.149111 0.058838 -0.767750 -0.008011 0.005292
    28 -0.963866 -2.785145 -0.085350 -0.232722 0.158033 0.099622
    29 0.028479 -1.410880 -0.024980 -1.266705 -0.038327 -0.038135
    30 0.021413 -0.949968 0.020046 -0.574948 -0.011242 -0.023238
    31 1.164475 -2.543940 -0.170330 -1.333869 -0.158092 0.191771
    32 0.024032 -1.136855 -0.001725 -0.786679 0.004374 0.041935
    33 0.014898 -0.891802 -0.019848 -0.469878 -0.002133 0.022735
    34 -0.586770 -1.264477 0.200161 0.473950 -0.896110 -2.898205
    35 1.565805 0.035243 0.016848 -0.018353 -0.006847 0.875859
    36 1.114041 0.044518 -0.005766 -0.027124 -0.034606 0.983702
    37 -0.139399 -0.111698 0.014397 0.285382 -0.030687 1.580508
    38 -4.303715 7.749300 -0.321467 1.581571 -0.015074 -1.187136
    39 12.503160 0.714327 -8.955355 -0.124316 -0.576456 0.654575
    40 4.065896 0.000000 -0.000001 -0.634994 0.856258 -1.532067
    41 5.727316 0.000001 0.000000 0.000000 0.000000 -1.415803
    42 9.229777 0.000002 0.000000 -1.993278 -0.089714 0.082087
    43 3.121754 1.118371 -0.913563 2.558465 0.253146 -0.182021
    44 11.071188 0.000000 -0.000001 0.000000 0.000000 0.000000
    45 3.556409 -1.843847 1.155964 0.000000 0.498387 1.570796
    46 2.390777 -1.292302 1.978140 0.749127 -0.286789 -1.340332
    47 4.594266 -1.214511 2.080248 -0.738399 -0.246311 -1.743235
    48 2.359571 -2.305063 0.250360 -0.983482 -0.667108 -1.354557
    49 4.656978 -2.343248 0.146677 1.011314 -0.719578 -1.858369
    50 3.215159 0.000003 2.620673 0.000000 -0.481368 -3.141592
    51 3.121354 -2.072975 -1.172838 1.116134 2.891032 0.469420
    52 3.124867 2.103987 -1.190379 -1.117015 2.889357 -0.472963
    53 7.014220 -2.797903 -1.582981 -1.570796 0.514872 -1.570796
    54 0.000000 0.000002 0.000000 0.000000 0.349066 -0.000001
    55 0.000000 0.000002 0.000000 -0.000001 0.872665 -0.000001
    56 -0.443073 0.000006 3.458307 -0.000001 0.000000 0.000000
    57 6.887265 0.000003 3.240103 -3.141592 -1.570451 0.000000
    58 0.000000 0.000000 0.000000 0.000000 0.349066 0.000000
    59 0.000000 0.000000 0.000000 0.000000 0.872665 0.000000
    60 -0.438941 0.000000 3.585266 0.000000 0.000000 0.000000
    61 6.917892 2.827009 -1.599447 -1.570796 2.626656 -1.570796
    62 0.000000 0.000000 0.000000 0.000000 0.349066 0.000000
    63 0.000000 0.000000 0.000000 0.000000 0.872665 0.000000
    64 -0.481428 -0.000002 3.554642 0.000000 0.000000 0.000000
    65 -26.539349 -8.068464 -6.371304 1.545101 -0.556542 -4.602303
    66 -139.476181 -6.847344 30.242878 -0.449627 2.071722 1.047993
    67 -0.000001 0.000000 0.000000 0.000000 0.000000 0.000000
    68 -0.000002 0.000008 0.000003 0.000000 0.000000 0.000000
    69 -135.943268 -15.671940 3.954328 0.185069 -0.608022 0.332936
    70 -128.156448 -11.260362 19.049923 0.312408 -1.396518 1.339534
    71 0.000000 0.000000 0.000000 0.000000 0.000000 0.000000
    72 0.000000 0.000000 0.000000 0.000000 0.001990 0.000000
    73 -106.568375 -4.477859 31.493366 -0.911486 0.308585 0.576328
    74 84.051888 0.903572 -75.625259 1.570797 -1.570796 -1.570796
    75 76.324181 43.703346 -84.497192 0.000000 0.000000 -1.570796
    76 -16.526161 16.526237 0.000000 0.000000 0.000000 0.000000
    77 16.525921 16.525917 0.000000 0.000000 0.000000 0.000000
    78 16.525682 -16.525612 0.000000 0.000000 0.000000 0.000000
    79 -16.525921 -16.525917 0.000000 0.000000 0.000000 0.000000
    80 76.265152 121.150276 -84.497192 0.000000 0.000000 -1.570796
    81 -16.740288 16.740356 0.000000 0.000000 0.000000 0.000000
    82 16.740044 16.740044 0.000000 0.000000 0.000000 0.000000
    83 16.739799 -16.739731 0.000000 0.000000 0.000000 0.000000
    84 -16.740044 -16.740044 0.000000 0.000000 0.000000 0.000000
    85 75.715485 158.853149 -84.497192 0.000000 0.000000 -1.570796
    86 -14.652008 14.652077 0.000000 0.000000 0.000000 0.000000
    87 14.651794 14.651802 0.000000 0.000000 0.000000 0.000000
    88 14.651581 -14.651527 0.000000 0.000000 0.000000 0.000000
    89 -14.651794 -14.651798 0.000000 0.000000 0.000000 0.000000
    90 76.586624 82.086914 -84.497192 0.000000 0.000000 -1.570796
    91 -16.421143 16.421211 0.000000 0.000000 0.000000 0.000000
    92 16.420898 16.420898 0.000000 0.000000 0.000000 0.000000
    93 16.420662 -16.420593 0.000000 0.000000 0.000000 0.000000
    94 -16.420898 -16.420898 0.000000 0.000000 0.000000 0.000000
    95 104.671562 5.020584 -75.625259 1.570797 -1.570796 -1.570796
    96 8.549727 -27.385201 -6.616967 0.408242 1.036941 -3.007591
    97 9.664244 -31.441434 -7.008020 -0.264471 0.693463 -0.395375
    98 0.000000 -20.449697 -0.000071 0.000000 0.000000 0.000000
    99 -85.857788 -39.947548 -50.510788 -0.449173 0.062892 -2.510897
    100 -14.651985 14.652081 -0.000019 0.000000 0.000000 0.000000
    101 14.651802 14.651814 -0.000008 0.000000 0.000000 0.000000
    102 14.651573 -14.651527 0.000011 0.000000 0.000000 0.000000
    103 -14.651794 -14.651812 0.000004 0.000000 0.000000 0.000000
    104 -92.616295 101.545227 -81.998543 1.051518 -2.158346 -2.089831
    105 -14.652016 14.652081 0.000015 0.000000 0.000000 0.000000
    106 14.651810 14.651814 0.000015 0.000000 0.000000 0.000000
    107 14.651585 -14.651522 -0.000015 0.000000 0.000000 0.000000
    108 -14.651802 -14.651802 -0.000015 0.000000 0.000000 0.000000
    109 -88.541824 -3.090007 126.922211 0.504917 -0.042813 -1.783580
    110 -16.421141 16.421215 0.000000 0.000000 0.000000 0.000000
    111 16.420900 16.420910 0.000015 0.000000 0.000000 0.000000
    112 16.420660 -16.420589 0.000015 0.000000 0.000000 0.000000
    113 -16.420902 -16.420895 0.000000 0.000000 0.000000 0.000000
    114 -153.887299 -84.320137 -12.565396 -0.449173 0.062892 -2.510897
    115 -14.651993 14.652077 -0.000015 0.000000 0.000000 0.000000
    116 14.651794 14.651807 -0.000011 0.000000 0.000000 0.000000
    117 14.651581 -14.651535 0.000013 0.000000 0.000000 0.000000
    118 -14.651779 -14.651814 0.000005 0.000000 0.000000 0.000000
    119 0.001769 0.000002 0.000001 0.000000 -1.570451 0.000000
    120 0.001771 0.000002 0.000002 3.141496 1.570412 0.000000
    121 8.448872 -34.124033 -7.575660 -0.089711 2.400061 -0.160142
    122 -0.000010 -50.272392 -0.000009 0.000000 0.000000 0.000000
    123 -134.110794 39.663200 -14.498636 3.112200 -0.406702 -0.300851
    124 -104.675583 77.418777 0.364775 0.836412 0.398371 -0.722376
    125 -116.304535 -76.120850 28.837309 -0.901921 0.453801 0.302725
  time 9
    0 9.735826 1.365964 -9.859057 0.028775 -0.365218 0.230166
    1 8.501485 -3.143298 -3.374085 0.094128 -2.304790 -0.652888
    2 7.995667 1.891281 -0.356844 1.567704 -3.119101 0.310610
    3 0.014019 -8.483111 -0.068977 0.092102 0.669872 0.003789
    4 -0.488518 -2.755602 -0.228260 -1.624050 -0.173655 -0.380393
    5 0.039887 -1.499322 0.014229 -0.760111 -0.012116 0.013987
    6 0.028786 -1.114795 -0.093424 -0.611124 -0.011781 0.011110
    7 0.250027 -2.820665 -0.238396 -0.891745 -0.094519 -0.342634
    8 -0.049759 -1.606323 0.065322 -1.119523 0.007083 -0.030946
    9 -0.034142 -1.171750 0.045718 -1.201807 0.006220 -0.031687
    10 0.957766 -2.746780 -0.090302 0.013124 -0.165141 -0.257303
    11 -0.033420 -1.393223 -0.022976 -0.680809 0.008102 -0.033426
    12 -0.022360 -0.957436 -0.000748 -0.764143 0.007047 -0.037188
    13 -1.180681 -2.507217 -0.193859 -1.718411 -0.099373 -0.432445
    14 -0.024967 -1.123934 0.017597 -0.661184 0.007442 -0.027863
    15 -0.020057 -0.902687 0.017903 -0.580622 0.007838 -0.022100
    16 0.575697 -1.193371 0.185379 0.145297 -0.467077 -0.601465
    17 1.520302 -0.146009 0.047979 0.013359 -0.150910 -0.501168
    18 1.089052 -0.085319 0.012759 0.000871 -0.103226 -0.426765
    19 0.120153 -0.050270 -0.054489 0.287569 3.110905 1.561085
    20 -4.782625 -6.379732 -3.216225 0.587520 -4.378419 1.023583
    21 -0.117906 -8.473857 0.049231 0.093210 -1.175893 0.165115
    22 0.447953 -2.798986 -0.200443 -1.276689 -0.000904 0.126384
    23 -0.032909 -1.495829 0.016659 -0.997752 0.020554 -0.015698
    24 -0.027022 -1.108171 -0.028023 -0.741998 0.018205 -0.009887
    25 -0.249534 -2.846964 -0.174213 -0.939650 0.028183 0.119144
    26 0.043235 -1.656596 0.072574 -1.310796 -0.020871 0.005717
    27 0.031729 -1.149111 0.058838 -0.767750 -0.008011 0.005292
    28 -0.963866 -2.785145 -0.085350 -0.232722 0.158033 0.099622
    29 0.028479 -1.410880 -0.024980 -1.268170 -0.038387 -0.038147
    30 0.021413 -0.949968 0.020046 -0.574948 -0.011242 -0.023238
    31 1.164475 -2.543940 -0.170330 -1.333869 -0.158092 0.191771
    32 0.024032 -1.136855 -0.001725 -0.786679 0.004374 0.041935
    33 0.014898 -0.891802 -0.019848 -0.469878 -0.002133 0.022735
    34 -0.586770 -1.264477 0.200161 0.473950 -0.896110 -2.898205
    35 1.565805 0.035243 0.016848 -0.018353 -0.006847 0.875859
    36 1.114041 0.044518 -0.005766 -0.027124 -0.034606 0.983702
    37 -0.139399 -0.111698 0.014397 0.285382 -0.030687 1.580508
    38 -4.733416 7.464135 -0.333186 1.581379 -0.016702 -1.124540
    39 12.503160 0.714327 -8.955355 -0.124316 -0.576456 0.654575
    40 4.065896 0.000000 -0.000001 -0.569172 0.893237 -1.442811
    41 5.727316 0.000001 0.000000 0.000000 0.000000 -1.478976
    42 9.229777 0.000002 0.000000 -1.992040 -0.078982 0.084532
    43 3.121754 1.118371 -0.913563 2.558465 0.253146 -0.182021
    44 11.071188 0.000000 -0.000001 0.000000 0.000000 0.000000
    45 3.556409 -1.843847 1.155964 0.000000 0.498387 1.570796
    46 2.390777 -1.292302 1.978140 0.749127 -0.286789 -1.340332
    47 4.594266 -1.214511 2.080248 -0.738399 -0.246311 -1.743235
    48 2.359571 -2.305063 0.250360 -0.983482 -0.667108 -1.354557
    49 4.656978 -2.343248 0.146677 1.011314 -0.719578 -1.858369
    50 3.215159 0.000003 2.620673 0.000000 -0.481368 -3.141592
    51 3.121354 -2.072975 -1.172838 1.116134 2.891032 0.469420
    52 3.124867 2.103987 -1.190379 -1.117015 2.889357 -0.472963
    53 7.014220 -2.797903 -1.582981 -1.570796 0.514872 -1.570796
    54 0.000000 0.000002 0.000000 0.000000 0.349066 -0.000001
    55 0.000000 0.000002 0.000000 -0.000001 0.872665 -0.000001
    56 -0.443073 0.000006 3.458307 -0.000001 0.000000 0.000000
    57 6.887265 0.000003 3.240103 -3.141592 -1.570451 0.000000
    58 0.000000 0.000000 0.000000 0.000000 0.349066 0.000000
    59 0.000000 0.000000 0.000000 0.000000 0.872665 0.000000
    60 -0.438941 0.000000 3.585266 0.000000 0.000000 0.000000
    61 6.917892 2.827009 -1.599447 1.570796 0.514872 1.570796
    62 0.000000 0.000000 0.000000 0.000000 0.349066 0.000000
    63 0.000000 0.000000 0.000000 0.000000 0.872665 0.000000
    64 -0.481428 -0.000002 3.554642 0.000000 0.000000 0.000000
    65 -26.539349 -8.068464 -6.371304 1.545101 -0.556542 -4.602303
    66 -139.476181 -6.847344 30.242878 -0.449627 2.071722 1.047993
    67 -0.000001 0.000000 0.000000 0.000000 0.000000 0.000000
    68 -0.000002 0.000008 0.000003 0.000000 0.000000 0.000000
    69 -135.943268 -15.671940 3.954328 0.185069 -0.608022 0.332936
    70 -128.156448 -11.260362 19.049923 0.312408 -1.396518 1.339534
    71 0.000000 0.000000 0.000000 0.000000 0.000000 0.000000
    72 0.000000 0.000000 0.000000 0.000000 0.001990 0.000000
    73 -106.568375 -4.477859 31.493366 -0.911486 0.308585 0.576328
    74 84.051888 0.903572 -75.625259 1.570797 -1.570796 -1.570796
    75 76.324181 43.703346 -84.497192 0.000000 0.000000 -1.570796
    76 -16.526161 16.526237 0.000000 0.000000 0.000000 0.000000
    77 16.525921 16.525917 0.000000 0.000000 0.000000 0.000000
    78 16.525682 -16.525612 0.000000 0.000000 0.000000 0.000000
    79 -16.525921 -16.525917 0.000000 0.000000 0.000000 0.000000
    80 76.265152 121.150276 -84.497192 0.000000 0.000000 -1.570796
    81 -16.740288 16.740356 0.000000 0.000000 0.000000 0.000000
    82 16.740044 16.740044 0.000000 0.000000 0.000000 0.000000
    83 16.739799 -16.739731 0.000000 0.000000 0.000000 0.000000
    84 -16.740044 -16.740044 0.000000 0.000000 0.000000 0.000000
    85 75.715485 158.853149 -84.497192 0.000000 0.000000 -1.570796
    86 -14.652008 14.652077 0.000000 0.000000 0.000000 0.000000
    87 14.651794 14.651802 0.000000 0.000000 0.000000 0.000000
    88 14.651581 -14.651527 0.000000 0.000000 0.000000 0.000000
    89 -14.651794 -14.651798 0.000000 0.000000 0.000000 0.000000
    90 76.586624 82.086914 -84.497192 0.000000 0.000000 -1.570796
    91 -16.421143 16.421211 0.000000 0.000000 0.000000 0.000000
    92 16.420898 16.420898 0.000000 0.000000 0.000000 0.000000
    93 16.420662 -16.420593 0.000000 0.000000 0.000000 0.000000
    94 -16.420898 -16.420898 0.000000 0.000000 0.000000 0.000000
    95 104.671562 5.020584 -75.625259 1.570797 -1.570796 -1.570796
    96 8.784109 -27.111755 -6.808379 2.819248 0.920158 -6.764016
    97 9.910345 -31.160176 -7.222871 -0.192938 0.109454 -0.243421
    98 0.000000 -20.590326 -0.000071 0.000000 0.000000 0.000000
    99 -85.857788 -39.947548 -50.510788 -0.449173 0.062892 -2.510897
    100 -14.651985 14.652081 -0.000019 0.000000 0.000000 0.000000
    101 14.651802 14.651814 -0.000008 0.000000 0.000000 0.000000
    102 14.651573 -14.651527 0.000011 0.000000 0.000000 0.000000
    103 -14.651794 -14.651812 0.000004 0.000000 0.000000 0.000000
    104 -92.616295 101.545227 -81.998543 1.051518 -2.158346 -2.089831
    105 -14.652016 14.652081 0.000015 0.000000 0.000000 0.000000
    106 14.651810 14.651814 0.000015 0.000000 0.000000 0.000000
    107 14.651585 -14.651522 -0.000015 0.000000 0.000000 0.000000
    108 -14.651802 -14.651802 -0.000015 0.000000 0.000000 0.000000
    109 -88.541824 -3.090007 126.922211 0.504917 -0.042813 -1.783580
    110 -16.421141 16.421215 0.000000 0.000000 0.000000 0.000000
    111 16.420900 16.420910 0.000015 0.000000 0.000000 0.000000
    112 16.420660 -16.420589 0.000015 0.000000 0.000000 0.000000
    113 -16.420902 -16.420895 0.000000 0.000000 0.000000 0.000000
    114 -153.887299 -84.320137 -12.565396 -0.449173 0.062892 -2.510897
    115 -14.651993 14.652077 -0.000015 0.000000 0.000000 0.000000
    116 14.651794 14.651807 -0.000011 0.000000 0.000000 0.000000
    117 14.651581 -14.651535 0.000013 0.000000 0.000000 0.000000
    118 -14.651779 -14.651814 0.000005 0.000000 0.000000 0.000000
    119 0.001769 0.000002 0.000001 0.000000 -1.570451 0.000000
    120 0.001771 0.000002 0.000002 3.141496 1.570412 0.000000
    121 8.702786 -33.842775 -7.829574 -0.103478 2.395986 -0.167597
    122 -0.000010 -50.272392 -0.000009 0.000000 0.000000 0.000000
    123 -134.110794 39.663200 -14.498636 3.112200 -0.406702 -0.300851
    124 -104.675583 77.418777 0.364775 0.836412 0.398371 -0.722376
    125 -116.304535 -76.120850 28.837309 -0.901921 0.453801 0.302725
end
