// Created by Crowbar 0.49.0.0

$modelname "weapons/tfa_cso/c_m82_v6.mdl"

$Include "csonline_gmod.qci"

$bodygroup "weapon"
{
	studio "v_m82_v_ref"
}

$CDMaterials "models\weapons\tfa_cso\m82_v6"

$attachment 0 "M82_root" -20.6 14.1 0
//$attachment 1 "M82_root" -4.5 -3 0.5

$definebone "root" "" -1.882538 4.923161 -22.137369 0.000000 0.000000 0.000000 0.000000 0.000000 0.000000 -0.000000 0.000000 0.000000
$definebone "Bone01" "root" 0.496437 13.305481 19.059895 -0.012834 -89.771431 179.847612 0.000000 0.000000 0.000000 0.000000 0.000000 -0.000000
$definebone "Bone_Lefthand" "Bone01" -0.071918 -8.498731 -0.104137 16.477755 0.853593 -1.435030 0.000000 0.000000 0.000000 0.000005 0.000000 -0.000000
$definebone "M82_root" "Bone_Lefthand" 15.663197 7.057476 -3.041953 -20.336224 -179.904507 88.124748 0.000000 0.000000 0.000000 -0.000000 0.000003 -0.000000
$definebone "M82_magazine" "M82_root" -3.972265 2.040819 -0.000000 0.000000 53.177176 0.000057 0.000000 0.000000 0.000000 0.000000 -0.000009 -0.000000
$definebone "M82_handle01" "M82_root" -2.064605 0.087379 0.001710 -59.903143 53.177350 -0.000230 0.000000 0.000000 0.000000 -0.000003 -0.000005 0.000006
$definebone "M82_handle02" "M82_handle01" 0.001390 -1.454274 -0.005814 -0.062745 90.036265 59.903082 0.000000 0.000000 0.000000 0.000001 0.000008 0.000002
$definebone "M82_trigger" "M82_root" -1.208627 1.280643 -0.000000 0.000000 67.885463 0.000057 0.000000 0.000000 0.000000 0.000000 -0.000009 -0.000000

$sequence "idle1" {
	"v_m82_anims\idle1"
	fps 30
	loop
	activity "ACT_VM_IDLE" 1
	snap
}
$sequence "shoot_1" {
	"v_m82_anims\shoot_1"
	{ event 5001 1 "21" }
	fps 30
	activity "ACT_VM_PRIMARYATTACK" 1
	snap
}
$sequence "shoot_2" {
	"v_m82_anims\shoot_2"
	{ event 5001 1 "21" }
	fps 30
	activity "ACT_VM_PRIMARYATTACK" 2
	snap
}
$sequence "reload" {
	"v_m82_anims\reload"
	{ event 5004 12 "M82.ClipOut1" }
	{ event 5004 34 "M82.ClipOut2" }
	{ event 5004 55 "M82.ClipIn1" }
	{ event 5004 72 "M82.ClipIn2" }
	fps 30
	activity "ACT_VM_RELOAD" 1
	snap
}
$sequence "draw" {
	"v_m82_anims\draw"
	fps 30
	activity "ACT_VM_DRAW" 1
	snap
}
