version 1
nodes
  0 "Bone04" -1
  1 "Bone_Righthand" 0
  2 "NEXON_CSO_infi_Root_R" 1
  3 "NEXON_CSO_infi_Dummy_R" 2
  4 "NEXON_CSO_infi_Triigger_R" 3
  5 "NEXON_CSO_infi_Nori_R" 3
  6 "NEXON_CSO_infi_Slide_R" 3
  7 "NEXON_CSO_infi_Magazine_R" 3
  8 "NEXON_CSO_infi_Bullet_R" 7
  9 "Bone01" -1
  10 "Bone_Lefthand" 9
  11 "NEXON_CSO_infi_Root_L" 10
  12 "NEXON_CSO_infi_Dummy_L" 11
  13 "NEXON_CSO_infi_Slide_L" 12
  14 "NEXON_CSO_infi_Nori_L" 12
  15 "NEXON_CSO_infi_Triigger_L" 12
  16 "NEXON_CSO_infi_Magazine_L" 12
  17 "NEXON_CSO_infi_Bullet_L" 16
  18 "Bone27" 1
  19 "Bone28" 18
  20 "Bone29" 19
  21 "Bone31" 1
  22 "Bone32" 21
  23 "Bone33" 22
  24 "Bone35" 1
  25 "Bone36" 24
  26 "Bone37" 25
  27 "Bone39" 1
  28 "Bone40" 27
  29 "Bone41" 28
  30 "Bone43" 1
  31 "Bone44" 30
  32 "Bone45" 31
  33 "Bone_Se_Hand-R" 1
  34 "Bone05" 10
  35 "Bone06" 34
  36 "Bone07" 35
  37 "Bone21" 10
  38 "Bone22" 37
  39 "Bone23" 38
  40 "Bone17" 10
  41 "Bone18" 40
  42 "Bone19" 41
  43 "Bone13" 10
  44 "Bone14" 43
  45 "Bone15" 44
  46 "Bone09" 10
  47 "Bone10" 46
  48 "Bone11" 47
  49 "Bone_Se_Hand-L" 10
end
skeleton
  time 0
    0 -11.960718 0.864584 -7.922828 0.847156 1.867272 1.276235
    1 0.096946 -8.450420 -0.009364 0.352763 -0.231470 0.212837
    2 -0.192877 -2.997167 0.750521 0.973027 -1.502063 -0.975592
    3 0.000000 -1.808650 1.012937 0.000000 0.000000 0.000000
    4 0.000000 0.925423 0.002903 0.000000 0.000000 0.000000
    5 0.000000 2.290614 1.335354 0.000000 0.000000 0.000000
    6 -0.115835 -1.983282 1.652799 0.000000 0.000000 0.000000
    7 -0.194965 1.740244 -0.776688 0.000000 0.000000 0.000000
    8 0.000000 -0.273072 1.043217 0.000000 0.000000 0.000000
    9 11.470110 0.978882 -7.922828 0.777557 -1.819456 -1.208763
    10 -0.071918 -8.498731 -0.104137 0.352798 0.302533 -0.041828
    11 0.270583 -2.982786 0.320373 0.554706 1.379928 0.480518
    12 -0.000001 -1.808650 1.012938 0.000000 0.000000 0.000000
    13 -0.115835 -1.983282 1.652800 0.000000 0.000000 0.000000
    14 0.000000 2.290614 1.335354 0.000000 0.000000 0.000000
    15 0.000001 0.706665 0.002903 0.000000 0.000000 0.000000
    16 -0.194964 1.736338 -0.761062 0.000000 0.000000 0.000000
    17 0.000000 -0.273071 1.043216 0.000000 0.000000 0.000000
    18 -0.586769 -1.264477 0.200164 -0.224469 -0.772272 -2.217911
    19 1.522835 0.058680 0.016850 -0.042975 0.166884 0.909410
    20 1.117947 0.048424 -0.005765 -0.000024 0.000000 0.654951
    21 -0.963867 -2.785143 -0.085346 0.214204 0.199964 -0.171417
    22 0.028478 -1.403067 0.006272 -1.349763 -0.000007 -0.000010
    23 0.021412 -0.957782 0.020047 -0.668819 -0.000003 -0.000008
    24 -0.249534 -2.846963 -0.174215 -0.001196 0.000966 -0.025445
    25 0.043235 -1.683940 0.096015 -2.021659 -0.002971 -0.000336
    26 0.031729 -1.160830 0.058836 -1.017648 0.000000 0.000000
    27 0.447951 -2.798983 -0.200441 -0.016250 0.053282 0.116306
    28 -0.032909 -1.480207 0.004935 -1.783731 0.000000 0.000000
    29 -0.027023 -1.076921 -0.020212 -0.898892 0.000000 0.000000
    30 1.164474 -2.543939 -0.170327 0.050355 -0.000995 -0.002105
    31 0.024033 -1.129040 0.017807 -1.291468 -0.100239 0.187007
    32 0.014896 -0.883992 -0.019846 -1.038734 0.074161 0.017318
    33 -0.138841 -0.113067 0.013658 0.285538 -0.040593 1.576220
    34 0.583509 -1.197274 0.185379 -0.077873 -0.765978 -0.796238
    35 1.535926 0.010247 0.005009 -0.072801 0.036313 -1.031055
    36 1.100770 0.004528 -0.010675 0.000000 0.000000 -0.670693
    37 0.957766 -2.746777 -0.090301 0.182590 -0.051003 0.111154
    38 -0.033419 -1.397128 -0.011255 -0.842508 -0.018348 -0.065735
    39 -0.022361 -0.957433 0.018783 -0.642317 0.000000 0.000000
    40 0.250029 -2.820664 -0.238396 -0.282660 0.057277 -0.106688
    41 -0.049759 -1.680544 0.100479 -2.012794 0.000000 0.000000
    42 -0.034141 -1.148311 0.084779 -1.037503 0.000000 0.000000
    43 -0.488517 -2.755600 -0.228261 -0.195785 0.054586 -0.144146
    44 0.039889 -1.479791 0.029854 -2.042748 0.000000 0.000000
    45 0.028785 -1.075733 -0.023110 -0.841838 0.000000 0.000000
    46 -1.180679 -2.507216 -0.193861 0.008677 0.244088 -0.056758
    47 -0.024967 -1.123934 0.017595 -1.466594 0.000000 0.000000
    48 -0.020058 -0.890965 0.010091 -1.308778 0.000000 0.000000
    49 0.120180 -0.051600 -0.055246 0.287567 -3.172226 1.561008
  time 1
    0 -11.960718 2.368536 -7.922828 0.922175 1.894052 1.347742
    1 0.096946 -8.450420 -0.009364 0.377550 -0.147811 0.023660
    2 -0.192877 -2.997167 0.750521 0.973027 -1.502063 -0.975592
    3 0.000000 -1.808650 1.012937 0.000000 0.000000 0.000000
    4 0.000000 0.925423 0.002903 0.000000 0.000000 0.000000
    5 0.000000 2.290614 1.335354 0.000000 0.000000 0.000000
    6 -0.115835 -0.694180 1.652799 0.000000 0.000000 0.000000
    7 -0.194965 1.740244 -0.776688 0.000000 0.000000 0.000000
    8 0.000000 -0.273072 1.043217 0.000000 0.000000 0.000000
    9 11.470110 0.978882 -7.922828 0.777557 -1.819456 -1.208763
    10 -0.071918 -8.498731 -0.104137 0.352798 0.302533 -0.041828
    11 0.270583 -2.982786 0.320373 0.554706 1.379928 0.480518
    12 -0.000001 -1.808650 1.012938 0.000000 0.000000 0.000000
    13 -0.115835 -1.983282 1.652800 0.000000 0.000000 0.000000
    14 0.000000 2.290614 1.335354 0.000000 0.000000 0.000000
    15 0.000001 0.706665 0.002903 0.000000 0.000000 0.000000
    16 -0.194964 1.736338 -0.761062 0.000000 0.000000 0.000000
    17 0.000000 -0.273071 1.043216 0.000000 0.000000 0.000000
    18 -0.586769 -1.264477 0.200164 -0.224469 -0.772272 -2.217911
    19 1.522835 0.058680 0.016850 -0.042975 0.166884 0.909410
    20 1.117947 0.048424 -0.005765 -0.000024 0.000000 0.654951
    21 -0.963867 -2.785143 -0.085346 0.213994 0.199964 -0.171417
    22 0.028478 -1.403067 0.006272 -1.354094 -0.000007 -0.000010
    23 0.021412 -0.957782 0.020047 -0.669582 -0.000003 -0.000008
    24 -0.249534 -2.846963 -0.174215 -0.001196 0.000966 -0.025445
    25 0.043235 -1.683940 0.096015 -2.021659 -0.002971 -0.000336
    26 0.031729 -1.160830 0.058836 -1.017648 0.000000 0.000000
    27 0.447951 -2.798983 -0.200441 -0.016250 0.053282 0.116306
    28 -0.032909 -1.480207 0.004935 -1.783731 0.000000 0.000000
    29 -0.027023 -1.076921 -0.020212 -0.898892 0.000000 0.000000
    30 1.164474 -2.543939 -0.170327 0.050355 -0.000995 -0.002105
    31 0.024033 -1.129040 0.017807 -1.291468 -0.100239 0.187007
    32 0.014896 -0.883992 -0.019846 -1.038734 0.074161 0.017318
    33 -0.138841 -0.113067 0.013658 0.285538 -0.040593 1.576220
    34 0.583509 -1.197274 0.185379 -0.077873 -0.765978 -0.796238
    35 1.535926 0.010247 0.005009 -0.072801 0.036313 -1.031055
    36 1.100770 0.004528 -0.010675 0.000000 0.000000 -0.670693
    37 0.957766 -2.746777 -0.090301 0.182590 -0.051003 0.111154
    38 -0.033419 -1.397128 -0.011255 -0.842508 -0.018348 -0.065735
    39 -0.022361 -0.957433 0.018783 -0.642317 0.000000 0.000000
    40 0.250029 -2.820664 -0.238396 -0.282660 0.057277 -0.106688
    41 -0.049759 -1.680544 0.100479 -2.012794 0.000000 0.000000
    42 -0.034141 -1.148311 0.084779 -1.037503 0.000000 0.000000
    43 -0.488517 -2.755600 -0.228261 -0.195785 0.054586 -0.144146
    44 0.039889 -1.479791 0.029854 -2.042748 0.000000 0.000000
    45 0.028785 -1.075733 -0.023110 -0.841838 0.000000 0.000000
    46 -1.180679 -2.507216 -0.193861 0.008677 0.244088 -0.056758
    47 -0.024967 -1.123934 0.017595 -1.466594 0.000000 0.000000
    48 -0.020058 -0.890965 0.010091 -1.308778 0.000000 0.000000
    49 0.120180 -0.051600 -0.055246 0.287567 -3.172226 1.561008
  time 2
    0 -11.960718 3.126372 -8.004862 0.918860 1.892726 1.344585
    1 0.096946 -8.450420 -0.009364 0.382167 -0.118212 -0.040326
    2 -0.192877 -2.997167 0.750521 0.973027 -1.502063 -0.975592
    3 0.000000 -1.808650 1.012937 0.000000 0.000000 0.000000
    4 0.000000 0.925423 0.002903 0.000000 0.000000 0.000000
    5 0.000000 2.290614 1.335354 0.000000 0.000000 0.000000
    6 -0.115835 -0.713712 1.652799 0.000000 0.000000 0.000000
    7 -0.194965 1.740244 -0.776688 0.000000 0.000000 0.000000
    8 0.000000 -0.273072 1.043217 0.000000 0.000000 0.000000
    9 11.470110 0.978882 -7.922828 0.777557 -1.819456 -1.208763
    10 -0.071918 -8.498731 -0.104137 0.352798 0.302533 -0.041828
    11 0.270583 -2.982786 0.320373 0.554706 1.379928 0.480518
    12 -0.000001 -1.808650 1.012938 0.000000 0.000000 0.000000
    13 -0.115835 -1.983282 1.652800 0.000000 0.000000 0.000000
    14 0.000000 2.290614 1.335354 0.000000 0.000000 0.000000
    15 0.000001 0.706665 0.002903 0.000000 0.000000 0.000000
    16 -0.194964 1.736338 -0.761062 0.000000 0.000000 0.000000
    17 0.000000 -0.273071 1.043216 0.000000 0.000000 0.000000
    18 -0.586769 -1.264477 0.200164 -0.224469 -0.772272 -2.217911
    19 1.522835 0.058680 0.016850 -0.042975 0.166884 0.909410
    20 1.117947 0.048424 -0.005765 -0.000024 0.000000 0.654951
    21 -0.963867 -2.785143 -0.085346 0.213522 0.199964 -0.171417
    22 0.028478 -1.403067 0.006272 -1.363570 -0.000007 -0.000010
    23 0.021412 -0.957782 0.020047 -0.671234 -0.000003 -0.000008
    24 -0.249534 -2.846963 -0.174215 -0.001196 0.000966 -0.025445
    25 0.043235 -1.683940 0.096015 -2.021659 -0.002971 -0.000336
    26 0.031729 -1.160830 0.058836 -1.017648 0.000000 0.000000
    27 0.447951 -2.798983 -0.200441 -0.016250 0.053282 0.116306
    28 -0.032909 -1.480207 0.004935 -1.783731 0.000000 0.000000
    29 -0.027023 -1.076921 -0.020212 -0.898892 0.000000 0.000000
    30 1.164474 -2.543939 -0.170327 0.050355 -0.000995 -0.002105
    31 0.024033 -1.129040 0.017807 -1.291468 -0.100239 0.187007
    32 0.014896 -0.883992 -0.019846 -1.038734 0.074161 0.017318
    33 -0.138841 -0.113067 0.013658 0.285538 -0.040593 1.576220
    34 0.583509 -1.197274 0.185379 -0.077873 -0.765978 -0.796238
    35 1.535926 0.010247 0.005009 -0.072801 0.036313 -1.031055
    36 1.100770 0.004528 -0.010675 0.000000 0.000000 -0.670693
    37 0.957766 -2.746777 -0.090301 0.182590 -0.051003 0.111154
    38 -0.033419 -1.397128 -0.011255 -0.842508 -0.018348 -0.065735
    39 -0.022361 -0.957433 0.018783 -0.642317 0.000000 0.000000
    40 0.250029 -2.820664 -0.238396 -0.282660 0.057277 -0.106688
    41 -0.049759 -1.680544 0.100479 -2.012794 0.000000 0.000000
    42 -0.034141 -1.148311 0.084779 -1.037503 0.000000 0.000000
    43 -0.488517 -2.755600 -0.228261 -0.195785 0.054586 -0.144146
    44 0.039889 -1.479791 0.029854 -2.042748 0.000000 0.000000
    45 0.028785 -1.075733 -0.023110 -0.841838 0.000000 0.000000
    46 -1.180679 -2.507216 -0.193861 0.008677 0.244088 -0.056758
    47 -0.024967 -1.123934 0.017595 -1.466594 0.000000 0.000000
    48 -0.020058 -0.890965 0.010091 -1.308778 0.000000 0.000000
    49 0.120180 -0.051600 -0.055246 0.287567 -3.172226 1.561008
  time 3
    0 -11.960718 3.274814 -8.133772 0.910051 1.889308 1.336259
    1 0.096946 -8.450420 -0.009364 0.380401 -0.129712 -0.015541
    2 -0.192877 -2.997167 0.750521 0.973027 -1.502063 -0.975592
    3 0.000000 -1.808650 1.012937 0.000000 0.000000 0.000000
    4 0.000000 0.925423 0.002903 0.000000 0.000000 0.000000
    5 0.000000 2.290614 1.335354 0.000000 0.000000 0.000000
    6 -0.115835 -0.830903 1.652799 0.000000 0.000000 0.000000
    7 -0.194965 1.740244 -0.776688 0.000000 0.000000 0.000000
    8 0.000000 -0.273072 1.043217 0.000000 0.000000 0.000000
    9 11.470110 0.978882 -7.922828 0.777557 -1.819456 -1.208763
    10 -0.071918 -8.498731 -0.104137 0.352798 0.302533 -0.041828
    11 0.270583 -2.982786 0.320373 0.554706 1.379928 0.480518
    12 -0.000001 -1.808650 1.012938 0.000000 0.000000 0.000000
    13 -0.115835 -1.983282 1.652800 0.000000 0.000000 0.000000
    14 0.000000 2.290614 1.335354 0.000000 0.000000 0.000000
    15 0.000001 0.706665 0.002903 0.000000 0.000000 0.000000
    16 -0.194964 1.736338 -0.761062 0.000000 0.000000 0.000000
    17 0.000000 -0.273071 1.043216 0.000000 0.000000 0.000000
    18 -0.586769 -1.264477 0.200164 -0.224469 -0.772272 -2.217911
    19 1.522835 0.058680 0.016850 -0.042975 0.166884 0.909410
    20 1.117947 0.048424 -0.005765 -0.000024 0.000000 0.654951
    21 -0.963867 -2.785143 -0.085346 0.213050 0.199964 -0.171417
    22 0.028478 -1.403067 0.006272 -1.373072 -0.000007 -0.000010
    23 0.021412 -0.957782 0.020047 -0.672885 -0.000003 -0.000008
    24 -0.249534 -2.846963 -0.174215 -0.001196 0.000966 -0.025445
    25 0.043235 -1.683940 0.096015 -2.021659 -0.002971 -0.000336
    26 0.031729 -1.160830 0.058836 -1.017648 0.000000 0.000000
    27 0.447951 -2.798983 -0.200441 -0.016250 0.053282 0.116306
    28 -0.032909 -1.480207 0.004935 -1.783731 0.000000 0.000000
    29 -0.027023 -1.076921 -0.020212 -0.898892 0.000000 0.000000
    30 1.164474 -2.543939 -0.170327 0.050355 -0.000995 -0.002105
    31 0.024033 -1.129040 0.017807 -1.291468 -0.100239 0.187007
    32 0.014896 -0.883992 -0.019846 -1.038734 0.074161 0.017318
    33 -0.138841 -0.113067 0.013658 0.285538 -0.040593 1.576220
    34 0.583509 -1.197274 0.185379 -0.077873 -0.765978 -0.796238
    35 1.535926 0.010247 0.005009 -0.072801 0.036313 -1.031055
    36 1.100770 0.004528 -0.010675 0.000000 0.000000 -0.670693
    37 0.957766 -2.746777 -0.090301 0.182590 -0.051003 0.111154
    38 -0.033419 -1.397128 -0.011255 -0.842508 -0.018348 -0.065735
    39 -0.022361 -0.957433 0.018783 -0.642317 0.000000 0.000000
    40 0.250029 -2.820664 -0.238396 -0.282660 0.057277 -0.106688
    41 -0.049759 -1.680544 0.100479 -2.012794 0.000000 0.000000
    42 -0.034141 -1.148311 0.084779 -1.037503 0.000000 0.000000
    43 -0.488517 -2.755600 -0.228261 -0.195785 0.054586 -0.144146
    44 0.039889 -1.479791 0.029854 -2.042748 0.000000 0.000000
    45 0.028785 -1.075733 -0.023110 -0.841838 0.000000 0.000000
    46 -1.180679 -2.507216 -0.193861 0.008677 0.244088 -0.056758
    47 -0.024967 -1.123934 0.017595 -1.466594 0.000000 0.000000
    48 -0.020058 -0.890965 0.010091 -1.308778 0.000000 0.000000
    49 0.120180 -0.051600 -0.055246 0.287567 -3.172226 1.561008
  time 4
    0 -11.960718 3.231844 -8.204087 0.897453 1.884564 1.324287
    1 0.096946 -8.450420 -0.009364 0.376869 -0.149036 0.026333
    2 -0.192877 -2.997167 0.750521 0.973027 -1.502063 -0.975592
    3 0.000000 -1.808650 1.012937 0.000000 0.000000 0.000000
    4 0.000000 0.925423 0.002903 0.000000 0.000000 0.000000
    5 0.000000 2.290614 1.335354 0.000000 0.000000 0.000000
    6 -0.115835 -1.123881 1.652799 0.000000 0.000000 0.000000
    7 -0.194965 1.740244 -0.776688 0.000000 0.000000 0.000000
    8 0.000000 -0.273072 1.043217 0.000000 0.000000 0.000000
    9 11.470110 0.978882 -7.922828 0.777557 -1.819456 -1.208763
    10 -0.071918 -8.498731 -0.104137 0.352798 0.302533 -0.041828
    11 0.270583 -2.982786 0.320373 0.554706 1.379928 0.480518
    12 -0.000001 -1.808650 1.012938 0.000000 0.000000 0.000000
    13 -0.115835 -1.983282 1.652800 0.000000 0.000000 0.000000
    14 0.000000 2.290614 1.335354 0.000000 0.000000 0.000000
    15 0.000001 0.706665 0.002903 0.000000 0.000000 0.000000
    16 -0.194964 1.736338 -0.761062 0.000000 0.000000 0.000000
    17 0.000000 -0.273071 1.043216 0.000000 0.000000 0.000000
    18 -0.586769 -1.264477 0.200164 -0.224469 -0.772272 -2.217911
    19 1.522835 0.058680 0.016850 -0.042975 0.166884 0.909410
    20 1.117947 0.048424 -0.005765 -0.000024 0.000000 0.654951
    21 -0.963867 -2.785143 -0.085346 0.212841 0.199964 -0.171417
    22 0.028478 -1.403067 0.006272 -1.377377 -0.000007 -0.000010
    23 0.021412 -0.957782 0.020047 -0.673648 -0.000003 -0.000008
    24 -0.249534 -2.846963 -0.174215 -0.001196 0.000966 -0.025445
    25 0.043235 -1.683940 0.096015 -2.021659 -0.002971 -0.000336
    26 0.031729 -1.160830 0.058836 -1.017648 0.000000 0.000000
    27 0.447951 -2.798983 -0.200441 -0.016250 0.053282 0.116306
    28 -0.032909 -1.480207 0.004935 -1.783731 0.000000 0.000000
    29 -0.027023 -1.076921 -0.020212 -0.898892 0.000000 0.000000
    30 1.164474 -2.543939 -0.170327 0.050355 -0.000995 -0.002105
    31 0.024033 -1.129040 0.017807 -1.291468 -0.100239 0.187007
    32 0.014896 -0.883992 -0.019846 -1.038734 0.074161 0.017318
    33 -0.138841 -0.113067 0.013658 0.285538 -0.040593 1.576220
    34 0.583509 -1.197274 0.185379 -0.077873 -0.765978 -0.796238
    35 1.535926 0.010247 0.005009 -0.072801 0.036313 -1.031055
    36 1.100770 0.004528 -0.010675 0.000000 0.000000 -0.670693
    37 0.957766 -2.746777 -0.090301 0.182590 -0.051003 0.111154
    38 -0.033419 -1.397128 -0.011255 -0.842508 -0.018348 -0.065735
    39 -0.022361 -0.957433 0.018783 -0.642317 0.000000 0.000000
    40 0.250029 -2.820664 -0.238396 -0.282660 0.057277 -0.106688
    41 -0.049759 -1.680544 0.100479 -2.012794 0.000000 0.000000
    42 -0.034141 -1.148311 0.084779 -1.037503 0.000000 0.000000
    43 -0.488517 -2.755600 -0.228261 -0.195785 0.054586 -0.144146
    44 0.039889 -1.479791 0.029854 -2.042748 0.000000 0.000000
    45 0.028785 -1.075733 -0.023110 -0.841838 0.000000 0.000000
    46 -1.180679 -2.507216 -0.193861 0.008677 0.244088 -0.056758
    47 -0.024967 -1.123934 0.017595 -1.466594 0.000000 0.000000
    48 -0.020058 -0.890965 0.010091 -1.308778 0.000000 0.000000
    49 0.120180 -0.051600 -0.055246 0.287567 -3.172226 1.561008
  time 5
    0 -11.960718 2.974023 -8.161117 0.882771 1.879259 1.310301
    1 0.096946 -8.450420 -0.009364 0.371805 -0.170731 0.073948
    2 -0.192877 -2.997167 0.750521 0.973027 -1.502063 -0.975592
    3 0.000000 -1.808650 1.012937 0.000000 0.000000 0.000000
    4 0.000000 0.925423 0.002903 0.000000 0.000000 0.000000
    5 0.000000 2.290614 1.335354 0.000000 0.000000 0.000000
    6 -0.115835 -1.506705 1.652799 0.000000 0.000000 0.000000
    7 -0.194965 1.740244 -0.776688 0.000000 0.000000 0.000000
    8 0.000000 -0.273072 1.043217 0.000000 0.000000 0.000000
    9 11.470110 0.978882 -7.922828 0.777557 -1.819456 -1.208763
    10 -0.071918 -8.498731 -0.104137 0.352798 0.302533 -0.041828
    11 0.270583 -2.982786 0.320373 0.554706 1.379928 0.480518
    12 -0.000001 -1.808650 1.012938 0.000000 0.000000 0.000000
    13 -0.115835 -1.983282 1.652800 0.000000 0.000000 0.000000
    14 0.000000 2.290614 1.335354 0.000000 0.000000 0.000000
    15 0.000001 0.706665 0.002903 0.000000 0.000000 0.000000
    16 -0.194964 1.736338 -0.761062 0.000000 0.000000 0.000000
    17 0.000000 -0.273071 1.043216 0.000000 0.000000 0.000000
    18 -0.586769 -1.264477 0.200164 -0.224469 -0.772272 -2.217911
    19 1.522835 0.058680 0.016850 -0.042975 0.166884 0.909410
    20 1.117947 0.048424 -0.005765 -0.000024 0.000000 0.654951
    21 -0.963867 -2.785143 -0.085346 0.213155 0.199964 -0.171417
    22 0.028478 -1.403067 0.006272 -1.371340 -0.000007 -0.000010
    23 0.021412 -0.957782 0.020047 -0.672589 -0.000003 -0.000008
    24 -0.249534 -2.846963 -0.174215 -0.001196 0.000966 -0.025445
    25 0.043235 -1.683940 0.096015 -2.021659 -0.002971 -0.000336
    26 0.031729 -1.160830 0.058836 -1.017648 0.000000 0.000000
    27 0.447951 -2.798983 -0.200441 -0.016250 0.053282 0.116306
    28 -0.032909 -1.480207 0.004935 -1.783731 0.000000 0.000000
    29 -0.027023 -1.076921 -0.020212 -0.898892 0.000000 0.000000
    30 1.164474 -2.543939 -0.170327 0.050355 -0.000995 -0.002105
    31 0.024033 -1.129040 0.017807 -1.291468 -0.100239 0.187007
    32 0.014896 -0.883992 -0.019846 -1.038734 0.074161 0.017318
    33 -0.138841 -0.113067 0.013658 0.285538 -0.040593 1.576220
    34 0.583509 -1.197274 0.185379 -0.077873 -0.765978 -0.796238
    35 1.535926 0.010247 0.005009 -0.072801 0.036313 -1.031055
    36 1.100770 0.004528 -0.010675 0.000000 0.000000 -0.670693
    37 0.957766 -2.746777 -0.090301 0.182590 -0.051003 0.111154
    38 -0.033419 -1.397128 -0.011255 -0.842508 -0.018348 -0.065735
    39 -0.022361 -0.957433 0.018783 -0.642317 0.000000 0.000000
    40 0.250029 -2.820664 -0.238396 -0.282660 0.057277 -0.106688
    41 -0.049759 -1.680544 0.100479 -2.012794 0.000000 0.000000
    42 -0.034141 -1.148311 0.084779 -1.037503 0.000000 0.000000
    43 -0.488517 -2.755600 -0.228261 -0.195785 0.054586 -0.144146
    44 0.039889 -1.479791 0.029854 -2.042748 0.000000 0.000000
    45 0.028785 -1.075733 -0.023110 -0.841838 0.000000 0.000000
    46 -1.180679 -2.507216 -0.193861 0.008677 0.244088 -0.056758
    47 -0.024967 -1.123934 0.017595 -1.466594 0.000000 0.000000
    48 -0.020058 -0.890965 0.010091 -1.308778 0.000000 0.000000
    49 0.120180 -0.051600 -0.055246 0.287567 -3.172226 1.561008
  time 6
    0 -11.960718 2.368536 -8.071270 0.867995 1.874107 1.296206
    1 0.096946 -8.450420 -0.009364 0.364125 -0.196655 0.132037
    2 -0.192877 -2.997167 0.750521 0.973027 -1.502063 -0.975592
    3 0.000000 -1.808650 1.012937 0.000000 0.000000 0.000000
    4 0.000000 0.925423 0.002903 0.000000 0.000000 0.000000
    5 0.000000 2.290614 1.335354 0.000000 0.000000 0.000000
    6 -0.115835 -1.842653 1.652799 0.000000 0.000000 0.000000
    7 -0.194965 1.740244 -0.776688 0.000000 0.000000 0.000000
    8 0.000000 -0.273072 1.043217 0.000000 0.000000 0.000000
    9 11.470110 0.978882 -7.922828 0.777557 -1.819456 -1.208763
    10 -0.071918 -8.498731 -0.104137 0.352798 0.302533 -0.041828
    11 0.270583 -2.982786 0.320373 0.554706 1.379928 0.480518
    12 -0.000001 -1.808650 1.012938 0.000000 0.000000 0.000000
    13 -0.115835 -1.983282 1.652800 0.000000 0.000000 0.000000
    14 0.000000 2.290614 1.335354 0.000000 0.000000 0.000000
    15 0.000001 0.706665 0.002903 0.000000 0.000000 0.000000
    16 -0.194964 1.736338 -0.761062 0.000000 0.000000 0.000000
    17 0.000000 -0.273071 1.043216 0.000000 0.000000 0.000000
    18 -0.586769 -1.264477 0.200164 -0.224469 -0.772272 -2.217911
    19 1.522835 0.058680 0.016850 -0.042975 0.166884 0.909410
    20 1.117947 0.048424 -0.005765 -0.000024 0.000000 0.654951
    21 -0.963867 -2.785143 -0.085346 0.214204 0.199964 -0.171417
    22 0.028478 -1.403067 0.006272 -1.349763 -0.000007 -0.000010
    23 0.021412 -0.957782 0.020047 -0.668819 -0.000003 -0.000008
    24 -0.249534 -2.846963 -0.174215 -0.001196 0.000966 -0.025445
    25 0.043235 -1.683940 0.096015 -2.021659 -0.002971 -0.000336
    26 0.031729 -1.160830 0.058836 -1.017648 0.000000 0.000000
    27 0.447951 -2.798983 -0.200441 -0.016250 0.053282 0.116306
    28 -0.032909 -1.480207 0.004935 -1.783731 0.000000 0.000000
    29 -0.027023 -1.076921 -0.020212 -0.898892 0.000000 0.000000
    30 1.164474 -2.543939 -0.170327 0.050355 -0.000995 -0.002105
    31 0.024033 -1.129040 0.017807 -1.291468 -0.100239 0.187007
    32 0.014896 -0.883992 -0.019846 -1.038734 0.074161 0.017318
    33 -0.138841 -0.113067 0.013658 0.285538 -0.040593 1.576220
    34 0.583509 -1.197274 0.185379 -0.077873 -0.765978 -0.796238
    35 1.535926 0.010247 0.005009 -0.072801 0.036313 -1.031055
    36 1.100770 0.004528 -0.010675 0.000000 0.000000 -0.670693
    37 0.957766 -2.746777 -0.090301 0.182590 -0.051003 0.111154
    38 -0.033419 -1.397128 -0.011255 -0.842508 -0.018348 -0.065735
    39 -0.022361 -0.957433 0.018783 -0.642317 0.000000 0.000000
    40 0.250029 -2.820664 -0.238396 -0.282660 0.057277 -0.106688
    41 -0.049759 -1.680544 0.100479 -2.012794 0.000000 0.000000
    42 -0.034141 -1.148311 0.084779 -1.037503 0.000000 0.000000
    43 -0.488517 -2.755600 -0.228261 -0.195785 0.054586 -0.144146
    44 0.039889 -1.479791 0.029854 -2.042748 0.000000 0.000000
    45 0.028785 -1.075733 -0.023110 -0.841838 0.000000 0.000000
    46 -1.180679 -2.507216 -0.193861 0.008677 0.244088 -0.056758
    47 -0.024967 -1.123934 0.017595 -1.466594 0.000000 0.000000
    48 -0.020058 -0.890965 0.010091 -1.308778 0.000000 0.000000
    49 0.120180 -0.051600 -0.055246 0.287567 -3.172226 1.561008
  time 7
    0 -11.960718 1.669296 -7.961892 0.855302 1.869873 1.284071
    1 0.096946 -8.450420 -0.009364 0.353146 -0.226293 0.200385
    2 -0.192877 -2.997167 0.750521 0.973027 -1.502063 -0.975592
    3 0.000000 -1.808650 1.012937 0.000000 0.000000 0.000000
    4 0.000000 0.925423 0.002903 0.000000 0.000000 0.000000
    5 0.000000 2.290614 1.335354 0.000000 0.000000 0.000000
    6 -0.115835 -1.983282 1.652799 0.000000 0.000000 0.000000
    7 -0.194965 1.740244 -0.776688 0.000000 0.000000 0.000000
    8 0.000000 -0.273072 1.043217 0.000000 0.000000 0.000000
    9 11.470110 0.978882 -7.922828 0.777557 -1.819456 -1.208763
    10 -0.071918 -8.498731 -0.104137 0.352798 0.302533 -0.041828
    11 0.270583 -2.982786 0.320373 0.554706 1.379928 0.480518
    12 -0.000001 -1.808650 1.012938 0.000000 0.000000 0.000000
    13 -0.115835 -1.983282 1.652800 0.000000 0.000000 0.000000
    14 0.000000 2.290614 1.335354 0.000000 0.000000 0.000000
    15 0.000001 0.706665 0.002903 0.000000 0.000000 0.000000
    16 -0.194964 1.736338 -0.761062 0.000000 0.000000 0.000000
    17 0.000000 -0.273071 1.043216 0.000000 0.000000 0.000000
    18 -0.586769 -1.264477 0.200164 -0.224469 -0.772272 -2.217911
    19 1.522835 0.058680 0.016850 -0.042975 0.166884 0.909410
    20 1.117947 0.048424 -0.005765 -0.000024 0.000000 0.654951
    21 -0.963867 -2.785143 -0.085346 0.216799 0.199964 -0.171417
    22 0.028478 -1.403067 0.006272 -1.296660 -0.000007 -0.000010
    23 0.021412 -0.957782 0.020047 -0.666222 -0.000003 -0.000008
    24 -0.249534 -2.846963 -0.174215 -0.001196 0.000966 -0.025445
    25 0.043235 -1.683940 0.096015 -2.021659 -0.002971 -0.000336
    26 0.031729 -1.160830 0.058836 -1.017648 0.000000 0.000000
    27 0.447951 -2.798983 -0.200441 -0.016250 0.053282 0.116306
    28 -0.032909 -1.480207 0.004935 -1.783731 0.000000 0.000000
    29 -0.027023 -1.076921 -0.020212 -0.898892 0.000000 0.000000
    30 1.164474 -2.543939 -0.170327 0.050355 -0.000995 -0.002105
    31 0.024033 -1.129040 0.017807 -1.291468 -0.100239 0.187007
    32 0.014896 -0.883992 -0.019846 -1.038734 0.074161 0.017318
    33 -0.138841 -0.113067 0.013658 0.285538 -0.040593 1.576220
    34 0.583509 -1.197274 0.185379 -0.077873 -0.765978 -0.796238
    35 1.535926 0.010247 0.005009 -0.072801 0.036313 -1.031055
    36 1.100770 0.004528 -0.010675 0.000000 0.000000 -0.670693
    37 0.957766 -2.746777 -0.090301 0.182590 -0.051003 0.111154
    38 -0.033419 -1.397128 -0.011255 -0.842508 -0.018348 -0.065735
    39 -0.022361 -0.957433 0.018783 -0.642317 0.000000 0.000000
    40 0.250029 -2.820664 -0.238396 -0.282660 0.057277 -0.106688
    41 -0.049759 -1.680544 0.100479 -2.012794 0.000000 0.000000
    42 -0.034141 -1.148311 0.084779 -1.037503 0.000000 0.000000
    43 -0.488517 -2.755600 -0.228261 -0.195785 0.054586 -0.144146
    44 0.039889 -1.479791 0.029854 -2.042748 0.000000 0.000000
    45 0.028785 -1.075733 -0.023110 -0.841838 0.000000 0.000000
    46 -1.180679 -2.507216 -0.193861 0.008677 0.244088 -0.056758
    47 -0.024967 -1.123934 0.017595 -1.466594 0.000000 0.000000
    48 -0.020058 -0.890965 0.010091 -1.308778 0.000000 0.000000
    49 0.120180 -0.051600 -0.055246 0.287567 -3.172226 1.561008
  time 8
    0 -11.960718 1.130217 -7.887671 0.847156 1.867272 1.276235
    1 0.096946 -8.450420 -0.009364 0.342082 -0.250952 0.259493
    2 -0.192877 -2.997167 0.750521 0.973027 -1.502063 -0.975592
    3 0.000000 -1.808650 1.012937 0.000000 0.000000 0.000000
    4 0.000000 0.866827 0.002903 0.000000 0.000000 0.000000
    5 0.000000 2.290614 1.335354 0.000000 0.000000 0.000000
    6 -0.115835 -1.983282 1.652799 0.000000 0.000000 0.000000
    7 -0.194965 1.740244 -0.776688 0.000000 0.000000 0.000000
    8 0.000000 -0.273072 1.043217 0.000000 0.000000 0.000000
    9 11.470110 0.978882 -7.922828 0.777557 -1.819456 -1.208763
    10 -0.071918 -8.498731 -0.104137 0.352798 0.302533 -0.041828
    11 0.270583 -2.982786 0.320373 0.554706 1.379928 0.480518
    12 -0.000001 -1.808650 1.012938 0.000000 0.000000 0.000000
    13 -0.115835 -1.983282 1.652800 0.000000 0.000000 0.000000
    14 0.000000 2.290614 1.335354 0.000000 0.000000 0.000000
    15 0.000001 0.706665 0.002903 0.000000 0.000000 0.000000
    16 -0.194964 1.736338 -0.761062 0.000000 0.000000 0.000000
    17 0.000000 -0.273071 1.043216 0.000000 0.000000 0.000000
    18 -0.586769 -1.264477 0.200164 -0.224469 -0.772272 -2.217911
    19 1.522835 0.058680 0.016850 -0.042975 0.166884 0.909410
    20 1.117947 0.048424 -0.005765 -0.000024 0.000000 0.654951
    21 -0.963867 -2.785143 -0.085346 0.220836 0.199964 -0.171417
    22 0.028478 -1.403067 0.006272 -1.214027 -0.000007 -0.000010
    23 0.021412 -0.957782 0.020047 -0.656395 -0.000003 -0.000008
    24 -0.249534 -2.846963 -0.174215 -0.001196 0.000966 -0.025445
    25 0.043235 -1.683940 0.096015 -2.021659 -0.002971 -0.000336
    26 0.031729 -1.160830 0.058836 -1.017648 0.000000 0.000000
    27 0.447951 -2.798983 -0.200441 -0.016250 0.053282 0.116306
    28 -0.032909 -1.480207 0.004935 -1.783731 0.000000 0.000000
    29 -0.027023 -1.076921 -0.020212 -0.898892 0.000000 0.000000
    30 1.164474 -2.543939 -0.170327 0.050355 -0.000995 -0.002105
    31 0.024033 -1.129040 0.017807 -1.291468 -0.100239 0.187007
    32 0.014896 -0.883992 -0.019846 -1.038734 0.074161 0.017318
    33 -0.138841 -0.113067 0.013658 0.285538 -0.040593 1.576220
    34 0.583509 -1.197274 0.185379 -0.077873 -0.765978 -0.796238
    35 1.535926 0.010247 0.005009 -0.072801 0.036313 -1.031055
    36 1.100770 0.004528 -0.010675 0.000000 0.000000 -0.670693
    37 0.957766 -2.746777 -0.090301 0.182590 -0.051003 0.111154
    38 -0.033419 -1.397128 -0.011255 -0.842508 -0.018348 -0.065735
    39 -0.022361 -0.957433 0.018783 -0.642317 0.000000 0.000000
    40 0.250029 -2.820664 -0.238396 -0.282660 0.057277 -0.106688
    41 -0.049759 -1.680544 0.100479 -2.012794 0.000000 0.000000
    42 -0.034141 -1.148311 0.084779 -1.037503 0.000000 0.000000
    43 -0.488517 -2.755600 -0.228261 -0.195785 0.054586 -0.144146
    44 0.039889 -1.479791 0.029854 -2.042748 0.000000 0.000000
    45 0.028785 -1.075733 -0.023110 -0.841838 0.000000 0.000000
    46 -1.180679 -2.507216 -0.193861 0.008677 0.244088 -0.056758
    47 -0.024967 -1.123934 0.017595 -1.466594 0.000000 0.000000
    48 -0.020058 -0.890965 0.010091 -1.308778 0.000000 0.000000
    49 0.120180 -0.051600 -0.055246 0.287567 -3.172226 1.561008
  time 9
    0 -11.960718 0.829427 -7.844701 0.843178 1.865997 1.272371
    1 0.096946 -8.450420 -0.009364 0.336040 -0.263045 0.289107
    2 -0.192877 -2.997167 0.750521 0.973027 -1.502063 -0.975592
    3 0.000000 -1.808650 1.012937 0.000000 0.000000 0.000000
    4 0.000000 0.761355 0.002903 0.000000 0.000000 0.000000
    5 0.000000 2.290614 1.335354 0.000000 0.000000 0.000000
    6 -0.115835 -1.983282 1.652799 0.000000 0.000000 0.000000
    7 -0.194965 1.740244 -0.776688 0.000000 0.000000 0.000000
    8 0.000000 -0.273072 1.043217 0.000000 0.000000 0.000000
    9 11.470110 0.978882 -7.922828 0.777557 -1.819456 -1.208763
    10 -0.071918 -8.498731 -0.104137 0.352798 0.302533 -0.041828
    11 0.270583 -2.982786 0.320373 0.554706 1.379928 0.480518
    12 -0.000001 -1.808650 1.012938 0.000000 0.000000 0.000000
    13 -0.115835 -1.983282 1.652800 0.000000 0.000000 0.000000
    14 0.000000 2.290614 1.335354 0.000000 0.000000 0.000000
    15 0.000001 0.706665 0.002903 0.000000 0.000000 0.000000
    16 -0.194964 1.736338 -0.761062 0.000000 0.000000 0.000000
    17 0.000000 -0.273071 1.043216 0.000000 0.000000 0.000000
    18 -0.586769 -1.264477 0.200164 -0.224469 -0.772272 -2.217911
    19 1.522835 0.058680 0.016850 -0.042975 0.166884 0.909410
    20 1.117947 0.048424 -0.005765 -0.000024 0.000000 0.654951
    21 -0.963867 -2.785143 -0.085346 0.225266 0.199964 -0.171417
    22 0.028478 -1.403067 0.006272 -1.123808 -0.000007 -0.000010
    23 0.021412 -0.957782 0.020047 -0.620026 -0.000003 -0.000008
    24 -0.249534 -2.846963 -0.174215 -0.001196 0.000966 -0.025445
    25 0.043235 -1.683940 0.096015 -2.021659 -0.002971 -0.000336
    26 0.031729 -1.160830 0.058836 -1.017648 0.000000 0.000000
    27 0.447951 -2.798983 -0.200441 -0.016250 0.053282 0.116306
    28 -0.032909 -1.480207 0.004935 -1.783731 0.000000 0.000000
    29 -0.027023 -1.076921 -0.020212 -0.898892 0.000000 0.000000
    30 1.164474 -2.543939 -0.170327 0.050355 -0.000995 -0.002105
    31 0.024033 -1.129040 0.017807 -1.291468 -0.100239 0.187007
    32 0.014896 -0.883992 -0.019846 -1.038734 0.074161 0.017318
    33 -0.138841 -0.113067 0.013658 0.285538 -0.040593 1.576220
    34 0.583509 -1.197274 0.185379 -0.077873 -0.765978 -0.796238
    35 1.535926 0.010247 0.005009 -0.072801 0.036313 -1.031055
    36 1.100770 0.004528 -0.010675 0.000000 0.000000 -0.670693
    37 0.957766 -2.746777 -0.090301 0.182590 -0.051003 0.111154
    38 -0.033419 -1.397128 -0.011255 -0.842508 -0.018348 -0.065735
    39 -0.022361 -0.957433 0.018783 -0.642317 0.000000 0.000000
    40 0.250029 -2.820664 -0.238396 -0.282660 0.057277 -0.106688
    41 -0.049759 -1.680544 0.100479 -2.012794 0.000000 0.000000
    42 -0.034141 -1.148311 0.084779 -1.037503 0.000000 0.000000
    43 -0.488517 -2.755600 -0.228261 -0.195785 0.054586 -0.144146
    44 0.039889 -1.479791 0.029854 -2.042748 0.000000 0.000000
    45 0.028785 -1.075733 -0.023110 -0.841838 0.000000 0.000000
    46 -1.180679 -2.507216 -0.193861 0.008677 0.244088 -0.056758
    47 -0.024967 -1.123934 0.017595 -1.466594 0.000000 0.000000
    48 -0.020058 -0.890965 0.010091 -1.308778 0.000000 0.000000
    49 0.120180 -0.051600 -0.055246 0.287567 -3.172226 1.561008
  time 10
    0 -11.960718 0.649734 -7.825169 0.840999 1.865334 1.270303
    1 0.096946 -8.450420 -0.009364 0.335316 -0.264705 0.292906
    2 -0.192877 -2.997167 0.750521 0.973027 -1.502063 -0.975592
    3 0.000000 -1.808650 1.012937 0.000000 0.000000 0.000000
    4 0.000000 0.706666 0.002903 0.000000 0.000000 0.000000
    5 0.000000 2.290614 1.335354 0.000000 0.000000 0.000000
    6 -0.115835 -1.983282 1.652799 0.000000 0.000000 0.000000
    7 -0.194965 1.740244 -0.776688 0.000000 0.000000 0.000000
    8 0.000000 -0.273072 1.043217 0.000000 0.000000 0.000000
    9 11.470110 0.978882 -7.922828 0.777557 -1.819456 -1.208763
    10 -0.071918 -8.498731 -0.104137 0.352798 0.302533 -0.041828
    11 0.270583 -2.982786 0.320373 0.554706 1.379928 0.480518
    12 -0.000001 -1.808650 1.012938 0.000000 0.000000 0.000000
    13 -0.115835 -1.983282 1.652800 0.000000 0.000000 0.000000
    14 0.000000 2.290614 1.335354 0.000000 0.000000 0.000000
    15 0.000001 0.706665 0.002903 0.000000 0.000000 0.000000
    16 -0.194964 1.736338 -0.761062 0.000000 0.000000 0.000000
    17 0.000000 -0.273071 1.043216 0.000000 0.000000 0.000000
    18 -0.586769 -1.264477 0.200164 -0.224469 -0.772272 -2.217911
    19 1.522835 0.058680 0.016850 -0.042975 0.166884 0.909410
    20 1.117947 0.048424 -0.005765 -0.000024 0.000000 0.654951
    21 -0.963867 -2.785143 -0.085346 0.228988 0.199964 -0.171417
    22 0.028478 -1.403067 0.006272 -1.047921 -0.000007 -0.000010
    23 0.021412 -0.957782 0.020047 -0.523555 -0.000003 -0.000008
    24 -0.249534 -2.846963 -0.174215 -0.001196 0.000966 -0.025445
    25 0.043235 -1.683940 0.096015 -2.021659 -0.002971 -0.000336
    26 0.031729 -1.160830 0.058836 -1.017648 0.000000 0.000000
    27 0.447951 -2.798983 -0.200441 -0.016250 0.053282 0.116306
    28 -0.032909 -1.480207 0.004935 -1.783731 0.000000 0.000000
    29 -0.027023 -1.076921 -0.020212 -0.898892 0.000000 0.000000
    30 1.164474 -2.543939 -0.170327 0.050355 -0.000995 -0.002105
    31 0.024033 -1.129040 0.017807 -1.291468 -0.100239 0.187007
    32 0.014896 -0.883992 -0.019846 -1.038734 0.074161 0.017318
    33 -0.138841 -0.113067 0.013658 0.285538 -0.040593 1.576220
    34 0.583509 -1.197274 0.185379 -0.077873 -0.765978 -0.796238
    35 1.535926 0.010247 0.005009 -0.072801 0.036313 -1.031055
    36 1.100770 0.004528 -0.010675 0.000000 0.000000 -0.670693
    37 0.957766 -2.746777 -0.090301 0.182590 -0.051003 0.111154
    38 -0.033419 -1.397128 -0.011255 -0.842508 -0.018348 -0.065735
    39 -0.022361 -0.957433 0.018783 -0.642317 0.000000 0.000000
    40 0.250029 -2.820664 -0.238396 -0.282660 0.057277 -0.106688
    41 -0.049759 -1.680544 0.100479 -2.012794 0.000000 0.000000
    42 -0.034141 -1.148311 0.084779 -1.037503 0.000000 0.000000
    43 -0.488517 -2.755600 -0.228261 -0.195785 0.054586 -0.144146
    44 0.039889 -1.479791 0.029854 -2.042748 0.000000 0.000000
    45 0.028785 -1.075733 -0.023110 -0.841838 0.000000 0.000000
    46 -1.180679 -2.507216 -0.193861 0.008677 0.244088 -0.056758
    47 -0.024967 -1.123934 0.017595 -1.466594 0.000000 0.000000
    48 -0.020058 -0.890965 0.010091 -1.308778 0.000000 0.000000
    49 0.120180 -0.051600 -0.055246 0.287567 -3.172226 1.561008
  time 11
    0 -11.960718 0.575513 -7.821263 0.840336 1.865130 1.269704
    1 0.096946 -8.450420 -0.009364 0.336167 -0.263400 0.289347
    2 -0.192877 -2.997167 0.750521 0.973027 -1.502063 -0.975592
    3 0.000000 -1.808650 1.012937 0.000000 0.000000 0.000000
    4 0.000000 0.706666 0.002903 0.000000 0.000000 0.000000
    5 0.000000 2.290614 1.335354 0.000000 0.000000 0.000000
    6 -0.115835 -1.983282 1.652799 0.000000 0.000000 0.000000
    7 -0.194965 1.740244 -0.776688 0.000000 0.000000 0.000000
    8 0.000000 -0.273072 1.043217 0.000000 0.000000 0.000000
    9 11.470110 0.978882 -7.922828 0.777557 -1.819456 -1.208763
    10 -0.071918 -8.498731 -0.104137 0.352798 0.302533 -0.041828
    11 0.270583 -2.982786 0.320373 0.554706 1.379928 0.480518
    12 -0.000001 -1.808650 1.012938 0.000000 0.000000 0.000000
    13 -0.115835 -1.983282 1.652800 0.000000 0.000000 0.000000
    14 0.000000 2.290614 1.335354 0.000000 0.000000 0.000000
    15 0.000001 0.706665 0.002903 0.000000 0.000000 0.000000
    16 -0.194964 1.736338 -0.761062 0.000000 0.000000 0.000000
    17 0.000000 -0.273071 1.043216 0.000000 0.000000 0.000000
    18 -0.586769 -1.264477 0.200164 -0.224469 -0.772272 -2.217911
    19 1.522835 0.058680 0.016850 -0.042975 0.166884 0.909410
    20 1.117947 0.048424 -0.005765 -0.000024 0.000000 0.654951
    21 -0.963867 -2.785143 -0.085346 0.230928 0.199964 -0.171417
    22 0.028478 -1.403067 0.006272 -1.008258 -0.000007 -0.000010
    23 0.021412 -0.957782 0.020047 -0.400527 -0.000003 -0.000008
    24 -0.249534 -2.846963 -0.174215 -0.001196 0.000966 -0.025445
    25 0.043235 -1.683940 0.096015 -2.021659 -0.002971 -0.000336
    26 0.031729 -1.160830 0.058836 -1.017648 0.000000 0.000000
    27 0.447951 -2.798983 -0.200441 -0.016250 0.053282 0.116306
    28 -0.032909 -1.480207 0.004935 -1.783731 0.000000 0.000000
    29 -0.027023 -1.076921 -0.020212 -0.898892 0.000000 0.000000
    30 1.164474 -2.543939 -0.170327 0.050355 -0.000995 -0.002105
    31 0.024033 -1.129040 0.017807 -1.291468 -0.100239 0.187007
    32 0.014896 -0.883992 -0.019846 -1.038734 0.074161 0.017318
    33 -0.138841 -0.113067 0.013658 0.285538 -0.040593 1.576220
    34 0.583509 -1.197274 0.185379 -0.077873 -0.765978 -0.796238
    35 1.535926 0.010247 0.005009 -0.072801 0.036313 -1.031055
    36 1.100770 0.004528 -0.010675 0.000000 0.000000 -0.670693
    37 0.957766 -2.746777 -0.090301 0.182590 -0.051003 0.111154
    38 -0.033419 -1.397128 -0.011255 -0.842508 -0.018348 -0.065735
    39 -0.022361 -0.957433 0.018783 -0.642317 0.000000 0.000000
    40 0.250029 -2.820664 -0.238396 -0.282660 0.057277 -0.106688
    41 -0.049759 -1.680544 0.100479 -2.012794 0.000000 0.000000
    42 -0.034141 -1.148311 0.084779 -1.037503 0.000000 0.000000
    43 -0.488517 -2.755600 -0.228261 -0.195785 0.054586 -0.144146
    44 0.039889 -1.479791 0.029854 -2.042748 0.000000 0.000000
    45 0.028785 -1.075733 -0.023110 -0.841838 0.000000 0.000000
    46 -1.180679 -2.507216 -0.193861 0.008677 0.244088 -0.056758
    47 -0.024967 -1.123934 0.017595 -1.466594 0.000000 0.000000
    48 -0.020058 -0.890965 0.010091 -1.308778 0.000000 0.000000
    49 0.120180 -0.051600 -0.055246 0.287567 -3.172226 1.561008
  time 12
    0 -11.960718 0.575513 -7.832982 0.840904 1.865283 1.270194
    1 0.096946 -8.450420 -0.009364 0.338231 -0.259804 0.279987
    2 -0.192877 -2.997167 0.750521 0.973027 -1.502063 -0.975592
    3 0.000000 -1.808650 1.012937 0.000000 0.000000 0.000000
    4 0.000000 0.706666 0.002903 0.000000 0.000000 0.000000
    5 0.000000 2.290614 1.335354 0.000000 0.000000 0.000000
    6 -0.115835 -1.983282 1.652799 0.000000 0.000000 0.000000
    7 -0.194965 1.740244 -0.776688 0.000000 0.000000 0.000000
    8 0.000000 -0.273072 1.043217 0.000000 0.000000 0.000000
    9 11.470110 0.978882 -7.922828 0.777557 -1.819456 -1.208763
    10 -0.071918 -8.498731 -0.104137 0.352798 0.302533 -0.041828
    11 0.270583 -2.982786 0.320373 0.554706 1.379928 0.480518
    12 -0.000001 -1.808650 1.012938 0.000000 0.000000 0.000000
    13 -0.115835 -1.983282 1.652800 0.000000 0.000000 0.000000
    14 0.000000 2.290614 1.335354 0.000000 0.000000 0.000000
    15 0.000001 0.706665 0.002903 0.000000 0.000000 0.000000
    16 -0.194964 1.736338 -0.761062 0.000000 0.000000 0.000000
    17 0.000000 -0.273071 1.043216 0.000000 0.000000 0.000000
    18 -0.586769 -1.264477 0.200164 -0.224469 -0.772272 -2.217911
    19 1.522835 0.058680 0.016850 -0.042975 0.166884 0.909410
    20 1.117947 0.048424 -0.005765 -0.000024 0.000000 0.654951
    21 -0.963867 -2.785143 -0.085346 0.231557 0.199964 -0.171417
    22 0.028478 -1.403067 0.006272 -0.995475 -0.000007 -0.000010
    23 0.021412 -0.957782 0.020047 -0.332307 -0.000003 -0.000008
    24 -0.249534 -2.846963 -0.174215 -0.001196 0.000966 -0.025445
    25 0.043235 -1.683940 0.096015 -2.021659 -0.002971 -0.000336
    26 0.031729 -1.160830 0.058836 -1.017648 0.000000 0.000000
    27 0.447951 -2.798983 -0.200441 -0.016250 0.053282 0.116306
    28 -0.032909 -1.480207 0.004935 -1.783731 0.000000 0.000000
    29 -0.027023 -1.076921 -0.020212 -0.898892 0.000000 0.000000
    30 1.164474 -2.543939 -0.170327 0.050355 -0.000995 -0.002105
    31 0.024033 -1.129040 0.017807 -1.291468 -0.100239 0.187007
    32 0.014896 -0.883992 -0.019846 -1.038734 0.074161 0.017318
    33 -0.138841 -0.113067 0.013658 0.285538 -0.040593 1.576220
    34 0.583509 -1.197274 0.185379 -0.077873 -0.765978 -0.796238
    35 1.535926 0.010247 0.005009 -0.072801 0.036313 -1.031055
    36 1.100770 0.004528 -0.010675 0.000000 0.000000 -0.670693
    37 0.957766 -2.746777 -0.090301 0.182590 -0.051003 0.111154
    38 -0.033419 -1.397128 -0.011255 -0.842508 -0.018348 -0.065735
    39 -0.022361 -0.957433 0.018783 -0.642317 0.000000 0.000000
    40 0.250029 -2.820664 -0.238396 -0.282660 0.057277 -0.106688
    41 -0.049759 -1.680544 0.100479 -2.012794 0.000000 0.000000
    42 -0.034141 -1.148311 0.084779 -1.037503 0.000000 0.000000
    43 -0.488517 -2.755600 -0.228261 -0.195785 0.054586 -0.144146
    44 0.039889 -1.479791 0.029854 -2.042748 0.000000 0.000000
    45 0.028785 -1.075733 -0.023110 -0.841838 0.000000 0.000000
    46 -1.180679 -2.507216 -0.193861 0.008677 0.244088 -0.056758
    47 -0.024967 -1.123934 0.017595 -1.466594 0.000000 0.000000
    48 -0.020058 -0.890965 0.010091 -1.308778 0.000000 0.000000
    49 0.120180 -0.051600 -0.055246 0.287567 -3.172226 1.561008
  time 13
    0 -11.960718 0.630202 -7.852514 0.842136 1.865691 1.271391
    1 0.096946 -8.450420 -0.009364 0.341125 -0.254469 0.266384
    2 -0.192877 -2.997167 0.750521 0.973027 -1.502063 -0.975592
    3 0.000000 -1.808650 1.012937 0.000000 0.000000 0.000000
    4 0.000000 0.706666 0.002903 0.000000 0.000000 0.000000
    5 0.000000 2.290614 1.335354 0.000000 0.000000 0.000000
    6 -0.115835 -1.983282 1.652799 0.000000 0.000000 0.000000
    7 -0.194965 1.740244 -0.776688 0.000000 0.000000 0.000000
    8 0.000000 -0.273072 1.043217 0.000000 0.000000 0.000000
    9 11.470110 0.978882 -7.922828 0.777557 -1.819456 -1.208763
    10 -0.071918 -8.498731 -0.104137 0.352798 0.302533 -0.041828
    11 0.270583 -2.982786 0.320373 0.554706 1.379928 0.480518
    12 -0.000001 -1.808650 1.012938 0.000000 0.000000 0.000000
    13 -0.115835 -1.983282 1.652800 0.000000 0.000000 0.000000
    14 0.000000 2.290614 1.335354 0.000000 0.000000 0.000000
    15 0.000001 0.706665 0.002903 0.000000 0.000000 0.000000
    16 -0.194964 1.736338 -0.761062 0.000000 0.000000 0.000000
    17 0.000000 -0.273071 1.043216 0.000000 0.000000 0.000000
    18 -0.586769 -1.264477 0.200164 -0.224469 -0.772272 -2.217911
    19 1.522835 0.058680 0.016850 -0.042975 0.166884 0.909410
    20 1.117947 0.048424 -0.005765 -0.000024 0.000000 0.654951
    21 -0.963867 -2.785143 -0.085346 0.232029 0.199964 -0.171417
    22 0.028478 -1.403067 0.006272 -0.985474 -0.000007 -0.000010
    23 0.021412 -0.957782 0.020047 -0.320080 -0.000003 -0.000008
    24 -0.249534 -2.846963 -0.174215 -0.001196 0.000966 -0.025445
    25 0.043235 -1.683940 0.096015 -2.021659 -0.002971 -0.000336
    26 0.031729 -1.160830 0.058836 -1.017648 0.000000 0.000000
    27 0.447951 -2.798983 -0.200441 -0.016250 0.053282 0.116306
    28 -0.032909 -1.480207 0.004935 -1.783731 0.000000 0.000000
    29 -0.027023 -1.076921 -0.020212 -0.898892 0.000000 0.000000
    30 1.164474 -2.543939 -0.170327 0.050355 -0.000995 -0.002105
    31 0.024033 -1.129040 0.017807 -1.291468 -0.100239 0.187007
    32 0.014896 -0.883992 -0.019846 -1.038734 0.074161 0.017318
    33 -0.138841 -0.113067 0.013658 0.285538 -0.040593 1.576220
    34 0.583509 -1.197274 0.185379 -0.077873 -0.765978 -0.796238
    35 1.535926 0.010247 0.005009 -0.072801 0.036313 -1.031055
    36 1.100770 0.004528 -0.010675 0.000000 0.000000 -0.670693
    37 0.957766 -2.746777 -0.090301 0.182590 -0.051003 0.111154
    38 -0.033419 -1.397128 -0.011255 -0.842508 -0.018348 -0.065735
    39 -0.022361 -0.957433 0.018783 -0.642317 0.000000 0.000000
    40 0.250029 -2.820664 -0.238396 -0.282660 0.057277 -0.106688
    41 -0.049759 -1.680544 0.100479 -2.012794 0.000000 0.000000
    42 -0.034141 -1.148311 0.084779 -1.037503 0.000000 0.000000
    43 -0.488517 -2.755600 -0.228261 -0.195785 0.054586 -0.144146
    44 0.039889 -1.479791 0.029854 -2.042748 0.000000 0.000000
    45 0.028785 -1.075733 -0.023110 -0.841838 0.000000 0.000000
    46 -1.180679 -2.507216 -0.193861 0.008677 0.244088 -0.056758
    47 -0.024967 -1.123934 0.017595 -1.466594 0.000000 0.000000
    48 -0.020058 -0.890965 0.010091 -1.308778 0.000000 0.000000
    49 0.120180 -0.051600 -0.055246 0.287567 -3.172226 1.561008
  time 14
    0 -11.960718 0.708329 -7.875952 0.843746 1.866201 1.272969
    1 0.096946 -8.450420 -0.009364 0.344487 -0.247949 0.250133
    2 -0.192877 -2.997167 0.750521 0.973027 -1.502063 -0.975592
    3 0.000000 -1.808650 1.012937 0.000000 0.000000 0.000000
    4 0.000000 0.706666 0.002903 0.000000 0.000000 0.000000
    5 0.000000 2.290614 1.335354 0.000000 0.000000 0.000000
    6 -0.115835 -1.983282 1.652799 0.000000 0.000000 0.000000
    7 -0.194965 1.740244 -0.776688 0.000000 0.000000 0.000000
    8 0.000000 -0.273072 1.043217 0.000000 0.000000 0.000000
    9 11.470110 0.978882 -7.922828 0.777557 -1.819456 -1.208763
    10 -0.071918 -8.498731 -0.104137 0.352798 0.302533 -0.041828
    11 0.270583 -2.982786 0.320373 0.554706 1.379928 0.480518
    12 -0.000001 -1.808650 1.012938 0.000000 0.000000 0.000000
    13 -0.115835 -1.983282 1.652800 0.000000 0.000000 0.000000
    14 0.000000 2.290614 1.335354 0.000000 0.000000 0.000000
    15 0.000001 0.706665 0.002903 0.000000 0.000000 0.000000
    16 -0.194964 1.736338 -0.761062 0.000000 0.000000 0.000000
    17 0.000000 -0.273071 1.043216 0.000000 0.000000 0.000000
    18 -0.586769 -1.264477 0.200164 -0.224469 -0.772272 -2.217911
    19 1.522835 0.058680 0.016850 -0.042975 0.166884 0.909410
    20 1.117947 0.048424 -0.005765 -0.000024 0.000000 0.654951
    21 -0.963867 -2.785143 -0.085346 0.232396 0.199964 -0.171417
    22 0.028478 -1.403067 0.006272 -0.977993 -0.000007 -0.000010
    23 0.021412 -0.957782 0.020047 -0.310663 -0.000003 -0.000008
    24 -0.249534 -2.846963 -0.174215 -0.001196 0.000966 -0.025445
    25 0.043235 -1.683940 0.096015 -2.021659 -0.002971 -0.000336
    26 0.031729 -1.160830 0.058836 -1.017648 0.000000 0.000000
    27 0.447951 -2.798983 -0.200441 -0.016250 0.053282 0.116306
    28 -0.032909 -1.480207 0.004935 -1.783731 0.000000 0.000000
    29 -0.027023 -1.076921 -0.020212 -0.898892 0.000000 0.000000
    30 1.164474 -2.543939 -0.170327 0.050355 -0.000995 -0.002105
    31 0.024033 -1.129040 0.017807 -1.291468 -0.100239 0.187007
    32 0.014896 -0.883992 -0.019846 -1.038734 0.074161 0.017318
    33 -0.138841 -0.113067 0.013658 0.285538 -0.040593 1.576220
    34 0.583509 -1.197274 0.185379 -0.077873 -0.765978 -0.796238
    35 1.535926 0.010247 0.005009 -0.072801 0.036313 -1.031055
    36 1.100770 0.004528 -0.010675 0.000000 0.000000 -0.670693
    37 0.957766 -2.746777 -0.090301 0.182590 -0.051003 0.111154
    38 -0.033419 -1.397128 -0.011255 -0.842508 -0.018348 -0.065735
    39 -0.022361 -0.957433 0.018783 -0.642317 0.000000 0.000000
    40 0.250029 -2.820664 -0.238396 -0.282660 0.057277 -0.106688
    41 -0.049759 -1.680544 0.100479 -2.012794 0.000000 0.000000
    42 -0.034141 -1.148311 0.084779 -1.037503 0.000000 0.000000
    43 -0.488517 -2.755600 -0.228261 -0.195785 0.054586 -0.144146
    44 0.039889 -1.479791 0.029854 -2.042748 0.000000 0.000000
    45 0.028785 -1.075733 -0.023110 -0.841838 0.000000 0.000000
    46 -1.180679 -2.507216 -0.193861 0.008677 0.244088 -0.056758
    47 -0.024967 -1.123934 0.017595 -1.466594 0.000000 0.000000
    48 -0.020058 -0.890965 0.010091 -1.308778 0.000000 0.000000
    49 0.120180 -0.051600 -0.055246 0.287567 -3.172226 1.561008
  time 15
    0 -11.960718 0.790363 -7.899390 0.845451 1.866762 1.274548
    1 0.096946 -8.450420 -0.009364 0.347955 -0.240915 0.232767
    2 -0.192877 -2.997167 0.750521 0.973027 -1.502063 -0.975592
    3 0.000000 -1.808650 1.012937 0.000000 0.000000 0.000000
    4 0.000000 0.706666 0.002903 0.000000 0.000000 0.000000
    5 0.000000 2.290614 1.335354 0.000000 0.000000 0.000000
    6 -0.115835 -1.983282 1.652799 0.000000 0.000000 0.000000
    7 -0.194965 1.740244 -0.776688 0.000000 0.000000 0.000000
    8 0.000000 -0.273072 1.043217 0.000000 0.000000 0.000000
    9 11.470110 0.978882 -7.922828 0.777557 -1.819456 -1.208763
    10 -0.071918 -8.498731 -0.104137 0.352798 0.302533 -0.041828
    11 0.270583 -2.982786 0.320373 0.554706 1.379928 0.480518
    12 -0.000001 -1.808650 1.012938 0.000000 0.000000 0.000000
    13 -0.115835 -1.983282 1.652800 0.000000 0.000000 0.000000
    14 0.000000 2.290614 1.335354 0.000000 0.000000 0.000000
    15 0.000001 0.706665 0.002903 0.000000 0.000000 0.000000
    16 -0.194964 1.736338 -0.761062 0.000000 0.000000 0.000000
    17 0.000000 -0.273071 1.043216 0.000000 0.000000 0.000000
    18 -0.586769 -1.264477 0.200164 -0.224469 -0.772272 -2.217911
    19 1.522835 0.058680 0.016850 -0.042975 0.166884 0.909410
    20 1.117947 0.048424 -0.005765 -0.000024 0.000000 0.654951
    21 -0.963867 -2.785143 -0.085346 0.232658 0.199964 -0.171417
    22 0.028478 -1.403067 0.006272 -0.972769 -0.000007 -0.000010
    23 0.021412 -0.957782 0.020047 -0.303760 -0.000003 -0.000008
    24 -0.249534 -2.846963 -0.174215 -0.001196 0.000966 -0.025445
    25 0.043235 -1.683940 0.096015 -2.021659 -0.002971 -0.000336
    26 0.031729 -1.160830 0.058836 -1.017648 0.000000 0.000000
    27 0.447951 -2.798983 -0.200441 -0.016250 0.053282 0.116306
    28 -0.032909 -1.480207 0.004935 -1.783731 0.000000 0.000000
    29 -0.027023 -1.076921 -0.020212 -0.898892 0.000000 0.000000
    30 1.164474 -2.543939 -0.170327 0.050355 -0.000995 -0.002105
    31 0.024033 -1.129040 0.017807 -1.291468 -0.100239 0.187007
    32 0.014896 -0.883992 -0.019846 -1.038734 0.074161 0.017318
    33 -0.138841 -0.113067 0.013658 0.285538 -0.040593 1.576220
    34 0.583509 -1.197274 0.185379 -0.077873 -0.765978 -0.796238
    35 1.535926 0.010247 0.005009 -0.072801 0.036313 -1.031055
    36 1.100770 0.004528 -0.010675 0.000000 0.000000 -0.670693
    37 0.957766 -2.746777 -0.090301 0.182590 -0.051003 0.111154
    38 -0.033419 -1.397128 -0.011255 -0.842508 -0.018348 -0.065735
    39 -0.022361 -0.957433 0.018783 -0.642317 0.000000 0.000000
    40 0.250029 -2.820664 -0.238396 -0.282660 0.057277 -0.106688
    41 -0.049759 -1.680544 0.100479 -2.012794 0.000000 0.000000
    42 -0.034141 -1.148311 0.084779 -1.037503 0.000000 0.000000
    43 -0.488517 -2.755600 -0.228261 -0.195785 0.054586 -0.144146
    44 0.039889 -1.479791 0.029854 -2.042748 0.000000 0.000000
    45 0.028785 -1.075733 -0.023110 -0.841838 0.000000 0.000000
    46 -1.180679 -2.507216 -0.193861 0.008677 0.244088 -0.056758
    47 -0.024967 -1.123934 0.017595 -1.466594 0.000000 0.000000
    48 -0.020058 -0.890965 0.010091 -1.308778 0.000000 0.000000
    49 0.120180 -0.051600 -0.055246 0.287567 -3.172226 1.561008
  time 16
    0 -11.960718 0.852865 -7.915015 0.846682 1.867119 1.275745
    1 0.096946 -8.450420 -0.009364 0.351189 -0.233920 0.215845
    2 -0.192877 -2.997167 0.750521 0.973027 -1.502063 -0.975592
    3 0.000000 -1.808650 1.012937 0.000000 0.000000 0.000000
    4 0.000000 0.706666 0.002903 0.000000 0.000000 0.000000
    5 0.000000 2.290614 1.335354 0.000000 0.000000 0.000000
    6 -0.115835 -1.983282 1.652799 0.000000 0.000000 0.000000
    7 -0.194965 1.740244 -0.776688 0.000000 0.000000 0.000000
    8 0.000000 -0.273072 1.043217 0.000000 0.000000 0.000000
    9 11.470110 0.978882 -7.922828 0.777557 -1.819456 -1.208763
    10 -0.071918 -8.498731 -0.104137 0.352798 0.302533 -0.041828
    11 0.270583 -2.982786 0.320373 0.554706 1.379928 0.480518
    12 -0.000001 -1.808650 1.012938 0.000000 0.000000 0.000000
    13 -0.115835 -1.983282 1.652800 0.000000 0.000000 0.000000
    14 0.000000 2.290614 1.335354 0.000000 0.000000 0.000000
    15 0.000001 0.706665 0.002903 0.000000 0.000000 0.000000
    16 -0.194964 1.736338 -0.761062 0.000000 0.000000 0.000000
    17 0.000000 -0.273071 1.043216 0.000000 0.000000 0.000000
    18 -0.586769 -1.264477 0.200164 -0.224469 -0.772272 -2.217911
    19 1.522835 0.058680 0.016850 -0.042975 0.166884 0.909410
    20 1.117947 0.048424 -0.005765 -0.000024 0.000000 0.654951
    21 -0.963867 -2.785143 -0.085346 0.232816 0.199964 -0.171417
    22 0.028478 -1.403067 0.006272 -0.969619 -0.000007 -0.000010
    23 0.021412 -0.957782 0.020047 -0.299157 -0.000003 -0.000008
    24 -0.249534 -2.846963 -0.174215 -0.001196 0.000966 -0.025445
    25 0.043235 -1.683940 0.096015 -2.021659 -0.002971 -0.000336
    26 0.031729 -1.160830 0.058836 -1.017648 0.000000 0.000000
    27 0.447951 -2.798983 -0.200441 -0.016250 0.053282 0.116306
    28 -0.032909 -1.480207 0.004935 -1.783731 0.000000 0.000000
    29 -0.027023 -1.076921 -0.020212 -0.898892 0.000000 0.000000
    30 1.164474 -2.543939 -0.170327 0.050355 -0.000995 -0.002105
    31 0.024033 -1.129040 0.017807 -1.291468 -0.100239 0.187007
    32 0.014896 -0.883992 -0.019846 -1.038734 0.074161 0.017318
    33 -0.138841 -0.113067 0.013658 0.285538 -0.040593 1.576220
    34 0.583509 -1.197274 0.185379 -0.077873 -0.765978 -0.796238
    35 1.535926 0.010247 0.005009 -0.072801 0.036313 -1.031055
    36 1.100770 0.004528 -0.010675 0.000000 0.000000 -0.670693
    37 0.957766 -2.746777 -0.090301 0.182590 -0.051003 0.111154
    38 -0.033419 -1.397128 -0.011255 -0.842508 -0.018348 -0.065735
    39 -0.022361 -0.957433 0.018783 -0.642317 0.000000 0.000000
    40 0.250029 -2.820664 -0.238396 -0.282660 0.057277 -0.106688
    41 -0.049759 -1.680544 0.100479 -2.012794 0.000000 0.000000
    42 -0.034141 -1.148311 0.084779 -1.037503 0.000000 0.000000
    43 -0.488517 -2.755600 -0.228261 -0.195785 0.054586 -0.144146
    44 0.039889 -1.479791 0.029854 -2.042748 0.000000 0.000000
    45 0.028785 -1.075733 -0.023110 -0.841838 0.000000 0.000000
    46 -1.180679 -2.507216 -0.193861 0.008677 0.244088 -0.056758
    47 -0.024967 -1.123934 0.017595 -1.466594 0.000000 0.000000
    48 -0.020058 -0.890965 0.010091 -1.308778 0.000000 0.000000
    49 0.120180 -0.051600 -0.055246 0.287567 -3.172226 1.561008
  time 17
    0 -11.960718 0.864584 -7.922828 0.847156 1.867272 1.276235
    1 0.096946 -8.450420 -0.009364 0.353933 -0.227755 0.200888
    2 -0.192877 -2.997167 0.750521 0.973027 -1.502063 -0.975592
    3 0.000000 -1.808650 1.012937 0.000000 0.000000 0.000000
    4 0.000000 0.706666 0.002903 0.000000 0.000000 0.000000
    5 0.000000 2.290614 1.335354 0.000000 0.000000 0.000000
    6 -0.115835 -1.983282 1.652799 0.000000 0.000000 0.000000
    7 -0.194965 1.740244 -0.776688 0.000000 0.000000 0.000000
    8 0.000000 -0.273072 1.043217 0.000000 0.000000 0.000000
    9 11.470110 0.978882 -7.922828 0.777557 -1.819456 -1.208763
    10 -0.071918 -8.498731 -0.104137 0.352798 0.302533 -0.041828
    11 0.270583 -2.982786 0.320373 0.554706 1.379928 0.480518
    12 -0.000001 -1.808650 1.012938 0.000000 0.000000 0.000000
    13 -0.115835 -1.983282 1.652800 0.000000 0.000000 0.000000
    14 0.000000 2.290614 1.335354 0.000000 0.000000 0.000000
    15 0.000001 0.706665 0.002903 0.000000 0.000000 0.000000
    16 -0.194964 1.736338 -0.761062 0.000000 0.000000 0.000000
    17 0.000000 -0.273071 1.043216 0.000000 0.000000 0.000000
    18 -0.586769 -1.264477 0.200164 -0.224469 -0.772272 -2.217911
    19 1.522835 0.058680 0.016850 -0.042975 0.166884 0.909410
    20 1.117947 0.048424 -0.005765 -0.000024 0.000000 0.654951
    21 -0.963867 -2.785143 -0.085346 0.232894 0.199964 -0.171417
    22 0.028478 -1.403067 0.006272 -0.968281 -0.000007 -0.000010
    23 0.021412 -0.957782 0.020047 -0.296573 -0.000003 -0.000008
    24 -0.249534 -2.846963 -0.174215 -0.001196 0.000966 -0.025445
    25 0.043235 -1.683940 0.096015 -2.021659 -0.002971 -0.000336
    26 0.031729 -1.160830 0.058836 -1.017648 0.000000 0.000000
    27 0.447951 -2.798983 -0.200441 -0.016250 0.053282 0.116306
    28 -0.032909 -1.480207 0.004935 -1.783731 0.000000 0.000000
    29 -0.027023 -1.076921 -0.020212 -0.898892 0.000000 0.000000
    30 1.164474 -2.543939 -0.170327 0.050355 -0.000995 -0.002105
    31 0.024033 -1.129040 0.017807 -1.291468 -0.100239 0.187007
    32 0.014896 -0.883992 -0.019846 -1.038734 0.074161 0.017318
    33 -0.138841 -0.113067 0.013658 0.285538 -0.040593 1.576220
    34 0.583509 -1.197274 0.185379 -0.077873 -0.765978 -0.796238
    35 1.535926 0.010247 0.005009 -0.072801 0.036313 -1.031055
    36 1.100770 0.004528 -0.010675 0.000000 0.000000 -0.670693
    37 0.957766 -2.746777 -0.090301 0.182590 -0.051003 0.111154
    38 -0.033419 -1.397128 -0.011255 -0.842508 -0.018348 -0.065735
    39 -0.022361 -0.957433 0.018783 -0.642317 0.000000 0.000000
    40 0.250029 -2.820664 -0.238396 -0.282660 0.057277 -0.106688
    41 -0.049759 -1.680544 0.100479 -2.012794 0.000000 0.000000
    42 -0.034141 -1.148311 0.084779 -1.037503 0.000000 0.000000
    43 -0.488517 -2.755600 -0.228261 -0.195785 0.054586 -0.144146
    44 0.039889 -1.479791 0.029854 -2.042748 0.000000 0.000000
    45 0.028785 -1.075733 -0.023110 -0.841838 0.000000 0.000000
    46 -1.180679 -2.507216 -0.193861 0.008677 0.244088 -0.056758
    47 -0.024967 -1.123934 0.017595 -1.466594 0.000000 0.000000
    48 -0.020058 -0.890965 0.010091 -1.308778 0.000000 0.000000
    49 0.120180 -0.051600 -0.055246 0.287567 -3.172226 1.561008
  time 18
    0 -11.960718 0.848958 -7.922828 0.847156 1.867272 1.276235
    1 0.096946 -8.450420 -0.009364 0.356018 -0.222895 0.189359
    2 -0.192877 -2.997167 0.750521 0.973027 -1.502063 -0.975592
    3 0.000000 -1.808650 1.012937 0.000000 0.000000 0.000000
    4 0.000000 0.706666 0.002903 0.000000 0.000000 0.000000
    5 0.000000 2.290614 1.335354 0.000000 0.000000 0.000000
    6 -0.115835 -1.983282 1.652799 0.000000 0.000000 0.000000
    7 -0.194965 1.740244 -0.776688 0.000000 0.000000 0.000000
    8 0.000000 -0.273072 1.043217 0.000000 0.000000 0.000000
    9 11.470110 0.978882 -7.922828 0.777557 -1.819456 -1.208763
    10 -0.071918 -8.498731 -0.104137 0.352798 0.302533 -0.041828
    11 0.270583 -2.982786 0.320373 0.554706 1.379928 0.480518
    12 -0.000001 -1.808650 1.012938 0.000000 0.000000 0.000000
    13 -0.115835 -1.983282 1.652800 0.000000 0.000000 0.000000
    14 0.000000 2.290614 1.335354 0.000000 0.000000 0.000000
    15 0.000001 0.706665 0.002903 0.000000 0.000000 0.000000
    16 -0.194964 1.736338 -0.761062 0.000000 0.000000 0.000000
    17 0.000000 -0.273071 1.043216 0.000000 0.000000 0.000000
    18 -0.586769 -1.264477 0.200164 -0.224469 -0.772272 -2.217911
    19 1.522835 0.058680 0.016850 -0.042975 0.166884 0.909410
    20 1.117947 0.048424 -0.005765 -0.000024 0.000000 0.654951
    21 -0.963867 -2.785143 -0.085346 0.232868 0.199964 -0.171417
    22 0.028478 -1.403067 0.006272 -0.968517 -0.000007 -0.000010
    23 0.021412 -0.957782 0.020047 -0.295768 -0.000003 -0.000008
    24 -0.249534 -2.846963 -0.174215 -0.001196 0.000966 -0.025445
    25 0.043235 -1.683940 0.096015 -2.021659 -0.002971 -0.000336
    26 0.031729 -1.160830 0.058836 -1.017648 0.000000 0.000000
    27 0.447951 -2.798983 -0.200441 -0.016250 0.053282 0.116306
    28 -0.032909 -1.480207 0.004935 -1.783731 0.000000 0.000000
    29 -0.027023 -1.076921 -0.020212 -0.898892 0.000000 0.000000
    30 1.164474 -2.543939 -0.170327 0.050355 -0.000995 -0.002105
    31 0.024033 -1.129040 0.017807 -1.291468 -0.100239 0.187007
    32 0.014896 -0.883992 -0.019846 -1.038734 0.074161 0.017318
    33 -0.138841 -0.113067 0.013658 0.285538 -0.040593 1.576220
    34 0.583509 -1.197274 0.185379 -0.077873 -0.765978 -0.796238
    35 1.535926 0.010247 0.005009 -0.072801 0.036313 -1.031055
    36 1.100770 0.004528 -0.010675 0.000000 0.000000 -0.670693
    37 0.957766 -2.746777 -0.090301 0.182590 -0.051003 0.111154
    38 -0.033419 -1.397128 -0.011255 -0.842508 -0.018348 -0.065735
    39 -0.022361 -0.957433 0.018783 -0.642317 0.000000 0.000000
    40 0.250029 -2.820664 -0.238396 -0.282660 0.057277 -0.106688
    41 -0.049759 -1.680544 0.100479 -2.012794 0.000000 0.000000
    42 -0.034141 -1.148311 0.084779 -1.037503 0.000000 0.000000
    43 -0.488517 -2.755600 -0.228261 -0.195785 0.054586 -0.144146
    44 0.039889 -1.479791 0.029854 -2.042748 0.000000 0.000000
    45 0.028785 -1.075733 -0.023110 -0.841838 0.000000 0.000000
    46 -1.180679 -2.507216 -0.193861 0.008677 0.244088 -0.056758
    47 -0.024967 -1.123934 0.017595 -1.466594 0.000000 0.000000
    48 -0.020058 -0.890965 0.010091 -1.308778 0.000000 0.000000
    49 0.120180 -0.051600 -0.055246 0.287567 -3.172226 1.561008
  time 19
    0 -11.960718 0.841146 -7.922828 0.847156 1.867272 1.276235
    1 0.096946 -8.450420 -0.009364 0.357167 -0.220089 0.182804
    2 -0.192877 -2.997167 0.750521 0.973027 -1.502063 -0.975592
    3 0.000000 -1.808650 1.012937 0.000000 0.000000 0.000000
    4 0.000000 0.706666 0.002903 0.000000 0.000000 0.000000
    5 0.000000 2.290614 1.335354 0.000000 0.000000 0.000000
    6 -0.115835 -1.983282 1.652799 0.000000 0.000000 0.000000
    7 -0.194965 1.740244 -0.776688 0.000000 0.000000 0.000000
    8 0.000000 -0.273072 1.043217 0.000000 0.000000 0.000000
    9 11.470110 0.978882 -7.922828 0.777557 -1.819456 -1.208763
    10 -0.071918 -8.498731 -0.104137 0.352798 0.302533 -0.041828
    11 0.270583 -2.982786 0.320373 0.554706 1.379928 0.480518
    12 -0.000001 -1.808650 1.012938 0.000000 0.000000 0.000000
    13 -0.115835 -1.983282 1.652800 0.000000 0.000000 0.000000
    14 0.000000 2.290614 1.335354 0.000000 0.000000 0.000000
    15 0.000001 0.706665 0.002903 0.000000 0.000000 0.000000
    16 -0.194964 1.736338 -0.761062 0.000000 0.000000 0.000000
    17 0.000000 -0.273071 1.043216 0.000000 0.000000 0.000000
    18 -0.586769 -1.264477 0.200164 -0.224469 -0.772272 -2.217911
    19 1.522835 0.058680 0.016850 -0.042975 0.166884 0.909410
    20 1.117947 0.048424 -0.005765 -0.000024 0.000000 0.654951
    21 -0.963867 -2.785143 -0.085346 0.232789 0.199964 -0.171417
    22 0.028478 -1.403067 0.006272 -0.970092 -0.000007 -0.000010
    23 0.021412 -0.957782 0.020047 -0.296489 -0.000003 -0.000008
    24 -0.249534 -2.846963 -0.174215 -0.001196 0.000966 -0.025445
    25 0.043235 -1.683940 0.096015 -2.021659 -0.002971 -0.000336
    26 0.031729 -1.160830 0.058836 -1.017648 0.000000 0.000000
    27 0.447951 -2.798983 -0.200441 -0.016250 0.053282 0.116306
    28 -0.032909 -1.480207 0.004935 -1.783731 0.000000 0.000000
    29 -0.027023 -1.076921 -0.020212 -0.898892 0.000000 0.000000
    30 1.164474 -2.543939 -0.170327 0.050355 -0.000995 -0.002105
    31 0.024033 -1.129040 0.017807 -1.291468 -0.100239 0.187007
    32 0.014896 -0.883992 -0.019846 -1.038734 0.074161 0.017318
    33 -0.138841 -0.113067 0.013658 0.285538 -0.040593 1.576220
    34 0.583509 -1.197274 0.185379 -0.077873 -0.765978 -0.796238
    35 1.535926 0.010247 0.005009 -0.072801 0.036313 -1.031055
    36 1.100770 0.004528 -0.010675 0.000000 0.000000 -0.670693
    37 0.957766 -2.746777 -0.090301 0.182590 -0.051003 0.111154
    38 -0.033419 -1.397128 -0.011255 -0.842508 -0.018348 -0.065735
    39 -0.022361 -0.957433 0.018783 -0.642317 0.000000 0.000000
    40 0.250029 -2.820664 -0.238396 -0.282660 0.057277 -0.106688
    41 -0.049759 -1.680544 0.100479 -2.012794 0.000000 0.000000
    42 -0.034141 -1.148311 0.084779 -1.037503 0.000000 0.000000
    43 -0.488517 -2.755600 -0.228261 -0.195785 0.054586 -0.144146
    44 0.039889 -1.479791 0.029854 -2.042748 0.000000 0.000000
    45 0.028785 -1.075733 -0.023110 -0.841838 0.000000 0.000000
    46 -1.180679 -2.507216 -0.193861 0.008677 0.244088 -0.056758
    47 -0.024967 -1.123934 0.017595 -1.466594 0.000000 0.000000
    48 -0.020058 -0.890965 0.010091 -1.308778 0.000000 0.000000
    49 0.120180 -0.051600 -0.055246 0.287567 -3.172226 1.561008
  time 20
    0 -11.960718 0.833333 -7.926735 0.847156 1.867272 1.276235
    1 0.096946 -8.450420 -0.009364 0.357614 -0.219022 0.180311
    2 -0.192877 -2.997167 0.750521 0.973027 -1.502063 -0.975592
    3 0.000000 -1.808650 1.012937 0.000000 0.000000 0.000000
    4 0.000000 0.706666 0.002903 0.000000 0.000000 0.000000
    5 0.000000 2.290614 1.335354 0.000000 0.000000 0.000000
    6 -0.115835 -1.983282 1.652799 0.000000 0.000000 0.000000
    7 -0.194965 1.740244 -0.776688 0.000000 0.000000 0.000000
    8 0.000000 -0.273072 1.043217 0.000000 0.000000 0.000000
    9 11.470110 0.978882 -7.922828 0.777557 -1.819456 -1.208763
    10 -0.071918 -8.498731 -0.104137 0.352798 0.302533 -0.041828
    11 0.270583 -2.982786 0.320373 0.554706 1.379928 0.480518
    12 -0.000001 -1.808650 1.012938 0.000000 0.000000 0.000000
    13 -0.115835 -1.983282 1.652800 0.000000 0.000000 0.000000
    14 0.000000 2.290614 1.335354 0.000000 0.000000 0.000000
    15 0.000001 0.706665 0.002903 0.000000 0.000000 0.000000
    16 -0.194964 1.736338 -0.761062 0.000000 0.000000 0.000000
    17 0.000000 -0.273071 1.043216 0.000000 0.000000 0.000000
    18 -0.586769 -1.264477 0.200164 -0.224469 -0.772272 -2.217911
    19 1.522835 0.058680 0.016850 -0.042975 0.166884 0.909410
    20 1.117947 0.048424 -0.005765 -0.000024 0.000000 0.654951
    21 -0.963867 -2.785143 -0.085346 0.232658 0.199964 -0.171417
    22 0.028478 -1.403067 0.006272 -0.972769 -0.000007 -0.000010
    23 0.021412 -0.957782 0.020047 -0.298479 -0.000003 -0.000008
    24 -0.249534 -2.846963 -0.174215 -0.001196 0.000966 -0.025445
    25 0.043235 -1.683940 0.096015 -2.021659 -0.002971 -0.000336
    26 0.031729 -1.160830 0.058836 -1.017648 0.000000 0.000000
    27 0.447951 -2.798983 -0.200441 -0.016250 0.053282 0.116306
    28 -0.032909 -1.480207 0.004935 -1.783731 0.000000 0.000000
    29 -0.027023 -1.076921 -0.020212 -0.898892 0.000000 0.000000
    30 1.164474 -2.543939 -0.170327 0.050355 -0.000995 -0.002105
    31 0.024033 -1.129040 0.017807 -1.291468 -0.100239 0.187007
    32 0.014896 -0.883992 -0.019846 -1.038734 0.074161 0.017318
    33 -0.138841 -0.113067 0.013658 0.285538 -0.040593 1.576220
    34 0.583509 -1.197274 0.185379 -0.077873 -0.765978 -0.796238
    35 1.535926 0.010247 0.005009 -0.072801 0.036313 -1.031055
    36 1.100770 0.004528 -0.010675 0.000000 0.000000 -0.670693
    37 0.957766 -2.746777 -0.090301 0.182590 -0.051003 0.111154
    38 -0.033419 -1.397128 -0.011255 -0.842508 -0.018348 -0.065735
    39 -0.022361 -0.957433 0.018783 -0.642317 0.000000 0.000000
    40 0.250029 -2.820664 -0.238396 -0.282660 0.057277 -0.106688
    41 -0.049759 -1.680544 0.100479 -2.012794 0.000000 0.000000
    42 -0.034141 -1.148311 0.084779 -1.037503 0.000000 0.000000
    43 -0.488517 -2.755600 -0.228261 -0.195785 0.054586 -0.144146
    44 0.039889 -1.479791 0.029854 -2.042748 0.000000 0.000000
    45 0.028785 -1.075733 -0.023110 -0.841838 0.000000 0.000000
    46 -1.180679 -2.507216 -0.193861 0.008677 0.244088 -0.056758
    47 -0.024967 -1.123934 0.017595 -1.466594 0.000000 0.000000
    48 -0.020058 -0.890965 0.010091 -1.308778 0.000000 0.000000
    49 0.120180 -0.051600 -0.055246 0.287567 -3.172226 1.561008
  time 21
    0 -11.960718 0.833333 -7.926735 0.847156 1.867272 1.276235
    1 0.096946 -8.450420 -0.009364 0.357699 -0.218745 0.179795
    2 -0.192877 -2.997167 0.750521 0.973027 -1.502063 -0.975592
    3 0.000000 -1.808650 1.012937 0.000000 0.000000 0.000000
    4 0.000000 0.706666 0.002903 0.000000 0.000000 0.000000
    5 0.000000 2.290614 1.335354 0.000000 0.000000 0.000000
    6 -0.115835 -1.983282 1.652799 0.000000 0.000000 0.000000
    7 -0.194965 1.740244 -0.776688 0.000000 0.000000 0.000000
    8 0.000000 -0.273072 1.043217 0.000000 0.000000 0.000000
    9 11.470110 0.978882 -7.922828 0.777557 -1.819456 -1.208763
    10 -0.071918 -8.498731 -0.104137 0.352798 0.302533 -0.041828
    11 0.270583 -2.982786 0.320373 0.554706 1.379928 0.480518
    12 -0.000001 -1.808650 1.012938 0.000000 0.000000 0.000000
    13 -0.115835 -1.983282 1.652800 0.000000 0.000000 0.000000
    14 0.000000 2.290614 1.335354 0.000000 0.000000 0.000000
    15 0.000001 0.706665 0.002903 0.000000 0.000000 0.000000
    16 -0.194964 1.736338 -0.761062 0.000000 0.000000 0.000000
    17 0.000000 -0.273071 1.043216 0.000000 0.000000 0.000000
    18 -0.586769 -1.264477 0.200164 -0.224469 -0.772272 -2.217911
    19 1.522835 0.058680 0.016850 -0.042975 0.166884 0.909410
    20 1.117947 0.048424 -0.005765 -0.000024 0.000000 0.654951
    21 -0.963867 -2.785143 -0.085346 0.232501 0.199964 -0.171417
    22 0.028478 -1.403067 0.006272 -0.976339 -0.000007 -0.000010
    23 0.021412 -0.957782 0.020047 -0.301486 -0.000003 -0.000008
    24 -0.249534 -2.846963 -0.174215 -0.001196 0.000966 -0.025445
    25 0.043235 -1.683940 0.096015 -2.021659 -0.002971 -0.000336
    26 0.031729 -1.160830 0.058836 -1.017648 0.000000 0.000000
    27 0.447951 -2.798983 -0.200441 -0.016250 0.053282 0.116306
    28 -0.032909 -1.480207 0.004935 -1.783731 0.000000 0.000000
    29 -0.027023 -1.076921 -0.020212 -0.898892 0.000000 0.000000
    30 1.164474 -2.543939 -0.170327 0.050355 -0.000995 -0.002105
    31 0.024033 -1.129040 0.017807 -1.291468 -0.100239 0.187007
    32 0.014896 -0.883992 -0.019846 -1.038734 0.074161 0.017318
    33 -0.138841 -0.113067 0.013658 0.285538 -0.040593 1.576220
    34 0.583509 -1.197274 0.185379 -0.077873 -0.765978 -0.796238
    35 1.535926 0.010247 0.005009 -0.072801 0.036313 -1.031055
    36 1.100770 0.004528 -0.010675 0.000000 0.000000 -0.670693
    37 0.957766 -2.746777 -0.090301 0.182590 -0.051003 0.111154
    38 -0.033419 -1.397128 -0.011255 -0.842508 -0.018348 -0.065735
    39 -0.022361 -0.957433 0.018783 -0.642317 0.000000 0.000000
    40 0.250029 -2.820664 -0.238396 -0.282660 0.057277 -0.106688
    41 -0.049759 -1.680544 0.100479 -2.012794 0.000000 0.000000
    42 -0.034141 -1.148311 0.084779 -1.037503 0.000000 0.000000
    43 -0.488517 -2.755600 -0.228261 -0.195785 0.054586 -0.144146
    44 0.039889 -1.479791 0.029854 -2.042748 0.000000 0.000000
    45 0.028785 -1.075733 -0.023110 -0.841838 0.000000 0.000000
    46 -1.180679 -2.507216 -0.193861 0.008677 0.244088 -0.056758
    47 -0.024967 -1.123934 0.017595 -1.466594 0.000000 0.000000
    48 -0.020058 -0.890965 0.010091 -1.308778 0.000000 0.000000
    49 0.120180 -0.051600 -0.055246 0.287567 -3.172226 1.561008
  time 22
    0 -11.960718 0.833333 -7.926735 0.847156 1.867272 1.276235
    1 0.096946 -8.450420 -0.009364 0.357486 -0.219140 0.180946
    2 -0.192877 -2.997167 0.750521 0.973027 -1.502063 -0.975592
    3 0.000000 -1.808650 1.012937 0.000000 0.000000 0.000000
    4 0.000000 0.706666 0.002903 0.000000 0.000000 0.000000
    5 0.000000 2.290614 1.335354 0.000000 0.000000 0.000000
    6 -0.115835 -1.983282 1.652799 0.000000 0.000000 0.000000
    7 -0.194965 1.740244 -0.776688 0.000000 0.000000 0.000000
    8 0.000000 -0.273072 1.043217 0.000000 0.000000 0.000000
    9 11.470110 0.978882 -7.922828 0.777557 -1.819456 -1.208763
    10 -0.071918 -8.498731 -0.104137 0.352798 0.302533 -0.041828
    11 0.270583 -2.982786 0.320373 0.554706 1.379928 0.480518
    12 -0.000001 -1.808650 1.012938 0.000000 0.000000 0.000000
    13 -0.115835 -1.983282 1.652800 0.000000 0.000000 0.000000
    14 0.000000 2.290614 1.335354 0.000000 0.000000 0.000000
    15 0.000001 0.706665 0.002903 0.000000 0.000000 0.000000
    16 -0.194964 1.736338 -0.761062 0.000000 0.000000 0.000000
    17 0.000000 -0.273071 1.043216 0.000000 0.000000 0.000000
    18 -0.586769 -1.264477 0.200164 -0.224469 -0.772272 -2.217911
    19 1.522835 0.058680 0.016850 -0.042975 0.166884 0.909410
    20 1.117947 0.048424 -0.005765 -0.000024 0.000000 0.654951
    21 -0.963867 -2.785143 -0.085346 0.232291 0.199964 -0.171417
    22 0.028478 -1.403067 0.006272 -0.980513 -0.000007 -0.000010
    23 0.021412 -0.957782 0.020047 -0.305242 -0.000003 -0.000008
    24 -0.249534 -2.846963 -0.174215 -0.001196 0.000966 -0.025445
    25 0.043235 -1.683940 0.096015 -2.021659 -0.002971 -0.000336
    26 0.031729 -1.160830 0.058836 -1.017648 0.000000 0.000000
    27 0.447951 -2.798983 -0.200441 -0.016250 0.053282 0.116306
    28 -0.032909 -1.480207 0.004935 -1.783731 0.000000 0.000000
    29 -0.027023 -1.076921 -0.020212 -0.898892 0.000000 0.000000
    30 1.164474 -2.543939 -0.170327 0.050355 -0.000995 -0.002105
    31 0.024033 -1.129040 0.017807 -1.291468 -0.100239 0.187007
    32 0.014896 -0.883992 -0.019846 -1.038734 0.074161 0.017318
    33 -0.138841 -0.113067 0.013658 0.285538 -0.040593 1.576220
    34 0.583509 -1.197274 0.185379 -0.077873 -0.765978 -0.796238
    35 1.535926 0.010247 0.005009 -0.072801 0.036313 -1.031055
    36 1.100770 0.004528 -0.010675 0.000000 0.000000 -0.670693
    37 0.957766 -2.746777 -0.090301 0.182590 -0.051003 0.111154
    38 -0.033419 -1.397128 -0.011255 -0.842508 -0.018348 -0.065735
    39 -0.022361 -0.957433 0.018783 -0.642317 0.000000 0.000000
    40 0.250029 -2.820664 -0.238396 -0.282660 0.057277 -0.106688
    41 -0.049759 -1.680544 0.100479 -2.012794 0.000000 0.000000
    42 -0.034141 -1.148311 0.084779 -1.037503 0.000000 0.000000
    43 -0.488517 -2.755600 -0.228261 -0.195785 0.054586 -0.144146
    44 0.039889 -1.479791 0.029854 -2.042748 0.000000 0.000000
    45 0.028785 -1.075733 -0.023110 -0.841838 0.000000 0.000000
    46 -1.180679 -2.507216 -0.193861 0.008677 0.244088 -0.056758
    47 -0.024967 -1.123934 0.017595 -1.466594 0.000000 0.000000
    48 -0.020058 -0.890965 0.010091 -1.308778 0.000000 0.000000
    49 0.120180 -0.051600 -0.055246 0.287567 -3.172226 1.561008
  time 23
    0 -11.960718 0.833333 -7.926735 0.847156 1.867272 1.276235
    1 0.096946 -8.450420 -0.009364 0.357040 -0.220128 0.183463
    2 -0.192877 -2.997167 0.750521 0.973027 -1.502063 -0.975592
    3 0.000000 -1.808650 1.012937 0.000000 0.000000 0.000000
    4 0.000000 0.706666 0.002903 0.000000 0.000000 0.000000
    5 0.000000 2.290614 1.335354 0.000000 0.000000 0.000000
    6 -0.115835 -1.983282 1.652799 0.000000 0.000000 0.000000
    7 -0.194965 1.740244 -0.776688 0.000000 0.000000 0.000000
    8 0.000000 -0.273072 1.043217 0.000000 0.000000 0.000000
    9 11.470110 0.978882 -7.922828 0.777557 -1.819456 -1.208763
    10 -0.071918 -8.498731 -0.104137 0.352798 0.302533 -0.041828
    11 0.270583 -2.982786 0.320373 0.554706 1.379928 0.480518
    12 -0.000001 -1.808650 1.012938 0.000000 0.000000 0.000000
    13 -0.115835 -1.983282 1.652800 0.000000 0.000000 0.000000
    14 0.000000 2.290614 1.335354 0.000000 0.000000 0.000000
    15 0.000001 0.706665 0.002903 0.000000 0.000000 0.000000
    16 -0.194964 1.736338 -0.761062 0.000000 0.000000 0.000000
    17 0.000000 -0.273071 1.043216 0.000000 0.000000 0.000000
    18 -0.586769 -1.264477 0.200164 -0.224469 -0.772272 -2.217911
    19 1.522835 0.058680 0.016850 -0.042975 0.166884 0.909410
    20 1.117947 0.048424 -0.005765 -0.000024 0.000000 0.654951
    21 -0.963867 -2.785143 -0.085346 0.232055 0.199964 -0.171417
    22 0.028478 -1.403067 0.006272 -0.985080 -0.000007 -0.000010
    23 0.021412 -0.957782 0.020047 -0.309520 -0.000003 -0.000008
    24 -0.249534 -2.846963 -0.174215 -0.001196 0.000966 -0.025445
    25 0.043235 -1.683940 0.096015 -2.021659 -0.002971 -0.000336
    26 0.031729 -1.160830 0.058836 -1.017648 0.000000 0.000000
    27 0.447951 -2.798983 -0.200441 -0.016250 0.053282 0.116306
    28 -0.032909 -1.480207 0.004935 -1.783731 0.000000 0.000000
    29 -0.027023 -1.076921 -0.020212 -0.898892 0.000000 0.000000
    30 1.164474 -2.543939 -0.170327 0.050355 -0.000995 -0.002105
    31 0.024033 -1.129040 0.017807 -1.291468 -0.100239 0.187007
    32 0.014896 -0.883992 -0.019846 -1.038734 0.074161 0.017318
    33 -0.138841 -0.113067 0.013658 0.285538 -0.040593 1.576220
    34 0.583509 -1.197274 0.185379 -0.077873 -0.765978 -0.796238
    35 1.535926 0.010247 0.005009 -0.072801 0.036313 -1.031055
    36 1.100770 0.004528 -0.010675 0.000000 0.000000 -0.670693
    37 0.957766 -2.746777 -0.090301 0.182590 -0.051003 0.111154
    38 -0.033419 -1.397128 -0.011255 -0.842508 -0.018348 -0.065735
    39 -0.022361 -0.957433 0.018783 -0.642317 0.000000 0.000000
    40 0.250029 -2.820664 -0.238396 -0.282660 0.057277 -0.106688
    41 -0.049759 -1.680544 0.100479 -2.012794 0.000000 0.000000
    42 -0.034141 -1.148311 0.084779 -1.037503 0.000000 0.000000
    43 -0.488517 -2.755600 -0.228261 -0.195785 0.054586 -0.144146
    44 0.039889 -1.479791 0.029854 -2.042748 0.000000 0.000000
    45 0.028785 -1.075733 -0.023110 -0.841838 0.000000 0.000000
    46 -1.180679 -2.507216 -0.193861 0.008677 0.244088 -0.056758
    47 -0.024967 -1.123934 0.017595 -1.466594 0.000000 0.000000
    48 -0.020058 -0.890965 0.010091 -1.308778 0.000000 0.000000
    49 0.120180 -0.051600 -0.055246 0.287567 -3.172226 1.561008
  time 24
    0 -11.960718 0.841146 -7.922828 0.847156 1.867272 1.276235
    1 0.096946 -8.450420 -0.009364 0.356401 -0.221512 0.187022
    2 -0.192877 -2.997167 0.750521 0.973027 -1.502063 -0.975592
    3 0.000000 -1.808650 1.012937 0.000000 0.000000 0.000000
    4 0.000000 0.706666 0.002903 0.000000 0.000000 0.000000
    5 0.000000 2.290614 1.335354 0.000000 0.000000 0.000000
    6 -0.115835 -1.983282 1.652799 0.000000 0.000000 0.000000
    7 -0.194965 1.740244 -0.776688 0.000000 0.000000 0.000000
    8 0.000000 -0.273072 1.043217 0.000000 0.000000 0.000000
    9 11.470110 0.978882 -7.922828 0.777557 -1.819456 -1.208763
    10 -0.071918 -8.498731 -0.104137 0.352798 0.302533 -0.041828
    11 0.270583 -2.982786 0.320373 0.554706 1.379928 0.480518
    12 -0.000001 -1.808650 1.012938 0.000000 0.000000 0.000000
    13 -0.115835 -1.983282 1.652800 0.000000 0.000000 0.000000
    14 0.000000 2.290614 1.335354 0.000000 0.000000 0.000000
    15 0.000001 0.706665 0.002903 0.000000 0.000000 0.000000
    16 -0.194964 1.736338 -0.761062 0.000000 0.000000 0.000000
    17 0.000000 -0.273071 1.043216 0.000000 0.000000 0.000000
    18 -0.586769 -1.264477 0.200164 -0.224469 -0.772272 -2.217911
    19 1.522835 0.058680 0.016850 -0.042975 0.166884 0.909410
    20 1.117947 0.048424 -0.005765 -0.000024 0.000000 0.654951
    21 -0.963867 -2.785143 -0.085346 0.231819 0.199964 -0.171417
    22 0.028478 -1.403067 0.006272 -0.989805 -0.000007 -0.000010
    23 0.021412 -0.957782 0.020047 -0.314038 -0.000003 -0.000008
    24 -0.249534 -2.846963 -0.174215 -0.001196 0.000966 -0.025445
    25 0.043235 -1.683940 0.096015 -2.021659 -0.002971 -0.000336
    26 0.031729 -1.160830 0.058836 -1.017648 0.000000 0.000000
    27 0.447951 -2.798983 -0.200441 -0.016250 0.053282 0.116306
    28 -0.032909 -1.480207 0.004935 -1.783731 0.000000 0.000000
    29 -0.027023 -1.076921 -0.020212 -0.898892 0.000000 0.000000
    30 1.164474 -2.543939 -0.170327 0.050355 -0.000995 -0.002105
    31 0.024033 -1.129040 0.017807 -1.291468 -0.100239 0.187007
    32 0.014896 -0.883992 -0.019846 -1.038734 0.074161 0.017318
    33 -0.138841 -0.113067 0.013658 0.285538 -0.040593 1.576220
    34 0.583509 -1.197274 0.185379 -0.077873 -0.765978 -0.796238
    35 1.535926 0.010247 0.005009 -0.072801 0.036313 -1.031055
    36 1.100770 0.004528 -0.010675 0.000000 0.000000 -0.670693
    37 0.957766 -2.746777 -0.090301 0.182590 -0.051003 0.111154
    38 -0.033419 -1.397128 -0.011255 -0.842508 -0.018348 -0.065735
    39 -0.022361 -0.957433 0.018783 -0.642317 0.000000 0.000000
    40 0.250029 -2.820664 -0.238396 -0.282660 0.057277 -0.106688
    41 -0.049759 -1.680544 0.100479 -2.012794 0.000000 0.000000
    42 -0.034141 -1.148311 0.084779 -1.037503 0.000000 0.000000
    43 -0.488517 -2.755600 -0.228261 -0.195785 0.054586 -0.144146
    44 0.039889 -1.479791 0.029854 -2.042748 0.000000 0.000000
    45 0.028785 -1.075733 -0.023110 -0.841838 0.000000 0.000000
    46 -1.180679 -2.507216 -0.193861 0.008677 0.244088 -0.056758
    47 -0.024967 -1.123934 0.017595 -1.466594 0.000000 0.000000
    48 -0.020058 -0.890965 0.010091 -1.308778 0.000000 0.000000
    49 0.120180 -0.051600 -0.055246 0.287567 -3.172226 1.561008
  time 25
    0 -11.960718 0.845052 -7.922828 0.847156 1.867272 1.276235
    1 0.096946 -8.450420 -0.009364 0.355635 -0.223211 0.191313
    2 -0.192877 -2.997167 0.750521 0.973027 -1.502063 -0.975592
    3 0.000000 -1.808650 1.012937 0.000000 0.000000 0.000000
    4 0.000000 0.706666 0.002903 0.000000 0.000000 0.000000
    5 0.000000 2.290614 1.335354 0.000000 0.000000 0.000000
    6 -0.115835 -1.983282 1.652799 0.000000 0.000000 0.000000
    7 -0.194965 1.740244 -0.776688 0.000000 0.000000 0.000000
    8 0.000000 -0.273072 1.043217 0.000000 0.000000 0.000000
    9 11.470110 0.978882 -7.922828 0.777557 -1.819456 -1.208763
    10 -0.071918 -8.498731 -0.104137 0.352798 0.302533 -0.041828
    11 0.270583 -2.982786 0.320373 0.554706 1.379928 0.480518
    12 -0.000001 -1.808650 1.012938 0.000000 0.000000 0.000000
    13 -0.115835 -1.983282 1.652800 0.000000 0.000000 0.000000
    14 0.000000 2.290614 1.335354 0.000000 0.000000 0.000000
    15 0.000001 0.706665 0.002903 0.000000 0.000000 0.000000
    16 -0.194964 1.736338 -0.761062 0.000000 0.000000 0.000000
    17 0.000000 -0.273071 1.043216 0.000000 0.000000 0.000000
    18 -0.586769 -1.264477 0.200164 -0.224469 -0.772272 -2.217911
    19 1.522835 0.058680 0.016850 -0.042975 0.166884 0.909410
    20 1.117947 0.048424 -0.005765 -0.000024 0.000000 0.654951
    21 -0.963867 -2.785143 -0.085346 0.231610 0.199964 -0.171417
    22 0.028478 -1.403067 0.006272 -0.994451 -0.000007 -0.000010
    23 0.021412 -0.957782 0.020047 -0.318570 -0.000003 -0.000008
    24 -0.249534 -2.846963 -0.174215 -0.001196 0.000966 -0.025445
    25 0.043235 -1.683940 0.096015 -2.021659 -0.002971 -0.000336
    26 0.031729 -1.160830 0.058836 -1.017648 0.000000 0.000000
    27 0.447951 -2.798983 -0.200441 -0.016250 0.053282 0.116306
    28 -0.032909 -1.480207 0.004935 -1.783731 0.000000 0.000000
    29 -0.027023 -1.076921 -0.020212 -0.898892 0.000000 0.000000
    30 1.164474 -2.543939 -0.170327 0.050355 -0.000995 -0.002105
    31 0.024033 -1.129040 0.017807 -1.291468 -0.100239 0.187007
    32 0.014896 -0.883992 -0.019846 -1.038734 0.074161 0.017318
    33 -0.138841 -0.113067 0.013658 0.285538 -0.040593 1.576220
    34 0.583509 -1.197274 0.185379 -0.077873 -0.765978 -0.796238
    35 1.535926 0.010247 0.005009 -0.072801 0.036313 -1.031055
    36 1.100770 0.004528 -0.010675 0.000000 0.000000 -0.670693
    37 0.957766 -2.746777 -0.090301 0.182590 -0.051003 0.111154
    38 -0.033419 -1.397128 -0.011255 -0.842508 -0.018348 -0.065735
    39 -0.022361 -0.957433 0.018783 -0.642317 0.000000 0.000000
    40 0.250029 -2.820664 -0.238396 -0.282660 0.057277 -0.106688
    41 -0.049759 -1.680544 0.100479 -2.012794 0.000000 0.000000
    42 -0.034141 -1.148311 0.084779 -1.037503 0.000000 0.000000
    43 -0.488517 -2.755600 -0.228261 -0.195785 0.054586 -0.144146
    44 0.039889 -1.479791 0.029854 -2.042748 0.000000 0.000000
    45 0.028785 -1.075733 -0.023110 -0.841838 0.000000 0.000000
    46 -1.180679 -2.507216 -0.193861 0.008677 0.244088 -0.056758
    47 -0.024967 -1.123934 0.017595 -1.466594 0.000000 0.000000
    48 -0.020058 -0.890965 0.010091 -1.308778 0.000000 0.000000
    49 0.120180 -0.051600 -0.055246 0.287567 -3.172226 1.561008
  time 26
    0 -11.960718 0.848958 -7.922828 0.847156 1.867272 1.276235
    1 0.096946 -8.450420 -0.009364 0.354784 -0.225068 0.196023
    2 -0.192877 -2.997167 0.750521 0.973027 -1.502063 -0.975592
    3 0.000000 -1.808650 1.012937 0.000000 0.000000 0.000000
    4 0.000000 0.706666 0.002903 0.000000 0.000000 0.000000
    5 0.000000 2.290614 1.335354 0.000000 0.000000 0.000000
    6 -0.115835 -1.983282 1.652799 0.000000 0.000000 0.000000
    7 -0.194965 1.740244 -0.776688 0.000000 0.000000 0.000000
    8 0.000000 -0.273072 1.043217 0.000000 0.000000 0.000000
    9 11.470110 0.978882 -7.922828 0.777557 -1.819456 -1.208763
    10 -0.071918 -8.498731 -0.104137 0.352798 0.302533 -0.041828
    11 0.270583 -2.982786 0.320373 0.554706 1.379928 0.480518
    12 -0.000001 -1.808650 1.012938 0.000000 0.000000 0.000000
    13 -0.115835 -1.983282 1.652800 0.000000 0.000000 0.000000
    14 0.000000 2.290614 1.335354 0.000000 0.000000 0.000000
    15 0.000001 0.706665 0.002903 0.000000 0.000000 0.000000
    16 -0.194964 1.736338 -0.761062 0.000000 0.000000 0.000000
    17 0.000000 -0.273071 1.043216 0.000000 0.000000 0.000000
    18 -0.586769 -1.264477 0.200164 -0.224469 -0.772272 -2.217911
    19 1.522835 0.058680 0.016850 -0.042975 0.166884 0.909410
    20 1.117947 0.048424 -0.005765 -0.000024 0.000000 0.654951
    21 -0.963867 -2.785143 -0.085346 0.231400 0.199964 -0.171417
    22 0.028478 -1.403067 0.006272 -0.998809 -0.000007 -0.000010
    23 0.021412 -0.957782 0.020047 -0.322833 -0.000003 -0.000008
    24 -0.249534 -2.846963 -0.174215 -0.001196 0.000966 -0.025445
    25 0.043235 -1.683940 0.096015 -2.021659 -0.002971 -0.000336
    26 0.031729 -1.160830 0.058836 -1.017648 0.000000 0.000000
    27 0.447951 -2.798983 -0.200441 -0.016250 0.053282 0.116306
    28 -0.032909 -1.480207 0.004935 -1.783731 0.000000 0.000000
    29 -0.027023 -1.076921 -0.020212 -0.898892 0.000000 0.000000
    30 1.164474 -2.543939 -0.170327 0.050355 -0.000995 -0.002105
    31 0.024033 -1.129040 0.017807 -1.291468 -0.100239 0.187007
    32 0.014896 -0.883992 -0.019846 -1.038734 0.074161 0.017318
    33 -0.138841 -0.113067 0.013658 0.285538 -0.040593 1.576220
    34 0.583509 -1.197274 0.185379 -0.077873 -0.765978 -0.796238
    35 1.535926 0.010247 0.005009 -0.072801 0.036313 -1.031055
    36 1.100770 0.004528 -0.010675 0.000000 0.000000 -0.670693
    37 0.957766 -2.746777 -0.090301 0.182590 -0.051003 0.111154
    38 -0.033419 -1.397128 -0.011255 -0.842508 -0.018348 -0.065735
    39 -0.022361 -0.957433 0.018783 -0.642317 0.000000 0.000000
    40 0.250029 -2.820664 -0.238396 -0.282660 0.057277 -0.106688
    41 -0.049759 -1.680544 0.100479 -2.012794 0.000000 0.000000
    42 -0.034141 -1.148311 0.084779 -1.037503 0.000000 0.000000
    43 -0.488517 -2.755600 -0.228261 -0.195785 0.054586 -0.144146
    44 0.039889 -1.479791 0.029854 -2.042748 0.000000 0.000000
    45 0.028785 -1.075733 -0.023110 -0.841838 0.000000 0.000000
    46 -1.180679 -2.507216 -0.193861 0.008677 0.244088 -0.056758
    47 -0.024967 -1.123934 0.017595 -1.466594 0.000000 0.000000
    48 -0.020058 -0.890965 0.010091 -1.308778 0.000000 0.000000
    49 0.120180 -0.051600 -0.055246 0.287567 -3.172226 1.561008
  time 27
    0 -11.960718 0.856771 -7.922828 0.847156 1.867272 1.276235
    1 0.096946 -8.450420 -0.009364 0.353891 -0.226965 0.200852
    2 -0.192877 -2.997167 0.750521 0.973027 -1.502063 -0.975592
    3 0.000000 -1.808650 1.012937 0.000000 0.000000 0.000000
    4 0.000000 0.706666 0.002903 0.000000 0.000000 0.000000
    5 0.000000 2.290614 1.335354 0.000000 0.000000 0.000000
    6 -0.115835 -1.983282 1.652799 0.000000 0.000000 0.000000
    7 -0.194965 1.740244 -0.776688 0.000000 0.000000 0.000000
    8 0.000000 -0.273072 1.043217 0.000000 0.000000 0.000000
    9 11.470110 0.978882 -7.922828 0.777557 -1.819456 -1.208763
    10 -0.071918 -8.498731 -0.104137 0.352798 0.302533 -0.041828
    11 0.270583 -2.982786 0.320373 0.554706 1.379928 0.480518
    12 -0.000001 -1.808650 1.012938 0.000000 0.000000 0.000000
    13 -0.115835 -1.983282 1.652800 0.000000 0.000000 0.000000
    14 0.000000 2.290614 1.335354 0.000000 0.000000 0.000000
    15 0.000001 0.706665 0.002903 0.000000 0.000000 0.000000
    16 -0.194964 1.736338 -0.761062 0.000000 0.000000 0.000000
    17 0.000000 -0.273071 1.043216 0.000000 0.000000 0.000000
    18 -0.586769 -1.264477 0.200164 -0.224469 -0.772272 -2.217911
    19 1.522835 0.058680 0.016850 -0.042975 0.166884 0.909410
    20 1.117947 0.048424 -0.005765 -0.000024 0.000000 0.654951
    21 -0.963867 -2.785143 -0.085346 0.231216 0.199964 -0.171417
    22 0.028478 -1.403067 0.006272 -1.002589 -0.000007 -0.000010
    23 0.021412 -0.957782 0.020047 -0.326603 -0.000003 -0.000008
    24 -0.249534 -2.846963 -0.174215 -0.001196 0.000966 -0.025445
    25 0.043235 -1.683940 0.096015 -2.021659 -0.002971 -0.000336
    26 0.031729 -1.160830 0.058836 -1.017648 0.000000 0.000000
    27 0.447951 -2.798983 -0.200441 -0.016250 0.053282 0.116306
    28 -0.032909 -1.480207 0.004935 -1.783731 0.000000 0.000000
    29 -0.027023 -1.076921 -0.020212 -0.898892 0.000000 0.000000
    30 1.164474 -2.543939 -0.170327 0.050355 -0.000995 -0.002105
    31 0.024033 -1.129040 0.017807 -1.291468 -0.100239 0.187007
    32 0.014896 -0.883992 -0.019846 -1.038734 0.074161 0.017318
    33 -0.138841 -0.113067 0.013658 0.285538 -0.040593 1.576220
    34 0.583509 -1.197274 0.185379 -0.077873 -0.765978 -0.796238
    35 1.535926 0.010247 0.005009 -0.072801 0.036313 -1.031055
    36 1.100770 0.004528 -0.010675 0.000000 0.000000 -0.670693
    37 0.957766 -2.746777 -0.090301 0.182590 -0.051003 0.111154
    38 -0.033419 -1.397128 -0.011255 -0.842508 -0.018348 -0.065735
    39 -0.022361 -0.957433 0.018783 -0.642317 0.000000 0.000000
    40 0.250029 -2.820664 -0.238396 -0.282660 0.057277 -0.106688
    41 -0.049759 -1.680544 0.100479 -2.012794 0.000000 0.000000
    42 -0.034141 -1.148311 0.084779 -1.037503 0.000000 0.000000
    43 -0.488517 -2.755600 -0.228261 -0.195785 0.054586 -0.144146
    44 0.039889 -1.479791 0.029854 -2.042748 0.000000 0.000000
    45 0.028785 -1.075733 -0.023110 -0.841838 0.000000 0.000000
    46 -1.180679 -2.507216 -0.193861 0.008677 0.244088 -0.056758
    47 -0.024967 -1.123934 0.017595 -1.466594 0.000000 0.000000
    48 -0.020058 -0.890965 0.010091 -1.308778 0.000000 0.000000
    49 0.120180 -0.051600 -0.055246 0.287567 -3.172226 1.561008
  time 28
    0 -11.960718 0.860677 -7.922828 0.847156 1.867272 1.276235
    1 0.096946 -8.450420 -0.009364 0.353040 -0.228783 0.205466
    2 -0.192877 -2.997167 0.750521 0.973027 -1.502063 -0.975592
    3 0.000000 -1.808650 1.012937 0.000000 0.000000 0.000000
    4 0.000000 0.706666 0.002903 0.000000 0.000000 0.000000
    5 0.000000 2.290614 1.335354 0.000000 0.000000 0.000000
    6 -0.115835 -1.983282 1.652799 0.000000 0.000000 0.000000
    7 -0.194965 1.740244 -0.776688 0.000000 0.000000 0.000000
    8 0.000000 -0.273072 1.043217 0.000000 0.000000 0.000000
    9 11.470110 0.978882 -7.922828 0.777557 -1.819456 -1.208763
    10 -0.071918 -8.498731 -0.104137 0.352798 0.302533 -0.041828
    11 0.270583 -2.982786 0.320373 0.554706 1.379928 0.480518
    12 -0.000001 -1.808650 1.012938 0.000000 0.000000 0.000000
    13 -0.115835 -1.983282 1.652800 0.000000 0.000000 0.000000
    14 0.000000 2.290614 1.335354 0.000000 0.000000 0.000000
    15 0.000001 0.706665 0.002903 0.000000 0.000000 0.000000
    16 -0.194964 1.736338 -0.761062 0.000000 0.000000 0.000000
    17 0.000000 -0.273071 1.043216 0.000000 0.000000 0.000000
    18 -0.586769 -1.264477 0.200164 -0.224469 -0.772272 -2.217911
    19 1.522835 0.058680 0.016850 -0.042975 0.166884 0.909410
    20 1.117947 0.048424 -0.005765 -0.000024 0.000000 0.654951
    21 -0.963867 -2.785143 -0.085346 0.231059 0.199964 -0.171417
    22 0.028478 -1.403067 0.006272 -1.005581 -0.000007 -0.000010
    23 0.021412 -0.957782 0.020047 -0.329596 -0.000003 -0.000008
    24 -0.249534 -2.846963 -0.174215 -0.001196 0.000966 -0.025445
    25 0.043235 -1.683940 0.096015 -2.021659 -0.002971 -0.000336
    26 0.031729 -1.160830 0.058836 -1.017648 0.000000 0.000000
    27 0.447951 -2.798983 -0.200441 -0.016250 0.053282 0.116306
    28 -0.032909 -1.480207 0.004935 -1.783731 0.000000 0.000000
    29 -0.027023 -1.076921 -0.020212 -0.898892 0.000000 0.000000
    30 1.164474 -2.543939 -0.170327 0.050355 -0.000995 -0.002105
    31 0.024033 -1.129040 0.017807 -1.291468 -0.100239 0.187007
    32 0.014896 -0.883992 -0.019846 -1.038734 0.074161 0.017318
    33 -0.138841 -0.113067 0.013658 0.285538 -0.040593 1.576220
    34 0.583509 -1.197274 0.185379 -0.077873 -0.765978 -0.796238
    35 1.535926 0.010247 0.005009 -0.072801 0.036313 -1.031055
    36 1.100770 0.004528 -0.010675 0.000000 0.000000 -0.670693
    37 0.957766 -2.746777 -0.090301 0.182590 -0.051003 0.111154
    38 -0.033419 -1.397128 -0.011255 -0.842508 -0.018348 -0.065735
    39 -0.022361 -0.957433 0.018783 -0.642317 0.000000 0.000000
    40 0.250029 -2.820664 -0.238396 -0.282660 0.057277 -0.106688
    41 -0.049759 -1.680544 0.100479 -2.012794 0.000000 0.000000
    42 -0.034141 -1.148311 0.084779 -1.037503 0.000000 0.000000
    43 -0.488517 -2.755600 -0.228261 -0.195785 0.054586 -0.144146
    44 0.039889 -1.479791 0.029854 -2.042748 0.000000 0.000000
    45 0.028785 -1.075733 -0.023110 -0.841838 0.000000 0.000000
    46 -1.180679 -2.507216 -0.193861 0.008677 0.244088 -0.056758
    47 -0.024967 -1.123934 0.017595 -1.466594 0.000000 0.000000
    48 -0.020058 -0.890965 0.010091 -1.308778 0.000000 0.000000
    49 0.120180 -0.051600 -0.055246 0.287567 -3.172226 1.561008
  time 29
    0 -11.960718 0.864584 -7.922828 0.847156 1.867272 1.276235
    1 0.096946 -8.450420 -0.009364 0.352295 -0.230403 0.209553
    2 -0.192877 -2.997167 0.750521 0.973027 -1.502063 -0.975592
    3 0.000000 -1.808650 1.012937 0.000000 0.000000 0.000000
    4 0.000000 0.706666 0.002903 0.000000 0.000000 0.000000
    5 0.000000 2.290614 1.335354 0.000000 0.000000 0.000000
    6 -0.115835 -1.983282 1.652799 0.000000 0.000000 0.000000
    7 -0.194965 1.740244 -0.776688 0.000000 0.000000 0.000000
    8 0.000000 -0.273072 1.043217 0.000000 0.000000 0.000000
    9 11.470110 0.978882 -7.922828 0.777557 -1.819456 -1.208763
    10 -0.071918 -8.498731 -0.104137 0.352798 0.302533 -0.041828
    11 0.270583 -2.982786 0.320373 0.554706 1.379928 0.480518
    12 -0.000001 -1.808650 1.012938 0.000000 0.000000 0.000000
    13 -0.115835 -1.983282 1.652800 0.000000 0.000000 0.000000
    14 0.000000 2.290614 1.335354 0.000000 0.000000 0.000000
    15 0.000001 0.706665 0.002903 0.000000 0.000000 0.000000
    16 -0.194964 1.736338 -0.761062 0.000000 0.000000 0.000000
    17 0.000000 -0.273071 1.043216 0.000000 0.000000 0.000000
    18 -0.586769 -1.264477 0.200164 -0.224469 -0.772272 -2.217911
    19 1.522835 0.058680 0.016850 -0.042975 0.166884 0.909410
    20 1.117947 0.048424 -0.005765 -0.000024 0.000000 0.654951
    21 -0.963867 -2.785143 -0.085346 0.230954 0.199964 -0.171417
    22 0.028478 -1.403067 0.006272 -1.007550 -0.000007 -0.000010
    23 0.021412 -0.957782 0.020047 -0.331587 -0.000003 -0.000008
    24 -0.249534 -2.846963 -0.174215 -0.001196 0.000966 -0.025445
    25 0.043235 -1.683940 0.096015 -2.021659 -0.002971 -0.000336
    26 0.031729 -1.160830 0.058836 -1.017648 0.000000 0.000000
    27 0.447951 -2.798983 -0.200441 -0.016250 0.053282 0.116306
    28 -0.032909 -1.480207 0.004935 -1.783731 0.000000 0.000000
    29 -0.027023 -1.076921 -0.020212 -0.898892 0.000000 0.000000
    30 1.164474 -2.543939 -0.170327 0.050355 -0.000995 -0.002105
    31 0.024033 -1.129040 0.017807 -1.291468 -0.100239 0.187007
    32 0.014896 -0.883992 -0.019846 -1.038734 0.074161 0.017318
    33 -0.138841 -0.113067 0.013658 0.285538 -0.040593 1.576220
    34 0.583509 -1.197274 0.185379 -0.077873 -0.765978 -0.796238
    35 1.535926 0.010247 0.005009 -0.072801 0.036313 -1.031055
    36 1.100770 0.004528 -0.010675 0.000000 0.000000 -0.670693
    37 0.957766 -2.746777 -0.090301 0.182590 -0.051003 0.111154
    38 -0.033419 -1.397128 -0.011255 -0.842508 -0.018348 -0.065735
    39 -0.022361 -0.957433 0.018783 -0.642317 0.000000 0.000000
    40 0.250029 -2.820664 -0.238396 -0.282660 0.057277 -0.106688
    41 -0.049759 -1.680544 0.100479 -2.012794 0.000000 0.000000
    42 -0.034141 -1.148311 0.084779 -1.037503 0.000000 0.000000
    43 -0.488517 -2.755600 -0.228261 -0.195785 0.054586 -0.144146
    44 0.039889 -1.479791 0.029854 -2.042748 0.000000 0.000000
    45 0.028785 -1.075733 -0.023110 -0.841838 0.000000 0.000000
    46 -1.180679 -2.507216 -0.193861 0.008677 0.244088 -0.056758
    47 -0.024967 -1.123934 0.017595 -1.466594 0.000000 0.000000
    48 -0.020058 -0.890965 0.010091 -1.308778 0.000000 0.000000
    49 0.120180 -0.051600 -0.055246 0.287567 -3.172226 1.561008
  time 30
    0 -11.960718 0.864584 -7.922828 0.847156 1.867272 1.276235
    1 0.096946 -8.450420 -0.009364 0.351678 -0.231589 0.212813
    2 -0.192877 -2.997167 0.750521 0.973027 -1.502063 -0.975592
    3 0.000000 -1.808650 1.012937 0.000000 0.000000 0.000000
    4 0.000000 0.706666 0.002903 0.000000 0.000000 0.000000
    5 0.000000 2.290614 1.335354 0.000000 0.000000 0.000000
    6 -0.115835 -1.983282 1.652799 0.000000 0.000000 0.000000
    7 -0.194965 1.740244 -0.776688 0.000000 0.000000 0.000000
    8 0.000000 -0.273072 1.043217 0.000000 0.000000 0.000000
    9 11.470110 0.978882 -7.922828 0.777557 -1.819456 -1.208763
    10 -0.071918 -8.498731 -0.104137 0.352798 0.302533 -0.041828
    11 0.270583 -2.982786 0.320373 0.554706 1.379928 0.480518
    12 -0.000001 -1.808650 1.012938 0.000000 0.000000 0.000000
    13 -0.115835 -1.983282 1.652800 0.000000 0.000000 0.000000
    14 0.000000 2.290614 1.335354 0.000000 0.000000 0.000000
    15 0.000001 0.706665 0.002903 0.000000 0.000000 0.000000
    16 -0.194964 1.736338 -0.761062 0.000000 0.000000 0.000000
    17 0.000000 -0.273071 1.043216 0.000000 0.000000 0.000000
    18 -0.586769 -1.264477 0.200164 -0.224469 -0.772272 -2.217911
    19 1.522835 0.058680 0.016850 -0.042975 0.166884 0.909410
    20 1.117947 0.048424 -0.005765 -0.000024 0.000000 0.654951
    21 -0.963867 -2.785143 -0.085346 0.230928 0.199964 -0.171417
    22 0.028478 -1.403067 0.006272 -1.008258 -0.000007 -0.000010
    23 0.021412 -0.957782 0.020047 -0.332307 -0.000003 -0.000008
    24 -0.249534 -2.846963 -0.174215 -0.001196 0.000966 -0.025445
    25 0.043235 -1.683940 0.096015 -2.021659 -0.002971 -0.000336
    26 0.031729 -1.160830 0.058836 -1.017648 0.000000 0.000000
    27 0.447951 -2.798983 -0.200441 -0.016250 0.053282 0.116306
    28 -0.032909 -1.480207 0.004935 -1.783731 0.000000 0.000000
    29 -0.027023 -1.076921 -0.020212 -0.898892 0.000000 0.000000
    30 1.164474 -2.543939 -0.170327 0.050355 -0.000995 -0.002105
    31 0.024033 -1.129040 0.017807 -1.291468 -0.100239 0.187007
    32 0.014896 -0.883992 -0.019846 -1.038734 0.074161 0.017318
    33 -0.138841 -0.113067 0.013658 0.285538 -0.040593 1.576220
    34 0.583509 -1.197274 0.185379 -0.077873 -0.765978 -0.796238
    35 1.535926 0.010247 0.005009 -0.072801 0.036313 -1.031055
    36 1.100770 0.004528 -0.010675 0.000000 0.000000 -0.670693
    37 0.957766 -2.746777 -0.090301 0.182590 -0.051003 0.111154
    38 -0.033419 -1.397128 -0.011255 -0.842508 -0.018348 -0.065735
    39 -0.022361 -0.957433 0.018783 -0.642317 0.000000 0.000000
    40 0.250029 -2.820664 -0.238396 -0.282660 0.057277 -0.106688
    41 -0.049759 -1.680544 0.100479 -2.012794 0.000000 0.000000
    42 -0.034141 -1.148311 0.084779 -1.037503 0.000000 0.000000
    43 -0.488517 -2.755600 -0.228261 -0.195785 0.054586 -0.144146
    44 0.039889 -1.479791 0.029854 -2.042748 0.000000 0.000000
    45 0.028785 -1.075733 -0.023110 -0.841838 0.000000 0.000000
    46 -1.180679 -2.507216 -0.193861 0.008677 0.244088 -0.056758
    47 -0.024967 -1.123934 0.017595 -1.466594 0.000000 0.000000
    48 -0.020058 -0.890965 0.010091 -1.308778 0.000000 0.000000
    49 0.120180 -0.051600 -0.055246 0.287567 -3.172226 1.561008
end
