version 1
nodes
  0 "Bone04" -1
  1 "Bone_Righthand" 0
  2 "NEXON_CSO_infi_Root_R" 1
  3 "NEXON_CSO_infi_Dummy_R" 2
  4 "NEXON_CSO_infi_Triigger_R" 3
  5 "NEXON_CSO_infi_Nori_R" 3
  6 "NEXON_CSO_infi_Slide_R" 3
  7 "NEXON_CSO_infi_Magazine_R" 3
  8 "NEXON_CSO_infi_Bullet_R" 7
  9 "Bone01" -1
  10 "Bone_Lefthand" 9
  11 "NEXON_CSO_infi_Root_L" 10
  12 "NEXON_CSO_infi_Dummy_L" 11
  13 "NEXON_CSO_infi_Slide_L" 12
  14 "NEXON_CSO_infi_Nori_L" 12
  15 "NEXON_CSO_infi_Triigger_L" 12
  16 "NEXON_CSO_infi_Magazine_L" 12
  17 "NEXON_CSO_infi_Bullet_L" 16
  18 "Bone27" 1
  19 "Bone28" 18
  20 "Bone29" 19
  21 "Bone31" 1
  22 "Bone32" 21
  23 "Bone33" 22
  24 "Bone35" 1
  25 "Bone36" 24
  26 "Bone37" 25
  27 "Bone39" 1
  28 "Bone40" 27
  29 "Bone41" 28
  30 "Bone43" 1
  31 "Bone44" 30
  32 "Bone45" 31
  33 "Bone_Se_Hand-R" 1
  34 "Bone05" 10
  35 "Bone06" 34
  36 "Bone07" 35
  37 "Bone21" 10
  38 "Bone22" 37
  39 "Bone23" 38
  40 "Bone17" 10
  41 "Bone18" 40
  42 "Bone19" 41
  43 "Bone13" 10
  44 "Bone14" 43
  45 "Bone15" 44
  46 "Bone09" 10
  47 "Bone10" 46
  48 "Bone11" 47
  49 "Bone_Se_Hand-L" 10
end
skeleton
  time 0
    0 0.090431 -4.846528 -6.926704 0.094977 3.106894 0.548214
    1 0.096946 -8.450420 -0.009364 -0.100656 0.049541 0.497926
    2 -0.192877 -2.997167 0.750521 0.973027 -1.502063 -0.975592
    3 0.000000 -1.808650 1.012937 0.000000 0.000000 0.000000
    4 0.000000 0.706666 0.002903 0.000000 0.000000 0.000000
    5 0.000000 2.290614 1.335354 0.000000 0.000000 0.000000
    6 -0.115835 -1.983282 1.652799 0.000000 0.000000 0.000000
    7 -0.194965 1.740244 -0.776688 0.000000 0.000000 0.000000
    8 0.000000 -0.273072 1.043217 0.000000 0.000000 0.000000
    9 -0.557600 -4.329874 -5.551662 0.056856 -3.510065 -0.389364
    10 -0.071918 -8.498731 -0.104137 -0.264059 0.455046 -0.401489
    11 0.270583 -2.982786 0.320373 0.554706 1.379928 0.480518
    12 -0.000001 -1.808650 1.012938 0.000000 0.000000 0.000000
    13 -0.115835 -1.983282 1.652800 0.000000 0.000000 0.000000
    14 0.000000 2.290614 1.335354 0.000000 0.000000 0.000000
    15 0.000001 0.706665 0.002903 0.000000 0.000000 0.000000
    16 -0.194964 1.736338 -0.761062 0.000000 0.000000 0.000000
    17 0.000000 -0.273071 1.043216 0.000000 0.000000 0.000000
    18 -0.586769 -1.264477 0.200164 -0.224469 -0.772272 -2.217911
    19 1.522835 0.058680 0.016850 -0.042975 0.166884 0.909410
    20 1.117947 0.048424 -0.005765 0.000000 0.000000 0.104201
    21 -0.963867 -2.785143 -0.085346 0.230928 0.199964 -0.171417
    22 0.028478 -1.403067 0.006272 -0.460171 -0.000007 -0.000010
    23 0.021412 -0.957782 0.020047 -0.782811 -0.000003 -0.000008
    24 -0.249534 -2.846963 -0.174215 -0.001196 0.000966 -0.025445
    25 0.043235 -1.683940 0.096015 -1.794469 -0.002684 -0.000611
    26 0.031729 -1.160830 0.058836 -0.492792 0.000000 0.000000
    27 0.447951 -2.798983 -0.200441 -0.016250 0.053282 0.116306
    28 -0.032909 -1.480207 0.004935 -1.740911 0.000000 0.000000
    29 -0.027023 -1.076921 -0.020212 -0.750439 0.000000 0.000000
    30 1.164474 -2.543939 -0.170327 -0.799188 0.027504 0.023290
    31 0.024033 -1.129040 0.017807 -1.291468 -0.100239 0.187007
    32 0.014896 -0.883992 -0.019846 -1.454038 0.101857 0.002205
    33 0.083822 -0.159943 -0.044937 0.201227 0.035820 1.403713
    34 0.583509 -1.197274 0.185379 -0.077873 -0.765978 -0.796238
    35 1.535926 0.010247 0.005009 -0.072801 0.036313 -1.031055
    36 1.100770 0.004528 -0.010675 0.000000 0.000000 -0.670693
    37 0.957766 -2.746777 -0.090301 0.182590 -0.051003 0.111154
    38 -0.033419 -1.397128 -0.011255 -0.842508 -0.018348 -0.065735
    39 -0.022361 -0.957433 0.018783 -0.642317 0.000000 0.000000
    40 0.250029 -2.820664 -0.238396 -0.282660 0.057277 -0.106688
    41 -0.049759 -1.680544 0.100479 -2.012794 0.000000 0.000000
    42 -0.034141 -1.148311 0.084779 -1.037503 0.000000 0.000000
    43 -0.488517 -2.755600 -0.228261 -0.195785 0.054586 -0.144146
    44 0.039889 -1.479791 0.029854 -2.042748 0.000000 0.000000
    45 0.028785 -1.075733 -0.023110 -0.841838 0.000000 0.000000
    46 -1.180679 -2.507216 -0.193861 0.008677 0.244088 -0.056758
    47 -0.024967 -1.123934 0.017595 -1.466594 0.000000 0.000000
    48 -0.020058 -0.890965 0.010091 -1.308778 0.000000 0.000000
    49 0.120180 -0.051600 -0.055246 0.287567 -3.172226 1.561008
  time 1
    0 0.090431 -4.846528 -6.930610 0.095356 3.106792 0.547506
    1 0.096946 -8.450420 -0.009364 -0.100784 0.049423 0.498238
    2 -0.192877 -2.997167 0.750521 0.973027 -1.502063 -0.975592
    3 0.000000 -1.808650 1.012937 0.000000 0.000000 0.000000
    4 0.000000 0.706666 0.002903 0.000000 0.000000 0.000000
    5 0.000000 2.290614 1.335354 0.000000 0.000000 0.000000
    6 -0.115835 -1.983282 1.652799 0.000000 0.000000 0.000000
    7 -0.194965 1.740244 -0.776688 0.000000 0.000000 0.000000
    8 0.000000 -0.273072 1.043217 0.000000 0.000000 0.000000
    9 -0.557600 -1.954801 -5.551662 0.127318 -3.508722 -0.369545
    10 -0.071918 -8.498731 -0.104137 -0.119413 0.535884 0.195464
    11 0.270583 -2.982786 0.320373 0.554706 1.379928 0.480518
    12 -0.000001 -1.808650 1.012938 0.000000 0.000000 0.000000
    13 -0.115835 0.317569 1.652800 0.000000 0.000000 0.000000
    14 0.000000 2.290614 1.335354 0.000000 0.000000 0.000000
    15 0.000001 0.706665 0.002903 0.000000 0.000000 0.000000
    16 -0.194964 1.736338 -0.761062 0.000000 0.000000 0.000000
    17 0.000000 -0.273071 1.043216 0.000000 0.000000 0.000000
    18 -0.586769 -1.264477 0.200164 -0.224469 -0.772272 -2.217911
    19 1.522835 0.058680 0.016850 -0.042975 0.166884 0.909410
    20 1.117947 0.048424 -0.005765 0.000000 0.000000 0.104201
    21 -0.963867 -2.785143 -0.085346 0.230928 0.199964 -0.171417
    22 0.028478 -1.403067 0.006272 -0.460171 -0.000007 -0.000010
    23 0.021412 -0.957782 0.020047 -0.782811 -0.000003 -0.000008
    24 -0.249534 -2.846963 -0.174215 -0.001196 0.000966 -0.025445
    25 0.043235 -1.683940 0.096015 -1.794469 -0.002684 -0.000611
    26 0.031729 -1.160830 0.058836 -0.492792 0.000000 0.000000
    27 0.447951 -2.798983 -0.200441 -0.016250 0.053282 0.116306
    28 -0.032909 -1.480207 0.004935 -1.740911 0.000000 0.000000
    29 -0.027023 -1.076921 -0.020212 -0.750439 0.000000 0.000000
    30 1.164474 -2.543939 -0.170327 -0.799188 0.027504 0.023290
    31 0.024033 -1.129040 0.017807 -1.291468 -0.100239 0.187007
    32 0.014896 -0.883992 -0.019846 -1.454058 0.101857 0.002205
    33 0.083822 -0.159943 -0.044937 0.201191 0.035784 1.404696
    34 0.583509 -1.197274 0.185379 -0.077873 -0.765978 -0.796238
    35 1.535926 0.010247 0.005009 -0.072777 0.036313 -1.030837
    36 1.100770 0.004528 -0.010675 0.000000 0.000000 -0.670236
    37 0.957766 -2.746777 -0.090301 0.080899 -0.051003 0.111154
    38 -0.033419 -1.397128 -0.011255 -1.020242 -0.018348 -0.065747
    39 -0.022361 -0.957433 0.018783 -0.916712 0.000000 0.000000
    40 0.250029 -2.820664 -0.238396 -0.282660 0.057277 -0.106688
    41 -0.049759 -1.680544 0.100479 -2.013619 0.000000 0.000000
    42 -0.034141 -1.148311 0.084779 -1.037185 0.000000 0.000000
    43 -0.488517 -2.755600 -0.228261 -0.195785 0.054586 -0.144146
    44 0.039889 -1.479791 0.029854 -2.043627 0.000000 0.000000
    45 0.028785 -1.075733 -0.023110 -0.841838 0.000000 0.000000
    46 -1.180679 -2.507216 -0.193861 0.008677 0.244088 -0.056758
    47 -0.024967 -1.123934 0.017595 -1.467033 0.000000 0.000000
    48 -0.020058 -0.890965 0.010091 -1.309732 0.000000 0.000000
    49 0.120180 -0.051600 -0.055246 0.287567 -3.172226 1.561008
  time 2
    0 0.090431 -4.846528 -6.942330 0.096587 3.106434 0.545601
    1 0.096946 -8.450420 -0.009364 -0.101039 0.049225 0.498957
    2 -0.192877 -2.997167 0.750521 0.973027 -1.502063 -0.975592
    3 0.000000 -1.808650 1.012937 0.000000 0.000000 0.000000
    4 0.000000 0.706666 0.002903 0.000000 0.000000 0.000000
    5 0.000000 2.290614 1.335354 0.000000 0.000000 0.000000
    6 -0.115835 -1.983282 1.652799 0.000000 0.000000 0.000000
    7 -0.194965 1.740244 -0.776688 0.000000 0.000000 0.000000
    8 0.000000 -0.273072 1.043217 0.000000 0.000000 0.000000
    9 -0.557600 -1.013366 -5.551662 0.132425 -3.502454 -0.324018
    10 -0.071918 -8.498731 -0.104137 -0.127434 0.531484 0.160226
    11 0.270583 -2.982786 0.320373 0.554706 1.379928 0.480518
    12 -0.000001 -1.808650 1.012938 0.000000 0.000000 0.000000
    13 -0.115835 0.200378 1.652800 0.000000 0.000000 0.000000
    14 0.000000 2.290614 1.335354 0.000000 0.000000 0.000000
    15 0.000001 0.706665 0.002903 0.000000 0.000000 0.000000
    16 -0.194964 1.736338 -0.761062 0.000000 0.000000 0.000000
    17 0.000000 -0.273071 1.043216 0.000000 0.000000 0.000000
    18 -0.586769 -1.264477 0.200164 -0.224469 -0.772272 -2.217911
    19 1.522835 0.058680 0.016850 -0.042975 0.166884 0.909410
    20 1.117947 0.048424 -0.005765 0.000000 0.000000 0.104201
    21 -0.963867 -2.785143 -0.085346 0.230928 0.199964 -0.171417
    22 0.028478 -1.403067 0.006272 -0.460171 -0.000007 -0.000010
    23 0.021412 -0.957782 0.020047 -0.782811 -0.000003 -0.000008
    24 -0.249534 -2.846963 -0.174215 -0.001196 0.000966 -0.025445
    25 0.043235 -1.683940 0.096015 -1.794469 -0.002684 -0.000611
    26 0.031729 -1.160830 0.058836 -0.492792 0.000000 0.000000
    27 0.447951 -2.798983 -0.200441 -0.016250 0.053282 0.116306
    28 -0.032909 -1.480207 0.004935 -1.740911 0.000000 0.000000
    29 -0.027023 -1.076921 -0.020212 -0.750439 0.000000 0.000000
    30 1.164474 -2.543939 -0.170327 -0.799188 0.027504 0.023290
    31 0.024033 -1.129040 0.017807 -1.291468 -0.100239 0.187007
    32 0.014896 -0.883992 -0.019846 -1.454058 0.101857 0.002205
    33 0.083822 -0.159943 -0.044937 0.201059 0.035688 1.407548
    34 0.583509 -1.197274 0.185379 -0.077873 -0.765978 -0.796238
    35 1.535926 0.010247 0.005009 -0.072729 0.036325 -1.030266
    36 1.100770 0.004528 -0.010675 0.000000 0.000000 -0.668983
    37 0.957766 -2.746777 -0.090301 0.068418 -0.051003 0.111154
    38 -0.033419 -1.397128 -0.011255 -1.042052 -0.018348 -0.065747
    39 -0.022361 -0.957433 0.018783 -0.946589 0.000000 0.000000
    40 0.250029 -2.820664 -0.238396 -0.282660 0.057277 -0.106688
    41 -0.049759 -1.680544 0.100479 -2.015860 0.000000 0.000000
    42 -0.034141 -1.148311 0.084779 -1.036282 0.000000 0.000000
    43 -0.488517 -2.755600 -0.228261 -0.195785 0.054586 -0.144146
    44 0.039889 -1.479791 0.029854 -2.046023 0.000000 0.000000
    45 0.028785 -1.075733 -0.023110 -0.841838 0.000000 0.000000
    46 -1.180679 -2.507216 -0.193861 0.008677 0.244088 -0.056758
    47 -0.024967 -1.123934 0.017595 -1.468220 0.000000 0.000000
    48 -0.020058 -0.890965 0.010091 -1.312366 0.000000 0.000000
    49 0.120180 -0.051600 -0.055246 0.287567 -3.172226 1.561008
  time 3
    0 0.090431 -4.846528 -6.961861 0.098576 3.105873 0.542554
    1 0.096946 -8.450420 -0.009364 -0.101337 0.048988 0.499784
    2 -0.192877 -2.997167 0.750521 0.973027 -1.502063 -0.975592
    3 0.000000 -1.808650 1.012937 0.000000 0.000000 0.000000
    4 0.000000 0.706666 0.002903 0.000000 0.000000 0.000000
    5 0.000000 2.290614 1.335354 0.000000 0.000000 0.000000
    6 -0.115835 -1.983282 1.652799 0.000000 0.000000 0.000000
    7 -0.194965 1.740244 -0.776688 0.000000 0.000000 0.000000
    8 0.000000 -0.273072 1.043217 0.000000 0.000000 0.000000
    9 -0.557600 -0.950864 -5.551662 0.121927 -3.503909 -0.334301
    10 -0.071918 -8.498731 -0.104137 -0.154889 0.518951 0.049338
    11 0.270583 -2.982786 0.320373 0.554706 1.379928 0.480518
    12 -0.000001 -1.808650 1.012938 0.000000 0.000000 0.000000
    13 -0.115835 -0.147288 1.652800 0.000000 0.000000 0.000000
    14 0.000000 2.290614 1.335354 0.000000 0.000000 0.000000
    15 0.000001 0.706665 0.002903 0.000000 0.000000 0.000000
    16 -0.194964 1.736338 -0.761062 0.000000 0.000000 0.000000
    17 0.000000 -0.273071 1.043216 0.000000 0.000000 0.000000
    18 -0.586769 -1.264477 0.200164 -0.224469 -0.772272 -2.217911
    19 1.522835 0.058680 0.016850 -0.042975 0.166884 0.909410
    20 1.117947 0.048424 -0.005765 0.000000 0.000000 0.104201
    21 -0.963867 -2.785143 -0.085346 0.230928 0.199964 -0.171417
    22 0.028478 -1.403067 0.006272 -0.460171 -0.000007 -0.000010
    23 0.021412 -0.957782 0.020047 -0.782811 -0.000003 -0.000008
    24 -0.249534 -2.846963 -0.174215 -0.001196 0.000966 -0.025445
    25 0.043235 -1.683940 0.096015 -1.794469 -0.002684 -0.000611
    26 0.031729 -1.160830 0.058836 -0.492792 0.000000 0.000000
    27 0.447951 -2.798983 -0.200441 -0.016250 0.053282 0.116306
    28 -0.032909 -1.480207 0.004935 -1.740911 0.000000 0.000000
    29 -0.027023 -1.076921 -0.020212 -0.750439 0.000000 0.000000
    30 1.164474 -2.543939 -0.170327 -0.799188 0.027504 0.023290
    31 0.024033 -1.129040 0.017807 -1.291468 -0.100239 0.187007
    32 0.014896 -0.883992 -0.019846 -1.454038 0.101857 0.002205
    33 0.079916 -0.159943 -0.041031 0.200855 0.035521 1.412127
    34 0.583509 -1.197274 0.185379 -0.077873 -0.765978 -0.796238
    35 1.535926 0.010247 0.005009 -0.072669 0.036325 -1.029422
    36 1.100770 0.004528 -0.010675 0.000000 0.000000 -0.667153
    37 0.957766 -2.746777 -0.090301 0.063816 -0.051003 0.111154
    38 -0.033419 -1.397128 -0.011255 -1.050108 -0.018360 -0.065747
    39 -0.022361 -0.957433 0.018783 -0.951386 0.000000 0.000000
    40 0.250029 -2.820664 -0.238396 -0.282660 0.057277 -0.106688
    41 -0.049759 -1.680544 0.100479 -2.019178 0.000000 0.000000
    42 -0.034141 -1.148311 0.084779 -1.035008 0.000000 0.000000
    43 -0.488517 -2.755600 -0.228261 -0.195785 0.054586 -0.144146
    44 0.039889 -1.479791 0.029854 -2.049561 0.000000 0.000000
    45 0.028785 -1.075733 -0.023110 -0.841838 0.000000 0.000000
    46 -1.180679 -2.507216 -0.193861 0.008677 0.244088 -0.056758
    47 -0.024967 -1.123934 0.017595 -1.469992 0.000000 0.000000
    48 -0.020058 -0.890965 0.010091 -1.316259 0.000000 0.000000
    49 0.120180 -0.051600 -0.055246 0.287567 -3.172226 1.561008
  time 4
    0 0.090431 -4.846528 -6.985300 0.101228 3.105210 0.538581
    1 0.096946 -8.450420 -0.009364 -0.101571 0.048790 0.500395
    2 -0.192877 -2.997167 0.750521 0.973027 -1.502063 -0.975592
    3 0.000000 -1.808650 1.012937 0.000000 0.000000 0.000000
    4 0.000000 0.706666 0.002903 0.000000 0.000000 0.000000
    5 0.000000 2.290614 1.335354 0.000000 0.000000 0.000000
    6 -0.115835 -1.983282 1.652799 0.000000 0.000000 0.000000
    7 -0.194965 1.740244 -0.776688 0.000000 0.000000 0.000000
    8 0.000000 -0.273072 1.043217 0.000000 0.000000 0.000000
    9 -0.557600 -1.138370 -5.551662 0.109064 -3.506315 -0.352998
    10 -0.071918 -8.498731 -0.104137 -0.188579 0.500170 -0.092810
    11 0.270583 -2.982786 0.320373 0.554706 1.379928 0.480518
    12 -0.000001 -1.808650 1.012938 0.000000 0.000000 0.000000
    13 -0.115835 -0.826997 1.652800 0.000000 0.000000 0.000000
    14 0.000000 2.290614 1.335354 0.000000 0.000000 0.000000
    15 0.000001 0.706665 0.002903 0.000000 0.000000 0.000000
    16 -0.194964 1.736338 -0.761062 0.000000 0.000000 0.000000
    17 0.000000 -0.273071 1.043216 0.000000 0.000000 0.000000
    18 -0.586769 -1.264477 0.200164 -0.224469 -0.772272 -2.217911
    19 1.522835 0.058680 0.016850 -0.042975 0.166884 0.909410
    20 1.117947 0.048424 -0.005765 0.000000 0.000000 0.104201
    21 -0.963867 -2.785143 -0.085346 0.230928 0.199964 -0.171417
    22 0.028478 -1.403067 0.006272 -0.460171 -0.000007 -0.000010
    23 0.021412 -0.957782 0.020047 -0.782811 -0.000003 -0.000008
    24 -0.249534 -2.846963 -0.174215 -0.001196 0.000966 -0.025445
    25 0.043235 -1.683940 0.096015 -1.794469 -0.002684 -0.000611
    26 0.031729 -1.160830 0.058836 -0.492792 0.000000 0.000000
    27 0.447951 -2.798983 -0.200441 -0.016250 0.053282 0.116306
    28 -0.032909 -1.480207 0.004935 -1.740911 0.000000 0.000000
    29 -0.027023 -1.076921 -0.020212 -0.750439 0.000000 0.000000
    30 1.164474 -2.543939 -0.170327 -0.799188 0.027504 0.023290
    31 0.024033 -1.129040 0.017807 -1.291468 -0.100239 0.187007
    32 0.014896 -0.883992 -0.019846 -1.454038 0.101857 0.002205
    33 0.076010 -0.159943 -0.041031 0.200555 0.035293 1.418311
    34 0.583509 -1.197274 0.185379 -0.077873 -0.765978 -0.796238
    35 1.535926 0.010247 0.005009 -0.072573 0.036325 -1.028416
    36 1.100770 0.004528 -0.010675 0.000000 0.000000 -0.664937
    37 0.957766 -2.746777 -0.090301 0.065436 -0.051003 0.111154
    38 -0.033419 -1.397128 -0.011255 -1.047260 -0.018348 -0.065747
    39 -0.022361 -0.957433 0.018783 -0.941300 0.000000 0.000000
    40 0.250029 -2.820664 -0.238396 -0.282660 0.057277 -0.106688
    41 -0.049759 -1.680544 0.100479 -2.023195 0.000000 0.000000
    42 -0.034141 -1.148311 0.084779 -1.033416 0.000000 0.000000
    43 -0.488517 -2.755600 -0.228261 -0.195785 0.054586 -0.144146
    44 0.039889 -1.479791 0.029854 -2.053847 0.000000 0.000000
    45 0.028785 -1.075733 -0.023110 -0.841838 0.000000 0.000000
    46 -1.180679 -2.507216 -0.193861 0.008677 0.244088 -0.056758
    47 -0.024967 -1.123934 0.017595 -1.472129 0.000000 0.000000
    48 -0.020058 -0.890965 0.010091 -1.320993 0.000000 0.000000
    49 0.120180 -0.051600 -0.055246 0.287567 -3.172226 1.561008
  time 5
    0 0.090431 -4.846528 -7.012644 0.104354 3.104343 0.533792
    1 0.096946 -8.450420 -0.009364 -0.101614 0.048751 0.500503
    2 -0.192877 -2.997167 0.750521 0.973027 -1.502063 -0.975592
    3 0.000000 -1.808650 1.012937 0.000000 0.000000 0.000000
    4 0.000000 0.706666 0.002903 0.000000 0.000000 0.000000
    5 0.000000 2.290614 1.335354 0.000000 0.000000 0.000000
    6 -0.115835 -1.983282 1.652799 0.000000 0.000000 0.000000
    7 -0.194965 1.740244 -0.776688 0.000000 0.000000 0.000000
    8 0.000000 -0.273072 1.043217 0.000000 0.000000 0.000000
    9 -0.557600 -1.622760 -5.551662 0.095634 -3.508666 -0.373284
    10 -0.071918 -8.498731 -0.104137 -0.217793 0.480760 -0.223591
    11 0.270583 -2.982786 0.320373 0.554706 1.379928 0.480518
    12 -0.000001 -1.808650 1.012938 0.000000 0.000000 0.000000
    13 -0.115835 -1.612177 1.652800 0.000000 0.000000 0.000000
    14 0.000000 2.290614 1.335354 0.000000 0.000000 0.000000
    15 0.000001 0.706665 0.002903 0.000000 0.000000 0.000000
    16 -0.194964 1.736338 -0.761062 0.000000 0.000000 0.000000
    17 0.000000 -0.273071 1.043216 0.000000 0.000000 0.000000
    18 -0.586769 -1.264477 0.200164 -0.224469 -0.772272 -2.217911
    19 1.522835 0.058680 0.016850 -0.042975 0.166884 0.909410
    20 1.117947 0.048424 -0.005765 0.000000 0.000000 0.104201
    21 -0.963867 -2.785143 -0.085346 0.230928 0.199964 -0.171417
    22 0.028478 -1.403067 0.006272 -0.460171 -0.000007 -0.000010
    23 0.021412 -0.957782 0.020047 -0.782811 -0.000003 -0.000008
    24 -0.249534 -2.846963 -0.174215 -0.001196 0.000966 -0.025445
    25 0.043235 -1.683940 0.096015 -1.794469 -0.002684 -0.000611
    26 0.031729 -1.160830 0.058836 -0.492792 0.000000 0.000000
    27 0.447951 -2.798983 -0.200441 -0.016250 0.053282 0.116306
    28 -0.032909 -1.480207 0.004935 -1.740911 0.000000 0.000000
    29 -0.027023 -1.076921 -0.020212 -0.750439 0.000000 0.000000
    30 1.164474 -2.543939 -0.170327 -0.799188 0.027504 0.023290
    31 0.024033 -1.129040 0.017807 -1.291468 -0.100239 0.187007
    32 0.014896 -0.883992 -0.019846 -1.454038 0.101857 0.002205
    33 0.072103 -0.156037 -0.041031 0.200184 0.035005 1.425969
    34 0.583509 -1.197274 0.185379 -0.077873 -0.765978 -0.796238
    35 1.535926 0.010247 0.005009 -0.072489 0.036337 -1.027301
    36 1.100770 0.004528 -0.010675 0.000000 0.000000 -0.662529
    37 0.957766 -2.746777 -0.090301 0.071683 -0.051003 0.111154
    38 -0.033419 -1.397128 -0.011255 -1.036356 -0.018348 -0.065747
    39 -0.022361 -0.957433 0.018783 -0.926362 0.000000 0.000000
    40 0.250029 -2.820664 -0.238396 -0.282660 0.057277 -0.106688
    41 -0.049759 -1.680544 0.100479 -2.027570 0.000000 0.000000
    42 -0.034141 -1.148311 0.084779 -1.031718 0.000000 0.000000
    43 -0.488517 -2.755600 -0.228261 -0.195785 0.054586 -0.144146
    44 0.039889 -1.479791 0.029854 -2.058506 0.000000 0.000000
    45 0.028785 -1.075733 -0.023110 -0.841838 0.000000 0.000000
    46 -1.180679 -2.507216 -0.193861 0.008677 0.244088 -0.056758
    47 -0.024967 -1.123934 0.017595 -1.474467 0.000000 0.000000
    48 -0.020058 -0.890965 0.010091 -1.326146 0.000000 0.000000
    49 0.120180 -0.051600 -0.055246 0.287567 -3.172226 1.561008
  time 6
    0 0.090431 -4.846528 -7.047801 0.107859 3.103374 0.528296
    1 0.096946 -8.450420 -0.009364 -0.101337 0.048988 0.499784
    2 -0.192877 -2.997167 0.750521 0.973027 -1.502063 -0.975592
    3 0.000000 -1.808650 1.012937 0.000000 0.000000 0.000000
    4 0.000000 0.706666 0.002903 0.000000 0.000000 0.000000
    5 0.000000 2.290614 1.335354 0.000000 0.000000 0.000000
    6 -0.115835 -1.983282 1.652799 0.000000 0.000000 0.000000
    7 -0.194965 1.740244 -0.776688 0.000000 0.000000 0.000000
    8 0.000000 -0.273072 1.043217 0.000000 0.000000 0.000000
    9 -0.557600 -2.286842 -5.551662 0.083433 -3.510177 -0.387868
    10 -0.071918 -8.498731 -0.104137 -0.235829 0.470265 -0.302850
    11 0.270583 -2.982786 0.320373 0.554706 1.379928 0.480518
    12 -0.000001 -1.808650 1.012938 0.000000 0.000000 0.000000
    13 -0.115835 -1.983282 1.652800 0.000000 0.000000 0.000000
    14 0.000000 2.290614 1.335354 0.000000 0.000000 0.000000
    15 0.000001 0.706665 0.002903 0.000000 0.000000 0.000000
    16 -0.194964 1.736338 -0.761062 0.000000 0.000000 0.000000
    17 0.000000 -0.273071 1.043216 0.000000 0.000000 0.000000
    18 -0.586769 -1.264477 0.200164 -0.224469 -0.772272 -2.217911
    19 1.522835 0.058680 0.016850 -0.042975 0.166884 0.909410
    20 1.117947 0.048424 -0.005765 0.000000 0.000000 0.104201
    21 -0.963867 -2.785143 -0.085346 0.230928 0.199964 -0.171417
    22 0.028478 -1.403067 0.006272 -0.460171 -0.000007 -0.000010
    23 0.021412 -0.957782 0.020047 -0.782811 -0.000003 -0.000008
    24 -0.249534 -2.846963 -0.174215 -0.001196 0.000966 -0.025445
    25 0.043235 -1.683940 0.096015 -1.794469 -0.002684 -0.000611
    26 0.031729 -1.160830 0.058836 -0.492792 0.000000 0.000000
    27 0.447951 -2.798983 -0.200441 -0.016250 0.053282 0.116306
    28 -0.032909 -1.480207 0.004935 -1.740911 0.000000 0.000000
    29 -0.027023 -1.076921 -0.020212 -0.750439 0.000000 0.000000
    30 1.164474 -2.543939 -0.170327 -0.799188 0.027504 0.023290
    31 0.024033 -1.129040 0.017807 -1.291468 -0.100239 0.187007
    32 0.014896 -0.883992 -0.019846 -1.454038 0.101857 0.002205
    33 0.068197 -0.156037 -0.041031 0.199717 0.034670 1.434957
    34 0.583509 -1.197274 0.185379 -0.077873 -0.765978 -0.796238
    35 1.535926 0.010247 0.005009 -0.072393 0.036337 -1.026185
    36 1.100770 0.004528 -0.010675 0.000000 0.000000 -0.660096
    37 0.957766 -2.746777 -0.090301 0.080899 -0.051003 0.111154
    38 -0.033419 -1.397128 -0.011255 -1.020242 -0.018348 -0.065747
    39 -0.022361 -0.957433 0.018783 -0.916712 0.000000 0.000000
    40 0.250029 -2.820664 -0.238396 -0.282660 0.057277 -0.106688
    41 -0.049759 -1.680544 0.100479 -2.031946 0.000000 0.000000
    42 -0.034141 -1.148311 0.084779 -1.030019 0.000000 0.000000
    43 -0.488517 -2.755600 -0.228261 -0.195785 0.054586 -0.144146
    44 0.039889 -1.479791 0.029854 -2.063165 0.000000 0.000000
    45 0.028785 -1.075733 -0.023110 -0.841838 0.000000 0.000000
    46 -1.180679 -2.507216 -0.193861 0.008677 0.244088 -0.056758
    47 -0.024967 -1.123934 0.017595 -1.476804 0.000000 0.000000
    48 -0.020058 -0.890965 0.010091 -1.331299 0.000000 0.000000
    49 0.120180 -0.051600 -0.055246 0.287567 -3.172226 1.561008
  time 7
    0 0.090431 -4.846528 -7.086865 0.111742 3.102303 0.522310
    1 0.096946 -8.450420 -0.009364 -0.100656 0.049541 0.497926
    2 -0.192877 -2.997167 0.750521 0.973027 -1.502063 -0.975592
    3 0.000000 -1.808650 1.012937 0.000000 0.000000 0.000000
    4 0.000000 0.706666 0.002903 0.000000 0.000000 0.000000
    5 0.000000 2.290614 1.335354 0.000000 0.000000 0.000000
    6 -0.115835 -1.983282 1.652799 0.000000 0.000000 0.000000
    7 -0.194965 1.740244 -0.776688 0.000000 0.000000 0.000000
    8 0.000000 -0.273072 1.043217 0.000000 0.000000 0.000000
    9 -0.557600 -3.001708 -5.551662 0.072083 -3.510513 -0.392355
    10 -0.071918 -8.498731 -0.104137 -0.245532 0.470818 -0.334905
    11 0.270583 -2.982786 0.320373 0.554706 1.379928 0.480518
    12 -0.000001 -1.808650 1.012938 0.000000 0.000000 0.000000
    13 -0.115835 -1.893435 1.652800 0.000000 0.000000 0.000000
    14 0.000000 2.290614 1.335354 0.000000 0.000000 0.000000
    15 0.000001 0.706665 0.002903 0.000000 0.000000 0.000000
    16 -0.194964 1.736338 -0.761062 0.000000 0.000000 0.000000
    17 0.000000 -0.273071 1.043216 0.000000 0.000000 0.000000
    18 -0.586769 -1.264477 0.200164 -0.224469 -0.772272 -2.217911
    19 1.522835 0.058680 0.016850 -0.042975 0.166884 0.909410
    20 1.117947 0.048424 -0.005765 0.000000 0.000000 0.104201
    21 -0.963867 -2.785143 -0.085346 0.230928 0.199964 -0.171417
    22 0.028478 -1.403067 0.006272 -0.460171 -0.000007 -0.000010
    23 0.021412 -0.957782 0.020047 -0.782811 -0.000003 -0.000008
    24 -0.249534 -2.846963 -0.174215 -0.001196 0.000966 -0.025445
    25 0.043235 -1.683940 0.096015 -1.794469 -0.002684 -0.000611
    26 0.031729 -1.160830 0.058836 -0.492792 0.000000 0.000000
    27 0.447951 -2.798983 -0.200441 -0.016250 0.053282 0.116306
    28 -0.032909 -1.480207 0.004935 -1.740911 0.000000 0.000000
    29 -0.027023 -1.076921 -0.020212 -0.750439 0.000000 0.000000
    30 1.164474 -2.543939 -0.170327 -0.799188 0.027504 0.023290
    31 0.024033 -1.129040 0.017807 -1.291468 -0.100239 0.187007
    32 0.014896 -0.883992 -0.019846 -1.454038 0.101857 0.002205
    33 0.060384 -0.152130 -0.041031 0.199165 0.034298 1.445132
    34 0.583509 -1.197274 0.185379 -0.077873 -0.765978 -0.796238
    35 1.535926 0.010247 0.005009 -0.072309 0.036337 -1.025151
    36 1.100770 0.004528 -0.010675 0.000000 0.000000 -0.657881
    37 0.957766 -2.746777 -0.090301 0.097302 -0.051003 0.111154
    38 -0.033419 -1.397128 -0.011255 -0.992070 -0.018384 -0.065771
    39 -0.022361 -0.957433 0.018783 -0.913032 0.000000 0.000000
    40 0.250029 -2.820664 -0.238396 -0.282660 0.057277 -0.106688
    41 -0.049759 -1.680544 0.100479 -2.035963 0.000000 0.000000
    42 -0.034141 -1.148311 0.084779 -1.028427 0.000000 0.000000
    43 -0.488517 -2.755600 -0.228261 -0.195785 0.054586 -0.144146
    44 0.039889 -1.479791 0.029854 -2.067451 0.000000 0.000000
    45 0.028785 -1.075733 -0.023110 -0.841838 0.000000 0.000000
    46 -1.180679 -2.507216 -0.193861 0.008677 0.244088 -0.056758
    47 -0.024967 -1.123934 0.017595 -1.478941 0.000000 0.000000
    48 -0.020058 -0.890965 0.010091 -1.336032 0.000000 0.000000
    49 0.120180 -0.051600 -0.055246 0.287567 -3.172226 1.561008
  time 8
    0 0.090431 -4.846528 -7.125929 0.115910 3.101181 0.515997
    1 0.096946 -8.450420 -0.009364 -0.100039 0.050332 0.495757
    2 -0.192877 -2.997167 0.750521 0.973027 -1.502063 -0.975592
    3 0.000000 -1.808650 1.012937 0.000000 0.000000 0.000000
    4 0.000000 0.706666 0.002903 0.000000 0.000000 0.000000
    5 0.000000 2.290614 1.335354 0.000000 0.000000 0.000000
    6 -0.115835 -1.983282 1.652799 0.000000 0.000000 0.000000
    7 -0.194965 1.740244 -0.776688 0.000000 0.000000 0.000000
    8 0.000000 -0.273072 1.043217 0.000000 0.000000 0.000000
    9 -0.557600 -3.657978 -5.551662 0.062152 -3.510289 -0.391047
    10 -0.071918 -8.498731 -0.104137 -0.253321 0.476303 -0.352439
    11 0.270583 -2.982786 0.320373 0.554706 1.379928 0.480518
    12 -0.000001 -1.808650 1.012938 0.000000 0.000000 0.000000
    13 -0.115835 -1.803589 1.652800 0.000000 0.000000 0.000000
    14 0.000000 2.290614 1.335354 0.000000 0.000000 0.000000
    15 0.000001 0.706665 0.002903 0.000000 0.000000 0.000000
    16 -0.194964 1.736338 -0.761062 0.000000 0.000000 0.000000
    17 0.000000 -0.273071 1.043216 0.000000 0.000000 0.000000
    18 -0.586769 -1.264477 0.200164 -0.224469 -0.772272 -2.217911
    19 1.522835 0.058680 0.016850 -0.042975 0.166884 0.909410
    20 1.117947 0.048424 -0.005765 0.000000 0.000000 0.104201
    21 -0.963867 -2.785143 -0.085346 0.230928 0.199964 -0.171417
    22 0.028478 -1.403067 0.006272 -0.460171 -0.000007 -0.000010
    23 0.021412 -0.957782 0.020047 -0.782811 -0.000003 -0.000008
    24 -0.249534 -2.846963 -0.174215 -0.001196 0.000966 -0.025445
    25 0.043235 -1.683940 0.096015 -1.794469 -0.002684 -0.000611
    26 0.031729 -1.160830 0.058836 -0.492792 0.000000 0.000000
    27 0.447951 -2.798983 -0.200441 -0.016250 0.053282 0.116306
    28 -0.032909 -1.480207 0.004935 -1.740911 0.000000 0.000000
    29 -0.027023 -1.076921 -0.020212 -0.750439 0.000000 0.000000
    30 1.164474 -2.543939 -0.170327 -0.799188 0.027504 0.023290
    31 0.024033 -1.129040 0.017807 -1.291468 -0.100239 0.187007
    32 0.014896 -0.883992 -0.019846 -1.454038 0.101857 0.002205
    33 0.052572 -0.152130 -0.037125 0.198518 0.033879 1.456386
    34 0.583509 -1.197274 0.185379 -0.077873 -0.765978 -0.796238
    35 1.535926 0.010247 0.005009 -0.072237 0.036349 -1.024308
    36 1.100770 0.004528 -0.010675 0.000000 0.000000 -0.656050
    37 0.957766 -2.746777 -0.090301 0.121982 -0.051003 0.111154
    38 -0.033419 -1.397128 -0.011255 -0.949913 -0.018432 -0.065831
    39 -0.022361 -0.957433 0.018783 -0.909243 0.000000 0.000000
    40 0.250029 -2.820664 -0.238396 -0.282660 0.057277 -0.106688
    41 -0.049759 -1.680544 0.100479 -2.039281 0.000000 0.000000
    42 -0.034141 -1.148311 0.084779 -1.027153 0.000000 0.000000
    43 -0.488517 -2.755600 -0.228261 -0.195785 0.054586 -0.144146
    44 0.039889 -1.479791 0.029854 -2.070967 0.000000 0.000000
    45 0.028785 -1.075733 -0.023110 -0.841838 0.000000 0.000000
    46 -1.180679 -2.507216 -0.193861 0.008677 0.244088 -0.056758
    47 -0.024967 -1.123934 0.017595 -1.480713 0.000000 0.000000
    48 -0.020058 -0.890965 0.010091 -1.339926 0.000000 0.000000
    49 0.120180 -0.051600 -0.055246 0.287567 -3.172226 1.561008
  time 9
    0 0.090431 -4.846528 -7.164993 0.120172 3.100007 0.509413
    1 0.096946 -8.450420 -0.009364 -0.099933 0.051280 0.494091
    2 -0.192877 -2.997167 0.750521 0.973027 -1.502063 -0.975592
    3 0.000000 -1.808650 1.012937 0.000000 0.000000 0.000000
    4 0.000000 0.706666 0.002903 0.000000 0.000000 0.000000
    5 0.000000 2.290614 1.335354 0.000000 0.000000 0.000000
    6 -0.115835 -1.983282 1.652799 0.000000 0.000000 0.000000
    7 -0.194965 1.740244 -0.776688 0.000000 0.000000 0.000000
    8 0.000000 -0.273072 1.043217 0.000000 0.000000 0.000000
    9 -0.557600 -4.126742 -5.551662 0.056856 -3.510065 -0.389364
    10 -0.071918 -8.498731 -0.104137 -0.259764 0.485294 -0.358976
    11 0.270583 -2.982786 0.320373 0.554706 1.379928 0.480518
    12 -0.000001 -1.808650 1.012938 0.000000 0.000000 0.000000
    13 -0.115835 -1.983282 1.652800 0.000000 0.000000 0.000000
    14 0.000000 2.290614 1.335354 0.000000 0.000000 0.000000
    15 0.000001 0.706665 0.002903 0.000000 0.000000 0.000000
    16 -0.194964 1.736338 -0.761062 0.000000 0.000000 0.000000
    17 0.000000 -0.273071 1.043216 0.000000 0.000000 0.000000
    18 -0.586769 -1.264477 0.200164 -0.224469 -0.772272 -2.217911
    19 1.522835 0.058680 0.016850 -0.042975 0.166884 0.909410
    20 1.117947 0.048424 -0.005765 0.000000 0.000000 0.104201
    21 -0.963867 -2.785143 -0.085346 0.230928 0.199964 -0.171417
    22 0.028478 -1.403067 0.006272 -0.460171 -0.000007 -0.000010
    23 0.021412 -0.957782 0.020047 -0.782811 -0.000003 -0.000008
    24 -0.249534 -2.846963 -0.174215 -0.001196 0.000966 -0.025445
    25 0.043235 -1.683940 0.096015 -1.794469 -0.002684 -0.000611
    26 0.031729 -1.160830 0.058836 -0.492792 0.000000 0.000000
    27 0.447951 -2.798983 -0.200441 -0.016250 0.053282 0.116306
    28 -0.032909 -1.480207 0.004935 -1.740911 0.000000 0.000000
    29 -0.027023 -1.076921 -0.020212 -0.750439 0.000000 0.000000
    30 1.164474 -2.543939 -0.170327 -0.799188 0.027504 0.023290
    31 0.024033 -1.129040 0.017807 -1.291468 -0.100239 0.187007
    32 0.014896 -0.883992 -0.019846 -1.454038 0.101857 0.002205
    33 0.044759 -0.148224 -0.037125 0.197787 0.033435 1.468574
    34 0.583509 -1.197274 0.185379 -0.077873 -0.765978 -0.796238
    35 1.535926 0.010247 0.005009 -0.072190 0.036349 -1.023737
    36 1.100770 0.004528 -0.010675 0.000000 0.000000 -0.654822
    37 0.957766 -2.746777 -0.090301 0.148616 -0.051003 0.111154
    38 -0.033419 -1.397128 -0.011255 -0.904088 -0.018468 -0.065879
    39 -0.022361 -0.957433 0.018783 -0.905318 0.000000 0.000000
    40 0.250029 -2.820664 -0.238396 -0.282660 0.057277 -0.106688
    41 -0.049759 -1.680544 0.100479 -2.041522 0.000000 0.000000
    42 -0.034141 -1.148311 0.084779 -1.026304 0.000000 0.000000
    43 -0.488517 -2.755600 -0.228261 -0.195785 0.054586 -0.144146
    44 0.039889 -1.479791 0.029854 -2.073363 0.000000 0.000000
    45 0.028785 -1.075733 -0.023110 -0.841838 0.000000 0.000000
    46 -1.180679 -2.507216 -0.193861 0.008677 0.244088 -0.056758
    47 -0.024967 -1.123934 0.017595 -1.481900 0.000000 0.000000
    48 -0.020058 -0.890965 0.010091 -1.342560 0.000000 0.000000
    49 0.120180 -0.051600 -0.055246 0.287567 -3.172226 1.561008
  time 10
    0 0.090431 -4.846528 -7.204056 0.124435 3.098834 0.502773
    1 0.096946 -8.450420 -0.009364 -0.100146 0.052308 0.492689
    2 -0.192877 -2.997167 0.750521 0.973027 -1.502063 -0.975592
    3 0.000000 -1.808650 1.012937 0.000000 0.000000 0.000000
    4 0.000000 0.706666 0.002903 0.000000 0.000000 0.000000
    5 0.000000 2.290614 1.335354 0.000000 0.000000 0.000000
    6 -0.115835 -1.983282 1.652799 0.000000 0.000000 0.000000
    7 -0.194965 1.740244 -0.776688 0.000000 0.000000 0.000000
    8 0.000000 -0.273072 1.043217 0.000000 0.000000 0.000000
    9 -0.557600 -4.408001 -5.551662 0.055343 -3.512640 -0.389177
    10 -0.071918 -8.498731 -0.104137 -0.265198 0.496284 -0.358009
    11 0.270583 -2.982786 0.320373 0.554706 1.379928 0.480518
    12 -0.000001 -1.808650 1.012938 0.000000 0.000000 0.000000
    13 -0.115835 -1.983282 1.652800 0.000000 0.000000 0.000000
    14 0.000000 2.290614 1.335354 0.000000 0.000000 0.000000
    15 0.000001 0.706665 0.002903 0.000000 0.000000 0.000000
    16 -0.194964 1.736338 -0.761062 0.000000 0.000000 0.000000
    17 0.000000 -0.273071 1.043216 0.000000 0.000000 0.000000
    18 -0.586769 -1.264477 0.200164 -0.224469 -0.772272 -2.217911
    19 1.522835 0.058680 0.016850 -0.042975 0.166884 0.909410
    20 1.117947 0.048424 -0.005765 0.000000 0.000000 0.104201
    21 -0.963867 -2.785143 -0.085346 0.230928 0.199964 -0.171417
    22 0.028478 -1.403067 0.006272 -0.460171 -0.000007 -0.000010
    23 0.021412 -0.957782 0.020047 -0.782811 -0.000003 -0.000008
    24 -0.249534 -2.846963 -0.174215 -0.001196 0.000966 -0.025445
    25 0.043235 -1.683940 0.096015 -1.794469 -0.002684 -0.000611
    26 0.031729 -1.160830 0.058836 -0.492792 0.000000 0.000000
    27 0.447951 -2.798983 -0.200441 -0.016250 0.053282 0.116306
    28 -0.032909 -1.480207 0.004935 -1.740911 0.000000 0.000000
    29 -0.027023 -1.076921 -0.020212 -0.750439 0.000000 0.000000
    30 1.164474 -2.543939 -0.170327 -0.799188 0.027504 0.023290
    31 0.024033 -1.129040 0.017807 -1.291468 -0.100239 0.187007
    32 0.014896 -0.883992 -0.019846 -1.454038 0.101857 0.002205
    33 0.036946 -0.148224 -0.033218 0.196960 0.032956 1.481565
    34 0.583509 -1.197274 0.185379 -0.077873 -0.765978 -0.796238
    35 1.535926 0.010247 0.005009 -0.072178 0.036349 -1.023519
    36 1.100770 0.004528 -0.010675 0.000000 0.000000 -0.654364
    37 0.957766 -2.746777 -0.090301 0.170931 -0.051003 0.111154
    38 -0.033419 -1.397128 -0.011255 -0.864857 -0.018456 -0.065867
    39 -0.022361 -0.957433 0.018783 -0.901310 0.000000 0.000000
    40 0.250029 -2.820664 -0.238396 -0.282660 0.057277 -0.106688
    41 -0.049759 -1.680544 0.100479 -2.042365 0.000000 0.000000
    42 -0.034141 -1.148311 0.084779 -1.025986 0.000000 0.000000
    43 -0.488517 -2.755600 -0.228261 -0.195785 0.054586 -0.144146
    44 0.039889 -1.479791 0.029854 -2.074264 0.000000 0.000000
    45 0.028785 -1.075733 -0.023110 -0.841838 0.000000 0.000000
    46 -1.180679 -2.507216 -0.193861 0.008677 0.244088 -0.056758
    47 -0.024967 -1.123934 0.017595 -1.482357 0.000000 0.000000
    48 -0.020058 -0.890965 0.010091 -1.343552 0.000000 0.000000
    49 0.120180 -0.051600 -0.055246 0.287567 -3.172226 1.561008
  time 11
    0 0.090431 -4.846528 -7.247026 0.128697 3.097661 0.496189
    1 0.096946 -8.450420 -0.009364 -0.100444 0.053454 0.491287
    2 -0.192877 -2.997167 0.750521 0.973027 -1.502063 -0.975592
    3 0.000000 -1.808650 1.012937 0.000000 0.000000 0.000000
    4 0.000000 0.706666 0.002903 0.000000 0.000000 0.000000
    5 0.000000 2.290614 1.335354 0.000000 0.000000 0.000000
    6 -0.115835 -1.983282 1.652799 0.000000 0.000000 0.000000
    7 -0.194965 1.740244 -0.776688 0.000000 0.000000 0.000000
    8 0.000000 -0.273072 1.043217 0.000000 0.000000 0.000000
    9 -0.557600 -4.587694 -5.551662 0.054302 -3.519356 -0.388335
    10 -0.071918 -8.498731 -0.104137 -0.270037 0.507713 -0.352951
    11 0.270583 -2.982786 0.320373 0.554706 1.379928 0.480518
    12 -0.000001 -1.808650 1.012938 0.000000 0.000000 0.000000
    13 -0.115835 -1.983282 1.652800 0.000000 0.000000 0.000000
    14 0.000000 2.290614 1.335354 0.000000 0.000000 0.000000
    15 0.000001 0.706665 0.002903 0.000000 0.000000 0.000000
    16 -0.194964 1.736338 -0.761062 0.000000 0.000000 0.000000
    17 0.000000 -0.273071 1.043216 0.000000 0.000000 0.000000
    18 -0.586769 -1.264477 0.200164 -0.224469 -0.772272 -2.217911
    19 1.522835 0.058680 0.016850 -0.042975 0.166884 0.909410
    20 1.117947 0.048424 -0.005765 0.000000 0.000000 0.104201
    21 -0.963867 -2.785143 -0.085346 0.230928 0.199964 -0.171417
    22 0.028478 -1.403067 0.006272 -0.460171 -0.000007 -0.000010
    23 0.021412 -0.957782 0.020047 -0.782811 -0.000003 -0.000008
    24 -0.249534 -2.846963 -0.174215 -0.001196 0.000966 -0.025445
    25 0.043235 -1.683940 0.096015 -1.794469 -0.002684 -0.000611
    26 0.031729 -1.160830 0.058836 -0.492792 0.000000 0.000000
    27 0.447951 -2.798983 -0.200441 -0.016250 0.053282 0.116306
    28 -0.032909 -1.480207 0.004935 -1.740911 0.000000 0.000000
    29 -0.027023 -1.076921 -0.020212 -0.750439 0.000000 0.000000
    30 1.164474 -2.543939 -0.170327 -0.799188 0.027504 0.023290
    31 0.024033 -1.129040 0.017807 -1.291468 -0.100239 0.187007
    32 0.014896 -0.883992 -0.019846 -1.454038 0.101857 0.002205
    33 0.029133 -0.144317 -0.029312 0.196025 0.032453 1.495216
    34 0.583509 -1.197274 0.185379 -0.077873 -0.765978 -0.796238
    35 1.535926 0.010247 0.005009 -0.072201 0.036349 -1.023764
    36 1.100770 0.004528 -0.010675 0.000000 0.000000 -0.654870
    37 0.957766 -2.746777 -0.090301 0.182590 -0.051003 0.111154
    38 -0.033419 -1.397128 -0.011255 -0.842508 -0.018348 -0.065735
    39 -0.022361 -0.957433 0.018783 -0.897194 0.000000 0.000000
    40 0.250029 -2.820664 -0.238396 -0.282660 0.057277 -0.106688
    41 -0.049759 -1.680544 0.100479 -2.041415 0.000000 0.000000
    42 -0.034141 -1.148311 0.084779 -1.026304 0.000000 0.000000
    43 -0.488517 -2.755600 -0.228261 -0.195785 0.054586 -0.144146
    44 0.039889 -1.479791 0.029854 -2.073253 0.000000 0.000000
    45 0.028785 -1.075733 -0.023110 -0.841838 0.000000 0.000000
    46 -1.180679 -2.507216 -0.193861 0.008677 0.244088 -0.056758
    47 -0.024967 -1.123934 0.017595 -1.481846 0.000000 0.000000
    48 -0.020058 -0.890965 0.010091 -1.342445 0.000000 0.000000
    49 0.120180 -0.051600 -0.055246 0.287567 -3.172226 1.561008
  time 12
    0 0.090431 -4.846528 -7.286090 0.132865 3.096539 0.489876
    1 0.096946 -8.450420 -0.009364 -0.100656 0.054639 0.489645
    2 -0.192877 -2.997167 0.750521 0.973027 -1.502063 -0.975592
    3 0.000000 -1.808650 1.012937 0.000000 0.000000 0.000000
    4 0.000000 0.706666 0.002903 0.000000 0.000000 0.000000
    5 0.000000 2.290614 1.335354 0.000000 0.000000 0.000000
    6 -0.115835 -1.983282 1.652799 0.000000 0.000000 0.000000
    7 -0.194965 1.740244 -0.776688 0.000000 0.000000 0.000000
    8 0.000000 -0.273072 1.043217 0.000000 0.000000 0.000000
    9 -0.557600 -4.677540 -5.551662 0.053640 -3.528870 -0.387214
    10 -0.071918 -8.498731 -0.104137 -0.274746 0.517941 -0.347296
    11 0.270583 -2.982786 0.320373 0.554706 1.379928 0.480518
    12 -0.000001 -1.808650 1.012938 0.000000 0.000000 0.000000
    13 -0.115835 -1.983282 1.652800 0.000000 0.000000 0.000000
    14 0.000000 2.290614 1.335354 0.000000 0.000000 0.000000
    15 0.000001 0.706665 0.002903 0.000000 0.000000 0.000000
    16 -0.194964 1.736338 -0.761062 0.000000 0.000000 0.000000
    17 0.000000 -0.273071 1.043216 0.000000 0.000000 0.000000
    18 -0.586769 -1.264477 0.200164 -0.224469 -0.772272 -2.217911
    19 1.522835 0.058680 0.016850 -0.042975 0.166884 0.909410
    20 1.117947 0.048424 -0.005765 0.000000 0.000000 0.104201
    21 -0.963867 -2.785143 -0.085346 0.230928 0.199964 -0.171417
    22 0.028478 -1.403067 0.006272 -0.460171 -0.000007 -0.000010
    23 0.021412 -0.957782 0.020047 -0.782811 -0.000003 -0.000008
    24 -0.249534 -2.846963 -0.174215 -0.001196 0.000966 -0.025445
    25 0.043235 -1.683940 0.096015 -1.794469 -0.002684 -0.000611
    26 0.031729 -1.160830 0.058836 -0.492792 0.000000 0.000000
    27 0.447951 -2.798983 -0.200441 -0.016250 0.053282 0.116306
    28 -0.032909 -1.480207 0.004935 -1.740911 0.000000 0.000000
    29 -0.027023 -1.076921 -0.020212 -0.750439 0.000000 0.000000
    30 1.164474 -2.543939 -0.170327 -0.799188 0.027504 0.023290
    31 0.024033 -1.129040 0.017807 -1.291468 -0.100239 0.187007
    32 0.014896 -0.883992 -0.019846 -1.454038 0.101857 0.002205
    33 0.021321 -0.140411 -0.025406 0.195019 0.031937 1.509394
    34 0.583509 -1.197274 0.185379 -0.077873 -0.765978 -0.796238
    35 1.535926 0.010247 0.005009 -0.072261 0.036349 -1.024553
    36 1.100770 0.004528 -0.010675 0.000000 0.000000 -0.656580
    37 0.957766 -2.746777 -0.090301 0.186395 -0.051003 0.111154
    38 -0.033419 -1.397128 -0.011255 -0.832707 -0.018181 -0.065532
    39 -0.022361 -0.957433 0.018783 -0.892996 0.000000 0.000000
    40 0.250029 -2.820664 -0.238396 -0.282660 0.057277 -0.106688
    41 -0.049759 -1.680544 0.100479 -2.038330 0.000000 0.000000
    42 -0.034141 -1.148311 0.084779 -1.027525 0.000000 0.000000
    43 -0.488517 -2.755600 -0.228261 -0.195785 0.054586 -0.144146
    44 0.039889 -1.479791 0.029854 -2.069978 0.000000 0.000000
    45 0.028785 -1.075733 -0.023110 -0.841838 0.000000 0.000000
    46 -1.180679 -2.507216 -0.193861 0.008677 0.244088 -0.056758
    47 -0.024967 -1.123934 0.017595 -1.480202 0.000000 0.000000
    48 -0.020058 -0.890965 0.010091 -1.338819 0.000000 0.000000
    49 0.120180 -0.051600 -0.055246 0.287567 -3.172226 1.561008
  time 13
    0 0.090431 -4.846528 -7.321247 0.136749 3.095467 0.483890
    1 0.096946 -8.450420 -0.009364 -0.100593 0.055904 0.487500
    2 -0.192877 -2.997167 0.750521 0.973027 -1.502063 -0.975592
    3 0.000000 -1.808650 1.012937 0.000000 0.000000 0.000000
    4 0.000000 0.706666 0.002903 0.000000 0.000000 0.000000
    5 0.000000 2.290614 1.335354 0.000000 0.000000 0.000000
    6 -0.115835 -1.983282 1.652799 0.000000 0.000000 0.000000
    7 -0.194965 1.740244 -0.776688 0.000000 0.000000 0.000000
    8 0.000000 -0.273072 1.043217 0.000000 0.000000 0.000000
    9 -0.557600 -4.693166 -5.551662 0.053356 -3.539784 -0.385905
    10 -0.071918 -8.498731 -0.104137 -0.279870 0.525389 -0.344539
    11 0.270583 -2.982786 0.320373 0.554706 1.379928 0.480518
    12 -0.000001 -1.808650 1.012938 0.000000 0.000000 0.000000
    13 -0.115835 -1.983282 1.652800 0.000000 0.000000 0.000000
    14 0.000000 2.290614 1.335354 0.000000 0.000000 0.000000
    15 0.000001 0.706665 0.002903 0.000000 0.000000 0.000000
    16 -0.194964 1.736338 -0.761062 0.000000 0.000000 0.000000
    17 0.000000 -0.273071 1.043216 0.000000 0.000000 0.000000
    18 -0.586769 -1.264477 0.200164 -0.224469 -0.772272 -2.217911
    19 1.522835 0.058680 0.016850 -0.042975 0.166884 0.909410
    20 1.117947 0.048424 -0.005765 0.000000 0.000000 0.104201
    21 -0.963867 -2.785143 -0.085346 0.230928 0.199964 -0.171417
    22 0.028478 -1.403067 0.006272 -0.460171 -0.000007 -0.000010
    23 0.021412 -0.957782 0.020047 -0.782811 -0.000003 -0.000008
    24 -0.249534 -2.846963 -0.174215 -0.001196 0.000966 -0.025445
    25 0.043235 -1.683940 0.096015 -1.794469 -0.002684 -0.000611
    26 0.031729 -1.160830 0.058836 -0.492792 0.000000 0.000000
    27 0.447951 -2.798983 -0.200441 -0.016250 0.053282 0.116306
    28 -0.032909 -1.480207 0.004935 -1.740911 0.000000 0.000000
    29 -0.027023 -1.076921 -0.020212 -0.750439 0.000000 0.000000
    30 1.164474 -2.543939 -0.170327 -0.799188 0.027504 0.023290
    31 0.024033 -1.129040 0.017807 -1.291468 -0.100239 0.187007
    32 0.014896 -0.883992 -0.019846 -1.454038 0.101857 0.002205
    33 0.013508 -0.140411 -0.025406 0.193916 0.031410 1.523979
    34 0.583509 -1.197274 0.185379 -0.077873 -0.765978 -0.796238
    35 1.535926 0.010247 0.005009 -0.072381 0.036337 -1.025968
    36 1.100770 0.004528 -0.010675 0.000000 0.000000 -0.659639
    37 0.957766 -2.746777 -0.090301 0.189364 -0.051003 0.111154
    38 -0.033419 -1.397128 -0.011255 -0.824189 -0.018001 -0.065316
    39 -0.022361 -0.957433 0.018783 -0.888716 0.000000 0.000000
    40 0.250029 -2.820664 -0.238396 -0.282660 0.057277 -0.106688
    41 -0.049759 -1.680544 0.100479 -2.032771 0.000000 0.000000
    42 -0.034141 -1.148311 0.084779 -1.029701 0.000000 0.000000
    43 -0.488517 -2.755600 -0.228261 -0.195785 0.054586 -0.144146
    44 0.039889 -1.479791 0.029854 -2.064044 0.000000 0.000000
    45 0.028785 -1.075733 -0.023110 -0.841838 0.000000 0.000000
    46 -1.180679 -2.507216 -0.193861 0.008677 0.244088 -0.056758
    47 -0.024967 -1.123934 0.017595 -1.477243 0.000000 0.000000
    48 -0.020058 -0.890965 0.010091 -1.332292 0.000000 0.000000
    49 0.120180 -0.051600 -0.055246 0.287567 -3.172226 1.561008
  time 14
    0 0.090431 -4.846528 -7.356405 0.140253 3.094498 0.478394
    1 0.096946 -8.450420 -0.009364 -0.100061 0.057208 0.484612
    2 -0.192877 -2.997167 0.750521 0.973027 -1.502063 -0.975592
    3 0.000000 -1.808650 1.012937 0.000000 0.000000 0.000000
    4 0.000000 0.706666 0.002903 0.000000 0.000000 0.000000
    5 0.000000 2.290614 1.335354 0.000000 0.000000 0.000000
    6 -0.115835 -1.983282 1.652799 0.000000 0.000000 0.000000
    7 -0.194965 1.740244 -0.776688 0.000000 0.000000 0.000000
    8 0.000000 -0.273072 1.043217 0.000000 0.000000 0.000000
    9 -0.557600 -4.642383 -5.551662 0.053451 -3.550698 -0.384503
    10 -0.071918 -8.498731 -0.104137 -0.286054 0.528360 -0.348234
    11 0.270583 -2.982786 0.320373 0.554706 1.379928 0.480518
    12 -0.000001 -1.808650 1.012938 0.000000 0.000000 0.000000
    13 -0.115835 -1.983282 1.652800 0.000000 0.000000 0.000000
    14 0.000000 2.290614 1.335354 0.000000 0.000000 0.000000
    15 0.000001 0.706665 0.002903 0.000000 0.000000 0.000000
    16 -0.194964 1.736338 -0.761062 0.000000 0.000000 0.000000
    17 0.000000 -0.273071 1.043216 0.000000 0.000000 0.000000
    18 -0.586769 -1.264477 0.200164 -0.224469 -0.772272 -2.217911
    19 1.522835 0.058680 0.016850 -0.042975 0.166884 0.909410
    20 1.117947 0.048424 -0.005765 0.000000 0.000000 0.104201
    21 -0.963867 -2.785143 -0.085346 0.230928 0.199964 -0.171417
    22 0.028478 -1.403067 0.006272 -0.460171 -0.000007 -0.000010
    23 0.021412 -0.957782 0.020047 -0.782811 -0.000003 -0.000008
    24 -0.249534 -2.846963 -0.174215 -0.001196 0.000966 -0.025445
    25 0.043235 -1.683940 0.096015 -1.794469 -0.002684 -0.000611
    26 0.031729 -1.160830 0.058836 -0.492792 0.000000 0.000000
    27 0.447951 -2.798983 -0.200441 -0.016250 0.053282 0.116306
    28 -0.032909 -1.480207 0.004935 -1.740911 0.000000 0.000000
    29 -0.027023 -1.076921 -0.020212 -0.750439 0.000000 0.000000
    30 1.164474 -2.543939 -0.170327 -0.799188 0.027504 0.023290
    31 0.024033 -1.129040 0.017807 -1.291468 -0.100239 0.187007
    32 0.014896 -0.883992 -0.019846 -1.454038 0.101857 0.002205
    33 0.001789 -0.136505 -0.021499 0.192730 0.030883 1.538816
    34 0.583509 -1.197274 0.185379 -0.077873 -0.765978 -0.796238
    35 1.535926 0.010247 0.005009 -0.072549 0.036325 -1.028117
    36 1.100770 0.004528 -0.010675 0.000000 0.000000 -0.664287
    37 0.957766 -2.746777 -0.090301 0.191601 -0.051003 0.111154
    38 -0.033419 -1.397128 -0.011255 -0.816825 -0.017821 -0.065088
    39 -0.022361 -0.957433 0.018783 -0.884355 0.000000 0.000000
    40 0.250029 -2.820664 -0.238396 -0.282660 0.057277 -0.106688
    41 -0.049759 -1.680544 0.100479 -2.024378 0.000000 0.000000
    42 -0.034141 -1.148311 0.084779 -1.032992 0.000000 0.000000
    43 -0.488517 -2.755600 -0.228261 -0.195785 0.054586 -0.144146
    44 0.039889 -1.479791 0.029854 -2.055100 0.000000 0.000000
    45 0.028785 -1.075733 -0.023110 -0.841838 0.000000 0.000000
    46 -1.180679 -2.507216 -0.193861 0.008677 0.244088 -0.056758
    47 -0.024967 -1.123934 0.017595 -1.472768 0.000000 0.000000
    48 -0.020058 -0.890965 0.010091 -1.322405 0.000000 0.000000
    49 0.120180 -0.051600 -0.055246 0.287567 -3.172226 1.561008
  time 15
    0 0.090431 -4.846528 -7.383749 0.143379 3.093682 0.473605
    1 0.096946 -8.450420 -0.009364 -0.098827 0.058512 0.480729
    2 -0.192877 -2.997167 0.750521 0.973027 -1.502063 -0.975592
    3 0.000000 -1.808650 1.012937 0.000000 0.000000 0.000000
    4 0.000000 0.706666 0.002903 0.000000 0.000000 0.000000
    5 0.000000 2.290614 1.335354 0.000000 0.000000 0.000000
    6 -0.115835 -1.983282 1.652799 0.000000 0.000000 0.000000
    7 -0.194965 1.740244 -0.776688 0.000000 0.000000 0.000000
    8 0.000000 -0.273072 1.043217 0.000000 0.000000 0.000000
    9 -0.557600 -4.540817 -5.551662 0.053735 -3.560212 -0.383287
    10 -0.071918 -8.498731 -0.104137 -0.295499 0.526131 -0.358492
    11 0.270583 -2.982786 0.320373 0.554706 1.379928 0.480518
    12 -0.000001 -1.808650 1.012938 0.000000 0.000000 0.000000
    13 -0.115835 -1.983282 1.652800 0.000000 0.000000 0.000000
    14 0.000000 2.290614 1.335354 0.000000 0.000000 0.000000
    15 0.000001 0.706665 0.002903 0.000000 0.000000 0.000000
    16 -0.194964 1.736338 -0.761062 0.000000 0.000000 0.000000
    17 0.000000 -0.273071 1.043216 0.000000 0.000000 0.000000
    18 -0.586769 -1.264477 0.200164 -0.224469 -0.772272 -2.217911
    19 1.522835 0.058680 0.016850 -0.042975 0.166884 0.909410
    20 1.117947 0.048424 -0.005765 0.000000 0.000000 0.104201
    21 -0.963867 -2.785143 -0.085346 0.230928 0.199964 -0.171417
    22 0.028478 -1.403067 0.006272 -0.460171 -0.000007 -0.000010
    23 0.021412 -0.957782 0.020047 -0.782811 -0.000003 -0.000008
    24 -0.249534 -2.846963 -0.174215 -0.001196 0.000966 -0.025445
    25 0.043235 -1.683940 0.096015 -1.794469 -0.002684 -0.000611
    26 0.031729 -1.160830 0.058836 -0.492792 0.000000 0.000000
    27 0.447951 -2.798983 -0.200441 -0.016250 0.053282 0.116306
    28 -0.032909 -1.480207 0.004935 -1.740911 0.000000 0.000000
    29 -0.027023 -1.076921 -0.020212 -0.750439 0.000000 0.000000
    30 1.164474 -2.543939 -0.170327 -0.799188 0.027504 0.023290
    31 0.024033 -1.129040 0.017807 -1.291468 -0.100239 0.187007
    32 0.014896 -0.883992 -0.019846 -1.454058 0.101857 0.002205
    33 -0.006024 -0.132598 -0.017593 0.191471 0.030355 1.553796
    34 0.583509 -1.197274 0.185379 -0.077873 -0.765978 -0.796238
    35 1.535926 0.010247 0.005009 -0.072801 0.036313 -1.031055
    36 1.100770 0.004528 -0.010675 0.000000 0.000000 -0.670693
    37 0.957766 -2.746777 -0.090301 0.193143 -0.051003 0.111154
    38 -0.033419 -1.397128 -0.011255 -0.810513 -0.017641 -0.064861
    39 -0.022361 -0.957433 0.018783 -0.879939 0.000000 0.000000
    40 0.250029 -2.820664 -0.238396 -0.282660 0.057277 -0.106688
    41 -0.049759 -1.680544 0.100479 -2.012794 0.000000 0.000000
    42 -0.034141 -1.148311 0.084779 -1.037503 0.000000 0.000000
    43 -0.488517 -2.755600 -0.228261 -0.195785 0.054586 -0.144146
    44 0.039889 -1.479791 0.029854 -2.042748 0.000000 0.000000
    45 0.028785 -1.075733 -0.023110 -0.841838 0.000000 0.000000
    46 -1.180679 -2.507216 -0.193861 0.008677 0.244088 -0.056758
    47 -0.024967 -1.123934 0.017595 -1.466594 0.000000 0.000000
    48 -0.020058 -0.890965 0.010091 -1.308778 0.000000 0.000000
    49 0.120180 -0.051600 -0.055246 0.287567 -3.172226 1.561008
  time 16
    0 0.090431 -4.846528 -7.411094 0.145937 3.092968 0.469632
    1 0.096946 -8.450420 -0.009364 -0.096720 0.059855 0.475599
    2 -0.192877 -2.997167 0.750521 0.973027 -1.502063 -0.975592
    3 0.000000 -1.808650 1.012937 0.000000 0.000000 0.000000
    4 0.000000 0.706666 0.002903 0.000000 0.000000 0.000000
    5 0.000000 2.290614 1.335354 0.000000 0.000000 0.000000
    6 -0.115835 -1.983282 1.652799 0.000000 0.000000 0.000000
    7 -0.194965 1.740244 -0.776688 0.000000 0.000000 0.000000
    8 0.000000 -0.273072 1.043217 0.000000 0.000000 0.000000
    9 -0.557600 -4.400188 -5.551662 0.054208 -3.566928 -0.382446
    10 -0.071918 -8.498731 -0.104137 -0.308488 0.519846 -0.371877
    11 0.270583 -2.982786 0.320373 0.554706 1.379928 0.480518
    12 -0.000001 -1.808650 1.012938 0.000000 0.000000 0.000000
    13 -0.115835 -1.983282 1.652800 0.000000 0.000000 0.000000
    14 0.000000 2.290614 1.335354 0.000000 0.000000 0.000000
    15 0.000001 0.706665 0.002903 0.000000 0.000000 0.000000
    16 -0.194964 1.736338 -0.761062 0.000000 0.000000 0.000000
    17 0.000000 -0.273071 1.043216 0.000000 0.000000 0.000000
    18 -0.586769 -1.264477 0.200164 -0.224469 -0.772272 -2.217911
    19 1.522835 0.058680 0.016850 -0.042975 0.166884 0.909410
    20 1.117947 0.048424 -0.005765 0.000000 0.000000 0.104201
    21 -0.963867 -2.785143 -0.085346 0.230928 0.199964 -0.171417
    22 0.028478 -1.403067 0.006272 -0.460171 -0.000007 -0.000010
    23 0.021412 -0.957782 0.020047 -0.782811 -0.000003 -0.000008
    24 -0.249534 -2.846963 -0.174215 -0.001196 0.000966 -0.025445
    25 0.043235 -1.683940 0.096015 -1.794469 -0.002684 -0.000611
    26 0.031729 -1.160830 0.058836 -0.492792 0.000000 0.000000
    27 0.447951 -2.798983 -0.200441 -0.016250 0.053282 0.116306
    28 -0.032909 -1.480207 0.004935 -1.740911 0.000000 0.000000
    29 -0.027023 -1.076921 -0.020212 -0.750439 0.000000 0.000000
    30 1.164474 -2.543939 -0.170327 -0.799188 0.027504 0.023290
    31 0.024033 -1.129040 0.017807 -1.291468 -0.100239 0.187007
    32 0.014896 -0.883992 -0.019846 -1.454038 0.101857 0.002205
    33 -0.013837 -0.132598 -0.013686 0.190153 0.029840 1.568765
    34 0.583509 -1.197274 0.185379 -0.077873 -0.765978 -0.796238
    35 1.535926 0.010247 0.005009 -0.073112 0.036301 -1.034890
    36 1.100770 0.004528 -0.010675 0.000000 0.000000 -0.678978
    37 0.957766 -2.746777 -0.090301 0.194082 -0.051003 0.111154
    38 -0.033419 -1.397128 -0.011255 -0.805176 -0.017450 -0.064609
    39 -0.022361 -0.957433 0.018783 -0.875468 0.000000 0.000000
    40 0.250029 -2.820664 -0.238396 -0.282660 0.057277 -0.106688
    41 -0.049759 -1.680544 0.100479 -1.997766 0.000000 0.000000
    42 -0.034141 -1.148311 0.084779 -1.043341 0.000000 0.000000
    43 -0.488517 -2.755600 -0.228261 -0.195785 0.054586 -0.144146
    44 0.039889 -1.479791 0.029854 -2.026748 0.000000 0.000000
    45 0.028785 -1.075733 -0.023110 -0.841838 0.000000 0.000000
    46 -1.180679 -2.507216 -0.193861 0.008677 0.244088 -0.056758
    47 -0.024967 -1.123934 0.017595 -1.458576 0.000000 0.000000
    48 -0.020058 -0.890965 0.010091 -1.291104 0.000000 0.000000
    49 0.120180 -0.051600 -0.055246 0.287567 -3.172226 1.561008
  time 17
    0 0.090431 -4.846528 -7.430626 0.147926 3.092407 0.466585
    1 0.096946 -8.450420 -0.009364 -0.093550 0.061239 0.468972
    2 -0.192877 -2.997167 0.750521 0.973027 -1.502063 -0.975592
    3 0.000000 -1.808650 1.012937 0.000000 0.000000 0.000000
    4 0.000000 0.706666 0.002903 0.000000 0.000000 0.000000
    5 0.000000 2.290614 1.335354 0.000000 0.000000 0.000000
    6 -0.115835 -1.983282 1.652799 0.000000 0.000000 0.000000
    7 -0.194965 1.740244 -0.776688 0.000000 0.000000 0.000000
    8 0.000000 -0.273072 1.043217 0.000000 0.000000 0.000000
    9 -0.557600 -4.232214 -5.551662 0.054775 -3.569503 -0.382072
    10 -0.071918 -8.498731 -0.104137 -0.322772 0.510741 -0.386655
    11 0.270583 -2.982786 0.320373 0.554706 1.379928 0.480518
    12 -0.000001 -1.808650 1.012938 0.000000 0.000000 0.000000
    13 -0.115835 -1.983282 1.652800 0.000000 0.000000 0.000000
    14 0.000000 2.290614 1.335354 0.000000 0.000000 0.000000
    15 0.000001 0.706665 0.002903 0.000000 0.000000 0.000000
    16 -0.194964 1.736338 -0.761062 0.000000 0.000000 0.000000
    17 0.000000 -0.273071 1.043216 0.000000 0.000000 0.000000
    18 -0.586769 -1.264477 0.200164 -0.224469 -0.772272 -2.217911
    19 1.522835 0.058680 0.016850 -0.042975 0.166884 0.909410
    20 1.117947 0.048424 -0.005765 0.000000 0.000000 0.104201
    21 -0.963867 -2.785143 -0.085346 0.230928 0.199964 -0.171417
    22 0.028478 -1.403067 0.006272 -0.460171 -0.000007 -0.000010
    23 0.021412 -0.957782 0.020047 -0.782811 -0.000003 -0.000008
    24 -0.249534 -2.846963 -0.174215 -0.001196 0.000966 -0.025445
    25 0.043235 -1.683940 0.096015 -1.794469 -0.002684 -0.000611
    26 0.031729 -1.160830 0.058836 -0.492792 0.000000 0.000000
    27 0.447951 -2.798983 -0.200441 -0.016250 0.053282 0.116306
    28 -0.032909 -1.480207 0.004935 -1.740911 0.000000 0.000000
    29 -0.027023 -1.076921 -0.020212 -0.750439 0.000000 0.000000
    30 1.164474 -2.543939 -0.170327 -0.799188 0.027504 0.023290
    31 0.024033 -1.129040 0.017807 -1.291468 -0.100239 0.187007
    32 0.014896 -0.883992 -0.019846 -1.454038 0.101857 0.002205
    33 -0.025556 -0.128692 -0.013686 0.188787 0.029325 1.583602
    34 0.583509 -1.197274 0.185379 -0.077873 -0.765978 -0.796238
    35 1.535926 0.010247 0.005009 -0.073496 0.036277 -1.039542
    36 1.100770 0.004528 -0.010675 0.000000 0.000000 -0.689021
    37 0.957766 -2.746777 -0.090301 0.194480 -0.051003 0.111154
    38 -0.033419 -1.397128 -0.011255 -0.800660 -0.017246 -0.064357
    39 -0.022361 -0.957433 0.018783 -0.870970 0.000000 0.000000
    40 0.250029 -2.820664 -0.238396 -0.282660 0.057277 -0.106688
    41 -0.049759 -1.680544 0.100479 -1.979546 0.000000 0.000000
    42 -0.034141 -1.148311 0.084779 -1.050454 0.000000 0.000000
    43 -0.488517 -2.755600 -0.228261 -0.195785 0.054586 -0.144146
    44 0.039889 -1.479791 0.029854 -2.007342 0.000000 0.000000
    45 0.028785 -1.075733 -0.023110 -0.841838 0.000000 0.000000
    46 -1.180679 -2.507216 -0.193861 0.008677 0.244088 -0.056758
    47 -0.024967 -1.123934 0.017595 -1.448877 0.000000 0.000000
    48 -0.020058 -0.890965 0.010091 -1.269651 0.000000 0.000000
    49 0.120180 -0.051600 -0.055246 0.287567 -3.172226 1.561008
  time 18
    0 0.090431 -4.846528 -7.442345 0.149157 3.092101 0.464680
    1 0.096946 -8.450420 -0.009364 -0.089125 0.062622 0.460594
    2 -0.192877 -2.997167 0.750521 0.973027 -1.502063 -0.975592
    3 0.000000 -1.808650 1.012937 0.000000 0.000000 0.000000
    4 0.000000 0.706666 0.002903 0.000000 0.000000 0.000000
    5 0.000000 2.290614 1.335354 0.000000 0.000000 0.000000
    6 -0.115835 -1.983282 1.652799 0.000000 0.000000 0.000000
    7 -0.194965 1.740244 -0.776688 0.000000 0.000000 0.000000
    8 0.000000 -0.273072 1.043217 0.000000 0.000000 0.000000
    9 -0.557600 -4.056428 -5.551662 0.055343 -3.566480 -0.382352
    10 -0.071918 -8.498731 -0.104137 -0.336124 0.500189 -0.401120
    11 0.270583 -2.982786 0.320373 0.554706 1.379928 0.480518
    12 -0.000001 -1.808650 1.012938 0.000000 0.000000 0.000000
    13 -0.115835 -1.983282 1.652800 0.000000 0.000000 0.000000
    14 0.000000 2.290614 1.335354 0.000000 0.000000 0.000000
    15 0.000001 0.706665 0.002903 0.000000 0.000000 0.000000
    16 -0.194964 1.736338 -0.761062 0.000000 0.000000 0.000000
    17 0.000000 -0.273071 1.043216 0.000000 0.000000 0.000000
    18 -0.586769 -1.264477 0.200164 -0.224469 -0.772272 -2.217911
    19 1.522835 0.058680 0.016850 -0.042975 0.166884 0.909410
    20 1.117947 0.048424 -0.005765 0.000000 0.000000 0.104201
    21 -0.963867 -2.785143 -0.085346 0.230928 0.199964 -0.171417
    22 0.028478 -1.403067 0.006272 -0.460171 -0.000007 -0.000010
    23 0.021412 -0.957782 0.020047 -0.782811 -0.000003 -0.000008
    24 -0.249534 -2.846963 -0.174215 -0.001196 0.000966 -0.025445
    25 0.043235 -1.683940 0.096015 -1.794469 -0.002684 -0.000611
    26 0.031729 -1.160830 0.058836 -0.492792 0.000000 0.000000
    27 0.447951 -2.798983 -0.200441 -0.016250 0.053282 0.116306
    28 -0.032909 -1.480207 0.004935 -1.740911 0.000000 0.000000
    29 -0.027023 -1.076921 -0.020212 -0.750439 0.000000 0.000000
    30 1.164474 -2.543939 -0.170327 -0.799188 0.027504 0.023290
    31 0.024033 -1.129040 0.017807 -1.291468 -0.100239 0.187007
    32 0.014896 -0.883992 -0.019846 -1.454038 0.101857 0.002205
    33 -0.033369 -0.128692 -0.009780 0.187384 0.028833 1.598163
    34 0.583509 -1.197274 0.185379 -0.077873 -0.765978 -0.796238
    35 1.535926 0.010247 0.005009 -0.073939 0.036253 -1.044902
    36 1.100770 0.004528 -0.010675 0.000000 0.000000 -0.700654
    37 0.957766 -2.746777 -0.090301 0.194416 -0.051003 0.111154
    38 -0.033419 -1.397128 -0.011255 -0.796888 -0.017054 -0.064106
    39 -0.022361 -0.957433 0.018783 -0.866418 0.000000 0.000000
    40 0.250029 -2.820664 -0.238396 -0.282660 0.057277 -0.106688
    41 -0.049759 -1.680544 0.100479 -1.958493 0.000000 0.000000
    42 -0.034141 -1.148311 0.084779 -1.058680 0.000000 0.000000
    43 -0.488517 -2.755600 -0.228261 -0.195785 0.054586 -0.144146
    44 0.039889 -1.479791 0.029854 -1.984925 0.000000 0.000000
    45 0.028785 -1.075733 -0.023110 -0.841838 0.000000 0.000000
    46 -1.180679 -2.507216 -0.193861 0.008677 0.244088 -0.056758
    47 -0.024967 -1.123934 0.017595 -1.437644 0.000000 0.000000
    48 -0.020058 -0.890965 0.010091 -1.244878 0.000000 0.000000
    49 0.120180 -0.051600 -0.055246 0.287567 -3.172226 1.561008
  time 19
    0 0.090431 -4.846528 -7.446251 0.149631 3.091948 0.463973
    1 0.096946 -8.450420 -0.009364 -0.083231 0.064005 0.450216
    2 -0.192877 -2.997167 0.750521 0.973027 -1.502063 -0.975592
    3 0.000000 -1.808650 1.012937 0.000000 0.000000 0.000000
    4 0.000000 0.706666 0.002903 0.000000 0.000000 0.000000
    5 0.000000 2.290614 1.335354 0.000000 0.000000 0.000000
    6 -0.115835 -1.983282 1.652799 0.000000 0.000000 0.000000
    7 -0.194965 1.740244 -0.776688 0.000000 0.000000 0.000000
    8 0.000000 -0.273072 1.043217 0.000000 0.000000 0.000000
    9 -0.557600 -3.876735 -5.551662 0.055910 -3.556462 -0.383568
    10 -0.071918 -8.498731 -0.104137 -0.346500 0.489579 -0.413794
    11 0.270583 -2.982786 0.320373 0.554706 1.379928 0.480518
    12 -0.000001 -1.808650 1.012938 0.000000 0.000000 0.000000
    13 -0.115835 -1.983282 1.652800 0.000000 0.000000 0.000000
    14 0.000000 2.290614 1.335354 0.000000 0.000000 0.000000
    15 0.000001 0.706665 0.002903 0.000000 0.000000 0.000000
    16 -0.194964 1.736338 -0.761062 0.000000 0.000000 0.000000
    17 0.000000 -0.273071 1.043216 0.000000 0.000000 0.000000
    18 -0.586769 -1.264477 0.200164 -0.224469 -0.772272 -2.217911
    19 1.522835 0.058680 0.016850 -0.042975 0.166884 0.909410
    20 1.117947 0.048424 -0.005765 0.000000 0.000000 0.104201
    21 -0.963867 -2.785143 -0.085346 0.230928 0.199964 -0.171417
    22 0.028478 -1.403067 0.006272 -0.460171 -0.000007 -0.000010
    23 0.021412 -0.957782 0.020047 -0.782811 -0.000003 -0.000008
    24 -0.249534 -2.846963 -0.174215 -0.001196 0.000966 -0.025445
    25 0.043235 -1.683940 0.096015 -1.794469 -0.002684 -0.000611
    26 0.031729 -1.160830 0.058836 -0.492792 0.000000 0.000000
    27 0.447951 -2.798983 -0.200441 -0.016250 0.053282 0.116306
    28 -0.032909 -1.480207 0.004935 -1.740911 0.000000 0.000000
    29 -0.027023 -1.076921 -0.020212 -0.750439 0.000000 0.000000
    30 1.164474 -2.543939 -0.170327 -0.799188 0.027504 0.023290
    31 0.024033 -1.129040 0.017807 -1.291468 -0.100239 0.187007
    32 0.014896 -0.883992 -0.019846 -1.454038 0.101857 0.002205
    33 -0.041181 -0.128692 -0.005874 0.185970 0.028378 1.612329
    34 0.583509 -1.197274 0.185379 -0.077873 -0.765978 -0.796238
    35 1.535926 0.010247 0.005009 -0.074431 0.036217 -1.050914
    36 1.100770 0.004528 -0.010675 0.000000 0.000000 -0.713636
    37 0.957766 -2.746777 -0.090301 0.193940 -0.051003 0.111154
    38 -0.033419 -1.397128 -0.011255 -0.793732 -0.016850 -0.063842
    39 -0.022361 -0.957433 0.018783 -0.861838 0.000000 0.000000
    40 0.250029 -2.820664 -0.238396 -0.282660 0.057277 -0.106688
    41 -0.049759 -1.680544 0.100479 -1.934965 0.000000 0.000000
    42 -0.034141 -1.148311 0.084779 -1.067862 0.000000 0.000000
    43 -0.488517 -2.755600 -0.228261 -0.195785 0.054586 -0.144146
    44 0.039889 -1.479791 0.029854 -1.959848 0.000000 0.000000
    45 0.028785 -1.075733 -0.023110 -0.841838 0.000000 0.000000
    46 -1.180679 -2.507216 -0.193861 0.008677 0.244088 -0.056758
    47 -0.024967 -1.123934 0.017595 -1.425096 0.000000 0.000000
    48 -0.020058 -0.890965 0.010091 -1.217203 0.000000 0.000000
    49 0.120180 -0.051600 -0.055246 0.287567 -3.172226 1.561008
  time 20
    0 -0.190828 -4.709805 -7.457970 0.139874 3.049355 0.465115
    1 0.096946 -8.450420 -0.009364 -0.074806 0.070960 0.430142
    2 -0.192877 -2.997167 0.750521 0.973027 -1.502063 -0.975592
    3 0.000000 -1.808650 1.012937 0.000000 0.000000 0.000000
    4 0.000000 0.706666 0.002903 0.000000 0.000000 0.000000
    5 0.000000 2.290614 1.335354 0.000000 0.000000 0.000000
    6 -0.115835 -1.983282 1.652799 0.000000 0.000000 0.000000
    7 -0.194965 1.740244 -0.776688 0.000000 0.000000 0.000000
    8 0.000000 -0.273072 1.043217 0.000000 0.000000 0.000000
    9 -0.557600 -3.708761 -5.551662 0.056383 -3.538161 -0.385905
    10 -0.071918 -8.498731 -0.104137 -0.351934 0.480398 -0.423201
    11 0.270583 -2.982786 0.320373 0.554706 1.379928 0.480518
    12 -0.000001 -1.808650 1.012938 0.000000 0.000000 0.000000
    13 -0.115835 -1.983282 1.652800 0.000000 0.000000 0.000000
    14 0.000000 2.290614 1.335354 0.000000 0.000000 0.000000
    15 0.000001 0.706665 0.002903 0.000000 0.000000 0.000000
    16 -0.194964 1.736338 -0.761062 0.000000 0.000000 0.000000
    17 0.000000 -0.273071 1.043216 0.000000 0.000000 0.000000
    18 -0.586769 -1.264477 0.200164 -0.224469 -0.772272 -2.217911
    19 1.522835 0.058680 0.016850 -0.042975 0.166884 0.909410
    20 1.117947 0.048424 -0.005765 0.000000 0.000000 0.104201
    21 -0.963867 -2.785143 -0.085346 0.230928 0.199964 -0.171417
    22 0.028478 -1.403067 0.006272 -0.460171 -0.000007 -0.000010
    23 0.021412 -0.957782 0.020047 -0.782811 -0.000003 -0.000008
    24 -0.249534 -2.846963 -0.174215 -0.001196 0.000966 -0.025445
    25 0.043235 -1.683940 0.096015 -1.794469 -0.002684 -0.000611
    26 0.031729 -1.160830 0.058836 -0.492792 0.000000 0.000000
    27 0.447951 -2.798983 -0.200441 -0.016250 0.053282 0.116306
    28 -0.032909 -1.480207 0.004935 -1.740911 0.000000 0.000000
    29 -0.027023 -1.076921 -0.020212 -0.750439 0.000000 0.000000
    30 1.164474 -2.543939 -0.170327 -0.799188 0.027504 0.023290
    31 0.024033 -1.129040 0.017807 -1.291468 -0.100239 0.187007
    32 0.014896 -0.883992 -0.019846 -1.454038 0.101857 0.002205
    33 -0.048994 -0.124786 -0.005874 0.184556 0.027934 1.625956
    34 0.583509 -1.197274 0.185379 -0.077873 -0.765978 -0.796238
    35 1.535926 0.010247 0.005009 -0.074970 0.036169 -1.057443
    36 1.100770 0.004528 -0.010675 0.000000 0.000000 -0.727821
    37 0.957766 -2.746777 -0.090301 0.193143 -0.051003 0.111154
    38 -0.033419 -1.397128 -0.011255 -0.791090 -0.016635 -0.063578
    39 -0.022361 -0.957433 0.018783 -0.857204 0.000000 0.000000
    40 0.250029 -2.820664 -0.238396 -0.282660 0.057277 -0.106688
    41 -0.049759 -1.680544 0.100479 -1.909303 0.000000 0.000000
    42 -0.034141 -1.148311 0.084779 -1.077894 0.000000 0.000000
    43 -0.488517 -2.755600 -0.228261 -0.195785 0.054586 -0.144146
    44 0.039889 -1.479791 0.029854 -1.932508 0.000000 0.000000
    45 0.028785 -1.075733 -0.023110 -0.841838 0.000000 0.000000
    46 -1.180679 -2.507216 -0.193861 0.008677 0.244088 -0.056758
    47 -0.024967 -1.123934 0.017595 -1.411416 0.000000 0.000000
    48 -0.020058 -0.890965 0.010091 -1.187009 0.000000 0.000000
    49 0.120180 -0.051600 -0.055246 0.287567 -3.172226 1.561008
  time 21
    0 -0.960382 -4.346513 -7.485315 0.116668 2.940910 0.472299
    1 0.096946 -8.450420 -0.009364 -0.062423 0.083843 0.397927
    2 -0.192877 -2.997167 0.750521 0.973027 -1.502063 -0.975592
    3 0.000000 -1.808650 1.012937 0.000000 0.000000 0.000000
    4 0.000000 0.706666 0.002903 0.000000 0.000000 0.000000
    5 0.000000 2.290614 1.335354 0.000000 0.000000 0.000000
    6 -0.115835 -1.983282 1.652799 0.000000 0.000000 0.000000
    7 -0.194965 1.740244 -0.776688 0.000000 0.000000 0.000000
    8 0.000000 -0.273072 1.043217 0.000000 0.000000 0.000000
    9 -0.557600 -3.568132 -5.551662 0.056856 -3.510065 -0.389364
    10 -0.071918 -8.498731 -0.104137 -0.350563 0.474151 -0.428060
    11 0.270583 -2.982786 0.320373 0.554706 1.379928 0.480518
    12 -0.000001 -1.808650 1.012938 0.000000 0.000000 0.000000
    13 -0.115835 -1.983282 1.652800 0.000000 0.000000 0.000000
    14 0.000000 2.290614 1.335354 0.000000 0.000000 0.000000
    15 0.000001 0.706665 0.002903 0.000000 0.000000 0.000000
    16 -0.194964 1.736338 -0.761062 0.000000 0.000000 0.000000
    17 0.000000 -0.273071 1.043216 0.000000 0.000000 0.000000
    18 -0.586769 -1.264477 0.200164 -0.224469 -0.772272 -2.217911
    19 1.522835 0.058680 0.016850 -0.042975 0.166884 0.909410
    20 1.117947 0.048424 -0.005765 0.000000 0.000000 0.104201
    21 -0.963867 -2.785143 -0.085346 0.230928 0.199964 -0.171417
    22 0.028478 -1.403067 0.006272 -0.460171 -0.000007 -0.000010
    23 0.021412 -0.957782 0.020047 -0.782811 -0.000003 -0.000008
    24 -0.249534 -2.846963 -0.174215 -0.001196 0.000966 -0.025445
    25 0.043235 -1.683940 0.096015 -1.794469 -0.002684 -0.000611
    26 0.031729 -1.160830 0.058836 -0.492792 0.000000 0.000000
    27 0.447951 -2.798983 -0.200441 -0.016250 0.053282 0.116306
    28 -0.032909 -1.480207 0.004935 -1.740911 0.000000 0.000000
    29 -0.027023 -1.076921 -0.020212 -0.750439 0.000000 0.000000
    30 1.164474 -2.543939 -0.170327 -0.799188 0.027504 0.023290
    31 0.024033 -1.129040 0.017807 -1.291468 -0.100239 0.187007
    32 0.014896 -0.883992 -0.019846 -1.454038 0.101857 0.002205
    33 -0.056807 -0.124786 -0.001967 0.183154 0.027527 1.638911
    34 0.583509 -1.197274 0.185379 -0.077873 -0.765978 -0.796238
    35 1.535926 0.010247 0.005009 -0.075545 0.036121 -1.064461
    36 1.100770 0.004528 -0.010675 0.000000 0.000000 -0.742970
    37 0.957766 -2.746777 -0.090301 0.192089 -0.051003 0.111154
    38 -0.033419 -1.397128 -0.011255 -0.788832 -0.016431 -0.063303
    39 -0.022361 -0.957433 0.018783 -0.852597 0.000000 0.000000
    40 0.250029 -2.820664 -0.238396 -0.282660 0.057277 -0.106688
    41 -0.049759 -1.680544 0.100479 -1.881847 0.000000 0.000000
    42 -0.034141 -1.148311 0.084779 -1.088615 0.000000 0.000000
    43 -0.488517 -2.755600 -0.228261 -0.195785 0.054586 -0.144146
    44 0.039889 -1.479791 0.029854 -1.903278 0.000000 0.000000
    45 0.028785 -1.075733 -0.023110 -0.841838 0.000000 0.000000
    46 -1.180679 -2.507216 -0.193861 0.008677 0.244088 -0.056758
    47 -0.024967 -1.123934 0.017595 -1.396804 0.000000 0.000000
    48 -0.020058 -0.890965 0.010091 -1.154715 0.000000 0.000000
    49 0.120180 -0.051600 -0.055246 0.287567 -3.172226 1.561008
  time 22
    0 -2.108855 -3.803527 -7.532191 0.089009 2.795687 0.491400
    1 0.096946 -8.450420 -0.009364 -0.044998 0.094908 0.361230
    2 -0.192877 -2.997167 0.750521 0.973027 -1.502063 -0.975592
    3 0.000000 -1.808650 1.012937 0.000000 0.000000 0.000000
    4 0.000000 0.706666 0.002903 0.000000 0.000000 0.000000
    5 0.000000 2.290614 1.335354 0.000000 0.000000 0.000000
    6 -0.115835 -1.983282 1.652799 0.000000 0.000000 0.000000
    7 -0.194965 1.740244 -0.776688 0.000000 0.000000 0.000000
    8 0.000000 -0.273072 1.043217 0.000000 0.000000 0.000000
    9 -0.147432 -3.314218 -5.633696 0.057896 -3.442792 -0.397684
    10 -0.071918 -8.498731 -0.104137 -0.340471 0.472284 -0.426952
    11 0.270583 -2.982786 0.320373 0.554706 1.379928 0.480518
    12 -0.000001 -1.808650 1.012938 0.000000 0.000000 0.000000
    13 -0.115835 -1.983282 1.652800 0.000000 0.000000 0.000000
    14 0.000000 2.290614 1.335354 0.000000 0.000000 0.000000
    15 0.000001 0.706665 0.002903 0.000000 0.000000 0.000000
    16 -0.194964 1.736338 -0.761062 0.000000 0.000000 0.000000
    17 0.000000 -0.273071 1.043216 0.000000 0.000000 0.000000
    18 -0.586769 -1.264477 0.200164 -0.224469 -0.772272 -2.217911
    19 1.522835 0.058680 0.016850 -0.042975 0.166884 0.909410
    20 1.117947 0.048424 -0.005765 0.000000 0.000000 0.104201
    21 -0.963867 -2.785143 -0.085346 0.230928 0.199964 -0.171417
    22 0.028478 -1.403067 0.006272 -0.460171 -0.000007 -0.000010
    23 0.021412 -0.957782 0.020047 -0.782811 -0.000003 -0.000008
    24 -0.249534 -2.846963 -0.174215 -0.001196 0.000966 -0.025445
    25 0.043235 -1.683940 0.096015 -1.794469 -0.002684 -0.000611
    26 0.031729 -1.160830 0.058836 -0.492792 0.000000 0.000000
    27 0.447951 -2.798983 -0.200441 -0.016250 0.053282 0.116306
    28 -0.032909 -1.480207 0.004935 -1.740911 0.000000 0.000000
    29 -0.027023 -1.076921 -0.020212 -0.750439 0.000000 0.000000
    30 1.164474 -2.543939 -0.170327 -0.799188 0.027504 0.023290
    31 0.024033 -1.129040 0.017807 -1.291468 -0.100239 0.187007
    32 0.014896 -0.883992 -0.019846 -1.454038 0.101857 0.002205
    33 -0.064620 -0.120879 0.001939 0.181812 0.027155 1.651063
    34 0.583509 -1.197274 0.185379 -0.077873 -0.765978 -0.796238
    35 1.535926 0.010247 0.005009 -0.076144 0.036073 -1.071806
    36 1.100770 0.004528 -0.010675 0.000000 0.000000 -0.758890
    37 0.957766 -2.746777 -0.090301 0.190843 -0.051003 0.111154
    38 -0.033419 -1.397128 -0.011255 -0.786882 -0.016215 -0.063027
    39 -0.022361 -0.957433 0.018783 -0.847963 0.000000 0.000000
    40 0.250029 -2.820664 -0.238396 -0.282660 0.057277 -0.106688
    41 -0.049759 -1.680544 0.100479 -1.852993 0.000000 0.000000
    42 -0.034141 -1.148311 0.084779 -1.099867 0.000000 0.000000
    43 -0.488517 -2.755600 -0.228261 -0.195785 0.054586 -0.144146
    44 0.039889 -1.479791 0.029854 -1.872531 0.000000 0.000000
    45 0.028785 -1.075733 -0.023110 -0.841838 0.000000 0.000000
    46 -1.180679 -2.507216 -0.193861 0.008677 0.244088 -0.056758
    47 -0.024967 -1.123934 0.017595 -1.381407 0.000000 0.000000
    48 -0.020058 -0.890965 0.010091 -1.120780 0.000000 0.000000
    49 0.120180 -0.051600 -0.055246 0.287567 -3.172226 1.561008
  time 23
    0 -3.530773 -3.127725 -7.590787 0.065803 2.642711 0.528133
    1 0.096946 -8.450420 -0.009364 -0.020806 0.096528 0.327518
    2 -0.192877 -2.997167 0.750521 0.973027 -1.502063 -0.975592
    3 0.000000 -1.808650 1.012937 0.000000 0.000000 0.000000
    4 0.000000 0.706666 0.002903 0.000000 0.000000 0.000000
    5 0.000000 2.290614 1.335354 0.000000 0.000000 0.000000
    6 -0.115835 -1.983282 1.652799 0.000000 0.000000 0.000000
    7 -0.194965 1.740244 -0.776688 0.000000 0.000000 0.000000
    8 0.000000 -0.273072 1.043217 0.000000 0.000000 0.000000
    9 0.954165 -2.845453 -5.848546 0.061490 -3.315746 -0.413296
    10 -0.071918 -8.498731 -0.104137 -0.232439 0.492113 -0.383614
    11 0.270583 -2.982786 0.320373 0.554706 1.379928 0.480518
    12 -0.000001 -1.808650 1.012938 0.000000 0.000000 0.000000
    13 -0.115835 -1.983282 1.652800 0.000000 0.000000 0.000000
    14 0.000000 2.290614 1.335354 0.000000 0.000000 0.000000
    15 0.000001 0.706665 0.002903 0.000000 0.000000 0.000000
    16 -0.194964 1.736338 -0.761062 0.000000 0.000000 0.000000
    17 0.000000 -0.273071 1.043216 0.000000 0.000000 0.000000
    18 -0.586769 -1.264477 0.200164 -0.224469 -0.772272 -2.217911
    19 1.522835 0.058680 0.016850 -0.042975 0.166884 0.909410
    20 1.117947 0.048424 -0.005765 0.000000 0.000000 0.104201
    21 -0.963867 -2.785143 -0.085346 0.230928 0.199964 -0.171417
    22 0.028478 -1.403067 0.006272 -0.460171 -0.000007 -0.000010
    23 0.021412 -0.957782 0.020047 -0.782811 -0.000003 -0.000008
    24 -0.249534 -2.846963 -0.174215 -0.001196 0.000966 -0.025445
    25 0.043235 -1.683940 0.096015 -1.794469 -0.002684 -0.000611
    26 0.031729 -1.160830 0.058836 -0.492792 0.000000 0.000000
    27 0.447951 -2.798983 -0.200441 -0.016250 0.053282 0.116306
    28 -0.032909 -1.480207 0.004935 -1.740911 0.000000 0.000000
    29 -0.027023 -1.076921 -0.020212 -0.750439 0.000000 0.000000
    30 1.164474 -2.543939 -0.170327 -0.799188 0.027504 0.023290
    31 0.024033 -1.129040 0.017807 -1.291468 -0.100239 0.187007
    32 0.014896 -0.883992 -0.019846 -1.454038 0.101857 0.002205
    33 -0.072432 -0.116973 0.001939 0.180529 0.026808 1.662281
    34 0.583509 -1.197274 0.185379 -0.077873 -0.765978 -0.796238
    35 1.535926 0.010247 0.005009 -0.076780 0.036013 -1.079450
    36 1.100770 0.004528 -0.010675 0.000000 0.000000 -0.775412
    37 0.957766 -2.746777 -0.090301 0.189493 -0.051003 0.111154
    38 -0.033419 -1.397128 -0.011255 -0.785111 -0.016011 -0.062751
    39 -0.022361 -0.957433 0.018783 -0.843329 0.000000 0.000000
    40 0.250029 -2.820664 -0.238396 -0.282660 0.057277 -0.106688
    41 -0.049759 -1.680544 0.100479 -1.823063 0.000000 0.000000
    42 -0.034141 -1.148311 0.084779 -1.111544 0.000000 0.000000
    43 -0.488517 -2.755600 -0.228261 -0.195785 0.054586 -0.144146
    44 0.039889 -1.479791 0.029854 -1.840663 0.000000 0.000000
    45 0.028785 -1.075733 -0.023110 -0.841838 0.000000 0.000000
    46 -1.180679 -2.507216 -0.193861 0.008677 0.244088 -0.056758
    47 -0.024967 -1.123934 0.017595 -1.365462 0.000000 0.000000
    48 -0.020058 -0.890965 0.010091 -1.085586 0.000000 0.000000
    49 0.120180 -0.051600 -0.055246 0.287567 -3.172226 1.561008
  time 24
    0 -5.116759 -2.377703 -7.653289 0.056141 2.511006 0.588321
    1 0.096946 -8.450420 -0.009364 0.012363 0.080681 0.303788
    2 -0.192877 -2.997167 0.750521 0.973027 -1.502063 -0.975592
    3 0.000000 -1.808650 1.012937 0.000000 0.000000 0.000000
    4 0.000000 0.706666 0.002903 0.000000 0.000000 0.000000
    5 0.000000 2.290614 1.335354 0.000000 0.000000 0.000000
    6 -0.115835 -1.983282 1.652799 0.000000 0.000000 0.000000
    7 -0.194965 1.740244 -0.776688 0.000000 0.000000 0.000000
    8 0.000000 -0.273072 1.043217 0.000000 0.000000 0.000000
    9 2.555776 -2.224341 -6.164962 0.069530 -3.141016 -0.435172
    10 -0.071918 -8.498731 -0.104137 -0.025302 0.514741 -0.291084
    11 0.270583 -2.982786 0.320373 0.554706 1.379928 0.480518
    12 -0.000001 -1.808650 1.012938 0.000000 0.000000 0.000000
    13 -0.115835 -1.983282 1.652800 0.000000 0.000000 0.000000
    14 0.000000 2.290614 1.335354 0.000000 0.000000 0.000000
    15 0.000001 0.706665 0.002903 0.000000 0.000000 0.000000
    16 -0.194964 1.736338 -0.761062 0.000000 0.000000 0.000000
    17 0.000000 -0.273071 1.043216 0.000000 0.000000 0.000000
    18 -0.586769 -1.264477 0.200164 -0.224469 -0.772272 -2.217911
    19 1.522835 0.058680 0.016850 -0.042975 0.166884 0.909410
    20 1.117947 0.048424 -0.005765 0.000000 0.000000 0.104201
    21 -0.963867 -2.785143 -0.085346 0.230928 0.199964 -0.171417
    22 0.028478 -1.403067 0.006272 -0.460171 -0.000007 -0.000010
    23 0.021412 -0.957782 0.020047 -0.782811 -0.000003 -0.000008
    24 -0.249534 -2.846963 -0.174215 -0.001196 0.000966 -0.025445
    25 0.043235 -1.683940 0.096015 -1.794469 -0.002684 -0.000611
    26 0.031729 -1.160830 0.058836 -0.492792 0.000000 0.000000
    27 0.447951 -2.798983 -0.200441 -0.016250 0.053282 0.116306
    28 -0.032909 -1.480207 0.004935 -1.740911 0.000000 0.000000
    29 -0.027023 -1.076921 -0.020212 -0.750439 0.000000 0.000000
    30 1.164474 -2.543939 -0.170327 -0.799188 0.027504 0.023290
    31 0.024033 -1.129040 0.017807 -1.291468 -0.100239 0.187007
    32 0.014896 -0.883992 -0.019846 -1.454038 0.101857 0.002205
    33 -0.076339 -0.116973 0.005845 0.179331 0.026508 1.672444
    34 0.583509 -1.197274 0.185379 -0.077873 -0.765978 -0.796238
    35 1.535926 0.010247 0.005009 -0.077415 0.035942 -1.087258
    36 1.100770 0.004528 -0.010675 0.000000 0.000000 -0.792319
    37 0.957766 -2.746777 -0.090301 0.188079 -0.051003 0.111154
    38 -0.033419 -1.397128 -0.011255 -0.783418 -0.015796 -0.062476
    39 -0.022361 -0.957433 0.018783 -0.838695 0.000000 0.000000
    40 0.250029 -2.820664 -0.238396 -0.282660 0.057277 -0.106688
    41 -0.049759 -1.680544 0.100479 -1.792433 0.000000 0.000000
    42 -0.034141 -1.148311 0.084779 -1.123486 0.000000 0.000000
    43 -0.488517 -2.755600 -0.228261 -0.195785 0.054586 -0.144146
    44 0.039889 -1.479791 0.029854 -1.808027 0.000000 0.000000
    45 0.028785 -1.075733 -0.023110 -0.841838 0.000000 0.000000
    46 -1.180679 -2.507216 -0.193861 0.008677 0.244088 -0.056758
    47 -0.024967 -1.123934 0.017595 -1.349133 0.000000 0.000000
    48 -0.020058 -0.890965 0.010091 -1.049513 0.000000 0.000000
    49 0.120180 -0.051600 -0.055246 0.287567 -3.172226 1.561008
  time 25
    0 -6.753528 -1.600335 -7.715791 0.114679 2.386034 0.690574
    1 0.096946 -8.450420 -0.009364 0.055895 0.045471 0.289562
    2 -0.192877 -2.997167 0.750521 0.973027 -1.502063 -0.975592
    3 0.000000 -1.808650 1.012937 0.000000 0.000000 0.000000
    4 0.000000 0.706666 0.002903 0.000000 0.000000 0.000000
    5 0.000000 2.290614 1.335354 0.000000 0.000000 0.000000
    6 -0.115835 -1.983282 1.652799 0.000000 0.000000 0.000000
    7 -0.194965 1.740244 -0.776688 0.000000 0.000000 0.000000
    8 0.000000 -0.273072 1.043217 0.000000 0.000000 0.000000
    9 4.454271 -1.517288 -6.539973 0.084568 -2.930746 -0.464059
    10 -0.071918 -8.498731 -0.104137 0.137898 0.506570 -0.209268
    11 0.270583 -2.982786 0.320373 0.554706 1.379928 0.480518
    12 -0.000001 -1.808650 1.012938 0.000000 0.000000 0.000000
    13 -0.115835 -1.983282 1.652800 0.000000 0.000000 0.000000
    14 0.000000 2.290614 1.335354 0.000000 0.000000 0.000000
    15 0.000001 0.706665 0.002903 0.000000 0.000000 0.000000
    16 -0.194964 1.736338 -0.761062 0.000000 0.000000 0.000000
    17 0.000000 -0.273071 1.043216 0.000000 0.000000 0.000000
    18 -0.586769 -1.264477 0.200164 -0.224469 -0.772272 -2.217911
    19 1.522835 0.058680 0.016850 -0.042975 0.166884 0.909410
    20 1.117947 0.048424 -0.005765 0.000000 0.000000 0.104201
    21 -0.963867 -2.785143 -0.085346 0.230928 0.199964 -0.171417
    22 0.028478 -1.403067 0.006272 -0.460171 -0.000007 -0.000010
    23 0.021412 -0.957782 0.020047 -0.782811 -0.000003 -0.000008
    24 -0.249534 -2.846963 -0.174215 -0.001196 0.000966 -0.025445
    25 0.043235 -1.683940 0.096015 -1.794469 -0.002684 -0.000611
    26 0.031729 -1.160830 0.058836 -0.492792 0.000000 0.000000
    27 0.447951 -2.798983 -0.200441 -0.016250 0.053282 0.116306
    28 -0.032909 -1.480207 0.004935 -1.740911 0.000000 0.000000
    29 -0.027023 -1.076921 -0.020212 -0.750439 0.000000 0.000000
    30 1.164474 -2.543939 -0.170327 -0.799188 0.027504 0.023290
    31 0.024033 -1.129040 0.017807 -1.291468 -0.100239 0.187007
    32 0.014896 -0.883992 -0.019846 -1.454058 0.101857 0.002205
    33 -0.084151 -0.116973 0.005845 0.178264 0.026257 1.681396
    34 0.583509 -1.197274 0.185379 -0.077873 -0.765978 -0.796238
    35 1.535926 0.010247 0.005009 -0.078062 0.035870 -1.095147
    36 1.100770 0.004528 -0.010675 0.000000 0.000000 -0.809419
    37 0.957766 -2.746777 -0.090301 0.186691 -0.051003 0.111154
    38 -0.033419 -1.397128 -0.011255 -0.781673 -0.015592 -0.062200
    39 -0.022361 -0.957433 0.018783 -0.834088 0.000000 0.000000
    40 0.250029 -2.820664 -0.238396 -0.282660 0.057277 -0.106688
    41 -0.049759 -1.680544 0.100479 -1.761445 0.000000 0.000000
    42 -0.034141 -1.148311 0.084779 -1.135587 0.000000 0.000000
    43 -0.488517 -2.755600 -0.228261 -0.195785 0.054586 -0.144146
    44 0.039889 -1.479791 0.029854 -1.775016 0.000000 0.000000
    45 0.028785 -1.075733 -0.023110 -0.841838 0.000000 0.000000
    46 -1.180679 -2.507216 -0.193861 0.008677 0.244088 -0.056758
    47 -0.024967 -1.123934 0.017595 -1.332621 0.000000 0.000000
    48 -0.020058 -0.890965 0.010091 -1.013059 0.000000 0.000000
    49 0.120180 -0.051600 -0.055246 0.287567 -3.172226 1.561008
  time 26
    0 -8.339514 -0.850312 -7.782199 0.261212 2.245147 0.832337
    1 0.096946 -8.450420 -0.009364 0.107958 -0.002504 0.278105
    2 -0.192877 -2.997167 0.750521 0.973027 -1.502063 -0.975592
    3 0.000000 -1.808650 1.012937 0.000000 0.000000 0.000000
    4 0.000000 0.706666 0.002903 0.000000 0.000000 0.000000
    5 0.000000 2.290614 1.335354 0.000000 0.000000 0.000000
    6 -0.115835 -1.983282 1.652799 0.000000 0.000000 0.000000
    7 -0.194965 1.740244 -0.776688 0.000000 0.000000 0.000000
    8 0.000000 -0.273072 1.043217 0.000000 0.000000 0.000000
    9 6.450426 -0.794609 -6.934517 0.110577 -2.697306 -0.502855
    10 -0.071918 -8.498731 -0.104137 0.212214 0.475789 -0.162577
    11 0.270583 -2.982786 0.320373 0.554706 1.379928 0.480518
    12 -0.000001 -1.808650 1.012938 0.000000 0.000000 0.000000
    13 -0.115835 -1.983282 1.652800 0.000000 0.000000 0.000000
    14 0.000000 2.290614 1.335354 0.000000 0.000000 0.000000
    15 0.000001 0.706665 0.002903 0.000000 0.000000 0.000000
    16 -0.194964 1.736338 -0.761062 0.000000 0.000000 0.000000
    17 0.000000 -0.273071 1.043216 0.000000 0.000000 0.000000
    18 -0.586769 -1.264477 0.200164 -0.224469 -0.772272 -2.217911
    19 1.522835 0.058680 0.016850 -0.042975 0.166884 0.909410
    20 1.117947 0.048424 -0.005765 0.000000 0.000000 0.104201
    21 -0.963867 -2.785143 -0.085346 0.230928 0.199964 -0.171417
    22 0.028478 -1.403067 0.006272 -0.460171 -0.000007 -0.000010
    23 0.021412 -0.957782 0.020047 -0.782811 -0.000003 -0.000008
    24 -0.249534 -2.846963 -0.174215 -0.001196 0.000966 -0.025445
    25 0.043235 -1.683940 0.096015 -1.794469 -0.002684 -0.000611
    26 0.031729 -1.160830 0.058836 -0.492792 0.000000 0.000000
    27 0.447951 -2.798983 -0.200441 -0.016250 0.053282 0.116306
    28 -0.032909 -1.480207 0.004935 -1.740911 0.000000 0.000000
    29 -0.027023 -1.076921 -0.020212 -0.750439 0.000000 0.000000
    30 1.164474 -2.543939 -0.170327 -0.799188 0.027504 0.023290
    31 0.024033 -1.129040 0.017807 -1.291468 -0.100239 0.187007
    32 0.014896 -0.883992 -0.019846 -1.454038 0.101857 0.002205
    33 -0.088058 -0.113067 0.009752 0.177329 0.026041 1.689019
    34 0.583509 -1.197274 0.185379 -0.077873 -0.765978 -0.796238
    35 1.535926 0.010247 0.005009 -0.078709 0.035786 -1.103063
    36 1.100770 0.004528 -0.010675 0.000000 0.000000 -0.826543
    37 0.957766 -2.746777 -0.090301 0.185405 -0.051003 0.111154
    38 -0.033419 -1.397128 -0.011255 -0.779800 -0.015376 -0.061924
    39 -0.022361 -0.957433 0.018783 -0.829509 0.000000 0.000000
    40 0.250029 -2.820664 -0.238396 -0.282660 0.057277 -0.106688
    41 -0.049759 -1.680544 0.100479 -1.730457 0.000000 0.000000
    42 -0.034141 -1.148311 0.084779 -1.147688 0.000000 0.000000
    43 -0.488517 -2.755600 -0.228261 -0.195785 0.054586 -0.144146
    44 0.039889 -1.479791 0.029854 -1.742006 0.000000 0.000000
    45 0.028785 -1.075733 -0.023110 -0.841838 0.000000 0.000000
    46 -1.180679 -2.507216 -0.193861 0.008677 0.244088 -0.056758
    47 -0.024967 -1.123934 0.017595 -1.316091 0.000000 0.000000
    48 -0.020058 -0.890965 0.010091 -0.976604 0.000000 0.000000
    49 0.120180 -0.051600 -0.055246 0.287567 -3.172226 1.561008
  time 27
    0 -9.761432 -0.178417 -7.836888 0.451696 2.105637 0.987704
    1 0.096946 -8.450420 -0.009364 0.165978 -0.058856 0.266588
    2 -0.192877 -2.997167 0.750521 0.973027 -1.502063 -0.975592
    3 0.000000 -1.808650 1.012937 0.000000 0.000000 0.000000
    4 0.000000 0.706666 0.002903 0.000000 0.000000 0.000000
    5 0.000000 2.290614 1.335354 0.000000 0.000000 0.000000
    6 -0.115835 -1.983282 1.652799 0.000000 0.000000 0.000000
    7 -0.194965 1.740244 -0.776688 0.000000 0.000000 0.000000
    8 0.000000 -0.273072 1.043217 0.000000 0.000000 0.000000
    9 8.348921 -0.114901 -7.309528 0.154841 -2.453455 -0.558759
    10 -0.071918 -8.498731 -0.104137 0.260240 0.436494 -0.126173
    11 0.270583 -2.982786 0.320373 0.554706 1.379928 0.480518
    12 -0.000001 -1.808650 1.012938 0.000000 0.000000 0.000000
    13 -0.115835 -1.983282 1.652800 0.000000 0.000000 0.000000
    14 0.000000 2.290614 1.335354 0.000000 0.000000 0.000000
    15 0.000001 0.706665 0.002903 0.000000 0.000000 0.000000
    16 -0.194964 1.736338 -0.761062 0.000000 0.000000 0.000000
    17 0.000000 -0.273071 1.043216 0.000000 0.000000 0.000000
    18 -0.586769 -1.264477 0.200164 -0.224469 -0.772272 -2.217911
    19 1.522835 0.058680 0.016850 -0.042975 0.166884 0.909410
    20 1.117947 0.048424 -0.005765 0.000000 0.000000 0.104201
    21 -0.963867 -2.785143 -0.085346 0.230928 0.199964 -0.171417
    22 0.028478 -1.403067 0.006272 -0.460171 -0.000007 -0.000010
    23 0.021412 -0.957782 0.020047 -0.782811 -0.000003 -0.000008
    24 -0.249534 -2.846963 -0.174215 -0.001196 0.000966 -0.025445
    25 0.043235 -1.683940 0.096015 -1.794469 -0.002684 -0.000611
    26 0.031729 -1.160830 0.058836 -0.492792 0.000000 0.000000
    27 0.447951 -2.798983 -0.200441 -0.016250 0.053282 0.116306
    28 -0.032909 -1.480207 0.004935 -1.740911 0.000000 0.000000
    29 -0.027023 -1.076921 -0.020212 -0.750439 0.000000 0.000000
    30 1.164474 -2.543939 -0.170327 -0.799188 0.027504 0.023290
    31 0.024033 -1.129040 0.017807 -1.291468 -0.100239 0.187007
    32 0.014896 -0.883992 -0.019846 -1.454038 0.101857 0.002205
    33 -0.091964 -0.113067 0.009752 0.176562 0.025873 1.695179
    34 0.583509 -1.197274 0.185379 -0.077873 -0.765978 -0.796238
    35 1.535926 0.010247 0.005009 -0.079344 0.035714 -1.110871
    36 1.100770 0.004528 -0.010675 0.000000 0.000000 -0.843450
    37 0.957766 -2.746777 -0.090301 0.184274 -0.051003 0.111154
    38 -0.033419 -1.397128 -0.011255 -0.777670 -0.015172 -0.061661
    39 -0.022361 -0.957433 0.018783 -0.824956 0.000000 0.000000
    40 0.250029 -2.820664 -0.238396 -0.282660 0.057277 -0.106688
    41 -0.049759 -1.680544 0.100479 -1.699828 0.000000 0.000000
    42 -0.034141 -1.148311 0.084779 -1.159631 0.000000 0.000000
    43 -0.488517 -2.755600 -0.228261 -0.195785 0.054586 -0.144146
    44 0.039889 -1.479791 0.029854 -1.709369 0.000000 0.000000
    45 0.028785 -1.075733 -0.023110 -0.841838 0.000000 0.000000
    46 -1.180679 -2.507216 -0.193861 0.008677 0.244088 -0.056758
    47 -0.024967 -1.123934 0.017595 -1.299763 0.000000 0.000000
    48 -0.020058 -0.890965 0.010091 -0.940570 0.000000 0.000000
    49 0.120180 -0.051600 -0.055246 0.287567 -3.172226 1.561008
  time 28
    0 -10.909905 0.368475 -7.883765 0.642085 1.984644 1.130717
    1 0.096946 -8.450420 -0.009364 0.227637 -0.118963 0.252758
    2 -0.192877 -2.997167 0.750521 0.973027 -1.502063 -0.975592
    3 0.000000 -1.808650 1.012937 0.000000 0.000000 0.000000
    4 0.000000 0.706666 0.002903 0.000000 0.000000 0.000000
    5 0.000000 2.290614 1.335354 0.000000 0.000000 0.000000
    6 -0.115835 -1.983282 1.652799 0.000000 0.000000 0.000000
    7 -0.194965 1.740244 -0.776688 0.000000 0.000000 0.000000
    8 0.000000 -0.273072 1.043217 0.000000 0.000000 0.000000
    9 9.950533 0.447616 -7.625944 0.234477 -2.212851 -0.648692
    10 -0.071918 -8.498731 -0.104137 0.292585 0.392742 -0.096107
    11 0.270583 -2.982786 0.320373 0.554706 1.379928 0.480518
    12 -0.000001 -1.808650 1.012938 0.000000 0.000000 0.000000
    13 -0.115835 -1.983282 1.652800 0.000000 0.000000 0.000000
    14 0.000000 2.290614 1.335354 0.000000 0.000000 0.000000
    15 0.000001 0.706665 0.002903 0.000000 0.000000 0.000000
    16 -0.194964 1.736338 -0.761062 0.000000 0.000000 0.000000
    17 0.000000 -0.273071 1.043216 0.000000 0.000000 0.000000
    18 -0.586769 -1.264477 0.200164 -0.224469 -0.772272 -2.217911
    19 1.522835 0.058680 0.016850 -0.042975 0.166884 0.909410
    20 1.117947 0.048424 -0.005765 0.000000 0.000000 0.104201
    21 -0.963867 -2.785143 -0.085346 0.230928 0.199964 -0.171417
    22 0.028478 -1.403067 0.006272 -0.460171 -0.000007 -0.000010
    23 0.021412 -0.957782 0.020047 -0.782811 -0.000003 -0.000008
    24 -0.249534 -2.846963 -0.174215 -0.001196 0.000966 -0.025445
    25 0.043235 -1.683940 0.096015 -1.794469 -0.002684 -0.000611
    26 0.031729 -1.160830 0.058836 -0.492792 0.000000 0.000000
    27 0.447951 -2.798983 -0.200441 -0.016250 0.053282 0.116306
    28 -0.032909 -1.480207 0.004935 -1.740911 0.000000 0.000000
    29 -0.027023 -1.076921 -0.020212 -0.750439 0.000000 0.000000
    30 1.164474 -2.543939 -0.170327 -0.799188 0.027504 0.023290
    31 0.024033 -1.129040 0.017807 -1.291468 -0.100239 0.187007
    32 0.014896 -0.883992 -0.019846 -1.454038 0.101857 0.002205
    33 -0.095871 -0.113067 0.009752 0.175987 0.025741 1.699745
    34 0.583509 -1.197274 0.185379 -0.077873 -0.765978 -0.796238
    35 1.535926 0.010247 0.005009 -0.079968 0.035618 -1.118488
    36 1.100770 0.004528 -0.010675 0.000000 0.000000 -0.859972
    37 0.957766 -2.746777 -0.090301 0.183387 -0.051003 0.111154
    38 -0.033419 -1.397128 -0.011255 -0.775156 -0.014969 -0.061385
    39 -0.022361 -0.957433 0.018783 -0.820431 0.000000 0.000000
    40 0.250029 -2.820664 -0.238396 -0.282660 0.057277 -0.106688
    41 -0.049759 -1.680544 0.100479 -1.669898 0.000000 0.000000
    42 -0.034141 -1.148311 0.084779 -1.171307 0.000000 0.000000
    43 -0.488517 -2.755600 -0.228261 -0.195785 0.054586 -0.144146
    44 0.039889 -1.479791 0.029854 -1.677501 0.000000 0.000000
    45 0.028785 -1.075733 -0.023110 -0.841838 0.000000 0.000000
    46 -1.180679 -2.507216 -0.193861 0.008677 0.244088 -0.056758
    47 -0.024967 -1.123934 0.017595 -1.283817 0.000000 0.000000
    48 -0.020058 -0.890965 0.010091 -0.905375 0.000000 0.000000
    49 0.120180 -0.051600 -0.055246 0.287567 -3.172226 1.561008
  time 29
    0 -11.679459 0.731767 -7.915015 0.788618 1.899459 1.235529
    1 0.096946 -8.450420 -0.009364 0.290700 -0.178121 0.235068
    2 -0.192877 -2.997167 0.750521 0.973027 -1.502063 -0.975592
    3 0.000000 -1.808650 1.012937 0.000000 0.000000 0.000000
    4 0.000000 0.706666 0.002903 0.000000 0.000000 0.000000
    5 0.000000 2.290614 1.335354 0.000000 0.000000 0.000000
    6 -0.115835 -1.983282 1.652799 0.000000 0.000000 0.000000
    7 -0.194965 1.740244 -0.776688 0.000000 0.000000 0.000000
    8 0.000000 -0.273072 1.043217 0.000000 0.000000 0.000000
    9 11.056035 0.834347 -7.844701 0.395453 -1.992116 -0.818742
    10 -0.071918 -8.498731 -0.104137 0.319677 0.347447 -0.068911
    11 0.270583 -2.982786 0.320373 0.554706 1.379928 0.480518
    12 -0.000001 -1.808650 1.012938 0.000000 0.000000 0.000000
    13 -0.115835 -1.983282 1.652800 0.000000 0.000000 0.000000
    14 0.000000 2.290614 1.335354 0.000000 0.000000 0.000000
    15 0.000001 0.706665 0.002903 0.000000 0.000000 0.000000
    16 -0.194964 1.736338 -0.761062 0.000000 0.000000 0.000000
    17 0.000000 -0.273071 1.043216 0.000000 0.000000 0.000000
    18 -0.586769 -1.264477 0.200164 -0.224469 -0.772272 -2.217911
    19 1.522835 0.058680 0.016850 -0.042975 0.166884 0.909410
    20 1.117947 0.048424 -0.005765 0.000000 0.000000 0.104201
    21 -0.963867 -2.785143 -0.085346 0.230928 0.199964 -0.171417
    22 0.028478 -1.403067 0.006272 -0.460171 -0.000007 -0.000010
    23 0.021412 -0.957782 0.020047 -0.782811 -0.000003 -0.000008
    24 -0.249534 -2.846963 -0.174215 -0.001196 0.000966 -0.025445
    25 0.043235 -1.683940 0.096015 -1.794469 -0.002684 -0.000611
    26 0.031729 -1.160830 0.058836 -0.492792 0.000000 0.000000
    27 0.447951 -2.798983 -0.200441 -0.016250 0.053282 0.116306
    28 -0.032909 -1.480207 0.004935 -1.740911 0.000000 0.000000
    29 -0.027023 -1.076921 -0.020212 -0.750439 0.000000 0.000000
    30 1.164474 -2.543939 -0.170327 -0.799188 0.027504 0.023290
    31 0.024033 -1.129040 0.017807 -1.291468 -0.100239 0.187007
    32 0.014896 -0.883992 -0.019846 -1.454058 0.101857 0.002205
    33 -0.095871 -0.113067 0.009752 0.175628 0.025669 1.702585
    34 0.583509 -1.197274 0.185379 -0.077873 -0.765978 -0.796238
    35 1.535926 0.010247 0.005009 -0.080567 0.035534 -1.125860
    36 1.100770 0.004528 -0.010675 0.000000 0.000000 -0.875891
    37 0.957766 -2.746777 -0.090301 0.182796 -0.051003 0.111154
    38 -0.033419 -1.397128 -0.011255 -0.772179 -0.014765 -0.061109
    39 -0.022361 -0.957433 0.018783 -0.815988 0.000000 0.000000
    40 0.250029 -2.820664 -0.238396 -0.282660 0.057277 -0.106688
    41 -0.049759 -1.680544 0.100479 -1.641043 0.000000 0.000000
    42 -0.034141 -1.148311 0.084779 -1.182559 0.000000 0.000000
    43 -0.488517 -2.755600 -0.228261 -0.195785 0.054586 -0.144146
    44 0.039889 -1.479791 0.029854 -1.646755 0.000000 0.000000
    45 0.028785 -1.075733 -0.023110 -0.841838 0.000000 0.000000
    46 -1.180679 -2.507216 -0.193861 0.008677 0.244088 -0.056758
    47 -0.024967 -1.123934 0.017595 -1.268438 0.000000 0.000000
    48 -0.020058 -0.890965 0.010091 -0.871440 0.000000 0.000000
    49 0.120180 -0.051600 -0.055246 0.287567 -3.172226 1.561008
  time 30
    0 -11.960718 0.864584 -7.922828 0.847156 1.867272 1.276235
    1 0.096946 -8.450420 -0.009364 0.352763 -0.231470 0.212837
    2 -0.192877 -2.997167 0.750521 0.973027 -1.502063 -0.975592
    3 0.000000 -1.808650 1.012937 0.000000 0.000000 0.000000
    4 0.000000 0.706666 0.002903 0.000000 0.000000 0.000000
    5 0.000000 2.290614 1.335354 0.000000 0.000000 0.000000
    6 -0.115835 -1.983282 1.652799 0.000000 0.000000 0.000000
    7 -0.194965 1.740244 -0.776688 0.000000 0.000000 0.000000
    8 0.000000 -0.273072 1.043217 0.000000 0.000000 0.000000
    9 11.470110 0.978882 -7.922828 0.777557 -1.819456 -1.208763
    10 -0.071918 -8.498731 -0.104137 0.351582 0.302819 -0.041913
    11 0.270583 -2.982786 0.320373 0.554706 1.379928 0.480518
    12 -0.000001 -1.808650 1.012938 0.000000 0.000000 0.000000
    13 -0.115835 -1.983282 1.652800 0.000000 0.000000 0.000000
    14 0.000000 2.290614 1.335354 0.000000 0.000000 0.000000
    15 0.000001 0.706665 0.002903 0.000000 0.000000 0.000000
    16 -0.194964 1.736338 -0.761062 0.000000 0.000000 0.000000
    17 0.000000 -0.273071 1.043216 0.000000 0.000000 0.000000
    18 -0.586769 -1.264477 0.200164 -0.224469 -0.772272 -2.217911
    19 1.522835 0.058680 0.016850 -0.042975 0.166884 0.909410
    20 1.117947 0.048424 -0.005765 0.000000 0.000000 0.104201
    21 -0.963867 -2.785143 -0.085346 0.230928 0.199964 -0.171417
    22 0.028478 -1.403067 0.006272 -0.460171 -0.000007 -0.000010
    23 0.021412 -0.957782 0.020047 -0.782811 -0.000003 -0.000008
    24 -0.249534 -2.846963 -0.174215 -0.001196 0.000966 -0.025445
    25 0.043235 -1.683940 0.096015 -1.794469 -0.002684 -0.000611
    26 0.031729 -1.160830 0.058836 -0.492792 0.000000 0.000000
    27 0.447951 -2.798983 -0.200441 -0.016250 0.053282 0.116306
    28 -0.032909 -1.480207 0.004935 -1.740911 0.000000 0.000000
    29 -0.027023 -1.076921 -0.020212 -0.750439 0.000000 0.000000
    30 1.164474 -2.543939 -0.170327 -0.799188 0.027504 0.023290
    31 0.024033 -1.129040 0.017807 -1.291468 -0.100239 0.187007
    32 0.014896 -0.883992 -0.019846 -1.454038 0.101857 0.002205
    33 -0.095871 -0.113067 0.009752 0.175508 0.025645 1.703556
    34 0.583509 -1.197274 0.185379 -0.077873 -0.765978 -0.796238
    35 1.535926 0.010247 0.005009 -0.081142 0.035450 -1.132852
    36 1.100770 0.004528 -0.010675 0.000000 0.000000 -0.891040
    37 0.957766 -2.746777 -0.090301 0.182590 -0.051003 0.111154
    38 -0.033419 -1.397128 -0.011255 -0.768639 -0.014573 -0.060846
    39 -0.022361 -0.957433 0.018783 -0.811572 0.000000 0.000000
    40 0.250029 -2.820664 -0.238396 -0.282660 0.057277 -0.106688
    41 -0.049759 -1.680544 0.100479 -1.613606 0.000000 0.000000
    42 -0.034141 -1.148311 0.084779 -1.193281 0.000000 0.000000
    43 -0.488517 -2.755600 -0.228261 -0.195785 0.054586 -0.144146
    44 0.039889 -1.479791 0.029854 -1.617524 0.000000 0.000000
    45 0.028785 -1.075733 -0.023110 -0.841838 0.000000 0.000000
    46 -1.180679 -2.507216 -0.193861 0.008677 0.244088 -0.056758
    47 -0.024967 -1.123934 0.017595 -1.253808 0.000000 0.000000
    48 -0.020058 -0.890965 0.010091 -0.839147 0.000000 0.000000
    49 0.120180 -0.051600 -0.055246 0.287567 -3.172226 1.561008
end
