version 1
nodes
  0 "Bone01" -1
  1 "Bone_Lefthand" 0
  2 "Bone02" 1
  3 "Bone03" 2
  4 "Bone50" 3
  5 "Bone48" 3
  6 "Bone25" 3
  7 "AddBone05" 2
  8 "AddBone03" 2
  9 "AddBone04" 8
  10 "AddBone01" 2
  11 "AddBone02" 10
  12 "Bone 04" 1
  13 "Bone13" 12
  14 "Bone14" 13
  15 "Bone15" 14
  16 "Bone17" 12
  17 "Bone18" 16
  18 "Bone19" 17
  19 "Bone21" 12
  20 "Bone22" 19
  21 "Bone23" 20
  22 "Bone05" 12
  23 "Bone06" 22
  24 "Bone07" 23
  25 "Bone09" 12
  26 "Bone10" 25
  27 "Bone11" 26
  28 "Bone04" -1
  29 "Bone_Righthand" 28
  30 "Bone26" 29
  31 "Bone35" 30
  32 "Bone36" 31
  33 "Bone37" 32
  34 "Bone31" 30
  35 "Bone32" 34
  36 "Bone33" 35
  37 "Bone39" 30
  38 "Bone40" 37
  39 "Bone41" 38
  40 "Bone43" 30
  41 "Bone44" 40
  42 "Bone45" 41
  43 "Bone27" 30
  44 "Bone28" 43
  45 "Bone29" 44
end
skeleton
  time 0
    0 7.377399 3.279757 -6.693046 5.052621 -2.613297 -5.314840
    1 -0.001603 -8.561233 -0.002571 0.347496 -0.125219 -0.169569
    2 -1.047996 -2.317996 0.654462 -1.246991 1.437608 -1.233761
    3 0.000000 0.743005 1.588492 0.000000 0.000000 0.000000
    4 0.000000 3.192657 2.044578 0.000000 0.000000 0.000000
    5 0.000000 1.878595 2.044578 0.000000 0.000000 0.000000
    6 0.000000 -1.490624 0.407971 0.000000 0.000000 0.000000
    7 -0.019827 -0.426563 4.971295 1.570796 -3.705493 -1.570766
    8 0.276650 -3.399288 5.573969 -0.863931 -2.825358 1.257158
    9 1.704292 0.000000 0.000000 0.000000 -0.699837 0.048831
    10 -0.229124 -3.395397 5.547222 1.245592 -2.957383 0.290260
    11 1.839642 0.000000 0.000000 2.273013 -0.719220 0.119445
    12 -0.003480 -0.404829 0.000000 0.000000 0.000000 0.000000
    13 -0.519309 -2.501156 -0.278957 -1.490008 -0.039729 -0.147496
    14 -0.010598 -1.208185 -0.000001 -0.928524 0.000000 0.000000
    15 0.000000 -0.763066 0.000001 -0.956441 0.000000 0.000000
    16 0.105981 -2.607135 -0.278958 -1.202940 -0.083077 -0.180316
    17 -0.000001 -1.250581 -0.000002 -1.029748 0.000000 0.000000
    18 0.000000 -0.932634 0.000000 -1.190315 0.000000 0.000000
    19 0.763064 -2.490556 -0.278958 -0.348897 -0.010738 0.101382
    20 -0.012323 -1.280918 0.000000 -0.762700 0.000000 0.000000
    21 -0.001697 -0.749372 -0.000001 -0.844729 0.000000 0.000000
    22 0.354567 0.016267 0.318132 0.494018 -0.554828 -1.044175
    23 1.887165 0.012877 0.000000 -0.296409 -0.074844 -0.641561
    24 1.001875 -0.000270 0.000000 0.000000 0.000000 -0.719066
    25 -1.123360 -2.195094 -0.278958 -1.567306 0.000000 -0.087266
    26 0.010771 -0.963791 0.000000 -1.213004 0.000000 0.000000
    27 -0.010412 -0.631916 0.000000 -1.197304 0.000000 0.000000
    28 -1.503465 -2.966649 -11.065085 0.947120 0.181831 1.151342
    29 0.089929 -8.543166 0.000000 0.122392 -0.156191 0.283119
    30 0.000000 -0.359714 0.000000 0.000000 0.000000 0.000000
    31 -0.170479 -2.636146 -0.277655 -1.750535 0.000000 0.000000
    32 0.010599 -1.261177 0.000001 -0.342077 0.000000 0.000000
    33 -0.000001 -0.943233 0.000001 -0.961659 0.000000 0.000000
    34 -0.827563 -2.508972 -0.277656 -1.480020 0.000000 0.000000
    35 0.000000 -1.292971 0.000001 -0.979101 0.000000 0.000000
    36 0.000000 -0.752466 0.000001 -0.502647 0.000000 0.000000
    37 0.444213 -2.561960 -0.277655 -1.748213 -0.046885 -0.024335
    38 0.021022 -1.208185 -0.000001 -0.322909 0.000000 0.000000
    39 0.010597 -0.741867 0.000000 -0.877897 0.000000 0.000000
    40 1.047444 -2.222821 -0.277655 -1.581386 -0.083393 -0.037063
    41 0.000000 -0.996223 0.000001 -1.199038 0.000000 0.000000
    42 -0.000001 -0.614689 0.000001 -1.062893 0.000000 0.000000
    43 -0.308254 -0.007814 0.307165 -0.181399 -0.369377 -2.311048
    44 1.978378 0.019545 -0.000001 0.042951 -0.179887 0.769158
    45 0.982425 0.003186 0.000000 0.000000 0.000000 1.090793
  time 1
    0 7.342242 3.342259 -6.509447 5.046808 -2.514653 -5.322286
    1 -0.001603 -8.561233 -0.002571 0.348443 -0.133373 -0.184209
    2 -1.047996 -2.317996 0.654462 -1.247038 1.437608 -1.233761
    3 0.000000 0.743005 1.588492 0.000000 0.000000 0.000000
    4 0.000000 3.192657 2.044578 0.000000 0.000000 0.000000
    5 0.000000 1.878595 2.044578 0.000000 0.000000 0.000000
    6 0.000000 -1.490624 0.407971 0.000000 0.000000 0.000000
    7 -0.019827 -0.426563 4.971295 1.570796 -3.705493 -1.570766
    8 0.276650 -3.399288 5.573969 -0.863931 -2.825358 1.257158
    9 1.704292 0.000000 0.000000 0.000000 -0.699837 0.048831
    10 -0.229124 -3.395397 5.547222 1.245592 -2.957383 0.290260
    11 1.839642 0.000000 0.000000 2.273013 -0.719220 0.119445
    12 -0.003480 -0.404829 0.000000 0.000000 0.000000 0.000000
    13 -0.519309 -2.501156 -0.278957 -1.490008 -0.039729 -0.147496
    14 -0.010598 -1.208185 -0.000001 -0.928524 0.000000 0.000000
    15 0.000000 -0.763066 0.000001 -0.956441 0.000000 0.000000
    16 0.105981 -2.607135 -0.278958 -1.202940 -0.083077 -0.180316
    17 -0.000001 -1.250581 -0.000002 -1.029748 0.000000 0.000000
    18 0.000000 -0.932634 0.000000 -1.190315 0.000000 0.000000
    19 0.763064 -2.490556 -0.278958 -0.348897 -0.010738 0.101382
    20 -0.012323 -1.280918 0.000000 -0.762700 0.000000 0.000000
    21 -0.001697 -0.749372 -0.000001 -0.844729 0.000000 0.000000
    22 0.354567 0.016267 0.318132 0.494018 -0.554828 -1.044175
    23 1.887165 0.012877 0.000000 -0.296409 -0.074844 -0.641561
    24 1.001875 -0.000270 0.000000 0.000000 0.000000 -0.719066
    25 -1.123360 -2.195094 -0.278958 -1.567306 0.000000 -0.087266
    26 0.010771 -0.963791 0.000000 -1.213004 0.000000 0.000000
    27 -0.010412 -0.631916 0.000000 -1.197304 0.000000 0.000000
    28 -1.452682 -2.415851 -10.752576 0.881224 0.314861 1.123582
    29 0.089929 -8.543166 0.000000 0.182464 -0.157306 0.283671
    30 0.000000 -0.359714 0.000000 0.000000 0.000000 0.000000
    31 -0.170479 -2.636146 -0.277655 -1.753741 0.000000 0.000000
    32 0.010599 -1.261177 0.000001 -0.342522 0.000000 0.000000
    33 -0.000001 -0.943233 0.000001 -0.963327 0.000000 0.000000
    34 -0.827563 -2.508972 -0.277656 -1.482582 0.000000 0.000000
    35 0.000000 -1.292971 0.000001 -0.980875 0.000000 0.000000
    36 0.000000 -0.752466 0.000001 -0.503282 0.000000 0.000000
    37 0.444213 -2.561960 -0.277655 -1.751461 -0.046885 -0.024335
    38 0.021022 -1.208185 -0.000001 -0.323226 0.000000 0.000000
    39 0.010597 -0.741867 0.000000 -0.879363 0.000000 0.000000
    40 1.047444 -2.222821 -0.277655 -1.584478 -0.083393 -0.037063
    41 0.000000 -0.996223 0.000001 -1.201617 0.000000 0.000000
    42 -0.000001 -0.614689 0.000001 -1.064556 0.000000 0.000000
    43 -0.308254 -0.007814 0.307165 -0.181471 -0.368694 -2.310461
    44 1.978378 0.019545 -0.000001 0.042783 -0.179921 0.770083
    45 0.982425 0.003186 0.000000 0.000000 0.000000 1.092473
  time 2
    0 7.307084 3.369604 -6.341473 5.041277 -2.413696 -5.329732
    1 -0.001603 -8.561233 -0.002571 0.349334 -0.141906 -0.201281
    2 -1.047996 -2.317996 0.654462 -1.247038 1.437608 -1.233761
    3 0.000000 0.743005 1.588492 0.000000 0.000000 0.000000
    4 0.000000 3.192657 2.044578 0.000000 0.000000 0.000000
    5 0.000000 1.878595 2.044578 0.000000 0.000000 0.000000
    6 0.000000 -1.490624 0.407971 0.000000 0.000000 0.000000
    7 -0.019827 -0.426563 4.971295 1.570796 -3.705493 -1.570766
    8 0.276650 -3.399288 5.573969 -0.863931 -2.825358 1.257158
    9 1.704292 0.000000 0.000000 0.000000 -0.699837 0.048831
    10 -0.229124 -3.395397 5.547222 1.245592 -2.957383 0.290260
    11 1.839642 0.000000 0.000000 2.273013 -0.719220 0.119445
    12 -0.003480 -0.404829 0.000000 0.000000 0.000000 0.000000
    13 -0.519309 -2.501156 -0.278957 -1.490008 -0.039729 -0.147496
    14 -0.010598 -1.208185 -0.000001 -0.928524 0.000000 0.000000
    15 0.000000 -0.763066 0.000001 -0.956441 0.000000 0.000000
    16 0.105981 -2.607135 -0.278958 -1.202940 -0.083077 -0.180316
    17 -0.000001 -1.250581 -0.000002 -1.029748 0.000000 0.000000
    18 0.000000 -0.932634 0.000000 -1.190315 0.000000 0.000000
    19 0.763064 -2.490556 -0.278958 -0.348897 -0.010738 0.101382
    20 -0.012323 -1.280918 0.000000 -0.762700 0.000000 0.000000
    21 -0.001697 -0.749372 -0.000001 -0.844729 0.000000 0.000000
    22 0.354567 0.016267 0.318132 0.494018 -0.554828 -1.044175
    23 1.887165 0.012877 0.000000 -0.296409 -0.074844 -0.641561
    24 1.001875 -0.000270 0.000000 0.000000 0.000000 -0.719066
    25 -1.123360 -2.195094 -0.278958 -1.567306 0.000000 -0.087266
    26 0.010771 -0.963791 0.000000 -1.213004 0.000000 0.000000
    27 -0.010412 -0.631916 0.000000 -1.197304 0.000000 0.000000
    28 -1.405805 -1.935368 -10.451785 0.803103 0.448945 1.084004
    29 0.089929 -8.543166 0.000000 0.243467 -0.159822 0.284863
    30 0.000000 -0.359714 0.000000 0.000000 0.000000 0.000000
    31 -0.170479 -2.636146 -0.277655 -1.762489 0.000000 0.000000
    32 0.010599 -1.261177 0.000001 -0.343896 0.000000 0.000000
    33 -0.000001 -0.943233 0.000001 -0.967955 0.000000 0.000000
    34 -0.827563 -2.508972 -0.277656 -1.489720 0.000000 0.000000
    35 0.000000 -1.292971 0.000001 -0.985817 0.000000 0.000000
    36 0.000000 -0.752466 0.000001 -0.505086 0.000000 0.000000
    37 0.444213 -2.561960 -0.277655 -1.760467 -0.046885 -0.024335
    38 0.021022 -1.208185 -0.000001 -0.324147 0.000000 0.000000
    39 0.010597 -0.741867 0.000000 -0.883504 0.000000 0.000000
    40 1.047444 -2.222821 -0.277655 -1.593053 -0.083393 -0.037063
    41 0.000000 -0.996223 0.000001 -1.208808 0.000000 0.000000
    42 -0.000001 -0.614689 0.000001 -1.069102 0.000000 0.000000
    43 -0.308254 -0.007814 0.307165 -0.181699 -0.366776 -2.308845
    44 1.978378 0.019545 -0.000001 0.042328 -0.180039 0.772697
    45 0.982425 0.003186 0.000000 0.000000 0.000000 1.096974
  time 3
    0 7.271927 3.365697 -6.196938 5.036215 -2.311463 -5.337362
    1 -0.001603 -8.561233 -0.002571 0.350263 -0.150670 -0.219844
    2 -1.047996 -2.317996 0.654462 -1.247038 1.437608 -1.233761
    3 0.000000 0.743005 1.588492 0.000000 0.000000 0.000000
    4 0.000000 3.192657 2.044578 0.000000 0.000000 0.000000
    5 0.000000 1.878595 2.044578 0.000000 0.000000 0.000000
    6 0.000000 -1.490624 0.407971 0.000000 0.000000 0.000000
    7 -0.019827 -0.426563 4.971295 1.570796 -3.705493 -1.570766
    8 0.276650 -3.399288 5.573969 -0.861856 -2.858488 1.219696
    9 1.704292 0.000000 0.000000 0.000000 -0.699837 0.048831
    10 -0.229124 -3.395397 5.547222 1.245592 -2.957383 0.290260
    11 1.839642 0.000000 0.000000 2.273013 -0.719220 0.119445
    12 -0.003480 -0.404829 0.000000 0.000000 0.000000 0.000000
    13 -0.519309 -2.501156 -0.278957 -1.490008 -0.039729 -0.147496
    14 -0.010598 -1.208185 -0.000001 -0.928524 0.000000 0.000000
    15 0.000000 -0.763066 0.000001 -0.956441 0.000000 0.000000
    16 0.105981 -2.607135 -0.278958 -1.202940 -0.083077 -0.180316
    17 -0.000001 -1.250581 -0.000002 -1.029748 0.000000 0.000000
    18 0.000000 -0.932634 0.000000 -1.190315 0.000000 0.000000
    19 0.763064 -2.490556 -0.278958 -0.348897 -0.010738 0.101382
    20 -0.012323 -1.280918 0.000000 -0.762700 0.000000 0.000000
    21 -0.001697 -0.749372 -0.000001 -0.844729 0.000000 0.000000
    22 0.354567 0.016267 0.318132 0.494018 -0.554828 -1.044175
    23 1.887165 0.012877 0.000000 -0.296409 -0.074844 -0.641561
    24 1.001875 -0.000270 0.000000 0.000000 0.000000 -0.719066
    25 -1.123360 -2.195094 -0.278958 -1.567306 0.000000 -0.087266
    26 0.010771 -0.963791 0.000000 -1.213004 0.000000 0.000000
    27 -0.010412 -0.631916 0.000000 -1.197304 0.000000 0.000000
    28 -1.366742 -1.536918 -10.162714 0.712567 0.579582 1.029030
    29 0.089929 -8.543166 0.000000 0.304471 -0.162388 0.285909
    30 0.000000 -0.359714 0.000000 0.000000 0.000000 0.000000
    31 -0.170479 -2.636146 -0.277655 -1.775634 0.000000 0.000000
    32 0.010599 -1.261177 0.000001 -0.345958 0.000000 0.000000
    33 -0.000001 -0.943233 0.000001 -0.974873 0.000000 0.000000
    34 -0.827563 -2.508972 -0.277656 -1.500371 0.000000 0.000000
    35 0.000000 -1.292971 0.000001 -0.993172 0.000000 0.000000
    36 0.000000 -0.752466 0.000001 -0.507779 0.000000 0.000000
    37 0.444213 -2.561960 -0.277655 -1.774021 -0.046885 -0.024335
    38 0.021022 -1.208185 -0.000001 -0.325558 0.000000 0.000000
    39 0.010597 -0.741867 0.000000 -0.889666 0.000000 0.000000
    40 1.047444 -2.222821 -0.277655 -1.605874 -0.083393 -0.037063
    41 0.000000 -0.996223 0.000001 -1.219559 0.000000 0.000000
    42 -0.000001 -0.614689 0.000001 -1.075920 0.000000 0.000000
    43 -0.308254 -0.007814 0.307165 -0.182022 -0.363936 -2.306407
    44 1.978378 0.019545 -0.000001 0.041621 -0.180190 0.776583
    45 0.982425 0.003186 0.000000 0.000000 0.000000 1.103760
  time 4
    0 7.240676 3.326633 -6.071934 5.031808 -2.208832 -5.344992
    1 -0.001603 -8.561233 -0.002571 0.351303 -0.159518 -0.239050
    2 -1.047996 -2.317996 0.654462 -1.247038 1.437608 -1.233761
    3 0.000000 0.743005 1.588492 0.000000 0.000000 0.000000
    4 0.000000 3.192657 2.044578 0.000000 0.000000 0.000000
    5 0.000000 1.878595 2.044578 0.000000 0.000000 0.000000
    6 0.000000 -1.490624 0.407971 0.000000 0.000000 0.000000
    7 -0.019827 -0.426563 4.971295 1.570796 -3.705493 -1.570766
    8 0.276650 -3.399288 5.573969 -0.854148 -2.931414 1.137251
    9 1.704292 0.000000 0.000000 0.000000 -0.699837 0.048831
    10 -0.229124 -3.395397 5.547222 1.245592 -2.957383 0.290260
    11 1.839642 0.000000 0.000000 2.273013 -0.719220 0.119445
    12 -0.003480 -0.404829 0.000000 0.000000 0.000000 0.000000
    13 -0.519309 -2.501156 -0.278957 -1.490008 -0.039729 -0.147496
    14 -0.010598 -1.208185 -0.000001 -0.928524 0.000000 0.000000
    15 0.000000 -0.763066 0.000001 -0.956441 0.000000 0.000000
    16 0.105981 -2.607135 -0.278958 -1.202940 -0.083077 -0.180316
    17 -0.000001 -1.250581 -0.000002 -1.029748 0.000000 0.000000
    18 0.000000 -0.932634 0.000000 -1.190315 0.000000 0.000000
    19 0.763064 -2.490556 -0.278958 -0.348897 -0.010738 0.101382
    20 -0.012323 -1.280918 0.000000 -0.762700 0.000000 0.000000
    21 -0.001697 -0.749372 -0.000001 -0.844729 0.000000 0.000000
    22 0.354567 0.016267 0.318132 0.494018 -0.554828 -1.044175
    23 1.887165 0.012877 0.000000 -0.296409 -0.074844 -0.641561
    24 1.001875 -0.000270 0.000000 0.000000 0.000000 -0.719066
    25 -1.123360 -2.195094 -0.278958 -1.567306 0.000000 -0.087266
    26 0.010771 -0.963791 0.000000 -1.213004 0.000000 0.000000
    27 -0.010412 -0.631916 0.000000 -1.197304 0.000000 0.000000
    28 -1.327678 -1.208783 -9.885362 0.609425 0.701981 0.955448
    29 0.089929 -8.543166 0.000000 0.364616 -0.163627 0.286171
    30 0.000000 -0.359714 0.000000 0.000000 0.000000 0.000000
    31 -0.170479 -2.636146 -0.277655 -1.791940 0.000000 0.000000
    32 0.010599 -1.261177 0.000001 -0.348505 0.000000 0.000000
    33 -0.000001 -0.943233 0.000001 -0.983482 0.000000 0.000000
    34 -0.827563 -2.508972 -0.277656 -1.513621 0.000000 0.000000
    35 0.000000 -1.292971 0.000001 -1.002324 0.000000 0.000000
    36 0.000000 -0.752466 0.000001 -0.511107 0.000000 0.000000
    37 0.444213 -2.561960 -0.277655 -1.790779 -0.046885 -0.024335
    38 0.021022 -1.208185 -0.000001 -0.327286 0.000000 0.000000
    39 0.010597 -0.741867 0.000000 -0.897354 0.000000 0.000000
    40 1.047444 -2.222821 -0.277655 -1.621869 -0.083393 -0.037063
    41 0.000000 -0.996223 0.000001 -1.232925 0.000000 0.000000
    42 -0.000001 -0.614689 0.000001 -1.084402 0.000000 0.000000
    43 -0.308254 -0.007814 0.307165 -0.182406 -0.360365 -2.303396
    44 1.978378 0.019545 -0.000001 0.040770 -0.180393 0.781418
    45 0.982425 0.003186 0.000000 0.000000 0.000000 1.112292
  time 5
    0 7.205519 3.260225 -5.962555 5.028152 -2.106839 -5.353082
    1 -0.001603 -8.561233 -0.002571 0.352547 -0.168282 -0.258005
    2 -1.047996 -2.317996 0.654462 -1.247038 1.437608 -1.233761
    3 0.000000 0.743005 1.588492 0.000000 0.000000 0.000000
    4 0.000000 3.192657 2.044578 0.000000 0.000000 0.000000
    5 0.000000 1.878595 2.044578 0.000000 0.000000 0.000000
    6 0.000000 -1.490624 0.407971 0.000000 0.000000 0.000000
    7 -0.019827 -0.426563 4.971295 1.570796 -3.705493 -1.570766
    8 0.276650 -3.399288 5.573969 -0.838733 -3.004340 1.054854
    9 1.704292 0.000000 0.000000 0.000000 -0.699837 0.048831
    10 -0.229124 -3.395397 5.547222 1.245592 -2.957383 0.290260
    11 1.839642 0.000000 0.000000 2.273013 -0.719220 0.119445
    12 -0.003480 -0.404829 0.000000 0.000000 0.000000 0.000000
    13 -0.519309 -2.501156 -0.278957 -1.490008 -0.039729 -0.147496
    14 -0.010598 -1.208185 -0.000001 -0.928524 0.000000 0.000000
    15 0.000000 -0.763066 0.000001 -0.956441 0.000000 0.000000
    16 0.105981 -2.607135 -0.278958 -1.202940 -0.083077 -0.180316
    17 -0.000001 -1.250581 -0.000002 -1.029748 0.000000 0.000000
    18 0.000000 -0.932634 0.000000 -1.190315 0.000000 0.000000
    19 0.763064 -2.490556 -0.278958 -0.348897 -0.010738 0.101382
    20 -0.012323 -1.280918 0.000000 -0.762700 0.000000 0.000000
    21 -0.001697 -0.749372 -0.000001 -0.844729 0.000000 0.000000
    22 0.354567 0.016267 0.318132 0.494018 -0.554828 -1.044175
    23 1.887165 0.012877 0.000000 -0.296409 -0.074844 -0.641561
    24 1.001875 -0.000270 0.000000 0.000000 0.000000 -0.719066
    25 -1.123360 -2.195094 -0.278958 -1.567306 0.000000 -0.087266
    26 0.010771 -0.963791 0.000000 -1.213004 0.000000 0.000000
    27 -0.010412 -0.631916 0.000000 -1.197304 0.000000 0.000000
    28 -1.296427 -0.958776 -9.619729 0.494155 0.811738 0.861320
    29 0.089929 -8.543166 0.000000 0.422922 -0.162053 0.285357
    30 0.000000 -0.359714 0.000000 0.000000 0.000000 0.000000
    31 -0.170479 -2.636146 -0.277655 -1.810306 0.000000 0.000000
    32 0.010599 -1.261177 0.000001 -0.351334 0.000000 0.000000
    33 -0.000001 -0.943233 0.000001 -0.993137 0.000000 0.000000
    34 -0.827563 -2.508972 -0.277656 -1.528445 0.000000 0.000000
    35 0.000000 -1.292971 0.000001 -1.012611 0.000000 0.000000
    36 0.000000 -0.752466 0.000001 -0.514868 0.000000 0.000000
    37 0.444213 -2.561960 -0.277655 -1.809572 -0.046885 -0.024335
    38 0.021022 -1.208185 -0.000001 -0.329215 0.000000 0.000000
    39 0.010597 -0.741867 0.000000 -0.905953 0.000000 0.000000
    40 1.047444 -2.222821 -0.277655 -1.639761 -0.083393 -0.037063
    41 0.000000 -0.996223 0.000001 -1.247925 0.000000 0.000000
    42 -0.000001 -0.614689 0.000001 -1.093909 0.000000 0.000000
    43 -0.308254 -0.007814 0.307165 -0.182825 -0.356386 -2.300020
    44 1.978378 0.019545 -0.000001 0.039775 -0.180612 0.786854
    45 0.982425 0.003186 0.000000 0.000000 0.000000 1.121832
  time 6
    0 7.170361 3.154753 -5.876615 5.025808 -2.006440 -5.361815
    1 -0.001603 -8.561233 -0.002571 0.354033 -0.176836 -0.275784
    2 -1.047996 -2.317996 0.654462 -1.247038 1.437608 -1.233761
    3 0.000000 0.743005 1.588492 0.000000 0.000000 0.000000
    4 0.000000 3.192657 2.044578 0.000000 0.000000 0.000000
    5 0.000000 1.878595 2.044578 0.000000 0.000000 0.000000
    6 0.000000 -1.490624 0.407971 0.000000 0.000000 0.000000
    7 -0.019827 -0.426563 4.971295 1.570796 -3.705493 -1.570766
    8 0.276650 -3.399288 5.573969 -0.813461 -3.037539 1.017392
    9 1.704292 0.000000 0.000000 0.000000 -0.699837 0.048831
    10 -0.229124 -3.395397 5.547222 1.245592 -2.957383 0.290260
    11 1.839642 0.000000 0.000000 2.273013 -0.719220 0.119445
    12 -0.003480 -0.404829 0.000000 0.000000 0.000000 0.000000
    13 -0.519309 -2.501156 -0.278957 -1.490008 -0.039729 -0.147496
    14 -0.010598 -1.208185 -0.000001 -0.928524 0.000000 0.000000
    15 0.000000 -0.763066 0.000001 -0.956441 0.000000 0.000000
    16 0.105981 -2.607135 -0.278958 -1.202940 -0.083077 -0.180316
    17 -0.000001 -1.250581 -0.000002 -1.029748 0.000000 0.000000
    18 0.000000 -0.932634 0.000000 -1.190315 0.000000 0.000000
    19 0.763064 -2.490556 -0.278958 -0.348897 -0.010738 0.101382
    20 -0.012323 -1.280918 0.000000 -0.762700 0.000000 0.000000
    21 -0.001697 -0.749372 -0.000001 -0.844729 0.000000 0.000000
    22 0.354567 0.016267 0.318132 0.494018 -0.554828 -1.044175
    23 1.887165 0.012877 0.000000 -0.296409 -0.074844 -0.641561
    24 1.001875 -0.000270 0.000000 0.000000 0.000000 -0.719066
    25 -1.123360 -2.195094 -0.278958 -1.567306 0.000000 -0.087266
    26 0.010771 -0.963791 0.000000 -1.213004 0.000000 0.000000
    27 -0.010412 -0.631916 0.000000 -1.197304 0.000000 0.000000
    28 -1.269082 -0.786895 -9.354096 0.370098 0.905406 0.747675
    29 0.089929 -8.543166 0.000000 0.478433 -0.156191 0.283119
    30 0.000000 -0.359714 0.000000 0.000000 0.000000 0.000000
    31 -0.170479 -2.636146 -0.277655 -1.829451 0.000000 0.000000
    32 0.010599 -1.261177 0.000001 -0.354326 0.000000 0.000000
    33 -0.000001 -0.943233 0.000001 -1.003214 0.000000 0.000000
    34 -0.827563 -2.508972 -0.277656 -1.543965 0.000000 0.000000
    35 0.000000 -1.292971 0.000001 -1.023347 0.000000 0.000000
    36 0.000000 -0.752466 0.000001 -0.518780 0.000000 0.000000
    37 0.444213 -2.561960 -0.277655 -1.829231 -0.046885 -0.024335
    38 0.021022 -1.208185 -0.000001 -0.331259 0.000000 0.000000
    39 0.010597 -0.741867 0.000000 -0.914949 0.000000 0.000000
    40 1.047444 -2.222821 -0.277655 -1.658477 -0.083393 -0.037063
    41 0.000000 -0.996223 0.000001 -1.263579 0.000000 0.000000
    42 -0.000001 -0.614689 0.000001 -1.103832 0.000000 0.000000
    43 -0.308254 -0.007814 0.307165 -0.183245 -0.352215 -2.296514
    44 1.978378 0.019545 -0.000001 0.038756 -0.180831 0.792522
    45 0.982425 0.003186 0.000000 0.000000 0.000000 1.131775
  time 7
    0 7.139111 3.021937 -5.806301 5.025340 -1.908673 -5.372019
    1 -0.001603 -8.561233 -0.002571 0.355760 -0.185011 -0.291538
    2 -1.047996 -2.317996 0.654462 -1.247038 1.437608 -1.233761
    3 0.000000 0.743005 1.588492 0.000000 0.000000 0.000000
    4 0.000000 3.192657 2.044578 0.000000 0.000000 0.000000
    5 0.000000 1.878595 2.044578 0.000000 0.000000 0.000000
    6 0.000000 -1.490624 0.407971 0.000000 0.000000 0.000000
    7 -0.019827 -0.426563 4.971295 1.570796 -3.705493 -1.570766
    8 0.276650 -3.399288 5.573969 -0.770032 -2.919329 1.054759
    9 1.704292 0.000000 0.000000 0.000000 -0.744835 0.048831
    10 -0.229124 -3.395397 5.547222 1.245592 -2.957383 0.290260
    11 1.839642 0.000000 0.000000 2.273013 -0.719220 0.119445
    12 -0.003480 -0.404829 0.000000 0.000000 0.000000 0.000000
    13 -0.519309 -2.501156 -0.278957 -1.490008 -0.039729 -0.147496
    14 -0.010598 -1.208185 -0.000001 -0.928524 0.000000 0.000000
    15 0.000000 -0.763066 0.000001 -0.956441 0.000000 0.000000
    16 0.105981 -2.607135 -0.278958 -1.202940 -0.083077 -0.180316
    17 -0.000001 -1.250581 -0.000002 -1.029748 0.000000 0.000000
    18 0.000000 -0.932634 0.000000 -1.190315 0.000000 0.000000
    19 0.763064 -2.490556 -0.278958 -0.348897 -0.010738 0.101382
    20 -0.012323 -1.280918 0.000000 -0.762700 0.000000 0.000000
    21 -0.001697 -0.749372 -0.000001 -0.844729 0.000000 0.000000
    22 0.354567 0.016267 0.318132 0.494018 -0.554828 -1.044175
    23 1.887165 0.012877 0.000000 -0.296409 -0.074844 -0.641561
    24 1.001875 -0.000270 0.000000 0.000000 0.000000 -0.719066
    25 -1.123360 -2.195094 -0.278958 -1.567306 0.000000 -0.087266
    26 0.010771 -0.963791 0.000000 -1.213004 0.000000 0.000000
    27 -0.010412 -0.631916 0.000000 -1.197304 0.000000 0.000000
    28 -1.230019 -0.736113 -9.018148 0.257119 0.978577 0.624938
    29 0.089929 -8.543166 0.000000 0.531051 -0.139671 0.275737
    30 0.000000 -0.359714 0.000000 0.000000 0.000000 0.000000
    31 -0.170479 -2.636146 -0.277655 -1.848138 0.000000 0.000000
    32 0.010599 -1.261177 0.000001 -0.357196 0.000000 0.000000
    33 -0.000001 -0.943233 0.000001 -1.013069 0.000000 0.000000
    34 -0.827563 -2.508972 -0.277656 -1.559155 0.000000 0.000000
    35 0.000000 -1.292971 0.000001 -1.033824 0.000000 0.000000
    36 0.000000 -0.752466 0.000001 -0.522591 0.000000 0.000000
    37 0.444213 -2.561960 -0.277655 -1.848457 -0.046885 -0.024335
    38 0.021022 -1.208185 -0.000001 -0.333246 0.000000 0.000000
    39 0.010597 -0.741867 0.000000 -0.923726 0.000000 0.000000
    40 1.047444 -2.222821 -0.277655 -1.676823 -0.083393 -0.037063
    41 0.000000 -0.996223 0.000001 -1.278906 0.000000 0.000000
    42 -0.000001 -0.614689 0.000001 -1.113561 0.000000 0.000000
    43 -0.308254 -0.007814 0.307165 -0.183640 -0.348128 -2.293072
    44 1.978378 0.019545 -0.000001 0.037762 -0.181033 0.798073
    45 0.982425 0.003186 0.000000 0.000000 0.000000 1.141450
  time 8
    0 7.100047 2.818805 -5.759424 5.028715 -1.814495 -5.385441
    1 -0.001603 -8.561233 -0.002571 0.357765 -0.192682 -0.304326
    2 -1.047996 -2.317996 0.654462 -1.247038 1.437608 -1.233761
    3 0.000000 0.743005 1.588492 0.000000 0.000000 0.000000
    4 0.000000 3.192657 2.044578 0.000000 0.000000 0.000000
    5 0.000000 1.878595 2.044578 0.000000 0.000000 0.000000
    6 0.000000 -1.490624 0.407971 0.000000 0.000000 0.000000
    7 -0.019827 -0.426563 4.971295 1.570796 -3.705493 -1.570766
    8 0.276650 -3.399288 5.573969 -0.711113 -2.637556 1.162226
    9 1.704292 0.000000 0.000000 0.000000 -0.852173 0.048831
    10 -0.229124 -3.395397 5.547222 1.237063 -2.988351 0.308987
    11 1.839642 0.000000 0.000000 2.245070 -0.733719 0.202067
    12 -0.003480 -0.404829 0.000000 0.000000 0.000000 0.000000
    13 -0.519309 -2.501156 -0.278957 -1.490008 -0.039729 -0.147496
    14 -0.010598 -1.208185 -0.000001 -0.928524 0.000000 0.000000
    15 0.000000 -0.763066 0.000001 -0.956441 0.000000 0.000000
    16 0.105981 -2.607135 -0.278958 -1.202940 -0.083077 -0.180316
    17 -0.000001 -1.250581 -0.000002 -1.029748 0.000000 0.000000
    18 0.000000 -0.932634 0.000000 -1.190315 0.000000 0.000000
    19 0.763064 -2.490556 -0.278958 -0.348897 -0.010738 0.101382
    20 -0.012323 -1.280918 0.000000 -0.762700 0.000000 0.000000
    21 -0.001697 -0.749372 -0.000001 -0.844729 0.000000 0.000000
    22 0.354567 0.016267 0.318132 0.494018 -0.554828 -1.044175
    23 1.887165 0.012877 0.000000 -0.296409 -0.074844 -0.641561
    24 1.001875 -0.000270 0.000000 0.000000 0.000000 -0.719066
    25 -1.123360 -2.195094 -0.278958 -1.567306 0.000000 -0.087266
    26 0.010771 -0.963791 0.000000 -1.213004 0.000000 0.000000
    27 -0.010412 -0.631916 0.000000 -1.197304 0.000000 0.000000
    28 -1.183142 -0.814240 -8.607979 0.161426 1.035659 0.500989
    29 0.089929 -8.543166 0.000000 0.579722 -0.113124 0.264955
    30 0.000000 -0.359714 0.000000 0.000000 0.000000 0.000000
    31 -0.170479 -2.636146 -0.277655 -1.865314 0.000000 0.000000
    32 0.010599 -1.261177 0.000001 -0.359864 0.000000 0.000000
    33 -0.000001 -0.943233 0.000001 -1.022079 0.000000 0.000000
    34 -0.827563 -2.508972 -0.277656 -1.573064 0.000000 0.000000
    35 0.000000 -1.292971 0.000001 -1.043472 0.000000 0.000000
    36 0.000000 -0.752466 0.000001 -0.526097 0.000000 0.000000
    37 0.444213 -2.561960 -0.277655 -1.866037 -0.046885 -0.024335
    38 0.021022 -1.208185 -0.000001 -0.335060 0.000000 0.000000
    39 0.010597 -0.741867 0.000000 -0.931770 0.000000 0.000000
    40 1.047444 -2.222821 -0.277655 -1.693560 -0.083393 -0.037063
    41 0.000000 -0.996223 0.000001 -1.292925 0.000000 0.000000
    42 -0.000001 -0.614689 0.000001 -1.122458 0.000000 0.000000
    43 -0.308254 -0.007814 0.307165 -0.184000 -0.344389 -2.289931
    44 1.978378 0.019545 -0.000001 0.036863 -0.181218 0.803162
    45 0.982425 0.003186 0.000000 0.000000 0.000000 1.150318
  time 9
    0 7.060983 2.584423 -5.728173 5.041371 -1.724862 -5.407504
    1 -0.001603 -8.561233 -0.002571 0.359994 -0.199681 -0.313254
    2 -1.047996 -2.317996 0.654462 -1.247038 1.437608 -1.233761
    3 0.000000 0.743005 1.588492 0.000000 0.000000 0.000000
    4 0.000000 3.192657 2.044578 0.000000 0.000000 0.000000
    5 0.000000 1.878595 2.044578 0.000000 0.000000 0.000000
    6 0.000000 -1.490624 0.407971 0.000000 0.000000 0.000000
    7 -0.019827 -0.426563 4.971295 1.570796 -3.705493 -1.570766
    8 0.276650 -3.399288 5.573969 -0.651157 -2.301262 1.332649
    9 1.704292 0.000000 0.000000 0.000000 -0.980281 0.048831
    10 -0.229124 -3.395397 5.551128 1.217192 -3.056431 0.350273
    11 1.839642 0.000000 0.000000 2.183696 -0.765596 0.385002
    12 -0.003480 -0.404829 0.000000 0.000000 0.000000 0.000000
    13 -0.519309 -2.501156 -0.278957 -1.490008 -0.039729 -0.147496
    14 -0.010598 -1.208185 -0.000001 -0.928524 0.000000 0.000000
    15 0.000000 -0.763066 0.000001 -0.956441 0.000000 0.000000
    16 0.105981 -2.607135 -0.278958 -1.202940 -0.083077 -0.180316
    17 -0.000001 -1.250581 -0.000002 -1.029748 0.000000 0.000000
    18 0.000000 -0.932634 0.000000 -1.190315 0.000000 0.000000
    19 0.763064 -2.490556 -0.278958 -0.348897 -0.010738 0.101382
    20 -0.012323 -1.280918 0.000000 -0.762700 0.000000 0.000000
    21 -0.001697 -0.749372 -0.000001 -0.844729 0.000000 0.000000
    22 0.354567 0.016267 0.318132 0.494018 -0.554828 -1.044175
    23 1.887165 0.012877 0.000000 -0.296409 -0.074844 -0.641561
    24 1.001875 -0.000270 0.000000 0.000000 0.000000 -0.719066
    25 -1.123360 -2.195094 -0.278958 -1.567306 0.000000 -0.087266
    26 0.010771 -0.963791 0.000000 -1.213004 0.000000 0.000000
    27 -0.010412 -0.631916 0.000000 -1.197304 0.000000 0.000000
    28 -1.144079 -0.939244 -8.252500 0.061626 1.084312 0.368433
    29 0.089929 -8.543166 0.000000 0.622532 -0.086120 0.258097
    30 0.000000 -0.359714 0.000000 0.000000 0.000000 0.000000
    31 -0.170479 -2.636146 -0.277655 -1.879649 0.000000 0.000000
    32 0.010599 -1.261177 0.000001 -0.362128 0.000000 0.000000
    33 -0.000001 -0.943233 0.000001 -1.029642 0.000000 0.000000
    34 -0.827563 -2.508972 -0.277656 -1.584704 0.000000 0.000000
    35 0.000000 -1.292971 0.000001 -1.051489 0.000000 0.000000
    36 0.000000 -0.752466 0.000001 -0.529045 0.000000 0.000000
    37 0.444213 -2.561960 -0.277655 -1.880803 -0.046885 -0.024335
    38 0.021022 -1.208185 -0.000001 -0.336586 0.000000 0.000000
    39 0.010597 -0.741867 0.000000 -0.938547 0.000000 0.000000
    40 1.047444 -2.222821 -0.277655 -1.707577 -0.083393 -0.037063
    41 0.000000 -0.996223 0.000001 -1.304657 0.000000 0.000000
    42 -0.000001 -0.614689 0.000001 -1.129914 0.000000 0.000000
    43 -0.308254 -0.007814 0.307165 -0.184287 -0.341273 -2.287311
    44 1.978378 0.019545 -0.000001 0.036096 -0.181370 0.807396
    45 0.982425 0.003186 0.000000 0.000000 0.000000 1.157775
  time 10
    0 7.037545 2.416449 -5.716454 5.093589 -1.640811 -5.468636
    1 -0.001603 -8.561233 -0.002571 0.362464 -0.205902 -0.317428
    2 -1.047996 -2.317996 0.654462 -1.246991 1.437608 -1.233761
    3 0.000000 0.743005 1.588492 0.000000 0.000000 0.000000
    4 0.000000 3.192657 2.044578 0.000000 0.000000 0.000000
    5 0.000000 1.878595 2.044578 0.000000 0.000000 0.000000
    6 0.000000 -1.490624 0.407971 0.000000 0.000000 0.000000
    7 -0.019827 -0.426563 4.971295 -1.555779 -5.903233 1.550833
    8 0.276650 -3.399288 5.573969 -0.604689 -2.019489 1.559030
    9 1.704292 0.000000 0.000000 0.000000 -1.087618 0.048831
    10 -0.233031 -3.395397 5.551128 1.194598 -3.124574 0.391473
    11 1.839642 0.000000 0.000000 2.122251 -0.797494 0.571190
    12 -0.003480 -0.404829 0.000000 0.000000 0.000000 0.000000
    13 -0.519309 -2.501156 -0.278957 -1.490008 -0.039729 -0.147496
    14 -0.010598 -1.208185 -0.000001 -0.928524 0.000000 0.000000
    15 0.000000 -0.763066 0.000001 -0.956441 0.000000 0.000000
    16 0.105981 -2.607135 -0.278958 -1.202940 -0.083077 -0.180316
    17 -0.000001 -1.250581 -0.000002 -1.029748 0.000000 0.000000
    18 0.000000 -0.932634 0.000000 -1.190315 0.000000 0.000000
    19 0.763064 -2.490556 -0.278958 -0.348897 -0.010738 0.101382
    20 -0.012323 -1.280918 0.000000 -0.762700 0.000000 0.000000
    21 -0.001697 -0.749372 -0.000001 -0.844729 0.000000 0.000000
    22 0.354567 0.016267 0.318132 0.494018 -0.554828 -1.044175
    23 1.887165 0.012877 0.000000 -0.296409 -0.074844 -0.641561
    24 1.001875 -0.000270 0.000000 0.000000 0.000000 -0.719066
    25 -1.123360 -2.195094 -0.278958 -1.567306 0.000000 -0.087266
    26 0.010771 -0.963791 0.000000 -1.213004 0.000000 0.000000
    27 -0.010412 -0.631916 0.000000 -1.197304 0.000000 0.000000
    28 -1.144079 -1.044716 -8.072807 -0.075323 1.126740 0.208361
    29 0.089929 -8.543166 0.000000 0.658109 -0.068806 0.261439
    30 0.000000 -0.359714 0.000000 0.000000 0.000000 0.000000
    31 -0.170479 -2.636146 -0.277655 -1.890046 0.000000 0.000000
    32 0.010599 -1.261177 0.000001 -0.363705 0.000000 0.000000
    33 -0.000001 -0.943233 0.000001 -1.035115 0.000000 0.000000
    34 -0.827563 -2.508972 -0.277656 -1.593086 0.000000 0.000000
    35 0.000000 -1.292971 0.000001 -1.057330 0.000000 0.000000
    36 0.000000 -0.752466 0.000001 -0.531153 0.000000 0.000000
    37 0.444213 -2.561960 -0.277655 -1.891412 -0.046885 -0.024335
    38 0.021022 -1.208185 -0.000001 -0.337680 0.000000 0.000000
    39 0.010597 -0.741867 0.000000 -0.943401 0.000000 0.000000
    40 1.047444 -2.222821 -0.277655 -1.717718 -0.083393 -0.037063
    41 0.000000 -0.996223 0.000001 -1.313156 0.000000 0.000000
    42 -0.000001 -0.614689 0.000001 -1.135292 0.000000 0.000000
    43 -0.308254 -0.007814 0.307165 -0.184467 -0.339020 -2.285421
    44 1.978378 0.019545 -0.000001 0.035521 -0.181488 0.810472
    45 0.982425 0.003186 0.000000 0.000000 0.000000 1.163150
  time 11
    0 7.029732 2.357854 -5.728173 5.190712 -1.626218 -5.568562
    1 -0.001603 -8.561233 -0.002571 0.365156 -0.211177 -0.315938
    2 -1.047996 -2.317996 0.654462 -1.247038 1.437608 -1.233761
    3 0.000000 0.743005 1.588492 0.000000 0.000000 0.000000
    4 0.000000 3.192657 2.044578 0.000000 0.000000 0.000000
    5 0.000000 1.878595 2.044578 0.000000 0.000000 0.000000
    6 0.000000 -1.490624 0.407971 0.000000 0.000000 0.000000
    7 -0.019827 -0.426563 4.971295 -1.521078 -0.024773 1.500874
    8 0.276650 -3.399288 5.573969 2.555574 -1.240221 -1.307192
    9 1.704292 0.000000 0.000000 0.000000 -1.132644 0.048831
    10 -0.236937 -3.395397 5.551128 1.177812 -3.155542 0.410287
    11 1.839642 0.000000 0.000000 2.094379 -0.811992 0.663505
    12 -0.003480 -0.404829 0.000000 0.000000 0.000000 0.000000
    13 -0.519309 -2.501156 -0.278957 -1.490008 -0.039729 -0.147496
    14 -0.010598 -1.208185 -0.000001 -0.928524 0.000000 0.000000
    15 0.000000 -0.763066 0.000001 -0.956441 0.000000 0.000000
    16 0.105981 -2.607135 -0.278958 -1.202940 -0.083077 -0.180316
    17 -0.000001 -1.250581 -0.000002 -1.029748 0.000000 0.000000
    18 0.000000 -0.932634 0.000000 -1.190315 0.000000 0.000000
    19 0.763064 -2.490556 -0.278958 -0.348897 -0.010738 0.101382
    20 -0.012323 -1.280918 0.000000 -0.762700 0.000000 0.000000
    21 -0.001697 -0.749372 -0.000001 -0.844729 0.000000 0.000000
    22 0.354567 0.016267 0.318132 0.494018 -0.554828 -1.044175
    23 1.887165 0.012877 0.000000 -0.296409 -0.074844 -0.641561
    24 1.001875 -0.000270 0.000000 0.000000 0.000000 -0.719066
    25 -1.123360 -2.195094 -0.278958 -1.567306 0.000000 -0.087266
    26 0.010771 -0.963791 0.000000 -1.213004 0.000000 0.000000
    27 -0.010412 -0.631916 0.000000 -1.197304 0.000000 0.000000
    28 -1.198768 -1.056435 -8.221249 -0.290489 1.157483 -0.007292
    29 0.089929 -8.543166 0.000000 0.692019 -0.072115 0.282886
    30 0.000000 -0.359714 0.000000 0.000000 0.000000 0.000000
    31 -0.170479 -2.636146 -0.277655 -1.895222 0.000000 0.000000
    32 0.010599 -1.261177 0.000001 -0.364473 0.000000 0.000000
    33 -0.000001 -0.943233 0.000001 -1.037851 0.000000 0.000000
    34 -0.827563 -2.508972 -0.277656 -1.597295 0.000000 0.000000
    35 0.000000 -1.292971 0.000001 -1.060215 0.000000 0.000000
    36 0.000000 -0.752466 0.000001 -0.532220 0.000000 0.000000
    37 0.444213 -2.561960 -0.277655 -1.896738 -0.046885 -0.024335
    38 0.021022 -1.208185 -0.000001 -0.338227 0.000000 0.000000
    39 0.010597 -0.741867 0.000000 -0.945838 0.000000 0.000000
    40 1.047444 -2.222821 -0.277655 -1.722747 -0.083393 -0.037063
    41 0.000000 -0.996223 0.000001 -1.317369 0.000000 0.000000
    42 -0.000001 -0.614689 0.000001 -1.137953 0.000000 0.000000
    43 -0.308254 -0.007814 0.307165 -0.184587 -0.337881 -2.284482
    44 1.978378 0.019545 -0.000001 0.035257 -0.181538 0.811999
    45 0.982425 0.003186 0.000000 0.000000 0.000000 1.165837
  time 12
    0 7.033639 2.361760 -5.755518 5.093589 -1.640811 -5.468636
    1 -0.001603 -8.561233 -0.002571 0.374293 -0.200732 -0.214211
    2 -1.047996 -2.317996 0.654462 -1.247038 1.437608 -1.233761
    3 0.000000 0.743005 1.588492 0.000000 0.000000 0.000000
    4 0.000000 3.192657 2.044578 0.000000 0.000000 0.000000
    5 0.000000 1.878595 2.044578 0.000000 0.000000 0.000000
    6 0.000000 -1.490624 0.407971 0.000000 0.000000 0.000000
    7 -0.019827 -0.426563 4.971295 -1.481871 -0.429498 1.435410
    8 0.276650 -3.399288 5.573969 2.228001 -1.213690 -0.849323
    9 1.704292 0.000000 0.000000 0.000000 -1.083804 0.048831
    10 -0.240843 -3.399303 5.551128 1.167014 -3.122650 0.405235
    11 1.839642 0.000000 0.000000 2.152164 -0.777031 0.673061
    12 -0.003480 -0.404829 0.000000 0.000000 0.000000 0.000000
    13 -0.519309 -2.501156 -0.278957 -1.490008 -0.039729 -0.147496
    14 -0.010598 -1.208185 -0.000001 -0.928524 0.000000 0.000000
    15 0.000000 -0.763066 0.000001 -0.956441 0.000000 0.000000
    16 0.105981 -2.607135 -0.278958 -1.202940 -0.083077 -0.180316
    17 -0.000001 -1.250581 -0.000002 -1.029748 0.000000 0.000000
    18 0.000000 -0.932634 0.000000 -1.190315 0.000000 0.000000
    19 0.763064 -2.490556 -0.278958 -0.348897 -0.010738 0.101382
    20 -0.012323 -1.280918 0.000000 -0.762700 0.000000 0.000000
    21 -0.001697 -0.749372 -0.000001 -0.844729 0.000000 0.000000
    22 0.354567 0.016267 0.318132 0.494018 -0.554828 -1.044175
    23 1.887165 0.012877 0.000000 -0.296409 -0.074844 -0.641561
    24 1.001875 -0.000270 0.000000 0.000000 0.000000 -0.719066
    25 -1.123360 -2.195094 -0.278958 -1.567306 0.000000 -0.087266
    26 0.010771 -0.963791 0.000000 -1.213004 0.000000 0.000000
    27 -0.010412 -0.631916 0.000000 -1.197304 0.000000 0.000000
    28 -1.355023 -0.943150 -8.811110 -0.674884 1.150300 -0.330045
    29 0.089929 -8.543166 0.000000 0.722815 -0.088883 0.315843
    30 0.000000 -0.359714 0.000000 0.000000 0.000000 0.000000
    31 -0.170479 -2.636146 -0.277655 -1.894031 0.000000 0.000000
    32 0.010599 -1.261177 0.000001 -0.364311 0.000000 0.000000
    33 -0.000001 -0.943233 0.000001 -1.037206 0.000000 0.000000
    34 -0.827563 -2.508972 -0.277656 -1.596307 0.000000 0.000000
    35 0.000000 -1.292971 0.000001 -1.059530 0.000000 0.000000
    36 0.000000 -0.752466 0.000001 -0.531966 0.000000 0.000000
    37 0.444213 -2.561960 -0.277655 -1.895526 -0.046885 -0.024335
    38 0.021022 -1.208185 -0.000001 -0.338112 0.000000 0.000000
    39 0.010597 -0.741867 0.000000 -0.945263 0.000000 0.000000
    40 1.047444 -2.222821 -0.277655 -1.721593 -0.083393 -0.037063
    41 0.000000 -0.996223 0.000001 -1.316424 0.000000 0.000000
    42 -0.000001 -0.614689 0.000001 -1.137343 0.000000 0.000000
    43 -0.308254 -0.007814 0.307165 -0.184563 -0.338145 -2.284691
    44 1.978378 0.019545 -0.000001 0.035329 -0.181522 0.811652
    45 0.982425 0.003186 0.000000 0.000000 0.000000 1.165233
  time 13
    0 7.037545 2.416449 -5.775050 1.495710 -1.525899 -1.867242
    1 -0.001603 -8.561233 -0.002571 0.379251 -0.190118 -0.107604
    2 -1.047996 -2.317996 0.654462 -1.247038 1.437608 -1.233761
    3 0.000000 0.743005 1.588492 0.000000 0.000000 0.000000
    4 0.000000 3.192657 2.044578 0.000000 0.000000 0.000000
    5 0.000000 1.878595 2.044578 0.000000 0.000000 0.000000
    6 0.000000 -1.490624 0.407971 0.000000 0.000000 0.000000
    7 -0.019827 -0.426563 4.971295 -1.453592 -0.613472 1.369084
    8 0.276650 -3.399288 5.573969 1.507415 -1.152918 -0.228646
    9 1.704292 0.000000 0.000000 0.000000 -0.962583 0.048831
    10 -0.244750 -3.399303 5.551128 1.157033 -3.040544 0.391821
    11 1.839642 0.000000 0.000000 2.259570 -0.700793 0.677196
    12 -0.003480 -0.404829 0.000000 0.000000 0.000000 0.000000
    13 -0.519309 -2.501156 -0.278957 -1.490008 -0.039729 -0.147496
    14 -0.010598 -1.208185 -0.000001 -0.928524 0.000000 0.000000
    15 0.000000 -0.763066 0.000001 -0.956441 0.000000 0.000000
    16 0.105981 -2.607135 -0.278958 -1.202940 -0.083077 -0.180316
    17 -0.000001 -1.250581 -0.000002 -1.029748 0.000000 0.000000
    18 0.000000 -0.932634 0.000000 -1.190315 0.000000 0.000000
    19 0.763064 -2.490556 -0.278958 -0.348897 -0.010738 0.101382
    20 -0.012323 -1.280918 0.000000 -0.762700 0.000000 0.000000
    21 -0.001697 -0.749372 -0.000001 -0.844729 0.000000 0.000000
    22 0.354567 0.016267 0.318132 0.494018 -0.554828 -1.044175
    23 1.887165 0.012877 0.000000 -0.296409 -0.074844 -0.641561
    24 1.001875 -0.000270 0.000000 0.000000 0.000000 -0.719066
    25 -1.123360 -2.195094 -0.278958 -1.567306 0.000000 -0.087266
    26 0.010771 -0.963791 0.000000 -1.213004 0.000000 0.000000
    27 -0.010412 -0.631916 0.000000 -1.197304 0.000000 0.000000
    28 -1.554247 -0.782989 -9.635354 -1.071694 1.083450 -0.626552
    29 0.089929 -8.543166 0.000000 0.739243 -0.101016 0.345312
    30 0.000000 -0.359714 0.000000 0.000000 0.000000 0.000000
    31 -0.170479 -2.636146 -0.277655 -1.885237 0.000000 0.000000
    32 0.010599 -1.261177 0.000001 -0.362977 0.000000 0.000000
    33 -0.000001 -0.943233 0.000001 -1.032579 0.000000 0.000000
    34 -0.827563 -2.508972 -0.277656 -1.589243 0.000000 0.000000
    35 0.000000 -1.292971 0.000001 -1.054634 0.000000 0.000000
    36 0.000000 -0.752466 0.000001 -0.530188 0.000000 0.000000
    37 0.444213 -2.561960 -0.277655 -1.886519 -0.046885 -0.024335
    38 0.021022 -1.208185 -0.000001 -0.337190 0.000000 0.000000
    39 0.010597 -0.741867 0.000000 -0.941142 0.000000 0.000000
    40 1.047444 -2.222821 -0.277655 -1.713018 -0.083393 -0.037063
    41 0.000000 -0.996223 0.000001 -1.309233 0.000000 0.000000
    42 -0.000001 -0.614689 0.000001 -1.132797 0.000000 0.000000
    43 -0.308254 -0.007814 0.307165 -0.184383 -0.340063 -2.286294
    44 1.978378 0.019545 -0.000001 0.035784 -0.181437 0.809061
    45 0.982425 0.003186 0.000000 0.000000 0.000000 1.160664
  time 14
    0 7.029732 2.549266 -5.790675 0.404196 -1.524623 -0.771270
    1 -0.001603 -8.561233 -0.002571 0.364933 -0.198273 -0.117333
    2 -1.047996 -2.317996 0.654462 -1.247038 1.437608 -1.233761
    3 0.000000 0.743005 1.588492 0.000000 0.000000 0.000000
    4 0.000000 3.192657 2.044578 0.000000 0.000000 0.000000
    5 0.000000 1.878595 2.044578 0.000000 0.000000 0.000000
    6 0.000000 -1.490624 0.407971 0.000000 0.000000 0.000000
    7 -0.019827 -0.426563 4.971295 -1.442856 -0.473382 1.268974
    8 0.276650 -3.399288 5.573969 0.786681 -1.086103 0.317628
    9 1.704292 0.000000 0.000000 0.000000 -0.806680 0.048831
    10 -0.244750 -3.399303 5.551128 1.148322 -2.933738 0.372484
    11 1.839642 0.000000 0.000000 2.317355 -0.626201 0.678077
    12 -0.003480 -0.404829 0.000000 0.000000 0.000000 0.000000
    13 -0.519309 -2.501156 -0.278957 -1.490008 -0.039729 -0.147496
    14 -0.010598 -1.208185 -0.000001 -0.928524 0.000000 0.000000
    15 0.000000 -0.763066 0.000001 -0.956441 0.000000 0.000000
    16 0.105981 -2.607135 -0.278958 -1.202940 -0.083077 -0.180316
    17 -0.000001 -1.250581 -0.000002 -1.029748 0.000000 0.000000
    18 0.000000 -0.932634 0.000000 -1.190315 0.000000 0.000000
    19 0.763064 -2.490556 -0.278958 -0.348897 -0.010738 0.101382
    20 -0.012323 -1.280918 0.000000 -0.762700 0.000000 0.000000
    21 -0.001697 -0.749372 -0.000001 -0.844729 0.000000 0.000000
    22 0.354567 0.016267 0.318132 0.494018 -0.554828 -1.044175
    23 1.887165 0.012877 0.000000 -0.296409 -0.074844 -0.641561
    24 1.001875 -0.000270 0.000000 0.000000 0.000000 -0.719066
    25 -1.123360 -2.195094 -0.278958 -1.567306 0.000000 -0.087266
    26 0.010771 -0.963791 0.000000 -1.213004 0.000000 0.000000
    27 -0.010412 -0.631916 0.000000 -1.197304 0.000000 0.000000
    28 -1.679251 -0.657985 -10.291624 -1.289916 1.022825 -0.788868
    29 0.089929 -8.543166 0.000000 0.731348 -0.089367 0.356908
    30 0.000000 -0.359714 0.000000 0.000000 0.000000 0.000000
    31 -0.170479 -2.636146 -0.277655 -1.867695 0.000000 0.000000
    32 0.010599 -1.261177 0.000001 -0.360269 0.000000 0.000000
    33 -0.000001 -0.943233 0.000001 -1.023369 0.000000 0.000000
    34 -0.827563 -2.508972 -0.277656 -1.575004 0.000000 0.000000
    35 0.000000 -1.292971 0.000001 -1.044797 0.000000 0.000000
    36 0.000000 -0.752466 0.000001 -0.526606 0.000000 0.000000
    37 0.444213 -2.561960 -0.277655 -1.868506 -0.046885 -0.024335
    38 0.021022 -1.208185 -0.000001 -0.335319 0.000000 0.000000
    39 0.010597 -0.741867 0.000000 -0.932920 0.000000 0.000000
    40 1.047444 -2.222821 -0.277655 -1.695869 -0.083393 -0.037063
    41 0.000000 -0.996223 0.000001 -1.294887 0.000000 0.000000
    42 -0.000001 -0.614689 0.000001 -1.123706 0.000000 0.000000
    43 -0.308254 -0.007814 0.307165 -0.184048 -0.343874 -2.289501
    44 1.978378 0.019545 -0.000001 0.036719 -0.181252 0.803856
    45 0.982425 0.003186 0.000000 0.000000 0.000000 1.151594
  time 15
    0 7.014107 2.728959 -5.798488 6.200946 -1.492805 -0.280463
    1 -0.001603 -8.561233 -0.002571 0.344190 -0.212711 -0.158099
    2 -1.047996 -2.317996 0.654462 -1.247038 1.437608 -1.233761
    3 0.000000 0.743005 1.588492 0.000000 0.000000 0.000000
    4 0.000000 3.192657 2.044578 0.000000 0.000000 0.000000
    5 0.000000 1.878595 2.044578 0.000000 0.000000 0.000000
    6 0.000000 -1.490624 0.407971 0.000000 0.000000 0.000000
    7 -0.019827 -0.426563 4.971295 -1.441131 -0.230832 1.199778
    8 0.276650 -3.399288 5.573969 0.459108 -1.041375 0.552427
    9 1.704292 0.000000 0.000000 0.000000 -0.653960 0.048831
    10 -0.248656 -3.399303 5.551128 1.141517 -2.826994 0.349925
    11 1.839642 0.000000 0.000000 2.302293 -0.563723 0.587796
    12 -0.003480 -0.404829 0.000000 0.000000 0.000000 0.000000
    13 -0.519309 -2.501156 -0.278957 -1.490008 -0.039729 -0.147496
    14 -0.010598 -1.208185 -0.000001 -0.928524 0.000000 0.000000
    15 0.000000 -0.763066 0.000001 -0.956441 0.000000 0.000000
    16 0.105981 -2.607135 -0.278958 -1.202940 -0.083077 -0.180316
    17 -0.000001 -1.250581 -0.000002 -1.029748 0.000000 0.000000
    18 0.000000 -0.932634 0.000000 -1.190315 0.000000 0.000000
    19 0.763064 -2.490556 -0.278958 -0.348897 -0.010738 0.101382
    20 -0.012323 -1.280918 0.000000 -0.762700 0.000000 0.000000
    21 -0.001697 -0.749372 -0.000001 -0.844729 0.000000 0.000000
    22 0.354567 0.016267 0.318132 0.494018 -0.554828 -1.044175
    23 1.887165 0.012877 0.000000 -0.296409 -0.074844 -0.641561
    24 1.001875 -0.000270 0.000000 0.000000 0.000000 -0.719066
    25 -1.123360 -2.195094 -0.278958 -1.567306 0.000000 -0.087266
    26 0.010771 -0.963791 0.000000 -1.213004 0.000000 0.000000
    27 -0.010412 -0.631916 0.000000 -1.197304 0.000000 0.000000
    28 -1.663626 -0.603296 -10.592415 -1.361161 1.017845 -0.879481
    29 0.089929 -8.543166 0.000000 0.691946 -0.031924 0.338773
    30 0.000000 -0.359714 0.000000 0.000000 0.000000 0.000000
    31 -0.170479 -2.636146 -0.277655 -1.840169 0.000000 0.000000
    32 0.010599 -1.261177 0.000001 -0.355983 0.000000 0.000000
    33 -0.000001 -0.943233 0.000001 -1.008887 0.000000 0.000000
    34 -0.827563 -2.508972 -0.277656 -1.552676 0.000000 0.000000
    35 0.000000 -1.292971 0.000001 -1.029401 0.000000 0.000000
    36 0.000000 -0.752466 0.000001 -0.520965 0.000000 0.000000
    37 0.444213 -2.561960 -0.277655 -1.840273 -0.046885 -0.024335
    38 0.021022 -1.208185 -0.000001 -0.332382 0.000000 0.000000
    39 0.010597 -0.741867 0.000000 -0.920001 0.000000 0.000000
    40 1.047444 -2.222821 -0.277655 -1.669031 -0.083393 -0.037063
    41 0.000000 -0.996223 0.000001 -1.272405 0.000000 0.000000
    42 -0.000001 -0.614689 0.000001 -1.109403 0.000000 0.000000
    43 -0.308254 -0.007814 0.307165 -0.183484 -0.349878 -2.294532
    44 1.978378 0.019545 -0.000001 0.038181 -0.180949 0.795714
    45 0.982425 0.003186 0.000000 0.000000 0.000000 1.137284
  time 16
    0 6.998481 2.846150 -5.794582 6.067448 -1.472948 -0.143582
    1 -0.001603 -8.561233 -0.002571 0.325620 -0.226330 -0.203337
    2 -1.047996 -2.317996 0.654462 -1.247038 1.437608 -1.233761
    3 0.000000 0.743005 1.588492 0.000000 0.000000 0.000000
    4 0.000000 3.192657 2.044578 0.000000 0.000000 0.000000
    5 0.000000 1.878595 2.044578 0.000000 0.000000 0.000000
    6 0.000000 -1.490624 0.407971 0.000000 0.000000 0.000000
    7 -0.019827 -0.426563 4.971295 -1.512930 0.038827 1.229255
    8 0.276650 -3.399288 5.573969 0.506613 -1.020748 0.529108
    9 1.704292 0.000000 0.000000 0.000000 -0.477644 0.048831
    10 -0.248656 -3.399303 5.551128 1.136980 -2.744825 0.326669
    11 1.839642 0.000000 0.000000 2.242889 -0.502889 0.420111
    12 -0.003480 -0.404829 0.000000 0.000000 0.000000 0.000000
    13 -0.519309 -2.501156 -0.278957 -1.490008 -0.039729 -0.147496
    14 -0.010598 -1.208185 -0.000001 -0.928524 0.000000 0.000000
    15 0.000000 -0.763066 0.000001 -0.956441 0.000000 0.000000
    16 0.105981 -2.607135 -0.278958 -1.202940 -0.083077 -0.180316
    17 -0.000001 -1.250581 -0.000002 -1.029748 0.000000 0.000000
    18 0.000000 -0.932634 0.000000 -1.190315 0.000000 0.000000
    19 0.763064 -2.490556 -0.278958 -0.348897 -0.010738 0.101382
    20 -0.012323 -1.280918 0.000000 -0.762700 0.000000 0.000000
    21 -0.001697 -0.749372 -0.000001 -0.844729 0.000000 0.000000
    22 0.354567 0.016267 0.318132 0.494018 -0.554828 -1.044175
    23 1.887165 0.012877 0.000000 -0.296409 -0.074844 -0.641561
    24 1.001875 -0.000270 0.000000 0.000000 0.000000 -0.719066
    25 -1.123360 -2.195094 -0.278958 -1.567306 0.000000 -0.087266
    26 0.010771 -0.963791 0.000000 -1.213004 0.000000 0.000000
    27 -0.010412 -0.631916 0.000000 -1.197304 0.000000 0.000000
    28 -1.554247 -0.583764 -10.682261 -1.380834 1.044470 -0.951911
    29 0.089929 -8.543166 0.000000 0.625352 0.053738 0.296894
    30 0.000000 -0.359714 0.000000 0.000000 0.000000 0.000000
    31 -0.170479 -2.636146 -0.277655 -1.801558 0.000000 0.000000
    32 0.010599 -1.261177 0.000001 -0.349960 0.000000 0.000000
    33 -0.000001 -0.943233 0.000001 -0.988510 0.000000 0.000000
    34 -0.827563 -2.508972 -0.277656 -1.521381 0.000000 0.000000
    35 0.000000 -1.292971 0.000001 -1.007692 0.000000 0.000000
    36 0.000000 -0.752466 0.000001 -0.513064 0.000000 0.000000
    37 0.444213 -2.561960 -0.277655 -1.800565 -0.046885 -0.024335
    38 0.021022 -1.208185 -0.000001 -0.328293 0.000000 0.000000
    39 0.010597 -0.741867 0.000000 -0.901832 0.000000 0.000000
    40 1.047444 -2.222821 -0.277655 -1.631227 -0.083393 -0.037063
    41 0.000000 -0.996223 0.000001 -1.240733 0.000000 0.000000
    42 -0.000001 -0.614689 0.000001 -1.089363 0.000000 0.000000
    43 -0.308254 -0.007814 0.307165 -0.182621 -0.358279 -2.301637
    44 1.978378 0.019545 -0.000001 0.040242 -0.180494 0.784263
    45 0.982425 0.003186 0.000000 0.000000 0.000000 1.117196
  time 17
    0 6.978949 2.842244 -5.751611 6.071104 -1.484990 -0.147535
    1 -0.001603 -8.561233 -0.002571 0.316632 -0.230492 -0.226717
    2 -1.047996 -2.317996 0.654462 -1.247038 1.437608 -1.233761
    3 0.000000 0.743005 1.588492 0.000000 0.000000 0.000000
    4 0.000000 3.192657 2.044578 0.000000 0.000000 0.000000
    5 0.000000 1.878595 2.044578 0.000000 0.000000 0.000000
    6 0.000000 -1.490624 0.407971 0.000000 0.000000 0.000000
    7 -0.019827 -0.426563 4.971295 4.687114 0.206119 1.310703
    8 0.276650 -3.399288 5.573969 0.631862 -1.006162 0.467570
    9 1.704292 0.000000 0.000000 0.000000 -0.269856 0.048831
    10 -0.248656 -3.399303 5.551128 1.135347 -2.711995 0.305155
    11 1.839642 0.000000 0.000000 2.118309 -0.455135 0.329830
    12 -0.003480 -0.404829 0.000000 0.000000 0.000000 0.000000
    13 -0.519309 -2.501156 -0.278957 -1.490008 -0.039729 -0.147496
    14 -0.010598 -1.208185 -0.000001 -0.928524 0.000000 0.000000
    15 0.000000 -0.763066 0.000001 -0.956441 0.000000 0.000000
    16 0.105981 -2.607135 -0.278958 -1.202940 -0.083077 -0.180316
    17 -0.000001 -1.250581 -0.000002 -1.029748 0.000000 0.000000
    18 0.000000 -0.932634 0.000000 -1.190315 0.000000 0.000000
    19 0.763064 -2.490556 -0.278958 -0.348897 -0.010738 0.101382
    20 -0.012323 -1.280918 0.000000 -0.762700 0.000000 0.000000
    21 -0.001697 -0.749372 -0.000001 -0.844729 0.000000 0.000000
    22 0.354567 0.016267 0.318132 0.494018 -0.554828 -1.044175
    23 1.887165 0.012877 0.000000 -0.296409 -0.074844 -0.641561
    24 1.001875 -0.000270 0.000000 0.000000 0.000000 -0.719066
    25 -1.123360 -2.195094 -0.278958 -1.567306 0.000000 -0.087266
    26 0.010771 -0.963791 0.000000 -1.213004 0.000000 0.000000
    27 -0.010412 -0.631916 0.000000 -1.197304 0.000000 0.000000
    28 -1.409712 -0.599390 -10.674448 -1.386278 1.084695 -1.019916
    29 0.089929 -8.543166 0.000000 0.541104 0.127974 0.246094
    30 0.000000 -0.359714 0.000000 0.000000 0.000000 0.000000
    31 -0.170479 -2.636146 -0.277655 -1.750535 0.000000 0.000000
    32 0.010599 -1.261177 0.000001 -0.342077 0.000000 0.000000
    33 -0.000001 -0.943233 0.000001 -0.961659 0.000000 0.000000
    34 -0.827563 -2.508972 -0.277656 -1.480020 0.000000 0.000000
    35 0.000000 -1.292971 0.000001 -0.979101 0.000000 0.000000
    36 0.000000 -0.752466 0.000001 -0.502647 0.000000 0.000000
    37 0.444213 -2.561960 -0.277655 -1.748213 -0.046885 -0.024335
    38 0.021022 -1.208185 -0.000001 -0.322909 0.000000 0.000000
    39 0.010597 -0.741867 0.000000 -0.877897 0.000000 0.000000
    40 1.047444 -2.222821 -0.277655 -1.581386 -0.083393 -0.037063
    41 0.000000 -0.996223 0.000001 -1.199038 0.000000 0.000000
    42 -0.000001 -0.614689 0.000001 -1.062893 0.000000 0.000000
    43 -0.308254 -0.007814 0.307165 -0.181399 -0.369377 -2.311048
    44 1.978378 0.019545 -0.000001 0.042951 -0.179887 0.769158
    45 0.982425 0.003186 0.000000 0.000000 0.000000 1.090793
  time 18
    0 6.955511 2.764116 -5.681297 6.210789 -1.517924 -0.289840
    1 -0.001603 -8.561233 -0.002571 0.315332 -0.226162 -0.229196
    2 -1.047996 -2.317996 0.654462 -1.247038 1.437608 -1.233761
    3 0.000000 0.743005 1.588492 0.000000 0.000000 0.000000
    4 0.000000 3.192657 2.044578 0.000000 0.000000 0.000000
    5 0.000000 1.878595 2.044578 0.000000 0.000000 0.000000
    6 0.000000 -1.490624 0.407971 0.000000 0.000000 0.000000
    7 -0.019827 -0.426563 4.971295 4.676282 0.087545 1.435697
    8 0.276650 -3.399288 5.573969 0.808840 -0.995953 0.380537
    9 1.704292 0.000000 0.000000 0.000000 -0.096722 0.048831
    10 -0.248656 -3.399303 5.551128 1.159664 -2.731917 0.287473
    11 1.839642 0.000000 0.000000 1.926302 -0.415999 0.386086
    12 -0.003480 -0.404829 0.000000 0.000000 0.000000 0.000000
    13 -0.519309 -2.501156 -0.278957 -1.490008 -0.039729 -0.147496
    14 -0.010598 -1.208185 -0.000001 -0.928524 0.000000 0.000000
    15 0.000000 -0.763066 0.000001 -0.956441 0.000000 0.000000
    16 0.105981 -2.607135 -0.278958 -1.202940 -0.083077 -0.180316
    17 -0.000001 -1.250581 -0.000002 -1.029748 0.000000 0.000000
    18 0.000000 -0.932634 0.000000 -1.190315 0.000000 0.000000
    19 0.763064 -2.490556 -0.278958 -0.348897 -0.010738 0.101382
    20 -0.012323 -1.280918 0.000000 -0.762700 0.000000 0.000000
    21 -0.001697 -0.749372 -0.000001 -0.844729 0.000000 0.000000
    22 0.354567 0.016267 0.318132 0.494018 -0.554828 -1.044175
    23 1.887165 0.012877 0.000000 -0.296409 -0.074844 -0.641561
    24 1.001875 -0.000270 0.000000 0.000000 0.000000 -0.719066
    25 -1.123360 -2.195094 -0.278958 -1.567306 0.000000 -0.087266
    26 0.010771 -0.963791 0.000000 -1.213004 0.000000 0.000000
    27 -0.010412 -0.631916 0.000000 -1.197304 0.000000 0.000000
    28 -1.296427 -0.646266 -10.682261 -1.411395 1.117546 -1.094043
    29 0.089929 -8.543166 0.000000 0.455508 0.154880 0.209069
    30 0.000000 -0.359714 0.000000 0.000000 0.000000 0.000000
    31 -0.170479 -2.636146 -0.277655 -1.631726 0.000000 0.000000
    32 0.010599 -1.261177 0.000001 -0.323643 0.000000 0.000000
    33 -0.000001 -0.943233 0.000001 -0.899082 0.000000 0.000000
    34 -0.827563 -2.508972 -0.277656 -1.383718 0.000000 0.000000
    35 0.000000 -1.292971 0.000001 -0.912483 0.000000 0.000000
    36 0.000000 -0.752466 0.000001 -0.478358 0.000000 0.000000
    37 0.444213 -2.561960 -0.277655 -1.626275 -0.046885 -0.024335
    38 0.021022 -1.208185 -0.000001 -0.310298 0.000000 0.000000
    39 0.010597 -0.741867 0.000000 -0.822062 0.000000 0.000000
    40 1.047444 -2.222821 -0.277655 -1.465254 -0.083393 -0.037063
    41 0.000000 -0.996223 0.000001 -1.101773 0.000000 0.000000
    42 -0.000001 -0.614689 0.000001 -1.001221 0.000000 0.000000
    43 -0.308254 -0.007814 0.307165 -0.178079 -0.395192 -2.333221
    44 1.978378 0.019545 -0.000001 0.049231 -0.178303 0.733974
    45 0.982425 0.003186 0.000000 0.000000 0.000000 1.029185
  time 19
    0 6.928167 2.654738 -5.618795 0.411040 -1.547191 -0.773752
    1 -0.001603 -8.561233 -0.002571 0.315128 -0.220614 -0.229510
    2 -1.047996 -2.317996 0.654462 -1.247038 1.437608 -1.233761
    3 0.000000 0.743005 1.588492 0.000000 0.000000 0.000000
    4 0.000000 3.192657 2.044578 0.000000 0.000000 0.000000
    5 0.000000 1.878595 2.044578 0.000000 0.000000 0.000000
    6 0.000000 -1.490624 0.407971 0.000000 0.000000 0.000000
    7 -0.019827 -0.426563 4.971295 1.533219 -2.989026 -1.559472
    8 0.276650 -3.399288 5.573969 1.011831 -0.988313 0.280781
    9 1.704292 0.000000 0.000000 0.000000 -0.024313 0.048831
    10 -0.248656 -3.399303 5.551128 1.220458 -2.779517 0.271359
    11 1.839642 0.000000 0.000000 1.688968 -0.374497 0.538927
    12 -0.003480 -0.404829 0.000000 0.000000 0.000000 0.000000
    13 -0.519309 -2.501156 -0.278957 -1.490008 -0.039729 -0.147496
    14 -0.010598 -1.208185 -0.000001 -0.928524 0.000000 0.000000
    15 0.000000 -0.763066 0.000001 -0.956441 0.000000 0.000000
    16 0.105981 -2.607135 -0.278958 -1.202940 -0.083077 -0.180316
    17 -0.000001 -1.250581 -0.000002 -1.029748 0.000000 0.000000
    18 0.000000 -0.932634 0.000000 -1.190315 0.000000 0.000000
    19 0.763064 -2.490556 -0.278958 -0.348897 -0.010738 0.101382
    20 -0.012323 -1.280918 0.000000 -0.762700 0.000000 0.000000
    21 -0.001697 -0.749372 -0.000001 -0.844729 0.000000 0.000000
    22 0.354567 0.016267 0.318132 0.494018 -0.554828 -1.044175
    23 1.887165 0.012877 0.000000 -0.296409 -0.074844 -0.641561
    24 1.001875 -0.000270 0.000000 0.000000 0.000000 -0.719066
    25 -1.123360 -2.195094 -0.278958 -1.567306 0.000000 -0.087266
    26 0.010771 -0.963791 0.000000 -1.213004 0.000000 0.000000
    27 -0.010412 -0.631916 0.000000 -1.197304 0.000000 0.000000
    28 -1.214393 -0.724393 -10.713512 -1.455326 1.141010 -1.175140
    29 0.089929 -8.543166 0.000000 0.367730 0.130750 0.195875
    30 0.000000 -0.359714 0.000000 0.000000 0.000000 0.000000
    31 -0.170479 -2.636146 -0.277655 -1.417787 0.000000 0.000000
    32 0.010599 -1.261177 0.000001 -0.290413 0.000000 0.000000
    33 -0.000001 -0.943233 0.000001 -0.786451 0.000000 0.000000
    34 -0.827563 -2.508972 -0.277656 -1.210294 0.000000 0.000000
    35 0.000000 -1.292971 0.000001 -0.792538 0.000000 0.000000
    36 0.000000 -0.752466 0.000001 -0.434608 0.000000 0.000000
    37 0.444213 -2.561960 -0.277655 -1.406648 -0.046885 -0.024335
    38 0.021022 -1.208185 -0.000001 -0.287637 0.000000 0.000000
    39 0.010597 -0.741867 0.000000 -0.721567 0.000000 0.000000
    40 1.047444 -2.222821 -0.277655 -1.256201 -0.083393 -0.037063
    41 0.000000 -0.996223 0.000001 -0.926747 0.000000 0.000000
    42 -0.000001 -0.614689 0.000001 -0.890184 0.000000 0.000000
    43 -0.308254 -0.007814 0.307165 -0.170397 -0.441452 -2.374035
    44 1.978378 0.019545 -0.000001 0.060341 -0.174882 0.670684
    45 0.982425 0.003186 0.000000 0.000000 0.000000 0.918130
  time 20
    0 6.896916 2.564891 -5.587544 0.743941 -1.557398 -1.100558
    1 -0.001603 -8.561233 -0.002571 0.315908 -0.213993 -0.227925
    2 -1.047996 -2.317996 0.654462 -1.247038 1.437608 -1.233761
    3 0.000000 0.743005 1.588492 0.000000 0.000000 0.000000
    4 0.000000 3.192657 2.044578 0.000000 0.000000 0.000000
    5 0.000000 1.878595 2.044578 0.000000 0.000000 0.000000
    6 0.000000 -1.490624 0.407971 0.000000 0.000000 0.000000
    7 -0.019827 -0.426563 4.971295 1.520757 -2.800881 -1.422036
    8 0.276650 -3.399288 5.573969 1.214749 -0.981576 0.181071
    9 1.704292 0.000000 0.000000 -0.014310 -0.110276 0.085995
    10 -0.248656 -3.399303 5.551128 1.299309 -2.836241 0.252980
    11 1.839642 0.000000 0.000000 1.421721 -0.332070 0.764088
    12 -0.003480 -0.404829 0.000000 0.000000 0.000000 0.000000
    13 -0.519309 -2.501156 -0.278957 -1.490008 -0.039729 -0.147496
    14 -0.010598 -1.208185 -0.000001 -0.928524 0.000000 0.000000
    15 0.000000 -0.763066 0.000001 -0.956441 0.000000 0.000000
    16 0.105981 -2.607135 -0.278958 -1.202940 -0.083077 -0.180316
    17 -0.000001 -1.250581 -0.000002 -1.029748 0.000000 0.000000
    18 0.000000 -0.932634 0.000000 -1.190315 0.000000 0.000000
    19 0.763064 -2.490556 -0.278958 -0.348897 -0.010738 0.101382
    20 -0.012323 -1.280918 0.000000 -0.762700 0.000000 0.000000
    21 -0.001697 -0.749372 -0.000001 -0.844729 0.000000 0.000000
    22 0.354567 0.016267 0.318132 0.494018 -0.554828 -1.044175
    23 1.887165 0.012877 0.000000 -0.296409 -0.074844 -0.641561
    24 1.001875 -0.000270 0.000000 0.000000 0.000000 -0.719066
    25 -1.123360 -2.195094 -0.278958 -1.567306 0.000000 -0.087266
    26 0.010771 -0.963791 0.000000 -1.213004 0.000000 0.000000
    27 -0.010412 -0.631916 0.000000 -1.197304 0.000000 0.000000
    28 -1.140172 -0.829865 -10.721325 -1.500975 1.166199 -1.259995
    29 0.089929 -8.543166 0.000000 0.269776 0.081313 0.197183
    30 0.000000 -0.359714 0.000000 0.000000 0.000000 0.000000
    31 -0.170479 -2.636146 -0.277655 -1.150123 0.000000 0.000000
    32 0.010599 -1.261177 0.000001 -0.248855 0.000000 0.000000
    33 -0.000001 -0.943233 0.000001 -0.645524 0.000000 0.000000
    34 -0.827563 -2.508972 -0.277656 -0.993313 0.000000 0.000000
    35 0.000000 -1.292971 0.000001 -0.642488 0.000000 0.000000
    36 0.000000 -0.752466 0.000001 -0.379856 0.000000 0.000000
    37 0.444213 -2.561960 -0.277655 -1.131898 -0.046885 -0.024335
    38 0.021022 -1.208185 -0.000001 -0.259247 0.000000 0.000000
    39 0.010597 -0.741867 0.000000 -0.595850 0.000000 0.000000
    40 1.047444 -2.222821 -0.277655 -0.994585 -0.083393 -0.037063
    41 0.000000 -0.996223 0.000001 -0.707773 0.000000 0.000000
    42 -0.000001 -0.614689 0.000001 -0.751291 0.000000 0.000000
    43 -0.308254 -0.007814 0.307165 -0.157538 -0.498859 -2.426997
    44 1.978378 0.019545 -0.000001 0.073895 -0.169642 0.591618
    45 0.982425 0.003186 0.000000 0.000000 0.000000 0.779261
  time 21
    0 6.861758 2.506296 -5.591450 6.063510 -1.554049 -0.125380
    1 -0.001603 -8.561233 -0.002571 0.317523 -0.206469 -0.224740
    2 -1.047996 -2.317996 0.654462 -1.247038 1.437608 -1.233761
    3 0.000000 0.743005 1.588492 0.000000 0.000000 0.000000
    4 0.000000 3.192657 2.044578 0.000000 0.000000 0.000000
    5 0.000000 1.878595 2.044578 0.000000 0.000000 0.000000
    6 0.000000 -1.490624 0.407971 0.000000 0.000000 0.000000
    7 -0.019827 -0.426563 4.971295 1.485289 -2.712638 -1.283835
    8 0.276650 -3.399288 5.573969 1.391801 -0.973867 0.094038
    9 1.704292 0.000000 0.000000 -0.045793 -0.299351 0.167778
    10 -0.248656 -3.399303 5.551128 1.377978 -2.883841 0.228244
    11 1.839642 0.000000 0.000000 1.140115 -0.290321 1.037575
    12 -0.003480 -0.404829 0.000000 0.000000 0.000000 0.000000
    13 -0.519309 -2.501156 -0.278957 -1.490008 -0.039729 -0.147496
    14 -0.010598 -1.208185 -0.000001 -0.928524 0.000000 0.000000
    15 0.000000 -0.763066 0.000001 -0.956441 0.000000 0.000000
    16 0.105981 -2.607135 -0.278958 -1.202940 -0.083077 -0.180316
    17 -0.000001 -1.250581 -0.000002 -1.029748 0.000000 0.000000
    18 0.000000 -0.932634 0.000000 -1.190315 0.000000 0.000000
    19 0.763064 -2.490556 -0.278958 -0.348897 -0.010738 0.101382
    20 -0.012323 -1.280918 0.000000 -0.762700 0.000000 0.000000
    21 -0.001697 -0.749372 -0.000001 -0.844729 0.000000 0.000000
    22 0.354567 0.016267 0.318132 0.494018 -0.554828 -1.044175
    23 1.887165 0.012877 0.000000 -0.296409 -0.074844 -0.641561
    24 1.001875 -0.000270 0.000000 0.000000 0.000000 -0.719066
    25 -1.123360 -2.195094 -0.278958 -1.567306 0.000000 -0.087266
    26 0.010771 -0.963791 0.000000 -1.213004 0.000000 0.000000
    27 -0.010412 -0.631916 0.000000 -1.197304 0.000000 0.000000
    28 -1.069858 -0.966588 -10.701793 -1.556080 1.189664 -1.351578
    29 0.089929 -8.543166 0.000000 0.170817 0.019173 0.210929
    30 0.000000 -0.359714 0.000000 0.000000 0.000000 0.000000
    31 -0.170479 -2.636146 -0.277655 -0.870047 0.000000 0.000000
    32 0.010599 -1.261177 0.000001 -0.205357 0.000000 0.000000
    33 -0.000001 -0.943233 0.000001 -0.498080 0.000000 0.000000
    34 -0.827563 -2.508972 -0.277656 -0.766303 0.000000 0.000000
    35 0.000000 -1.292971 0.000001 -0.485485 0.000000 0.000000
    36 0.000000 -0.752466 0.000001 -0.322564 0.000000 0.000000
    37 0.444213 -2.561960 -0.277655 -0.844374 -0.046885 -0.024335
    38 0.021022 -1.208185 -0.000001 -0.229503 0.000000 0.000000
    39 0.010597 -0.741867 0.000000 -0.464307 0.000000 0.000000
    40 1.047444 -2.222821 -0.277655 -0.720891 -0.083393 -0.037063
    41 0.000000 -0.996223 0.000001 -0.478630 0.000000 0.000000
    42 -0.000001 -0.614689 0.000001 -0.605939 0.000000 0.000000
    43 -0.308254 -0.007814 0.307165 -0.139800 -0.558170 -2.485278
    44 1.978378 0.019545 -0.000001 0.087570 -0.163053 0.509059
    45 0.982425 0.003186 0.000000 0.000000 0.000000 0.633875
  time 22
    0 6.818788 2.451607 -5.622701 5.667048 -1.538259 -5.999064
    1 -0.001603 -8.561233 -0.002571 0.319863 -0.198210 -0.220205
    2 -1.047996 -2.317996 0.654462 -1.247038 1.437608 -1.233761
    3 0.000000 0.743005 1.588492 0.000000 0.000000 0.000000
    4 0.000000 3.192657 2.044578 0.000000 0.000000 0.000000
    5 0.000000 1.878595 2.044578 0.000000 0.000000 0.000000
    6 0.000000 -1.490624 0.407971 0.000000 0.000000 0.000000
    7 -0.019827 -0.426563 4.971295 1.436208 -2.649986 -1.131755
    8 0.276650 -3.399288 5.573969 1.517050 -0.963587 0.032500
    9 1.704292 0.000000 0.000000 -0.077277 -0.488454 0.249573
    10 -0.248656 -3.399303 5.551128 1.438046 -2.903762 0.193316
    11 1.839642 0.000000 0.000000 0.859425 -0.250794 1.335124
    12 -0.003480 -0.404829 0.000000 0.000000 0.000000 0.000000
    13 -0.519309 -2.501156 -0.278957 -1.490008 -0.039729 -0.147496
    14 -0.010598 -1.208185 -0.000001 -0.928524 0.000000 0.000000
    15 0.000000 -0.763066 0.000001 -0.956441 0.000000 0.000000
    16 0.105981 -2.607135 -0.278958 -1.202940 -0.083077 -0.180316
    17 -0.000001 -1.250581 -0.000002 -1.029748 0.000000 0.000000
    18 0.000000 -0.932634 0.000000 -1.190315 0.000000 0.000000
    19 0.763064 -2.490556 -0.278958 -0.348897 -0.010738 0.101382
    20 -0.012323 -1.280918 0.000000 -0.762700 0.000000 0.000000
    21 -0.001697 -0.749372 -0.000001 -0.844729 0.000000 0.000000
    22 0.354567 0.016267 0.318132 0.494018 -0.554828 -1.044175
    23 1.887165 0.012877 0.000000 -0.296409 -0.074844 -0.641561
    24 1.001875 -0.000270 0.000000 0.000000 0.000000 -0.719066
    25 -1.123360 -2.195094 -0.278958 -1.567306 0.000000 -0.087266
    26 0.010771 -0.963791 0.000000 -1.213004 0.000000 0.000000
    27 -0.010412 -0.631916 0.000000 -1.197304 0.000000 0.000000
    28 -1.011262 -1.134562 -10.658823 -1.626465 1.207765 -1.451828
    29 0.089929 -8.543166 0.000000 0.079557 -0.043859 0.232057
    30 0.000000 -0.359714 0.000000 0.000000 0.000000 0.000000
    31 -0.170479 -2.636146 -0.277655 -0.618826 0.000000 0.000000
    32 0.010599 -1.261177 0.000001 -0.166387 0.000000 0.000000
    33 -0.000001 -0.943233 0.000001 -0.365806 0.000000 0.000000
    34 -0.827563 -2.508972 -0.277656 -0.562646 0.000000 0.000000
    35 0.000000 -1.292971 0.000001 -0.344682 0.000000 0.000000
    36 0.000000 -0.752466 0.000001 -0.271191 0.000000 0.000000
    37 0.444213 -2.561960 -0.277655 -0.586512 -0.046885 -0.024335
    38 0.021022 -1.208185 -0.000001 -0.202870 0.000000 0.000000
    39 0.010597 -0.741867 0.000000 -0.346336 0.000000 0.000000
    40 1.047444 -2.222821 -0.277655 -0.475394 -0.083393 -0.037063
    41 0.000000 -0.996223 0.000001 -0.273095 0.000000 0.000000
    42 -0.000001 -0.614689 0.000001 -0.475610 0.000000 0.000000
    43 -0.308254 -0.007814 0.307165 -0.119726 -0.610495 -2.540600
    44 1.978378 0.019545 -0.000001 0.099327 -0.156212 0.435152
    45 0.982425 0.003186 0.000000 0.000000 0.000000 0.503539
  time 23
    0 6.775818 2.400824 -5.673484 5.551362 -1.517207 -5.869261
    1 -0.001603 -8.561233 -0.002571 0.322779 -0.189383 -0.214619
    2 -1.047996 -2.317996 0.654462 -1.247038 1.437608 -1.233761
    3 0.000000 0.743005 1.588492 0.000000 0.000000 0.000000
    4 0.000000 3.192657 2.044578 0.000000 0.000000 0.000000
    5 0.000000 1.878595 2.044578 0.000000 0.000000 0.000000
    6 0.000000 -1.490624 0.407971 0.000000 0.000000 0.000000
    7 -0.019827 -0.426563 4.971295 1.385690 -2.602500 -0.991544
    8 0.276650 -3.399288 5.573969 1.564481 -0.948863 0.009181
    9 1.704292 0.000000 0.000000 -0.091586 -0.574418 0.286737
    10 -0.248656 -3.399303 5.551128 1.481872 -2.883469 0.135654
    11 1.839642 0.000000 0.000000 0.595204 -0.214989 1.632672
    12 -0.003480 -0.404829 0.000000 0.000000 0.000000 0.000000
    13 -0.519309 -2.501156 -0.278957 -1.490008 -0.039729 -0.147496
    14 -0.010598 -1.208185 -0.000001 -0.928524 0.000000 0.000000
    15 0.000000 -0.763066 0.000001 -0.956441 0.000000 0.000000
    16 0.105981 -2.607135 -0.278958 -1.202940 -0.083077 -0.180316
    17 -0.000001 -1.250581 -0.000002 -1.029748 0.000000 0.000000
    18 0.000000 -0.932634 0.000000 -1.190315 0.000000 0.000000
    19 0.763064 -2.490556 -0.278958 -0.348897 -0.010738 0.101382
    20 -0.012323 -1.280918 0.000000 -0.762700 0.000000 0.000000
    21 -0.001697 -0.749372 -0.000001 -0.844729 0.000000 0.000000
    22 0.354567 0.016267 0.318132 0.494018 -0.554828 -1.044175
    23 1.887165 0.012877 0.000000 -0.296409 -0.074844 -0.641561
    24 1.001875 -0.000270 0.000000 0.000000 0.000000 -0.719066
    25 -1.123360 -2.195094 -0.278958 -1.567306 0.000000 -0.087266
    26 0.010771 -0.963791 0.000000 -1.213004 0.000000 0.000000
    27 -0.010412 -0.631916 0.000000 -1.197304 0.000000 0.000000
    28 -0.952667 -1.337693 -10.592415 -1.714613 1.216097 -1.558927
    29 0.089929 -8.543166 0.000000 0.005657 -0.097484 0.252255
    30 0.000000 -0.359714 0.000000 0.000000 0.000000 0.000000
    31 -0.170479 -2.636146 -0.277655 -0.437819 0.000000 0.000000
    32 0.010599 -1.261177 0.000001 -0.138251 0.000000 0.000000
    33 -0.000001 -0.943233 0.000001 -0.270505 0.000000 0.000000
    34 -0.827563 -2.508972 -0.277656 -0.415905 0.000000 0.000000
    35 0.000000 -1.292971 0.000001 -0.243206 0.000000 0.000000
    36 0.000000 -0.752466 0.000001 -0.234173 0.000000 0.000000
    37 0.444213 -2.561960 -0.277655 -0.400703 -0.046885 -0.024335
    38 0.021022 -1.208185 -0.000001 -0.183664 0.000000 0.000000
    39 0.010597 -0.741867 0.000000 -0.261336 0.000000 0.000000
    40 1.047444 -2.222821 -0.277655 -0.298496 -0.083393 -0.037063
    41 0.000000 -0.996223 0.000001 -0.124982 0.000000 0.000000
    42 -0.000001 -0.614689 0.000001 -0.381675 0.000000 0.000000
    43 -0.308254 -0.007814 0.307165 -0.102552 -0.647563 -2.582600
    44 1.978378 0.019545 -0.000001 0.107452 -0.150752 0.382040
    45 0.982425 0.003186 0.000000 0.000000 0.000000 0.409615
  time 24
    0 6.728942 2.353948 -5.747705 5.512176 -1.492964 -5.815023
    1 -0.001603 -8.561233 -0.002571 0.326140 -0.180157 -0.208248
    2 -1.047996 -2.317996 0.654462 -1.246991 1.437608 -1.233761
    3 0.000000 0.743005 1.588492 0.000000 0.000000 0.000000
    4 0.000000 3.192657 2.044578 0.000000 0.000000 0.000000
    5 0.000000 1.878595 2.044578 0.000000 0.000000 0.000000
    6 0.000000 -1.490624 0.407971 0.000000 0.000000 0.000000
    7 -0.019827 -0.426563 4.971295 1.346291 -2.559942 -0.888658
    8 0.276650 -3.399288 5.573969 1.564481 -0.927472 0.009181
    9 1.704292 0.000000 0.000000 -0.087643 -0.559766 0.276514
    10 -0.248656 -3.399303 5.551128 1.521433 -2.832145 0.057698
    11 1.839642 0.000000 0.000000 0.362796 -0.184449 1.906159
    12 -0.003480 -0.404829 0.000000 0.000000 0.000000 0.000000
    13 -0.519309 -2.501156 -0.278957 -1.490008 -0.039729 -0.147496
    14 -0.010598 -1.208185 -0.000001 -0.928524 0.000000 0.000000
    15 0.000000 -0.763066 0.000001 -0.956441 0.000000 0.000000
    16 0.105981 -2.607135 -0.278958 -1.202940 -0.083077 -0.180316
    17 -0.000001 -1.250581 -0.000002 -1.029748 0.000000 0.000000
    18 0.000000 -0.932634 0.000000 -1.190315 0.000000 0.000000
    19 0.763064 -2.490556 -0.278958 -0.348897 -0.010738 0.101382
    20 -0.012323 -1.280918 0.000000 -0.762700 0.000000 0.000000
    21 -0.001697 -0.749372 -0.000001 -0.844729 0.000000 0.000000
    22 0.354567 0.016267 0.318132 0.494018 -0.554828 -1.044175
    23 1.887165 0.012877 0.000000 -0.296409 -0.074844 -0.641561
    24 1.001875 -0.000270 0.000000 0.000000 0.000000 -0.719066
    25 -1.123360 -2.195094 -0.278958 -1.567306 0.000000 -0.087266
    26 0.010771 -0.963791 0.000000 -1.213004 0.000000 0.000000
    27 -0.010412 -0.631916 0.000000 -1.197304 0.000000 0.000000
    28 -0.905790 -1.568169 -10.498662 1.324352 1.930861 1.476155
    29 0.089929 -8.543166 0.000000 -0.039679 -0.132954 0.260887
    30 0.000000 -0.359714 0.000000 0.000000 0.000000 0.000000
    31 -0.170479 -2.636146 -0.277655 -0.368292 0.000000 0.000000
    32 0.010599 -1.261177 0.000001 -0.127457 0.000000 0.000000
    33 -0.000001 -0.943233 0.000001 -0.233911 0.000000 0.000000
    34 -0.827563 -2.508972 -0.277656 -0.359574 0.000000 0.000000
    35 0.000000 -1.292971 0.000001 -0.204234 0.000000 0.000000
    36 0.000000 -0.752466 0.000001 -0.219946 0.000000 0.000000
    37 0.444213 -2.561960 -0.277655 -0.329342 -0.046885 -0.024335
    38 0.021022 -1.208185 -0.000001 -0.176293 0.000000 0.000000
    39 0.010597 -0.741867 0.000000 -0.228683 0.000000 0.000000
    40 1.047444 -2.222821 -0.277655 -0.230598 -0.083393 -0.037063
    41 0.000000 -0.996223 0.000001 -0.068068 0.000000 0.000000
    42 -0.000001 -0.614689 0.000001 -0.345587 0.000000 0.000000
    43 -0.308254 -0.007814 0.307165 -0.095302 -0.661657 -2.599246
    44 1.978378 0.019545 -0.000001 0.110484 -0.148562 0.361614
    45 0.982425 0.003186 0.000000 0.000000 0.000000 0.373538
  time 25
    0 6.674253 2.310977 -5.849271 5.499332 -1.466728 -5.786525
    1 -0.001603 -8.561233 -0.002571 0.329817 -0.170678 -0.201375
    2 -1.047996 -2.317996 0.654462 -1.247038 1.437608 -1.233761
    3 0.000000 0.743005 1.588492 0.000000 0.000000 0.000000
    4 0.000000 3.192657 2.044578 0.000000 0.000000 0.000000
    5 0.000000 1.878595 2.044578 0.000000 0.000000 0.000000
    6 0.000000 -1.490624 0.407971 0.000000 0.000000 0.000000
    7 -0.019827 -0.426563 4.971295 1.330475 -2.511981 -0.848652
    8 0.276650 -3.399288 5.573969 1.564481 -0.899968 0.009181
    9 1.704292 0.000000 0.000000 -0.077277 -0.521133 0.249573
    10 -0.248656 -3.399303 5.551128 1.553735 -2.764250 -0.021478
    11 1.839642 0.000000 0.000000 0.177687 -0.160757 2.131320
    12 -0.003480 -0.404829 0.000000 0.000000 0.000000 0.000000
    13 -0.519309 -2.501156 -0.278957 -1.490008 -0.039729 -0.147496
    14 -0.010598 -1.208185 -0.000001 -0.928524 0.000000 0.000000
    15 0.000000 -0.763066 0.000001 -0.956441 0.000000 0.000000
    16 0.105981 -2.607135 -0.278958 -1.202940 -0.083077 -0.180316
    17 -0.000001 -1.250581 -0.000002 -1.029748 0.000000 0.000000
    18 0.000000 -0.932634 0.000000 -1.190315 0.000000 0.000000
    19 0.763064 -2.490556 -0.278958 -0.348897 -0.010738 0.101382
    20 -0.012323 -1.280918 0.000000 -0.762700 0.000000 0.000000
    21 -0.001697 -0.749372 -0.000001 -0.844729 0.000000 0.000000
    22 0.354567 0.016267 0.318132 0.494018 -0.554828 -1.044175
    23 1.887165 0.012877 0.000000 -0.296409 -0.074844 -0.641561
    24 1.001875 -0.000270 0.000000 0.000000 0.000000 -0.719066
    25 -1.123360 -2.195094 -0.278958 -1.567306 0.000000 -0.087266
    26 0.010771 -0.963791 0.000000 -1.213004 0.000000 0.000000
    27 -0.010412 -0.631916 0.000000 -1.197304 0.000000 0.000000
    28 -0.862820 -1.829896 -10.377564 1.216435 1.953176 1.383117
    29 0.089929 -8.543166 0.000000 -0.048972 -0.150180 0.253447
    30 0.000000 -0.359714 0.000000 0.000000 0.000000 0.000000
    31 -0.170479 -2.636146 -0.277655 -0.438689 0.000000 0.000000
    32 0.010599 -1.261177 0.000001 -0.138372 0.000000 0.000000
    33 -0.000001 -0.943233 0.000001 -0.270950 0.000000 0.000000
    34 -0.827563 -2.508972 -0.277656 -0.416637 0.000000 0.000000
    35 0.000000 -1.292971 0.000001 -0.243703 0.000000 0.000000
    36 0.000000 -0.752466 0.000001 -0.234326 0.000000 0.000000
    37 0.444213 -2.561960 -0.277655 -0.401613 -0.046885 -0.024335
    38 0.021022 -1.208185 -0.000001 -0.183780 0.000000 0.000000
    39 0.010597 -0.741867 0.000000 -0.261712 0.000000 0.000000
    40 1.047444 -2.222821 -0.277655 -0.299362 -0.083393 -0.037063
    41 0.000000 -0.996223 0.000001 -0.125708 0.000000 0.000000
    42 -0.000001 -0.614689 0.000001 -0.382119 0.000000 0.000000
    43 -0.308254 -0.007814 0.307165 -0.102636 -0.647396 -2.582392
    44 1.978378 0.019545 -0.000001 0.107416 -0.150786 0.382271
    45 0.982425 0.003186 0.000000 0.000000 0.000000 0.410086
  time 26
    0 6.619563 2.275820 -5.970368 5.497082 -1.439137 -5.768047
    1 -0.001603 -8.561233 -0.002571 0.333661 -0.161115 -0.194299
    2 -1.047996 -2.317996 0.654462 -1.247038 1.437608 -1.233761
    3 0.000000 0.743005 1.588492 0.000000 0.000000 0.000000
    4 0.000000 3.192657 2.044578 0.000000 0.000000 0.000000
    5 0.000000 1.878595 2.044578 0.000000 0.000000 0.000000
    6 0.000000 -1.490624 0.407971 0.000000 0.000000 0.000000
    7 -0.019827 -0.426563 4.971295 1.342745 -2.450846 -0.912968
    8 0.276650 -3.399288 5.573969 1.564481 -0.869131 0.009181
    9 1.704292 0.000000 0.000000 -0.062608 -0.466559 0.211462
    10 -0.248656 -3.399303 5.551128 -1.566077 -0.447406 3.058621
    11 1.839642 0.000000 0.000000 0.055360 -0.145394 2.284161
    12 -0.003480 -0.404829 0.000000 0.000000 0.000000 0.000000
    13 -0.519309 -2.501156 -0.278957 -1.490008 -0.039729 -0.147496
    14 -0.010598 -1.208185 -0.000001 -0.928524 0.000000 0.000000
    15 0.000000 -0.763066 0.000001 -0.956441 0.000000 0.000000
    16 0.105981 -2.607135 -0.278958 -1.202940 -0.083077 -0.180316
    17 -0.000001 -1.250581 -0.000002 -1.029748 0.000000 0.000000
    18 0.000000 -0.932634 0.000000 -1.190315 0.000000 0.000000
    19 0.763064 -2.490556 -0.278958 -0.348897 -0.010738 0.101382
    20 -0.012323 -1.280918 0.000000 -0.762700 0.000000 0.000000
    21 -0.001697 -0.749372 -0.000001 -0.844729 0.000000 0.000000
    22 0.354567 0.016267 0.318132 0.494018 -0.554828 -1.044175
    23 1.887165 0.012877 0.000000 -0.296409 -0.074844 -0.641561
    24 1.001875 -0.000270 0.000000 0.000000 0.000000 -0.719066
    25 -1.123360 -2.195094 -0.278958 -1.567306 0.000000 -0.087266
    26 0.010771 -0.963791 0.000000 -1.213004 0.000000 0.000000
    27 -0.010412 -0.631916 0.000000 -1.197304 0.000000 0.000000
    28 -0.823756 -2.122874 -10.233029 1.114153 1.989187 1.311961
    29 0.089929 -8.543166 0.000000 -0.029185 -0.156588 0.234992
    30 0.000000 -0.359714 0.000000 0.000000 0.000000 0.000000
    31 -0.170479 -2.636146 -0.277655 -0.624277 0.000000 0.000000
    32 0.010599 -1.261177 0.000001 -0.167195 0.000000 0.000000
    33 -0.000001 -0.943233 0.000001 -0.368676 0.000000 0.000000
    34 -0.827563 -2.508972 -0.277656 -0.567074 0.000000 0.000000
    35 0.000000 -1.292971 0.000001 -0.347733 0.000000 0.000000
    36 0.000000 -0.752466 0.000001 -0.272309 0.000000 0.000000
    37 0.444213 -2.561960 -0.277655 -0.592098 -0.046885 -0.024335
    38 0.021022 -1.208185 -0.000001 -0.203445 0.000000 0.000000
    39 0.010597 -0.741867 0.000000 -0.348892 0.000000 0.000000
    40 1.047444 -2.222821 -0.277655 -0.480753 -0.083393 -0.037063
    41 0.000000 -0.996223 0.000001 -0.277562 0.000000 0.000000
    42 -0.000001 -0.614689 0.000001 -0.478438 0.000000 0.000000
    43 -0.308254 -0.007814 0.307165 -0.120206 -0.609368 -2.539375
    44 1.978378 0.019545 -0.000001 0.099087 -0.156364 0.436771
    45 0.982425 0.003186 0.000000 0.000000 0.000000 0.506360
  time 27
    0 6.560968 2.240663 -6.114904 5.499051 -1.411066 -5.753798
    1 -0.001603 -8.561233 -0.002571 0.337524 -0.151658 -0.187285
    2 -1.047996 -2.317996 0.654462 -1.247038 1.437608 -1.233761
    3 0.000000 0.743005 1.588492 0.000000 0.000000 0.000000
    4 0.000000 3.192657 2.044578 0.000000 0.000000 0.000000
    5 0.000000 1.878595 2.044578 0.000000 0.000000 0.000000
    6 0.000000 -1.490624 0.407971 0.000000 0.000000 0.000000
    7 -0.019827 -0.426563 4.971295 1.373324 -2.393881 -1.055476
    8 0.276650 -3.399288 5.573969 1.564481 -0.837807 0.009181
    9 1.704292 0.000000 0.000000 -0.045793 -0.403973 0.167778
    10 -0.248656 -3.399303 5.551128 -1.558092 -0.505309 3.033884
    11 1.839642 0.000000 0.000000 0.011159 -0.139944 2.340417
    12 -0.003480 -0.404829 0.000000 0.000000 0.000000 0.000000
    13 -0.519309 -2.501156 -0.278957 -1.490008 -0.039729 -0.147496
    14 -0.010598 -1.208185 -0.000001 -0.928524 0.000000 0.000000
    15 0.000000 -0.763066 0.000001 -0.956441 0.000000 0.000000
    16 0.105981 -2.607135 -0.278958 -1.202940 -0.083077 -0.180316
    17 -0.000001 -1.250581 -0.000002 -1.029748 0.000000 0.000000
    18 0.000000 -0.932634 0.000000 -1.190315 0.000000 0.000000
    19 0.763064 -2.490556 -0.278958 -0.348897 -0.010738 0.101382
    20 -0.012323 -1.280918 0.000000 -0.762700 0.000000 0.000000
    21 -0.001697 -0.749372 -0.000001 -0.844729 0.000000 0.000000
    22 0.354567 0.016267 0.318132 0.494018 -0.554828 -1.044175
    23 1.887165 0.012877 0.000000 -0.296409 -0.074844 -0.641561
    24 1.001875 -0.000270 0.000000 0.000000 0.000000 -0.719066
    25 -1.123360 -2.195094 -0.278958 -1.567306 0.000000 -0.087266
    26 0.010771 -0.963791 0.000000 -1.213004 0.000000 0.000000
    27 -0.010412 -0.631916 0.000000 -1.197304 0.000000 0.000000
    28 -0.796412 -2.447102 -10.065055 1.022471 2.034488 1.262745
    29 0.089929 -8.543166 0.000000 0.009923 -0.154964 0.209098
    30 0.000000 -0.359714 0.000000 0.000000 0.000000 0.000000
    31 -0.170479 -2.636146 -0.277655 -0.886673 0.000000 0.000000
    32 0.010599 -1.261177 0.000001 -0.207985 0.000000 0.000000
    33 -0.000001 -0.943233 0.000001 -0.506822 0.000000 0.000000
    34 -0.827563 -2.508972 -0.277656 -0.779736 0.000000 0.000000
    35 0.000000 -1.292971 0.000001 -0.494803 0.000000 0.000000
    36 0.000000 -0.752466 0.000001 -0.325968 0.000000 0.000000
    37 0.444213 -2.561960 -0.277655 -0.861435 -0.046885 -0.024335
    38 0.021022 -1.208185 -0.000001 -0.231289 0.000000 0.000000
    39 0.010597 -0.741867 0.000000 -0.472113 0.000000 0.000000
    40 1.047444 -2.222821 -0.277655 -0.737133 -0.083393 -0.037063
    41 0.000000 -0.996223 0.000001 -0.492214 0.000000 0.000000
    42 -0.000001 -0.614689 0.000001 -0.614587 0.000000 0.000000
    43 -0.308254 -0.007814 0.307165 -0.140987 -0.554671 -2.481720
    44 1.978378 0.019545 -0.000001 0.086779 -0.163475 0.513963
    45 0.982425 0.003186 0.000000 0.000000 0.000000 0.642542
  time 28
    0 6.494560 2.213318 -6.286784 5.502613 -1.383236 -5.741112
    1 -0.001603 -8.561233 -0.002571 0.341219 -0.142411 -0.180631
    2 -1.047996 -2.317996 0.654462 -1.247038 1.437608 -1.233761
    3 0.000000 0.743005 1.588492 0.000000 0.000000 0.000000
    4 0.000000 3.192657 2.044578 0.000000 0.000000 0.000000
    5 0.000000 1.878595 2.044578 0.000000 0.000000 0.000000
    6 0.000000 -1.490624 0.407971 0.000000 0.000000 0.000000
    7 -0.019827 -0.426563 4.971295 1.412339 -2.368764 -1.200090
    8 0.276650 -3.399288 5.573969 1.564481 -0.808567 0.009181
    9 1.704292 0.000000 0.000000 -0.028979 -0.341386 0.124106
    10 -0.248656 -3.399303 5.551128 1.555913 -2.585578 -0.049699
    11 1.839642 0.000000 0.000000 0.011159 -0.178073 2.340417
    12 -0.003480 -0.404829 0.000000 0.000000 0.000000 0.000000
    13 -0.519309 -2.501156 -0.278957 -1.490008 -0.039729 -0.147496
    14 -0.010598 -1.208185 -0.000001 -0.928524 0.000000 0.000000
    15 0.000000 -0.763066 0.000001 -0.956441 0.000000 0.000000
    16 0.105981 -2.607135 -0.278958 -1.202940 -0.083077 -0.180316
    17 -0.000001 -1.250581 -0.000002 -1.029748 0.000000 0.000000
    18 0.000000 -0.932634 0.000000 -1.190315 0.000000 0.000000
    19 0.763064 -2.490556 -0.278958 -0.348897 -0.010738 0.101382
    20 -0.012323 -1.280918 0.000000 -0.762700 0.000000 0.000000
    21 -0.001697 -0.749372 -0.000001 -0.844729 0.000000 0.000000
    22 0.354567 0.016267 0.318132 0.494018 -0.554828 -1.044175
    23 1.887165 0.012877 0.000000 -0.296409 -0.074844 -0.641561
    24 1.001875 -0.000270 0.000000 0.000000 0.000000 -0.719066
    25 -1.123360 -2.195094 -0.278958 -1.567306 0.000000 -0.087266
    26 0.010771 -0.963791 0.000000 -1.213004 0.000000 0.000000
    27 -0.010412 -0.631916 0.000000 -1.197304 0.000000 0.000000
    28 -0.769067 -2.806488 -9.873643 0.941963 2.084961 1.230439
    29 0.089929 -8.543166 0.000000 0.058422 -0.148259 0.179891
    30 0.000000 -0.359714 0.000000 0.000000 0.000000 0.000000
    31 -0.170479 -2.636146 -0.277655 -1.187452 0.000000 0.000000
    32 0.010599 -1.261177 0.000001 -0.254596 0.000000 0.000000
    33 -0.000001 -0.943233 0.000001 -0.665145 0.000000 0.000000
    34 -0.827563 -2.508972 -0.277656 -1.023547 0.000000 0.000000
    35 0.000000 -1.292971 0.000001 -0.663393 0.000000 0.000000
    36 0.000000 -0.752466 0.000001 -0.387478 0.000000 0.000000
    37 0.444213 -2.561960 -0.277655 -1.170220 -0.046885 -0.024335
    38 0.021022 -1.208185 -0.000001 -0.263192 0.000000 0.000000
    39 0.010597 -0.741867 0.000000 -0.613365 0.000000 0.000000
    40 1.047444 -2.222821 -0.277655 -1.031111 -0.083393 -0.037063
    41 0.000000 -0.996223 0.000001 -0.738318 0.000000 0.000000
    42 -0.000001 -0.614689 0.000001 -0.770665 0.000000 0.000000
    43 -0.308254 -0.007814 0.307165 -0.159551 -0.490901 -2.419463
    44 1.978378 0.019545 -0.000001 0.072026 -0.170434 0.602629
    45 0.982425 0.003186 0.000000 0.000000 0.000000 0.798610
  time 29
    0 6.428151 2.185974 -6.478196 5.506176 -1.356362 -5.728610
    1 -0.001603 -8.561233 -0.002571 0.344599 -0.133542 -0.174622
    2 -1.047996 -2.317996 0.654462 -1.247038 1.437608 -1.233761
    3 0.000000 0.743005 1.588492 0.000000 0.000000 0.000000
    4 0.000000 3.192657 2.044578 0.000000 0.000000 0.000000
    5 0.000000 1.878595 2.044578 0.000000 0.000000 0.000000
    6 0.000000 -1.490624 0.407971 0.000000 0.000000 0.000000
    7 -0.019827 -0.426563 4.971295 1.471293 -2.479945 -1.349681
    8 0.276650 -3.399288 5.573969 1.564481 -0.784328 0.009181
    9 1.704292 0.000000 0.000000 -0.014310 -0.286812 0.085995
    10 -0.248656 -3.399303 5.551128 1.495301 -2.535123 0.077644
    11 1.839642 0.000000 0.000000 0.011159 -0.262002 2.340417
    12 -0.003480 -0.404829 0.000000 0.000000 0.000000 0.000000
    13 -0.519309 -2.501156 -0.278957 -1.490008 -0.039729 -0.147496
    14 -0.010598 -1.208185 -0.000001 -0.928524 0.000000 0.000000
    15 0.000000 -0.763066 0.000001 -0.956441 0.000000 0.000000
    16 0.105981 -2.607135 -0.278958 -1.202940 -0.083077 -0.180316
    17 -0.000001 -1.250581 -0.000002 -1.029748 0.000000 0.000000
    18 0.000000 -0.932634 0.000000 -1.190315 0.000000 0.000000
    19 0.763064 -2.490556 -0.278958 -0.348897 -0.010738 0.101382
    20 -0.012323 -1.280918 0.000000 -0.762700 0.000000 0.000000
    21 -0.001697 -0.749372 -0.000001 -0.844729 0.000000 0.000000
    22 0.354567 0.016267 0.318132 0.494018 -0.554828 -1.044175
    23 1.887165 0.012877 0.000000 -0.296409 -0.074844 -0.641561
    24 1.001875 -0.000270 0.000000 0.000000 0.000000 -0.719066
    25 -1.123360 -2.195094 -0.278958 -1.567306 0.000000 -0.087266
    26 0.010771 -0.963791 0.000000 -1.213004 0.000000 0.000000
    27 -0.010412 -0.631916 0.000000 -1.197304 0.000000 0.000000
    28 -0.753442 -3.193219 -9.650980 0.870910 2.136392 1.208559
    29 0.089929 -8.543166 0.000000 0.106651 -0.140142 0.151061
    30 0.000000 -0.359714 0.000000 0.000000 0.000000 0.000000
    31 -0.170479 -2.636146 -0.277655 -1.488230 0.000000 0.000000
    32 0.010599 -1.261177 0.000001 -0.301328 0.000000 0.000000
    33 -0.000001 -0.943233 0.000001 -0.823535 0.000000 0.000000
    34 -0.827563 -2.508972 -0.277656 -1.267395 0.000000 0.000000
    35 0.000000 -1.292971 0.000001 -0.832031 0.000000 0.000000
    36 0.000000 -0.752466 0.000001 -0.448988 0.000000 0.000000
    37 0.444213 -2.561960 -0.277655 -1.478962 -0.046885 -0.024335
    38 0.021022 -1.208185 -0.000001 -0.295066 0.000000 0.000000
    39 0.010597 -0.741867 0.000000 -0.754656 0.000000 0.000000
    40 1.047444 -2.222821 -0.277655 -1.325047 -0.083393 -0.037063
    41 0.000000 -0.996223 0.000001 -0.984387 0.000000 0.000000
    42 -0.000001 -0.614689 0.000001 -0.926771 0.000000 0.000000
    43 -0.308254 -0.007814 0.307165 -0.173178 -0.426256 -2.360452
    44 1.978378 0.019545 -0.000001 0.056697 -0.176079 0.691503
    45 0.982425 0.003186 0.000000 0.000000 0.000000 0.954678
  time 30
    0 6.357837 2.166442 -6.693046 5.508894 -1.331322 -5.715832
    1 -0.001603 -8.561233 -0.002571 0.347496 -0.125219 -0.169569
    2 -1.047996 -2.317996 0.654462 -1.247038 1.437608 -1.233761
    3 0.000000 0.743005 1.588492 0.000000 0.000000 0.000000
    4 0.000000 3.192657 2.044578 0.000000 0.000000 0.000000
    5 0.000000 1.878595 2.044578 0.000000 0.000000 0.000000
    6 0.000000 -1.490624 0.407971 0.000000 0.000000 0.000000
    7 -0.019827 -0.426563 4.971295 1.538683 -2.686288 -1.501474
    8 0.276650 -3.399288 5.573969 1.564481 -0.767798 0.009181
    9 1.704292 0.000000 0.000000 -0.003931 -0.248179 0.059054
    10 -0.248656 -3.399303 5.551128 1.434688 -2.496397 0.204987
    11 1.839642 0.000000 0.000000 0.011159 -0.345931 2.340417
    12 -0.003480 -0.404829 0.000000 0.000000 0.000000 0.000000
    13 -0.519309 -2.501156 -0.278957 -1.490008 -0.039729 -0.147496
    14 -0.010598 -1.208185 -0.000001 -0.928524 0.000000 0.000000
    15 0.000000 -0.763066 0.000001 -0.956441 0.000000 0.000000
    16 0.105981 -2.607135 -0.278958 -1.202940 -0.083077 -0.180316
    17 -0.000001 -1.250581 -0.000002 -1.029748 0.000000 0.000000
    18 0.000000 -0.932634 0.000000 -1.190315 0.000000 0.000000
    19 0.763064 -2.490556 -0.278958 -0.348897 -0.010738 0.101382
    20 -0.012323 -1.280918 0.000000 -0.762700 0.000000 0.000000
    21 -0.001697 -0.749372 -0.000001 -0.844729 0.000000 0.000000
    22 0.354567 0.016267 0.318132 0.494018 -0.554828 -1.044175
    23 1.887165 0.012877 0.000000 -0.296409 -0.074844 -0.641561
    24 1.001875 -0.000270 0.000000 0.000000 0.000000 -0.719066
    25 -1.123360 -2.195094 -0.278958 -1.567306 0.000000 -0.087266
    26 0.010771 -0.963791 0.000000 -1.213004 0.000000 0.000000
    27 -0.010412 -0.631916 0.000000 -1.197304 0.000000 0.000000
    28 -0.741723 -3.611200 -9.404878 0.808356 2.185141 1.190133
    29 0.089929 -8.543166 0.000000 0.122392 -0.156191 0.283119
    30 0.000000 -0.359714 0.000000 0.000000 0.000000 0.000000
    31 -0.170479 -2.636146 -0.277655 -1.750535 0.000000 0.000000
    32 0.010599 -1.261177 0.000001 -0.342077 0.000000 0.000000
    33 -0.000001 -0.943233 0.000001 -0.961659 0.000000 0.000000
    34 -0.827563 -2.508972 -0.277656 -1.480020 0.000000 0.000000
    35 0.000000 -1.292971 0.000001 -0.979101 0.000000 0.000000
    36 0.000000 -0.752466 0.000001 -0.502647 0.000000 0.000000
    37 0.444213 -2.561960 -0.277655 -1.748213 -0.046885 -0.024335
    38 0.021022 -1.208185 -0.000001 -0.322909 0.000000 0.000000
    39 0.010597 -0.741867 0.000000 -0.877897 0.000000 0.000000
    40 1.047444 -2.222821 -0.277655 -1.581386 -0.083393 -0.037063
    41 0.000000 -0.996223 0.000001 -1.199038 0.000000 0.000000
    42 -0.000001 -0.614689 0.000001 -1.062893 0.000000 0.000000
    43 -0.308254 -0.007814 0.307165 -0.181399 -0.369377 -2.311048
    44 1.978378 0.019545 -0.000001 0.042951 -0.179887 0.769158
    45 0.982425 0.003186 0.000000 0.000000 0.000000 1.090793
  time 31
    0 6.357837 2.166442 -6.693046 5.508894 -1.331322 -5.715832
    1 -0.001603 -8.561233 -0.002571 0.347496 -0.125219 -0.169569
    2 -1.047996 -2.317996 0.654462 -1.247038 1.437608 -1.233761
    3 0.000000 0.743005 1.588492 0.000000 0.000000 0.000000
    4 0.000000 3.192657 2.044578 0.000000 0.000000 0.000000
    5 0.000000 1.878595 2.044578 0.000000 0.000000 0.000000
    6 0.000000 -1.490624 0.407971 0.000000 0.000000 0.000000
    7 -0.019827 -0.426563 4.971295 1.570796 -2.797374 -1.570766
    8 0.276650 -3.399288 5.573969 1.564481 -0.761686 0.009181
    9 1.704292 0.000000 0.000000 0.000000 -0.233555 0.048831
    10 -0.248656 -3.399303 5.551128 1.407195 -2.480944 0.262823
    11 1.839642 0.000000 0.000000 0.011159 -0.384060 2.340417
    12 -0.003480 -0.404829 0.000000 0.000000 0.000000 0.000000
    13 -0.519309 -2.501156 -0.278957 -1.490008 -0.039729 -0.147496
    14 -0.010598 -1.208185 -0.000001 -0.928524 0.000000 0.000000
    15 0.000000 -0.763066 0.000001 -0.956441 0.000000 0.000000
    16 0.105981 -2.607135 -0.278958 -1.202940 -0.083077 -0.180316
    17 -0.000001 -1.250581 -0.000002 -1.029748 0.000000 0.000000
    18 0.000000 -0.932634 0.000000 -1.190315 0.000000 0.000000
    19 0.763064 -2.490556 -0.278958 -0.348897 -0.010738 0.101382
    20 -0.012323 -1.280918 0.000000 -0.762700 0.000000 0.000000
    21 -0.001697 -0.749372 -0.000001 -0.844729 0.000000 0.000000
    22 0.354567 0.016267 0.318132 0.494018 -0.554828 -1.044175
    23 1.887165 0.012877 0.000000 -0.296409 -0.074844 -0.641561
    24 1.001875 -0.000270 0.000000 0.000000 0.000000 -0.719066
    25 -1.123360 -2.195094 -0.278958 -1.567306 0.000000 -0.087266
    26 0.010771 -0.963791 0.000000 -1.213004 0.000000 0.000000
    27 -0.010412 -0.631916 0.000000 -1.197304 0.000000 0.000000
    28 -0.741723 -3.611200 -9.404878 0.808356 2.185141 1.190133
    29 0.089929 -8.543166 0.000000 0.122392 -0.156191 0.283119
    30 0.000000 -0.359714 0.000000 0.000000 0.000000 0.000000
    31 -0.170479 -2.636146 -0.277655 -1.750535 0.000000 0.000000
    32 0.010599 -1.261177 0.000001 -0.342077 0.000000 0.000000
    33 -0.000001 -0.943233 0.000001 -0.961659 0.000000 0.000000
    34 -0.827563 -2.508972 -0.277656 -1.480020 0.000000 0.000000
    35 0.000000 -1.292971 0.000001 -0.979101 0.000000 0.000000
    36 0.000000 -0.752466 0.000001 -0.502647 0.000000 0.000000
    37 0.444213 -2.561960 -0.277655 -1.748213 -0.046885 -0.024335
    38 0.021022 -1.208185 -0.000001 -0.322909 0.000000 0.000000
    39 0.010597 -0.741867 0.000000 -0.877897 0.000000 0.000000
    40 1.047444 -2.222821 -0.277655 -1.581386 -0.083393 -0.037063
    41 0.000000 -0.996223 0.000001 -1.199038 0.000000 0.000000
    42 -0.000001 -0.614689 0.000001 -1.062893 0.000000 0.000000
    43 -0.308254 -0.007814 0.307165 -0.181399 -0.369377 -2.311048
    44 1.978378 0.019545 -0.000001 0.042951 -0.179887 0.769158
    45 0.982425 0.003186 0.000000 0.000000 0.000000 1.090793
end
