version 1
nodes
  0 "Bone01" -1
  1 "Bone_Lefthand" 0
  2 "Bone02" 1
  3 "Bone03" 2
  4 "Bone52" 3
  5 "Bone25" 3
  6 "Bone50" 3
  7 "Bone48" 3
  8 "Bone 04" 1
  9 "Bone13" 8
  10 "Bone14" 9
  11 "Bone15" 10
  12 "Bone17" 8
  13 "Bone18" 12
  14 "Bone19" 13
  15 "Bone21" 8
  16 "Bone22" 15
  17 "Bone23" 16
  18 "Bone05" 8
  19 "Bone06" 18
  20 "Bone07" 19
  21 "Bone09" 8
  22 "Bone10" 21
  23 "Bone11" 22
  24 "Bone04" -1
  25 "Bone_Righthand" 24
  26 "Bone26" 25
  27 "Bone35" 26
  28 "Bone36" 27
  29 "Bone37" 28
  30 "Bone31" 26
  31 "Bone32" 30
  32 "Bone33" 31
  33 "Bone39" 26
  34 "Bone40" 33
  35 "Bone41" 34
  36 "Bone43" 26
  37 "Bone44" 36
  38 "Bone45" 37
  39 "Bone27" 26
  40 "Bone28" 39
  41 "Bone29" 40
end
skeleton
  time 0
    0 8.106567 4.665702 -7.190122 -0.774264 -1.331409 -5.715830
    1 0.000000 -8.563282 -0.000001 0.347494 -0.125220 -0.169570
    2 -0.222119 -3.429973 0.817995 -1.247038 1.437608 -1.233845
    3 0.000000 2.338128 0.839328 0.000000 0.000000 0.000000
    4 -0.000001 -5.493103 2.360612 0.000000 0.000000 0.000000
    5 0.000000 -3.357312 1.408874 0.000000 0.000000 0.000000
    6 -0.000001 -6.122600 1.221523 0.000000 0.000000 0.000000
    7 0.000000 8.646043 -3.749985 0.000000 0.000000 0.000000
    8 -0.003479 -0.404829 0.000000 0.000000 0.000000 0.000000
    9 -0.519310 -2.501155 -0.278957 -1.003564 0.000000 -0.122173
    10 -0.010598 -1.208185 0.000000 -1.148417 0.000000 0.000000
    11 0.000000 -0.763066 0.000000 -0.841249 0.000000 0.000000
    12 0.105980 -2.607135 -0.278957 -0.795871 0.000000 -0.148353
    13 0.000000 -1.250579 0.000000 -1.296776 0.000000 0.000000
    14 0.000000 -0.932634 0.000000 -0.886645 0.000000 0.000000
    15 0.763063 -2.490556 -0.278957 -0.346932 0.039309 0.239193
    16 -0.012323 -1.280918 0.000000 -0.322892 0.000000 0.000000
    17 -0.001696 -0.749371 0.000000 -0.593412 0.000000 0.000000
    18 0.354566 0.016267 0.318133 0.834772 -0.606745 -1.212439
    19 1.887166 0.012878 0.000000 -0.305433 0.000000 -0.401426
    20 1.001874 -0.000270 0.000000 0.000000 0.000000 -0.488692
    21 -1.123360 -2.195093 -0.278957 -0.933751 0.000000 -0.087266
    22 0.010772 -0.963792 0.000000 -0.610865 0.000000 0.000000
    23 -0.010412 -0.631916 0.000000 -1.370074 0.000000 0.000000
    24 1.688039 -7.423816 -8.307190 -0.497140 0.471883 0.200013
    25 0.089930 -8.543161 -0.000001 0.082474 -0.537511 0.530890
    26 0.000000 -0.359712 0.000000 0.000000 0.000000 0.000000
    27 -0.170479 -2.636147 -0.277657 -1.692969 0.000000 0.000000
    28 0.010599 -1.261176 0.000002 -0.253073 0.000000 0.000000
    29 -0.000001 -0.943233 -0.000002 -0.532326 0.000000 0.000000
    30 -0.827563 -2.508972 -0.277657 -1.396263 0.000000 0.000000
    31 0.000000 -1.292971 0.000001 -0.445059 0.000000 0.000000
    32 0.000000 -0.752465 0.000000 -0.445059 0.000000 0.000000
    33 0.444213 -2.561959 -0.277657 -1.727307 -0.046226 -0.024599
    34 0.021022 -1.208186 0.000001 -0.427606 0.000000 0.000000
    35 0.010597 -0.741867 -0.000001 -0.453786 0.000000 0.000000
    36 1.047445 -2.222820 -0.277657 -1.508123 -0.078971 -0.038609
    37 0.000000 -0.996224 -0.000002 -0.863938 0.000000 0.000000
    38 -0.000001 -0.614690 0.000000 -0.523599 0.000000 0.000000
    39 -0.308253 -0.007813 0.307166 -0.179973 -0.326092 -2.616278
    40 1.978376 0.019542 -0.000001 -0.084829 -0.033819 0.254889
    41 0.982425 0.003186 0.000001 0.000000 0.000000 0.326398
  time 1
    0 7.840934 4.736016 -7.283875 -0.701085 -1.268541 0.502961
    1 0.000000 -8.563282 -0.000001 0.336512 -0.161475 -0.222233
    2 -0.222119 -3.429973 0.817995 -1.247038 1.437608 -1.233845
    3 0.000000 2.338128 0.839328 0.000000 0.000000 0.000000
    4 -0.000001 -5.493103 2.360612 0.000000 0.000000 0.000000
    5 0.000000 -3.357312 1.408874 0.000000 0.000000 0.000000
    6 -0.000001 -6.122600 1.221523 0.000000 0.000000 0.000000
    7 0.050783 8.118683 -3.976554 -0.087320 0.031049 0.016290
    8 -0.003479 -0.404829 0.000000 0.000000 0.000000 0.000000
    9 -0.519310 -2.501155 -0.278957 -1.003564 0.000000 -0.122173
    10 -0.010598 -1.208185 0.000000 -1.148417 0.000000 0.000000
    11 0.000000 -0.763066 0.000000 -0.841249 0.000000 0.000000
    12 0.105980 -2.607135 -0.278957 -0.795871 0.000000 -0.148353
    13 0.000000 -1.250579 0.000000 -1.296776 0.000000 0.000000
    14 0.000000 -0.932634 0.000000 -0.886645 0.000000 0.000000
    15 0.763063 -2.490556 -0.278957 -0.346932 0.039309 0.239193
    16 -0.012323 -1.280918 0.000000 -0.322892 0.000000 0.000000
    17 -0.001696 -0.749371 0.000000 -0.593412 0.000000 0.000000
    18 0.354566 0.016267 0.318133 0.834772 -0.606745 -1.212439
    19 1.887166 0.012878 0.000000 -0.305433 0.000000 -0.401426
    20 1.001874 -0.000270 0.000000 0.000000 0.000000 -0.488692
    21 -1.123360 -2.195093 -0.278957 -0.933751 0.000000 -0.087266
    22 0.010772 -0.963792 0.000000 -0.610865 0.000000 0.000000
    23 -0.010412 -0.631916 0.000000 -1.370074 0.000000 0.000000
    24 1.496627 -7.244123 -8.678295 -0.551737 0.565234 0.142986
    25 0.089930 -8.543161 -0.000001 0.152608 -0.512948 0.474327
    26 0.000000 -0.359712 0.000000 0.000000 0.000000 0.000000
    27 -0.170479 -2.636147 -0.277657 -1.492763 0.000000 0.000000
    28 0.010599 -1.261176 0.000002 -0.208262 0.000000 0.000000
    29 -0.000001 -0.943233 -0.000002 -0.528897 0.000000 0.000000
    30 -0.827563 -2.508972 -0.277657 -1.196081 -0.009408 -0.022986
    31 0.000000 -1.292971 0.000001 -0.400177 0.000000 0.000000
    32 0.000000 -0.752465 0.000000 -0.441469 0.000000 0.000000
    33 0.444213 -2.561959 -0.277657 -1.526531 -0.046226 -0.024599
    34 0.021022 -1.208186 0.000001 -0.383080 0.000000 0.000000
    35 0.010597 -0.741867 -0.000001 -0.450507 0.000000 0.000000
    36 1.047445 -2.222820 -0.277657 -1.307126 -0.078971 -0.038609
    37 0.000000 -0.996224 -0.000002 -0.821938 0.000000 0.000000
    38 -0.000001 -0.614690 0.000000 -0.521610 0.000000 0.000000
    39 -0.308253 -0.007813 0.307166 -0.181986 -0.325744 -2.618339
    40 1.978376 0.019542 -0.000001 -0.084697 -0.034119 0.251240
    41 0.982425 0.003186 0.000001 0.000000 0.000000 0.324988
  time 2
    0 7.579207 4.806331 -7.365909 -0.651919 -1.201785 0.463482
    1 0.000000 -8.563282 -0.000001 0.324942 -0.203287 -0.282684
    2 -0.222119 -3.429973 0.817995 -1.247038 1.437608 -1.233845
    3 0.000000 2.338128 0.839328 0.000000 0.000000 0.000000
    4 -0.000001 -5.493103 2.360612 0.000000 0.000000 0.000000
    5 0.000000 -3.357312 1.408874 0.000000 0.000000 0.000000
    6 -0.000001 -6.122600 1.221523 0.000000 0.000000 0.000000
    7 0.101566 7.599136 -4.207030 -0.174410 0.063385 0.029832
    8 -0.003479 -0.404829 0.000000 0.000000 0.000000 0.000000
    9 -0.519310 -2.501155 -0.278957 -1.003564 0.000000 -0.122173
    10 -0.010598 -1.208185 0.000000 -1.148417 0.000000 0.000000
    11 0.000000 -0.763066 0.000000 -0.841249 0.000000 0.000000
    12 0.105980 -2.607135 -0.278957 -0.795871 0.000000 -0.148353
    13 0.000000 -1.250579 0.000000 -1.296776 0.000000 0.000000
    14 0.000000 -0.932634 0.000000 -0.886645 0.000000 0.000000
    15 0.763063 -2.490556 -0.278957 -0.346932 0.039309 0.239193
    16 -0.012323 -1.280918 0.000000 -0.322892 0.000000 0.000000
    17 -0.001696 -0.749371 0.000000 -0.593412 0.000000 0.000000
    18 0.354566 0.016267 0.318133 0.834772 -0.606745 -1.212439
    19 1.887166 0.012878 0.000000 -0.305433 0.000000 -0.401426
    20 1.001874 -0.000270 0.000000 0.000000 0.000000 -0.488692
    21 -1.123360 -2.195093 -0.278957 -0.933751 0.000000 -0.087266
    22 0.010772 -0.963792 0.000000 -0.610865 0.000000 0.000000
    23 -0.010412 -0.631916 0.000000 -1.370074 0.000000 0.000000
    24 1.250526 -7.048805 -9.029868 -0.613670 0.655448 0.074988
    25 0.089930 -8.543161 -0.000001 0.220053 -0.485082 0.420630
    26 0.000000 -0.359712 0.000000 0.000000 0.000000 0.000000
    27 -0.170479 -2.636147 -0.277657 -1.270164 0.000000 0.000000
    28 0.010599 -1.261176 0.000002 -0.151792 0.000000 0.000000
    29 -0.000001 -0.943233 -0.000002 -0.520479 0.000000 0.000000
    30 -0.827563 -2.508972 -0.277657 -0.971578 -0.014441 -0.050982
    31 0.000000 -1.292971 0.000001 -0.343392 0.000000 0.000000
    32 0.000000 -0.752465 0.000000 -0.432701 0.000000 0.000000
    33 0.444213 -2.561959 -0.277657 -1.302557 -0.046226 -0.024599
    34 0.021022 -1.208186 0.000001 -0.327231 0.000000 0.000000
    35 0.010597 -0.741867 -0.000001 -0.442499 0.000000 0.000000
    36 1.047445 -2.222820 -0.277657 -1.082680 -0.078971 -0.038609
    37 0.000000 -0.996224 -0.000002 -0.772282 0.000000 0.000000
    38 -0.000001 -0.614690 0.000000 -0.516744 0.000000 0.000000
    39 -0.308253 -0.007813 0.307166 -0.186888 -0.324894 -2.623352
    40 1.978376 0.019542 -0.000001 -0.084410 -0.034874 0.242373
    41 0.982425 0.003186 0.000001 0.000000 0.000000 0.321569
  time 3
    0 7.313574 4.876646 -7.455755 -0.616347 -1.133115 0.438089
    1 0.000000 -8.563282 -0.000001 0.316934 -0.243149 -0.339294
    2 -0.222119 -3.429973 0.817995 -1.247038 1.437608 -1.233845
    3 0.000000 2.338128 0.839328 0.000000 0.000000 0.000000
    4 -0.000001 -5.493103 2.360612 0.000000 0.000000 0.000000
    5 0.000000 -3.357312 1.408874 0.000000 0.000000 0.000000
    6 -0.000001 -6.122600 1.221523 0.000000 0.000000 0.000000
    7 0.148442 7.075682 -4.433600 -0.261211 0.096800 0.040541
    8 -0.003479 -0.404829 0.000000 0.000000 0.000000 0.000000
    9 -0.519310 -2.501155 -0.278957 -1.003564 0.000000 -0.122173
    10 -0.010598 -1.208185 0.000000 -1.148417 0.000000 0.000000
    11 0.000000 -0.763066 0.000000 -0.841249 0.000000 0.000000
    12 0.105980 -2.607135 -0.278957 -0.795871 0.000000 -0.148353
    13 0.000000 -1.250579 0.000000 -1.296776 0.000000 0.000000
    14 0.000000 -0.932634 0.000000 -0.886645 0.000000 0.000000
    15 0.763063 -2.490556 -0.278957 -0.346932 0.039309 0.239193
    16 -0.012323 -1.280918 0.000000 -0.322892 0.000000 0.000000
    17 -0.001696 -0.749371 0.000000 -0.593412 0.000000 0.000000
    18 0.354566 0.016267 0.318133 0.834772 -0.606745 -1.212439
    19 1.887166 0.012878 0.000000 -0.305433 0.000000 -0.401426
    20 1.001874 -0.000270 0.000000 0.000000 0.000000 -0.488692
    21 -1.123360 -2.195093 -0.278957 -0.933751 0.000000 -0.087266
    22 0.010772 -0.963792 0.000000 -0.610865 0.000000 0.000000
    23 -0.010412 -0.631916 0.000000 -1.370074 0.000000 0.000000
    24 0.949736 -6.837861 -9.354097 -0.688534 0.741557 -0.005778
    25 0.089930 -8.543161 -0.000001 0.284755 -0.454162 0.369960
    26 0.000000 -0.359712 0.000000 0.000000 0.000000 0.000000
    27 -0.170479 -2.636147 -0.277657 -1.038609 0.000000 0.000000
    28 0.010599 -1.261176 0.000002 -0.090679 0.000000 0.000000
    29 -0.000001 -0.943233 -0.000002 -0.510090 0.000000 0.000000
    30 -0.827563 -2.508972 -0.277657 -0.737326 -0.012943 -0.080800
    31 0.000000 -1.292971 0.000001 -0.281955 0.000000 0.000000
    32 0.000000 -0.752465 0.000000 -0.421866 0.000000 0.000000
    33 0.444213 -2.561959 -0.277657 -1.069285 -0.046226 -0.024599
    34 0.021022 -1.208186 0.000001 -0.266880 0.000000 0.000000
    35 0.010597 -0.741867 -0.000001 -0.432645 0.000000 0.000000
    36 1.047445 -2.222820 -0.277657 -0.848792 -0.078971 -0.038609
    37 0.000000 -0.996224 -0.000002 -0.719572 0.000000 0.000000
    38 -0.000001 -0.614690 0.000000 -0.510728 0.000000 0.000000
    39 -0.308253 -0.007813 0.307166 -0.192964 -0.323875 -2.629549
    40 1.978376 0.019542 -0.000001 -0.084002 -0.035796 0.231403
    41 0.982425 0.003186 0.000001 0.000000 0.000000 0.317392
  time 4
    0 7.051847 4.946960 -7.541695 -0.588914 -1.064162 0.420937
    1 0.000000 -8.563282 -0.000001 0.315104 -0.273005 -0.380572
    2 -0.222119 -3.429973 0.817995 -1.247038 1.437608 -1.233845
    3 0.000000 2.338128 0.839328 0.000000 0.000000 0.000000
    4 -0.000001 -5.493103 2.360612 0.000000 0.000000 0.000000
    5 0.000000 -3.357312 1.408874 0.000000 0.000000 0.000000
    6 -0.000001 -6.122600 1.221523 0.000000 0.000000 0.000000
    7 0.199225 6.552229 -4.664075 -0.347954 0.131004 0.048330
    8 -0.003479 -0.404829 0.000000 0.000000 0.000000 0.000000
    9 -0.519310 -2.501155 -0.278957 -1.003564 0.000000 -0.122173
    10 -0.010598 -1.208185 0.000000 -1.148417 0.000000 0.000000
    11 0.000000 -0.763066 0.000000 -0.841249 0.000000 0.000000
    12 0.105980 -2.607135 -0.278957 -0.795871 0.000000 -0.148353
    13 0.000000 -1.250579 0.000000 -1.296776 0.000000 0.000000
    14 0.000000 -0.932634 0.000000 -0.886645 0.000000 0.000000
    15 0.763063 -2.490556 -0.278957 -0.346932 0.039309 0.239193
    16 -0.012323 -1.280918 0.000000 -0.322892 0.000000 0.000000
    17 -0.001696 -0.749371 0.000000 -0.593412 0.000000 0.000000
    18 0.354566 0.016267 0.318133 0.834772 -0.606745 -1.212439
    19 1.887166 0.012878 0.000000 -0.305433 0.000000 -0.401426
    20 1.001874 -0.000270 0.000000 0.000000 0.000000 -0.488692
    21 -1.123360 -2.195093 -0.278957 -0.933751 0.000000 -0.087266
    22 0.010772 -0.963792 0.000000 -0.610865 0.000000 0.000000
    23 -0.010412 -0.631916 0.000000 -1.370074 0.000000 0.000000
    24 0.598162 -6.615198 -9.654887 -0.782757 0.822274 -0.101958
    25 0.089930 -8.543161 -0.000001 0.346714 -0.420434 0.322316
    26 0.000000 -0.359712 0.000000 0.000000 0.000000 0.000000
    27 -0.170479 -2.636147 -0.277657 -0.811532 0.000000 0.000000
    28 0.010599 -1.261176 0.000002 -0.031863 0.000000 0.000000
    29 -0.000001 -0.943233 -0.000002 -0.500666 0.000000 0.000000
    30 -0.827563 -2.508972 -0.277657 -0.508045 -0.004830 -0.108772
    31 0.000000 -1.292971 0.000001 -0.222806 0.000000 0.000000
    32 0.000000 -0.752465 0.000000 -0.412098 0.000000 0.000000
    33 0.444213 -2.561959 -0.277657 -0.840662 -0.046226 -0.024599
    34 0.021022 -1.208186 0.000001 -0.208758 0.000000 0.000000
    35 0.010597 -0.741867 -0.000001 -0.423713 0.000000 0.000000
    36 1.047445 -2.222820 -0.277657 -0.619648 -0.078971 -0.038609
    37 0.000000 -0.996224 -0.000002 -0.668381 0.000000 0.000000
    38 -0.000001 -0.614690 0.000000 -0.505287 0.000000 0.000000
    39 -0.308253 -0.007813 0.307166 -0.198453 -0.322976 -2.635160
    40 1.978376 0.019542 -0.000001 -0.083655 -0.036635 0.221485
    41 0.982425 0.003186 0.000001 0.000000 0.000000 0.313555
  time 5
    0 6.786214 5.017275 -7.627635 -0.566367 -0.996449 0.408480
    1 0.000000 -8.563282 -0.000001 0.320824 -0.284734 -0.394716
    2 -0.222119 -3.429973 0.817995 -1.247038 1.437608 -1.233845
    3 0.000000 2.338128 0.839328 0.000000 0.000000 0.000000
    4 -0.000001 -5.493103 2.360612 0.000000 0.000000 0.000000
    5 0.000000 -3.357312 1.408874 0.000000 0.000000 0.000000
    6 -0.000001 -6.122600 1.221523 0.000000 0.000000 0.000000
    7 0.253914 6.024869 -4.890645 -0.434928 0.165740 0.053115
    8 -0.003479 -0.404829 0.000000 0.000000 0.000000 0.000000
    9 -0.519310 -2.501155 -0.278957 -1.003564 0.000000 -0.122173
    10 -0.010598 -1.208185 0.000000 -1.148417 0.000000 0.000000
    11 0.000000 -0.763066 0.000000 -0.841249 0.000000 0.000000
    12 0.105980 -2.607135 -0.278957 -0.795871 0.000000 -0.148353
    13 0.000000 -1.250579 0.000000 -1.296776 0.000000 0.000000
    14 0.000000 -0.932634 0.000000 -0.886645 0.000000 0.000000
    15 0.763063 -2.490556 -0.278957 -0.346932 0.039309 0.239193
    16 -0.012323 -1.280918 0.000000 -0.322892 0.000000 0.000000
    17 -0.001696 -0.749371 0.000000 -0.593412 0.000000 0.000000
    18 0.354566 0.016267 0.318133 0.834772 -0.606745 -1.212439
    19 1.887166 0.012878 0.000000 -0.305433 0.000000 -0.401426
    20 1.001874 -0.000270 0.000000 0.000000 0.000000 -0.488692
    21 -1.123360 -2.195093 -0.278957 -0.933751 0.000000 -0.087266
    22 0.010772 -0.963792 0.000000 -0.610865 0.000000 0.000000
    23 -0.010412 -0.631916 0.000000 -1.370074 0.000000 0.000000
    24 0.191900 -6.373003 -9.932240 -0.903824 0.895185 -0.217621
    25 0.089930 -8.543161 -0.000001 0.405930 -0.384174 0.277736
    26 0.000000 -0.359712 0.000000 0.000000 0.000000 0.000000
    27 -0.170479 -2.636147 -0.277657 -0.602369 0.000000 0.000000
    28 0.010599 -1.261176 0.000002 0.017592 0.000000 0.000000
    29 -0.000001 -0.943233 -0.000002 -0.495205 0.000000 0.000000
    30 -0.827563 -2.508972 -0.277657 -0.298359 0.007982 -0.131747
    31 0.000000 -1.292971 0.000001 -0.173168 0.000000 0.000000
    32 0.000000 -0.752465 0.000000 -0.406419 0.000000 0.000000
    33 0.444213 -2.561959 -0.277657 -0.630589 -0.046226 -0.024599
    34 0.021022 -1.208186 0.000001 -0.159707 0.000000 0.000000
    35 0.010597 -0.741867 -0.000001 -0.418532 0.000000 0.000000
    36 1.047445 -2.222820 -0.277657 -0.409253 -0.078971 -0.038609
    37 0.000000 -0.996224 -0.000002 -0.623328 0.000000 0.000000
    38 -0.000001 -0.614690 0.000000 -0.502147 0.000000 0.000000
    39 -0.308253 -0.007813 0.307166 -0.201641 -0.322485 -2.638417
    40 1.978376 0.019542 -0.000001 -0.083451 -0.037127 0.215753
    41 0.982425 0.003186 0.000001 0.000000 0.000000 0.311362
  time 6
    0 6.524487 5.087590 -7.717482 -0.546912 -0.931553 0.398706
    1 0.000000 -8.563282 -0.000001 0.338245 -0.277053 -0.370061
    2 -0.222119 -3.429973 0.817995 -1.247038 1.437608 -1.233845
    3 0.000000 2.338128 0.839328 0.000000 0.000000 0.000000
    4 -0.000001 -5.493103 2.360612 0.000000 0.000000 0.000000
    5 0.000000 -3.357312 1.408874 0.000000 0.000000 0.000000
    6 -0.000001 -6.122600 1.221523 0.000000 0.000000 0.000000
    7 0.304697 5.505322 -5.121121 -0.522306 0.200767 0.054838
    8 -0.003479 -0.404829 0.000000 0.000000 0.000000 0.000000
    9 -0.519310 -2.501155 -0.278957 -1.003564 0.000000 -0.122173
    10 -0.010598 -1.208185 0.000000 -1.148417 0.000000 0.000000
    11 0.000000 -0.763066 0.000000 -0.841249 0.000000 0.000000
    12 0.105980 -2.607135 -0.278957 -0.795871 0.000000 -0.148353
    13 0.000000 -1.250579 0.000000 -1.296776 0.000000 0.000000
    14 0.000000 -0.932634 0.000000 -0.886645 0.000000 0.000000
    15 0.763063 -2.490556 -0.278957 -0.346932 0.039309 0.239193
    16 -0.012323 -1.280918 0.000000 -0.322892 0.000000 0.000000
    17 -0.001696 -0.749371 0.000000 -0.593412 0.000000 0.000000
    18 0.354566 0.016267 0.318133 0.834772 -0.606745 -1.212439
    19 1.887166 0.012878 0.000000 -0.305433 0.000000 -0.401426
    20 1.001874 -0.000270 0.000000 0.000000 0.000000 -0.488692
    21 -1.123360 -2.195093 -0.278957 -0.933751 0.000000 -0.087266
    22 0.010772 -0.963792 0.000000 -0.610865 0.000000 0.000000
    23 -0.010412 -0.631916 0.000000 -1.370074 0.000000 0.000000
    24 -0.265145 -6.115183 -10.182247 -1.059072 0.956587 -0.357116
    25 0.089930 -8.543161 -0.000001 0.462535 -0.345579 0.236146
    26 0.000000 -0.359712 0.000000 0.000000 0.000000 0.000000
    27 -0.170479 -2.636147 -0.277657 -0.424506 0.000000 0.000000
    28 0.010599 -1.261176 0.000002 0.050745 0.000000 0.000000
    29 -0.000001 -0.943233 -0.000002 -0.496724 0.000000 0.000000
    30 -0.827563 -2.508972 -0.277657 -0.122646 0.022136 -0.147842
    31 0.000000 -1.292971 0.000001 -0.140034 0.000000 0.000000
    32 0.000000 -0.752465 0.000000 -0.407986 0.000000 0.000000
    33 0.444213 -2.561959 -0.277657 -0.452965 -0.046226 -0.024599
    34 0.021022 -1.208186 0.000001 -0.126414 0.000000 0.000000
    35 0.010597 -0.741867 -0.000001 -0.419926 0.000000 0.000000
    36 1.047445 -2.222820 -0.277657 -0.231704 -0.078971 -0.038609
    37 0.000000 -0.996224 -0.000002 -0.588969 0.000000 0.000000
    38 -0.000001 -0.614690 0.000000 -0.502998 0.000000 0.000000
    39 -0.308253 -0.007813 0.307166 -0.200766 -0.322616 -2.637527
    40 1.978376 0.019542 -0.000001 -0.083511 -0.036995 0.217321
    41 0.982425 0.003186 0.000001 0.000000 0.000000 0.311988
  time 7
    0 6.258854 5.157904 -7.803422 -0.529329 -0.870938 0.389986
    1 0.000000 -8.563282 -0.000001 0.366190 -0.256334 -0.314045
    2 -0.222119 -3.429973 0.817995 -1.247038 1.437608 -1.233845
    3 0.000000 2.338128 0.839328 0.000000 0.000000 0.000000
    4 -0.000001 -5.493103 2.360612 0.000000 0.000000 0.000000
    5 0.000000 -3.357312 1.408874 0.000000 0.000000 0.000000
    6 -0.000001 -6.122600 1.221523 0.000000 0.000000 0.000000
    7 0.355480 4.981869 -5.347690 -0.610319 0.235811 0.053428
    8 -0.003479 -0.404829 0.000000 0.000000 0.000000 0.000000
    9 -0.519310 -2.501155 -0.278957 -1.003564 0.000000 -0.122173
    10 -0.010598 -1.208185 0.000000 -1.148417 0.000000 0.000000
    11 0.000000 -0.763066 0.000000 -0.841249 0.000000 0.000000
    12 0.105980 -2.607135 -0.278957 -0.795871 0.000000 -0.148353
    13 0.000000 -1.250579 0.000000 -1.296776 0.000000 0.000000
    14 0.000000 -0.932634 0.000000 -0.886645 0.000000 0.000000
    15 0.763063 -2.490556 -0.278957 -0.346932 0.039309 0.239193
    16 -0.012323 -1.280918 0.000000 -0.322892 0.000000 0.000000
    17 -0.001696 -0.749371 0.000000 -0.593412 0.000000 0.000000
    18 0.354566 0.016267 0.318133 0.834772 -0.606745 -1.212439
    19 1.887166 0.012878 0.000000 -0.305433 0.000000 -0.401426
    20 1.001874 -0.000270 0.000000 0.000000 0.000000 -0.488692
    21 -1.123360 -2.195093 -0.278957 -0.933751 0.000000 -0.087266
    22 0.010772 -0.963792 0.000000 -0.610865 0.000000 0.000000
    23 -0.010412 -0.631916 0.000000 -1.370074 0.000000 0.000000
    24 -0.776880 -5.841737 -10.408817 -1.248274 1.002298 -0.523186
    25 0.089930 -8.543161 -0.000001 0.516637 -0.304898 0.197459
    26 0.000000 -0.359712 0.000000 0.000000 0.000000 0.000000
    27 -0.170479 -2.636147 -0.277657 -0.291429 0.000000 0.000000
    28 0.010599 -1.261176 0.000002 0.060606 0.000000 0.000000
    29 -0.000001 -0.943233 -0.000002 -0.508078 0.000000 0.000000
    30 -0.827563 -2.508972 -0.277657 0.004813 0.033785 -0.156639
    31 0.000000 -1.292971 0.000001 -0.130599 0.000000 0.000000
    32 0.000000 -0.752465 0.000000 -0.419821 0.000000 0.000000
    33 0.444213 -2.561959 -0.277657 -0.321738 -0.046226 -0.024599
    34 0.021022 -1.208186 0.000001 -0.115744 0.000000 0.000000
    35 0.010597 -0.741867 -0.000001 -0.430760 0.000000 0.000000
    36 1.047445 -2.222820 -0.277657 -0.101143 -0.078971 -0.038609
    37 0.000000 -0.996224 -0.000002 -0.569907 0.000000 0.000000
    38 -0.000001 -0.614690 0.000000 -0.509577 0.000000 0.000000
    39 -0.308253 -0.007813 0.307166 -0.194127 -0.323671 -2.630732
    40 1.978376 0.019542 -0.000001 -0.083930 -0.035976 0.229342
    41 0.982425 0.003186 0.000001 0.000000 0.000000 0.316583
  time 8
    0 5.997127 5.228219 -7.889362 -0.512886 -0.816013 0.381171
    1 0.000000 -8.563282 -0.000001 0.398482 -0.225609 -0.243676
    2 -0.222119 -3.429973 0.817995 -1.247038 1.437608 -1.233845
    3 0.000000 2.338128 0.839328 0.000000 0.000000 0.000000
    4 -0.000001 -5.493103 2.360612 0.000000 0.000000 0.000000
    5 0.000000 -3.357312 1.408874 0.000000 0.000000 0.000000
    6 -0.000001 -6.122600 1.221523 0.000000 0.000000 0.000000
    7 0.402356 4.454509 -5.578166 -0.699082 0.270598 0.048814
    8 -0.003479 -0.404829 0.000000 0.000000 0.000000 0.000000
    9 -0.519310 -2.501155 -0.278957 -1.003564 0.000000 -0.122173
    10 -0.010598 -1.208185 0.000000 -1.148417 0.000000 0.000000
    11 0.000000 -0.763066 0.000000 -0.841249 0.000000 0.000000
    12 0.105980 -2.607135 -0.278957 -0.795871 0.000000 -0.148353
    13 0.000000 -1.250579 0.000000 -1.296776 0.000000 0.000000
    14 0.000000 -0.932634 0.000000 -0.886645 0.000000 0.000000
    15 0.763063 -2.490556 -0.278957 -0.346932 0.039309 0.239193
    16 -0.012323 -1.280918 0.000000 -0.322892 0.000000 0.000000
    17 -0.001696 -0.749371 0.000000 -0.593412 0.000000 0.000000
    18 0.354566 0.016267 0.318133 0.834772 -0.606745 -1.212439
    19 1.887166 0.012878 0.000000 -0.305433 0.000000 -0.401426
    20 1.001874 -0.000270 0.000000 0.000000 0.000000 -0.488692
    21 -1.123360 -2.195093 -0.278957 -0.933751 0.000000 -0.087266
    22 0.010772 -0.963792 0.000000 -0.610865 0.000000 0.000000
    23 -0.010412 -0.631916 0.000000 -1.370074 0.000000 0.000000
    24 -1.339397 -5.548759 -10.608041 -1.462430 1.028291 -0.712332
    25 0.089930 -8.543161 -0.000001 0.516637 -0.304898 0.197459
    26 0.000000 -0.359712 0.000000 0.000000 0.000000 0.000000
    27 -0.170479 -2.636147 -0.277657 -0.216475 0.000000 0.000000
    28 0.010599 -1.261176 0.000002 0.040110 0.000000 0.000000
    29 -0.000001 -0.943233 -0.000002 -0.532326 0.000000 0.000000
    30 -0.827563 -2.508972 -0.277657 0.069688 0.039609 -0.158472
    31 0.000000 -1.292971 0.000001 -0.151858 0.000000 0.000000
    32 0.000000 -0.752465 0.000000 -0.445059 0.000000 0.000000
    33 0.444213 -2.561959 -0.277657 -0.250809 -0.046226 -0.024599
    34 0.021022 -1.208186 0.000001 -0.134428 0.000000 0.000000
    35 0.010597 -0.741867 -0.000001 -0.453786 0.000000 0.000000
    36 1.047445 -2.222820 -0.277657 -0.031619 -0.078971 -0.038609
    37 0.000000 -0.996224 -0.000002 -0.570745 0.000000 0.000000
    38 -0.000001 -0.614690 0.000000 -0.523599 0.000000 0.000000
    39 -0.308253 -0.007813 0.307166 -0.179973 -0.326092 -2.616278
    40 1.978376 0.019542 -0.000001 -0.084829 -0.033819 0.254889
    41 0.982425 0.003186 0.000001 0.000000 0.000000 0.326398
  time 9
    0 5.731494 5.298533 -7.975302 -0.497095 -0.768186 0.371301
    1 0.000000 -8.563282 -0.000001 0.428356 -0.186509 -0.175996
    2 -0.222119 -3.429973 0.817995 -1.247038 1.437608 -1.233845
    3 0.000000 2.338128 0.839328 0.000000 0.000000 0.000000
    4 -0.000001 -5.493103 2.360612 0.000000 0.000000 0.000000
    5 0.000000 -3.357312 1.408874 0.000000 0.000000 0.000000
    6 -0.000001 -6.122600 1.221523 0.000000 0.000000 0.000000
    7 0.453139 3.927149 -5.804735 -0.789057 0.304837 0.040939
    8 -0.003479 -0.404829 0.000000 0.000000 0.000000 0.000000
    9 -0.519310 -2.501155 -0.278957 -1.003564 0.000000 -0.122173
    10 -0.010598 -1.208185 0.000000 -1.148417 0.000000 0.000000
    11 0.000000 -0.763066 0.000000 -0.841249 0.000000 0.000000
    12 0.105980 -2.607135 -0.278957 -0.795871 0.000000 -0.148353
    13 0.000000 -1.250579 0.000000 -1.296776 0.000000 0.000000
    14 0.000000 -0.932634 0.000000 -0.886645 0.000000 0.000000
    15 0.763063 -2.490556 -0.278957 -0.346932 0.039309 0.239193
    16 -0.012323 -1.280918 0.000000 -0.322892 0.000000 0.000000
    17 -0.001696 -0.749371 0.000000 -0.593412 0.000000 0.000000
    18 0.354566 0.016267 0.318133 0.834772 -0.606745 -1.212439
    19 1.887166 0.012878 0.000000 -0.305433 0.000000 -0.401426
    20 1.001874 -0.000270 0.000000 0.000000 0.000000 -0.488692
    21 -1.123360 -2.195093 -0.278957 -0.933751 0.000000 -0.087266
    22 0.010772 -0.963792 0.000000 -0.610865 0.000000 0.000000
    23 -0.010412 -0.631916 0.000000 -1.370074 0.000000 0.000000
    24 -1.956603 -5.244062 -10.783828 -1.689214 1.031591 -0.912165
    25 0.089930 -8.543161 -0.000001 0.516637 -0.304898 0.197459
    26 0.000000 -0.359712 0.000000 0.000000 0.000000 0.000000
    27 -0.170479 -2.636147 -0.277657 -0.190391 0.000000 0.000000
    28 0.010599 -1.261176 0.000002 -0.005775 0.000000 0.000000
    29 -0.000001 -0.943233 -0.000002 -0.567353 0.000000 0.000000
    30 -0.827563 -2.508972 -0.277657 0.082118 0.039873 -0.155404
    31 0.000000 -1.292971 0.000001 -0.198951 0.000000 0.000000
    32 0.000000 -0.752465 0.000000 -0.481523 0.000000 0.000000
    33 0.444213 -2.561959 -0.277657 -0.230464 -0.046226 -0.024599
    34 0.021022 -1.208186 0.000001 -0.177693 0.000000 0.000000
    35 0.010597 -0.741867 -0.000001 -0.487081 0.000000 0.000000
    36 1.047445 -2.222820 -0.277657 -0.013326 -0.078971 -0.038609
    37 0.000000 -0.996224 -0.000002 -0.588257 0.000000 0.000000
    38 -0.000001 -0.614690 0.000000 -0.543865 0.000000 0.000000
    39 -0.308253 -0.007813 0.307166 -0.159551 -0.329927 -2.595436
    40 1.978376 0.019542 -0.000001 -0.086003 -0.030655 0.291835
    41 0.982425 0.003186 0.000001 0.000000 0.000000 0.340547
  time 10
    0 5.469768 5.368848 -8.065149 -0.475442 -0.744019 0.349741
    1 0.000000 -8.563282 -0.000001 0.447836 -0.138846 -0.128396
    2 -0.222119 -3.429973 0.817995 -1.247038 1.437608 -1.233845
    3 0.000000 2.338128 0.839328 0.000000 0.000000 0.000000
    4 -0.000001 -5.493103 2.360612 0.000000 0.000000 0.000000
    5 0.000000 -3.357312 1.408874 0.000000 0.000000 0.000000
    6 -0.000001 -6.122600 1.221523 0.000000 0.000000 0.000000
    7 0.507828 3.407602 -6.035211 -0.880302 0.338252 0.029747
    8 -0.003479 -0.404829 0.000000 0.000000 0.000000 0.000000
    9 -0.519310 -2.501155 -0.278957 -1.003564 0.000000 -0.122173
    10 -0.010598 -1.208185 0.000000 -1.148417 0.000000 0.000000
    11 0.000000 -0.763066 0.000000 -0.841249 0.000000 0.000000
    12 0.105980 -2.607135 -0.278957 -0.795871 0.000000 -0.148353
    13 0.000000 -1.250579 0.000000 -1.296776 0.000000 0.000000
    14 0.000000 -0.932634 0.000000 -0.886645 0.000000 0.000000
    15 0.763063 -2.490556 -0.278957 -0.346932 0.039309 0.239193
    16 -0.012323 -1.280918 0.000000 -0.322892 0.000000 0.000000
    17 -0.001696 -0.749371 0.000000 -0.593412 0.000000 0.000000
    18 0.354566 0.016267 0.318133 0.834772 -0.606745 -1.212439
    19 1.887166 0.012878 0.000000 -0.305433 0.000000 -0.401426
    20 1.001874 -0.000270 0.000000 0.000000 0.000000 -0.488692
    21 -1.123360 -2.195093 -0.278957 -0.933751 0.000000 -0.087266
    22 0.010772 -0.963792 0.000000 -0.610865 0.000000 0.000000
    23 -0.010412 -0.631916 0.000000 -1.370074 0.000000 0.000000
    24 -2.624592 -4.923740 -10.936176 -1.911008 1.011552 -1.105188
    25 0.089930 -8.543161 -0.000001 0.516637 -0.304898 0.197459
    26 0.000000 -0.359712 0.000000 0.000000 0.000000 0.000000
    27 -0.170479 -2.636147 -0.277657 -0.192114 0.000000 0.000000
    28 0.010599 -1.261176 0.000002 -0.066189 0.000000 0.000000
    29 -0.000001 -0.943233 -0.000002 -0.608580 0.000000 0.000000
    30 -0.827563 -2.508972 -0.277657 0.064571 0.036960 -0.149544
    31 0.000000 -1.292971 0.000001 -0.260722 0.000000 0.000000
    32 0.000000 -0.752465 0.000000 -0.524428 0.000000 0.000000
    33 0.444213 -2.561959 -0.277657 -0.239025 -0.046226 -0.024599
    34 0.021022 -1.208186 0.000001 -0.235050 0.000000 0.000000
    35 0.010597 -0.741867 -0.000001 -0.526235 0.000000 0.000000
    36 1.047445 -2.222820 -0.277657 -0.024275 -0.078971 -0.038609
    37 0.000000 -0.996224 -0.000002 -0.615292 0.000000 0.000000
    38 -0.000001 -0.614690 0.000000 -0.567702 0.000000 0.000000
    39 -0.308253 -0.007813 0.307166 -0.135654 -0.334973 -2.570994
    40 1.978376 0.019542 -0.000001 -0.087262 -0.026904 0.335286
    41 0.982425 0.003186 0.000001 0.000000 0.000000 0.357253
  time 11
    0 5.204134 5.443069 -8.151089 -0.447684 -0.746892 0.314766
    1 0.000000 -8.563282 -0.000001 0.453261 -0.069675 -0.103287
    2 -0.222119 -3.429973 0.817995 -1.247038 1.437608 -1.233845
    3 0.000000 2.338128 0.839328 0.000000 0.000000 0.000000
    4 -0.000001 -5.493103 2.360612 0.000000 0.000000 0.000000
    5 0.000000 -3.357312 1.408874 0.000000 0.000000 0.000000
    6 -0.000001 -6.122600 1.221523 0.000000 0.000000 0.000000
    7 0.558611 2.880242 -6.261780 -0.972932 0.370553 0.015208
    8 -0.003479 -0.404829 0.000000 0.000000 0.000000 0.000000
    9 -0.519310 -2.501155 -0.278957 -1.003564 0.000000 -0.122173
    10 -0.010598 -1.208185 0.000000 -1.148417 0.000000 0.000000
    11 0.000000 -0.763066 0.000000 -0.841249 0.000000 0.000000
    12 0.105980 -2.607135 -0.278957 -0.795871 0.000000 -0.148353
    13 0.000000 -1.250579 0.000000 -1.296776 0.000000 0.000000
    14 0.000000 -0.932634 0.000000 -0.886645 0.000000 0.000000
    15 0.763063 -2.490556 -0.278957 -0.346932 0.039309 0.239193
    16 -0.012323 -1.280918 0.000000 -0.322892 0.000000 0.000000
    17 -0.001696 -0.749371 0.000000 -0.593412 0.000000 0.000000
    18 0.354566 0.016267 0.318133 0.834772 -0.606745 -1.212439
    19 1.887166 0.012878 0.000000 -0.305433 0.000000 -0.401426
    20 1.001874 -0.000270 0.000000 0.000000 0.000000 -0.488692
    21 -1.123360 -2.195093 -0.278957 -0.933751 0.000000 -0.087266
    22 0.010772 -0.963792 0.000000 -0.610865 0.000000 0.000000
    23 -0.010412 -0.631916 0.000000 -1.370074 0.000000 0.000000
    24 -3.343364 -4.583886 -11.061180 -2.113140 0.970429 -1.276838
    25 0.089930 -8.543161 -0.000001 0.516637 -0.304898 0.197459
    26 0.000000 -0.359712 0.000000 0.000000 0.000000 0.000000
    27 -0.170479 -2.636147 -0.277657 -0.217705 0.000000 0.000000
    28 0.010599 -1.261176 0.000002 -0.139035 0.000000 0.000000
    29 -0.000001 -0.943233 -0.000002 -0.655043 0.000000 0.000000
    30 -0.827563 -2.508972 -0.277657 0.021386 0.031651 -0.141131
    31 0.000000 -1.292971 0.000001 -0.335089 0.000000 0.000000
    32 0.000000 -0.752465 0.000000 -0.572880 0.000000 0.000000
    33 0.444213 -2.561959 -0.277657 -0.272304 -0.046226 -0.024599
    34 0.021022 -1.208186 0.000001 -0.304473 0.000000 0.000000
    35 0.010597 -0.741867 -0.000001 -0.570440 0.000000 0.000000
    36 1.047445 -2.222820 -0.277657 -0.060222 -0.078971 -0.038609
    37 0.000000 -0.996224 -0.000002 -0.650490 0.000000 0.000000
    38 -0.000001 -0.614690 0.000000 -0.594608 0.000000 0.000000
    39 -0.308253 -0.007813 0.307166 -0.108773 -0.341300 -2.543523
    40 1.978376 0.019542 -0.000001 -0.088460 -0.022565 0.384275
    41 0.982425 0.003186 0.000001 0.000000 0.000000 0.376074
  time 12
    0 4.942408 5.513384 -8.240935 -0.422287 -0.759341 0.280174
    1 0.000000 -8.563282 -0.000001 0.449764 0.021924 -0.089807
    2 -0.222119 -3.429973 0.817995 -1.247038 1.437608 -1.233845
    3 0.000000 2.338128 0.839328 0.000000 0.000000 0.000000
    4 -0.000001 -5.493103 2.360612 0.000000 0.000000 0.000000
    5 0.000000 -3.357312 1.408874 0.000000 0.000000 0.000000
    6 -0.000001 -6.122600 1.221523 0.000000 0.000000 0.000000
    7 0.609394 2.360695 -6.492256 -1.067351 0.401449 -0.002706
    8 -0.003479 -0.404829 0.000000 0.000000 0.000000 0.000000
    9 -0.519310 -2.501155 -0.278957 -1.003564 0.000000 -0.122173
    10 -0.010598 -1.208185 0.000000 -1.148417 0.000000 0.000000
    11 0.000000 -0.763066 0.000000 -0.841249 0.000000 0.000000
    12 0.105980 -2.607135 -0.278957 -0.795871 0.000000 -0.148353
    13 0.000000 -1.250579 0.000000 -1.296776 0.000000 0.000000
    14 0.000000 -0.932634 0.000000 -0.886645 0.000000 0.000000
    15 0.763063 -2.490556 -0.278957 -0.346932 0.039309 0.239193
    16 -0.012323 -1.280918 0.000000 -0.322892 0.000000 0.000000
    17 -0.001696 -0.749371 0.000000 -0.593412 0.000000 0.000000
    18 0.354566 0.016267 0.318133 0.834772 -0.606745 -1.212439
    19 1.887166 0.012878 0.000000 -0.305433 0.000000 -0.401426
    20 1.001874 -0.000270 0.000000 0.000000 0.000000 -0.488692
    21 -1.123360 -2.195093 -0.278957 -0.933751 0.000000 -0.087266
    22 0.010772 -0.963792 0.000000 -0.610865 0.000000 0.000000
    23 -0.010412 -0.631916 0.000000 -1.370074 0.000000 0.000000
    24 -4.116825 -4.232313 -11.162746 -2.288579 0.912165 -1.420116
    25 0.089930 -8.543161 -0.000001 0.516637 -0.304898 0.197459
    26 0.000000 -0.359712 0.000000 0.000000 0.000000 0.000000
    27 -0.170479 -2.636147 -0.277657 -0.263180 0.000000 0.000000
    28 0.010599 -1.261176 0.000002 -0.222242 0.000000 0.000000
    29 -0.000001 -0.943233 -0.000002 -0.705961 0.000000 0.000000
    30 -0.827563 -2.508972 -0.277657 -0.043294 0.024820 -0.130308
    31 0.000000 -1.292971 0.000001 -0.419970 0.000000 0.000000
    32 0.000000 -0.752465 0.000000 -0.625858 0.000000 0.000000
    33 0.444213 -2.561959 -0.277657 -0.326203 -0.046226 -0.024599
    34 0.021022 -1.208186 0.000001 -0.383890 0.000000 0.000000
    35 0.010597 -0.741867 -0.000001 -0.618809 0.000000 0.000000
    36 1.047445 -2.222820 -0.277657 -0.117064 -0.078971 -0.038609
    37 0.000000 -0.996224 -0.000002 -0.692490 0.000000 0.000000
    38 -0.000001 -0.614690 0.000000 -0.624042 0.000000 0.000000
    39 -0.308253 -0.007813 0.307166 -0.079494 -0.349031 -2.513610
    40 1.978376 0.019542 -0.000001 -0.089551 -0.017784 0.437923
    41 0.982425 0.003186 0.000001 0.000000 0.000000 0.396697
  time 13
    0 4.676775 5.583698 -8.330782 -0.410728 -0.764806 0.262063
    1 0.000000 -8.563282 -0.000001 0.441037 0.118506 -0.085372
    2 -0.222119 -3.429973 0.817995 -1.247038 1.437608 -1.233845
    3 0.000000 2.338128 0.839328 0.000000 0.000000 0.000000
    4 -0.000001 -5.493103 2.360612 0.000000 0.000000 0.000000
    5 0.000000 -3.357312 1.408874 0.000000 0.000000 0.000000
    6 -0.000001 -6.122600 1.221523 0.000000 0.000000 0.000000
    7 0.656270 1.833335 -6.718826 -1.163617 0.430612 -0.023980
    8 -0.003479 -0.404829 0.000000 0.000000 0.000000 0.000000
    9 -0.519310 -2.501155 -0.278957 -1.003564 0.000000 -0.122173
    10 -0.010598 -1.208185 0.000000 -1.148417 0.000000 0.000000
    11 0.000000 -0.763066 0.000000 -0.841249 0.000000 0.000000
    12 0.105980 -2.607135 -0.278957 -0.795871 0.000000 -0.148353
    13 0.000000 -1.250579 0.000000 -1.296776 0.000000 0.000000
    14 0.000000 -0.932634 0.000000 -0.886645 0.000000 0.000000
    15 0.763063 -2.490556 -0.278957 -0.346932 0.039309 0.239193
    16 -0.012323 -1.280918 0.000000 -0.322892 0.000000 0.000000
    17 -0.001696 -0.749371 0.000000 -0.593412 0.000000 0.000000
    18 0.354566 0.016267 0.318133 0.834772 -0.606745 -1.212439
    19 1.887166 0.012878 0.000000 -0.305433 0.000000 -0.401426
    20 1.001874 -0.000270 0.000000 0.000000 0.000000 -0.488692
    21 -1.123360 -2.195093 -0.278957 -0.933751 0.000000 -0.087266
    22 0.010772 -0.963792 0.000000 -0.610865 0.000000 0.000000
    23 -0.010412 -0.631916 0.000000 -1.370074 0.000000 0.000000
    24 -4.941069 -3.861208 -11.236967 -2.437474 0.840944 -1.535022
    25 0.089930 -8.543161 -0.000001 0.516637 -0.304898 0.197459
    26 0.000000 -0.359712 0.000000 0.000000 0.000000 0.000000
    27 -0.170479 -2.636147 -0.277657 -0.324600 0.000000 0.000000
    28 0.010599 -1.261176 0.000002 -0.313737 0.000000 0.000000
    29 -0.000001 -0.943233 -0.000002 -0.760369 0.000000 0.000000
    30 -0.827563 -2.508972 -0.277657 -0.125180 0.017390 -0.117233
    31 0.000000 -1.292971 0.000001 -0.513257 0.000000 0.000000
    32 0.000000 -0.752465 0.000000 -0.682490 0.000000 0.000000
    33 0.444213 -2.561959 -0.277657 -0.396626 -0.046226 -0.024599
    34 0.021022 -1.208186 0.000001 -0.471277 0.000000 0.000000
    35 0.010597 -0.741867 -0.000001 -0.670494 0.000000 0.000000
    36 1.047445 -2.222820 -0.277657 -0.190601 -0.078971 -0.038609
    37 0.000000 -0.996224 -0.000002 -0.739916 0.000000 0.000000
    38 -0.000001 -0.614690 0.000000 -0.655513 0.000000 0.000000
    39 -0.308253 -0.007813 0.307166 -0.048382 -0.358199 -2.481800
    40 1.978376 0.019542 -0.000001 -0.090426 -0.012606 0.495263
    41 0.982425 0.003186 0.000001 0.000000 0.000000 0.418729
  time 14
    0 4.415048 5.654013 -8.412816 -0.416345 -0.760919 0.264746
    1 0.000000 -8.563282 -0.000001 0.430840 0.202558 -0.086664
    2 -0.222119 -3.429973 0.817995 -1.247038 1.437608 -1.233845
    3 0.000000 2.338128 0.839328 0.000000 0.000000 0.000000
    4 -0.000001 -5.493103 2.360612 0.000000 0.000000 0.000000
    5 0.000000 -3.357312 1.408874 0.000000 0.000000 0.000000
    6 -0.000001 -6.122600 1.221523 0.000000 0.000000 0.000000
    7 0.707053 1.313788 -6.949301 -1.261902 0.457753 -0.048572
    8 -0.003479 -0.404829 0.000000 0.000000 0.000000 0.000000
    9 -0.519310 -2.501155 -0.278957 -1.003564 0.000000 -0.122173
    10 -0.010598 -1.208185 0.000000 -1.148417 0.000000 0.000000
    11 0.000000 -0.763066 0.000000 -0.841249 0.000000 0.000000
    12 0.105980 -2.607135 -0.278957 -0.795871 0.000000 -0.148353
    13 0.000000 -1.250579 0.000000 -1.296776 0.000000 0.000000
    14 0.000000 -0.932634 0.000000 -0.886645 0.000000 0.000000
    15 0.763063 -2.490556 -0.278957 -0.346932 0.039309 0.239193
    16 -0.012323 -1.280918 0.000000 -0.322892 0.000000 0.000000
    17 -0.001696 -0.749371 0.000000 -0.593412 0.000000 0.000000
    18 0.354566 0.016267 0.318133 0.834772 -0.606745 -1.212439
    19 1.887166 0.012878 0.000000 -0.305433 0.000000 -0.401426
    20 1.001874 -0.000270 0.000000 0.000000 0.000000 -0.488692
    21 -1.123360 -2.195093 -0.278957 -0.933751 0.000000 -0.087266
    22 0.010772 -0.963792 0.000000 -0.610865 0.000000 0.000000
    23 -0.010412 -0.631916 0.000000 -1.370074 0.000000 0.000000
    24 -5.823909 -3.478383 -11.291656 0.578102 2.381409 -4.766769
    25 0.089930 -8.543161 -0.000001 0.516637 -0.304898 0.197459
    26 0.000000 -0.359712 0.000000 0.000000 0.000000 0.000000
    27 -0.170479 -2.636147 -0.277657 -0.397930 0.000000 0.000000
    28 0.010599 -1.261176 0.000002 -0.411448 0.000000 0.000000
    29 -0.000001 -0.943233 -0.000002 -0.817385 0.000000 0.000000
    30 -0.827563 -2.508972 -0.277657 -0.219983 0.010211 -0.102121
    31 0.000000 -1.292971 0.000001 -0.612867 0.000000 0.000000
    32 0.000000 -0.752465 0.000000 -0.741930 0.000000 0.000000
    33 0.444213 -2.561959 -0.277657 -0.479385 -0.046226 -0.024599
    34 0.021022 -1.208186 0.000001 -0.564786 0.000000 0.000000
    35 0.010597 -0.741867 -0.000001 -0.724722 0.000000 0.000000
    36 1.047445 -2.222820 -0.277657 -0.276684 -0.078971 -0.038609
    37 0.000000 -0.996224 -0.000002 -0.791423 0.000000 0.000000
    38 -0.000001 -0.614690 0.000000 -0.688531 0.000000 0.000000
    39 -0.308253 -0.007813 0.307166 -0.016012 -0.368781 -2.448693
    40 1.978376 0.019542 -0.000001 -0.091001 -0.007141 0.555372
    41 0.982425 0.003186 0.000001 0.000000 0.000000 0.441805
  time 15
    0 4.149415 5.724328 -8.498756 -0.431160 -0.756187 0.277587
    1 0.000000 -8.563282 -0.000001 0.423845 0.256513 -0.089108
    2 -0.222119 -3.429973 0.817995 -1.247038 1.437608 -1.233845
    3 0.000000 2.338128 0.839328 0.000000 0.000000 0.000000
    4 -0.000001 -5.493103 2.360612 0.000000 0.000000 0.000000
    5 0.000000 -3.357312 1.408874 0.000000 0.000000 0.000000
    6 -0.000001 -6.122600 1.221523 0.000000 0.000000 0.000000
    7 0.761742 0.786428 -7.175871 -1.362150 0.482561 -0.076382
    8 -0.003479 -0.404829 0.000000 0.000000 0.000000 0.000000
    9 -0.519310 -2.501155 -0.278957 -1.003564 0.000000 -0.122173
    10 -0.010598 -1.208185 0.000000 -1.148417 0.000000 0.000000
    11 0.000000 -0.763066 0.000000 -0.841249 0.000000 0.000000
    12 0.105980 -2.607135 -0.278957 -0.795871 0.000000 -0.148353
    13 0.000000 -1.250579 0.000000 -1.296776 0.000000 0.000000
    14 0.000000 -0.932634 0.000000 -0.886645 0.000000 0.000000
    15 0.763063 -2.490556 -0.278957 -0.346932 0.039309 0.239193
    16 -0.012323 -1.280918 0.000000 -0.322892 0.000000 0.000000
    17 -0.001696 -0.749371 0.000000 -0.593412 0.000000 0.000000
    18 0.354566 0.016267 0.318133 0.834772 -0.606745 -1.212439
    19 1.887166 0.012878 0.000000 -0.305433 0.000000 -0.401426
    20 1.001874 -0.000270 0.000000 0.000000 0.000000 -0.488692
    21 -1.123360 -2.195093 -0.278957 -0.933751 0.000000 -0.087266
    22 0.010772 -0.963792 0.000000 -0.610865 0.000000 0.000000
    23 -0.010412 -0.631916 0.000000 -1.370074 0.000000 0.000000
    24 -6.753624 -3.076027 -11.315094 0.470570 2.468886 -4.836847
    25 0.089930 -8.543161 -0.000001 0.516637 -0.304898 0.197459
    26 0.000000 -0.359712 0.000000 0.000000 0.000000 0.000000
    27 -0.170479 -2.636147 -0.277657 -0.479184 0.000000 0.000000
    28 0.010599 -1.261176 0.000002 -0.513303 0.000000 0.000000
    29 -0.000001 -0.943233 -0.000002 -0.876207 0.000000 0.000000
    30 -0.827563 -2.508972 -0.277657 -0.323510 0.004087 -0.085354
    31 0.000000 -1.292971 0.000001 -0.716667 0.000000 0.000000
    32 0.000000 -0.752465 0.000000 -0.803153 0.000000 0.000000
    33 0.444213 -2.561959 -0.277657 -0.570384 -0.046226 -0.024599
    34 0.021022 -1.208186 0.000001 -0.662279 0.000000 0.000000
    35 0.010597 -0.741867 -0.000001 -0.780628 0.000000 0.000000
    36 1.047445 -2.222820 -0.277657 -0.371070 -0.078971 -0.038609
    37 0.000000 -0.996224 -0.000002 -0.845667 0.000000 0.000000
    38 -0.000001 -0.614690 0.000000 -0.722531 0.000000 0.000000
    39 -0.308253 -0.007813 0.307166 0.017102 -0.380766 -2.414784
    40 1.978376 0.019542 -0.000001 -0.091277 -0.001473 0.617328
    41 0.982425 0.003186 0.000001 0.000000 0.000000 0.465612
  time 16
    0 4.149415 5.724328 -8.498756 -0.451185 -0.750666 0.296176
    1 0.000000 -8.563282 -0.000001 0.420217 0.272997 -0.093369
    2 -0.222119 -3.429973 0.817995 -1.247038 1.437608 -1.233845
    3 0.000000 2.338128 0.839328 0.000000 0.000000 0.000000
    4 -0.000001 -5.493103 2.360612 0.000000 0.000000 0.000000
    5 0.000000 -3.357312 1.408874 0.000000 0.000000 0.000000
    6 -0.000001 -6.122600 1.221523 0.000000 0.000000 0.000000
    7 0.812525 0.262975 -7.406347 -1.464534 0.504730 -0.107226
    8 -0.003479 -0.404829 0.000000 0.000000 0.000000 0.000000
    9 -0.519310 -2.501155 -0.278957 -1.003564 0.000000 -0.122173
    10 -0.010598 -1.208185 0.000000 -1.148417 0.000000 0.000000
    11 0.000000 -0.763066 0.000000 -0.841249 0.000000 0.000000
    12 0.105980 -2.607135 -0.278957 -0.795871 0.000000 -0.148353
    13 0.000000 -1.250579 0.000000 -1.296776 0.000000 0.000000
    14 0.000000 -0.932634 0.000000 -0.886645 0.000000 0.000000
    15 0.763063 -2.490556 -0.278957 -0.346932 0.039309 0.239193
    16 -0.012323 -1.280918 0.000000 -0.322892 0.000000 0.000000
    17 -0.001696 -0.749371 0.000000 -0.593412 0.000000 0.000000
    18 0.354566 0.016267 0.318133 0.834772 -0.606745 -1.212439
    19 1.887166 0.012878 0.000000 -0.305433 0.000000 -0.401426
    20 1.001874 -0.000270 0.000000 0.000000 0.000000 -0.488692
    21 -1.123360 -2.195093 -0.278957 -0.933751 0.000000 -0.087266
    22 0.010772 -0.963792 0.000000 -0.610865 0.000000 0.000000
    23 -0.010412 -0.631916 0.000000 -1.370074 0.000000 0.000000
    24 -7.738029 -2.658046 -11.319001 0.377330 2.561352 -4.890848
    25 0.089930 -8.543161 -0.000001 0.516637 -0.304898 0.197459
    26 0.000000 -0.359712 0.000000 0.000000 0.000000 0.000000
    27 -0.170479 -2.636147 -0.277657 -0.564473 0.000000 0.000000
    28 0.010599 -1.261176 0.000002 -0.617255 0.000000 0.000000
    29 -0.000001 -0.943233 -0.000002 -0.935913 0.000000 0.000000
    30 -0.827563 -2.508972 -0.277657 -0.431424 -0.000395 -0.067533
    31 0.000000 -1.292971 0.000001 -0.822575 0.000000 0.000000
    32 0.000000 -0.752465 0.000000 -0.865291 0.000000 0.000000
    33 0.444213 -2.561959 -0.277657 -0.665524 -0.046226 -0.024599
    34 0.021022 -1.208186 0.000001 -0.761776 0.000000 0.000000
    35 0.010597 -0.741867 -0.000001 -0.837363 0.000000 0.000000
    36 1.047445 -2.222820 -0.277657 -0.469653 -0.078971 -0.038609
    37 0.000000 -0.996224 -0.000002 -0.901240 0.000000 0.000000
    38 -0.000001 -0.614690 0.000000 -0.757083 0.000000 0.000000
    39 -0.308253 -0.007813 0.307166 0.050443 -0.393961 -2.380672
    40 1.978376 0.019542 -0.000001 -0.091193 0.004268 0.680207
    41 0.982425 0.003186 0.000001 0.000000 0.000000 0.489785
  time 17
    0 4.149415 5.724328 -8.498756 -0.472186 -0.744751 0.315820
    1 0.000000 -8.563282 -0.000001 0.416459 0.263673 -0.102344
    2 -0.222119 -3.429973 0.817995 -1.247038 1.437608 -1.233845
    3 0.000000 2.338128 0.839328 0.000000 0.000000 0.000000
    4 -0.000001 -5.493103 2.360612 0.000000 0.000000 0.000000
    5 0.000000 -3.357312 1.408874 0.000000 0.000000 0.000000
    6 -0.000001 -6.122600 1.221523 0.000000 0.000000 0.000000
    7 0.863308 -0.264385 -7.632916 -1.568706 0.524001 -0.140889
    8 -0.003479 -0.404829 0.000000 0.000000 0.000000 0.000000
    9 -0.519310 -2.501155 -0.278957 -1.003564 0.000000 -0.122173
    10 -0.010598 -1.208185 0.000000 -1.148417 0.000000 0.000000
    11 0.000000 -0.763066 0.000000 -0.841249 0.000000 0.000000
    12 0.105980 -2.607135 -0.278957 -0.795871 0.000000 -0.148353
    13 0.000000 -1.250579 0.000000 -1.296776 0.000000 0.000000
    14 0.000000 -0.932634 0.000000 -0.886645 0.000000 0.000000
    15 0.763063 -2.490556 -0.278957 -0.346932 0.039309 0.239193
    16 -0.012323 -1.280918 0.000000 -0.322892 0.000000 0.000000
    17 -0.001696 -0.749371 0.000000 -0.593412 0.000000 0.000000
    18 0.354566 0.016267 0.318133 0.834772 -0.606745 -1.212439
    19 1.887166 0.012878 0.000000 -0.305433 0.000000 -0.401426
    20 1.001874 -0.000270 0.000000 0.000000 0.000000 -0.488692
    21 -1.123360 -2.195093 -0.278957 -0.933751 0.000000 -0.087266
    22 0.010772 -0.963792 0.000000 -0.610865 0.000000 0.000000
    23 -0.010412 -0.631916 0.000000 -1.370074 0.000000 0.000000
    24 -8.777124 -2.224439 -11.295562 0.294905 2.657118 -4.932177
    25 0.089930 -8.543161 -0.000001 0.516637 -0.304898 0.197459
    26 0.000000 -0.359712 0.000000 0.000000 0.000000 0.000000
    27 -0.170479 -2.636147 -0.277657 -0.649713 0.000000 0.000000
    28 0.010599 -1.261176 0.000002 -0.721182 0.000000 0.000000
    29 -0.000001 -0.943233 -0.000002 -0.995598 0.000000 0.000000
    30 -0.827563 -2.508972 -0.277657 -0.539386 -0.002948 -0.049353
    31 0.000000 -1.292971 0.000001 -0.928457 0.000000 0.000000
    32 0.000000 -0.752465 0.000000 -0.927450 0.000000 0.000000
    33 0.444213 -2.561959 -0.277657 -0.760619 -0.046226 -0.024599
    34 0.021022 -1.208186 0.000001 -0.861273 0.000000 0.000000
    35 0.010597 -0.741867 -0.000001 -0.894079 0.000000 0.000000
    36 1.047445 -2.222820 -0.277657 -0.568235 -0.078971 -0.038609
    37 0.000000 -0.996224 -0.000002 -0.956828 0.000000 0.000000
    38 -0.000001 -0.614690 0.000000 -0.791598 0.000000 0.000000
    39 -0.308253 -0.007813 0.307166 0.083424 -0.408210 -2.346839
    40 1.978376 0.019542 -0.000001 -0.090725 0.010021 0.743064
    41 0.982425 0.003186 0.000001 0.000000 0.000000 0.513957
  time 18
    0 4.149415 5.724328 -8.498756 -0.490257 -0.738949 0.332493
    1 0.000000 -8.563282 -0.000001 0.413027 0.239561 -0.113764
    2 -0.222119 -3.429973 0.817995 -1.247038 1.437608 -1.233845
    3 0.000000 2.338128 0.839328 0.000000 0.000000 0.000000
    4 -0.000001 -5.493103 2.360612 0.000000 0.000000 0.000000
    5 0.000000 -3.357312 1.408874 0.000000 0.000000 0.000000
    6 -0.000001 -6.122600 1.221523 0.000000 0.000000 0.000000
    7 0.910184 -0.783932 -7.863392 -1.674784 0.540065 -0.177058
    8 -0.003479 -0.404829 0.000000 0.000000 0.000000 0.000000
    9 -0.519310 -2.501155 -0.278957 -1.003564 0.000000 -0.122173
    10 -0.010598 -1.208185 0.000000 -1.148417 0.000000 0.000000
    11 0.000000 -0.763066 0.000000 -0.841249 0.000000 0.000000
    12 0.105980 -2.607135 -0.278957 -0.795871 0.000000 -0.148353
    13 0.000000 -1.250579 0.000000 -1.296776 0.000000 0.000000
    14 0.000000 -0.932634 0.000000 -0.886645 0.000000 0.000000
    15 0.763063 -2.490556 -0.278957 -0.346932 0.039309 0.239193
    16 -0.012323 -1.280918 0.000000 -0.322892 0.000000 0.000000
    17 -0.001696 -0.749371 0.000000 -0.593412 0.000000 0.000000
    18 0.354566 0.016267 0.318133 0.834772 -0.606745 -1.212439
    19 1.887166 0.012878 0.000000 -0.305433 0.000000 -0.401426
    20 1.001874 -0.000270 0.000000 0.000000 0.000000 -0.488692
    21 -1.123360 -2.195093 -0.278957 -0.933751 0.000000 -0.087266
    22 0.010772 -0.963792 0.000000 -0.610865 0.000000 0.000000
    23 -0.010412 -0.631916 0.000000 -1.370074 0.000000 0.000000
    24 -9.867001 -1.775206 -11.244780 0.220797 2.755299 -4.963291
    25 0.089930 -8.543161 -0.000001 0.516637 -0.304898 0.197459
    26 0.000000 -0.359712 0.000000 0.000000 0.000000 0.000000
    27 -0.170479 -2.636147 -0.277657 -0.731016 0.000000 0.000000
    28 0.010599 -1.261176 0.000002 -0.823037 0.000000 0.000000
    29 -0.000001 -0.943233 -0.000002 -1.054380 0.000000 0.000000
    30 -0.827563 -2.508972 -0.277657 -0.643108 -0.003523 -0.031543
    31 0.000000 -1.292971 0.000001 -1.032309 0.000000 0.000000
    32 0.000000 -0.752465 0.000000 -0.988717 0.000000 0.000000
    33 0.444213 -2.561959 -0.277657 -0.851617 -0.046226 -0.024599
    34 0.021022 -1.208186 0.000001 -0.958766 0.000000 0.000000
    35 0.010597 -0.741867 -0.000001 -0.949965 0.000000 0.000000
    36 1.047445 -2.222820 -0.277657 -0.662667 -0.078971 -0.038609
    37 0.000000 -0.996224 -0.000002 -1.011072 0.000000 0.000000
    38 -0.000001 -0.614690 0.000000 -0.825635 0.000000 0.000000
    39 -0.308253 -0.007813 0.307166 0.115627 -0.423215 -2.313821
    40 1.978376 0.019542 -0.000001 -0.089934 0.015629 0.805042
    41 0.982425 0.003186 0.000001 0.000000 0.000000 0.537791
  time 19
    0 4.149415 5.724328 -8.498756 -0.490257 -0.738949 0.332493
    1 0.000000 -8.563282 -0.000001 0.409954 0.211695 -0.125707
    2 -0.222119 -3.429973 0.817995 -1.247038 1.437608 -1.233845
    3 0.000000 2.338128 0.839328 0.000000 0.000000 0.000000
    4 -0.000001 -5.493103 2.360612 0.000000 0.000000 0.000000
    5 0.000000 -3.357312 1.408874 0.000000 0.000000 0.000000
    6 -0.000001 -6.122600 1.221523 0.000000 0.000000 0.000000
    7 0.960967 -1.311292 -8.089961 -1.782304 0.552718 -0.215334
    8 -0.003479 -0.404829 0.000000 0.000000 0.000000 0.000000
    9 -0.519310 -2.501155 -0.278957 -1.003564 0.000000 -0.122173
    10 -0.010598 -1.208185 0.000000 -1.148417 0.000000 0.000000
    11 0.000000 -0.763066 0.000000 -0.841249 0.000000 0.000000
    12 0.105980 -2.607135 -0.278957 -0.795871 0.000000 -0.148353
    13 0.000000 -1.250579 0.000000 -1.296776 0.000000 0.000000
    14 0.000000 -0.932634 0.000000 -0.886645 0.000000 0.000000
    15 0.763063 -2.490556 -0.278957 -0.346932 0.039309 0.239193
    16 -0.012323 -1.280918 0.000000 -0.322892 0.000000 0.000000
    17 -0.001696 -0.749371 0.000000 -0.593412 0.000000 0.000000
    18 0.354566 0.016267 0.318133 0.834772 -0.606745 -1.212439
    19 1.887166 0.012878 0.000000 -0.305433 0.000000 -0.401426
    20 1.001874 -0.000270 0.000000 0.000000 0.000000 -0.488692
    21 -1.123360 -2.195093 -0.278957 -0.933751 0.000000 -0.087266
    22 0.010772 -0.963792 0.000000 -0.610865 0.000000 0.000000
    23 -0.010412 -0.631916 0.000000 -1.370074 0.000000 0.000000
    24 -11.011567 -1.310349 -11.174465 0.152814 2.855330 -4.986272
    25 0.089930 -8.543161 -0.000001 0.516637 -0.304898 0.197459
    26 0.000000 -0.359712 0.000000 0.000000 0.000000 0.000000
    27 -0.170479 -2.636147 -0.277657 -0.804346 0.000000 0.000000
    28 0.010599 -1.261176 0.000002 -0.920748 0.000000 0.000000
    29 -0.000001 -0.943233 -0.000002 -1.111436 0.000000 0.000000
    30 -0.827563 -2.508972 -0.277657 -0.738203 -0.002385 -0.014873
    31 0.000000 -1.292971 0.000001 -1.131893 0.000000 0.000000
    32 0.000000 -0.752465 0.000000 -1.048112 0.000000 0.000000
    33 0.444213 -2.561959 -0.277657 -0.934376 -0.046226 -0.024599
    34 0.021022 -1.208186 0.000001 -1.052230 0.000000 0.000000
    35 0.010597 -0.741867 -0.000001 -1.004175 0.000000 0.000000
    36 1.047445 -2.222820 -0.277657 -0.748704 -0.078971 -0.038609
    37 0.000000 -0.996224 -0.000002 -1.062579 0.000000 0.000000
    38 -0.000001 -0.614690 0.000000 -0.858628 0.000000 0.000000
    39 -0.308253 -0.007813 0.307166 0.146523 -0.438711 -2.282088
    40 1.978376 0.019542 -0.000001 -0.088844 0.021022 0.865173
    41 0.982425 0.003186 0.000001 0.000000 0.000000 0.560867
  time 20
    0 4.149415 5.724328 -8.498756 -0.490257 -0.738949 0.332493
    1 0.000000 -8.563282 -0.000001 0.407013 0.191203 -0.136219
    2 -0.222119 -3.429973 0.817995 -1.247038 1.437608 -1.233845
    3 0.000000 2.338128 0.839328 0.000000 0.000000 0.000000
    4 -0.000001 -5.493103 2.360612 0.000000 0.000000 0.000000
    5 0.000000 -3.357312 1.408874 0.000000 0.000000 0.000000
    6 -0.000001 -6.122600 1.221523 0.000000 0.000000 0.000000
    7 1.015656 -1.830839 -8.320437 -1.891151 0.561771 -0.255249
    8 -0.003479 -0.404829 0.000000 0.000000 0.000000 0.000000
    9 -0.519310 -2.501155 -0.278957 -1.003564 0.000000 -0.122173
    10 -0.010598 -1.208185 0.000000 -1.148417 0.000000 0.000000
    11 0.000000 -0.763066 0.000000 -0.841249 0.000000 0.000000
    12 0.105980 -2.607135 -0.278957 -0.795871 0.000000 -0.148353
    13 0.000000 -1.250579 0.000000 -1.296776 0.000000 0.000000
    14 0.000000 -0.932634 0.000000 -0.886645 0.000000 0.000000
    15 0.763063 -2.490556 -0.278957 -0.346932 0.039309 0.239193
    16 -0.012323 -1.280918 0.000000 -0.322892 0.000000 0.000000
    17 -0.001696 -0.749371 0.000000 -0.593412 0.000000 0.000000
    18 0.354566 0.016267 0.318133 0.834772 -0.606745 -1.212439
    19 1.887166 0.012878 0.000000 -0.305433 0.000000 -0.401426
    20 1.001874 -0.000270 0.000000 0.000000 0.000000 -0.488692
    21 -1.123360 -2.195093 -0.278957 -0.933751 0.000000 -0.087266
    22 0.010772 -0.963792 0.000000 -0.610865 0.000000 0.000000
    23 -0.010412 -0.631916 0.000000 -1.370074 0.000000 0.000000
    24 -12.206916 -0.829865 -11.072899 0.089520 2.956327 -5.002633
    25 0.089930 -8.543161 -0.000001 0.516637 -0.304898 0.197459
    26 0.000000 -0.359712 0.000000 0.000000 0.000000 0.000000
    27 -0.170479 -2.636147 -0.277657 -0.865717 0.000000 0.000000
    28 0.010599 -1.261176 0.000002 -1.012268 0.000000 0.000000
    29 -0.000001 -0.943233 -0.000002 -1.165845 0.000000 0.000000
    30 -0.827563 -2.508972 -0.277657 -0.820333 0.000000 0.000000
    31 0.000000 -1.292971 0.000001 -1.225206 0.000000 0.000000
    32 0.000000 -0.752465 0.000000 -1.104789 0.000000 0.000000
    33 0.444213 -2.561959 -0.277657 -1.004799 -0.046226 -0.024599
    34 0.021022 -1.208186 0.000001 -1.139661 0.000000 0.000000
    35 0.010597 -0.741867 -0.000001 -1.055917 0.000000 0.000000
    36 1.047445 -2.222820 -0.277657 -0.822242 -0.078971 -0.038609
    37 0.000000 -0.996224 -0.000002 -1.110021 0.000000 0.000000
    38 -0.000001 -0.614690 0.000000 -0.890112 0.000000 0.000000
    39 -0.308253 -0.007813 0.307166 0.175718 -0.454303 -2.252111
    40 1.978376 0.019542 -0.000001 -0.087502 0.026092 0.922534
    41 0.982425 0.003186 0.000001 0.000000 0.000000 0.582925
end
