version 1
nodes
  0 "Bone_Root" -1
  1 "Bone04" 0
  2 "Bone_Righthand" 1
  3 "gatling_root" 2
  4 "load" 3
  5 "magazine" 3
  6 "gun01" 3
  7 "gun02" 6
  8 "gunstock" 3
  9 "trigger" 8
  10 "Bone39" 2
  11 "Bone40" 10
  12 "Bone41" 11
  13 "Bone35" 2
  14 "Bone36" 13
  15 "Bone37" 14
  16 "Bone31" 2
  17 "Bone32" 16
  18 "Bone33" 17
  19 "Bone43" 2
  20 "Bone44" 19
  21 "Bone45" 20
  22 "Bone27" 2
  23 "Bone28" 22
  24 "Bone29" 23
  25 "Bone_Se_Hand-R" 2
  26 "Bone01" 0
  27 "Bone_Lefthand" 26
  28 "Bone13" 27
  29 "Bone14" 28
  30 "Bone15" 29
  31 "Bone17" 27
  32 "Bone18" 31
  33 "Bone19" 32
  34 "Bone21" 27
  35 "Bone22" 34
  36 "Bone23" 35
  37 "Bone09" 27
  38 "Bone10" 37
  39 "Bone11" 38
  40 "Bone05" 27
  41 "Bone06" 40
  42 "Bone07" 41
  43 "Bone_Se_Hand-L" 27
end
skeleton
  time 0
    0 0.000000 0.000000 0.000000 0.000000 0.000000 -0.000046
    1 0.061005 -6.762758 -12.485821 -0.100055 0.348488 0.632252
    2 0.096944 -8.450419 -0.009364 0.278076 -0.276656 0.114449
    3 3.770899 0.510649 0.994700 -1.914841 0.090746 0.732963
    4 -3.054057 -6.061518 0.000002 0.000001 0.000000 0.005300
    5 3.127696 -3.244520 0.000000 0.000000 0.000000 -3.136292
    6 -2.010684 -3.271755 0.000002 0.000000 0.000000 -3.136292
    7 11.679248 0.000001 -0.000001 0.000000 0.000000 0.000000
    8 10.482983 -0.550524 0.000000 0.000000 0.000000 -3.136292
    9 4.552886 2.143380 -0.000001 -0.000001 0.000000 -1.570797
    10 0.447952 -2.798983 -0.200442 -0.738106 -0.102210 0.041797
    11 -0.032910 -1.480206 0.004936 -0.802798 0.000000 0.000002
    12 -0.027022 -1.076919 -0.020212 -0.434237 0.000000 0.000000
    13 -0.249534 -2.846962 -0.174215 -0.372673 -0.091831 0.024622
    14 0.043235 -1.683940 0.096014 -1.033478 0.002823 -0.000167
    15 0.031729 -1.160831 0.058836 -1.000078 0.000642 0.008372
    16 -0.963866 -2.785142 -0.085346 -0.269130 0.014961 -0.024958
    17 0.028479 -1.403069 0.006271 -0.285449 0.000000 0.000000
    18 0.021413 -0.957782 0.020047 -0.431493 0.000000 0.000000
    19 1.164474 -2.543938 -0.170328 -0.858262 -0.318398 0.068471
    20 0.024033 -1.129042 0.017806 -0.500948 0.000000 0.000001
    21 0.014896 -0.883989 -0.019845 -0.267461 0.000000 0.000000
    22 -0.547706 -1.280100 0.004846 -0.015000 -0.716336 -2.528360
    23 1.526741 0.128996 -0.182375 0.265670 0.160195 0.522292
    24 1.117948 0.048424 -0.005764 -0.002580 -0.025066 0.158734
    25 -0.139399 -0.111697 0.014397 0.285382 -0.030687 1.580508
    26 9.591730 7.275833 -11.677574 1.277272 -1.936293 -1.354481
    27 -0.071918 -8.498732 -0.104137 -0.036396 0.273198 -0.341626
    28 -0.488517 -2.755600 -0.228261 -1.091389 -0.300452 -0.445613
    29 0.039888 -1.479789 0.029853 -0.928028 0.000000 0.000000
    30 0.028786 -1.075730 -0.023111 -1.481424 0.000000 0.000000
    31 0.250028 -2.820664 -0.238396 -0.620858 -0.150751 -0.537343
    32 -0.049759 -1.680545 0.100480 -1.463660 0.000000 -0.000002
    33 -0.034141 -1.148312 0.084779 -1.087292 0.000000 0.000000
    34 0.957766 -2.746776 -0.090301 -0.063286 -0.242586 -0.427231
    35 -0.033419 -1.397128 -0.011255 -0.779109 0.124808 -0.122316
    36 -0.022361 -0.957434 0.018783 -1.043319 0.000000 0.000000
    37 -1.180680 -2.507215 -0.193861 -1.402521 -0.167662 -0.612262
    38 -0.024966 -1.123935 0.017594 -0.977980 0.000000 0.000001
    39 -0.020057 -0.890966 0.010091 -0.933423 0.000000 0.000000
    40 0.583510 -1.197274 0.185377 0.272562 -1.003483 -0.533087
    41 1.535926 0.010244 0.005008 0.440185 -0.138726 -1.296648
    42 1.100770 0.004526 -0.010676 -0.011449 0.011491 -0.607444
    43 0.120152 -0.050266 -0.054488 0.287568 3.110905 1.561085
  time 1
    0 0.000000 0.000000 0.000000 0.000000 0.000000 -0.000046
    1 0.061005 -5.649443 -12.485821 -0.095934 0.345417 0.633403
    2 0.096944 -8.450419 -0.009364 0.278076 -0.276656 0.114449
    3 3.770899 0.510649 0.994700 -1.914841 0.090746 0.732963
    4 -0.057872 -6.045893 0.000002 0.000001 0.000000 0.005300
    5 3.127696 -3.244520 0.000000 -0.316671 0.000000 -3.136292
    6 -1.166908 -3.267849 0.000002 0.000000 0.000000 -3.136292
    7 11.679248 0.000001 -0.000001 -0.123585 0.000000 0.000000
    8 10.482983 -0.550524 0.000000 0.000000 0.000000 -3.136292
    9 5.939647 -2.716143 -0.000001 -0.000001 0.000000 -4.707088
    10 0.447952 -2.798983 -0.200442 -0.738106 -0.102210 0.041797
    11 -0.032910 -1.480206 0.004936 -0.802798 0.000000 0.000002
    12 -0.027022 -1.076919 -0.020212 -0.434237 0.000000 0.000000
    13 -0.249534 -2.846962 -0.174215 -0.372673 -0.091831 0.024622
    14 0.043235 -1.683940 0.096014 -1.033478 0.002823 -0.000167
    15 0.031729 -1.160831 0.058836 -1.000078 0.000642 0.008372
    16 -0.963866 -2.785142 -0.085346 -0.269130 0.014961 -0.024958
    17 0.028479 -1.403069 0.006271 -0.285449 0.000000 0.000000
    18 0.021413 -0.957782 0.020047 -0.431493 0.000000 0.000000
    19 1.164474 -2.543938 -0.170328 -0.858262 -0.318398 0.068471
    20 0.024033 -1.129042 0.017806 -0.500948 0.000000 0.000001
    21 0.014896 -0.883989 -0.019845 -0.267461 0.000000 0.000000
    22 -0.547706 -1.280100 0.004846 -0.015000 -0.716336 -2.528360
    23 1.526741 0.128996 -0.182375 0.265670 0.160195 0.522292
    24 1.117948 0.048424 -0.005764 -0.002580 -0.025066 0.158734
    25 -0.139399 -0.111697 0.014397 0.285382 -0.030687 1.580508
    26 9.591730 7.721160 -11.677574 1.294596 -1.969406 -1.370507
    27 -0.071918 -8.498732 -0.104137 -0.036396 0.273198 -0.341626
    28 -0.488517 -2.755600 -0.228261 -1.091389 -0.300452 -0.445613
    29 0.039888 -1.479789 0.029853 -0.928028 0.000000 0.000000
    30 0.028786 -1.075730 -0.023111 -1.481424 0.000000 0.000000
    31 0.250028 -2.820664 -0.238396 -0.620858 -0.150751 -0.537343
    32 -0.049759 -1.680545 0.100480 -1.463660 0.000000 -0.000002
    33 -0.034141 -1.148312 0.084779 -1.087292 0.000000 0.000000
    34 0.957766 -2.746776 -0.090301 -0.063286 -0.242586 -0.427231
    35 -0.033419 -1.397128 -0.011255 -0.779109 0.124808 -0.122316
    36 -0.022361 -0.957434 0.018783 -1.043319 0.000000 0.000000
    37 -1.180680 -2.507215 -0.193861 -1.402521 -0.167662 -0.612262
    38 -0.024966 -1.123935 0.017594 -0.977980 0.000000 0.000001
    39 -0.020057 -0.890966 0.010091 -0.933423 0.000000 0.000000
    40 0.583510 -1.197274 0.185377 0.272562 -1.003483 -0.533087
    41 1.535926 0.010244 0.005008 0.440185 -0.138726 -1.296648
    42 1.100770 0.004526 -0.010676 -0.011449 0.011491 -0.607444
    43 0.120152 -0.050266 -0.054488 0.287568 3.110905 1.561085
  time 2
    0 0.000000 0.000000 0.000000 0.000000 0.000000 -0.000046
    1 0.061005 -4.536127 -12.485821 -0.091812 0.342321 0.634555
    2 0.096944 -8.450419 -0.009364 0.278076 -0.276656 0.114449
    3 3.770899 0.510649 0.994700 -1.914841 0.090746 0.732963
    4 -0.366475 -6.049799 0.000002 0.000001 0.000000 0.005300
    5 3.127696 -3.244520 0.000000 -1.108589 0.000000 -3.136292
    6 -0.323133 -3.263942 0.000002 0.000000 0.000000 -3.136292
    7 11.679248 0.000001 -0.000001 -0.465386 0.000000 0.000000
    8 10.482983 -0.550524 0.000000 0.000000 0.000000 -3.136292
    9 4.552886 2.143380 -0.000001 -0.000001 0.000000 -1.570797
    10 0.447952 -2.798983 -0.200442 -0.738106 -0.102210 0.041797
    11 -0.032910 -1.480206 0.004936 -0.802798 0.000000 0.000002
    12 -0.027022 -1.076919 -0.020212 -0.434237 0.000000 0.000000
    13 -0.249534 -2.846962 -0.174215 -0.372673 -0.091831 0.024622
    14 0.043235 -1.683940 0.096014 -1.033478 0.002823 -0.000167
    15 0.031729 -1.160831 0.058836 -1.000078 0.000642 0.008372
    16 -0.963866 -2.785142 -0.085346 -0.269130 0.014961 -0.024958
    17 0.028479 -1.403069 0.006271 -0.285449 0.000000 0.000000
    18 0.021413 -0.957782 0.020047 -0.431493 0.000000 0.000000
    19 1.164474 -2.543938 -0.170328 -0.858262 -0.318398 0.068471
    20 0.024033 -1.129042 0.017806 -0.500948 0.000000 0.000001
    21 0.014896 -0.883989 -0.019845 -0.267461 0.000000 0.000000
    22 -0.547706 -1.280100 0.004846 -0.015000 -0.716336 -2.528360
    23 1.526741 0.128996 -0.182375 0.265670 0.160195 0.522292
    24 1.117948 0.048424 -0.005764 -0.002580 -0.025066 0.158734
    25 -0.139399 -0.111697 0.014397 0.285382 -0.030687 1.580508
    26 9.591730 8.166486 -11.677574 1.311919 -2.002520 -1.386439
    27 -0.071918 -8.498732 -0.104137 -0.036396 0.273198 -0.341626
    28 -0.488517 -2.755600 -0.228261 -1.091389 -0.300452 -0.445613
    29 0.039888 -1.479789 0.029853 -0.928028 0.000000 0.000000
    30 0.028786 -1.075730 -0.023111 -1.481424 0.000000 0.000000
    31 0.250028 -2.820664 -0.238396 -0.620858 -0.150751 -0.537343
    32 -0.049759 -1.680545 0.100480 -1.463660 0.000000 -0.000002
    33 -0.034141 -1.148312 0.084779 -1.087292 0.000000 0.000000
    34 0.957766 -2.746776 -0.090301 -0.063286 -0.242586 -0.427231
    35 -0.033419 -1.397128 -0.011255 -0.779109 0.124808 -0.122316
    36 -0.022361 -0.957434 0.018783 -1.043319 0.000000 0.000000
    37 -1.180680 -2.507215 -0.193861 -1.402521 -0.167662 -0.612262
    38 -0.024966 -1.123935 0.017594 -0.977980 0.000000 0.000001
    39 -0.020057 -0.890966 0.010091 -0.933423 0.000000 0.000000
    40 0.583510 -1.197274 0.185377 0.272562 -1.003483 -0.533087
    41 1.535926 0.010244 0.005008 0.440185 -0.138726 -1.296648
    42 1.100770 0.004526 -0.010676 -0.011449 0.011491 -0.607444
    43 0.120152 -0.050266 -0.054488 0.287568 3.110905 1.561085
  time 3
    0 0.000000 0.000000 0.000000 0.000000 0.000000 -0.000046
    1 0.061005 -4.633787 -12.485821 -0.134107 0.370686 0.619469
    2 0.096944 -8.450419 -0.009364 0.278076 -0.276656 0.114449
    3 3.770899 0.510649 0.994700 -1.914841 0.090746 0.732963
    4 -1.112591 -6.053705 0.000002 0.000001 0.000000 0.005300
    5 3.127696 -3.244520 0.000000 1.003511 -3.141592 -6.277884
    6 -0.498919 -3.263942 0.000002 0.000000 0.000000 -3.136292
    7 11.679248 0.000001 -0.000001 -0.981682 0.000000 0.000000
    8 10.482983 -0.550524 0.000000 0.000000 0.000000 -3.136292
    9 4.552886 2.143380 -0.000001 -0.000001 0.000000 -1.570797
    10 0.447952 -2.798983 -0.200442 -0.738106 -0.102210 0.041797
    11 -0.032910 -1.480206 0.004936 -0.802798 0.000000 0.000002
    12 -0.027022 -1.076919 -0.020212 -0.434237 0.000000 0.000000
    13 -0.249534 -2.846962 -0.174215 -0.372673 -0.091831 0.024622
    14 0.043235 -1.683940 0.096014 -1.033478 0.002823 -0.000167
    15 0.031729 -1.160831 0.058836 -1.000078 0.000642 0.008372
    16 -0.963866 -2.785142 -0.085346 -0.269130 0.014961 -0.024958
    17 0.028479 -1.403069 0.006271 -0.285449 0.000000 0.000000
    18 0.021413 -0.957782 0.020047 -0.431493 0.000000 0.000000
    19 1.164474 -2.543938 -0.170328 -0.858262 -0.318398 0.068471
    20 0.024033 -1.129042 0.017806 -0.500948 0.000000 0.000001
    21 0.014896 -0.883989 -0.019845 -0.267461 0.000000 0.000000
    22 -0.547706 -1.280100 0.004846 -0.015000 -0.716336 -2.528360
    23 1.526741 0.128996 -0.182375 0.265670 0.160195 0.522292
    24 1.117948 0.048424 -0.005764 -0.002580 -0.025066 0.158734
    25 -0.139399 -0.111697 0.014397 0.285382 -0.030687 1.580508
    26 9.591730 8.127422 -11.677574 1.310388 -1.999648 -1.385111
    27 -0.071918 -8.498732 -0.104137 -0.036396 0.273198 -0.341626
    28 -0.488517 -2.755600 -0.228261 -1.091389 -0.300452 -0.445613
    29 0.039888 -1.479789 0.029853 -0.928028 0.000000 0.000000
    30 0.028786 -1.075730 -0.023111 -1.481424 0.000000 0.000000
    31 0.250028 -2.820664 -0.238396 -0.620858 -0.150751 -0.537343
    32 -0.049759 -1.680545 0.100480 -1.463660 0.000000 -0.000002
    33 -0.034141 -1.148312 0.084779 -1.087292 0.000000 0.000000
    34 0.957766 -2.746776 -0.090301 -0.063286 -0.242586 -0.427231
    35 -0.033419 -1.397128 -0.011255 -0.779109 0.124808 -0.122316
    36 -0.022361 -0.957434 0.018783 -1.043319 0.000000 0.000000
    37 -1.180680 -2.507215 -0.193861 -1.402521 -0.167662 -0.612262
    38 -0.024966 -1.123935 0.017594 -0.977980 0.000000 0.000001
    39 -0.020057 -0.890966 0.010091 -0.933423 0.000000 0.000000
    40 0.583510 -1.197274 0.185377 0.272562 -1.003483 -0.533087
    41 1.535926 0.010244 0.005008 0.440185 -0.138726 -1.296648
    42 1.100770 0.004526 -0.010676 -0.011449 0.011491 -0.607444
    43 0.120152 -0.050266 -0.054488 0.287568 3.110905 1.561085
  time 4
    0 0.000000 0.000000 0.000000 0.000000 0.000000 -0.000046
    1 0.061005 -4.883794 -12.485821 -0.176420 0.399076 0.604361
    2 0.096944 -8.450419 -0.009364 0.278076 -0.276656 0.114449
    3 3.770899 0.510649 0.994700 -1.914841 0.090746 0.732963
    4 -1.999337 -6.057612 0.000002 0.000001 0.000000 0.005300
    5 3.127696 -3.244520 0.000000 -0.025790 3.141592 -6.277884
    6 -0.916901 -3.267849 0.000002 0.000000 0.000000 -3.136292
    7 11.679248 0.000001 -0.000001 -1.628945 0.000000 0.000000
    8 10.482983 -0.550524 0.000000 0.000000 0.000000 -3.136292
    9 4.552886 2.143380 -0.000001 -0.000001 0.000000 -1.570797
    10 0.447952 -2.798983 -0.200442 -0.738106 -0.102210 0.041797
    11 -0.032910 -1.480206 0.004936 -0.802798 0.000000 0.000002
    12 -0.027022 -1.076919 -0.020212 -0.434237 0.000000 0.000000
    13 -0.249534 -2.846962 -0.174215 -0.372673 -0.091831 0.024622
    14 0.043235 -1.683940 0.096014 -1.033478 0.002823 -0.000167
    15 0.031729 -1.160831 0.058836 -1.000078 0.000642 0.008372
    16 -0.963866 -2.785142 -0.085346 -0.269130 0.014961 -0.024958
    17 0.028479 -1.403069 0.006271 -0.285449 0.000000 0.000000
    18 0.021413 -0.957782 0.020047 -0.431493 0.000000 0.000000
    19 1.164474 -2.543938 -0.170328 -0.858262 -0.318398 0.068471
    20 0.024033 -1.129042 0.017806 -0.500948 0.000000 0.000001
    21 0.014896 -0.883989 -0.019845 -0.267461 0.000000 0.000000
    22 -0.547706 -1.280100 0.004846 -0.015000 -0.716336 -2.528360
    23 1.526741 0.128996 -0.182375 0.265670 0.160195 0.522292
    24 1.117948 0.048424 -0.005764 -0.002580 -0.025066 0.158734
    25 -0.139399 -0.111697 0.014397 0.285382 -0.030687 1.580508
    26 9.591730 8.025856 -11.677574 1.306464 -1.992184 -1.381413
    27 -0.071918 -8.498732 -0.104137 -0.036396 0.273198 -0.341626
    28 -0.488517 -2.755600 -0.228261 -1.091389 -0.300452 -0.445613
    29 0.039888 -1.479789 0.029853 -0.928028 0.000000 0.000000
    30 0.028786 -1.075730 -0.023111 -1.481424 0.000000 0.000000
    31 0.250028 -2.820664 -0.238396 -0.620858 -0.150751 -0.537343
    32 -0.049759 -1.680545 0.100480 -1.463660 0.000000 -0.000002
    33 -0.034141 -1.148312 0.084779 -1.087292 0.000000 0.000000
    34 0.957766 -2.746776 -0.090301 -0.063286 -0.242586 -0.427231
    35 -0.033419 -1.397128 -0.011255 -0.779109 0.124808 -0.122316
    36 -0.022361 -0.957434 0.018783 -1.043319 0.000000 0.000000
    37 -1.180680 -2.507215 -0.193861 -1.402521 -0.167662 -0.612262
    38 -0.024966 -1.123935 0.017594 -0.977980 0.000000 0.000001
    39 -0.020057 -0.890966 0.010091 -0.933423 0.000000 0.000000
    40 0.583510 -1.197274 0.185377 0.272562 -1.003483 -0.533087
    41 1.535926 0.010244 0.005008 0.440185 -0.138726 -1.296648
    42 1.100770 0.004526 -0.010676 -0.011449 0.011491 -0.607444
    43 0.120152 -0.050266 -0.054488 0.287568 3.110905 1.561085
  time 5
    0 0.000000 0.000000 0.000000 0.000000 0.000000 -0.000046
    1 0.061005 -5.243180 -12.485821 -0.170760 0.395331 0.606428
    2 0.096944 -8.450419 -0.009364 0.278076 -0.276656 0.114449
    3 3.770899 0.510649 0.994700 -1.914841 0.090746 0.732963
    4 -2.745454 -6.061518 0.000002 0.000001 0.000000 0.005300
    5 3.127696 -3.244520 0.000000 -0.817708 3.141592 -6.277884
    6 -1.416916 -3.271755 0.000002 0.000000 0.000000 -3.136292
    7 11.679248 0.000001 -0.000001 -2.363457 0.000000 0.000000
    8 10.482983 -0.550524 0.000000 0.000000 0.000000 -3.136292
    9 4.552886 2.143380 -0.000001 -0.000001 0.000000 -1.570797
    10 0.447952 -2.798983 -0.200442 -0.738106 -0.102210 0.041797
    11 -0.032910 -1.480206 0.004936 -0.802798 0.000000 0.000002
    12 -0.027022 -1.076919 -0.020212 -0.434237 0.000000 0.000000
    13 -0.249534 -2.846962 -0.174215 -0.372673 -0.091831 0.024622
    14 0.043235 -1.683940 0.096014 -1.033478 0.002823 -0.000167
    15 0.031729 -1.160831 0.058836 -1.000078 0.000642 0.008372
    16 -0.963866 -2.785142 -0.085346 -0.269130 0.014961 -0.024958
    17 0.028479 -1.403069 0.006271 -0.285449 0.000000 0.000000
    18 0.021413 -0.957782 0.020047 -0.431493 0.000000 0.000000
    19 1.164474 -2.543938 -0.170328 -0.858262 -0.318398 0.068471
    20 0.024033 -1.129042 0.017806 -0.500948 0.000000 0.000001
    21 0.014896 -0.883989 -0.019845 -0.267461 0.000000 0.000000
    22 -0.547706 -1.280100 0.004846 -0.015000 -0.716336 -2.528360
    23 1.526741 0.128996 -0.182375 0.265670 0.160195 0.522292
    24 1.117948 0.048424 -0.005764 -0.002580 -0.025066 0.158734
    25 -0.139399 -0.111697 0.014397 0.285382 -0.030687 1.580508
    26 9.591730 7.885227 -11.677574 1.301008 -1.981561 -1.376387
    27 -0.071918 -8.498732 -0.104137 -0.036396 0.273198 -0.341626
    28 -0.488517 -2.755600 -0.228261 -1.091389 -0.300452 -0.445613
    29 0.039888 -1.479789 0.029853 -0.928028 0.000000 0.000000
    30 0.028786 -1.075730 -0.023111 -1.481424 0.000000 0.000000
    31 0.250028 -2.820664 -0.238396 -0.620858 -0.150751 -0.537343
    32 -0.049759 -1.680545 0.100480 -1.463660 0.000000 -0.000002
    33 -0.034141 -1.148312 0.084779 -1.087292 0.000000 0.000000
    34 0.957766 -2.746776 -0.090301 -0.063286 -0.242586 -0.427231
    35 -0.033419 -1.397128 -0.011255 -0.779109 0.124808 -0.122316
    36 -0.022361 -0.957434 0.018783 -1.043319 0.000000 0.000000
    37 -1.180680 -2.507215 -0.193861 -1.402521 -0.167662 -0.612262
    38 -0.024966 -1.123935 0.017594 -0.977980 0.000000 0.000001
    39 -0.020057 -0.890966 0.010091 -0.933423 0.000000 0.000000
    40 0.583510 -1.197274 0.185377 0.272562 -1.003483 -0.533087
    41 1.535926 0.010244 0.005008 0.440185 -0.138726 -1.296648
    42 1.100770 0.004526 -0.010676 -0.011449 0.011491 -0.607444
    43 0.120152 -0.050266 -0.054488 0.287568 3.110905 1.561085
  time 6
    0 0.000000 0.000000 0.000000 0.000000 0.000000 -0.000046
    1 0.061005 -5.649443 -12.485821 -0.156619 0.385967 0.611598
    2 0.096944 -8.450419 -0.009364 0.278076 -0.276656 0.114449
    3 3.770899 0.510649 0.994700 -1.914841 0.090746 0.732963
    4 -3.054057 -6.061518 0.000002 0.000001 0.000000 0.005300
    5 3.127696 -3.244520 0.000000 -1.134379 3.141592 -6.277884
    6 -1.838804 -3.271755 0.000002 0.000000 0.000000 -3.136292
    7 11.679248 0.000001 -0.000001 3.141592 0.000000 0.000000
    8 10.482983 -0.550524 0.000000 0.000000 0.000000 -3.136292
    9 4.552886 2.143380 -0.000001 -0.000001 0.000000 -1.570797
    10 0.447952 -2.798983 -0.200442 -0.738106 -0.102210 0.041797
    11 -0.032910 -1.480206 0.004936 -0.802798 0.000000 0.000002
    12 -0.027022 -1.076919 -0.020212 -0.434237 0.000000 0.000000
    13 -0.249534 -2.846962 -0.174215 -0.372673 -0.091831 0.024622
    14 0.043235 -1.683940 0.096014 -1.033478 0.002823 -0.000167
    15 0.031729 -1.160831 0.058836 -1.000078 0.000642 0.008372
    16 -0.963866 -2.785142 -0.085346 -0.269130 0.014961 -0.024958
    17 0.028479 -1.403069 0.006271 -0.285449 0.000000 0.000000
    18 0.021413 -0.957782 0.020047 -0.431493 0.000000 0.000000
    19 1.164474 -2.543938 -0.170328 -0.858262 -0.318398 0.068471
    20 0.024033 -1.129042 0.017806 -0.500948 0.000000 0.000001
    21 0.014896 -0.883989 -0.019845 -0.267461 0.000000 0.000000
    22 -0.547706 -1.280100 0.004846 -0.015000 -0.716336 -2.528360
    23 1.526741 0.128996 -0.182375 0.265670 0.160195 0.522292
    24 1.117948 0.048424 -0.005764 -0.002580 -0.025066 0.158734
    25 -0.139399 -0.111697 0.014397 0.285382 -0.030687 1.580508
    26 9.591730 7.721160 -11.677574 1.294596 -1.969406 -1.370507
    27 -0.071918 -8.498732 -0.104137 -0.036396 0.273198 -0.341626
    28 -0.488517 -2.755600 -0.228261 -1.091389 -0.300452 -0.445613
    29 0.039888 -1.479789 0.029853 -0.928028 0.000000 0.000000
    30 0.028786 -1.075730 -0.023111 -1.481424 0.000000 0.000000
    31 0.250028 -2.820664 -0.238396 -0.620858 -0.150751 -0.537343
    32 -0.049759 -1.680545 0.100480 -1.463660 0.000000 -0.000002
    33 -0.034141 -1.148312 0.084779 -1.087292 0.000000 0.000000
    34 0.957766 -2.746776 -0.090301 -0.063286 -0.242586 -0.427231
    35 -0.033419 -1.397128 -0.011255 -0.779109 0.124808 -0.122316
    36 -0.022361 -0.957434 0.018783 -1.043319 0.000000 0.000000
    37 -1.180680 -2.507215 -0.193861 -1.402521 -0.167662 -0.612262
    38 -0.024966 -1.123935 0.017594 -0.977980 0.000000 0.000001
    39 -0.020057 -0.890966 0.010091 -0.933423 0.000000 0.000000
    40 0.583510 -1.197274 0.185377 0.272562 -1.003483 -0.533087
    41 1.535926 0.010244 0.005008 0.440185 -0.138726 -1.296648
    42 1.100770 0.004526 -0.010676 -0.011449 0.011491 -0.607444
    43 0.120152 -0.050266 -0.054488 0.287568 3.110905 1.561085
  time 7
    0 0.000000 0.000000 0.000000 0.000000 0.000000 -0.000046
    1 0.061005 -6.059611 -12.485821 -0.138229 0.373782 0.618318
    2 0.096944 -8.450419 -0.009364 0.278076 -0.276656 0.114449
    3 3.770899 0.510649 0.994700 -1.914841 0.090746 0.732963
    4 -3.054057 -6.061518 0.000002 0.000001 0.000000 0.005300
    5 3.127696 -3.244520 0.000000 0.000000 0.000000 -3.136292
    6 -2.010684 -3.271755 0.000002 0.000000 0.000000 -3.136292
    7 11.679248 0.000001 -0.000001 2.363457 0.000000 0.000000
    8 10.482983 -0.550524 0.000000 0.000000 0.000000 -3.136292
    9 4.552886 2.143380 -0.000001 -0.000001 0.000000 -1.570797
    10 0.447952 -2.798983 -0.200442 -0.738106 -0.102210 0.041797
    11 -0.032910 -1.480206 0.004936 -0.802798 0.000000 0.000002
    12 -0.027022 -1.076919 -0.020212 -0.434237 0.000000 0.000000
    13 -0.249534 -2.846962 -0.174215 -0.372673 -0.091831 0.024622
    14 0.043235 -1.683940 0.096014 -1.033478 0.002823 -0.000167
    15 0.031729 -1.160831 0.058836 -1.000078 0.000642 0.008372
    16 -0.963866 -2.785142 -0.085346 -0.269130 0.014961 -0.024958
    17 0.028479 -1.403069 0.006271 -0.285449 0.000000 0.000000
    18 0.021413 -0.957782 0.020047 -0.431493 0.000000 0.000000
    19 1.164474 -2.543938 -0.170328 -0.858262 -0.318398 0.068471
    20 0.024033 -1.129042 0.017806 -0.500948 0.000000 0.000001
    21 0.014896 -0.883989 -0.019845 -0.267461 0.000000 0.000000
    22 -0.547706 -1.280100 0.004846 -0.015000 -0.716336 -2.528360
    23 1.526741 0.128996 -0.182375 0.265670 0.160195 0.522292
    24 1.117948 0.048424 -0.005764 -0.002580 -0.025066 0.158734
    25 -0.139399 -0.111697 0.014397 0.285382 -0.030687 1.580508
    26 9.591730 7.557092 -11.677574 1.288279 -1.957252 -1.364628
    27 -0.071918 -8.498732 -0.104137 -0.036396 0.273198 -0.341626
    28 -0.488517 -2.755600 -0.228261 -1.091389 -0.300452 -0.445613
    29 0.039888 -1.479789 0.029853 -0.928028 0.000000 0.000000
    30 0.028786 -1.075730 -0.023111 -1.481424 0.000000 0.000000
    31 0.250028 -2.820664 -0.238396 -0.620858 -0.150751 -0.537343
    32 -0.049759 -1.680545 0.100480 -1.463660 0.000000 -0.000002
    33 -0.034141 -1.148312 0.084779 -1.087292 0.000000 0.000000
    34 0.957766 -2.746776 -0.090301 -0.063286 -0.242586 -0.427231
    35 -0.033419 -1.397128 -0.011255 -0.779109 0.124808 -0.122316
    36 -0.022361 -0.957434 0.018783 -1.043319 0.000000 0.000000
    37 -1.180680 -2.507215 -0.193861 -1.402521 -0.167662 -0.612262
    38 -0.024966 -1.123935 0.017594 -0.977980 0.000000 0.000001
    39 -0.020057 -0.890966 0.010091 -0.933423 0.000000 0.000000
    40 0.583510 -1.197274 0.185377 0.272562 -1.003483 -0.533087
    41 1.535926 0.010244 0.005008 0.440185 -0.138726 -1.296648
    42 1.100770 0.004526 -0.010676 -0.011449 0.011491 -0.607444
    43 0.120152 -0.050266 -0.054488 0.287568 3.110905 1.561085
  time 8
    0 0.000000 0.000000 0.000000 0.000000 0.000000 -0.000046
    1 0.061005 -6.415091 -12.485821 -0.119856 0.361597 0.625038
    2 0.096944 -8.450419 -0.009364 0.278076 -0.276656 0.114449
    3 3.770899 0.510649 0.994700 -1.914841 0.090746 0.732963
    4 -3.054057 -6.061518 0.000002 0.000001 0.000000 0.005300
    5 3.127696 -3.244520 0.000000 0.000000 0.000000 -3.136292
    6 -2.010684 -3.271755 0.000002 0.000000 0.000000 -3.136292
    7 11.679248 0.000001 -0.000001 1.628945 0.000000 0.000000
    8 10.482983 -0.550524 0.000000 0.000000 0.000000 -3.136292
    9 4.552886 2.143380 -0.000001 -0.000001 0.000000 -1.570797
    10 0.447952 -2.798983 -0.200442 -0.738106 -0.102210 0.041797
    11 -0.032910 -1.480206 0.004936 -0.802798 0.000000 0.000002
    12 -0.027022 -1.076919 -0.020212 -0.434237 0.000000 0.000000
    13 -0.249534 -2.846962 -0.174215 -0.372673 -0.091831 0.024622
    14 0.043235 -1.683940 0.096014 -1.033478 0.002823 -0.000167
    15 0.031729 -1.160831 0.058836 -1.000078 0.000642 0.008372
    16 -0.963866 -2.785142 -0.085346 -0.269130 0.014961 -0.024958
    17 0.028479 -1.403069 0.006271 -0.285449 0.000000 0.000000
    18 0.021413 -0.957782 0.020047 -0.431493 0.000000 0.000000
    19 1.164474 -2.543938 -0.170328 -0.858262 -0.318398 0.068471
    20 0.024033 -1.129042 0.017806 -0.500948 0.000000 0.000001
    21 0.014896 -0.883989 -0.019845 -0.267461 0.000000 0.000000
    22 -0.547706 -1.280100 0.004846 -0.015000 -0.716336 -2.528360
    23 1.526741 0.128996 -0.182375 0.265670 0.160195 0.522292
    24 1.117948 0.048424 -0.005764 -0.002580 -0.025066 0.158734
    25 -0.139399 -0.111697 0.014397 0.285382 -0.030687 1.580508
    26 9.591730 7.416463 -11.677574 1.282727 -1.946629 -1.359507
    27 -0.071918 -8.498732 -0.104137 -0.036396 0.273198 -0.341626
    28 -0.488517 -2.755600 -0.228261 -1.091389 -0.300452 -0.445613
    29 0.039888 -1.479789 0.029853 -0.928028 0.000000 0.000000
    30 0.028786 -1.075730 -0.023111 -1.481424 0.000000 0.000000
    31 0.250028 -2.820664 -0.238396 -0.620858 -0.150751 -0.537343
    32 -0.049759 -1.680545 0.100480 -1.463660 0.000000 -0.000002
    33 -0.034141 -1.148312 0.084779 -1.087292 0.000000 0.000000
    34 0.957766 -2.746776 -0.090301 -0.063286 -0.242586 -0.427231
    35 -0.033419 -1.397128 -0.011255 -0.779109 0.124808 -0.122316
    36 -0.022361 -0.957434 0.018783 -1.043319 0.000000 0.000000
    37 -1.180680 -2.507215 -0.193861 -1.402521 -0.167662 -0.612262
    38 -0.024966 -1.123935 0.017594 -0.977980 0.000000 0.000001
    39 -0.020057 -0.890966 0.010091 -0.933423 0.000000 0.000000
    40 0.583510 -1.197274 0.185377 0.272562 -1.003483 -0.533087
    41 1.535926 0.010244 0.005008 0.440185 -0.138726 -1.296648
    42 1.100770 0.004526 -0.010676 -0.011449 0.011491 -0.607444
    43 0.120152 -0.050266 -0.054488 0.287568 3.110905 1.561085
  time 9
    0 0.000000 0.000000 0.000000 0.000000 0.000000 -0.000046
    1 0.061005 -6.669005 -12.485821 -0.105697 0.352233 0.630184
    2 0.096944 -8.450419 -0.009364 0.278076 -0.276656 0.114449
    3 3.770899 0.510649 0.994700 -1.914841 0.090746 0.732963
    4 -3.054057 -6.061518 0.000002 0.000001 0.000000 0.005300
    5 3.127696 -3.244520 0.000000 0.000000 0.000000 -3.136292
    6 -2.010684 -3.271755 0.000002 0.000000 0.000000 -3.136292
    7 11.679248 0.000001 -0.000001 0.981682 0.000000 0.000000
    8 10.482983 -0.550524 0.000000 0.000000 0.000000 -3.136292
    9 4.552886 2.143380 -0.000001 -0.000001 0.000000 -1.570797
    10 0.447952 -2.798983 -0.200442 -0.738106 -0.102210 0.041797
    11 -0.032910 -1.480206 0.004936 -0.802798 0.000000 0.000002
    12 -0.027022 -1.076919 -0.020212 -0.434237 0.000000 0.000000
    13 -0.249534 -2.846962 -0.174215 -0.372673 -0.091831 0.024622
    14 0.043235 -1.683940 0.096014 -1.033478 0.002823 -0.000167
    15 0.031729 -1.160831 0.058836 -1.000078 0.000642 0.008372
    16 -0.963866 -2.785142 -0.085346 -0.269130 0.014961 -0.024958
    17 0.028479 -1.403069 0.006271 -0.285449 0.000000 0.000000
    18 0.021413 -0.957782 0.020047 -0.431493 0.000000 0.000000
    19 1.164474 -2.543938 -0.170328 -0.858262 -0.318398 0.068471
    20 0.024033 -1.129042 0.017806 -0.500948 0.000000 0.000001
    21 0.014896 -0.883989 -0.019845 -0.267461 0.000000 0.000000
    22 -0.547706 -1.280100 0.004846 -0.015000 -0.716336 -2.528360
    23 1.526741 0.128996 -0.182375 0.265670 0.160195 0.522292
    24 1.117948 0.048424 -0.005764 -0.002580 -0.025066 0.158734
    25 -0.139399 -0.111697 0.014397 0.285382 -0.030687 1.580508
    26 9.591730 7.314897 -11.677574 1.278803 -1.939164 -1.355903
    27 -0.071918 -8.498732 -0.104137 -0.036396 0.273198 -0.341626
    28 -0.488517 -2.755600 -0.228261 -1.091389 -0.300452 -0.445613
    29 0.039888 -1.479789 0.029853 -0.928028 0.000000 0.000000
    30 0.028786 -1.075730 -0.023111 -1.481424 0.000000 0.000000
    31 0.250028 -2.820664 -0.238396 -0.620858 -0.150751 -0.537343
    32 -0.049759 -1.680545 0.100480 -1.463660 0.000000 -0.000002
    33 -0.034141 -1.148312 0.084779 -1.087292 0.000000 0.000000
    34 0.957766 -2.746776 -0.090301 -0.063286 -0.242586 -0.427231
    35 -0.033419 -1.397128 -0.011255 -0.779109 0.124808 -0.122316
    36 -0.022361 -0.957434 0.018783 -1.043319 0.000000 0.000000
    37 -1.180680 -2.507215 -0.193861 -1.402521 -0.167662 -0.612262
    38 -0.024966 -1.123935 0.017594 -0.977980 0.000000 0.000001
    39 -0.020057 -0.890966 0.010091 -0.933423 0.000000 0.000000
    40 0.583510 -1.197274 0.185377 0.272562 -1.003483 -0.533087
    41 1.535926 0.010244 0.005008 0.440185 -0.138726 -1.296648
    42 1.100770 0.004526 -0.010676 -0.011449 0.011491 -0.607444
    43 0.120152 -0.050266 -0.054488 0.287568 3.110905 1.561085
  time 10
    0 0.000000 0.000000 0.000000 0.000000 0.000000 -0.000046
    1 0.061005 -6.762758 -12.485821 -0.100055 0.348488 0.632252
    2 0.096944 -8.450419 -0.009364 0.278076 -0.276656 0.114449
    3 3.770899 0.510649 0.994700 -1.914841 0.090746 0.732963
    4 -3.054057 -6.061518 0.000002 0.000001 0.000000 0.005300
    5 3.127696 -3.244520 0.000000 0.000000 0.000000 -3.136292
    6 -2.010684 -3.271755 0.000002 0.000000 0.000000 -3.136292
    7 11.679248 0.000001 -0.000001 0.465386 0.000000 0.000000
    8 10.482983 -0.550524 0.000000 0.000000 0.000000 -3.136292
    9 4.552886 2.143380 -0.000001 -0.000001 0.000000 -1.570797
    10 0.447952 -2.798983 -0.200442 -0.738106 -0.102210 0.041797
    11 -0.032910 -1.480206 0.004936 -0.802798 0.000000 0.000002
    12 -0.027022 -1.076919 -0.020212 -0.434237 0.000000 0.000000
    13 -0.249534 -2.846962 -0.174215 -0.372673 -0.091831 0.024622
    14 0.043235 -1.683940 0.096014 -1.033478 0.002823 -0.000167
    15 0.031729 -1.160831 0.058836 -1.000078 0.000642 0.008372
    16 -0.963866 -2.785142 -0.085346 -0.269130 0.014961 -0.024958
    17 0.028479 -1.403069 0.006271 -0.285449 0.000000 0.000000
    18 0.021413 -0.957782 0.020047 -0.431493 0.000000 0.000000
    19 1.164474 -2.543938 -0.170328 -0.858262 -0.318398 0.068471
    20 0.024033 -1.129042 0.017806 -0.500948 0.000000 0.000001
    21 0.014896 -0.883989 -0.019845 -0.267461 0.000000 0.000000
    22 -0.547706 -1.280100 0.004846 -0.015000 -0.716336 -2.528360
    23 1.526741 0.128996 -0.182375 0.265670 0.160195 0.522292
    24 1.117948 0.048424 -0.005764 -0.002580 -0.025066 0.158734
    25 -0.139399 -0.111697 0.014397 0.285382 -0.030687 1.580508
    26 9.591730 7.275833 -11.677574 1.277272 -1.936293 -1.354481
    27 -0.071918 -8.498732 -0.104137 -0.036396 0.273198 -0.341626
    28 -0.488517 -2.755600 -0.228261 -1.091389 -0.300452 -0.445613
    29 0.039888 -1.479789 0.029853 -0.928028 0.000000 0.000000
    30 0.028786 -1.075730 -0.023111 -1.481424 0.000000 0.000000
    31 0.250028 -2.820664 -0.238396 -0.620858 -0.150751 -0.537343
    32 -0.049759 -1.680545 0.100480 -1.463660 0.000000 -0.000002
    33 -0.034141 -1.148312 0.084779 -1.087292 0.000000 0.000000
    34 0.957766 -2.746776 -0.090301 -0.063286 -0.242586 -0.427231
    35 -0.033419 -1.397128 -0.011255 -0.779109 0.124808 -0.122316
    36 -0.022361 -0.957434 0.018783 -1.043319 0.000000 0.000000
    37 -1.180680 -2.507215 -0.193861 -1.402521 -0.167662 -0.612262
    38 -0.024966 -1.123935 0.017594 -0.977980 0.000000 0.000001
    39 -0.020057 -0.890966 0.010091 -0.933423 0.000000 0.000000
    40 0.583510 -1.197274 0.185377 0.272562 -1.003483 -0.533087
    41 1.535926 0.010244 0.005008 0.440185 -0.138726 -1.296648
    42 1.100770 0.004526 -0.010676 -0.011449 0.011491 -0.607444
    43 0.120152 -0.050266 -0.054488 0.287568 3.110905 1.561085
  time 11
    0 0.000000 0.000000 0.000000 0.000000 0.000000 -0.000046
    1 0.061005 -6.762758 -12.485821 -0.100055 0.348488 0.632252
    2 0.096944 -8.450419 -0.009364 0.278076 -0.276656 0.114449
    3 3.770899 0.510649 0.994700 -1.914841 0.090746 0.732963
    4 -3.054057 -6.061518 0.000002 0.000001 0.000000 0.005300
    5 3.127696 -3.244520 0.000000 0.000000 0.000000 -3.136292
    6 -2.010684 -3.271755 0.000002 0.000000 0.000000 -3.136292
    7 11.679248 0.000001 -0.000001 0.123585 0.000000 0.000000
    8 10.482983 -0.550524 0.000000 0.000000 0.000000 -3.136292
    9 4.552886 2.143380 -0.000001 -0.000001 0.000000 -1.570797
    10 0.447952 -2.798983 -0.200442 -0.738106 -0.102210 0.041797
    11 -0.032910 -1.480206 0.004936 -0.802798 0.000000 0.000002
    12 -0.027022 -1.076919 -0.020212 -0.434237 0.000000 0.000000
    13 -0.249534 -2.846962 -0.174215 -0.372673 -0.091831 0.024622
    14 0.043235 -1.683940 0.096014 -1.033478 0.002823 -0.000167
    15 0.031729 -1.160831 0.058836 -1.000078 0.000642 0.008372
    16 -0.963866 -2.785142 -0.085346 -0.269130 0.014961 -0.024958
    17 0.028479 -1.403069 0.006271 -0.285449 0.000000 0.000000
    18 0.021413 -0.957782 0.020047 -0.431493 0.000000 0.000000
    19 1.164474 -2.543938 -0.170328 -0.858262 -0.318398 0.068471
    20 0.024033 -1.129042 0.017806 -0.500948 0.000000 0.000001
    21 0.014896 -0.883989 -0.019845 -0.267461 0.000000 0.000000
    22 -0.547706 -1.280100 0.004846 -0.015000 -0.716336 -2.528360
    23 1.526741 0.128996 -0.182375 0.265670 0.160195 0.522292
    24 1.117948 0.048424 -0.005764 -0.002580 -0.025066 0.158734
    25 -0.139399 -0.111697 0.014397 0.285382 -0.030687 1.580508
    26 9.591730 7.275833 -11.677574 1.277272 -1.936293 -1.354481
    27 -0.071918 -8.498732 -0.104137 -0.036396 0.273198 -0.341626
    28 -0.488517 -2.755600 -0.228261 -1.091389 -0.300452 -0.445613
    29 0.039888 -1.479789 0.029853 -0.928028 0.000000 0.000000
    30 0.028786 -1.075730 -0.023111 -1.481424 0.000000 0.000000
    31 0.250028 -2.820664 -0.238396 -0.620858 -0.150751 -0.537343
    32 -0.049759 -1.680545 0.100480 -1.463660 0.000000 -0.000002
    33 -0.034141 -1.148312 0.084779 -1.087292 0.000000 0.000000
    34 0.957766 -2.746776 -0.090301 -0.063286 -0.242586 -0.427231
    35 -0.033419 -1.397128 -0.011255 -0.779109 0.124808 -0.122316
    36 -0.022361 -0.957434 0.018783 -1.043319 0.000000 0.000000
    37 -1.180680 -2.507215 -0.193861 -1.402521 -0.167662 -0.612262
    38 -0.024966 -1.123935 0.017594 -0.977980 0.000000 0.000001
    39 -0.020057 -0.890966 0.010091 -0.933423 0.000000 0.000000
    40 0.583510 -1.197274 0.185377 0.272562 -1.003483 -0.533087
    41 1.535926 0.010244 0.005008 0.440185 -0.138726 -1.296648
    42 1.100770 0.004526 -0.010676 -0.011449 0.011491 -0.607444
    43 0.120152 -0.050266 -0.054488 0.287568 3.110905 1.561085
  time 12
    0 0.000000 0.000000 0.000000 0.000012 0.000000 -0.000046
    1 0.061005 -6.762758 -12.485821 -0.100055 0.348488 0.632252
    2 0.096944 -8.450419 -0.009364 0.278076 -0.276656 0.114449
    3 3.770899 0.510649 0.994700 -1.914841 0.090746 0.732963
    4 -3.054057 -6.061518 0.000002 0.000001 0.000000 0.005300
    5 3.127696 -3.244520 0.000000 0.000000 0.000000 -3.136292
    6 -2.010684 -3.271755 0.000002 0.000000 0.000000 -3.136292
    7 11.679248 0.000001 -0.000001 0.000000 0.000000 0.000000
    8 10.482983 -0.550524 0.000000 0.000000 0.000000 -3.136292
    9 4.552886 2.143380 -0.000001 -0.000001 0.000000 -1.570797
    10 0.447952 -2.798983 -0.200442 -0.738106 -0.102210 0.041797
    11 -0.032910 -1.480206 0.004936 -0.802798 0.000000 0.000002
    12 -0.027022 -1.076919 -0.020212 -0.434237 0.000000 0.000000
    13 -0.249534 -2.846962 -0.174215 -0.372673 -0.091831 0.024622
    14 0.043235 -1.683940 0.096014 -1.033478 0.002823 -0.000167
    15 0.031729 -1.160831 0.058836 -1.000078 0.000642 0.008372
    16 -0.963866 -2.785142 -0.085346 -0.269130 0.014961 -0.024958
    17 0.028479 -1.403069 0.006271 -0.285449 0.000000 0.000000
    18 0.021413 -0.957782 0.020047 -0.431493 0.000000 0.000000
    19 1.164474 -2.543938 -0.170328 -0.858262 -0.318398 0.068471
    20 0.024033 -1.129042 0.017806 -0.500948 0.000000 0.000001
    21 0.014896 -0.883989 -0.019845 -0.267461 0.000000 0.000000
    22 -0.547706 -1.280100 0.004846 -0.015000 -0.716336 -2.528360
    23 1.526741 0.128996 -0.182375 0.265670 0.160195 0.522292
    24 1.117948 0.048424 -0.005764 -0.002580 -0.025066 0.158734
    25 -0.139399 -0.111697 0.014397 0.285382 -0.030687 1.580508
    26 9.591730 7.275833 -11.677574 1.277272 -1.936293 -1.354481
    27 -0.071918 -8.498732 -0.104137 -0.036396 0.273198 -0.341626
    28 -0.488517 -2.755600 -0.228261 -1.091389 -0.300452 -0.445613
    29 0.039888 -1.479789 0.029853 -0.928028 0.000000 0.000000
    30 0.028786 -1.075730 -0.023111 -1.481424 0.000000 0.000000
    31 0.250028 -2.820664 -0.238396 -0.620858 -0.150751 -0.537343
    32 -0.049759 -1.680545 0.100480 -1.463660 0.000000 -0.000002
    33 -0.034141 -1.148312 0.084779 -1.087292 0.000000 0.000000
    34 0.957766 -2.746776 -0.090301 -0.063286 -0.242586 -0.427231
    35 -0.033419 -1.397128 -0.011255 -0.779109 0.124808 -0.122316
    36 -0.022361 -0.957434 0.018783 -1.043319 0.000000 0.000000
    37 -1.180680 -2.507215 -0.193861 -1.402521 -0.167662 -0.612262
    38 -0.024966 -1.123935 0.017594 -0.977980 0.000000 0.000001
    39 -0.020057 -0.890966 0.010091 -0.933423 0.000000 0.000000
    40 0.583510 -1.197274 0.185377 0.272562 -1.003483 -0.533087
    41 1.535926 0.010244 0.005008 0.440185 -0.138726 -1.296648
    42 1.100770 0.004526 -0.010676 -0.011449 0.011491 -0.607444
    43 0.120152 -0.050266 -0.054488 0.287568 3.110905 1.561085
  time 13
    0 0.000000 0.000000 0.000000 0.000012 0.000000 -0.000046
    1 0.061005 -6.762758 -12.485821 -0.100055 0.348488 0.632252
    2 0.096944 -8.450419 -0.009364 0.278076 -0.276656 0.114449
    3 3.770899 0.510649 0.994700 -1.914841 0.090746 0.732963
    4 -3.054057 -6.061518 0.000002 0.000001 0.000000 0.005300
    5 3.127696 -3.244520 0.000000 0.000000 0.000000 -3.136292
    6 -2.010684 -3.271755 0.000002 0.000000 0.000000 -3.136292
    7 11.679248 0.000001 -0.000001 0.000000 0.000000 0.000000
    8 10.482983 -0.550524 0.000000 0.000000 0.000000 -3.136292
    9 4.552886 2.143380 -0.000001 -0.000001 0.000000 -1.570797
    10 0.447952 -2.798983 -0.200442 -0.738106 -0.102210 0.041797
    11 -0.032910 -1.480206 0.004936 -0.802798 0.000000 0.000002
    12 -0.027022 -1.076919 -0.020212 -0.434237 0.000000 0.000000
    13 -0.249534 -2.846962 -0.174215 -0.372673 -0.091831 0.024622
    14 0.043235 -1.683940 0.096014 -1.033478 0.002823 -0.000167
    15 0.031729 -1.160831 0.058836 -1.000078 0.000642 0.008372
    16 -0.963866 -2.785142 -0.085346 -0.269130 0.014961 -0.024958
    17 0.028479 -1.403069 0.006271 -0.285449 0.000000 0.000000
    18 0.021413 -0.957782 0.020047 -0.431493 0.000000 0.000000
    19 1.164474 -2.543938 -0.170328 -0.858262 -0.318398 0.068471
    20 0.024033 -1.129042 0.017806 -0.500948 0.000000 0.000001
    21 0.014896 -0.883989 -0.019845 -0.267461 0.000000 0.000000
    22 -0.547706 -1.280100 0.004846 -0.015000 -0.716336 -2.528360
    23 1.526741 0.128996 -0.182375 0.265670 0.160195 0.522292
    24 1.117948 0.048424 -0.005764 -0.002580 -0.025066 0.158734
    25 -0.139399 -0.111697 0.014397 0.285382 -0.030687 1.580508
    26 9.591730 7.275833 -11.677574 1.277272 -1.936293 -1.354481
    27 -0.071918 -8.498732 -0.104137 -0.036396 0.273198 -0.341626
    28 -0.488517 -2.755600 -0.228261 -1.091389 -0.300452 -0.445613
    29 0.039888 -1.479789 0.029853 -0.928028 0.000000 0.000000
    30 0.028786 -1.075730 -0.023111 -1.481424 0.000000 0.000000
    31 0.250028 -2.820664 -0.238396 -0.620858 -0.150751 -0.537343
    32 -0.049759 -1.680545 0.100480 -1.463660 0.000000 -0.000002
    33 -0.034141 -1.148312 0.084779 -1.087292 0.000000 0.000000
    34 0.957766 -2.746776 -0.090301 -0.063286 -0.242586 -0.427231
    35 -0.033419 -1.397128 -0.011255 -0.779109 0.124808 -0.122316
    36 -0.022361 -0.957434 0.018783 -1.043319 0.000000 0.000000
    37 -1.180680 -2.507215 -0.193861 -1.402521 -0.167662 -0.612262
    38 -0.024966 -1.123935 0.017594 -0.977980 0.000000 0.000001
    39 -0.020057 -0.890966 0.010091 -0.933423 0.000000 0.000000
    40 0.583510 -1.197274 0.185377 0.272562 -1.003483 -0.533087
    41 1.535926 0.010244 0.005008 0.440185 -0.138726 -1.296648
    42 1.100770 0.004526 -0.010676 -0.011449 0.011491 -0.607444
    43 0.120152 -0.050266 -0.054488 0.287568 3.110905 1.561085
  time 14
    0 0.000000 0.000000 -0.003906 0.000024 0.000000 -0.000046
    1 0.061005 -6.762758 -12.485821 -0.100055 0.348488 0.632252
    2 0.096944 -8.450419 -0.009364 0.278076 -0.276656 0.114449
    3 3.770899 0.510649 0.994700 -1.914841 0.090746 0.732963
    4 -3.054057 -6.061518 0.000002 0.000001 0.000000 0.005300
    5 3.127696 -3.244520 0.000000 0.000000 0.000000 -3.136292
    6 -2.010684 -3.271755 0.000002 0.000000 0.000000 -3.136292
    7 11.679248 0.000001 -0.000001 0.000000 0.000000 0.000000
    8 10.482983 -0.550524 0.000000 0.000000 0.000000 -3.136292
    9 4.552886 2.143380 -0.000001 -0.000001 0.000000 -1.570797
    10 0.447952 -2.798983 -0.200442 -0.738106 -0.102210 0.041797
    11 -0.032910 -1.480206 0.004936 -0.802798 0.000000 0.000002
    12 -0.027022 -1.076919 -0.020212 -0.434237 0.000000 0.000000
    13 -0.249534 -2.846962 -0.174215 -0.372673 -0.091831 0.024622
    14 0.043235 -1.683940 0.096014 -1.033478 0.002823 -0.000167
    15 0.031729 -1.160831 0.058836 -1.000078 0.000642 0.008372
    16 -0.963866 -2.785142 -0.085346 -0.269130 0.014961 -0.024958
    17 0.028479 -1.403069 0.006271 -0.285449 0.000000 0.000000
    18 0.021413 -0.957782 0.020047 -0.431493 0.000000 0.000000
    19 1.164474 -2.543938 -0.170328 -0.858262 -0.318398 0.068471
    20 0.024033 -1.129042 0.017806 -0.500948 0.000000 0.000001
    21 0.014896 -0.883989 -0.019845 -0.267461 0.000000 0.000000
    22 -0.547706 -1.280100 0.004846 -0.015000 -0.716336 -2.528360
    23 1.526741 0.128996 -0.182375 0.265670 0.160195 0.522292
    24 1.117948 0.048424 -0.005764 -0.002580 -0.025066 0.158734
    25 -0.139399 -0.111697 0.014397 0.285382 -0.030687 1.580508
    26 9.591730 7.275833 -11.677574 1.277272 -1.936293 -1.354481
    27 -0.071918 -8.498732 -0.104137 -0.036396 0.273198 -0.341626
    28 -0.488517 -2.755600 -0.228261 -1.091389 -0.300452 -0.445613
    29 0.039888 -1.479789 0.029853 -0.928028 0.000000 0.000000
    30 0.028786 -1.075730 -0.023111 -1.481424 0.000000 0.000000
    31 0.250028 -2.820664 -0.238396 -0.620858 -0.150751 -0.537343
    32 -0.049759 -1.680545 0.100480 -1.463660 0.000000 -0.000002
    33 -0.034141 -1.148312 0.084779 -1.087292 0.000000 0.000000
    34 0.957766 -2.746776 -0.090301 -0.063286 -0.242586 -0.427231
    35 -0.033419 -1.397128 -0.011255 -0.779109 0.124808 -0.122316
    36 -0.022361 -0.957434 0.018783 -1.043319 0.000000 0.000000
    37 -1.180680 -2.507215 -0.193861 -1.402521 -0.167662 -0.612262
    38 -0.024966 -1.123935 0.017594 -0.977980 0.000000 0.000001
    39 -0.020057 -0.890966 0.010091 -0.933423 0.000000 0.000000
    40 0.583510 -1.197274 0.185377 0.272562 -1.003483 -0.533087
    41 1.535926 0.010244 0.005008 0.440185 -0.138726 -1.296648
    42 1.100770 0.004526 -0.010676 -0.011449 0.011491 -0.607444
    43 0.120152 -0.050266 -0.054488 0.287568 3.110905 1.561085
  time 15
    0 0.000000 0.000000 -0.003906 0.000024 0.000000 -0.000046
    1 0.061005 -6.762758 -12.485821 -0.100055 0.348488 0.632252
    2 0.096944 -8.450419 -0.009364 0.278076 -0.276656 0.114449
    3 3.770899 0.510649 0.994700 -1.914841 0.090746 0.732963
    4 -3.054057 -6.061518 0.000002 0.000001 0.000000 0.005300
    5 3.127696 -3.244520 0.000000 0.000000 0.000000 -3.136292
    6 -2.010684 -3.271755 0.000002 0.000000 0.000000 -3.136292
    7 11.679248 0.000001 -0.000001 0.000000 0.000000 0.000000
    8 10.482983 -0.550524 0.000000 0.000000 0.000000 -3.136292
    9 4.552886 2.143380 -0.000001 -0.000001 0.000000 -1.570797
    10 0.447952 -2.798983 -0.200442 -0.738106 -0.102210 0.041797
    11 -0.032910 -1.480206 0.004936 -0.802798 0.000000 0.000002
    12 -0.027022 -1.076919 -0.020212 -0.434237 0.000000 0.000000
    13 -0.249534 -2.846962 -0.174215 -0.372673 -0.091831 0.024622
    14 0.043235 -1.683940 0.096014 -1.033478 0.002823 -0.000167
    15 0.031729 -1.160831 0.058836 -1.000078 0.000642 0.008372
    16 -0.963866 -2.785142 -0.085346 -0.269130 0.014961 -0.024958
    17 0.028479 -1.403069 0.006271 -0.285449 0.000000 0.000000
    18 0.021413 -0.957782 0.020047 -0.431493 0.000000 0.000000
    19 1.164474 -2.543938 -0.170328 -0.858262 -0.318398 0.068471
    20 0.024033 -1.129042 0.017806 -0.500948 0.000000 0.000001
    21 0.014896 -0.883989 -0.019845 -0.267461 0.000000 0.000000
    22 -0.547706 -1.280100 0.004846 -0.015000 -0.716336 -2.528360
    23 1.526741 0.128996 -0.182375 0.265670 0.160195 0.522292
    24 1.117948 0.048424 -0.005764 -0.002580 -0.025066 0.158734
    25 -0.139399 -0.111697 0.014397 0.285382 -0.030687 1.580508
    26 9.591730 7.275833 -11.677574 1.277272 -1.936293 -1.354481
    27 -0.071918 -8.498732 -0.104137 -0.036396 0.273198 -0.341626
    28 -0.488517 -2.755600 -0.228261 -1.091389 -0.300452 -0.445613
    29 0.039888 -1.479789 0.029853 -0.928028 0.000000 0.000000
    30 0.028786 -1.075730 -0.023111 -1.481424 0.000000 0.000000
    31 0.250028 -2.820664 -0.238396 -0.620858 -0.150751 -0.537343
    32 -0.049759 -1.680545 0.100480 -1.463660 0.000000 -0.000002
    33 -0.034141 -1.148312 0.084779 -1.087292 0.000000 0.000000
    34 0.957766 -2.746776 -0.090301 -0.063286 -0.242586 -0.427231
    35 -0.033419 -1.397128 -0.011255 -0.779109 0.124808 -0.122316
    36 -0.022361 -0.957434 0.018783 -1.043319 0.000000 0.000000
    37 -1.180680 -2.507215 -0.193861 -1.402521 -0.167662 -0.612262
    38 -0.024966 -1.123935 0.017594 -0.977980 0.000000 0.000001
    39 -0.020057 -0.890966 0.010091 -0.933423 0.000000 0.000000
    40 0.583510 -1.197274 0.185377 0.272562 -1.003483 -0.533087
    41 1.535926 0.010244 0.005008 0.440185 -0.138726 -1.296648
    42 1.100770 0.004526 -0.010676 -0.011449 0.011491 -0.607444
    43 0.120152 -0.050266 -0.054488 0.287568 3.110905 1.561085
  time 16
    0 0.000000 0.000000 -0.003906 0.000036 0.000000 -0.000046
    1 0.061005 -6.762758 -12.485821 -0.100055 0.348488 0.632252
    2 0.096944 -8.450419 -0.009364 0.278076 -0.276656 0.114449
    3 3.770899 0.510649 0.994700 -1.914841 0.090746 0.732963
    4 -3.054057 -6.061518 0.000002 0.000001 0.000000 0.005300
    5 3.127696 -3.244520 0.000000 0.000000 0.000000 -3.136292
    6 -2.010684 -3.271755 0.000002 0.000000 0.000000 -3.136292
    7 11.679248 0.000001 -0.000001 0.000000 0.000000 0.000000
    8 10.482983 -0.550524 0.000000 0.000000 0.000000 -3.136292
    9 4.552886 2.143380 -0.000001 -0.000001 0.000000 -1.570797
    10 0.447952 -2.798983 -0.200442 -0.738106 -0.102210 0.041797
    11 -0.032910 -1.480206 0.004936 -0.802798 0.000000 0.000002
    12 -0.027022 -1.076919 -0.020212 -0.434237 0.000000 0.000000
    13 -0.249534 -2.846962 -0.174215 -0.372673 -0.091831 0.024622
    14 0.043235 -1.683940 0.096014 -1.033478 0.002823 -0.000167
    15 0.031729 -1.160831 0.058836 -1.000078 0.000642 0.008372
    16 -0.963866 -2.785142 -0.085346 -0.269130 0.014961 -0.024958
    17 0.028479 -1.403069 0.006271 -0.285449 0.000000 0.000000
    18 0.021413 -0.957782 0.020047 -0.431493 0.000000 0.000000
    19 1.164474 -2.543938 -0.170328 -0.858262 -0.318398 0.068471
    20 0.024033 -1.129042 0.017806 -0.500948 0.000000 0.000001
    21 0.014896 -0.883989 -0.019845 -0.267461 0.000000 0.000000
    22 -0.547706 -1.280100 0.004846 -0.015000 -0.716336 -2.528360
    23 1.526741 0.128996 -0.182375 0.265670 0.160195 0.522292
    24 1.117948 0.048424 -0.005764 -0.002580 -0.025066 0.158734
    25 -0.139399 -0.111697 0.014397 0.285382 -0.030687 1.580508
    26 9.591730 7.275833 -11.677574 1.277272 -1.936293 -1.354481
    27 -0.071918 -8.498732 -0.104137 -0.036396 0.273198 -0.341626
    28 -0.488517 -2.755600 -0.228261 -1.091389 -0.300452 -0.445613
    29 0.039888 -1.479789 0.029853 -0.928028 0.000000 0.000000
    30 0.028786 -1.075730 -0.023111 -1.481424 0.000000 0.000000
    31 0.250028 -2.820664 -0.238396 -0.620858 -0.150751 -0.537343
    32 -0.049759 -1.680545 0.100480 -1.463660 0.000000 -0.000002
    33 -0.034141 -1.148312 0.084779 -1.087292 0.000000 0.000000
    34 0.957766 -2.746776 -0.090301 -0.063286 -0.242586 -0.427231
    35 -0.033419 -1.397128 -0.011255 -0.779109 0.124808 -0.122316
    36 -0.022361 -0.957434 0.018783 -1.043319 0.000000 0.000000
    37 -1.180680 -2.507215 -0.193861 -1.402521 -0.167662 -0.612262
    38 -0.024966 -1.123935 0.017594 -0.977980 0.000000 0.000001
    39 -0.020057 -0.890966 0.010091 -0.933423 0.000000 0.000000
    40 0.583510 -1.197274 0.185377 0.272562 -1.003483 -0.533087
    41 1.535926 0.010244 0.005008 0.440185 -0.138726 -1.296648
    42 1.100770 0.004526 -0.010676 -0.011449 0.011491 -0.607444
    43 0.120152 -0.050266 -0.054488 0.287568 3.110905 1.561085
  time 17
    0 0.000000 0.000000 -0.007813 0.000048 0.000000 -0.000046
    1 0.061005 -6.762758 -12.485821 -0.100055 0.348488 0.632252
    2 0.096944 -8.450419 -0.009364 0.278076 -0.276656 0.114449
    3 3.770899 0.510649 0.994700 -1.914841 0.090746 0.732963
    4 -3.054057 -6.061518 0.000002 0.000001 0.000000 0.005300
    5 3.127696 -3.244520 0.000000 0.000000 0.000000 -3.136292
    6 -2.010684 -3.271755 0.000002 0.000000 0.000000 -3.136292
    7 11.679248 0.000001 -0.000001 0.000000 0.000000 0.000000
    8 10.482983 -0.550524 0.000000 0.000000 0.000000 -3.136292
    9 4.552886 2.143380 -0.000001 -0.000001 0.000000 -1.570797
    10 0.447952 -2.798983 -0.200442 -0.738106 -0.102210 0.041797
    11 -0.032910 -1.480206 0.004936 -0.802798 0.000000 0.000002
    12 -0.027022 -1.076919 -0.020212 -0.434237 0.000000 0.000000
    13 -0.249534 -2.846962 -0.174215 -0.372673 -0.091831 0.024622
    14 0.043235 -1.683940 0.096014 -1.033478 0.002823 -0.000167
    15 0.031729 -1.160831 0.058836 -1.000078 0.000642 0.008372
    16 -0.963866 -2.785142 -0.085346 -0.269130 0.014961 -0.024958
    17 0.028479 -1.403069 0.006271 -0.285449 0.000000 0.000000
    18 0.021413 -0.957782 0.020047 -0.431493 0.000000 0.000000
    19 1.164474 -2.543938 -0.170328 -0.858262 -0.318398 0.068471
    20 0.024033 -1.129042 0.017806 -0.500948 0.000000 0.000001
    21 0.014896 -0.883989 -0.019845 -0.267461 0.000000 0.000000
    22 -0.547706 -1.280100 0.004846 -0.015000 -0.716336 -2.528360
    23 1.526741 0.128996 -0.182375 0.265670 0.160195 0.522292
    24 1.117948 0.048424 -0.005764 -0.002580 -0.025066 0.158734
    25 -0.139399 -0.111697 0.014397 0.285382 -0.030687 1.580508
    26 9.591730 7.275833 -11.677574 1.277272 -1.936293 -1.354481
    27 -0.071918 -8.498732 -0.104137 -0.036396 0.273198 -0.341626
    28 -0.488517 -2.755600 -0.228261 -1.091389 -0.300452 -0.445613
    29 0.039888 -1.479789 0.029853 -0.928028 0.000000 0.000000
    30 0.028786 -1.075730 -0.023111 -1.481424 0.000000 0.000000
    31 0.250028 -2.820664 -0.238396 -0.620858 -0.150751 -0.537343
    32 -0.049759 -1.680545 0.100480 -1.463660 0.000000 -0.000002
    33 -0.034141 -1.148312 0.084779 -1.087292 0.000000 0.000000
    34 0.957766 -2.746776 -0.090301 -0.063286 -0.242586 -0.427231
    35 -0.033419 -1.397128 -0.011255 -0.779109 0.124808 -0.122316
    36 -0.022361 -0.957434 0.018783 -1.043319 0.000000 0.000000
    37 -1.180680 -2.507215 -0.193861 -1.402521 -0.167662 -0.612262
    38 -0.024966 -1.123935 0.017594 -0.977980 0.000000 0.000001
    39 -0.020057 -0.890966 0.010091 -0.933423 0.000000 0.000000
    40 0.583510 -1.197274 0.185377 0.272562 -1.003483 -0.533087
    41 1.535926 0.010244 0.005008 0.440185 -0.138726 -1.296648
    42 1.100770 0.004526 -0.010676 -0.011449 0.011491 -0.607444
    43 0.120152 -0.050266 -0.054488 0.287568 3.110905 1.561085
  time 18
    0 0.000000 0.000000 -0.007813 0.000048 0.000000 -0.000046
    1 0.061005 -6.762758 -12.485821 -0.100055 0.348488 0.632252
    2 0.096944 -8.450419 -0.009364 0.278076 -0.276656 0.114449
    3 3.770899 0.510649 0.994700 -1.914841 0.090746 0.732963
    4 -3.054057 -6.061518 0.000002 0.000001 0.000000 0.005300
    5 3.127696 -3.244520 0.000000 0.000000 0.000000 -3.136292
    6 -2.010684 -3.271755 0.000002 0.000000 0.000000 -3.136292
    7 11.679248 0.000001 -0.000001 0.000000 0.000000 0.000000
    8 10.482983 -0.550524 0.000000 0.000000 0.000000 -3.136292
    9 4.552886 2.143380 -0.000001 -0.000001 0.000000 -1.570797
    10 0.447952 -2.798983 -0.200442 -0.738106 -0.102210 0.041797
    11 -0.032910 -1.480206 0.004936 -0.802798 0.000000 0.000002
    12 -0.027022 -1.076919 -0.020212 -0.434237 0.000000 0.000000
    13 -0.249534 -2.846962 -0.174215 -0.372673 -0.091831 0.024622
    14 0.043235 -1.683940 0.096014 -1.033478 0.002823 -0.000167
    15 0.031729 -1.160831 0.058836 -1.000078 0.000642 0.008372
    16 -0.963866 -2.785142 -0.085346 -0.269130 0.014961 -0.024958
    17 0.028479 -1.403069 0.006271 -0.285449 0.000000 0.000000
    18 0.021413 -0.957782 0.020047 -0.431493 0.000000 0.000000
    19 1.164474 -2.543938 -0.170328 -0.858262 -0.318398 0.068471
    20 0.024033 -1.129042 0.017806 -0.500948 0.000000 0.000001
    21 0.014896 -0.883989 -0.019845 -0.267461 0.000000 0.000000
    22 -0.547706 -1.280100 0.004846 -0.015000 -0.716336 -2.528360
    23 1.526741 0.128996 -0.182375 0.265670 0.160195 0.522292
    24 1.117948 0.048424 -0.005764 -0.002580 -0.025066 0.158734
    25 -0.139399 -0.111697 0.014397 0.285382 -0.030687 1.580508
    26 9.591730 7.275833 -11.677574 1.277272 -1.936293 -1.354481
    27 -0.071918 -8.498732 -0.104137 -0.036396 0.273198 -0.341626
    28 -0.488517 -2.755600 -0.228261 -1.091389 -0.300452 -0.445613
    29 0.039888 -1.479789 0.029853 -0.928028 0.000000 0.000000
    30 0.028786 -1.075730 -0.023111 -1.481424 0.000000 0.000000
    31 0.250028 -2.820664 -0.238396 -0.620858 -0.150751 -0.537343
    32 -0.049759 -1.680545 0.100480 -1.463660 0.000000 -0.000002
    33 -0.034141 -1.148312 0.084779 -1.087292 0.000000 0.000000
    34 0.957766 -2.746776 -0.090301 -0.063286 -0.242586 -0.427231
    35 -0.033419 -1.397128 -0.011255 -0.779109 0.124808 -0.122316
    36 -0.022361 -0.957434 0.018783 -1.043319 0.000000 0.000000
    37 -1.180680 -2.507215 -0.193861 -1.402521 -0.167662 -0.612262
    38 -0.024966 -1.123935 0.017594 -0.977980 0.000000 0.000001
    39 -0.020057 -0.890966 0.010091 -0.933423 0.000000 0.000000
    40 0.583510 -1.197274 0.185377 0.272562 -1.003483 -0.533087
    41 1.535926 0.010244 0.005008 0.440185 -0.138726 -1.296648
    42 1.100770 0.004526 -0.010676 -0.011449 0.011491 -0.607444
    43 0.120152 -0.050266 -0.054488 0.287568 3.110905 1.561085
end
