version 1
nodes
  0 "Bone04" -1
  1 "Bone_Righthand" 0
  2 "Pyramid01" 1
  3 "Woman_knife01" 2
  4 "Bone27" 1
  5 "Bone28" 4
  6 "Bone29" 5
  7 "Bone31" 1
  8 "Bone32" 7
  9 "Bone33" 8
  10 "Bone35" 1
  11 "Bone36" 10
  12 "Bone37" 11
  13 "Bone39" 1
  14 "Bone40" 13
  15 "Bone41" 14
  16 "Bone43" 1
  17 "Bone44" 16
  18 "Bone45" 17
  19 "Bone_Se_Hand-R" 1
  20 "Bone01" -1
  21 "Bone_Lefthand" 20
  22 "Bone05" 21
  23 "Bone06" 22
  24 "Bone07" 23
  25 "Bone21" 21
  26 "Bone22" 25
  27 "Bone23" 26
  28 "Bone17" 21
  29 "Bone18" 28
  30 "Bone19" 29
  31 "Bone13" 21
  32 "Bone14" 31
  33 "Bone15" 32
  34 "Bone09" 21
  35 "Bone10" 34
  36 "Bone11" 35
  37 "Bone_Se_Hand-L" 21
end
skeleton
  time 0
    0 -8.214167 -4.486001 3.030414 0.000000 0.000000 0.000000
    1 0.096946 -8.450418 -0.009361 0.000000 0.000000 0.000000
    2 4.128153 -2.269996 0.593499 -0.000001 0.000000 0.000000
    3 0.000000 -0.000001 -0.257390 0.000001 0.000000 0.000000
    4 -0.591284 -1.257738 0.232709 -0.112649 -0.739110 -2.367659
    5 1.522835 0.058680 0.016851 0.297819 -0.015565 0.713435
    6 1.117947 0.048424 -0.005765 -0.321024 -0.255028 1.247566
    7 -0.963866 -2.785142 -0.085346 -0.693552 0.115751 0.001442
    8 0.028478 -1.403067 0.006271 -1.577425 0.000001 0.000000
    9 0.021413 -0.957781 0.020047 -0.844718 0.000000 0.000000
    10 -0.249534 -2.846962 -0.174215 -0.916013 0.020488 0.024134
    11 0.043235 -1.683940 0.096015 -1.887124 0.000001 0.000000
    12 0.031730 -1.160831 0.058835 -0.936169 0.000000 0.000000
    13 0.447952 -2.798983 -0.200441 -1.053511 0.154874 0.156736
    14 -0.032910 -1.480207 0.004936 -1.835919 0.000000 0.000000
    15 -0.027023 -1.076921 -0.020212 -0.685018 0.000000 0.000000
    16 1.164475 -2.543939 -0.170327 -1.007384 0.138881 0.328959
    17 0.024033 -1.129040 0.017806 -1.555569 0.000000 0.000000
    18 0.014896 -0.883992 -0.019846 -0.971684 0.000000 0.000000
    19 -0.099914 -0.115761 0.002630 0.288219 -0.008019 1.465883
    20 8.580446 -1.483287 -9.564707 0.826888 2.547852 0.085721
    21 -0.071918 -8.498731 -0.104136 -0.326938 0.460393 -0.045515
    22 0.583509 -1.197274 0.185379 0.655910 -0.540138 -0.490959
    23 1.535926 0.010246 0.005008 -0.003238 -0.032300 -0.380938
    24 1.100770 0.004528 -0.010675 -0.061348 -0.170893 -0.237827
    25 0.957766 -2.746777 -0.090301 -0.152520 -0.133447 0.244269
    26 -0.033419 -1.397128 -0.011256 -0.524132 0.000000 0.000000
    27 -0.022361 -0.957433 0.018783 -0.176280 0.000000 0.000000
    28 0.250028 -2.820664 -0.238396 -0.251860 -0.002921 0.008442
    29 -0.049759 -1.680544 0.100480 -0.709302 0.000000 0.000000
    30 -0.034141 -1.148309 0.084779 -0.473448 0.000000 0.000000
    31 -0.488517 -2.755600 -0.228261 -0.483685 0.011968 -0.258794
    32 0.039888 -1.479791 0.029853 -0.708976 0.000000 0.000000
    33 0.028786 -1.075732 -0.023110 -0.651959 0.000000 0.000000
    34 -1.180679 -2.507216 -0.193861 -0.677984 0.017874 -0.473843
    35 -0.024967 -1.123935 0.017594 -0.552836 0.000000 0.000000
    36 -0.020058 -0.890965 0.010091 -0.373607 0.000000 0.000000
    37 0.106605 -0.056194 -0.045069 -2.813088 0.041750 -1.559467
end
triangles
CSO_Woman_Knife.BMP
  3 -3.989068 -15.686417 4.657162 -0.972715 -0.232004 0.000000 0.783550 0.327309
  3 -4.169068 -15.206417 5.057162 -1.000000 0.000000 0.000000 0.653680 0.259036
  3 -4.169068 -15.206417 4.657162 -1.000000 0.000000 0.000000 0.783550 0.259036
CSO_Woman_Knife.BMP
  3 -4.169068 -15.206417 4.657162 -1.000000 0.000000 0.000000 0.783550 0.259036
  3 -4.169068 -15.206417 5.057162 -1.000000 0.000000 0.000000 0.653680 0.259036
  3 -3.989068 -14.726417 4.657162 -0.972715 0.232004 0.000000 0.783550 0.188755
CSO_Woman_Knife.BMP
  3 -4.169068 -15.206417 5.057162 -1.000000 0.000000 0.000000 0.653680 0.259036
  3 -3.989068 -14.726417 5.057162 -0.972715 0.232004 0.000000 0.653680 0.188755
  3 -3.989068 -14.726417 4.657162 -0.972715 0.232004 0.000000 0.783550 0.188755
CSO_Woman_Knife.BMP
  3 -3.989068 -14.726417 4.657162 -0.972715 0.232004 0.000000 0.783550 0.188755
  3 -3.989068 -14.726417 5.057162 -0.972715 0.232004 0.000000 0.653680 0.188755
  3 -3.949068 -14.136417 4.857162 -0.999009 0.044500 0.000000 0.722944 0.106426
CSO_Woman_Knife.BMP
  3 -3.989068 -14.726417 5.057162 -0.972715 0.232004 0.000000 0.653680 0.188755
  3 -3.949068 -14.136417 5.057162 -0.999009 0.044500 0.000000 0.653680 0.106426
  3 -3.949068 -14.136417 4.857162 -0.999009 0.044500 0.000000 0.722944 0.106426
CSO_Woman_Knife.BMP
  3 -3.949068 -14.136417 4.857162 -0.999009 0.044500 0.000000 0.722944 0.106426
  3 -3.949068 -14.136417 5.057162 -0.999009 0.044500 0.000000 0.653680 0.106426
  3 -3.949068 -13.706417 4.837162 -1.000000 0.000000 0.000000 0.727273 0.046185
CSO_Woman_Knife.BMP
  3 -3.949068 -14.136417 5.057162 -0.999009 0.044500 0.000000 0.653680 0.106426
  3 -3.949068 -13.586417 5.057162 -0.829379 0.558686 0.000000 0.653680 0.028112
  3 -3.949068 -13.706417 4.837162 -1.000000 0.000000 0.000000 0.727273 0.046185
CSO_Woman_Knife.BMP
  3 -3.949068 -13.706417 4.837162 -1.000000 0.000000 0.000000 0.727273 0.046185
  3 -3.949068 -13.586417 5.057162 -0.829379 0.558686 0.000000 0.653680 0.028112
  3 -3.949068 -13.586417 4.807162 -0.796990 0.603992 0.000000 0.735931 0.028112
CSO_Woman_Knife.BMP
  3 -3.949068 -13.586417 5.057162 -0.829379 0.558686 0.000000 0.653680 0.028112
  3 -3.839068 -13.536417 5.057162 0.000000 1.000000 0.000000 0.653680 0.014056
  3 -3.949068 -13.586417 4.807162 -0.796990 0.603992 0.000000 0.735931 0.028112
CSO_Woman_Knife.BMP
  3 -3.949068 -13.586417 4.807162 -0.796990 0.603992 0.000000 0.735931 0.028112
  3 -3.839068 -13.536417 5.057162 0.000000 1.000000 0.000000 0.653680 0.014056
  3 -3.839068 -13.536417 4.807162 0.000000 1.000000 0.000000 0.735931 0.014056
CSO_Woman_Knife.BMP
  3 -3.839068 -13.536417 5.057162 0.000000 1.000000 0.000000 0.653680 0.014056
  3 -3.729068 -13.586417 4.807162 0.796990 0.603992 0.000000 0.735931 0.028112
  3 -3.839068 -13.536417 4.807162 0.000000 1.000000 0.000000 0.735931 0.014056
CSO_Woman_Knife.BMP
  3 -3.729068 -14.136417 4.857162 0.999151 0.041198 0.000000 0.722944 0.106426
  3 -3.679068 -14.726417 5.057162 0.976194 0.216899 0.000000 0.653680 0.188755
  3 -3.679068 -14.726417 4.657162 0.976194 0.216899 0.000000 0.783550 0.188755
CSO_Woman_Knife.BMP
  3 -3.679068 -14.726417 4.657162 0.976194 0.216899 0.000000 0.783550 0.188755
  3 -3.679068 -14.726417 5.057162 0.976194 0.216899 0.000000 0.653680 0.188755
  3 -3.499068 -15.206417 4.657162 1.000000 0.000000 0.000000 0.783550 0.259036
CSO_Woman_Knife.BMP
  3 -3.679068 -14.726417 5.057162 0.976194 0.216899 0.000000 0.653680 0.188755
  3 -3.499068 -15.206417 5.057162 1.000000 0.000000 0.000000 0.653680 0.259036
  3 -3.499068 -15.206417 4.657162 1.000000 0.000000 0.000000 0.783550 0.259036
CSO_Woman_Knife.BMP
  3 -3.499068 -15.206417 4.657162 1.000000 0.000000 0.000000 0.783550 0.259036
  3 -3.499068 -15.206417 5.057162 1.000000 0.000000 0.000000 0.653680 0.259036
  3 -3.679068 -15.686417 4.657162 0.972715 -0.232004 0.000000 0.783550 0.327309
CSO_Woman_Knife.BMP
  3 -3.499068 -15.206417 5.057162 1.000000 0.000000 0.000000 0.653680 0.259036
  3 -3.679068 -15.686417 5.057162 0.972715 -0.232004 0.000000 0.653680 0.327309
  3 -3.679068 -15.686417 4.657162 0.972715 -0.232004 0.000000 0.783550 0.327309
CSO_Woman_Knife.BMP
  3 -3.679068 -15.686417 4.657162 0.972715 -0.232004 0.000000 0.783550 0.327309
  3 -3.679068 -15.686417 5.057162 0.972715 -0.232004 0.000000 0.653680 0.327309
  3 -3.729068 -16.276417 4.857162 0.999009 -0.044500 0.000000 0.722944 0.411647
CSO_Woman_Knife.BMP
  3 -3.679068 -15.686417 5.057162 0.972715 -0.232004 0.000000 0.653680 0.327309
  3 -3.729068 -16.276417 5.057162 0.999009 -0.044500 0.000000 0.653680 0.411647
  3 -3.729068 -16.276417 4.857162 0.999009 -0.044500 0.000000 0.722944 0.411647
CSO_Woman_Knife.BMP
  3 -3.729068 -16.276417 4.857162 0.999009 -0.044500 0.000000 0.722944 0.411647
  3 -3.729068 -16.276417 5.057162 0.999009 -0.044500 0.000000 0.653680 0.411647
  3 -3.729068 -16.706417 4.837162 1.000000 0.000000 0.000000 0.727273 0.469880
CSO_Woman_Knife.BMP
  3 -3.729068 -16.276417 5.057162 0.999009 -0.044500 0.000000 0.653680 0.411647
  3 -3.729068 -16.826417 5.057162 0.829379 -0.558686 0.000000 0.653680 0.487952
  3 -3.729068 -16.706417 4.837162 1.000000 0.000000 0.000000 0.727273 0.469880
CSO_Woman_Knife.BMP
  3 -3.729068 -16.706417 4.837162 1.000000 0.000000 0.000000 0.727273 0.469880
  3 -3.729068 -16.826417 5.057162 0.829379 -0.558686 0.000000 0.653680 0.487952
  3 -3.729068 -16.826417 4.807162 0.796990 -0.603992 0.000000 0.735931 0.487952
CSO_Woman_Knife.BMP
  3 -3.729068 -16.826417 5.057162 0.829379 -0.558686 0.000000 0.653680 0.487952
  3 -3.839068 -16.876417 4.807162 0.000000 -1.000000 0.000000 0.735931 0.506024
  3 -3.729068 -16.826417 4.807162 0.796990 -0.603992 0.000000 0.735931 0.487952
CSO_Woman_Knife.BMP
  3 -3.839068 -15.316417 13.207162 0.994524 0.094702 0.044201 0.138528 0.008032
  3 -3.819068 -15.276417 12.727162 0.994524 0.094702 0.044201 0.151515 0.066265
  3 -3.839068 -15.146417 12.867162 0.994524 0.094702 0.044201 0.190476 0.050201
CSO_Woman_Knife.BMP
  3 -3.839068 -15.146417 12.867162 0.994524 0.094702 0.044201 0.190476 0.050201
  3 -3.819068 -15.276417 12.727162 0.994524 0.094702 0.044201 0.151515 0.066265
  3 -3.839068 -15.016417 12.537162 0.994524 0.094702 0.044201 0.225108 0.090361
CSO_Woman_Knife.BMP
  3 -3.819068 -15.276417 12.727162 0.994524 0.094702 0.044201 0.151515 0.066265
  3 -3.809068 -15.256417 12.387162 0.994524 0.094702 0.044201 0.155844 0.108434
  3 -3.839068 -15.016417 12.537162 0.994524 0.094702 0.044201 0.225108 0.090361
CSO_Woman_Knife.BMP
  3 -3.839068 -15.016417 12.537162 0.994524 0.094702 0.044201 0.225108 0.090361
  3 -3.809068 -15.256417 12.387162 0.994524 0.094702 0.044201 0.155844 0.108434
  3 -3.839068 -14.936417 12.207162 0.994524 0.094702 0.044201 0.251082 0.130522
CSO_Woman_Knife.BMP
  3 -3.809068 -15.256417 12.387162 0.994524 0.094702 0.044201 0.155844 0.108434
  3 -3.809068 -15.236417 12.047162 0.994524 0.094702 0.044201 0.164502 0.148594
  3 -3.839068 -14.936417 12.207162 0.994524 0.094702 0.044201 0.251082 0.130522
CSO_Woman_Knife.BMP
  3 -3.839068 -14.936417 12.207162 0.994524 0.094702 0.044201 0.251082 0.130522
  3 -3.809068 -15.236417 12.047162 0.994524 0.094702 0.044201 0.164502 0.148594
  3 -3.839068 -14.846417 11.807162 0.994524 0.094702 0.044201 0.272727 0.178715
CSO_Woman_Knife.BMP
  3 -3.809068 -15.236417 12.047162 0.994524 0.094702 0.044201 0.164502 0.148594
  3 -3.799068 -15.216417 11.587162 0.994524 0.094702 0.044201 0.168831 0.204819
  3 -3.839068 -14.846417 11.807162 0.994524 0.094702 0.044201 0.272727 0.178715
CSO_Woman_Knife.BMP
  3 -3.839068 -14.846417 11.807162 0.994524 0.094702 0.044201 0.272727 0.178715
  3 -3.799068 -15.216417 11.587162 0.994524 0.094702 0.044201 0.168831 0.204819
  3 -3.839068 -14.796417 11.407162 0.992126 0.123703 0.019601 0.290043 0.226908
CSO_Woman_Knife.BMP
  3 -3.799068 -15.216417 11.587162 0.994524 0.094702 0.044201 0.168831 0.204819
  3 -3.789068 -15.206417 11.127162 0.994524 0.094702 0.044201 0.173160 0.261044
  3 -3.839068 -14.796417 11.407162 0.992126 0.123703 0.019601 0.290043 0.226908
CSO_Woman_Knife.BMP
  3 -3.839068 -14.796417 11.407162 0.992126 0.123703 0.019601 0.290043 0.226908
  3 -3.789068 -15.206417 11.127162 0.994524 0.094702 0.044201 0.173160 0.261044
  3 -3.769068 -15.206417 10.527162 0.986983 0.160697 -0.006400 0.173160 0.335341
CSO_Woman_Knife.BMP
  3 -3.839068 -15.146417 12.867162 -0.994551 0.096395 0.039698 0.190476 0.050201
  3 -3.839068 -15.016417 12.537162 -0.994551 0.096395 0.039698 0.225108 0.090361
  3 -3.859068 -15.276417 12.727162 -0.994551 0.096395 0.039698 0.151515 0.066265
CSO_Woman_Knife.BMP
  3 -3.859068 -15.276417 12.727162 -0.994551 0.096395 0.039698 0.151515 0.066265
  3 -3.839068 -15.016417 12.537162 -0.994551 0.096395 0.039698 0.225108 0.090361
  3 -3.869068 -15.256417 12.387162 -0.994551 0.096395 0.039698 0.155844 0.108434
CSO_Woman_Knife.BMP
  3 -3.839068 -15.016417 12.537162 -0.994551 0.096395 0.039698 0.225108 0.090361
  3 -3.839068 -14.936417 12.207162 -0.994551 0.096395 0.039698 0.251082 0.130522
  3 -3.869068 -15.256417 12.387162 -0.994551 0.096395 0.039698 0.155844 0.108434
CSO_Woman_Knife.BMP
  3 -3.869068 -15.256417 12.387162 -0.994551 0.096395 0.039698 0.155844 0.108434
  3 -3.839068 -14.936417 12.207162 -0.994551 0.096395 0.039698 0.251082 0.130522
  3 -3.879068 -15.236417 12.047162 -0.994551 0.096395 0.039698 0.164502 0.148594
CSO_Woman_Knife.BMP
  3 -3.839068 -14.936417 12.207162 -0.994551 0.096395 0.039698 0.251082 0.130522
  3 -3.839068 -14.846417 11.807162 -0.994551 0.096395 0.039698 0.272727 0.178715
  3 -3.879068 -15.236417 12.047162 -0.994551 0.096395 0.039698 0.164502 0.148594
CSO_Woman_Knife.BMP
  3 -3.879068 -15.236417 12.047162 -0.994551 0.096395 0.039698 0.164502 0.148594
  3 -3.839068 -14.846417 11.807162 -0.994551 0.096395 0.039698 0.272727 0.178715
  3 -3.889068 -15.216417 11.587162 -0.994551 0.096395 0.039698 0.168831 0.204819
CSO_Woman_Knife.BMP
  3 -3.839068 -14.846417 11.807162 -0.994551 0.096395 0.039698 0.272727 0.178715
  3 -3.839068 -14.796417 11.407162 -0.994551 0.096395 0.039698 0.290043 0.226908
  3 -3.889068 -15.216417 11.587162 -0.994551 0.096395 0.039698 0.168831 0.204819
CSO_Woman_Knife.BMP
  3 -3.889068 -15.216417 11.587162 -0.994551 0.096395 0.039698 0.168831 0.204819
  3 -3.839068 -14.796417 11.407162 -0.994551 0.096395 0.039698 0.290043 0.226908
  3 -3.899068 -15.206417 11.127162 -0.994551 0.096395 0.039698 0.173160 0.261044
CSO_Woman_Knife.BMP
  3 -3.839068 -14.796417 11.407162 -0.994551 0.096395 0.039698 0.290043 0.226908
  3 -3.919068 -15.206417 10.527162 -0.983431 0.181206 -0.005200 0.173160 0.335341
  3 -3.899068 -15.206417 11.127162 -0.994551 0.096395 0.039698 0.173160 0.261044
CSO_Woman_Knife.BMP
  3 -3.839068 -16.876417 4.807162 0.000000 -1.000000 0.000000 0.735931 0.506024
  3 -3.949068 -16.826417 5.057162 -0.829379 -0.558686 0.000000 0.653680 0.487952
  3 -3.949068 -16.826417 4.807162 -0.796990 -0.603992 0.000000 0.735931 0.487952
CSO_Woman_Knife.BMP
  3 -3.949068 -16.826417 4.807162 -0.796990 -0.603992 0.000000 0.735931 0.487952
  3 -3.949068 -16.826417 5.057162 -0.829379 -0.558686 0.000000 0.653680 0.487952
  3 -3.949068 -16.706417 4.837162 -1.000000 0.000000 0.000000 0.727273 0.469880
CSO_Woman_Knife.BMP
  3 -3.949068 -16.826417 5.057162 -0.829379 -0.558686 0.000000 0.653680 0.487952
  3 -3.949068 -16.276417 5.057162 -0.999151 -0.041198 0.000000 0.653680 0.411647
  3 -3.949068 -16.706417 4.837162 -1.000000 0.000000 0.000000 0.727273 0.469880
CSO_Woman_Knife.BMP
  3 -3.949068 -16.706417 4.837162 -1.000000 0.000000 0.000000 0.727273 0.469880
  3 -3.949068 -16.276417 5.057162 -0.999151 -0.041198 0.000000 0.653680 0.411647
  3 -3.949068 -16.276417 4.857162 -0.999151 -0.041198 0.000000 0.722944 0.411647
CSO_Woman_Knife.BMP
  3 -3.949068 -16.276417 5.057162 -0.999151 -0.041198 0.000000 0.653680 0.411647
  3 -3.989068 -15.686417 5.057162 -0.972715 -0.232004 0.000000 0.653680 0.327309
  3 -3.949068 -16.276417 4.857162 -0.999151 -0.041198 0.000000 0.722944 0.411647
CSO_Woman_Knife.BMP
  3 -3.949068 -16.276417 4.857162 -0.999151 -0.041198 0.000000 0.722944 0.411647
  3 -3.989068 -15.686417 5.057162 -0.972715 -0.232004 0.000000 0.653680 0.327309
  3 -3.989068 -15.686417 4.657162 -0.972715 -0.232004 0.000000 0.783550 0.327309
CSO_Woman_Knife.BMP
  3 -3.989068 -15.686417 5.057162 -0.972715 -0.232004 0.000000 0.653680 0.327309
  3 -4.169068 -15.206417 5.057162 -1.000000 0.000000 0.000000 0.653680 0.259036
  3 -3.989068 -15.686417 4.657162 -0.972715 -0.232004 0.000000 0.783550 0.327309
CSO_Woman_Knife.BMP
  3 -3.989068 -15.666417 1.097162 -0.587466 -0.796154 -0.144992 0.506494 0.933735
  3 -3.989068 -15.716417 1.637162 -0.585519 -0.809626 -0.040901 0.489177 0.867470
  3 -4.169068 -15.136417 1.707162 -1.000000 0.000000 0.000000 0.658009 0.859438
CSO_Woman_Knife.BMP
  3 -3.989068 -15.666417 1.097162 -0.587466 -0.796154 -0.144992 0.506494 0.933735
  3 -3.679068 -15.716417 1.637162 0.585519 -0.809626 -0.040901 0.402597 0.869478
  3 -3.989068 -15.716417 1.637162 -0.585519 -0.809626 -0.040901 0.489177 0.867470
CSO_Woman_Knife.BMP
  3 -3.989068 -15.666417 1.097162 -0.587466 -0.796154 -0.144992 0.506494 0.933735
  3 -3.679068 -15.666417 1.097162 0.587466 -0.796154 -0.144992 0.415584 0.935743
  3 -3.679068 -15.716417 1.637162 0.585519 -0.809626 -0.040901 0.402597 0.869478
CSO_Woman_Knife.BMP
  3 -3.989068 -15.666417 1.097162 -0.587466 -0.796154 -0.144992 0.506494 0.933735
  3 -3.679068 -15.526417 0.587162 0.615111 -0.760014 -0.209804 0.454545 1.000000
  3 -3.679068 -15.666417 1.097162 0.587466 -0.796154 -0.144992 0.415584 0.935743
CSO_Woman_Knife.BMP
  3 -3.989068 -15.666417 1.097162 -0.587466 -0.796154 -0.144992 0.506494 0.933735
  3 -3.989068 -15.526417 0.587162 -0.615111 -0.760014 -0.209804 0.545455 0.997992
  3 -3.679068 -15.526417 0.587162 0.615111 -0.760014 -0.209804 0.454545 1.000000
CSO_Woman_Knife.BMP
  3 -3.989068 -15.666417 1.097162 -0.587466 -0.796154 -0.144992 0.506494 0.933735
  3 -4.169068 -15.036417 1.217162 -1.000000 0.000000 0.000000 0.688312 0.921687
  3 -3.989068 -15.526417 0.587162 -0.615111 -0.760014 -0.209804 0.545455 0.997992
CSO_Woman_Knife.BMP
  3 -3.989068 -15.666417 1.097162 -0.587466 -0.796154 -0.144992 0.506494 0.933735
  3 -4.169068 -15.136417 1.707162 -1.000000 0.000000 0.000000 0.658009 0.859438
  3 -4.169068 -15.036417 1.217162 -1.000000 0.000000 0.000000 0.688312 0.921687
CSO_Woman_Knife.BMP
  3 -3.679068 -14.486417 1.487162 0.603894 0.714093 0.354096 0.844156 0.887550
  3 -3.679068 -14.646417 1.857162 0.614482 0.771377 0.165495 0.796537 0.841365
  3 -3.499068 -15.136417 1.707162 1.000000 0.000000 0.000000 0.658009 0.859438
CSO_Woman_Knife.BMP
  3 -3.679068 -14.486417 1.487162 0.603894 0.714093 0.354096 0.844156 0.887550
  3 -3.989068 -14.646417 1.857162 -0.614482 0.771377 0.165495 0.887446 0.841365
  3 -3.679068 -14.646417 1.857162 0.614482 0.771377 0.165495 0.796537 0.841365
CSO_Woman_Knife.BMP
  3 -3.679068 -14.486417 1.487162 0.603894 0.714093 0.354096 0.844156 0.887550
  3 -3.989068 -14.486417 1.487162 -0.603894 0.714093 0.354096 0.930736 0.887550
  3 -3.989068 -14.646417 1.857162 -0.614482 0.771377 0.165495 0.887446 0.841365
CSO_Woman_Knife.BMP
  3 -3.679068 -14.486417 1.487162 0.603894 0.714093 0.354096 0.844156 0.887550
  3 -3.989068 -14.286417 1.147162 -0.619380 0.680978 0.390688 0.991342 0.927711
  3 -3.989068 -14.486417 1.487162 -0.603894 0.714093 0.354096 0.930736 0.887550
CSO_Woman_Knife.BMP
  3 -3.679068 -14.486417 1.487162 0.603894 0.714093 0.354096 0.844156 0.887550
  3 -3.679068 -14.286417 1.147162 0.619380 0.680978 0.390688 0.900433 0.927711
  3 -3.989068 -14.286417 1.147162 -0.619380 0.680978 0.390688 0.991342 0.927711
CSO_Woman_Knife.BMP
  3 -3.679068 -14.486417 1.487162 0.603894 0.714093 0.354096 0.844156 0.887550
  3 -3.499068 -15.036417 1.217162 1.000000 0.000000 0.000000 0.688312 0.921687
  3 -3.679068 -14.286417 1.147162 0.619380 0.680978 0.390688 0.900433 0.927711
CSO_Woman_Knife.BMP
  3 -3.679068 -14.486417 1.487162 0.603894 0.714093 0.354096 0.844156 0.887550
  3 -3.499068 -15.136417 1.707162 1.000000 0.000000 0.000000 0.658009 0.859438
  3 -3.499068 -15.036417 1.217162 1.000000 0.000000 0.000000 0.688312 0.921687
CSO_Woman_Knife.BMP
  3 -3.989068 -15.716417 3.467162 -0.581994 -0.813192 -0.001200 0.974026 0.491968
  3 -3.679068 -15.716417 3.467162 0.581994 -0.813192 -0.001200 0.974026 0.429719
  3 -3.989068 -15.716417 3.797162 -0.581994 -0.813192 -0.001200 0.822511 0.493976
CSO_Woman_Knife.BMP
  3 -3.989068 -15.716417 3.797162 -0.581994 -0.813192 -0.001200 0.822511 0.493976
  3 -3.679068 -15.716417 3.467162 0.581994 -0.813192 -0.001200 0.974026 0.429719
  3 -3.669068 -15.716417 3.797162 0.581994 -0.813192 -0.001200 0.822511 0.429719
CSO_Woman_Knife.BMP
  3 -3.679068 -15.716417 3.467162 0.581994 -0.813192 -0.001200 0.974026 0.429719
  3 -3.499068 -15.206417 3.477162 1.000000 0.000000 0.000000 0.969697 0.325301
  3 -3.669068 -15.716417 3.797162 0.581994 -0.813192 -0.001200 0.822511 0.429719
CSO_Woman_Knife.BMP
  3 -3.669068 -15.716417 3.797162 0.581994 -0.813192 -0.001200 0.822511 0.429719
  3 -3.499068 -15.206417 3.477162 1.000000 0.000000 0.000000 0.969697 0.325301
  3 -3.489068 -15.206417 3.797162 1.000000 0.000000 0.000000 0.822511 0.325301
CSO_Woman_Knife.BMP
  3 -3.499068 -15.206417 3.477162 1.000000 0.000000 0.000000 0.969697 0.325301
  3 -3.679068 -14.666417 3.487162 0.986983 0.160697 -0.006400 0.965368 0.216867
  3 -3.489068 -15.206417 3.797162 1.000000 0.000000 0.000000 0.822511 0.325301
CSO_Woman_Knife.BMP
  3 -3.489068 -15.206417 3.797162 1.000000 0.000000 0.000000 0.822511 0.325301
  3 -3.679068 -14.666417 3.487162 0.986983 0.160697 -0.006400 0.965368 0.216867
  3 -3.669068 -14.686417 3.807162 0.976194 0.216899 0.000000 0.818182 0.220884
CSO_Woman_Knife.BMP
  3 -3.679068 -14.666417 3.487162 0.986983 0.160697 -0.006400 0.965368 0.216867
  3 -3.669068 -14.406417 3.737162 1.000000 0.000000 0.000000 0.852814 0.162651
  3 -3.669068 -14.686417 3.807162 0.976194 0.216899 0.000000 0.818182 0.220884
CSO_Woman_Knife.BMP
  3 -4.169068 -15.206417 3.797162 -1.000000 0.000000 0.000000 0.822511 0.325301
  3 -3.989068 -14.686417 3.807162 -0.983431 0.181206 -0.005200 0.818182 0.220884
  3 -4.169068 -15.206417 3.477162 -1.000000 0.000000 0.000000 0.969697 0.325301
CSO_Woman_Knife.BMP
  3 -4.169068 -15.206417 3.477162 -1.000000 0.000000 0.000000 0.969697 0.325301
  3 -3.989068 -14.686417 3.807162 -0.983431 0.181206 -0.005200 0.818182 0.220884
  3 -3.989068 -14.666417 3.487162 -0.983431 0.181206 -0.005200 0.965368 0.216867
CSO_Woman_Knife.BMP
  3 -3.989068 -14.686417 3.807162 -0.983431 0.181206 -0.005200 0.818182 0.220884
  3 -3.989068 -14.406417 3.737162 -1.000000 0.000000 0.000000 0.852814 0.162651
  3 -3.989068 -14.666417 3.487162 -0.983431 0.181206 -0.005200 0.965368 0.216867
CSO_Woman_Knife.BMP
  3 -3.989068 -14.666417 3.487162 -0.983431 0.181206 -0.005200 0.965368 0.216867
  3 -3.989068 -14.406417 3.737162 -1.000000 0.000000 0.000000 0.852814 0.162651
  3 -3.989068 -14.406417 3.497162 -1.000000 0.000000 0.000000 0.965368 0.164659
CSO_Woman_Knife.BMP
  3 -3.989068 -14.406417 3.737162 -1.000000 0.000000 0.000000 0.852814 0.162651
  3 -3.989068 -14.036417 3.687162 -1.000000 0.000000 0.000000 0.874459 0.088353
  3 -3.989068 -14.406417 3.497162 -1.000000 0.000000 0.000000 0.965368 0.164659
CSO_Woman_Knife.BMP
  3 -3.989068 -14.406417 3.497162 -1.000000 0.000000 0.000000 0.965368 0.164659
  3 -3.989068 -14.036417 3.687162 -1.000000 0.000000 0.000000 0.874459 0.088353
  3 -3.989068 -13.846417 3.497162 -1.000000 0.000000 0.000000 0.961039 0.050201
CSO_Woman_Knife.BMP
  3 -3.989068 -14.036417 3.687162 -1.000000 0.000000 0.000000 0.874459 0.088353
  3 -3.989068 -13.866417 3.737162 -1.000000 0.000000 0.000000 0.852814 0.054217
  3 -3.989068 -13.846417 3.497162 -1.000000 0.000000 0.000000 0.961039 0.050201
CSO_Woman_Knife.BMP
  3 -3.679068 -15.716417 3.467162 0.581994 -0.813192 -0.001200 0.398268 0.642570
  3 -3.989068 -15.716417 3.467162 -0.581994 -0.813192 -0.001200 0.489177 0.642570
  3 -3.679068 -15.716417 1.637162 0.585519 -0.809626 -0.040901 0.402597 0.869478
CSO_Woman_Knife.BMP
  3 -3.679068 -15.716417 1.637162 0.585519 -0.809626 -0.040901 0.402597 0.869478
  3 -3.989068 -15.716417 3.467162 -0.581994 -0.813192 -0.001200 0.489177 0.642570
  3 -3.989068 -15.716417 1.637162 -0.585519 -0.809626 -0.040901 0.489177 0.867470
CSO_Woman_Knife.BMP
  3 -3.989068 -15.716417 3.467162 -0.581994 -0.813192 -0.001200 0.489177 0.642570
  3 -4.169068 -15.206417 3.477162 -1.000000 0.000000 0.000000 0.636364 0.640562
  3 -3.989068 -15.716417 1.637162 -0.585519 -0.809626 -0.040901 0.489177 0.867470
CSO_Woman_Knife.BMP
  3 -3.989068 -15.716417 1.637162 -0.585519 -0.809626 -0.040901 0.489177 0.867470
  3 -4.169068 -15.206417 3.477162 -1.000000 0.000000 0.000000 0.636364 0.640562
  3 -4.169068 -15.136417 1.707162 -1.000000 0.000000 0.000000 0.658009 0.859438
CSO_Woman_Knife.BMP
  3 -4.169068 -15.206417 3.477162 -1.000000 0.000000 0.000000 0.636364 0.640562
  3 -3.989068 -14.646417 1.857162 -0.614482 0.771377 0.165495 0.796537 0.841365
  3 -4.169068 -15.136417 1.707162 -1.000000 0.000000 0.000000 0.658009 0.859438
CSO_Woman_Knife.BMP
  3 -4.169068 -15.136417 1.707162 -1.000000 0.000000 0.000000 0.658009 0.859438
  3 -3.989068 -14.646417 1.857162 -0.614482 0.771377 0.165495 0.796537 0.841365
  3 -3.989068 -14.486417 1.487162 -0.603894 0.714093 0.354096 0.844156 0.887550
CSO_Woman_Knife.BMP
  3 -3.729068 -14.136417 5.057162 0.000000 0.000000 1.000000 0.489177 0.098394
  3 -3.989068 -14.726417 5.057162 0.000000 0.000000 1.000000 0.575758 0.184739
  3 -3.679068 -14.726417 5.057162 0.000000 0.000000 1.000000 0.471861 0.184739
CSO_Woman_Knife.BMP
  3 -3.679068 -14.726417 5.057162 0.000000 0.000000 1.000000 0.471861 0.184739
  3 -3.989068 -14.726417 5.057162 0.000000 0.000000 1.000000 0.575758 0.184739
  3 -3.499068 -15.206417 5.057162 0.000000 0.000000 1.000000 0.411255 0.255020
CSO_Woman_Knife.BMP
  3 -3.989068 -14.726417 5.057162 0.000000 0.000000 1.000000 0.575758 0.184739
  3 -4.169068 -15.206417 5.057162 0.000000 0.000000 1.000000 0.632035 0.255020
  3 -3.499068 -15.206417 5.057162 0.000000 0.000000 1.000000 0.411255 0.255020
CSO_Woman_Knife.BMP
  3 -3.499068 -15.206417 5.057162 0.000000 0.000000 1.000000 0.411255 0.255020
  3 -4.169068 -15.206417 5.057162 0.000000 0.000000 1.000000 0.632035 0.255020
  3 -3.679068 -15.686417 5.057162 0.000000 0.000000 1.000000 0.471861 0.325301
CSO_Woman_Knife.BMP
  3 -4.169068 -15.206417 5.057162 0.000000 0.000000 1.000000 0.632035 0.255020
  3 -3.989068 -15.686417 5.057162 0.000000 0.000000 1.000000 0.575758 0.325301
  3 -3.679068 -15.686417 5.057162 0.000000 0.000000 1.000000 0.471861 0.325301
CSO_Woman_Knife.BMP
  3 -3.679068 -15.686417 5.057162 0.000000 0.000000 1.000000 0.471861 0.325301
  3 -3.989068 -15.686417 5.057162 0.000000 0.000000 1.000000 0.575758 0.325301
  3 -3.949068 -16.276417 5.057162 0.000000 0.000000 1.000000 0.558442 0.411647
CSO_Woman_Knife.BMP
  3 -3.679068 -14.726417 4.657162 0.000000 0.313496 -0.949589 0.471861 0.184739
  3 -3.949068 -14.136417 4.857162 0.000000 0.145200 -0.989402 0.558442 0.098394
  3 -3.729068 -14.136417 4.857162 0.000000 0.145200 -0.989402 0.489177 0.098394
CSO_Woman_Knife.BMP
  3 -3.729068 -14.136417 4.857162 0.000000 0.145200 -0.989402 0.489177 0.098394
  3 -3.949068 -14.136417 4.857162 0.000000 0.145200 -0.989402 0.558442 0.098394
  3 -3.729068 -13.706417 4.837162 0.000000 -0.145200 -0.989402 0.489177 0.038153
CSO_Woman_Knife.BMP
  3 -3.949068 -14.136417 4.857162 0.000000 0.145200 -0.989402 0.558442 0.098394
  3 -3.949068 -13.706417 4.837162 0.000000 -0.145200 -0.989402 0.558442 0.038153
  3 -3.729068 -13.706417 4.837162 0.000000 -0.145200 -0.989402 0.489177 0.038153
CSO_Woman_Knife.BMP
  3 -3.729068 -13.706417 4.837162 0.000000 -0.145200 -0.989402 0.489177 0.038153
  3 -3.949068 -13.706417 4.837162 0.000000 -0.145200 -0.989402 0.558442 0.038153
  3 -3.729068 -13.586417 4.807162 0.000000 -0.191903 -0.981414 0.489177 0.018072
CSO_Woman_Knife.BMP
  3 -3.949068 -13.706417 4.837162 0.000000 -0.145200 -0.989402 0.558442 0.038153
  3 -3.949068 -13.586417 4.807162 0.000000 -0.191903 -0.981414 0.558442 0.018072
  3 -3.729068 -13.586417 4.807162 0.000000 -0.191903 -0.981414 0.489177 0.018072
CSO_Woman_Knife.BMP
  3 -3.729068 -13.586417 4.807162 0.000000 -0.191903 -0.981414 0.489177 0.018072
  3 -3.949068 -13.586417 4.807162 0.000000 -0.191903 -0.981414 0.558442 0.018072
  3 -3.839068 -13.536417 4.807162 0.000000 0.000000 -1.000000 0.523810 0.012048
CSO_Woman_Knife.BMP
  3 -3.989068 -15.686417 4.657162 0.000000 -0.313496 -0.949589 0.575758 0.325301
  3 -3.729068 -16.276417 4.857162 0.000000 -0.145200 -0.989402 0.489177 0.411647
  3 -3.949068 -16.276417 4.857162 0.000000 -0.145200 -0.989402 0.558442 0.411647
CSO_Woman_Knife.BMP
  3 -3.949068 -16.276417 4.857162 0.000000 -0.145200 -0.989402 0.558442 0.411647
  3 -3.729068 -16.276417 4.857162 0.000000 -0.145200 -0.989402 0.489177 0.411647
  3 -3.949068 -16.706417 4.837162 0.000000 0.145200 -0.989402 0.558442 0.471888
CSO_Woman_Knife.BMP
  3 -3.729068 -16.276417 4.857162 0.000000 -0.145200 -0.989402 0.489177 0.411647
  3 -3.729068 -16.706417 4.837162 0.000000 0.145200 -0.989402 0.489177 0.471888
  3 -3.949068 -16.706417 4.837162 0.000000 0.145200 -0.989402 0.558442 0.471888
CSO_Woman_Knife.BMP
  3 -3.949068 -16.706417 4.837162 0.000000 0.145200 -0.989402 0.558442 0.471888
  3 -3.729068 -16.706417 4.837162 0.000000 0.145200 -0.989402 0.489177 0.471888
  3 -3.949068 -16.826417 4.807162 0.000000 0.220497 -0.975388 0.558442 0.489960
CSO_Woman_Knife.BMP
  3 -3.729068 -16.706417 4.837162 0.000000 0.145200 -0.989402 0.489177 0.471888
  3 -3.729068 -16.826417 4.807162 0.000000 0.220497 -0.975388 0.489177 0.489960
  3 -3.949068 -16.826417 4.807162 0.000000 0.220497 -0.975388 0.558442 0.489960
CSO_Woman_Knife.BMP
  3 -3.949068 -16.826417 4.807162 0.000000 0.220497 -0.975388 0.558442 0.489960
  3 -3.729068 -16.826417 4.807162 0.000000 0.220497 -0.975388 0.489177 0.489960
  3 -3.839068 -16.876417 4.807162 0.000000 0.000000 -1.000000 0.523810 0.495984
CSO_Woman_Knife.BMP
  3 -3.679068 -15.716417 3.467162 0.581994 -0.813192 -0.001200 0.489177 0.642570
  3 -3.679068 -15.716417 1.637162 0.585519 -0.809626 -0.040901 0.489177 0.867470
  3 -3.499068 -15.206417 3.477162 1.000000 0.000000 0.000000 0.636364 0.640562
CSO_Woman_Knife.BMP
  3 -3.499068 -15.206417 3.477162 1.000000 0.000000 0.000000 0.636364 0.640562
  3 -3.679068 -15.716417 1.637162 0.585519 -0.809626 -0.040901 0.489177 0.867470
  3 -3.499068 -15.136417 1.707162 1.000000 0.000000 0.000000 0.658009 0.859438
CSO_Woman_Knife.BMP
  3 -3.679068 -15.716417 1.637162 0.585519 -0.809626 -0.040901 0.489177 0.867470
  3 -3.679068 -15.666417 1.097162 0.587466 -0.796154 -0.144992 0.506494 0.933735
  3 -3.499068 -15.136417 1.707162 1.000000 0.000000 0.000000 0.658009 0.859438
CSO_Woman_Knife.BMP
  3 -3.499068 -15.136417 1.707162 1.000000 0.000000 0.000000 0.658009 0.859438
  3 -3.679068 -15.666417 1.097162 0.587466 -0.796154 -0.144992 0.506494 0.933735
  3 -3.499068 -15.036417 1.217162 1.000000 0.000000 0.000000 0.688312 0.921687
CSO_Woman_Knife.BMP
  3 -3.679068 -15.666417 1.097162 0.587466 -0.796154 -0.144992 0.506494 0.933735
  3 -3.679068 -15.526417 0.587162 0.615111 -0.760014 -0.209804 0.545455 0.997992
  3 -3.499068 -15.036417 1.217162 1.000000 0.000000 0.000000 0.688312 0.921687
CSO_Woman_Knife.BMP
  3 -3.499068 -15.036417 1.217162 1.000000 0.000000 0.000000 0.688312 0.921687
  3 -3.679068 -15.526417 0.587162 0.615111 -0.760014 -0.209804 0.545455 0.997992
  3 -3.499068 -14.846417 0.737162 1.000000 0.000000 0.000000 0.740260 0.979920
CSO_Woman_Knife.BMP
  3 -3.839068 -15.656417 10.637162 -0.986805 -0.161401 0.012900 0.043290 0.319277
  3 -3.919068 -15.206417 10.107162 -0.986805 -0.161401 0.012900 0.173160 0.385542
  3 -3.839068 -15.656417 8.607162 -0.986805 -0.161401 0.012900 0.043290 0.568273
CSO_Woman_Knife.BMP
  3 -3.839068 -15.656417 10.637162 -0.986805 -0.161401 0.012900 0.043290 0.319277
  3 -3.919068 -15.206417 10.527162 -0.986805 -0.161401 0.012900 0.173160 0.335341
  3 -3.919068 -15.206417 10.107162 -0.986805 -0.161401 0.012900 0.173160 0.385542
CSO_Woman_Knife.BMP
  3 -3.839068 -15.656417 10.637162 -0.986805 -0.161401 0.012900 0.043290 0.319277
  3 -3.899068 -15.206417 11.127162 -0.986805 -0.161401 0.012900 0.173160 0.261044
  3 -3.919068 -15.206417 10.527162 -0.986805 -0.161401 0.012900 0.173160 0.335341
CSO_Woman_Knife.BMP
  3 -3.839068 -15.656417 10.637162 -0.986805 -0.161401 0.012900 0.043290 0.319277
  3 -3.889068 -15.216417 11.587162 -0.986805 -0.161401 0.012900 0.168831 0.204819
  3 -3.899068 -15.206417 11.127162 -0.986805 -0.161401 0.012900 0.173160 0.261044
CSO_Woman_Knife.BMP
  3 -3.839068 -15.656417 10.637162 -0.986805 -0.161401 0.012900 0.043290 0.319277
  3 -3.879068 -15.236417 12.047162 -0.986805 -0.161401 0.012900 0.164502 0.148594
  3 -3.889068 -15.216417 11.587162 -0.986805 -0.161401 0.012900 0.168831 0.204819
CSO_Woman_Knife.BMP
  3 -3.839068 -15.656417 10.637162 -0.986805 -0.161401 0.012900 0.043290 0.319277
  3 -3.839068 -15.456417 12.197162 -0.986805 -0.161401 0.012900 0.103896 0.130522
  3 -3.879068 -15.236417 12.047162 -0.986805 -0.161401 0.012900 0.164502 0.148594
CSO_Woman_Knife.BMP
  3 -3.839068 -15.656417 10.637162 0.989271 -0.144796 0.019399 0.043290 0.319277
  3 -3.809068 -15.236417 12.047162 0.989271 -0.144796 0.019399 0.164502 0.148594
  3 -3.839068 -15.456417 12.197162 0.989271 -0.144796 0.019399 0.103896 0.130522
CSO_Woman_Knife.BMP
  3 -3.839068 -15.656417 10.637162 0.989271 -0.144796 0.019399 0.043290 0.319277
  3 -3.799068 -15.216417 11.587162 0.989271 -0.144796 0.019399 0.168831 0.204819
  3 -3.809068 -15.236417 12.047162 0.989271 -0.144796 0.019399 0.164502 0.148594
CSO_Woman_Knife.BMP
  3 -3.839068 -15.656417 10.637162 0.989271 -0.144796 0.019399 0.043290 0.319277
  3 -3.789068 -15.206417 11.127162 0.989271 -0.144796 0.019399 0.173160 0.261044
  3 -3.799068 -15.216417 11.587162 0.989271 -0.144796 0.019399 0.168831 0.204819
CSO_Woman_Knife.BMP
  3 -3.839068 -15.656417 10.637162 0.989271 -0.144796 0.019399 0.043290 0.319277
  3 -3.769068 -15.206417 10.527162 0.989271 -0.144796 0.019399 0.173160 0.335341
  3 -3.789068 -15.206417 11.127162 0.989271 -0.144796 0.019399 0.173160 0.261044
CSO_Woman_Knife.BMP
  3 -3.839068 -15.656417 10.637162 0.989271 -0.144796 0.019399 0.043290 0.319277
  3 -3.769068 -15.206417 8.607162 0.989271 -0.144796 0.019399 0.173160 0.568273
  3 -3.769068 -15.206417 10.527162 0.989271 -0.144796 0.019399 0.173160 0.335341
CSO_Woman_Knife.BMP
  3 -3.839068 -15.656417 10.637162 0.989271 -0.144796 0.019399 0.043290 0.319277
  3 -3.839068 -15.656417 8.607162 0.989271 -0.144796 0.019399 0.043290 0.568273
  3 -3.769068 -15.206417 8.607162 0.989271 -0.144796 0.019399 0.173160 0.568273
CSO_Woman_Knife.BMP
  3 -3.839068 -13.536417 5.057162 0.000000 1.000000 0.000000 0.653680 0.014056
  3 -3.729068 -13.586417 5.057162 0.829379 0.558686 0.000000 0.653680 0.028112
  3 -3.729068 -13.586417 4.807162 0.796990 0.603992 0.000000 0.735931 0.028112
CSO_Woman_Knife.BMP
  3 -3.729068 -13.586417 4.807162 0.796990 0.603992 0.000000 0.735931 0.028112
  3 -3.729068 -13.586417 5.057162 0.829379 0.558686 0.000000 0.653680 0.028112
  3 -3.729068 -13.706417 4.837162 1.000000 0.000000 0.000000 0.727273 0.046185
CSO_Woman_Knife.BMP
  3 -3.729068 -13.586417 5.057162 0.829379 0.558686 0.000000 0.653680 0.028112
  3 -3.729068 -14.136417 5.057162 0.999151 0.041198 0.000000 0.653680 0.106426
  3 -3.729068 -13.706417 4.837162 1.000000 0.000000 0.000000 0.727273 0.046185
CSO_Woman_Knife.BMP
  3 -3.729068 -13.706417 4.837162 1.000000 0.000000 0.000000 0.727273 0.046185
  3 -3.729068 -14.136417 5.057162 0.999151 0.041198 0.000000 0.653680 0.106426
  3 -3.729068 -14.136417 4.857162 0.999151 0.041198 0.000000 0.722944 0.106426
CSO_Woman_Knife.BMP
  3 -3.729068 -14.136417 5.057162 0.999151 0.041198 0.000000 0.653680 0.106426
  3 -3.679068 -14.726417 5.057162 0.976194 0.216899 0.000000 0.653680 0.188755
  3 -3.729068 -14.136417 4.857162 0.999151 0.041198 0.000000 0.722944 0.106426
CSO_Woman_Knife.BMP
  3 -3.989068 -14.406417 3.497162 0.000000 0.000000 -1.000000 0.445887 0.457831
  3 -3.679068 -14.666417 3.487162 0.000000 0.000000 -1.000000 0.341991 0.497992
  3 -3.989068 -14.666417 3.487162 0.000000 0.000000 -1.000000 0.445887 0.497992
CSO_Woman_Knife.BMP
  3 -3.989068 -14.406417 3.497162 0.000000 0.000000 -1.000000 0.445887 0.457831
  3 -3.679068 -14.406417 3.497162 0.000000 0.000000 -1.000000 0.341991 0.457831
  3 -3.679068 -14.666417 3.487162 0.000000 0.000000 -1.000000 0.341991 0.497992
CSO_Woman_Knife.BMP
  3 -3.989068 -14.406417 3.497162 0.000000 0.000000 -1.000000 0.445887 0.457831
  3 -3.679068 -13.846417 3.497162 0.000000 0.000000 -1.000000 0.341991 0.373494
  3 -3.679068 -14.406417 3.497162 0.000000 0.000000 -1.000000 0.341991 0.457831
CSO_Woman_Knife.BMP
  3 -3.989068 -14.406417 3.497162 0.000000 0.000000 -1.000000 0.445887 0.457831
  3 -3.839068 -13.776417 3.497162 0.000000 0.000000 -1.000000 0.393939 0.363454
  3 -3.679068 -13.846417 3.497162 0.000000 0.000000 -1.000000 0.341991 0.373494
CSO_Woman_Knife.BMP
  3 -3.989068 -14.406417 3.497162 0.000000 0.000000 -1.000000 0.445887 0.457831
  3 -3.989068 -13.846417 3.497162 0.000000 0.000000 -1.000000 0.445887 0.373494
  3 -3.839068 -13.776417 3.497162 0.000000 0.000000 -1.000000 0.393939 0.363454
CSO_Woman_Knife.BMP
  3 -3.919068 -15.206417 10.527162 -0.983431 0.181206 -0.005200 0.173160 0.335341
  3 -3.839068 -14.766417 10.387162 -0.983431 0.181206 -0.005200 0.298701 0.351406
  3 -3.919068 -15.206417 10.107162 -0.983431 0.181206 -0.005200 0.173160 0.385542
CSO_Woman_Knife.BMP
  3 -3.919068 -15.206417 10.107162 -0.983431 0.181206 -0.005200 0.173160 0.385542
  3 -3.839068 -14.766417 10.387162 -0.983431 0.181206 -0.005200 0.298701 0.351406
  3 -3.919068 -15.206417 8.607162 -0.983431 0.181206 -0.005200 0.173160 0.568273
CSO_Woman_Knife.BMP
  3 -3.839068 -14.766417 10.387162 -0.983431 0.181206 -0.005200 0.298701 0.351406
  3 -3.839068 -14.766417 8.607162 -0.983431 0.181206 -0.005200 0.298701 0.568273
  3 -3.919068 -15.206417 8.607162 -0.983431 0.181206 -0.005200 0.173160 0.568273
CSO_Woman_Knife.BMP
  3 -3.919068 -15.206417 8.607162 -0.983431 0.181206 -0.005200 0.173160 0.568273
  3 -3.839068 -14.766417 8.607162 -0.983431 0.181206 -0.005200 0.298701 0.568273
  3 -3.919068 -15.206417 5.607162 -0.983431 0.181206 -0.005200 0.173160 0.929719
CSO_Woman_Knife.BMP
  3 -3.839068 -14.766417 8.607162 -0.983431 0.181206 -0.005200 0.298701 0.568273
  3 -3.839068 -14.766417 5.657162 -0.983431 0.181206 -0.005200 0.298701 0.923695
  3 -3.919068 -15.206417 5.607162 -0.983431 0.181206 -0.005200 0.173160 0.929719
CSO_Woman_Knife.BMP
  3 -3.989068 -14.686417 3.807162 -0.573076 0.818666 0.036998 0.904762 0.628514
  3 -3.679068 -14.726417 4.657162 0.573076 0.818666 0.036998 0.800866 0.520080
  3 -3.669068 -14.686417 3.807162 0.573076 0.818666 0.036998 0.809524 0.628514
CSO_Woman_Knife.BMP
  3 -3.669068 -14.686417 3.807162 0.573076 0.818666 0.036998 0.809524 0.628514
  3 -3.679068 -14.726417 4.657162 0.573076 0.818666 0.036998 0.800866 0.520080
  3 -3.489068 -15.206417 3.797162 1.000000 0.000000 0.000000 0.653680 0.628514
CSO_Woman_Knife.BMP
  3 -3.679068 -14.726417 4.657162 0.573076 0.818666 0.036998 0.800866 0.520080
  3 -3.499068 -15.206417 4.657162 1.000000 0.000000 0.000000 0.653680 0.520080
  3 -3.489068 -15.206417 3.797162 1.000000 0.000000 0.000000 0.653680 0.628514
CSO_Woman_Knife.BMP
  3 -3.489068 -15.206417 3.797162 1.000000 0.000000 0.000000 0.653680 0.628514
  3 -3.499068 -15.206417 4.657162 1.000000 0.000000 0.000000 0.653680 0.520080
  3 -3.679068 -15.686417 4.657162 0.581994 -0.813192 -0.001200 0.502165 0.520080
CSO_Woman_Knife.BMP
  3 -3.729068 -14.136417 5.057162 0.000000 0.000000 1.000000 0.489177 0.098394
  3 -3.949068 -14.136417 5.057162 0.000000 0.000000 1.000000 0.558442 0.098394
  3 -3.989068 -14.726417 5.057162 0.000000 0.000000 1.000000 0.575758 0.184739
CSO_Woman_Knife.BMP
  3 -3.729068 -14.136417 5.057162 0.000000 0.000000 1.000000 0.489177 0.098394
  3 -3.949068 -13.586417 5.057162 0.000000 0.000000 1.000000 0.558442 0.018072
  3 -3.949068 -14.136417 5.057162 0.000000 0.000000 1.000000 0.558442 0.098394
CSO_Woman_Knife.BMP
  3 -3.729068 -14.136417 5.057162 0.000000 0.000000 1.000000 0.489177 0.098394
  3 -3.839068 -13.536417 5.057162 0.000000 0.000000 1.000000 0.523810 0.012048
  3 -3.949068 -13.586417 5.057162 0.000000 0.000000 1.000000 0.558442 0.018072
CSO_Woman_Knife.BMP
  3 -3.729068 -14.136417 5.057162 0.000000 0.000000 1.000000 0.489177 0.098394
  3 -3.729068 -13.586417 5.057162 0.000000 0.000000 1.000000 0.489177 0.018072
  3 -3.839068 -13.536417 5.057162 0.000000 0.000000 1.000000 0.523810 0.012048
CSO_Woman_Knife.BMP
  3 -3.949068 -16.276417 5.057162 0.000000 0.000000 1.000000 0.558442 0.411647
  3 -3.729068 -16.276417 5.057162 0.000000 0.000000 1.000000 0.489177 0.411647
  3 -3.679068 -15.686417 5.057162 0.000000 0.000000 1.000000 0.471861 0.325301
CSO_Woman_Knife.BMP
  3 -3.949068 -16.276417 5.057162 0.000000 0.000000 1.000000 0.558442 0.411647
  3 -3.729068 -16.826417 5.057162 0.000000 0.000000 1.000000 0.489177 0.489960
  3 -3.729068 -16.276417 5.057162 0.000000 0.000000 1.000000 0.489177 0.411647
CSO_Woman_Knife.BMP
  3 -3.949068 -16.276417 5.057162 0.000000 0.000000 1.000000 0.558442 0.411647
  3 -3.839068 -16.876417 5.057162 0.000000 0.000000 1.000000 0.523810 0.495984
  3 -3.729068 -16.826417 5.057162 0.000000 0.000000 1.000000 0.489177 0.489960
CSO_Woman_Knife.BMP
  3 -3.949068 -16.276417 5.057162 0.000000 0.000000 1.000000 0.558442 0.411647
  3 -3.949068 -16.826417 5.057162 0.000000 0.000000 1.000000 0.558442 0.489960
  3 -3.839068 -16.876417 5.057162 0.000000 0.000000 1.000000 0.523810 0.495984
CSO_Woman_Knife.BMP
  3 -3.499068 -15.136417 1.707162 1.000000 0.000000 0.000000 0.658009 0.859438
  3 -3.679068 -14.646417 1.857162 0.614482 0.771377 0.165495 0.796537 0.841365
  3 -3.499068 -15.206417 3.477162 1.000000 0.000000 0.000000 0.636364 0.640562
CSO_Woman_Knife.BMP
  3 -3.499068 -15.206417 3.477162 1.000000 0.000000 0.000000 0.636364 0.640562
  3 -3.679068 -14.646417 1.857162 0.614482 0.771377 0.165495 0.796537 0.841365
  3 -3.679068 -14.666417 3.487162 0.573076 0.818666 0.036998 0.792208 0.640562
CSO_Woman_Knife.BMP
  3 -3.679068 -14.646417 1.857162 0.614482 0.771377 0.165495 0.796537 0.841365
  3 -3.989068 -14.646417 1.857162 -0.614482 0.771377 0.165495 0.887446 0.841365
  3 -3.679068 -14.666417 3.487162 0.573076 0.818666 0.036998 0.792208 0.640562
CSO_Woman_Knife.BMP
  3 -3.679068 -14.666417 3.487162 0.573076 0.818666 0.036998 0.792208 0.640562
  3 -3.989068 -14.646417 1.857162 -0.614482 0.771377 0.165495 0.887446 0.841365
  3 -3.989068 -14.666417 3.487162 -0.573076 0.818666 0.036998 0.887446 0.638554
CSO_Woman_Knife.BMP
  3 -4.169068 -15.036417 1.217162 -1.000000 0.000000 0.000000 0.688312 0.921687
  3 -4.169068 -14.846417 0.737162 -1.000000 0.000000 0.000000 0.740260 0.979920
  3 -3.989068 -15.526417 0.587162 -0.615111 -0.760014 -0.209804 0.545455 0.997992
CSO_Woman_Knife.BMP
  3 -4.169068 -15.036417 1.217162 -1.000000 0.000000 0.000000 0.688312 0.921687
  3 -3.989068 -14.286417 1.147162 -0.619380 0.680978 0.390688 0.900433 0.927711
  3 -4.169068 -14.846417 0.737162 -1.000000 0.000000 0.000000 0.740260 0.979920
CSO_Woman_Knife.BMP
  3 -4.169068 -15.036417 1.217162 -1.000000 0.000000 0.000000 0.688312 0.921687
  3 -3.989068 -14.486417 1.487162 -0.603894 0.714093 0.354096 0.844156 0.887550
  3 -3.989068 -14.286417 1.147162 -0.619380 0.680978 0.390688 0.900433 0.927711
CSO_Woman_Knife.BMP
  3 -4.169068 -15.036417 1.217162 -1.000000 0.000000 0.000000 0.688312 0.921687
  3 -4.169068 -15.136417 1.707162 -1.000000 0.000000 0.000000 0.658009 0.859438
  3 -3.989068 -14.486417 1.487162 -0.603894 0.714093 0.354096 0.844156 0.887550
CSO_Woman_Knife.BMP
  3 -3.839068 -13.796417 3.737162 0.000000 0.997603 0.069200 0.852814 0.024096
  3 -3.989068 -13.846417 3.497162 -0.399900 0.914500 0.061400 0.961039 0.050201
  3 -3.989068 -13.866417 3.737162 -0.399900 0.914500 0.061400 0.852814 0.054217
CSO_Woman_Knife.BMP
  3 -3.839068 -13.796417 3.737162 0.000000 0.997603 0.069200 0.852814 0.024096
  3 -3.839068 -13.776417 3.497162 0.000000 0.997603 0.069200 0.961039 0.020080
  3 -3.989068 -13.846417 3.497162 -0.399900 0.914500 0.061400 0.961039 0.050201
CSO_Woman_Knife.BMP
  3 -3.839068 -13.796417 3.737162 0.000000 0.997603 0.069200 0.852814 0.024096
  3 -3.679068 -13.846417 3.497162 0.396118 0.916341 0.058403 0.961039 0.050201
  3 -3.839068 -13.776417 3.497162 0.000000 0.997603 0.069200 0.961039 0.020080
CSO_Woman_Knife.BMP
  3 -3.839068 -13.796417 3.737162 0.000000 0.997603 0.069200 0.852814 0.024096
  3 -3.669068 -13.866417 3.737162 0.396118 0.916341 0.058403 0.852814 0.054217
  3 -3.679068 -13.846417 3.497162 0.396118 0.916341 0.058403 0.961039 0.050201
CSO_Woman_Knife.BMP
  3 -3.989068 -15.686417 4.657162 -0.581994 -0.813192 -0.001200 0.502165 0.520080
  3 -3.669068 -15.716417 3.797162 0.581994 -0.813192 -0.001200 0.398268 0.630522
  3 -3.679068 -15.686417 4.657162 0.581994 -0.813192 -0.001200 0.402597 0.520080
CSO_Woman_Knife.BMP
  3 -3.989068 -15.686417 4.657162 -0.581994 -0.813192 -0.001200 0.502165 0.520080
  3 -3.989068 -15.716417 3.797162 -0.581994 -0.813192 -0.001200 0.497835 0.630522
  3 -3.669068 -15.716417 3.797162 0.581994 -0.813192 -0.001200 0.398268 0.630522
CSO_Woman_Knife.BMP
  3 -3.989068 -15.686417 4.657162 -0.581994 -0.813192 -0.001200 0.502165 0.520080
  3 -4.169068 -15.206417 3.797162 -1.000000 0.000000 0.000000 0.653680 0.628514
  3 -3.989068 -15.716417 3.797162 -0.581994 -0.813192 -0.001200 0.497835 0.630522
CSO_Woman_Knife.BMP
  3 -3.989068 -15.686417 4.657162 -0.581994 -0.813192 -0.001200 0.502165 0.520080
  3 -4.169068 -15.206417 4.657162 -1.000000 0.000000 0.000000 0.653680 0.520080
  3 -4.169068 -15.206417 3.797162 -1.000000 0.000000 0.000000 0.653680 0.628514
CSO_Woman_Knife.BMP
  3 -3.679068 -14.666417 3.487162 0.986983 0.160697 -0.006400 0.965368 0.216867
  3 -3.679068 -14.406417 3.497162 1.000000 0.000000 0.000000 0.965368 0.164659
  3 -3.669068 -14.406417 3.737162 1.000000 0.000000 0.000000 0.852814 0.162651
CSO_Woman_Knife.BMP
  3 -3.669068 -14.406417 3.737162 1.000000 0.000000 0.000000 0.852814 0.162651
  3 -3.679068 -14.406417 3.497162 1.000000 0.000000 0.000000 0.965368 0.164659
  3 -3.669068 -14.036417 3.687162 1.000000 0.000000 0.000000 0.874459 0.088353
CSO_Woman_Knife.BMP
  3 -3.679068 -14.406417 3.497162 1.000000 0.000000 0.000000 0.965368 0.164659
  3 -3.679068 -13.846417 3.497162 1.000000 0.000000 0.000000 0.961039 0.050201
  3 -3.669068 -14.036417 3.687162 1.000000 0.000000 0.000000 0.874459 0.088353
CSO_Woman_Knife.BMP
  3 -3.669068 -14.036417 3.687162 1.000000 0.000000 0.000000 0.874459 0.088353
  3 -3.679068 -13.846417 3.497162 1.000000 0.000000 0.000000 0.961039 0.050201
  3 -3.669068 -13.866417 3.737162 1.000000 0.000000 0.000000 0.852814 0.054217
CSO_Woman_Knife.BMP
  3 -3.839068 -14.766417 8.607162 0.986983 0.160697 -0.006400 0.298701 0.568273
  3 -3.769068 -15.206417 5.607162 0.986983 0.160697 -0.006400 0.173160 0.929719
  3 -3.839068 -14.766417 5.657162 0.986983 0.160697 -0.006400 0.298701 0.923695
CSO_Woman_Knife.BMP
  3 -3.839068 -14.766417 8.607162 0.986983 0.160697 -0.006400 0.298701 0.568273
  3 -3.769068 -15.206417 8.607162 0.986983 0.160697 -0.006400 0.173160 0.568273
  3 -3.769068 -15.206417 5.607162 0.986983 0.160697 -0.006400 0.173160 0.929719
CSO_Woman_Knife.BMP
  3 -3.839068 -14.766417 8.607162 0.986983 0.160697 -0.006400 0.298701 0.568273
  3 -3.769068 -15.206417 10.527162 0.986983 0.160697 -0.006400 0.173160 0.335341
  3 -3.769068 -15.206417 8.607162 0.986983 0.160697 -0.006400 0.173160 0.568273
CSO_Woman_Knife.BMP
  3 -3.839068 -14.766417 8.607162 0.986983 0.160697 -0.006400 0.298701 0.568273
  3 -3.839068 -14.766417 10.387162 0.986983 0.160697 -0.006400 0.298701 0.351406
  3 -3.769068 -15.206417 10.527162 0.986983 0.160697 -0.006400 0.173160 0.335341
CSO_Woman_Knife.BMP
  3 -3.919068 -15.656417 5.607162 -1.000000 0.000000 0.000000 0.043290 0.929719
  3 -3.919068 -15.206417 5.607162 -1.000000 0.000000 0.000000 0.173160 0.929719
  3 -3.919068 -15.656417 5.057162 -1.000000 0.000000 0.000000 0.043290 1.000000
CSO_Woman_Knife.BMP
  3 -3.919068 -15.656417 5.057162 -1.000000 0.000000 0.000000 0.043290 1.000000
  3 -3.919068 -15.206417 5.607162 -1.000000 0.000000 0.000000 0.173160 0.929719
  3 -3.919068 -15.206417 5.057162 -1.000000 0.000000 0.000000 0.173160 1.000000
CSO_Woman_Knife.BMP
  3 -3.919068 -15.206417 5.607162 -1.000000 0.000000 0.000000 0.173160 0.929719
  3 -3.919068 -14.766417 5.607162 -1.000000 0.000000 0.000000 0.298701 0.929719
  3 -3.919068 -15.206417 5.057162 -1.000000 0.000000 0.000000 0.173160 1.000000
CSO_Woman_Knife.BMP
  3 -3.919068 -15.206417 5.057162 -1.000000 0.000000 0.000000 0.173160 1.000000
  3 -3.919068 -14.766417 5.607162 -1.000000 0.000000 0.000000 0.298701 0.929719
  3 -3.919068 -14.766417 5.057162 -1.000000 0.000000 0.000000 0.298701 1.000000
CSO_Woman_Knife.BMP
  3 -3.769068 -15.656417 5.057162 1.000000 0.000000 0.000000 0.043290 1.000000
  3 -3.769068 -15.206417 5.057162 1.000000 0.000000 0.000000 0.173160 1.000000
  3 -3.769068 -15.656417 5.607162 1.000000 0.000000 0.000000 0.043290 0.929719
CSO_Woman_Knife.BMP
  3 -3.769068 -15.656417 5.607162 1.000000 0.000000 0.000000 0.043290 0.929719
  3 -3.769068 -15.206417 5.057162 1.000000 0.000000 0.000000 0.173160 1.000000
  3 -3.769068 -15.206417 5.607162 1.000000 0.000000 0.000000 0.173160 0.929719
CSO_Woman_Knife.BMP
  3 -3.769068 -15.206417 5.057162 1.000000 0.000000 0.000000 0.173160 1.000000
  3 -3.769068 -14.766417 5.057162 1.000000 0.000000 0.000000 0.298701 1.000000
  3 -3.769068 -15.206417 5.607162 1.000000 0.000000 0.000000 0.173160 0.929719
CSO_Woman_Knife.BMP
  3 -3.769068 -15.206417 5.607162 1.000000 0.000000 0.000000 0.173160 0.929719
  3 -3.769068 -14.766417 5.057162 1.000000 0.000000 0.000000 0.298701 1.000000
  3 -3.769068 -14.766417 5.607162 1.000000 0.000000 0.000000 0.298701 0.929719
CSO_Woman_Knife.BMP
  3 -3.679068 -14.286417 1.147162 0.000000 0.587220 -0.809427 0.329004 0.000000
  3 -3.499068 -14.846417 0.737162 0.000000 0.411790 -0.911279 0.290043 0.058233
  3 -4.169068 -14.846417 0.737162 0.000000 0.411790 -0.911279 0.441558 0.058233
CSO_Woman_Knife.BMP
  3 -4.169068 -14.846417 0.737162 0.000000 0.411790 -0.911279 0.441558 0.058233
  3 -3.499068 -14.846417 0.737162 0.000000 0.411790 -0.911279 0.290043 0.058233
  3 -3.989068 -15.526417 0.587162 0.000000 0.220497 -0.975388 0.402597 0.128514
CSO_Woman_Knife.BMP
  3 -3.499068 -14.846417 0.737162 0.000000 0.411790 -0.911279 0.290043 0.058233
  3 -3.679068 -15.526417 0.587162 0.000000 0.220497 -0.975388 0.329004 0.128514
  3 -3.989068 -15.526417 0.587162 0.000000 0.220497 -0.975388 0.402597 0.128514
CSO_Woman_Knife.BMP
  3 -3.839068 -15.656417 5.657162 0.000000 -1.000000 0.000000 0.025974 0.032129
  3 -3.919068 -15.656417 5.607162 0.000000 -1.000000 0.000000 0.051948 0.040161
  3 -3.769068 -15.656417 5.607162 0.000000 -1.000000 0.000000 0.000000 0.040161
CSO_Woman_Knife.BMP
  3 -3.769068 -15.656417 5.607162 0.000000 -1.000000 0.000000 0.000000 0.040161
  3 -3.919068 -15.656417 5.607162 0.000000 -1.000000 0.000000 0.051948 0.040161
  3 -3.769068 -15.656417 5.057162 0.000000 -1.000000 0.000000 0.000000 0.128514
CSO_Woman_Knife.BMP
  3 -3.919068 -15.656417 5.607162 0.000000 -1.000000 0.000000 0.051948 0.040161
  3 -3.919068 -15.656417 5.057162 0.000000 -1.000000 0.000000 0.051948 0.128514
  3 -3.769068 -15.656417 5.057162 0.000000 -1.000000 0.000000 0.000000 0.128514
CSO_Woman_Knife.BMP
  3 -3.919068 -15.206417 10.107162 -0.986805 -0.161401 0.012900 0.173160 0.385542
  3 -3.919068 -15.206417 8.607162 -0.986805 -0.161401 0.012900 0.173160 0.568273
  3 -3.839068 -15.656417 8.607162 -0.986805 -0.161401 0.012900 0.043290 0.568273
CSO_Woman_Knife.BMP
  3 -3.839068 -15.656417 8.607162 -0.986805 -0.161401 0.012900 0.043290 0.568273
  3 -3.919068 -15.206417 8.607162 -0.986805 -0.161401 0.012900 0.173160 0.568273
  3 -3.839068 -15.656417 5.657162 -0.986805 -0.161401 0.012900 0.043290 0.923695
CSO_Woman_Knife.BMP
  3 -3.919068 -15.206417 8.607162 -0.986805 -0.161401 0.012900 0.173160 0.568273
  3 -3.919068 -15.206417 5.607162 -0.986805 -0.161401 0.012900 0.173160 0.929719
  3 -3.839068 -15.656417 5.657162 -0.986805 -0.161401 0.012900 0.043290 0.923695
CSO_Woman_Knife.BMP
  3 -3.839068 -14.766417 5.657162 0.000000 1.000000 0.000000 0.025974 0.032129
  3 -3.769068 -14.766417 5.607162 0.000000 1.000000 0.000000 0.000000 0.040161
  3 -3.919068 -14.766417 5.607162 0.000000 1.000000 0.000000 0.051948 0.040161
CSO_Woman_Knife.BMP
  3 -3.919068 -14.766417 5.607162 0.000000 1.000000 0.000000 0.051948 0.040161
  3 -3.769068 -14.766417 5.607162 0.000000 1.000000 0.000000 0.000000 0.040161
  3 -3.919068 -14.766417 5.057162 0.000000 1.000000 0.000000 0.051948 0.128514
CSO_Woman_Knife.BMP
  3 -3.769068 -14.766417 5.607162 0.000000 1.000000 0.000000 0.000000 0.040161
  3 -3.769068 -14.766417 5.057162 0.000000 1.000000 0.000000 0.000000 0.128514
  3 -3.919068 -14.766417 5.057162 0.000000 1.000000 0.000000 0.051948 0.128514
CSO_Woman_Knife.BMP
  3 -3.839068 -15.316417 13.207162 0.989271 -0.144796 0.019399 0.138528 0.008032
  3 -3.839068 -15.456417 12.197162 0.989271 -0.144796 0.019399 0.103896 0.130522
  3 -3.819068 -15.276417 12.727162 0.989271 -0.144796 0.019399 0.151515 0.066265
CSO_Woman_Knife.BMP
  3 -3.819068 -15.276417 12.727162 0.989271 -0.144796 0.019399 0.151515 0.066265
  3 -3.839068 -15.456417 12.197162 0.989271 -0.144796 0.019399 0.103896 0.130522
  3 -3.809068 -15.256417 12.387162 0.989271 -0.144796 0.019399 0.155844 0.108434
CSO_Woman_Knife.BMP
  3 -3.839068 -15.456417 12.197162 0.989271 -0.144796 0.019399 0.103896 0.130522
  3 -3.809068 -15.236417 12.047162 0.989271 -0.144796 0.019399 0.164502 0.148594
  3 -3.809068 -15.256417 12.387162 0.989271 -0.144796 0.019399 0.155844 0.108434
CSO_Woman_Knife.BMP
  3 -3.879068 -15.236417 12.047162 -0.986805 -0.161401 0.012900 0.164502 0.148594
  3 -3.839068 -15.456417 12.197162 -0.986805 -0.161401 0.012900 0.103896 0.130522
  3 -3.869068 -15.256417 12.387162 -0.986805 -0.161401 0.012900 0.155844 0.108434
CSO_Woman_Knife.BMP
  3 -3.869068 -15.256417 12.387162 -0.986805 -0.161401 0.012900 0.155844 0.108434
  3 -3.839068 -15.456417 12.197162 -0.986805 -0.161401 0.012900 0.103896 0.130522
  3 -3.859068 -15.276417 12.727162 -0.986805 -0.161401 0.012900 0.151515 0.066265
CSO_Woman_Knife.BMP
  3 -3.839068 -15.456417 12.197162 -0.986805 -0.161401 0.012900 0.103896 0.130522
  3 -3.839068 -15.316417 13.207162 -0.986805 -0.161401 0.012900 0.138528 0.008032
  3 -3.859068 -15.276417 12.727162 -0.986805 -0.161401 0.012900 0.151515 0.066265
CSO_Woman_Knife.BMP
  3 -3.949068 -16.826417 5.057162 -0.829379 -0.558686 0.000000 0.653680 0.487952
  3 -3.839068 -16.876417 4.807162 0.000000 -1.000000 0.000000 0.735931 0.506024
  3 -3.839068 -16.876417 5.057162 0.000000 -1.000000 0.000000 0.653680 0.506024
CSO_Woman_Knife.BMP
  3 -3.839068 -16.876417 5.057162 0.000000 -1.000000 0.000000 0.653680 0.506024
  3 -3.839068 -16.876417 4.807162 0.000000 -1.000000 0.000000 0.735931 0.506024
  3 -3.729068 -16.826417 5.057162 0.829379 -0.558686 0.000000 0.653680 0.487952
CSO_Woman_Knife.BMP
  3 -3.989068 -15.716417 3.467162 -0.581994 -0.813192 -0.001200 0.974026 0.429719
  3 -3.989068 -15.716417 3.797162 -0.581994 -0.813192 -0.001200 0.822511 0.429719
  3 -4.169068 -15.206417 3.477162 -1.000000 0.000000 0.000000 0.969697 0.325301
CSO_Woman_Knife.BMP
  3 -4.169068 -15.206417 3.477162 -1.000000 0.000000 0.000000 0.969697 0.325301
  3 -3.989068 -15.716417 3.797162 -0.581994 -0.813192 -0.001200 0.822511 0.429719
  3 -4.169068 -15.206417 3.797162 -1.000000 0.000000 0.000000 0.822511 0.325301
CSO_Woman_Knife.BMP
  3 -4.169068 -15.206417 4.657162 -1.000000 0.000000 0.000000 0.653680 0.520080
  3 -3.989068 -14.726417 4.657162 -0.573076 0.818666 0.036998 0.800866 0.520080
  3 -4.169068 -15.206417 3.797162 -1.000000 0.000000 0.000000 0.653680 0.628514
CSO_Woman_Knife.BMP
  3 -4.169068 -15.206417 3.797162 -1.000000 0.000000 0.000000 0.653680 0.628514
  3 -3.989068 -14.726417 4.657162 -0.573076 0.818666 0.036998 0.800866 0.520080
  3 -3.989068 -14.686417 3.807162 -0.573076 0.818666 0.036998 0.809524 0.628514
CSO_Woman_Knife.BMP
  3 -3.989068 -14.406417 3.737162 0.000000 0.245805 0.969319 0.450216 0.455823
  3 -3.989068 -14.686417 3.807162 0.000000 0.245805 0.969319 0.450216 0.497992
  3 -3.669068 -14.406417 3.737162 0.000000 0.245805 0.969319 0.337662 0.455823
CSO_Woman_Knife.BMP
  3 -3.669068 -14.406417 3.737162 0.000000 0.245805 0.969319 0.337662 0.455823
  3 -3.989068 -14.686417 3.807162 0.000000 0.245805 0.969319 0.450216 0.497992
  3 -3.669068 -14.686417 3.807162 0.000000 0.245805 0.969319 0.337662 0.497992
CSO_Woman_Knife.BMP
  3 -3.669068 -14.036417 3.687162 0.000000 0.129104 0.991631 0.337662 0.399598
  3 -3.989068 -14.036417 3.687162 0.000000 0.129104 0.991631 0.450216 0.399598
  3 -3.669068 -14.406417 3.737162 0.000000 0.129104 0.991631 0.337662 0.455823
CSO_Woman_Knife.BMP
  3 -3.669068 -14.406417 3.737162 0.000000 0.129104 0.991631 0.337662 0.455823
  3 -3.989068 -14.036417 3.687162 0.000000 0.129104 0.991631 0.450216 0.399598
  3 -3.989068 -14.406417 3.737162 0.000000 0.129104 0.991631 0.450216 0.455823
CSO_Woman_Knife.BMP
  3 -3.989068 -14.036417 3.687162 0.000000 -0.256486 0.966548 0.450216 0.399598
  3 -3.669068 -14.036417 3.687162 0.000000 -0.256486 0.966548 0.337662 0.399598
  3 -3.989068 -13.866417 3.737162 0.000000 -0.256486 0.966548 0.450216 0.373494
CSO_Woman_Knife.BMP
  3 -3.989068 -13.866417 3.737162 0.000000 -0.256486 0.966548 0.450216 0.373494
  3 -3.669068 -14.036417 3.687162 0.000000 -0.256486 0.966548 0.337662 0.399598
  3 -3.669068 -13.866417 3.737162 0.000000 -0.256486 0.966548 0.337662 0.373494
CSO_Woman_Knife.BMP
  3 -3.769068 -15.206417 5.607162 0.989271 -0.144796 0.019399 0.173160 0.929719
  3 -3.769068 -15.206417 8.607162 0.989271 -0.144796 0.019399 0.173160 0.568273
  3 -3.839068 -15.656417 5.657162 0.989271 -0.144796 0.019399 0.043290 0.923695
CSO_Woman_Knife.BMP
  3 -3.839068 -15.656417 5.657162 0.989271 -0.144796 0.019399 0.043290 0.923695
  3 -3.769068 -15.206417 8.607162 0.989271 -0.144796 0.019399 0.173160 0.568273
  3 -3.839068 -15.656417 8.607162 0.989271 -0.144796 0.019399 0.043290 0.568273
CSO_Woman_Knife.BMP
  3 -4.169068 -14.846417 0.737162 0.000000 0.411790 -0.911279 0.441558 0.058233
  3 -3.989068 -14.286417 1.147162 0.000000 0.587220 -0.809427 0.402597 0.000000
  3 -3.679068 -14.286417 1.147162 0.000000 0.587220 -0.809427 0.329004 0.000000
CSO_Woman_Knife.BMP
  3 -3.989068 -14.686417 3.807162 -0.573076 0.818666 0.036998 0.904762 0.628514
  3 -3.989068 -14.726417 4.657162 -0.573076 0.818666 0.036998 0.904762 0.520080
  3 -3.679068 -14.726417 4.657162 0.573076 0.818666 0.036998 0.800866 0.520080
CSO_Woman_Knife.BMP
  3 -3.679068 -14.726417 4.657162 0.000000 0.313496 -0.949589 0.471861 0.184739
  3 -3.989068 -14.726417 4.657162 0.000000 0.313496 -0.949589 0.575758 0.184739
  3 -3.949068 -14.136417 4.857162 0.000000 0.145200 -0.989402 0.558442 0.098394
CSO_Woman_Knife.BMP
  3 -3.989068 -15.686417 4.657162 0.000000 -0.313496 -0.949589 0.575758 0.325301
  3 -3.679068 -15.686417 4.657162 0.000000 -0.313496 -0.949589 0.471861 0.325301
  3 -3.729068 -16.276417 4.857162 0.000000 -0.145200 -0.989402 0.489177 0.411647
CSO_Woman_Knife.BMP
  3 -4.169068 -15.206417 3.477162 -1.000000 0.000000 0.000000 0.636364 0.640562
  3 -3.989068 -14.666417 3.487162 -0.573076 0.818666 0.036998 0.792208 0.640562
  3 -3.989068 -14.646417 1.857162 -0.614482 0.771377 0.165495 0.796537 0.841365
CSO_Woman_Knife.BMP
  3 -3.499068 -15.036417 1.217162 1.000000 0.000000 0.000000 0.688312 0.921687
  3 -3.499068 -14.846417 0.737162 1.000000 0.000000 0.000000 0.740260 0.979920
  3 -3.679068 -14.286417 1.147162 0.619380 0.680978 0.390688 0.900433 0.927711
CSO_Woman_Knife.BMP
  3 -3.679068 -15.686417 4.657162 0.581994 -0.813192 -0.001200 0.502165 0.520080
  3 -3.669068 -15.716417 3.797162 0.581994 -0.813192 -0.001200 0.497835 0.630522
  3 -3.489068 -15.206417 3.797162 1.000000 0.000000 0.000000 0.653680 0.628514
CSO_Woman_Knife.BMP
  3 -3.669068 -13.866417 3.737162 0.000000 0.000000 1.000000 0.337662 0.373494
  3 -3.839068 -13.796417 3.737162 0.000000 0.000000 1.000000 0.393939 0.363454
  3 -3.989068 -13.866417 3.737162 0.000000 0.000000 1.000000 0.450216 0.373494
CSO_Woman_Knife.BMP
  3 -3.839068 -15.146417 12.867162 -0.994551 0.096395 0.039698 0.190476 0.050201
  3 -3.859068 -15.276417 12.727162 -0.994551 0.096395 0.039698 0.151515 0.066265
  3 -3.839068 -15.316417 13.207162 -0.994551 0.096395 0.039698 0.138528 0.008032
CSO_Woman_Knife.BMP
  3 -3.919068 -15.206417 5.607162 -0.533688 0.000000 0.845681 0.173160 0.929719
  3 -3.919068 -15.656417 5.607162 -0.533688 0.000000 0.845681 0.043290 0.929719
  3 -3.839068 -15.656417 5.657162 -0.533688 0.000000 0.845681 0.043290 0.923695
CSO_Woman_Knife.BMP
  3 -3.839068 -14.766417 5.657162 -0.533688 0.000000 0.845681 0.298701 0.923695
  3 -3.919068 -14.766417 5.607162 -0.533688 0.000000 0.845681 0.298701 0.929719
  3 -3.919068 -15.206417 5.607162 -0.533688 0.000000 0.845681 0.173160 0.929719
CSO_Woman_Knife.BMP
  3 -3.839068 -15.656417 5.657162 0.533688 0.000000 0.845681 0.043290 0.923695
  3 -3.769068 -15.656417 5.607162 0.533688 0.000000 0.845681 0.043290 0.929719
  3 -3.769068 -15.206417 5.607162 0.533688 0.000000 0.845681 0.173160 0.929719
CSO_Woman_Knife.BMP
  3 -3.769068 -15.206417 5.607162 0.533688 0.000000 0.845681 0.173160 0.929719
  3 -3.769068 -14.766417 5.607162 0.533688 0.000000 0.845681 0.298701 0.929719
  3 -3.839068 -14.766417 5.657162 0.533688 0.000000 0.845681 0.298701 0.923695
CSO_Woman_Knife.BMP
  3 -3.839068 -14.796417 11.407162 -0.994551 0.096395 0.039698 0.290043 0.226908
  3 -3.839068 -14.766417 10.387162 -0.983431 0.181206 -0.005200 0.298701 0.351406
  3 -3.919068 -15.206417 10.527162 -0.983431 0.181206 -0.005200 0.173160 0.335341
CSO_Woman_Knife.BMP
  3 -3.769068 -15.206417 10.527162 0.986983 0.160697 -0.006400 0.173160 0.335341
  3 -3.839068 -14.766417 10.387162 0.986983 0.160697 -0.006400 0.298701 0.351406
  3 -3.839068 -14.796417 11.407162 0.992126 0.123703 0.019601 0.290043 0.226908
end
