// Created by Crowbar 0.34.0.0

$ModelName "weapons/tfa_cso/w_sl8ex.mdl"

$BodyGroup "studio"
{
	studio "v_sl8ex_Ref_sl8_ex.smd"
}

$collisionmodel "v_sl8ex_Ref_sl8_ex.smd"
{
	$mass 9
}

$CDMaterials "models\weapons\tfa_cso\sl8ex\"

$attachment "0" "root" 0.00 -18.00 -0.40 rotate -0 0 0

$Sequence "idle" {
	"anims\idle.smd"
	fps 30
}