version 1
nodes
  0 "gunkata_root" -1
  1 "slide" 0
  2 "gunkata_knife" 0
  3 "kata_triger" 0
  4 "kata_2" 0
  5 "gunkata_root001" -1
  6 "slide001" 5
  7 "gunkata_megazine001" 5
  8 "gunkata_knife001" 5
  9 "kata_triger001" 5
  10 "kata_005" 5
  11 "fx01" -1
  12 "fx02" -1
  13 "trail01" -1
  14 "trail02" 13
  15 "root" -1
  16 "Bone01" 15
  17 "Bone_L_Upper" 16
  18 "Bone_Lefthand" 16
  19 "Bone13" 18
  20 "Bone14" 19
  21 "Bone15" 20
  22 "Bone17" 18
  23 "Bone18" 22
  24 "Bone19" 23
  25 "Bone21" 18
  26 "Bone22" 25
  27 "Bone23" 26
  28 "Bone09" 18
  29 "Bone10" 28
  30 "Bone11" 29
  31 "Bone05" 18
  32 "Bone06" 31
  33 "Bone07" 32
  34 "Bone_Se_Hand-L" 18
  35 "Bone04" 15
  36 "Bone_Righthand" 35
  37 "Bone39" 36
  38 "Bone40" 37
  39 "Bone41" 38
  40 "Bone35" 36
  41 "Bone36" 40
  42 "Bone37" 41
  43 "Bone31" 36
  44 "Bone32" 43
  45 "Bone33" 44
  46 "Bone43" 36
  47 "Bone44" 46
  48 "Bone45" 47
  49 "Bone27" 36
  50 "Bone28" 49
  51 "Bone29" 50
  52 "Bone_Se_Hand-R" 36
  53 "Bone_R_Upper" 35
end
skeleton
  time 0
    0 0.511734 -5.367351 -24.563250 -1.420172 -1.378253 -0.902198
    1 3.096915 -0.000001 -3.559005 -3.141592 -1.570451 0.000000
    2 -3.157606 0.000000 -1.771385 0.000000 3.141592 0.000000
    3 1.347458 0.000000 -0.036606 0.000001 -3.141592 0.000000
    4 2.980681 -0.000001 -3.026972 0.000000 0.000000 0.000000
    5 -11.855831 -0.875332 5.207190 3.178782 1.005397 1.445638
    6 3.096915 -0.000002 -3.559005 -3.141592 -1.570451 0.000000
    7 -2.772562 -0.000001 -3.715392 0.000000 -0.478942 0.000000
    8 -3.157606 0.000001 -1.771385 0.000000 3.141592 0.000000
    9 1.347458 0.000000 -0.036606 0.000001 -3.141592 0.000000
    10 2.980681 -0.000001 -3.026972 0.000000 0.000000 0.000000
    11 0.563432 -7.857068 -21.840510 3.108050 0.111405 -0.887638
    12 0.563432 -7.857068 -21.840510 3.108015 0.111405 -0.887638
    13 -9.396409 -5.520879 5.869215 0.983017 1.081728 -4.875605
    14 0.000002 67.605485 -0.000010 0.000000 0.000000 0.000000
    15 -0.018378 3.514467 -6.116755 0.000000 0.000000 0.011852
    16 8.005376 -1.029952 -7.065603 4.888083 -2.644685 0.869747
    17 5.905759 6.969561 -0.255279 1.565319 -3.132647 0.965140
    18 -0.107078 -8.401077 -0.174449 -0.442888 0.059102 -0.035259
    19 -0.488518 -2.755602 -0.228260 -0.745251 0.051068 -0.423382
    20 0.039887 -1.530573 0.014229 -1.485001 -0.012104 0.033019
    21 0.028786 -1.196828 -0.132487 -1.277422 -0.014849 0.028380
    22 0.250027 -2.820665 -0.238396 -0.301529 -0.010232 -0.328312
    23 -0.049759 -1.598510 0.037977 -1.463482 0.002109 -0.039707
    24 -0.034142 -1.171750 0.045718 -1.169340 0.006568 -0.030800
    25 0.957766 -2.746780 -0.090302 -0.060511 -0.107136 -0.250327
    26 -0.033420 -1.397129 -0.026882 -0.833373 0.006687 -0.041000
    27 -0.022360 -0.961342 -0.004654 -0.863237 0.005836 -0.042042
    28 -1.180681 -2.507217 -0.193859 -0.667273 0.219944 -0.377532
    29 -0.024967 -1.127840 0.017597 -0.998794 0.003967 -0.042796
    30 -0.020057 -0.902687 0.025715 -0.831369 0.007335 -0.033509
    31 0.614761 -1.208996 0.197098 0.029646 -1.044020 -0.169091
    32 1.457800 -0.239762 0.075324 0.065096 -0.234119 -0.860323
    33 0.987486 -0.190791 0.047917 0.109811 -0.259457 -1.139139
    34 0.120153 -0.050270 -0.054489 0.287569 3.110905 1.561085
    35 -10.310138 -3.883562 -3.509203 1.405014 -3.724267 0.601184
    36 -0.004622 -8.501201 0.053137 0.119994 -0.811856 -0.597759
    37 0.447953 -2.798986 -0.200443 -0.171370 -0.016065 0.194900
    38 -0.032909 -1.499736 0.028378 -1.435653 0.023358 -0.027754
    39 -0.027022 -1.127703 -0.020210 -1.265383 0.024473 -0.023226
    40 -0.249534 -2.846964 -0.174213 -0.152458 0.086464 0.063092
    41 0.043235 -1.656596 0.068667 -1.387690 -0.021757 0.006952
    42 0.031729 -1.141298 0.054932 -1.279928 -0.014315 0.007090
    43 -0.963866 -2.785145 -0.085350 0.053166 0.155589 -0.150065
    44 0.028479 -1.403067 -0.009354 -0.625488 -0.012812 -0.025383
    45 0.021413 -0.946062 0.016140 -0.619923 -0.012656 -0.024712
    46 1.164475 -2.543940 -0.170330 -0.114810 -0.080408 0.140285
    47 0.024032 -1.148574 -0.009538 -1.265292 0.022124 0.061853
    48 0.014898 -0.899614 -0.015942 -0.891250 0.005297 0.045050
    49 -0.586770 -1.264477 0.200161 -0.316722 -1.034155 -2.553877
    50 1.565805 0.035243 0.016848 -0.018676 -0.006907 0.887549
    51 1.114041 0.044518 -0.005766 -0.025854 -0.034738 0.943911
    52 -0.139399 -0.111698 0.014397 0.285382 -0.030687 1.580508
    53 -8.678849 -0.590798 -0.501160 1.562493 -0.037810 -0.005190
  time 1
    0 0.511734 -5.367351 -24.563250 -1.420172 -1.378253 -0.902198
    1 3.096915 -0.000001 -3.559005 -3.141592 -1.570451 0.000000
    2 -3.157606 0.000000 -1.771385 0.000000 3.141592 0.000000
    3 1.347458 0.000000 -0.036606 0.000001 -3.141592 0.000000
    4 2.980681 -0.000001 -3.026972 0.000000 0.000000 0.000000
    5 -12.226936 -10.367809 5.011872 -0.157116 -3.574463 -1.519251
    6 3.096915 -0.000002 -3.559005 -3.141592 -1.570451 0.000000
    7 -2.772562 -0.000001 -3.715392 0.000000 -0.478942 0.000000
    8 -3.157606 0.000001 -1.771385 0.000000 3.141592 0.000000
    9 1.347458 0.000000 -0.036606 0.000001 -3.141592 0.000000
    10 2.980681 -0.000001 -3.026972 0.000000 0.000000 0.000000
    11 0.563432 -7.857068 -21.840510 -2.546727 0.111405 -0.887638
    12 0.563432 -7.857068 -21.840510 -2.860931 0.111405 -0.887638
    13 -7.142434 -13.449984 8.665814 0.983017 1.081728 -4.875605
    14 0.000002 50.702626 -0.000010 0.000000 0.000000 0.000000
    15 -0.018378 3.514467 -6.116755 0.000000 0.000000 0.011852
    16 8.005376 -1.029952 -7.065603 4.888083 -2.644685 0.869747
    17 5.905759 6.969561 -0.255279 1.565319 -3.132647 0.965140
    18 -0.107078 -8.401077 -0.174449 -0.442888 0.059102 -0.035259
    19 -0.488518 -2.755602 -0.228260 -0.745251 0.051068 -0.423382
    20 0.039887 -1.530573 0.014229 -1.485001 -0.012104 0.033019
    21 0.028786 -1.196828 -0.132487 -1.277422 -0.014849 0.028380
    22 0.250027 -2.820665 -0.238396 -0.301529 -0.010232 -0.328312
    23 -0.049759 -1.598510 0.037977 -1.463482 0.002109 -0.039707
    24 -0.034142 -1.171750 0.045718 -1.169340 0.006568 -0.030800
    25 0.957766 -2.746780 -0.090302 -0.060511 -0.107136 -0.250327
    26 -0.033420 -1.397129 -0.026882 -0.833373 0.006687 -0.041000
    27 -0.022360 -0.961342 -0.004654 -0.863237 0.005836 -0.042042
    28 -1.180681 -2.507217 -0.193859 -0.667273 0.219944 -0.377532
    29 -0.024967 -1.127840 0.017597 -0.998794 0.003967 -0.042796
    30 -0.020057 -0.902687 0.025715 -0.831369 0.007335 -0.033509
    31 0.614761 -1.208996 0.197098 0.029646 -1.044020 -0.169091
    32 1.457800 -0.239762 0.075324 0.065096 -0.234119 -0.860323
    33 0.987486 -0.190791 0.047917 0.109811 -0.259457 -1.139139
    34 0.120153 -0.050270 -0.054489 0.287569 3.110905 1.561085
    35 -9.646055 -6.395358 -2.798244 1.260998 -3.981566 0.803173
    36 -0.000715 -8.446512 0.041418 -0.133570 -0.810783 -0.148062
    37 0.447953 -2.798986 -0.200443 -0.171370 -0.016065 0.194900
    38 -0.032909 -1.499736 0.028378 -1.435653 0.023358 -0.027754
    39 -0.027022 -1.127703 -0.020210 -1.265383 0.024473 -0.023226
    40 -0.249534 -2.846964 -0.174213 -0.152458 0.086464 0.063092
    41 0.043235 -1.656596 0.068667 -1.387690 -0.021757 0.006952
    42 0.031729 -1.141298 0.054932 -1.279928 -0.014315 0.007090
    43 -0.963866 -2.785145 -0.085350 0.053166 0.155589 -0.150065
    44 0.028479 -1.403067 -0.009354 -0.625488 -0.012812 -0.025383
    45 0.021413 -0.946062 0.016140 -0.619942 -0.012656 -0.024712
    46 1.164475 -2.543940 -0.170330 -0.114810 -0.080408 0.140285
    47 0.024032 -1.148574 -0.009538 -1.265292 0.022124 0.061853
    48 0.014898 -0.899614 -0.015942 -0.891250 0.005297 0.045050
    49 -0.586770 -1.264477 0.200161 -0.316722 -1.034155 -2.553877
    50 1.565805 0.035243 0.016848 -0.018676 -0.006907 0.887549
    51 1.114041 0.044518 -0.005766 -0.025854 -0.034738 0.943911
    52 -0.139399 -0.111698 0.014397 0.285382 -0.030687 1.580508
    53 -8.346807 3.436669 -0.462096 1.573230 -0.031788 -0.469790
  time 2
    0 0.511734 -5.367351 -24.563250 -1.420172 -1.378253 -0.902198
    1 3.096915 -0.000001 -3.559005 -3.141592 -1.570451 0.000000
    2 -3.157606 0.000000 -1.771385 0.000000 3.141592 0.000000
    3 1.347458 0.000000 -0.036606 0.000001 -3.141592 0.000000
    4 2.980681 -0.000001 -3.026972 0.000000 0.000000 0.000000
    5 -7.433821 -18.805567 1.003937 -0.231256 -2.945103 -1.242778
    6 3.096915 -0.000002 -3.559005 -3.141592 -1.570451 0.000000
    7 -2.772562 -0.000001 -3.715392 0.000000 -0.478942 0.000000
    8 -3.157606 0.000001 -1.771385 0.000000 3.141592 0.000000
    9 1.347458 0.000000 -0.036606 0.000001 -3.141592 0.000000
    10 2.980681 -0.000001 -3.026972 0.000000 0.000000 0.000000
    11 0.563432 -7.857068 -21.840510 -1.918451 0.111405 -0.887638
    12 0.563432 -7.857068 -21.840510 -2.546786 0.111405 -0.887638
    13 -3.064185 -19.363664 2.498954 0.983017 1.081728 -4.875605
    14 0.000002 33.807579 -0.000010 0.000000 0.000000 0.000000
    15 -0.018378 3.514467 -6.116755 0.000000 0.000000 0.011852
    16 8.005376 -1.029952 -7.065603 4.888083 -2.644685 0.869747
    17 5.905759 6.969561 -0.255279 1.565319 -3.132647 0.965140
    18 -0.107078 -8.401077 -0.174449 -0.442888 0.059102 -0.035259
    19 -0.488518 -2.755602 -0.228260 -0.745251 0.051068 -0.423382
    20 0.039887 -1.530573 0.014229 -1.485001 -0.012104 0.033019
    21 0.028786 -1.196828 -0.132487 -1.277422 -0.014849 0.028380
    22 0.250027 -2.820665 -0.238396 -0.301529 -0.010232 -0.328312
    23 -0.049759 -1.598510 0.037977 -1.463482 0.002109 -0.039707
    24 -0.034142 -1.171750 0.045718 -1.169340 0.006568 -0.030800
    25 0.957766 -2.746780 -0.090302 -0.060511 -0.107136 -0.250327
    26 -0.033420 -1.397129 -0.026882 -0.833373 0.006687 -0.041000
    27 -0.022360 -0.961342 -0.004654 -0.863237 0.005836 -0.042042
    28 -1.180681 -2.507217 -0.193859 -0.667273 0.219944 -0.377532
    29 -0.024967 -1.127840 0.017597 -0.998794 0.003967 -0.042796
    30 -0.020057 -0.902687 0.025715 -0.831369 0.007335 -0.033509
    31 0.614761 -1.208996 0.197098 0.029646 -1.044020 -0.169091
    32 1.457800 -0.239762 0.075324 0.065096 -0.234119 -0.860323
    33 0.987486 -0.190791 0.047917 0.109811 -0.259457 -1.139139
    34 0.120153 -0.050270 -0.054489 0.287569 3.110905 1.561085
    35 -8.106946 -8.422763 -2.149786 0.855543 -4.199259 0.724941
    36 -0.008528 -8.391823 0.021886 -0.354133 -0.736019 0.271755
    37 0.447953 -2.798986 -0.200443 -0.171370 -0.016065 0.194900
    38 -0.032909 -1.499736 0.028378 -1.435653 0.023358 -0.027754
    39 -0.027022 -1.127703 -0.020210 -1.265383 0.024473 -0.023226
    40 -0.249534 -2.846964 -0.174213 -0.152458 0.086464 0.063092
    41 0.043235 -1.656596 0.068667 -1.387690 -0.021757 0.006952
    42 0.031729 -1.141298 0.054932 -1.279928 -0.014315 0.007090
    43 -0.963866 -2.785145 -0.085350 0.053166 0.155589 -0.150065
    44 0.028479 -1.403067 -0.009354 -0.625488 -0.012812 -0.025383
    45 0.021413 -0.946062 0.016140 -0.619923 -0.012656 -0.024712
    46 1.164475 -2.543940 -0.170330 -0.114810 -0.080408 0.140285
    47 0.024032 -1.148574 -0.009538 -1.265292 0.022124 0.061853
    48 0.014898 -0.899614 -0.015942 -0.891250 0.005297 0.045050
    49 -0.586770 -1.264477 0.200161 -0.316722 -1.034155 -2.553877
    50 1.565805 0.035243 0.016848 -0.018676 -0.006907 0.887549
    51 1.114041 0.044518 -0.005766 -0.025854 -0.034738 0.943911
    52 -0.139399 -0.111698 0.014397 0.285382 -0.030687 1.580508
    53 -6.249087 6.885993 -0.383969 1.580133 -0.021560 -0.934200
  time 3
    0 0.511734 -5.367351 -24.563250 -1.420172 -1.378253 -0.902198
    1 3.096915 -0.000001 -3.559005 -3.141592 -1.570451 0.000000
    2 -3.157606 0.000000 -1.771385 0.000000 3.141592 0.000000
    3 1.347458 0.000000 -0.036606 0.000001 -3.141592 0.000000
    4 2.980681 -0.000001 -3.026972 0.000000 0.000000 0.000000
    5 -2.461013 -22.004883 -4.285287 -0.274168 -2.445125 -1.049983
    6 3.096915 -0.000002 -3.559005 -3.141592 -1.570451 0.000000
    7 -2.772562 -0.000001 -3.715392 0.000000 -0.478942 0.000000
    8 -3.157606 0.000001 -1.771385 0.000000 3.141592 0.000000
    9 1.347458 0.000000 -0.036606 0.000001 -3.141592 0.000000
    10 2.980681 -0.000001 -3.026972 0.000000 0.000000 0.000000
    11 0.563432 -7.857068 -21.840510 -1.290078 0.111405 -0.887638
    12 0.563432 -7.857068 -21.840510 -2.232546 0.111405 -0.887638
    13 4.357917 -31.694880 -6.679628 0.983017 1.081728 -4.875605
    14 0.000002 16.904719 -0.000010 0.000000 0.000000 0.000000
    15 -0.018378 3.514467 -6.116755 0.000000 0.000000 0.011852
    16 8.005376 -1.029952 -7.065603 4.888083 -2.644685 0.869747
    17 5.905759 6.969561 -0.255279 1.565319 -3.132647 0.965140
    18 -0.107078 -8.401077 -0.174449 -0.442888 0.059102 -0.035259
    19 -0.488518 -2.755602 -0.228260 -0.745251 0.051068 -0.423382
    20 0.039887 -1.530573 0.014229 -1.485001 -0.012104 0.033019
    21 0.028786 -1.196828 -0.132487 -1.277422 -0.014849 0.028380
    22 0.250027 -2.820665 -0.238396 -0.301529 -0.010232 -0.328312
    23 -0.049759 -1.598510 0.037977 -1.463482 0.002109 -0.039707
    24 -0.034142 -1.171750 0.045718 -1.169340 0.006568 -0.030800
    25 0.957766 -2.746780 -0.090302 -0.060511 -0.107136 -0.250327
    26 -0.033420 -1.397129 -0.026882 -0.833373 0.006687 -0.041000
    27 -0.022360 -0.961342 -0.004654 -0.863237 0.005836 -0.042042
    28 -1.180681 -2.507217 -0.193859 -0.667273 0.219944 -0.377532
    29 -0.024967 -1.127840 0.017597 -0.998794 0.003967 -0.042796
    30 -0.020057 -0.902687 0.025715 -0.831369 0.007335 -0.033509
    31 0.614761 -1.208996 0.197098 0.029646 -1.044020 -0.169091
    32 1.457800 -0.239762 0.075324 0.065096 -0.234119 -0.860323
    33 0.987486 -0.190791 0.047917 0.109811 -0.259457 -1.139139
    34 0.120153 -0.050270 -0.054489 0.287569 3.110905 1.561085
    35 -6.540491 -9.457951 -1.774775 0.293682 -4.242188 0.379207
    36 -0.028060 -8.356666 0.002354 -0.473626 -0.643239 0.546343
    37 0.447953 -2.798986 -0.200443 -0.171370 -0.016065 0.194900
    38 -0.032909 -1.499736 0.028378 -1.435653 0.023358 -0.027754
    39 -0.027022 -1.127703 -0.020210 -1.265383 0.024473 -0.023226
    40 -0.249534 -2.846964 -0.174213 -0.152458 0.086464 0.063092
    41 0.043235 -1.656596 0.068667 -1.387690 -0.021757 0.006952
    42 0.031729 -1.141298 0.054932 -1.279928 -0.014315 0.007090
    43 -0.963866 -2.785145 -0.085350 0.053166 0.155589 -0.150065
    44 0.028479 -1.403067 -0.009354 -0.625488 -0.012812 -0.025383
    45 0.021413 -0.946062 0.016140 -0.619923 -0.012656 -0.024712
    46 1.164475 -2.543940 -0.170330 -0.114810 -0.080408 0.140285
    47 0.024032 -1.148574 -0.009538 -1.265292 0.022124 0.061853
    48 0.014898 -0.899614 -0.015942 -0.891250 0.005297 0.045050
    49 -0.586770 -1.264477 0.200161 -0.316722 -1.034155 -2.553877
    50 1.565805 0.035243 0.016848 -0.018676 -0.006907 0.887549
    51 1.114041 0.044518 -0.005766 -0.025854 -0.034738 0.943911
    52 -0.139399 -0.111698 0.014397 0.285382 -0.030687 1.580508
    53 -3.776355 8.643859 -0.305841 1.581763 -0.012479 -1.281509
  time 4
    0 0.511734 -5.367351 -24.563250 -1.420172 -1.378253 -0.902198
    1 3.096915 -0.000001 -3.559005 -3.141592 -1.570451 0.000000
    2 -3.157606 0.000000 -1.771385 0.000000 3.141496 0.000000
    3 1.347458 0.000000 -0.036606 0.000001 -3.141592 0.000000
    4 2.980681 -0.000001 -3.026972 0.000000 0.000000 0.000000
    5 -1.554735 -22.168950 -5.117344 -0.272732 -2.370569 -1.019763
    6 3.096915 -0.000002 -3.559005 -3.141592 -1.570451 0.000000
    7 -2.772562 -0.000001 -3.715392 0.000000 -0.478942 0.000000
    8 -3.157606 0.000001 -1.771385 0.000000 3.141592 0.000000
    9 1.347458 0.000000 -0.036606 0.000001 -3.141592 0.000000
    10 2.980681 -0.000001 -3.026972 0.000000 0.000000 0.000000
    11 0.563432 -7.857068 -21.840510 -0.661802 0.111405 -0.887638
    12 0.563432 -7.857068 -21.840510 -1.918401 0.111405 -0.887638
    13 -0.153939 -882.469269 -788.484488 1.454481 0.678748 -4.991094
    14 0.000002 0.001860 -0.000010 0.000000 0.000000 0.000000
    15 -0.018378 3.514467 -6.116755 0.000000 0.000000 0.011852
    16 8.005376 -1.029952 -7.065603 4.888083 -2.644685 0.869747
    17 5.905759 6.969561 -0.255279 1.565319 -3.132647 0.965140
    18 -0.107078 -8.401077 -0.174449 -0.442888 0.059102 -0.035259
    19 -0.488518 -2.755602 -0.228260 -0.745251 0.051068 -0.423382
    20 0.039887 -1.530573 0.014229 -1.485001 -0.012104 0.033019
    21 0.028786 -1.196828 -0.132487 -1.277422 -0.014849 0.028380
    22 0.250027 -2.820665 -0.238396 -0.301529 -0.010232 -0.328312
    23 -0.049759 -1.598510 0.037977 -1.463482 0.002109 -0.039707
    24 -0.034142 -1.171750 0.045718 -1.169340 0.006568 -0.030800
    25 0.957766 -2.746780 -0.090302 -0.060511 -0.107136 -0.250327
    26 -0.033420 -1.397129 -0.026882 -0.833373 0.006687 -0.041000
    27 -0.022360 -0.961342 -0.004654 -0.863237 0.005836 -0.042042
    28 -1.180681 -2.507217 -0.193859 -0.667273 0.219944 -0.377532
    29 -0.024967 -1.127840 0.017597 -0.998794 0.003967 -0.042796
    30 -0.020057 -0.902687 0.025715 -0.831369 0.007335 -0.033509
    31 0.614761 -1.208996 0.197098 0.029646 -1.044020 -0.169091
    32 1.457800 -0.239762 0.075324 0.065096 -0.234119 -0.860323
    33 0.987486 -0.190791 0.047917 0.109811 -0.259457 -1.139139
    34 0.120153 -0.050270 -0.054489 0.287569 3.110905 1.561085
    35 -6.224076 -9.594674 -1.716179 0.210094 -4.228248 0.334066
    36 -0.031966 -8.352759 -0.001552 -0.487694 -0.627597 0.583941
    37 0.447953 -2.798986 -0.200443 -0.171370 -0.016065 0.194900
    38 -0.032909 -1.499736 0.028378 -1.435653 0.023358 -0.027754
    39 -0.027022 -1.127703 -0.020210 -1.265383 0.024473 -0.023226
    40 -0.249534 -2.846964 -0.174213 -0.152458 0.086464 0.063092
    41 0.043235 -1.656596 0.068667 -1.387690 -0.021757 0.006952
    42 0.031729 -1.141298 0.054932 -1.279928 -0.014315 0.007090
    43 -0.963866 -2.785145 -0.085350 0.053166 0.155589 -0.150065
    44 0.028479 -1.403067 -0.009354 -0.625488 -0.012812 -0.025383
    45 0.021413 -0.946062 0.016140 -0.619923 -0.012656 -0.024712
    46 1.164475 -2.543940 -0.170330 -0.114810 -0.080408 0.140285
    47 0.024032 -1.148574 -0.009538 -1.265292 0.022124 0.061853
    48 0.014898 -0.899614 -0.015942 -0.891250 0.005297 0.045050
    49 -0.586770 -1.264477 0.200161 -0.316722 -1.034155 -2.553877
    50 1.565805 0.035243 0.016848 -0.018676 -0.006907 0.887549
    51 1.114041 0.044518 -0.005766 -0.025854 -0.034738 0.943911
    52 -0.139399 -0.111698 0.014397 0.285382 -0.030687 1.580508
    53 -3.373999 8.823552 -0.294122 1.581667 -0.011141 -1.331790
  time 5
    0 0.511734 -5.367351 -24.563250 -1.420172 -1.378253 -0.902198
    1 3.096915 -0.000001 -3.559005 -3.141592 -1.570451 0.000000
    2 -3.157606 0.000000 -1.771385 0.000000 3.141592 0.000000
    3 1.347458 0.000000 -0.036606 0.000001 -3.141592 0.000000
    4 2.980681 -0.000001 -3.026972 0.000000 0.000000 0.000000
    5 -2.312571 -21.833003 -3.750114 -0.257118 -2.482578 -1.051130
    6 3.096915 -0.000002 -3.559005 -3.141592 -1.570451 0.000000
    7 -2.772562 -0.000001 -3.715392 0.000000 -0.478942 0.000000
    8 -3.157606 0.000001 -1.771385 0.000000 3.141592 0.000000
    9 1.347458 0.000000 -0.036606 0.000001 -3.141592 0.000000
    10 2.980681 -0.000001 -3.026972 0.000000 0.000000 0.000000
    11 0.563432 -7.857068 -21.840510 -0.033429 0.111405 -0.887638
    12 0.563432 -7.857068 -21.840510 -1.604256 0.111405 -0.887638
    13 -0.153939 -882.469269 -788.484488 1.454481 0.678748 -4.991094
    14 0.000002 0.001860 -0.000010 0.000000 0.000000 0.000000
    15 -0.018378 3.514467 -6.116755 0.000000 0.000000 0.011852
    16 8.005376 -1.029952 -7.065603 4.888083 -2.644685 0.869747
    17 5.905759 6.969561 -0.255279 1.565319 -3.132647 0.965140
    18 -0.107078 -8.401077 -0.174449 -0.442888 0.059102 -0.035259
    19 -0.488518 -2.755602 -0.228260 -0.745251 0.051068 -0.423382
    20 0.039887 -1.530573 0.014229 -1.485001 -0.012104 0.033019
    21 0.028786 -1.196828 -0.132487 -1.277422 -0.014849 0.028380
    22 0.250027 -2.820665 -0.238396 -0.301529 -0.010232 -0.328312
    23 -0.049759 -1.598510 0.037977 -1.463482 0.002109 -0.039707
    24 -0.034142 -1.171750 0.045718 -1.169340 0.006568 -0.030800
    25 0.957766 -2.746780 -0.090302 -0.060511 -0.107136 -0.250327
    26 -0.033420 -1.397129 -0.026882 -0.833373 0.006687 -0.041000
    27 -0.022360 -0.961342 -0.004654 -0.863237 0.005836 -0.042042
    28 -1.180681 -2.507217 -0.193859 -0.667273 0.219944 -0.377532
    29 -0.024967 -1.127840 0.017597 -0.998794 0.003967 -0.042796
    30 -0.020057 -0.902687 0.025715 -0.831369 0.007335 -0.033509
    31 0.614761 -1.208996 0.197098 0.029646 -1.044020 -0.169091
    32 1.457800 -0.239762 0.075324 0.065096 -0.234119 -0.860323
    33 0.987486 -0.190791 0.047917 0.109811 -0.259457 -1.139139
    34 0.120153 -0.050270 -0.054489 0.287569 3.110905 1.561085
    35 -6.532679 -9.454045 -1.759149 0.342196 -4.233879 0.433052
    36 -0.024153 -8.360572 0.002354 -0.466674 -0.650426 0.528405
    37 0.447953 -2.798986 -0.200443 -0.171370 -0.016065 0.194900
    38 -0.032909 -1.499736 0.028378 -1.435653 0.023358 -0.027754
    39 -0.027022 -1.127703 -0.020210 -1.265383 0.024473 -0.023226
    40 -0.249534 -2.846964 -0.174213 -0.152458 0.086464 0.063092
    41 0.043235 -1.656596 0.068667 -1.387690 -0.021757 0.006952
    42 0.031729 -1.141298 0.054932 -1.279928 -0.014315 0.007090
    43 -0.963866 -2.785145 -0.085350 0.053166 0.155589 -0.150065
    44 0.028479 -1.403067 -0.009354 -0.625488 -0.012812 -0.025383
    45 0.021413 -0.946062 0.016140 -0.619923 -0.012656 -0.024712
    46 1.164475 -2.543940 -0.170330 -0.114810 -0.080408 0.140285
    47 0.024032 -1.148574 -0.009538 -1.265292 0.022124 0.061853
    48 0.014898 -0.899614 -0.015942 -0.891250 0.005297 0.045050
    49 -0.586770 -1.264477 0.200161 -0.316722 -1.034155 -2.553877
    50 1.565805 0.035243 0.016848 -0.018676 -0.006907 0.887549
    51 1.114041 0.044518 -0.005766 -0.025854 -0.034738 0.943911
    52 -0.139399 -0.111698 0.014397 0.285382 -0.030687 1.580508
    53 -3.983393 8.542293 -0.313654 1.581667 -0.013244 -1.255561
  time 6
    0 0.511734 -5.367351 -24.563250 -1.420172 -1.378253 -0.902198
    1 3.096915 -0.000001 -3.559005 -3.141592 -1.570451 0.000000
    2 -3.157606 0.000000 -1.771385 0.000000 -3.141592 0.000000
    3 1.347458 0.000000 -0.036606 0.000001 -3.141592 0.000000
    4 2.980681 -0.000001 -3.026972 0.000000 0.000000 0.000000
    5 -2.218818 -21.793939 -3.601672 -0.284322 -2.497681 -1.026649
    6 3.096915 -0.000002 -3.559005 -3.141592 -1.570451 0.000000
    7 -2.772562 -0.000001 -3.715392 0.000000 -0.478942 0.000000
    8 -3.157606 0.000001 -1.771385 0.000000 3.141592 0.000000
    9 1.347458 0.000000 -0.036606 0.000001 -3.141592 0.000000
    10 2.980681 -0.000001 -3.026972 0.000000 0.000000 0.000000
    11 0.563432 -7.857068 -21.840510 0.594752 0.111405 -0.887638
    12 0.563432 -7.857068 -21.840510 -1.290111 0.111405 -0.887638
    13 -0.153939 -882.469269 -788.484488 1.454481 0.678748 -4.991094
    14 0.000002 0.001860 -0.000010 0.000000 0.000000 0.000000
    15 -0.018378 3.514467 -6.116755 0.000000 0.000000 0.011852
    16 8.005376 -1.029952 -7.065603 4.888083 -2.644685 0.869747
    17 5.905759 6.969561 -0.255279 1.565319 -3.132647 0.965140
    18 -0.107078 -8.401077 -0.174449 -0.442888 0.059102 -0.035259
    19 -0.488518 -2.755602 -0.228260 -0.745251 0.051068 -0.423382
    20 0.039887 -1.530573 0.014229 -1.485001 -0.012104 0.033019
    21 0.028786 -1.196828 -0.132487 -1.277422 -0.014849 0.028380
    22 0.250027 -2.820665 -0.238396 -0.301529 -0.010232 -0.328312
    23 -0.049759 -1.598510 0.037977 -1.463482 0.002109 -0.039707
    24 -0.034142 -1.171750 0.045718 -1.169340 0.006568 -0.030800
    25 0.957766 -2.746780 -0.090302 -0.060511 -0.107136 -0.250327
    26 -0.033420 -1.397129 -0.026882 -0.833373 0.006687 -0.041000
    27 -0.022360 -0.961342 -0.004654 -0.863237 0.005836 -0.042042
    28 -1.180681 -2.507217 -0.193859 -0.667273 0.219944 -0.377532
    29 -0.024967 -1.127840 0.017597 -0.998794 0.003967 -0.042796
    30 -0.020057 -0.902687 0.025715 -0.831369 0.007335 -0.033509
    31 0.614761 -1.208996 0.197098 0.029646 -1.044020 -0.169091
    32 1.457800 -0.239762 0.075324 0.065096 -0.234119 -0.860323
    33 0.987486 -0.190791 0.047917 0.109811 -0.259457 -1.139139
    34 0.120153 -0.050270 -0.054489 0.287569 3.110905 1.561085
    35 -6.466270 -9.457951 -1.751337 0.361449 -4.243758 0.457631
    36 -0.028060 -8.360572 0.002354 -0.473464 -0.662946 0.532842
    37 0.447953 -2.798986 -0.200443 -0.171370 -0.016065 0.194900
    38 -0.032909 -1.499736 0.028378 -1.435653 0.023358 -0.027754
    39 -0.027022 -1.127703 -0.020210 -1.265383 0.024473 -0.023226
    40 -0.249534 -2.846964 -0.174213 -0.152458 0.086464 0.063092
    41 0.043235 -1.656596 0.068667 -1.387690 -0.021757 0.006952
    42 0.031729 -1.141298 0.054932 -1.279928 -0.014315 0.007090
    43 -0.963866 -2.785145 -0.085350 0.053166 0.155589 -0.150065
    44 0.028479 -1.403067 -0.009354 -0.625488 -0.012812 -0.025383
    45 0.021413 -0.946062 0.016140 -0.619923 -0.012656 -0.024712
    46 1.164475 -2.543940 -0.170330 -0.114810 -0.080408 0.140285
    47 0.024032 -1.148574 -0.009538 -1.265292 0.022124 0.061853
    48 0.014898 -0.899614 -0.015942 -0.891250 0.005297 0.045050
    49 -0.586770 -1.264477 0.200161 -0.316722 -1.034155 -2.553877
    50 1.565805 0.035243 0.016848 -0.018676 -0.006907 0.887520
    51 1.114041 0.044518 -0.005766 -0.025854 -0.034738 0.943911
    52 -0.139399 -0.111698 0.014397 0.285382 -0.030687 1.580508
    53 -3.999018 8.534480 -0.313654 1.581667 -0.013244 -1.253565
  time 7
    0 0.511734 -5.367351 -24.563250 -1.420172 -1.378253 -0.902198
    1 3.096915 -0.000001 -3.559005 -3.141592 -1.570451 0.000000
    2 -3.157606 0.000000 -1.771385 0.000000 -3.141496 0.000000
    3 1.347458 0.000000 -0.036606 0.000001 -3.141592 0.000000
    4 2.980681 -0.000001 -3.026972 0.000000 0.000000 0.000000
    5 -2.043031 -21.735343 -3.367290 -0.344860 -2.526316 -0.974816
    6 3.096915 -0.000002 -3.559005 -3.141592 -1.570451 0.000000
    7 -2.772562 -0.000001 -3.715392 0.000000 -0.478942 0.000000
    8 -3.157606 0.000001 -1.771385 0.000000 3.141592 0.000000
    9 1.347458 0.000000 -0.036606 0.000001 -3.141592 0.000000
    10 2.980681 -0.000001 -3.026972 0.000000 0.000000 0.000000
    11 0.563432 -7.857068 -21.840510 1.223028 0.111405 -0.887638
    12 0.563432 -7.857068 -21.840510 -0.975966 0.111405 -0.887638
    13 -0.153939 -882.469269 -788.484488 1.454481 0.678748 -4.991094
    14 0.000002 0.001860 -0.000010 0.000000 0.000000 0.000000
    15 -0.018378 3.514467 -6.116755 0.000000 0.000000 0.011852
    16 8.005376 -1.029952 -7.065603 4.888083 -2.644685 0.869747
    17 5.905759 6.969561 -0.255279 1.565319 -3.132647 0.965140
    18 -0.107078 -8.401077 -0.174449 -0.442888 0.059102 -0.035259
    19 -0.488518 -2.755602 -0.228260 -0.745251 0.051068 -0.423382
    20 0.039887 -1.530573 0.014229 -1.485001 -0.012104 0.033019
    21 0.028786 -1.196828 -0.132487 -1.277422 -0.014849 0.028380
    22 0.250027 -2.820665 -0.238396 -0.301529 -0.010232 -0.328312
    23 -0.049759 -1.598510 0.037977 -1.463482 0.002109 -0.039707
    24 -0.034142 -1.171750 0.045718 -1.169340 0.006568 -0.030800
    25 0.957766 -2.746780 -0.090302 -0.060511 -0.107136 -0.250327
    26 -0.033420 -1.397129 -0.026882 -0.833373 0.006687 -0.041000
    27 -0.022360 -0.961342 -0.004654 -0.863237 0.005836 -0.042042
    28 -1.180681 -2.507217 -0.193859 -0.667273 0.219944 -0.377532
    29 -0.024967 -1.127840 0.017597 -0.998794 0.003967 -0.042796
    30 -0.020057 -0.902687 0.025715 -0.831369 0.007335 -0.033509
    31 0.614761 -1.208996 0.197098 0.029646 -1.044020 -0.169091
    32 1.457800 -0.239762 0.075324 0.065096 -0.234119 -0.860323
    33 0.987486 -0.190791 0.047917 0.109811 -0.259457 -1.139139
    34 0.120153 -0.050270 -0.054489 0.287569 3.110905 1.561085
    35 -6.329548 -9.469670 -1.731805 0.398811 -4.266561 0.505928
    36 -0.035873 -8.360572 0.006260 -0.490127 -0.689125 0.546182
    37 0.447953 -2.798986 -0.200443 -0.171370 -0.016065 0.194900
    38 -0.032909 -1.499736 0.028378 -1.435653 0.023358 -0.027754
    39 -0.027022 -1.127703 -0.020210 -1.265383 0.024473 -0.023226
    40 -0.249534 -2.846964 -0.174213 -0.152458 0.086464 0.063092
    41 0.043235 -1.656596 0.068667 -1.387690 -0.021757 0.006952
    42 0.031729 -1.141298 0.054932 -1.279928 -0.014315 0.007090
    43 -0.963866 -2.785145 -0.085350 0.053166 0.155589 -0.150065
    44 0.028479 -1.403067 -0.009354 -0.625488 -0.012812 -0.025383
    45 0.021413 -0.946062 0.016140 -0.619923 -0.012656 -0.024712
    46 1.164475 -2.543940 -0.170330 -0.114810 -0.080408 0.140285
    47 0.024032 -1.148574 -0.009538 -1.265292 0.022124 0.061853
    48 0.014898 -0.899614 -0.015942 -0.891250 0.005297 0.045050
    49 -0.586770 -1.264477 0.200161 -0.316722 -1.034155 -2.553877
    50 1.565805 0.035243 0.016848 -0.018676 -0.006907 0.887549
    51 1.114041 0.044518 -0.005766 -0.025854 -0.034738 0.943911
    52 -0.139399 -0.111698 0.014397 0.285382 -0.030687 1.580508
    53 -3.999018 8.534480 -0.313654 1.581667 -0.013244 -1.253565
  time 8
    0 0.511734 -5.367351 -24.563250 -1.420172 -1.378253 -0.902198
    1 3.096915 -0.000001 -3.559005 -3.141592 -1.570451 0.000000
    2 -3.157606 0.000000 -1.771385 0.000000 3.141592 0.000000
    3 1.347458 0.000000 -0.036606 0.000001 -3.141592 0.000000
    4 2.980681 -0.000001 -3.026972 0.000000 0.000000 0.000000
    5 -1.878964 -21.684561 -3.148534 -0.403194 -2.555475 -0.925565
    6 3.096915 -0.000002 -3.559005 -3.141592 -1.570451 0.000000
    7 -2.772562 -0.000001 -3.715392 0.000000 -0.478942 0.000000
    8 -3.157606 0.000001 -1.771385 0.000000 3.141592 0.000000
    9 1.347458 0.000000 -0.036606 0.000001 -3.141592 0.000000
    10 2.980681 -0.000001 -3.026972 0.000000 0.000000 0.000000
    11 0.563432 -7.857068 -21.840510 1.851401 0.111405 -0.887638
    12 0.563432 -7.857068 -21.840510 -0.661821 0.111405 -0.887638
    13 -0.153939 -882.469269 -788.484488 1.454481 0.678748 -4.991094
    14 0.000002 0.001860 -0.000010 0.000000 0.000000 0.000000
    15 -0.018378 3.514467 -6.116755 0.000000 0.000000 0.011852
    16 8.005376 -1.029952 -7.065603 4.888083 -2.644685 0.869747
    17 5.905759 6.969561 -0.255279 1.565319 -3.132647 0.965140
    18 -0.107078 -8.401077 -0.174449 -0.442888 0.059102 -0.035259
    19 -0.488518 -2.755602 -0.228260 -0.745251 0.051068 -0.423382
    20 0.039887 -1.530573 0.014229 -1.485001 -0.012104 0.033019
    21 0.028786 -1.196828 -0.132487 -1.277422 -0.014849 0.028380
    22 0.250027 -2.820665 -0.238396 -0.301529 -0.010232 -0.328312
    23 -0.049759 -1.598510 0.037977 -1.463482 0.002109 -0.039707
    24 -0.034142 -1.171750 0.045718 -1.169340 0.006568 -0.030800
    25 0.957766 -2.746780 -0.090302 -0.060511 -0.107136 -0.250327
    26 -0.033420 -1.397129 -0.026882 -0.833373 0.006687 -0.041000
    27 -0.022360 -0.961342 -0.004654 -0.863237 0.005836 -0.042042
    28 -1.180681 -2.507217 -0.193859 -0.667273 0.219944 -0.377532
    29 -0.024967 -1.127840 0.017597 -0.998794 0.003967 -0.042796
    30 -0.020057 -0.902687 0.025715 -0.831369 0.007335 -0.033509
    31 0.614761 -1.208996 0.197098 0.029646 -1.044020 -0.169091
    32 1.457800 -0.239762 0.075324 0.065096 -0.234119 -0.860323
    33 0.987486 -0.190791 0.047917 0.109811 -0.259457 -1.139139
    34 0.120153 -0.050270 -0.054489 0.287569 3.110905 1.561085
    35 -6.192825 -9.477483 -1.708367 0.438460 -4.288995 0.556139
    36 -0.039779 -8.360572 0.006260 -0.507926 -0.714816 0.561162
    37 0.447953 -2.798986 -0.200443 -0.171370 -0.016065 0.194900
    38 -0.032909 -1.499736 0.028378 -1.435653 0.023358 -0.027754
    39 -0.027022 -1.127703 -0.020210 -1.265383 0.024473 -0.023226
    40 -0.249534 -2.846964 -0.174213 -0.152458 0.086464 0.063092
    41 0.043235 -1.656596 0.068667 -1.387690 -0.021757 0.006952
    42 0.031729 -1.141298 0.054932 -1.279928 -0.014315 0.007090
    43 -0.963866 -2.785145 -0.085350 0.053166 0.155589 -0.150065
    44 0.028479 -1.403067 -0.009354 -0.625488 -0.012812 -0.025383
    45 0.021413 -0.946062 0.016140 -0.619923 -0.012656 -0.024712
    46 1.164475 -2.543940 -0.170330 -0.114810 -0.080408 0.140285
    47 0.024032 -1.148574 -0.009538 -1.265292 0.022124 0.061853
    48 0.014898 -0.899614 -0.015942 -0.891250 0.005297 0.045050
    49 -0.586770 -1.264477 0.200161 -0.316722 -1.034155 -2.553877
    50 1.565805 0.035243 0.016848 -0.018676 -0.006907 0.887520
    51 1.114041 0.044518 -0.005766 -0.025854 -0.034738 0.943911
    52 -0.139399 -0.111698 0.014397 0.285382 -0.030687 1.580508
    53 -3.987299 8.538387 -0.313654 1.581667 -0.013244 -1.254706
  time 9
    0 0.511734 -5.367351 -24.563250 -1.420172 -1.378253 -0.902198
    1 3.096915 -0.000001 -3.559005 -3.141592 -1.570451 0.000000
    2 -3.157606 0.000000 -1.771385 0.000000 3.141592 0.000000
    3 1.347458 0.000000 -0.036606 0.000001 -3.141592 0.000000
    4 2.980681 -0.000001 -3.026972 0.000000 0.000000 0.000000
    5 -1.808649 -21.668935 -3.066500 -0.429536 -2.568221 -0.903952
    6 3.096915 -0.000002 -3.559005 -3.141592 -1.570451 0.000000
    7 -2.772562 -0.000001 -3.715392 0.000000 -0.478942 0.000000
    8 -3.157606 0.000001 -1.771385 0.000000 3.141592 0.000000
    9 1.347458 0.000000 -0.036606 0.000001 -3.141592 0.000000
    10 2.980681 -0.000001 -3.026972 0.000000 0.000000 0.000000
    11 0.563432 -7.857068 -21.840510 2.479677 0.111405 -0.887638
    12 0.563432 -7.857068 -21.840510 -0.347676 0.111405 -0.887638
    13 -0.153939 -882.469269 -788.484488 1.454481 0.678748 -4.991094
    14 0.000002 0.001860 -0.000010 0.000000 0.000000 0.000000
    15 -0.018378 3.514467 -6.116755 0.000000 0.000000 0.011852
    16 8.005376 -1.029952 -7.065603 4.888083 -2.644685 0.869747
    17 5.905759 6.969561 -0.255279 1.565319 -3.132647 0.965140
    18 -0.107078 -8.401077 -0.174449 -0.442888 0.059102 -0.035259
    19 -0.488518 -2.755602 -0.228260 -0.745251 0.051068 -0.423382
    20 0.039887 -1.530573 0.014229 -1.485001 -0.012104 0.033019
    21 0.028786 -1.196828 -0.132487 -1.277422 -0.014849 0.028380
    22 0.250027 -2.820665 -0.238396 -0.301529 -0.010232 -0.328312
    23 -0.049759 -1.598510 0.037977 -1.463482 0.002109 -0.039707
    24 -0.034142 -1.171750 0.045718 -1.169340 0.006568 -0.030800
    25 0.957766 -2.746780 -0.090302 -0.060511 -0.107136 -0.250327
    26 -0.033420 -1.397129 -0.026882 -0.833373 0.006687 -0.041000
    27 -0.022360 -0.961342 -0.004654 -0.863237 0.005836 -0.042042
    28 -1.180681 -2.507217 -0.193859 -0.667273 0.219944 -0.377532
    29 -0.024967 -1.127840 0.017597 -0.998794 0.003967 -0.042796
    30 -0.020057 -0.902687 0.025715 -0.831369 0.007335 -0.033509
    31 0.614761 -1.208996 0.197098 0.029646 -1.044020 -0.169091
    32 1.457800 -0.239762 0.075324 0.065096 -0.234119 -0.860323
    33 0.987486 -0.190791 0.047917 0.109811 -0.259457 -1.139139
    34 0.120153 -0.050270 -0.054489 0.287569 3.110905 1.561085
    35 -6.130323 -9.481390 -1.696648 0.456379 -4.299243 0.578805
    36 -0.043685 -8.360572 0.006260 -0.516571 -0.726198 0.568854
    37 0.447953 -2.798986 -0.200443 -0.171370 -0.016065 0.194900
    38 -0.032909 -1.499736 0.028378 -1.435653 0.023358 -0.027754
    39 -0.027022 -1.127703 -0.020210 -1.265383 0.024473 -0.023226
    40 -0.249534 -2.846964 -0.174213 -0.152458 0.086464 0.063092
    41 0.043235 -1.656596 0.068667 -1.387690 -0.021757 0.006952
    42 0.031729 -1.141298 0.054932 -1.279928 -0.014315 0.007090
    43 -0.963866 -2.785145 -0.085350 0.053166 0.155589 -0.150065
    44 0.028479 -1.403067 -0.009354 -0.625488 -0.012812 -0.025383
    45 0.021413 -0.946062 0.016140 -0.619942 -0.012656 -0.024712
    46 1.164475 -2.543940 -0.170330 -0.114810 -0.080408 0.140285
    47 0.024032 -1.148574 -0.009538 -1.265292 0.022124 0.061853
    48 0.014898 -0.899614 -0.015942 -0.891250 0.005297 0.045050
    49 -0.586770 -1.264477 0.200161 -0.316722 -1.034155 -2.553877
    50 1.565805 0.035243 0.016848 -0.018676 -0.006907 0.887549
    51 1.114041 0.044518 -0.005766 -0.025854 -0.034738 0.943911
    52 -0.139399 -0.111698 0.014397 0.285382 -0.030687 1.580508
    53 -3.979486 8.546199 -0.313654 1.581667 -0.013244 -1.255941
  time 10
    0 0.511734 -5.367351 -24.563250 -1.420172 -1.378253 -0.902198
    1 3.096915 -0.000001 -3.559005 -3.141592 -1.570451 0.000000
    2 -3.157606 0.000000 -1.771385 0.000000 3.141592 0.000000
    3 1.347458 0.000000 -0.036606 0.000001 -3.141592 0.000000
    4 2.980681 -0.000001 -3.026972 0.000000 0.000000 0.000000
    5 -1.914121 -21.707999 -3.230567 -0.394382 -2.547094 -0.933981
    6 3.096915 -0.000002 -3.559005 -3.141592 -1.570451 0.000000
    7 -2.772562 -0.000001 -3.715392 0.000000 -0.478942 0.000000
    8 -3.157606 0.000001 -1.771385 0.000000 3.141592 0.000000
    9 1.347458 0.000000 -0.036606 0.000001 -3.141592 0.000000
    10 2.980681 -0.000001 -3.026972 0.000000 0.000000 0.000000
    11 0.563432 -7.857068 -21.840510 3.108050 0.111405 -0.887638
    12 0.563432 -7.857068 -21.840510 -0.033435 0.111405 -0.887638
    13 -0.153939 -882.469269 -788.484488 1.454481 0.678748 -4.991094
    14 0.000002 0.001860 -0.000010 0.000000 0.000000 0.000000
    15 -0.018378 3.514467 -6.116755 0.000000 0.000000 0.011852
    16 8.005376 -1.029952 -7.065603 4.888083 -2.644685 0.869747
    17 5.905759 6.969561 -0.255279 1.565319 -3.132647 0.965140
    18 -0.107078 -8.401077 -0.174449 -0.442888 0.059102 -0.035259
    19 -0.488518 -2.755602 -0.228260 -0.745251 0.051068 -0.423382
    20 0.039887 -1.530573 0.014229 -1.485001 -0.012104 0.033019
    21 0.028786 -1.196828 -0.132487 -1.277422 -0.014849 0.028380
    22 0.250027 -2.820665 -0.238396 -0.301529 -0.010232 -0.328312
    23 -0.049759 -1.598510 0.037977 -1.463482 0.002109 -0.039707
    24 -0.034142 -1.171750 0.045718 -1.169340 0.006568 -0.030800
    25 0.957766 -2.746780 -0.090302 -0.060511 -0.107136 -0.250327
    26 -0.033420 -1.397129 -0.026882 -0.833373 0.006687 -0.041000
    27 -0.022360 -0.961342 -0.004654 -0.863237 0.005836 -0.042042
    28 -1.180681 -2.507217 -0.193859 -0.667273 0.219944 -0.377532
    29 -0.024967 -1.127840 0.017597 -0.998794 0.003967 -0.042796
    30 -0.020057 -0.902687 0.025715 -0.831369 0.007335 -0.033509
    31 0.614761 -1.208996 0.197098 0.029646 -1.044020 -0.169091
    32 1.457800 -0.239762 0.075324 0.065096 -0.234119 -0.860323
    33 0.987486 -0.190791 0.047917 0.109811 -0.259457 -1.139139
    34 0.120153 -0.050270 -0.054489 0.287569 3.110905 1.561085
    35 -6.220169 -9.477483 -1.716179 0.426737 -4.285856 0.542175
    36 -0.039779 -8.360572 0.006260 -0.505238 -0.709580 0.559844
    37 0.447953 -2.798986 -0.200443 -0.171370 -0.016065 0.194900
    38 -0.032909 -1.499736 0.028378 -1.435653 0.023358 -0.027754
    39 -0.027022 -1.127703 -0.020210 -1.265383 0.024473 -0.023226
    40 -0.249534 -2.846964 -0.174213 -0.152458 0.086464 0.063092
    41 0.043235 -1.656596 0.068667 -1.387690 -0.021757 0.006952
    42 0.031729 -1.141298 0.054932 -1.279928 -0.014315 0.007090
    43 -0.963866 -2.785145 -0.085350 0.053166 0.155589 -0.150065
    44 0.028479 -1.403067 -0.009354 -0.625488 -0.012812 -0.025383
    45 0.021413 -0.946062 0.016140 -0.619942 -0.012656 -0.024712
    46 1.164475 -2.543940 -0.170330 -0.114810 -0.080408 0.140285
    47 0.024032 -1.148574 -0.009538 -1.265292 0.022124 0.061853
    48 0.014898 -0.899614 -0.015942 -0.891250 0.005297 0.045050
    49 -0.586770 -1.264477 0.200161 -0.316722 -1.034155 -2.553877
    50 1.565805 0.035243 0.016848 -0.018676 -0.006907 0.887549
    51 1.114041 0.044518 -0.005766 -0.025854 -0.034738 0.943911
    52 -0.139399 -0.111698 0.014397 0.285382 -0.030687 1.580508
    53 -3.975580 8.546199 -0.313654 1.581667 -0.013148 -1.256512
  time 11
    0 0.511734 -5.367351 -24.563250 -1.420172 -1.378253 -0.902198
    1 3.096915 -0.000001 -3.559005 -3.141592 -1.570451 0.000000
    2 -3.157606 0.000000 -1.771385 0.000000 3.141592 0.000000
    3 1.347458 0.000000 -0.036606 0.000001 -3.141592 0.000000
    4 2.980681 -0.000001 -3.026972 0.000000 0.000000 0.000000
    5 -2.312571 -21.833003 -3.750114 -0.257118 -2.482578 -1.051130
    6 3.096915 -0.000002 -3.559005 -3.141592 -1.570451 0.000000
    7 -2.772562 -0.000001 -3.715392 0.000000 -0.478942 0.000000
    8 -3.157606 0.000001 -1.771385 0.000000 3.141592 0.000000
    9 1.347458 0.000000 -0.036606 0.000001 -3.141592 0.000000
    10 2.980681 -0.000001 -3.026972 0.000000 0.000000 0.000000
    11 0.563432 -7.857068 -21.840510 -2.546727 0.111405 -0.887638
    12 0.563432 -7.857068 -21.840510 0.280614 0.111405 -0.887638
    13 -0.153939 -882.469269 -788.484488 1.454481 0.678748 -4.991094
    14 0.000002 0.001860 -0.000010 0.000000 0.000000 0.000000
    15 -0.018378 3.514467 -6.116755 0.000000 0.000000 0.011852
    16 8.005376 -1.029952 -7.065603 4.888083 -2.644685 0.869747
    17 5.905759 6.969561 -0.255279 1.565319 -3.132647 0.965140
    18 -0.107078 -8.401077 -0.174449 -0.442888 0.059102 -0.035259
    19 -0.488518 -2.755602 -0.228260 -0.745251 0.051068 -0.423382
    20 0.039887 -1.530573 0.014229 -1.485001 -0.012104 0.033019
    21 0.028786 -1.196828 -0.132487 -1.277422 -0.014849 0.028380
    22 0.250027 -2.820665 -0.238396 -0.301529 -0.010232 -0.328312
    23 -0.049759 -1.598510 0.037977 -1.463482 0.002109 -0.039707
    24 -0.034142 -1.171750 0.045718 -1.169340 0.006568 -0.030800
    25 0.957766 -2.746780 -0.090302 -0.060511 -0.107136 -0.250327
    26 -0.033420 -1.397129 -0.026882 -0.833373 0.006687 -0.041000
    27 -0.022360 -0.961342 -0.004654 -0.863237 0.005836 -0.042042
    28 -1.180681 -2.507217 -0.193859 -0.667273 0.219944 -0.377532
    29 -0.024967 -1.127840 0.017597 -0.998794 0.003967 -0.042796
    30 -0.020057 -0.902687 0.025715 -0.831369 0.007335 -0.033509
    31 0.614761 -1.208996 0.197098 0.029646 -1.044020 -0.169091
    32 1.457800 -0.239762 0.075324 0.065096 -0.234119 -0.860323
    33 0.987486 -0.190791 0.047917 0.109811 -0.259457 -1.139139
    34 0.120153 -0.050270 -0.054489 0.287569 3.110905 1.561085
    35 -6.532679 -9.454045 -1.759149 0.342196 -4.233879 0.433052
    36 -0.024153 -8.360572 0.002354 -0.466674 -0.650426 0.528405
    37 0.447953 -2.798986 -0.200443 -0.171370 -0.016065 0.194900
    38 -0.032909 -1.499736 0.028378 -1.435653 0.023358 -0.027754
    39 -0.027022 -1.127703 -0.020210 -1.265383 0.024473 -0.023226
    40 -0.249534 -2.846964 -0.174213 -0.152458 0.086464 0.063092
    41 0.043235 -1.656596 0.068667 -1.387690 -0.021757 0.006952
    42 0.031729 -1.141298 0.054932 -1.279928 -0.014315 0.007090
    43 -0.963866 -2.785145 -0.085350 0.053166 0.155589 -0.150065
    44 0.028479 -1.403067 -0.009354 -0.625488 -0.012812 -0.025383
    45 0.021413 -0.946062 0.016140 -0.619923 -0.012656 -0.024712
    46 1.164475 -2.543940 -0.170330 -0.114810 -0.080408 0.140285
    47 0.024032 -1.148574 -0.009538 -1.265292 0.022124 0.061853
    48 0.014898 -0.899614 -0.015942 -0.891250 0.005297 0.045050
    49 -0.586770 -1.264477 0.200161 -0.316722 -1.034155 -2.553877
    50 1.565805 0.035243 0.016848 -0.018676 -0.006907 0.887549
    51 1.114041 0.044518 -0.005766 -0.025854 -0.034738 0.943911
    52 -0.139399 -0.111698 0.014397 0.285382 -0.030687 1.580508
    53 -3.983393 8.542293 -0.313654 1.581667 -0.013244 -1.255561
  time 12
    0 0.511734 -5.367351 -24.563250 -1.420172 -1.378253 -0.902198
    1 3.096915 -0.000001 -3.559005 -3.141592 -1.570451 0.000000
    2 -3.157606 0.000000 -1.771385 0.000000 3.141592 0.000000
    3 1.347458 0.000000 -0.036606 0.000001 -3.141592 0.000000
    4 2.980681 -0.000001 -3.026972 0.000000 0.000000 0.000000
    5 -3.488388 -22.071291 -5.062654 0.346631 -2.390736 -1.549662
    6 3.096915 -0.000002 -3.559005 -3.141592 -1.570451 0.000000
    7 -2.772562 -0.000001 -3.715392 0.000000 -0.478942 0.000000
    8 -3.157606 0.000001 -1.771385 0.000000 3.141592 0.000000
    9 1.347458 0.000000 -0.036606 0.000001 -3.141592 0.000000
    10 2.980681 -0.000001 -3.026972 0.000000 0.000000 0.000000
    11 0.563432 -7.857068 -21.840510 -1.918451 0.111405 -0.887638
    12 0.563432 -7.857068 -21.840510 0.594759 0.111405 -0.887638
    13 -0.153939 -882.469269 -788.484488 1.454481 0.678748 -4.991094
    14 0.000002 0.001860 -0.000010 0.000000 0.000000 0.000000
    15 -0.018378 3.514467 -6.116755 0.000000 0.000000 0.011852
    16 8.005376 -1.029952 -7.065603 4.888083 -2.644685 0.869747
    17 5.905759 6.969561 -0.255279 1.565319 -3.132647 0.965140
    18 -0.107078 -8.401077 -0.174449 -0.442888 0.059102 -0.035259
    19 -0.488518 -2.755602 -0.228260 -0.745251 0.051068 -0.423382
    20 0.039887 -1.530573 0.014229 -1.485001 -0.012104 0.033019
    21 0.028786 -1.196828 -0.132487 -1.277422 -0.014849 0.028380
    22 0.250027 -2.820665 -0.238396 -0.301529 -0.010232 -0.328312
    23 -0.049759 -1.598510 0.037977 -1.463482 0.002109 -0.039707
    24 -0.034142 -1.171750 0.045718 -1.169340 0.006568 -0.030800
    25 0.957766 -2.746780 -0.090302 -0.060511 -0.107136 -0.250327
    26 -0.033420 -1.397129 -0.026882 -0.833373 0.006687 -0.041000
    27 -0.022360 -0.961342 -0.004654 -0.863237 0.005836 -0.042042
    28 -1.180681 -2.507217 -0.193859 -0.667273 0.219944 -0.377532
    29 -0.024967 -1.127840 0.017597 -0.998794 0.003967 -0.042796
    30 -0.020057 -0.902687 0.025715 -0.831369 0.007335 -0.033509
    31 0.614761 -1.208996 0.197098 0.029646 -1.044020 -0.169091
    32 1.457800 -0.239762 0.075324 0.065096 -0.234119 -0.860323
    33 0.987486 -0.190791 0.047917 0.109811 -0.259457 -1.139139
    34 0.120153 -0.050270 -0.054489 0.287569 3.110905 1.561085
    35 -7.454582 -9.364198 -1.645865 0.205615 -4.031511 0.228194
    36 0.026629 -8.360572 -0.013271 -0.347203 -0.421354 0.442909
    37 0.447953 -2.798986 -0.200443 -0.171370 -0.016065 0.194900
    38 -0.032909 -1.499736 0.028378 -1.435653 0.023358 -0.027754
    39 -0.027022 -1.127703 -0.020210 -1.265383 0.024473 -0.023226
    40 -0.249534 -2.846964 -0.174213 -0.152458 0.086464 0.063092
    41 0.043235 -1.656596 0.068667 -1.387690 -0.021757 0.006952
    42 0.031729 -1.141298 0.054932 -1.279928 -0.014315 0.007090
    43 -0.963866 -2.785145 -0.085350 0.053166 0.155589 -0.150065
    44 0.028479 -1.403067 -0.009354 -0.625488 -0.012812 -0.025383
    45 0.021413 -0.946062 0.016140 -0.619942 -0.012656 -0.024712
    46 1.164475 -2.543940 -0.170330 -0.114810 -0.080408 0.140285
    47 0.024032 -1.148574 -0.009538 -1.265292 0.022124 0.061853
    48 0.014898 -0.899614 -0.015942 -0.891250 0.005297 0.045050
    49 -0.586770 -1.264477 0.200161 -0.316722 -1.034155 -2.553877
    50 1.565805 0.035243 0.016848 -0.018676 -0.006907 0.887549
    51 1.114041 0.044518 -0.005766 -0.025854 -0.034738 0.943911
    52 -0.139399 -0.111698 0.014397 0.285382 -0.030687 1.580508
    53 -4.026363 8.518855 -0.313654 1.581667 -0.013339 -1.249858
  time 13
    0 0.511734 -5.367351 -24.563250 -1.420172 -1.378253 -0.902198
    1 3.096915 -0.000001 -3.559005 -3.141592 -1.570451 0.000000
    2 -3.157606 0.000000 -1.771385 0.000000 3.141592 0.000000
    3 1.347458 0.000000 -0.036606 0.000001 -3.141592 0.000000
    4 2.980681 -0.000001 -3.026972 0.000000 0.000000 0.000000
    5 -6.734581 -22.208014 -6.875210 4.338674 -0.510514 0.913253
    6 3.096915 -0.000002 -3.559005 -3.141592 -1.570451 0.000000
    7 -2.772562 -0.000001 -3.715392 0.000000 -0.478942 0.000000
    8 -3.157606 0.000001 -1.771385 0.000000 3.141592 0.000000
    9 1.347458 0.000000 -0.036606 0.000001 -3.141592 0.000000
    10 2.980681 -0.000001 -3.026972 0.000000 0.000000 0.000000
    11 0.563432 -7.857068 -21.840510 -1.290078 0.111405 -0.887638
    12 0.563432 -7.857068 -21.840510 0.908904 0.111405 -0.887638
    13 -0.153939 -882.469269 -788.484488 1.454481 0.678748 -4.991094
    14 0.000002 0.001860 -0.000010 0.000000 0.000000 0.000000
    15 -0.018378 3.514467 -6.116755 0.000000 0.000000 0.011852
    16 8.005376 -1.029952 -7.065603 4.888083 -2.644685 0.869747
    17 5.905759 6.969561 -0.255279 1.565319 -3.132647 0.965140
    18 -0.107078 -8.401077 -0.174449 -0.442888 0.059102 -0.035259
    19 -0.488518 -2.755602 -0.228260 -0.745251 0.051068 -0.423382
    20 0.039887 -1.530573 0.014229 -1.485001 -0.012104 0.033019
    21 0.028786 -1.196828 -0.132487 -1.277422 -0.014849 0.028380
    22 0.250027 -2.820665 -0.238396 -0.301529 -0.010232 -0.328312
    23 -0.049759 -1.598510 0.037977 -1.463482 0.002109 -0.039707
    24 -0.034142 -1.171750 0.045718 -1.169340 0.006568 -0.030800
    25 0.957766 -2.746780 -0.090302 -0.060511 -0.107136 -0.250327
    26 -0.033420 -1.397129 -0.026882 -0.833373 0.006687 -0.041000
    27 -0.022360 -0.961342 -0.004654 -0.863237 0.005836 -0.042042
    28 -1.180681 -2.507217 -0.193859 -0.667273 0.219944 -0.377532
    29 -0.024967 -1.127840 0.017597 -0.998794 0.003967 -0.042796
    30 -0.020057 -0.902687 0.025715 -0.831369 0.007335 -0.033509
    31 0.614761 -1.208996 0.197098 0.029646 -1.044020 -0.169091
    32 1.457800 -0.239762 0.075324 0.065096 -0.234119 -0.860323
    33 0.987486 -0.190791 0.047917 0.109811 -0.259457 -1.139139
    34 0.120153 -0.050270 -0.054489 0.287569 3.110905 1.561085
    35 -8.849156 -9.012625 -1.138037 0.122694 -3.699709 0.018841
    36 0.093038 -8.360572 -0.064054 -0.217744 -0.064607 0.372661
    37 0.447953 -2.798986 -0.200443 -0.171370 -0.016065 0.194900
    38 -0.032909 -1.499736 0.028378 -1.435653 0.023358 -0.027754
    39 -0.027022 -1.127703 -0.020210 -1.265383 0.024473 -0.023226
    40 -0.249534 -2.846964 -0.174213 -0.152458 0.086464 0.063092
    41 0.043235 -1.656596 0.068667 -1.387690 -0.021757 0.006952
    42 0.031729 -1.141298 0.054932 -1.279928 -0.014315 0.007090
    43 -0.963866 -2.785145 -0.085350 0.053166 0.155589 -0.150065
    44 0.028479 -1.403067 -0.009354 -0.625488 -0.012812 -0.025383
    45 0.021413 -0.946062 0.016140 -0.619923 -0.012656 -0.024712
    46 1.164475 -2.543940 -0.170330 -0.114810 -0.080408 0.140285
    47 0.024032 -1.148574 -0.009538 -1.265292 0.022124 0.061853
    48 0.014898 -0.899614 -0.015942 -0.891250 0.005297 0.045050
    49 -0.586770 -1.264477 0.200161 -0.316722 -1.034155 -2.553877
    50 1.565805 0.035243 0.016848 -0.018676 -0.006907 0.887549
    51 1.114041 0.044518 -0.005766 -0.025854 -0.034738 0.943911
    52 -0.139399 -0.111698 0.014397 0.285382 -0.030687 1.580508
    53 -4.092771 8.487604 -0.317560 1.581667 -0.013626 -1.241304
  time 14
    0 0.511734 -5.367351 -24.563250 -1.420172 -1.378253 -0.902198
    1 3.096915 -0.000001 -3.559005 -3.141592 -1.570451 0.000000
    2 -3.157606 0.000000 -1.771385 0.000000 -3.141496 0.000000
    3 1.347458 0.000000 -0.036606 0.000001 -3.141592 0.000000
    4 2.980681 -0.000001 -3.026972 0.000000 0.000000 0.000000
    5 -11.539415 -21.473617 -7.918210 -1.516438 -0.206092 0.583226
    6 3.096915 -0.000002 -3.559005 -3.141592 -1.570451 0.000000
    7 -2.772562 -0.000001 -3.715392 0.000000 -0.478942 0.000000
    8 -3.157606 0.000001 -1.771385 0.000000 3.141592 0.000000
    9 1.347458 0.000000 -0.036606 0.000001 -3.141592 0.000000
    10 2.980681 -0.000001 -3.026972 0.000000 0.000000 0.000000
    11 0.563432 -7.857068 -21.840510 -0.661802 0.111405 -0.887638
    12 0.563432 -7.857068 -21.840510 1.223049 0.111405 -0.887638
    13 -0.153939 -882.469269 -788.484488 1.454481 0.678748 -4.991094
    14 0.000002 0.001860 -0.000010 0.000000 0.000000 0.000000
    15 -0.018378 3.514467 -6.116755 0.000000 0.000000 0.011852
    16 8.005376 -1.029952 -7.065603 4.888083 -2.644685 0.869747
    17 5.905759 6.969561 -0.255279 1.565319 -3.132647 0.965140
    18 -0.107078 -8.401077 -0.174449 -0.442888 0.059102 -0.035259
    19 -0.488518 -2.755602 -0.228260 -0.745251 0.051068 -0.423382
    20 0.039887 -1.530573 0.014229 -1.485001 -0.012104 0.033019
    21 0.028786 -1.196828 -0.132487 -1.277422 -0.014849 0.028380
    22 0.250027 -2.820665 -0.238396 -0.301529 -0.010232 -0.328312
    23 -0.049759 -1.598510 0.037977 -1.463482 0.002109 -0.039707
    24 -0.034142 -1.171750 0.045718 -1.169340 0.006568 -0.030800
    25 0.957766 -2.746780 -0.090302 -0.060511 -0.107136 -0.250327
    26 -0.033420 -1.397129 -0.026882 -0.833373 0.006687 -0.041000
    27 -0.022360 -0.961342 -0.004654 -0.863237 0.005836 -0.042042
    28 -1.180681 -2.507217 -0.193859 -0.667273 0.219944 -0.377532
    29 -0.024967 -1.127840 0.017597 -0.998794 0.003967 -0.042796
    30 -0.020057 -0.902687 0.025715 -0.831369 0.007335 -0.033509
    31 0.614761 -1.208996 0.197098 0.029646 -1.044020 -0.169091
    32 1.457800 -0.239762 0.075324 0.065096 -0.234119 -0.860323
    33 0.987486 -0.190791 0.047917 0.109811 -0.259457 -1.139139
    34 0.120153 -0.050270 -0.054489 0.287569 3.110905 1.561085
    35 -10.118726 -8.313385 -0.583332 0.084569 -3.431886 -0.190512
    36 0.120382 -8.360572 -0.107024 -0.160408 0.157993 0.344180
    37 0.447953 -2.798986 -0.200443 -0.171370 -0.016065 0.194900
    38 -0.032909 -1.499736 0.028378 -1.435653 0.023358 -0.027754
    39 -0.027022 -1.127703 -0.020210 -1.265383 0.024473 -0.023226
    40 -0.249534 -2.846964 -0.174213 -0.152458 0.086464 0.063092
    41 0.043235 -1.656596 0.068667 -1.387690 -0.021757 0.006952
    42 0.031729 -1.141298 0.054932 -1.279928 -0.014315 0.007090
    43 -0.963866 -2.785145 -0.085350 0.053166 0.155589 -0.150065
    44 0.028479 -1.403067 -0.009354 -0.625488 -0.012812 -0.025383
    45 0.021413 -0.946062 0.016140 -0.619923 -0.012656 -0.024712
    46 1.164475 -2.543940 -0.170330 -0.114810 -0.080408 0.140285
    47 0.024032 -1.148574 -0.009538 -1.265292 0.022124 0.061853
    48 0.014898 -0.899614 -0.015942 -0.891250 0.005297 0.045050
    49 -0.586770 -1.264477 0.200161 -0.316722 -1.034155 -2.553877
    50 1.565805 0.035243 0.016848 -0.018676 -0.006907 0.887549
    51 1.114041 0.044518 -0.005766 -0.025854 -0.034738 0.943911
    52 -0.139399 -0.111698 0.014397 0.285382 -0.030687 1.580508
    53 -4.127928 8.468072 -0.317560 1.581667 -0.013722 -1.236931
  time 15
    0 0.511734 -5.367351 -24.563250 -1.420172 -1.378253 -0.902198
    1 3.096915 -0.000001 -3.559005 -3.141592 -1.570451 0.000000
    2 -3.157606 0.000000 -1.771385 0.000000 3.141592 0.000000
    3 1.347458 0.000000 -0.036606 0.000001 -3.141592 0.000000
    4 2.980681 -0.000001 -3.026972 0.000000 0.000000 0.000000
    5 -16.543474 -19.360271 -8.890896 -1.422470 -0.207489 0.336016
    6 3.096915 -0.000002 -3.559005 -3.141592 -1.570451 0.000000
    7 -2.772562 -0.000001 -3.715392 0.000000 -0.478942 0.000000
    8 -3.157606 0.000001 -1.771385 0.000000 3.141592 0.000000
    9 1.347458 0.000000 -0.036606 0.000001 -3.141592 0.000000
    10 2.980681 -0.000001 -3.026972 0.000000 0.000000 0.000000
    11 0.563432 -7.857068 -21.840510 -0.033429 0.111405 -0.887638
    12 0.563432 -7.857068 -21.840510 1.537194 0.111405 -0.887638
    13 -0.153939 -882.469269 -788.484488 1.454481 0.678748 -4.991094
    14 0.000002 0.001860 -0.000010 0.000000 0.000000 0.000000
    15 -0.018378 3.514467 -6.116755 0.000000 0.000000 0.011852
    16 8.005376 -1.029952 -7.065603 4.888083 -2.644685 0.869747
    17 5.905759 6.969561 -0.255279 1.565319 -3.132647 0.965140
    18 -0.107078 -8.401077 -0.174449 -0.442888 0.059102 -0.035259
    19 -0.488518 -2.755602 -0.228260 -0.745251 0.051068 -0.423382
    20 0.039887 -1.530573 0.014229 -1.485001 -0.012104 0.033019
    21 0.028786 -1.196828 -0.132487 -1.277422 -0.014849 0.028380
    22 0.250027 -2.820665 -0.238396 -0.301529 -0.010232 -0.328312
    23 -0.049759 -1.598510 0.037977 -1.463482 0.002109 -0.039707
    24 -0.034142 -1.171750 0.045718 -1.169340 0.006568 -0.030800
    25 0.957766 -2.746780 -0.090302 -0.060511 -0.107136 -0.250327
    26 -0.033420 -1.397129 -0.026882 -0.833373 0.006687 -0.041000
    27 -0.022360 -0.961342 -0.004654 -0.863237 0.005836 -0.042042
    28 -1.180681 -2.507217 -0.193859 -0.667273 0.219944 -0.377532
    29 -0.024967 -1.127840 0.017597 -0.998794 0.003967 -0.042796
    30 -0.020057 -0.902687 0.025715 -0.831369 0.007335 -0.033509
    31 0.614761 -1.208996 0.197098 0.029646 -1.044020 -0.169091
    32 1.457800 -0.239762 0.075324 0.065096 -0.234119 -0.860323
    33 0.987486 -0.190791 0.047917 0.109811 -0.259457 -1.139139
    34 0.120153 -0.050270 -0.054489 0.287569 3.110905 1.561085
    35 -11.251573 -7.168819 -0.501299 0.033482 -3.308545 -0.449119
    36 0.116476 -8.360572 -0.099211 -0.201081 0.107262 0.327694
    37 0.447953 -2.798986 -0.200443 -0.171370 -0.016065 0.194900
    38 -0.032909 -1.499736 0.028378 -1.435653 0.023358 -0.027754
    39 -0.027022 -1.127703 -0.020210 -1.265383 0.024473 -0.023226
    40 -0.249534 -2.846964 -0.174213 -0.152458 0.086464 0.063092
    41 0.043235 -1.656596 0.068667 -1.387690 -0.021757 0.006952
    42 0.031729 -1.141298 0.054932 -1.279928 -0.014315 0.007090
    43 -0.963866 -2.785145 -0.085350 0.053166 0.155589 -0.150065
    44 0.028479 -1.403067 -0.009354 -0.625488 -0.012812 -0.025383
    45 0.021413 -0.946062 0.016140 -0.619942 -0.012656 -0.024712
    46 1.164475 -2.543940 -0.170330 -0.114810 -0.080408 0.140285
    47 0.024032 -1.148574 -0.009538 -1.265292 0.022124 0.061853
    48 0.014898 -0.899614 -0.015942 -0.891250 0.005297 0.045050
    49 -0.586770 -1.264477 0.200161 -0.316722 -1.034155 -2.553877
    50 1.565805 0.035243 0.016848 -0.018676 -0.006907 0.887549
    51 1.114041 0.044518 -0.005766 -0.025854 -0.034738 0.943911
    52 -0.139399 -0.111698 0.014397 0.285382 -0.030687 1.580508
    53 -4.100584 8.483698 -0.317560 1.581667 -0.013626 -1.240448
  time 16
    0 0.511734 -5.367351 -24.563250 -1.420172 -1.378253 -0.902198
    1 3.096915 -0.000001 -3.559005 -3.141592 -1.570451 0.000000
    2 -3.157606 0.000000 -1.771385 0.000000 -2.513216 0.000000
    3 1.347458 0.000000 -0.036606 0.000001 -3.141592 0.000000
    4 2.980681 -0.000001 -3.026972 0.000000 0.000000 0.000000
    5 -21.293619 -15.582812 -9.937803 -1.458965 -0.361839 0.053040
    6 3.096915 -0.000002 -3.559005 -3.141592 -1.570451 0.000000
    7 -2.772562 -0.000001 -3.715392 0.000000 -0.478942 0.000000
    8 -3.157606 0.000001 -1.771385 0.000000 3.141592 0.000000
    9 1.347458 0.000000 -0.036606 0.000001 -3.141592 0.000000
    10 2.980681 -0.000001 -3.026972 0.000000 0.000000 0.000000
    11 0.563432 -7.857068 -21.840510 0.594752 0.111405 -0.887638
    12 0.563432 -7.857068 -21.840510 1.851339 0.111405 -0.887638
    13 -0.153939 -882.469269 -788.484488 1.454481 0.678748 -4.991094
    14 0.000002 0.001860 -0.000010 0.000000 0.000000 0.000000
    15 -0.018378 3.514467 -6.116755 0.000000 0.000000 0.011852
    16 8.005376 -1.029952 -7.065603 4.888083 -2.644685 0.869747
    17 5.905759 6.969561 -0.255279 1.565319 -3.132647 0.965140
    18 -0.107078 -8.401077 -0.174449 -0.442888 0.059102 -0.035259
    19 -0.488518 -2.755602 -0.228260 -0.745251 0.051068 -0.423382
    20 0.039887 -1.530573 0.014229 -1.485001 -0.012104 0.033019
    21 0.028786 -1.196828 -0.132487 -1.277422 -0.014849 0.028380
    22 0.250027 -2.820665 -0.238396 -0.301529 -0.010232 -0.328312
    23 -0.049759 -1.598510 0.037977 -1.463482 0.002109 -0.039707
    24 -0.034142 -1.171750 0.045718 -1.169340 0.006568 -0.030800
    25 0.957766 -2.746780 -0.090302 -0.060511 -0.107136 -0.250327
    26 -0.033420 -1.397129 -0.026882 -0.833373 0.006687 -0.041000
    27 -0.022360 -0.961342 -0.004654 -0.863237 0.005836 -0.042042
    28 -1.180681 -2.507217 -0.193859 -0.667273 0.219944 -0.377532
    29 -0.024967 -1.127840 0.017597 -0.998794 0.003967 -0.042796
    30 -0.020057 -0.902687 0.025715 -0.831369 0.007335 -0.033509
    31 0.614761 -1.208996 0.197098 0.029646 -1.044020 -0.169091
    32 1.457800 -0.239762 0.075324 0.065096 -0.234119 -0.860323
    33 0.987486 -0.190791 0.047917 0.109811 -0.259457 -1.139139
    34 0.120153 -0.050270 -0.054489 0.287569 3.110905 1.561085
    35 -12.146131 -5.512518 -0.630209 -0.029233 -3.232841 -0.754206
    36 0.096944 -8.360572 -0.067961 -0.289589 -0.084152 0.326215
    37 0.447953 -2.798986 -0.200443 -0.171370 -0.016065 0.194900
    38 -0.032909 -1.499736 0.028378 -1.435653 0.023358 -0.027754
    39 -0.027022 -1.127703 -0.020210 -1.265383 0.024473 -0.023226
    40 -0.249534 -2.846964 -0.174213 -0.152458 0.086464 0.063092
    41 0.043235 -1.656596 0.068667 -1.387690 -0.021757 0.006952
    42 0.031729 -1.141298 0.054932 -1.279928 -0.014315 0.007090
    43 -0.963866 -2.785145 -0.085350 0.053166 0.155589 -0.150065
    44 0.028479 -1.403067 -0.009354 -0.625488 -0.012812 -0.025383
    45 0.021413 -0.946062 0.016140 -0.619923 -0.012656 -0.024712
    46 1.164475 -2.543940 -0.170330 -0.114810 -0.080408 0.140285
    47 0.024032 -1.148574 -0.009538 -1.265292 0.022124 0.061853
    48 0.014898 -0.899614 -0.015942 -0.891250 0.005297 0.045050
    49 -0.586770 -1.264477 0.200161 -0.316722 -1.034155 -2.553877
    50 1.565805 0.035243 0.016848 -0.018676 -0.006907 0.887549
    51 1.114041 0.044518 -0.005766 -0.025854 -0.034738 0.943911
    52 -0.139399 -0.111698 0.014397 0.285382 -0.030687 1.580508
    53 -4.041988 8.514948 -0.313654 1.581667 -0.013435 -1.247957
  time 17
    0 0.511734 -5.367351 -24.563250 -1.420172 -1.378253 -0.902198
    1 3.096915 -0.000001 -3.559005 -3.141592 -1.570451 0.000000
    2 -3.157606 0.000000 -1.771385 0.000000 -1.884936 0.000000
    3 1.347458 0.000000 -0.036606 0.000001 -3.141592 0.000000
    4 2.980681 -0.000001 -3.026972 0.000000 0.000000 0.000000
    5 -24.922636 -10.629536 -10.359691 -1.507433 -0.486855 -0.232422
    6 3.096915 -0.000002 -3.559005 -3.141592 -1.570451 0.000000
    7 -2.772562 -0.000001 -3.715392 0.000000 -0.478942 0.000000
    8 -3.157606 0.000001 -1.771385 0.000000 3.141592 0.000000
    9 1.347458 0.000000 -0.036606 0.000001 -3.141592 0.000000
    10 2.980681 -0.000001 -3.026972 0.000000 0.000000 0.000000
    11 0.563432 -7.857068 -21.840510 1.223028 0.111405 -0.887638
    12 0.563432 -7.857068 -21.840510 2.165580 0.111405 -0.887638
    13 -0.153939 -882.469269 -788.484488 1.454481 0.678748 -4.991094
    14 0.000002 0.001860 -0.000010 0.000000 0.000000 0.000000
    15 -0.018378 3.514467 -6.116755 0.000000 0.000000 0.011852
    16 8.005376 -1.029952 -7.065603 4.888083 -2.644685 0.869747
    17 5.905759 6.969561 -0.255279 1.565319 -3.132647 0.965140
    18 -0.107078 -8.401077 -0.174449 -0.442888 0.059102 -0.035259
    19 -0.488518 -2.755602 -0.228260 -0.745251 0.051068 -0.423382
    20 0.039887 -1.530573 0.014229 -1.485001 -0.012104 0.033019
    21 0.028786 -1.196828 -0.132487 -1.277422 -0.014849 0.028380
    22 0.250027 -2.820665 -0.238396 -0.301529 -0.010232 -0.328312
    23 -0.049759 -1.598510 0.037977 -1.463482 0.002109 -0.039707
    24 -0.034142 -1.171750 0.045718 -1.169340 0.006568 -0.030800
    25 0.957766 -2.746780 -0.090302 -0.060511 -0.107136 -0.250327
    26 -0.033420 -1.397129 -0.026882 -0.833373 0.006687 -0.041000
    27 -0.022360 -0.961342 -0.004654 -0.863237 0.005836 -0.042042
    28 -1.180681 -2.507217 -0.193859 -0.667273 0.219944 -0.377532
    29 -0.024967 -1.127840 0.017597 -0.998794 0.003967 -0.042796
    30 -0.020057 -0.902687 0.025715 -0.831369 0.007335 -0.033509
    31 0.614761 -1.208996 0.197098 0.029646 -1.044020 -0.169091
    32 1.457800 -0.239762 0.075324 0.065096 -0.234119 -0.860323
    33 0.987486 -0.190791 0.047917 0.109811 -0.259457 -1.139139
    34 0.120153 -0.050270 -0.054489 0.287569 3.110905 1.561085
    35 -12.528955 -3.668712 -0.575520 -0.065642 -3.142090 -1.052885
    36 0.065693 -8.356666 -0.040616 -0.380901 -0.274915 0.342163
    37 0.447953 -2.798986 -0.200443 -0.171370 -0.016065 0.194900
    38 -0.032909 -1.499736 0.028378 -1.435653 0.023358 -0.027754
    39 -0.027022 -1.127703 -0.020210 -1.265383 0.024473 -0.023226
    40 -0.249534 -2.846964 -0.174213 -0.152458 0.086464 0.063092
    41 0.043235 -1.656596 0.068667 -1.387690 -0.021757 0.006952
    42 0.031729 -1.141298 0.054932 -1.279928 -0.014315 0.007090
    43 -0.963866 -2.785145 -0.085350 0.053166 0.155589 -0.150065
    44 0.028479 -1.403067 -0.009354 -0.625488 -0.012812 -0.025383
    45 0.021413 -0.946062 0.016140 -0.619923 -0.012656 -0.024712
    46 1.164475 -2.543940 -0.170330 -0.114810 -0.080408 0.140285
    47 0.024032 -1.148574 -0.009538 -1.265292 0.022124 0.061853
    48 0.014898 -0.899614 -0.015942 -0.891250 0.005297 0.045050
    49 -0.586770 -1.264477 0.200161 -0.316722 -1.034155 -2.553877
    50 1.565805 0.035243 0.016848 -0.018676 -0.006907 0.887549
    51 1.114041 0.044518 -0.005766 -0.025854 -0.034738 0.943911
    52 -0.139399 -0.111698 0.014397 0.285382 -0.030687 1.580508
    53 -3.983393 8.542293 -0.313654 1.581667 -0.013244 -1.255561
  time 18
    0 0.511734 -5.367351 -24.563250 -1.420172 -1.378253 -0.902198
    1 3.096915 -0.000001 -3.559005 -3.141592 -1.570451 0.000000
    2 -3.157606 0.000000 -1.771385 0.000000 -1.256560 0.000000
    3 1.347458 0.000000 -0.036606 0.000001 -3.141592 0.000000
    4 2.980681 -0.000001 -3.026972 0.000000 0.000000 0.000000
    5 -24.922636 -10.629536 -10.359691 -1.507433 -0.486855 -0.232422
    6 3.096915 -0.000002 -3.559005 -3.141592 -1.570451 0.000000
    7 -2.772562 -0.000001 -3.715392 0.000000 -0.478942 0.000000
    8 -3.157606 0.000001 -1.771385 0.000000 3.141592 0.000000
    9 1.347458 0.000000 -0.036606 0.000001 -3.141592 0.000000
    10 2.980681 -0.000001 -3.026972 0.000000 0.000000 0.000000
    11 0.563432 -7.857068 -21.840510 1.851401 0.111405 -0.887638
    12 0.563432 -7.857068 -21.840510 2.479725 0.111405 -0.887638
    13 -0.153939 -882.469269 -788.484488 1.454481 0.678748 -4.991094
    14 0.000002 0.001860 -0.000010 0.000000 0.000000 0.000000
    15 -0.018378 3.514467 -6.116755 0.000000 0.000000 0.011852
    16 8.005376 -1.029952 -7.065603 4.888083 -2.644685 0.869747
    17 5.905759 6.969561 -0.255279 1.565319 -3.132647 0.965140
    18 -0.107078 -8.401077 -0.174449 -0.442888 0.059102 -0.035259
    19 -0.488518 -2.755602 -0.228260 -0.745251 0.051068 -0.423382
    20 0.039887 -1.530573 0.014229 -1.485001 -0.012104 0.033019
    21 0.028786 -1.196828 -0.132487 -1.277422 -0.014849 0.028380
    22 0.250027 -2.820665 -0.238396 -0.301529 -0.010232 -0.328312
    23 -0.049759 -1.598510 0.037977 -1.463482 0.002109 -0.039707
    24 -0.034142 -1.171750 0.045718 -1.169340 0.006568 -0.030800
    25 0.957766 -2.746780 -0.090302 -0.060511 -0.107136 -0.250327
    26 -0.033420 -1.397129 -0.026882 -0.833373 0.006687 -0.041000
    27 -0.022360 -0.961342 -0.004654 -0.863237 0.005836 -0.042042
    28 -1.180681 -2.507217 -0.193859 -0.667273 0.219944 -0.377532
    29 -0.024967 -1.127840 0.017597 -0.998794 0.003967 -0.042796
    30 -0.020057 -0.902687 0.025715 -0.831369 0.007335 -0.033509
    31 0.614761 -1.208996 0.197098 0.029646 -1.044020 -0.169091
    32 1.457800 -0.239762 0.075324 0.065096 -0.234119 -0.860323
    33 0.987486 -0.190791 0.047917 0.109811 -0.259457 -1.139139
    34 0.120153 -0.050270 -0.054489 0.287569 3.110905 1.561085
    35 -12.528955 -3.668712 -0.575520 -0.065642 -3.142090 -1.052885
    36 0.065693 -8.356666 -0.040616 -0.380901 -0.274915 0.342163
    37 0.447953 -2.798986 -0.200443 -0.171370 -0.016065 0.194900
    38 -0.032909 -1.499736 0.028378 -1.435653 0.023358 -0.027754
    39 -0.027022 -1.127703 -0.020210 -1.265383 0.024473 -0.023226
    40 -0.249534 -2.846964 -0.174213 -0.152458 0.086464 0.063092
    41 0.043235 -1.656596 0.068667 -1.387690 -0.021757 0.006952
    42 0.031729 -1.141298 0.054932 -1.279928 -0.014315 0.007090
    43 -0.963866 -2.785145 -0.085350 0.053166 0.155589 -0.150065
    44 0.028479 -1.403067 -0.009354 -0.625488 -0.012812 -0.025383
    45 0.021413 -0.946062 0.016140 -0.619923 -0.012656 -0.024712
    46 1.164475 -2.543940 -0.170330 -0.114810 -0.080408 0.140285
    47 0.024032 -1.148574 -0.009538 -1.265292 0.022124 0.061853
    48 0.014898 -0.899614 -0.015942 -0.891250 0.005297 0.045050
    49 -0.586770 -1.264477 0.200161 -0.316722 -1.034155 -2.553877
    50 1.565805 0.035243 0.016848 -0.018676 -0.006907 0.887549
    51 1.114041 0.044518 -0.005766 -0.025854 -0.034738 0.943911
    52 -0.139399 -0.111698 0.014397 0.285382 -0.030687 1.580508
    53 -3.983393 8.542293 -0.313654 1.581667 -0.013244 -1.255561
  time 19
    0 0.511734 -5.367351 -24.563250 -1.420172 -1.378253 -0.902198
    1 3.096915 -0.000001 -3.559005 -3.141592 -1.570451 0.000000
    2 -3.157606 0.000000 -1.771385 0.000000 -0.628280 0.000000
    3 1.347458 0.000000 -0.036606 0.000001 -3.141592 0.000000
    4 2.980681 -0.000001 -3.026972 0.000000 0.000000 0.000000
    5 -24.922636 -10.629536 -10.359691 -1.507433 -0.486855 -0.232422
    6 3.096915 -0.000002 -3.559005 -3.141592 -1.570451 0.000000
    7 -2.772562 -0.000001 -3.715392 0.000000 -0.478942 0.000000
    8 -3.157606 0.000001 -1.771385 0.000000 3.141592 0.000000
    9 1.347458 0.000000 -0.036606 0.000001 -3.141592 0.000000
    10 2.980681 -0.000001 -3.026972 0.000000 0.000000 0.000000
    11 0.563432 -7.857068 -21.840510 2.479677 0.111405 -0.887638
    12 0.563432 -7.857068 -21.840510 2.793870 0.111405 -0.887638
    13 -0.153939 -882.469269 -788.484488 1.454481 0.678748 -4.991094
    14 0.000002 0.001860 -0.000010 0.000000 0.000000 0.000000
    15 -0.018378 3.514467 -6.116755 0.000000 0.000000 0.011852
    16 8.005376 -1.029952 -7.065603 4.888083 -2.644685 0.869747
    17 5.905759 6.969561 -0.255279 1.565319 -3.132647 0.965140
    18 -0.107078 -8.401077 -0.174449 -0.442888 0.059102 -0.035259
    19 -0.488518 -2.755602 -0.228260 -0.745251 0.051068 -0.423382
    20 0.039887 -1.530573 0.014229 -1.485001 -0.012104 0.033019
    21 0.028786 -1.196828 -0.132487 -1.277422 -0.014849 0.028380
    22 0.250027 -2.820665 -0.238396 -0.301529 -0.010232 -0.328312
    23 -0.049759 -1.598510 0.037977 -1.463482 0.002109 -0.039707
    24 -0.034142 -1.171750 0.045718 -1.169340 0.006568 -0.030800
    25 0.957766 -2.746780 -0.090302 -0.060511 -0.107136 -0.250327
    26 -0.033420 -1.397129 -0.026882 -0.833373 0.006687 -0.041000
    27 -0.022360 -0.961342 -0.004654 -0.863237 0.005836 -0.042042
    28 -1.180681 -2.507217 -0.193859 -0.667273 0.219944 -0.377532
    29 -0.024967 -1.127840 0.017597 -0.998794 0.003967 -0.042796
    30 -0.020057 -0.902687 0.025715 -0.831369 0.007335 -0.033509
    31 0.614761 -1.208996 0.197098 0.029646 -1.044020 -0.169091
    32 1.457800 -0.239762 0.075324 0.065096 -0.234119 -0.860323
    33 0.987486 -0.190791 0.047917 0.109811 -0.259457 -1.139139
    34 0.120153 -0.050270 -0.054489 0.287569 3.110905 1.561085
    35 -12.528955 -3.668712 -0.575520 -0.065642 -3.142090 -1.052885
    36 0.065693 -8.356666 -0.040616 -0.380901 -0.274915 0.342163
    37 0.447953 -2.798986 -0.200443 -0.171370 -0.016065 0.194900
    38 -0.032909 -1.499736 0.028378 -1.435653 0.023358 -0.027754
    39 -0.027022 -1.127703 -0.020210 -1.265383 0.024473 -0.023226
    40 -0.249534 -2.846964 -0.174213 -0.152458 0.086464 0.063092
    41 0.043235 -1.656596 0.068667 -1.387690 -0.021757 0.006952
    42 0.031729 -1.141298 0.054932 -1.279928 -0.014315 0.007090
    43 -0.963866 -2.785145 -0.085350 0.053166 0.155589 -0.150065
    44 0.028479 -1.403067 -0.009354 -0.625488 -0.012812 -0.025383
    45 0.021413 -0.946062 0.016140 -0.619923 -0.012656 -0.024712
    46 1.164475 -2.543940 -0.170330 -0.114810 -0.080408 0.140285
    47 0.024032 -1.148574 -0.009538 -1.265292 0.022124 0.061853
    48 0.014898 -0.899614 -0.015942 -0.891250 0.005297 0.045050
    49 -0.586770 -1.264477 0.200161 -0.316722 -1.034155 -2.553877
    50 1.565805 0.035243 0.016848 -0.018676 -0.006907 0.887549
    51 1.114041 0.044518 -0.005766 -0.025854 -0.034738 0.943911
    52 -0.139399 -0.111698 0.014397 0.285382 -0.030687 1.580508
    53 -3.983393 8.542293 -0.313654 1.581667 -0.013244 -1.255561
  time 20
    0 0.511734 -5.367351 -24.563250 -1.420172 -1.378253 -0.902198
    1 3.096915 -0.000001 -3.559005 -3.141592 -1.570451 0.000000
    2 -3.157606 0.000000 -1.771385 0.000000 0.000000 0.000000
    3 1.347458 0.000000 -0.036606 0.000001 -3.141592 0.000000
    4 2.980681 -0.000001 -3.026972 0.000000 0.000000 0.000000
    5 -24.922636 -10.629536 -10.359691 -1.507433 -0.486855 -0.232422
    6 3.096915 -0.000002 -3.559005 -3.141592 -1.570451 0.000000
    7 -2.772562 -0.000001 -3.715392 0.000000 -0.478942 0.000000
    8 -3.157606 0.000001 -1.771385 0.000000 3.141592 0.000000
    9 1.347458 0.000000 -0.036606 0.000001 -3.141592 0.000000
    10 2.980681 -0.000001 -3.026972 0.000000 0.000000 0.000000
    11 0.563432 -7.857068 -21.840510 3.108050 0.111405 -0.887638
    12 0.563432 -7.857068 -21.840510 3.108015 0.111405 -0.887638
    13 -0.153939 -882.469269 -788.484488 1.454481 0.678748 -4.991094
    14 0.000002 0.001860 -0.000010 0.000000 0.000000 0.000000
    15 -0.018378 3.514467 -6.116755 0.000000 0.000000 0.011852
    16 8.005376 -1.029952 -7.065603 4.888083 -2.644685 0.869747
    17 5.905759 6.969561 -0.255279 1.565319 -3.132647 0.965140
    18 -0.107078 -8.401077 -0.174449 -0.442888 0.059102 -0.035259
    19 -0.488518 -2.755602 -0.228260 -0.745251 0.051068 -0.423382
    20 0.039887 -1.530573 0.014229 -1.485001 -0.012104 0.033019
    21 0.028786 -1.196828 -0.132487 -1.277422 -0.014849 0.028380
    22 0.250027 -2.820665 -0.238396 -0.301529 -0.010232 -0.328312
    23 -0.049759 -1.598510 0.037977 -1.463482 0.002109 -0.039707
    24 -0.034142 -1.171750 0.045718 -1.169340 0.006568 -0.030800
    25 0.957766 -2.746780 -0.090302 -0.060511 -0.107136 -0.250327
    26 -0.033420 -1.397129 -0.026882 -0.833373 0.006687 -0.041000
    27 -0.022360 -0.961342 -0.004654 -0.863237 0.005836 -0.042042
    28 -1.180681 -2.507217 -0.193859 -0.667273 0.219944 -0.377532
    29 -0.024967 -1.127840 0.017597 -0.998794 0.003967 -0.042796
    30 -0.020057 -0.902687 0.025715 -0.831369 0.007335 -0.033509
    31 0.614761 -1.208996 0.197098 0.029646 -1.044020 -0.169091
    32 1.457800 -0.239762 0.075324 0.065096 -0.234119 -0.860323
    33 0.987486 -0.190791 0.047917 0.109811 -0.259457 -1.139139
    34 0.120153 -0.050270 -0.054489 0.287569 3.110905 1.561085
    35 -12.528955 -3.668712 -0.575520 -0.065642 -3.142090 -1.052885
    36 0.065693 -8.356666 -0.040616 -0.380901 -0.274915 0.342163
    37 0.447953 -2.798986 -0.200443 -0.171370 -0.016065 0.194900
    38 -0.032909 -1.499736 0.028378 -1.435653 0.023358 -0.027754
    39 -0.027022 -1.127703 -0.020210 -1.265383 0.024473 -0.023226
    40 -0.249534 -2.846964 -0.174213 -0.152458 0.086464 0.063092
    41 0.043235 -1.656596 0.068667 -1.387690 -0.021757 0.006952
    42 0.031729 -1.141298 0.054932 -1.279928 -0.014315 0.007090
    43 -0.963866 -2.785145 -0.085350 0.053166 0.155589 -0.150065
    44 0.028479 -1.403067 -0.009354 -0.625488 -0.012812 -0.025383
    45 0.021413 -0.946062 0.016140 -0.619923 -0.012656 -0.024712
    46 1.164475 -2.543940 -0.170330 -0.114810 -0.080408 0.140285
    47 0.024032 -1.148574 -0.009538 -1.265292 0.022124 0.061853
    48 0.014898 -0.899614 -0.015942 -0.891250 0.005297 0.045050
    49 -0.586770 -1.264477 0.200161 -0.316722 -1.034155 -2.553877
    50 1.565805 0.035243 0.016848 -0.018676 -0.006907 0.887549
    51 1.114041 0.044518 -0.005766 -0.025854 -0.034738 0.943911
    52 -0.139399 -0.111698 0.014397 0.285382 -0.030687 1.580508
    53 -3.983393 8.542293 -0.313654 1.581667 -0.013244 -1.255561
end
