// Created by Crowbar 0.49.0.0

$modelname "weapons/tfa_cso/c_spas12exb.mdl"

$Include "csonline_gmod.qci"

$bodygroup "weapon"
{
	studio "v_spas12ex_ref"
}

$CDMaterials "models\weapons\tfa_cso\spas12ex"

$attachment 0 "Bone02" 27 0 0
//$attachment 1 "Bone02" 3.5 0 0.3

$definebone "root" "" -1.000000 1.629157 0.541027 0.000000 0.000000 0.000000 0.000000 0.000000 0.000000 -0.000000 0.000000 0.000000
$definebone "Bone01" "root" 9.481372 5.488253 -8.469172 -87.597498 177.381763 171.407697 0.000000 0.000000 0.000000 -0.000000 0.000000 -0.000002
$definebone "Bone_Lefthand" "Bone01" -0.071918 -8.498730 -0.104136 13.611990 6.245470 9.539345 0.000000 0.000000 0.000000 0.000003 -0.000000 0.000001
$definebone "Bone02" "Bone_Lefthand" 2.815887 -5.283122 1.386547 2.863014 -93.433779 12.015840 0.000000 0.000000 0.000000 0.000001 0.000000 -0.000001
$definebone "Bone24" "Bone02" -2.052183 -0.333174 -0.000001 0.000001 8.304050 -179.999966 0.000000 0.000000 0.000000 -0.000001 -0.000001 -0.000001
$definebone "Bone25" "Bone24" 9.198752 0.000002 0.000000 -0.000001 8.304048 -0.000001 0.000000 0.000000 0.000000 -0.000001 -0.000001 -0.000001
$definebone "Bone12" "Bone02" 3.633989 -0.389698 -0.017558 -89.999983 -90.000038 0.000000 0.000000 0.000000 0.000000 0.000001 -0.000001 0.000000
$definebone "Bone16" "Bone02" 11.822115 -1.093857 -0.000000 -0.000001 -89.999983 0.000056 0.000000 0.000000 0.000000 -0.000001 -0.000000 -0.000001
$definebone "Bone08" "Bone02" 2.283095 -30.369556 -0.000005 0.000001 0.000000 0.000056 0.000000 0.000000 0.000000 0.000001 0.000000 -0.000001

$sequence "idle" {
	"v_spas12ex_anims\idle"
	fps 30
	loop
}
$sequence "shoot1" {
	"v_spas12ex_anims\shoot1"
	{ event 5001 1 "21" }
	fps 30
}
$sequence "shoot2" {
	"v_spas12ex_anims\shoot2"
	{ event 5001 1 "21" }
	fps 30
}
$sequence "insert" {
	"v_spas12ex_anims\insert"
	{ event 5004 1 "Spas12.Insert" }
	fps 30
}
$sequence "after_reload" {
	"v_spas12ex_anims\after_reload"
	{ event 5004 9 "Spas12.Reload" }
	fps 30
}
$sequence "start_reload" {
	"v_spas12ex_anims\start_reload"
	fps 30
}
$sequence "draw" {
	"v_spas12ex_anims\draw"
	{ event 5004 9 "Spas12.Draw" }
	fps 30
}
$sequence "shoot3" {
	"v_spas12ex_anims\shoot3"
	{ event 5001 1 "21" }
	fps 30
	activity "ACT_VM_PRIMARYATTACK" 1
	snap
}
$sequence "func_change1" {
	"v_spas12ex_anims\func_change1"
	{ event 5004 13 "Spas12.Change1" }
	fps 30
	activity "ACT_VM_DRAW" 1
	snap
}
$sequence "func_change2" {
	"v_spas12ex_anims\func_change2"
	{ event 5004 14 "Spas12.Change2" }
	fps 30
}
$sequence "idle2" {
	"v_spas12ex_anims\idle2"
	fps 30
	activity "ACT_VM_IDLE" 1
	snap
	loop
}
$sequence "insert2" {
	"v_spas12ex_anims\insert2"
	{ event 5004 1 "Spas12.Insert" }
	fps 30
	activity "ACT_VM_RELOAD" 1
	snap
}
$sequence "after_reload2" {
	"v_spas12ex_anims\after_reload2"
	{ event 5004 9 "Spas12.Reload" }
	fps 30
	activity "ACT_SHOTGUN_RELOAD_FINISH" 1
	snap
}
$sequence "start_reload2" {
	"v_spas12ex_anims\start_reload2"
	fps 30
	activity "ACT_SHOTGUN_RELOAD_START" 1
	snap
}
$sequence "draw2" {
	"v_spas12ex_anims\draw2"
	{ event 5004 9 "Spas12.Draw" }
	fps 30
}
