version 1
nodes
  0 "Bip01" -1
  1 "Bip01 Pelvis" 0
  2 "Bip01 Spine" 1
  3 "Bip01 Spine1" 2
  4 "Bip01 Spine2" 3
  5 "Bip01 Spine3" 4
  6 "Bip01 Neck" 5
  7 "Bip01 Head" 6
  8 "Bip01 L Clavicle" 6
  9 "Bip01 L UpperArm" 8
  10 "Bip01 L Forearm" 9
  11 "Bip01 L Hand" 10
  12 "Bip01 L Finger0" 11
  13 "Bip01 L Finger01" 12
  14 "Bip01 L Finger1" 11
  15 "Bip01 L Finger11" 14
  16 "lflash" 11
  17 "gunslinger_p00" 16
  18 "Plane002" 16
  19 "Bip01 R Clavicle" 6
  20 "Bip01 R UpperArm" 19
  21 "Bip01 R Forearm" 20
  22 "Bip01 R Hand" 21
  23 "Bip01 R Finger0" 22
  24 "Bip01 R Finger01" 23
  25 "Bip01 R Finger1" 22
  26 "Bip01 R Finger11" 25
  27 "rflash" 22
  28 "gunslinger_p" 27
  29 "Plane003" 27
  30 "Bip01 L Thigh" 1
  31 "Bip01 L Calf" 30
  32 "Bip01 L Foot" 31
  33 "Bip01 L Toe0" 32
  34 "Bip01 R Thigh" 31
  35 "Bip01 R Calf" 34
  36 "Bip01 R Foot" 35
  37 "Bip01 R Toe0" 36
end
skeleton
  time 0
    0 -3.154385 -3.578234 -1.897560 0.018841 -0.203262 -3.410393
    1 -2.276896 0.000003 -1.238186 -1.570795 -1.570796 0.000000
    2 1.797779 0.711859 0.000057 -0.292799 0.033756 0.082513
    3 4.119240 -0.003218 0.000058 -0.292794 0.033756 0.081791
    4 4.119240 -0.003218 0.000059 -0.292794 0.033756 0.081793
    5 4.119236 -0.003218 0.000058 -0.292794 0.033756 0.081768
    6 4.119690 -0.003365 -0.000021 0.014137 -0.064227 0.183116
    7 4.443600 0.000000 0.000000 -0.179585 0.107583 0.252156
    8 0.113430 0.025208 1.728975 -2.669315 -1.367352 -0.654567
    9 5.849109 0.000002 0.000000 -0.887451 0.033940 -1.366008
    10 9.697663 0.000002 -0.000004 0.000000 0.000000 -0.521603
    11 10.762129 0.000000 0.000004 -1.525213 0.167698 -0.024713
    12 0.867325 -0.222958 -0.645012 1.880709 0.522696 0.904654
    13 2.270588 -0.000003 0.000004 0.000000 0.000000 0.307301
    14 3.240425 -0.290821 -0.028107 -0.000597 0.000527 0.723045
    15 2.011150 0.000000 -0.000001 0.000000 0.000000 1.745329
    16 14.442873 0.913799 -4.104937 0.000001 0.000000 0.000000
    17 -11.669996 0.000000 6.586209 0.000000 0.000000 -1.570796
    18 15.510132 -0.000004 0.000009 0.000000 0.000000 -1.570796
    19 -0.113422 -0.018139 -1.728976 3.109074 1.551777 -0.217700
    20 5.849107 0.000002 -0.000004 1.089670 0.127063 -1.302160
    21 9.697662 0.000004 0.000000 0.000000 0.000000 -0.205968
    22 10.762133 -0.000004 0.000000 1.537367 -0.057894 0.120064
    23 0.867320 -0.222958 0.645016 -1.880709 -0.522696 0.904654
    24 2.270591 -0.000004 -0.000004 0.000000 0.000000 0.307301
    25 3.240422 -0.290825 0.028111 0.000597 -0.000527 0.723045
    26 2.011154 -0.000004 -0.000004 0.000000 0.000000 1.745329
    27 14.688067 1.140224 3.090294 0.000001 0.000000 0.000000
    28 -11.427856 -0.000004 -5.355434 0.000000 0.000001 1.570797
    29 16.527203 0.000011 -0.000008 0.000000 0.000000 -1.570796
    30 -0.000006 0.000007 3.619081 -0.710352 -3.252316 -1.543443
    31 16.573921 0.000002 0.000000 0.000000 0.000000 -2.528207
    32 15.128182 0.000001 0.000000 -0.821423 -0.039483 0.076452
    33 5.758665 4.244732 -0.000001 0.000000 0.000000 1.570796
    34 15.598730 -5.245351 5.455139 0.667382 -0.309397 2.483761
    35 16.573921 -0.000001 -0.000001 0.000000 0.000000 -1.766608
    36 15.128182 0.000000 0.000002 0.190497 -0.048094 -0.101477
    37 5.758665 4.244732 -0.000001 0.000000 0.000000 1.570796
end
