version 1
nodes
  0 "Bone04" -1
  1 "Bone_Righthand" 0
  2 "NEXON_CSO_JKnife_Root" 1
  3 "NEXON_CSO_JKnife_body" 2
  4 "NEXON_CSO_JKnife_Stick00" 3
  5 "NEXON_CSO_JKnife_Stick01" 2
  6 "NEXON_CSO_JKnife_Pin" 5
  7 "Bone27" 1
  8 "Bone28" 7
  9 "Bone29" 8
  10 "Bone31" 1
  11 "Bone32" 10
  12 "Bone33" 11
  13 "Bone35" 1
  14 "Bone36" 13
  15 "Bone37" 14
  16 "Bone39" 1
  17 "Bone40" 16
  18 "Bone41" 17
  19 "Bone43" 1
  20 "Bone44" 19
  21 "Bone45" 20
  22 "Bone_Se_Hand-R" 1
  23 "Bone01" -1
  24 "Bone_Lefthand" 23
  25 "Bone05" 24
  26 "Bone06" 25
  27 "Bone07" 26
  28 "Bone21" 24
  29 "Bone22" 28
  30 "Bone23" 29
  31 "Bone17" 24
  32 "Bone18" 31
  33 "Bone19" 32
  34 "Bone13" 24
  35 "Bone14" 34
  36 "Bone15" 35
  37 "Bone09" 24
  38 "Bone10" 37
  39 "Bone11" 38
  40 "Bone_Se_Hand-L" 24
end
skeleton
  time 0
    0 -6.141074 -3.648895 -5.961051 0.538141 -4.297807 0.714139
    1 0.096945 -8.450419 -0.009364 -0.169053 -0.208903 0.434793
    2 -3.522396 3.257829 -4.000507 -1.398143 -0.069020 -2.383708
    3 2.670662 0.228810 -0.000696 0.000000 0.000000 0.000000
    4 -0.000066 -0.428590 -0.009439 0.000000 0.000000 -0.025035
    5 2.670594 0.228795 -0.010135 0.000000 0.000000 0.000000
    6 -5.034416 0.218050 0.020352 1.570796 -3.141592 0.088140
    7 -0.586769 -1.264477 0.200164 0.024020 -0.558064 -2.738396
    8 1.522835 0.058679 0.016851 0.359186 -0.341770 1.027711
    9 1.117948 0.048424 -0.005765 0.269051 -0.176483 0.694329
    10 -0.963867 -2.785143 -0.085346 -0.506851 0.018581 -0.085725
    11 0.028478 -1.403067 0.006271 -1.035506 0.000000 0.000000
    12 0.021413 -0.957782 0.020047 -1.594827 0.000000 0.000000
    13 -0.249535 -2.846963 -0.174215 -0.922349 -0.079695 0.032129
    14 0.043234 -1.683940 0.096014 -1.816739 0.000000 0.000000
    15 0.031729 -1.160831 0.058837 -1.079640 0.000000 0.000000
    16 0.447951 -2.798983 -0.200441 -1.361302 -0.058940 0.046605
    17 -0.032909 -1.480207 0.004936 -1.451684 0.000000 0.000000
    18 -0.027023 -1.076921 -0.020212 -0.868092 0.000000 0.000000
    19 1.164474 -2.543939 -0.170327 -1.378428 -0.149891 0.112554
    20 0.024032 -1.129040 0.017806 -1.187163 0.000000 0.000000
    21 0.014896 -0.883992 -0.019845 -0.716710 0.000000 0.000000
    22 -0.139399 -0.111698 0.014398 0.257223 -0.014758 1.413020
    23 2.771774 -4.821845 -5.683112 0.412605 -3.710354 -1.085668
    24 -0.071917 -8.498731 -0.104136 -0.026528 0.426320 -0.020334
    25 0.583509 -1.197273 0.185379 0.319079 -0.423053 -0.651956
    26 1.535926 0.010247 0.005008 -0.221598 -0.297922 -0.781612
    27 1.100770 0.004527 -0.010675 -0.033668 0.063776 -0.183302
    28 0.957766 -2.746777 -0.090301 0.045095 -0.146812 0.009517
    29 -0.033419 -1.397128 -0.011256 0.037042 0.000000 0.000000
    30 -0.022361 -0.957434 0.018783 0.114273 0.000000 0.000000
    31 0.250028 -2.820664 -0.238397 0.041552 -0.112980 0.009235
    32 -0.049759 -1.680544 0.100479 0.083534 0.049505 -0.014373
    33 -0.034141 -1.148311 0.084778 0.058007 0.000000 0.000000
    34 -0.488517 -2.755599 -0.228262 0.038977 0.020560 -0.121233
    35 0.039889 -1.479791 0.029852 -0.144686 0.000000 0.000000
    36 0.028785 -1.075733 -0.023111 0.023216 0.000000 0.000000
    37 -1.180679 -2.507215 -0.193862 -0.022889 0.057346 -0.106342
    38 -0.024967 -1.123934 0.017594 -0.048333 0.003607 -0.034700
    39 -0.020058 -0.890964 0.010091 0.173655 0.000000 0.000000
    40 0.053744 -0.050267 -0.074021 -2.853554 0.026024 -1.564699
  time 1
    0 -6.141074 -3.648895 -5.961051 0.538141 -4.297807 0.714139
    1 0.096945 -8.450419 -0.009364 -0.169053 -0.208903 0.434793
    2 -3.522396 3.257829 -4.000507 -1.398143 -0.069020 -2.383708
    3 2.670662 0.228810 -0.000696 0.000000 0.000000 0.000000
    4 -0.000066 -0.428590 -0.009439 0.000000 0.000000 -0.025035
    5 2.670594 0.228795 -0.010135 0.000000 0.000000 0.000000
    6 -5.034416 0.218050 0.020352 1.570796 -3.141592 0.088140
    7 -0.586769 -1.264477 0.200164 0.024020 -0.558064 -2.738396
    8 1.522835 0.058679 0.016851 0.359186 -0.341770 1.027711
    9 1.117948 0.048424 -0.005765 0.269051 -0.176483 0.694329
    10 -0.963867 -2.785143 -0.085346 -0.506851 0.018581 -0.085725
    11 0.028478 -1.403067 0.006271 -1.035506 0.000000 0.000000
    12 0.021413 -0.957782 0.020047 -1.594827 0.000000 0.000000
    13 -0.249535 -2.846963 -0.174215 -0.922349 -0.079695 0.032129
    14 0.043234 -1.683940 0.096014 -1.816739 0.000000 0.000000
    15 0.031729 -1.160831 0.058837 -1.079640 0.000000 0.000000
    16 0.447951 -2.798983 -0.200441 -1.361302 -0.058940 0.046605
    17 -0.032909 -1.480207 0.004936 -1.451684 0.000000 0.000000
    18 -0.027023 -1.076921 -0.020212 -0.868092 0.000000 0.000000
    19 1.164474 -2.543939 -0.170327 -1.378428 -0.149891 0.112554
    20 0.024032 -1.129040 0.017806 -1.187163 0.000000 0.000000
    21 0.014896 -0.883992 -0.019845 -0.716710 0.000000 0.000000
    22 -0.139399 -0.111698 0.014398 0.257223 -0.014758 1.413020
    23 2.771774 -4.821845 -5.683112 0.412605 -3.710354 -1.085668
    24 -0.071917 -8.498731 -0.104136 -0.026528 0.426320 -0.020334
    25 0.583509 -1.197273 0.185379 0.319079 -0.423053 -0.651956
    26 1.535926 0.010247 0.005008 -0.221598 -0.297922 -0.781612
    27 1.100770 0.004527 -0.010675 -0.033668 0.063776 -0.183302
    28 0.957766 -2.746777 -0.090301 0.045095 -0.146812 0.009517
    29 -0.033419 -1.397128 -0.011256 0.037042 0.000000 0.000000
    30 -0.022361 -0.957434 0.018783 0.114273 0.000000 0.000000
    31 0.250028 -2.820664 -0.238397 0.041552 -0.112980 0.009235
    32 -0.049759 -1.680544 0.100479 0.083534 0.049505 -0.014373
    33 -0.034141 -1.148311 0.084778 0.058007 0.000000 0.000000
    34 -0.488517 -2.755599 -0.228262 0.038977 0.020560 -0.121233
    35 0.039889 -1.479791 0.029852 -0.144686 0.000000 0.000000
    36 0.028785 -1.075733 -0.023111 0.023216 0.000000 0.000000
    37 -1.180679 -2.507215 -0.193862 -0.022889 0.057346 -0.106342
    38 -0.024967 -1.123934 0.017594 -0.048333 0.003607 -0.034700
    39 -0.020058 -0.890964 0.010091 0.173655 0.000000 0.000000
    40 0.053744 -0.050267 -0.074021 -2.853554 0.026024 -1.564699
  time 2
    0 -6.141074 -3.648895 -5.961051 0.538141 -4.297807 0.714139
    1 0.096945 -8.450419 -0.009364 -0.169053 -0.208903 0.434793
    2 -3.522396 3.257829 -4.000507 -1.398143 -0.069020 -2.383708
    3 2.670662 0.228810 -0.000696 0.000000 0.000000 0.000000
    4 -0.000066 -0.428590 -0.009439 0.000000 0.000000 -0.025035
    5 2.670594 0.228795 -0.010135 0.000000 0.000000 0.000000
    6 -5.034416 0.218050 0.020352 1.570796 -3.141592 0.088140
    7 -0.586769 -1.264477 0.200164 0.024020 -0.558064 -2.738396
    8 1.522835 0.058679 0.016851 0.359186 -0.341770 1.027711
    9 1.117948 0.048424 -0.005765 0.269051 -0.176483 0.694329
    10 -0.963867 -2.785143 -0.085346 -0.506851 0.018581 -0.085725
    11 0.028478 -1.403067 0.006271 -1.035506 0.000000 0.000000
    12 0.021413 -0.957782 0.020047 -1.594827 0.000000 0.000000
    13 -0.249535 -2.846963 -0.174215 -0.922349 -0.079695 0.032129
    14 0.043234 -1.683940 0.096014 -1.816739 0.000000 0.000000
    15 0.031729 -1.160831 0.058837 -1.079640 0.000000 0.000000
    16 0.447951 -2.798983 -0.200441 -1.361302 -0.058940 0.046605
    17 -0.032909 -1.480207 0.004936 -1.451684 0.000000 0.000000
    18 -0.027023 -1.076921 -0.020212 -0.868092 0.000000 0.000000
    19 1.164474 -2.543939 -0.170327 -1.378428 -0.149891 0.112554
    20 0.024032 -1.129040 0.017806 -1.187163 0.000000 0.000000
    21 0.014896 -0.883992 -0.019845 -0.716710 0.000000 0.000000
    22 -0.139399 -0.111698 0.014398 0.257223 -0.014758 1.413020
    23 2.771774 -4.821845 -5.683112 0.412605 -3.710354 -1.085668
    24 -0.071917 -8.498731 -0.104136 -0.026528 0.426320 -0.020334
    25 0.583509 -1.197273 0.185379 0.319079 -0.423053 -0.651956
    26 1.535926 0.010247 0.005008 -0.221598 -0.297922 -0.781612
    27 1.100770 0.004527 -0.010675 -0.033668 0.063776 -0.183302
    28 0.957766 -2.746777 -0.090301 0.045095 -0.146812 0.009517
    29 -0.033419 -1.397128 -0.011256 0.037042 0.000000 0.000000
    30 -0.022361 -0.957434 0.018783 0.114273 0.000000 0.000000
    31 0.250028 -2.820664 -0.238397 0.041552 -0.112980 0.009235
    32 -0.049759 -1.680544 0.100479 0.083534 0.049505 -0.014373
    33 -0.034141 -1.148311 0.084778 0.058007 0.000000 0.000000
    34 -0.488517 -2.755599 -0.228262 0.038977 0.020560 -0.121233
    35 0.039889 -1.479791 0.029852 -0.144686 0.000000 0.000000
    36 0.028785 -1.075733 -0.023111 0.023216 0.000000 0.000000
    37 -1.180679 -2.507215 -0.193862 -0.022889 0.057346 -0.106342
    38 -0.024967 -1.123934 0.017594 -0.048333 0.003607 -0.034700
    39 -0.020058 -0.890964 0.010091 0.173655 0.000000 0.000000
    40 0.053744 -0.050267 -0.074021 -2.853554 0.026024 -1.564699
end
