version 1
nodes
  0 "Bone04" -1
  1 "Bone_Righthand" 0
  2 "NEXON_CSO_JKnife_Root" 1
  3 "NEXON_CSO_JKnife_body" 2
  4 "NEXON_CSO_JKnife_Stick00" 3
  5 "NEXON_CSO_JKnife_Stick01" 2
  6 "NEXON_CSO_JKnife_Pin" 5
  7 "Bone27" 1
  8 "Bone28" 7
  9 "Bone29" 8
  10 "Bone31" 1
  11 "Bone32" 10
  12 "Bone33" 11
  13 "Bone35" 1
  14 "Bone36" 13
  15 "Bone37" 14
  16 "Bone39" 1
  17 "Bone40" 16
  18 "Bone41" 17
  19 "Bone43" 1
  20 "Bone44" 19
  21 "Bone45" 20
  22 "Bone_Se_Hand-R" 1
  23 "Bone01" -1
  24 "Bone_Lefthand" 23
  25 "Bone05" 24
  26 "Bone06" 25
  27 "Bone07" 26
  28 "Bone21" 24
  29 "Bone22" 28
  30 "Bone23" 29
  31 "Bone17" 24
  32 "Bone18" 31
  33 "Bone19" 32
  34 "Bone13" 24
  35 "Bone14" 34
  36 "Bone15" 35
  37 "Bone09" 24
  38 "Bone10" 37
  39 "Bone11" 38
  40 "Bone_Se_Hand-L" 24
end
skeleton
  time 0
    0 -4.832440 -5.969278 -5.879017 -0.342873 -0.327044 -0.780236
    1 0.096945 -8.450419 -0.009364 -0.132505 0.408019 0.229915
    2 0.067557 -2.089990 0.933237 0.166484 -3.137197 0.699454
    3 2.670662 0.228810 -0.000696 0.000000 0.000000 0.000000
    4 -0.000066 -0.428590 -0.009439 0.000000 0.000000 -0.025035
    5 2.670594 0.228795 -0.010135 0.000000 0.000000 0.000000
    6 -5.034416 0.218050 0.020352 1.570796 -3.141592 0.088140
    7 -0.586769 -1.264477 0.200164 0.022588 -0.443587 -2.735382
    8 1.522835 0.058679 0.016851 0.082449 -0.599158 1.192262
    9 1.117948 0.048424 -0.005765 0.300031 -0.179742 0.879695
    10 -0.963867 -2.785143 -0.085346 -0.780294 0.018581 -0.085725
    11 0.028478 -1.403067 0.006271 -1.545961 0.000000 0.000000
    12 0.021413 -0.957782 0.020047 -1.127972 0.000000 0.000000
    13 -0.249535 -2.846963 -0.174215 -0.922349 -0.079695 0.032129
    14 0.043234 -1.683940 0.096014 -1.921948 0.000000 0.000000
    15 0.031729 -1.160831 0.058837 -1.364118 0.000000 0.000000
    16 0.447951 -2.798983 -0.200441 -1.211145 -0.030045 0.025021
    17 -0.032909 -1.480207 0.004936 -1.782318 0.000000 0.000000
    18 -0.027023 -1.076921 -0.020212 -1.314048 0.000000 0.000000
    19 1.164474 -2.543939 -0.170327 -1.166597 -0.149891 0.112554
    20 0.024032 -1.129040 0.017806 -1.540413 0.000000 0.000000
    21 0.014896 -0.883992 -0.019845 -1.200027 0.000000 0.000000
    22 -0.076897 -0.123417 0.069087 0.232616 -0.005878 1.378145
    23 5.529671 -6.130479 -7.190971 -0.555507 -3.189812 -1.116875
    24 -0.071917 -8.498731 -0.104136 -0.021145 0.189872 -0.110624
    25 0.583509 -1.197273 0.185379 -0.000610 -0.519146 -0.579593
    26 1.535926 0.010247 0.005008 -0.420902 -0.292624 -0.757449
    27 1.100770 0.004527 -0.010675 -0.059615 0.102882 -0.672842
    28 0.957766 -2.746777 -0.090301 -0.131498 0.011924 0.136661
    29 -0.033419 -1.397128 -0.011256 -1.678211 0.000000 0.000000
    30 -0.022361 -0.957434 0.018783 -0.109781 0.000000 0.000000
    31 0.250028 -2.820664 -0.238397 -0.573625 0.071091 -0.156033
    32 -0.049759 -1.680544 0.100479 -1.795625 0.049505 -0.014373
    33 -0.034141 -1.148311 0.084778 -0.197286 0.000000 0.000000
    34 -0.488517 -2.755599 -0.228262 -0.738406 0.094290 -0.212796
    35 0.039889 -1.479791 0.029852 -1.846354 0.000000 0.000000
    36 0.028785 -1.075733 -0.023111 -0.137647 0.000000 0.000000
    37 -1.180679 -2.507215 -0.193862 -0.740816 0.317136 -0.377745
    38 -0.024967 -1.123934 0.017594 -1.414976 0.003607 -0.034700
    39 -0.020058 -0.890964 0.010091 -1.245197 0.000000 0.000000
    40 0.120152 -0.050267 -0.054489 0.287569 3.110999 1.561467
  time 1
    0 -4.832440 -5.969278 -5.879017 -0.342873 -0.327044 -0.780236
    1 0.096945 -8.450419 -0.009364 -0.120424 0.302689 0.203611
    2 0.083183 -2.113429 0.929331 0.134975 -3.135319 0.668874
    3 2.670662 0.228810 -0.000696 0.000000 0.000000 0.000000
    4 -0.000066 -0.428590 -0.009439 0.000000 0.000000 -0.025035
    5 2.670594 0.228795 -0.010135 0.000000 0.000000 0.000000
    6 -5.034416 0.218050 0.020352 1.570796 -3.141592 0.088140
    7 -0.586769 -1.264477 0.200164 0.022651 -0.448561 -2.735513
    8 1.522835 0.058679 0.016851 0.094487 -0.587957 1.185092
    9 1.117948 0.048424 -0.005765 0.298688 -0.179599 0.871650
    10 -0.963867 -2.785143 -0.085346 -0.768416 0.018581 -0.085725
    11 0.028478 -1.403067 0.006271 -1.523753 0.000000 0.000000
    12 0.021413 -0.957782 0.020047 -1.148293 0.000000 0.000000
    13 -0.249535 -2.846963 -0.174215 -0.922349 -0.079695 0.032129
    14 0.043234 -1.683940 0.096014 -1.917361 0.000000 0.000000
    15 0.031729 -1.160831 0.058837 -1.351742 0.000000 0.000000
    16 0.447951 -2.798983 -0.200441 -1.217668 -0.031304 0.025968
    17 -0.032909 -1.480207 0.004936 -1.767931 0.000000 0.000000
    18 -0.027023 -1.076921 -0.020212 -1.294652 0.000000 0.000000
    19 1.164474 -2.543939 -0.170327 -1.175813 -0.149891 0.112554
    20 0.024032 -1.129040 0.017806 -1.525076 0.000000 0.000000
    21 0.014896 -0.883992 -0.019845 -1.179002 0.000000 0.000000
    22 -0.061272 -0.127323 0.076900 0.223626 -0.002822 1.368988
    23 5.166379 -6.067977 -7.194877 -0.463700 -3.221959 -1.152835
    24 -0.071917 -8.498731 -0.104136 0.011067 0.134795 -0.103102
    25 0.583509 -1.197273 0.185379 0.006629 -0.516964 -0.581235
    26 1.535926 0.010247 0.005008 -0.416396 -0.292744 -0.757993
    27 1.100770 0.004527 -0.010675 -0.059028 0.101995 -0.661772
    28 0.957766 -2.746777 -0.090301 -0.127495 0.008341 0.133785
    29 -0.033419 -1.397128 -0.011256 -1.639414 0.000000 0.000000
    30 -0.022361 -0.957434 0.018783 -0.168752 0.000000 0.000000
    31 0.250028 -2.820664 -0.238397 -0.559708 0.066933 -0.152293
    32 -0.049759 -1.680544 0.100479 -1.753144 0.049505 -0.014373
    33 -0.034141 -1.148311 0.084778 -0.264490 0.000000 0.000000
    34 -0.488517 -2.755599 -0.228262 -0.716728 0.092228 -0.210243
    35 0.039889 -1.479791 0.029852 -1.798908 0.000000 0.000000
    36 0.028785 -1.075733 -0.023111 -0.179986 0.000000 0.000000
    37 -1.180679 -2.507215 -0.193862 -0.720795 0.309885 -0.370171
    38 -0.024967 -1.123934 0.017594 -1.376878 0.003607 -0.034700
    39 -0.020058 -0.890964 0.010091 -1.205632 0.000000 0.000000
    40 0.120152 -0.050267 -0.054489 0.287569 3.111093 1.561850
  time 2
    0 -4.832440 -5.969278 -5.879017 -0.342873 -0.327044 -0.780236
    1 0.096945 -8.450419 -0.009364 -0.093855 0.070934 0.145723
    2 0.098808 -2.136867 0.925425 0.102128 -3.133348 0.636665
    3 2.670662 0.228810 -0.000696 0.000000 0.000000 0.000000
    4 -0.000066 -0.428590 -0.009439 0.000000 0.000000 -0.025035
    5 2.670594 0.228795 -0.010135 0.000000 0.000000 0.000000
    6 -5.034416 0.218050 0.020352 1.570796 -3.141592 0.088140
    7 -0.586769 -1.264477 0.200164 0.022726 -0.453954 -2.735666
    8 1.522835 0.058679 0.016851 0.107510 -0.575848 1.177356
    9 1.117948 0.048424 -0.005765 0.297226 -0.179443 0.862928
    10 -0.963867 -2.785143 -0.085346 -0.755536 0.018581 -0.085725
    11 0.028478 -1.403067 0.006271 -1.499726 0.000000 0.000000
    12 0.021413 -0.957782 0.020047 -1.170278 0.000000 0.000000
    13 -0.249535 -2.846963 -0.174215 -0.922349 -0.079695 0.032129
    14 0.043234 -1.683940 0.096014 -1.912409 0.000000 0.000000
    15 0.031729 -1.160831 0.058837 -1.338355 0.000000 0.000000
    16 0.447951 -2.798983 -0.200441 -1.224748 -0.032658 0.026974
    17 -0.032909 -1.480207 0.004936 -1.752390 0.000000 0.000000
    18 -0.027023 -1.076921 -0.020212 -1.273677 0.000000 0.000000
    19 1.164474 -2.543939 -0.170327 -1.185783 -0.149891 0.112554
    20 0.024032 -1.129040 0.017806 -1.508414 0.000000 0.000000
    21 0.014896 -0.883992 -0.019845 -1.156252 0.000000 0.000000
    22 -0.045646 -0.131230 0.084713 0.212852 0.000762 1.359197
    23 4.795274 -6.005475 -7.194877 -0.369363 -3.255439 -1.188795
    24 -0.071917 -8.498731 -0.104136 0.040651 0.080172 -0.095133
    25 0.583509 -1.197273 0.185379 0.015558 -0.514280 -0.583260
    26 1.535926 0.010247 0.005008 -0.410835 -0.292888 -0.758666
    27 1.100770 0.004527 -0.010675 -0.058309 0.100905 -0.648106
    28 0.957766 -2.746777 -0.090301 -0.122569 0.003907 0.130225
    29 -0.033419 -1.397128 -0.011256 -1.591496 0.000000 0.000000
    30 -0.022361 -0.957434 0.018783 -0.231797 0.000000 0.000000
    31 0.250028 -2.820664 -0.238397 -0.542540 0.061791 -0.147679
    32 -0.049759 -1.680544 0.100479 -1.700622 0.049505 -0.014373
    33 -0.034141 -1.148311 0.084778 -0.336337 0.000000 0.000000
    34 -0.488517 -2.755599 -0.228262 -0.690100 0.089712 -0.207103
    35 0.039889 -1.479791 0.029852 -1.740604 0.000000 0.000000
    36 0.028785 -1.075733 -0.023111 -0.225251 0.000000 0.000000
    37 -1.180679 -2.507215 -0.193862 -0.696201 0.300993 -0.360871
    38 -0.024967 -1.123934 0.017594 -1.330052 0.003607 -0.034700
    39 -0.020058 -0.890964 0.010091 -1.157030 0.000000 0.000000
    40 0.116246 -0.050267 -0.054489 0.287569 3.111187 1.562327
  time 3
    0 -3.836316 -5.918495 -5.894643 -0.317013 -0.283949 -0.773028
    1 0.096945 -8.450419 -0.009364 -0.067312 -0.160786 0.087834
    2 0.114434 -2.160305 0.921518 0.068745 -3.131377 0.603593
    3 2.670662 0.228810 -0.000696 0.000000 0.000000 0.000000
    4 -0.000066 -0.428590 -0.009439 0.000000 0.000000 -0.025035
    5 2.670594 0.228795 -0.010135 0.000000 0.000000 0.000000
    6 -5.034416 0.218050 0.020352 1.570796 -3.141592 0.088140
    7 -0.586769 -1.264477 0.200164 0.022789 -0.459694 -2.735819
    8 1.522835 0.058679 0.016851 0.121395 -0.562932 1.169100
    9 1.117948 0.048424 -0.005765 0.295668 -0.179287 0.853614
    10 -0.963867 -2.785143 -0.085346 -0.741817 0.018581 -0.085725
    11 0.028478 -1.403067 0.006271 -1.474119 0.000000 0.000000
    12 0.021413 -0.957782 0.020047 -1.193708 0.000000 0.000000
    13 -0.249535 -2.846963 -0.174215 -0.922349 -0.079695 0.032129
    14 0.043234 -1.683940 0.096014 -1.907132 0.000000 0.000000
    15 0.031729 -1.160831 0.058837 -1.324070 0.000000 0.000000
    16 0.447951 -2.798983 -0.200441 -1.232266 -0.034108 0.028065
    17 -0.032909 -1.480207 0.004936 -1.735772 0.000000 0.000000
    18 -0.027023 -1.076921 -0.020212 -1.251280 0.000000 0.000000
    19 1.164474 -2.543939 -0.170327 -1.196420 -0.149891 0.112554
    20 0.024032 -1.129040 0.017806 -1.490705 0.000000 0.000000
    21 0.014896 -0.883992 -0.019845 -1.132007 0.000000 0.000000
    22 -0.033927 -0.135136 0.092525 0.200170 0.004908 1.348926
    23 4.424169 -5.939067 -7.194877 -0.274646 -3.289546 -1.223755
    24 -0.071917 -8.498731 -0.104136 0.065993 0.027820 -0.086796
    25 0.583509 -1.197273 0.185379 0.026032 -0.511140 -0.585621
    26 1.535926 0.010247 0.005008 -0.404303 -0.293068 -0.759456
    27 1.100770 0.004527 -0.010675 -0.057458 0.099622 -0.632052
    28 0.957766 -2.746777 -0.090301 -0.116781 -0.001295 0.126067
    29 -0.033419 -1.397128 -0.011256 -1.535323 0.000000 0.000000
    30 -0.022361 -0.957434 0.018783 -0.297952 0.000000 0.000000
    31 0.250028 -2.820664 -0.238397 -0.522371 0.055763 -0.142262
    32 -0.049759 -1.680544 0.100479 -1.639068 0.049505 -0.014373
    33 -0.034141 -1.148311 0.084778 -0.411727 0.000000 0.000000
    34 -0.488517 -2.755599 -0.228262 -0.659061 0.086763 -0.203448
    35 0.039889 -1.479791 0.029852 -1.672637 0.000000 0.000000
    36 0.028785 -1.075733 -0.023111 -0.272747 0.000000 0.000000
    37 -1.180679 -2.507215 -0.193862 -0.667512 0.290614 -0.350037
    38 -0.024967 -1.123934 0.017594 -1.275457 0.003607 -0.034700
    39 -0.020058 -0.890964 0.010091 -1.100381 0.000000 0.000000
    40 0.116246 -0.050267 -0.054489 0.287569 3.111376 1.562805
  time 4
    0 -1.691719 -5.746615 -5.921987 -0.275562 -0.170526 -0.740027
    1 0.096945 -8.450419 -0.009364 -0.055231 -0.266117 0.061530
    2 0.130059 -2.187650 0.913706 0.035273 -3.129499 0.570234
    3 2.670662 0.228810 -0.000696 0.000000 0.000000 0.000000
    4 -0.000066 -0.428590 -0.009439 0.000000 0.000000 -0.025035
    5 2.670594 0.228795 -0.010135 0.000000 0.000000 0.000000
    6 -5.034416 0.218050 0.020352 1.570796 -3.141592 0.088140
    7 -0.586769 -1.264477 0.200164 0.022864 -0.465735 -2.735972
    8 1.522835 0.058679 0.016851 0.136000 -0.549347 1.160415
    9 1.117948 0.048424 -0.005765 0.294038 -0.179107 0.843847
    10 -0.963867 -2.785143 -0.085346 -0.727384 0.018581 -0.085725
    11 0.028478 -1.403067 0.006271 -1.447172 0.000000 0.000000
    12 0.021413 -0.957782 0.020047 -1.218321 0.000000 0.000000
    13 -0.249535 -2.846963 -0.174215 -0.922349 -0.079695 0.032129
    14 0.043234 -1.683940 0.096014 -1.901612 0.000000 0.000000
    15 0.031729 -1.160831 0.058837 -1.309072 0.000000 0.000000
    16 0.447951 -2.798983 -0.200441 -1.240194 -0.035630 0.029203
    17 -0.032909 -1.480207 0.004936 -1.718346 0.000000 0.000000
    18 -0.027023 -1.076921 -0.020212 -1.227752 0.000000 0.000000
    19 1.164474 -2.543939 -0.170327 -1.207590 -0.149891 0.112554
    20 0.024032 -1.129040 0.017806 -1.472073 0.000000 0.000000
    21 0.014896 -0.883992 -0.019845 -1.106496 0.000000 0.000000
    22 -0.022208 -0.139043 0.092525 0.185426 0.009654 1.338320
    23 4.068689 -5.872658 -7.183158 -0.181954 -3.323574 -1.256588
    24 -0.071917 -8.498731 -0.104136 0.085437 -0.020375 -0.078222
    25 0.583509 -1.197273 0.185379 0.037873 -0.507568 -0.588306
    26 1.535926 0.010247 0.005008 -0.396909 -0.293260 -0.760349
    27 1.100770 0.004527 -0.010675 -0.056499 0.098172 -0.613910
    28 0.957766 -2.746777 -0.090301 -0.110237 -0.007179 0.121357
    29 -0.033419 -1.397128 -0.011256 -1.471757 0.000000 0.000000
    30 -0.022361 -0.957434 0.018783 -0.366394 0.000000 0.000000
    31 0.250028 -2.820664 -0.238397 -0.499571 0.048932 -0.136138
    32 -0.049759 -1.680544 0.100479 -1.569435 0.049505 -0.014373
    33 -0.034141 -1.148311 0.084778 -0.489724 0.000000 0.000000
    34 -0.488517 -2.755599 -0.228262 -0.624156 0.083456 -0.199337
    35 0.039889 -1.479791 0.029852 -1.596256 0.000000 0.000000
    36 0.028785 -1.075733 -0.023111 -0.321886 0.000000 0.000000
    37 -1.180679 -2.507215 -0.193862 -0.635297 0.278953 -0.337849
    38 -0.024967 -1.123934 0.017594 -1.214099 0.003607 -0.034700
    39 -0.020058 -0.890964 0.010091 -1.036672 0.000000 0.000000
    40 0.112339 -0.050267 -0.054489 0.287569 3.111564 1.563379
  time 5
    0 0.343499 -5.414573 -5.925894 -0.249422 0.095498 -0.548654
    1 0.096945 -8.450419 -0.009364 -0.115612 -0.240947 0.208793
    2 0.145685 -2.211088 0.909799 0.002515 -3.127809 0.537162
    3 2.670662 0.228810 -0.000696 0.000000 0.000000 0.000000
    4 -0.000066 -0.428590 -0.009439 0.000000 0.000000 -0.025035
    5 2.670594 0.228795 -0.010135 0.000000 0.000000 0.000000
    6 -5.034416 0.218050 0.020352 1.570796 -3.141592 0.088140
    7 -0.586769 -1.264477 0.200164 0.022940 -0.472015 -2.736125
    8 1.522835 0.058679 0.016851 0.151168 -0.535231 1.151390
    9 1.117948 0.048424 -0.005765 0.292337 -0.178927 0.833685
    10 -0.963867 -2.785143 -0.085346 -0.712398 0.018581 -0.085725
    11 0.028478 -1.403067 0.006271 -1.419221 0.000000 0.000000
    12 0.021413 -0.957782 0.020047 -1.243941 0.000000 0.000000
    13 -0.249535 -2.846963 -0.174215 -0.922349 -0.079695 0.032129
    14 0.043234 -1.683940 0.096014 -1.895808 0.000000 0.000000
    15 0.031729 -1.160831 0.058837 -1.293476 0.000000 0.000000
    16 0.447951 -2.798983 -0.200441 -1.248443 -0.037224 0.030390
    17 -0.032909 -1.480207 0.004936 -1.700227 0.000000 0.000000
    18 -0.027023 -1.076921 -0.020212 -1.203303 0.000000 0.000000
    19 1.164474 -2.543939 -0.170327 -1.219205 -0.149891 0.112554
    20 0.024032 -1.129040 0.017806 -1.452701 0.000000 0.000000
    21 0.014896 -0.883992 -0.019845 -1.080020 0.000000 0.000000
    22 -0.006582 -0.142949 0.076900 0.133937 0.030831 1.313967
    23 3.732741 -5.806250 -7.171439 -0.093437 -3.356818 -1.286232
    24 -0.071917 -8.498731 -0.104136 0.097371 -0.062630 -0.069569
    25 0.583509 -1.197273 0.185379 0.050936 -0.503649 -0.591266
    26 1.535926 0.010247 0.005008 -0.388771 -0.293475 -0.761347
    27 1.100770 0.004527 -0.010675 -0.055433 0.096578 -0.593918
    28 0.957766 -2.746777 -0.090301 -0.103023 -0.013663 0.116155
    29 -0.033419 -1.397128 -0.011256 -1.401662 0.000000 0.000000
    30 -0.022361 -0.957434 0.018783 -0.436194 0.000000 0.000000
    31 0.250028 -2.820664 -0.238397 -0.474428 0.041417 -0.129379
    32 -0.049759 -1.680544 0.100479 -1.492612 0.049505 -0.014373
    33 -0.034141 -1.148311 0.084778 -0.569269 0.000000 0.000000
    34 -0.488517 -2.755599 -0.228262 -0.585949 0.079824 -0.194843
    35 0.039889 -1.479791 0.029852 -1.512600 0.000000 0.000000
    36 0.028785 -1.075733 -0.023111 -0.372001 0.000000 0.000000
    37 -1.180679 -2.507215 -0.193862 -0.600010 0.266177 -0.324510
    38 -0.024967 -1.123934 0.017594 -1.146936 0.003607 -0.034700
    39 -0.020058 -0.890964 0.010091 -0.966939 0.000000 0.000000
    40 0.108433 -0.050267 -0.054489 0.287569 3.111752 1.563952
  time 6
    0 1.917766 -4.957528 -5.875111 -0.201997 0.249818 -0.052679
    1 0.096945 -8.450419 -0.009364 -0.242630 -0.086758 0.539489
    2 0.161310 -2.234526 0.905893 -0.029172 -3.126214 0.504953
    3 2.670662 0.228810 -0.000696 0.000000 0.000000 0.000000
    4 -0.000066 -0.428590 -0.009439 0.000000 0.000000 -0.025035
    5 2.670594 0.228795 -0.010135 0.000000 0.000000 0.000000
    6 -5.034416 0.218050 0.020352 1.570796 -3.141592 0.088140
    7 -0.586769 -1.264477 0.200164 0.023028 -0.478462 -2.736299
    8 1.522835 0.058679 0.016851 0.166774 -0.520737 1.142116
    9 1.117948 0.048424 -0.005765 0.290587 -0.178748 0.823213
    10 -0.963867 -2.785143 -0.085346 -0.696983 0.018581 -0.085725
    11 0.028478 -1.403067 0.006271 -1.390407 0.000000 0.000000
    12 0.021413 -0.957782 0.020047 -1.270218 0.000000 0.000000
    13 -0.249535 -2.846963 -0.174215 -0.922349 -0.079695 0.032129
    14 0.043234 -1.683940 0.096014 -1.889882 0.000000 0.000000
    15 0.031729 -1.160831 0.058837 -1.277443 0.000000 0.000000
    16 0.447951 -2.798983 -0.200441 -1.256897 -0.038854 0.031600
    17 -0.032909 -1.480207 0.004936 -1.681570 0.000000 0.000000
    18 -0.027023 -1.076921 -0.020212 -1.178169 0.000000 0.000000
    19 1.164474 -2.543939 -0.170327 -1.231152 -0.149891 0.112554
    20 0.024032 -1.129040 0.017806 -1.432775 0.000000 0.000000
    21 0.014896 -0.883992 -0.019845 -1.052761 0.000000 0.000000
    22 0.012949 -0.154668 0.053462 0.054895 0.064867 1.279979
    23 3.424138 -5.739842 -7.148000 -0.011438 -3.388573 -1.311435
    24 -0.071917 -8.498731 -0.104136 0.100152 -0.097060 -0.060916
    25 0.583509 -1.197273 0.185379 0.065066 -0.499407 -0.594466
    26 1.535926 0.010247 0.005008 -0.379962 -0.293715 -0.762408
    27 1.100770 0.004527 -0.010675 -0.054282 0.094852 -0.572285
    28 0.957766 -2.746777 -0.090301 -0.095221 -0.020674 0.110547
    29 -0.033419 -1.397128 -0.011256 -1.325901 0.000000 0.000000
    30 -0.022361 -0.957434 0.018783 -0.506388 0.000000 0.000000
    31 0.250028 -2.820664 -0.238397 -0.447272 0.033280 -0.122080
    32 -0.049759 -1.680544 0.100479 -1.409610 0.049505 -0.014373
    33 -0.034141 -1.148311 0.084778 -0.649262 0.000000 0.000000
    34 -0.488517 -2.755599 -0.228262 -0.544984 0.075941 -0.190013
    35 0.039889 -1.479791 0.029852 -1.422919 0.000000 0.000000
    36 0.028785 -1.075733 -0.023111 -0.422397 0.000000 0.000000
    37 -1.180679 -2.507215 -0.193862 -0.562176 0.252491 -0.310212
    38 -0.024967 -1.123934 0.017594 -1.074930 0.003607 -0.034700
    39 -0.020058 -0.890964 0.010091 -0.892170 0.000000 0.000000
    40 0.108433 -0.050267 -0.058395 0.287665 3.111941 1.564621
  time 7
    0 3.269370 -4.266101 -5.836047 -0.033860 0.346232 0.597590
    1 0.096945 -8.450419 -0.009364 -0.201928 0.077404 0.765836
    2 0.176936 -2.254058 0.901986 -0.058985 -3.124805 0.474373
    3 2.670662 0.228810 -0.000696 0.000000 0.000000 0.000000
    4 -0.000066 -0.428590 -0.009439 0.000000 0.000000 -0.025035
    5 2.670594 0.228795 -0.010135 0.000000 0.000000 0.000000
    6 -5.034416 0.218050 0.020352 1.570796 -3.141592 0.088140
    7 -0.586769 -1.264477 0.200164 0.023103 -0.485042 -2.736474
    8 1.522835 0.058679 0.016851 0.182647 -0.505952 1.132684
    9 1.117948 0.048424 -0.005765 0.288813 -0.178556 0.812600
    10 -0.963867 -2.785143 -0.085346 -0.681282 0.018581 -0.085725
    11 0.028478 -1.403067 0.006271 -1.361115 0.000000 0.000000
    12 0.021413 -0.957782 0.020047 -1.297021 0.000000 0.000000
    13 -0.249535 -2.846963 -0.174215 -0.922349 -0.079695 0.032129
    14 0.043234 -1.683940 0.096014 -1.883834 0.000000 0.000000
    15 0.031729 -1.160831 0.058837 -1.261111 0.000000 0.000000
    16 0.447951 -2.798983 -0.200441 -1.265527 -0.040508 0.032835
    17 -0.032909 -1.480207 0.004936 -1.662605 0.000000 0.000000
    18 -0.027023 -1.076921 -0.020212 -1.152588 0.000000 0.000000
    19 1.164474 -2.543939 -0.170327 -1.243299 -0.149891 0.112554
    20 0.024032 -1.129040 0.017806 -1.412510 0.000000 0.000000
    21 0.014896 -0.883992 -0.019845 -1.025019 0.000000 0.000000
    22 0.020762 -0.158574 0.033930 0.013964 0.082665 1.262781
    23 3.158505 -5.677340 -7.120656 0.061767 -3.418132 -1.331198
    24 -0.071917 -8.498731 -0.104136 0.092169 -0.121865 -0.052394
    25 0.583509 -1.197273 0.185379 0.080071 -0.494889 -0.597858
    26 1.535926 0.010247 0.005008 -0.370602 -0.293967 -0.763548
    27 1.100770 0.004527 -0.010675 -0.053072 0.093019 -0.549309
    28 0.957766 -2.746777 -0.090301 -0.086927 -0.028128 0.104566
    29 -0.033419 -1.397128 -0.011256 -1.245337 0.000000 0.000000
    30 -0.022361 -0.957434 0.018783 -0.576188 0.000000 0.000000
    31 0.250028 -2.820664 -0.238397 -0.418374 0.024639 -0.114314
    32 -0.049759 -1.680544 0.100479 -1.321380 0.049505 -0.014373
    33 -0.034141 -1.148311 0.084778 -0.728807 0.000000 0.000000
    34 -0.488517 -2.755599 -0.228262 -0.501826 0.071854 -0.184931
    35 0.039889 -1.479791 0.029852 -1.328460 0.000000 0.000000
    36 0.028785 -1.075733 -0.023111 -0.472511 0.000000 0.000000
    37 -1.180679 -2.507215 -0.193862 -0.522316 0.238061 -0.295148
    38 -0.024967 -1.123934 0.017594 -0.999039 0.003607 -0.034700
    39 -0.020058 -0.890964 0.010091 -0.813400 0.000000 0.000000
    40 0.104527 -0.050267 -0.058395 0.287665 3.112129 1.565386
  time 8
    0 3.734228 -2.742617 -5.925894 0.243411 -5.902452 1.204804
    1 0.096945 -8.450419 -0.009364 -0.188150 0.147051 0.464816
    2 0.192561 -2.277496 0.898080 -0.086566 -3.123679 0.445903
    3 2.670662 0.228810 -0.000696 0.000000 0.000000 0.000000
    4 -0.000066 -0.428590 -0.009439 0.000000 0.000000 -0.025035
    5 2.670594 0.228795 -0.010135 0.000000 0.000000 0.000000
    6 -5.034416 0.218050 0.020352 1.570796 -3.141592 0.088140
    7 -0.586769 -1.264477 0.200164 0.023191 -0.491669 -2.736649
    8 1.522835 0.058679 0.016851 0.198676 -0.491047 1.123139
    9 1.117948 0.048424 -0.005765 0.287015 -0.178376 0.801845
    10 -0.963867 -2.785143 -0.085346 -0.665437 0.018581 -0.085725
    11 0.028478 -1.403067 0.006271 -1.331584 0.000000 0.000000
    12 0.021413 -0.957782 0.020047 -1.324086 0.000000 0.000000
    13 -0.249535 -2.846963 -0.174215 -0.922349 -0.079695 0.032129
    14 0.043234 -1.683940 0.096014 -1.877745 0.000000 0.000000
    15 0.031729 -1.160831 0.058837 -1.244640 0.000000 0.000000
    16 0.447951 -2.798983 -0.200441 -1.274215 -0.042186 0.034093
    17 -0.032909 -1.480207 0.004936 -1.643448 0.000000 0.000000
    18 -0.027023 -1.076921 -0.020212 -1.126744 0.000000 0.000000
    19 1.164474 -2.543939 -0.170327 -1.255579 -0.149891 0.112554
    20 0.024032 -1.129040 0.017806 -1.392060 0.000000 0.000000
    21 0.014896 -0.883992 -0.019845 -0.997025 0.000000 0.000000
    22 0.016856 -0.158574 0.033930 0.016632 0.081634 1.264207
    23 2.939748 -5.618744 -7.081592 0.123962 -3.444869 -1.344393
    24 -0.071917 -8.498731 -0.104136 0.071765 -0.135193 -0.044136
    25 0.583509 -1.197273 0.185379 0.095818 -0.490155 -0.601417
    26 1.535926 0.010247 0.005008 -0.360799 -0.294218 -0.764726
    27 1.100770 0.004527 -0.010675 -0.051789 0.091089 -0.525199
    28 0.957766 -2.746777 -0.090301 -0.078238 -0.035942 0.098310
    29 -0.033419 -1.397128 -0.011256 -1.160889 0.000000 0.000000
    30 -0.022361 -0.957434 0.018783 -0.644594 0.000000 0.000000
    31 0.250028 -2.820664 -0.238397 -0.388083 0.015579 -0.106177
    32 -0.049759 -1.680544 0.100479 -1.228871 0.049505 -0.014373
    33 -0.034141 -1.148311 0.084778 -0.806804 0.000000 0.000000
    34 -0.488517 -2.755599 -0.228262 -0.456993 0.067600 -0.179646
    35 0.039889 -1.479791 0.029852 -1.230310 0.000000 0.000000
    36 0.028785 -1.075733 -0.023111 -0.521650 0.000000 0.000000
    37 -1.180679 -2.507215 -0.193862 -0.480910 0.223093 -0.279496
    38 -0.024967 -1.123934 0.017594 -0.920225 0.003607 -0.034700
    39 -0.020058 -0.890964 0.010091 -0.731573 0.000000 0.000000
    40 0.100620 -0.050267 -0.058395 0.287665 3.112317 1.566150
  time 9
    0 4.019393 -1.656646 -6.261841 0.401839 -5.849515 1.522873
    1 0.096945 -8.450419 -0.009364 -0.173916 0.185160 0.040210
    2 0.204280 -2.293122 0.894174 -0.111380 -3.122740 0.420116
    3 2.670662 0.228810 -0.000696 0.000000 0.000000 0.000000
    4 -0.000066 -0.428590 -0.009439 0.000000 0.000000 -0.025035
    5 2.670594 0.228795 -0.010135 0.000000 0.000000 0.000000
    6 -5.034416 0.218050 0.020352 1.570796 -3.141592 0.088140
    7 -0.586769 -1.264477 0.200164 0.023266 -0.498297 -2.736824
    8 1.522835 0.058679 0.016851 0.214705 -0.476141 1.113617
    9 1.117948 0.048424 -0.005765 0.285218 -0.178184 0.791119
    10 -0.963867 -2.785143 -0.085346 -0.649614 0.018581 -0.085725
    11 0.028478 -1.403067 0.006271 -1.302005 0.000000 0.000000
    12 0.021413 -0.957782 0.020047 -1.351108 0.000000 0.000000
    13 -0.249535 -2.846963 -0.174215 -0.922349 -0.079695 0.032129
    14 0.043234 -1.683940 0.096014 -1.871657 0.000000 0.000000
    15 0.031729 -1.160831 0.058837 -1.228147 0.000000 0.000000
    16 0.447951 -2.798983 -0.200441 -1.282903 -0.043851 0.035340
    17 -0.032909 -1.480207 0.004936 -1.624291 0.000000 0.000000
    18 -0.027023 -1.076921 -0.020212 -1.100926 0.000000 0.000000
    19 1.164474 -2.543939 -0.170327 -1.267838 -0.149891 0.112554
    20 0.024032 -1.129040 0.017806 -1.371610 0.000000 0.000000
    21 0.014896 -0.883992 -0.019845 -0.969053 0.000000 0.000000
    22 0.012949 -0.158574 0.030023 0.024206 0.078710 1.268282
    23 2.783494 -5.564055 -7.030809 0.172808 -3.467999 -1.349834
    24 -0.071917 -8.498731 -0.104136 0.034740 -0.141534 -0.035062
    25 0.583509 -1.197273 0.185379 0.112117 -0.485253 -0.605108
    26 1.535926 0.010247 0.005008 -0.350624 -0.294494 -0.765969
    27 1.100770 0.004527 -0.010675 -0.050471 0.089100 -0.500223
    28 0.957766 -2.746777 -0.090301 -0.069226 -0.044044 0.091827
    29 -0.033419 -1.397128 -0.011256 -1.073364 0.000000 0.000000
    30 -0.022361 -0.957434 0.018783 -0.710784 0.000000 0.000000
    31 0.250028 -2.820664 -0.238397 -0.356707 0.006183 -0.097751
    32 -0.049759 -1.680544 0.100479 -1.132976 0.049505 -0.014373
    33 -0.034141 -1.148311 0.084778 -0.882195 0.000000 0.000000
    34 -0.488517 -2.755599 -0.228262 -0.411076 0.063238 -0.174241
    35 0.039889 -1.479791 0.029852 -1.129825 0.000000 0.000000
    36 0.028785 -1.075733 -0.023111 -0.569147 0.000000 0.000000
    37 -1.180679 -2.507215 -0.193862 -0.438502 0.207740 -0.263460
    38 -0.024967 -1.123934 0.017594 -0.839490 0.003607 -0.034700
    39 -0.020058 -0.890964 0.010091 -0.647767 0.000000 0.000000
    40 0.096714 -0.050267 -0.058395 0.287665 3.112600 1.566915
  time 10
    0 4.124865 -1.023814 -6.871235 0.433860 -5.777180 1.534063
    1 0.096945 -8.450419 -0.009364 -0.136988 0.187957 -0.101896
    2 0.215999 -2.312654 0.890267 -0.132803 -3.121989 0.397685
    3 2.670662 0.228810 -0.000696 0.000000 0.000000 0.000000
    4 -0.000066 -0.428590 -0.009439 0.000000 0.000000 -0.025035
    5 2.670594 0.228795 -0.010135 0.000000 0.000000 0.000000
    6 -5.034416 0.218050 0.020352 1.570796 -3.141592 0.088140
    7 -0.586769 -1.264477 0.200164 0.023354 -0.504864 -2.736998
    8 1.522835 0.058679 0.016851 0.230593 -0.461373 1.104185
    9 1.117948 0.048424 -0.005765 0.283444 -0.177993 0.780478
    10 -0.963867 -2.785143 -0.085346 -0.633912 0.018581 -0.085725
    11 0.028478 -1.403067 0.006271 -1.272713 0.000000 0.000000
    12 0.021413 -0.957782 0.020047 -1.377910 0.000000 0.000000
    13 -0.249535 -2.846963 -0.174215 -0.922349 -0.079695 0.032129
    14 0.043234 -1.683940 0.096014 -1.865609 0.000000 0.000000
    15 0.031729 -1.160831 0.058837 -1.211838 0.000000 0.000000
    16 0.447951 -2.798983 -0.200441 -1.291533 -0.045517 0.036574
    17 -0.032909 -1.480207 0.004936 -1.605326 0.000000 0.000000
    18 -0.027023 -1.076921 -0.020212 -1.075319 0.000000 0.000000
    19 1.164474 -2.543939 -0.170327 -1.280007 -0.149891 0.112554
    20 0.024032 -1.129040 0.017806 -1.351315 0.000000 0.000000
    21 0.014896 -0.883992 -0.019845 -0.941311 0.000000 0.000000
    22 0.005137 -0.154668 0.026117 0.035966 0.074143 1.274658
    23 2.674115 -5.509366 -6.964401 0.212036 -3.489718 -1.347145
    24 -0.071917 -8.498731 -0.104136 -0.017431 -0.145674 -0.024595
    25 0.583509 -1.197273 0.185379 0.128836 -0.480232 -0.608895
    26 1.535926 0.010247 0.005008 -0.340209 -0.294770 -0.767225
    27 1.100770 0.004527 -0.010675 -0.049105 0.087050 -0.474621
    28 0.957766 -2.746777 -0.090301 -0.059998 -0.052349 0.085175
    29 -0.033419 -1.397128 -0.011256 -0.983681 0.000000 0.000000
    30 -0.022361 -0.957434 0.018783 -0.773830 0.000000 0.000000
    31 0.250028 -2.820664 -0.238397 -0.324538 -0.003441 -0.089111
    32 -0.049759 -1.680544 0.100479 -1.034764 0.049505 -0.014373
    33 -0.034141 -1.148311 0.084778 -0.954042 0.000000 0.000000
    34 -0.488517 -2.755599 -0.228262 -0.364593 0.058839 -0.168764
    35 0.039889 -1.479791 0.029852 -1.028092 0.000000 0.000000
    36 0.028785 -1.075733 -0.023111 -0.614411 0.000000 0.000000
    37 -1.180679 -2.507215 -0.193862 -0.395594 0.192208 -0.247233
    38 -0.024967 -1.123934 0.017594 -0.757795 0.003607 -0.034700
    39 -0.020058 -0.890964 0.010091 -0.562927 0.000000 0.000000
    40 0.092807 -0.050267 -0.062302 0.287665 3.112788 1.567680
  time 11
    0 4.070175 -0.723024 -7.625164 0.383914 -5.690225 1.345156
    1 0.096945 -8.450419 -0.009364 -0.082027 0.152881 -0.081071
    2 0.223812 -2.324373 0.890267 -0.150387 -3.121520 0.379184
    3 2.670662 0.228810 -0.000696 0.000000 0.000000 0.000000
    4 -0.000066 -0.428590 -0.009439 0.000000 0.000000 -0.025035
    5 2.670594 0.228795 -0.010135 0.000000 0.000000 0.000000
    6 -5.034416 0.218050 0.020352 1.570796 -3.141592 0.088140
    7 -0.586769 -1.264477 0.200164 0.023430 -0.511312 -2.737173
    8 1.522835 0.058679 0.016851 0.246199 -0.446862 1.094911
    9 1.117948 0.048424 -0.005765 0.281694 -0.177813 0.770034
    10 -0.963867 -2.785143 -0.085346 -0.618497 0.018581 -0.085725
    11 0.028478 -1.403067 0.006271 -1.243947 0.000000 0.000000
    12 0.021413 -0.957782 0.020047 -1.404231 0.000000 0.000000
    13 -0.249535 -2.846963 -0.174215 -0.922349 -0.079695 0.032129
    14 0.043234 -1.683940 0.096014 -1.859683 0.000000 0.000000
    15 0.031729 -1.160831 0.058837 -1.195782 0.000000 0.000000
    16 0.447951 -2.798983 -0.200441 -1.299987 -0.047147 0.037796
    17 -0.032909 -1.480207 0.004936 -1.586708 0.000000 0.000000
    18 -0.027023 -1.076921 -0.020212 -1.050185 0.000000 0.000000
    19 1.164474 -2.543939 -0.170327 -1.291932 -0.149891 0.112554
    20 0.024032 -1.129040 0.017806 -1.331419 0.000000 0.000000
    21 0.014896 -0.883992 -0.019845 -0.914053 0.000000 0.000000
    22 -0.006582 -0.150762 0.026117 0.051241 0.068211 1.282987
    23 2.599894 -5.446864 -6.874555 0.246962 -3.512456 -1.337139
    24 -0.071917 -8.498731 -0.104136 -0.077781 -0.146163 -0.013601
    25 0.583509 -1.197273 0.185379 0.145794 -0.475138 -0.612731
    26 1.535926 0.010247 0.005008 -0.329639 -0.295057 -0.768507
    27 1.100770 0.004527 -0.010675 -0.047738 0.084977 -0.448661
    28 0.957766 -2.746777 -0.090301 -0.050626 -0.060762 0.078428
    29 -0.033419 -1.397128 -0.011256 -0.892703 0.000000 0.000000
    30 -0.022361 -0.957434 0.018783 -0.832801 0.000000 0.000000
    31 0.250028 -2.820664 -0.238397 -0.291905 -0.013208 -0.080350
    32 -0.049759 -1.680544 0.100479 -0.935067 0.049505 -0.014373
    33 -0.034141 -1.148311 0.084778 -1.021246 0.000000 0.000000
    34 -0.488517 -2.755599 -0.228262 -0.318109 0.054429 -0.163299
    35 0.039889 -1.479791 0.029852 -0.926359 0.000000 0.000000
    36 0.028785 -1.075733 -0.023111 -0.656751 0.000000 0.000000
    37 -1.180679 -2.507215 -0.193862 -0.352663 0.176676 -0.231018
    38 -0.024967 -1.123934 0.017594 -0.676100 0.003607 -0.034700
    39 -0.020058 -0.890964 0.010091 -0.478087 0.000000 0.000000
    40 0.088901 -0.050267 -0.062302 0.287761 3.113070 1.568540
  time 12
    0 3.874857 -0.633178 -8.379094 0.296158 -5.593620 1.062934
    1 0.096945 -8.450419 -0.009364 -0.021342 0.097149 0.031632
    2 0.231625 -2.336092 0.886361 -0.163597 -3.121144 0.365188
    3 2.670662 0.228810 -0.000696 0.000000 0.000000 0.000000
    4 -0.000066 -0.428590 -0.009439 0.000000 0.000000 -0.025035
    5 2.670594 0.228795 -0.010135 0.000000 0.000000 0.000000
    6 -5.034416 0.218050 0.020352 1.570796 -3.141592 0.088140
    7 -0.586769 -1.264477 0.200164 0.023518 -0.517592 -2.737326
    8 1.522835 0.058679 0.016851 0.261368 -0.432763 1.085886
    9 1.117948 0.048424 -0.005765 0.279992 -0.177633 0.759872
    10 -0.963867 -2.785143 -0.085346 -0.603512 0.018581 -0.085725
    11 0.028478 -1.403067 0.006271 -1.215948 0.000000 0.000000
    12 0.021413 -0.957782 0.020047 -1.429807 0.000000 0.000000
    13 -0.249535 -2.846963 -0.174215 -0.922349 -0.079695 0.032129
    14 0.043234 -1.683940 0.096014 -1.853919 0.000000 0.000000
    15 0.031729 -1.160831 0.058837 -1.180209 0.000000 0.000000
    16 0.447951 -2.798983 -0.200441 -1.308237 -0.048729 0.038971
    17 -0.032909 -1.480207 0.004936 -1.568551 0.000000 0.000000
    18 -0.027023 -1.076921 -0.020212 -1.025736 0.000000 0.000000
    19 1.164474 -2.543939 -0.170327 -1.303546 -0.149891 0.112554
    20 0.024032 -1.129040 0.017806 -1.312048 0.000000 0.000000
    21 0.014896 -0.883992 -0.019845 -0.887576 0.000000 0.000000
    22 -0.018302 -0.146855 0.022211 0.069335 0.061164 1.292946
    23 2.549111 -5.380456 -6.769083 0.277838 -3.535742 -1.321066
    24 -0.071917 -8.498731 -0.104136 -0.139410 -0.141551 -0.002949
    25 0.583509 -1.197273 0.185379 0.162836 -0.470021 -0.616590
    26 1.535926 0.010247 0.005008 -0.319009 -0.295333 -0.769802
    27 1.100770 0.004527 -0.010675 -0.046348 0.082892 -0.422552
    28 0.957766 -2.746777 -0.090301 -0.041218 -0.069223 0.071657
    29 -0.033419 -1.397128 -0.011256 -0.801294 0.000000 0.000000
    30 -0.022361 -0.957434 0.018783 -0.886840 0.000000 0.000000
    31 0.250028 -2.820664 -0.238397 -0.259117 -0.023012 -0.071541
    32 -0.049759 -1.680544 0.100479 -0.834954 0.049505 -0.014373
    33 -0.034141 -1.148311 0.084778 -1.082829 0.000000 0.000000
    34 -0.488517 -2.755599 -0.228262 -0.272193 0.050066 -0.157882
    35 0.039889 -1.479791 0.029852 -0.825820 0.000000 0.000000
    36 0.028785 -1.075733 -0.023111 -0.695549 0.000000 0.000000
    37 -1.180679 -2.507215 -0.193862 -0.310255 0.161336 -0.214983
    38 -0.024967 -1.123934 0.017594 -0.595365 0.003607 -0.034700
    39 -0.020058 -0.890964 0.010091 -0.394282 0.000000 0.000000
    40 0.088901 -0.050267 -0.062302 0.287761 3.113353 1.569304
  time 13
    0 3.554535 -0.637084 -9.008019 0.215031 -5.492237 0.794083
    1 0.096945 -8.450419 -0.009364 0.032757 0.037947 0.165035
    2 0.235531 -2.339998 0.886361 -0.171987 -3.120957 0.356369
    3 2.670662 0.228810 -0.000696 0.000000 0.000000 0.000000
    4 -0.000066 -0.428590 -0.009439 0.000000 0.000000 -0.025035
    5 2.670594 0.228795 -0.010135 0.000000 0.000000 0.000000
    6 -5.034416 0.218050 0.020352 1.570796 -3.141592 0.088140
    7 -0.586769 -1.264477 0.200164 0.023593 -0.523632 -2.737501
    8 1.522835 0.058679 0.016851 0.275957 -0.419178 1.077201
    9 1.117948 0.048424 -0.005765 0.278363 -0.177465 0.750077
    10 -0.963867 -2.785143 -0.085346 -0.589078 0.018581 -0.085725
    11 0.028478 -1.403067 0.006271 -1.189001 0.000000 0.000000
    12 0.021413 -0.957782 0.020047 -1.454464 0.000000 0.000000
    13 -0.249535 -2.846963 -0.174215 -0.922349 -0.079695 0.032129
    14 0.043234 -1.683940 0.096014 -1.848358 0.000000 0.000000
    15 0.031729 -1.160831 0.058837 -1.165188 0.000000 0.000000
    16 0.447951 -2.798983 -0.200441 -1.316135 -0.050251 0.040109
    17 -0.032909 -1.480207 0.004936 -1.551125 0.000000 0.000000
    18 -0.027023 -1.076921 -0.020212 -1.002208 0.000000 0.000000
    19 1.164474 -2.543939 -0.170327 -1.314738 -0.149891 0.112554
    20 0.024032 -1.129040 0.017806 -1.293415 0.000000 0.000000
    21 0.014896 -0.883992 -0.019845 -0.862066 0.000000 0.000000
    22 -0.030021 -0.142949 0.022211 0.089554 0.053266 1.304188
    23 2.525673 -5.314047 -6.651892 0.304918 -3.559108 -1.300116
    24 -0.071917 -8.498731 -0.104136 -0.195351 -0.130424 0.006467
    25 0.583509 -1.197273 0.185379 0.179782 -0.464915 -0.620425
    26 1.535926 0.010247 0.005008 -0.308438 -0.295621 -0.771084
    27 1.100770 0.004527 -0.010675 -0.044970 0.080818 -0.396592
    28 0.957766 -2.746777 -0.090301 -0.031846 -0.077649 0.064909
    29 -0.033419 -1.397128 -0.011256 -0.710316 0.000000 0.000000
    30 -0.022361 -0.957434 0.018783 -0.935053 0.000000 0.000000
    31 0.250028 -2.820664 -0.238397 -0.226483 -0.032779 -0.062768
    32 -0.049759 -1.680544 0.100479 -0.735256 0.049505 -0.014373
    33 -0.034141 -1.148311 0.084778 -1.137773 0.000000 0.000000
    34 -0.488517 -2.755599 -0.228262 -0.227360 0.045824 -0.152609
    35 0.039889 -1.479791 0.029852 -0.727724 0.000000 0.000000
    36 0.028785 -1.075733 -0.023111 -0.730164 0.000000 0.000000
    37 -1.180679 -2.507215 -0.193862 -0.268871 0.146355 -0.199331
    38 -0.024967 -1.123934 0.017594 -0.516551 0.003607 -0.034700
    39 -0.020058 -0.890964 0.010091 -0.312454 0.000000 0.000000
    40 0.084995 -0.050267 -0.062302 0.287761 3.113541 1.570165
  time 14
    0 3.124834 -0.613646 -9.379124 0.184689 -5.390854 0.645480
    1 0.096945 -8.450419 -0.009364 0.067988 -0.007440 0.248038
    2 0.239437 -2.343904 0.886361 -0.174844 -3.120863 0.353301
    3 2.670662 0.228810 -0.000696 0.000000 0.000000 0.000000
    4 -0.000066 -0.428590 -0.009439 0.000000 0.000000 -0.025035
    5 2.670594 0.228795 -0.010135 0.000000 0.000000 0.000000
    6 -5.034416 0.218050 0.020352 1.570796 -3.141592 0.088140
    7 -0.586769 -1.264477 0.200164 0.023656 -0.529373 -2.737654
    8 1.522835 0.058679 0.016851 0.289857 -0.406263 1.068945
    9 1.117948 0.048424 -0.005765 0.276805 -0.177298 0.740791
    10 -0.963867 -2.785143 -0.085346 -0.575360 0.018581 -0.085725
    11 0.028478 -1.403067 0.006271 -1.163395 0.000000 0.000000
    12 0.021413 -0.957782 0.020047 -1.477894 0.000000 0.000000
    13 -0.249535 -2.846963 -0.174215 -0.922349 -0.079695 0.032129
    14 0.043234 -1.683940 0.096014 -1.843082 0.000000 0.000000
    15 0.031729 -1.160831 0.058837 -1.150903 0.000000 0.000000
    16 0.447951 -2.798983 -0.200441 -1.323683 -0.051701 0.041200
    17 -0.032909 -1.480207 0.004936 -1.534545 0.000000 0.000000
    18 -0.027023 -1.076921 -0.020212 -0.979838 0.000000 0.000000
    19 1.164474 -2.543939 -0.170327 -1.325353 -0.149891 0.112554
    20 0.024032 -1.129040 0.017806 -1.275675 0.000000 0.000000
    21 0.014896 -0.883992 -0.019845 -0.837821 0.000000 0.000000
    22 -0.045646 -0.139043 0.018304 0.111214 0.044793 1.316388
    23 2.521767 -5.239826 -6.526888 0.328328 -3.582238 -1.275475
    24 -0.071917 -8.498731 -0.104136 -0.238690 -0.111332 0.013752
    25 0.583509 -1.197273 0.185379 0.196501 -0.459894 -0.624212
    26 1.535926 0.010247 0.005008 -0.298024 -0.295896 -0.772340
    27 1.100770 0.004527 -0.010675 -0.043616 0.078769 -0.370990
    28 0.957766 -2.746777 -0.090301 -0.022618 -0.085942 0.058270
    29 -0.033419 -1.397128 -0.011256 -0.620633 0.000000 0.000000
    30 -0.022361 -0.957434 0.018783 -0.976475 0.000000 0.000000
    31 0.250028 -2.820664 -0.238397 -0.194314 -0.042403 -0.054128
    32 -0.049759 -1.680544 0.100479 -0.636985 0.049505 -0.014373
    33 -0.034141 -1.148311 0.084778 -1.184979 0.000000 0.000000
    34 -0.488517 -2.755599 -0.228262 -0.184202 0.041725 -0.147527
    35 0.039889 -1.479791 0.029852 -0.633211 0.000000 0.000000
    36 0.028785 -1.075733 -0.023111 -0.759904 0.000000 0.000000
    37 -1.180679 -2.507215 -0.193862 -0.229012 0.131926 -0.184266
    38 -0.024967 -1.123934 0.017594 -0.440660 0.003607 -0.034700
    39 -0.020058 -0.890964 0.010091 -0.233684 0.000000 0.000000
    40 0.081088 -0.050267 -0.066208 -2.853650 0.027813 -1.570529
  time 15
    0 2.433407 -0.656616 -9.414281 0.204575 -5.274564 0.606125
    1 0.096945 -8.450419 -0.009364 0.077005 -0.040225 0.281407
    2 0.231625 -2.332185 0.886361 -0.159759 -3.121238 0.369310
    3 2.670662 0.228810 -0.000696 0.000000 0.000000 0.000000
    4 -0.000066 -0.428590 -0.009439 0.000000 0.000000 -0.025035
    5 2.670594 0.228795 -0.010135 0.000000 0.000000 0.000000
    6 -5.034416 0.218050 0.020352 1.570796 -3.141592 0.088140
    7 -0.586769 -1.264477 0.200164 0.023719 -0.534766 -2.737785
    8 1.522835 0.058679 0.016851 0.302880 -0.394136 1.061187
    9 1.117948 0.048424 -0.005765 0.275342 -0.177154 0.732068
    10 -0.963867 -2.785143 -0.085346 -0.562480 0.018581 -0.085725
    11 0.028478 -1.403067 0.006271 -1.139368 0.000000 0.000000
    12 0.021413 -0.957782 0.020047 -1.499836 0.000000 0.000000
    13 -0.249535 -2.846963 -0.174215 -0.922349 -0.079695 0.032129
    14 0.043234 -1.683940 0.096014 -1.838130 0.000000 0.000000
    15 0.031729 -1.160831 0.058837 -1.137515 0.000000 0.000000
    16 0.447951 -2.798983 -0.200441 -1.330762 -0.053068 0.042219
    17 -0.032909 -1.480207 0.004936 -1.518965 0.000000 0.000000
    18 -0.027023 -1.076921 -0.020212 -0.958836 0.000000 0.000000
    19 1.164474 -2.543939 -0.170327 -1.335324 -0.149891 0.112554
    20 0.024032 -1.129040 0.017806 -1.259045 0.000000 0.000000
    21 0.014896 -0.883992 -0.019845 -0.815048 0.000000 0.000000
    22 -0.061272 -0.135136 0.018304 0.133633 0.035985 1.329188
    23 2.533486 -5.169512 -6.394071 0.348322 -3.604740 -1.248396
    24 -0.071917 -8.498731 -0.104136 -0.262488 -0.082824 0.018039
    25 0.583509 -1.197273 0.185379 0.212812 -0.454992 -0.627903
    26 1.535926 0.010247 0.005008 -0.287849 -0.296160 -0.773571
    27 1.100770 0.004527 -0.010675 -0.042297 0.076780 -0.346045
    28 0.957766 -2.746777 -0.090301 -0.013606 -0.094043 0.051774
    29 -0.033419 -1.397128 -0.011256 -0.533108 0.000000 0.000000
    30 -0.022361 -0.957434 0.018783 -1.010286 0.000000 0.000000
    31 0.250028 -2.820664 -0.238397 -0.162939 -0.051799 -0.045702
    32 -0.049759 -1.680544 0.100479 -0.541150 0.049505 -0.014373
    33 -0.034141 -1.148311 0.084778 -1.223509 0.000000 0.000000
    34 -0.488517 -2.755599 -0.228262 -0.143236 0.037842 -0.142698
    35 0.039889 -1.479791 0.029852 -0.543584 0.000000 0.000000
    36 0.028785 -1.075733 -0.023111 -0.784179 0.000000 0.000000
    37 -1.180679 -2.507215 -0.193862 -0.191177 0.118240 -0.169956
    38 -0.024967 -1.123934 0.017594 -0.368654 0.003607 -0.034700
    39 -0.020058 -0.890964 0.010091 -0.158915 0.000000 0.000000
    40 0.077182 -0.050267 -0.066208 -2.853650 0.027530 -1.569764
  time 16
    0 1.382593 -0.902717 -9.179899 0.241171 -5.132188 0.590193
    1 0.096945 -8.450419 -0.009364 0.064341 -0.072505 0.312918
    2 0.208187 -2.300934 0.894174 -0.118878 -3.122459 0.412160
    3 2.670662 0.228810 -0.000696 0.000000 0.000000 0.000000
    4 -0.000066 -0.428590 -0.009439 0.000000 0.000000 -0.025035
    5 2.670594 0.228795 -0.010135 0.000000 0.000000 0.000000
    6 -5.034416 0.218050 0.020352 1.570796 -3.141592 0.088140
    7 -0.586769 -1.264477 0.200164 0.023781 -0.539739 -2.737916
    8 1.522835 0.058679 0.016851 0.314918 -0.382953 1.054039
    9 1.117948 0.048424 -0.005765 0.274000 -0.177010 0.723996
    10 -0.963867 -2.785143 -0.085346 -0.550581 0.018581 -0.085725
    11 0.028478 -1.403067 0.006271 -1.117159 0.000000 0.000000
    12 0.021413 -0.957782 0.020047 -1.520157 0.000000 0.000000
    13 -0.249535 -2.846963 -0.174215 -0.922349 -0.079695 0.032129
    14 0.043234 -1.683940 0.096014 -1.833543 0.000000 0.000000
    15 0.031729 -1.160831 0.058837 -1.125140 0.000000 0.000000
    16 0.447951 -2.798983 -0.200441 -1.337285 -0.054326 0.043153
    17 -0.032909 -1.480207 0.004936 -1.504578 0.000000 0.000000
    18 -0.027023 -1.076921 -0.020212 -0.939466 0.000000 0.000000
    19 1.164474 -2.543939 -0.170327 -1.344540 -0.149891 0.112554
    20 0.024032 -1.129040 0.017806 -1.243677 0.000000 0.000000
    21 0.014896 -0.883992 -0.019845 -0.794046 0.000000 0.000000
    22 -0.076897 -0.131230 0.018304 0.156103 0.027116 1.342263
    23 2.560831 -5.103104 -6.261255 0.365215 -3.626145 -1.220003
    24 -0.071917 -8.498731 -0.104136 -0.261306 -0.035153 0.018302
    25 0.583509 -1.197273 0.185379 0.228548 -0.450258 -0.631462
    26 1.535926 0.010247 0.005008 -0.278045 -0.296423 -0.774762
    27 1.100770 0.004527 -0.010675 -0.041015 0.074850 -0.321935
    28 0.957766 -2.746777 -0.090301 -0.004917 -0.101857 0.045518
    29 -0.033419 -1.397128 -0.011256 -0.448659 0.000000 0.000000
    30 -0.022361 -0.957434 0.018783 -1.035554 0.000000 0.000000
    31 0.250028 -2.820664 -0.238397 -0.132648 -0.060859 -0.037565
    32 -0.049759 -1.680544 0.100479 -0.448641 0.049505 -0.014373
    33 -0.034141 -1.148311 0.084778 -1.252305 0.000000 0.000000
    34 -0.488517 -2.755599 -0.228262 -0.105030 0.034211 -0.138203
    35 0.039889 -1.479791 0.029852 -0.459928 0.000000 0.000000
    36 0.028785 -1.075733 -0.023111 -0.802320 0.000000 0.000000
    37 -1.180679 -2.507215 -0.193862 -0.155891 0.105476 -0.156618
    38 -0.024967 -1.123934 0.017594 -0.301491 0.003607 -0.034700
    39 -0.020058 -0.890964 0.010091 -0.089182 0.000000 0.000000
    40 0.073276 -0.050267 -0.066208 -2.853650 0.027342 -1.569000
  time 17
    0 0.093492 -1.297260 -8.750199 0.289436 -4.974523 0.592848
    1 0.096945 -8.450419 -0.009364 0.035467 -0.103336 0.341973
    2 0.176936 -2.254058 0.901986 -0.058985 -3.124805 0.474373
    3 2.670662 0.228810 -0.000696 0.000000 0.000000 0.000000
    4 -0.000066 -0.428590 -0.009439 0.000000 0.000000 -0.025035
    5 2.670594 0.228795 -0.010135 0.000000 0.000000 0.000000
    6 -5.034416 0.218050 0.020352 1.570796 -3.141592 0.088140
    7 -0.586769 -1.264477 0.200164 0.023844 -0.544246 -2.738025
    8 1.522835 0.058679 0.016851 0.325797 -0.372816 1.047570
    9 1.117948 0.048424 -0.005765 0.272778 -0.176878 0.716713
    10 -0.963867 -2.785143 -0.085346 -0.539827 0.018581 -0.085725
    11 0.028478 -1.403067 0.006271 -1.097057 0.000000 0.000000
    12 0.021413 -0.957782 0.020047 -1.538507 0.000000 0.000000
    13 -0.249535 -2.846963 -0.174215 -0.922349 -0.079695 0.032129
    14 0.043234 -1.683940 0.096014 -1.829403 0.000000 0.000000
    15 0.031729 -1.160831 0.058837 -1.113960 0.000000 0.000000
    16 0.447951 -2.798983 -0.200441 -1.343195 -0.055465 0.044004
    17 -0.032909 -1.480207 0.004936 -1.491576 0.000000 0.000000
    18 -0.027023 -1.076921 -0.020212 -0.921912 0.000000 0.000000
    19 1.164474 -2.543939 -0.170327 -1.352890 -0.149891 0.112554
    20 0.024032 -1.129040 0.017806 -1.229787 0.000000 0.000000
    21 0.014896 -0.883992 -0.019845 -0.775022 0.000000 0.000000
    22 -0.092523 -0.123417 0.014398 0.177953 0.018451 1.355278
    23 2.592081 -5.036695 -6.132344 0.379072 -3.645982 -1.191547
    24 -0.071917 -8.498731 -0.104136 -0.238774 0.034632 0.014857
    25 0.583509 -1.197273 0.185379 0.243564 -0.445752 -0.634854
    26 1.535926 0.010247 0.005008 -0.268685 -0.296675 -0.775901
    27 1.100770 0.004527 -0.010675 -0.039793 0.073016 -0.298929
    28 0.957766 -2.746777 -0.090301 0.003377 -0.109312 0.039550
    29 -0.033419 -1.397128 -0.011256 -0.368096 0.000000 0.000000
    30 -0.022361 -0.957434 0.018783 -1.051351 0.000000 0.000000
    31 0.250028 -2.820664 -0.238397 -0.103769 -0.069500 -0.029799
    32 -0.049759 -1.680544 0.100479 -0.360352 0.049505 -0.014373
    33 -0.034141 -1.148311 0.084778 -1.270307 0.000000 0.000000
    34 -0.488517 -2.755599 -0.228262 -0.070124 0.030903 -0.134093
    35 0.039889 -1.479791 0.029852 -0.383547 0.000000 0.000000
    36 0.028785 -1.075733 -0.023111 -0.813662 0.000000 0.000000
    37 -1.180679 -2.507215 -0.193862 -0.123653 0.093815 -0.144441
    38 -0.024967 -1.123934 0.017594 -0.240133 0.003607 -0.034700
    39 -0.020058 -0.890964 0.010091 -0.025473 0.000000 0.000000
    40 0.069369 -0.050267 -0.066208 -2.853650 0.027154 -1.568331
  time 18
    0 -1.320614 -1.781650 -8.191588 0.344237 -4.811889 0.608875
    1 0.096945 -8.450419 -0.009364 -0.004069 -0.131876 0.368054
    2 0.141778 -2.203275 0.913706 0.013315 -3.128373 0.548090
    3 2.670662 0.228810 -0.000696 0.000000 0.000000 0.000000
    4 -0.000066 -0.428590 -0.009439 0.000000 0.000000 -0.025035
    5 2.670594 0.228795 -0.010135 0.000000 0.000000 0.000000
    6 -5.034416 0.218050 0.020352 1.570796 -3.141592 0.088140
    7 -0.586769 -1.264477 0.200164 0.023895 -0.548225 -2.738134
    8 1.522835 0.058679 0.016851 0.335408 -0.363879 1.041848
    9 1.117948 0.048424 -0.005765 0.271699 -0.176770 0.710277
    10 -0.963867 -2.785143 -0.085346 -0.530341 0.018581 -0.085725
    11 0.028478 -1.403067 0.006271 -1.079348 0.000000 0.000000
    12 0.021413 -0.957782 0.020047 -1.554755 0.000000 0.000000
    13 -0.249535 -2.846963 -0.174215 -0.922349 -0.079695 0.032129
    14 0.043234 -1.683940 0.096014 -1.825750 0.000000 0.000000
    15 0.031729 -1.160831 0.058837 -1.104069 0.000000 0.000000
    16 0.447951 -2.798983 -0.200441 -1.348402 -0.056459 0.044747
    17 -0.032909 -1.480207 0.004936 -1.480112 0.000000 0.000000
    18 -0.027023 -1.076921 -0.020212 -0.906411 0.000000 0.000000
    19 1.164474 -2.543939 -0.170327 -1.360240 -0.149891 0.112554
    20 0.024032 -1.129040 0.017806 -1.217529 0.000000 0.000000
    21 0.014896 -0.883992 -0.019845 -0.758253 0.000000 0.000000
    22 -0.104242 -0.119511 0.014398 0.198488 0.010242 1.367886
    23 2.631145 -4.978100 -6.015153 0.390271 -3.663937 -1.164155
    24 -0.071917 -8.498731 -0.104136 -0.201540 0.117763 0.008834
    25 0.583509 -1.197273 0.185379 0.257682 -0.441509 -0.638054
    26 1.535926 0.010247 0.005008 -0.259877 -0.296903 -0.776963
    27 1.100770 0.004527 -0.010675 -0.038654 0.071291 -0.277325
    28 0.957766 -2.746777 -0.090301 0.011179 -0.116323 0.033929
    29 -0.033419 -1.397128 -0.011256 -0.292335 0.000000 0.000000
    30 -0.022361 -0.957434 0.018783 -1.056819 0.000000 0.000000
    31 0.250028 -2.820664 -0.238397 -0.076594 -0.077637 -0.022500
    32 -0.049759 -1.680544 0.100479 -0.277409 0.049505 -0.014373
    33 -0.034141 -1.148311 0.084778 -1.276539 0.000000 0.000000
    34 -0.488517 -2.755599 -0.228262 -0.039086 0.027967 -0.130425
    35 0.039889 -1.479791 0.029852 -0.315580 0.000000 0.000000
    36 0.028785 -1.075733 -0.023111 -0.817588 0.000000 0.000000
    37 -1.180679 -2.507215 -0.193862 -0.094987 0.083436 -0.133595
    38 -0.024967 -1.123934 0.017594 -0.185582 0.003607 -0.034700
    39 -0.020058 -0.890964 0.010091 0.031176 0.000000 0.000000
    40 0.069369 -0.050267 -0.070114 -2.853650 0.026966 -1.567662
  time 19
    0 -2.742532 -2.305104 -7.574381 0.400532 -4.655085 0.633342
    1 0.096945 -8.450419 -0.009364 -0.048772 -0.157248 0.390639
    2 0.102715 -2.144680 0.921518 0.091060 -3.132691 0.625737
    3 2.670662 0.228810 -0.000696 0.000000 0.000000 0.000000
    4 -0.000066 -0.428590 -0.009439 0.000000 0.000000 -0.025035
    5 2.670594 0.228795 -0.010135 0.000000 0.000000 0.000000
    6 -5.034416 0.218050 0.020352 1.570796 -3.141592 0.088140
    7 -0.586769 -1.264477 0.200164 0.023932 -0.551604 -2.738221
    8 1.522835 0.058679 0.016851 0.343595 -0.356281 1.036985
    9 1.117948 0.048424 -0.005765 0.270788 -0.176674 0.704801
    10 -0.963867 -2.785143 -0.085346 -0.522245 0.018581 -0.085725
    11 0.028478 -1.403067 0.006271 -1.064271 0.000000 0.000000
    12 0.021413 -0.957782 0.020047 -1.568550 0.000000 0.000000
    13 -0.249535 -2.846963 -0.174215 -0.922349 -0.079695 0.032129
    14 0.043234 -1.683940 0.096014 -1.822665 0.000000 0.000000
    15 0.031729 -1.160831 0.058837 -1.095673 0.000000 0.000000
    16 0.447951 -2.798983 -0.200441 -1.352848 -0.057310 0.045383
    17 -0.032909 -1.480207 0.004936 -1.470341 0.000000 0.000000
    18 -0.027023 -1.076921 -0.020212 -0.893252 0.000000 0.000000
    19 1.164474 -2.543939 -0.170327 -1.366503 -0.149891 0.112554
    20 0.024032 -1.129040 0.017806 -1.207089 0.000000 0.000000
    21 0.014896 -0.883992 -0.019845 -0.743968 0.000000 0.000000
    22 -0.115961 -0.115604 0.014398 0.217000 0.002751 1.379751
    23 2.674115 -4.927317 -5.905775 0.398876 -3.679540 -1.139139
    24 -0.071917 -8.498731 -0.104136 -0.156198 0.205453 0.001338
    25 0.583509 -1.197273 0.185379 0.270745 -0.437578 -0.641014
    26 1.535926 0.010247 0.005008 -0.251739 -0.297119 -0.777947
    27 1.100770 0.004527 -0.010675 -0.037587 0.069685 -0.257303
    28 0.957766 -2.746777 -0.090301 0.018393 -0.122806 0.028740
    29 -0.033419 -1.397128 -0.011256 -0.222240 0.000000 0.000000
    30 -0.022361 -0.957434 0.018783 -1.006533 0.000000 0.000000
    31 0.250028 -2.820664 -0.238397 -0.051451 -0.085152 -0.015741
    32 -0.049759 -1.680544 0.100479 -0.200586 0.049505 -0.014373
    33 -0.034141 -1.148311 0.084778 -1.219232 0.000000 0.000000
    34 -0.488517 -2.755599 -0.228262 -0.012457 0.025438 -0.127297
    35 0.039889 -1.479791 0.029852 -0.257276 0.000000 0.000000
    36 0.028785 -1.075733 -0.023111 -0.730164 0.000000 0.000000
    37 -1.180679 -2.507215 -0.193862 -0.070393 0.074532 -0.124295
    38 -0.024967 -1.123934 0.017594 -0.138756 0.003607 -0.034700
    39 -0.020058 -0.890964 0.010091 0.079778 0.000000 0.000000
    40 0.065463 -0.050267 -0.070114 -2.853554 0.026777 -1.566993
  time 20
    0 -4.051166 -2.809025 -6.972801 0.453092 -4.514715 0.661128
    1 0.096945 -8.450419 -0.009364 -0.093146 -0.178510 0.409134
    2 0.067557 -2.089990 0.933237 0.166484 -3.137197 0.699454
    3 2.670662 0.228810 -0.000696 0.000000 0.000000 0.000000
    4 -0.000066 -0.428590 -0.009439 0.000000 0.000000 -0.025035
    5 2.670594 0.228795 -0.010135 0.000000 0.000000 0.000000
    6 -5.034416 0.218050 0.020352 1.570796 -3.141592 0.088140
    7 -0.586769 -1.264477 0.200164 0.023970 -0.554337 -2.738309
    8 1.522835 0.058679 0.016851 0.350201 -0.350140 1.033072
    9 1.117948 0.048424 -0.005765 0.270045 -0.176590 0.700370
    10 -0.963867 -2.785143 -0.085346 -0.515724 0.018581 -0.085725
    11 0.028478 -1.403067 0.006271 -1.052066 0.000000 0.000000
    12 0.021413 -0.957782 0.020047 -1.579674 0.000000 0.000000
    13 -0.249535 -2.846963 -0.174215 -0.922349 -0.079695 0.032129
    14 0.043234 -1.683940 0.096014 -1.820148 0.000000 0.000000
    15 0.031729 -1.160831 0.058837 -1.088864 0.000000 0.000000
    16 0.447951 -2.798983 -0.200441 -1.356417 -0.058005 0.045898
    17 -0.032909 -1.480207 0.004936 -1.462417 0.000000 0.000000
    18 -0.027023 -1.076921 -0.020212 -0.882593 0.000000 0.000000
    19 1.164474 -2.543939 -0.170327 -1.371566 -0.149891 0.112554
    20 0.024032 -1.129040 0.017806 -1.198650 0.000000 0.000000
    21 0.014896 -0.883992 -0.019845 -0.732421 0.000000 0.000000
    22 -0.127680 -0.115604 0.014398 0.232831 -0.003756 1.390525
    23 2.713179 -4.884347 -5.815929 0.405203 -3.692399 -1.117501
    24 -0.071917 -8.498731 -0.104136 -0.109409 0.288916 -0.006447
    25 0.583509 -1.197273 0.185379 0.282598 -0.434019 -0.643699
    26 1.535926 0.010247 0.005008 -0.244345 -0.297322 -0.778854
    27 1.100770 0.004527 -0.010675 -0.036629 0.068235 -0.239161
    28 0.957766 -2.746777 -0.090301 0.024937 -0.128691 0.024030
    29 -0.033419 -1.397128 -0.011256 -0.158674 0.000000 0.000000
    30 -0.022361 -0.957434 0.018783 -0.873866 0.000000 0.000000
    31 0.250028 -2.820664 -0.238397 -0.028650 -0.091983 -0.009617
    32 -0.049759 -1.680544 0.100479 -0.130952 0.049505 -0.014373
    33 -0.034141 -1.148311 0.084778 -1.068044 0.000000 0.000000
    34 -0.488517 -2.755599 -0.228262 0.009220 0.023377 -0.124745
    35 0.039889 -1.479791 0.029852 -0.209830 0.000000 0.000000
    36 0.028785 -1.075733 -0.023111 -0.521650 0.000000 0.000000
    37 -1.180679 -2.507215 -0.193862 -0.050372 0.067293 -0.116733
    38 -0.024967 -1.123934 0.017594 -0.100614 0.003607 -0.034700
    39 -0.020058 -0.890964 0.010091 0.119343 0.000000 0.000000
    40 0.061556 -0.050267 -0.070114 -2.853554 0.026589 -1.566419
  time 21
    0 -5.133230 -3.238726 -6.457160 0.496877 -4.401292 0.687207
    1 0.096945 -8.450419 -0.009364 -0.131644 -0.194818 0.423017
    2 0.036306 -2.047020 0.941050 0.231376 -3.141233 -5.521319
    3 2.670662 0.228810 -0.000696 0.000000 0.000000 0.000000
    4 -0.000066 -0.428590 -0.009439 0.000000 0.000000 -0.025035
    5 2.670594 0.228795 -0.010135 0.000000 0.000000 0.000000
    6 -5.034416 0.218050 0.020352 1.570796 -3.141592 0.088140
    7 -0.586769 -1.264477 0.200164 0.023995 -0.556362 -2.738352
    8 1.522835 0.058679 0.016851 0.355100 -0.345578 1.030154
    9 1.117948 0.048424 -0.005765 0.269494 -0.176530 0.697095
    10 -0.963867 -2.785143 -0.085346 -0.510878 0.018581 -0.085725
    11 0.028478 -1.403067 0.006271 -1.043020 0.000000 0.000000
    12 0.021413 -0.957782 0.020047 -1.587951 0.000000 0.000000
    13 -0.249535 -2.846963 -0.174215 -0.922349 -0.079695 0.032129
    14 0.043234 -1.683940 0.096014 -1.818281 0.000000 0.000000
    15 0.031729 -1.160831 0.058837 -1.083849 0.000000 0.000000
    16 0.447951 -2.798983 -0.200441 -1.359079 -0.058521 0.046281
    17 -0.032909 -1.480207 0.004936 -1.456570 0.000000 0.000000
    18 -0.027023 -1.076921 -0.020212 -0.874698 0.000000 0.000000
    19 1.164474 -2.543939 -0.170327 -1.375296 -0.149891 0.112554
    20 0.024032 -1.129040 0.017806 -1.192398 0.000000 0.000000
    21 0.014896 -0.883992 -0.019845 -0.723864 0.000000 0.000000
    22 -0.135493 -0.111698 0.014398 0.245261 -0.009018 1.399897
    23 2.744430 -4.849190 -5.745614 0.409442 -3.702043 -1.100615
    24 -0.071917 -8.498731 -0.104136 -0.067781 0.359417 -0.013417
    25 0.583509 -1.197273 0.185379 0.293073 -0.430867 -0.646060
    26 1.535926 0.010247 0.005008 -0.237813 -0.297490 -0.779644
    27 1.100770 0.004527 -0.010675 -0.035778 0.066964 -0.223138
    28 0.957766 -2.746777 -0.090301 0.030725 -0.133892 0.019859
    29 -0.033419 -1.397128 -0.011256 -0.102501 0.000000 0.000000
    30 -0.022361 -0.957434 0.018783 -0.686303 0.000000 0.000000
    31 0.250028 -2.820664 -0.238397 -0.008501 -0.098011 -0.004212
    32 -0.049759 -1.680544 0.100479 -0.069399 0.049505 -0.014373
    33 -0.034141 -1.148311 0.084778 -0.854295 0.000000 0.000000
    34 -0.488517 -2.755599 -0.228262 0.025404 0.021843 -0.122839
    35 0.039889 -1.479791 0.029852 -0.174435 0.000000 0.000000
    36 0.028785 -1.075733 -0.023111 -0.272773 0.000000 0.000000
    37 -1.180679 -2.507215 -0.193862 -0.035447 0.061888 -0.111088
    38 -0.024967 -1.123934 0.017594 -0.072204 0.003607 -0.034700
    39 -0.020058 -0.890964 0.010091 0.148882 0.000000 0.000000
    40 0.061556 -0.050267 -0.070114 -2.853554 0.026401 -1.565941
  time 22
    0 -5.871534 -3.539516 -6.097774 0.526938 -4.325518 0.706553
    1 0.096945 -8.450419 -0.009364 -0.158795 -0.205230 0.431744
    2 0.016774 -2.015769 0.948863 0.276898 -3.144050 -5.478373
    3 2.670662 0.228810 -0.000696 0.000000 0.000000 0.000000
    4 -0.000066 -0.428590 -0.009439 0.000000 0.000000 -0.025035
    5 2.670594 0.228795 -0.010135 0.000000 0.000000 0.000000
    6 -5.034416 0.218050 0.020352 1.570796 -3.141592 0.088140
    7 -0.586769 -1.264477 0.200164 0.024008 -0.557621 -2.738396
    8 1.522835 0.058679 0.016851 0.358137 -0.342748 1.028345
    9 1.117948 0.048424 -0.005765 0.269158 -0.176495 0.695035
    10 -0.963867 -2.785143 -0.085346 -0.507873 0.018581 -0.085725
    11 0.028478 -1.403067 0.006271 -1.037420 0.000000 0.000000
    12 0.021413 -0.957782 0.020047 -1.593075 0.000000 0.000000
    13 -0.249535 -2.846963 -0.174215 -0.922349 -0.079695 0.032129
    14 0.043234 -1.683940 0.096014 -1.817145 0.000000 0.000000
    15 0.031729 -1.160831 0.058837 -1.080721 0.000000 0.000000
    16 0.447951 -2.798983 -0.200441 -1.360747 -0.058832 0.046521
    17 -0.032909 -1.480207 0.004936 -1.452954 0.000000 0.000000
    18 -0.027023 -1.076921 -0.020212 -0.869803 0.000000 0.000000
    19 1.164474 -2.543939 -0.170327 -1.377628 -0.149891 0.112554
    20 0.024032 -1.129040 0.017806 -1.188518 0.000000 0.000000
    21 0.014896 -0.883992 -0.019845 -0.718550 0.000000 0.000000
    22 -0.139399 -0.111698 0.014398 0.253619 -0.012769 1.407507
    23 2.763962 -4.829658 -5.698738 0.411846 -3.708159 -1.089608
    24 -0.071917 -8.498731 -0.104136 -0.037947 0.408136 -0.018414
    25 0.583509 -1.197273 0.185379 0.302001 -0.428183 -0.648085
    26 1.535926 0.010247 0.005008 -0.232252 -0.297634 -0.780317
    27 1.100770 0.004527 -0.010675 -0.035047 0.065862 -0.209441
    28 0.957766 -2.746777 -0.090301 0.035651 -0.138327 0.016312
    29 -0.033419 -1.397128 -0.011256 -0.054583 0.000000 0.000000
    30 -0.022361 -0.957434 0.018783 -0.471291 0.000000 0.000000
    31 0.250028 -2.820664 -0.238397 0.008687 -0.103153 0.000414
    32 -0.049759 -1.680544 0.100479 -0.016877 0.049505 -0.014373
    33 -0.034141 -1.148311 0.084778 -0.609266 0.000000 0.000000
    34 -0.488517 -2.755599 -0.228262 0.035504 0.020884 -0.121653
    35 0.039889 -1.479791 0.029852 -0.152340 0.000000 0.000000
    36 0.028785 -1.075733 -0.023111 -0.064234 0.000000 0.000000
    37 -1.180679 -2.507215 -0.193862 -0.026120 0.058508 -0.107565
    38 -0.024967 -1.123934 0.017594 -0.054443 0.003607 -0.034700
    39 -0.020058 -0.890964 0.010091 0.167316 0.000000 0.000000
    40 0.057650 -0.050267 -0.070114 -2.853554 0.026307 -1.565559
  time 23
    0 -6.141074 -3.648895 -5.961051 0.538141 -4.297807 0.714139
    1 0.096945 -8.450419 -0.009364 -0.169053 -0.208903 0.434793
    2 0.008962 -2.004050 0.948863 0.293946 -3.144988 -5.462364
    3 2.670662 0.228810 -0.000696 0.000000 0.000000 0.000000
    4 -0.000066 -0.428590 -0.009439 0.000000 0.000000 -0.025035
    5 2.670594 0.228795 -0.010135 0.000000 0.000000 0.000000
    6 -5.034416 0.218050 0.020352 1.570796 -3.141592 0.088140
    7 -0.586769 -1.264477 0.200164 0.024020 -0.558064 -2.738396
    8 1.522835 0.058679 0.016851 0.359186 -0.341770 1.027711
    9 1.117948 0.048424 -0.005765 0.269039 -0.176483 0.694357
    10 -0.963867 -2.785143 -0.085346 -0.506830 0.018581 -0.085725
    11 0.028478 -1.403067 0.006271 -1.035506 0.000000 0.000000
    12 0.021413 -0.957782 0.020047 -1.594827 0.000000 0.000000
    13 -0.249535 -2.846963 -0.174215 -0.922349 -0.079695 0.032129
    14 0.043234 -1.683940 0.096014 -1.816739 0.000000 0.000000
    15 0.031729 -1.160831 0.058837 -1.079640 0.000000 0.000000
    16 0.447951 -2.798983 -0.200441 -1.361302 -0.058940 0.046605
    17 -0.032909 -1.480207 0.004936 -1.451684 0.000000 0.000000
    18 -0.027023 -1.076921 -0.020212 -0.868092 0.000000 0.000000
    19 1.164474 -2.543939 -0.170327 -1.378428 -0.149891 0.112554
    20 0.024032 -1.129040 0.017806 -1.187163 0.000000 0.000000
    21 0.014896 -0.883992 -0.019845 -0.716710 0.000000 0.000000
    22 -0.139399 -0.111698 0.014398 0.257223 -0.014758 1.413020
    23 2.771774 -4.821845 -5.683112 0.412605 -3.710354 -1.085668
    24 -0.071917 -8.498731 -0.104136 -0.026528 0.426320 -0.020334
    25 0.583509 -1.197273 0.185379 0.309228 -0.426013 -0.649727
    26 1.535926 0.010247 0.005008 -0.227746 -0.297754 -0.780861
    27 1.100770 0.004527 -0.010675 -0.034459 0.064987 -0.198371
    28 0.957766 -2.746777 -0.090301 0.039654 -0.141922 0.013435
    29 -0.033419 -1.397128 -0.011256 -0.015786 0.000000 0.000000
    30 -0.022361 -0.957434 0.018783 -0.256279 0.000000 0.000000
    31 0.250028 -2.820664 -0.238397 0.022603 -0.107311 0.004154
    32 -0.049759 -1.680544 0.100479 0.025604 0.049505 -0.014373
    33 -0.034141 -1.148311 0.084778 -0.364237 0.000000 0.000000
    34 -0.488517 -2.755599 -0.228262 0.039002 0.020560 -0.121233
    35 0.039889 -1.479791 0.029852 -0.144686 0.000000 0.000000
    36 0.028785 -1.075733 -0.023111 0.023190 0.000000 0.000000
    37 -1.180679 -2.507215 -0.193862 -0.022889 0.057346 -0.106342
    38 -0.024967 -1.123934 0.017594 -0.048333 0.003607 -0.034700
    39 -0.020058 -0.890964 0.010091 0.173700 0.000000 0.000000
    40 0.057650 -0.050267 -0.070114 -2.853554 0.026212 -1.565177
end
