version 1
nodes
  0 "uzi_root_l" -1
  1 "triger01" 0
  2 "reloader01" 0
  3 "megazine01" 0
  4 "Hb01" 0
  5 "uzi_root_r" -1
  6 "triger" 5
  7 "reloader" 5
  8 "Hb" 5
  9 "megazine" 5
  10 "root" -1
  11 "Bone01" 10
  12 "Bone_L_Upper" 11
  13 "Bone_Lefthand" 11
  14 "Bone13" 13
  15 "Bone14" 14
  16 "Bone15" 15
  17 "Bone17" 13
  18 "Bone18" 17
  19 "Bone19" 18
  20 "Bone21" 13
  21 "Bone22" 20
  22 "Bone23" 21
  23 "Bone09" 13
  24 "Bone10" 23
  25 "Bone11" 24
  26 "Bone05" 13
  27 "Bone06" 26
  28 "Bone07" 27
  29 "Bone_Se_Hand-L" 13
  30 "Bone04" 10
  31 "Bone_Righthand" 30
  32 "Bone39" 31
  33 "Bone40" 32
  34 "Bone41" 33
  35 "Bone35" 31
  36 "Bone36" 35
  37 "Bone37" 36
  38 "Bone31" 31
  39 "Bone32" 38
  40 "Bone33" 39
  41 "Bone43" 31
  42 "Bone44" 41
  43 "Bone45" 42
  44 "Bone27" 31
  45 "Bone28" 44
  46 "Bone29" 45
  47 "Bone_Se_Hand-R" 31
  48 "Bone_R_Upper" 30
end
skeleton
  time 0
    0 -5.086093 -7.027772 -4.238411 -0.097784 -0.076355 -1.536802
    1 2.999629 0.000000 1.353194 0.000000 0.000000 1.570798
    2 3.639548 0.000000 3.113282 0.000000 0.000000 1.570798
    3 1.757773 0.000000 1.206649 0.000000 0.000000 1.570798
    4 -1.663432 -0.346000 1.941449 0.000000 0.000000 3.141589
    5 5.230628 -7.285165 -4.191534 0.104423 -0.062050 -1.542817
    6 2.999629 0.000000 1.353194 0.657603 0.000000 1.570798
    7 3.639548 0.000000 3.113282 0.000000 0.000000 1.570798
    8 -1.663432 0.346269 1.941449 0.000000 0.000000 3.141589
    9 1.757773 0.000000 1.206649 0.000000 0.000000 1.570798
    10 -0.002752 8.717751 -1.784592 0.000000 0.000000 0.000000
    11 7.626458 -6.666843 -6.171045 0.501170 -2.299110 -0.568388
    12 7.405805 3.973376 -0.317781 1.565662 -3.124353 0.577163
    13 -0.056296 -8.467485 -0.100228 0.068005 0.345269 -0.078171
    14 -0.488518 -2.755602 -0.228260 -0.434648 0.150360 -0.257287
    15 0.039887 -1.526666 0.010322 -1.357298 -0.013111 0.029747
    16 0.028786 -1.263237 -0.120768 -1.781379 -0.009516 0.040652
    17 0.250027 -2.820665 -0.238396 -0.156951 0.124643 -0.222602
    18 -0.049759 -1.598510 0.041883 -1.435809 0.002613 -0.039072
    19 -0.034142 -1.183469 0.041812 -1.449292 0.002673 -0.038027
    20 0.957766 -2.746780 -0.090302 0.163305 0.113141 0.005480
    21 -0.033420 -1.397129 -0.026882 -0.877176 0.006064 -0.043122
    22 -0.022360 -0.957436 -0.000748 -0.707945 0.007526 -0.034384
    23 -1.180681 -2.507217 -0.193859 -0.276772 0.235764 -0.220698
    24 -0.024967 -1.123934 0.017597 -0.793265 0.006687 -0.033843
    25 -0.020057 -0.906594 0.029622 -0.995434 0.005465 -0.040748
    26 0.583510 -1.193371 0.181473 0.313731 -0.595047 -0.692608
    27 1.516395 -0.153822 0.047979 0.016139 -0.157753 -0.527856
    28 1.007018 -0.182979 0.044010 0.086801 -0.241947 -1.032069
    29 0.038119 -0.319809 -0.031051 0.239607 3.240698 1.548022
    30 -6.751435 -6.692242 -5.126440 0.603585 -4.337667 0.701403
    31 -0.078843 -8.044156 -0.040616 0.111047 -0.074563 -0.056188
    32 0.447953 -2.798986 -0.200443 -0.117835 -0.183226 0.328409
    33 -0.032909 -1.499736 0.036191 -1.759219 0.021968 -0.036827
    34 -0.027022 -1.115984 -0.028023 -0.994625 0.022100 -0.015916
    35 -0.249534 -2.846964 -0.174213 0.009445 -0.070702 0.196948
    36 0.043235 -1.656596 0.056948 -1.763180 -0.024622 0.013759
    37 0.031729 -1.141298 0.054932 -1.121691 -0.012481 0.006191
    38 -0.963866 -2.785145 -0.085350 0.155044 0.028983 0.042035
    39 0.028479 -1.403067 -0.013261 -0.721813 -0.016035 -0.028308
    40 0.021413 -0.942156 0.012233 -1.001550 -0.026869 -0.034324
    41 1.164475 -2.543940 -0.170330 -0.286751 -0.269704 0.327293
    42 0.024032 -1.152480 -0.009538 -1.491828 0.033341 0.067846
    43 0.014898 -0.895708 -0.019848 -0.755705 0.001882 0.038243
    44 -0.586770 -1.264477 0.200161 -0.480709 -0.775215 -2.389088
    45 1.565805 0.035243 0.016848 -0.018844 -0.006943 0.893494
    46 1.110134 0.040611 -0.005766 -0.033752 -0.033060 1.195823
    47 -0.002676 -0.502335 -0.044199 0.290560 0.059641 1.643449
    48 -8.163208 1.670990 -0.469909 1.567286 -0.035897 -0.228424
  time 1
    0 -5.086093 -7.027772 -4.238411 -0.097784 -0.076917 -1.536706
    1 2.999629 0.000000 1.353194 0.000000 0.000000 1.570798
    2 3.639548 0.000000 3.113282 0.000000 0.000000 1.570798
    3 1.757773 0.000000 1.206649 0.000000 0.000000 1.570798
    4 -1.663432 -0.346000 1.941449 0.000000 0.000000 3.141589
    5 5.316568 -7.097659 -4.121220 0.077326 -0.044718 -1.561551
    6 2.999629 0.000000 1.353194 0.657603 0.000000 1.570798
    7 2.463731 0.000000 3.113282 0.000000 0.000000 1.570798
    8 -1.663432 0.346269 1.941449 0.000000 0.000000 3.141589
    9 1.757773 0.000000 1.206649 0.000000 0.000000 1.570798
    10 -0.002752 8.717751 -1.784592 0.000000 0.000000 0.000000
    11 7.946781 -6.604341 -6.296049 0.514950 -2.305180 -0.606178
    12 7.874569 2.547551 -0.345125 1.566908 -3.120614 0.392620
    13 -0.052389 -8.467485 -0.096321 0.077029 0.370135 -0.084812
    14 -0.488518 -2.755602 -0.228260 -0.434648 0.150360 -0.257287
    15 0.039887 -1.526666 0.010322 -1.357298 -0.013111 0.029747
    16 0.028786 -1.263237 -0.120768 -1.781379 -0.009516 0.040652
    17 0.250027 -2.820665 -0.238396 -0.156951 0.124643 -0.222602
    18 -0.049759 -1.598510 0.041883 -1.435809 0.002613 -0.039072
    19 -0.034142 -1.183469 0.041812 -1.449292 0.002673 -0.038027
    20 0.957766 -2.746780 -0.090302 0.163305 0.113141 0.005480
    21 -0.033420 -1.397129 -0.026882 -0.877176 0.006064 -0.043122
    22 -0.022360 -0.957436 -0.000748 -0.707945 0.007526 -0.034384
    23 -1.180681 -2.507217 -0.193859 -0.276772 0.235764 -0.220698
    24 -0.024967 -1.123934 0.017597 -0.793265 0.006687 -0.033843
    25 -0.020057 -0.906594 0.029622 -0.995434 0.005465 -0.040748
    26 0.583510 -1.193371 0.181473 0.313731 -0.595047 -0.692608
    27 1.516395 -0.153822 0.047979 0.016139 -0.157753 -0.527856
    28 1.007018 -0.182979 0.044010 0.086801 -0.241947 -1.032069
    29 0.038119 -0.319809 -0.031051 0.239607 3.240698 1.548022
    30 -6.751435 -6.692242 -5.126440 0.604256 -4.337389 0.702068
    31 -0.078843 -8.044156 -0.040616 0.111047 -0.074563 -0.056363
    32 0.447953 -2.798986 -0.200443 -0.117835 -0.183226 0.328409
    33 -0.032909 -1.499736 0.036191 -1.759219 0.021968 -0.036827
    34 -0.027022 -1.115984 -0.028023 -0.994625 0.022100 -0.015916
    35 -0.249534 -2.846964 -0.174213 0.009445 -0.070702 0.196948
    36 0.043235 -1.656596 0.056948 -1.763180 -0.024622 0.013759
    37 0.031729 -1.141298 0.054932 -1.121691 -0.012481 0.006191
    38 -0.963866 -2.785145 -0.085350 0.155044 0.028983 0.042035
    39 0.028479 -1.403067 -0.013261 -0.721813 -0.016035 -0.028308
    40 0.021413 -0.942156 0.012233 -1.001550 -0.026869 -0.034324
    41 1.164475 -2.543940 -0.170330 -0.286751 -0.269704 0.327293
    42 0.024032 -1.152480 -0.009538 -1.491828 0.033341 0.067846
    43 0.014898 -0.895708 -0.019848 -0.755705 0.001882 0.038243
    44 -0.586770 -1.264477 0.200161 -0.480709 -0.775215 -2.389088
    45 1.565805 0.035243 0.016848 -0.018844 -0.006943 0.893494
    46 1.110134 0.040611 -0.005766 -0.033752 -0.033060 1.195823
    47 -0.002676 -0.502335 -0.044199 0.290560 0.059641 1.643449
    48 -8.163208 1.670990 -0.469909 1.567286 -0.035897 -0.228233
  time 2
    0 -5.086093 -7.027772 -4.234504 -0.097784 -0.077291 -1.536611
    1 2.999629 0.000000 1.353194 0.000000 0.000000 1.570798
    2 3.639548 0.000000 3.113282 0.000000 0.000000 1.570798
    3 1.757773 0.000000 1.206649 0.000000 0.000000 1.570798
    4 -1.663432 -0.346000 1.941449 0.000000 0.000000 3.141589
    5 5.308756 -7.015625 -4.089969 0.072889 -0.049410 -1.564533
    6 2.999629 0.000000 1.353194 0.657603 0.000000 1.570798
    7 3.077031 0.000000 3.113282 0.000000 0.000000 1.570798
    8 -1.663432 0.346269 1.941449 0.000000 0.000000 3.141589
    9 1.757773 0.000000 1.206649 0.000000 0.000000 1.570798
    10 -0.002752 8.717751 -1.784592 0.000000 0.000000 0.000000
    11 7.981938 -6.553558 -6.315581 0.523181 -2.309352 -0.617365
    12 7.933165 2.270199 -0.352938 1.567196 -3.119943 0.357727
    13 -0.052389 -8.467485 -0.096321 0.077515 0.374698 -0.089629
    14 -0.488518 -2.755602 -0.228260 -0.434648 0.150360 -0.257287
    15 0.039887 -1.526666 0.010322 -1.357298 -0.013111 0.029747
    16 0.028786 -1.263237 -0.120768 -1.781379 -0.009516 0.040652
    17 0.250027 -2.820665 -0.238396 -0.156951 0.124643 -0.222602
    18 -0.049759 -1.598510 0.041883 -1.435809 0.002613 -0.039072
    19 -0.034142 -1.183469 0.041812 -1.449292 0.002673 -0.038027
    20 0.957766 -2.746780 -0.090302 0.163305 0.113141 0.005480
    21 -0.033420 -1.397129 -0.026882 -0.886839 0.005920 -0.043589
    22 -0.022360 -0.957436 -0.000748 -0.707945 0.007526 -0.034384
    23 -1.180681 -2.507217 -0.193859 -0.276772 0.235764 -0.220698
    24 -0.024967 -1.123934 0.017597 -0.793265 0.006687 -0.033843
    25 -0.020057 -0.906594 0.029622 -0.995434 0.005465 -0.040748
    26 0.583510 -1.193371 0.181473 0.313731 -0.595047 -0.692608
    27 1.516395 -0.153822 0.047979 0.016139 -0.157753 -0.527856
    28 1.007018 -0.182979 0.044010 0.086801 -0.241947 -1.032069
    29 0.038119 -0.319809 -0.031051 0.239607 3.240698 1.548022
    30 -6.751435 -6.692242 -5.126440 0.604736 -4.337205 0.702543
    31 -0.078843 -8.044156 -0.040616 0.111010 -0.074524 -0.056494
    32 0.447953 -2.798986 -0.200443 -0.117835 -0.183226 0.328409
    33 -0.032909 -1.499736 0.036191 -1.759219 0.021968 -0.036827
    34 -0.027022 -1.115984 -0.028023 -0.994625 0.022100 -0.015916
    35 -0.249534 -2.846964 -0.174213 0.009445 -0.070702 0.196948
    36 0.043235 -1.656596 0.056948 -1.763180 -0.024622 0.013759
    37 0.031729 -1.141298 0.054932 -1.121691 -0.012481 0.006191
    38 -0.963866 -2.785145 -0.085350 0.155044 0.028983 0.042035
    39 0.028479 -1.403067 -0.013261 -0.721813 -0.016035 -0.028308
    40 0.021413 -0.942156 0.012233 -1.001550 -0.026869 -0.034324
    41 1.164475 -2.543940 -0.170330 -0.286751 -0.269704 0.327293
    42 0.024032 -1.152480 -0.009538 -1.491828 0.033341 0.067846
    43 0.014898 -0.895708 -0.019848 -0.755705 0.001882 0.038243
    44 -0.586770 -1.264477 0.200161 -0.480709 -0.775215 -2.389088
    45 1.565805 0.035243 0.016848 -0.018844 -0.006943 0.893494
    46 1.110134 0.040611 -0.005766 -0.033752 -0.033060 1.195823
    47 -0.002676 -0.502335 -0.044199 0.290560 0.059641 1.643449
    48 -8.163208 1.670990 -0.469909 1.567190 -0.035897 -0.228138
  time 3
    0 -5.086093 -7.027772 -4.230598 -0.097879 -0.077572 -1.536611
    1 2.999629 0.000000 1.353194 0.000000 0.000000 1.570798
    2 3.639548 0.000000 3.113282 0.000000 0.000000 1.570798
    3 1.757773 0.000000 1.206649 0.000000 0.000000 1.570798
    4 -1.663432 -0.346000 1.941449 0.000000 0.000000 3.141589
    5 5.312662 -6.960936 -4.074343 0.073266 -0.056879 -1.564067
    6 2.999629 0.000000 1.353194 0.657603 0.000000 1.570798
    7 4.213784 0.000000 3.113282 0.000000 0.000000 1.570798
    8 -1.663432 0.346269 1.941449 0.000000 0.000000 3.141589
    9 1.757773 0.000000 1.206649 0.000000 0.000000 1.570798
    10 -0.002752 8.717751 -1.784592 0.000000 0.000000 0.000000
    11 7.989751 -6.510588 -6.331206 0.529784 -2.313241 -0.622911
    12 7.940978 2.219416 -0.352938 1.567292 -3.119847 0.351452
    13 -0.052389 -8.467485 -0.096321 0.076380 0.375159 -0.094165
    14 -0.488518 -2.755602 -0.228260 -0.434648 0.150360 -0.257287
    15 0.039887 -1.526666 0.010322 -1.357298 -0.013111 0.029747
    16 0.028786 -1.263237 -0.120768 -1.781379 -0.009516 0.040652
    17 0.250027 -2.820665 -0.238396 -0.156951 0.124643 -0.222602
    18 -0.049759 -1.598510 0.041883 -1.435809 0.002613 -0.039072
    19 -0.034142 -1.183469 0.041812 -1.449292 0.002673 -0.038027
    20 0.957766 -2.746780 -0.090302 0.163305 0.113141 0.005480
    21 -0.033420 -1.397129 -0.026882 -0.897985 0.005741 -0.044116
    22 -0.022360 -0.957436 -0.000748 -0.707945 0.007526 -0.034384
    23 -1.180681 -2.507217 -0.193859 -0.276772 0.235764 -0.220698
    24 -0.024967 -1.123934 0.017597 -0.793265 0.006687 -0.033843
    25 -0.020057 -0.906594 0.029622 -0.995434 0.005465 -0.040748
    26 0.583510 -1.193371 0.181473 0.313731 -0.595047 -0.692608
    27 1.516395 -0.153822 0.047979 0.016139 -0.157753 -0.527856
    28 1.007018 -0.182979 0.044010 0.086801 -0.241947 -1.032069
    29 0.038119 -0.319809 -0.031051 0.239607 3.240698 1.548022
    30 -6.751435 -6.692242 -5.122533 0.605215 -4.337112 0.703019
    31 -0.078843 -8.044156 -0.040616 0.111010 -0.074524 -0.056582
    32 0.447953 -2.798986 -0.200443 -0.117835 -0.183226 0.328409
    33 -0.032909 -1.499736 0.036191 -1.759219 0.021968 -0.036827
    34 -0.027022 -1.115984 -0.028023 -0.994625 0.022100 -0.015916
    35 -0.249534 -2.846964 -0.174213 0.009445 -0.070702 0.196948
    36 0.043235 -1.656596 0.056948 -1.763180 -0.024622 0.013759
    37 0.031729 -1.141298 0.054932 -1.121691 -0.012481 0.006191
    38 -0.963866 -2.785145 -0.085350 0.155044 0.028983 0.042035
    39 0.028479 -1.403067 -0.013261 -0.721813 -0.016035 -0.028308
    40 0.021413 -0.942156 0.012233 -1.001550 -0.026869 -0.034324
    41 1.164475 -2.543940 -0.170330 -0.286751 -0.269704 0.327293
    42 0.024032 -1.152480 -0.009538 -1.491828 0.033341 0.067846
    43 0.014898 -0.895708 -0.019848 -0.755705 0.001882 0.038243
    44 -0.586770 -1.264477 0.200161 -0.480709 -0.775215 -2.389088
    45 1.565805 0.035243 0.016848 -0.018844 -0.006943 0.893494
    46 1.110134 0.040611 -0.005766 -0.033752 -0.033060 1.195823
    47 -0.002676 -0.502335 -0.044199 0.290560 0.059641 1.643449
    48 -8.163208 1.667083 -0.469909 1.567190 -0.035897 -0.227948
  time 4
    0 -5.086093 -7.027772 -4.230598 -0.097879 -0.077853 -1.536515
    1 2.999629 0.000000 1.353194 0.000000 0.000000 1.570798
    2 3.639548 0.000000 3.113282 0.000000 0.000000 1.570798
    3 1.757773 0.000000 1.206649 0.000000 0.000000 1.570798
    4 -1.663432 -0.346000 1.941449 0.000000 0.000000 3.141589
    5 5.316568 -6.957030 -4.082156 0.077420 -0.062337 -1.561271
    6 2.999629 0.000000 1.353194 0.657603 0.000000 1.570798
    7 4.827084 0.000000 3.113282 0.000000 0.000000 1.570798
    8 -1.663432 0.346269 1.941449 0.000000 0.000000 3.141589
    9 1.757773 0.000000 1.206649 0.000000 0.000000 1.570798
    10 -0.002752 8.717751 -1.784592 0.000000 0.000000 0.000000
    11 7.985844 -6.502776 -6.335112 0.533325 -2.315517 -0.624979
    12 7.937071 2.242854 -0.352938 1.567196 -3.119847 0.354399
    13 -0.052389 -8.467485 -0.096321 0.074921 0.371571 -0.100011
    14 -0.488518 -2.755602 -0.228260 -0.434648 0.150360 -0.257287
    15 0.039887 -1.526666 0.010322 -1.357298 -0.013111 0.029747
    16 0.028786 -1.263237 -0.120768 -1.781379 -0.009516 0.040652
    17 0.250027 -2.820665 -0.238396 -0.156951 0.124643 -0.222602
    18 -0.049759 -1.598510 0.041883 -1.435809 0.002613 -0.039072
    19 -0.034142 -1.183469 0.041812 -1.449292 0.002673 -0.038027
    20 0.957766 -2.746780 -0.090302 0.163305 0.113141 0.005480
    21 -0.033420 -1.397129 -0.026882 -0.903302 0.005657 -0.044368
    22 -0.022360 -0.957436 -0.000748 -0.707945 0.007526 -0.034384
    23 -1.180681 -2.507217 -0.193859 -0.276772 0.235764 -0.220698
    24 -0.024967 -1.123934 0.017597 -0.793265 0.006687 -0.033843
    25 -0.020057 -0.906594 0.029622 -0.995434 0.005465 -0.040748
    26 0.583510 -1.193371 0.181473 0.313731 -0.595047 -0.692608
    27 1.516395 -0.153822 0.047979 0.016139 -0.157753 -0.527856
    28 1.007018 -0.182979 0.044010 0.086801 -0.241947 -1.032069
    29 0.038119 -0.319809 -0.031051 0.239607 3.240698 1.548022
    30 -6.751435 -6.692242 -5.122533 0.605598 -4.337020 0.703399
    31 -0.078843 -8.044156 -0.040616 0.110973 -0.074524 -0.056670
    32 0.447953 -2.798986 -0.200443 -0.117835 -0.183226 0.328409
    33 -0.032909 -1.499736 0.036191 -1.759219 0.021968 -0.036827
    34 -0.027022 -1.115984 -0.028023 -0.994625 0.022100 -0.015916
    35 -0.249534 -2.846964 -0.174213 0.009445 -0.070702 0.196948
    36 0.043235 -1.656596 0.056948 -1.763180 -0.024622 0.013759
    37 0.031729 -1.141298 0.054932 -1.121691 -0.012481 0.006191
    38 -0.963866 -2.785145 -0.085350 0.155044 0.028983 0.042035
    39 0.028479 -1.403067 -0.013261 -0.721813 -0.016035 -0.028308
    40 0.021413 -0.942156 0.012233 -1.001550 -0.026869 -0.034324
    41 1.164475 -2.543940 -0.170330 -0.286751 -0.269704 0.327293
    42 0.024032 -1.152480 -0.009538 -1.491828 0.033341 0.067846
    43 0.014898 -0.895708 -0.019848 -0.755705 0.001882 0.038243
    44 -0.586770 -1.264477 0.200161 -0.480709 -0.775215 -2.389088
    45 1.565805 0.035243 0.016848 -0.018844 -0.006943 0.893494
    46 1.110134 0.040611 -0.005766 -0.033752 -0.033060 1.195823
    47 -0.002676 -0.502335 -0.044199 0.290560 0.059641 1.643449
    48 -8.163208 1.667083 -0.469909 1.567190 -0.035897 -0.227853
  time 5
    0 -5.086093 -7.027772 -4.226691 -0.097879 -0.078040 -1.536515
    1 2.999629 0.000000 1.353194 0.000000 0.000000 1.570798
    2 3.639548 0.000000 3.113282 0.000000 0.000000 1.570798
    3 1.757773 0.000000 1.206649 0.000000 0.000000 1.570798
    4 -1.663432 -0.346000 1.941449 0.000000 0.000000 3.141589
    5 5.316568 -7.000000 -4.097781 0.085257 -0.062242 -1.555866
    6 2.999629 0.000000 1.353194 0.657603 0.000000 1.570798
    7 4.233316 0.000000 3.113282 0.000000 0.000000 1.570798
    8 -1.663432 0.346269 1.941449 0.000000 0.000000 3.141589
    9 1.757773 0.000000 1.206649 0.000000 0.000000 1.570798
    10 -0.002752 8.717751 -1.784592 0.000000 0.000000 0.000000
    11 7.978032 -6.534027 -6.319487 0.534186 -2.315991 -0.625449
    12 7.933165 2.258480 -0.352938 1.567196 -3.119943 0.356396
    13 -0.052389 -8.463579 -0.096321 0.073462 0.363573 -0.109038
    14 -0.488518 -2.755602 -0.228260 -0.434648 0.150360 -0.257287
    15 0.039887 -1.526666 0.010322 -1.357298 -0.013111 0.029747
    16 0.028786 -1.263237 -0.120768 -1.781379 -0.009516 0.040652
    17 0.250027 -2.820665 -0.238396 -0.156951 0.124643 -0.222602
    18 -0.049759 -1.598510 0.041883 -1.435809 0.002613 -0.039072
    19 -0.034142 -1.183469 0.041812 -1.449292 0.002673 -0.038027
    20 0.957766 -2.746780 -0.090302 0.163305 0.113141 0.005480
    21 -0.033420 -1.397129 -0.026882 -0.906267 0.005609 -0.044512
    22 -0.022360 -0.957436 -0.000748 -0.707945 0.007526 -0.034384
    23 -1.180681 -2.507217 -0.193859 -0.276772 0.235764 -0.220698
    24 -0.024967 -1.123934 0.017597 -0.793265 0.006687 -0.033843
    25 -0.020057 -0.906594 0.029622 -0.995434 0.005465 -0.040748
    26 0.583510 -1.193371 0.181473 0.313731 -0.595047 -0.692608
    27 1.516395 -0.153822 0.047979 0.016139 -0.157753 -0.527856
    28 1.007018 -0.182979 0.044010 0.086801 -0.241947 -1.032069
    29 0.038119 -0.319809 -0.031051 0.239607 3.240698 1.548022
    30 -6.751435 -6.692242 -5.122533 0.605886 -4.336927 0.703589
    31 -0.078843 -8.044156 -0.040616 0.110973 -0.074524 -0.056670
    32 0.447953 -2.798986 -0.200443 -0.117835 -0.183226 0.328409
    33 -0.032909 -1.499736 0.036191 -1.759219 0.021968 -0.036827
    34 -0.027022 -1.115984 -0.028023 -0.994625 0.022100 -0.015916
    35 -0.249534 -2.846964 -0.174213 0.009445 -0.070702 0.196948
    36 0.043235 -1.656596 0.056948 -1.763180 -0.024622 0.013759
    37 0.031729 -1.141298 0.054932 -1.121691 -0.012481 0.006191
    38 -0.963866 -2.785145 -0.085350 0.155044 0.028983 0.042035
    39 0.028479 -1.403067 -0.013261 -0.721813 -0.016035 -0.028308
    40 0.021413 -0.942156 0.012233 -1.001550 -0.026869 -0.034324
    41 1.164475 -2.543940 -0.170330 -0.286751 -0.269704 0.327293
    42 0.024032 -1.152480 -0.009538 -1.491828 0.033341 0.067846
    43 0.014898 -0.895708 -0.019848 -0.755705 0.001882 0.038243
    44 -0.586770 -1.264477 0.200161 -0.480709 -0.775215 -2.389088
    45 1.565805 0.035243 0.016848 -0.018844 -0.006943 0.893525
    46 1.110134 0.040611 -0.005766 -0.033752 -0.033060 1.195823
    47 -0.002676 -0.502335 -0.044199 0.290560 0.059641 1.643449
    48 -8.163208 1.667083 -0.469909 1.567190 -0.035897 -0.227757
  time 6
    0 -5.086093 -7.027772 -4.226691 -0.097879 -0.078133 -1.536515
    1 2.999629 0.000000 1.353194 0.000000 0.000000 1.570798
    2 3.639548 0.000000 3.113282 0.000000 0.000000 1.570798
    3 1.757773 0.000000 1.206649 0.000000 0.000000 1.570798
    4 -1.663432 -0.346000 1.941449 0.000000 0.000000 3.141589
    5 5.312662 -7.074221 -4.105594 0.096115 -0.056401 -1.548223
    6 2.999629 0.000000 1.353194 0.657603 0.000000 1.570798
    7 3.639548 0.000000 3.113282 0.000000 0.000000 1.570798
    8 -1.663432 0.346269 1.941449 0.000000 0.000000 3.141589
    9 1.757773 0.000000 1.206649 0.000000 0.000000 1.570798
    10 -0.002752 8.717751 -1.784592 0.000000 0.000000 0.000000
    11 7.966312 -6.584809 -6.296049 0.533803 -2.315801 -0.624603
    12 7.929259 2.297544 -0.352938 1.567196 -3.120038 0.360864
    13 -0.056296 -8.463579 -0.100228 0.071841 0.352396 -0.120309
    14 -0.488518 -2.755602 -0.228260 -0.434648 0.150360 -0.257287
    15 0.039887 -1.526666 0.010322 -1.357298 -0.013111 0.029747
    16 0.028786 -1.263237 -0.120768 -1.781379 -0.009516 0.040652
    17 0.250027 -2.820665 -0.238396 -0.156951 0.124643 -0.222602
    18 -0.049759 -1.598510 0.041883 -1.435809 0.002613 -0.039072
    19 -0.034142 -1.183469 0.041812 -1.449292 0.002673 -0.038027
    20 0.957766 -2.746780 -0.090302 0.163305 0.113141 0.005480
    21 -0.033420 -1.397129 -0.026882 -0.911124 0.005525 -0.044751
    22 -0.022360 -0.957436 -0.000748 -0.707945 0.007526 -0.034384
    23 -1.180681 -2.507217 -0.193859 -0.276772 0.235764 -0.220698
    24 -0.024967 -1.123934 0.017597 -0.793265 0.006687 -0.033843
    25 -0.020057 -0.906594 0.029622 -0.995434 0.005465 -0.040748
    26 0.583510 -1.193371 0.181473 0.313731 -0.595047 -0.692608
    27 1.516395 -0.153822 0.047979 0.016139 -0.157753 -0.527856
    28 1.007018 -0.182979 0.044010 0.086801 -0.241947 -1.032069
    29 0.038119 -0.319809 -0.031051 0.239607 3.240698 1.548022
    30 -6.751435 -6.696148 -5.122533 0.606078 -4.336835 0.703874
    31 -0.078843 -8.044156 -0.040616 0.110973 -0.074524 -0.056670
    32 0.447953 -2.798986 -0.200443 -0.117835 -0.183226 0.328409
    33 -0.032909 -1.499736 0.036191 -1.759219 0.021968 -0.036827
    34 -0.027022 -1.115984 -0.028023 -0.994625 0.022100 -0.015916
    35 -0.249534 -2.846964 -0.174213 0.009445 -0.070702 0.196948
    36 0.043235 -1.656596 0.056948 -1.763180 -0.024622 0.013759
    37 0.031729 -1.141298 0.054932 -1.121691 -0.012481 0.006191
    38 -0.963866 -2.785145 -0.085350 0.155044 0.028983 0.042035
    39 0.028479 -1.403067 -0.013261 -0.721813 -0.016035 -0.028308
    40 0.021413 -0.942156 0.012233 -1.001550 -0.026869 -0.034324
    41 1.164475 -2.543940 -0.170330 -0.286751 -0.269704 0.327293
    42 0.024032 -1.152480 -0.009538 -1.491828 0.033341 0.067846
    43 0.014898 -0.895708 -0.019848 -0.755705 0.001882 0.038243
    44 -0.586770 -1.264477 0.200161 -0.480709 -0.775215 -2.389088
    45 1.565805 0.035243 0.016848 -0.018844 -0.006943 0.893494
    46 1.110134 0.040611 -0.005766 -0.033752 -0.033060 1.195823
    47 -0.002676 -0.502335 -0.044199 0.290560 0.059641 1.643449
    48 -8.163208 1.667083 -0.469909 1.567190 -0.035897 -0.227757
  time 7
    0 -5.086093 -7.027772 -4.226691 -0.097879 -0.078133 -1.536515
    1 2.999629 0.000000 1.353194 0.000000 0.000000 1.570798
    2 3.639548 0.000000 3.113282 0.000000 0.000000 1.570798
    3 1.757773 0.000000 1.206649 0.000000 0.000000 1.570798
    4 -1.663432 -0.346000 1.941449 0.000000 0.000000 3.141589
    5 5.308756 -7.156255 -4.113407 0.107539 -0.047782 -1.539928
    6 2.999629 0.000000 1.353194 0.657603 0.000000 1.570798
    7 3.639548 0.000000 3.113282 0.000000 0.000000 1.570798
    8 -1.663432 0.346269 1.941449 0.000000 0.000000 3.141589
    9 1.757773 0.000000 1.206649 0.000000 0.000000 1.570798
    10 -0.002752 8.717751 -1.784592 0.000000 0.000000 0.000000
    11 7.950687 -6.643405 -6.268704 0.532463 -2.314948 -0.622535
    12 7.913633 2.360046 -0.349031 1.567100 -3.120134 0.369136
    13 -0.056296 -8.459673 -0.100228 0.070274 0.340604 -0.131065
    14 -0.488518 -2.755602 -0.228260 -0.434648 0.150360 -0.257287
    15 0.039887 -1.526666 0.010322 -1.357298 -0.013111 0.029747
    16 0.028786 -1.263237 -0.120768 -1.781379 -0.009516 0.040652
    17 0.250027 -2.820665 -0.238396 -0.156951 0.124643 -0.222602
    18 -0.049759 -1.598510 0.041883 -1.435809 0.002613 -0.039072
    19 -0.034142 -1.183469 0.041812 -1.449292 0.002673 -0.038027
    20 0.957766 -2.746780 -0.090302 0.163305 0.113141 0.005480
    21 -0.033420 -1.397129 -0.026882 -0.911942 0.005513 -0.044787
    22 -0.022360 -0.957436 -0.000748 -0.707945 0.007526 -0.034384
    23 -1.180681 -2.507217 -0.193859 -0.276772 0.235764 -0.220698
    24 -0.024967 -1.123934 0.017597 -0.793265 0.006687 -0.033843
    25 -0.020057 -0.906594 0.029622 -0.995434 0.005465 -0.040748
    26 0.583510 -1.193371 0.181473 0.313731 -0.595047 -0.692608
    27 1.516395 -0.153822 0.047979 0.016139 -0.157753 -0.527856
    28 1.007018 -0.182979 0.044010 0.086801 -0.241947 -1.032069
    29 0.038119 -0.319809 -0.031051 0.239607 3.240698 1.548022
    30 -6.751435 -6.696148 -5.122533 0.606173 -4.336742 0.703969
    31 -0.078843 -8.044156 -0.040616 0.110973 -0.074524 -0.056670
    32 0.447953 -2.798986 -0.200443 -0.117835 -0.183226 0.328409
    33 -0.032909 -1.499736 0.036191 -1.759219 0.021968 -0.036827
    34 -0.027022 -1.115984 -0.028023 -0.994625 0.022100 -0.015916
    35 -0.249534 -2.846964 -0.174213 0.009445 -0.070702 0.196948
    36 0.043235 -1.656596 0.056948 -1.763180 -0.024622 0.013759
    37 0.031729 -1.141298 0.054932 -1.121691 -0.012481 0.006191
    38 -0.963866 -2.785145 -0.085350 0.155044 0.028983 0.042035
    39 0.028479 -1.403067 -0.013261 -0.721813 -0.016035 -0.028308
    40 0.021413 -0.942156 0.012233 -1.001550 -0.026869 -0.034324
    41 1.164475 -2.543940 -0.170330 -0.286751 -0.269704 0.327293
    42 0.024032 -1.152480 -0.009538 -1.491828 0.033341 0.067846
    43 0.014898 -0.895708 -0.019848 -0.755705 0.001882 0.038243
    44 -0.586770 -1.264477 0.200161 -0.480709 -0.775215 -2.389088
    45 1.565805 0.035243 0.016848 -0.018844 -0.006943 0.893494
    46 1.110134 0.040611 -0.005766 -0.033752 -0.033060 1.195823
    47 -0.002676 -0.502335 -0.044199 0.290560 0.059641 1.643449
    48 -8.163208 1.667083 -0.469909 1.567190 -0.035897 -0.227662
  time 8
    0 -5.086093 -7.027772 -4.226691 -0.097879 -0.078133 -1.536515
    1 2.999629 0.000000 1.353194 0.000000 0.000000 1.570798
    2 3.639548 0.000000 3.113282 0.000000 0.000000 1.570798
    3 1.757773 0.000000 1.206649 0.000000 0.000000 1.570798
    4 -1.663432 -0.346000 1.941449 0.000000 0.000000 3.141589
    5 5.308756 -7.230476 -4.125126 0.117264 -0.040601 -1.532938
    6 2.999629 0.000000 1.353194 0.657603 0.000000 1.570798
    7 3.639548 0.000000 3.113282 0.000000 0.000000 1.570798
    8 -1.663432 0.346269 1.941449 0.000000 0.000000 3.141589
    9 1.757773 0.000000 1.206649 0.000000 0.000000 1.570798
    10 -0.002752 8.717751 -1.784592 0.000000 0.000000 0.000000
    11 7.935061 -6.698094 -6.241360 0.530262 -2.313715 -0.619057
    12 7.894101 2.465518 -0.349031 1.567004 -3.120422 0.382161
    13 -0.056296 -8.459673 -0.100228 0.069031 0.330657 -0.138595
    14 -0.488518 -2.755602 -0.228260 -0.434648 0.150360 -0.257287
    15 0.039887 -1.526666 0.010322 -1.357298 -0.013111 0.029747
    16 0.028786 -1.263237 -0.120768 -1.781379 -0.009516 0.040652
    17 0.250027 -2.820665 -0.238396 -0.156951 0.124643 -0.222602
    18 -0.049759 -1.598510 0.041883 -1.435809 0.002613 -0.039072
    19 -0.034142 -1.183469 0.041812 -1.449292 0.002673 -0.038027
    20 0.957766 -2.746780 -0.090302 0.163305 0.113141 0.005480
    21 -0.033420 -1.397129 -0.026882 -0.902586 0.005669 -0.044344
    22 -0.022360 -0.957436 -0.000748 -0.707945 0.007526 -0.034384
    23 -1.180681 -2.507217 -0.193859 -0.276772 0.235764 -0.220698
    24 -0.024967 -1.123934 0.017597 -0.793265 0.006687 -0.033843
    25 -0.020057 -0.906594 0.029622 -0.995434 0.005465 -0.040748
    26 0.583510 -1.193371 0.181473 0.313731 -0.595047 -0.692608
    27 1.516395 -0.153822 0.047979 0.016139 -0.157753 -0.527856
    28 1.007018 -0.182979 0.044010 0.086801 -0.241947 -1.032069
    29 0.038119 -0.319809 -0.031051 0.239607 3.240698 1.548022
    30 -6.751435 -6.696148 -5.122533 0.606269 -4.336742 0.703969
    31 -0.078843 -8.044156 -0.040616 0.110973 -0.074524 -0.056626
    32 0.447953 -2.798986 -0.200443 -0.117835 -0.183226 0.328409
    33 -0.032909 -1.499736 0.036191 -1.759219 0.021968 -0.036827
    34 -0.027022 -1.115984 -0.028023 -0.994625 0.022100 -0.015916
    35 -0.249534 -2.846964 -0.174213 0.009445 -0.070702 0.196948
    36 0.043235 -1.656596 0.056948 -1.763180 -0.024622 0.013759
    37 0.031729 -1.141298 0.054932 -1.121691 -0.012481 0.006191
    38 -0.963866 -2.785145 -0.085350 0.155044 0.028983 0.042035
    39 0.028479 -1.403067 -0.013261 -0.721813 -0.016035 -0.028308
    40 0.021413 -0.942156 0.012233 -1.001550 -0.026869 -0.034324
    41 1.164475 -2.543940 -0.170330 -0.286751 -0.269704 0.327293
    42 0.024032 -1.152480 -0.009538 -1.491828 0.033341 0.067846
    43 0.014898 -0.895708 -0.019848 -0.755705 0.001882 0.038243
    44 -0.586770 -1.264477 0.200161 -0.480709 -0.775215 -2.389088
    45 1.565805 0.035243 0.016848 -0.018844 -0.006943 0.893494
    46 1.110134 0.040611 -0.005766 -0.033752 -0.033060 1.195823
    47 -0.002676 -0.502335 -0.044199 0.290560 0.059641 1.643449
    48 -8.163208 1.667083 -0.469909 1.567190 -0.035897 -0.227662
  time 9
    0 -5.086093 -7.027772 -4.226691 -0.097879 -0.078040 -1.536611
    1 2.999629 0.000000 1.353194 0.000000 0.000000 1.570798
    2 3.639548 0.000000 3.113282 0.000000 0.000000 1.570798
    3 1.757773 0.000000 1.206649 0.000000 0.000000 1.570798
    4 -1.663432 -0.346000 1.941449 0.000000 0.000000 3.141589
    5 5.312662 -7.281259 -4.140751 0.122929 -0.037153 -1.528837
    6 2.999629 0.000000 1.353194 0.657603 0.000000 1.570798
    7 3.639548 0.000000 3.113282 0.000000 0.000000 1.570798
    8 -1.663432 0.346269 1.941449 0.000000 0.000000 3.141589
    9 1.757773 0.000000 1.206649 0.000000 0.000000 1.570798
    10 -0.002752 8.717751 -1.784592 0.000000 0.000000 0.000000
    11 7.911623 -6.729345 -6.225734 0.527296 -2.312198 -0.614168
    12 7.858944 2.617866 -0.345125 1.566812 -3.120805 0.401177
    13 -0.060202 -8.459673 -0.100228 0.068167 0.325018 -0.140232
    14 -0.488518 -2.755602 -0.228260 -0.434648 0.150360 -0.257287
    15 0.039887 -1.526666 0.010322 -1.357298 -0.013111 0.029747
    16 0.028786 -1.263237 -0.120768 -1.781379 -0.009516 0.040652
    17 0.250027 -2.820665 -0.238396 -0.156951 0.124643 -0.222602
    18 -0.049759 -1.598510 0.041883 -1.435809 0.002613 -0.039072
    19 -0.034142 -1.183469 0.041812 -1.449292 0.002673 -0.038027
    20 0.957766 -2.746780 -0.090302 0.163305 0.113141 0.005480
    21 -0.033420 -1.397129 -0.026882 -0.877176 0.006064 -0.043122
    22 -0.022360 -0.957436 -0.000748 -0.707945 0.007526 -0.034384
    23 -1.180681 -2.507217 -0.193859 -0.276772 0.235764 -0.220698
    24 -0.024967 -1.123934 0.017597 -0.793265 0.006687 -0.033843
    25 -0.020057 -0.906594 0.029622 -0.995434 0.005465 -0.040748
    26 0.583510 -1.193371 0.181473 0.313731 -0.595047 -0.692608
    27 1.516395 -0.153822 0.047979 0.016139 -0.157753 -0.527856
    28 1.007018 -0.182979 0.044010 0.086801 -0.241947 -1.032069
    29 0.038119 -0.319809 -0.031051 0.239607 3.240698 1.548022
    30 -6.751435 -6.696148 -5.122533 0.606269 -4.336742 0.703969
    31 -0.078843 -8.044156 -0.040616 0.111010 -0.074524 -0.056582
    32 0.447953 -2.798986 -0.200443 -0.117835 -0.183226 0.328409
    33 -0.032909 -1.499736 0.036191 -1.759219 0.021968 -0.036827
    34 -0.027022 -1.115984 -0.028023 -0.994625 0.022100 -0.015916
    35 -0.249534 -2.846964 -0.174213 0.009445 -0.070702 0.196948
    36 0.043235 -1.656596 0.056948 -1.763180 -0.024622 0.013759
    37 0.031729 -1.141298 0.054932 -1.121691 -0.012481 0.006191
    38 -0.963866 -2.785145 -0.085350 0.155044 0.028983 0.042035
    39 0.028479 -1.403067 -0.013261 -0.721813 -0.016035 -0.028308
    40 0.021413 -0.942156 0.012233 -1.001550 -0.026869 -0.034324
    41 1.164475 -2.543940 -0.170330 -0.286751 -0.269704 0.327293
    42 0.024032 -1.152480 -0.009538 -1.491828 0.033341 0.067846
    43 0.014898 -0.895708 -0.019848 -0.755705 0.001882 0.038243
    44 -0.586770 -1.264477 0.200161 -0.480709 -0.775215 -2.389088
    45 1.565805 0.035243 0.016848 -0.018844 -0.006943 0.893525
    46 1.110134 0.040611 -0.005766 -0.033752 -0.033060 1.195823
    47 -0.002676 -0.502335 -0.044199 0.290560 0.059641 1.643449
    48 -8.163208 1.667083 -0.469909 1.567190 -0.035897 -0.227662
  time 10
    0 -5.086093 -7.027772 -4.226691 -0.097879 -0.078040 -1.536611
    1 2.999629 0.000000 1.353194 0.000000 0.000000 1.570798
    2 3.639548 0.000000 3.113282 0.000000 0.000000 1.570798
    3 1.757773 0.000000 1.206649 0.000000 0.000000 1.570798
    4 -1.663432 -0.346000 1.941449 0.000000 0.000000 3.141589
    5 5.316568 -7.304697 -4.156377 0.123023 -0.038590 -1.528931
    6 2.999629 0.000000 1.353194 0.589219 0.000000 1.570798
    7 3.639548 0.000000 3.113282 0.000000 0.000000 1.570798
    8 -1.663432 0.346269 1.941449 0.000000 0.000000 3.141589
    9 1.757773 0.000000 1.206649 0.000000 0.000000 1.570798
    10 -0.002752 8.717751 -1.784592 0.000000 0.000000 0.000000
    11 7.884279 -6.733251 -6.217921 0.522893 -2.310016 -0.606460
    12 7.796442 2.852248 -0.341219 1.566525 -3.121381 0.431126
    13 -0.060202 -8.459673 -0.100228 0.067681 0.325120 -0.133264
    14 -0.488518 -2.755602 -0.228260 -0.434648 0.150360 -0.257287
    15 0.039887 -1.526666 0.010322 -1.357298 -0.013111 0.029747
    16 0.028786 -1.263237 -0.120768 -1.781379 -0.009516 0.040652
    17 0.250027 -2.820665 -0.238396 -0.156951 0.124643 -0.222602
    18 -0.049759 -1.598510 0.041883 -1.435809 0.002613 -0.039072
    19 -0.034142 -1.183469 0.041812 -1.449292 0.002673 -0.038027
    20 0.957766 -2.746780 -0.090302 0.163305 0.113141 0.005480
    21 -0.033420 -1.397129 -0.026882 -0.825076 0.006795 -0.040593
    22 -0.022360 -0.957436 -0.000748 -0.707945 0.007526 -0.034384
    23 -1.180681 -2.507217 -0.193859 -0.276772 0.235764 -0.220698
    24 -0.024967 -1.123934 0.017597 -0.793265 0.006687 -0.033843
    25 -0.020057 -0.906594 0.029622 -0.995434 0.005465 -0.040748
    26 0.583510 -1.193371 0.181473 0.313731 -0.595047 -0.692608
    27 1.516395 -0.153822 0.047979 0.016139 -0.157753 -0.527856
    28 1.007018 -0.182979 0.044010 0.086801 -0.241947 -1.032069
    29 0.038119 -0.319809 -0.031051 0.239607 3.240698 1.548022
    30 -6.751435 -6.696148 -5.122533 0.606173 -4.336742 0.703969
    31 -0.078843 -8.044156 -0.040616 0.111010 -0.074524 -0.056494
    32 0.447953 -2.798986 -0.200443 -0.117835 -0.183226 0.328409
    33 -0.032909 -1.499736 0.036191 -1.759219 0.021968 -0.036827
    34 -0.027022 -1.115984 -0.028023 -0.994625 0.022100 -0.015916
    35 -0.249534 -2.846964 -0.174213 0.009445 -0.070702 0.196948
    36 0.043235 -1.656596 0.056948 -1.763180 -0.024622 0.013759
    37 0.031729 -1.141298 0.054932 -1.121691 -0.012481 0.006191
    38 -0.963866 -2.785145 -0.085350 0.155044 0.028983 0.042035
    39 0.028479 -1.403067 -0.013261 -0.721813 -0.016035 -0.028308
    40 0.021413 -0.942156 0.012233 -1.001550 -0.026869 -0.034324
    41 1.164475 -2.543940 -0.170330 -0.286751 -0.269704 0.327293
    42 0.024032 -1.152480 -0.009538 -1.491828 0.033341 0.067846
    43 0.014898 -0.895708 -0.019848 -0.755705 0.001882 0.038243
    44 -0.586770 -1.264477 0.200161 -0.480709 -0.775215 -2.389088
    45 1.565805 0.035243 0.016848 -0.018844 -0.006943 0.893494
    46 1.110134 0.040611 -0.005766 -0.033752 -0.033060 1.195823
    47 -0.002676 -0.502335 -0.044199 0.290560 0.059641 1.643449
    48 -8.163208 1.667083 -0.469909 1.567190 -0.035897 -0.227662
  time 11
    0 -5.086093 -7.027772 -4.226691 -0.097879 -0.077853 -1.536611
    1 2.999629 0.000000 1.353194 0.000000 0.000000 1.570798
    2 3.639548 0.000000 3.113282 0.000000 0.000000 1.570798
    3 1.757773 0.000000 1.206649 0.000000 0.000000 1.570798
    4 -1.663432 -0.346000 1.941449 0.000000 0.000000 3.141589
    5 5.312662 -7.308603 -4.175909 0.119246 -0.043952 -1.531913
    6 2.999629 0.000000 1.353194 0.426134 0.000000 1.570798
    7 3.639548 0.000000 3.113282 0.000000 0.000000 1.570798
    8 -1.663432 0.346269 1.941449 0.000000 0.000000 3.141589
    9 1.757773 0.000000 1.206649 0.000000 0.000000 1.570798
    10 -0.002752 8.717751 -1.784592 0.000000 0.000000 0.000000
    11 7.833496 -6.721532 -6.210109 0.516864 -2.307076 -0.595932
    12 7.706596 3.168664 -0.333406 1.566237 -3.122243 0.471438
    13 -0.060202 -8.463579 -0.100228 0.067518 0.329376 -0.119560
    14 -0.488518 -2.755602 -0.228260 -0.434648 0.150360 -0.257287
    15 0.039887 -1.526666 0.010322 -1.357298 -0.013111 0.029747
    16 0.028786 -1.263237 -0.120768 -1.781379 -0.009516 0.040652
    17 0.250027 -2.820665 -0.238396 -0.156951 0.124643 -0.222602
    18 -0.049759 -1.598510 0.041883 -1.435809 0.002613 -0.039072
    19 -0.034142 -1.183469 0.041812 -1.449292 0.002673 -0.038027
    20 0.957766 -2.746780 -0.090302 0.163305 0.113141 0.005480
    21 -0.033420 -1.393223 -0.022976 -0.750276 0.007598 -0.036902
    22 -0.022360 -0.957436 -0.000748 -0.707945 0.007526 -0.034384
    23 -1.180681 -2.507217 -0.193859 -0.276772 0.235764 -0.220698
    24 -0.024967 -1.123934 0.017597 -0.793265 0.006687 -0.033843
    25 -0.020057 -0.906594 0.029622 -0.995434 0.005465 -0.040748
    26 0.583510 -1.193371 0.181473 0.313731 -0.595047 -0.692608
    27 1.516395 -0.153822 0.047979 0.016139 -0.157753 -0.527856
    28 1.007018 -0.182979 0.044010 0.086801 -0.241947 -1.032069
    29 0.038119 -0.319809 -0.031051 0.239607 3.240698 1.548022
    30 -6.751435 -6.696148 -5.122533 0.606078 -4.336835 0.703874
    31 -0.078843 -8.044156 -0.040616 0.111010 -0.074563 -0.056451
    32 0.447953 -2.798986 -0.200443 -0.117835 -0.183226 0.328409
    33 -0.032909 -1.499736 0.036191 -1.759219 0.021968 -0.036827
    34 -0.027022 -1.115984 -0.028023 -0.994625 0.022100 -0.015916
    35 -0.249534 -2.846964 -0.174213 0.009445 -0.070702 0.196948
    36 0.043235 -1.656596 0.056948 -1.763180 -0.024622 0.013759
    37 0.031729 -1.141298 0.054932 -1.121691 -0.012481 0.006191
    38 -0.963866 -2.785145 -0.085350 0.155044 0.028983 0.042035
    39 0.028479 -1.403067 -0.013261 -0.721813 -0.016035 -0.028308
    40 0.021413 -0.942156 0.012233 -1.001550 -0.026869 -0.034324
    41 1.164475 -2.543940 -0.170330 -0.286751 -0.269704 0.327293
    42 0.024032 -1.152480 -0.009538 -1.491828 0.033341 0.067846
    43 0.014898 -0.895708 -0.019848 -0.755705 0.001882 0.038243
    44 -0.586770 -1.264477 0.200161 -0.480709 -0.775215 -2.389088
    45 1.565805 0.035243 0.016848 -0.018844 -0.006943 0.893525
    46 1.110134 0.040611 -0.005766 -0.033752 -0.033060 1.195823
    47 -0.002676 -0.502335 -0.044199 0.290560 0.059641 1.643449
    48 -8.163208 1.667083 -0.469909 1.567190 -0.035897 -0.227757
  time 12
    0 -5.086093 -7.027772 -4.226691 -0.097784 -0.077759 -1.536706
    1 2.999629 0.000000 1.353194 0.000000 0.000000 1.570798
    2 3.639548 0.000000 3.113282 0.000000 0.000000 1.570798
    3 1.757773 0.000000 1.206649 0.000000 0.000000 1.570798
    4 -1.663432 -0.346000 1.941449 0.000000 0.000000 3.141589
    5 5.289224 -7.300790 -4.187628 0.113487 -0.051038 -1.536200
    6 2.999629 0.000000 1.353194 0.231469 0.000000 1.570798
    7 3.639548 0.000000 3.113282 0.000000 0.000000 1.570798
    8 -1.663432 0.346269 1.941449 0.000000 0.000000 3.141589
    9 1.757773 0.000000 1.206649 0.000000 0.000000 1.570798
    10 -0.002752 8.717751 -1.784592 0.000000 0.000000 0.000000
    11 7.763181 -6.702000 -6.198390 0.510548 -2.303852 -0.584745
    12 7.593311 3.500705 -0.329500 1.565950 -3.123106 0.514413
    13 -0.060202 -8.463579 -0.100228 0.067573 0.335528 -0.103051
    14 -0.488518 -2.755602 -0.228260 -0.434648 0.150360 -0.257287
    15 0.039887 -1.526666 0.010322 -1.357298 -0.013111 0.029747
    16 0.028786 -1.263237 -0.120768 -1.781379 -0.009516 0.040652
    17 0.250027 -2.820665 -0.238396 -0.156951 0.124643 -0.222602
    18 -0.049759 -1.598510 0.041883 -1.435809 0.002613 -0.039072
    19 -0.034142 -1.183469 0.041812 -1.449292 0.002673 -0.038027
    20 0.957766 -2.746780 -0.090302 0.163305 0.113141 0.005480
    21 -0.033420 -1.393223 -0.022976 -0.668625 0.008173 -0.032815
    22 -0.022360 -0.957436 -0.000748 -0.707945 0.007526 -0.034384
    23 -1.180681 -2.507217 -0.193859 -0.276772 0.235764 -0.220698
    24 -0.024967 -1.123934 0.017597 -0.793265 0.006687 -0.033843
    25 -0.020057 -0.906594 0.029622 -0.995434 0.005465 -0.040748
    26 0.583510 -1.193371 0.181473 0.313731 -0.595047 -0.692608
    27 1.516395 -0.153822 0.047979 0.016139 -0.157753 -0.527856
    28 1.007018 -0.182979 0.044010 0.086801 -0.241947 -1.032069
    29 0.038119 -0.319809 -0.031051 0.239607 3.240698 1.548022
    30 -6.751435 -6.692242 -5.122533 0.605982 -4.336835 0.703684
    31 -0.078843 -8.044156 -0.040616 0.111047 -0.074563 -0.056363
    32 0.447953 -2.798986 -0.200443 -0.117835 -0.183226 0.328409
    33 -0.032909 -1.499736 0.036191 -1.759219 0.021968 -0.036827
    34 -0.027022 -1.115984 -0.028023 -0.994625 0.022100 -0.015916
    35 -0.249534 -2.846964 -0.174213 0.009445 -0.070702 0.196948
    36 0.043235 -1.656596 0.056948 -1.763180 -0.024622 0.013759
    37 0.031729 -1.141298 0.054932 -1.121691 -0.012481 0.006191
    38 -0.963866 -2.785145 -0.085350 0.155044 0.028983 0.042035
    39 0.028479 -1.403067 -0.013261 -0.721813 -0.016035 -0.028308
    40 0.021413 -0.942156 0.012233 -1.001550 -0.026869 -0.034324
    41 1.164475 -2.543940 -0.170330 -0.286751 -0.269704 0.327293
    42 0.024032 -1.152480 -0.009538 -1.491828 0.033341 0.067846
    43 0.014898 -0.895708 -0.019848 -0.755705 0.001882 0.038243
    44 -0.586770 -1.264477 0.200161 -0.480709 -0.775215 -2.389088
    45 1.565805 0.035243 0.016848 -0.018844 -0.006943 0.893494
    46 1.110134 0.040611 -0.005766 -0.033752 -0.033060 1.195823
    47 -0.002676 -0.502335 -0.044199 0.290560 0.059641 1.643449
    48 -8.163208 1.667083 -0.469909 1.567190 -0.035897 -0.227757
  time 13
    0 -5.086093 -7.027772 -4.230598 -0.097784 -0.077572 -1.536706
    1 2.999629 0.000000 1.353194 0.000000 0.000000 1.570798
    2 3.639548 0.000000 3.113282 0.000000 0.000000 1.570798
    3 1.757773 0.000000 1.206649 0.000000 0.000000 1.570798
    4 -1.663432 -0.346000 1.941449 0.000000 0.000000 3.141589
    5 5.257973 -7.289071 -4.191534 0.107917 -0.057741 -1.540301
    6 2.999629 0.000000 1.353194 0.068384 0.000000 1.570798
    7 3.639548 0.000000 3.113282 0.000000 0.000000 1.570798
    8 -1.663432 0.346269 1.941449 0.000000 0.000000 3.141589
    9 1.757773 0.000000 1.206649 0.000000 0.000000 1.570798
    10 -0.002752 8.717751 -1.784592 0.000000 0.000000 0.000000
    11 7.685054 -6.678562 -6.182764 0.504902 -2.301007 -0.574875
    12 7.483932 3.785870 -0.321687 1.565758 -3.123873 0.552158
    13 -0.056296 -8.467485 -0.100228 0.067843 0.341578 -0.087898
    14 -0.488518 -2.755602 -0.228260 -0.434648 0.150360 -0.257287
    15 0.039887 -1.526666 0.010322 -1.357298 -0.013111 0.029747
    16 0.028786 -1.263237 -0.120768 -1.781379 -0.009516 0.040652
    17 0.250027 -2.820665 -0.238396 -0.156951 0.124643 -0.222602
    18 -0.049759 -1.598510 0.041883 -1.435809 0.002613 -0.039072
    19 -0.034142 -1.183469 0.041812 -1.449292 0.002673 -0.038027
    20 0.957766 -2.746780 -0.090302 0.163305 0.113141 0.005480
    21 -0.033420 -1.393223 -0.019070 -0.596075 0.008389 -0.029160
    22 -0.022360 -0.957436 -0.000748 -0.707945 0.007526 -0.034384
    23 -1.180681 -2.507217 -0.193859 -0.276772 0.235764 -0.220698
    24 -0.024967 -1.123934 0.017597 -0.793265 0.006687 -0.033843
    25 -0.020057 -0.906594 0.029622 -0.995434 0.005465 -0.040748
    26 0.583510 -1.193371 0.181473 0.313731 -0.595047 -0.692608
    27 1.516395 -0.153822 0.047979 0.016139 -0.157753 -0.527856
    28 1.007018 -0.182979 0.044010 0.086801 -0.241947 -1.032069
    29 0.038119 -0.319809 -0.031051 0.239607 3.240698 1.548022
    30 -6.751435 -6.692242 -5.122533 0.605694 -4.336927 0.703494
    31 -0.078843 -8.044156 -0.040616 0.111047 -0.074563 -0.056275
    32 0.447953 -2.798986 -0.200443 -0.117835 -0.183226 0.328409
    33 -0.032909 -1.499736 0.036191 -1.759219 0.021968 -0.036827
    34 -0.027022 -1.115984 -0.028023 -0.994625 0.022100 -0.015916
    35 -0.249534 -2.846964 -0.174213 0.009445 -0.070702 0.196948
    36 0.043235 -1.656596 0.056948 -1.763180 -0.024622 0.013759
    37 0.031729 -1.141298 0.054932 -1.121691 -0.012481 0.006191
    38 -0.963866 -2.785145 -0.085350 0.155044 0.028983 0.042035
    39 0.028479 -1.403067 -0.013261 -0.721813 -0.016035 -0.028308
    40 0.021413 -0.942156 0.012233 -1.001550 -0.026869 -0.034324
    41 1.164475 -2.543940 -0.170330 -0.286751 -0.269704 0.327293
    42 0.024032 -1.152480 -0.009538 -1.491828 0.033341 0.067846
    43 0.014898 -0.895708 -0.019848 -0.755705 0.001882 0.038243
    44 -0.586770 -1.264477 0.200161 -0.480709 -0.775215 -2.389088
    45 1.565805 0.035243 0.016848 -0.018844 -0.006943 0.893494
    46 1.110134 0.040611 -0.005766 -0.033752 -0.033060 1.195823
    47 -0.002676 -0.502335 -0.044199 0.290560 0.059641 1.643449
    48 -8.163208 1.667083 -0.469909 1.567190 -0.035897 -0.227853
  time 14
    0 -5.086093 -7.027772 -4.230598 -0.097784 -0.077385 -1.536706
    1 2.999629 0.000000 1.353194 0.000000 0.000000 1.570798
    2 3.639548 0.000000 3.113282 0.000000 0.000000 1.570798
    3 1.757773 0.000000 1.206649 0.000000 0.000000 1.570798
    4 -1.663432 -0.346000 1.941449 0.000000 0.000000 3.141589
    5 5.230628 -7.285165 -4.191534 0.104423 -0.062050 -1.542817
    6 2.999629 0.000000 1.353194 0.000000 0.000000 1.570798
    7 3.639548 0.000000 3.113282 0.000000 0.000000 1.570798
    8 -1.663432 0.346269 1.941449 0.000000 0.000000 3.141589
    9 1.757773 0.000000 1.206649 0.000000 0.000000 1.570798
    10 -0.002752 8.717751 -1.784592 0.000000 0.000000 0.000000
    11 7.626458 -6.666843 -6.171045 0.501170 -2.299110 -0.568388
    12 7.405805 3.973376 -0.317781 1.565662 -3.124353 0.577163
    13 -0.056296 -8.467485 -0.100228 0.068005 0.345269 -0.078171
    14 -0.488518 -2.755602 -0.228260 -0.434648 0.150360 -0.257287
    15 0.039887 -1.526666 0.010322 -1.357298 -0.013111 0.029747
    16 0.028786 -1.263237 -0.120768 -1.781379 -0.009516 0.040652
    17 0.250027 -2.820665 -0.238396 -0.156951 0.124643 -0.222602
    18 -0.049759 -1.598510 0.041883 -1.435809 0.002613 -0.039072
    19 -0.034142 -1.183469 0.041812 -1.449292 0.002673 -0.038027
    20 0.957766 -2.746780 -0.090302 0.163305 0.113141 0.005480
    21 -0.033420 -1.393223 -0.019070 -0.548424 0.008389 -0.026751
    22 -0.022360 -0.957436 -0.000748 -0.707945 0.007526 -0.034384
    23 -1.180681 -2.507217 -0.193859 -0.276772 0.235764 -0.220698
    24 -0.024967 -1.123934 0.017597 -0.793265 0.006687 -0.033843
    25 -0.020057 -0.906594 0.029622 -0.995434 0.005465 -0.040748
    26 0.583510 -1.193371 0.181473 0.313731 -0.595047 -0.692608
    27 1.516395 -0.153822 0.047979 0.016139 -0.157753 -0.527856
    28 1.007018 -0.182979 0.044010 0.086801 -0.241947 -1.032069
    29 0.038119 -0.319809 -0.031051 0.239607 3.240698 1.548022
    30 -6.751435 -6.692242 -5.122533 0.605502 -4.337020 0.703304
    31 -0.078843 -8.044156 -0.040616 0.111047 -0.074563 -0.056231
    32 0.447953 -2.798986 -0.200443 -0.117835 -0.183226 0.328409
    33 -0.032909 -1.499736 0.036191 -1.759219 0.021968 -0.036827
    34 -0.027022 -1.115984 -0.028023 -0.994625 0.022100 -0.015916
    35 -0.249534 -2.846964 -0.174213 0.009445 -0.070702 0.196948
    36 0.043235 -1.656596 0.056948 -1.763180 -0.024622 0.013759
    37 0.031729 -1.141298 0.054932 -1.121691 -0.012481 0.006191
    38 -0.963866 -2.785145 -0.085350 0.155044 0.028983 0.042035
    39 0.028479 -1.403067 -0.013261 -0.721813 -0.016035 -0.028308
    40 0.021413 -0.942156 0.012233 -1.001550 -0.026869 -0.034324
    41 1.164475 -2.543940 -0.170330 -0.286751 -0.269704 0.327293
    42 0.024032 -1.152480 -0.009538 -1.491828 0.033341 0.067846
    43 0.014898 -0.895708 -0.019848 -0.755705 0.001882 0.038243
    44 -0.586770 -1.264477 0.200161 -0.480709 -0.775215 -2.389088
    45 1.565805 0.035243 0.016848 -0.018844 -0.006943 0.893525
    46 1.110134 0.040611 -0.005766 -0.033752 -0.033060 1.195823
    47 -0.002676 -0.502335 -0.044199 0.290560 0.059641 1.643449
    48 -8.163208 1.667083 -0.469909 1.567190 -0.035897 -0.227948
  time 15
    0 -5.086093 -7.027772 -4.230598 -0.097784 -0.077198 -1.536802
    1 2.999629 0.000000 1.353194 0.000000 0.000000 1.570798
    2 3.639548 0.000000 3.113282 0.000000 0.000000 1.570798
    3 1.757773 0.000000 1.206649 0.000000 0.000000 1.570798
    4 -1.663432 -0.346000 1.941449 0.000000 0.000000 3.141589
    5 5.215003 -7.285165 -4.191534 0.103290 -0.063774 -1.543656
    6 2.999629 0.000000 1.353194 0.000000 0.000000 1.570798
    7 3.639548 0.000000 3.113282 0.000000 0.000000 1.570798
    8 -1.663432 0.346269 1.941449 0.000000 0.000000 3.141589
    9 1.757773 0.000000 1.206649 0.000000 0.000000 1.570798
    10 -0.002752 8.717751 -1.784592 0.000000 0.000000 0.000000
    11 7.599114 -6.662937 -6.163232 0.499543 -2.298256 -0.565380
    12 7.366741 4.063223 -0.317781 1.565566 -3.124640 0.588762
    13 -0.056296 -8.467485 -0.100228 0.068059 0.346500 -0.074149
    14 -0.488518 -2.755602 -0.228260 -0.434648 0.150360 -0.257287
    15 0.039887 -1.526666 0.010322 -1.357298 -0.013111 0.029747
    16 0.028786 -1.263237 -0.120768 -1.781379 -0.009516 0.040652
    17 0.250027 -2.820665 -0.238396 -0.156951 0.124643 -0.222602
    18 -0.049759 -1.598510 0.041883 -1.435809 0.002613 -0.039072
    19 -0.034142 -1.183469 0.041812 -1.449292 0.002673 -0.038027
    20 0.957766 -2.746780 -0.090302 0.163305 0.113141 0.005480
    21 -0.033420 -1.393223 -0.019070 -0.527666 0.008365 -0.025708
    22 -0.022360 -0.957436 -0.000748 -0.707945 0.007526 -0.034384
    23 -1.180681 -2.507217 -0.193859 -0.276772 0.235764 -0.220698
    24 -0.024967 -1.123934 0.017597 -0.793265 0.006687 -0.033843
    25 -0.020057 -0.906594 0.029622 -0.995434 0.005465 -0.040748
    26 0.583510 -1.193371 0.181473 0.313731 -0.595047 -0.692608
    27 1.516395 -0.153822 0.047979 0.016139 -0.157753 -0.527856
    28 1.007018 -0.182979 0.044010 0.086801 -0.241947 -1.032069
    29 0.038119 -0.319809 -0.031051 0.239607 3.240698 1.548022
    30 -6.751435 -6.692242 -5.122533 0.605215 -4.337112 0.703019
    31 -0.078843 -8.044156 -0.040616 0.111084 -0.074563 -0.056144
    32 0.447953 -2.798986 -0.200443 -0.117835 -0.183226 0.328409
    33 -0.032909 -1.499736 0.036191 -1.759219 0.021968 -0.036827
    34 -0.027022 -1.115984 -0.028023 -0.994625 0.022100 -0.015916
    35 -0.249534 -2.846964 -0.174213 0.009445 -0.070702 0.196948
    36 0.043235 -1.656596 0.056948 -1.763180 -0.024622 0.013759
    37 0.031729 -1.141298 0.054932 -1.121691 -0.012481 0.006191
    38 -0.963866 -2.785145 -0.085350 0.155044 0.028983 0.042035
    39 0.028479 -1.403067 -0.013261 -0.721813 -0.016035 -0.028308
    40 0.021413 -0.942156 0.012233 -1.001550 -0.026869 -0.034324
    41 1.164475 -2.543940 -0.170330 -0.286751 -0.269704 0.327293
    42 0.024032 -1.152480 -0.009538 -1.491828 0.033341 0.067846
    43 0.014898 -0.895708 -0.019848 -0.755705 0.001882 0.038243
    44 -0.586770 -1.264477 0.200161 -0.480709 -0.775215 -2.389088
    45 1.565805 0.035243 0.016848 -0.018844 -0.006943 0.893494
    46 1.110134 0.040611 -0.005766 -0.033752 -0.033060 1.195823
    47 -0.002676 -0.502335 -0.044199 0.290560 0.059641 1.643449
    48 -8.163208 1.667083 -0.469909 1.567190 -0.035897 -0.227948
  time 16
    0 -5.086093 -7.027772 -4.234504 -0.097784 -0.077010 -1.536802
    1 2.999629 0.000000 1.353194 0.000000 0.000000 1.570798
    2 3.639548 0.000000 3.113282 0.000000 0.000000 1.570798
    3 1.757773 0.000000 1.206649 0.000000 0.000000 1.570798
    4 -1.663432 -0.346000 1.941449 0.000000 0.000000 3.141589
    5 5.207190 -7.285165 -4.187628 0.103101 -0.064348 -1.543843
    6 2.999629 0.000000 1.353194 0.000000 0.000000 1.570798
    7 3.639548 0.000000 3.113282 0.000000 0.000000 1.570798
    8 -1.663432 0.346269 1.941449 0.000000 0.000000 3.141589
    9 1.757773 0.000000 1.206649 0.000000 0.000000 1.570798
    10 -0.002752 8.717751 -1.784592 0.000000 0.000000 0.000000
    11 7.591301 -6.662937 -6.159326 0.499065 -2.297972 -0.564346
    12 7.351116 4.090567 -0.317781 1.565566 -3.124736 0.592946
    13 -0.056296 -8.467485 -0.100228 0.068059 0.346705 -0.072839
    14 -0.488518 -2.755602 -0.228260 -0.434648 0.150360 -0.257287
    15 0.039887 -1.526666 0.010322 -1.357298 -0.013111 0.029747
    16 0.028786 -1.263237 -0.120768 -1.781379 -0.009516 0.040652
    17 0.250027 -2.820665 -0.238396 -0.156951 0.124643 -0.222602
    18 -0.049759 -1.598510 0.041883 -1.435809 0.002613 -0.039072
    19 -0.034142 -1.183469 0.041812 -1.449292 0.002673 -0.038027
    20 0.957766 -2.746780 -0.090302 0.163305 0.113141 0.005480
    21 -0.033420 -1.393223 -0.019070 -0.521837 0.008341 -0.025408
    22 -0.022360 -0.957436 -0.000748 -0.707945 0.007526 -0.034384
    23 -1.180681 -2.507217 -0.193859 -0.276772 0.235764 -0.220698
    24 -0.024967 -1.123934 0.017597 -0.793265 0.006687 -0.033843
    25 -0.020057 -0.906594 0.029622 -0.995434 0.005465 -0.040748
    26 0.583510 -1.193371 0.181473 0.313731 -0.595047 -0.692608
    27 1.516395 -0.153822 0.047979 0.016139 -0.157753 -0.527856
    28 1.007018 -0.182979 0.044010 0.086801 -0.241947 -1.032069
    29 0.038119 -0.319809 -0.031051 0.239607 3.240698 1.548022
    30 -6.751435 -6.692242 -5.126440 0.604927 -4.337205 0.702733
    31 -0.078843 -8.044156 -0.040616 0.111084 -0.074602 -0.056100
    32 0.447953 -2.798986 -0.200443 -0.117835 -0.183226 0.328409
    33 -0.032909 -1.499736 0.036191 -1.759219 0.021968 -0.036827
    34 -0.027022 -1.115984 -0.028023 -0.994625 0.022100 -0.015916
    35 -0.249534 -2.846964 -0.174213 0.009445 -0.070702 0.196948
    36 0.043235 -1.656596 0.056948 -1.763180 -0.024622 0.013759
    37 0.031729 -1.141298 0.054932 -1.121691 -0.012481 0.006191
    38 -0.963866 -2.785145 -0.085350 0.155044 0.028983 0.042035
    39 0.028479 -1.403067 -0.013261 -0.721813 -0.016035 -0.028308
    40 0.021413 -0.942156 0.012233 -1.001550 -0.026869 -0.034324
    41 1.164475 -2.543940 -0.170330 -0.286751 -0.269704 0.327293
    42 0.024032 -1.152480 -0.009538 -1.491828 0.033341 0.067846
    43 0.014898 -0.895708 -0.019848 -0.755705 0.001882 0.038243
    44 -0.586770 -1.264477 0.200161 -0.480709 -0.775215 -2.389088
    45 1.565805 0.035243 0.016848 -0.018844 -0.006943 0.893494
    46 1.110134 0.040611 -0.005766 -0.033752 -0.033060 1.195823
    47 -0.002676 -0.502335 -0.044199 0.290560 0.059641 1.643449
    48 -8.163208 1.670990 -0.469909 1.567190 -0.035897 -0.228043
  time 17
    0 -5.086093 -7.027772 -4.234504 -0.097784 -0.076823 -1.536802
    1 2.999629 0.000000 1.353194 0.000000 0.000000 1.570798
    2 3.639548 0.000000 3.113282 0.000000 0.000000 1.570798
    3 1.757773 0.000000 1.206649 0.000000 0.000000 1.570798
    4 -1.663432 -0.346000 1.941449 0.000000 0.000000 3.141589
    5 5.211097 -7.285165 -4.187628 0.103479 -0.064157 -1.543656
    6 2.999629 0.000000 1.353194 0.000000 0.000000 1.570798
    7 3.639548 0.000000 3.113282 0.000000 0.000000 1.570798
    8 -1.663432 0.346269 1.941449 0.000000 0.000000 3.141589
    9 1.757773 0.000000 1.206649 0.000000 0.000000 1.570798
    10 -0.002752 8.717751 -1.784592 0.000000 0.000000 0.000000
    11 7.591301 -6.662937 -6.159326 0.499352 -2.298162 -0.564722
    12 7.355022 4.082754 -0.317781 1.565566 -3.124736 0.591805
    13 -0.056296 -8.467485 -0.100228 0.068005 0.346295 -0.073400
    14 -0.488518 -2.755602 -0.228260 -0.434648 0.150360 -0.257287
    15 0.039887 -1.526666 0.010322 -1.357298 -0.013111 0.029747
    16 0.028786 -1.263237 -0.120768 -1.781379 -0.009516 0.040652
    17 0.250027 -2.820665 -0.238396 -0.156951 0.124643 -0.222602
    18 -0.049759 -1.598510 0.041883 -1.435809 0.002613 -0.039072
    19 -0.034142 -1.183469 0.041812 -1.449292 0.002673 -0.038027
    20 0.957766 -2.746780 -0.090302 0.163305 0.113141 0.005480
    21 -0.033420 -1.393223 -0.019070 -0.526030 0.008353 -0.025612
    22 -0.022360 -0.957436 -0.000748 -0.707945 0.007526 -0.034384
    23 -1.180681 -2.507217 -0.193859 -0.276772 0.235764 -0.220698
    24 -0.024967 -1.123934 0.017597 -0.793265 0.006687 -0.033843
    25 -0.020057 -0.906594 0.029622 -0.995434 0.005465 -0.040748
    26 0.583510 -1.193371 0.181473 0.313731 -0.595047 -0.692608
    27 1.516395 -0.153822 0.047979 0.016139 -0.157753 -0.527856
    28 1.007018 -0.182979 0.044010 0.086801 -0.241947 -1.032069
    29 0.038119 -0.319809 -0.031051 0.239607 3.240698 1.548022
    30 -6.751435 -6.692242 -5.126440 0.604640 -4.337297 0.702448
    31 -0.078843 -8.044156 -0.040616 0.111084 -0.074602 -0.056100
    32 0.447953 -2.798986 -0.200443 -0.117835 -0.183226 0.328409
    33 -0.032909 -1.499736 0.036191 -1.759219 0.021968 -0.036827
    34 -0.027022 -1.115984 -0.028023 -0.994625 0.022100 -0.015916
    35 -0.249534 -2.846964 -0.174213 0.009445 -0.070702 0.196948
    36 0.043235 -1.656596 0.056948 -1.763180 -0.024622 0.013759
    37 0.031729 -1.141298 0.054932 -1.121691 -0.012481 0.006191
    38 -0.963866 -2.785145 -0.085350 0.155044 0.028983 0.042035
    39 0.028479 -1.403067 -0.013261 -0.721813 -0.016035 -0.028308
    40 0.021413 -0.942156 0.012233 -1.001550 -0.026869 -0.034324
    41 1.164475 -2.543940 -0.170330 -0.286751 -0.269704 0.327293
    42 0.024032 -1.152480 -0.009538 -1.491828 0.033341 0.067846
    43 0.014898 -0.895708 -0.019848 -0.755705 0.001882 0.038243
    44 -0.586770 -1.264477 0.200161 -0.480709 -0.775215 -2.389088
    45 1.565805 0.035243 0.016848 -0.018844 -0.006943 0.893494
    46 1.110134 0.040611 -0.005766 -0.033752 -0.033060 1.195823
    47 -0.002676 -0.502335 -0.044199 0.290560 0.059641 1.643449
    48 -8.163208 1.670990 -0.469909 1.567286 -0.035897 -0.228138
  time 18
    0 -5.086093 -7.027772 -4.238411 -0.097784 -0.076636 -1.536802
    1 2.999629 0.000000 1.353194 0.000000 0.000000 1.570798
    2 3.639548 0.000000 3.113282 0.000000 0.000000 1.570798
    3 1.757773 0.000000 1.206649 0.000000 0.000000 1.570798
    4 -1.663432 -0.346000 1.941449 0.000000 0.000000 3.141589
    5 5.215003 -7.285165 -4.187628 0.104046 -0.063486 -1.543190
    6 2.999629 0.000000 1.353194 0.000000 0.000000 1.570798
    7 3.639548 0.000000 3.113282 0.000000 0.000000 1.570798
    8 -1.663432 0.346269 1.941449 0.000000 0.000000 3.141589
    9 1.757773 0.000000 1.206649 0.000000 0.000000 1.570798
    10 -0.002752 8.717751 -1.784592 0.000000 0.000000 0.000000
    11 7.603020 -6.666843 -6.159326 0.500021 -2.298541 -0.565944
    12 7.370648 4.051503 -0.317781 1.565566 -3.124640 0.587336
    13 -0.056296 -8.467485 -0.100228 0.068005 0.345679 -0.075037
    14 -0.488518 -2.755602 -0.228260 -0.434648 0.150360 -0.257287
    15 0.039887 -1.526666 0.010322 -1.357298 -0.013111 0.029747
    16 0.028786 -1.263237 -0.120768 -1.781379 -0.009516 0.040652
    17 0.250027 -2.820665 -0.238396 -0.156951 0.124643 -0.222602
    18 -0.049759 -1.598510 0.041883 -1.435809 0.002613 -0.039072
    19 -0.034142 -1.183469 0.041812 -1.449292 0.002673 -0.038027
    20 0.957766 -2.746780 -0.090302 0.163305 0.113141 0.005480
    21 -0.033420 -1.393223 -0.019070 -0.535131 0.008377 -0.026079
    22 -0.022360 -0.957436 -0.000748 -0.707945 0.007526 -0.034384
    23 -1.180681 -2.507217 -0.193859 -0.276772 0.235764 -0.220698
    24 -0.024967 -1.123934 0.017597 -0.793265 0.006687 -0.033843
    25 -0.020057 -0.906594 0.029622 -0.995434 0.005465 -0.040748
    26 0.583510 -1.193371 0.181473 0.313731 -0.595047 -0.692608
    27 1.516395 -0.153822 0.047979 0.016139 -0.157753 -0.527856
    28 1.007018 -0.182979 0.044010 0.086801 -0.241947 -1.032069
    29 0.038119 -0.319809 -0.031051 0.239607 3.240698 1.548022
    30 -6.751435 -6.692242 -5.126440 0.604256 -4.337389 0.702068
    31 -0.078843 -8.044156 -0.040616 0.111084 -0.074602 -0.056100
    32 0.447953 -2.798986 -0.200443 -0.117835 -0.183226 0.328409
    33 -0.032909 -1.499736 0.036191 -1.759219 0.021968 -0.036827
    34 -0.027022 -1.115984 -0.028023 -0.994625 0.022100 -0.015916
    35 -0.249534 -2.846964 -0.174213 0.009445 -0.070702 0.196948
    36 0.043235 -1.656596 0.056948 -1.763180 -0.024622 0.013759
    37 0.031729 -1.141298 0.054932 -1.121691 -0.012481 0.006191
    38 -0.963866 -2.785145 -0.085350 0.155044 0.028983 0.042035
    39 0.028479 -1.403067 -0.013261 -0.721813 -0.016035 -0.028308
    40 0.021413 -0.942156 0.012233 -1.001550 -0.026869 -0.034324
    41 1.164475 -2.543940 -0.170330 -0.286751 -0.269704 0.327293
    42 0.024032 -1.152480 -0.009538 -1.491828 0.033341 0.067846
    43 0.014898 -0.895708 -0.019848 -0.755705 0.001882 0.038243
    44 -0.586770 -1.264477 0.200161 -0.480709 -0.775215 -2.389088
    45 1.565805 0.035243 0.016848 -0.018844 -0.006943 0.893494
    46 1.110134 0.040611 -0.005766 -0.033752 -0.033060 1.195823
    47 -0.002676 -0.502335 -0.044199 0.290560 0.059641 1.643449
    48 -8.163208 1.670990 -0.469909 1.567286 -0.035897 -0.228233
  time 19
    0 -5.086093 -7.027772 -4.238411 -0.097784 -0.076543 -1.536802
    1 2.999629 0.000000 1.353194 0.000000 0.000000 1.570798
    2 3.639548 0.000000 3.113282 0.000000 0.000000 1.570798
    3 1.757773 0.000000 1.206649 0.000000 0.000000 1.570798
    4 -1.663432 -0.346000 1.941449 0.000000 0.000000 3.141589
    5 5.222816 -7.285165 -4.191534 0.104518 -0.062720 -1.542911
    6 2.999629 0.000000 1.353194 0.000000 0.000000 1.570798
    7 3.639548 0.000000 3.113282 0.000000 0.000000 1.570798
    8 -1.663432 0.346269 1.941449 0.000000 0.000000 3.141589
    9 1.757773 0.000000 1.206649 0.000000 0.000000 1.570798
    10 -0.002752 8.717751 -1.784592 0.000000 0.000000 0.000000
    11 7.618646 -6.666843 -6.163232 0.500787 -2.298920 -0.567354
    12 7.390180 4.008533 -0.317781 1.565566 -3.124448 0.581822
    13 -0.056296 -8.467485 -0.100228 0.068005 0.345218 -0.076908
    14 -0.488518 -2.755602 -0.228260 -0.434648 0.150360 -0.257287
    15 0.039887 -1.526666 0.010322 -1.357298 -0.013111 0.029747
    16 0.028786 -1.263237 -0.120768 -1.781379 -0.009516 0.040652
    17 0.250027 -2.820665 -0.238396 -0.156951 0.124643 -0.222602
    18 -0.049759 -1.598510 0.041883 -1.435809 0.002613 -0.039072
    19 -0.034142 -1.183469 0.041812 -1.449292 0.002673 -0.038027
    20 0.957766 -2.746780 -0.090302 0.163305 0.113141 0.005480
    21 -0.033420 -1.393223 -0.019070 -0.544282 0.008389 -0.026535
    22 -0.022360 -0.957436 -0.000748 -0.707945 0.007526 -0.034384
    23 -1.180681 -2.507217 -0.193859 -0.276772 0.235764 -0.220698
    24 -0.024967 -1.123934 0.017597 -0.793265 0.006687 -0.033843
    25 -0.020057 -0.906594 0.029622 -0.995434 0.005465 -0.040748
    26 0.583510 -1.193371 0.181473 0.313731 -0.595047 -0.692608
    27 1.516395 -0.153822 0.047979 0.016139 -0.157753 -0.527856
    28 1.007018 -0.182979 0.044010 0.086801 -0.241947 -1.032069
    29 0.038119 -0.319809 -0.031051 0.239607 3.240698 1.548022
    30 -6.751435 -6.692242 -5.126440 0.603873 -4.337482 0.701783
    31 -0.078843 -8.044156 -0.040616 0.111084 -0.074602 -0.056100
    32 0.447953 -2.798986 -0.200443 -0.117835 -0.183226 0.328409
    33 -0.032909 -1.499736 0.036191 -1.759219 0.021968 -0.036827
    34 -0.027022 -1.115984 -0.028023 -0.994625 0.022100 -0.015916
    35 -0.249534 -2.846964 -0.174213 0.009445 -0.070702 0.196948
    36 0.043235 -1.656596 0.056948 -1.763180 -0.024622 0.013759
    37 0.031729 -1.141298 0.054932 -1.121691 -0.012481 0.006191
    38 -0.963866 -2.785145 -0.085350 0.155044 0.028983 0.042035
    39 0.028479 -1.403067 -0.013261 -0.721813 -0.016035 -0.028308
    40 0.021413 -0.942156 0.012233 -1.001550 -0.026869 -0.034324
    41 1.164475 -2.543940 -0.170330 -0.286751 -0.269704 0.327293
    42 0.024032 -1.152480 -0.009538 -1.491828 0.033341 0.067846
    43 0.014898 -0.895708 -0.019848 -0.755705 0.001882 0.038243
    44 -0.586770 -1.264477 0.200161 -0.480709 -0.775215 -2.389088
    45 1.565805 0.035243 0.016848 -0.018844 -0.006943 0.893494
    46 1.110134 0.040611 -0.005766 -0.033752 -0.033060 1.195823
    47 -0.002676 -0.502335 -0.044199 0.290560 0.059641 1.643449
    48 -8.163208 1.670990 -0.469909 1.567286 -0.035897 -0.228329
  time 20
    0 -5.086093 -7.027772 -4.238411 -0.097784 -0.076355 -1.536802
    1 2.999629 0.000000 1.353194 0.000000 0.000000 1.570798
    2 3.639548 0.000000 3.113282 0.000000 0.000000 1.570798
    3 1.757773 0.000000 1.206649 0.000000 0.000000 1.570798
    4 -1.663432 -0.346000 1.941449 0.000000 0.000000 3.141589
    5 5.230628 -7.285165 -4.191534 0.104423 -0.062050 -1.542817
    6 2.999629 0.000000 1.353194 0.000000 0.000000 1.570798
    7 3.639548 0.000000 3.113282 0.000000 0.000000 1.570798
    8 -1.663432 0.346269 1.941449 0.000000 0.000000 3.141589
    9 1.757773 0.000000 1.206649 0.000000 0.000000 1.570798
    10 -0.002752 8.717751 -1.784592 0.000000 0.000000 0.000000
    11 7.626458 -6.666843 -6.171045 0.501170 -2.299110 -0.568388
    12 7.405805 3.973376 -0.317781 1.565662 -3.124353 0.577163
    13 -0.056296 -8.467485 -0.100228 0.068005 0.345269 -0.078171
    14 -0.488518 -2.755602 -0.228260 -0.434648 0.150360 -0.257287
    15 0.039887 -1.526666 0.010322 -1.357298 -0.013111 0.029747
    16 0.028786 -1.263237 -0.120768 -1.781379 -0.009516 0.040652
    17 0.250027 -2.820665 -0.238396 -0.156951 0.124643 -0.222602
    18 -0.049759 -1.598510 0.041883 -1.435809 0.002613 -0.039072
    19 -0.034142 -1.183469 0.041812 -1.449292 0.002673 -0.038027
    20 0.957766 -2.746780 -0.090302 0.163305 0.113141 0.005480
    21 -0.033420 -1.393223 -0.019070 -0.548424 0.008389 -0.026751
    22 -0.022360 -0.957436 -0.000748 -0.707945 0.007526 -0.034384
    23 -1.180681 -2.507217 -0.193859 -0.276772 0.235764 -0.220698
    24 -0.024967 -1.123934 0.017597 -0.793265 0.006687 -0.033843
    25 -0.020057 -0.906594 0.029622 -0.995434 0.005465 -0.040748
    26 0.583510 -1.193371 0.181473 0.313731 -0.595047 -0.692608
    27 1.516395 -0.153822 0.047979 0.016139 -0.157753 -0.527856
    28 1.007018 -0.182979 0.044010 0.086801 -0.241947 -1.032069
    29 0.038119 -0.319809 -0.031051 0.239607 3.240698 1.548022
    30 -6.751435 -6.692242 -5.126440 0.603585 -4.337667 0.701403
    31 -0.078843 -8.044156 -0.040616 0.111047 -0.074563 -0.056188
    32 0.447953 -2.798986 -0.200443 -0.117835 -0.183226 0.328409
    33 -0.032909 -1.499736 0.036191 -1.759219 0.021968 -0.036827
    34 -0.027022 -1.115984 -0.028023 -0.994625 0.022100 -0.015916
    35 -0.249534 -2.846964 -0.174213 0.009445 -0.070702 0.196948
    36 0.043235 -1.656596 0.056948 -1.763180 -0.024622 0.013759
    37 0.031729 -1.141298 0.054932 -1.121691 -0.012481 0.006191
    38 -0.963866 -2.785145 -0.085350 0.155044 0.028983 0.042035
    39 0.028479 -1.403067 -0.013261 -0.721813 -0.016035 -0.028308
    40 0.021413 -0.942156 0.012233 -1.001550 -0.026869 -0.034324
    41 1.164475 -2.543940 -0.170330 -0.286751 -0.269704 0.327293
    42 0.024032 -1.152480 -0.009538 -1.491828 0.033341 0.067846
    43 0.014898 -0.895708 -0.019848 -0.755705 0.001882 0.038243
    44 -0.586770 -1.264477 0.200161 -0.480709 -0.775215 -2.389088
    45 1.565805 0.035243 0.016848 -0.018844 -0.006943 0.893494
    46 1.110134 0.040611 -0.005766 -0.033752 -0.033060 1.195823
    47 -0.002676 -0.502335 -0.044199 0.290560 0.059641 1.643449
    48 -8.163208 1.670990 -0.469909 1.567286 -0.035897 -0.228424
end
