version 1
nodes
  0 "uzi_root_l" -1
  1 "triger01" 0
  2 "reloader01" 0
  3 "megazine01" 0
  4 "Hb01" 0
  5 "uzi_root_r" -1
  6 "triger" 5
  7 "reloader" 5
  8 "Hb" 5
  9 "megazine" 5
  10 "root" -1
  11 "Bone01" 10
  12 "Bone_L_Upper" 11
  13 "Bone_Lefthand" 11
  14 "Bone13" 13
  15 "Bone14" 14
  16 "Bone15" 15
  17 "Bone17" 13
  18 "Bone18" 17
  19 "Bone19" 18
  20 "Bone21" 13
  21 "Bone22" 20
  22 "Bone23" 21
  23 "Bone09" 13
  24 "Bone10" 23
  25 "Bone11" 24
  26 "Bone05" 13
  27 "Bone06" 26
  28 "Bone07" 27
  29 "Bone_Se_Hand-L" 13
  30 "Bone04" 10
  31 "Bone_Righthand" 30
  32 "Bone39" 31
  33 "Bone40" 32
  34 "Bone41" 33
  35 "Bone35" 31
  36 "Bone36" 35
  37 "Bone37" 36
  38 "Bone31" 31
  39 "Bone32" 38
  40 "Bone33" 39
  41 "Bone43" 31
  42 "Bone44" 41
  43 "Bone45" 42
  44 "Bone27" 31
  45 "Bone28" 44
  46 "Bone29" 45
  47 "Bone_Se_Hand-R" 31
  48 "Bone_R_Upper" 30
end
skeleton
  time 0
    0 -6.988495 -8.805170 -2.304758 -0.842765 -0.037710 -1.563392
    1 2.999629 0.000000 1.353194 0.520231 0.000000 1.570798
    2 3.639548 0.000000 3.113282 0.000000 0.000000 1.570798
    3 1.757773 0.000000 1.206649 0.000000 0.000000 1.570798
    4 -1.663432 -0.346000 1.941449 0.000000 0.000000 6.283181
    5 6.613483 -8.761773 -2.390698 0.787612 -0.040218 -1.583826
    6 2.999629 0.000000 1.353194 0.000000 0.000000 1.570798
    7 3.639548 0.000000 3.113282 0.000000 0.000000 1.570798
    8 -1.663432 0.346269 1.941449 0.000000 0.000000 0.000093
    9 1.757773 0.000000 1.206649 0.000000 0.000000 1.570798
    10 -0.002752 8.717751 -1.784592 0.000000 0.000000 0.000000
    11 9.079628 -7.948132 -0.889634 0.051769 -2.961936 -0.183347
    12 4.729942 7.313322 -0.227934 1.565950 -3.135665 1.108259
    13 -0.009419 -8.467485 -0.076789 0.007646 0.577777 -0.029438
    14 -0.488518 -2.755602 -0.228260 -0.628055 0.178044 -0.279794
    15 0.039887 -1.534479 0.014229 -1.534455 -0.011601 0.034253
    16 0.032692 -1.290581 -0.105143 -2.023028 -0.004950 0.045242
    17 0.250027 -2.820665 -0.238396 -0.493950 0.112670 -0.166961
    18 -0.049759 -1.594604 0.030164 -1.572272 -0.000048 -0.042068
    19 -0.034142 -1.187376 0.041812 -1.520227 0.001378 -0.039669
    20 0.957766 -2.746780 -0.090302 0.249497 0.050354 0.002343
    21 -0.033420 -1.397129 -0.034695 -1.413353 -0.008461 -0.065605
    22 -0.022360 -0.957436 -0.000748 -0.810803 0.006532 -0.039489
    23 -1.180681 -2.507217 -0.193859 -0.402462 0.269656 -0.114033
    24 -0.024967 -1.123934 0.017597 -0.785370 0.006759 -0.033484
    25 -0.020057 -0.902687 0.053060 -1.721015 -0.015304 -0.065604
    26 0.622574 -1.185558 0.177566 0.913191 -0.879626 -0.949661
    27 1.496863 -0.188979 0.059698 0.032534 -0.190231 -0.660021
    28 1.030456 -0.163447 0.036197 0.060231 -0.215917 -0.894744
    29 0.038119 -0.319809 -0.031051 0.239607 3.240698 1.548022
    30 -9.189010 -7.942280 -0.833340 0.030960 -3.260308 0.185382
    31 0.038348 -8.473857 0.033605 0.148869 -0.559563 -0.009443
    32 0.447953 -2.798986 -0.200443 -0.629087 -0.173866 0.282699
    33 -0.032909 -1.499736 0.032285 -1.518168 0.023286 -0.030103
    34 -0.027022 -1.147235 -0.000678 -1.944275 0.021416 -0.041946
    35 -0.249534 -2.846964 -0.174213 -0.497534 -0.112936 0.156176
    36 0.043235 -1.656596 0.060855 -1.670182 -0.024154 0.011985
    37 0.031729 -1.137392 0.051025 -1.444651 -0.016041 0.008312
    38 -0.963866 -2.785145 -0.085350 0.227024 -0.053507 0.022927
    39 0.028479 -1.414786 -0.028886 -1.440103 -0.046153 -0.038578
    40 0.021413 -0.946062 0.016140 -0.822459 -0.019751 -0.030489
    41 1.164475 -2.543940 -0.170330 -0.412729 -0.263712 0.122332
    42 0.024032 -1.136855 -0.001725 -0.816561 0.005189 0.043409
    43 0.014898 -0.907427 -0.004223 -1.596927 0.035390 0.069678
    44 -0.586770 -1.264477 0.200161 -0.942977 -0.752082 -2.153256
    45 1.554086 0.039149 0.016848 -0.011857 -0.004582 0.633632
    46 1.114041 0.044518 -0.005766 -0.027244 -0.034594 0.987350
    47 -0.002676 -0.502335 -0.044199 0.290560 0.059641 1.643449
    48 -4.897483 7.346944 -0.337092 1.581187 -0.017353 -1.099946
  time 1
    0 -6.855678 -7.738731 -2.644612 -0.869208 -0.128475 -1.612364
    1 2.999629 0.000000 1.353194 0.681345 0.000000 1.570798
    2 2.553577 0.000000 3.113282 0.000000 0.000000 1.570798
    3 1.757773 0.000000 1.206649 0.000000 0.000000 1.570798
    4 -1.663432 -0.346000 1.941449 0.000000 0.000000 6.283181
    5 6.613483 -8.761773 -2.390698 0.787612 -0.040218 -1.583826
    6 2.999629 0.000000 1.353194 0.000000 0.000000 1.570798
    7 3.639548 0.000000 3.113282 0.000000 0.000000 1.570798
    8 -1.663432 0.346269 1.941449 0.000000 0.000000 0.000093
    9 1.757773 0.000000 1.206649 0.000000 0.000000 1.570798
    10 -0.002752 8.717751 -1.784592 0.000000 0.000000 0.000000
    11 9.079628 -7.948132 -0.889634 0.051769 -2.961936 -0.183347
    12 4.729942 7.313322 -0.227934 1.565950 -3.135665 1.108259
    13 -0.009419 -8.467485 -0.076789 0.007646 0.577777 -0.029438
    14 -0.488518 -2.755602 -0.228260 -0.628055 0.178044 -0.279794
    15 0.039887 -1.534479 0.014229 -1.534455 -0.011601 0.034253
    16 0.032692 -1.290581 -0.105143 -2.023028 -0.004950 0.045242
    17 0.250027 -2.820665 -0.238396 -0.493950 0.112670 -0.166961
    18 -0.049759 -1.594604 0.030164 -1.572272 -0.000048 -0.042068
    19 -0.034142 -1.187376 0.041812 -1.520227 0.001378 -0.039669
    20 0.957766 -2.746780 -0.090302 0.249497 0.050354 0.002343
    21 -0.033420 -1.397129 -0.034695 -1.413353 -0.008461 -0.065605
    22 -0.022360 -0.957436 -0.000748 -0.810803 0.006532 -0.039489
    23 -1.180681 -2.507217 -0.193859 -0.402462 0.269656 -0.114033
    24 -0.024967 -1.123934 0.017597 -0.785370 0.006759 -0.033484
    25 -0.020057 -0.902687 0.053060 -1.721015 -0.015304 -0.065604
    26 0.622574 -1.185558 0.177566 0.913191 -0.879626 -0.949661
    27 1.496863 -0.188979 0.059698 0.032534 -0.190231 -0.660021
    28 1.030456 -0.163447 0.036197 0.060231 -0.215917 -0.894744
    29 0.038119 -0.319809 -0.031051 0.239607 3.240698 1.548022
    30 -10.157789 -7.141474 -1.169288 0.018883 -3.266685 0.326339
    31 0.046161 -8.481669 0.029699 0.285420 -0.504076 0.100666
    32 0.447953 -2.798986 -0.200443 -0.629087 -0.173866 0.282699
    33 -0.032909 -1.499736 0.032285 -1.518168 0.023286 -0.030103
    34 -0.027022 -1.147235 -0.000678 -1.944275 0.021416 -0.041946
    35 -0.249534 -2.846964 -0.174213 -0.497534 -0.112936 0.156176
    36 0.043235 -1.656596 0.060855 -1.670182 -0.024154 0.011985
    37 0.031729 -1.137392 0.051025 -1.444651 -0.016041 0.008312
    38 -0.963866 -2.785145 -0.085350 0.227024 -0.053507 0.022927
    39 0.028479 -1.414786 -0.028886 -1.440103 -0.046153 -0.038578
    40 0.021413 -0.946062 0.016140 -0.822459 -0.019751 -0.030489
    41 1.164475 -2.543940 -0.170330 -0.412729 -0.263712 0.122332
    42 0.024032 -1.136855 -0.001725 -0.816561 0.005189 0.043409
    43 0.014898 -0.907427 -0.004223 -1.596927 0.035390 0.069678
    44 -0.586770 -1.264477 0.200161 -0.942977 -0.752082 -2.153256
    45 1.554086 0.039149 0.016848 -0.011857 -0.004582 0.633632
    46 1.114041 0.044518 -0.005766 -0.027244 -0.034594 0.987350
    47 -0.002676 -0.502335 -0.044199 0.290560 0.059641 1.643449
    48 -6.987391 5.092969 -0.407407 1.577544 -0.026625 -0.724845
  time 2
    0 -7.039277 -7.781701 -2.546953 -0.904498 -0.116498 -1.641537
    1 2.999629 0.000000 1.353194 0.681345 0.000000 1.570798
    2 2.987184 0.000000 3.113282 0.000000 0.000000 1.570798
    3 1.757773 0.000000 1.206649 0.000000 0.000000 1.570798
    4 -1.663432 -0.346000 1.941449 0.000000 0.000000 6.283181
    5 6.613483 -8.761773 -2.390698 0.787612 -0.040218 -1.583826
    6 2.999629 0.000000 1.353194 0.000000 0.000000 1.570798
    7 3.639548 0.000000 3.113282 0.000000 0.000000 1.570798
    8 -1.663432 0.346269 1.941449 0.000000 0.000000 0.000093
    9 1.757773 0.000000 1.206649 0.000000 0.000000 1.570798
    10 -0.002752 8.717751 -1.784592 0.000000 0.000000 0.000000
    11 9.079628 -7.948132 -0.889634 0.051769 -2.961936 -0.183347
    12 4.729942 7.313322 -0.227934 1.565950 -3.135665 1.108259
    13 -0.009419 -8.467485 -0.076789 0.007646 0.577777 -0.029438
    14 -0.488518 -2.755602 -0.228260 -0.628055 0.178044 -0.279794
    15 0.039887 -1.534479 0.014229 -1.534455 -0.011601 0.034253
    16 0.032692 -1.290581 -0.105143 -2.023028 -0.004950 0.045242
    17 0.250027 -2.820665 -0.238396 -0.493950 0.112670 -0.166961
    18 -0.049759 -1.594604 0.030164 -1.572272 -0.000048 -0.042068
    19 -0.034142 -1.187376 0.041812 -1.520227 0.001378 -0.039669
    20 0.957766 -2.746780 -0.090302 0.249497 0.050354 0.002343
    21 -0.033420 -1.397129 -0.034695 -1.413353 -0.008461 -0.065605
    22 -0.022360 -0.957436 -0.000748 -0.810803 0.006532 -0.039489
    23 -1.180681 -2.507217 -0.193859 -0.402462 0.269656 -0.114033
    24 -0.024967 -1.123934 0.017597 -0.785370 0.006759 -0.033484
    25 -0.020057 -0.902687 0.053060 -1.721015 -0.015304 -0.065604
    26 0.622574 -1.185558 0.177566 0.913191 -0.879626 -0.949661
    27 1.496863 -0.188979 0.059698 0.032534 -0.190231 -0.660021
    28 1.030456 -0.163447 0.036197 0.060231 -0.215917 -0.894744
    29 0.038119 -0.319809 -0.031051 0.239607 3.240698 1.548022
    30 -10.189040 -7.133662 -1.114599 0.027989 -3.262896 0.314363
    31 0.053974 -8.469950 0.025792 0.254801 -0.475712 0.138860
    32 0.447953 -2.798986 -0.200443 -0.629087 -0.173866 0.282699
    33 -0.032909 -1.499736 0.032285 -1.518168 0.023286 -0.030103
    34 -0.027022 -1.147235 -0.000678 -1.944275 0.021416 -0.041946
    35 -0.249534 -2.846964 -0.174213 -0.497534 -0.112936 0.156176
    36 0.043235 -1.656596 0.060855 -1.670182 -0.024154 0.011985
    37 0.031729 -1.137392 0.051025 -1.444651 -0.016041 0.008312
    38 -0.963866 -2.785145 -0.085350 0.227024 -0.053507 0.022927
    39 0.028479 -1.414786 -0.028886 -1.440103 -0.046153 -0.038578
    40 0.021413 -0.946062 0.016140 -0.822459 -0.019751 -0.030489
    41 1.164475 -2.543940 -0.170330 -0.412729 -0.263712 0.122332
    42 0.024032 -1.136855 -0.001725 -0.816561 0.005189 0.043409
    43 0.014898 -0.907427 -0.004223 -1.596927 0.035390 0.069678
    44 -0.586770 -1.264477 0.200161 -0.942977 -0.752082 -2.153256
    45 1.554086 0.039149 0.016848 -0.011857 -0.004582 0.633632
    46 1.114041 0.044518 -0.005766 -0.027244 -0.034594 0.987350
    47 -0.002676 -0.502335 -0.044199 0.290560 0.059641 1.643449
    48 -6.952233 5.147658 -0.407407 1.577640 -0.026434 -0.732844
  time 3
    0 -7.289285 -8.047334 -2.378979 -0.940929 -0.084215 -1.667458
    1 2.999629 0.000000 1.353194 0.681345 0.000000 1.570798
    2 3.639548 0.000000 3.113282 0.000000 0.000000 1.570798
    3 1.757773 0.000000 1.206649 0.000000 0.000000 1.570798
    4 -1.663432 -0.346000 1.941449 0.000000 0.000000 6.283181
    5 6.613483 -8.761773 -2.390698 0.787612 -0.040218 -1.583826
    6 2.999629 0.000000 1.353194 0.000000 0.000000 1.570798
    7 3.639548 0.000000 3.113282 0.000000 0.000000 1.570798
    8 -1.663432 0.346269 1.941449 0.000000 0.000000 0.000093
    9 1.757773 0.000000 1.206649 0.000000 0.000000 1.570798
    10 -0.002752 8.717751 -1.784592 0.000000 0.000000 0.000000
    11 9.079628 -7.948132 -0.889634 0.051769 -2.961936 -0.183347
    12 4.729942 7.313322 -0.227934 1.565950 -3.135665 1.108259
    13 -0.009419 -8.467485 -0.076789 0.007646 0.577777 -0.029438
    14 -0.488518 -2.755602 -0.228260 -0.628055 0.178044 -0.279794
    15 0.039887 -1.534479 0.014229 -1.534455 -0.011601 0.034253
    16 0.032692 -1.290581 -0.105143 -2.023028 -0.004950 0.045242
    17 0.250027 -2.820665 -0.238396 -0.493950 0.112670 -0.166961
    18 -0.049759 -1.594604 0.030164 -1.572272 -0.000048 -0.042068
    19 -0.034142 -1.187376 0.041812 -1.520227 0.001378 -0.039669
    20 0.957766 -2.746780 -0.090302 0.249497 0.050354 0.002343
    21 -0.033420 -1.397129 -0.034695 -1.413353 -0.008461 -0.065605
    22 -0.022360 -0.957436 -0.000748 -0.810803 0.006532 -0.039489
    23 -1.180681 -2.507217 -0.193859 -0.402462 0.269656 -0.114033
    24 -0.024967 -1.123934 0.017597 -0.785370 0.006759 -0.033484
    25 -0.020057 -0.902687 0.053060 -1.721015 -0.015304 -0.065604
    26 0.622574 -1.185558 0.177566 0.913191 -0.879626 -0.949661
    27 1.496863 -0.188979 0.059698 0.032534 -0.190231 -0.660021
    28 1.030456 -0.163447 0.036197 0.060231 -0.215917 -0.894744
    29 0.038119 -0.319809 -0.031051 0.239607 3.240698 1.548022
    30 -10.056224 -7.293823 -0.989595 0.040737 -3.257628 0.273967
    31 0.057880 -8.458231 0.021886 0.194337 -0.451038 0.159689
    32 0.447953 -2.798986 -0.200443 -0.629087 -0.173866 0.282699
    33 -0.032909 -1.499736 0.032285 -1.518168 0.023286 -0.030103
    34 -0.027022 -1.147235 -0.000678 -1.944275 0.021416 -0.041946
    35 -0.249534 -2.846964 -0.174213 -0.497534 -0.112936 0.156176
    36 0.043235 -1.656596 0.060855 -1.670182 -0.024154 0.011985
    37 0.031729 -1.137392 0.051025 -1.444651 -0.016041 0.008312
    38 -0.963866 -2.785145 -0.085350 0.227024 -0.053507 0.022927
    39 0.028479 -1.414786 -0.028886 -1.440103 -0.046153 -0.038578
    40 0.021413 -0.946062 0.016140 -0.822459 -0.019751 -0.030489
    41 1.164475 -2.543940 -0.170330 -0.412729 -0.263712 0.122332
    42 0.024032 -1.136855 -0.001725 -0.816561 0.005189 0.043409
    43 0.014898 -0.907427 -0.004223 -1.596927 0.035390 0.069678
    44 -0.586770 -1.264477 0.200161 -0.942977 -0.752082 -2.153256
    45 1.554086 0.039149 0.016848 -0.011857 -0.004582 0.633632
    46 1.114041 0.044518 -0.005766 -0.027244 -0.034594 0.987350
    47 -0.002676 -0.502335 -0.044199 0.290560 0.059641 1.643449
    48 -6.573316 5.690644 -0.395688 1.578791 -0.024522 -0.812835
  time 4
    0 -7.426008 -8.297342 -2.257881 -0.955292 -0.050623 -1.672718
    1 2.999629 0.000000 1.353194 0.681345 0.000000 1.570798
    2 3.870024 0.000000 3.113282 0.000000 0.000000 1.570798
    3 1.757773 0.000000 1.206649 0.000000 0.000000 1.570798
    4 -1.663432 -0.346000 1.941449 0.000000 0.000000 6.283181
    5 6.613483 -8.761773 -2.390698 0.787612 -0.040218 -1.583826
    6 2.999629 0.000000 1.353194 0.000000 0.000000 1.570798
    7 3.639548 0.000000 3.113282 0.000000 0.000000 1.570798
    8 -1.663432 0.346269 1.941449 0.000000 0.000000 0.000093
    9 1.757773 0.000000 1.206649 0.000000 0.000000 1.570798
    10 -0.002752 8.717751 -1.784592 0.000000 0.000000 0.000000
    11 9.079628 -7.948132 -0.889634 0.051769 -2.961936 -0.183347
    12 4.729942 7.313322 -0.227934 1.565950 -3.135665 1.108259
    13 -0.009419 -8.467485 -0.076789 0.007646 0.577777 -0.029438
    14 -0.488518 -2.755602 -0.228260 -0.628055 0.178044 -0.279794
    15 0.039887 -1.534479 0.014229 -1.534455 -0.011601 0.034253
    16 0.032692 -1.290581 -0.105143 -2.023028 -0.004950 0.045242
    17 0.250027 -2.820665 -0.238396 -0.493950 0.112670 -0.166961
    18 -0.049759 -1.594604 0.030164 -1.572272 -0.000048 -0.042056
    19 -0.034142 -1.187376 0.041812 -1.520227 0.001378 -0.039669
    20 0.957766 -2.746780 -0.090302 0.249497 0.050354 0.002343
    21 -0.033420 -1.397129 -0.034695 -1.413353 -0.008461 -0.065605
    22 -0.022360 -0.957436 -0.000748 -0.810803 0.006532 -0.039489
    23 -1.180681 -2.507217 -0.193859 -0.402462 0.269656 -0.114033
    24 -0.024967 -1.123934 0.017597 -0.785370 0.006759 -0.033484
    25 -0.020057 -0.902687 0.053060 -1.721015 -0.015304 -0.065604
    26 0.622574 -1.185558 0.177566 0.913191 -0.879626 -0.949661
    27 1.496863 -0.188979 0.059698 0.032534 -0.190231 -0.660021
    28 1.030456 -0.163447 0.036197 0.060231 -0.215917 -0.894744
    29 0.038119 -0.319809 -0.031051 0.239607 3.240698 1.548022
    30 -9.876531 -7.469609 -0.888029 0.048693 -3.255780 0.237659
    31 0.057880 -8.450418 0.017980 0.141922 -0.444743 0.156707
    32 0.447953 -2.798986 -0.200443 -0.629087 -0.173866 0.282699
    33 -0.032909 -1.499736 0.032285 -1.518168 0.023286 -0.030103
    34 -0.027022 -1.147235 -0.000678 -1.944275 0.021416 -0.041946
    35 -0.249534 -2.846964 -0.174213 -0.497534 -0.112936 0.156176
    36 0.043235 -1.656596 0.060855 -1.670182 -0.024154 0.011985
    37 0.031729 -1.137392 0.051025 -1.444651 -0.016041 0.008312
    38 -0.963866 -2.785145 -0.085350 0.227024 -0.053507 0.022927
    39 0.028479 -1.414786 -0.028886 -1.440103 -0.046153 -0.038578
    40 0.021413 -0.946062 0.016140 -0.822459 -0.019751 -0.030489
    41 1.164475 -2.543940 -0.170330 -0.412729 -0.263712 0.122332
    42 0.024032 -1.136855 -0.001725 -0.816561 0.005189 0.043409
    43 0.014898 -0.907427 -0.004223 -1.596927 0.035390 0.069678
    44 -0.586770 -1.264477 0.200161 -0.942977 -0.752082 -2.153256
    45 1.554086 0.039149 0.016848 -0.011857 -0.004582 0.633632
    46 1.114041 0.044518 -0.005766 -0.027244 -0.034594 0.987350
    47 -0.002676 -0.502335 -0.044199 0.290560 0.059641 1.643449
    48 -6.135802 6.221910 -0.380062 1.579749 -0.022515 -0.896445
  time 5
    0 -7.332255 -8.488754 -2.269601 -0.932273 -0.018527 -1.636085
    1 2.999629 0.000000 1.353194 0.574899 0.000000 1.570798
    2 3.639548 0.000000 3.113282 0.000000 0.000000 1.570798
    3 1.757773 0.000000 1.206649 0.000000 0.000000 1.570798
    4 -1.663432 -0.346000 1.941449 0.000000 0.000000 6.283181
    5 6.613483 -8.761773 -2.390698 0.787612 -0.040218 -1.583826
    6 2.999629 0.000000 1.353194 0.000000 0.000000 1.570798
    7 3.639548 0.000000 3.113282 0.000000 0.000000 1.570798
    8 -1.663432 0.346269 1.941449 0.000000 0.000000 0.000093
    9 1.757773 0.000000 1.206649 0.000000 0.000000 1.570798
    10 -0.002752 8.717751 -1.784592 0.000000 0.000000 0.000000
    11 9.079628 -7.948132 -0.889634 0.051769 -2.961936 -0.183347
    12 4.729942 7.313322 -0.227934 1.565950 -3.135665 1.108259
    13 -0.009419 -8.467485 -0.076789 0.007646 0.577777 -0.029438
    14 -0.488518 -2.755602 -0.228260 -0.628055 0.178044 -0.279794
    15 0.039887 -1.534479 0.014229 -1.534455 -0.011601 0.034253
    16 0.032692 -1.290581 -0.105143 -2.023028 -0.004950 0.045242
    17 0.250027 -2.820665 -0.238396 -0.493950 0.112670 -0.166961
    18 -0.049759 -1.594604 0.030164 -1.572272 -0.000048 -0.042056
    19 -0.034142 -1.187376 0.041812 -1.520227 0.001378 -0.039669
    20 0.957766 -2.746780 -0.090302 0.249497 0.050354 0.002343
    21 -0.033420 -1.397129 -0.034695 -1.413353 -0.008461 -0.065605
    22 -0.022360 -0.957436 -0.000748 -0.810803 0.006532 -0.039489
    23 -1.180681 -2.507217 -0.193859 -0.402462 0.269656 -0.114033
    24 -0.024967 -1.123934 0.017597 -0.785370 0.006759 -0.033484
    25 -0.020057 -0.902687 0.053060 -1.721015 -0.015304 -0.065604
    26 0.622574 -1.185558 0.177566 0.913191 -0.879626 -0.949661
    27 1.496863 -0.188979 0.059698 0.032534 -0.190231 -0.660021
    28 1.030456 -0.163447 0.036197 0.060231 -0.215917 -0.894744
    29 0.038119 -0.319809 -0.031051 0.239607 3.240698 1.548022
    30 -9.657774 -7.645396 -0.848965 0.045913 -3.257074 0.215607
    31 0.053974 -8.450418 0.021886 0.106673 -0.473730 0.117505
    32 0.447953 -2.798986 -0.200443 -0.629087 -0.173866 0.282699
    33 -0.032909 -1.499736 0.032285 -1.518168 0.023286 -0.030103
    34 -0.027022 -1.147235 -0.000678 -1.944275 0.021416 -0.041946
    35 -0.249534 -2.846964 -0.174213 -0.497534 -0.112936 0.156176
    36 0.043235 -1.656596 0.060855 -1.670182 -0.024154 0.011985
    37 0.031729 -1.137392 0.051025 -1.444651 -0.016041 0.008312
    38 -0.963866 -2.785145 -0.085350 0.227024 -0.053507 0.022927
    39 0.028479 -1.414786 -0.028886 -1.440103 -0.046153 -0.038578
    40 0.021413 -0.946062 0.016140 -0.822459 -0.019751 -0.030489
    41 1.164475 -2.543940 -0.170330 -0.412729 -0.263712 0.122332
    42 0.024032 -1.136855 -0.001725 -0.816561 0.005189 0.043409
    43 0.014898 -0.907427 -0.004223 -1.596927 0.035390 0.069678
    44 -0.586770 -1.264477 0.200161 -0.942977 -0.752082 -2.153256
    45 1.554086 0.039149 0.016848 -0.011857 -0.004582 0.633632
    46 1.114041 0.044518 -0.005766 -0.027244 -0.034594 0.987350
    47 -0.002676 -0.502335 -0.044199 0.290560 0.059641 1.643449
    48 -5.717821 6.651610 -0.364437 1.580421 -0.020699 -0.969485
  time 6
    0 -7.117405 -8.664541 -2.339915 -0.887376 0.010667 -1.576113
    1 2.999629 0.000000 1.353194 0.340673 0.000000 1.570798
    2 3.639548 0.000000 3.113282 0.000000 0.000000 1.570798
    3 1.757773 0.000000 1.206649 0.000000 0.000000 1.570798
    4 -1.663432 -0.346000 1.941449 0.000000 0.000000 6.283181
    5 6.613483 -8.761773 -2.390698 0.787612 -0.040218 -1.583826
    6 2.999629 0.000000 1.353194 0.000000 0.000000 1.570798
    7 3.639548 0.000000 3.113282 0.000000 0.000000 1.570798
    8 -1.663432 0.346269 1.941449 0.000000 0.000000 0.000093
    9 1.757773 0.000000 1.206649 0.000000 0.000000 1.570798
    10 -0.002752 8.717751 -1.784592 0.000000 0.000000 0.000000
    11 9.079628 -7.948132 -0.889634 0.051769 -2.961936 -0.183347
    12 4.729942 7.313322 -0.227934 1.565950 -3.135665 1.108259
    13 -0.009419 -8.467485 -0.076789 0.007646 0.577777 -0.029438
    14 -0.488518 -2.755602 -0.228260 -0.628055 0.178044 -0.279794
    15 0.039887 -1.534479 0.014229 -1.534455 -0.011601 0.034253
    16 0.032692 -1.290581 -0.105143 -2.023028 -0.004950 0.045242
    17 0.250027 -2.820665 -0.238396 -0.493950 0.112670 -0.166961
    18 -0.049759 -1.594604 0.030164 -1.572272 -0.000048 -0.042056
    19 -0.034142 -1.187376 0.041812 -1.520227 0.001378 -0.039669
    20 0.957766 -2.746780 -0.090302 0.249497 0.050354 0.002343
    21 -0.033420 -1.397129 -0.034695 -1.413353 -0.008461 -0.065605
    22 -0.022360 -0.957436 -0.000748 -0.810803 0.006532 -0.039489
    23 -1.180681 -2.507217 -0.193859 -0.402462 0.269656 -0.114033
    24 -0.024967 -1.123934 0.017597 -0.785370 0.006759 -0.033484
    25 -0.020057 -0.902687 0.053060 -1.721015 -0.015304 -0.065604
    26 0.622574 -1.185558 0.177566 0.913191 -0.879626 -0.949661
    27 1.496863 -0.188979 0.059698 0.032534 -0.190231 -0.660021
    28 1.030456 -0.163447 0.036197 0.060231 -0.215917 -0.894744
    29 0.038119 -0.319809 -0.031051 0.239607 3.240698 1.548022
    30 -9.384328 -7.825089 -0.837246 0.037478 -3.259199 0.197643
    31 0.046161 -8.458231 0.025792 0.080907 -0.523621 0.056377
    32 0.447953 -2.798986 -0.200443 -0.629087 -0.173866 0.282699
    33 -0.032909 -1.499736 0.032285 -1.518168 0.023286 -0.030103
    34 -0.027022 -1.147235 -0.000678 -1.944275 0.021416 -0.041946
    35 -0.249534 -2.846964 -0.174213 -0.497534 -0.112936 0.156176
    36 0.043235 -1.656596 0.060855 -1.670182 -0.024154 0.011985
    37 0.031729 -1.137392 0.051025 -1.444651 -0.016041 0.008312
    38 -0.963866 -2.785145 -0.085350 0.227024 -0.053507 0.022927
    39 0.028479 -1.414786 -0.028886 -1.440103 -0.046153 -0.038578
    40 0.021413 -0.946062 0.016140 -0.822459 -0.019751 -0.030489
    41 1.164475 -2.543940 -0.170330 -0.412729 -0.263712 0.122332
    42 0.024032 -1.136855 -0.001725 -0.816561 0.005189 0.043409
    43 0.014898 -0.907427 -0.004223 -1.596927 0.035390 0.069678
    44 -0.586770 -1.264477 0.200161 -0.942977 -0.752082 -2.153256
    45 1.554086 0.039149 0.016848 -0.011857 -0.004582 0.633632
    46 1.114041 0.044518 -0.005766 -0.027244 -0.034594 0.987350
    47 -0.002676 -0.502335 -0.044199 0.290560 0.059641 1.643449
    48 -5.249056 7.073498 -0.348811 1.580900 -0.018787 -1.045952
  time 7
    0 -6.953337 -8.773919 -2.382885 -0.851801 0.022738 -1.534315
    1 2.999629 0.000000 1.353194 0.106446 0.000000 1.570798
    2 3.639548 0.000000 3.113282 0.000000 0.000000 1.570798
    3 1.757773 0.000000 1.206649 0.000000 0.000000 1.570798
    4 -1.663432 -0.346000 1.941449 0.000000 0.000000 6.283181
    5 6.613483 -8.761773 -2.390698 0.787612 -0.040218 -1.583826
    6 2.999629 0.000000 1.353194 0.000000 0.000000 1.570798
    7 3.639548 0.000000 3.113282 0.000000 0.000000 1.570798
    8 -1.663432 0.346269 1.941449 0.000000 0.000000 0.000093
    9 1.757773 0.000000 1.206649 0.000000 0.000000 1.570798
    10 -0.002752 8.717751 -1.784592 0.000000 0.000000 0.000000
    11 9.079628 -7.948132 -0.889634 0.051769 -2.961936 -0.183347
    12 4.729942 7.313322 -0.227934 1.565950 -3.135665 1.108259
    13 -0.009419 -8.467485 -0.076789 0.007646 0.577777 -0.029438
    14 -0.488518 -2.755602 -0.228260 -0.628055 0.178044 -0.279794
    15 0.039887 -1.534479 0.014229 -1.534455 -0.011601 0.034253
    16 0.032692 -1.290581 -0.105143 -2.023028 -0.004950 0.045242
    17 0.250027 -2.820665 -0.238396 -0.493950 0.112670 -0.166961
    18 -0.049759 -1.594604 0.030164 -1.572272 -0.000048 -0.042068
    19 -0.034142 -1.187376 0.041812 -1.520227 0.001378 -0.039669
    20 0.957766 -2.746780 -0.090302 0.249497 0.050354 0.002343
    21 -0.033420 -1.397129 -0.034695 -1.413353 -0.008461 -0.065605
    22 -0.022360 -0.957436 -0.000748 -0.810803 0.006532 -0.039489
    23 -1.180681 -2.507217 -0.193859 -0.402462 0.269656 -0.114033
    24 -0.024967 -1.123934 0.017597 -0.785370 0.006759 -0.033484
    25 -0.020057 -0.902687 0.053060 -1.721015 -0.015304 -0.065604
    26 0.622574 -1.185558 0.177566 0.913191 -0.879626 -0.949661
    27 1.496863 -0.188979 0.059698 0.032534 -0.190231 -0.660021
    28 1.030456 -0.163447 0.036197 0.060231 -0.215917 -0.894744
    29 0.038119 -0.319809 -0.031051 0.239607 3.240698 1.548022
    30 -9.189010 -7.942280 -0.833340 0.030960 -3.260308 0.185382
    31 0.038348 -8.462138 0.029699 0.073151 -0.561195 0.009194
    32 0.447953 -2.798986 -0.200443 -0.629087 -0.173866 0.282699
    33 -0.032909 -1.499736 0.032285 -1.518168 0.023286 -0.030103
    34 -0.027022 -1.147235 -0.000678 -1.944275 0.021416 -0.041946
    35 -0.249534 -2.846964 -0.174213 -0.497534 -0.112936 0.156176
    36 0.043235 -1.656596 0.060855 -1.670182 -0.024154 0.011985
    37 0.031729 -1.137392 0.051025 -1.444651 -0.016041 0.008312
    38 -0.963866 -2.785145 -0.085350 0.227024 -0.053507 0.022927
    39 0.028479 -1.414786 -0.028886 -1.440103 -0.046153 -0.038578
    40 0.021413 -0.946062 0.016140 -0.822459 -0.019751 -0.030489
    41 1.164475 -2.543940 -0.170330 -0.412729 -0.263712 0.122332
    42 0.024032 -1.136855 -0.001725 -0.816561 0.005189 0.043409
    43 0.014898 -0.907427 -0.004223 -1.596927 0.035390 0.069678
    44 -0.586770 -1.264477 0.200161 -0.942977 -0.752082 -2.153256
    45 1.554086 0.039149 0.016848 -0.011857 -0.004582 0.633632
    46 1.114041 0.044518 -0.005766 -0.027244 -0.034594 0.987350
    47 -0.002676 -0.502335 -0.044199 0.290560 0.059641 1.643449
    48 -4.897483 7.346944 -0.337092 1.581187 -0.017353 -1.099946
  time 8
    0 -6.925993 -8.812983 -2.367260 -0.841243 0.009451 -1.532498
    1 2.999629 0.000000 1.353194 0.000000 0.000000 1.570798
    2 3.639548 0.000000 3.113282 0.000000 0.000000 1.570798
    3 1.757773 0.000000 1.206649 0.000000 0.000000 1.570798
    4 -1.663432 -0.346000 1.941449 0.000000 0.000000 6.283181
    5 6.613483 -8.761773 -2.390698 0.787612 -0.040218 -1.583826
    6 2.999629 0.000000 1.353194 0.000000 0.000000 1.570798
    7 3.639548 0.000000 3.113282 0.000000 0.000000 1.570798
    8 -1.663432 0.346269 1.941449 0.000000 0.000000 0.000093
    9 1.757773 0.000000 1.206649 0.000000 0.000000 1.570798
    10 -0.002752 8.717751 -1.784592 0.000000 0.000000 0.000000
    11 9.079628 -7.948132 -0.889634 0.051769 -2.961936 -0.183347
    12 4.729942 7.313322 -0.227934 1.565950 -3.135665 1.108259
    13 -0.009419 -8.467485 -0.076789 0.007646 0.577777 -0.029438
    14 -0.488518 -2.755602 -0.228260 -0.628055 0.178044 -0.279794
    15 0.039887 -1.534479 0.014229 -1.534455 -0.011601 0.034253
    16 0.032692 -1.290581 -0.105143 -2.023028 -0.004950 0.045242
    17 0.250027 -2.820665 -0.238396 -0.493950 0.112670 -0.166961
    18 -0.049759 -1.594604 0.030164 -1.572272 -0.000048 -0.042056
    19 -0.034142 -1.187376 0.041812 -1.520227 0.001378 -0.039669
    20 0.957766 -2.746780 -0.090302 0.249497 0.050354 0.002343
    21 -0.033420 -1.397129 -0.034695 -1.413353 -0.008461 -0.065605
    22 -0.022360 -0.957436 -0.000748 -0.810803 0.006532 -0.039489
    23 -1.180681 -2.507217 -0.193859 -0.402462 0.269656 -0.114033
    24 -0.024967 -1.123934 0.017597 -0.785370 0.006759 -0.033484
    25 -0.020057 -0.902687 0.053060 -1.721015 -0.015304 -0.065604
    26 0.622574 -1.185558 0.177566 0.913191 -0.879626 -0.949661
    27 1.496863 -0.188979 0.059698 0.032534 -0.190231 -0.660021
    28 1.030456 -0.163447 0.036197 0.060231 -0.215917 -0.894744
    29 0.038119 -0.319809 -0.031051 0.239607 3.240698 1.548022
    30 -9.134321 -7.973531 -0.829434 0.029618 -3.260493 0.181485
    31 0.038348 -8.466044 0.033605 0.091235 -0.569704 -0.007469
    32 0.447953 -2.798986 -0.200443 -0.629087 -0.173866 0.282699
    33 -0.032909 -1.499736 0.032285 -1.518168 0.023286 -0.030103
    34 -0.027022 -1.147235 -0.000678 -1.944275 0.021416 -0.041946
    35 -0.249534 -2.846964 -0.174213 -0.497534 -0.112936 0.156176
    36 0.043235 -1.656596 0.060855 -1.670182 -0.024154 0.011985
    37 0.031729 -1.137392 0.051025 -1.444651 -0.016041 0.008312
    38 -0.963866 -2.785145 -0.085350 0.227024 -0.053507 0.022927
    39 0.028479 -1.414786 -0.028886 -1.440103 -0.046153 -0.038578
    40 0.021413 -0.946062 0.016140 -0.822459 -0.019751 -0.030489
    41 1.164475 -2.543940 -0.170330 -0.412729 -0.263712 0.122332
    42 0.024032 -1.136855 -0.001725 -0.816561 0.005189 0.043409
    43 0.014898 -0.907427 -0.004223 -1.596927 0.035390 0.069678
    44 -0.586770 -1.264477 0.200161 -0.942977 -0.752082 -2.153256
    45 1.554086 0.039149 0.016848 -0.011857 -0.004582 0.633632
    46 1.114041 0.044518 -0.005766 -0.027244 -0.034594 0.987350
    47 -0.002676 -0.502335 -0.044199 0.290560 0.059641 1.643449
    48 -4.799824 7.421165 -0.337092 1.581283 -0.016971 -1.114992
  time 9
    0 -6.961150 -8.812983 -2.332102 -0.841718 -0.017405 -1.549619
    1 2.999629 0.000000 1.353194 0.000000 0.000000 1.570798
    2 3.639548 0.000000 3.113282 0.000000 0.000000 1.570798
    3 1.757773 0.000000 1.206649 0.000000 0.000000 1.570798
    4 -1.663432 -0.346000 1.941449 0.000000 0.000000 6.283181
    5 6.613483 -8.761773 -2.390698 0.787612 -0.040218 -1.583826
    6 2.999629 0.000000 1.353194 0.000000 0.000000 1.570798
    7 3.639548 0.000000 3.113282 0.000000 0.000000 1.570798
    8 -1.663432 0.346269 1.941449 0.000000 0.000000 0.000093
    9 1.757773 0.000000 1.206649 0.000000 0.000000 1.570798
    10 -0.002752 8.717751 -1.784592 0.000000 0.000000 0.000000
    11 9.079628 -7.948132 -0.889634 0.051769 -2.961936 -0.183347
    12 4.729942 7.313322 -0.227934 1.565950 -3.135665 1.108259
    13 -0.009419 -8.467485 -0.076789 0.007646 0.577777 -0.029438
    14 -0.488518 -2.755602 -0.228260 -0.628055 0.178044 -0.279794
    15 0.039887 -1.534479 0.014229 -1.534455 -0.011601 0.034253
    16 0.032692 -1.290581 -0.105143 -2.023028 -0.004950 0.045242
    17 0.250027 -2.820665 -0.238396 -0.493950 0.112670 -0.166961
    18 -0.049759 -1.594604 0.030164 -1.572272 -0.000048 -0.042056
    19 -0.034142 -1.187376 0.041812 -1.520227 0.001378 -0.039669
    20 0.957766 -2.746780 -0.090302 0.249497 0.050354 0.002343
    21 -0.033420 -1.397129 -0.034695 -1.413353 -0.008461 -0.065605
    22 -0.022360 -0.957436 -0.000748 -0.810803 0.006532 -0.039489
    23 -1.180681 -2.507217 -0.193859 -0.402462 0.269656 -0.114033
    24 -0.024967 -1.123934 0.017597 -0.785370 0.006759 -0.033484
    25 -0.020057 -0.902687 0.053060 -1.721015 -0.015304 -0.065604
    26 0.622574 -1.185558 0.177566 0.913191 -0.879626 -0.949661
    27 1.496863 -0.188979 0.059698 0.032534 -0.190231 -0.660021
    28 1.030456 -0.163447 0.036197 0.060231 -0.215917 -0.894744
    29 0.038119 -0.319809 -0.031051 0.239607 3.240698 1.548022
    30 -9.161665 -7.957906 -0.833340 0.030289 -3.260401 0.183481
    31 0.038348 -8.469950 0.033605 0.124316 -0.564536 -0.009574
    32 0.447953 -2.798986 -0.200443 -0.629087 -0.173866 0.282699
    33 -0.032909 -1.499736 0.032285 -1.518168 0.023286 -0.030103
    34 -0.027022 -1.147235 -0.000678 -1.944275 0.021416 -0.041946
    35 -0.249534 -2.846964 -0.174213 -0.497534 -0.112936 0.156176
    36 0.043235 -1.656596 0.060855 -1.670182 -0.024154 0.011985
    37 0.031729 -1.137392 0.051025 -1.444651 -0.016041 0.008312
    38 -0.963866 -2.785145 -0.085350 0.227024 -0.053507 0.022927
    39 0.028479 -1.414786 -0.028886 -1.440103 -0.046153 -0.038578
    40 0.021413 -0.946062 0.016140 -0.822459 -0.019751 -0.030489
    41 1.164475 -2.543940 -0.170330 -0.412729 -0.263712 0.122332
    42 0.024032 -1.136855 -0.001725 -0.816561 0.005189 0.043409
    43 0.014898 -0.907427 -0.004223 -1.596927 0.035390 0.069678
    44 -0.586770 -1.264477 0.200161 -0.942977 -0.752082 -2.153256
    45 1.554086 0.039149 0.016848 -0.011857 -0.004582 0.633632
    46 1.114041 0.044518 -0.005766 -0.027244 -0.034594 0.987350
    47 -0.002676 -0.502335 -0.044199 0.290560 0.059641 1.643449
    48 -4.850607 7.382101 -0.337092 1.581283 -0.017162 -1.107469
  time 10
    0 -6.988495 -8.805170 -2.304758 -0.842765 -0.037710 -1.563392
    1 2.999629 0.000000 1.353194 0.000000 0.000000 1.570798
    2 3.639548 0.000000 3.113282 0.000000 0.000000 1.570798
    3 1.757773 0.000000 1.206649 0.000000 0.000000 1.570798
    4 -1.663432 -0.346000 1.941449 0.000000 0.000000 6.283181
    5 6.613483 -8.761773 -2.390698 0.787612 -0.040218 -1.583826
    6 2.999629 0.000000 1.353194 0.000000 0.000000 1.570798
    7 3.639548 0.000000 3.113282 0.000000 0.000000 1.570798
    8 -1.663432 0.346269 1.941449 0.000000 0.000000 0.000093
    9 1.757773 0.000000 1.206649 0.000000 0.000000 1.570798
    10 -0.002752 8.717751 -1.784592 0.000000 0.000000 0.000000
    11 9.079628 -7.948132 -0.889634 0.051769 -2.961936 -0.183347
    12 4.729942 7.313322 -0.227934 1.565950 -3.135665 1.108259
    13 -0.009419 -8.467485 -0.076789 0.007646 0.577777 -0.029438
    14 -0.488518 -2.755602 -0.228260 -0.628055 0.178044 -0.279794
    15 0.039887 -1.534479 0.014229 -1.534455 -0.011601 0.034253
    16 0.032692 -1.290581 -0.105143 -2.023028 -0.004950 0.045242
    17 0.250027 -2.820665 -0.238396 -0.493950 0.112670 -0.166961
    18 -0.049759 -1.594604 0.030164 -1.572272 -0.000048 -0.042068
    19 -0.034142 -1.187376 0.041812 -1.520227 0.001378 -0.039669
    20 0.957766 -2.746780 -0.090302 0.249497 0.050354 0.002343
    21 -0.033420 -1.397129 -0.034695 -1.413353 -0.008461 -0.065605
    22 -0.022360 -0.957436 -0.000748 -0.810803 0.006532 -0.039489
    23 -1.180681 -2.507217 -0.193859 -0.402462 0.269656 -0.114033
    24 -0.024967 -1.123934 0.017597 -0.785370 0.006759 -0.033484
    25 -0.020057 -0.902687 0.053060 -1.721015 -0.015304 -0.065604
    26 0.622574 -1.185558 0.177566 0.913191 -0.879626 -0.949661
    27 1.496863 -0.188979 0.059698 0.032534 -0.190231 -0.660021
    28 1.030456 -0.163447 0.036197 0.060231 -0.215917 -0.894744
    29 0.038119 -0.319809 -0.031051 0.239607 3.240698 1.548022
    30 -9.189010 -7.942280 -0.833340 0.030960 -3.260308 0.185382
    31 0.038348 -8.473857 0.033605 0.148869 -0.559563 -0.009443
    32 0.447953 -2.798986 -0.200443 -0.629087 -0.173866 0.282699
    33 -0.032909 -1.499736 0.032285 -1.518168 0.023286 -0.030103
    34 -0.027022 -1.147235 -0.000678 -1.944275 0.021416 -0.041946
    35 -0.249534 -2.846964 -0.174213 -0.497534 -0.112936 0.156176
    36 0.043235 -1.656596 0.060855 -1.670182 -0.024154 0.011985
    37 0.031729 -1.137392 0.051025 -1.444651 -0.016041 0.008312
    38 -0.963866 -2.785145 -0.085350 0.227024 -0.053507 0.022927
    39 0.028479 -1.414786 -0.028886 -1.440103 -0.046153 -0.038578
    40 0.021413 -0.946062 0.016140 -0.822459 -0.019751 -0.030489
    41 1.164475 -2.543940 -0.170330 -0.412729 -0.263712 0.122332
    42 0.024032 -1.136855 -0.001725 -0.816561 0.005189 0.043409
    43 0.014898 -0.907427 -0.004223 -1.596927 0.035390 0.069678
    44 -0.586770 -1.264477 0.200161 -0.942977 -0.752082 -2.153256
    45 1.554086 0.039149 0.016848 -0.011857 -0.004582 0.633632
    46 1.114041 0.044518 -0.005766 -0.027244 -0.034594 0.987350
    47 -0.002676 -0.502335 -0.044199 0.290560 0.059641 1.643449
    48 -4.897483 7.346944 -0.337092 1.581187 -0.017353 -1.099946
  time 11
    0 -6.984588 -8.805170 -2.261788 -0.857889 -0.042295 -1.566070
    1 2.999629 0.000000 1.353194 0.000000 0.000000 1.570798
    2 3.639548 0.000000 3.113282 0.000000 0.000000 1.570798
    3 1.757773 0.000000 1.206649 0.000000 0.000000 1.570798
    4 -1.663432 -0.346000 1.941449 0.000000 0.000000 6.283181
    5 6.613483 -8.761773 -2.390698 0.787612 -0.040218 -1.583826
    6 2.999629 0.000000 1.353194 0.000000 0.000000 1.570798
    7 3.639548 0.000000 3.113282 0.000000 0.000000 1.570798
    8 -1.663432 0.346269 1.941449 0.000000 0.000000 0.000093
    9 1.757773 0.000000 1.206649 0.000000 0.000000 1.570798
    10 -0.002752 8.717751 -1.784592 0.000000 0.000000 0.000000
    11 9.079628 -7.948132 -0.889634 0.051769 -2.961936 -0.183347
    12 4.729942 7.313322 -0.227934 1.565950 -3.135665 1.108259
    13 -0.009419 -8.467485 -0.076789 0.007646 0.577777 -0.029438
    14 -0.488518 -2.755602 -0.228260 -0.628055 0.178044 -0.279794
    15 0.039887 -1.534479 0.014229 -1.534455 -0.011601 0.034253
    16 0.032692 -1.290581 -0.105143 -2.023028 -0.004950 0.045242
    17 0.250027 -2.820665 -0.238396 -0.493950 0.112670 -0.166961
    18 -0.049759 -1.594604 0.030164 -1.572272 -0.000048 -0.042068
    19 -0.034142 -1.187376 0.041812 -1.520227 0.001378 -0.039669
    20 0.957766 -2.746780 -0.090302 0.249497 0.050354 0.002343
    21 -0.033420 -1.397129 -0.034695 -1.413353 -0.008461 -0.065605
    22 -0.022360 -0.957436 -0.000748 -0.810803 0.006532 -0.039489
    23 -1.180681 -2.507217 -0.193859 -0.402462 0.269656 -0.114033
    24 -0.024967 -1.123934 0.017597 -0.785370 0.006759 -0.033484
    25 -0.020057 -0.902687 0.053060 -1.721015 -0.015304 -0.065604
    26 0.622574 -1.185558 0.177566 0.913191 -0.879626 -0.949661
    27 1.496863 -0.188979 0.059698 0.032534 -0.190231 -0.660021
    28 1.030456 -0.163447 0.036197 0.060231 -0.215917 -0.894744
    29 0.038119 -0.319809 -0.031051 0.239607 3.240698 1.548022
    30 -9.196823 -7.942280 -0.778651 0.030193 -3.241639 0.186332
    31 0.038348 -8.473857 0.033605 0.152471 -0.562360 -0.007294
    32 0.447953 -2.798986 -0.200443 -0.636600 -0.175424 0.282723
    33 -0.032909 -1.499736 0.032285 -1.513231 0.023286 -0.029959
    34 -0.027022 -1.147235 -0.000678 -1.954722 0.021273 -0.042210
    35 -0.249534 -2.846964 -0.174213 -0.502117 -0.114170 0.154031
    36 0.043235 -1.656596 0.060855 -1.665376 -0.024130 0.011889
    37 0.031729 -1.137392 0.051025 -1.451620 -0.016112 0.008372
    38 -0.963866 -2.785145 -0.085350 0.228268 -0.053794 0.021154
    39 0.028479 -1.414786 -0.028886 -1.451919 -0.046680 -0.038554
    40 0.021413 -0.946062 0.016140 -0.820851 -0.019679 -0.030453
    41 1.164475 -2.543940 -0.170330 -0.413990 -0.263053 0.120762
    42 0.024032 -1.136855 -0.001725 -0.811310 0.005046 0.043146
    43 0.014898 -0.907427 -0.004223 -1.597837 0.035438 0.069702
    44 -0.586770 -1.264477 0.200161 -0.951601 -0.751382 -2.151181
    45 1.550180 0.039149 0.016848 -0.011725 -0.004510 0.628186
    46 1.114041 0.044518 -0.005766 -0.027304 -0.034582 0.989450
    47 -0.002676 -0.502335 -0.044199 0.290560 0.059641 1.643449
    48 -4.909202 7.339131 -0.337092 1.581187 -0.017353 -1.098327
  time 12
    0 -6.976775 -8.805170 -2.226630 -0.874059 -0.040143 -1.565592
    1 2.999629 0.000000 1.353194 0.000000 0.000000 1.570798
    2 3.639548 0.000000 3.113282 0.000000 0.000000 1.570798
    3 1.757773 0.000000 1.206649 0.000000 0.000000 1.570798
    4 -1.663432 -0.346000 1.941449 0.000000 0.000000 6.283181
    5 6.613483 -8.761773 -2.390698 0.787612 -0.040218 -1.583826
    6 2.999629 0.000000 1.353194 0.000000 0.000000 1.570798
    7 3.639548 0.000000 3.113282 0.000000 0.000000 1.570798
    8 -1.663432 0.346269 1.941449 0.000000 0.000000 0.000093
    9 1.757773 0.000000 1.206649 0.000000 0.000000 1.570798
    10 -0.002752 8.717751 -1.784592 0.000000 0.000000 0.000000
    11 9.079628 -7.948132 -0.889634 0.051769 -2.961936 -0.183347
    12 4.729942 7.313322 -0.227934 1.565950 -3.135665 1.108259
    13 -0.009419 -8.467485 -0.076789 0.007646 0.577777 -0.029438
    14 -0.488518 -2.755602 -0.228260 -0.628055 0.178044 -0.279794
    15 0.039887 -1.534479 0.014229 -1.534455 -0.011601 0.034253
    16 0.032692 -1.290581 -0.105143 -2.023028 -0.004950 0.045242
    17 0.250027 -2.820665 -0.238396 -0.493950 0.112670 -0.166961
    18 -0.049759 -1.594604 0.030164 -1.572272 -0.000048 -0.042068
    19 -0.034142 -1.187376 0.041812 -1.520227 0.001378 -0.039669
    20 0.957766 -2.746780 -0.090302 0.249497 0.050354 0.002343
    21 -0.033420 -1.397129 -0.034695 -1.413353 -0.008461 -0.065605
    22 -0.022360 -0.957436 -0.000748 -0.810803 0.006532 -0.039489
    23 -1.180681 -2.507217 -0.193859 -0.402462 0.269656 -0.114033
    24 -0.024967 -1.123934 0.017597 -0.785370 0.006759 -0.033484
    25 -0.020057 -0.902687 0.053060 -1.721015 -0.015304 -0.065604
    26 0.622574 -1.185558 0.177566 0.913191 -0.879626 -0.949661
    27 1.496863 -0.188979 0.059698 0.032534 -0.190231 -0.660021
    28 1.030456 -0.163447 0.036197 0.060231 -0.215917 -0.894744
    29 0.038119 -0.319809 -0.031051 0.239607 3.240698 1.548022
    30 -9.204635 -7.942280 -0.727868 0.029331 -3.223062 0.187283
    31 0.038348 -8.473857 0.033605 0.147620 -0.565430 -0.003084
    32 0.447953 -2.798986 -0.200443 -0.644113 -0.176994 0.282759
    33 -0.032909 -1.499736 0.032285 -1.508234 0.023298 -0.029816
    34 -0.027022 -1.147235 -0.000678 -1.965108 0.021117 -0.042473
    35 -0.249534 -2.846964 -0.174213 -0.506721 -0.115417 0.151886
    36 0.043235 -1.656596 0.060855 -1.660632 -0.024094 0.011794
    37 0.031729 -1.137392 0.051025 -1.458589 -0.016184 0.008420
    38 -0.963866 -2.785145 -0.085350 0.229513 -0.054070 0.019382
    39 0.028479 -1.414786 -0.028886 -1.463792 -0.047219 -0.038530
    40 0.021413 -0.946062 0.016140 -0.819242 -0.019619 -0.030417
    41 1.164475 -2.543940 -0.170330 -0.415278 -0.262406 0.119204
    42 0.024032 -1.136855 -0.001725 -0.806060 0.004902 0.042894
    43 0.014898 -0.907427 -0.004223 -1.598801 0.035486 0.069714
    44 -0.586770 -1.264477 0.200161 -0.960195 -0.750683 -2.149145
    45 1.550180 0.039149 0.016848 -0.011581 -0.004450 0.622739
    46 1.114041 0.044518 -0.005766 -0.027376 -0.034570 0.991508
    47 -0.002676 -0.502335 -0.044199 0.290560 0.059641 1.643449
    48 -4.920921 7.331319 -0.340999 1.581187 -0.017449 -1.096709
  time 13
    0 -6.988495 -8.805170 -2.304758 -0.842765 -0.037710 -1.563392
    1 2.999629 0.000000 1.353194 0.000000 0.000000 1.570798
    2 3.639548 0.000000 3.113282 0.000000 0.000000 1.570798
    3 1.757773 0.000000 1.206649 0.000000 0.000000 1.570798
    4 -1.663432 -0.346000 1.941449 0.000000 0.000000 6.283181
    5 6.613483 -8.761773 -2.390698 0.787612 -0.040218 -1.583826
    6 2.999629 0.000000 1.353194 0.000000 0.000000 1.570798
    7 3.639548 0.000000 3.113282 0.000000 0.000000 1.570798
    8 -1.663432 0.346269 1.941449 0.000000 0.000000 0.000093
    9 1.757773 0.000000 1.206649 0.000000 0.000000 1.570798
    10 -0.002752 8.717751 -1.784592 0.000000 0.000000 0.000000
    11 9.079628 -7.948132 -0.889634 0.051769 -2.961936 -0.183347
    12 4.729942 7.313322 -0.227934 1.565950 -3.135665 1.108259
    13 -0.009419 -8.467485 -0.076789 0.007646 0.577777 -0.029438
    14 -0.488518 -2.755602 -0.228260 -0.628055 0.178044 -0.279794
    15 0.039887 -1.534479 0.014229 -1.534455 -0.011601 0.034253
    16 0.032692 -1.290581 -0.105143 -2.023028 -0.004950 0.045242
    17 0.250027 -2.820665 -0.238396 -0.493950 0.112670 -0.166961
    18 -0.049759 -1.594604 0.030164 -1.572272 -0.000048 -0.042068
    19 -0.034142 -1.187376 0.041812 -1.520227 0.001378 -0.039669
    20 0.957766 -2.746780 -0.090302 0.249497 0.050354 0.002343
    21 -0.033420 -1.397129 -0.034695 -1.413353 -0.008461 -0.065605
    22 -0.022360 -0.957436 -0.000748 -0.810803 0.006532 -0.039489
    23 -1.180681 -2.507217 -0.193859 -0.402462 0.269656 -0.114033
    24 -0.024967 -1.123934 0.017597 -0.785370 0.006759 -0.033484
    25 -0.020057 -0.902687 0.053060 -1.721015 -0.015304 -0.065604
    26 0.622574 -1.185558 0.177566 0.913191 -0.879626 -0.949661
    27 1.496863 -0.188979 0.059698 0.032534 -0.190231 -0.660021
    28 1.030456 -0.163447 0.036197 0.060231 -0.215917 -0.894744
    29 0.038119 -0.319809 -0.031051 0.239607 3.240698 1.548022
    30 -9.189010 -7.942280 -0.833340 0.030960 -3.260308 0.185382
    31 0.038348 -8.473857 0.033605 0.148869 -0.559563 -0.009443
    32 0.447953 -2.798986 -0.200443 -0.629087 -0.173866 0.282699
    33 -0.032909 -1.499736 0.032285 -1.518168 0.023286 -0.030103
    34 -0.027022 -1.147235 -0.000678 -1.944275 0.021416 -0.041946
    35 -0.249534 -2.846964 -0.174213 -0.497534 -0.112936 0.156176
    36 0.043235 -1.656596 0.060855 -1.670182 -0.024154 0.011985
    37 0.031729 -1.137392 0.051025 -1.444651 -0.016041 0.008312
    38 -0.963866 -2.785145 -0.085350 0.227024 -0.053507 0.022927
    39 0.028479 -1.414786 -0.028886 -1.440103 -0.046153 -0.038578
    40 0.021413 -0.946062 0.016140 -0.822459 -0.019751 -0.030489
    41 1.164475 -2.543940 -0.170330 -0.412729 -0.263712 0.122332
    42 0.024032 -1.136855 -0.001725 -0.816561 0.005189 0.043409
    43 0.014898 -0.907427 -0.004223 -1.596927 0.035390 0.069678
    44 -0.586770 -1.264477 0.200161 -0.942977 -0.752082 -2.153256
    45 1.554086 0.039149 0.016848 -0.011857 -0.004582 0.633632
    46 1.114041 0.044518 -0.005766 -0.027244 -0.034594 0.987350
    47 -0.002676 -0.502335 -0.044199 0.290560 0.059641 1.643449
    48 -4.897483 7.346944 -0.337092 1.581187 -0.017353 -1.099946
  time 14
    0 -6.996307 -8.809076 -2.496170 -0.763529 -0.037523 -1.561288
    1 2.999629 0.000000 1.353194 0.000000 0.000000 1.570798
    2 3.639548 0.000000 3.113282 0.000000 0.000000 1.570798
    3 1.757773 0.000000 1.206649 0.000000 0.000000 1.570798
    4 -1.663432 -0.346000 1.941449 0.000000 0.000000 6.283181
    5 6.590045 -8.765679 -2.503983 0.764008 -0.041558 -1.580378
    6 2.999629 0.000000 1.353194 0.000000 0.000000 1.570798
    7 3.639548 0.000000 3.113282 0.000000 0.000000 1.570798
    8 -1.663432 0.346269 1.941449 0.000000 0.000000 0.000093
    9 1.757773 0.000000 1.206649 0.000000 0.000000 1.570798
    10 -0.002752 8.717751 -1.784592 0.000000 0.000000 0.000000
    11 9.060096 -7.948132 -0.991199 0.047750 -2.938606 -0.184005
    12 4.733849 7.309415 -0.227934 1.565950 -3.135665 1.107879
    13 -0.009419 -8.467485 -0.076789 0.019426 0.577572 -0.024995
    14 -0.488518 -2.755602 -0.228260 -0.628055 0.178044 -0.279794
    15 0.039887 -1.534479 0.014229 -1.534455 -0.011601 0.034253
    16 0.032692 -1.290581 -0.105143 -2.023028 -0.004950 0.045242
    17 0.250027 -2.820665 -0.238396 -0.493950 0.112670 -0.166961
    18 -0.049759 -1.594604 0.030164 -1.572272 -0.000048 -0.042056
    19 -0.034142 -1.187376 0.041812 -1.520227 0.001378 -0.039669
    20 0.957766 -2.746780 -0.090302 0.247337 0.050438 0.002270
    21 -0.033420 -1.397129 -0.034695 -1.399600 -0.007946 -0.065137
    22 -0.022360 -0.957436 -0.000748 -0.808217 0.006568 -0.039357
    23 -1.180681 -2.507217 -0.193859 -0.402462 0.269656 -0.114033
    24 -0.024967 -1.123934 0.017597 -0.785370 0.006759 -0.033484
    25 -0.020057 -0.902687 0.053060 -1.721015 -0.015304 -0.065604
    26 0.622574 -1.185558 0.177566 0.913191 -0.879626 -0.949661
    27 1.496863 -0.188979 0.059698 0.032534 -0.190231 -0.660021
    28 1.030456 -0.163447 0.036197 0.060231 -0.215917 -0.894744
    29 0.038119 -0.319809 -0.031051 0.239607 3.240698 1.548022
    30 -9.126508 -7.934467 -1.098973 0.034027 -3.353654 0.180724
    31 0.042255 -8.477763 0.033605 0.158794 -0.544486 -0.027115
    32 0.447953 -2.798986 -0.200443 -0.591499 -0.166028 0.282783
    33 -0.032909 -1.499736 0.032285 -1.543149 0.023226 -0.030810
    34 -0.027022 -1.147235 -0.004585 -1.891924 0.022100 -0.040628
    35 -0.249534 -2.846964 -0.174213 -0.474492 -0.106872 0.167046
    36 0.043235 -1.656596 0.060855 -1.694274 -0.024286 0.012441
    37 0.031729 -1.137392 0.051025 -1.409762 -0.015693 0.008036
    38 -0.963866 -2.785145 -0.085350 0.220800 -0.052068 0.031790
    39 0.028479 -1.414786 -0.028886 -1.380793 -0.043468 -0.038578
    40 0.021413 -0.946062 0.016140 -0.830568 -0.020050 -0.030693
    41 1.164475 -2.543940 -0.170330 -0.406342 -0.267008 0.130158
    42 0.024032 -1.136855 -0.001725 -0.842860 0.005944 0.044680
    43 0.014898 -0.907427 -0.004223 -1.592321 0.035151 0.069595
    44 -0.586770 -1.264477 0.200161 -0.899652 -0.755362 -2.163665
    45 1.554086 0.039149 0.016848 -0.012564 -0.004917 0.660925
    46 1.114041 0.044518 -0.005766 -0.026909 -0.034630 0.977021
    47 -0.002676 -0.502335 -0.044199 0.290560 0.059641 1.643449
    48 -4.846700 7.386008 -0.337092 1.581283 -0.017162 -1.107945
  time 15
    0 -6.980682 -8.809076 -2.730552 -0.670597 -0.037710 -1.559853
    1 2.999629 0.000000 1.353194 0.000000 0.000000 1.570798
    2 3.639548 0.000000 3.113282 0.000000 0.000000 1.570798
    3 1.757773 0.000000 1.206649 0.000000 0.000000 1.570798
    4 -1.663432 -0.346000 1.941449 0.000000 0.000000 6.283181
    5 6.515824 -8.765679 -2.781335 0.692536 -0.041558 -1.573481
    6 2.999629 0.000000 1.353194 0.000000 0.000000 1.570798
    7 3.639548 0.000000 3.113282 0.000000 0.000000 1.570798
    8 -1.663432 0.346269 1.941449 0.000000 0.000000 0.000093
    9 1.757773 0.000000 1.206649 0.000000 0.000000 1.570798
    10 -0.002752 8.717751 -1.784592 0.000000 0.000000 0.000000
    11 8.997594 -7.936413 -1.272458 0.040573 -2.867288 -0.185979
    12 4.745568 7.297696 -0.227934 1.565950 -3.135569 1.105787
    13 -0.009419 -8.471392 -0.076789 0.044445 0.576854 -0.014098
    14 -0.488518 -2.755602 -0.228260 -0.628055 0.178044 -0.279794
    15 0.039887 -1.534479 0.014229 -1.534455 -0.011601 0.034253
    16 0.032692 -1.290581 -0.105143 -2.023028 -0.004950 0.045242
    17 0.250027 -2.820665 -0.238396 -0.493950 0.112670 -0.166961
    18 -0.049759 -1.594604 0.030164 -1.572272 -0.000048 -0.042056
    19 -0.034142 -1.187376 0.041812 -1.520227 0.001378 -0.039669
    20 0.957766 -2.746780 -0.090302 0.240659 0.050677 0.002052
    21 -0.033420 -1.397129 -0.034695 -1.356754 -0.006376 -0.063639
    22 -0.022360 -0.957436 -0.000748 -0.800152 0.006663 -0.038962
    23 -1.180681 -2.507217 -0.193859 -0.402462 0.269656 -0.114033
    24 -0.024967 -1.123934 0.017597 -0.785370 0.006759 -0.033484
    25 -0.020057 -0.902687 0.053060 -1.721015 -0.015304 -0.065604
    26 0.622574 -1.185558 0.177566 0.913191 -0.879626 -0.949661
    27 1.496863 -0.188979 0.059698 0.032534 -0.190231 -0.660021
    28 1.030456 -0.163447 0.036197 0.060231 -0.215917 -0.894744
    29 0.038119 -0.319809 -0.031051 0.239607 3.240698 1.548022
    30 -9.021036 -7.918842 -1.403670 0.036232 -3.463174 0.175401
    31 0.046161 -8.481669 0.029699 0.169894 -0.526652 -0.047374
    32 0.447953 -2.798986 -0.200443 -0.547497 -0.156848 0.283263
    33 -0.032909 -1.499736 0.032285 -1.572421 0.023130 -0.031637
    34 -0.027022 -1.143328 -0.004585 -1.830567 0.022807 -0.039034
    35 -0.249534 -2.846964 -0.174213 -0.447409 -0.100088 0.179954
    36 0.043235 -1.656596 0.060855 -1.722485 -0.024442 0.012980
    37 0.031729 -1.137392 0.051025 -1.368856 -0.015274 0.007713
    38 -0.963866 -2.785145 -0.085350 0.213526 -0.050319 0.042174
    39 0.028479 -1.410880 -0.028886 -1.311166 -0.040328 -0.038375
    40 0.021413 -0.942156 0.016140 -0.840056 -0.020410 -0.030920
    41 1.164475 -2.543940 -0.170330 -0.398890 -0.270939 0.139314
    42 0.024032 -1.136855 -0.001725 -0.873747 0.006867 0.046154
    43 0.014898 -0.907427 -0.004223 -1.586911 0.034863 0.069499
    44 -0.586770 -1.264477 0.200161 -0.848651 -0.758773 -2.176187
    45 1.554086 0.035243 0.016848 -0.013391 -0.005277 0.692929
    46 1.114041 0.044518 -0.005766 -0.026525 -0.034678 0.964848
    47 -0.002676 -0.502335 -0.044199 0.290560 0.059641 1.643449
    48 -4.784199 7.432884 -0.333186 1.581283 -0.016875 -1.117373
  time 16
    0 -6.922086 -8.801263 -2.992279 -0.567772 -0.037991 -1.559758
    1 2.999629 0.000000 1.353194 0.000000 0.000000 1.570798
    2 3.639548 0.000000 3.113282 0.000000 0.000000 1.570798
    3 1.757773 0.000000 1.206649 0.000000 0.000000 1.570798
    4 -1.663432 -0.346000 1.941449 0.000000 0.000000 6.283181
    5 6.383007 -8.742241 -3.121189 0.572062 -0.035143 -1.568448
    6 2.999629 0.000000 1.353194 0.000000 0.000000 1.570798
    7 3.639548 0.000000 3.113282 0.000000 0.000000 1.570798
    8 -1.663432 0.346269 1.941449 0.000000 0.000000 0.000093
    9 1.757773 0.000000 1.206649 0.000000 0.000000 1.570798
    10 -0.002752 8.717751 -1.784592 0.000000 0.000000 0.000000
    11 8.864777 -7.905162 -1.694346 0.038276 -2.746274 -0.189833
    12 4.776819 7.274258 -0.227934 1.565950 -3.135473 1.100843
    13 -0.009419 -8.479205 -0.076789 0.067086 0.575521 -0.000348
    14 -0.488518 -2.755602 -0.228260 -0.628055 0.178044 -0.279794
    15 0.039887 -1.534479 0.014229 -1.534455 -0.011601 0.034253
    16 0.032692 -1.290581 -0.105143 -2.023028 -0.004950 0.045242
    17 0.250027 -2.820665 -0.238396 -0.493950 0.112670 -0.166961
    18 -0.049759 -1.594604 0.030164 -1.572272 -0.000048 -0.042056
    19 -0.034142 -1.187376 0.041812 -1.520227 0.001378 -0.039669
    20 0.957766 -2.746780 -0.090302 0.229091 0.051109 0.001650
    21 -0.033420 -1.397129 -0.034695 -1.282568 -0.003823 -0.060895
    22 -0.022360 -0.957436 -0.000748 -0.786154 0.006819 -0.038279
    23 -1.180681 -2.507217 -0.193859 -0.402462 0.269656 -0.114033
    24 -0.024967 -1.123934 0.017597 -0.785370 0.006759 -0.033484
    25 -0.020057 -0.902687 0.053060 -1.721015 -0.015304 -0.065604
    26 0.622574 -1.185558 0.177566 0.913191 -0.879626 -0.949661
    27 1.496863 -0.188979 0.059698 0.032534 -0.190231 -0.660021
    28 1.030456 -0.163447 0.036197 0.060231 -0.215917 -0.894744
    29 0.038119 -0.319809 -0.031051 0.239607 3.240698 1.548022
    30 -8.856968 -7.899310 -1.720086 0.036807 -3.584431 0.169508
    31 0.053974 -8.485576 0.029699 0.181583 -0.506719 -0.069255
    32 0.447953 -2.798986 -0.200443 -0.498823 -0.146709 0.284257
    33 -0.032909 -1.499736 0.032285 -1.604808 0.022998 -0.032548
    34 -0.027022 -1.143328 -0.008491 -1.762606 0.023478 -0.037212
    35 -0.249534 -2.846964 -0.174213 -0.417346 -0.092982 0.194443
    36 0.043235 -1.656596 0.056948 -1.753693 -0.024586 0.013579
    37 0.031729 -1.141298 0.054932 -1.323579 -0.014794 0.007389
    38 -0.963866 -2.785145 -0.085350 0.205471 -0.048281 0.053664
    39 0.028479 -1.410880 -0.024980 -1.234161 -0.036877 -0.037907
    40 0.021413 -0.942156 0.016140 -0.850529 -0.020817 -0.031184
    41 1.164475 -2.543940 -0.170330 -0.390682 -0.275361 0.149441
    42 0.024032 -1.136855 -0.001725 -0.907899 0.007934 0.047748
    43 0.014898 -0.907427 -0.004223 -1.580913 0.034540 0.069379
    44 -0.586770 -1.264477 0.200161 -0.791930 -0.761987 -2.190330
    45 1.557992 0.035243 0.016848 -0.014326 -0.005648 0.728361
    46 1.114041 0.044518 -0.005766 -0.026094 -0.034714 0.951433
    47 -0.002676 -0.502335 -0.044199 0.290560 0.059641 1.643449
    48 -4.713884 7.479761 -0.333186 1.581379 -0.016589 -1.127753
  time 17
    0 -6.812708 -8.789544 -3.273537 -0.458764 -0.038084 -1.561192
    1 2.999629 0.000000 1.353194 0.000000 0.000000 1.570798
    2 3.639548 0.000000 3.113282 0.000000 0.000000 1.570798
    3 1.757773 0.000000 1.206649 0.000000 0.000000 1.570798
    4 -1.663432 -0.346000 1.941449 0.000000 0.000000 6.283181
    5 6.047060 -8.656301 -3.570421 0.311381 -0.016374 -1.572828
    6 2.999629 0.000000 1.353194 0.000000 0.000000 1.570798
    7 3.639548 0.000000 3.113282 0.000000 0.000000 1.570798
    8 -1.663432 0.346269 1.941449 0.000000 0.000000 0.000093
    9 1.757773 0.000000 1.206649 0.000000 0.000000 1.570798
    10 -0.002752 8.717751 -1.784592 0.000000 0.000000 0.000000
    11 8.446796 -7.815316 -2.459994 0.056267 -2.483855 -0.204028
    12 4.862759 7.211756 -0.231840 1.565854 -3.135186 1.087722
    13 -0.009419 -8.483111 -0.076789 0.080920 0.572855 0.021071
    14 -0.488518 -2.755602 -0.228260 -0.628055 0.178044 -0.279794
    15 0.039887 -1.534479 0.014229 -1.534455 -0.011601 0.034253
    16 0.032692 -1.290581 -0.105143 -2.023028 -0.004950 0.045242
    17 0.250027 -2.820665 -0.238396 -0.493950 0.112670 -0.166961
    18 -0.049759 -1.594604 0.030164 -1.572272 -0.000048 -0.042056
    19 -0.034142 -1.187376 0.041812 -1.520227 0.001378 -0.039669
    20 0.957766 -2.746780 -0.090302 0.203571 0.052031 0.000751
    21 -0.033420 -1.397129 -0.030789 -1.118857 0.001031 -0.054207
    22 -0.022360 -0.957436 -0.000748 -0.755297 0.007131 -0.036745
    23 -1.180681 -2.507217 -0.193859 -0.402462 0.269656 -0.114033
    24 -0.024967 -1.123934 0.017597 -0.785370 0.006759 -0.033484
    25 -0.020057 -0.902687 0.053060 -1.721015 -0.015304 -0.065604
    26 0.622574 -1.185558 0.177566 0.913191 -0.879626 -0.949661
    27 1.496863 -0.188979 0.059698 0.032534 -0.190231 -0.660021
    28 1.030456 -0.163447 0.036197 0.060231 -0.215917 -0.894744
    29 0.038119 -0.319809 -0.031051 0.239607 3.240698 1.548022
    30 -8.638212 -7.868059 -2.036502 0.035178 -3.713174 0.162855
    31 0.057880 -8.489482 0.025792 0.193271 -0.485309 -0.091970
    32 0.447953 -2.798986 -0.200443 -0.447263 -0.136042 0.285863
    33 -0.032909 -1.499736 0.036191 -1.639134 0.022819 -0.033519
    34 -0.027022 -1.143328 -0.012397 -1.690503 0.024053 -0.035247
    35 -0.249534 -2.846964 -0.174213 -0.385367 -0.085935 0.210023
    36 0.043235 -1.656596 0.056948 -1.786835 -0.024718 0.014215
    37 0.031729 -1.141298 0.054932 -1.275574 -0.014267 0.007066
    38 -0.963866 -2.785145 -0.085350 0.196977 -0.046028 0.065821
    39 0.028479 -1.406973 -0.024980 -1.152487 -0.033257 -0.037104
    40 0.021413 -0.942156 0.016140 -0.861659 -0.021249 -0.031448
    41 1.164475 -2.543940 -0.170330 -0.381998 -0.280143 0.160144
    42 0.024032 -1.140761 -0.005631 -0.944084 0.009132 0.049389
    43 0.014898 -0.907427 -0.004223 -1.574540 0.034204 0.069259
    44 -0.586770 -1.264477 0.200161 -0.731535 -0.764786 -2.205604
    45 1.557992 0.035243 0.016848 -0.015332 -0.006008 0.765934
    46 1.114041 0.044518 -0.005766 -0.025638 -0.034750 0.937160
    47 -0.002676 -0.502335 -0.044199 0.290560 0.059641 1.643449
    48 -4.639663 7.530543 -0.329279 1.581379 -0.016302 -1.138799
  time 18
    0 -6.648640 -8.766106 -3.554796 -0.347474 -0.037523 -1.564349
    1 2.999629 0.000000 1.353194 0.000000 0.000000 1.570798
    2 3.639548 0.000000 3.113282 0.000000 0.000000 1.570798
    3 1.757773 0.000000 1.206649 0.000000 0.000000 1.570798
    4 -1.663432 -0.346000 1.941449 0.000000 0.000000 6.283181
    5 5.664235 -8.562548 -3.855586 0.058726 -0.003256 -1.577675
    6 2.999629 0.000000 1.353194 0.000000 0.000000 1.570798
    7 3.639548 0.000000 3.113282 0.000000 0.000000 1.570798
    8 -1.663432 0.346269 1.941449 0.000000 0.000000 0.000093
    9 1.757773 0.000000 1.206649 0.000000 0.000000 1.570798
    10 -0.002752 8.717751 -1.784592 0.000000 0.000000 0.000000
    11 7.880372 -7.709844 -3.057669 0.091771 -2.230731 -0.231101
    12 4.948699 7.145348 -0.231840 1.565758 -3.134994 1.074602
    13 -0.009419 -8.483111 -0.076789 0.089349 0.570292 0.040574
    14 -0.488518 -2.755602 -0.228260 -0.628055 0.178044 -0.279794
    15 0.039887 -1.534479 0.014229 -1.534455 -0.011601 0.034253
    16 0.032692 -1.290581 -0.105143 -2.023028 -0.004950 0.045242
    17 0.250027 -2.820665 -0.238396 -0.493950 0.112670 -0.166961
    18 -0.049759 -1.594604 0.030164 -1.572272 -0.000048 -0.042056
    19 -0.034142 -1.187376 0.041812 -1.520227 0.001378 -0.039669
    20 0.957766 -2.746780 -0.090302 0.178820 0.052906 -0.000137
    21 -0.033420 -1.397129 -0.026882 -0.960156 0.004638 -0.047064
    22 -0.022360 -0.957436 -0.000748 -0.725383 0.007394 -0.035259
    23 -1.180681 -2.507217 -0.193859 -0.402462 0.269656 -0.114033
    24 -0.024967 -1.123934 0.017597 -0.785370 0.006759 -0.033484
    25 -0.020057 -0.902687 0.053060 -1.721015 -0.015304 -0.065604
    26 0.622574 -1.185558 0.177566 0.913191 -0.879626 -0.949661
    27 1.496863 -0.188979 0.059698 0.032534 -0.190231 -0.660021
    28 1.030456 -0.163447 0.036197 0.060231 -0.215917 -0.894744
    29 0.038119 -0.319809 -0.031051 0.239607 3.240698 1.548022
    30 -8.364766 -7.828995 -2.325573 0.030577 -3.844690 0.155061
    31 0.061787 -8.493389 0.021886 0.204555 -0.463161 -0.114640
    32 0.447953 -2.798986 -0.200443 -0.394603 -0.125220 0.288068
    33 -0.032909 -1.499736 0.036191 -1.674284 0.022615 -0.034490
    34 -0.027022 -1.139422 -0.012397 -1.616779 0.024485 -0.033185
    35 -0.249534 -2.846964 -0.174213 -0.352576 -0.079235 0.226178
    36 0.043235 -1.656596 0.056948 -1.820726 -0.024825 0.014874
    37 0.031729 -1.141298 0.054932 -1.226444 -0.013704 0.006754
    38 -0.963866 -2.785145 -0.085350 0.188337 -0.043619 0.078229
    39 0.028479 -1.406973 -0.021074 -1.068969 -0.029650 -0.036002
    40 0.021413 -0.942156 0.016140 -0.873051 -0.021692 -0.031711
    41 1.164475 -2.543940 -0.170330 -0.373174 -0.285128 0.171062
    42 0.024032 -1.140761 -0.005631 -0.981120 0.010415 0.051031
    43 0.014898 -0.907427 -0.004223 -1.568006 0.033868 0.069127
    44 -0.586770 -1.264477 0.200161 -0.669569 -0.766928 -2.221482
    45 1.561899 0.035243 0.016848 -0.016375 -0.006343 0.804364
    46 1.114041 0.044518 -0.005766 -0.025171 -0.034786 0.922545
    47 -0.002676 -0.502335 -0.044199 0.290560 0.059641 1.643449
    48 -4.561535 7.585233 -0.329279 1.581475 -0.016015 -1.150036
  time 19
    0 -6.437696 -8.730949 -3.816523 -0.237515 -0.036119 -1.568844
    1 2.999629 0.000000 1.353194 0.000000 0.000000 1.570798
    2 3.639548 0.000000 3.113282 0.000000 0.000000 1.570798
    3 1.757773 0.000000 1.206649 0.000000 0.000000 1.570798
    4 -1.663432 -0.346000 1.941449 0.000000 0.000000 6.283181
    5 5.609546 -8.550829 -3.882931 0.026625 -0.001915 -1.577861
    6 2.999629 0.000000 1.353194 0.000000 0.000000 1.570798
    7 3.639548 0.000000 3.113282 0.000000 0.000000 1.570798
    8 -1.663432 0.346269 1.941449 0.000000 0.000000 0.000093
    9 1.757773 0.000000 1.206649 0.000000 0.000000 1.570798
    10 -0.002752 8.717751 -1.784592 0.000000 0.000000 0.000000
    11 7.798339 -7.694218 -3.124077 0.097992 -2.198581 -0.236177
    12 4.960418 7.137535 -0.231840 1.565758 -3.134898 1.072986
    13 -0.009419 -8.483111 -0.076789 0.090700 0.569933 0.043099
    14 -0.488518 -2.755602 -0.228260 -0.628055 0.178044 -0.279794
    15 0.039887 -1.534479 0.014229 -1.534455 -0.011601 0.034253
    16 0.032692 -1.290581 -0.105143 -2.023028 -0.004950 0.045242
    17 0.250027 -2.820665 -0.238396 -0.493950 0.112670 -0.166961
    18 -0.049759 -1.594604 0.030164 -1.572272 -0.000048 -0.042056
    19 -0.034142 -1.187376 0.041812 -1.520227 0.001378 -0.039669
    20 0.957766 -2.746780 -0.090302 0.175693 0.053014 -0.000258
    21 -0.033420 -1.397129 -0.026882 -0.939961 0.005022 -0.046118
    22 -0.022360 -0.957436 -0.000748 -0.721579 0.007430 -0.035067
    23 -1.180681 -2.507217 -0.193859 -0.402462 0.269656 -0.114033
    24 -0.024967 -1.123934 0.017597 -0.785370 0.006759 -0.033484
    25 -0.020057 -0.902687 0.053060 -1.721015 -0.015304 -0.065604
    26 0.622574 -1.185558 0.177566 0.913191 -0.879626 -0.949661
    27 1.496863 -0.188979 0.059698 0.032534 -0.190231 -0.660021
    28 1.030456 -0.163447 0.036197 0.060231 -0.215917 -0.894744
    29 0.038119 -0.319809 -0.031051 0.239607 3.240698 1.548022
    30 -8.052256 -7.782119 -2.571674 0.022525 -3.974820 0.145271
    31 0.069599 -8.501201 0.021886 0.215031 -0.441091 -0.136566
    32 0.447953 -2.798986 -0.200443 -0.342584 -0.114650 0.290801
    33 -0.032909 -1.499736 0.036191 -1.709022 0.022375 -0.035448
    34 -0.027022 -1.139422 -0.016304 -1.543895 0.024772 -0.031136
    35 -0.249534 -2.846964 -0.174213 -0.320055 -0.073135 0.242358
    36 0.043235 -1.656596 0.056948 -1.854243 -0.024909 0.015533
    37 0.031729 -1.141298 0.054932 -1.177877 -0.013140 0.006478
    38 -0.963866 -2.785145 -0.085350 0.179794 -0.041126 0.090486
    39 0.028479 -1.403067 -0.021074 -0.986373 -0.026186 -0.034611
    40 0.021413 -0.942156 0.016140 -0.884312 -0.022124 -0.031963
    41 1.164475 -2.543940 -0.170330 -0.364489 -0.290150 0.181824
    42 0.024032 -1.140761 -0.005631 -1.017779 0.011745 0.052613
    43 0.014898 -0.907427 -0.004223 -1.561579 0.033521 0.068995
    44 -0.586770 -1.264477 0.200161 -0.608167 -0.768349 -2.237398
    45 1.565805 0.035243 0.016848 -0.017418 -0.006619 0.842397
    46 1.114041 0.044518 -0.005766 -0.024704 -0.034810 0.908144
    47 -0.002676 -0.502335 -0.044199 0.290560 0.059641 1.643449
    48 -4.483408 7.636015 -0.325373 1.581475 -0.015728 -1.161178
  time 20
    0 -6.191595 -8.695791 -4.046999 -0.132788 -0.033499 -1.574296
    1 2.999629 0.000000 1.353194 0.000000 0.000000 1.570798
    2 3.639548 0.000000 3.113282 0.000000 0.000000 1.570798
    3 1.757773 0.000000 1.206649 0.000000 0.000000 1.570798
    4 -1.663432 -0.346000 1.941449 0.000000 0.000000 6.283181
    5 5.664235 -8.562548 -3.855586 0.058726 -0.003256 -1.577675
    6 2.999629 0.000000 1.353194 0.000000 0.000000 1.570798
    7 3.639548 0.000000 3.113282 0.000000 0.000000 1.570798
    8 -1.663432 0.346269 1.941449 0.000000 0.000000 0.000093
    9 1.757773 0.000000 1.206649 0.000000 0.000000 1.570798
    10 -0.002752 8.717751 -1.784592 0.000000 0.000000 0.000000
    11 7.880372 -7.709844 -3.057669 0.091771 -2.230731 -0.231101
    12 4.948699 7.145348 -0.231840 1.565758 -3.134994 1.074602
    13 -0.009419 -8.483111 -0.076789 0.089349 0.570292 0.040574
    14 -0.488518 -2.755602 -0.228260 -0.628055 0.178044 -0.279794
    15 0.039887 -1.534479 0.014229 -1.534455 -0.011601 0.034253
    16 0.032692 -1.290581 -0.105143 -2.023028 -0.004950 0.045242
    17 0.250027 -2.820665 -0.238396 -0.493950 0.112670 -0.166961
    18 -0.049759 -1.594604 0.030164 -1.572272 -0.000048 -0.042056
    19 -0.034142 -1.187376 0.041812 -1.520227 0.001378 -0.039669
    20 0.957766 -2.746780 -0.090302 0.178820 0.052906 -0.000137
    21 -0.033420 -1.397129 -0.026882 -0.960156 0.004638 -0.047064
    22 -0.022360 -0.957436 -0.000748 -0.725383 0.007394 -0.035259
    23 -1.180681 -2.507217 -0.193859 -0.402462 0.269656 -0.114033
    24 -0.024967 -1.123934 0.017597 -0.785370 0.006759 -0.033484
    25 -0.020057 -0.902687 0.053060 -1.721015 -0.015304 -0.065604
    26 0.622574 -1.185558 0.177566 0.913191 -0.879626 -0.949661
    27 1.496863 -0.188979 0.059698 0.032534 -0.190231 -0.660021
    28 1.030456 -0.163447 0.036197 0.060231 -0.215917 -0.894744
    29 0.038119 -0.319809 -0.031051 0.239607 3.240698 1.548022
    30 -7.720215 -7.731336 -2.766993 0.009968 -4.098942 0.132534
    31 0.073506 -8.505108 0.017980 0.224477 -0.419798 -0.157000
    32 0.447953 -2.798986 -0.200443 -0.292925 -0.104703 0.293929
    33 -0.032909 -1.499736 0.036191 -1.742232 0.022112 -0.036359
    34 -0.027022 -1.135516 -0.020210 -1.474313 0.024904 -0.029159
    35 -0.249534 -2.846964 -0.174213 -0.288930 -0.067802 0.257974
    36 0.043235 -1.656596 0.053042 -1.886261 -0.024981 0.016168
    37 0.031729 -1.141298 0.054932 -1.131517 -0.012589 0.006239
    38 -0.963866 -2.785145 -0.085350 0.171666 -0.038646 0.102165
    39 0.028479 -1.403067 -0.017167 -0.907524 -0.022986 -0.033018
    40 0.021413 -0.942156 0.012233 -0.895047 -0.022555 -0.032203
    41 1.164475 -2.543940 -0.170330 -0.356253 -0.295016 0.192082
    42 0.024032 -1.140761 -0.005631 -1.052734 0.013075 0.054063
    43 0.014898 -0.907427 -0.004223 -1.555420 0.033197 0.068875
    44 -0.586770 -1.264477 0.200161 -0.549431 -0.769049 -2.252673
    45 1.565805 0.035243 0.016848 -0.018424 -0.006859 0.878685
    46 1.114041 0.044518 -0.005766 -0.024260 -0.034822 0.894343
    47 -0.002676 -0.502335 -0.044199 0.290560 0.059641 1.643449
    48 -4.409187 7.682892 -0.325373 1.581475 -0.015442 -1.171843
end
