version 1
nodes
  0 "uzi_root_l" -1
  1 "triger01" 0
  2 "reloader01" 0
  3 "megazine01" 0
  4 "Hb01" 0
  5 "uzi_root_r" -1
  6 "triger" 5
  7 "reloader" 5
  8 "Hb" 5
  9 "megazine" 5
  10 "root" -1
  11 "Bone01" 10
  12 "Bone_L_Upper" 11
  13 "Bone_Lefthand" 11
  14 "Bone13" 13
  15 "Bone14" 14
  16 "Bone15" 15
  17 "Bone17" 13
  18 "Bone18" 17
  19 "Bone19" 18
  20 "Bone21" 13
  21 "Bone22" 20
  22 "Bone23" 21
  23 "Bone09" 13
  24 "Bone10" 23
  25 "Bone11" 24
  26 "Bone05" 13
  27 "Bone06" 26
  28 "Bone07" 27
  29 "Bone_Se_Hand-L" 13
  30 "Bone04" 10
  31 "Bone_Righthand" 30
  32 "Bone39" 31
  33 "Bone40" 32
  34 "Bone41" 33
  35 "Bone35" 31
  36 "Bone36" 35
  37 "Bone37" 36
  38 "Bone31" 31
  39 "Bone32" 38
  40 "Bone33" 39
  41 "Bone43" 31
  42 "Bone44" 41
  43 "Bone45" 42
  44 "Bone27" 31
  45 "Bone28" 44
  46 "Bone29" 45
  47 "Bone_Se_Hand-R" 31
  48 "Bone_R_Upper" 30
end
skeleton
  time 0
    0 -6.988495 -8.805170 -2.304758 -0.842765 -0.037710 -1.563392
    1 2.999629 0.000000 1.353194 0.000000 0.000000 1.570798
    2 3.639548 0.000000 3.113282 0.000000 0.000000 1.570798
    3 1.757773 0.000000 1.206649 0.000000 0.000000 1.570798
    4 -1.663432 -0.346000 1.941449 0.000000 0.000000 6.283181
    5 6.492386 -8.765679 -2.484451 0.878534 -0.040218 -1.583826
    6 2.999629 0.000000 1.353194 0.000000 0.000000 1.570798
    7 3.639548 0.000000 3.113282 0.000000 0.000000 1.570798
    8 -1.663432 0.346269 1.941449 0.000000 0.000000 0.000093
    9 1.757773 0.000000 1.206649 0.000000 0.000000 1.570798
    10 -0.002752 8.717751 -1.784592 0.000000 0.000000 0.000000
    11 9.079628 -7.948132 -0.889634 0.051769 -2.961936 -0.183347
    12 4.729942 7.313322 -0.227934 1.565950 -3.135665 1.108259
    13 -0.009419 -8.467485 -0.076789 0.007646 0.577777 -0.029438
    14 -0.488518 -2.755602 -0.228260 -0.628055 0.178044 -0.279794
    15 0.039887 -1.534479 0.014229 -1.534455 -0.011601 0.034253
    16 0.032692 -1.290581 -0.105143 -2.023028 -0.004950 0.045242
    17 0.250027 -2.820665 -0.238396 -0.493950 0.112670 -0.166961
    18 -0.049759 -1.594604 0.030164 -1.572272 -0.000048 -0.042068
    19 -0.034142 -1.187376 0.041812 -1.520227 0.001378 -0.039669
    20 0.957766 -2.746780 -0.090302 0.249497 0.050354 0.002343
    21 -0.033420 -1.397129 -0.034695 -1.413353 -0.008461 -0.065605
    22 -0.022360 -0.957436 -0.000748 -0.810803 0.006532 -0.039489
    23 -1.180681 -2.507217 -0.193859 -0.402462 0.269656 -0.114033
    24 -0.024967 -1.123934 0.017597 -0.785370 0.006759 -0.033484
    25 -0.020057 -0.902687 0.053060 -1.721015 -0.015304 -0.065604
    26 0.622574 -1.185558 0.177566 0.913191 -0.879626 -0.949661
    27 1.496863 -0.188979 0.059698 0.032534 -0.190231 -0.660021
    28 1.030456 -0.163447 0.036197 0.060231 -0.215917 -0.894744
    29 0.038119 -0.319809 -0.031051 0.239607 3.240698 1.548022
    30 -9.189010 -7.942280 -0.833340 0.030960 -3.260308 0.185382
    31 0.038348 -8.473857 0.033605 0.148869 -0.559563 -0.009443
    32 0.447953 -2.798986 -0.200443 -0.629087 -0.173866 0.282699
    33 -0.032909 -1.499736 0.032285 -1.518168 0.023286 -0.030103
    34 -0.027022 -1.147235 -0.000678 -1.944275 0.021416 -0.041946
    35 -0.249534 -2.846964 -0.174213 -0.497534 -0.112936 0.156176
    36 0.043235 -1.656596 0.060855 -1.670182 -0.024154 0.011985
    37 0.031729 -1.137392 0.051025 -1.444651 -0.016041 0.008312
    38 -0.963866 -2.785145 -0.085350 0.227024 -0.053507 0.022927
    39 0.028479 -1.414786 -0.028886 -1.440103 -0.046153 -0.038578
    40 0.021413 -0.946062 0.016140 -0.822459 -0.019751 -0.030489
    41 1.164475 -2.543940 -0.170330 -0.412729 -0.263712 0.122332
    42 0.024032 -1.136855 -0.001725 -0.816561 0.005189 0.043409
    43 0.014898 -0.907427 -0.004223 -1.596927 0.035390 0.069678
    44 -0.586770 -1.264477 0.200161 -0.942977 -0.752082 -2.153256
    45 1.554086 0.039149 0.016848 -0.011857 -0.004582 0.633632
    46 1.114041 0.044518 -0.005766 -0.027244 -0.034594 0.987350
    47 -0.002676 -0.502335 -0.044199 0.290560 0.059641 1.643449
    48 -4.897483 7.346944 -0.337092 1.581187 -0.017353 -1.099946
  time 1
    0 -6.988495 -8.805170 -2.304758 -0.842765 -0.037710 -1.563392
    1 2.999629 0.000000 1.353194 0.000000 0.000000 1.570798
    2 3.639548 0.000000 3.113282 0.000000 0.000000 1.570798
    3 1.757773 0.000000 1.206649 0.000000 0.000000 1.570798
    4 -1.663432 -0.346000 1.941449 0.000000 0.000000 6.283181
    5 6.675985 -7.222663 -2.293039 1.024122 -0.064540 -1.619895
    6 2.999629 0.000000 1.353194 0.643690 0.000000 1.570798
    7 2.510607 0.000000 3.113282 0.000000 0.000000 1.570798
    8 -1.663432 0.346269 1.941449 0.000000 0.000000 0.000093
    9 1.757773 0.000000 1.206649 0.000000 0.000000 1.570798
    10 -0.002752 8.717751 -1.784592 0.000000 0.000000 0.000000
    11 9.919497 -6.885600 -2.182642 0.274938 -2.667558 -0.409991
    12 7.241738 4.328856 -0.309968 1.565375 -3.125407 0.624891
    13 -0.091453 -8.416703 -0.139291 -0.113720 0.098816 -0.192986
    14 -0.488518 -2.755602 -0.228260 -0.322686 0.142390 -0.222184
    15 0.039887 -1.530573 0.014229 -1.429120 -0.012596 0.031604
    16 0.028786 -1.204641 -0.132487 -1.347251 -0.014489 0.030225
    17 0.250027 -2.820665 -0.238396 -0.035417 0.071755 -0.133297
    18 -0.049759 -1.594604 0.030164 -1.572272 -0.000048 -0.042056
    19 -0.034142 -1.167844 0.049625 -1.114535 0.007083 -0.029266
    20 0.957766 -2.746780 -0.090302 0.178820 0.052906 -0.000137
    21 -0.033420 -1.397129 -0.034695 -1.374240 -0.007011 -0.064262
    22 -0.022360 -0.957436 -0.000748 -0.799544 0.006675 -0.038938
    23 -1.180681 -2.507217 -0.193859 -0.315906 0.221802 -0.059901
    24 -0.024967 -1.123934 0.017597 -0.785370 0.006759 -0.033484
    25 -0.020057 -0.906594 0.033528 -1.043730 0.004698 -0.042809
    26 0.606948 -1.193371 0.181473 0.558160 -0.850531 -0.715709
    27 1.485144 -0.204604 0.063605 0.041559 -0.204409 -0.721327
    28 1.003112 -0.182979 0.044010 0.091906 -0.246178 -1.056612
    29 0.038119 -0.319809 -0.031051 0.239607 3.240698 1.548022
    30 -9.189010 -7.942280 -0.833340 0.030960 -3.260308 0.185382
    31 0.038348 -8.473857 0.033605 0.148869 -0.559563 -0.009443
    32 0.447953 -2.798986 -0.200443 -0.629087 -0.173866 0.282699
    33 -0.032909 -1.499736 0.032285 -1.518168 0.023286 -0.030103
    34 -0.027022 -1.147235 -0.000678 -1.944275 0.021416 -0.041946
    35 -0.249534 -2.846964 -0.174213 -0.497534 -0.112936 0.156176
    36 0.043235 -1.656596 0.060855 -1.670182 -0.024154 0.011985
    37 0.031729 -1.137392 0.051025 -1.444651 -0.016041 0.008312
    38 -0.963866 -2.785145 -0.085350 0.227024 -0.053507 0.022927
    39 0.028479 -1.414786 -0.028886 -1.440103 -0.046153 -0.038578
    40 0.021413 -0.946062 0.016140 -0.822459 -0.019751 -0.030489
    41 1.164475 -2.543940 -0.170330 -0.412729 -0.263712 0.122332
    42 0.024032 -1.136855 -0.001725 -0.816561 0.005189 0.043409
    43 0.014898 -0.907427 -0.004223 -1.596927 0.035390 0.069678
    44 -0.586770 -1.264477 0.200161 -0.942977 -0.752082 -2.153256
    45 1.554086 0.039149 0.016848 -0.011857 -0.004582 0.633632
    46 1.114041 0.044518 -0.005766 -0.027244 -0.034594 0.987350
    47 -0.002676 -0.502335 -0.044199 0.290560 0.059641 1.643449
    48 -4.897483 7.346944 -0.337092 1.581187 -0.017353 -1.099946
  time 2
    0 -6.988495 -8.805170 -2.304758 -0.842765 -0.037710 -1.563392
    1 2.999629 0.000000 1.353194 0.000000 0.000000 1.570798
    2 3.639548 0.000000 3.113282 0.000000 0.000000 1.570798
    3 1.757773 0.000000 1.206649 0.000000 0.000000 1.570798
    4 -1.663432 -0.346000 1.941449 0.000000 0.000000 6.283181
    5 6.769738 -7.246101 -2.304758 0.972666 -0.097672 -1.605449
    6 2.999629 0.000000 1.353194 0.657093 0.000000 1.570798
    7 3.077031 0.000000 3.113282 0.000000 0.000000 1.570798
    8 -1.663432 0.346269 1.941449 0.000000 0.000000 0.000093
    9 1.757773 0.000000 1.206649 0.000000 0.000000 1.570798
    10 -0.002752 8.717751 -1.784592 0.000000 0.000000 0.000000
    11 9.521047 -6.897319 -2.749066 0.381834 -2.493813 -0.465078
    12 7.241738 4.324949 -0.309968 1.565375 -3.125407 0.624606
    13 -0.110985 -8.416703 -0.166636 -0.115719 -0.035356 -0.175635
    14 -0.488518 -2.755602 -0.228260 -0.289004 0.137405 -0.216552
    15 0.039887 -1.526666 0.014229 -1.417452 -0.012692 0.031305
    16 0.028786 -1.192922 -0.132487 -1.272119 -0.014861 0.028248
    17 0.250027 -2.820665 -0.238396 0.015343 0.066374 -0.130808
    18 -0.049759 -1.594604 0.030164 -1.572272 -0.000048 -0.042056
    19 -0.034142 -1.167844 0.049625 -1.069453 0.007454 -0.027996
    20 0.957766 -2.746780 -0.090302 0.170976 0.053182 -0.000428
    21 -0.033420 -1.397129 -0.034695 -1.402667 -0.008054 -0.065245
    22 -0.022360 -0.957436 -0.000748 -0.814729 0.006484 -0.039681
    23 -1.180681 -2.507217 -0.193859 -0.306484 0.216205 -0.054200
    24 -0.024967 -1.123934 0.017597 -0.785370 0.006759 -0.033484
    25 -0.020057 -0.906594 0.029622 -0.968470 0.005860 -0.039585
    26 0.606948 -1.197277 0.181473 0.520580 -0.844096 -0.691663
    27 1.485144 -0.208511 0.067511 0.042625 -0.205955 -0.728166
    28 0.999205 -0.186885 0.044010 0.095741 -0.249222 -1.074740
    29 0.038119 -0.319809 -0.031051 0.239607 3.240698 1.548022
    30 -9.189010 -7.942280 -0.833340 0.030960 -3.260308 0.185382
    31 0.038348 -8.473857 0.033605 0.148869 -0.559563 -0.009443
    32 0.447953 -2.798986 -0.200443 -0.629087 -0.173866 0.282699
    33 -0.032909 -1.499736 0.032285 -1.518168 0.023286 -0.030103
    34 -0.027022 -1.147235 -0.000678 -1.944275 0.021416 -0.041946
    35 -0.249534 -2.846964 -0.174213 -0.497534 -0.112936 0.156176
    36 0.043235 -1.656596 0.060855 -1.670182 -0.024154 0.011985
    37 0.031729 -1.137392 0.051025 -1.444651 -0.016041 0.008312
    38 -0.963866 -2.785145 -0.085350 0.227024 -0.053507 0.022927
    39 0.028479 -1.414786 -0.028886 -1.440103 -0.046153 -0.038578
    40 0.021413 -0.946062 0.016140 -0.822459 -0.019751 -0.030489
    41 1.164475 -2.543940 -0.170330 -0.412729 -0.263712 0.122332
    42 0.024032 -1.136855 -0.001725 -0.816561 0.005189 0.043409
    43 0.014898 -0.907427 -0.004223 -1.596927 0.035390 0.069678
    44 -0.586770 -1.264477 0.200161 -0.942977 -0.752082 -2.153256
    45 1.554086 0.039149 0.016848 -0.011857 -0.004582 0.633632
    46 1.114041 0.044518 -0.005766 -0.027244 -0.034594 0.987350
    47 -0.002676 -0.502335 -0.044199 0.290560 0.059641 1.643449
    48 -4.897483 7.346944 -0.337092 1.581187 -0.017353 -1.099946
  time 3
    0 -6.988495 -8.805170 -2.304758 -0.842765 -0.037710 -1.563392
    1 2.999629 0.000000 1.353194 0.000000 0.000000 1.570798
    2 3.639548 0.000000 3.113282 0.000000 0.000000 1.570798
    3 1.757773 0.000000 1.206649 0.000000 0.000000 1.570798
    4 -1.663432 -0.346000 1.941449 0.000000 0.000000 6.283181
    5 6.629109 -7.582049 -2.597736 0.886181 -0.104183 -1.598365
    6 2.999629 0.000000 1.353194 0.665539 0.000000 1.570798
    7 3.639548 0.000000 3.113282 0.000000 0.000000 1.570798
    8 -1.663432 0.346269 1.941449 0.000000 0.000000 0.000093
    9 1.757773 0.000000 1.206649 0.000000 0.000000 1.570798
    10 -0.002752 8.717751 -1.784592 0.000000 0.000000 0.000000
    11 8.915560 -7.116076 -3.077201 0.438487 -2.327656 -0.495065
    12 6.901883 4.946062 -0.294342 1.565183 -3.127229 0.711696
    13 -0.122704 -8.424515 -0.178355 -0.107398 -0.102366 -0.132936
    14 -0.488518 -2.755602 -0.228260 -0.305845 0.139921 -0.219344
    15 0.039887 -1.530573 0.014229 -1.423313 -0.012644 0.031449
    16 0.028786 -1.200735 -0.132487 -1.309719 -0.014693 0.029230
    17 0.250027 -2.820665 -0.238396 -0.010053 0.069082 -0.132014
    18 -0.049759 -1.594604 0.030164 -1.572272 -0.000048 -0.042056
    19 -0.034142 -1.167844 0.049625 -1.092019 0.007275 -0.028631
    20 0.957766 -2.746780 -0.090302 0.174898 0.053050 -0.000283
    21 -0.033420 -1.397129 -0.034695 -1.440502 -0.009492 -0.066503
    22 -0.022360 -0.957436 -0.000748 -0.833931 0.006244 -0.040616
    23 -1.180681 -2.507217 -0.193859 -0.311195 0.219010 -0.057050
    24 -0.024967 -1.123934 0.017597 -0.785370 0.006759 -0.033484
    25 -0.020057 -0.906594 0.029622 -1.006129 0.005309 -0.041203
    26 0.606948 -1.197277 0.181473 0.539330 -0.847397 -0.703613
    27 1.485144 -0.204604 0.067511 0.042086 -0.205188 -0.724747
    28 1.003112 -0.186885 0.044010 0.093824 -0.247712 -1.065676
    29 0.038119 -0.319809 -0.031051 0.239607 3.240698 1.548022
    30 -9.189010 -7.942280 -0.833340 0.030960 -3.260308 0.185382
    31 0.038348 -8.473857 0.033605 0.148869 -0.559563 -0.009443
    32 0.447953 -2.798986 -0.200443 -0.629087 -0.173866 0.282699
    33 -0.032909 -1.499736 0.032285 -1.518168 0.023286 -0.030103
    34 -0.027022 -1.147235 -0.000678 -1.944275 0.021416 -0.041946
    35 -0.249534 -2.846964 -0.174213 -0.497534 -0.112936 0.156176
    36 0.043235 -1.656596 0.060855 -1.670182 -0.024154 0.011985
    37 0.031729 -1.137392 0.051025 -1.444651 -0.016041 0.008312
    38 -0.963866 -2.785145 -0.085350 0.227024 -0.053507 0.022927
    39 0.028479 -1.414786 -0.028886 -1.440103 -0.046153 -0.038578
    40 0.021413 -0.946062 0.016140 -0.822459 -0.019751 -0.030489
    41 1.164475 -2.543940 -0.170330 -0.412729 -0.263712 0.122332
    42 0.024032 -1.136855 -0.001725 -0.816561 0.005189 0.043409
    43 0.014898 -0.907427 -0.004223 -1.596927 0.035390 0.069678
    44 -0.586770 -1.264477 0.200161 -0.942977 -0.752082 -2.153256
    45 1.554086 0.039149 0.016848 -0.011857 -0.004582 0.633632
    46 1.114041 0.044518 -0.005766 -0.027244 -0.034594 0.987350
    47 -0.002676 -0.502335 -0.044199 0.290560 0.059641 1.643449
    48 -4.897483 7.346944 -0.337092 1.581187 -0.017353 -1.099946
  time 4
    0 -6.988495 -8.805170 -2.304758 -0.842765 -0.037710 -1.563392
    1 2.999629 0.000000 1.353194 0.000000 0.000000 1.570798
    2 3.639548 0.000000 3.113282 0.000000 0.000000 1.570798
    3 1.757773 0.000000 1.206649 0.000000 0.000000 1.570798
    4 -1.663432 -0.346000 1.941449 0.000000 0.000000 6.283181
    5 6.340037 -7.699240 -2.953215 0.833026 -0.105524 -1.607406
    6 2.999629 0.000000 1.353194 0.668477 0.000000 1.570798
    7 3.459855 0.000000 3.113282 0.000000 0.000000 1.570798
    8 -1.663432 0.346269 1.941449 0.000000 0.000000 0.000093
    9 1.757773 0.000000 1.206649 0.000000 0.000000 1.570798
    10 -0.002752 8.717751 -1.784592 0.000000 0.000000 0.000000
    11 8.462421 -7.170765 -3.354553 0.479542 -2.211574 -0.537555
    12 6.753441 5.184350 -0.290436 1.565087 -3.127996 0.746113
    13 -0.134423 -8.432328 -0.190074 -0.101562 -0.148508 -0.101274
    14 -0.488518 -2.755602 -0.228260 -0.322686 0.142390 -0.222184
    15 0.039887 -1.530573 0.014229 -1.429120 -0.012596 0.031604
    16 0.028786 -1.204641 -0.132487 -1.347251 -0.014489 0.030225
    17 0.250027 -2.820665 -0.238396 -0.035417 0.071755 -0.133297
    18 -0.049759 -1.594604 0.030164 -1.572272 -0.000048 -0.042056
    19 -0.034142 -1.167844 0.049625 -1.114535 0.007083 -0.029266
    20 0.957766 -2.746780 -0.090302 0.178820 0.052906 -0.000137
    21 -0.033420 -1.397129 -0.034695 -1.427157 -0.008976 -0.066072
    22 -0.022360 -0.957436 -0.000748 -0.837583 0.006196 -0.040796
    23 -1.180681 -2.507217 -0.193859 -0.315906 0.221802 -0.059901
    24 -0.024967 -1.123934 0.017597 -0.785370 0.006759 -0.033484
    25 -0.020057 -0.906594 0.033528 -1.043730 0.004698 -0.042809
    26 0.606948 -1.193371 0.181473 0.558160 -0.850531 -0.715709
    27 1.485144 -0.204604 0.063605 0.041559 -0.204409 -0.721327
    28 1.003112 -0.182979 0.044010 0.091906 -0.246178 -1.056612
    29 0.038119 -0.319809 -0.031051 0.239607 3.240698 1.548022
    30 -9.189010 -7.942280 -0.833340 0.030960 -3.260308 0.185382
    31 0.038348 -8.473857 0.033605 0.148869 -0.559563 -0.009443
    32 0.447953 -2.798986 -0.200443 -0.629087 -0.173866 0.282699
    33 -0.032909 -1.499736 0.032285 -1.518168 0.023286 -0.030103
    34 -0.027022 -1.147235 -0.000678 -1.944275 0.021416 -0.041946
    35 -0.249534 -2.846964 -0.174213 -0.497534 -0.112936 0.156176
    36 0.043235 -1.656596 0.060855 -1.670182 -0.024154 0.011985
    37 0.031729 -1.137392 0.051025 -1.444651 -0.016041 0.008312
    38 -0.963866 -2.785145 -0.085350 0.227024 -0.053507 0.022927
    39 0.028479 -1.414786 -0.028886 -1.440103 -0.046153 -0.038578
    40 0.021413 -0.946062 0.016140 -0.822459 -0.019751 -0.030489
    41 1.164475 -2.543940 -0.170330 -0.412729 -0.263712 0.122332
    42 0.024032 -1.136855 -0.001725 -0.816561 0.005189 0.043409
    43 0.014898 -0.907427 -0.004223 -1.596927 0.035390 0.069678
    44 -0.586770 -1.264477 0.200161 -0.942977 -0.752082 -2.153256
    45 1.554086 0.039149 0.016848 -0.011857 -0.004582 0.633632
    46 1.114041 0.044518 -0.005766 -0.027244 -0.034594 0.987350
    47 -0.002676 -0.502335 -0.044199 0.290560 0.059641 1.643449
    48 -4.897483 7.346944 -0.337092 1.581187 -0.017353 -1.099946
  time 5
    0 -6.988495 -8.805170 -2.304758 -0.842765 -0.037710 -1.563392
    1 2.999629 0.000000 1.353194 0.000000 0.000000 1.570798
    2 3.639548 0.000000 3.113282 0.000000 0.000000 1.570798
    3 1.757773 0.000000 1.206649 0.000000 0.000000 1.570798
    4 -1.663432 -0.346000 1.941449 0.000000 0.000000 6.283181
    5 6.113468 -7.363292 -3.160253 0.837558 -0.128888 -1.624369
    6 2.999629 0.000000 1.353194 0.564024 0.000000 1.570798
    7 3.639548 0.000000 3.113282 0.000000 0.000000 1.570798
    8 -1.663432 0.346269 1.941449 0.000000 0.000000 0.000093
    9 1.757773 0.000000 1.206649 0.000000 0.000000 1.570798
    10 -0.002752 8.717751 -1.784592 0.000000 0.000000 0.000000
    11 8.302260 -6.905132 -3.749096 0.555909 -2.163301 -0.626107
    12 7.120640 4.563238 -0.306061 1.565279 -3.126078 0.657312
    13 -0.138329 -8.432328 -0.201793 -0.100535 -0.202393 -0.093511
    14 -0.488518 -2.755602 -0.228260 -0.322686 0.142390 -0.222184
    15 0.039887 -1.530573 0.014229 -1.429120 -0.012596 0.031604
    16 0.028786 -1.204641 -0.132487 -1.347251 -0.014489 0.030225
    17 0.250027 -2.820665 -0.238396 -0.035417 0.071755 -0.133297
    18 -0.049759 -1.594604 0.030164 -1.572272 -0.000048 -0.042056
    19 -0.034142 -1.167844 0.049625 -1.114535 0.007083 -0.029266
    20 0.957766 -2.746780 -0.090302 0.178820 0.052906 -0.000137
    21 -0.033420 -1.397129 -0.034695 -1.330679 -0.005453 -0.062692
    22 -0.022360 -0.957436 -0.000748 -0.816433 0.006472 -0.039765
    23 -1.180681 -2.507217 -0.193859 -0.315906 0.221802 -0.059901
    24 -0.024967 -1.123934 0.017597 -0.785370 0.006759 -0.033484
    25 -0.020057 -0.906594 0.033528 -1.043730 0.004698 -0.042809
    26 0.606948 -1.193371 0.181473 0.558160 -0.850531 -0.715709
    27 1.485144 -0.204604 0.063605 0.041559 -0.204409 -0.721327
    28 1.003112 -0.182979 0.044010 0.091906 -0.246178 -1.056612
    29 0.038119 -0.319809 -0.031051 0.239607 3.240698 1.548022
    30 -9.189010 -7.942280 -0.833340 0.030960 -3.260308 0.185382
    31 0.038348 -8.473857 0.033605 0.148869 -0.559563 -0.009443
    32 0.447953 -2.798986 -0.200443 -0.629087 -0.173866 0.282699
    33 -0.032909 -1.499736 0.032285 -1.518168 0.023286 -0.030103
    34 -0.027022 -1.147235 -0.000678 -1.944275 0.021416 -0.041946
    35 -0.249534 -2.846964 -0.174213 -0.497534 -0.112936 0.156176
    36 0.043235 -1.656596 0.060855 -1.670182 -0.024154 0.011985
    37 0.031729 -1.137392 0.051025 -1.444651 -0.016041 0.008312
    38 -0.963866 -2.785145 -0.085350 0.227024 -0.053507 0.022927
    39 0.028479 -1.414786 -0.028886 -1.440103 -0.046153 -0.038578
    40 0.021413 -0.946062 0.016140 -0.822459 -0.019751 -0.030489
    41 1.164475 -2.543940 -0.170330 -0.412729 -0.263712 0.122332
    42 0.024032 -1.136855 -0.001725 -0.816561 0.005189 0.043409
    43 0.014898 -0.907427 -0.004223 -1.596927 0.035390 0.069678
    44 -0.586770 -1.264477 0.200161 -0.942977 -0.752082 -2.153256
    45 1.554086 0.039149 0.016848 -0.011857 -0.004582 0.633632
    46 1.114041 0.044518 -0.005766 -0.027244 -0.034594 0.987350
    47 -0.002676 -0.502335 -0.044199 0.290560 0.059641 1.643449
    48 -4.897483 7.346944 -0.337092 1.581187 -0.017353 -1.099946
  time 6
    0 -6.988495 -8.805170 -2.304758 -0.842765 -0.037710 -1.563392
    1 2.999629 0.000000 1.353194 0.000000 0.000000 1.570798
    2 3.639548 0.000000 3.113282 0.000000 0.000000 1.570798
    3 1.757773 0.000000 1.206649 0.000000 0.000000 1.570798
    4 -1.663432 -0.346000 1.941449 0.000000 0.000000 6.283181
    5 5.922056 -6.796869 -3.273537 0.863805 -0.163839 -1.643941
    6 2.999629 0.000000 1.353194 0.334228 0.000000 1.570798
    7 3.639548 0.000000 3.113282 0.000000 0.000000 1.570798
    8 -1.663432 0.346269 1.941449 0.000000 0.000000 0.000093
    9 1.757773 0.000000 1.206649 0.000000 0.000000 1.570798
    10 -0.002752 8.717751 -1.784592 0.000000 0.000000 0.000000
    11 8.267103 -6.459806 -4.167078 0.638497 -2.154102 -0.725281
    12 7.589404 3.504612 -0.329500 1.565950 -3.123106 0.515268
    13 -0.142236 -8.432328 -0.209606 -0.098860 -0.250381 -0.094259
    14 -0.488518 -2.755602 -0.228260 -0.322686 0.142390 -0.222184
    15 0.039887 -1.530573 0.014229 -1.429120 -0.012596 0.031604
    16 0.028786 -1.204641 -0.132487 -1.347251 -0.014489 0.030225
    17 0.250027 -2.820665 -0.238396 -0.035417 0.071755 -0.133297
    18 -0.049759 -1.594604 0.030164 -1.572272 -0.000048 -0.042056
    19 -0.034142 -1.167844 0.049625 -1.114535 0.007083 -0.029266
    20 0.957766 -2.746780 -0.090302 0.178820 0.052906 -0.000137
    21 -0.033420 -1.397129 -0.030789 -1.190078 -0.000947 -0.057215
    22 -0.022360 -0.957436 -0.000748 -0.782411 0.006867 -0.038087
    23 -1.180681 -2.507217 -0.193859 -0.315906 0.221802 -0.059901
    24 -0.024967 -1.123934 0.017597 -0.785370 0.006759 -0.033484
    25 -0.020057 -0.906594 0.033528 -1.043730 0.004698 -0.042809
    26 0.606948 -1.193371 0.181473 0.558160 -0.850531 -0.715709
    27 1.485144 -0.204604 0.063605 0.041559 -0.204409 -0.721327
    28 1.003112 -0.182979 0.044010 0.091906 -0.246178 -1.056612
    29 0.038119 -0.319809 -0.031051 0.239607 3.240698 1.548022
    30 -9.189010 -7.942280 -0.833340 0.030960 -3.260308 0.185382
    31 0.038348 -8.473857 0.033605 0.148869 -0.559563 -0.009443
    32 0.447953 -2.798986 -0.200443 -0.629087 -0.173866 0.282699
    33 -0.032909 -1.499736 0.032285 -1.518168 0.023286 -0.030103
    34 -0.027022 -1.147235 -0.000678 -1.944275 0.021416 -0.041946
    35 -0.249534 -2.846964 -0.174213 -0.497534 -0.112936 0.156176
    36 0.043235 -1.656596 0.060855 -1.670182 -0.024154 0.011985
    37 0.031729 -1.137392 0.051025 -1.444651 -0.016041 0.008312
    38 -0.963866 -2.785145 -0.085350 0.227024 -0.053507 0.022927
    39 0.028479 -1.414786 -0.028886 -1.440103 -0.046153 -0.038578
    40 0.021413 -0.946062 0.016140 -0.822459 -0.019751 -0.030489
    41 1.164475 -2.543940 -0.170330 -0.412729 -0.263712 0.122332
    42 0.024032 -1.136855 -0.001725 -0.816561 0.005189 0.043409
    43 0.014898 -0.907427 -0.004223 -1.596927 0.035390 0.069678
    44 -0.586770 -1.264477 0.200161 -0.942977 -0.752082 -2.153256
    45 1.554086 0.039149 0.016848 -0.011857 -0.004582 0.633632
    46 1.114041 0.044518 -0.005766 -0.027244 -0.034594 0.987350
    47 -0.002676 -0.502335 -0.044199 0.290560 0.059641 1.643449
    48 -4.897483 7.346944 -0.337092 1.581187 -0.017353 -1.099946
  time 7
    0 -6.988495 -8.805170 -2.304758 -0.842765 -0.037710 -1.563392
    1 2.999629 0.000000 1.353194 0.000000 0.000000 1.570798
    2 3.639548 0.000000 3.113282 0.000000 0.000000 1.570798
    3 1.757773 0.000000 1.206649 0.000000 0.000000 1.570798
    4 -1.663432 -0.346000 1.941449 0.000000 0.000000 6.283181
    5 5.765801 -6.238258 -3.394635 0.884010 -0.186342 -1.663140
    6 2.999629 0.000000 1.353194 0.104432 0.000000 1.570798
    7 3.639548 0.000000 3.113282 0.000000 0.000000 1.570798
    8 -1.663432 0.346269 1.941449 0.000000 0.000000 0.000093
    9 1.757773 0.000000 1.206649 0.000000 0.000000 1.570798
    10 -0.002752 8.717751 -1.784592 0.000000 0.000000 0.000000
    11 8.282728 -6.010573 -4.487400 0.684337 -2.158370 -0.788828
    12 7.878476 2.531926 -0.349031 1.566908 -3.120614 0.390718
    13 -0.146142 -8.432328 -0.217419 -0.097671 -0.274478 -0.096363
    14 -0.488518 -2.755602 -0.228260 -0.322686 0.142390 -0.222184
    15 0.039887 -1.530573 0.014229 -1.429120 -0.012596 0.031604
    16 0.028786 -1.204641 -0.132487 -1.347251 -0.014489 0.030225
    17 0.250027 -2.820665 -0.238396 -0.035417 0.071755 -0.133297
    18 -0.049759 -1.594604 0.030164 -1.572272 -0.000048 -0.042056
    19 -0.034142 -1.167844 0.049625 -1.114535 0.007083 -0.029266
    20 0.957766 -2.746780 -0.090302 0.178820 0.052906 -0.000137
    21 -0.033420 -1.397129 -0.030789 -1.051215 0.002709 -0.051235
    22 -0.022360 -0.957436 -0.000748 -0.747932 0.007203 -0.036385
    23 -1.180681 -2.507217 -0.193859 -0.315906 0.221802 -0.059901
    24 -0.024967 -1.123934 0.017597 -0.785370 0.006759 -0.033484
    25 -0.020057 -0.906594 0.033528 -1.043730 0.004698 -0.042809
    26 0.606948 -1.193371 0.181473 0.558160 -0.850531 -0.715709
    27 1.485144 -0.204604 0.063605 0.041559 -0.204409 -0.721327
    28 1.003112 -0.182979 0.044010 0.091906 -0.246178 -1.056612
    29 0.038119 -0.319809 -0.031051 0.239607 3.240698 1.548022
    30 -9.189010 -7.942280 -0.833340 0.030960 -3.260308 0.185382
    31 0.038348 -8.473857 0.033605 0.148869 -0.559563 -0.009443
    32 0.447953 -2.798986 -0.200443 -0.629087 -0.173866 0.282699
    33 -0.032909 -1.499736 0.032285 -1.518168 0.023286 -0.030103
    34 -0.027022 -1.147235 -0.000678 -1.944275 0.021416 -0.041946
    35 -0.249534 -2.846964 -0.174213 -0.497534 -0.112936 0.156176
    36 0.043235 -1.656596 0.060855 -1.670182 -0.024154 0.011985
    37 0.031729 -1.137392 0.051025 -1.444651 -0.016041 0.008312
    38 -0.963866 -2.785145 -0.085350 0.227024 -0.053507 0.022927
    39 0.028479 -1.414786 -0.028886 -1.440103 -0.046153 -0.038578
    40 0.021413 -0.946062 0.016140 -0.822459 -0.019751 -0.030489
    41 1.164475 -2.543940 -0.170330 -0.412729 -0.263712 0.122332
    42 0.024032 -1.136855 -0.001725 -0.816561 0.005189 0.043409
    43 0.014898 -0.907427 -0.004223 -1.596927 0.035390 0.069678
    44 -0.586770 -1.264477 0.200161 -0.942977 -0.752082 -2.153256
    45 1.554086 0.039149 0.016848 -0.011857 -0.004582 0.633632
    46 1.114041 0.044518 -0.005766 -0.027244 -0.034594 0.987350
    47 -0.002676 -0.502335 -0.044199 0.290560 0.059641 1.643449
    48 -4.897483 7.346944 -0.337092 1.581187 -0.017353 -1.099946
  time 8
    0 -6.988495 -8.805170 -2.304758 -0.842765 -0.037710 -1.563392
    1 2.999629 0.000000 1.353194 0.000000 0.000000 1.570798
    2 3.639548 0.000000 3.113282 0.000000 0.000000 1.570798
    3 1.757773 0.000000 1.206649 0.000000 0.000000 1.570798
    4 -1.663432 -0.346000 1.941449 0.000000 0.000000 6.283181
    5 5.640797 -6.019501 -3.679800 0.870603 -0.171883 -1.679917
    6 2.999629 0.000000 1.353194 0.000000 0.000000 1.570798
    7 3.639548 0.000000 3.113282 0.000000 0.000000 1.570798
    8 -1.663432 0.346269 1.941449 0.000000 0.000000 0.000093
    9 1.757773 0.000000 1.206649 0.000000 0.000000 1.570798
    10 -0.002752 8.717751 -1.784592 0.000000 0.000000 0.000000
    11 8.290541 -5.787910 -4.647561 0.661752 -2.147937 -0.782624
    12 7.937071 2.242854 -0.352938 1.567196 -3.119847 0.354399
    13 -0.146142 -8.432328 -0.213512 -0.098806 -0.256790 -0.092575
    14 -0.488518 -2.755602 -0.228260 -0.322686 0.142390 -0.222184
    15 0.039887 -1.530573 0.014229 -1.429120 -0.012596 0.031604
    16 0.028786 -1.204641 -0.132487 -1.347251 -0.014489 0.030225
    17 0.250027 -2.820665 -0.238396 -0.035417 0.071755 -0.133297
    18 -0.049759 -1.594604 0.030164 -1.572272 -0.000048 -0.042056
    19 -0.034142 -1.167844 0.049625 -1.114535 0.007083 -0.029266
    20 0.957766 -2.746780 -0.090302 0.178820 0.052906 -0.000137
    21 -0.033420 -1.397129 -0.026882 -0.960156 0.004638 -0.047064
    22 -0.022360 -0.957436 -0.000748 -0.725383 0.007394 -0.035259
    23 -1.180681 -2.507217 -0.193859 -0.315906 0.221802 -0.059901
    24 -0.024967 -1.123934 0.017597 -0.785370 0.006759 -0.033484
    25 -0.020057 -0.906594 0.033528 -1.043730 0.004698 -0.042809
    26 0.606948 -1.193371 0.181473 0.558160 -0.850531 -0.715709
    27 1.485144 -0.204604 0.063605 0.041559 -0.204409 -0.721327
    28 1.003112 -0.182979 0.044010 0.091906 -0.246178 -1.056612
    29 0.038119 -0.319809 -0.031051 0.239607 3.240698 1.548022
    30 -9.189010 -7.942280 -0.833340 0.030960 -3.260308 0.185382
    31 0.038348 -8.473857 0.033605 0.148869 -0.559563 -0.009443
    32 0.447953 -2.798986 -0.200443 -0.629087 -0.173866 0.282699
    33 -0.032909 -1.499736 0.032285 -1.518168 0.023286 -0.030103
    34 -0.027022 -1.147235 -0.000678 -1.944275 0.021416 -0.041946
    35 -0.249534 -2.846964 -0.174213 -0.497534 -0.112936 0.156176
    36 0.043235 -1.656596 0.060855 -1.670182 -0.024154 0.011985
    37 0.031729 -1.137392 0.051025 -1.444651 -0.016041 0.008312
    38 -0.963866 -2.785145 -0.085350 0.227024 -0.053507 0.022927
    39 0.028479 -1.414786 -0.028886 -1.440103 -0.046153 -0.038578
    40 0.021413 -0.946062 0.016140 -0.822459 -0.019751 -0.030489
    41 1.164475 -2.543940 -0.170330 -0.412729 -0.263712 0.122332
    42 0.024032 -1.136855 -0.001725 -0.816561 0.005189 0.043409
    43 0.014898 -0.907427 -0.004223 -1.596927 0.035390 0.069678
    44 -0.586770 -1.264477 0.200161 -0.942977 -0.752082 -2.153256
    45 1.554086 0.039149 0.016848 -0.011857 -0.004582 0.633632
    46 1.114041 0.044518 -0.005766 -0.027244 -0.034594 0.987350
    47 -0.002676 -0.502335 -0.044199 0.290560 0.059641 1.643449
    48 -4.897483 7.346944 -0.337092 1.581187 -0.017353 -1.099946
  time 9
    0 -6.988495 -8.805170 -2.304758 -0.842765 -0.037710 -1.563392
    1 2.999629 0.000000 1.353194 0.000000 0.000000 1.570798
    2 3.639548 0.000000 3.113282 0.000000 0.000000 1.570798
    3 1.757773 0.000000 1.206649 0.000000 0.000000 1.570798
    4 -1.663432 -0.346000 1.941449 0.000000 0.000000 6.283181
    5 5.558763 -6.257790 -4.273568 0.788367 -0.106002 -1.694456
    6 2.999629 0.000000 1.353194 0.000000 0.000000 1.570798
    7 3.639548 0.000000 3.113282 0.000000 0.000000 1.570798
    8 -1.663432 0.346269 1.941449 0.000000 0.000000 0.000093
    9 1.757773 0.000000 1.206649 0.000000 0.000000 1.570798
    10 -0.002752 8.717751 -1.784592 0.000000 0.000000 0.000000
    11 8.290541 -5.885569 -4.643655 0.535047 -2.120339 -0.672545
    12 7.788629 2.887405 -0.341219 1.566525 -3.121477 0.435404
    13 -0.138329 -8.436234 -0.197887 -0.102426 -0.181936 -0.080275
    14 -0.488518 -2.755602 -0.228260 -0.322686 0.142390 -0.222184
    15 0.039887 -1.530573 0.014229 -1.429120 -0.012596 0.031604
    16 0.028786 -1.204641 -0.132487 -1.347251 -0.014489 0.030225
    17 0.250027 -2.820665 -0.238396 -0.035417 0.071755 -0.133297
    18 -0.049759 -1.594604 0.030164 -1.572272 -0.000048 -0.042056
    19 -0.034142 -1.167844 0.049625 -1.114535 0.007083 -0.029266
    20 0.957766 -2.746780 -0.090302 0.178820 0.052906 -0.000137
    21 -0.033420 -1.397129 -0.026882 -0.926923 0.005249 -0.045495
    22 -0.022360 -0.957436 -0.000748 -0.717379 0.007454 -0.034863
    23 -1.180681 -2.507217 -0.193859 -0.315906 0.221802 -0.059901
    24 -0.024967 -1.123934 0.017597 -0.785370 0.006759 -0.033484
    25 -0.020057 -0.906594 0.033528 -1.043730 0.004698 -0.042809
    26 0.606948 -1.193371 0.181473 0.558160 -0.850531 -0.715709
    27 1.485144 -0.204604 0.063605 0.041559 -0.204409 -0.721327
    28 1.003112 -0.182979 0.044010 0.091906 -0.246178 -1.056612
    29 0.038119 -0.319809 -0.031051 0.239607 3.240698 1.548022
    30 -9.189010 -7.942280 -0.833340 0.030960 -3.260308 0.185382
    31 0.038348 -8.473857 0.033605 0.148869 -0.559563 -0.009443
    32 0.447953 -2.798986 -0.200443 -0.629087 -0.173866 0.282699
    33 -0.032909 -1.499736 0.032285 -1.518168 0.023286 -0.030103
    34 -0.027022 -1.147235 -0.000678 -1.944275 0.021416 -0.041946
    35 -0.249534 -2.846964 -0.174213 -0.497534 -0.112936 0.156176
    36 0.043235 -1.656596 0.060855 -1.670182 -0.024154 0.011985
    37 0.031729 -1.137392 0.051025 -1.444651 -0.016041 0.008312
    38 -0.963866 -2.785145 -0.085350 0.227024 -0.053507 0.022927
    39 0.028479 -1.414786 -0.028886 -1.440103 -0.046153 -0.038578
    40 0.021413 -0.946062 0.016140 -0.822459 -0.019751 -0.030489
    41 1.164475 -2.543940 -0.170330 -0.412729 -0.263712 0.122332
    42 0.024032 -1.136855 -0.001725 -0.816561 0.005189 0.043409
    43 0.014898 -0.907427 -0.004223 -1.596927 0.035390 0.069678
    44 -0.586770 -1.264477 0.200161 -0.942977 -0.752082 -2.153256
    45 1.554086 0.039149 0.016848 -0.011857 -0.004582 0.633632
    46 1.114041 0.044518 -0.005766 -0.027244 -0.034594 0.987350
    47 -0.002676 -0.502335 -0.044199 0.290560 0.059641 1.643449
    48 -4.897483 7.346944 -0.337092 1.581187 -0.017353 -1.099946
  time 10
    0 -6.988495 -8.805170 -2.304758 -0.842765 -0.037710 -1.563392
    1 2.999629 0.000000 1.353194 0.000000 0.000000 1.570798
    2 3.639548 0.000000 3.113282 0.000000 0.000000 1.570798
    3 1.757773 0.000000 1.206649 0.000000 0.000000 1.570798
    4 -1.663432 -0.346000 1.941449 0.000000 0.000000 6.283181
    5 5.562670 -6.703116 -5.082186 0.648161 -0.007852 -1.702564
    6 2.999629 0.000000 1.353194 0.000000 0.000000 1.570798
    7 3.639548 0.000000 3.113282 0.000000 0.000000 1.570798
    8 -1.663432 0.346269 1.941449 0.000000 0.000000 0.000093
    9 1.757773 0.000000 1.206649 0.000000 0.000000 1.570798
    10 -0.002752 8.717751 -1.784592 0.000000 0.000000 0.000000
    11 8.302260 -6.159015 -4.534276 0.318768 -2.108769 -0.471846
    12 7.374554 4.047597 -0.317781 1.565566 -3.124544 0.586956
    13 -0.126610 -8.440141 -0.170542 -0.106047 -0.065400 -0.064327
    14 -0.488518 -2.755602 -0.228260 -0.322686 0.142390 -0.222184
    15 0.039887 -1.530573 0.014229 -1.429120 -0.012596 0.031604
    16 0.028786 -1.204641 -0.132487 -1.347251 -0.014489 0.030225
    17 0.250027 -2.820665 -0.238396 -0.035417 0.071755 -0.133297
    18 -0.049759 -1.594604 0.030164 -1.572272 -0.000048 -0.042056
    19 -0.034142 -1.167844 0.049625 -1.114535 0.007083 -0.029266
    20 0.957766 -2.746780 -0.090302 0.178820 0.052906 -0.000137
    21 -0.033420 -1.397129 -0.026882 -0.922782 0.005321 -0.045303
    22 -0.022360 -0.957436 -0.000748 -0.716405 0.007466 -0.034815
    23 -1.180681 -2.507217 -0.193859 -0.315906 0.221802 -0.059901
    24 -0.024967 -1.123934 0.017597 -0.785370 0.006759 -0.033484
    25 -0.020057 -0.906594 0.033528 -1.043730 0.004698 -0.042809
    26 0.606948 -1.193371 0.181473 0.558160 -0.850531 -0.715709
    27 1.485144 -0.204604 0.063605 0.041559 -0.204409 -0.721327
    28 1.003112 -0.182979 0.044010 0.091906 -0.246178 -1.056612
    29 0.038119 -0.319809 -0.031051 0.239607 3.240698 1.548022
    30 -9.189010 -7.942280 -0.833340 0.030960 -3.260308 0.185382
    31 0.038348 -8.473857 0.033605 0.148869 -0.559563 -0.009443
    32 0.447953 -2.798986 -0.200443 -0.629087 -0.173866 0.282699
    33 -0.032909 -1.499736 0.032285 -1.518168 0.023286 -0.030103
    34 -0.027022 -1.147235 -0.000678 -1.944275 0.021416 -0.041946
    35 -0.249534 -2.846964 -0.174213 -0.497534 -0.112936 0.156176
    36 0.043235 -1.656596 0.060855 -1.670182 -0.024154 0.011985
    37 0.031729 -1.137392 0.051025 -1.444651 -0.016041 0.008312
    38 -0.963866 -2.785145 -0.085350 0.227024 -0.053507 0.022927
    39 0.028479 -1.414786 -0.028886 -1.440103 -0.046153 -0.038578
    40 0.021413 -0.946062 0.016140 -0.822459 -0.019751 -0.030489
    41 1.164475 -2.543940 -0.170330 -0.412729 -0.263712 0.122332
    42 0.024032 -1.136855 -0.001725 -0.816561 0.005189 0.043409
    43 0.014898 -0.907427 -0.004223 -1.596927 0.035390 0.069678
    44 -0.586770 -1.264477 0.200161 -0.942977 -0.752082 -2.153256
    45 1.554086 0.039149 0.016848 -0.011857 -0.004582 0.633632
    46 1.114041 0.044518 -0.005766 -0.027244 -0.034594 0.987350
    47 -0.002676 -0.502335 -0.044199 0.290560 0.059641 1.643449
    48 -4.897483 7.346944 -0.337092 1.581187 -0.017353 -1.099946
  time 11
    0 -6.988495 -8.805170 -2.304758 -0.842765 -0.037710 -1.563392
    1 2.999629 0.000000 1.353194 0.000000 0.000000 1.570798
    2 3.639548 0.000000 3.113282 0.000000 0.000000 1.570798
    3 1.757773 0.000000 1.206649 0.000000 0.000000 1.570798
    4 -1.663432 -0.346000 1.941449 0.000000 0.000000 6.283181
    5 5.711112 -7.160161 -5.898618 0.493320 0.095278 -1.695761
    6 2.999629 0.000000 1.353194 0.000000 0.000000 1.570798
    7 3.639548 0.000000 3.113282 0.000000 0.000000 1.570798
    8 -1.663432 0.346269 1.941449 0.000000 0.000000 0.000093
    9 1.757773 0.000000 1.206649 0.000000 0.000000 1.570798
    10 -0.002752 8.717751 -1.784592 0.000000 0.000000 0.000000
    11 8.306167 -6.491057 -4.362396 0.085838 -2.132953 -0.245484
    12 6.667501 5.313261 -0.286530 1.565087 -3.128379 0.765224
    13 -0.107078 -8.444047 -0.147104 -0.107938 0.064773 -0.047912
    14 -0.488518 -2.755602 -0.228260 -0.322686 0.142390 -0.222184
    15 0.039887 -1.530573 0.014229 -1.429120 -0.012596 0.031604
    16 0.028786 -1.204641 -0.132487 -1.347251 -0.014489 0.030225
    17 0.250027 -2.820665 -0.238396 -0.035417 0.071755 -0.133297
    18 -0.049759 -1.594604 0.030164 -1.572272 -0.000048 -0.042056
    19 -0.034142 -1.167844 0.049625 -1.114535 0.007083 -0.029266
    20 0.957766 -2.746780 -0.090302 0.178820 0.052906 -0.000137
    21 -0.033420 -1.397129 -0.026882 -0.935206 0.005105 -0.045890
    22 -0.022360 -0.957436 -0.000748 -0.719388 0.007442 -0.034959
    23 -1.180681 -2.507217 -0.193859 -0.315906 0.221802 -0.059901
    24 -0.024967 -1.123934 0.017597 -0.785370 0.006759 -0.033484
    25 -0.020057 -0.906594 0.033528 -1.043730 0.004698 -0.042809
    26 0.606948 -1.193371 0.181473 0.558160 -0.850531 -0.715709
    27 1.485144 -0.204604 0.063605 0.041559 -0.204409 -0.721327
    28 1.003112 -0.182979 0.044010 0.091906 -0.246178 -1.056612
    29 0.038119 -0.319809 -0.031051 0.239607 3.240698 1.548022
    30 -9.189010 -7.942280 -0.833340 0.030960 -3.260308 0.185382
    31 0.038348 -8.473857 0.033605 0.148869 -0.559563 -0.009443
    32 0.447953 -2.798986 -0.200443 -0.629087 -0.173866 0.282699
    33 -0.032909 -1.499736 0.032285 -1.518168 0.023286 -0.030103
    34 -0.027022 -1.147235 -0.000678 -1.944275 0.021416 -0.041946
    35 -0.249534 -2.846964 -0.174213 -0.497534 -0.112936 0.156176
    36 0.043235 -1.656596 0.060855 -1.670182 -0.024154 0.011985
    37 0.031729 -1.137392 0.051025 -1.444651 -0.016041 0.008312
    38 -0.963866 -2.785145 -0.085350 0.227024 -0.053507 0.022927
    39 0.028479 -1.414786 -0.028886 -1.440103 -0.046153 -0.038578
    40 0.021413 -0.946062 0.016140 -0.822459 -0.019751 -0.030489
    41 1.164475 -2.543940 -0.170330 -0.412729 -0.263712 0.122332
    42 0.024032 -1.136855 -0.001725 -0.816561 0.005189 0.043409
    43 0.014898 -0.907427 -0.004223 -1.596927 0.035390 0.069678
    44 -0.586770 -1.264477 0.200161 -0.942977 -0.752082 -2.153256
    45 1.554086 0.039149 0.016848 -0.011857 -0.004582 0.633632
    46 1.114041 0.044518 -0.005766 -0.027244 -0.034594 0.987350
    47 -0.002676 -0.502335 -0.044199 0.290560 0.059641 1.643449
    48 -4.897483 7.346944 -0.337092 1.581187 -0.017353 -1.099946
  time 12
    0 -6.988495 -8.805170 -2.304758 -0.842765 -0.037710 -1.563392
    1 2.999629 0.000000 1.353194 0.000000 0.000000 1.570798
    2 3.639548 0.000000 3.113282 0.000000 0.000000 1.570798
    3 1.757773 0.000000 1.206649 0.000000 0.000000 1.570798
    4 -1.663432 -0.346000 1.941449 0.000000 0.000000 6.283181
    5 5.965026 -7.507828 -6.550981 0.365198 0.180405 -1.675816
    6 2.999629 0.000000 1.353194 0.000000 0.000000 1.570798
    7 3.639548 0.000000 3.113282 0.000000 0.000000 1.570798
    8 -1.663432 0.346269 1.941449 0.000000 0.000000 0.000093
    9 1.757773 0.000000 1.206649 0.000000 0.000000 1.570798
    10 -0.002752 8.717751 -1.784592 0.000000 0.000000 0.000000
    11 8.294447 -6.780128 -4.182703 6.193703 -2.181415 -0.066970
    12 5.839351 6.336729 -0.259185 1.565183 -3.131830 0.926663
    13 -0.087546 -8.444047 -0.127572 -0.107830 0.180489 -0.033554
    14 -0.488518 -2.755602 -0.228260 -0.322686 0.142390 -0.222184
    15 0.039887 -1.530573 0.014229 -1.429120 -0.012596 0.031604
    16 0.028786 -1.204641 -0.132487 -1.347251 -0.014489 0.030225
    17 0.250027 -2.820665 -0.238396 -0.035417 0.071755 -0.133297
    18 -0.049759 -1.594604 0.030164 -1.572272 -0.000048 -0.042056
    19 -0.034142 -1.167844 0.049625 -1.114535 0.007083 -0.029266
    20 0.957766 -2.746780 -0.090302 0.178820 0.052906 -0.000137
    21 -0.033420 -1.397129 -0.026882 -0.951822 0.004794 -0.046669
    22 -0.022360 -0.957436 -0.000748 -0.723374 0.007406 -0.035163
    23 -1.180681 -2.507217 -0.193859 -0.315906 0.221802 -0.059901
    24 -0.024967 -1.123934 0.017597 -0.785370 0.006759 -0.033484
    25 -0.020057 -0.906594 0.033528 -1.043730 0.004698 -0.042809
    26 0.606948 -1.193371 0.181473 0.558160 -0.850531 -0.715709
    27 1.485144 -0.204604 0.063605 0.041559 -0.204409 -0.721327
    28 1.003112 -0.182979 0.044010 0.091906 -0.246178 -1.056612
    29 0.038119 -0.319809 -0.031051 0.239607 3.240698 1.548022
    30 -9.189010 -7.942280 -0.833340 0.030960 -3.260308 0.185382
    31 0.038348 -8.473857 0.033605 0.148869 -0.559563 -0.009443
    32 0.447953 -2.798986 -0.200443 -0.629087 -0.173866 0.282699
    33 -0.032909 -1.499736 0.032285 -1.518168 0.023286 -0.030103
    34 -0.027022 -1.147235 -0.000678 -1.944275 0.021416 -0.041946
    35 -0.249534 -2.846964 -0.174213 -0.497534 -0.112936 0.156176
    36 0.043235 -1.656596 0.060855 -1.670182 -0.024154 0.011985
    37 0.031729 -1.137392 0.051025 -1.444651 -0.016041 0.008312
    38 -0.963866 -2.785145 -0.085350 0.227024 -0.053507 0.022927
    39 0.028479 -1.414786 -0.028886 -1.440103 -0.046153 -0.038578
    40 0.021413 -0.946062 0.016140 -0.822459 -0.019751 -0.030489
    41 1.164475 -2.543940 -0.170330 -0.412729 -0.263712 0.122332
    42 0.024032 -1.136855 -0.001725 -0.816561 0.005189 0.043409
    43 0.014898 -0.907427 -0.004223 -1.596927 0.035390 0.069678
    44 -0.586770 -1.264477 0.200161 -0.942977 -0.752082 -2.153256
    45 1.554086 0.039149 0.016848 -0.011857 -0.004582 0.633632
    46 1.114041 0.044518 -0.005766 -0.027244 -0.034594 0.987350
    47 -0.002676 -0.502335 -0.044199 0.290560 0.059641 1.643449
    48 -4.897483 7.346944 -0.337092 1.581187 -0.017353 -1.099946
  time 13
    0 -6.988495 -8.805170 -2.304758 -0.842765 -0.037710 -1.563392
    1 2.999629 0.000000 1.353194 0.000000 0.000000 1.570798
    2 3.639548 0.000000 3.113282 0.000000 0.000000 1.570798
    3 1.757773 0.000000 1.206649 0.000000 0.000000 1.570798
    4 -1.663432 -0.346000 1.941449 0.000000 0.000000 6.283181
    5 6.179876 -7.687521 -6.929899 0.299863 0.230677 -1.657175
    6 2.999629 0.000000 1.353194 0.000000 0.000000 1.570798
    7 3.639548 0.000000 3.113282 0.000000 0.000000 1.570798
    8 -1.663432 0.346269 1.941449 0.000000 0.000000 0.000093
    9 1.757773 0.000000 1.206649 0.000000 0.000000 1.570798
    10 -0.002752 8.717751 -1.784592 0.000000 0.000000 0.000000
    11 8.278822 -6.948102 -4.065512 6.101736 -2.221437 0.030888
    12 5.245583 6.903153 -0.239653 1.565566 -3.133939 1.027539
    13 -0.075827 -8.447954 -0.115853 -0.106911 0.253702 -0.024200
    14 -0.488518 -2.755602 -0.228260 -0.322686 0.142390 -0.222184
    15 0.039887 -1.530573 0.014229 -1.429120 -0.012596 0.031604
    16 0.028786 -1.204641 -0.132487 -1.347251 -0.014489 0.030225
    17 0.250027 -2.820665 -0.238396 -0.035417 0.071755 -0.133297
    18 -0.049759 -1.594604 0.030164 -1.572272 -0.000048 -0.042056
    19 -0.034142 -1.167844 0.049625 -1.114535 0.007083 -0.029266
    20 0.957766 -2.746780 -0.090302 0.178820 0.052906 -0.000137
    21 -0.033420 -1.397129 -0.026882 -0.960156 0.004638 -0.047064
    22 -0.022360 -0.957436 -0.000748 -0.725383 0.007394 -0.035259
    23 -1.180681 -2.507217 -0.193859 -0.315906 0.221802 -0.059901
    24 -0.024967 -1.123934 0.017597 -0.785370 0.006759 -0.033484
    25 -0.020057 -0.906594 0.033528 -1.043730 0.004698 -0.042809
    26 0.606948 -1.193371 0.181473 0.558160 -0.850531 -0.715709
    27 1.485144 -0.204604 0.063605 0.041559 -0.204409 -0.721327
    28 1.003112 -0.182979 0.044010 0.091906 -0.246178 -1.056612
    29 0.038119 -0.319809 -0.031051 0.239607 3.240698 1.548022
    30 -9.189010 -7.942280 -0.833340 0.030960 -3.260308 0.185382
    31 0.038348 -8.473857 0.033605 0.148869 -0.559563 -0.009443
    32 0.447953 -2.798986 -0.200443 -0.629087 -0.173866 0.282699
    33 -0.032909 -1.499736 0.032285 -1.518168 0.023286 -0.030103
    34 -0.027022 -1.147235 -0.000678 -1.944275 0.021416 -0.041946
    35 -0.249534 -2.846964 -0.174213 -0.497534 -0.112936 0.156176
    36 0.043235 -1.656596 0.060855 -1.670182 -0.024154 0.011985
    37 0.031729 -1.137392 0.051025 -1.444651 -0.016041 0.008312
    38 -0.963866 -2.785145 -0.085350 0.227024 -0.053507 0.022927
    39 0.028479 -1.414786 -0.028886 -1.440103 -0.046153 -0.038578
    40 0.021413 -0.946062 0.016140 -0.822459 -0.019751 -0.030489
    41 1.164475 -2.543940 -0.170330 -0.412729 -0.263712 0.122332
    42 0.024032 -1.136855 -0.001725 -0.816561 0.005189 0.043409
    43 0.014898 -0.907427 -0.004223 -1.596927 0.035390 0.069678
    44 -0.586770 -1.264477 0.200161 -0.942977 -0.752082 -2.153256
    45 1.554086 0.039149 0.016848 -0.011857 -0.004582 0.633632
    46 1.114041 0.044518 -0.005766 -0.027244 -0.034594 0.987350
    47 -0.002676 -0.502335 -0.044199 0.290560 0.059641 1.643449
    48 -4.897483 7.346944 -0.337092 1.581187 -0.017353 -1.099946
  time 14
    0 -6.988495 -8.805170 -2.304758 -0.842765 -0.037710 -1.563392
    1 2.999629 0.000000 1.353194 0.000000 0.000000 1.570798
    2 3.639548 0.000000 3.113282 0.000000 0.000000 1.570798
    3 1.757773 0.000000 1.206649 0.000000 0.000000 1.570798
    4 -1.663432 -0.346000 1.941449 0.000000 0.000000 6.283181
    5 6.277535 -7.746117 -7.097873 0.283435 0.251552 -1.648601
    6 2.999629 0.000000 1.353194 0.000000 0.000000 1.570798
    7 3.639548 0.000000 3.113282 0.000000 0.000000 1.570798
    8 -1.663432 0.346269 1.941449 0.000000 0.000000 0.000093
    9 1.757773 0.000000 1.206649 0.000000 0.000000 1.570798
    10 -0.002752 8.717751 -1.784592 0.000000 0.000000 0.000000
    11 8.267103 -7.010604 -4.022542 6.065945 -2.239741 0.069242
    12 4.987763 7.118003 -0.235747 1.565758 -3.134802 1.068707
    13 -0.071921 -8.447954 -0.111947 -0.106209 0.284925 -0.019944
    14 -0.488518 -2.755602 -0.228260 -0.322686 0.142390 -0.222184
    15 0.039887 -1.530573 0.014229 -1.429120 -0.012596 0.031604
    16 0.028786 -1.204641 -0.132487 -1.347251 -0.014489 0.030225
    17 0.250027 -2.820665 -0.238396 -0.035417 0.071755 -0.133297
    18 -0.049759 -1.594604 0.030164 -1.572272 -0.000048 -0.042056
    19 -0.034142 -1.167844 0.049625 -1.114535 0.007083 -0.029266
    20 0.957766 -2.746780 -0.090302 0.178820 0.052906 -0.000137
    21 -0.033420 -1.397129 -0.026882 -0.960156 0.004638 -0.047064
    22 -0.022360 -0.957436 -0.000748 -0.725383 0.007394 -0.035259
    23 -1.180681 -2.507217 -0.193859 -0.315906 0.221802 -0.059901
    24 -0.024967 -1.123934 0.017597 -0.785370 0.006759 -0.033484
    25 -0.020057 -0.906594 0.033528 -1.043730 0.004698 -0.042809
    26 0.606948 -1.193371 0.181473 0.558160 -0.850531 -0.715709
    27 1.485144 -0.204604 0.063605 0.041559 -0.204409 -0.721327
    28 1.003112 -0.182979 0.044010 0.091906 -0.246178 -1.056612
    29 0.038119 -0.319809 -0.031051 0.239607 3.240698 1.548022
    30 -9.189010 -7.942280 -0.833340 0.030960 -3.260308 0.185382
    31 0.038348 -8.473857 0.033605 0.148869 -0.559563 -0.009443
    32 0.447953 -2.798986 -0.200443 -0.629087 -0.173866 0.282699
    33 -0.032909 -1.499736 0.032285 -1.518168 0.023286 -0.030103
    34 -0.027022 -1.147235 -0.000678 -1.944275 0.021416 -0.041946
    35 -0.249534 -2.846964 -0.174213 -0.497534 -0.112936 0.156176
    36 0.043235 -1.656596 0.060855 -1.670182 -0.024154 0.011985
    37 0.031729 -1.137392 0.051025 -1.444651 -0.016041 0.008312
    38 -0.963866 -2.785145 -0.085350 0.227024 -0.053507 0.022927
    39 0.028479 -1.414786 -0.028886 -1.440103 -0.046153 -0.038578
    40 0.021413 -0.946062 0.016140 -0.822459 -0.019751 -0.030489
    41 1.164475 -2.543940 -0.170330 -0.412729 -0.263712 0.122332
    42 0.024032 -1.136855 -0.001725 -0.816561 0.005189 0.043409
    43 0.014898 -0.907427 -0.004223 -1.596927 0.035390 0.069678
    44 -0.586770 -1.264477 0.200161 -0.942977 -0.752082 -2.153256
    45 1.554086 0.039149 0.016848 -0.011857 -0.004582 0.633632
    46 1.114041 0.044518 -0.005766 -0.027244 -0.034594 0.987350
    47 -0.002676 -0.502335 -0.044199 0.290560 0.059641 1.643449
    48 -4.897483 7.346944 -0.337092 1.581187 -0.017353 -1.099946
  time 15
    0 -6.988495 -8.805170 -2.304758 -0.842765 -0.037710 -1.563392
    1 2.999629 0.000000 1.353194 0.000000 0.000000 1.570798
    2 3.639548 0.000000 3.113282 0.000000 0.000000 1.570798
    3 1.757773 0.000000 1.206649 0.000000 0.000000 1.570798
    4 -1.663432 -0.346000 1.941449 0.000000 0.000000 6.283181
    5 6.316599 -7.765648 -7.160375 0.277203 0.259500 -1.644966
    6 2.999629 0.000000 1.353194 0.000000 0.000000 1.570798
    7 3.639548 0.000000 3.113282 0.000000 0.000000 1.570798
    8 -1.663432 0.346269 1.941449 0.000000 0.000000 0.000093
    9 1.757773 0.000000 1.206649 0.000000 0.000000 1.570798
    10 -0.002752 8.717751 -1.784592 0.000000 0.000000 0.000000
    11 8.263196 -7.034042 -4.006916 6.052739 -2.247138 0.083625
    12 4.882291 7.196131 -0.231840 1.565854 -3.135186 1.084775
    13 -0.071921 -8.447954 -0.108040 -0.105939 0.297025 -0.018261
    14 -0.488518 -2.755602 -0.228260 -0.322686 0.142390 -0.222184
    15 0.039887 -1.530573 0.014229 -1.429120 -0.012596 0.031604
    16 0.028786 -1.204641 -0.132487 -1.347251 -0.014489 0.030225
    17 0.250027 -2.820665 -0.238396 -0.035417 0.071755 -0.133297
    18 -0.049759 -1.594604 0.030164 -1.572272 -0.000048 -0.042056
    19 -0.034142 -1.167844 0.049625 -1.114535 0.007083 -0.029266
    20 0.957766 -2.746780 -0.090302 0.178820 0.052906 -0.000137
    21 -0.033420 -1.397129 -0.026882 -0.960156 0.004638 -0.047064
    22 -0.022360 -0.957436 -0.000748 -0.725383 0.007394 -0.035259
    23 -1.180681 -2.507217 -0.193859 -0.315906 0.221802 -0.059901
    24 -0.024967 -1.123934 0.017597 -0.785370 0.006759 -0.033484
    25 -0.020057 -0.906594 0.033528 -1.043730 0.004698 -0.042809
    26 0.606948 -1.193371 0.181473 0.558160 -0.850531 -0.715709
    27 1.485144 -0.204604 0.063605 0.041559 -0.204409 -0.721327
    28 1.003112 -0.182979 0.044010 0.091906 -0.246178 -1.056612
    29 0.038119 -0.319809 -0.031051 0.239607 3.240698 1.548022
    30 -9.189010 -7.942280 -0.833340 0.030960 -3.260308 0.185382
    31 0.038348 -8.473857 0.033605 0.148869 -0.559563 -0.009443
    32 0.447953 -2.798986 -0.200443 -0.629087 -0.173866 0.282699
    33 -0.032909 -1.499736 0.032285 -1.518168 0.023286 -0.030103
    34 -0.027022 -1.147235 -0.000678 -1.944275 0.021416 -0.041946
    35 -0.249534 -2.846964 -0.174213 -0.497534 -0.112936 0.156176
    36 0.043235 -1.656596 0.060855 -1.670182 -0.024154 0.011985
    37 0.031729 -1.137392 0.051025 -1.444651 -0.016041 0.008312
    38 -0.963866 -2.785145 -0.085350 0.227024 -0.053507 0.022927
    39 0.028479 -1.414786 -0.028886 -1.440103 -0.046153 -0.038578
    40 0.021413 -0.946062 0.016140 -0.822459 -0.019751 -0.030489
    41 1.164475 -2.543940 -0.170330 -0.412729 -0.263712 0.122332
    42 0.024032 -1.136855 -0.001725 -0.816561 0.005189 0.043409
    43 0.014898 -0.907427 -0.004223 -1.596927 0.035390 0.069678
    44 -0.586770 -1.264477 0.200161 -0.942977 -0.752082 -2.153256
    45 1.554086 0.039149 0.016848 -0.011857 -0.004582 0.633632
    46 1.114041 0.044518 -0.005766 -0.027244 -0.034594 0.987350
    47 -0.002676 -0.502335 -0.044199 0.290560 0.059641 1.643449
    48 -4.897483 7.346944 -0.337092 1.581187 -0.017353 -1.099946
  time 16
    0 -6.988495 -8.805170 -2.304758 -0.842765 -0.037710 -1.563392
    1 2.999629 0.000000 1.353194 0.000000 0.000000 1.570798
    2 3.639548 0.000000 3.113282 0.000000 0.000000 1.570798
    3 1.757773 0.000000 1.206649 0.000000 0.000000 1.570798
    4 -1.663432 -0.346000 1.941449 0.000000 0.000000 6.283181
    5 6.308786 -7.761742 -7.152562 0.278053 0.258351 -1.645525
    6 2.999629 0.000000 1.353194 0.000000 0.000000 1.570798
    7 3.639548 0.000000 3.113282 0.000000 0.000000 1.570798
    8 -1.663432 0.346269 1.941449 0.000000 0.000000 0.000093
    9 1.757773 0.000000 1.206649 0.000000 0.000000 1.570798
    10 -0.002752 8.717751 -1.784592 0.000000 0.000000 0.000000
    11 8.263196 -7.030136 -4.010823 6.054557 -2.246095 0.081651
    12 4.897916 7.184412 -0.231840 1.565854 -3.135090 1.082493
    13 -0.071921 -8.447954 -0.108040 -0.105993 0.295281 -0.018494
    14 -0.488518 -2.755602 -0.228260 -0.322686 0.142390 -0.222184
    15 0.039887 -1.530573 0.014229 -1.429120 -0.012596 0.031604
    16 0.028786 -1.204641 -0.132487 -1.347251 -0.014489 0.030225
    17 0.250027 -2.820665 -0.238396 -0.035417 0.071755 -0.133297
    18 -0.049759 -1.594604 0.030164 -1.572272 -0.000048 -0.042056
    19 -0.034142 -1.167844 0.049625 -1.114535 0.007083 -0.029266
    20 0.957766 -2.746780 -0.090302 0.178820 0.052906 -0.000137
    21 -0.033420 -1.397129 -0.026882 -0.960156 0.004638 -0.047064
    22 -0.022360 -0.957436 -0.000748 -0.725383 0.007394 -0.035259
    23 -1.180681 -2.507217 -0.193859 -0.315906 0.221802 -0.059901
    24 -0.024967 -1.123934 0.017597 -0.785370 0.006759 -0.033484
    25 -0.020057 -0.906594 0.033528 -1.043730 0.004698 -0.042809
    26 0.606948 -1.193371 0.181473 0.558160 -0.850531 -0.715709
    27 1.485144 -0.204604 0.063605 0.041559 -0.204409 -0.721327
    28 1.003112 -0.182979 0.044010 0.091906 -0.246178 -1.056612
    29 0.038119 -0.319809 -0.031051 0.239607 3.240698 1.548022
    30 -9.189010 -7.942280 -0.833340 0.030960 -3.260308 0.185382
    31 0.038348 -8.473857 0.033605 0.148869 -0.559563 -0.009443
    32 0.447953 -2.798986 -0.200443 -0.629087 -0.173866 0.282699
    33 -0.032909 -1.499736 0.032285 -1.518168 0.023286 -0.030103
    34 -0.027022 -1.147235 -0.000678 -1.944275 0.021416 -0.041946
    35 -0.249534 -2.846964 -0.174213 -0.497534 -0.112936 0.156176
    36 0.043235 -1.656596 0.060855 -1.670182 -0.024154 0.011985
    37 0.031729 -1.137392 0.051025 -1.444651 -0.016041 0.008312
    38 -0.963866 -2.785145 -0.085350 0.227024 -0.053507 0.022927
    39 0.028479 -1.414786 -0.028886 -1.440103 -0.046153 -0.038578
    40 0.021413 -0.946062 0.016140 -0.822459 -0.019751 -0.030489
    41 1.164475 -2.543940 -0.170330 -0.412729 -0.263712 0.122332
    42 0.024032 -1.136855 -0.001725 -0.816561 0.005189 0.043409
    43 0.014898 -0.907427 -0.004223 -1.596927 0.035390 0.069678
    44 -0.586770 -1.264477 0.200161 -0.942977 -0.752082 -2.153256
    45 1.554086 0.039149 0.016848 -0.011857 -0.004582 0.633632
    46 1.114041 0.044518 -0.005766 -0.027244 -0.034594 0.987350
    47 -0.002676 -0.502335 -0.044199 0.290560 0.059641 1.643449
    48 -4.897483 7.346944 -0.337092 1.581187 -0.017353 -1.099946
  time 17
    0 -6.988495 -8.805170 -2.304758 -0.842765 -0.037710 -1.563392
    1 2.999629 0.000000 1.353194 0.000000 0.000000 1.570798
    2 3.639548 0.000000 3.113282 0.000000 0.000000 1.570798
    3 1.757773 0.000000 1.206649 0.000000 0.000000 1.570798
    4 -1.663432 -0.346000 1.941449 0.000000 0.000000 6.283181
    5 6.277535 -7.746117 -7.097873 0.283435 0.251552 -1.648601
    6 2.999629 0.000000 1.353194 0.000000 0.000000 1.570798
    7 3.639548 0.000000 3.113282 0.000000 0.000000 1.570798
    8 -1.663432 0.346269 1.941449 0.000000 0.000000 0.000093
    9 1.757773 0.000000 1.206649 0.000000 0.000000 1.570798
    10 -0.002752 8.717751 -1.784592 0.000000 0.000000 0.000000
    11 8.267103 -7.010604 -4.022542 6.065945 -2.239741 0.069242
    12 4.987763 7.118003 -0.235747 1.565758 -3.134802 1.068707
    13 -0.071921 -8.447954 -0.111947 -0.106209 0.284925 -0.019944
    14 -0.488518 -2.755602 -0.228260 -0.322686 0.142390 -0.222184
    15 0.039887 -1.530573 0.014229 -1.429120 -0.012596 0.031604
    16 0.028786 -1.204641 -0.132487 -1.347251 -0.014489 0.030225
    17 0.250027 -2.820665 -0.238396 -0.035417 0.071755 -0.133297
    18 -0.049759 -1.594604 0.030164 -1.572272 -0.000048 -0.042056
    19 -0.034142 -1.167844 0.049625 -1.114535 0.007083 -0.029266
    20 0.957766 -2.746780 -0.090302 0.178820 0.052906 -0.000137
    21 -0.033420 -1.397129 -0.026882 -0.960156 0.004638 -0.047064
    22 -0.022360 -0.957436 -0.000748 -0.725383 0.007394 -0.035259
    23 -1.180681 -2.507217 -0.193859 -0.315906 0.221802 -0.059901
    24 -0.024967 -1.123934 0.017597 -0.785370 0.006759 -0.033484
    25 -0.020057 -0.906594 0.033528 -1.043730 0.004698 -0.042809
    26 0.606948 -1.193371 0.181473 0.558160 -0.850531 -0.715709
    27 1.485144 -0.204604 0.063605 0.041559 -0.204409 -0.721327
    28 1.003112 -0.182979 0.044010 0.091906 -0.246178 -1.056612
    29 0.038119 -0.319809 -0.031051 0.239607 3.240698 1.548022
    30 -9.189010 -7.942280 -0.833340 0.030960 -3.260308 0.185382
    31 0.038348 -8.473857 0.033605 0.148869 -0.559563 -0.009443
    32 0.447953 -2.798986 -0.200443 -0.629087 -0.173866 0.282699
    33 -0.032909 -1.499736 0.032285 -1.518168 0.023286 -0.030103
    34 -0.027022 -1.147235 -0.000678 -1.944275 0.021416 -0.041946
    35 -0.249534 -2.846964 -0.174213 -0.497534 -0.112936 0.156176
    36 0.043235 -1.656596 0.060855 -1.670182 -0.024154 0.011985
    37 0.031729 -1.137392 0.051025 -1.444651 -0.016041 0.008312
    38 -0.963866 -2.785145 -0.085350 0.227024 -0.053507 0.022927
    39 0.028479 -1.414786 -0.028886 -1.440103 -0.046153 -0.038578
    40 0.021413 -0.946062 0.016140 -0.822459 -0.019751 -0.030489
    41 1.164475 -2.543940 -0.170330 -0.412729 -0.263712 0.122332
    42 0.024032 -1.136855 -0.001725 -0.816561 0.005189 0.043409
    43 0.014898 -0.907427 -0.004223 -1.596927 0.035390 0.069678
    44 -0.586770 -1.264477 0.200161 -0.942977 -0.752082 -2.153256
    45 1.554086 0.039149 0.016848 -0.011857 -0.004582 0.633632
    46 1.114041 0.044518 -0.005766 -0.027244 -0.034594 0.987350
    47 -0.002676 -0.502335 -0.044199 0.290560 0.059641 1.643449
    48 -4.897483 7.346944 -0.337092 1.581187 -0.017353 -1.099946
  time 18
    0 -6.988495 -8.805170 -2.304758 -0.842765 -0.037710 -1.563392
    1 2.999629 0.000000 1.353194 0.000000 0.000000 1.570798
    2 3.639548 0.000000 3.113282 0.000000 0.000000 1.570798
    3 1.757773 0.000000 1.206649 0.000000 0.000000 1.570798
    4 -1.663432 -0.346000 1.941449 0.000000 0.000000 6.283181
    5 6.230659 -7.718772 -7.023652 0.290705 0.242359 -1.652515
    6 2.999629 0.000000 1.353194 0.000000 0.000000 1.570798
    7 3.639548 0.000000 3.113282 0.000000 0.000000 1.570798
    8 -1.663432 0.346269 1.941449 0.000000 0.000000 0.000093
    9 1.757773 0.000000 1.206649 0.000000 0.000000 1.570798
    10 -0.002752 8.717751 -1.784592 0.000000 0.000000 0.000000
    11 8.271009 -6.983259 -4.042074 6.081544 -2.231490 0.052509
    12 5.101047 7.024250 -0.235747 1.565662 -3.134419 1.050453
    13 -0.071921 -8.447954 -0.111947 -0.106533 0.271031 -0.021815
    14 -0.488518 -2.755602 -0.228260 -0.322686 0.142390 -0.222184
    15 0.039887 -1.530573 0.014229 -1.429120 -0.012596 0.031604
    16 0.028786 -1.204641 -0.132487 -1.347251 -0.014489 0.030225
    17 0.250027 -2.820665 -0.238396 -0.035417 0.071755 -0.133297
    18 -0.049759 -1.594604 0.030164 -1.572272 -0.000048 -0.042056
    19 -0.034142 -1.167844 0.049625 -1.114535 0.007083 -0.029266
    20 0.957766 -2.746780 -0.090302 0.178820 0.052906 -0.000137
    21 -0.033420 -1.397129 -0.026882 -0.960156 0.004638 -0.047064
    22 -0.022360 -0.957436 -0.000748 -0.725383 0.007394 -0.035259
    23 -1.180681 -2.507217 -0.193859 -0.315906 0.221802 -0.059901
    24 -0.024967 -1.123934 0.017597 -0.785370 0.006759 -0.033484
    25 -0.020057 -0.906594 0.033528 -1.043730 0.004698 -0.042809
    26 0.606948 -1.193371 0.181473 0.558160 -0.850531 -0.715709
    27 1.485144 -0.204604 0.063605 0.041559 -0.204409 -0.721327
    28 1.003112 -0.182979 0.044010 0.091906 -0.246178 -1.056612
    29 0.038119 -0.319809 -0.031051 0.239607 3.240698 1.548022
    30 -9.189010 -7.942280 -0.833340 0.030960 -3.260308 0.185382
    31 0.038348 -8.473857 0.033605 0.148869 -0.559563 -0.009443
    32 0.447953 -2.798986 -0.200443 -0.629087 -0.173866 0.282699
    33 -0.032909 -1.499736 0.032285 -1.518168 0.023286 -0.030103
    34 -0.027022 -1.147235 -0.000678 -1.944275 0.021416 -0.041946
    35 -0.249534 -2.846964 -0.174213 -0.497534 -0.112936 0.156176
    36 0.043235 -1.656596 0.060855 -1.670182 -0.024154 0.011985
    37 0.031729 -1.137392 0.051025 -1.444651 -0.016041 0.008312
    38 -0.963866 -2.785145 -0.085350 0.227024 -0.053507 0.022927
    39 0.028479 -1.414786 -0.028886 -1.440103 -0.046153 -0.038578
    40 0.021413 -0.946062 0.016140 -0.822459 -0.019751 -0.030489
    41 1.164475 -2.543940 -0.170330 -0.412729 -0.263712 0.122332
    42 0.024032 -1.136855 -0.001725 -0.816561 0.005189 0.043409
    43 0.014898 -0.907427 -0.004223 -1.596927 0.035390 0.069678
    44 -0.586770 -1.264477 0.200161 -0.942977 -0.752082 -2.153256
    45 1.554086 0.039149 0.016848 -0.011857 -0.004582 0.633632
    46 1.114041 0.044518 -0.005766 -0.027244 -0.034594 0.987350
    47 -0.002676 -0.502335 -0.044199 0.290560 0.059641 1.643449
    48 -4.897483 7.346944 -0.337092 1.581187 -0.017353 -1.099946
  time 19
    0 -6.988495 -8.805170 -2.304758 -0.842765 -0.037710 -1.563392
    1 2.999629 0.000000 1.353194 0.000000 0.000000 1.570798
    2 3.639548 0.000000 3.113282 0.000000 0.000000 1.570798
    3 1.757773 0.000000 1.206649 0.000000 0.000000 1.570798
    4 -1.663432 -0.346000 1.941449 0.000000 0.000000 6.283181
    5 6.195502 -7.695334 -6.957244 0.297125 0.234220 -1.655777
    6 2.999629 0.000000 1.353194 0.000000 0.000000 1.570798
    7 3.639548 0.000000 3.113282 0.000000 0.000000 1.570798
    8 -1.663432 0.346269 1.941449 0.000000 0.000000 0.000093
    9 1.757773 0.000000 1.206649 0.000000 0.000000 1.570798
    10 -0.002752 8.717751 -1.784592 0.000000 0.000000 0.000000
    11 8.274916 -6.959821 -4.057699 6.095516 -2.224377 0.037469
    12 5.202613 6.938310 -0.239653 1.565566 -3.134131 1.034385
    13 -0.075827 -8.447954 -0.115853 -0.106803 0.258880 -0.023499
    14 -0.488518 -2.755602 -0.228260 -0.322686 0.142390 -0.222184
    15 0.039887 -1.530573 0.014229 -1.429120 -0.012596 0.031604
    16 0.028786 -1.204641 -0.132487 -1.347251 -0.014489 0.030225
    17 0.250027 -2.820665 -0.238396 -0.035417 0.071755 -0.133297
    18 -0.049759 -1.594604 0.030164 -1.572272 -0.000048 -0.042056
    19 -0.034142 -1.167844 0.049625 -1.114535 0.007083 -0.029266
    20 0.957766 -2.746780 -0.090302 0.178820 0.052906 -0.000137
    21 -0.033420 -1.397129 -0.026882 -0.960156 0.004638 -0.047064
    22 -0.022360 -0.957436 -0.000748 -0.725383 0.007394 -0.035259
    23 -1.180681 -2.507217 -0.193859 -0.315906 0.221802 -0.059901
    24 -0.024967 -1.123934 0.017597 -0.785370 0.006759 -0.033484
    25 -0.020057 -0.906594 0.033528 -1.043730 0.004698 -0.042809
    26 0.606948 -1.193371 0.181473 0.558160 -0.850531 -0.715709
    27 1.485144 -0.204604 0.063605 0.041559 -0.204409 -0.721327
    28 1.003112 -0.182979 0.044010 0.091906 -0.246178 -1.056612
    29 0.038119 -0.319809 -0.031051 0.239607 3.240698 1.548022
    30 -9.189010 -7.942280 -0.833340 0.030960 -3.260308 0.185382
    31 0.038348 -8.473857 0.033605 0.148869 -0.559563 -0.009443
    32 0.447953 -2.798986 -0.200443 -0.629087 -0.173866 0.282699
    33 -0.032909 -1.499736 0.032285 -1.518168 0.023286 -0.030103
    34 -0.027022 -1.147235 -0.000678 -1.944275 0.021416 -0.041946
    35 -0.249534 -2.846964 -0.174213 -0.497534 -0.112936 0.156176
    36 0.043235 -1.656596 0.060855 -1.670182 -0.024154 0.011985
    37 0.031729 -1.137392 0.051025 -1.444651 -0.016041 0.008312
    38 -0.963866 -2.785145 -0.085350 0.227024 -0.053507 0.022927
    39 0.028479 -1.414786 -0.028886 -1.440103 -0.046153 -0.038578
    40 0.021413 -0.946062 0.016140 -0.822459 -0.019751 -0.030489
    41 1.164475 -2.543940 -0.170330 -0.412729 -0.263712 0.122332
    42 0.024032 -1.136855 -0.001725 -0.816561 0.005189 0.043409
    43 0.014898 -0.907427 -0.004223 -1.596927 0.035390 0.069678
    44 -0.586770 -1.264477 0.200161 -0.942977 -0.752082 -2.153256
    45 1.554086 0.039149 0.016848 -0.011857 -0.004582 0.633632
    46 1.114041 0.044518 -0.005766 -0.027244 -0.034594 0.987350
    47 -0.002676 -0.502335 -0.044199 0.290560 0.059641 1.643449
    48 -4.897483 7.346944 -0.337092 1.581187 -0.017353 -1.099946
  time 20
    0 -6.988495 -8.805170 -2.304758 -0.842765 -0.037710 -1.563392
    1 2.999629 0.000000 1.353194 0.000000 0.000000 1.570798
    2 3.639548 0.000000 3.113282 0.000000 0.000000 1.570798
    3 1.757773 0.000000 1.206649 0.000000 0.000000 1.570798
    4 -1.663432 -0.346000 1.941449 0.000000 0.000000 6.283181
    5 6.179876 -7.687521 -6.929899 0.299863 0.230677 -1.657175
    6 2.999629 0.000000 1.353194 0.000000 0.000000 1.570798
    7 3.639548 0.000000 3.113282 0.000000 0.000000 1.570798
    8 -1.663432 0.346269 1.941449 0.000000 0.000000 0.000093
    9 1.757773 0.000000 1.206649 0.000000 0.000000 1.570798
    10 -0.002752 8.717751 -1.784592 0.000000 0.000000 0.000000
    11 8.278822 -6.948102 -4.065512 6.101736 -2.221437 0.030888
    12 5.245583 6.903153 -0.239653 1.565566 -3.133939 1.027539
    13 -0.075827 -8.447954 -0.115853 -0.106911 0.253702 -0.024200
    14 -0.488518 -2.755602 -0.228260 -0.322686 0.142390 -0.222184
    15 0.039887 -1.530573 0.014229 -1.429120 -0.012596 0.031604
    16 0.028786 -1.204641 -0.132487 -1.347251 -0.014489 0.030225
    17 0.250027 -2.820665 -0.238396 -0.035417 0.071755 -0.133297
    18 -0.049759 -1.594604 0.030164 -1.572272 -0.000048 -0.042056
    19 -0.034142 -1.167844 0.049625 -1.114535 0.007083 -0.029266
    20 0.957766 -2.746780 -0.090302 0.178820 0.052906 -0.000137
    21 -0.033420 -1.397129 -0.026882 -0.960156 0.004638 -0.047064
    22 -0.022360 -0.957436 -0.000748 -0.725383 0.007394 -0.035259
    23 -1.180681 -2.507217 -0.193859 -0.315906 0.221802 -0.059901
    24 -0.024967 -1.123934 0.017597 -0.785370 0.006759 -0.033484
    25 -0.020057 -0.906594 0.033528 -1.043730 0.004698 -0.042809
    26 0.606948 -1.193371 0.181473 0.558160 -0.850531 -0.715709
    27 1.485144 -0.204604 0.063605 0.041559 -0.204409 -0.721327
    28 1.003112 -0.182979 0.044010 0.091906 -0.246178 -1.056612
    29 0.038119 -0.319809 -0.031051 0.239607 3.240698 1.548022
    30 -9.189010 -7.942280 -0.833340 0.030960 -3.260308 0.185382
    31 0.038348 -8.473857 0.033605 0.148869 -0.559563 -0.009443
    32 0.447953 -2.798986 -0.200443 -0.629087 -0.173866 0.282699
    33 -0.032909 -1.499736 0.032285 -1.518168 0.023286 -0.030103
    34 -0.027022 -1.147235 -0.000678 -1.944275 0.021416 -0.041946
    35 -0.249534 -2.846964 -0.174213 -0.497534 -0.112936 0.156176
    36 0.043235 -1.656596 0.060855 -1.670182 -0.024154 0.011985
    37 0.031729 -1.137392 0.051025 -1.444651 -0.016041 0.008312
    38 -0.963866 -2.785145 -0.085350 0.227024 -0.053507 0.022927
    39 0.028479 -1.414786 -0.028886 -1.440103 -0.046153 -0.038578
    40 0.021413 -0.946062 0.016140 -0.822459 -0.019751 -0.030489
    41 1.164475 -2.543940 -0.170330 -0.412729 -0.263712 0.122332
    42 0.024032 -1.136855 -0.001725 -0.816561 0.005189 0.043409
    43 0.014898 -0.907427 -0.004223 -1.596927 0.035390 0.069678
    44 -0.586770 -1.264477 0.200161 -0.942977 -0.752082 -2.153256
    45 1.554086 0.039149 0.016848 -0.011857 -0.004582 0.633632
    46 1.114041 0.044518 -0.005766 -0.027244 -0.034594 0.987350
    47 -0.002676 -0.502335 -0.044199 0.290560 0.059641 1.643449
    48 -4.897483 7.346944 -0.337092 1.581187 -0.017353 -1.099946
end
