// Created by Crowbar 0.34.0.0

$ModelName "weapons/tfa_cso/w_spas12ex.mdl"

$BodyGroup "studio"
{
	studio "v_spas12ex_ref"
}

$collisionmodel "v_spas12ex_ref.smd"
{
	$mass 9
}

$CDMaterials "models\weapons\tfa_cso\spas12ex"

$attachment "0" "root" 0.00 -16.90 0.70 rotate -0 0 0

$Sequence "idle" {
	"anims\idle.smd"
	fps 30
}