version 1
nodes
  0 "Bone01" -1
  1 "Bone_Lefthand" 0
  2 "Bone_XM8" 1
  3 "Bone_Magazine_Clip" 2
  4 "Bone_Magazine" 2
  5 "Bone_Bullet_case" 2
  6 "Bone_ReloadB" 2
  7 "Bone_ReloadA" 6
  8 "Bone_SharpenShooter" 2
  9 "Bone_Carbine" 2
  10 "Bone_Chongyol" 2
  11 "Bone_Chongyol_Cover" 10
  12 "Bone_Clip" 2
  13 "Bone_Scope_Carbine" 2
  14 "Bone_Scope_Sharp" 2
  15 "bone_chongyoul_dummy" 2
  16 "Bone4" 1
  17 "Bone13" 16
  18 "Bone14" 17
  19 "Bone15" 18
  20 "Bone17" 16
  21 "Bone18" 20
  22 "Bone19" 21
  23 "Bone21" 16
  24 "Bone22" 23
  25 "Bone23" 24
  26 "Bone05" 16
  27 "Bone06" 26
  28 "Bone07" 27
  29 "Bone09" 16
  30 "Bone10" 29
  31 "Bone11" 30
  32 "Bone04" -1
  33 "Bone_Righthand" 32
  34 "Bone26" 33
  35 "Bone35" 34
  36 "Bone36" 35
  37 "Bone37" 36
  38 "Bone31" 34
  39 "Bone32" 38
  40 "Bone33" 39
  41 "Bone39" 34
  42 "Bone40" 41
  43 "Bone41" 42
  44 "Bone43" 34
  45 "Bone44" 44
  46 "Bone45" 45
  47 "Bone27" 34
  48 "Bone28" 47
  49 "Bone29" 48
end
skeleton
  time 0
    0 8.485879 2.889473 -7.610345 -0.451735 -1.193902 0.136016
    1 -0.021280 -8.563255 -0.000751 0.415614 -0.351406 -0.048999
    2 0.792406 -2.905200 0.835872 2.680096 -1.494964 0.470879
    3 -0.028195 2.698898 -0.230784 0.000000 0.000000 0.000000
    4 -0.000001 4.191838 -0.843241 0.000000 0.000000 0.000000
    5 0.195636 2.344026 2.013436 0.000000 0.000000 0.000000
    6 0.000001 4.251491 3.144327 0.000000 0.000000 0.000000
    7 0.000000 1.957418 -0.226470 0.000000 0.000000 0.000000
    8 -0.000278 18.790774 1.916064 0.000000 0.000000 0.000000
    9 -4.199346 -25.533918 -1.764880 0.000000 0.000000 0.000000
    10 0.000001 11.449860 1.851792 0.000000 0.000000 0.000000
    11 0.000000 1.934806 -0.630419 0.000000 0.000000 0.000000
    12 0.000000 1.253695 0.634938 -0.145645 0.008689 0.006484
    13 0.044885 0.941603 4.711482 0.000000 0.000000 0.000000
    14 0.027106 0.819939 4.351317 0.000000 0.000000 0.000000
    15 0.000001 9.949661 2.586495 0.000000 0.000000 0.000000
    16 -0.003480 -0.404828 0.000000 -0.000001 0.000000 0.000000
    17 -0.519309 -2.501154 -0.278957 -0.879568 -0.036235 -0.324918
    18 -0.010599 -1.208185 0.000000 -1.185576 0.000000 0.000000
    19 0.000000 -0.763066 0.000000 -0.741497 0.000000 0.000000
    20 0.105981 -2.607134 -0.278957 -0.872556 -0.035899 -0.258089
    21 0.000000 -1.250579 0.000000 -0.794537 0.000000 0.000000
    22 0.000000 -0.932635 0.000000 -1.567302 0.000000 0.000000
    23 0.763065 -2.490556 -0.278958 -0.383225 0.040172 0.012324
    24 -0.012322 -1.280917 0.000000 -0.598899 0.000000 0.000000
    25 -0.001696 -0.738089 0.129481 -0.661054 0.000000 0.000000
    26 0.354567 0.016267 0.318133 0.308709 -0.503867 -0.874878
    27 1.887165 0.012878 0.000000 -0.095972 -0.113060 -1.028586
    28 1.001874 -0.000270 0.000000 0.000000 0.000000 -0.250165
    29 -1.123358 -2.195093 -0.278957 -1.061907 0.026409 -0.326972
    30 0.010772 -0.963791 0.000001 -0.810998 0.000000 0.000000
    31 -0.010412 -0.631916 0.000000 -0.691889 0.000000 0.000000
    32 -0.302231 -12.299910 -10.794332 -0.880518 0.355556 0.564182
    33 0.089928 -8.543165 0.000002 0.677002 -0.697328 -0.019319
    34 0.000000 -0.359714 0.000001 0.000000 0.000000 0.000000
    35 -0.170480 -2.636148 -0.277655 -1.043745 -0.052707 0.090280
    36 0.010599 -1.261177 0.000001 -0.473462 0.000000 0.000000
    37 0.000000 -0.943233 -0.000001 -0.944945 0.000000 0.000000
    38 -0.827563 -2.508972 -0.277656 -0.652127 -0.046328 0.035347
    39 0.000000 -1.292972 -0.000001 -0.708426 0.000000 0.000000
    40 -0.000002 -0.752465 0.000000 -0.777556 -0.248777 0.191914
    41 0.444212 -2.561962 -0.277655 -1.341904 0.037900 0.168005
    42 0.021023 -1.208187 0.000001 -0.304120 0.000000 0.000000
    43 0.010598 -0.741867 -0.000001 -0.721161 0.000000 0.000000
    44 1.047445 -2.222822 -0.277654 -1.356438 -0.069503 -0.040766
    45 -0.000001 -0.996223 -0.000001 -1.199027 0.000000 0.000000
    46 -0.000001 -0.614691 0.000000 -1.031474 0.000000 0.000000
    47 -0.308256 -0.007814 0.307165 -0.223037 -0.506230 -2.447991
    48 1.978377 0.019544 0.000000 0.057141 -0.049951 0.249261
    49 0.980611 0.058420 -0.012629 0.225287 0.009851 0.000629
  time 1
    0 8.485879 3.463709 -7.704098 -0.444437 -1.194809 0.127057
    1 -0.021280 -8.563255 -0.000751 0.420980 -0.361422 -0.063546
    2 0.792406 -2.905200 0.835872 2.680096 -1.494964 0.470879
    3 -0.028195 2.698898 -0.230784 0.000000 0.000000 0.000000
    4 -0.000001 4.191838 -0.843241 0.000000 0.000000 0.000000
    5 0.195636 0.992422 2.013436 0.000000 0.000000 0.000000
    6 0.000001 0.934984 3.144327 0.000000 0.000000 0.000000
    7 0.000000 1.957418 -0.226470 0.000000 0.000000 0.000000
    8 -0.000278 18.790774 1.916064 0.000000 0.000000 0.000000
    9 -4.199346 -25.533918 -1.764880 0.000000 0.000000 0.000000
    10 0.000001 11.449860 1.851792 0.000000 0.000000 0.000000
    11 0.000000 1.934806 -0.630419 0.000000 0.000000 0.000000
    12 0.000000 1.253695 0.634938 -0.579818 0.017390 0.012967
    13 0.044885 0.941603 4.711482 0.000000 0.000000 0.000000
    14 0.027106 0.819939 4.351317 0.000000 0.000000 0.000000
    15 0.000001 9.949661 2.586495 0.000000 0.000000 0.000000
    16 -0.003480 -0.404828 0.000000 -0.000001 0.000000 0.000000
    17 -0.519309 -2.501154 -0.278957 -0.879568 -0.036235 -0.324918
    18 -0.010599 -1.208185 0.000000 -1.185576 0.000000 0.000000
    19 0.000000 -0.763066 0.000000 -0.741497 0.000000 0.000000
    20 0.105981 -2.607134 -0.278957 -0.872556 -0.035899 -0.258089
    21 0.000000 -1.250579 0.000000 -0.794537 0.000000 0.000000
    22 0.000000 -0.932635 0.000000 -1.567302 0.000000 0.000000
    23 0.763065 -2.490556 -0.278958 -0.452594 0.040172 0.012324
    24 -0.012322 -1.280917 0.000000 -0.820732 0.000000 0.000000
    25 -0.001696 -0.738089 0.129481 -0.704708 0.000000 0.000000
    26 0.354567 0.016267 0.318133 0.308709 -0.503867 -0.874878
    27 1.887165 0.012878 0.000000 -0.095972 -0.113060 -1.028586
    28 1.001874 -0.000270 0.000000 0.000000 0.000000 -0.250165
    29 -1.123358 -2.195093 -0.278957 -1.061907 0.026409 -0.326972
    30 0.010772 -0.963791 0.000001 -0.810998 0.000000 0.000000
    31 -0.010412 -0.631916 0.000000 -0.691889 0.000000 0.000000
    32 -0.302231 -12.299910 -11.298254 -0.909385 0.378132 0.586404
    33 0.089928 -8.543165 0.000002 0.572407 -0.709437 -0.027816
    34 0.000000 -0.359714 0.000001 0.000000 0.000000 0.000000
    35 -0.170480 -2.636148 -0.277655 -1.043745 -0.052707 0.090280
    36 0.010599 -1.261177 0.000001 -0.473462 0.000000 0.000000
    37 0.000000 -0.943233 -0.000001 -0.944945 0.000000 0.000000
    38 -0.827563 -2.508972 -0.277656 -0.652127 -0.046328 0.035347
    39 0.000000 -1.292972 -0.000001 -0.708426 0.000000 0.000000
    40 -0.000002 -0.752465 0.000000 -0.777556 -0.248777 0.191914
    41 0.444212 -2.561962 -0.277655 -1.341904 0.037900 0.168005
    42 0.021023 -1.208187 0.000001 -0.304120 0.000000 0.000000
    43 0.010598 -0.741867 -0.000001 -0.721161 0.000000 0.000000
    44 1.047445 -2.222822 -0.277654 -1.356438 -0.069503 -0.040766
    45 -0.000001 -0.996223 -0.000001 -1.199027 0.000000 0.000000
    46 -0.000001 -0.614691 0.000000 -1.031474 0.000000 0.000000
    47 -0.308256 -0.007814 0.307165 -0.212652 -0.486223 -2.470032
    48 1.978377 0.019544 0.000000 0.058160 -0.048693 0.228000
    49 0.980611 0.058420 -0.012629 0.225311 0.007718 0.009923
  time 2
    0 8.485879 3.850440 -7.793945 -0.439206 -1.195523 0.118859
    1 -0.021280 -8.563255 -0.000751 0.435547 -0.305397 -0.108351
    2 0.792406 -2.905200 0.835872 2.680096 -1.494964 0.470879
    3 -0.028195 2.698898 -0.230784 0.000000 0.000000 0.000000
    4 -0.000001 4.191838 -0.843241 0.000000 0.000000 0.000000
    5 0.195636 0.992422 2.013436 0.000000 0.000000 0.000000
    6 0.000001 0.876388 3.144327 0.000000 0.000000 0.000000
    7 0.000000 1.957418 -0.226470 0.000000 0.000000 0.000000
    8 -0.000278 18.790774 1.916064 0.000000 0.000000 0.000000
    9 -4.199346 -25.533918 -1.764880 0.000000 0.000000 0.000000
    10 0.000001 11.449860 1.851792 0.000000 0.000000 0.000000
    11 0.000000 1.934806 -0.630419 0.000000 0.000000 0.000000
    12 0.000000 1.253695 0.634938 -0.579818 0.017390 0.012967
    13 0.044885 0.941603 4.711482 0.000000 0.000000 0.000000
    14 0.027106 0.819939 4.351317 0.000000 0.000000 0.000000
    15 0.000001 9.949661 2.586495 0.000000 0.000000 0.000000
    16 -0.003480 -0.404828 0.000000 -0.000001 0.000000 0.000000
    17 -0.519309 -2.501154 -0.278957 -0.879568 -0.036235 -0.324918
    18 -0.010599 -1.208185 0.000000 -1.185576 0.000000 0.000000
    19 0.000000 -0.763066 0.000000 -0.741497 0.000000 0.000000
    20 0.105981 -2.607134 -0.278957 -0.872556 -0.035899 -0.258089
    21 0.000000 -1.250579 0.000000 -0.794537 0.000000 0.000000
    22 0.000000 -0.932635 0.000000 -1.567302 0.000000 0.000000
    23 0.763065 -2.490556 -0.278958 -0.452594 0.040172 0.012324
    24 -0.012322 -1.280917 0.000000 -0.854310 0.000000 0.000000
    25 -0.001696 -0.738089 0.129481 -0.749118 0.000000 0.000000
    26 0.354567 0.016267 0.318133 0.308709 -0.503867 -0.874878
    27 1.887165 0.012878 0.000000 -0.095972 -0.113060 -1.028586
    28 1.001874 -0.000270 0.000000 0.000000 0.000000 -0.250165
    29 -1.123358 -2.195093 -0.278957 -1.061907 0.026409 -0.326972
    30 0.010772 -0.963791 0.000001 -0.810998 0.000000 0.000000
    31 -0.010412 -0.631916 0.000000 -0.691889 0.000000 0.000000
    32 -0.302231 -12.299910 -11.548261 -0.901298 0.403578 0.611164
    33 0.089928 -8.543165 0.000002 0.516095 -0.715960 -0.032392
    34 0.000000 -0.359714 0.000001 0.000000 0.000000 0.000000
    35 -0.170480 -2.636148 -0.277655 -1.043745 -0.052707 0.090280
    36 0.010599 -1.261177 0.000001 -0.473462 0.000000 0.000000
    37 0.000000 -0.943233 -0.000001 -0.944945 0.000000 0.000000
    38 -0.827563 -2.508972 -0.277656 -0.652127 -0.046328 0.035347
    39 0.000000 -1.292972 -0.000001 -0.708426 0.000000 0.000000
    40 -0.000002 -0.752465 0.000000 -0.777556 -0.248777 0.191914
    41 0.444212 -2.561962 -0.277655 -1.341904 0.037900 0.168005
    42 0.021023 -1.208187 0.000001 -0.304120 0.000000 0.000000
    43 0.010598 -0.741867 -0.000001 -0.721161 0.000000 0.000000
    44 1.047445 -2.222822 -0.277654 -1.356438 -0.069503 -0.040766
    45 -0.000001 -0.996223 -0.000001 -1.199027 0.000000 0.000000
    46 -0.000001 -0.614691 0.000000 -1.031474 0.000000 0.000000
    47 -0.308256 -0.007814 0.307165 -0.217547 -0.357297 -2.447819
    48 1.978377 0.019544 0.000000 0.060008 -0.046368 0.188540
    49 0.980611 0.058420 -0.012629 0.225323 0.004686 0.023147
  time 3
    0 8.485879 3.729343 -7.672847 -0.435821 -1.196017 0.112267
    1 -0.021280 -8.563255 -0.000751 0.448793 -0.279776 -0.156578
    2 0.792406 -2.905200 0.835872 2.680096 -1.494964 0.470879
    3 -0.028195 2.698898 -0.230784 0.000000 0.000000 0.000000
    4 -0.000001 4.191838 -0.843241 0.000000 0.000000 0.000000
    5 0.195636 0.992422 2.013436 0.000000 0.000000 0.000000
    6 0.000001 2.462374 3.144327 0.000000 0.000000 0.000000
    7 0.000000 1.957418 -0.226470 0.000000 0.000000 0.000000
    8 -0.000278 18.790774 1.916064 0.000000 0.000000 0.000000
    9 -4.199346 -25.533918 -1.764880 0.000000 0.000000 0.000000
    10 0.000001 11.449860 1.851792 0.000000 0.000000 0.000000
    11 0.000000 1.934806 -0.630419 0.000000 0.000000 0.000000
    12 0.000000 1.253695 0.634938 -0.579818 0.017390 0.012967
    13 0.044885 0.941603 4.711482 0.000000 0.000000 0.000000
    14 0.027106 0.819939 4.351317 0.000000 0.000000 0.000000
    15 0.000001 9.949661 2.586495 0.000000 0.000000 0.000000
    16 -0.003480 -0.404828 0.000000 -0.000001 0.000000 0.000000
    17 -0.519309 -2.501154 -0.278957 -0.879568 -0.036235 -0.324918
    18 -0.010599 -1.208185 0.000000 -1.185576 0.000000 0.000000
    19 0.000000 -0.763066 0.000000 -0.741497 0.000000 0.000000
    20 0.105981 -2.607134 -0.278957 -0.872556 -0.035899 -0.258089
    21 0.000000 -1.250579 0.000000 -0.794537 0.000000 0.000000
    22 0.000000 -0.932635 0.000000 -1.567302 0.000000 0.000000
    23 0.763065 -2.490556 -0.278958 -0.452594 0.040172 0.012324
    24 -0.012322 -1.280917 0.000000 -0.869414 0.000000 0.000000
    25 -0.001696 -0.738089 0.129481 -0.797025 0.000000 0.000000
    26 0.354567 0.016267 0.318133 0.308709 -0.503867 -0.874878
    27 1.887165 0.012878 0.000000 -0.095972 -0.113060 -1.028586
    28 1.001874 -0.000270 0.000000 0.000000 0.000000 -0.250165
    29 -1.123358 -2.195093 -0.278957 -1.061907 0.026409 -0.326972
    30 0.010772 -0.963791 0.000001 -0.810998 0.000000 0.000000
    31 -0.010412 -0.631916 0.000000 -0.691889 0.000000 0.000000
    32 -0.302231 -12.299910 -11.540449 -0.857763 0.405682 0.614470
    33 0.089928 -8.543165 0.000002 0.542324 -0.713350 -0.030531
    34 0.000000 -0.359714 0.000001 0.000000 0.000000 0.000000
    35 -0.170480 -2.636148 -0.277655 -1.043745 -0.052707 0.090280
    36 0.010599 -1.261177 0.000001 -0.473462 0.000000 0.000000
    37 0.000000 -0.943233 -0.000001 -0.944945 0.000000 0.000000
    38 -0.827563 -2.508972 -0.277656 -0.652127 -0.046328 0.035347
    39 0.000000 -1.292972 -0.000001 -0.708426 0.000000 0.000000
    40 -0.000002 -0.752465 0.000000 -0.777556 -0.248777 0.191914
    41 0.444212 -2.561962 -0.277655 -1.341904 0.037900 0.168005
    42 0.021023 -1.208187 0.000001 -0.304120 0.000000 0.000000
    43 0.010598 -0.741867 -0.000001 -0.721161 0.000000 0.000000
    44 1.047445 -2.222822 -0.277654 -1.356438 -0.069503 -0.040766
    45 -0.000001 -0.996223 -0.000001 -1.199027 0.000000 0.000000
    46 -0.000001 -0.614691 0.000000 -1.031474 0.000000 0.000000
    47 -0.308256 -0.007814 0.307165 -0.215288 -0.375393 -2.455709
    48 1.978377 0.019544 0.000000 0.061027 -0.045109 0.167307
    49 0.980611 0.058420 -0.012629 0.225347 0.001198 0.038370
  time 4
    0 8.485879 3.467616 -7.446278 -0.433974 -1.196347 0.107703
    1 -0.021280 -8.563255 -0.000751 0.456204 -0.269469 -0.184643
    2 0.792406 -2.905200 0.835872 2.680096 -1.494964 0.470879
    3 -0.028195 2.698898 -0.230784 0.000000 0.000000 0.000000
    4 -0.000001 4.191838 -0.843241 0.000000 0.000000 0.000000
    5 0.195636 1.691662 2.013436 0.000000 0.000000 0.000000
    6 0.000001 4.251491 3.144327 0.000000 0.000000 0.000000
    7 0.000000 1.957418 -0.226470 0.000000 0.000000 0.000000
    8 -0.000278 18.790774 1.916064 0.000000 0.000000 0.000000
    9 -4.199346 -25.533918 -1.764880 0.000000 0.000000 0.000000
    10 0.000001 11.449860 1.851792 0.000000 0.000000 0.000000
    11 0.000000 1.934806 -0.630419 0.000000 0.000000 0.000000
    12 0.000000 1.253695 0.634938 -0.579818 0.017390 0.012967
    13 0.044885 0.941603 4.711482 0.000000 0.000000 0.000000
    14 0.027106 0.819939 4.351317 0.000000 0.000000 0.000000
    15 0.000001 9.949661 2.586495 0.000000 0.000000 0.000000
    16 -0.003480 -0.404828 0.000000 -0.000001 0.000000 0.000000
    17 -0.519309 -2.501154 -0.278957 -0.879568 -0.036235 -0.324918
    18 -0.010599 -1.208185 0.000000 -1.185576 0.000000 0.000000
    19 0.000000 -0.763066 0.000000 -0.741497 0.000000 0.000000
    20 0.105981 -2.607134 -0.278957 -0.872556 -0.035899 -0.258089
    21 0.000000 -1.250579 0.000000 -0.794537 0.000000 0.000000
    22 0.000000 -0.932635 0.000000 -1.567302 0.000000 0.000000
    23 0.763065 -2.490556 -0.278958 -0.452594 0.040172 0.012324
    24 -0.012322 -1.280917 0.000000 -0.872954 0.000000 0.000000
    25 -0.001696 -0.738089 0.129481 -0.843930 0.000000 0.000000
    26 0.354567 0.016267 0.318133 0.308709 -0.503867 -0.874878
    27 1.887165 0.012878 0.000000 -0.095972 -0.113060 -1.028586
    28 1.001874 -0.000270 0.000000 0.000000 0.000000 -0.250165
    29 -1.123358 -2.195093 -0.278957 -1.061907 0.026409 -0.326972
    30 0.010772 -0.963791 0.000001 -0.810998 0.000000 0.000000
    31 -0.010412 -0.631916 0.000000 -0.691889 0.000000 0.000000
    32 -0.302231 -12.299910 -11.497479 -0.831811 0.392290 0.601398
    33 0.089928 -8.543165 0.000002 0.604096 -0.706909 -0.025954
    34 0.000000 -0.359714 0.000001 0.000000 0.000000 0.000000
    35 -0.170480 -2.636148 -0.277655 -1.043745 -0.052707 0.090280
    36 0.010599 -1.261177 0.000001 -0.473462 0.000000 0.000000
    37 0.000000 -0.943233 -0.000001 -0.944945 0.000000 0.000000
    38 -0.827563 -2.508972 -0.277656 -0.652127 -0.046328 0.035347
    39 0.000000 -1.292972 -0.000001 -0.708426 0.000000 0.000000
    40 -0.000002 -0.752465 0.000000 -0.777556 -0.248777 0.191914
    41 0.444212 -2.561962 -0.277655 -1.341904 0.037900 0.168005
    42 0.021023 -1.208187 0.000001 -0.304120 0.000000 0.000000
    43 0.010598 -0.741867 -0.000001 -0.721161 0.000000 0.000000
    44 1.047445 -2.222822 -0.277654 -1.356438 -0.069503 -0.040766
    45 -0.000001 -0.996223 -0.000001 -1.199027 0.000000 0.000000
    46 -0.000001 -0.614691 0.000000 -1.031474 0.000000 0.000000
    47 -0.308256 -0.007814 0.307165 -0.208354 -0.417777 -2.475761
    48 1.978377 0.019544 0.000000 0.060239 -0.046152 0.184504
    49 0.980611 0.058420 -0.012629 0.225371 -0.002325 0.053727
  time 5
    0 8.485879 3.221515 -7.325180 -0.433403 -1.196429 0.106097
    1 -0.021280 -8.563255 -0.000751 0.456204 -0.269631 -0.184378
    2 0.792406 -2.905200 0.835872 2.680096 -1.494964 0.470879
    3 -0.028195 2.698898 -0.230784 0.000000 0.000000 0.000000
    4 -0.000001 4.191838 -0.843241 0.000000 0.000000 0.000000
    5 0.195636 2.992483 2.013436 0.000000 0.000000 0.000000
    6 0.000001 4.399933 3.144327 0.000000 0.000000 0.000000
    7 0.000000 1.957418 -0.226470 0.000000 0.000000 0.000000
    8 -0.000278 18.790774 1.916064 0.000000 0.000000 0.000000
    9 -4.199346 -25.533918 -1.764880 0.000000 0.000000 0.000000
    10 0.000001 11.449860 1.851792 0.000000 0.000000 0.000000
    11 0.000000 1.934806 -0.630419 0.000000 0.000000 0.000000
    12 0.000000 1.253695 0.634938 -0.579818 0.017390 0.012967
    13 0.044885 0.941603 4.711482 0.000000 0.000000 0.000000
    14 0.027106 0.819939 4.351317 0.000000 0.000000 0.000000
    15 0.000001 9.949661 2.586495 0.000000 0.000000 0.000000
    16 -0.003480 -0.404828 0.000000 -0.000001 0.000000 0.000000
    17 -0.519309 -2.501154 -0.278957 -0.879568 -0.036235 -0.324918
    18 -0.010599 -1.208185 0.000000 -1.185576 0.000000 0.000000
    19 0.000000 -0.763066 0.000000 -0.741497 0.000000 0.000000
    20 0.105981 -2.607134 -0.278957 -0.872556 -0.035899 -0.258089
    21 0.000000 -1.250579 0.000000 -0.794537 0.000000 0.000000
    22 0.000000 -0.932635 0.000000 -1.567302 0.000000 0.000000
    23 0.763065 -2.490556 -0.278958 -0.383225 0.040172 0.012324
    24 -0.012322 -1.280917 0.000000 -0.817496 0.000000 0.000000
    25 -0.001696 -0.738089 0.129481 -0.897830 0.000000 0.000000
    26 0.354567 0.016267 0.318133 0.308709 -0.503867 -0.874878
    27 1.887165 0.012878 0.000000 -0.095972 -0.113060 -1.028586
    28 1.001874 -0.000270 0.000000 0.000000 0.000000 -0.250165
    29 -1.123358 -2.195093 -0.278957 -1.061907 0.026409 -0.326972
    30 0.010772 -0.963791 0.000001 -0.810998 0.000000 0.000000
    31 -0.010412 -0.631916 0.000000 -0.691889 0.000000 0.000000
    32 -0.302231 -12.299910 -11.157624 -0.796832 0.385881 0.595093
    33 0.089928 -8.543165 0.000002 0.676199 -0.698714 -0.020173
    34 0.000000 -0.359714 0.000001 0.000000 0.000000 0.000000
    35 -0.170480 -2.636148 -0.277655 -1.043745 -0.052707 0.090280
    36 0.010599 -1.261177 0.000001 -0.473462 0.000000 0.000000
    37 0.000000 -0.943233 -0.000001 -0.944945 0.000000 0.000000
    38 -0.827563 -2.508972 -0.277656 -0.652127 -0.046328 0.035347
    39 0.000000 -1.292972 -0.000001 -0.708426 0.000000 0.000000
    40 -0.000002 -0.752465 0.000000 -0.777556 -0.248777 0.191914
    41 0.444212 -2.561962 -0.277655 -1.341904 0.037900 0.168005
    42 0.021023 -1.208187 0.000001 -0.304120 0.000000 0.000000
    43 0.010598 -0.741867 -0.000001 -0.721161 0.000000 0.000000
    44 1.047445 -2.222822 -0.277654 -1.356438 -0.069503 -0.040766
    45 -0.000001 -0.996223 -0.000001 -1.199027 0.000000 0.000000
    46 -0.000001 -0.614691 0.000000 -1.031474 0.000000 0.000000
    47 -0.308256 -0.007814 0.307165 -0.196370 -0.466575 -2.502499
    48 1.978377 0.019544 0.000000 0.059084 -0.047626 0.209105
    49 0.980611 0.058420 -0.012629 0.225395 -0.005441 0.067318
  time 6
    0 8.485879 3.030102 -7.418933 -0.444613 -1.194149 0.117084
    1 -0.021280 -8.563255 -0.000751 0.456119 -0.269986 -0.183780
    2 0.792406 -2.905200 0.835872 2.680096 -1.494964 0.470879
    3 -0.028195 2.698898 -0.230784 0.000000 0.000000 0.000000
    4 -0.000001 4.191838 -0.843241 0.000000 0.000000 0.000000
    5 0.195636 3.691723 2.013436 0.000000 0.000000 0.000000
    6 0.000001 4.208521 3.144327 0.000000 0.000000 0.000000
    7 0.000000 1.957418 -0.226470 0.000000 0.000000 0.000000
    8 -0.000278 18.790774 1.916064 0.000000 0.000000 0.000000
    9 -4.199346 -25.533918 -1.764880 0.000000 0.000000 0.000000
    10 0.000001 11.449860 1.851792 0.000000 0.000000 0.000000
    11 0.000000 1.934806 -0.630419 0.000000 0.000000 0.000000
    12 0.000000 1.253695 0.634938 -0.579818 0.017390 0.012967
    13 0.044885 0.941603 4.711482 0.000000 0.000000 0.000000
    14 0.027106 0.819939 4.351317 0.000000 0.000000 0.000000
    15 0.000001 9.949661 2.586495 0.000000 0.000000 0.000000
    16 -0.003480 -0.404828 0.000000 -0.000001 0.000000 0.000000
    17 -0.519309 -2.501154 -0.278957 -0.879568 -0.036235 -0.324918
    18 -0.010599 -1.208185 0.000000 -1.185576 0.000000 0.000000
    19 0.000000 -0.763066 0.000000 -0.741497 0.000000 0.000000
    20 0.105981 -2.607134 -0.278957 -0.872556 -0.035899 -0.258089
    21 0.000000 -1.250579 0.000000 -0.794537 0.000000 0.000000
    22 0.000000 -0.932635 0.000000 -1.567302 0.000000 0.000000
    23 0.763065 -2.490556 -0.278958 -0.313873 0.040172 0.012324
    24 -0.012322 -1.280917 0.000000 -0.732471 0.000000 0.000000
    25 -0.001696 -0.738089 0.129481 -0.929288 0.000000 0.000000
    26 0.354567 0.016267 0.318133 0.308709 -0.503867 -0.874878
    27 1.887165 0.012878 0.000000 -0.095972 -0.113060 -1.028586
    28 1.001874 -0.000270 0.000000 0.000000 0.000000 -0.250165
    29 -1.123358 -2.195093 -0.278957 -1.061907 0.026409 -0.326972
    30 0.010772 -0.963791 0.000001 -0.810998 0.000000 0.000000
    31 -0.010412 -0.631916 0.000000 -0.691889 0.000000 0.000000
    32 -0.302231 -12.299910 -11.028714 -0.772385 0.381959 0.591018
    33 0.089928 -8.543165 0.000002 0.733261 -0.690805 -0.014742
    34 0.000000 -0.359714 0.000001 0.000000 0.000000 0.000000
    35 -0.170480 -2.636148 -0.277655 -1.043745 -0.052707 0.090280
    36 0.010599 -1.261177 0.000001 -0.473462 0.000000 0.000000
    37 0.000000 -0.943233 -0.000001 -0.944945 0.000000 0.000000
    38 -0.827563 -2.508972 -0.277656 -0.652127 -0.046328 0.035347
    39 0.000000 -1.292972 -0.000001 -0.708426 0.000000 0.000000
    40 -0.000002 -0.752465 0.000000 -0.777556 -0.248777 0.191914
    41 0.444212 -2.561962 -0.277655 -1.341904 0.037900 0.168005
    42 0.021023 -1.208187 0.000001 -0.304120 0.000000 0.000000
    43 0.010598 -0.741867 -0.000001 -0.721161 0.000000 0.000000
    44 1.047445 -2.222822 -0.277654 -1.356438 -0.069503 -0.040766
    45 -0.000001 -0.996223 -0.000001 -1.199027 0.000000 0.000000
    46 -0.000001 -0.614691 0.000000 -1.031474 0.000000 0.000000
    47 -0.308256 -0.007814 0.307165 -0.166784 -0.538500 -2.552842
    48 1.978377 0.019544 0.000000 0.058445 -0.048513 0.222407
    49 0.980611 0.058420 -0.012629 0.225395 -0.007730 0.077311
  time 7
    0 8.485879 2.854316 -7.618158 -0.468265 -1.189314 0.140158
    1 -0.021280 -8.563255 -0.000751 0.456034 -0.270439 -0.183049
    2 0.792406 -2.905200 0.835872 2.680096 -1.494964 0.470879
    3 -0.028195 2.698898 -0.230784 0.000000 0.000000 0.000000
    4 -0.000001 4.191838 -0.843241 0.000000 0.000000 0.000000
    5 0.195636 3.691723 2.013436 0.000000 0.000000 0.000000
    6 0.000001 4.251491 3.144327 0.000000 0.000000 0.000000
    7 0.000000 1.957418 -0.226470 0.000000 0.000000 0.000000
    8 -0.000278 18.790774 1.916064 0.000000 0.000000 0.000000
    9 -4.199346 -25.533918 -1.764880 0.000000 0.000000 0.000000
    10 0.000001 11.449860 1.851792 0.000000 0.000000 0.000000
    11 0.000000 1.934806 -0.630419 0.000000 0.000000 0.000000
    12 0.000000 1.253695 0.634938 -0.419505 0.014549 0.010846
    13 0.044885 0.941603 4.711482 0.000000 0.000000 0.000000
    14 0.027106 0.819939 4.351317 0.000000 0.000000 0.000000
    15 0.000001 9.949661 2.586495 0.000000 0.000000 0.000000
    16 -0.003480 -0.404828 0.000000 -0.000001 0.000000 0.000000
    17 -0.519309 -2.501154 -0.278957 -0.879568 -0.036235 -0.324918
    18 -0.010599 -1.208185 0.000000 -1.185576 0.000000 0.000000
    19 0.000000 -0.763066 0.000000 -0.741497 0.000000 0.000000
    20 0.105981 -2.607134 -0.278957 -0.872556 -0.035899 -0.258089
    21 0.000000 -1.250579 0.000000 -0.794537 0.000000 0.000000
    22 0.000000 -0.932635 0.000000 -1.567302 0.000000 0.000000
    23 0.763065 -2.490556 -0.278958 -0.313873 0.040172 0.012324
    24 -0.012322 -1.280917 0.000000 -0.666697 0.000000 0.000000
    25 -0.001696 -0.738089 0.129481 -0.927671 0.000000 0.000000
    26 0.354567 0.016267 0.318133 0.308709 -0.503867 -0.874878
    27 1.887165 0.012878 0.000000 -0.095972 -0.113060 -1.028586
    28 1.001874 -0.000270 0.000000 0.000000 0.000000 -0.250165
    29 -1.123358 -2.195093 -0.278957 -1.061907 0.026409 -0.326972
    30 0.010772 -0.963791 0.000001 -0.810998 0.000000 0.000000
    31 -0.010412 -0.631916 0.000000 -0.691889 0.000000 0.000000
    32 -0.302231 -12.299910 -10.852928 -0.743048 0.381863 0.591095
    33 0.089928 -8.543165 0.000002 0.758473 -0.681713 -0.008983
    34 0.000000 -0.359714 0.000001 0.000000 0.000000 0.000000
    35 -0.170480 -2.636148 -0.277655 -1.043745 -0.052707 0.090280
    36 0.010599 -1.261177 0.000001 -0.473462 0.000000 0.000000
    37 0.000000 -0.943233 -0.000001 -0.944945 0.000000 0.000000
    38 -0.827563 -2.508972 -0.277656 -0.652127 -0.046328 0.035347
    39 0.000000 -1.292972 -0.000001 -0.708426 0.000000 0.000000
    40 -0.000002 -0.752465 0.000000 -0.777556 -0.248777 0.191914
    41 0.444212 -2.561962 -0.277655 -1.341904 0.037900 0.168005
    42 0.021023 -1.208187 0.000001 -0.304120 0.000000 0.000000
    43 0.010598 -0.741867 -0.000001 -0.721161 0.000000 0.000000
    44 1.047445 -2.222822 -0.277654 -1.356438 -0.069503 -0.040766
    45 -0.000001 -0.996223 -0.000001 -1.199027 0.000000 0.000000
    46 -0.000001 -0.614691 0.000000 -1.031474 0.000000 0.000000
    47 -0.308256 -0.007814 0.307165 -0.144509 -0.587417 -2.589066
    48 1.978377 0.019544 0.000000 0.057875 -0.049376 0.233705
    49 0.980611 0.058420 -0.012629 0.225383 -0.009324 0.084240
  time 8
    0 8.485879 2.701967 -7.793945 -0.489280 -1.185029 0.160696
    1 -0.021280 -8.563255 -0.000751 0.455991 -0.270859 -0.182385
    2 0.792406 -2.905200 0.835872 2.680096 -1.494964 0.470879
    3 -0.028195 2.698898 -0.230784 0.000000 0.000000 0.000000
    4 -0.000001 4.191838 -0.843241 0.000000 0.000000 0.000000
    5 0.195636 3.691723 2.013436 0.000000 0.000000 0.000000
    6 0.000001 4.251491 3.144327 0.000000 0.000000 0.000000
    7 0.000000 1.957418 -0.226470 0.000000 0.000000 0.000000
    8 -0.000278 18.790774 1.916064 0.000000 0.000000 0.000000
    9 -4.199346 -25.533918 -1.764880 0.000000 0.000000 0.000000
    10 0.000001 11.449860 1.851792 0.000000 0.000000 0.000000
    11 0.000000 1.934806 -0.630419 0.000000 0.000000 0.000000
    12 0.000000 1.253695 0.634938 -0.121792 0.008449 0.006304
    13 0.044885 0.941603 4.711482 0.000000 0.000000 0.000000
    14 0.027106 0.819939 4.351317 0.000000 0.000000 0.000000
    15 0.000001 9.949661 2.586495 0.000000 0.000000 0.000000
    16 -0.003480 -0.404828 0.000000 -0.000001 0.000000 0.000000
    17 -0.519309 -2.501154 -0.278957 -0.879568 -0.036235 -0.324918
    18 -0.010599 -1.208185 0.000000 -1.185576 0.000000 0.000000
    19 0.000000 -0.763066 0.000000 -0.741497 0.000000 0.000000
    20 0.105981 -2.607134 -0.278957 -0.872556 -0.035899 -0.258089
    21 0.000000 -1.250579 0.000000 -0.794537 0.000000 0.000000
    22 0.000000 -0.932635 0.000000 -1.567302 0.000000 0.000000
    23 0.763065 -2.490556 -0.278958 -0.313873 0.040172 0.012324
    24 -0.012322 -1.280917 0.000000 -0.593573 0.000000 0.000000
    25 -0.001696 -0.738089 0.129481 -0.917056 0.000000 0.000000
    26 0.354567 0.016267 0.318133 0.308709 -0.503867 -0.874878
    27 1.887165 0.012878 0.000000 -0.095972 -0.113060 -1.028586
    28 1.001874 -0.000270 0.000000 0.000000 0.000000 -0.250165
    29 -1.123358 -2.195093 -0.278957 -1.061907 0.026409 -0.326972
    30 0.010772 -0.963791 0.000001 -0.810998 0.000000 0.000000
    31 -0.010412 -0.631916 0.000000 -0.691889 0.000000 0.000000
    32 -0.302231 -12.299910 -10.751362 -0.722644 0.380428 0.589634
    33 0.089928 -8.543165 0.000002 0.763184 -0.673315 -0.003815
    34 0.000000 -0.359714 0.000001 0.000000 0.000000 0.000000
    35 -0.170480 -2.636148 -0.277655 -1.043745 -0.052707 0.090280
    36 0.010599 -1.261177 0.000001 -0.473462 0.000000 0.000000
    37 0.000000 -0.943233 -0.000001 -0.944945 0.000000 0.000000
    38 -0.827563 -2.508972 -0.277656 -0.652127 -0.046328 0.035347
    39 0.000000 -1.292972 -0.000001 -0.708426 0.000000 0.000000
    40 -0.000002 -0.752465 0.000000 -0.777556 -0.248777 0.191914
    41 0.444212 -2.561962 -0.277655 -1.341904 0.037900 0.168005
    42 0.021023 -1.208187 0.000001 -0.304120 0.000000 0.000000
    43 0.010598 -0.741867 -0.000001 -0.721161 0.000000 0.000000
    44 1.047445 -2.222822 -0.277654 -1.356438 -0.069503 -0.040766
    45 -0.000001 -0.996223 -0.000001 -1.199027 0.000000 0.000000
    46 -0.000001 -0.614691 0.000000 -1.031474 0.000000 0.000000
    47 -0.308256 -0.007814 0.307165 -0.147772 -0.587144 -2.583321
    48 1.978377 0.019544 0.000000 0.057317 -0.050023 0.244503
    49 0.980611 0.058420 -0.012629 0.225347 -0.010643 0.090036
  time 9
    0 8.485879 2.588683 -7.899417 -0.501370 -1.182556 0.172528
    1 -0.021280 -8.563255 -0.000751 0.455948 -0.271117 -0.182019
    2 0.792406 -2.905200 0.835872 2.680096 -1.494964 0.470879
    3 -0.028195 2.698898 -0.230784 0.000000 0.000000 0.000000
    4 -0.000001 4.191838 -0.843241 0.000000 0.000000 0.000000
    5 0.195636 3.691723 2.013436 0.000000 0.000000 0.000000
    6 0.000001 4.251491 3.144327 0.000000 0.000000 0.000000
    7 0.000000 1.957418 -0.226470 0.000000 0.000000 0.000000
    8 -0.000278 18.790774 1.916064 0.000000 0.000000 0.000000
    9 -4.199346 -25.533918 -1.764880 0.000000 0.000000 0.000000
    10 0.000001 11.449860 1.851792 0.000000 0.000000 0.000000
    11 0.000000 1.934806 -0.630419 0.000000 0.000000 0.000000
    12 0.000000 1.253695 0.634938 0.038504 0.002709 0.002025
    13 0.044885 0.941603 4.711482 0.000000 0.000000 0.000000
    14 0.027106 0.819939 4.351317 0.000000 0.000000 0.000000
    15 0.000001 9.949661 2.586495 0.000000 0.000000 0.000000
    16 -0.003480 -0.404828 0.000000 -0.000001 0.000000 0.000000
    17 -0.519309 -2.501154 -0.278957 -0.879568 -0.036235 -0.324918
    18 -0.010599 -1.208185 0.000000 -1.185576 0.000000 0.000000
    19 0.000000 -0.763066 0.000000 -0.741497 0.000000 0.000000
    20 0.105981 -2.607134 -0.278957 -0.872556 -0.035899 -0.258089
    21 0.000000 -1.250579 0.000000 -0.794537 0.000000 0.000000
    22 0.000000 -0.932635 0.000000 -1.567302 0.000000 0.000000
    23 0.763065 -2.490556 -0.278958 -0.313873 0.040172 0.012324
    24 -0.012322 -1.280917 0.000000 -0.521663 0.000000 0.000000
    25 -0.001696 -0.738089 0.129481 -0.888727 0.000000 0.000000
    26 0.354567 0.016267 0.318133 0.308709 -0.503867 -0.874878
    27 1.887165 0.012878 0.000000 -0.095972 -0.113060 -1.028586
    28 1.001874 -0.000270 0.000000 0.000000 0.000000 -0.250165
    29 -1.123358 -2.195093 -0.278957 -1.061907 0.026409 -0.326972
    30 0.010772 -0.963791 0.000001 -0.810998 0.000000 0.000000
    31 -0.010412 -0.631916 0.000000 -0.691889 0.000000 0.000000
    32 -0.302231 -12.299910 -10.802145 -0.727721 0.372871 0.580945
    33 0.089928 -8.543165 0.000002 0.763237 -0.669197 -0.001318
    34 0.000000 -0.359714 0.000001 0.000000 0.000000 0.000000
    35 -0.170480 -2.636148 -0.277655 -1.043745 -0.052707 0.090280
    36 0.010599 -1.261177 0.000001 -0.473462 0.000000 0.000000
    37 0.000000 -0.943233 -0.000001 -0.944945 0.000000 0.000000
    38 -0.827563 -2.508972 -0.277656 -0.652127 -0.046328 0.035347
    39 0.000000 -1.292972 -0.000001 -0.708426 0.000000 0.000000
    40 -0.000002 -0.752465 0.000000 -0.777556 -0.248777 0.191914
    41 0.444212 -2.561962 -0.277655 -1.341904 0.037900 0.168005
    42 0.021023 -1.208187 0.000001 -0.304120 0.000000 0.000000
    43 0.010598 -0.741867 -0.000001 -0.721161 0.000000 0.000000
    44 1.047445 -2.222822 -0.277654 -1.356438 -0.069503 -0.040766
    45 -0.000001 -0.996223 -0.000001 -1.199027 0.000000 0.000000
    46 -0.000001 -0.614691 0.000000 -1.031474 0.000000 0.000000
    47 -0.308256 -0.007814 0.307165 -0.156149 -0.586274 -2.568528
    48 1.978377 0.019544 0.000000 0.056706 -0.050275 0.256357
    49 0.980611 0.058420 -0.012629 0.225287 -0.011709 0.094666
  time 10
    0 8.485879 2.518368 -7.961919 -0.508843 -1.181018 0.179797
    1 -0.021280 -8.563255 -0.000751 0.456034 -0.271150 -0.182053
    2 0.792406 -2.905200 0.835872 2.680096 -1.494964 0.470879
    3 -0.028195 2.698898 -0.230784 0.000000 0.000000 0.000000
    4 -0.000001 4.191838 -0.843241 0.000000 0.000000 0.000000
    5 0.195636 3.691723 2.013436 0.000000 0.000000 0.000000
    6 0.000001 4.251491 3.144327 0.000000 0.000000 0.000000
    7 0.000000 1.957418 -0.226470 0.000000 0.000000 0.000000
    8 -0.000278 18.790774 1.916064 0.000000 0.000000 0.000000
    9 -4.199346 -25.533918 -1.764880 0.000000 0.000000 0.000000
    10 0.000001 11.449860 1.851792 0.000000 0.000000 0.000000
    11 0.000000 1.934806 -0.630419 0.000000 0.000000 0.000000
    12 0.000000 1.253695 0.634938 0.000000 0.000000 0.000000
    13 0.044885 0.941603 4.711482 0.000000 0.000000 0.000000
    14 0.027106 0.819939 4.351317 0.000000 0.000000 0.000000
    15 0.000001 9.949661 2.586495 0.000000 0.000000 0.000000
    16 -0.003480 -0.404828 0.000000 -0.000001 0.000000 0.000000
    17 -0.519309 -2.501154 -0.278957 -0.879568 -0.036235 -0.324918
    18 -0.010599 -1.208185 0.000000 -1.185576 0.000000 0.000000
    19 0.000000 -0.763066 0.000000 -0.741497 0.000000 0.000000
    20 0.105981 -2.607134 -0.278957 -0.872556 -0.035899 -0.258089
    21 0.000000 -1.250579 0.000000 -0.794537 0.000000 0.000000
    22 0.000000 -0.932635 0.000000 -1.567302 0.000000 0.000000
    23 0.763065 -2.490556 -0.278958 -0.313873 0.040172 0.012324
    24 -0.012322 -1.280917 0.000000 -0.459597 0.000000 0.000000
    25 -0.001696 -0.738089 0.129481 -0.818852 0.000000 0.000000
    26 0.354567 0.016267 0.318133 0.308709 -0.503867 -0.874878
    27 1.887165 0.012878 0.000000 -0.095972 -0.113060 -1.028586
    28 1.001874 -0.000270 0.000000 0.000000 0.000000 -0.250165
    29 -1.123358 -2.195093 -0.278957 -1.061907 0.026409 -0.326972
    30 0.010772 -0.963791 0.000001 -0.810998 0.000000 0.000000
    31 -0.010412 -0.631916 0.000000 -0.691889 0.000000 0.000000
    32 -0.302231 -12.299910 -10.907617 -0.744458 0.363974 0.570949
    33 0.089928 -8.543165 0.000002 0.763237 -0.667934 -0.000573
    34 0.000000 -0.359714 0.000001 0.000000 0.000000 0.000000
    35 -0.170480 -2.636148 -0.277655 -1.043745 -0.052707 0.090280
    36 0.010599 -1.261177 0.000001 -0.473462 0.000000 0.000000
    37 0.000000 -0.943233 -0.000001 -0.944945 0.000000 0.000000
    38 -0.827563 -2.508972 -0.277656 -0.652127 -0.046328 0.035347
    39 0.000000 -1.292972 -0.000001 -0.708426 0.000000 0.000000
    40 -0.000002 -0.752465 0.000000 -0.777556 -0.248777 0.191914
    41 0.444212 -2.561962 -0.277655 -1.341904 0.037900 0.168005
    42 0.021023 -1.208187 0.000001 -0.304120 0.000000 0.000000
    43 0.010598 -0.741867 -0.000001 -0.721161 0.000000 0.000000
    44 1.047445 -2.222822 -0.277654 -1.356438 -0.069503 -0.040766
    45 -0.000001 -0.996223 -0.000001 -1.199027 0.000000 0.000000
    46 -0.000001 -0.614691 0.000000 -1.031474 0.000000 0.000000
    47 -0.308256 -0.007814 0.307165 -0.167537 -0.584671 -2.548428
    48 1.978377 0.019544 0.000000 0.055782 -0.037703 0.274474
    49 0.980611 0.058420 -0.012629 0.225251 -0.012524 0.098231
  time 11
    0 8.485879 2.487117 -7.993170 -0.512492 -1.180276 0.183347
    1 -0.021280 -8.563255 -0.000751 0.456204 -0.271053 -0.182385
    2 0.792406 -2.905200 0.835872 2.680096 -1.494964 0.470879
    3 -0.028195 2.698898 -0.230784 0.000000 0.000000 0.000000
    4 -0.000001 4.191838 -0.843241 0.000000 0.000000 0.000000
    5 0.195636 3.691723 2.013436 0.000000 0.000000 0.000000
    6 0.000001 4.251491 3.144327 0.000000 0.000000 0.000000
    7 0.000000 1.957418 -0.226470 0.000000 0.000000 0.000000
    8 -0.000278 18.790774 1.916064 0.000000 0.000000 0.000000
    9 -4.199346 -25.533918 -1.764880 0.000000 0.000000 0.000000
    10 0.000001 11.449860 1.851792 0.000000 0.000000 0.000000
    11 0.000000 1.934806 -0.630419 0.000000 0.000000 0.000000
    12 0.000000 1.253695 0.634938 0.000000 0.000000 0.000000
    13 0.044885 0.941603 4.711482 0.000000 0.000000 0.000000
    14 0.027106 0.819939 4.351317 0.000000 0.000000 0.000000
    15 0.000001 9.949661 2.586495 0.000000 0.000000 0.000000
    16 -0.003480 -0.404828 0.000000 -0.000001 0.000000 0.000000
    17 -0.519309 -2.501154 -0.278957 -0.879568 -0.036235 -0.324918
    18 -0.010599 -1.208185 0.000000 -1.185576 0.000000 0.000000
    19 0.000000 -0.763066 0.000000 -0.741497 0.000000 0.000000
    20 0.105981 -2.607134 -0.278957 -0.872556 -0.035899 -0.258089
    21 0.000000 -1.250579 0.000000 -0.794537 0.000000 0.000000
    22 0.000000 -0.932635 0.000000 -1.567302 0.000000 0.000000
    23 0.763065 -2.490556 -0.278958 -0.313873 0.040172 0.012324
    24 -0.012322 -1.280917 0.000000 -0.416039 0.000000 0.000000
    25 -0.001696 -0.738089 0.129481 -0.717203 0.000000 0.000000
    26 0.354567 0.016267 0.318133 0.308709 -0.503867 -0.874878
    27 1.887165 0.012878 0.000000 -0.095972 -0.113060 -1.028586
    28 1.001874 -0.000270 0.000000 0.000000 0.000000 -0.250165
    29 -1.123358 -2.195093 -0.278957 -1.061907 0.026409 -0.326972
    30 0.010772 -0.963791 0.000001 -0.810998 0.000000 0.000000
    31 -0.010412 -0.631916 0.000000 -0.691889 0.000000 0.000000
    32 -0.302231 -12.299910 -10.989651 -0.755366 0.358809 0.565258
    33 0.089928 -8.543165 0.000002 0.763023 -0.668097 -0.000683
    34 0.000000 -0.359714 0.000001 0.000000 0.000000 0.000000
    35 -0.170480 -2.636148 -0.277655 -1.043745 -0.052707 0.090280
    36 0.010599 -1.261177 0.000001 -0.473462 0.000000 0.000000
    37 0.000000 -0.943233 -0.000001 -0.944945 0.000000 0.000000
    38 -0.827563 -2.508972 -0.277656 -0.652127 -0.046328 0.035347
    39 0.000000 -1.292972 -0.000001 -0.708426 0.000000 0.000000
    40 -0.000002 -0.752465 0.000000 -0.777556 -0.248777 0.191914
    41 0.444212 -2.561962 -0.277655 -1.341904 0.037900 0.168005
    42 0.021023 -1.208187 0.000001 -0.304120 0.000000 0.000000
    43 0.010598 -0.741867 -0.000001 -0.721161 0.000000 0.000000
    44 1.047445 -2.222822 -0.277654 -1.356438 -0.069503 -0.040766
    45 -0.000001 -0.996223 -0.000001 -1.199027 0.000000 0.000000
    46 -0.000001 -0.614691 0.000000 -1.031474 0.000000 0.000000
    47 -0.308256 -0.007814 0.307165 -0.179804 -0.582283 -2.526731
    48 1.978377 0.019544 0.000000 0.055184 -0.017904 0.286189
    49 0.980611 0.058420 -0.012629 0.225191 -0.013099 0.100696
  time 12
    0 8.485879 2.483211 -7.997076 -0.512976 -1.180166 0.183854
    1 -0.021280 -8.563255 -0.000751 0.456417 -0.270859 -0.182983
    2 0.792406 -2.905200 0.835872 2.680096 -1.494964 0.470879
    3 -0.028195 2.698898 -0.230784 0.000000 0.000000 0.000000
    4 -0.000001 4.191838 -0.843241 0.000000 0.000000 0.000000
    5 0.195636 3.691723 2.013436 0.000000 0.000000 0.000000
    6 0.000001 4.251491 3.144327 0.000000 0.000000 0.000000
    7 0.000000 1.957418 -0.226470 0.000000 0.000000 0.000000
    8 -0.000278 18.790774 1.916064 0.000000 0.000000 0.000000
    9 -4.199346 -25.533918 -1.764880 0.000000 0.000000 0.000000
    10 0.000001 11.449860 1.851792 0.000000 0.000000 0.000000
    11 0.000000 1.934806 -0.630419 0.000000 0.000000 0.000000
    12 0.000000 1.253695 0.634938 0.000000 0.000000 0.000000
    13 0.044885 0.941603 4.711482 0.000000 0.000000 0.000000
    14 0.027106 0.819939 4.351317 0.000000 0.000000 0.000000
    15 0.000001 9.949661 2.586495 0.000000 0.000000 0.000000
    16 -0.003480 -0.404828 0.000000 -0.000001 0.000000 0.000000
    17 -0.519309 -2.501154 -0.278957 -0.879568 -0.036235 -0.324918
    18 -0.010599 -1.208185 0.000000 -1.185576 0.000000 0.000000
    19 0.000000 -0.763066 0.000000 -0.741497 0.000000 0.000000
    20 0.105981 -2.607134 -0.278957 -0.872556 -0.035899 -0.258089
    21 0.000000 -1.250579 0.000000 -0.794537 0.000000 0.000000
    22 0.000000 -0.932635 0.000000 -1.567302 0.000000 0.000000
    23 0.763065 -2.490556 -0.278958 -0.313873 0.040172 0.012324
    24 -0.012322 -1.280917 0.000000 -0.399621 0.000000 0.000000
    25 -0.001696 -0.738089 0.129481 -0.625607 0.000000 0.000000
    26 0.354567 0.016267 0.318133 0.308709 -0.503867 -0.874878
    27 1.887165 0.012878 0.000000 -0.095972 -0.113060 -1.028586
    28 1.001874 -0.000270 0.000000 0.000000 0.000000 -0.250165
    29 -1.123358 -2.195093 -0.278957 -1.061907 0.026409 -0.326972
    30 0.010772 -0.963791 0.000001 -0.810998 0.000000 0.000000
    31 -0.010412 -0.631916 0.000000 -0.691889 0.000000 0.000000
    32 -0.302231 -12.299910 -11.036527 -0.758751 0.357470 0.563874
    33 0.089928 -8.543165 0.000002 0.762434 -0.668586 -0.000968
    34 0.000000 -0.359714 0.000001 0.000000 0.000000 0.000000
    35 -0.170480 -2.636148 -0.277655 -1.043745 -0.052707 0.090280
    36 0.010599 -1.261177 0.000001 -0.473462 0.000000 0.000000
    37 0.000000 -0.943233 -0.000001 -0.944945 0.000000 0.000000
    38 -0.827563 -2.508972 -0.277656 -0.652127 -0.046328 0.035347
    39 0.000000 -1.292972 -0.000001 -0.708426 0.000000 0.000000
    40 -0.000002 -0.752465 0.000000 -0.777556 -0.248777 0.191914
    41 0.444212 -2.561962 -0.277655 -1.341904 0.037900 0.168005
    42 0.021023 -1.208187 0.000001 -0.304120 0.000000 0.000000
    43 0.010598 -0.741867 -0.000001 -0.721161 0.000000 0.000000
    44 1.047445 -2.222822 -0.277654 -1.356438 -0.069503 -0.040766
    45 -0.000001 -0.996223 -0.000001 -1.199027 0.000000 0.000000
    46 -0.000001 -0.614691 0.000000 -1.031474 0.000000 0.000000
    47 -0.308256 -0.007814 0.307165 -0.190848 -0.578974 -2.507132
    48 1.978377 0.019544 0.000000 0.056584 -0.001677 0.260476
    49 0.980611 0.058420 -0.012629 0.225155 -0.013435 0.102161
  time 13
    0 8.485879 2.498836 -7.981450 -0.511041 -1.180578 0.181910
    1 -0.021280 -8.563255 -0.000751 0.456715 -0.270536 -0.183746
    2 0.792406 -2.905200 0.835872 2.680096 -1.494964 0.470879
    3 -0.028195 2.698898 -0.230784 0.000000 0.000000 0.000000
    4 -0.000001 4.191838 -0.843241 0.000000 0.000000 0.000000
    5 0.195636 3.691723 2.013436 0.000000 0.000000 0.000000
    6 0.000001 4.251491 3.144327 0.000000 0.000000 0.000000
    7 0.000000 1.957418 -0.226470 0.000000 0.000000 0.000000
    8 -0.000278 18.790774 1.916064 0.000000 0.000000 0.000000
    9 -4.199346 -25.533918 -1.764880 0.000000 0.000000 0.000000
    10 0.000001 11.449860 1.851792 0.000000 0.000000 0.000000
    11 0.000000 1.934806 -0.630419 0.000000 0.000000 0.000000
    12 0.000000 1.253695 0.634938 0.000000 0.000000 0.000000
    13 0.044885 0.941603 4.711482 0.000000 0.000000 0.000000
    14 0.027106 0.819939 4.351317 0.000000 0.000000 0.000000
    15 0.000001 9.949661 2.586495 0.000000 0.000000 0.000000
    16 -0.003480 -0.404828 0.000000 -0.000001 0.000000 0.000000
    17 -0.519309 -2.501154 -0.278957 -0.879568 -0.036235 -0.324918
    18 -0.010599 -1.208185 0.000000 -1.185576 0.000000 0.000000
    19 0.000000 -0.763066 0.000000 -0.741497 0.000000 0.000000
    20 0.105981 -2.607134 -0.278957 -0.872556 -0.035899 -0.258089
    21 0.000000 -1.250579 0.000000 -0.794537 0.000000 0.000000
    22 0.000000 -0.932635 0.000000 -1.567302 0.000000 0.000000
    23 0.763065 -2.490556 -0.278958 -0.313873 0.040172 0.012324
    24 -0.012322 -1.280917 0.000000 -0.399621 0.000000 0.000000
    25 -0.001696 -0.738089 0.129481 -0.585784 0.000000 0.000000
    26 0.354567 0.016267 0.318133 0.308709 -0.503867 -0.874878
    27 1.887165 0.012878 0.000000 -0.095972 -0.113060 -1.028586
    28 1.001874 -0.000270 0.000000 0.000000 0.000000 -0.250165
    29 -1.123358 -2.195093 -0.278957 -1.061907 0.026409 -0.326972
    30 0.010772 -0.963791 0.000001 -0.810998 0.000000 0.000000
    31 -0.010412 -0.631916 0.000000 -0.691889 0.000000 0.000000
    32 -0.302231 -12.299910 -11.079497 -0.763170 0.356896 0.563336
    33 0.089928 -8.543165 0.000002 0.761417 -0.669320 -0.001449
    34 0.000000 -0.359714 0.000001 0.000000 0.000000 0.000000
    35 -0.170480 -2.636148 -0.277655 -1.043745 -0.052707 0.090280
    36 0.010599 -1.261177 0.000001 -0.473462 0.000000 0.000000
    37 0.000000 -0.943233 -0.000001 -0.944945 0.000000 0.000000
    38 -0.827563 -2.508972 -0.277656 -0.652127 -0.046328 0.035347
    39 0.000000 -1.292972 -0.000001 -0.708426 0.000000 0.000000
    40 -0.000002 -0.752465 0.000000 -0.777556 -0.248777 0.191914
    41 0.444212 -2.561962 -0.277655 -1.341904 0.037900 0.168005
    42 0.021023 -1.208187 0.000001 -0.304120 0.000000 0.000000
    43 0.010598 -0.741867 -0.000001 -0.721161 0.000000 0.000000
    44 1.047445 -2.222822 -0.277654 -1.356438 -0.069503 -0.040766
    45 -0.000001 -0.996223 -0.000001 -1.199027 0.000000 0.000000
    46 -0.000001 -0.614691 0.000000 -1.031474 0.000000 0.000000
    47 -0.308256 -0.007814 0.307165 -0.198534 -0.574659 -2.493372
    48 1.978377 0.019544 0.000000 0.058105 0.007335 0.231618
    49 0.980611 0.058420 -0.012629 0.225143 -0.013543 0.102661
  time 14
    0 8.485879 2.533994 -7.950199 -0.507393 -1.181320 0.178360
    1 -0.021280 -8.563255 -0.000751 0.456971 -0.270180 -0.184610
    2 0.792406 -2.905200 0.835872 2.680096 -1.494964 0.470879
    3 -0.028195 2.698898 -0.230784 0.000000 0.000000 0.000000
    4 -0.000001 4.191838 -0.843241 0.000000 0.000000 0.000000
    5 0.195636 3.691723 2.013436 0.000000 0.000000 0.000000
    6 0.000001 4.251491 3.144327 0.000000 0.000000 0.000000
    7 0.000000 1.957418 -0.226470 0.000000 0.000000 0.000000
    8 -0.000278 18.790774 1.916064 0.000000 0.000000 0.000000
    9 -4.199346 -25.533918 -1.764880 0.000000 0.000000 0.000000
    10 0.000001 11.449860 1.851792 0.000000 0.000000 0.000000
    11 0.000000 1.934806 -0.630419 0.000000 0.000000 0.000000
    12 0.000000 1.253695 0.634938 0.000000 0.000000 0.000000
    13 0.044885 0.941603 4.711482 0.000000 0.000000 0.000000
    14 0.027106 0.819939 4.351317 0.000000 0.000000 0.000000
    15 0.000001 9.949661 2.586495 0.000000 0.000000 0.000000
    16 -0.003480 -0.404828 0.000000 -0.000001 0.000000 0.000000
    17 -0.519309 -2.501154 -0.278957 -0.879568 -0.036235 -0.324918
    18 -0.010599 -1.208185 0.000000 -1.185576 0.000000 0.000000
    19 0.000000 -0.763066 0.000000 -0.741497 0.000000 0.000000
    20 0.105981 -2.607134 -0.278957 -0.872556 -0.035899 -0.258089
    21 0.000000 -1.250579 0.000000 -0.794537 0.000000 0.000000
    22 0.000000 -0.932635 0.000000 -1.567302 0.000000 0.000000
    23 0.763065 -2.490556 -0.278958 -0.313873 0.040172 0.012324
    24 -0.012322 -1.280917 0.000000 -0.399621 0.000000 0.000000
    25 -0.001696 -0.738089 0.129481 -0.586293 0.000000 0.000000
    26 0.354567 0.016267 0.318133 0.308709 -0.503867 -0.874878
    27 1.887165 0.012878 0.000000 -0.095972 -0.113060 -1.028586
    28 1.001874 -0.000270 0.000000 0.000000 0.000000 -0.250165
    29 -1.123358 -2.195093 -0.278957 -1.061907 0.026409 -0.326972
    30 0.010772 -0.963791 0.000001 -0.810998 0.000000 0.000000
    31 -0.010412 -0.631916 0.000000 -0.691889 0.000000 0.000000
    32 -0.302231 -12.299910 -11.122467 -0.768059 0.356991 0.563490
    33 0.089928 -8.543165 0.000002 0.760132 -0.670339 -0.002063
    34 0.000000 -0.359714 0.000001 0.000000 0.000000 0.000000
    35 -0.170480 -2.636148 -0.277655 -1.043745 -0.052707 0.090280
    36 0.010599 -1.261177 0.000001 -0.473462 0.000000 0.000000
    37 0.000000 -0.943233 -0.000001 -0.944945 0.000000 0.000000
    38 -0.827563 -2.508972 -0.277656 -0.652127 -0.046328 0.035347
    39 0.000000 -1.292972 -0.000001 -0.708426 0.000000 0.000000
    40 -0.000002 -0.752465 0.000000 -0.777556 -0.248777 0.191914
    41 0.444212 -2.561962 -0.277655 -1.341904 0.037900 0.168005
    42 0.021023 -1.208187 0.000001 -0.304120 0.000000 0.000000
    43 0.010598 -0.741867 -0.000001 -0.721161 0.000000 0.000000
    44 1.047445 -2.222822 -0.277654 -1.356438 -0.069503 -0.040766
    45 -0.000001 -0.996223 -0.000001 -1.199027 0.000000 0.000000
    46 -0.000001 -0.614691 0.000000 -1.031474 0.000000 0.000000
    47 -0.308256 -0.007814 0.307165 -0.203397 -0.568911 -2.484528
    48 1.978377 0.019544 0.000000 0.058364 0.006472 0.225746
    49 0.980611 0.058420 -0.012629 0.225143 -0.013303 0.101595
  time 15
    0 8.485879 2.576964 -7.911136 -0.502820 -1.182254 0.173880
    1 -0.021280 -8.563255 -0.000751 0.457269 -0.269793 -0.185507
    2 0.792406 -2.905200 0.835872 2.680096 -1.494964 0.470879
    3 -0.028195 2.698898 -0.230784 0.000000 0.000000 0.000000
    4 -0.000001 4.191838 -0.843241 0.000000 0.000000 0.000000
    5 0.195636 3.691723 2.013436 0.000000 0.000000 0.000000
    6 0.000001 4.251491 3.144327 0.000000 0.000000 0.000000
    7 0.000000 1.957418 -0.226470 0.000000 0.000000 0.000000
    8 -0.000278 18.790774 1.916064 0.000000 0.000000 0.000000
    9 -4.199346 -25.533918 -1.764880 0.000000 0.000000 0.000000
    10 0.000001 11.449860 1.851792 0.000000 0.000000 0.000000
    11 0.000000 1.934806 -0.630419 0.000000 0.000000 0.000000
    12 0.000000 1.253695 0.634938 0.000000 0.000000 0.000000
    13 0.044885 0.941603 4.711482 0.000000 0.000000 0.000000
    14 0.027106 0.819939 4.351317 0.000000 0.000000 0.000000
    15 0.000001 9.949661 2.586495 0.000000 0.000000 0.000000
    16 -0.003480 -0.404828 0.000000 -0.000001 0.000000 0.000000
    17 -0.519309 -2.501154 -0.278957 -0.879568 -0.036235 -0.324918
    18 -0.010599 -1.208185 0.000000 -1.185576 0.000000 0.000000
    19 0.000000 -0.763066 0.000000 -0.741497 0.000000 0.000000
    20 0.105981 -2.607134 -0.278957 -0.872556 -0.035899 -0.258089
    21 0.000000 -1.250579 0.000000 -0.794537 0.000000 0.000000
    22 0.000000 -0.932635 0.000000 -1.567302 0.000000 0.000000
    23 0.763065 -2.490556 -0.278958 -0.313873 0.040172 0.012324
    24 -0.012322 -1.280917 0.000000 -0.399621 0.000000 0.000000
    25 -0.001696 -0.738089 0.129481 -0.587770 0.000000 0.000000
    26 0.354567 0.016267 0.318133 0.308709 -0.503867 -0.874878
    27 1.887165 0.012878 0.000000 -0.095972 -0.113060 -1.028586
    28 1.001874 -0.000270 0.000000 0.000000 0.000000 -0.250165
    29 -1.123358 -2.195093 -0.278957 -1.061907 0.026409 -0.326972
    30 0.010772 -0.963791 0.000001 -0.810998 0.000000 0.000000
    31 -0.010412 -0.631916 0.000000 -0.691889 0.000000 0.000000
    32 -0.302231 -12.299910 -11.157624 -0.773043 0.357470 0.564105
    33 0.089928 -8.543165 0.000002 0.758580 -0.671521 -0.002785
    34 0.000000 -0.359714 0.000001 0.000000 0.000000 0.000000
    35 -0.170480 -2.636148 -0.277655 -1.043745 -0.052707 0.090280
    36 0.010599 -1.261177 0.000001 -0.473462 0.000000 0.000000
    37 0.000000 -0.943233 -0.000001 -0.944945 0.000000 0.000000
    38 -0.827563 -2.508972 -0.277656 -0.652127 -0.046328 0.035347
    39 0.000000 -1.292972 -0.000001 -0.708426 0.000000 0.000000
    40 -0.000002 -0.752465 0.000000 -0.777556 -0.248777 0.191914
    41 0.444212 -2.561962 -0.277655 -1.341904 0.037900 0.168005
    42 0.021023 -1.208187 0.000001 -0.304120 0.000000 0.000000
    43 0.010598 -0.741867 -0.000001 -0.721161 0.000000 0.000000
    44 1.047445 -2.222822 -0.277654 -1.356438 -0.069503 -0.040766
    45 -0.000001 -0.996223 -0.000001 -1.199027 0.000000 0.000000
    46 -0.000001 -0.614691 0.000000 -1.031474 0.000000 0.000000
    47 -0.308256 -0.007814 0.307165 -0.207476 -0.561679 -2.477014
    48 1.978377 0.019544 0.000000 0.058581 0.004087 0.220821
    49 0.980611 0.058420 -0.012629 0.225143 -0.012620 0.098630
  time 16
    0 8.485879 2.619934 -7.868166 -0.497984 -1.183243 0.169147
    1 -0.021280 -8.563255 -0.000751 0.457567 -0.269405 -0.186404
    2 0.792406 -2.905200 0.835872 2.680096 -1.494964 0.470879
    3 -0.028195 2.698898 -0.230784 0.000000 0.000000 0.000000
    4 -0.000001 4.191838 -0.843241 0.000000 0.000000 0.000000
    5 0.195636 3.691723 2.013436 0.000000 0.000000 0.000000
    6 0.000001 4.251491 3.144327 0.000000 0.000000 0.000000
    7 0.000000 1.957418 -0.226470 0.000000 0.000000 0.000000
    8 -0.000278 18.790774 1.916064 0.000000 0.000000 0.000000
    9 -4.199346 -25.533918 -1.764880 0.000000 0.000000 0.000000
    10 0.000001 11.449860 1.851792 0.000000 0.000000 0.000000
    11 0.000000 1.934806 -0.630419 0.000000 0.000000 0.000000
    12 0.000000 1.253695 0.634938 0.000000 0.000000 0.000000
    13 0.044885 0.941603 4.711482 0.000000 0.000000 0.000000
    14 0.027106 0.819939 4.351317 0.000000 0.000000 0.000000
    15 0.000001 9.949661 2.586495 0.000000 0.000000 0.000000
    16 -0.003480 -0.404828 0.000000 -0.000001 0.000000 0.000000
    17 -0.519309 -2.501154 -0.278957 -0.879568 -0.036235 -0.324918
    18 -0.010599 -1.208185 0.000000 -1.185576 0.000000 0.000000
    19 0.000000 -0.763066 0.000000 -0.741497 0.000000 0.000000
    20 0.105981 -2.607134 -0.278957 -0.872556 -0.035899 -0.258089
    21 0.000000 -1.250579 0.000000 -0.794537 0.000000 0.000000
    22 0.000000 -0.932635 0.000000 -1.567302 0.000000 0.000000
    23 0.763065 -2.490556 -0.278958 -0.313873 0.040172 0.012324
    24 -0.012322 -1.280917 0.000000 -0.399621 0.000000 0.000000
    25 -0.001696 -0.738089 0.129481 -0.590089 0.000000 0.000000
    26 0.354567 0.016267 0.318133 0.308709 -0.503867 -0.874878
    27 1.887165 0.012878 0.000000 -0.095972 -0.113060 -1.028586
    28 1.001874 -0.000270 0.000000 0.000000 0.000000 -0.250165
    29 -1.123358 -2.195093 -0.278957 -1.061907 0.026409 -0.326972
    30 0.010772 -0.963791 0.000001 -0.810998 0.000000 0.000000
    31 -0.010412 -0.631916 0.000000 -0.691889 0.000000 0.000000
    32 -0.302231 -12.299910 -11.184969 -0.777462 0.358235 0.565028
    33 0.089928 -8.543165 0.000002 0.756760 -0.672907 -0.003639
    34 0.000000 -0.359714 0.000001 0.000000 0.000000 0.000000
    35 -0.170480 -2.636148 -0.277655 -1.043745 -0.052707 0.090280
    36 0.010599 -1.261177 0.000001 -0.473462 0.000000 0.000000
    37 0.000000 -0.943233 -0.000001 -0.944945 0.000000 0.000000
    38 -0.827563 -2.508972 -0.277656 -0.652127 -0.046328 0.035347
    39 0.000000 -1.292972 -0.000001 -0.708426 0.000000 0.000000
    40 -0.000002 -0.752465 0.000000 -0.777556 -0.248777 0.191914
    41 0.444212 -2.561962 -0.277655 -1.341904 0.037900 0.168005
    42 0.021023 -1.208187 0.000001 -0.304120 0.000000 0.000000
    43 0.010598 -0.741867 -0.000001 -0.721161 0.000000 0.000000
    44 1.047445 -2.222822 -0.277654 -1.356438 -0.069503 -0.040766
    45 -0.000001 -0.996223 -0.000001 -1.199027 0.000000 0.000000
    46 -0.000001 -0.614691 0.000000 -1.031474 0.000000 0.000000
    47 -0.308256 -0.007814 0.307165 -0.210864 -0.553527 -2.470658
    48 1.978377 0.019544 0.000000 0.058758 0.000504 0.216758
    49 0.980611 0.058420 -0.012629 0.225155 -0.011541 0.093967
  time 17
    0 8.485879 2.662904 -7.833008 -0.493632 -1.184122 0.164922
    1 -0.021280 -8.563255 -0.000751 0.457823 -0.269049 -0.187234
    2 0.792406 -2.905200 0.835872 2.680096 -1.494964 0.470879
    3 -0.028195 2.698898 -0.230784 0.000000 0.000000 0.000000
    4 -0.000001 4.191838 -0.843241 0.000000 0.000000 0.000000
    5 0.195636 3.691723 2.013436 0.000000 0.000000 0.000000
    6 0.000001 4.251491 3.144327 0.000000 0.000000 0.000000
    7 0.000000 1.957418 -0.226470 0.000000 0.000000 0.000000
    8 -0.000278 18.790774 1.916064 0.000000 0.000000 0.000000
    9 -4.199346 -25.533918 -1.764880 0.000000 0.000000 0.000000
    10 0.000001 11.449860 1.851792 0.000000 0.000000 0.000000
    11 0.000000 1.934806 -0.630419 0.000000 0.000000 0.000000
    12 0.000000 1.253695 0.634938 0.000000 0.000000 0.000000
    13 0.044885 0.941603 4.711482 0.000000 0.000000 0.000000
    14 0.027106 0.819939 4.351317 0.000000 0.000000 0.000000
    15 0.000001 9.949661 2.586495 0.000000 0.000000 0.000000
    16 -0.003480 -0.404828 0.000000 -0.000001 0.000000 0.000000
    17 -0.519309 -2.501154 -0.278957 -0.879568 -0.036235 -0.324918
    18 -0.010599 -1.208185 0.000000 -1.185576 0.000000 0.000000
    19 0.000000 -0.763066 0.000000 -0.741497 0.000000 0.000000
    20 0.105981 -2.607134 -0.278957 -0.872556 -0.035899 -0.258089
    21 0.000000 -1.250579 0.000000 -0.794537 0.000000 0.000000
    22 0.000000 -0.932635 0.000000 -1.567302 0.000000 0.000000
    23 0.763065 -2.490556 -0.278958 -0.313873 0.040172 0.012324
    24 -0.012322 -1.280917 0.000000 -0.399621 0.000000 0.000000
    25 -0.001696 -0.738089 0.129481 -0.593095 0.000000 0.000000
    26 0.354567 0.016267 0.318133 0.308709 -0.503867 -0.874878
    27 1.887165 0.012878 0.000000 -0.095972 -0.113060 -1.028586
    28 1.001874 -0.000270 0.000000 0.000000 0.000000 -0.250165
    29 -1.123358 -2.195093 -0.278957 -1.061907 0.026409 -0.326972
    30 0.010772 -0.963791 0.000001 -0.810998 0.000000 0.000000
    31 -0.010412 -0.631916 0.000000 -0.691889 0.000000 0.000000
    32 -0.302231 -12.299910 -11.200595 -0.780941 0.359191 0.566104
    33 0.089928 -8.543165 0.000002 0.754780 -0.674375 -0.004581
    34 0.000000 -0.359714 0.000001 0.000000 0.000000 0.000000
    35 -0.170480 -2.636148 -0.277655 -1.043745 -0.052707 0.090280
    36 0.010599 -1.261177 0.000001 -0.473462 0.000000 0.000000
    37 0.000000 -0.943233 -0.000001 -0.944945 0.000000 0.000000
    38 -0.827563 -2.508972 -0.277656 -0.652127 -0.046328 0.035347
    39 0.000000 -1.292972 -0.000001 -0.708426 0.000000 0.000000
    40 -0.000002 -0.752465 0.000000 -0.777556 -0.248777 0.191914
    41 0.444212 -2.561962 -0.277655 -1.341904 0.037900 0.168005
    42 0.021023 -1.208187 0.000001 -0.304120 0.000000 0.000000
    43 0.010598 -0.741867 -0.000001 -0.721161 0.000000 0.000000
    44 1.047445 -2.222822 -0.277654 -1.356438 -0.069503 -0.040766
    45 -0.000001 -0.996223 -0.000001 -1.199027 0.000000 0.000000
    46 -0.000001 -0.614691 0.000000 -1.031474 0.000000 0.000000
    47 -0.308256 -0.007814 0.307165 -0.213719 -0.544964 -2.465258
    48 1.978377 0.019544 0.000000 0.058907 -0.003918 0.213502
    49 0.980611 0.058420 -0.012629 0.225167 -0.010151 0.087871
  time 18
    0 8.485879 2.690248 -7.805664 -0.490467 -1.184781 0.161879
    1 -0.021280 -8.563255 -0.000751 0.458036 -0.268791 -0.187898
    2 0.792406 -2.905200 0.835872 2.680096 -1.494964 0.470879
    3 -0.028195 2.698898 -0.230784 0.000000 0.000000 0.000000
    4 -0.000001 4.191838 -0.843241 0.000000 0.000000 0.000000
    5 0.195636 3.691723 2.013436 0.000000 0.000000 0.000000
    6 0.000001 4.251491 3.144327 0.000000 0.000000 0.000000
    7 0.000000 1.957418 -0.226470 0.000000 0.000000 0.000000
    8 -0.000278 18.790774 1.916064 0.000000 0.000000 0.000000
    9 -4.199346 -25.533918 -1.764880 0.000000 0.000000 0.000000
    10 0.000001 11.449860 1.851792 0.000000 0.000000 0.000000
    11 0.000000 1.934806 -0.630419 0.000000 0.000000 0.000000
    12 0.000000 1.253695 0.634938 0.000000 0.000000 0.000000
    13 0.044885 0.941603 4.711482 0.000000 0.000000 0.000000
    14 0.027106 0.819939 4.351317 0.000000 0.000000 0.000000
    15 0.000001 9.949661 2.586495 0.000000 0.000000 0.000000
    16 -0.003480 -0.404828 0.000000 -0.000001 0.000000 0.000000
    17 -0.519309 -2.501154 -0.278957 -0.879568 -0.036235 -0.324918
    18 -0.010599 -1.208185 0.000000 -1.185576 0.000000 0.000000
    19 0.000000 -0.763066 0.000000 -0.741497 0.000000 0.000000
    20 0.105981 -2.607134 -0.278957 -0.872556 -0.035899 -0.258089
    21 0.000000 -1.250579 0.000000 -0.794537 0.000000 0.000000
    22 0.000000 -0.932635 0.000000 -1.567302 0.000000 0.000000
    23 0.763065 -2.490556 -0.278958 -0.313873 0.040172 0.012324
    24 -0.012322 -1.280917 0.000000 -0.399621 0.000000 0.000000
    25 -0.001696 -0.738089 0.129481 -0.596680 0.000000 0.000000
    26 0.354567 0.016267 0.318133 0.308709 -0.503867 -0.874878
    27 1.887165 0.012878 0.000000 -0.095972 -0.113060 -1.028586
    28 1.001874 -0.000270 0.000000 0.000000 0.000000 -0.250165
    29 -1.123358 -2.195093 -0.278957 -1.061907 0.026409 -0.326972
    30 0.010772 -0.963791 0.000001 -0.810998 0.000000 0.000000
    31 -0.010412 -0.631916 0.000000 -0.691889 0.000000 0.000000
    32 -0.302231 -12.299910 -11.208407 -0.782822 0.360052 0.567104
    33 0.089928 -8.543165 0.000002 0.752692 -0.676006 -0.005566
    34 0.000000 -0.359714 0.000001 0.000000 0.000000 0.000000
    35 -0.170480 -2.636148 -0.277655 -1.043745 -0.052707 0.090280
    36 0.010599 -1.261177 0.000001 -0.473462 0.000000 0.000000
    37 0.000000 -0.943233 -0.000001 -0.944945 0.000000 0.000000
    38 -0.827563 -2.508972 -0.277656 -0.652127 -0.046328 0.035347
    39 0.000000 -1.292972 -0.000001 -0.708426 0.000000 0.000000
    40 -0.000002 -0.752465 0.000000 -0.777556 -0.248777 0.191914
    41 0.444212 -2.561962 -0.277655 -1.341904 0.037900 0.168005
    42 0.021023 -1.208187 0.000001 -0.304120 0.000000 0.000000
    43 0.010598 -0.741867 -0.000001 -0.721161 0.000000 0.000000
    44 1.047445 -2.222822 -0.277654 -1.356438 -0.069503 -0.040766
    45 -0.000001 -0.996223 -0.000001 -1.199027 0.000000 0.000000
    46 -0.000001 -0.614691 0.000000 -1.031474 0.000000 0.000000
    47 -0.308256 -0.007814 0.307165 -0.216166 -0.536522 -2.460561
    48 1.978377 0.019544 0.000000 0.059016 -0.008880 0.210997
    49 0.980611 0.058420 -0.012629 0.225167 -0.008497 0.080642
  time 19
    0 8.485879 2.701967 -7.793945 -0.489280 -1.185029 0.160696
    1 -0.021280 -8.563255 -0.000751 0.458206 -0.268597 -0.188363
    2 0.792406 -2.905200 0.835872 2.680096 -1.494964 0.470879
    3 -0.028195 2.698898 -0.230784 0.000000 0.000000 0.000000
    4 -0.000001 4.191838 -0.843241 0.000000 0.000000 0.000000
    5 0.195636 3.691723 2.013436 0.000000 0.000000 0.000000
    6 0.000001 4.251491 3.144327 0.000000 0.000000 0.000000
    7 0.000000 1.957418 -0.226470 0.000000 0.000000 0.000000
    8 -0.000278 18.790774 1.916064 0.000000 0.000000 0.000000
    9 -4.199346 -25.533918 -1.764880 0.000000 0.000000 0.000000
    10 0.000001 11.449860 1.851792 0.000000 0.000000 0.000000
    11 0.000000 1.934806 -0.630419 0.000000 0.000000 0.000000
    12 0.000000 1.253695 0.634938 0.000000 0.000000 0.000000
    13 0.044885 0.941603 4.711482 0.000000 0.000000 0.000000
    14 0.027106 0.819939 4.351317 0.000000 0.000000 0.000000
    15 0.000001 9.949661 2.586495 0.000000 0.000000 0.000000
    16 -0.003480 -0.404828 0.000000 -0.000001 0.000000 0.000000
    17 -0.519309 -2.501154 -0.278957 -0.879568 -0.036235 -0.324918
    18 -0.010599 -1.208185 0.000000 -1.185576 0.000000 0.000000
    19 0.000000 -0.763066 0.000000 -0.741497 0.000000 0.000000
    20 0.105981 -2.607134 -0.278957 -0.872556 -0.035899 -0.258089
    21 0.000000 -1.250579 0.000000 -0.794537 0.000000 0.000000
    22 0.000000 -0.932635 0.000000 -1.567302 0.000000 0.000000
    23 0.763065 -2.490556 -0.278958 -0.313873 0.040172 0.012324
    24 -0.012322 -1.280917 0.000000 -0.399621 0.000000 0.000000
    25 -0.001696 -0.738089 0.129481 -0.600704 0.000000 0.000000
    26 0.354567 0.016267 0.318133 0.308709 -0.503867 -0.874878
    27 1.887165 0.012878 0.000000 -0.095972 -0.113060 -1.028586
    28 1.001874 -0.000270 0.000000 0.000000 0.000000 -0.250165
    29 -1.123358 -2.195093 -0.278957 -1.061907 0.026409 -0.326972
    30 0.010772 -0.963791 0.000001 -0.810998 0.000000 0.000000
    31 -0.010412 -0.631916 0.000000 -0.691889 0.000000 0.000000
    32 -0.302231 -12.299910 -11.208407 -0.783104 0.360435 0.567565
    33 0.089928 -8.543165 0.000002 0.750497 -0.677677 -0.006618
    34 0.000000 -0.359714 0.000001 0.000000 0.000000 0.000000
    35 -0.170480 -2.636148 -0.277655 -1.043745 -0.052707 0.090280
    36 0.010599 -1.261177 0.000001 -0.473462 0.000000 0.000000
    37 0.000000 -0.943233 -0.000001 -0.944945 0.000000 0.000000
    38 -0.827563 -2.508972 -0.277656 -0.652127 -0.046328 0.035347
    39 0.000000 -1.292972 -0.000001 -0.708426 0.000000 0.000000
    40 -0.000002 -0.752465 0.000000 -0.777556 -0.248777 0.191914
    41 0.444212 -2.561962 -0.277655 -1.341904 0.037900 0.168005
    42 0.021023 -1.208187 0.000001 -0.304120 0.000000 0.000000
    43 0.010598 -0.741867 -0.000001 -0.721161 0.000000 0.000000
    44 1.047445 -2.222822 -0.277654 -1.356438 -0.069503 -0.040766
    45 -0.000001 -0.996223 -0.000001 -1.199027 0.000000 0.000000
    46 -0.000001 -0.614691 0.000000 -1.031474 0.000000 0.000000
    47 -0.308256 -0.007814 0.307165 -0.218300 -0.528744 -2.456413
    48 1.978377 0.019544 0.000000 0.059097 -0.014033 0.209133
    49 0.980611 0.058420 -0.012629 0.225179 -0.006628 0.072481
  time 20
    0 8.485879 2.701967 -7.793945 -0.489280 -1.185029 0.160696
    1 -0.021280 -8.563255 -0.000751 0.458291 -0.268468 -0.188662
    2 0.792406 -2.905200 0.835872 2.680096 -1.494964 0.470879
    3 -0.028195 2.698898 -0.230784 0.000000 0.000000 0.000000
    4 -0.000001 4.191838 -0.843241 0.000000 0.000000 0.000000
    5 0.195636 3.691723 2.013436 0.000000 0.000000 0.000000
    6 0.000001 4.251491 3.144327 0.000000 0.000000 0.000000
    7 0.000000 1.957418 -0.226470 0.000000 0.000000 0.000000
    8 -0.000278 18.790774 1.916064 0.000000 0.000000 0.000000
    9 -4.199346 -25.533918 -1.764880 0.000000 0.000000 0.000000
    10 0.000001 11.449860 1.851792 0.000000 0.000000 0.000000
    11 0.000000 1.934806 -0.630419 0.000000 0.000000 0.000000
    12 0.000000 1.253695 0.634938 0.000000 0.000000 0.000000
    13 0.044885 0.941603 4.711482 0.000000 0.000000 0.000000
    14 0.027106 0.819939 4.351317 0.000000 0.000000 0.000000
    15 0.000001 9.949661 2.586495 0.000000 0.000000 0.000000
    16 -0.003480 -0.404828 0.000000 -0.000001 0.000000 0.000000
    17 -0.519309 -2.501154 -0.278957 -0.879568 -0.036235 -0.324918
    18 -0.010599 -1.208185 0.000000 -1.185576 0.000000 0.000000
    19 0.000000 -0.763066 0.000000 -0.741497 0.000000 0.000000
    20 0.105981 -2.607134 -0.278957 -0.872556 -0.035899 -0.258089
    21 0.000000 -1.250579 0.000000 -0.794537 0.000000 0.000000
    22 0.000000 -0.932635 0.000000 -1.567302 0.000000 0.000000
    23 0.763065 -2.490556 -0.278958 -0.313873 0.040172 0.012324
    24 -0.012322 -1.280917 0.000000 -0.399621 0.000000 0.000000
    25 -0.001696 -0.738089 0.129481 -0.605063 0.000000 0.000000
    26 0.354567 0.016267 0.318133 0.308709 -0.503867 -0.874878
    27 1.887165 0.012878 0.000000 -0.095972 -0.113060 -1.028586
    28 1.001874 -0.000270 0.000000 0.000000 0.000000 -0.250165
    29 -1.123358 -2.195093 -0.278957 -1.061907 0.026409 -0.326972
    30 0.010772 -0.963791 0.000001 -0.810998 0.000000 0.000000
    31 -0.010412 -0.631916 0.000000 -0.691889 0.000000 0.000000
    32 -0.302231 -12.299910 -11.208407 -0.783104 0.360435 0.567565
    33 0.089928 -8.543165 0.000002 0.748249 -0.679390 -0.007669
    34 0.000000 -0.359714 0.000001 0.000000 0.000000 0.000000
    35 -0.170480 -2.636148 -0.277655 -1.043745 -0.052707 0.090280
    36 0.010599 -1.261177 0.000001 -0.473462 0.000000 0.000000
    37 0.000000 -0.943233 -0.000001 -0.944945 0.000000 0.000000
    38 -0.827563 -2.508972 -0.277656 -0.652127 -0.046328 0.035347
    39 0.000000 -1.292972 -0.000001 -0.708426 0.000000 0.000000
    40 -0.000002 -0.752465 0.000000 -0.777556 -0.248777 0.191914
    41 0.444212 -2.561962 -0.277655 -1.341904 0.037900 0.168005
    42 0.021023 -1.208187 0.000001 -0.304120 0.000000 0.000000
    43 0.010598 -0.741867 -0.000001 -0.721161 0.000000 0.000000
    44 1.047445 -2.222822 -0.277654 -1.356438 -0.069503 -0.040766
    45 -0.000001 -0.996223 -0.000001 -1.199027 0.000000 0.000000
    46 -0.000001 -0.614691 0.000000 -1.031474 0.000000 0.000000
    47 -0.308256 -0.007814 0.307165 -0.220245 -0.522161 -2.452562
    48 1.978377 0.019544 0.000000 0.059152 -0.019043 0.207908
    49 0.980611 0.058420 -0.012629 0.225191 -0.004614 0.063720
  time 21
    0 8.485879 2.701967 -7.793945 -0.489280 -1.185029 0.160696
    1 -0.021280 -8.563255 -0.000751 0.458376 -0.268371 -0.188895
    2 0.792406 -2.905200 0.835872 2.680096 -1.494964 0.470879
    3 -0.028195 2.698898 -0.230784 0.000000 0.000000 0.000000
    4 -0.000001 4.191838 -0.843241 0.000000 0.000000 0.000000
    5 0.195636 3.691723 2.013436 0.000000 0.000000 0.000000
    6 0.000001 4.251491 3.144327 0.000000 0.000000 0.000000
    7 0.000000 1.957418 -0.226470 0.000000 0.000000 0.000000
    8 -0.000278 18.790774 1.916064 0.000000 0.000000 0.000000
    9 -4.199346 -25.533918 -1.764880 0.000000 0.000000 0.000000
    10 0.000001 11.449860 1.851792 0.000000 0.000000 0.000000
    11 0.000000 1.934806 -0.630419 0.000000 0.000000 0.000000
    12 0.000000 1.253695 0.634938 0.000000 0.000000 0.000000
    13 0.044885 0.941603 4.711482 0.000000 0.000000 0.000000
    14 0.027106 0.819939 4.351317 0.000000 0.000000 0.000000
    15 0.000001 9.949661 2.586495 0.000000 0.000000 0.000000
    16 -0.003480 -0.404828 0.000000 -0.000001 0.000000 0.000000
    17 -0.519309 -2.501154 -0.278957 -0.879568 -0.036235 -0.324918
    18 -0.010599 -1.208185 0.000000 -1.185576 0.000000 0.000000
    19 0.000000 -0.763066 0.000000 -0.741497 0.000000 0.000000
    20 0.105981 -2.607134 -0.278957 -0.872556 -0.035899 -0.258089
    21 0.000000 -1.250579 0.000000 -0.794537 0.000000 0.000000
    22 0.000000 -0.932635 0.000000 -1.567302 0.000000 0.000000
    23 0.763065 -2.490556 -0.278958 -0.313873 0.040172 0.012324
    24 -0.012322 -1.280917 0.000000 -0.399621 0.000000 0.000000
    25 -0.001696 -0.738089 0.129481 -0.609597 0.000000 0.000000
    26 0.354567 0.016267 0.318133 0.308709 -0.503867 -0.874878
    27 1.887165 0.012878 0.000000 -0.095972 -0.113060 -1.028586
    28 1.001874 -0.000270 0.000000 0.000000 0.000000 -0.250165
    29 -1.123358 -2.195093 -0.278957 -1.061907 0.026409 -0.326972
    30 0.010772 -0.963791 0.000001 -0.810998 0.000000 0.000000
    31 -0.010412 -0.631916 0.000000 -0.691889 0.000000 0.000000
    32 -0.302231 -12.299910 -11.208407 -0.782540 0.360531 0.567719
    33 0.089928 -8.543165 0.000002 0.746001 -0.681102 -0.008720
    34 0.000000 -0.359714 0.000001 0.000000 0.000000 0.000000
    35 -0.170480 -2.636148 -0.277655 -1.043745 -0.052707 0.090280
    36 0.010599 -1.261177 0.000001 -0.473462 0.000000 0.000000
    37 0.000000 -0.943233 -0.000001 -0.944945 0.000000 0.000000
    38 -0.827563 -2.508972 -0.277656 -0.652127 -0.046328 0.035347
    39 0.000000 -1.292972 -0.000001 -0.708426 0.000000 0.000000
    40 -0.000002 -0.752465 0.000000 -0.777556 -0.248777 0.191914
    41 0.444212 -2.561962 -0.277655 -1.341904 0.037900 0.168005
    42 0.021023 -1.208187 0.000001 -0.304120 0.000000 0.000000
    43 0.010598 -0.741867 -0.000001 -0.721161 0.000000 0.000000
    44 1.047445 -2.222822 -0.277654 -1.356438 -0.069503 -0.040766
    45 -0.000001 -0.996223 -0.000001 -1.199027 0.000000 0.000000
    46 -0.000001 -0.614691 0.000000 -1.031474 0.000000 0.000000
    47 -0.308256 -0.007814 0.307165 -0.222158 -0.517282 -2.448821
    48 1.978377 0.019544 0.000000 0.059192 -0.023597 0.207212
    49 0.980611 0.058420 -0.012629 0.225215 -0.002505 0.054526
  time 22
    0 8.485879 2.701967 -7.793945 -0.489280 -1.185029 0.160696
    1 -0.021280 -8.563255 -0.000751 0.458461 -0.268306 -0.189094
    2 0.792406 -2.905200 0.835872 2.680096 -1.494964 0.470879
    3 -0.028195 2.698898 -0.230784 0.000000 0.000000 0.000000
    4 -0.000001 4.191838 -0.843241 0.000000 0.000000 0.000000
    5 0.195636 3.691723 2.013436 0.000000 0.000000 0.000000
    6 0.000001 4.251491 3.144327 0.000000 0.000000 0.000000
    7 0.000000 1.957418 -0.226470 0.000000 0.000000 0.000000
    8 -0.000278 18.790774 1.916064 0.000000 0.000000 0.000000
    9 -4.199346 -25.533918 -1.764880 0.000000 0.000000 0.000000
    10 0.000001 11.449860 1.851792 0.000000 0.000000 0.000000
    11 0.000000 1.934806 -0.630419 0.000000 0.000000 0.000000
    12 0.000000 1.253695 0.634938 0.000000 0.000000 0.000000
    13 0.044885 0.941603 4.711482 0.000000 0.000000 0.000000
    14 0.027106 0.819939 4.351317 0.000000 0.000000 0.000000
    15 0.000001 9.949661 2.586495 0.000000 0.000000 0.000000
    16 -0.003480 -0.404828 0.000000 -0.000001 0.000000 0.000000
    17 -0.519309 -2.501154 -0.278957 -0.879568 -0.036235 -0.324918
    18 -0.010599 -1.208185 0.000000 -1.185576 0.000000 0.000000
    19 0.000000 -0.763066 0.000000 -0.741497 0.000000 0.000000
    20 0.105981 -2.607134 -0.278957 -0.872556 -0.035899 -0.258089
    21 0.000000 -1.250579 0.000000 -0.794537 0.000000 0.000000
    22 0.000000 -0.932635 0.000000 -1.567302 0.000000 0.000000
    23 0.763065 -2.490556 -0.278958 -0.313873 0.040172 0.012324
    24 -0.012322 -1.280917 0.000000 -0.399621 0.000000 0.000000
    25 -0.001696 -0.738089 0.129481 -0.614201 0.000000 0.000000
    26 0.354567 0.016267 0.318133 0.308709 -0.503867 -0.874878
    27 1.887165 0.012878 0.000000 -0.095972 -0.113060 -1.028586
    28 1.001874 -0.000270 0.000000 0.000000 0.000000 -0.250165
    29 -1.123358 -2.195093 -0.278957 -1.061907 0.026409 -0.326972
    30 0.010772 -0.963791 0.000001 -0.810998 0.000000 0.000000
    31 -0.010412 -0.631916 0.000000 -0.691889 0.000000 0.000000
    32 -0.302231 -12.299910 -11.208407 -0.782352 0.360626 0.567796
    33 0.089928 -8.543165 0.000002 0.743806 -0.682773 -0.009771
    34 0.000000 -0.359714 0.000001 0.000000 0.000000 0.000000
    35 -0.170480 -2.636148 -0.277655 -1.043745 -0.052707 0.090280
    36 0.010599 -1.261177 0.000001 -0.473462 0.000000 0.000000
    37 0.000000 -0.943233 -0.000001 -0.944945 0.000000 0.000000
    38 -0.827563 -2.508972 -0.277656 -0.652127 -0.046328 0.035347
    39 0.000000 -1.292972 -0.000001 -0.708426 0.000000 0.000000
    40 -0.000002 -0.752465 0.000000 -0.777556 -0.248777 0.191914
    41 0.444212 -2.561962 -0.277655 -1.341904 0.037900 0.168005
    42 0.021023 -1.208187 0.000001 -0.304120 0.000000 0.000000
    43 0.010598 -0.741867 -0.000001 -0.721161 0.000000 0.000000
    44 1.047445 -2.222822 -0.277654 -1.356438 -0.069503 -0.040766
    45 -0.000001 -0.996223 -0.000001 -1.199027 0.000000 0.000000
    46 -0.000001 -0.614691 0.000000 -1.031474 0.000000 0.000000
    47 -0.308256 -0.007814 0.307165 -0.224135 -0.514673 -2.444970
    48 1.978377 0.019544 0.000000 0.059206 -0.027348 0.206990
    49 0.980611 0.058420 -0.012629 0.225227 -0.000372 0.045232
  time 23
    0 8.485879 2.701967 -7.793945 -0.489280 -1.185029 0.160696
    1 -0.021280 -8.563255 -0.000751 0.458504 -0.268242 -0.189193
    2 0.792406 -2.905200 0.835872 2.680096 -1.494964 0.470879
    3 -0.028195 2.698898 -0.230784 0.000000 0.000000 0.000000
    4 -0.000001 4.191838 -0.843241 0.000000 0.000000 0.000000
    5 0.195636 3.691723 2.013436 0.000000 0.000000 0.000000
    6 0.000001 4.251491 3.144327 0.000000 0.000000 0.000000
    7 0.000000 1.957418 -0.226470 0.000000 0.000000 0.000000
    8 -0.000278 18.790774 1.916064 0.000000 0.000000 0.000000
    9 -4.199346 -25.533918 -1.764880 0.000000 0.000000 0.000000
    10 0.000001 11.449860 1.851792 0.000000 0.000000 0.000000
    11 0.000000 1.934806 -0.630419 0.000000 0.000000 0.000000
    12 0.000000 1.253695 0.634938 0.000000 0.000000 0.000000
    13 0.044885 0.941603 4.711482 0.000000 0.000000 0.000000
    14 0.027106 0.819939 4.351317 0.000000 0.000000 0.000000
    15 0.000001 9.949661 2.586495 0.000000 0.000000 0.000000
    16 -0.003480 -0.404828 0.000000 -0.000001 0.000000 0.000000
    17 -0.519309 -2.501154 -0.278957 -0.879568 -0.036235 -0.324918
    18 -0.010599 -1.208185 0.000000 -1.185576 0.000000 0.000000
    19 0.000000 -0.763066 0.000000 -0.741497 0.000000 0.000000
    20 0.105981 -2.607134 -0.278957 -0.872556 -0.035899 -0.258089
    21 0.000000 -1.250579 0.000000 -0.794537 0.000000 0.000000
    22 0.000000 -0.932635 0.000000 -1.567302 0.000000 0.000000
    23 0.763065 -2.490556 -0.278958 -0.313873 0.040172 0.012324
    24 -0.012322 -1.280917 0.000000 -0.399621 0.000000 0.000000
    25 -0.001696 -0.738089 0.129481 -0.618735 0.000000 0.000000
    26 0.354567 0.016267 0.318133 0.308709 -0.503867 -0.874878
    27 1.887165 0.012878 0.000000 -0.095972 -0.113060 -1.028586
    28 1.001874 -0.000270 0.000000 0.000000 0.000000 -0.250165
    29 -1.123358 -2.195093 -0.278957 -1.061907 0.026409 -0.326972
    30 0.010772 -0.963791 0.000001 -0.810998 0.000000 0.000000
    31 -0.010412 -0.631916 0.000000 -0.691889 0.000000 0.000000
    32 -0.302231 -12.299910 -11.208407 -0.782258 0.360626 0.567796
    33 0.089928 -8.543165 0.000002 0.741719 -0.684363 -0.010756
    34 0.000000 -0.359714 0.000001 0.000000 0.000000 0.000000
    35 -0.170480 -2.636148 -0.277655 -1.043745 -0.052707 0.090280
    36 0.010599 -1.261177 0.000001 -0.473462 0.000000 0.000000
    37 0.000000 -0.943233 -0.000001 -0.944945 0.000000 0.000000
    38 -0.827563 -2.508972 -0.277656 -0.652127 -0.046328 0.035347
    39 0.000000 -1.292972 -0.000001 -0.708426 0.000000 0.000000
    40 -0.000002 -0.752465 0.000000 -0.777556 -0.248777 0.191914
    41 0.444212 -2.561962 -0.277655 -1.341904 0.037900 0.168005
    42 0.021023 -1.208187 0.000001 -0.304120 0.000000 0.000000
    43 0.010598 -0.741867 -0.000001 -0.721161 0.000000 0.000000
    44 1.047445 -2.222822 -0.277654 -1.356438 -0.069503 -0.040766
    45 -0.000001 -0.996223 -0.000001 -1.199027 0.000000 0.000000
    46 -0.000001 -0.614691 0.000000 -1.031474 0.000000 0.000000
    47 -0.308256 -0.007814 0.307165 -0.226080 -0.513496 -2.441119
    48 1.978377 0.019544 0.000000 0.059192 -0.030704 0.207185
    49 0.980611 0.058420 -0.012629 0.225239 0.001725 0.036072
  time 24
    0 8.485879 2.701967 -7.793945 -0.489280 -1.185029 0.160696
    1 -0.021280 -8.563255 -0.000751 0.458504 -0.268242 -0.189260
    2 0.792406 -2.905200 0.835872 2.680096 -1.494964 0.470879
    3 -0.028195 2.698898 -0.230784 0.000000 0.000000 0.000000
    4 -0.000001 4.191838 -0.843241 0.000000 0.000000 0.000000
    5 0.195636 3.691723 2.013436 0.000000 0.000000 0.000000
    6 0.000001 4.251491 3.144327 0.000000 0.000000 0.000000
    7 0.000000 1.957418 -0.226470 0.000000 0.000000 0.000000
    8 -0.000278 18.790774 1.916064 0.000000 0.000000 0.000000
    9 -4.199346 -25.533918 -1.764880 0.000000 0.000000 0.000000
    10 0.000001 11.449860 1.851792 0.000000 0.000000 0.000000
    11 0.000000 1.934806 -0.630419 0.000000 0.000000 0.000000
    12 0.000000 1.253695 0.634938 0.000000 0.000000 0.000000
    13 0.044885 0.941603 4.711482 0.000000 0.000000 0.000000
    14 0.027106 0.819939 4.351317 0.000000 0.000000 0.000000
    15 0.000001 9.949661 2.586495 0.000000 0.000000 0.000000
    16 -0.003480 -0.404828 0.000000 -0.000001 0.000000 0.000000
    17 -0.519309 -2.501154 -0.278957 -0.879568 -0.036235 -0.324918
    18 -0.010599 -1.208185 0.000000 -1.185576 0.000000 0.000000
    19 0.000000 -0.763066 0.000000 -0.741497 0.000000 0.000000
    20 0.105981 -2.607134 -0.278957 -0.872556 -0.035899 -0.258089
    21 0.000000 -1.250579 0.000000 -0.794537 0.000000 0.000000
    22 0.000000 -0.932635 0.000000 -1.567302 0.000000 0.000000
    23 0.763065 -2.490556 -0.278958 -0.313873 0.040172 0.012324
    24 -0.012322 -1.280917 0.000000 -0.399621 0.000000 0.000000
    25 -0.001696 -0.738089 0.129481 -0.623094 0.000000 0.000000
    26 0.354567 0.016267 0.318133 0.308709 -0.503867 -0.874878
    27 1.887165 0.012878 0.000000 -0.095972 -0.113060 -1.028586
    28 1.001874 -0.000270 0.000000 0.000000 0.000000 -0.250165
    29 -1.123358 -2.195093 -0.278957 -1.061907 0.026409 -0.326972
    30 0.010772 -0.963791 0.000001 -0.810998 0.000000 0.000000
    31 -0.010412 -0.631916 0.000000 -0.691889 0.000000 0.000000
    32 -0.302231 -12.299910 -11.208407 -0.782258 0.360626 0.567873
    33 0.089928 -8.543165 0.000002 0.739738 -0.685872 -0.011698
    34 0.000000 -0.359714 0.000001 0.000000 0.000000 0.000000
    35 -0.170480 -2.636148 -0.277655 -1.043745 -0.052707 0.090280
    36 0.010599 -1.261177 0.000001 -0.473462 0.000000 0.000000
    37 0.000000 -0.943233 -0.000001 -0.944945 0.000000 0.000000
    38 -0.827563 -2.508972 -0.277656 -0.652127 -0.046328 0.035347
    39 0.000000 -1.292972 -0.000001 -0.708426 0.000000 0.000000
    40 -0.000002 -0.752465 0.000000 -0.777556 -0.248777 0.191914
    41 0.444212 -2.561962 -0.277655 -1.341904 0.037900 0.168005
    42 0.021023 -1.208187 0.000001 -0.304120 0.000000 0.000000
    43 0.010598 -0.741867 -0.000001 -0.721161 0.000000 0.000000
    44 1.047445 -2.222822 -0.277654 -1.356438 -0.069503 -0.040766
    45 -0.000001 -0.996223 -0.000001 -1.199027 0.000000 0.000000
    46 -0.000001 -0.614691 0.000000 -1.031474 0.000000 0.000000
    47 -0.308256 -0.007814 0.307165 -0.227900 -0.512575 -2.437550
    48 1.978377 0.019544 0.000000 0.059165 -0.034191 0.207713
    49 0.980611 0.058420 -0.012629 0.225251 0.003739 0.027278
  time 25
    0 8.485879 2.701967 -7.793945 -0.489280 -1.185029 0.160696
    1 -0.021280 -8.563255 -0.000751 0.458504 -0.268242 -0.189260
    2 0.792406 -2.905200 0.835872 2.680096 -1.494964 0.470879
    3 -0.028195 2.698898 -0.230784 0.000000 0.000000 0.000000
    4 -0.000001 4.191838 -0.843241 0.000000 0.000000 0.000000
    5 0.195636 3.691723 2.013436 0.000000 0.000000 0.000000
    6 0.000001 4.251491 3.144327 0.000000 0.000000 0.000000
    7 0.000000 1.957418 -0.226470 0.000000 0.000000 0.000000
    8 -0.000278 18.790774 1.916064 0.000000 0.000000 0.000000
    9 -4.199346 -25.533918 -1.764880 0.000000 0.000000 0.000000
    10 0.000001 11.449860 1.851792 0.000000 0.000000 0.000000
    11 0.000000 1.934806 -0.630419 0.000000 0.000000 0.000000
    12 0.000000 1.253695 0.634938 0.000000 0.000000 0.000000
    13 0.044885 0.941603 4.711482 0.000000 0.000000 0.000000
    14 0.027106 0.819939 4.351317 0.000000 0.000000 0.000000
    15 0.000001 9.949661 2.586495 0.000000 0.000000 0.000000
    16 -0.003480 -0.404828 0.000000 -0.000001 0.000000 0.000000
    17 -0.519309 -2.501154 -0.278957 -0.879568 -0.036235 -0.324918
    18 -0.010599 -1.208185 0.000000 -1.185576 0.000000 0.000000
    19 0.000000 -0.763066 0.000000 -0.741497 0.000000 0.000000
    20 0.105981 -2.607134 -0.278957 -0.872556 -0.035899 -0.258089
    21 0.000000 -1.250579 0.000000 -0.794537 0.000000 0.000000
    22 0.000000 -0.932635 0.000000 -1.567302 0.000000 0.000000
    23 0.763065 -2.490556 -0.278958 -0.313873 0.040172 0.012324
    24 -0.012322 -1.280917 0.000000 -0.399621 0.000000 0.000000
    25 -0.001696 -0.738089 0.129481 -0.627118 0.000000 0.000000
    26 0.354567 0.016267 0.318133 0.308709 -0.503867 -0.874878
    27 1.887165 0.012878 0.000000 -0.095972 -0.113060 -1.028586
    28 1.001874 -0.000270 0.000000 0.000000 0.000000 -0.250165
    29 -1.123358 -2.195093 -0.278957 -1.061907 0.026409 -0.326972
    30 0.010772 -0.963791 0.000001 -0.810998 0.000000 0.000000
    31 -0.010412 -0.631916 0.000000 -0.691889 0.000000 0.000000
    32 -0.302231 -12.299910 -11.208407 -0.782258 0.360626 0.567873
    33 0.089928 -8.543165 0.000002 0.737918 -0.687258 -0.012530
    34 0.000000 -0.359714 0.000001 0.000000 0.000000 0.000000
    35 -0.170480 -2.636148 -0.277655 -1.043745 -0.052707 0.090280
    36 0.010599 -1.261177 0.000001 -0.473462 0.000000 0.000000
    37 0.000000 -0.943233 -0.000001 -0.944945 0.000000 0.000000
    38 -0.827563 -2.508972 -0.277656 -0.652127 -0.046328 0.035347
    39 0.000000 -1.292972 -0.000001 -0.708426 0.000000 0.000000
    40 -0.000002 -0.752465 0.000000 -0.777556 -0.248777 0.191914
    41 0.444212 -2.561962 -0.277655 -1.341904 0.037900 0.168005
    42 0.021023 -1.208187 0.000001 -0.304120 0.000000 0.000000
    43 0.010598 -0.741867 -0.000001 -0.721161 0.000000 0.000000
    44 1.047445 -2.222822 -0.277654 -1.356438 -0.069503 -0.040766
    45 -0.000001 -0.996223 -0.000001 -1.199027 0.000000 0.000000
    46 -0.000001 -0.614691 0.000000 -1.031474 0.000000 0.000000
    47 -0.308256 -0.007814 0.307165 -0.229468 -0.511893 -2.434309
    48 1.978377 0.019544 0.000000 0.059124 -0.037607 0.208465
    49 0.980611 0.058420 -0.012629 0.225263 0.005608 0.019116
  time 26
    0 8.485879 2.701967 -7.793945 -0.489280 -1.185029 0.160696
    1 -0.021280 -8.563255 -0.000751 0.458504 -0.268242 -0.189193
    2 0.792406 -2.905200 0.835872 2.680096 -1.494964 0.470879
    3 -0.028195 2.698898 -0.230784 0.000000 0.000000 0.000000
    4 -0.000001 4.191838 -0.843241 0.000000 0.000000 0.000000
    5 0.195636 3.691723 2.013436 0.000000 0.000000 0.000000
    6 0.000001 4.251491 3.144327 0.000000 0.000000 0.000000
    7 0.000000 1.957418 -0.226470 0.000000 0.000000 0.000000
    8 -0.000278 18.790774 1.916064 0.000000 0.000000 0.000000
    9 -4.199346 -25.533918 -1.764880 0.000000 0.000000 0.000000
    10 0.000001 11.449860 1.851792 0.000000 0.000000 0.000000
    11 0.000000 1.934806 -0.630419 0.000000 0.000000 0.000000
    12 0.000000 1.253695 0.634938 0.000000 0.000000 0.000000
    13 0.044885 0.941603 4.711482 0.000000 0.000000 0.000000
    14 0.027106 0.819939 4.351317 0.000000 0.000000 0.000000
    15 0.000001 9.949661 2.586495 0.000000 0.000000 0.000000
    16 -0.003480 -0.404828 0.000000 -0.000001 0.000000 0.000000
    17 -0.519309 -2.501154 -0.278957 -0.879568 -0.036235 -0.324918
    18 -0.010599 -1.208185 0.000000 -1.185576 0.000000 0.000000
    19 0.000000 -0.763066 0.000000 -0.741497 0.000000 0.000000
    20 0.105981 -2.607134 -0.278957 -0.872556 -0.035899 -0.258089
    21 0.000000 -1.250579 0.000000 -0.794537 0.000000 0.000000
    22 0.000000 -0.932635 0.000000 -1.567302 0.000000 0.000000
    23 0.763065 -2.490556 -0.278958 -0.313873 0.040172 0.012324
    24 -0.012322 -1.280917 0.000000 -0.399621 0.000000 0.000000
    25 -0.001696 -0.738089 0.129481 -0.630703 0.000000 0.000000
    26 0.354567 0.016267 0.318133 0.308709 -0.503867 -0.874878
    27 1.887165 0.012878 0.000000 -0.095972 -0.113060 -1.028586
    28 1.001874 -0.000270 0.000000 0.000000 0.000000 -0.250165
    29 -1.123358 -2.195093 -0.278957 -1.061907 0.026409 -0.326972
    30 0.010772 -0.963791 0.000001 -0.810998 0.000000 0.000000
    31 -0.010412 -0.631916 0.000000 -0.691889 0.000000 0.000000
    32 -0.302231 -12.299910 -11.208407 -0.782258 0.360626 0.567796
    33 0.089928 -8.543165 0.000002 0.736366 -0.688440 -0.013275
    34 0.000000 -0.359714 0.000001 0.000000 0.000000 0.000000
    35 -0.170480 -2.636148 -0.277655 -1.043745 -0.052707 0.090280
    36 0.010599 -1.261177 0.000001 -0.473462 0.000000 0.000000
    37 0.000000 -0.943233 -0.000001 -0.944945 0.000000 0.000000
    38 -0.827563 -2.508972 -0.277656 -0.652127 -0.046328 0.035347
    39 0.000000 -1.292972 -0.000001 -0.708426 0.000000 0.000000
    40 -0.000002 -0.752465 0.000000 -0.777556 -0.248777 0.191914
    41 0.444212 -2.561962 -0.277655 -1.341904 0.037900 0.168005
    42 0.021023 -1.208187 0.000001 -0.304120 0.000000 0.000000
    43 0.010598 -0.741867 -0.000001 -0.721161 0.000000 0.000000
    44 1.047445 -2.222822 -0.277654 -1.356438 -0.069503 -0.040766
    45 -0.000001 -0.996223 -0.000001 -1.199027 0.000000 0.000000
    46 -0.000001 -0.614691 0.000000 -1.031474 0.000000 0.000000
    47 -0.308256 -0.007814 0.307165 -0.230849 -0.511415 -2.431507
    48 1.978377 0.019544 0.000000 0.059084 -0.040807 0.209327
    49 0.980611 0.058420 -0.012629 0.225275 0.007274 0.011888
  time 27
    0 8.485879 2.701967 -7.793945 -0.489280 -1.185029 0.160696
    1 -0.021280 -8.563255 -0.000751 0.458461 -0.268306 -0.189094
    2 0.792406 -2.905200 0.835872 2.680096 -1.494964 0.470879
    3 -0.028195 2.698898 -0.230784 0.000000 0.000000 0.000000
    4 -0.000001 4.191838 -0.843241 0.000000 0.000000 0.000000
    5 0.195636 3.691723 2.013436 0.000000 0.000000 0.000000
    6 0.000001 4.251491 3.144327 0.000000 0.000000 0.000000
    7 0.000000 1.957418 -0.226470 0.000000 0.000000 0.000000
    8 -0.000278 18.790774 1.916064 0.000000 0.000000 0.000000
    9 -4.199346 -25.533918 -1.764880 0.000000 0.000000 0.000000
    10 0.000001 11.449860 1.851792 0.000000 0.000000 0.000000
    11 0.000000 1.934806 -0.630419 0.000000 0.000000 0.000000
    12 0.000000 1.253695 0.634938 0.000000 0.000000 0.000000
    13 0.044885 0.941603 4.711482 0.000000 0.000000 0.000000
    14 0.027106 0.819939 4.351317 0.000000 0.000000 0.000000
    15 0.000001 9.949661 2.586495 0.000000 0.000000 0.000000
    16 -0.003480 -0.404828 0.000000 -0.000001 0.000000 0.000000
    17 -0.519309 -2.501154 -0.278957 -0.879568 -0.036235 -0.324918
    18 -0.010599 -1.208185 0.000000 -1.185576 0.000000 0.000000
    19 0.000000 -0.763066 0.000000 -0.741497 0.000000 0.000000
    20 0.105981 -2.607134 -0.278957 -0.872556 -0.035899 -0.258089
    21 0.000000 -1.250579 0.000000 -0.794537 0.000000 0.000000
    22 0.000000 -0.932635 0.000000 -1.567302 0.000000 0.000000
    23 0.763065 -2.490556 -0.278958 -0.313873 0.040172 0.012324
    24 -0.012322 -1.280917 0.000000 -0.399621 0.000000 0.000000
    25 -0.001696 -0.738089 0.129481 -0.633708 0.000000 0.000000
    26 0.354567 0.016267 0.318133 0.308709 -0.503867 -0.874878
    27 1.887165 0.012878 0.000000 -0.095972 -0.113060 -1.028586
    28 1.001874 -0.000270 0.000000 0.000000 0.000000 -0.250165
    29 -1.123358 -2.195093 -0.278957 -1.061907 0.026409 -0.326972
    30 0.010772 -0.963791 0.000001 -0.810998 0.000000 0.000000
    31 -0.010412 -0.631916 0.000000 -0.691889 0.000000 0.000000
    32 -0.302231 -12.299910 -11.208407 -0.782352 0.360626 0.567796
    33 0.089928 -8.543165 0.000002 0.735081 -0.689419 -0.013888
    34 0.000000 -0.359714 0.000001 0.000000 0.000000 0.000000
    35 -0.170480 -2.636148 -0.277655 -1.043745 -0.052707 0.090280
    36 0.010599 -1.261177 0.000001 -0.473462 0.000000 0.000000
    37 0.000000 -0.943233 -0.000001 -0.944945 0.000000 0.000000
    38 -0.827563 -2.508972 -0.277656 -0.652127 -0.046328 0.035347
    39 0.000000 -1.292972 -0.000001 -0.708426 0.000000 0.000000
    40 -0.000002 -0.752465 0.000000 -0.777556 -0.248777 0.191914
    41 0.444212 -2.561962 -0.277655 -1.341904 0.037900 0.168005
    42 0.021023 -1.208187 0.000001 -0.304120 0.000000 0.000000
    43 0.010598 -0.741867 -0.000001 -0.721161 0.000000 0.000000
    44 1.047445 -2.222822 -0.277654 -1.356438 -0.069503 -0.040766
    45 -0.000001 -0.996223 -0.000001 -1.199027 0.000000 0.000000
    46 -0.000001 -0.614691 0.000000 -1.031474 0.000000 0.000000
    47 -0.308256 -0.007814 0.307165 -0.231947 -0.511108 -2.429190
    48 1.978377 0.019544 0.000000 0.059043 -0.043587 0.210190
    49 0.980611 0.058420 -0.012629 0.225275 0.008665 0.005825
  time 28
    0 8.485879 2.701967 -7.793945 -0.489280 -1.185029 0.160696
    1 -0.021280 -8.563255 -0.000751 0.458376 -0.268371 -0.188895
    2 0.792406 -2.905200 0.835872 2.680096 -1.494964 0.470879
    3 -0.028195 2.698898 -0.230784 0.000000 0.000000 0.000000
    4 -0.000001 4.191838 -0.843241 0.000000 0.000000 0.000000
    5 0.195636 3.691723 2.013436 0.000000 0.000000 0.000000
    6 0.000001 4.251491 3.144327 0.000000 0.000000 0.000000
    7 0.000000 1.957418 -0.226470 0.000000 0.000000 0.000000
    8 -0.000278 18.790774 1.916064 0.000000 0.000000 0.000000
    9 -4.199346 -25.533918 -1.764880 0.000000 0.000000 0.000000
    10 0.000001 11.449860 1.851792 0.000000 0.000000 0.000000
    11 0.000000 1.934806 -0.630419 0.000000 0.000000 0.000000
    12 0.000000 1.253695 0.634938 0.000000 0.000000 0.000000
    13 0.044885 0.941603 4.711482 0.000000 0.000000 0.000000
    14 0.027106 0.819939 4.351317 0.000000 0.000000 0.000000
    15 0.000001 9.949661 2.586495 0.000000 0.000000 0.000000
    16 -0.003480 -0.404828 0.000000 -0.000001 0.000000 0.000000
    17 -0.519309 -2.501154 -0.278957 -0.879568 -0.036235 -0.324918
    18 -0.010599 -1.208185 0.000000 -1.185576 0.000000 0.000000
    19 0.000000 -0.763066 0.000000 -0.741497 0.000000 0.000000
    20 0.105981 -2.607134 -0.278957 -0.872556 -0.035899 -0.258089
    21 0.000000 -1.250579 0.000000 -0.794537 0.000000 0.000000
    22 0.000000 -0.932635 0.000000 -1.567302 0.000000 0.000000
    23 0.763065 -2.490556 -0.278958 -0.313873 0.040172 0.012324
    24 -0.012322 -1.280917 0.000000 -0.399621 0.000000 0.000000
    25 -0.001696 -0.738089 0.129481 -0.636028 0.000000 0.000000
    26 0.354567 0.016267 0.318133 0.308709 -0.503867 -0.874878
    27 1.887165 0.012878 0.000000 -0.095972 -0.113060 -1.028586
    28 1.001874 -0.000270 0.000000 0.000000 0.000000 -0.250165
    29 -1.123358 -2.195093 -0.278957 -1.061907 0.026409 -0.326972
    30 0.010772 -0.963791 0.000001 -0.810998 0.000000 0.000000
    31 -0.010412 -0.631916 0.000000 -0.691889 0.000000 0.000000
    32 -0.302231 -12.299910 -11.208407 -0.782634 0.360531 0.567719
    33 0.089928 -8.543165 0.000002 0.734064 -0.690193 -0.014348
    34 0.000000 -0.359714 0.000001 0.000000 0.000000 0.000000
    35 -0.170480 -2.636148 -0.277655 -1.043745 -0.052707 0.090280
    36 0.010599 -1.261177 0.000001 -0.473462 0.000000 0.000000
    37 0.000000 -0.943233 -0.000001 -0.944945 0.000000 0.000000
    38 -0.827563 -2.508972 -0.277656 -0.652127 -0.046328 0.035347
    39 0.000000 -1.292972 -0.000001 -0.708426 0.000000 0.000000
    40 -0.000002 -0.752465 0.000000 -0.777556 -0.248777 0.191914
    41 0.444212 -2.561962 -0.277655 -1.341904 0.037900 0.168005
    42 0.021023 -1.208187 0.000001 -0.304120 0.000000 0.000000
    43 0.010598 -0.741867 -0.000001 -0.721161 0.000000 0.000000
    44 1.047445 -2.222822 -0.277654 -1.356438 -0.069503 -0.040766
    45 -0.000001 -0.996223 -0.000001 -1.199027 0.000000 0.000000
    46 -0.000001 -0.614691 0.000000 -1.031474 0.000000 0.000000
    47 -0.308256 -0.007814 0.307165 -0.232763 -0.510921 -2.427437
    48 1.978377 0.019544 0.000000 0.059002 -0.045805 0.210941
    49 0.980611 0.058420 -0.012629 0.225287 0.009731 0.001162
  time 29
    0 8.485879 2.701967 -7.793945 -0.489280 -1.185029 0.160696
    1 -0.021280 -8.563255 -0.000751 0.458291 -0.268468 -0.188662
    2 0.792406 -2.905200 0.835872 2.680096 -1.494964 0.470879
    3 -0.028195 2.698898 -0.230784 0.000000 0.000000 0.000000
    4 -0.000001 4.191838 -0.843241 0.000000 0.000000 0.000000
    5 0.195636 3.691723 2.013436 0.000000 0.000000 0.000000
    6 0.000001 4.251491 3.144327 0.000000 0.000000 0.000000
    7 0.000000 1.957418 -0.226470 0.000000 0.000000 0.000000
    8 -0.000278 18.790774 1.916064 0.000000 0.000000 0.000000
    9 -4.199346 -25.533918 -1.764880 0.000000 0.000000 0.000000
    10 0.000001 11.449860 1.851792 0.000000 0.000000 0.000000
    11 0.000000 1.934806 -0.630419 0.000000 0.000000 0.000000
    12 0.000000 1.253695 0.634938 0.000000 0.000000 0.000000
    13 0.044885 0.941603 4.711482 0.000000 0.000000 0.000000
    14 0.027106 0.819939 4.351317 0.000000 0.000000 0.000000
    15 0.000001 9.949661 2.586495 0.000000 0.000000 0.000000
    16 -0.003480 -0.404828 0.000000 -0.000001 0.000000 0.000000
    17 -0.519309 -2.501154 -0.278957 -0.879568 -0.036235 -0.324918
    18 -0.010599 -1.208185 0.000000 -1.185576 0.000000 0.000000
    19 0.000000 -0.763066 0.000000 -0.741497 0.000000 0.000000
    20 0.105981 -2.607134 -0.278957 -0.872556 -0.035899 -0.258089
    21 0.000000 -1.250579 0.000000 -0.794537 0.000000 0.000000
    22 0.000000 -0.932635 0.000000 -1.567302 0.000000 0.000000
    23 0.763065 -2.490556 -0.278958 -0.313873 0.040172 0.012324
    24 -0.012322 -1.280917 0.000000 -0.399621 0.000000 0.000000
    25 -0.001696 -0.738089 0.129481 -0.637504 0.000000 0.000000
    26 0.354567 0.016267 0.318133 0.308709 -0.503867 -0.874878
    27 1.887165 0.012878 0.000000 -0.095972 -0.113060 -1.028586
    28 1.001874 -0.000270 0.000000 0.000000 0.000000 -0.250165
    29 -1.123358 -2.195093 -0.278957 -1.061907 0.026409 -0.326972
    30 0.010772 -0.963791 0.000001 -0.810998 0.000000 0.000000
    31 -0.010412 -0.631916 0.000000 -0.691889 0.000000 0.000000
    32 -0.302231 -12.299910 -11.208407 -0.783104 0.360435 0.567565
    33 0.089928 -8.543165 0.000002 0.733475 -0.690642 -0.014654
    34 0.000000 -0.359714 0.000001 0.000000 0.000000 0.000000
    35 -0.170480 -2.636148 -0.277655 -1.043745 -0.052707 0.090280
    36 0.010599 -1.261177 0.000001 -0.473462 0.000000 0.000000
    37 0.000000 -0.943233 -0.000001 -0.944945 0.000000 0.000000
    38 -0.827563 -2.508972 -0.277656 -0.652127 -0.046328 0.035347
    39 0.000000 -1.292972 -0.000001 -0.708426 0.000000 0.000000
    40 -0.000002 -0.752465 0.000000 -0.777556 -0.248777 0.191914
    41 0.444212 -2.561962 -0.277655 -1.341904 0.037900 0.168005
    42 0.021023 -1.208187 0.000001 -0.304120 0.000000 0.000000
    43 0.010598 -0.741867 -0.000001 -0.721161 0.000000 0.000000
    44 1.047445 -2.222822 -0.277654 -1.356438 -0.069503 -0.040766
    45 -0.000001 -0.996223 -0.000001 -1.199027 0.000000 0.000000
    46 -0.000001 -0.614691 0.000000 -1.031474 0.000000 0.000000
    47 -0.308256 -0.007814 0.307165 -0.233265 -0.510835 -2.426341
    48 1.978377 0.019544 0.000000 0.058975 -0.047255 0.211470
    49 0.980611 0.058420 -0.012629 0.225287 0.010414 -0.001836
  time 30
    0 8.485879 2.701967 -7.793945 -0.489280 -1.185029 0.160696
    1 -0.021280 -8.563255 -0.000751 0.458206 -0.268597 -0.188363
    2 0.792406 -2.905200 0.835872 2.680096 -1.494964 0.470879
    3 -0.028195 2.698898 -0.230784 0.000000 0.000000 0.000000
    4 -0.000001 4.191838 -0.843241 0.000000 0.000000 0.000000
    5 0.195636 3.691723 2.013436 0.000000 0.000000 0.000000
    6 0.000001 4.251491 3.144327 0.000000 0.000000 0.000000
    7 0.000000 1.957418 -0.226470 0.000000 0.000000 0.000000
    8 -0.000278 18.790774 1.916064 0.000000 0.000000 0.000000
    9 -4.199346 -25.533918 -1.764880 0.000000 0.000000 0.000000
    10 0.000001 11.449860 1.851792 0.000000 0.000000 0.000000
    11 0.000000 1.934806 -0.630419 0.000000 0.000000 0.000000
    12 0.000000 1.253695 0.634938 0.000000 0.000000 0.000000
    13 0.044885 0.941603 4.711482 0.000000 0.000000 0.000000
    14 0.027106 0.819939 4.351317 0.000000 0.000000 0.000000
    15 0.000001 9.949661 2.586495 0.000000 0.000000 0.000000
    16 -0.003480 -0.404828 0.000000 -0.000001 0.000000 0.000000
    17 -0.519309 -2.501154 -0.278957 -0.879568 -0.036235 -0.324918
    18 -0.010599 -1.208185 0.000000 -1.185576 0.000000 0.000000
    19 0.000000 -0.763066 0.000000 -0.741497 0.000000 0.000000
    20 0.105981 -2.607134 -0.278957 -0.872556 -0.035899 -0.258089
    21 0.000000 -1.250579 0.000000 -0.794537 0.000000 0.000000
    22 0.000000 -0.932635 0.000000 -1.567302 0.000000 0.000000
    23 0.763065 -2.490556 -0.278958 -0.313873 0.040172 0.012324
    24 -0.012322 -1.280917 0.000000 -0.399621 0.000000 0.000000
    25 -0.001696 -0.738089 0.129481 -0.638014 0.000000 0.000000
    26 0.354567 0.016267 0.318133 0.308709 -0.503867 -0.874878
    27 1.887165 0.012878 0.000000 -0.095972 -0.113060 -1.028586
    28 1.001874 -0.000270 0.000000 0.000000 0.000000 -0.250165
    29 -1.123358 -2.195093 -0.278957 -1.061907 0.026409 -0.326972
    30 0.010772 -0.963791 0.000001 -0.810998 0.000000 0.000000
    31 -0.010412 -0.631916 0.000000 -0.691889 0.000000 0.000000
    32 -0.302231 -12.299910 -11.208407 -0.783104 0.360435 0.567565
    33 0.089928 -8.543165 0.000002 0.733261 -0.690805 -0.014742
    34 0.000000 -0.359714 0.000001 0.000000 0.000000 0.000000
    35 -0.170480 -2.636148 -0.277655 -1.043745 -0.052707 0.090280
    36 0.010599 -1.261177 0.000001 -0.473462 0.000000 0.000000
    37 0.000000 -0.943233 -0.000001 -0.944945 0.000000 0.000000
    38 -0.827563 -2.508972 -0.277656 -0.652127 -0.046328 0.035347
    39 0.000000 -1.292972 -0.000001 -0.708426 0.000000 0.000000
    40 -0.000002 -0.752465 0.000000 -0.777556 -0.248777 0.191914
    41 0.444212 -2.561962 -0.277655 -1.341904 0.037900 0.168005
    42 0.021023 -1.208187 0.000001 -0.304120 0.000000 0.000000
    43 0.010598 -0.741867 -0.000001 -0.721161 0.000000 0.000000
    44 1.047445 -2.222822 -0.277654 -1.356438 -0.069503 -0.040766
    45 -0.000001 -0.996223 -0.000001 -1.199027 0.000000 0.000000
    46 -0.000001 -0.614691 0.000000 -1.031474 0.000000 0.000000
    47 -0.308256 -0.007814 0.307165 -0.233453 -0.510801 -2.425966
    48 1.978377 0.019544 0.000000 0.058975 -0.047770 0.211665
    49 0.980611 0.058420 -0.012629 0.225287 0.010654 -0.002869
end
