// Created by Crowbar 0.34.0.0

$ModelName "weapons/tfa_cso/w_lightning_rail.mdl"

$BodyGroup "studio"
{
	studio "v_sfsniperm"
}

$collisionmodel "v_sfsniperm.smd"
{
	$mass 9
}

$CDMaterials "models\weapons\tfa_cso\lightning_rail"

$attachment "0" "root" -0.10 -17.50 0.00 rotate -0 0 0

$Sequence "idle" {
	"anims\idle.smd"
	fps 30
}