version 1
nodes
  0 "Bone01" -1
  1 "Bone_Lefthand" 0
  2 "Bone02" 1
  3 "Bone03" 2
  4 "Bone48" 3
  5 "Bone54" 3
  6 "Bone50" 3
  7 "Bone52" 3
  8 "Bone25" 3
  9 "Bone 04" 1
  10 "Bone13" 9
  11 "Bone14" 10
  12 "Bone15" 11
  13 "Bone17" 9
  14 "Bone18" 13
  15 "Bone19" 14
  16 "Bone21" 9
  17 "Bone22" 16
  18 "Bone23" 17
  19 "Bone05" 9
  20 "Bone06" 19
  21 "Bone07" 20
  22 "Bone09" 9
  23 "Bone10" 22
  24 "Bone11" 23
  25 "Bone04" -1
  26 "Bone_Righthand" 25
  27 "Bone26" 26
  28 "Bone35" 27
  29 "Bone36" 28
  30 "Bone37" 29
  31 "Bone31" 27
  32 "Bone32" 31
  33 "Bone33" 32
  34 "Bone39" 27
  35 "Bone40" 34
  36 "Bone41" 35
  37 "Bone43" 27
  38 "Bone44" 37
  39 "Bone45" 38
  40 "Bone27" 27
  41 "Bone28" 40
  42 "Bone29" 41
end
skeleton
  time 0
    0 7.106536 3.915679 -7.194028 -0.774325 -1.331369 0.567249
    1 0.000000 -8.563282 -0.000002 0.347509 -0.125220 -0.169570
    2 -0.617038 -3.048496 0.595564 -1.247037 1.437608 -1.233844
    3 0.000000 1.876117 0.890361 0.000000 0.000000 0.000000
    4 0.000001 -4.992343 2.835746 0.000000 0.000000 0.000000
    5 -0.460900 -1.864593 1.374185 0.000000 0.000000 0.000000
    6 0.000001 -2.440687 1.118145 0.314140 0.000000 0.000000
    7 0.000001 -3.720883 0.606066 0.000000 0.000000 0.000000
    8 0.000001 -4.928777 1.621725 0.000000 0.000000 0.000000
    9 -0.003480 -0.404829 0.000000 0.000000 0.000000 0.000000
    10 -0.519309 -2.501155 -0.278957 -1.003564 0.000000 -0.122173
    11 -0.010598 -1.208185 0.000000 -1.279325 0.000000 0.000000
    12 0.000000 -0.763066 0.000000 -1.139709 0.000000 0.000000
    13 0.105981 -2.607134 -0.278957 -0.890118 0.000000 -0.148353
    14 0.000000 -1.250579 0.000000 -1.364837 0.000000 0.000000
    15 0.000000 -0.932634 0.000000 -1.342160 0.000000 0.000000
    16 0.763064 -2.490557 -0.278957 -0.589908 0.000000 0.130900
    17 -0.012322 -1.280917 -0.000002 -1.129219 0.000000 0.000000
    18 -0.001697 -0.749371 0.000000 0.160533 0.000000 0.000000
    19 0.354567 0.016267 0.318133 0.342077 -0.443527 -1.083976
    20 1.887165 0.012878 0.000000 -0.304774 -0.020446 -0.466347
    21 1.001874 -0.000270 -0.000001 0.000000 0.000000 -0.724309
    22 -1.123359 -2.195093 -0.278957 -0.933751 0.000000 -0.087266
    23 0.010772 -0.963791 0.000001 -1.034980 0.000000 0.000000
    24 -0.010412 -0.631916 0.000001 -1.213004 0.000000 0.000000
    25 -1.175330 -7.521475 -9.139246 -0.542858 0.255024 0.648683
    26 0.089929 -8.543163 -0.000001 0.411086 -0.098249 0.195895
    27 0.000000 -0.359713 0.000000 0.000000 0.000000 0.000000
    28 -0.170479 -2.636147 -0.277655 -1.692969 0.000000 0.000000
    29 0.010599 -1.261177 0.000001 -0.253073 0.000000 0.000000
    30 -0.000001 -0.943233 -0.000001 -0.532326 0.000000 0.000000
    31 -0.827563 -2.508972 -0.277656 -1.396263 0.000000 0.000000
    32 0.000000 -1.292971 0.000001 -0.445059 0.000000 0.000000
    33 0.000000 -0.752466 -0.000001 -0.445059 0.000000 0.000000
    34 0.444213 -2.561960 -0.277655 -1.727307 -0.046226 -0.024599
    35 0.021022 -1.208186 0.000000 -0.427606 0.000000 0.000000
    36 0.010597 -0.741867 -0.000001 -0.453786 0.000000 0.000000
    37 1.047445 -2.222821 -0.277655 -1.508123 -0.078971 -0.038609
    38 0.000000 -0.996223 0.000000 -0.863938 0.000000 0.000000
    39 -0.000001 -0.614690 0.000000 -0.523599 0.000000 0.000000
    40 -0.308254 -0.007813 0.307166 -0.001726 -0.233854 -2.629401
    41 1.978378 0.019543 0.000000 -0.102806 -0.019953 0.358794
    42 0.982428 0.003186 -0.000001 0.000000 0.000000 0.111710
  time 1
    0 7.544049 4.693046 -7.858111 -1.120540 -1.216689 0.840012
    1 0.000000 -8.563282 -0.000002 0.458634 -0.099693 -0.319462
    2 -0.617038 -3.048496 0.595564 -1.247037 1.437608 -1.233844
    3 0.000000 1.876117 0.890361 0.000000 0.000000 0.000000
    4 0.000001 -4.992343 2.835746 0.000000 0.000000 0.000000
    5 -0.460900 -1.864593 1.374185 0.000000 0.000000 0.000000
    6 0.000001 -2.440687 1.118145 0.321511 0.000000 0.000000
    7 0.000001 -3.720883 0.606066 0.000000 0.000000 0.000000
    8 0.000001 -4.928777 1.621725 0.000000 0.000000 0.000000
    9 -0.003480 -0.404829 0.000000 0.000000 0.000000 0.000000
    10 -0.519309 -2.501155 -0.278957 -1.003564 0.000000 -0.122173
    11 -0.010598 -1.208185 0.000000 -1.279325 0.000000 0.000000
    12 0.000000 -0.763066 0.000000 -1.139709 0.000000 0.000000
    13 0.105981 -2.607134 -0.278957 -0.890118 0.000000 -0.148353
    14 0.000000 -1.250579 0.000000 -1.364837 0.000000 0.000000
    15 0.000000 -0.932634 0.000000 -1.342160 0.000000 0.000000
    16 0.763064 -2.490557 -0.278957 -0.592305 0.000000 0.130900
    17 -0.012322 -1.280917 -0.000002 -1.139465 0.000000 0.000000
    18 -0.001697 -0.749371 0.000000 0.176278 0.000000 0.000000
    19 0.354567 0.016267 0.318133 0.342077 -0.443527 -1.083976
    20 1.887165 0.012878 0.000000 -0.304774 -0.020446 -0.466347
    21 1.001874 -0.000270 -0.000001 0.000000 0.000000 -0.724309
    22 -1.123359 -2.195093 -0.278957 -0.933751 0.000000 -0.087266
    23 0.010772 -0.963791 0.000001 -1.034980 0.000000 0.000000
    24 -0.010412 -0.631916 0.000001 -1.213004 0.000000 0.000000
    25 -0.976105 -7.091774 -8.986898 -0.600293 0.297488 0.709057
    26 0.089929 -8.543163 -0.000001 0.472580 -0.044005 0.038559
    27 0.000000 -0.359713 0.000000 0.000000 0.000000 0.000000
    28 -0.170479 -2.636147 -0.277655 -1.692969 0.000000 0.000000
    29 0.010599 -1.261177 0.000001 -0.253073 0.000000 0.000000
    30 -0.000001 -0.943233 -0.000001 -0.532326 0.000000 0.000000
    31 -0.827563 -2.508972 -0.277656 -1.396263 0.000000 0.000000
    32 0.000000 -1.292971 0.000001 -0.445059 0.000000 0.000000
    33 0.000000 -0.752466 -0.000001 -0.445059 0.000000 0.000000
    34 0.444213 -2.561960 -0.277655 -1.727307 -0.046226 -0.024599
    35 0.021022 -1.208186 0.000000 -0.427606 0.000000 0.000000
    36 0.010597 -0.741867 -0.000001 -0.453786 0.000000 0.000000
    37 1.047445 -2.222821 -0.277655 -1.508123 -0.078971 -0.038609
    38 0.000000 -0.996223 0.000000 -0.863938 0.000000 0.000000
    39 -0.000001 -0.614690 0.000000 -0.523599 0.000000 0.000000
    40 -0.308254 -0.007813 0.307166 -0.001726 -0.233854 -2.629401
    41 1.978378 0.019543 0.000000 -0.102806 -0.019953 0.358794
    42 0.982428 0.003186 -0.000001 0.000000 0.000000 0.111710
  time 2
    0 7.856559 5.107121 -8.205778 -1.224215 -1.161551 0.901615
    1 0.000000 -8.563282 -0.000002 0.512403 -0.084856 -0.380696
    2 -0.617038 -3.048496 0.595564 -1.247037 1.437608 -1.233844
    3 0.000000 1.876117 0.890361 0.000000 0.000000 0.000000
    4 0.011720 -3.695428 2.843559 0.000000 0.000000 0.000000
    5 -0.460900 -1.864593 1.374185 0.000000 0.000000 0.000000
    6 0.000001 -2.440687 1.118145 0.333783 0.000000 0.000000
    7 0.000001 -3.720883 0.606066 0.000000 0.000000 0.000000
    8 0.000001 -4.928777 1.621725 0.000000 0.000000 0.000000
    9 -0.003480 -0.404829 0.000000 0.000000 0.000000 0.000000
    10 -0.519309 -2.501155 -0.278957 -1.003564 0.000000 -0.122173
    11 -0.010598 -1.208185 0.000000 -1.279325 0.000000 0.000000
    12 0.000000 -0.763066 0.000000 -1.139709 0.000000 0.000000
    13 0.105981 -2.607134 -0.278957 -0.890118 0.000000 -0.148353
    14 0.000000 -1.250579 0.000000 -1.364837 0.000000 0.000000
    15 0.000000 -0.932634 0.000000 -1.342160 0.000000 0.000000
    16 0.763064 -2.490557 -0.278957 -0.596308 0.000000 0.130900
    17 -0.012322 -1.280917 -0.000002 -1.156542 0.000000 0.000000
    18 -0.001697 -0.749371 0.000000 0.202438 0.000000 0.000000
    19 0.354567 0.016267 0.318133 0.342077 -0.443527 -1.083976
    20 1.887165 0.012878 0.000000 -0.304774 -0.020446 -0.466347
    21 1.001874 -0.000270 -0.000001 0.000000 0.000000 -0.724309
    22 -1.123359 -2.195093 -0.278957 -0.933751 0.000000 -0.087266
    23 0.010772 -0.963791 0.000001 -1.034980 0.000000 0.000000
    24 -0.010412 -0.631916 0.000001 -1.213004 0.000000 0.000000
    25 -0.776880 -6.849579 -9.014243 -0.635726 0.324712 0.744383
    26 0.089929 -8.543163 -0.000001 0.503582 -0.010368 -0.054576
    27 0.000000 -0.359713 0.000000 0.000000 0.000000 0.000000
    28 -0.170479 -2.636147 -0.277655 -1.692969 0.000000 0.000000
    29 0.010599 -1.261177 0.000001 -0.253073 0.000000 0.000000
    30 -0.000001 -0.943233 -0.000001 -0.532326 0.000000 0.000000
    31 -0.827563 -2.508972 -0.277656 -1.396263 0.000000 0.000000
    32 0.000000 -1.292971 0.000001 -0.445059 0.000000 0.000000
    33 0.000000 -0.752466 -0.000001 -0.445059 0.000000 0.000000
    34 0.444213 -2.561960 -0.277655 -1.727307 -0.046226 -0.024599
    35 0.021022 -1.208186 0.000000 -0.427606 0.000000 0.000000
    36 0.010597 -0.741867 -0.000001 -0.453786 0.000000 0.000000
    37 1.047445 -2.222821 -0.277655 -1.508123 -0.078971 -0.038609
    38 0.000000 -0.996223 0.000000 -0.863938 0.000000 0.000000
    39 -0.000001 -0.614690 0.000000 -0.523599 0.000000 0.000000
    40 -0.308254 -0.007813 0.307166 -0.001726 -0.233854 -2.629401
    41 1.978378 0.019543 0.000000 -0.102806 -0.019953 0.358794
    42 0.982428 0.003186 -0.000001 0.000000 0.000000 0.111710
  time 3
    0 8.008907 5.013368 -8.119838 -1.210166 -1.191655 0.875266
    1 0.000000 -8.563282 -0.000002 0.516513 -0.095282 -0.350533
    2 -0.617038 -3.048496 0.595564 -1.247037 1.437608 -1.233844
    3 0.000000 1.876117 0.890361 0.000000 0.000000 0.000000
    4 0.031252 -2.398514 2.851372 0.000000 0.000000 0.000000
    5 -0.460900 -1.864593 1.374185 0.000000 0.000000 0.000000
    6 0.000001 -2.440687 1.118145 0.336240 0.000000 0.000000
    7 0.000001 -3.720883 0.606066 0.000000 0.000000 0.000000
    8 0.000001 -4.928777 1.621725 0.000000 0.000000 0.000000
    9 -0.003480 -0.404829 0.000000 0.000000 0.000000 0.000000
    10 -0.519309 -2.501155 -0.278957 -1.003564 0.000000 -0.122173
    11 -0.010598 -1.208185 0.000000 -1.279325 0.000000 0.000000
    12 0.000000 -0.763066 0.000000 -1.139709 0.000000 0.000000
    13 0.105981 -2.607134 -0.278957 -0.890118 0.000000 -0.148353
    14 0.000000 -1.250579 0.000000 -1.364837 0.000000 0.000000
    15 0.000000 -0.932634 0.000000 -1.342160 0.000000 0.000000
    16 0.763064 -2.490557 -0.278957 -0.597099 0.000000 0.130900
    17 -0.012322 -1.280917 -0.000002 -1.159989 0.000000 0.000000
    18 -0.001697 -0.749371 0.000000 0.207694 0.000000 0.000000
    19 0.354567 0.016267 0.318133 0.342077 -0.443527 -1.083976
    20 1.887165 0.012878 0.000000 -0.304774 -0.020446 -0.466347
    21 1.001874 -0.000270 -0.000001 0.000000 0.000000 -0.724309
    22 -1.123359 -2.195093 -0.278957 -0.933751 0.000000 -0.087266
    23 0.010772 -0.963791 0.000001 -1.034980 0.000000 0.000000
    24 -0.010412 -0.631916 0.000001 -1.213004 0.000000 0.000000
    25 -0.851101 -7.048804 -9.174404 -0.633026 0.318385 0.735932
    26 0.089929 -8.543163 -0.000001 0.490654 -0.029591 -0.034827
    27 0.000000 -0.359713 0.000000 0.000000 0.000000 0.000000
    28 -0.170479 -2.636147 -0.277655 -1.692969 0.000000 0.000000
    29 0.010599 -1.261177 0.000001 -0.253073 0.000000 0.000000
    30 -0.000001 -0.943233 -0.000001 -0.532326 0.000000 0.000000
    31 -0.827563 -2.508972 -0.277656 -1.396263 0.000000 0.000000
    32 0.000000 -1.292971 0.000001 -0.445059 0.000000 0.000000
    33 0.000000 -0.752466 -0.000001 -0.445059 0.000000 0.000000
    34 0.444213 -2.561960 -0.277655 -1.727307 -0.046226 -0.024599
    35 0.021022 -1.208186 0.000000 -0.427606 0.000000 0.000000
    36 0.010597 -0.741867 -0.000001 -0.453786 0.000000 0.000000
    37 1.047445 -2.222821 -0.277655 -1.508123 -0.078971 -0.038609
    38 0.000000 -0.996223 0.000000 -0.863938 0.000000 0.000000
    39 -0.000001 -0.614690 0.000000 -0.523599 0.000000 0.000000
    40 -0.308254 -0.007813 0.307166 -0.001726 -0.233854 -2.629401
    41 1.978378 0.019543 0.000000 -0.102806 -0.019953 0.358794
    42 0.982428 0.003186 -0.000001 0.000000 0.000000 0.111710
  time 4
    0 8.040158 4.548511 -7.729201 -1.106686 -1.261652 0.786291
    1 0.000000 -8.563282 -0.000002 0.481763 -0.116855 -0.273009
    2 -0.617038 -3.048496 0.595564 -1.247037 1.437608 -1.233844
    3 0.000000 1.876117 0.890361 0.000000 0.000000 0.000000
    4 0.011720 -3.695428 2.843559 0.000000 0.000000 0.000000
    5 -0.460900 -1.864593 1.374185 0.000000 0.000000 0.000000
    6 0.000001 -2.440687 1.118145 0.314140 0.000000 0.000000
    7 0.000001 -3.720883 0.606066 0.000000 0.000000 0.000000
    8 0.000001 -4.928777 1.621725 0.000000 0.000000 0.000000
    9 -0.003480 -0.404829 0.000000 0.000000 0.000000 0.000000
    10 -0.519309 -2.501155 -0.278957 -1.003564 0.000000 -0.122173
    11 -0.010598 -1.208185 0.000000 -1.279325 0.000000 0.000000
    12 0.000000 -0.763066 0.000000 -1.139709 0.000000 0.000000
    13 0.105981 -2.607134 -0.278957 -0.890118 0.000000 -0.148353
    14 0.000000 -1.250579 0.000000 -1.364837 0.000000 0.000000
    15 0.000000 -0.932634 0.000000 -1.342160 0.000000 0.000000
    16 0.763064 -2.490557 -0.278957 -0.589908 0.000000 0.130900
    17 -0.012322 -1.280917 -0.000002 -1.129219 0.000000 0.000000
    18 -0.001697 -0.749371 0.000000 0.160533 0.000000 0.000000
    19 0.354567 0.016267 0.318133 0.342077 -0.443527 -1.083976
    20 1.887165 0.012878 0.000000 -0.304774 -0.020446 -0.466347
    21 1.001874 -0.000270 -0.000001 0.000000 0.000000 -0.724309
    22 -1.123359 -2.195093 -0.278957 -0.933751 0.000000 -0.087266
    23 0.010772 -0.963791 0.000001 -1.034980 0.000000 0.000000
    24 -0.010412 -0.631916 0.000001 -1.213004 0.000000 0.000000
    25 -1.007356 -7.365220 -9.307220 -0.619595 0.302952 0.715529
    26 0.089929 -8.543163 -0.000001 0.463817 -0.063488 0.016563
    27 0.000000 -0.359713 0.000000 0.000000 0.000000 0.000000
    28 -0.170479 -2.636147 -0.277655 -1.692969 0.000000 0.000000
    29 0.010599 -1.261177 0.000001 -0.253073 0.000000 0.000000
    30 -0.000001 -0.943233 -0.000001 -0.532326 0.000000 0.000000
    31 -0.827563 -2.508972 -0.277656 -1.396263 0.000000 0.000000
    32 0.000000 -1.292971 0.000001 -0.445059 0.000000 0.000000
    33 0.000000 -0.752466 -0.000001 -0.445059 0.000000 0.000000
    34 0.444213 -2.561960 -0.277655 -1.727307 -0.046226 -0.024599
    35 0.021022 -1.208186 0.000000 -0.427606 0.000000 0.000000
    36 0.010597 -0.741867 -0.000001 -0.453786 0.000000 0.000000
    37 1.047445 -2.222821 -0.277655 -1.508123 -0.078971 -0.038609
    38 0.000000 -0.996223 0.000000 -0.863938 0.000000 0.000000
    39 -0.000001 -0.614690 0.000000 -0.523599 0.000000 0.000000
    40 -0.308254 -0.007813 0.307166 -0.001726 -0.233854 -2.629401
    41 1.978378 0.019543 0.000000 -0.102806 -0.019953 0.358794
    42 0.982428 0.003186 -0.000001 0.000000 0.000000 0.111710
  time 5
    0 8.055783 4.157874 -7.393253 -0.998587 -1.309132 0.691186
    1 0.000000 -8.563282 -0.000002 0.452375 -0.129978 -0.215115
    2 -0.617038 -3.048496 0.595564 -1.247037 1.437608 -1.233844
    3 0.000000 1.876117 0.890361 0.000000 0.000000 0.000000
    4 0.000001 -4.992343 2.835746 0.000000 0.000000 0.000000
    5 -0.460900 -1.864593 1.374185 0.000000 0.000000 0.000000
    6 0.000001 -2.440687 1.118145 0.257705 0.000000 0.000000
    7 0.000001 -3.720883 0.606066 0.000000 0.000000 0.000000
    8 0.000001 -4.928777 1.621725 0.000000 0.000000 0.000000
    9 -0.003480 -0.404829 0.000000 0.000000 0.000000 0.000000
    10 -0.519309 -2.501155 -0.278957 -1.003564 0.000000 -0.122173
    11 -0.010598 -1.208185 0.000000 -1.279325 0.000000 0.000000
    12 0.000000 -0.763066 0.000000 -1.139709 0.000000 0.000000
    13 0.105981 -2.607134 -0.278957 -0.890118 0.000000 -0.148353
    14 0.000000 -1.250579 0.000000 -1.364837 0.000000 0.000000
    15 0.000000 -0.932634 0.000000 -1.342160 0.000000 0.000000
    16 0.763064 -2.490557 -0.278957 -0.573417 0.000000 0.130900
    17 -0.012322 -1.280917 -0.000002 -1.058758 0.000000 0.000000
    18 -0.001697 -0.749371 0.000000 0.052666 0.000000 0.000000
    19 0.354567 0.016267 0.318133 0.342077 -0.443527 -1.083976
    20 1.887165 0.012878 0.000000 -0.304774 -0.020446 -0.466347
    21 1.001874 -0.000270 -0.000001 0.000000 0.000000 -0.724309
    22 -1.123359 -2.195093 -0.278957 -0.933751 0.000000 -0.087266
    23 0.010772 -0.963791 0.000001 -1.034980 0.000000 0.000000
    24 -0.010412 -0.631916 0.000001 -1.213004 0.000000 0.000000
    25 -1.054232 -7.501943 -9.232999 -0.601170 0.283877 0.689567
    26 0.089929 -8.543163 -0.000001 0.429711 -0.101035 0.083253
    27 0.000000 -0.359713 0.000000 0.000000 0.000000 0.000000
    28 -0.170479 -2.636147 -0.277655 -1.692969 0.000000 0.000000
    29 0.010599 -1.261177 0.000001 -0.253073 0.000000 0.000000
    30 -0.000001 -0.943233 -0.000001 -0.532326 0.000000 0.000000
    31 -0.827563 -2.508972 -0.277656 -1.396263 0.000000 0.000000
    32 0.000000 -1.292971 0.000001 -0.445059 0.000000 0.000000
    33 0.000000 -0.752466 -0.000001 -0.445059 0.000000 0.000000
    34 0.444213 -2.561960 -0.277655 -1.727307 -0.046226 -0.024599
    35 0.021022 -1.208186 0.000000 -0.427606 0.000000 0.000000
    36 0.010597 -0.741867 -0.000001 -0.453786 0.000000 0.000000
    37 1.047445 -2.222821 -0.277655 -1.508123 -0.078971 -0.038609
    38 0.000000 -0.996223 0.000000 -0.863938 0.000000 0.000000
    39 -0.000001 -0.614690 0.000000 -0.523599 0.000000 0.000000
    40 -0.308254 -0.007813 0.307166 -0.001726 -0.233854 -2.629401
    41 1.978378 0.019543 0.000000 -0.102806 -0.019953 0.358794
    42 0.982428 0.003186 -0.000001 0.000000 0.000000 0.111710
  time 6
    0 8.083128 4.025057 -7.244811 -0.968798 -1.320600 0.662938
    1 0.000000 -8.563282 -0.000002 0.445537 -0.132650 -0.198737
    2 -0.617038 -3.048496 0.595564 -1.247037 1.437608 -1.233844
    3 0.000000 1.876117 0.890361 0.000000 0.000000 0.000000
    4 0.000001 -4.992343 2.835746 0.000000 0.000000 0.000000
    5 -0.460900 -1.864593 1.374185 0.000000 0.000000 0.000000
    6 0.000001 -2.440687 1.118145 0.176713 0.000000 0.000000
    7 0.000001 -3.720883 0.606066 0.000000 0.000000 0.000000
    8 0.000001 -4.928777 1.621725 0.000000 0.000000 0.000000
    9 -0.003480 -0.404829 0.000000 0.000000 0.000000 0.000000
    10 -0.519309 -2.501155 -0.278957 -1.003564 0.000000 -0.122173
    11 -0.010598 -1.208185 0.000000 -1.279325 0.000000 0.000000
    12 0.000000 -0.763066 0.000000 -1.139709 0.000000 0.000000
    13 0.105981 -2.607134 -0.278957 -0.890118 0.000000 -0.148353
    14 0.000000 -1.250579 0.000000 -1.364837 0.000000 0.000000
    15 0.000000 -0.932634 0.000000 -1.342160 0.000000 0.000000
    16 0.763064 -2.490557 -0.278957 -0.551198 0.000000 0.130900
    17 -0.012322 -1.280917 -0.000002 -0.963830 0.000000 0.000000
    18 -0.001697 -0.749371 0.000000 -0.092803 0.000000 0.000000
    19 0.354567 0.016267 0.318133 0.342077 -0.443527 -1.083976
    20 1.887165 0.012878 0.000000 -0.304774 -0.020446 -0.466347
    21 1.001874 -0.000270 -0.000001 0.000000 0.000000 -0.724309
    22 -1.123359 -2.195093 -0.278957 -0.933751 0.000000 -0.087266
    23 0.010772 -0.963791 0.000001 -1.034980 0.000000 0.000000
    24 -0.010412 -0.631916 0.000001 -1.213004 0.000000 0.000000
    25 -1.073764 -7.486318 -9.092370 -0.583960 0.266239 0.664975
    26 0.089929 -8.543163 -0.000001 0.397216 -0.132855 0.147768
    27 0.000000 -0.359713 0.000000 0.000000 0.000000 0.000000
    28 -0.170479 -2.636147 -0.277655 -1.692969 0.000000 0.000000
    29 0.010599 -1.261177 0.000001 -0.253073 0.000000 0.000000
    30 -0.000001 -0.943233 -0.000001 -0.532326 0.000000 0.000000
    31 -0.827563 -2.508972 -0.277656 -1.396263 0.000000 0.000000
    32 0.000000 -1.292971 0.000001 -0.445059 0.000000 0.000000
    33 0.000000 -0.752466 -0.000001 -0.445059 0.000000 0.000000
    34 0.444213 -2.561960 -0.277655 -1.727307 -0.046226 -0.024599
    35 0.021022 -1.208186 0.000000 -0.427606 0.000000 0.000000
    36 0.010597 -0.741867 -0.000001 -0.453786 0.000000 0.000000
    37 1.047445 -2.222821 -0.277655 -1.508123 -0.078971 -0.038609
    38 0.000000 -0.996223 0.000000 -0.863938 0.000000 0.000000
    39 -0.000001 -0.614690 0.000000 -0.523599 0.000000 0.000000
    40 -0.308254 -0.007813 0.307166 -0.001726 -0.233854 -2.629401
    41 1.978378 0.019543 0.000000 -0.102806 -0.019953 0.358794
    42 0.982428 0.003186 -0.000001 0.000000 0.000000 0.111710
  time 7
    0 8.087034 4.017244 -7.186216 -0.969904 -1.320950 0.663303
    1 0.000000 -8.563282 -0.000002 0.445126 -0.132087 -0.196613
    2 -0.617038 -3.048496 0.595564 -1.247037 1.437608 -1.233844
    3 0.000000 1.876117 0.890361 0.000000 0.000000 0.000000
    4 0.000001 -4.992343 2.835746 0.000000 0.000000 0.000000
    5 -0.460900 -1.864593 1.374185 0.000000 0.000000 0.000000
    6 0.000001 -2.440687 1.118145 0.085894 0.000000 0.000000
    7 0.000001 -3.720883 0.606066 0.000000 0.000000 0.000000
    8 0.000001 -4.928777 1.621725 0.000000 0.000000 0.000000
    9 -0.003480 -0.404829 0.000000 0.000000 0.000000 0.000000
    10 -0.519309 -2.501155 -0.278957 -1.003564 0.000000 -0.122173
    11 -0.010598 -1.208185 0.000000 -1.279325 0.000000 0.000000
    12 0.000000 -0.763066 0.000000 -1.139709 0.000000 0.000000
    13 0.105981 -2.607134 -0.278957 -0.890118 0.000000 -0.148353
    14 0.000000 -1.250579 0.000000 -1.364837 0.000000 0.000000
    15 0.000000 -0.932634 0.000000 -1.342160 0.000000 0.000000
    16 0.763064 -2.490557 -0.278957 -0.525706 0.000000 0.130900
    17 -0.012322 -1.280917 -0.000002 -0.854891 0.000000 0.000000
    18 -0.001697 -0.749371 0.000000 -0.259689 0.000000 0.000000
    19 0.354567 0.016267 0.318133 0.342077 -0.443527 -1.083976
    20 1.887165 0.012878 0.000000 -0.304774 -0.020446 -0.466347
    21 1.001874 -0.000270 -0.000001 0.000000 0.000000 -0.724309
    22 -1.123359 -2.195093 -0.278957 -0.933751 0.000000 -0.087266
    23 0.010772 -0.963791 0.000001 -1.034980 0.000000 0.000000
    24 -0.010412 -0.631916 0.000001 -1.213004 0.000000 0.000000
    25 -1.069858 -7.244123 -8.990804 -0.574174 0.255024 0.648683
    26 0.089929 -8.543163 -0.000001 0.377058 -0.151819 0.191278
    27 0.000000 -0.359713 0.000000 0.000000 0.000000 0.000000
    28 -0.170479 -2.636147 -0.277655 -1.692969 0.000000 0.000000
    29 0.010599 -1.261177 0.000001 -0.253073 0.000000 0.000000
    30 -0.000001 -0.943233 -0.000001 -0.532326 0.000000 0.000000
    31 -0.827563 -2.508972 -0.277656 -1.396263 0.000000 0.000000
    32 0.000000 -1.292971 0.000001 -0.445059 0.000000 0.000000
    33 0.000000 -0.752466 -0.000001 -0.445059 0.000000 0.000000
    34 0.444213 -2.561960 -0.277655 -1.727307 -0.046226 -0.024599
    35 0.021022 -1.208186 0.000000 -0.427606 0.000000 0.000000
    36 0.010597 -0.741867 -0.000001 -0.453786 0.000000 0.000000
    37 1.047445 -2.222821 -0.277655 -1.508123 -0.078971 -0.038609
    38 0.000000 -0.996223 0.000000 -0.863938 0.000000 0.000000
    39 -0.000001 -0.614690 0.000000 -0.523599 0.000000 0.000000
    40 -0.308254 -0.007813 0.307166 -0.001726 -0.233854 -2.629401
    41 1.978378 0.019543 0.000000 -0.102806 -0.019953 0.358794
    42 0.982428 0.003186 -0.000001 0.000000 0.000000 0.111710
  time 8
    0 8.075315 4.099278 -7.194028 -0.991953 -1.313642 0.683376
    1 0.000000 -8.563282 -0.000002 0.448788 -0.129331 -0.204289
    2 -0.617038 -3.048496 0.595564 -1.247037 1.437608 -1.233844
    3 0.000000 1.876117 0.890361 0.000000 0.000000 0.000000
    4 0.000001 -4.992343 2.835746 0.000000 0.000000 0.000000
    5 -0.460900 -1.864593 1.374185 0.000000 0.000000 0.000000
    6 0.000001 -2.440687 1.118145 0.000000 0.000000 0.000000
    7 0.000001 -3.720883 0.606066 0.000000 0.000000 0.000000
    8 0.000001 -4.928777 1.621725 0.000000 0.000000 0.000000
    9 -0.003480 -0.404829 0.000000 0.000000 0.000000 0.000000
    10 -0.519309 -2.501155 -0.278957 -1.003564 0.000000 -0.122173
    11 -0.010598 -1.208185 0.000000 -1.279325 0.000000 0.000000
    12 0.000000 -0.763066 0.000000 -1.139709 0.000000 0.000000
    13 0.105981 -2.607134 -0.278957 -0.890118 0.000000 -0.148353
    14 0.000000 -1.250579 0.000000 -1.364837 0.000000 0.000000
    15 0.000000 -0.932634 0.000000 -1.342160 0.000000 0.000000
    16 0.763064 -2.490557 -0.278957 -0.499388 0.000000 0.130900
    17 -0.012322 -1.280917 -0.000002 -0.742472 0.000000 0.000000
    18 -0.001697 -0.749371 0.000000 -0.431929 0.000000 0.000000
    19 0.354567 0.016267 0.318133 0.342077 -0.443527 -1.083976
    20 1.887165 0.012878 0.000000 -0.304774 -0.020446 -0.466347
    21 1.001874 -0.000270 -0.000001 0.000000 0.000000 -0.724309
    22 -1.123359 -2.195093 -0.278957 -0.933751 0.000000 -0.087266
    23 0.010772 -0.963791 0.000001 -1.034980 0.000000 0.000000
    24 -0.010412 -0.631916 0.000001 -1.213004 0.000000 0.000000
    25 -1.058139 -7.103493 -8.936115 -0.574646 0.250806 0.642440
    26 0.089929 -8.543163 -0.000001 0.375251 -0.156940 0.209045
    27 0.000000 -0.359713 0.000000 0.000000 0.000000 0.000000
    28 -0.170479 -2.636147 -0.277655 -1.692969 0.000000 0.000000
    29 0.010599 -1.261177 0.000001 -0.253073 0.000000 0.000000
    30 -0.000001 -0.943233 -0.000001 -0.532326 0.000000 0.000000
    31 -0.827563 -2.508972 -0.277656 -1.396263 0.000000 0.000000
    32 0.000000 -1.292971 0.000001 -0.445059 0.000000 0.000000
    33 0.000000 -0.752466 -0.000001 -0.445059 0.000000 0.000000
    34 0.444213 -2.561960 -0.277655 -1.727307 -0.046226 -0.024599
    35 0.021022 -1.208186 0.000000 -0.427606 0.000000 0.000000
    36 0.010597 -0.741867 -0.000001 -0.453786 0.000000 0.000000
    37 1.047445 -2.222821 -0.277655 -1.508123 -0.078971 -0.038609
    38 0.000000 -0.996223 0.000000 -0.863938 0.000000 0.000000
    39 -0.000001 -0.614690 0.000000 -0.523599 0.000000 0.000000
    40 -0.308254 -0.007813 0.307166 -0.001726 -0.233854 -2.629401
    41 1.978378 0.019543 0.000000 -0.102806 -0.019953 0.358794
    42 0.982428 0.003186 -0.000001 0.000000 0.000000 0.111710
  time 9
    0 8.044064 4.247720 -7.248718 -1.021937 -1.302035 0.711550
    1 0.000000 -8.563282 -0.000002 0.454075 -0.125304 -0.217253
    2 -0.617038 -3.048496 0.595564 -1.247037 1.437608 -1.233844
    3 0.000000 1.876117 0.890361 0.000000 0.000000 0.000000
    4 0.000001 -4.992343 2.835746 0.000000 0.000000 0.000000
    5 -0.460900 -1.864593 1.374185 0.000000 0.000000 0.000000
    6 0.000001 -2.440687 1.118145 0.000000 0.000000 0.000000
    7 0.000001 -3.720883 0.606066 0.000000 0.000000 0.000000
    8 0.000001 -4.928777 1.621725 0.000000 0.000000 0.000000
    9 -0.003480 -0.404829 0.000000 0.000000 0.000000 0.000000
    10 -0.519309 -2.501155 -0.278957 -1.003564 0.000000 -0.122173
    11 -0.010598 -1.208185 0.000000 -1.279325 0.000000 0.000000
    12 0.000000 -0.763066 0.000000 -1.139709 0.000000 0.000000
    13 0.105981 -2.607134 -0.278957 -0.890118 0.000000 -0.148353
    14 0.000000 -1.250579 0.000000 -1.364837 0.000000 0.000000
    15 0.000000 -0.932634 0.000000 -1.342160 0.000000 0.000000
    16 0.763064 -2.490557 -0.278957 -0.474724 0.000000 0.130900
    17 -0.012322 -1.280917 -0.000002 -0.637027 0.000000 0.000000
    18 -0.001697 -0.749371 0.000000 -0.593412 0.000000 0.000000
    19 0.354567 0.016267 0.318133 0.342077 -0.443527 -1.083976
    20 1.887165 0.012878 0.000000 -0.304774 -0.020446 -0.466347
    21 1.001874 -0.000270 -0.000001 0.000000 0.000000 -0.724309
    22 -1.123359 -2.195093 -0.278957 -0.933751 0.000000 -0.087266
    23 0.010772 -0.963791 0.000001 -1.034980 0.000000 0.000000
    24 -0.010412 -0.631916 0.000001 -1.213004 0.000000 0.000000
    25 -1.046420 -7.001928 -8.924396 -0.581328 0.250231 0.641678
    26 0.089929 -8.543163 -0.000001 0.385349 -0.153860 0.213154
    27 0.000000 -0.359713 0.000000 0.000000 0.000000 0.000000
    28 -0.170479 -2.636147 -0.277655 -1.692969 0.000000 0.000000
    29 0.010599 -1.261177 0.000001 -0.253073 0.000000 0.000000
    30 -0.000001 -0.943233 -0.000001 -0.532326 0.000000 0.000000
    31 -0.827563 -2.508972 -0.277656 -1.396263 0.000000 0.000000
    32 0.000000 -1.292971 0.000001 -0.445059 0.000000 0.000000
    33 0.000000 -0.752466 -0.000001 -0.445059 0.000000 0.000000
    34 0.444213 -2.561960 -0.277655 -1.727307 -0.046226 -0.024599
    35 0.021022 -1.208186 0.000000 -0.427606 0.000000 0.000000
    36 0.010597 -0.741867 -0.000001 -0.453786 0.000000 0.000000
    37 1.047445 -2.222821 -0.277655 -1.508123 -0.078971 -0.038609
    38 0.000000 -0.996223 0.000000 -0.863938 0.000000 0.000000
    39 -0.000001 -0.614690 0.000000 -0.523599 0.000000 0.000000
    40 -0.308254 -0.007813 0.307166 -0.001726 -0.233854 -2.629401
    41 1.978378 0.019543 0.000000 -0.102806 -0.019953 0.358794
    42 0.982428 0.003186 -0.000001 0.000000 0.000000 0.111710
  time 10
    0 8.008907 4.427413 -7.330751 -1.049059 -1.289692 0.737826
    1 0.000000 -8.563282 -0.000002 0.458559 -0.121037 -0.231082
    2 -0.617038 -3.048496 0.595564 -1.247037 1.437608 -1.233844
    3 0.000000 1.876117 0.890361 0.000000 0.000000 0.000000
    4 0.000001 -4.992343 2.835746 0.000000 0.000000 0.000000
    5 -0.460900 -1.864593 1.374185 0.000000 0.000000 0.000000
    6 0.000001 -2.440687 1.118145 0.000000 0.000000 0.000000
    7 0.000001 -3.720883 0.606066 0.000000 0.000000 0.000000
    8 0.000001 -4.928777 1.621725 0.000000 0.000000 0.000000
    9 -0.003480 -0.404829 0.000000 0.000000 0.000000 0.000000
    10 -0.519309 -2.501155 -0.278957 -1.003564 0.000000 -0.122173
    11 -0.010598 -1.208185 0.000000 -1.279325 0.000000 0.000000
    12 0.000000 -0.763066 0.000000 -1.139709 0.000000 0.000000
    13 0.105981 -2.607134 -0.278957 -0.890118 0.000000 -0.148353
    14 0.000000 -1.250579 0.000000 -1.364837 0.000000 0.000000
    15 0.000000 -0.932634 0.000000 -1.342160 0.000000 0.000000
    16 0.763064 -2.490557 -0.278957 -0.474724 0.000000 0.130900
    17 -0.012322 -1.280917 -0.000002 -0.637027 0.000000 0.000000
    18 -0.001697 -0.749371 0.000000 -0.593412 0.000000 0.000000
    19 0.354567 0.016267 0.318133 0.342077 -0.443527 -1.083976
    20 1.887165 0.012878 0.000000 -0.304774 -0.020446 -0.466347
    21 1.001874 -0.000270 -0.000001 0.000000 0.000000 -0.724309
    22 -1.123359 -2.195093 -0.278957 -0.933751 0.000000 -0.087266
    23 0.010772 -0.963791 0.000001 -1.034980 0.000000 0.000000
    24 -0.010412 -0.631916 0.000001 -1.213004 0.000000 0.000000
    25 -1.042513 -6.857392 -8.955647 -0.590236 0.251861 0.644039
    26 0.089929 -8.543163 -0.000001 0.401027 -0.146282 0.209286
    27 0.000000 -0.359713 0.000000 0.000000 0.000000 0.000000
    28 -0.170479 -2.636147 -0.277655 -1.692969 0.000000 0.000000
    29 0.010599 -1.261177 0.000001 -0.253073 0.000000 0.000000
    30 -0.000001 -0.943233 -0.000001 -0.532326 0.000000 0.000000
    31 -0.827563 -2.508972 -0.277656 -1.396263 0.000000 0.000000
    32 0.000000 -1.292971 0.000001 -0.445059 0.000000 0.000000
    33 0.000000 -0.752466 -0.000001 -0.445059 0.000000 0.000000
    34 0.444213 -2.561960 -0.277655 -1.727307 -0.046226 -0.024599
    35 0.021022 -1.208186 0.000000 -0.427606 0.000000 0.000000
    36 0.010597 -0.741867 -0.000001 -0.453786 0.000000 0.000000
    37 1.047445 -2.222821 -0.277655 -1.508123 -0.078971 -0.038609
    38 0.000000 -0.996223 0.000000 -0.863938 0.000000 0.000000
    39 -0.000001 -0.614690 0.000000 -0.523599 0.000000 0.000000
    40 -0.308254 -0.007813 0.307166 -0.001726 -0.233854 -2.629401
    41 1.978378 0.019543 0.000000 -0.102806 -0.019953 0.358794
    42 0.982428 0.003186 -0.000001 0.000000 0.000000 0.111710
  time 11
    0 7.965937 4.603200 -7.408879 -1.065189 -1.280182 0.755417
    1 0.000000 -8.563282 -0.000002 0.459923 -0.117634 -0.241337
    2 -0.617038 -3.048496 0.595564 -1.247037 1.437608 -1.233844
    3 0.000000 1.876117 0.890361 0.000000 0.000000 0.000000
    4 0.000001 -4.992343 2.835746 0.000000 0.000000 0.000000
    5 -0.460900 -1.864593 1.374185 0.000000 0.000000 0.000000
    6 0.000001 -2.440687 1.118145 0.000000 0.000000 0.000000
    7 0.000001 -3.720883 0.606066 0.000000 0.000000 0.000000
    8 0.000001 -4.928777 1.621725 0.000000 0.000000 0.000000
    9 -0.003480 -0.404829 0.000000 0.000000 0.000000 0.000000
    10 -0.519309 -2.501155 -0.278957 -1.003564 0.000000 -0.122173
    11 -0.010598 -1.208185 0.000000 -1.279325 0.000000 0.000000
    12 0.000000 -0.763066 0.000000 -1.139709 0.000000 0.000000
    13 0.105981 -2.607134 -0.278957 -0.890118 0.000000 -0.148353
    14 0.000000 -1.250579 0.000000 -1.364837 0.000000 0.000000
    15 0.000000 -0.932634 0.000000 -1.342160 0.000000 0.000000
    16 0.763064 -2.490557 -0.278957 -0.474724 0.000000 0.130900
    17 -0.012322 -1.280917 -0.000002 -0.637027 0.000000 0.000000
    18 -0.001697 -0.749371 0.000000 -0.593412 0.000000 0.000000
    19 0.354567 0.016267 0.318133 0.342077 -0.443527 -1.083976
    20 1.887165 0.012878 0.000000 -0.304774 -0.020446 -0.466347
    21 1.001874 -0.000270 -0.000001 0.000000 0.000000 -0.724309
    22 -1.123359 -2.195093 -0.278957 -0.933751 0.000000 -0.087266
    23 0.010772 -0.963791 0.000001 -1.034980 0.000000 0.000000
    24 -0.010412 -0.631916 0.000001 -1.213004 0.000000 0.000000
    25 -1.042513 -6.708950 -9.018149 -0.597796 0.253969 0.647160
    26 0.089929 -8.543163 -0.000001 0.415644 -0.137959 0.203050
    27 0.000000 -0.359713 0.000000 0.000000 0.000000 0.000000
    28 -0.170479 -2.636147 -0.277655 -1.692969 0.000000 0.000000
    29 0.010599 -1.261177 0.000001 -0.253073 0.000000 0.000000
    30 -0.000001 -0.943233 -0.000001 -0.532326 0.000000 0.000000
    31 -0.827563 -2.508972 -0.277656 -1.396263 0.000000 0.000000
    32 0.000000 -1.292971 0.000001 -0.445059 0.000000 0.000000
    33 0.000000 -0.752466 -0.000001 -0.445059 0.000000 0.000000
    34 0.444213 -2.561960 -0.277655 -1.727307 -0.046226 -0.024599
    35 0.021022 -1.208186 0.000000 -0.427606 0.000000 0.000000
    36 0.010597 -0.741867 -0.000001 -0.453786 0.000000 0.000000
    37 1.047445 -2.222821 -0.277655 -1.508123 -0.078971 -0.038609
    38 0.000000 -0.996223 0.000000 -0.863938 0.000000 0.000000
    39 -0.000001 -0.614690 0.000000 -0.523599 0.000000 0.000000
    40 -0.308254 -0.007813 0.307166 -0.001726 -0.233854 -2.629401
    41 1.978378 0.019543 0.000000 -0.102806 -0.019953 0.358794
    42 0.982428 0.003186 -0.000001 0.000000 0.000000 0.111710
  time 12
    0 7.926873 4.751642 -7.475287 -1.063563 -1.277455 0.758701
    1 0.000000 -8.563282 -0.000002 0.455869 -0.116220 -0.243564
    2 -0.617038 -3.048496 0.595564 -1.247037 1.437608 -1.233844
    3 0.000000 1.876117 0.890361 0.000000 0.000000 0.000000
    4 0.000001 -4.992343 2.835746 0.000000 0.000000 0.000000
    5 -0.460900 -1.864593 1.374185 0.000000 0.000000 0.000000
    6 0.000001 -2.440687 1.118145 0.000000 0.000000 0.000000
    7 0.000001 -3.720883 0.606066 0.000000 0.000000 0.000000
    8 0.000001 -4.928777 1.621725 0.000000 0.000000 0.000000
    9 -0.003480 -0.404829 0.000000 0.000000 0.000000 0.000000
    10 -0.519309 -2.501155 -0.278957 -1.003564 0.000000 -0.122173
    11 -0.010598 -1.208185 0.000000 -1.279325 0.000000 0.000000
    12 0.000000 -0.763066 0.000000 -1.139709 0.000000 0.000000
    13 0.105981 -2.607134 -0.278957 -0.890118 0.000000 -0.148353
    14 0.000000 -1.250579 0.000000 -1.364837 0.000000 0.000000
    15 0.000000 -0.932634 0.000000 -1.342160 0.000000 0.000000
    16 0.763064 -2.490557 -0.278957 -0.474724 0.000000 0.130900
    17 -0.012322 -1.280917 -0.000002 -0.637027 0.000000 0.000000
    18 -0.001697 -0.749371 0.000000 -0.593412 0.000000 0.000000
    19 0.354567 0.016267 0.318133 0.342077 -0.443527 -1.083976
    20 1.887165 0.012878 0.000000 -0.304774 -0.020446 -0.466347
    21 1.001874 -0.000270 -0.000001 0.000000 0.000000 -0.724309
    22 -1.123359 -2.195093 -0.278957 -0.933751 0.000000 -0.087266
    23 0.010772 -0.963791 0.000001 -1.034980 0.000000 0.000000
    24 -0.010412 -0.631916 0.000001 -1.213004 0.000000 0.000000
    25 -1.038607 -6.591759 -9.072838 -0.600293 0.255024 0.648683
    26 0.089929 -8.543163 -0.000001 0.422952 -0.132716 0.199956
    27 0.000000 -0.359713 0.000000 0.000000 0.000000 0.000000
    28 -0.170479 -2.636147 -0.277655 -1.692969 0.000000 0.000000
    29 0.010599 -1.261177 0.000001 -0.253073 0.000000 0.000000
    30 -0.000001 -0.943233 -0.000001 -0.532326 0.000000 0.000000
    31 -0.827563 -2.508972 -0.277656 -1.396263 0.000000 0.000000
    32 0.000000 -1.292971 0.000001 -0.445059 0.000000 0.000000
    33 0.000000 -0.752466 -0.000001 -0.445059 0.000000 0.000000
    34 0.444213 -2.561960 -0.277655 -1.727307 -0.046226 -0.024599
    35 0.021022 -1.208186 0.000000 -0.427606 0.000000 0.000000
    36 0.010597 -0.741867 -0.000001 -0.453786 0.000000 0.000000
    37 1.047445 -2.222821 -0.277655 -1.508123 -0.078971 -0.038609
    38 0.000000 -0.996223 0.000000 -0.863938 0.000000 0.000000
    39 -0.000001 -0.614690 0.000000 -0.523599 0.000000 0.000000
    40 -0.308254 -0.007813 0.307166 -0.001726 -0.233854 -2.629401
    41 1.978378 0.019543 0.000000 -0.102806 -0.019953 0.358794
    42 0.982428 0.003186 -0.000001 0.000000 0.000000 0.111710
  time 13
    0 7.895622 4.833676 -7.506538 -1.051141 -1.279448 0.752862
    1 0.000000 -8.563282 -0.000002 0.448751 -0.116196 -0.240414
    2 -0.617038 -3.048496 0.595564 -1.247037 1.437608 -1.233844
    3 0.000000 1.876117 0.890361 0.000000 0.000000 0.000000
    4 0.000001 -4.992343 2.835746 0.000000 0.000000 0.000000
    5 -0.460900 -1.864593 1.374185 0.000000 0.000000 0.000000
    6 0.000001 -2.440687 1.118145 0.000000 0.000000 0.000000
    7 0.000001 -3.720883 0.606066 0.000000 0.000000 0.000000
    8 0.000001 -4.928777 1.621725 0.000000 0.000000 0.000000
    9 -0.003480 -0.404829 0.000000 0.000000 0.000000 0.000000
    10 -0.519309 -2.501155 -0.278957 -1.003564 0.000000 -0.122173
    11 -0.010598 -1.208185 0.000000 -1.279325 0.000000 0.000000
    12 0.000000 -0.763066 0.000000 -1.139709 0.000000 0.000000
    13 0.105981 -2.607134 -0.278957 -0.890118 0.000000 -0.148353
    14 0.000000 -1.250579 0.000000 -1.364837 0.000000 0.000000
    15 0.000000 -0.932634 0.000000 -1.342160 0.000000 0.000000
    16 0.763064 -2.490557 -0.278957 -0.474724 0.000000 0.130900
    17 -0.012322 -1.280917 -0.000002 -0.637027 0.000000 0.000000
    18 -0.001697 -0.749371 0.000000 -0.593412 0.000000 0.000000
    19 0.354567 0.016267 0.318133 0.342077 -0.443527 -1.083976
    20 1.887165 0.012878 0.000000 -0.304774 -0.020446 -0.466347
    21 1.001874 -0.000270 -0.000001 0.000000 0.000000 -0.724309
    22 -1.123359 -2.195093 -0.278957 -0.933751 0.000000 -0.087266
    23 0.010772 -0.963791 0.000001 -1.034980 0.000000 0.000000
    24 -0.010412 -0.631916 0.000001 -1.213004 0.000000 0.000000
    25 -1.019075 -6.525351 -9.115808 -0.598740 0.255024 0.648683
    26 0.089929 -8.543163 -0.000001 0.424171 -0.130450 0.200125
    27 0.000000 -0.359713 0.000000 0.000000 0.000000 0.000000
    28 -0.170479 -2.636147 -0.277655 -1.692969 0.000000 0.000000
    29 0.010599 -1.261177 0.000001 -0.253073 0.000000 0.000000
    30 -0.000001 -0.943233 -0.000001 -0.532326 0.000000 0.000000
    31 -0.827563 -2.508972 -0.277656 -1.396263 0.000000 0.000000
    32 0.000000 -1.292971 0.000001 -0.445059 0.000000 0.000000
    33 0.000000 -0.752466 -0.000001 -0.445059 0.000000 0.000000
    34 0.444213 -2.561960 -0.277655 -1.727307 -0.046226 -0.024599
    35 0.021022 -1.208186 0.000000 -0.427606 0.000000 0.000000
    36 0.010597 -0.741867 -0.000001 -0.453786 0.000000 0.000000
    37 1.047445 -2.222821 -0.277655 -1.508123 -0.078971 -0.038609
    38 0.000000 -0.996223 0.000000 -0.863938 0.000000 0.000000
    39 -0.000001 -0.614690 0.000000 -0.523599 0.000000 0.000000
    40 -0.308254 -0.007813 0.307166 -0.001726 -0.233854 -2.629401
    41 1.978378 0.019543 0.000000 -0.102806 -0.019953 0.358794
    42 0.982428 0.003186 -0.000001 0.000000 0.000000 0.111710
  time 14
    0 7.864371 4.864926 -7.510444 -1.039368 -1.281441 0.747023
    1 0.000000 -8.563282 -0.000002 0.442399 -0.116268 -0.237382
    2 -0.617038 -3.048496 0.595564 -1.247037 1.437608 -1.233844
    3 0.000000 1.876117 0.890361 0.000000 0.000000 0.000000
    4 0.000001 -4.992343 2.835746 0.000000 0.000000 0.000000
    5 -0.460900 -1.864593 1.374185 0.000000 0.000000 0.000000
    6 0.000001 -2.440687 1.118145 0.000000 0.000000 0.000000
    7 0.000001 -3.720883 0.606066 0.000000 0.000000 0.000000
    8 0.000001 -4.928777 1.621725 0.000000 0.000000 0.000000
    9 -0.003480 -0.404829 0.000000 0.000000 0.000000 0.000000
    10 -0.519309 -2.501155 -0.278957 -1.003564 0.000000 -0.122173
    11 -0.010598 -1.208185 0.000000 -1.279325 0.000000 0.000000
    12 0.000000 -0.763066 0.000000 -1.139709 0.000000 0.000000
    13 0.105981 -2.607134 -0.278957 -0.890118 0.000000 -0.148353
    14 0.000000 -1.250579 0.000000 -1.364837 0.000000 0.000000
    15 0.000000 -0.932634 0.000000 -1.342160 0.000000 0.000000
    16 0.763064 -2.490557 -0.278957 -0.474724 0.000000 0.130900
    17 -0.012322 -1.280917 -0.000002 -0.637027 0.000000 0.000000
    18 -0.001697 -0.749371 0.000000 -0.593412 0.000000 0.000000
    19 0.354567 0.016267 0.318133 0.342077 -0.443527 -1.083976
    20 1.887165 0.012878 0.000000 -0.304774 -0.020446 -0.466347
    21 1.001874 -0.000270 -0.000001 0.000000 0.000000 -0.724309
    22 -1.123359 -2.195093 -0.278957 -0.933751 0.000000 -0.087266
    23 0.010772 -0.963791 0.000001 -1.034980 0.000000 0.000000
    24 -0.010412 -0.631916 0.000001 -1.213004 0.000000 0.000000
    25 -0.991730 -6.490193 -9.150965 -0.596783 0.255024 0.648683
    26 0.089929 -8.543163 -0.000001 0.424956 -0.128252 0.200222
    27 0.000000 -0.359713 0.000000 0.000000 0.000000 0.000000
    28 -0.170479 -2.636147 -0.277655 -1.692969 0.000000 0.000000
    29 0.010599 -1.261177 0.000001 -0.253073 0.000000 0.000000
    30 -0.000001 -0.943233 -0.000001 -0.532326 0.000000 0.000000
    31 -0.827563 -2.508972 -0.277656 -1.396263 0.000000 0.000000
    32 0.000000 -1.292971 0.000001 -0.445059 0.000000 0.000000
    33 0.000000 -0.752466 -0.000001 -0.445059 0.000000 0.000000
    34 0.444213 -2.561960 -0.277655 -1.727307 -0.046226 -0.024599
    35 0.021022 -1.208186 0.000000 -0.427606 0.000000 0.000000
    36 0.010597 -0.741867 -0.000001 -0.453786 0.000000 0.000000
    37 1.047445 -2.222821 -0.277655 -1.508123 -0.078971 -0.038609
    38 0.000000 -0.996223 0.000000 -0.863938 0.000000 0.000000
    39 -0.000001 -0.614690 0.000000 -0.523599 0.000000 0.000000
    40 -0.308254 -0.007813 0.307166 -0.001726 -0.233854 -2.629401
    41 1.978378 0.019543 0.000000 -0.102806 -0.019953 0.358794
    42 0.982428 0.003186 -0.000001 0.000000 0.000000 0.111710
  time 15
    0 7.833120 4.888365 -7.510444 -1.027986 -1.283504 0.741038
    1 0.000000 -8.563282 -0.000002 0.436682 -0.116411 -0.234422
    2 -0.617038 -3.048496 0.595564 -1.247037 1.437608 -1.233844
    3 0.000000 1.876117 0.890361 0.000000 0.000000 0.000000
    4 0.000001 -4.992343 2.835746 0.000000 0.000000 0.000000
    5 -0.460900 -1.864593 1.374185 0.000000 0.000000 0.000000
    6 0.000001 -2.440687 1.118145 0.000000 0.000000 0.000000
    7 0.000001 -3.720883 0.606066 0.000000 0.000000 0.000000
    8 0.000001 -4.928777 1.621725 0.000000 0.000000 0.000000
    9 -0.003480 -0.404829 0.000000 0.000000 0.000000 0.000000
    10 -0.519309 -2.501155 -0.278957 -1.003564 0.000000 -0.122173
    11 -0.010598 -1.208185 0.000000 -1.279325 0.000000 0.000000
    12 0.000000 -0.763066 0.000000 -1.139709 0.000000 0.000000
    13 0.105981 -2.607134 -0.278957 -0.890118 0.000000 -0.148353
    14 0.000000 -1.250579 0.000000 -1.364837 0.000000 0.000000
    15 0.000000 -0.932634 0.000000 -1.342160 0.000000 0.000000
    16 0.763064 -2.490557 -0.278957 -0.474724 0.000000 0.130900
    17 -0.012322 -1.280917 -0.000002 -0.637027 0.000000 0.000000
    18 -0.001697 -0.749371 0.000000 -0.593412 0.000000 0.000000
    19 0.354567 0.016267 0.318133 0.342077 -0.443527 -1.083976
    20 1.887165 0.012878 0.000000 -0.304774 -0.020446 -0.466347
    21 1.001874 -0.000270 -0.000001 0.000000 0.000000 -0.724309
    22 -1.123359 -2.195093 -0.278957 -0.933751 0.000000 -0.087266
    23 0.010772 -0.963791 0.000001 -1.034980 0.000000 0.000000
    24 -0.010412 -0.631916 0.000001 -1.213004 0.000000 0.000000
    25 -0.980011 -6.470662 -9.178310 -0.594556 0.255024 0.648683
    26 0.089929 -8.543163 -0.000001 0.425389 -0.126124 0.200246
    27 0.000000 -0.359713 0.000000 0.000000 0.000000 0.000000
    28 -0.170479 -2.636147 -0.277655 -1.692969 0.000000 0.000000
    29 0.010599 -1.261177 0.000001 -0.253073 0.000000 0.000000
    30 -0.000001 -0.943233 -0.000001 -0.532326 0.000000 0.000000
    31 -0.827563 -2.508972 -0.277656 -1.396263 0.000000 0.000000
    32 0.000000 -1.292971 0.000001 -0.445059 0.000000 0.000000
    33 0.000000 -0.752466 -0.000001 -0.445059 0.000000 0.000000
    34 0.444213 -2.561960 -0.277655 -1.727307 -0.046226 -0.024599
    35 0.021022 -1.208186 0.000000 -0.427606 0.000000 0.000000
    36 0.010597 -0.741867 -0.000001 -0.453786 0.000000 0.000000
    37 1.047445 -2.222821 -0.277655 -1.508123 -0.078971 -0.038609
    38 0.000000 -0.996223 0.000000 -0.863938 0.000000 0.000000
    39 -0.000001 -0.614690 0.000000 -0.523599 0.000000 0.000000
    40 -0.308254 -0.007813 0.307166 -0.001726 -0.233854 -2.629401
    41 1.978378 0.019543 0.000000 -0.102806 -0.019953 0.358794
    42 0.982428 0.003186 -0.000001 0.000000 0.000000 0.111710
  time 16
    0 7.797963 4.903990 -7.506538 -1.016994 -1.285672 0.734834
    1 0.000000 -8.563282 -0.000002 0.431488 -0.116651 -0.231537
    2 -0.617038 -3.048496 0.595564 -1.247037 1.437608 -1.233844
    3 0.000000 1.876117 0.890361 0.000000 0.000000 0.000000
    4 0.000001 -4.992343 2.835746 0.000000 0.000000 0.000000
    5 -0.460900 -1.864593 1.374185 0.000000 0.000000 0.000000
    6 0.000001 -2.440687 1.118145 0.000000 0.000000 0.000000
    7 0.000001 -3.720883 0.606066 0.000000 0.000000 0.000000
    8 0.000001 -4.928777 1.621725 0.000000 0.000000 0.000000
    9 -0.003480 -0.404829 0.000000 0.000000 0.000000 0.000000
    10 -0.519309 -2.501155 -0.278957 -1.003564 0.000000 -0.122173
    11 -0.010598 -1.208185 0.000000 -1.279325 0.000000 0.000000
    12 0.000000 -0.763066 0.000000 -1.139709 0.000000 0.000000
    13 0.105981 -2.607134 -0.278957 -0.890118 0.000000 -0.148353
    14 0.000000 -1.250579 0.000000 -1.364837 0.000000 0.000000
    15 0.000000 -0.932634 0.000000 -1.342160 0.000000 0.000000
    16 0.763064 -2.490557 -0.278957 -0.474724 0.000000 0.130900
    17 -0.012322 -1.280917 -0.000002 -0.637027 0.000000 0.000000
    18 -0.001697 -0.749371 0.000000 -0.593412 0.000000 0.000000
    19 0.354567 0.016267 0.318133 0.342077 -0.443527 -1.083976
    20 1.887165 0.012878 0.000000 -0.304774 -0.020446 -0.466347
    21 1.001874 -0.000270 -0.000001 0.000000 0.000000 -0.724309
    22 -1.123359 -2.195093 -0.278957 -0.933751 0.000000 -0.087266
    23 0.010772 -0.963791 0.000001 -1.034980 0.000000 0.000000
    24 -0.010412 -0.631916 0.000001 -1.213004 0.000000 0.000000
    25 -0.991730 -6.455036 -9.197842 -0.591924 0.255024 0.648683
    26 0.089929 -8.543163 -0.000001 0.425467 -0.124065 0.200173
    27 0.000000 -0.359713 0.000000 0.000000 0.000000 0.000000
    28 -0.170479 -2.636147 -0.277655 -1.692969 0.000000 0.000000
    29 0.010599 -1.261177 0.000001 -0.253073 0.000000 0.000000
    30 -0.000001 -0.943233 -0.000001 -0.532326 0.000000 0.000000
    31 -0.827563 -2.508972 -0.277656 -1.396263 0.000000 0.000000
    32 0.000000 -1.292971 0.000001 -0.445059 0.000000 0.000000
    33 0.000000 -0.752466 -0.000001 -0.445059 0.000000 0.000000
    34 0.444213 -2.561960 -0.277655 -1.727307 -0.046226 -0.024599
    35 0.021022 -1.208186 0.000000 -0.427606 0.000000 0.000000
    36 0.010597 -0.741867 -0.000001 -0.453786 0.000000 0.000000
    37 1.047445 -2.222821 -0.277655 -1.508123 -0.078971 -0.038609
    38 0.000000 -0.996223 0.000000 -0.863938 0.000000 0.000000
    39 -0.000001 -0.614690 0.000000 -0.523599 0.000000 0.000000
    40 -0.308254 -0.007813 0.307166 -0.001726 -0.233854 -2.629401
    41 1.978378 0.019543 0.000000 -0.102806 -0.019953 0.358794
    42 0.982428 0.003186 -0.000001 0.000000 0.000000 0.111710
  time 17
    0 7.762806 4.903990 -7.502632 -1.006067 -1.287874 0.728410
    1 0.000000 -8.563282 -0.000002 0.426687 -0.116987 -0.228636
    2 -0.617038 -3.048496 0.595564 -1.247037 1.437608 -1.233844
    3 0.000000 1.876117 0.890361 0.000000 0.000000 0.000000
    4 0.000001 -4.992343 2.835746 0.000000 0.000000 0.000000
    5 -0.460900 -1.864593 1.374185 0.000000 0.000000 0.000000
    6 0.000001 -2.440687 1.118145 0.000000 0.000000 0.000000
    7 0.000001 -3.720883 0.606066 0.000000 0.000000 0.000000
    8 0.000001 -4.928777 1.621725 0.000000 0.000000 0.000000
    9 -0.003480 -0.404829 0.000000 0.000000 0.000000 0.000000
    10 -0.519309 -2.501155 -0.278957 -1.003564 0.000000 -0.122173
    11 -0.010598 -1.208185 0.000000 -1.279325 0.000000 0.000000
    12 0.000000 -0.763066 0.000000 -1.139709 0.000000 0.000000
    13 0.105981 -2.607134 -0.278957 -0.890118 0.000000 -0.148353
    14 0.000000 -1.250579 0.000000 -1.364837 0.000000 0.000000
    15 0.000000 -0.932634 0.000000 -1.342160 0.000000 0.000000
    16 0.763064 -2.490557 -0.278957 -0.474724 0.000000 0.130900
    17 -0.012322 -1.280917 -0.000002 -0.637027 0.000000 0.000000
    18 -0.001697 -0.749371 0.000000 -0.593412 0.000000 0.000000
    19 0.354567 0.016267 0.318133 0.342077 -0.443527 -1.083976
    20 1.887165 0.012878 0.000000 -0.304774 -0.020446 -0.466347
    21 1.001874 -0.000270 -0.000001 0.000000 0.000000 -0.724309
    22 -1.123359 -2.195093 -0.278957 -0.933751 0.000000 -0.087266
    23 0.010772 -0.963791 0.000001 -1.034980 0.000000 0.000000
    24 -0.010412 -0.631916 0.000001 -1.213004 0.000000 0.000000
    25 -1.019075 -6.455036 -9.205655 -0.589089 0.255024 0.648683
    26 0.089929 -8.543163 -0.000001 0.425231 -0.122092 0.200028
    27 0.000000 -0.359713 0.000000 0.000000 0.000000 0.000000
    28 -0.170479 -2.636147 -0.277655 -1.692969 0.000000 0.000000
    29 0.010599 -1.261177 0.000001 -0.253073 0.000000 0.000000
    30 -0.000001 -0.943233 -0.000001 -0.532326 0.000000 0.000000
    31 -0.827563 -2.508972 -0.277656 -1.396263 0.000000 0.000000
    32 0.000000 -1.292971 0.000001 -0.445059 0.000000 0.000000
    33 0.000000 -0.752466 -0.000001 -0.445059 0.000000 0.000000
    34 0.444213 -2.561960 -0.277655 -1.727307 -0.046226 -0.024599
    35 0.021022 -1.208186 0.000000 -0.427606 0.000000 0.000000
    36 0.010597 -0.741867 -0.000001 -0.453786 0.000000 0.000000
    37 1.047445 -2.222821 -0.277655 -1.508123 -0.078971 -0.038609
    38 0.000000 -0.996223 0.000000 -0.863938 0.000000 0.000000
    39 -0.000001 -0.614690 0.000000 -0.523599 0.000000 0.000000
    40 -0.308254 -0.007813 0.307166 -0.001726 -0.233854 -2.629401
    41 1.978378 0.019543 0.000000 -0.102806 -0.019953 0.358794
    42 0.982428 0.003186 -0.000001 0.000000 0.000000 0.111710
  time 18
    0 7.723742 4.892271 -7.498725 -0.995010 -1.290252 0.721549
    1 0.000000 -8.563282 -0.000002 0.422184 -0.117382 -0.225647
    2 -0.617038 -3.048496 0.595564 -1.247037 1.437608 -1.233844
    3 0.000000 1.876117 0.890361 0.000000 0.000000 0.000000
    4 0.000001 -4.992343 2.835746 0.000000 0.000000 0.000000
    5 -0.460900 -1.864593 1.374185 0.000000 0.000000 0.000000
    6 0.000001 -2.440687 1.118145 0.000000 0.000000 0.000000
    7 0.000001 -3.720883 0.606066 0.000000 0.000000 0.000000
    8 0.000001 -4.928777 1.621725 0.000000 0.000000 0.000000
    9 -0.003480 -0.404829 0.000000 0.000000 0.000000 0.000000
    10 -0.519309 -2.501155 -0.278957 -1.003564 0.000000 -0.122173
    11 -0.010598 -1.208185 0.000000 -1.279325 0.000000 0.000000
    12 0.000000 -0.763066 0.000000 -1.139709 0.000000 0.000000
    13 0.105981 -2.607134 -0.278957 -0.890118 0.000000 -0.148353
    14 0.000000 -1.250579 0.000000 -1.364837 0.000000 0.000000
    15 0.000000 -0.932634 0.000000 -1.342160 0.000000 0.000000
    16 0.763064 -2.490557 -0.278957 -0.474724 0.000000 0.130900
    17 -0.012322 -1.280917 -0.000002 -0.637027 0.000000 0.000000
    18 -0.001697 -0.749371 0.000000 -0.593412 0.000000 0.000000
    19 0.354567 0.016267 0.318133 0.342077 -0.443527 -1.083976
    20 1.887165 0.012878 0.000000 -0.304774 -0.020446 -0.466347
    21 1.001874 -0.000270 -0.000001 0.000000 0.000000 -0.724309
    22 -1.123359 -2.195093 -0.278957 -0.933751 0.000000 -0.087266
    23 0.010772 -0.963791 0.000001 -1.034980 0.000000 0.000000
    24 -0.010412 -0.631916 0.000001 -1.213004 0.000000 0.000000
    25 -1.042513 -6.466755 -9.209561 -0.586052 0.255024 0.648683
    26 0.089929 -8.543163 -0.000001 0.424681 -0.120137 0.199859
    27 0.000000 -0.359713 0.000000 0.000000 0.000000 0.000000
    28 -0.170479 -2.636147 -0.277655 -1.692969 0.000000 0.000000
    29 0.010599 -1.261177 0.000001 -0.253073 0.000000 0.000000
    30 -0.000001 -0.943233 -0.000001 -0.532326 0.000000 0.000000
    31 -0.827563 -2.508972 -0.277656 -1.396263 0.000000 0.000000
    32 0.000000 -1.292971 0.000001 -0.445059 0.000000 0.000000
    33 0.000000 -0.752466 -0.000001 -0.445059 0.000000 0.000000
    34 0.444213 -2.561960 -0.277655 -1.727307 -0.046226 -0.024599
    35 0.021022 -1.208186 0.000000 -0.427606 0.000000 0.000000
    36 0.010597 -0.741867 -0.000001 -0.453786 0.000000 0.000000
    37 1.047445 -2.222821 -0.277655 -1.508123 -0.078971 -0.038609
    38 0.000000 -0.996223 0.000000 -0.863938 0.000000 0.000000
    39 -0.000001 -0.614690 0.000000 -0.523599 0.000000 0.000000
    40 -0.308254 -0.007813 0.307166 -0.001726 -0.233854 -2.629401
    41 1.978378 0.019543 0.000000 -0.102806 -0.019953 0.358794
    42 0.982428 0.003186 -0.000001 0.000000 0.000000 0.111710
  time 19
    0 7.684678 4.872739 -7.483100 -0.983758 -1.292769 0.714396
    1 0.000000 -8.563282 -0.000002 0.417831 -0.117849 -0.222600
    2 -0.617038 -3.048496 0.595564 -1.247037 1.437608 -1.233844
    3 0.000000 1.876117 0.890361 0.000000 0.000000 0.000000
    4 0.000001 -4.992343 2.835746 0.000000 0.000000 0.000000
    5 -0.460900 -1.864593 1.374185 0.000000 0.000000 0.000000
    6 0.000001 -2.440687 1.118145 0.000000 0.000000 0.000000
    7 0.000001 -3.720883 0.606066 0.000000 0.000000 0.000000
    8 0.000001 -4.928777 1.621725 0.000000 0.000000 0.000000
    9 -0.003480 -0.404829 0.000000 0.000000 0.000000 0.000000
    10 -0.519309 -2.501155 -0.278957 -1.003564 0.000000 -0.122173
    11 -0.010598 -1.208185 0.000000 -1.279325 0.000000 0.000000
    12 0.000000 -0.763066 0.000000 -1.139709 0.000000 0.000000
    13 0.105981 -2.607134 -0.278957 -0.890118 0.000000 -0.148353
    14 0.000000 -1.250579 0.000000 -1.364837 0.000000 0.000000
    15 0.000000 -0.932634 0.000000 -1.342160 0.000000 0.000000
    16 0.763064 -2.490557 -0.278957 -0.474724 0.000000 0.130900
    17 -0.012322 -1.280917 -0.000002 -0.637027 0.000000 0.000000
    18 -0.001697 -0.749371 0.000000 -0.593412 0.000000 0.000000
    19 0.354567 0.016267 0.318133 0.342077 -0.443527 -1.083976
    20 1.887165 0.012878 0.000000 -0.304774 -0.020446 -0.466347
    21 1.001874 -0.000270 -0.000001 0.000000 0.000000 -0.724309
    22 -1.123359 -2.195093 -0.278957 -0.933751 0.000000 -0.087266
    23 0.010772 -0.963791 0.000001 -1.034980 0.000000 0.000000
    24 -0.010412 -0.631916 0.000001 -1.213004 0.000000 0.000000
    25 -1.054232 -6.498006 -9.201748 -0.582745 0.255024 0.648683
    26 0.089929 -8.543163 -0.000001 0.423896 -0.118234 0.199593
    27 0.000000 -0.359713 0.000000 0.000000 0.000000 0.000000
    28 -0.170479 -2.636147 -0.277655 -1.692969 0.000000 0.000000
    29 0.010599 -1.261177 0.000001 -0.253073 0.000000 0.000000
    30 -0.000001 -0.943233 -0.000001 -0.532326 0.000000 0.000000
    31 -0.827563 -2.508972 -0.277656 -1.396263 0.000000 0.000000
    32 0.000000 -1.292971 0.000001 -0.445059 0.000000 0.000000
    33 0.000000 -0.752466 -0.000001 -0.445059 0.000000 0.000000
    34 0.444213 -2.561960 -0.277655 -1.727307 -0.046226 -0.024599
    35 0.021022 -1.208186 0.000000 -0.427606 0.000000 0.000000
    36 0.010597 -0.741867 -0.000001 -0.453786 0.000000 0.000000
    37 1.047445 -2.222821 -0.277655 -1.508123 -0.078971 -0.038609
    38 0.000000 -0.996223 0.000000 -0.863938 0.000000 0.000000
    39 -0.000001 -0.614690 0.000000 -0.523599 0.000000 0.000000
    40 -0.308254 -0.007813 0.307166 -0.001726 -0.233854 -2.629401
    41 1.978378 0.019543 0.000000 -0.102806 -0.019953 0.358794
    42 0.982428 0.003186 -0.000001 0.000000 0.000000 0.111710
  time 20
    0 7.641708 4.841488 -7.471381 -0.971920 -1.295426 0.706586
    1 0.000000 -8.563282 -0.000002 0.413553 -0.118413 -0.219407
    2 -0.617038 -3.048496 0.595564 -1.247037 1.437608 -1.233844
    3 0.000000 1.876117 0.890361 0.000000 0.000000 0.000000
    4 0.000001 -4.992343 2.835746 0.000000 0.000000 0.000000
    5 -0.460900 -1.864593 1.374185 0.000000 0.000000 0.000000
    6 0.000001 -2.440687 1.118145 0.000000 0.000000 0.000000
    7 0.000001 -3.720883 0.606066 0.000000 0.000000 0.000000
    8 0.000001 -4.928777 1.621725 0.000000 0.000000 0.000000
    9 -0.003480 -0.404829 0.000000 0.000000 0.000000 0.000000
    10 -0.519309 -2.501155 -0.278957 -1.003564 0.000000 -0.122173
    11 -0.010598 -1.208185 0.000000 -1.279325 0.000000 0.000000
    12 0.000000 -0.763066 0.000000 -1.139709 0.000000 0.000000
    13 0.105981 -2.607134 -0.278957 -0.890118 0.000000 -0.148353
    14 0.000000 -1.250579 0.000000 -1.364837 0.000000 0.000000
    15 0.000000 -0.932634 0.000000 -1.342160 0.000000 0.000000
    16 0.763064 -2.490557 -0.278957 -0.474724 0.000000 0.130900
    17 -0.012322 -1.280917 -0.000002 -0.637027 0.000000 0.000000
    18 -0.001697 -0.749371 0.000000 -0.593412 0.000000 0.000000
    19 0.354567 0.016267 0.318133 0.342077 -0.443527 -1.083976
    20 1.887165 0.012878 0.000000 -0.304774 -0.020446 -0.466347
    21 1.001874 -0.000270 -0.000001 0.000000 0.000000 -0.724309
    22 -1.123359 -2.195093 -0.278957 -0.933751 0.000000 -0.087266
    23 0.010772 -0.963791 0.000001 -1.034980 0.000000 0.000000
    24 -0.010412 -0.631916 0.000001 -1.213004 0.000000 0.000000
    25 -1.058139 -6.540976 -9.182216 -0.579303 0.255024 0.648683
    26 0.089929 -8.543163 -0.000001 0.422952 -0.116382 0.199327
    27 0.000000 -0.359713 0.000000 0.000000 0.000000 0.000000
    28 -0.170479 -2.636147 -0.277655 -1.692969 0.000000 0.000000
    29 0.010599 -1.261177 0.000001 -0.253073 0.000000 0.000000
    30 -0.000001 -0.943233 -0.000001 -0.532326 0.000000 0.000000
    31 -0.827563 -2.508972 -0.277656 -1.396263 0.000000 0.000000
    32 0.000000 -1.292971 0.000001 -0.445059 0.000000 0.000000
    33 0.000000 -0.752466 -0.000001 -0.445059 0.000000 0.000000
    34 0.444213 -2.561960 -0.277655 -1.727307 -0.046226 -0.024599
    35 0.021022 -1.208186 0.000000 -0.427606 0.000000 0.000000
    36 0.010597 -0.741867 -0.000001 -0.453786 0.000000 0.000000
    37 1.047445 -2.222821 -0.277655 -1.508123 -0.078971 -0.038609
    38 0.000000 -0.996223 0.000000 -0.863938 0.000000 0.000000
    39 -0.000001 -0.614690 0.000000 -0.523599 0.000000 0.000000
    40 -0.308254 -0.007813 0.307166 -0.001726 -0.233854 -2.629401
    41 1.978378 0.019543 0.000000 -0.102806 -0.019953 0.358794
    42 0.982428 0.003186 -0.000001 0.000000 0.000000 0.111710
  time 21
    0 7.598738 4.798518 -7.455755 -0.959497 -1.298224 0.698193
    1 0.000000 -8.563282 -0.000002 0.409199 -0.119012 -0.216023
    2 -0.617038 -3.048496 0.595564 -1.247037 1.437608 -1.233844
    3 0.000000 1.876117 0.890361 0.000000 0.000000 0.000000
    4 0.000001 -4.992343 2.835746 0.000000 0.000000 0.000000
    5 -0.460900 -1.864593 1.374185 0.000000 0.000000 0.000000
    6 0.000001 -2.440687 1.118145 0.000000 0.000000 0.000000
    7 0.000001 -3.720883 0.606066 0.000000 0.000000 0.000000
    8 0.000001 -4.928777 1.621725 0.000000 0.000000 0.000000
    9 -0.003480 -0.404829 0.000000 0.000000 0.000000 0.000000
    10 -0.519309 -2.501155 -0.278957 -1.003564 0.000000 -0.122173
    11 -0.010598 -1.208185 0.000000 -1.279325 0.000000 0.000000
    12 0.000000 -0.763066 0.000000 -1.139709 0.000000 0.000000
    13 0.105981 -2.607134 -0.278957 -0.890118 0.000000 -0.148353
    14 0.000000 -1.250579 0.000000 -1.364837 0.000000 0.000000
    15 0.000000 -0.932634 0.000000 -1.342160 0.000000 0.000000
    16 0.763064 -2.490557 -0.278957 -0.474724 0.000000 0.130900
    17 -0.012322 -1.280917 -0.000002 -0.637027 0.000000 0.000000
    18 -0.001697 -0.749371 0.000000 -0.593412 0.000000 0.000000
    19 0.354567 0.016267 0.318133 0.342077 -0.443527 -1.083976
    20 1.887165 0.012878 0.000000 -0.304774 -0.020446 -0.466347
    21 1.001874 -0.000270 -0.000001 0.000000 0.000000 -0.724309
    22 -1.123359 -2.195093 -0.278957 -0.933751 0.000000 -0.087266
    23 0.010772 -0.963791 0.000001 -1.034980 0.000000 0.000000
    24 -0.010412 -0.631916 0.000001 -1.213004 0.000000 0.000000
    25 -1.062045 -6.599572 -9.162685 -0.575726 0.255024 0.648683
    26 0.089929 -8.543163 -0.000001 0.421852 -0.114566 0.199013
    27 0.000000 -0.359713 0.000000 0.000000 0.000000 0.000000
    28 -0.170479 -2.636147 -0.277655 -1.692969 0.000000 0.000000
    29 0.010599 -1.261177 0.000001 -0.253073 0.000000 0.000000
    30 -0.000001 -0.943233 -0.000001 -0.532326 0.000000 0.000000
    31 -0.827563 -2.508972 -0.277656 -1.396263 0.000000 0.000000
    32 0.000000 -1.292971 0.000001 -0.445059 0.000000 0.000000
    33 0.000000 -0.752466 -0.000001 -0.445059 0.000000 0.000000
    34 0.444213 -2.561960 -0.277655 -1.727307 -0.046226 -0.024599
    35 0.021022 -1.208186 0.000000 -0.427606 0.000000 0.000000
    36 0.010597 -0.741867 -0.000001 -0.453786 0.000000 0.000000
    37 1.047445 -2.222821 -0.277655 -1.508123 -0.078971 -0.038609
    38 0.000000 -0.996223 0.000000 -0.863938 0.000000 0.000000
    39 -0.000001 -0.614690 0.000000 -0.523599 0.000000 0.000000
    40 -0.308254 -0.007813 0.307166 -0.001726 -0.233854 -2.629401
    41 1.978378 0.019543 0.000000 -0.102806 -0.019953 0.358794
    42 0.982428 0.003186 -0.000001 0.000000 0.000000 0.111710
  time 22
    0 7.551862 4.743829 -7.436223 -0.946099 -1.301160 0.688996
    1 0.000000 -8.563282 -0.000002 0.404641 -0.119659 -0.212405
    2 -0.617038 -3.048496 0.595564 -1.247037 1.437608 -1.233844
    3 0.000000 1.876117 0.890361 0.000000 0.000000 0.000000
    4 0.000001 -4.992343 2.835746 0.000000 0.000000 0.000000
    5 -0.460900 -1.864593 1.374185 0.000000 0.000000 0.000000
    6 0.000001 -2.440687 1.118145 0.000000 0.000000 0.000000
    7 0.000001 -3.720883 0.606066 0.000000 0.000000 0.000000
    8 0.000001 -4.928777 1.621725 0.000000 0.000000 0.000000
    9 -0.003480 -0.404829 0.000000 0.000000 0.000000 0.000000
    10 -0.519309 -2.501155 -0.278957 -1.003564 0.000000 -0.122173
    11 -0.010598 -1.208185 0.000000 -1.279325 0.000000 0.000000
    12 0.000000 -0.763066 0.000000 -1.139709 0.000000 0.000000
    13 0.105981 -2.607134 -0.278957 -0.890118 0.000000 -0.148353
    14 0.000000 -1.250579 0.000000 -1.364837 0.000000 0.000000
    15 0.000000 -0.932634 0.000000 -1.342160 0.000000 0.000000
    16 0.763064 -2.490557 -0.278957 -0.474724 0.000000 0.130900
    17 -0.012322 -1.280917 -0.000002 -0.637027 0.000000 0.000000
    18 -0.001697 -0.749371 0.000000 -0.593412 0.000000 0.000000
    19 0.354567 0.016267 0.318133 0.342077 -0.443527 -1.083976
    20 1.887165 0.012878 0.000000 -0.304774 -0.020446 -0.466347
    21 1.001874 -0.000270 -0.000001 0.000000 0.000000 -0.724309
    22 -1.123359 -2.195093 -0.278957 -0.933751 0.000000 -0.087266
    23 0.010772 -0.963791 0.000001 -1.034980 0.000000 0.000000
    24 -0.010412 -0.631916 0.000001 -1.213004 0.000000 0.000000
    25 -1.073764 -6.665980 -9.150965 -0.572014 0.255024 0.648683
    26 0.089929 -8.543163 -0.000001 0.420556 -0.112766 0.198651
    27 0.000000 -0.359713 0.000000 0.000000 0.000000 0.000000
    28 -0.170479 -2.636147 -0.277655 -1.692969 0.000000 0.000000
    29 0.010599 -1.261177 0.000001 -0.253073 0.000000 0.000000
    30 -0.000001 -0.943233 -0.000001 -0.532326 0.000000 0.000000
    31 -0.827563 -2.508972 -0.277656 -1.396263 0.000000 0.000000
    32 0.000000 -1.292971 0.000001 -0.445059 0.000000 0.000000
    33 0.000000 -0.752466 -0.000001 -0.445059 0.000000 0.000000
    34 0.444213 -2.561960 -0.277655 -1.727307 -0.046226 -0.024599
    35 0.021022 -1.208186 0.000000 -0.427606 0.000000 0.000000
    36 0.010597 -0.741867 -0.000001 -0.453786 0.000000 0.000000
    37 1.047445 -2.222821 -0.277655 -1.508123 -0.078971 -0.038609
    38 0.000000 -0.996223 0.000000 -0.863938 0.000000 0.000000
    39 -0.000001 -0.614690 0.000000 -0.523599 0.000000 0.000000
    40 -0.308254 -0.007813 0.307166 -0.001726 -0.233854 -2.629401
    41 1.978378 0.019543 0.000000 -0.102806 -0.019953 0.358794
    42 0.982428 0.003186 -0.000001 0.000000 0.000000 0.111710
  time 23
    0 7.504985 4.677421 -7.416692 -0.931595 -1.304307 0.678850
    1 0.000000 -8.563282 -0.000002 0.399802 -0.120354 -0.208508
    2 -0.617038 -3.048496 0.595564 -1.247037 1.437608 -1.233844
    3 0.000000 1.876117 0.890361 0.000000 0.000000 0.000000
    4 0.000001 -4.992343 2.835746 0.000000 0.000000 0.000000
    5 -0.460900 -1.864593 1.374185 0.000000 0.000000 0.000000
    6 0.000001 -2.440687 1.118145 0.000000 0.000000 0.000000
    7 0.000001 -3.720883 0.606066 0.000000 0.000000 0.000000
    8 0.000001 -4.928777 1.621725 0.000000 0.000000 0.000000
    9 -0.003480 -0.404829 0.000000 0.000000 0.000000 0.000000
    10 -0.519309 -2.501155 -0.278957 -1.003564 0.000000 -0.122173
    11 -0.010598 -1.208185 0.000000 -1.279325 0.000000 0.000000
    12 0.000000 -0.763066 0.000000 -1.139709 0.000000 0.000000
    13 0.105981 -2.607134 -0.278957 -0.890118 0.000000 -0.148353
    14 0.000000 -1.250579 0.000000 -1.364837 0.000000 0.000000
    15 0.000000 -0.932634 0.000000 -1.342160 0.000000 0.000000
    16 0.763064 -2.490557 -0.278957 -0.474724 0.000000 0.130900
    17 -0.012322 -1.280917 -0.000002 -0.637027 0.000000 0.000000
    18 -0.001697 -0.749371 0.000000 -0.593412 0.000000 0.000000
    19 0.354567 0.016267 0.318133 0.342077 -0.443527 -1.083976
    20 1.887165 0.012878 0.000000 -0.304774 -0.020446 -0.466347
    21 1.001874 -0.000270 -0.000001 0.000000 0.000000 -0.724309
    22 -1.123359 -2.195093 -0.278957 -0.933751 0.000000 -0.087266
    23 0.010772 -0.963791 0.000001 -1.034980 0.000000 0.000000
    24 -0.010412 -0.631916 0.000001 -1.213004 0.000000 0.000000
    25 -1.097202 -6.740201 -9.147059 -0.568167 0.255024 0.648683
    26 0.089929 -8.543163 -0.000001 0.419259 -0.110967 0.198288
    27 0.000000 -0.359713 0.000000 0.000000 0.000000 0.000000
    28 -0.170479 -2.636147 -0.277655 -1.692969 0.000000 0.000000
    29 0.010599 -1.261177 0.000001 -0.253073 0.000000 0.000000
    30 -0.000001 -0.943233 -0.000001 -0.532326 0.000000 0.000000
    31 -0.827563 -2.508972 -0.277656 -1.396263 0.000000 0.000000
    32 0.000000 -1.292971 0.000001 -0.445059 0.000000 0.000000
    33 0.000000 -0.752466 -0.000001 -0.445059 0.000000 0.000000
    34 0.444213 -2.561960 -0.277655 -1.727307 -0.046226 -0.024599
    35 0.021022 -1.208186 0.000000 -0.427606 0.000000 0.000000
    36 0.010597 -0.741867 -0.000001 -0.453786 0.000000 0.000000
    37 1.047445 -2.222821 -0.277655 -1.508123 -0.078971 -0.038609
    38 0.000000 -0.996223 0.000000 -0.863938 0.000000 0.000000
    39 -0.000001 -0.614690 0.000000 -0.523599 0.000000 0.000000
    40 -0.308254 -0.007813 0.307166 -0.001726 -0.233854 -2.629401
    41 1.978378 0.019543 0.000000 -0.102806 -0.019953 0.358794
    42 0.982428 0.003186 -0.000001 0.000000 0.000000 0.111710
  time 24
    0 7.454203 4.603200 -7.393253 -0.915725 -1.307664 0.667683
    1 0.000000 -8.563282 -0.000002 0.394533 -0.121085 -0.204289
    2 -0.617038 -3.048496 0.595564 -1.247037 1.437608 -1.233844
    3 0.000000 1.876117 0.890361 0.000000 0.000000 0.000000
    4 0.000001 -4.992343 2.835746 0.000000 0.000000 0.000000
    5 -0.460900 -1.864593 1.374185 0.000000 0.000000 0.000000
    6 0.000001 -2.440687 1.118145 0.000000 0.000000 0.000000
    7 0.000001 -3.720883 0.606066 0.000000 0.000000 0.000000
    8 0.000001 -4.928777 1.621725 0.000000 0.000000 0.000000
    9 -0.003480 -0.404829 0.000000 0.000000 0.000000 0.000000
    10 -0.519309 -2.501155 -0.278957 -1.003564 0.000000 -0.122173
    11 -0.010598 -1.208185 0.000000 -1.279325 0.000000 0.000000
    12 0.000000 -0.763066 0.000000 -1.139709 0.000000 0.000000
    13 0.105981 -2.607134 -0.278957 -0.890118 0.000000 -0.148353
    14 0.000000 -1.250579 0.000000 -1.364837 0.000000 0.000000
    15 0.000000 -0.932634 0.000000 -1.342160 0.000000 0.000000
    16 0.763064 -2.490557 -0.278957 -0.474724 0.000000 0.130900
    17 -0.012322 -1.280917 -0.000002 -0.637027 0.000000 0.000000
    18 -0.001697 -0.749371 0.000000 -0.593412 0.000000 0.000000
    19 0.354567 0.016267 0.318133 0.342077 -0.443527 -1.083976
    20 1.887165 0.012878 0.000000 -0.304774 -0.020446 -0.466347
    21 1.001874 -0.000270 -0.000001 0.000000 0.000000 -0.724309
    22 -1.123359 -2.195093 -0.278957 -0.933751 0.000000 -0.087266
    23 0.010772 -0.963791 0.000001 -1.034980 0.000000 0.000000
    24 -0.010412 -0.631916 0.000001 -1.213004 0.000000 0.000000
    25 -1.124547 -6.826141 -9.150965 -0.564387 0.255024 0.648683
    26 0.089929 -8.543163 -0.000001 0.417884 -0.109184 0.197925
    27 0.000000 -0.359713 0.000000 0.000000 0.000000 0.000000
    28 -0.170479 -2.636147 -0.277655 -1.692969 0.000000 0.000000
    29 0.010599 -1.261177 0.000001 -0.253073 0.000000 0.000000
    30 -0.000001 -0.943233 -0.000001 -0.532326 0.000000 0.000000
    31 -0.827563 -2.508972 -0.277656 -1.396263 0.000000 0.000000
    32 0.000000 -1.292971 0.000001 -0.445059 0.000000 0.000000
    33 0.000000 -0.752466 -0.000001 -0.445059 0.000000 0.000000
    34 0.444213 -2.561960 -0.277655 -1.727307 -0.046226 -0.024599
    35 0.021022 -1.208186 0.000000 -0.427606 0.000000 0.000000
    36 0.010597 -0.741867 -0.000001 -0.453786 0.000000 0.000000
    37 1.047445 -2.222821 -0.277655 -1.508123 -0.078971 -0.038609
    38 0.000000 -0.996223 0.000000 -0.863938 0.000000 0.000000
    39 -0.000001 -0.614690 0.000000 -0.523599 0.000000 0.000000
    40 -0.308254 -0.007813 0.307166 -0.001726 -0.233854 -2.629401
    41 1.978378 0.019543 0.000000 -0.102806 -0.019953 0.358794
    42 0.982428 0.003186 -0.000001 0.000000 0.000000 0.111710
  time 25
    0 7.399513 4.517260 -7.365909 -0.898164 -1.311160 0.655275
    1 0.000000 -8.563282 -0.000002 0.388742 -0.121840 -0.199689
    2 -0.617038 -3.048496 0.595564 -1.247037 1.437608 -1.233844
    3 0.000000 1.876117 0.890361 0.000000 0.000000 0.000000
    4 0.000001 -4.992343 2.835746 0.000000 0.000000 0.000000
    5 -0.460900 -1.864593 1.374185 0.000000 0.000000 0.000000
    6 0.000001 -2.440687 1.118145 0.000000 0.000000 0.000000
    7 0.000001 -3.720883 0.606066 0.000000 0.000000 0.000000
    8 0.000001 -4.928777 1.621725 0.000000 0.000000 0.000000
    9 -0.003480 -0.404829 0.000000 0.000000 0.000000 0.000000
    10 -0.519309 -2.501155 -0.278957 -1.003564 0.000000 -0.122173
    11 -0.010598 -1.208185 0.000000 -1.279325 0.000000 0.000000
    12 0.000000 -0.763066 0.000000 -1.139709 0.000000 0.000000
    13 0.105981 -2.607134 -0.278957 -0.890118 0.000000 -0.148353
    14 0.000000 -1.250579 0.000000 -1.364837 0.000000 0.000000
    15 0.000000 -0.932634 0.000000 -1.342160 0.000000 0.000000
    16 0.763064 -2.490557 -0.278957 -0.474724 0.000000 0.130900
    17 -0.012322 -1.280917 -0.000002 -0.637027 0.000000 0.000000
    18 -0.001697 -0.749371 0.000000 -0.593412 0.000000 0.000000
    19 0.354567 0.016267 0.318133 0.342077 -0.443527 -1.083976
    20 1.887165 0.012878 0.000000 -0.304774 -0.020446 -0.466347
    21 1.001874 -0.000270 -0.000001 0.000000 0.000000 -0.724309
    22 -1.123359 -2.195093 -0.278957 -0.933751 0.000000 -0.087266
    23 0.010772 -0.963791 0.000001 -1.034980 0.000000 0.000000
    24 -0.010412 -0.631916 0.000001 -1.213004 0.000000 0.000000
    25 -1.155798 -6.919894 -9.150965 -0.560608 0.255024 0.648683
    26 0.089929 -8.543163 -0.000001 0.416548 -0.107402 0.197515
    27 0.000000 -0.359713 0.000000 0.000000 0.000000 0.000000
    28 -0.170479 -2.636147 -0.277655 -1.692969 0.000000 0.000000
    29 0.010599 -1.261177 0.000001 -0.253073 0.000000 0.000000
    30 -0.000001 -0.943233 -0.000001 -0.532326 0.000000 0.000000
    31 -0.827563 -2.508972 -0.277656 -1.396263 0.000000 0.000000
    32 0.000000 -1.292971 0.000001 -0.445059 0.000000 0.000000
    33 0.000000 -0.752466 -0.000001 -0.445059 0.000000 0.000000
    34 0.444213 -2.561960 -0.277655 -1.727307 -0.046226 -0.024599
    35 0.021022 -1.208186 0.000000 -0.427606 0.000000 0.000000
    36 0.010597 -0.741867 -0.000001 -0.453786 0.000000 0.000000
    37 1.047445 -2.222821 -0.277655 -1.508123 -0.078971 -0.038609
    38 0.000000 -0.996223 0.000000 -0.863938 0.000000 0.000000
    39 -0.000001 -0.614690 0.000000 -0.523599 0.000000 0.000000
    40 -0.308254 -0.007813 0.307166 -0.001726 -0.233854 -2.629401
    41 1.978378 0.019543 0.000000 -0.102806 -0.019953 0.358794
    42 0.982428 0.003186 -0.000001 0.000000 0.000000 0.111710
  time 26
    0 7.344824 4.419600 -7.338564 -0.878586 -1.314866 0.641406
    1 0.000000 -8.563282 -0.000002 0.382278 -0.122583 -0.194679
    2 -0.617038 -3.048496 0.595564 -1.247037 1.437608 -1.233844
    3 0.000000 1.876117 0.890361 0.000000 0.000000 0.000000
    4 0.000001 -4.992343 2.835746 0.000000 0.000000 0.000000
    5 -0.460900 -1.864593 1.374185 0.000000 0.000000 0.000000
    6 0.000001 -2.440687 1.118145 0.000000 0.000000 0.000000
    7 0.000001 -3.720883 0.606066 0.000000 0.000000 0.000000
    8 0.000001 -4.928777 1.621725 0.000000 0.000000 0.000000
    9 -0.003480 -0.404829 0.000000 0.000000 0.000000 0.000000
    10 -0.519309 -2.501155 -0.278957 -1.003564 0.000000 -0.122173
    11 -0.010598 -1.208185 0.000000 -1.279325 0.000000 0.000000
    12 0.000000 -0.763066 0.000000 -1.139709 0.000000 0.000000
    13 0.105981 -2.607134 -0.278957 -0.890118 0.000000 -0.148353
    14 0.000000 -1.250579 0.000000 -1.364837 0.000000 0.000000
    15 0.000000 -0.932634 0.000000 -1.342160 0.000000 0.000000
    16 0.763064 -2.490557 -0.278957 -0.474724 0.000000 0.130900
    17 -0.012322 -1.280917 -0.000002 -0.637027 0.000000 0.000000
    18 -0.001697 -0.749371 0.000000 -0.593412 0.000000 0.000000
    19 0.354567 0.016267 0.318133 0.342077 -0.443527 -1.083976
    20 1.887165 0.012878 0.000000 -0.304774 -0.020446 -0.466347
    21 1.001874 -0.000270 -0.000001 0.000000 0.000000 -0.724309
    22 -1.123359 -2.195093 -0.278957 -0.933751 0.000000 -0.087266
    23 0.010772 -0.963791 0.000001 -1.034980 0.000000 0.000000
    24 -0.010412 -0.631916 0.000001 -1.213004 0.000000 0.000000
    25 -1.175330 -7.025366 -9.150965 -0.556828 0.255024 0.648683
    26 0.089929 -8.543163 -0.000001 0.415172 -0.105620 0.197152
    27 0.000000 -0.359713 0.000000 0.000000 0.000000 0.000000
    28 -0.170479 -2.636147 -0.277655 -1.692969 0.000000 0.000000
    29 0.010599 -1.261177 0.000001 -0.253073 0.000000 0.000000
    30 -0.000001 -0.943233 -0.000001 -0.532326 0.000000 0.000000
    31 -0.827563 -2.508972 -0.277656 -1.396263 0.000000 0.000000
    32 0.000000 -1.292971 0.000001 -0.445059 0.000000 0.000000
    33 0.000000 -0.752466 -0.000001 -0.445059 0.000000 0.000000
    34 0.444213 -2.561960 -0.277655 -1.727307 -0.046226 -0.024599
    35 0.021022 -1.208186 0.000000 -0.427606 0.000000 0.000000
    36 0.010597 -0.741867 -0.000001 -0.453786 0.000000 0.000000
    37 1.047445 -2.222821 -0.277655 -1.508123 -0.078971 -0.038609
    38 0.000000 -0.996223 0.000000 -0.863938 0.000000 0.000000
    39 -0.000001 -0.614690 0.000000 -0.523599 0.000000 0.000000
    40 -0.308254 -0.007813 0.307166 -0.001726 -0.233854 -2.629401
    41 1.978378 0.019543 0.000000 -0.102806 -0.019953 0.358794
    42 0.982428 0.003186 -0.000001 0.000000 0.000000 0.111710
  time 27
    0 7.290135 4.310222 -7.307313 -0.856732 -1.318782 0.625933
    1 0.000000 -8.563282 -0.000002 0.375029 -0.123326 -0.189215
    2 -0.617038 -3.048496 0.595564 -1.247037 1.437608 -1.233844
    3 0.000000 1.876117 0.890361 0.000000 0.000000 0.000000
    4 0.000001 -4.992343 2.835746 0.000000 0.000000 0.000000
    5 -0.460900 -1.864593 1.374185 0.000000 0.000000 0.000000
    6 0.000001 -2.440687 1.118145 0.000000 0.000000 0.000000
    7 0.000001 -3.720883 0.606066 0.000000 0.000000 0.000000
    8 0.000001 -4.928777 1.621725 0.000000 0.000000 0.000000
    9 -0.003480 -0.404829 0.000000 0.000000 0.000000 0.000000
    10 -0.519309 -2.501155 -0.278957 -1.003564 0.000000 -0.122173
    11 -0.010598 -1.208185 0.000000 -1.279325 0.000000 0.000000
    12 0.000000 -0.763066 0.000000 -1.139709 0.000000 0.000000
    13 0.105981 -2.607134 -0.278957 -0.890118 0.000000 -0.148353
    14 0.000000 -1.250579 0.000000 -1.364837 0.000000 0.000000
    15 0.000000 -0.932634 0.000000 -1.342160 0.000000 0.000000
    16 0.763064 -2.490557 -0.278957 -0.474724 0.000000 0.130900
    17 -0.012322 -1.280917 -0.000002 -0.637027 0.000000 0.000000
    18 -0.001697 -0.749371 0.000000 -0.593412 0.000000 0.000000
    19 0.354567 0.016267 0.318133 0.342077 -0.443527 -1.083976
    20 1.887165 0.012878 0.000000 -0.304774 -0.020446 -0.466347
    21 1.001874 -0.000270 -0.000001 0.000000 0.000000 -0.724309
    22 -1.123359 -2.195093 -0.278957 -0.933751 0.000000 -0.087266
    23 0.010772 -0.963791 0.000001 -1.034980 0.000000 0.000000
    24 -0.010412 -0.631916 0.000001 -1.213004 0.000000 0.000000
    25 -1.187049 -7.134744 -9.150965 -0.553184 0.255024 0.648683
    26 0.089929 -8.543163 -0.000001 0.413954 -0.103821 0.196789
    27 0.000000 -0.359713 0.000000 0.000000 0.000000 0.000000
    28 -0.170479 -2.636147 -0.277655 -1.692969 0.000000 0.000000
    29 0.010599 -1.261177 0.000001 -0.253073 0.000000 0.000000
    30 -0.000001 -0.943233 -0.000001 -0.532326 0.000000 0.000000
    31 -0.827563 -2.508972 -0.277656 -1.396263 0.000000 0.000000
    32 0.000000 -1.292971 0.000001 -0.445059 0.000000 0.000000
    33 0.000000 -0.752466 -0.000001 -0.445059 0.000000 0.000000
    34 0.444213 -2.561960 -0.277655 -1.727307 -0.046226 -0.024599
    35 0.021022 -1.208186 0.000000 -0.427606 0.000000 0.000000
    36 0.010597 -0.741867 -0.000001 -0.453786 0.000000 0.000000
    37 1.047445 -2.222821 -0.277655 -1.508123 -0.078971 -0.038609
    38 0.000000 -0.996223 0.000000 -0.863938 0.000000 0.000000
    39 -0.000001 -0.614690 0.000000 -0.523599 0.000000 0.000000
    40 -0.308254 -0.007813 0.307166 -0.001726 -0.233854 -2.629401
    41 1.978378 0.019543 0.000000 -0.102806 -0.019953 0.358794
    42 0.982428 0.003186 -0.000001 0.000000 0.000000 0.111710
  time 28
    0 7.227633 4.189125 -7.272156 -0.832407 -1.322838 0.608634
    1 0.000000 -8.563282 -0.000002 0.366902 -0.124034 -0.183208
    2 -0.617038 -3.048496 0.595564 -1.247037 1.437608 -1.233844
    3 0.000000 1.876117 0.890361 0.000000 0.000000 0.000000
    4 0.000001 -4.992343 2.835746 0.000000 0.000000 0.000000
    5 -0.460900 -1.864593 1.374185 0.000000 0.000000 0.000000
    6 0.000001 -2.440687 1.118145 0.000000 0.000000 0.000000
    7 0.000001 -3.720883 0.606066 0.000000 0.000000 0.000000
    8 0.000001 -4.928777 1.621725 0.000000 0.000000 0.000000
    9 -0.003480 -0.404829 0.000000 0.000000 0.000000 0.000000
    10 -0.519309 -2.501155 -0.278957 -1.003564 0.000000 -0.122173
    11 -0.010598 -1.208185 0.000000 -1.279325 0.000000 0.000000
    12 0.000000 -0.763066 0.000000 -1.139709 0.000000 0.000000
    13 0.105981 -2.607134 -0.278957 -0.890118 0.000000 -0.148353
    14 0.000000 -1.250579 0.000000 -1.364837 0.000000 0.000000
    15 0.000000 -0.932634 0.000000 -1.342160 0.000000 0.000000
    16 0.763064 -2.490557 -0.278957 -0.474724 0.000000 0.130900
    17 -0.012322 -1.280917 -0.000002 -0.637027 0.000000 0.000000
    18 -0.001697 -0.749371 0.000000 -0.593412 0.000000 0.000000
    19 0.354567 0.016267 0.318133 0.342077 -0.443527 -1.083976
    20 1.887165 0.012878 0.000000 -0.304774 -0.020446 -0.466347
    21 1.001874 -0.000270 -0.000001 0.000000 0.000000 -0.724309
    22 -1.123359 -2.195093 -0.278957 -0.933751 0.000000 -0.087266
    23 0.010772 -0.963791 0.000001 -1.034980 0.000000 0.000000
    24 -0.010412 -0.631916 0.000001 -1.213004 0.000000 0.000000
    25 -1.187049 -7.255842 -9.147059 -0.549607 0.255024 0.648683
    26 0.089929 -8.543163 -0.000001 0.412815 -0.101986 0.196451
    27 0.000000 -0.359713 0.000000 0.000000 0.000000 0.000000
    28 -0.170479 -2.636147 -0.277655 -1.692969 0.000000 0.000000
    29 0.010599 -1.261177 0.000001 -0.253073 0.000000 0.000000
    30 -0.000001 -0.943233 -0.000001 -0.532326 0.000000 0.000000
    31 -0.827563 -2.508972 -0.277656 -1.396263 0.000000 0.000000
    32 0.000000 -1.292971 0.000001 -0.445059 0.000000 0.000000
    33 0.000000 -0.752466 -0.000001 -0.445059 0.000000 0.000000
    34 0.444213 -2.561960 -0.277655 -1.727307 -0.046226 -0.024599
    35 0.021022 -1.208186 0.000000 -0.427606 0.000000 0.000000
    36 0.010597 -0.741867 -0.000001 -0.453786 0.000000 0.000000
    37 1.047445 -2.222821 -0.277655 -1.508123 -0.078971 -0.038609
    38 0.000000 -0.996223 0.000000 -0.863938 0.000000 0.000000
    39 -0.000001 -0.614690 0.000000 -0.523599 0.000000 0.000000
    40 -0.308254 -0.007813 0.307166 -0.001726 -0.233854 -2.629401
    41 1.978378 0.019543 0.000000 -0.102806 -0.019953 0.358794
    42 0.982428 0.003186 -0.000001 0.000000 0.000000 0.111710
  time 29
    0 7.169038 4.056308 -7.233092 -0.805024 -1.327068 0.589146
    1 0.000000 -8.563282 -0.000002 0.357766 -0.124681 -0.176690
    2 -0.617038 -3.048496 0.595564 -1.247037 1.437608 -1.233844
    3 0.000000 1.876117 0.890361 0.000000 0.000000 0.000000
    4 0.000001 -4.992343 2.835746 0.000000 0.000000 0.000000
    5 -0.460900 -1.864593 1.374185 0.000000 0.000000 0.000000
    6 0.000001 -2.440687 1.118145 0.000000 0.000000 0.000000
    7 0.000001 -3.720883 0.606066 0.000000 0.000000 0.000000
    8 0.000001 -4.928777 1.621725 0.000000 0.000000 0.000000
    9 -0.003480 -0.404829 0.000000 0.000000 0.000000 0.000000
    10 -0.519309 -2.501155 -0.278957 -1.003564 0.000000 -0.122173
    11 -0.010598 -1.208185 0.000000 -1.279325 0.000000 0.000000
    12 0.000000 -0.763066 0.000000 -1.139709 0.000000 0.000000
    13 0.105981 -2.607134 -0.278957 -0.890118 0.000000 -0.148353
    14 0.000000 -1.250579 0.000000 -1.364837 0.000000 0.000000
    15 0.000000 -0.932634 0.000000 -1.342160 0.000000 0.000000
    16 0.763064 -2.490557 -0.278957 -0.474724 0.000000 0.130900
    17 -0.012322 -1.280917 -0.000002 -0.637027 0.000000 0.000000
    18 -0.001697 -0.749371 0.000000 -0.593412 0.000000 0.000000
    19 0.354567 0.016267 0.318133 0.342077 -0.443527 -1.083976
    20 1.887165 0.012878 0.000000 -0.304774 -0.020446 -0.466347
    21 1.001874 -0.000270 -0.000001 0.000000 0.000000 -0.724309
    22 -1.123359 -2.195093 -0.278957 -0.933751 0.000000 -0.087266
    23 0.010772 -0.963791 0.000001 -1.034980 0.000000 0.000000
    24 -0.010412 -0.631916 0.000001 -1.213004 0.000000 0.000000
    25 -1.187049 -7.384752 -9.143153 -0.546097 0.255024 0.648683
    26 0.089929 -8.543163 -0.000001 0.411833 -0.100135 0.196161
    27 0.000000 -0.359713 0.000000 0.000000 0.000000 0.000000
    28 -0.170479 -2.636147 -0.277655 -1.692969 0.000000 0.000000
    29 0.010599 -1.261177 0.000001 -0.253073 0.000000 0.000000
    30 -0.000001 -0.943233 -0.000001 -0.532326 0.000000 0.000000
    31 -0.827563 -2.508972 -0.277656 -1.396263 0.000000 0.000000
    32 0.000000 -1.292971 0.000001 -0.445059 0.000000 0.000000
    33 0.000000 -0.752466 -0.000001 -0.445059 0.000000 0.000000
    34 0.444213 -2.561960 -0.277655 -1.727307 -0.046226 -0.024599
    35 0.021022 -1.208186 0.000000 -0.427606 0.000000 0.000000
    36 0.010597 -0.741867 -0.000001 -0.453786 0.000000 0.000000
    37 1.047445 -2.222821 -0.277655 -1.508123 -0.078971 -0.038609
    38 0.000000 -0.996223 0.000000 -0.863938 0.000000 0.000000
    39 -0.000001 -0.614690 0.000000 -0.523599 0.000000 0.000000
    40 -0.308254 -0.007813 0.307166 -0.001726 -0.233854 -2.629401
    41 1.978378 0.019543 0.000000 -0.102806 -0.019953 0.358794
    42 0.982428 0.003186 -0.000001 0.000000 0.000000 0.111710
  time 30
    0 7.106536 3.915679 -7.194028 -0.774325 -1.331369 0.567249
    1 0.000000 -8.563282 -0.000002 0.347509 -0.125220 -0.169570
    2 -0.617038 -3.048496 0.595564 -1.247037 1.437608 -1.233844
    3 0.000000 1.876117 0.890361 0.000000 0.000000 0.000000
    4 0.000001 -4.992343 2.835746 0.000000 0.000000 0.000000
    5 -0.460900 -1.864593 1.374185 0.000000 0.000000 0.000000
    6 0.000001 -2.440687 1.118145 0.000000 0.000000 0.000000
    7 0.000001 -3.720883 0.606066 0.000000 0.000000 0.000000
    8 0.000001 -4.928777 1.621725 0.000000 0.000000 0.000000
    9 -0.003480 -0.404829 0.000000 0.000000 0.000000 0.000000
    10 -0.519309 -2.501155 -0.278957 -1.003564 0.000000 -0.122173
    11 -0.010598 -1.208185 0.000000 -1.279325 0.000000 0.000000
    12 0.000000 -0.763066 0.000000 -1.139709 0.000000 0.000000
    13 0.105981 -2.607134 -0.278957 -0.890118 0.000000 -0.148353
    14 0.000000 -1.250579 0.000000 -1.364837 0.000000 0.000000
    15 0.000000 -0.932634 0.000000 -1.342160 0.000000 0.000000
    16 0.763064 -2.490557 -0.278957 -0.474724 0.000000 0.130900
    17 -0.012322 -1.280917 -0.000002 -0.637027 0.000000 0.000000
    18 -0.001697 -0.749371 0.000000 -0.593412 0.000000 0.000000
    19 0.354567 0.016267 0.318133 0.342077 -0.443527 -1.083976
    20 1.887165 0.012878 0.000000 -0.304774 -0.020446 -0.466347
    21 1.001874 -0.000270 -0.000001 0.000000 0.000000 -0.724309
    22 -1.123359 -2.195093 -0.278957 -0.933751 0.000000 -0.087266
    23 0.010772 -0.963791 0.000001 -1.034980 0.000000 0.000000
    24 -0.010412 -0.631916 0.000001 -1.213004 0.000000 0.000000
    25 -1.175330 -7.521475 -9.139246 -0.542858 0.255024 0.648683
    26 0.089929 -8.543163 -0.000001 0.411086 -0.098249 0.195895
    27 0.000000 -0.359713 0.000000 0.000000 0.000000 0.000000
    28 -0.170479 -2.636147 -0.277655 -1.692969 0.000000 0.000000
    29 0.010599 -1.261177 0.000001 -0.253073 0.000000 0.000000
    30 -0.000001 -0.943233 -0.000001 -0.532326 0.000000 0.000000
    31 -0.827563 -2.508972 -0.277656 -1.396263 0.000000 0.000000
    32 0.000000 -1.292971 0.000001 -0.445059 0.000000 0.000000
    33 0.000000 -0.752466 -0.000001 -0.445059 0.000000 0.000000
    34 0.444213 -2.561960 -0.277655 -1.727307 -0.046226 -0.024599
    35 0.021022 -1.208186 0.000000 -0.427606 0.000000 0.000000
    36 0.010597 -0.741867 -0.000001 -0.453786 0.000000 0.000000
    37 1.047445 -2.222821 -0.277655 -1.508123 -0.078971 -0.038609
    38 0.000000 -0.996223 0.000000 -0.863938 0.000000 0.000000
    39 -0.000001 -0.614690 0.000000 -0.523599 0.000000 0.000000
    40 -0.308254 -0.007813 0.307166 -0.001726 -0.233854 -2.629401
    41 1.978378 0.019543 0.000000 -0.102806 -0.019953 0.358794
    42 0.982428 0.003186 -0.000001 0.000000 0.000000 0.111710
end
