version 1
nodes
  0 "throwing knife-1_p" -1
end
skeleton
  time 0
    0 -1.551036 -0.527313 1.597204 -1.510105 -0.077492 -0.484590
end
triangles
tknife1.bmp
  0 -1.356716 2.919699 1.074375 -0.017137 0.171175 -0.985092 0.858268 0.324853
  0 -0.165782 1.961225 0.740903 -0.110410 0.132808 -0.984973 0.496063 0.346380
  0 -1.493783 2.721130 1.057539 -0.096559 0.055273 -0.993791 0.858268 0.340509
tknife1.bmp
  0 -1.493783 2.721130 1.057539 -0.096559 0.055273 -0.993791 0.858268 0.340509
  0 -0.165782 1.961225 0.740903 -0.110410 0.132808 -0.984973 0.496063 0.346380
  0 -1.319440 2.257095 1.066227 -0.168421 -0.013762 -0.985619 0.787402 0.362035
tknife1.bmp
  0 -0.165782 1.961225 0.740903 -0.110410 0.132808 -0.984973 0.496063 0.346380
  0 -0.437674 1.438824 0.705224 -0.145196 0.147736 -0.978311 0.496063 0.379648
  0 -1.319440 2.257095 1.066227 -0.168421 -0.013762 -0.985619 0.787402 0.362035
tknife1.bmp
  0 -1.319440 2.257095 1.066227 -0.168421 -0.013762 -0.985619 0.787402 0.362035
  0 -0.437674 1.438824 0.705224 -0.145196 0.147736 -0.978311 0.496063 0.379648
  0 -1.419765 1.869979 1.049610 -0.110410 0.132808 -0.984973 0.763780 0.379648
tknife1.bmp
  0 -0.437674 1.438824 0.705224 -0.145196 0.147736 -0.978311 0.496063 0.379648
  0 -0.672699 0.987258 0.674383 -0.110410 0.132808 -0.984973 0.496063 0.407045
  0 -1.419765 1.869979 1.049610 -0.110410 0.132808 -0.984973 0.763780 0.379648
tknife1.bmp
  0 -1.419765 1.869979 1.049610 -0.110410 0.132808 -0.984973 0.763780 0.379648
  0 -0.672699 0.987258 0.674383 -0.110410 0.132808 -0.984973 0.496063 0.407045
  0 -1.793182 1.649195 1.009430 0.038819 0.243950 -0.969011 0.811024 0.399217
tknife1.bmp
  0 -0.672699 0.987258 0.674383 -0.110410 0.132808 -0.984973 0.496063 0.407045
  0 -0.976848 0.402878 0.634472 -0.067294 0.107600 -0.991914 0.496063 0.446184
  0 -1.793182 1.649195 1.009430 0.038819 0.243950 -0.969011 0.811024 0.399217
tknife1.bmp
  0 -1.793182 1.649195 1.009430 0.038819 0.243950 -0.969011 0.811024 0.399217
  0 -0.976848 0.402878 0.634472 -0.067294 0.107600 -0.991914 0.496063 0.446184
  0 -2.411645 1.670221 0.949750 0.004387 0.137737 -0.990459 0.929134 0.418787
tknife1.bmp
  0 -0.976848 0.402878 0.634472 -0.067294 0.107600 -0.991914 0.496063 0.446184
  0 -2.575698 1.203852 0.925538 -0.096559 0.055273 -0.993791 0.921260 0.446184
  0 -2.411645 1.670221 0.949750 0.004387 0.137737 -0.990459 0.929134 0.418787
tknife1.bmp
  0 -2.575698 1.203852 0.925538 -0.286076 0.020611 0.957985 0.921260 0.446184
  0 -1.058984 0.387855 1.480361 -0.257176 0.072870 0.963613 0.496063 0.446184
  0 -2.411645 1.670221 0.949750 -0.186656 0.102796 0.977033 0.929134 0.418787
tknife1.bmp
  0 -2.411645 1.670221 0.949750 -0.186656 0.102796 0.977033 0.929134 0.418787
  0 -1.058984 0.387855 1.480361 -0.257176 0.072870 0.963613 0.496063 0.446184
  0 -1.793182 1.649195 1.009430 -0.149105 0.209579 0.966356 0.811024 0.399217
tknife1.bmp
  0 -1.058984 0.387855 1.480361 -0.257176 0.072870 0.963613 0.496063 0.446184
  0 -0.754835 0.972235 1.520272 -0.298306 0.098421 0.949382 0.496063 0.407045
  0 -1.793182 1.649195 1.009430 -0.149105 0.209579 0.966356 0.811024 0.399217
tknife1.bmp
  0 -1.793182 1.649195 1.009430 -0.149105 0.209579 0.966356 0.811024 0.399217
  0 -0.754835 0.972235 1.520272 -0.298306 0.098421 0.949382 0.496063 0.407045
  0 -1.419765 1.869979 1.049610 -0.298306 0.098421 0.949382 0.763780 0.379648
tknife1.bmp
  0 -0.754835 0.972235 1.520272 -0.298306 0.098421 0.949382 0.496063 0.407045
  0 -0.519810 1.423802 1.551113 -0.331144 0.113726 0.936702 0.496063 0.379648
  0 -1.419765 1.869979 1.049610 -0.298306 0.098421 0.949382 0.763780 0.379648
tknife1.bmp
  0 -1.419765 1.869979 1.049610 -0.298306 0.098421 0.949382 0.763780 0.379648
  0 -0.519810 1.423802 1.551113 -0.331144 0.113726 0.936702 0.496063 0.379648
  0 -1.319440 2.257095 1.066227 -0.354789 -0.047848 0.933721 0.787402 0.362035
tknife1.bmp
  0 -0.519810 1.423802 1.551113 -0.331144 0.113726 0.936702 0.496063 0.379648
  0 -0.247918 1.946202 1.586792 -0.298306 0.098421 0.949382 0.496063 0.346380
  0 -1.319440 2.257095 1.066227 -0.354789 -0.047848 0.933721 0.787402 0.362035
tknife1.bmp
  0 -1.319440 2.257095 1.066227 -0.354789 -0.047848 0.933721 0.787402 0.362035
  0 -0.247918 1.946202 1.586792 -0.298306 0.098421 0.949382 0.496063 0.346380
  0 -1.493783 2.721130 1.057539 -0.286076 0.020611 0.957985 0.858268 0.340509
tknife1.bmp
  0 -0.247918 1.946202 1.586792 -0.298306 0.098421 0.949382 0.496063 0.346380
  0 -1.356716 2.919699 1.074375 -0.206860 0.136475 0.968805 0.858268 0.324853
  0 -1.493783 2.721130 1.057539 -0.286076 0.020611 0.957985 0.858268 0.340509
tknife1.bmp
  0 -1.003371 2.464126 0.256511 -0.096559 0.055273 -0.993791 0.858268 0.324853
  0 0.518649 2.661743 -0.014232 -0.109789 -0.088672 -0.989992 0.496063 0.346380
  0 -0.953990 2.235082 0.257238 -0.067688 -0.100311 -0.992651 0.858268 0.340509
tknife1.bmp
  0 -0.953990 2.235082 0.257238 -0.067688 -0.100311 -0.992651 0.858268 0.340509
  0 0.518649 2.661743 -0.014232 -0.109789 -0.088672 -0.989992 0.496063 0.346380
  0 -0.494451 2.038276 0.298365 -0.069445 -0.199718 -0.977389 0.787402 0.362035
tknife1.bmp
  0 0.518649 2.661743 -0.014232 -0.109789 -0.088672 -0.989992 0.496063 0.346380
  0 0.704844 2.112506 -0.005906 -0.169251 -0.072283 -0.982919 0.496063 0.379648
  0 -0.494451 2.038276 0.298365 -0.069445 -0.199718 -0.977389 0.787402 0.362035
tknife1.bmp
  0 -0.494451 2.038276 0.298365 -0.069445 -0.199718 -0.977389 0.787402 0.362035
  0 0.704844 2.112506 -0.005906 -0.169251 -0.072283 -0.982919 0.496063 0.379648
  0 -0.286666 1.703279 0.312591 -0.141811 -0.039985 -0.989086 0.763780 0.379648
tknife1.bmp
  0 0.704844 2.112506 -0.005906 -0.169251 -0.072283 -0.982919 0.496063 0.379648
  0 0.878793 1.626117 0.002346 -0.141811 -0.039985 -0.989086 0.496063 0.407045
  0 -0.286666 1.703279 0.312591 -0.141811 -0.039985 -0.989086 0.763780 0.379648
tknife1.bmp
  0 -0.286666 1.703279 0.312591 -0.141811 -0.039985 -0.989086 0.763780 0.379648
  0 0.878793 1.626117 0.002346 -0.141811 -0.039985 -0.989086 0.496063 0.407045
  0 -0.387387 1.293810 0.295539 -0.067294 0.107600 -0.991914 0.811024 0.399217
tknife1.bmp
  0 0.878793 1.626117 0.002346 -0.141811 -0.039985 -0.989086 0.496063 0.407045
  0 1.094879 1.004741 0.012292 -0.083593 -0.045342 -0.995468 0.496063 0.446184
  0 -0.387387 1.293810 0.295539 -0.067294 0.107600 -0.991914 0.811024 0.399217
tknife1.bmp
  0 -0.387387 1.293810 0.295539 -0.067294 0.107600 -0.991914 0.811024 0.399217
  0 1.094879 1.004741 0.012292 -0.083593 -0.045342 -0.995468 0.496063 0.446184
  0 -0.813862 0.841511 0.246095 -0.054663 0.032687 -0.997970 0.929134 0.418787
tknife1.bmp
  0 1.094879 1.004741 0.012292 -0.083593 -0.045342 -0.995468 0.496063 0.446184
  0 -0.603442 0.403604 0.258750 -0.067688 -0.100311 -0.992651 0.921260 0.446184
  0 -0.813862 0.841511 0.246095 -0.054663 0.032687 -0.997970 0.929134 0.418787
tknife1.bmp
  0 -0.603442 0.403604 0.258750 -0.256994 -0.134936 0.956946 0.921260 0.446184
  0 1.013709 0.989895 0.848230 -0.273331 -0.080045 0.958584 0.496063 0.446184
  0 -0.813862 0.841511 0.246095 -0.245690 -0.002253 0.969346 0.929134 0.418787
tknife1.bmp
  0 -0.813862 0.841511 0.246095 -0.245690 -0.002253 0.969346 0.929134 0.418787
  0 1.013709 0.989895 0.848230 -0.273331 -0.080045 0.958584 0.496063 0.446184
  0 -0.387387 1.293810 0.295539 -0.257176 0.072870 0.963613 0.811024 0.399217
tknife1.bmp
  0 1.013709 0.989895 0.848230 -0.273331 -0.080045 0.958584 0.496063 0.446184
  0 0.797623 1.611271 0.838283 -0.329253 -0.074269 0.941316 0.496063 0.407045
  0 -0.387387 1.293810 0.295539 -0.257176 0.072870 0.963613 0.811024 0.399217
tknife1.bmp
  0 -0.387387 1.293810 0.295539 -0.257176 0.072870 0.963613 0.811024 0.399217
  0 0.797623 1.611271 0.838283 -0.329253 -0.074269 0.941316 0.496063 0.407045
  0 -0.286666 1.703279 0.312591 -0.329253 -0.074269 0.941316 0.763780 0.379648
tknife1.bmp
  0 0.797623 1.611271 0.838283 -0.329253 -0.074269 0.941316 0.496063 0.407045
  0 0.623674 2.097659 0.830031 -0.354884 -0.106236 0.928855 0.496063 0.379648
  0 -0.286666 1.703279 0.312591 -0.329253 -0.074269 0.941316 0.763780 0.379648
tknife1.bmp
  0 -0.286666 1.703279 0.312591 -0.329253 -0.074269 0.941316 0.763780 0.379648
  0 0.623674 2.097659 0.830031 -0.354884 -0.106236 0.928855 0.496063 0.379648
  0 -0.494451 2.038276 0.298365 -0.255443 -0.233737 0.938145 0.787402 0.362035
tknife1.bmp
  0 0.623674 2.097659 0.830031 -0.354884 -0.106236 0.928855 0.496063 0.379648
  0 0.437479 2.646897 0.821706 -0.297837 -0.123067 0.946651 0.496063 0.346380
  0 -0.494451 2.038276 0.298365 -0.255443 -0.233737 0.938145 0.787402 0.362035
tknife1.bmp
  0 -0.494451 2.038276 0.298365 -0.255443 -0.233737 0.938145 0.787402 0.362035
  0 0.437479 2.646897 0.821706 -0.297837 -0.123067 0.946651 0.496063 0.346380
  0 -0.953990 2.235082 0.257238 -0.256994 -0.134936 0.956946 0.858268 0.340509
tknife1.bmp
  0 0.437479 2.646897 0.821706 -0.297837 -0.123067 0.946651 0.496063 0.346380
  0 -1.003371 2.464126 0.256511 -0.286076 0.020611 0.957985 0.858268 0.324853
  0 -0.953990 2.235082 0.257238 -0.256994 -0.134936 0.956946 0.858268 0.340509
tknife1.bmp
  0 -0.351566 -1.929842 1.085848 0.255877 -0.059219 -0.964894 0.102362 0.544031
  0 -1.672706 -0.934112 0.543159 0.255877 -0.059219 -0.964894 0.496063 0.530333
  0 -0.378695 -1.701233 1.087274 0.305143 0.027513 -0.951909 0.125984 0.534247
tknife1.bmp
  0 -0.378695 -1.701233 1.087274 0.305143 0.027513 -0.951909 0.125984 0.534247
  0 -1.672706 -0.934112 0.543159 0.255877 -0.059219 -0.964894 0.496063 0.530333
  0 -0.329850 -1.456220 1.096368 0.255877 -0.059219 -0.964894 0.141732 0.520548
tknife1.bmp
  0 -1.672706 -0.934112 0.543159 0.255877 -0.059219 -0.964894 0.496063 0.530333
  0 -1.386990 -0.385149 0.580652 0.255877 -0.059219 -0.964894 0.496063 0.495108
  0 -0.329850 -1.456220 1.096368 0.255877 -0.059219 -0.964894 0.141732 0.520548
tknife1.bmp
  0 -0.329850 -1.456220 1.096368 0.255877 -0.059219 -0.964894 0.141732 0.520548
  0 -1.386990 -0.385149 0.580652 0.255877 -0.059219 -0.964894 0.496063 0.495108
  0 -0.148547 -1.021492 1.121694 0.255877 -0.059219 -0.964894 0.141732 0.495108
tknife1.bmp
  0 -1.386990 -0.385149 0.580652 0.255877 -0.059219 -0.964894 0.496063 0.495108
  0 -0.976848 0.402878 0.634472 0.255877 -0.059219 -0.964894 0.496063 0.446184
  0 -0.148547 -1.021492 1.121694 0.255877 -0.059219 -0.964894 0.141732 0.495108
tknife1.bmp
  0 -0.148547 -1.021492 1.121694 0.255877 -0.059219 -0.964894 0.141732 0.495108
  0 -0.976848 0.402878 0.634472 0.255877 -0.059219 -0.964894 0.496063 0.446184
  0 0.156266 -0.651788 1.157857 0.234782 -0.119164 -0.964716 0.118110 0.467710
tknife1.bmp
  0 -0.976848 0.402878 0.634472 0.255877 -0.059219 -0.964894 0.496063 0.446184
  0 0.529683 -0.431004 1.198037 0.234782 -0.119164 -0.964716 0.070866 0.446184
  0 0.156266 -0.651788 1.157857 0.234782 -0.119164 -0.964716 0.118110 0.467710
tknife1.bmp
  0 1.236983 1.554223 1.301973 0.305143 0.027513 -0.951909 0.133858 0.322896
  0 -0.165782 1.961225 0.740903 0.286798 -0.106376 -0.952067 0.496063 0.346380
  0 1.091741 1.901414 1.294036 0.310665 0.100834 -0.945156 0.196850 0.307241
tknife1.bmp
  0 1.091741 1.901414 1.294036 0.310665 0.100834 -0.945156 0.196850 0.307241
  0 -0.165782 1.961225 0.740903 0.286798 -0.106376 -0.952067 0.496063 0.346380
  0 1.012469 2.202596 1.291688 0.345422 0.009454 -0.938400 0.244094 0.295499
tknife1.bmp
  0 -0.165782 1.961225 0.740903 0.286798 -0.106376 -0.952067 0.496063 0.346380
  0 0.229568 2.722513 0.802860 0.335566 -0.105228 -0.936121 0.496063 0.297456
  0 1.012469 2.202596 1.291688 0.345422 0.009454 -0.938400 0.244094 0.295499
tknife1.bmp
  0 1.012469 2.202596 1.291688 0.345422 0.009454 -0.938400 0.244094 0.295499
  0 0.229568 2.722513 0.802860 0.335566 -0.105228 -0.936121 0.496063 0.297456
  0 1.034848 2.461542 1.298460 0.380897 -0.066560 -0.922219 0.267717 0.283757
tknife1.bmp
  0 0.229568 2.722513 0.802860 0.335566 -0.105228 -0.936121 0.496063 0.297456
  0 1.759533 5.662121 1.003627 0.362323 -0.125617 -0.923549 0.496063 0.109589
  0 1.034848 2.461542 1.298460 0.380897 -0.066560 -0.922219 0.267717 0.283757
tknife1.bmp
  0 1.034848 2.461542 1.298460 0.380897 -0.066560 -0.922219 0.267717 0.283757
  0 1.759533 5.662121 1.003627 0.362323 -0.125617 -0.923549 0.496063 0.109589
  0 2.486472 5.250629 1.488947 0.362323 -0.125617 -0.923549 0.267717 0.111546
tknife1.bmp
  0 1.759533 5.662121 1.003627 0.362323 -0.125617 -0.923549 0.496063 0.109589
  0 2.739930 5.737612 1.522206 0.304295 -0.149512 -0.940771 0.251969 0.078278
  0 2.486472 5.250629 1.488947 0.362323 -0.125617 -0.923549 0.267717 0.111546
tknife1.bmp
  0 0.529683 -0.431004 1.198037 0.045265 -0.153827 0.987060 0.070866 0.446184
  0 -1.058984 0.387855 1.480361 0.065726 -0.093997 0.993401 0.496063 0.446184
  0 0.156266 -0.651788 1.157857 0.045265 -0.153827 0.987060 0.118110 0.467710
tknife1.bmp
  0 0.156266 -0.651788 1.157857 0.045265 -0.153827 0.987060 0.118110 0.467710
  0 -1.058984 0.387855 1.480361 0.065726 -0.093997 0.993401 0.496063 0.446184
  0 -0.148547 -1.021492 1.121694 0.065726 -0.093997 0.993401 0.141732 0.495108
tknife1.bmp
  0 -1.058984 0.387855 1.480361 0.065726 -0.093997 0.993401 0.496063 0.446184
  0 -1.469126 -0.400172 1.426541 0.065726 -0.093997 0.993401 0.496063 0.495108
  0 -0.148547 -1.021492 1.121694 0.065726 -0.093997 0.993401 0.141732 0.495108
tknife1.bmp
  0 -0.148547 -1.021492 1.121694 0.065726 -0.093997 0.993401 0.141732 0.495108
  0 -1.469126 -0.400172 1.426541 0.065726 -0.093997 0.993401 0.496063 0.495108
  0 -0.329850 -1.456220 1.096368 0.065726 -0.093997 0.993401 0.141732 0.520548
tknife1.bmp
  0 -1.469126 -0.400172 1.426541 0.065726 -0.093997 0.993401 0.496063 0.495108
  0 -1.754842 -0.949135 1.389048 0.065726 -0.093997 0.993401 0.496063 0.530333
  0 -0.329850 -1.456220 1.096368 0.065726 -0.093997 0.993401 0.141732 0.520548
tknife1.bmp
  0 -0.329850 -1.456220 1.096368 0.065726 -0.093997 0.993401 0.141732 0.520548
  0 -1.754842 -0.949135 1.389048 0.065726 -0.093997 0.993401 0.496063 0.530333
  0 -0.378695 -1.701233 1.087274 0.116274 -0.007031 0.993192 0.125984 0.534247
tknife1.bmp
  0 -1.754842 -0.949135 1.389048 0.065726 -0.093997 0.993401 0.496063 0.530333
  0 -0.351566 -1.929842 1.085848 0.065726 -0.093997 0.993401 0.102362 0.544031
  0 -0.378695 -1.701233 1.087274 0.116274 -0.007031 0.993192 0.125984 0.534247
tknife1.bmp
  0 3.211891 -0.104727 0.620192 0.263118 0.088529 -0.960693 0.102362 0.544031
  0 1.603688 -0.436281 0.036106 0.263118 0.088529 -0.960693 0.496063 0.530333
  0 3.031629 0.024014 0.604975 0.235538 0.182938 -0.954492 0.125984 0.534247
tknife1.bmp
  0 3.031629 0.024014 0.604975 0.235538 0.182938 -0.954492 0.125984 0.534247
  0 1.603688 -0.436281 0.036106 0.263118 0.088529 -0.960693 0.496063 0.530333
  0 2.879412 0.228234 0.593822 0.263118 0.088529 -0.960693 0.141732 0.520548
tknife1.bmp
  0 1.603688 -0.436281 0.036106 0.263118 0.088529 -0.960693 0.496063 0.530333
  0 1.391816 0.171596 0.026329 0.263118 0.088529 -0.960693 0.496063 0.495108
  0 2.879412 0.228234 0.593822 0.263118 0.088529 -0.960693 0.141732 0.520548
tknife1.bmp
  0 2.879412 0.228234 0.593822 0.263118 0.088529 -0.960693 0.141732 0.520548
  0 1.391816 0.171596 0.026329 0.263118 0.088529 -0.960693 0.496063 0.495108
  0 2.682422 0.670351 0.582546 0.263118 0.088529 -0.960693 0.141732 0.495108
tknife1.bmp
  0 1.391816 0.171596 0.026329 0.263118 0.088529 -0.960693 0.496063 0.495108
  0 1.094879 1.004741 0.012292 0.263118 0.088529 -0.960693 0.496063 0.446184
  0 2.682422 0.670351 0.582546 0.263118 0.088529 -0.960693 0.141732 0.495108
tknife1.bmp
  0 2.682422 0.670351 0.582546 0.263118 0.088529 -0.960693 0.141732 0.495108
  0 1.094879 1.004741 0.012292 0.263118 0.088529 -0.960693 0.496063 0.446184
  0 2.628559 1.149922 0.585833 0.245719 0.010686 -0.969282 0.118110 0.467710
tknife1.bmp
  0 1.094879 1.004741 0.012292 0.263118 0.088529 -0.960693 0.496063 0.446184
  0 2.716243 1.577534 0.601941 0.245719 0.010686 -0.969282 0.070866 0.446184
  0 2.628559 1.149922 0.585833 0.245719 0.010686 -0.969282 0.118110 0.467710
tknife1.bmp
  0 1.756449 3.447747 0.541960 0.235538 0.182938 -0.954492 0.133858 0.322896
  0 0.518649 2.661743 -0.014232 0.310665 0.100834 -0.945156 0.496063 0.346380
  0 1.393559 3.571112 0.508914 0.187616 0.234963 -0.953726 0.196850 0.307241
tknife1.bmp
  0 1.393559 3.571112 0.508914 0.187616 0.234963 -0.953726 0.196850 0.307241
  0 0.518649 2.661743 -0.014232 0.310665 0.100834 -0.945156 0.496063 0.346380
  0 1.129291 3.732799 0.486125 0.277685 0.200215 -0.939577 0.244094 0.295499
tknife1.bmp
  0 0.518649 2.661743 -0.014232 0.310665 0.100834 -0.945156 0.496063 0.346380
  0 0.243570 3.472101 -0.026550 0.351918 0.115425 -0.928887 0.496063 0.297456
  0 1.129291 3.732799 0.486125 0.277685 0.200215 -0.939577 0.244094 0.295499
tknife1.bmp
  0 1.129291 3.732799 0.486125 0.277685 0.200215 -0.939577 0.244094 0.295499
  0 0.243570 3.472101 -0.026550 0.351918 0.115425 -0.928887 0.496063 0.297456
  0 0.959035 3.923955 0.472988 0.354106 0.179708 -0.917777 0.267717 0.283757
tknife1.bmp
  0 0.243570 3.472101 -0.026550 0.351918 0.115425 -0.928887 0.496063 0.297456
  0 -0.858719 6.601768 -0.078000 0.383365 0.126633 -0.914875 0.496063 0.109589
  0 0.959035 3.923955 0.472988 0.354106 0.179708 -0.917777 0.267717 0.283757
tknife1.bmp
  0 0.959035 3.923955 0.472988 0.354106 0.179708 -0.917777 0.267717 0.283757
  0 -0.858719 6.601768 -0.078000 0.383365 0.126633 -0.914875 0.496063 0.109589
  0 -0.083867 6.886992 0.424345 0.383365 0.126633 -0.914875 0.267717 0.111546
tknife1.bmp
  0 -0.858719 6.601768 -0.078000 0.383365 0.126633 -0.914875 0.496063 0.109589
  0 -0.261634 7.409232 0.416358 0.361315 0.066411 -0.930076 0.251969 0.078278
  0 -0.083867 6.886992 0.424345 0.383365 0.126633 -0.914875 0.267717 0.111546
tknife1.bmp
  0 2.716243 1.577534 0.601941 0.054676 -0.024256 0.998209 0.070866 0.446184
  0 1.013709 0.989895 0.848230 0.073136 0.053781 0.995871 0.496063 0.446184
  0 2.628559 1.149922 0.585833 0.054676 -0.024256 0.998209 0.118110 0.467710
tknife1.bmp
  0 2.628559 1.149922 0.585833 0.054676 -0.024256 0.998209 0.118110 0.467710
  0 1.013709 0.989895 0.848230 0.073136 0.053781 0.995871 0.496063 0.446184
  0 2.682422 0.670351 0.582546 0.073136 0.053781 0.995871 0.141732 0.495108
tknife1.bmp
  0 1.013709 0.989895 0.848230 0.073136 0.053781 0.995871 0.496063 0.446184
  0 1.310646 0.156750 0.862266 0.073136 0.053781 0.995871 0.496063 0.495108
  0 2.682422 0.670351 0.582546 0.073136 0.053781 0.995871 0.141732 0.495108
tknife1.bmp
  0 2.682422 0.670351 0.582546 0.073136 0.053781 0.995871 0.141732 0.495108
  0 1.310646 0.156750 0.862266 0.073136 0.053781 0.995871 0.496063 0.495108
  0 2.879412 0.228234 0.593822 0.073136 0.053781 0.995871 0.141732 0.520548
tknife1.bmp
  0 1.310646 0.156750 0.862266 0.073136 0.053781 0.995871 0.496063 0.495108
  0 1.522518 -0.451127 0.872043 0.073136 0.053781 0.995871 0.496063 0.530333
  0 2.879412 0.228234 0.593822 0.073136 0.053781 0.995871 0.141732 0.520548
tknife1.bmp
  0 2.879412 0.228234 0.593822 0.073136 0.053781 0.995871 0.141732 0.520548
  0 1.522518 -0.451127 0.872043 0.073136 0.053781 0.995871 0.496063 0.530333
  0 3.031629 0.024014 0.604975 0.046941 0.148443 0.987806 0.125984 0.534247
tknife1.bmp
  0 1.522518 -0.451127 0.872043 0.073136 0.053781 0.995871 0.496063 0.530333
  0 3.211891 -0.104727 0.620192 0.073136 0.053781 0.995871 0.102362 0.544031
  0 3.031629 0.024014 0.604975 0.046941 0.148443 0.987806 0.125984 0.534247
tknife1.bmp
  0 -4.697706 -6.638701 0.791228 0.118189 -0.183551 0.975879 0.496063 0.886497
  0 -3.091975 -5.597122 0.754623 0.118189 -0.183551 0.975879 0.275591 0.796477
  0 -3.952049 -5.172432 1.090645 0.118189 -0.183551 0.975879 0.496063 0.794521
tknife1.bmp
  0 -3.952049 -5.172432 1.090645 0.118189 -0.183551 0.975879 0.496063 0.794521
  0 -3.091975 -5.597122 0.754623 0.118189 -0.183551 0.975879 0.275591 0.796477
  0 -3.312458 -3.941869 1.184652 0.098698 -0.140780 0.985109 0.496063 0.718200
tknife1.bmp
  0 -3.091975 -5.597122 0.754623 0.118189 -0.183551 0.975879 0.275591 0.796477
  0 -1.991752 -4.303808 0.884424 0.098698 -0.140780 0.985109 0.188976 0.704501
  0 -3.312458 -3.941869 1.184652 0.098698 -0.140780 0.985109 0.496063 0.718200
tknife1.bmp
  0 -3.312458 -3.941869 1.184652 0.098698 -0.140780 0.985109 0.496063 0.718200
  0 -1.991752 -4.303808 0.884424 0.098698 -0.140780 0.985109 0.188976 0.704501
  0 -2.671900 -2.711130 1.268709 0.065726 -0.093997 0.993401 0.496063 0.641879
tknife1.bmp
  0 -1.991752 -4.303808 0.884424 0.098698 -0.140780 0.985109 0.188976 0.704501
  0 -1.002003 -2.963614 1.004331 0.065726 -0.093997 0.993401 0.125984 0.612524
  0 -2.671900 -2.711130 1.268709 0.065726 -0.093997 0.993401 0.496063 0.641879
tknife1.bmp
  0 -2.671900 -2.711130 1.268709 0.065726 -0.093997 0.993401 0.496063 0.641879
  0 -1.002003 -2.963614 1.004331 0.065726 -0.093997 0.993401 0.125984 0.612524
  0 -0.351566 -1.929842 1.085848 0.065726 -0.093997 0.993401 0.102362 0.544031
tknife1.bmp
  0 -1.356716 2.919699 1.074375 -0.206860 0.136475 0.968805 0.858268 0.324853
  0 -0.247918 1.946202 1.586792 -0.298306 0.098421 0.949382 0.496063 0.346380
  0 -0.990275 2.997511 1.111338 -0.149105 0.209579 0.966356 0.795276 0.309198
tknife1.bmp
  0 -0.990275 2.997511 1.111338 -0.149105 0.209579 0.966356 0.795276 0.309198
  0 -0.247918 1.946202 1.586792 -0.298306 0.098421 0.949382 0.496063 0.346380
  0 -0.699020 3.103624 1.141504 -0.240127 0.186519 0.952654 0.748031 0.295499
tknife1.bmp
  0 -0.247918 1.946202 1.586792 -0.298306 0.098421 0.949382 0.496063 0.346380
  0 0.106923 2.627979 1.633355 -0.331144 0.113726 0.936702 0.496063 0.303327
  0 -0.699020 3.103624 1.141504 -0.240127 0.186519 0.952654 0.748031 0.295499
tknife1.bmp
  0 -0.699020 3.103624 1.141504 -0.240127 0.186519 0.952654 0.748031 0.295499
  0 0.106923 2.627979 1.633355 -0.331144 0.113726 0.936702 0.496063 0.303327
  0 -0.500199 3.269681 1.163759 -0.323741 0.168404 0.931038 0.724409 0.283757
tknife1.bmp
  0 0.106923 2.627979 1.633355 -0.331144 0.113726 0.936702 0.496063 0.303327
  0 0.185265 2.778501 1.643635 -0.362378 0.125461 0.923548 0.496063 0.291585
  0 -0.500199 3.269681 1.163759 -0.323741 0.168404 0.931038 0.724409 0.283757
tknife1.bmp
  0 -0.500199 3.269681 1.163759 -0.323741 0.168404 0.931038 0.724409 0.283757
  0 0.185265 2.778501 1.643635 -0.362378 0.125461 0.923548 0.496063 0.291585
  0 1.678364 5.647275 1.839565 -0.362378 0.125461 0.923548 0.496063 0.111546
tknife1.bmp
  0 -0.247918 1.946202 1.586792 0.098698 -0.140780 0.985109 0.496063 0.346380
  0 1.012469 2.202596 1.291688 0.156398 -0.022157 0.987446 0.244094 0.295499
  0 0.106923 2.627979 1.633355 0.149618 -0.139237 0.978891 0.496063 0.303327
tknife1.bmp
  0 -0.247918 1.946202 1.586792 0.098698 -0.140780 0.985109 0.496063 0.346380
  0 1.091741 1.901414 1.294036 0.122741 0.066463 0.990211 0.196850 0.307241
  0 1.012469 2.202596 1.291688 0.156398 -0.022157 0.987446 0.244094 0.295499
tknife1.bmp
  0 -0.247918 1.946202 1.586792 0.098698 -0.140780 0.985109 0.496063 0.346380
  0 1.236983 1.554223 1.301973 0.116274 -0.007031 0.993192 0.133858 0.322896
  0 1.091741 1.901414 1.294036 0.122741 0.066463 0.990211 0.196850 0.307241
tknife1.bmp
  0 -0.247918 1.946202 1.586792 0.098698 -0.140780 0.985109 0.496063 0.346380
  0 1.152849 1.327787 1.289782 0.045265 -0.153827 0.987060 0.125984 0.338552
  0 1.236983 1.554223 1.301973 0.116274 -0.007031 0.993192 0.133858 0.322896
tknife1.bmp
  0 -0.247918 1.946202 1.586792 0.098698 -0.140780 0.985109 0.496063 0.346380
  0 0.674356 1.207443 1.241183 0.030724 -0.250805 0.967550 0.204724 0.362035
  0 1.152849 1.327787 1.289782 0.045265 -0.153827 0.987060 0.125984 0.338552
tknife1.bmp
  0 -0.247918 1.946202 1.586792 0.098698 -0.140780 0.985109 0.496063 0.346380
  0 -0.519810 1.423802 1.551113 0.098698 -0.140780 0.985109 0.496063 0.379648
  0 0.674356 1.207443 1.241183 0.030724 -0.250805 0.967550 0.204724 0.362035
tknife1.bmp
  0 3.675360 -6.499624 0.762644 0.206495 -0.008839 0.978408 0.496063 0.886497
  0 4.022686 -4.615060 0.618818 0.175463 0.032418 0.983952 0.275591 0.796477
  0 3.105087 -4.927148 0.936169 0.175463 0.032418 0.983952 0.496063 0.794521
tknife1.bmp
  0 3.105087 -4.927148 0.936169 0.175463 0.032418 0.983952 0.496063 0.794521
  0 4.022686 -4.615060 0.618818 0.175463 0.032418 0.983952 0.275591 0.796477
  0 2.646271 -3.625935 0.924776 0.122741 0.066463 0.990211 0.496063 0.718200
tknife1.bmp
  0 4.022686 -4.615060 0.618818 0.175463 0.032418 0.983952 0.275591 0.796477
  0 3.825144 -2.943095 0.629331 0.111135 0.027997 0.993411 0.188976 0.704501
  0 2.646271 -3.625935 0.924776 0.122741 0.066463 0.990211 0.496063 0.718200
tknife1.bmp
  0 2.646271 -3.625935 0.924776 0.122741 0.066463 0.990211 0.496063 0.718200
  0 3.825144 -2.943095 0.629331 0.111135 0.027997 0.993411 0.188976 0.704501
  0 2.179599 -2.319899 0.902657 0.073136 0.053781 0.995871 0.496063 0.641879
tknife1.bmp
  0 3.825144 -2.943095 0.629331 0.111135 0.027997 0.993411 0.188976 0.704501
  0 3.529376 -1.287100 0.630022 0.073136 0.053781 0.995871 0.125984 0.612524
  0 2.179599 -2.319899 0.902657 0.073136 0.053781 0.995871 0.496063 0.641879
tknife1.bmp
  0 2.179599 -2.319899 0.902657 0.073136 0.053781 0.995871 0.496063 0.641879
  0 3.529376 -1.287100 0.630022 0.073136 0.053781 0.995871 0.125984 0.612524
  0 3.211891 -0.104727 0.620192 0.073136 0.053781 0.995871 0.102362 0.544031
tknife1.bmp
  0 -1.003371 2.464126 0.256511 -0.286076 0.020611 0.957985 0.858268 0.324853
  0 0.437479 2.646897 0.821706 -0.297837 -0.123067 0.946651 0.496063 0.346380
  0 -0.810611 2.791298 0.281039 -0.303000 0.062215 0.950958 0.795276 0.309198
tknife1.bmp
  0 -0.810611 2.791298 0.281039 -0.303000 0.062215 0.950958 0.795276 0.309198
  0 0.437479 2.646897 0.821706 -0.297837 -0.123067 0.946651 0.496063 0.346380
  0 -0.694219 3.079713 0.297463 -0.362444 0.029724 0.931531 0.748031 0.295499
tknife1.bmp
  0 0.437479 2.646897 0.821706 -0.297837 -0.123067 0.946651 0.496063 0.346380
  0 0.187683 3.376263 0.810404 -0.354884 -0.106236 0.928855 0.496063 0.303327
  0 -0.694219 3.079713 0.297463 -0.362444 0.029724 0.931531 0.748031 0.295499
tknife1.bmp
  0 -0.694219 3.079713 0.297463 -0.362444 0.029724 0.931531 0.748031 0.295499
  0 0.187683 3.376263 0.810404 -0.354884 -0.106236 0.928855 0.496063 0.303327
  0 -0.680662 3.343304 0.303460 -0.386932 -0.071229 0.919353 0.724409 0.283757
tknife1.bmp
  0 0.187683 3.376263 0.810404 -0.354884 -0.106236 0.928855 0.496063 0.303327
  0 0.132509 3.529393 0.807766 -0.383295 -0.126783 0.914883 0.496063 0.291585
  0 -0.680662 3.343304 0.303460 -0.386932 -0.071229 0.919353 0.724409 0.283757
tknife1.bmp
  0 -0.680662 3.343304 0.303460 -0.386932 -0.071229 0.919353 0.724409 0.283757
  0 0.132509 3.529393 0.807766 -0.383295 -0.126783 0.914883 0.496063 0.291585
  0 -0.939889 6.586921 0.757937 -0.383295 -0.126783 0.914883 0.496063 0.111546
tknife1.bmp
  0 0.437479 2.646897 0.821706 0.122741 0.066463 0.990211 0.496063 0.346380
  0 1.129291 3.732799 0.486125 0.087800 0.166424 0.982138 0.244094 0.295499
  0 0.187683 3.376263 0.810404 0.166302 0.081475 0.982703 0.496063 0.303327
tknife1.bmp
  0 0.437479 2.646897 0.821706 0.122741 0.066463 0.990211 0.496063 0.346380
  0 1.393559 3.571112 0.508914 -0.000116 0.200626 0.979668 0.196850 0.307241
  0 1.129291 3.732799 0.486125 0.087800 0.166424 0.982138 0.244094 0.295499
tknife1.bmp
  0 0.437479 2.646897 0.821706 0.122741 0.066463 0.990211 0.496063 0.346380
  0 1.756449 3.447747 0.541960 0.046941 0.148443 0.987806 0.133858 0.322896
  0 1.393559 3.571112 0.508914 -0.000116 0.200626 0.979668 0.196850 0.307241
tknife1.bmp
  0 0.437479 2.646897 0.821706 0.122741 0.066463 0.990211 0.496063 0.346380
  0 1.854944 3.226688 0.547598 0.116274 -0.007031 0.993192 0.125984 0.338552
  0 1.756449 3.447747 0.541960 0.046941 0.148443 0.987806 0.133858 0.322896
tknife1.bmp
  0 0.437479 2.646897 0.821706 0.122741 0.066463 0.990211 0.496063 0.346380
  0 1.620314 2.797475 0.517192 0.160665 -0.074735 0.984176 0.204724 0.362035
  0 1.854944 3.226688 0.547598 0.116274 -0.007031 0.993192 0.125984 0.338552
tknife1.bmp
  0 0.437479 2.646897 0.821706 0.122741 0.066463 0.990211 0.496063 0.346380
  0 0.623674 2.097659 0.830031 0.122741 0.066463 0.990211 0.496063 0.379648
  0 1.620314 2.797475 0.517192 0.160665 -0.074735 0.984176 0.204724 0.362035
tknife1.bmp
  0 -2.671669 0.306828 0.900288 -0.067294 0.107600 -0.991914 0.850394 0.495108
  0 -1.672706 -0.934112 0.543159 -0.067294 0.107600 -0.991914 0.496063 0.530333
  0 -2.923549 -0.090744 0.868770 -0.067294 0.107600 -0.991914 0.850394 0.520548
tknife1.bmp
  0 -2.923549 -0.090744 0.868770 -0.067294 0.107600 -0.991914 0.850394 0.520548
  0 -1.672706 -0.934112 0.543159 -0.067294 0.107600 -0.991914 0.496063 0.530333
  0 -3.095903 -0.270734 0.848837 -0.017137 0.171175 -0.985092 0.866142 0.534247
tknife1.bmp
  0 -1.672706 -0.934112 0.543159 -0.067294 0.107600 -0.991914 0.496063 0.530333
  0 -2.018331 -1.598181 0.497805 -0.067294 0.107600 -0.991914 0.496063 0.571429
  0 -3.095903 -0.270734 0.848837 -0.017137 0.171175 -0.985092 0.866142 0.534247
tknife1.bmp
  0 -3.095903 -0.270734 0.848837 -0.017137 0.171175 -0.985092 0.866142 0.534247
  0 -2.018331 -1.598181 0.497805 -0.067294 0.107600 -0.991914 0.496063 0.571429
  0 -3.298149 -0.378587 0.827284 0.004387 0.137737 -0.990459 0.889764 0.544031
tknife1.bmp
  0 -2.018331 -1.598181 0.497805 -0.067294 0.107600 -0.991914 0.496063 0.571429
  0 -3.772144 -1.505249 0.761249 -0.067294 0.107600 -0.991914 0.866142 0.612524
  0 -3.298149 -0.378587 0.827284 0.004387 0.137737 -0.990459 0.889764 0.544031
tknife1.bmp
  0 -3.871846 -5.157763 0.264659 0.304295 -0.149512 -0.940771 0.496063 0.794521
  0 -3.231288 -3.927023 0.348715 0.286798 -0.106376 -0.952067 0.496063 0.718200
  0 -3.091975 -5.597122 0.754623 0.304295 -0.149512 -0.940771 0.275591 0.796477
tknife1.bmp
  0 -3.091975 -5.597122 0.754623 0.304295 -0.149512 -0.940771 0.275591 0.796477
  0 -3.231288 -3.927023 0.348715 0.286798 -0.106376 -0.952067 0.496063 0.718200
  0 -1.991752 -4.303808 0.884424 0.286798 -0.106376 -0.952067 0.188976 0.704501
tknife1.bmp
  0 -3.231288 -3.927023 0.348715 0.286798 -0.106376 -0.952067 0.496063 0.718200
  0 -2.589764 -2.696107 0.422820 0.255877 -0.059219 -0.964894 0.496063 0.641879
  0 -1.991752 -4.303808 0.884424 0.286798 -0.106376 -0.952067 0.188976 0.704501
tknife1.bmp
  0 -1.991752 -4.303808 0.884424 0.286798 -0.106376 -0.952067 0.188976 0.704501
  0 -2.589764 -2.696107 0.422820 0.255877 -0.059219 -0.964894 0.496063 0.641879
  0 -1.002003 -2.963614 1.004331 0.255877 -0.059219 -0.964894 0.125984 0.612524
tknife1.bmp
  0 -2.589764 -2.696107 0.422820 0.255877 -0.059219 -0.964894 0.496063 0.641879
  0 -0.351566 -1.929842 1.085848 0.255877 -0.059219 -0.964894 0.102362 0.544031
  0 -1.002003 -2.963614 1.004331 0.255877 -0.059219 -0.964894 0.125984 0.612524
tknife1.bmp
  0 1.430692 6.979609 1.417136 -0.029674 0.320168 -0.946896 0.708661 0.043053
  0 2.123592 6.361607 1.051400 -0.071531 0.268258 -0.960688 0.496063 0.064579
  0 1.214227 6.822841 1.393333 -0.145196 0.147736 -0.978311 0.755906 0.064579
tknife1.bmp
  0 1.214227 6.822841 1.393333 -0.145196 0.147736 -0.978311 0.755906 0.064579
  0 2.123592 6.361607 1.051400 -0.071531 0.268258 -0.960688 0.496063 0.064579
  0 1.204884 6.545751 1.387505 -0.163389 0.096705 -0.981811 0.748031 0.078278
tknife1.bmp
  0 2.123592 6.361607 1.051400 -0.071531 0.268258 -0.960688 0.496063 0.064579
  0 1.759533 5.662121 1.003627 -0.178435 0.159125 -0.971000 0.496063 0.111546
  0 1.204884 6.545751 1.387505 -0.163389 0.096705 -0.981811 0.748031 0.078278
tknife1.bmp
  0 1.204884 6.545751 1.387505 -0.163389 0.096705 -0.981811 0.748031 0.078278
  0 1.759533 5.662121 1.003627 -0.178435 0.159125 -0.971000 0.496063 0.111546
  0 0.951425 6.058767 1.354245 -0.178435 0.159125 -0.971000 0.724409 0.111546
tknife1.bmp
  0 1.759533 5.662121 1.003627 -0.178435 0.159125 -0.971000 0.496063 0.111546
  0 -0.500199 3.269681 1.163759 -0.140608 0.207861 -0.968000 0.724409 0.283757
  0 0.951425 6.058767 1.354245 -0.178435 0.159125 -0.971000 0.724409 0.111546
tknife1.bmp
  0 0.447633 0.469498 1.206063 0.310665 0.100834 -0.945156 0.173228 0.399217
  0 -0.437674 1.438824 0.705224 0.286798 -0.106376 -0.952067 0.496063 0.379648
  0 0.415232 0.903928 1.210632 0.380897 -0.066560 -0.922219 0.220472 0.379648
tknife1.bmp
  0 0.415232 0.903928 1.210632 0.380897 -0.066560 -0.922219 0.220472 0.379648
  0 -0.437674 1.438824 0.705224 0.286798 -0.106376 -0.952067 0.496063 0.379648
  0 0.674356 1.207443 1.241183 0.217092 -0.216718 -0.951790 0.204724 0.362035
tknife1.bmp
  0 -0.437674 1.438824 0.705224 0.286798 -0.106376 -0.952067 0.496063 0.379648
  0 -0.165782 1.961225 0.740903 0.286798 -0.106376 -0.952067 0.496063 0.346380
  0 0.674356 1.207443 1.241183 0.217092 -0.216718 -0.951790 0.204724 0.362035
tknife1.bmp
  0 0.674356 1.207443 1.241183 0.217092 -0.216718 -0.951790 0.204724 0.362035
  0 -0.165782 1.961225 0.740903 0.286798 -0.106376 -0.952067 0.496063 0.346380
  0 1.152849 1.327787 1.289782 0.234782 -0.119164 -0.964716 0.125984 0.338552
tknife1.bmp
  0 -0.165782 1.961225 0.740903 0.286798 -0.106376 -0.952067 0.496063 0.346380
  0 1.236983 1.554223 1.301973 0.305143 0.027513 -0.951909 0.133858 0.322896
  0 1.152849 1.327787 1.289782 0.234782 -0.119164 -0.964716 0.125984 0.338552
tknife1.bmp
  0 2.965738 6.171470 1.551838 0.225573 0.056225 0.972602 0.283465 0.045010
  0 2.042422 6.346761 1.887338 0.206495 -0.008839 0.978408 0.496063 0.064579
  0 2.961003 5.903234 1.546614 0.149618 -0.139237 0.978891 0.236220 0.064579
tknife1.bmp
  0 2.961003 5.903234 1.546614 0.149618 -0.139237 0.978891 0.236220 0.064579
  0 2.042422 6.346761 1.887338 0.206495 -0.008839 0.978408 0.496063 0.064579
  0 2.739930 5.737612 1.522206 0.118189 -0.183551 0.975879 0.251969 0.078278
tknife1.bmp
  0 2.042422 6.346761 1.887338 0.206495 -0.008839 0.978408 0.496063 0.064579
  0 1.678364 5.647275 1.839565 0.178338 -0.159259 0.970995 0.496063 0.109589
  0 2.739930 5.737612 1.522206 0.118189 -0.183551 0.975879 0.251969 0.078278
tknife1.bmp
  0 2.739930 5.737612 1.522206 0.118189 -0.183551 0.975879 0.251969 0.078278
  0 1.678364 5.647275 1.839565 0.178338 -0.159259 0.970995 0.496063 0.109589
  0 2.486472 5.250629 1.488947 0.178338 -0.159259 0.970995 0.267717 0.111546
tknife1.bmp
  0 1.678364 5.647275 1.839565 0.178338 -0.159259 0.970995 0.496063 0.109589
  0 1.034848 2.461542 1.298460 0.191093 -0.102515 0.976204 0.267717 0.283757
  0 2.486472 5.250629 1.488947 0.178338 -0.159259 0.970995 0.267717 0.111546
tknife1.bmp
  0 -0.500199 3.269681 1.163759 -0.323741 0.168404 0.931038 0.724409 0.283757
  0 1.678364 5.647275 1.839565 -0.362378 0.125461 0.923548 0.496063 0.111546
  0 0.951425 6.058767 1.354245 -0.362378 0.125461 0.923548 0.724409 0.111546
tknife1.bmp
  0 0.951425 6.058767 1.354245 -0.362378 0.125461 0.923548 0.724409 0.111546
  0 1.678364 5.647275 1.839565 -0.362378 0.125461 0.923548 0.496063 0.111546
  0 1.204884 6.545751 1.387505 -0.349496 0.062666 0.934840 0.748031 0.078278
tknife1.bmp
  0 1.678364 5.647275 1.839565 -0.362378 0.125461 0.923548 0.496063 0.111546
  0 2.042422 6.346761 1.887338 -0.255877 0.234541 0.937826 0.496063 0.064579
  0 1.204884 6.545751 1.387505 -0.349496 0.062666 0.934840 0.748031 0.078278
tknife1.bmp
  0 1.204884 6.545751 1.387505 -0.349496 0.062666 0.934840 0.748031 0.078278
  0 2.042422 6.346761 1.887338 -0.255877 0.234541 0.937826 0.496063 0.064579
  0 1.214227 6.822841 1.393333 -0.331144 0.113726 0.936702 0.755906 0.064579
tknife1.bmp
  0 2.042422 6.346761 1.887338 -0.255877 0.234541 0.937826 0.496063 0.064579
  0 1.430692 6.979609 1.417136 -0.212326 0.286761 0.934177 0.708661 0.043053
  0 1.214227 6.822841 1.393333 -0.331144 0.113726 0.936702 0.755906 0.064579
tknife1.bmp
  0 -3.772144 -1.505249 0.761249 -0.257176 0.072870 0.963613 0.866142 0.612524
  0 -2.100467 -1.613204 1.343694 -0.257176 0.072870 0.963613 0.496063 0.571429
  0 -3.298149 -0.378587 0.827284 -0.186656 0.102796 0.977033 0.889764 0.544031
tknife1.bmp
  0 -3.298149 -0.378587 0.827284 -0.186656 0.102796 0.977033 0.889764 0.544031
  0 -2.100467 -1.613204 1.343694 -0.257176 0.072870 0.963613 0.496063 0.571429
  0 -3.095903 -0.270734 0.848837 -0.206860 0.136475 0.968805 0.866142 0.534247
tknife1.bmp
  0 -2.100467 -1.613204 1.343694 -0.257176 0.072870 0.963613 0.496063 0.571429
  0 -1.754842 -0.949135 1.389048 -0.257176 0.072870 0.963613 0.496063 0.530333
  0 -3.095903 -0.270734 0.848837 -0.206860 0.136475 0.968805 0.866142 0.534247
tknife1.bmp
  0 -3.095903 -0.270734 0.848837 -0.206860 0.136475 0.968805 0.866142 0.534247
  0 -1.754842 -0.949135 1.389048 -0.257176 0.072870 0.963613 0.496063 0.530333
  0 -2.923549 -0.090744 0.868770 -0.257176 0.072870 0.963613 0.850394 0.520548
tknife1.bmp
  0 -1.754842 -0.949135 1.389048 -0.257176 0.072870 0.963613 0.496063 0.530333
  0 -2.671669 0.306828 0.900288 -0.257176 0.072870 0.963613 0.850394 0.495108
  0 -2.923549 -0.090744 0.868770 -0.257176 0.072870 0.963613 0.850394 0.520548
tknife1.bmp
  0 -0.005638 -0.283367 0.304597 -0.083593 -0.045342 -0.995468 0.850394 0.495108
  0 1.603688 -0.436281 0.036106 -0.083593 -0.045342 -0.995468 0.496063 0.530333
  0 0.115378 -0.741888 0.308204 -0.083593 -0.045342 -0.995468 0.850394 0.520548
tknife1.bmp
  0 0.115378 -0.741888 0.308204 -0.083593 -0.045342 -0.995468 0.850394 0.520548
  0 1.603688 -0.436281 0.036106 -0.083593 -0.045342 -0.995468 0.496063 0.530333
  0 0.128682 -0.997060 0.304964 -0.096559 0.055273 -0.993791 0.866142 0.534247
tknife1.bmp
  0 1.603688 -0.436281 0.036106 -0.083593 -0.045342 -0.995468 0.496063 0.530333
  0 1.853879 -1.143294 0.047843 -0.083593 -0.045342 -0.995468 0.496063 0.571429
  0 0.128682 -0.997060 0.304964 -0.096559 0.055273 -0.993791 0.866142 0.534247
tknife1.bmp
  0 0.128682 -0.997060 0.304964 -0.096559 0.055273 -0.993791 0.866142 0.534247
  0 1.853879 -1.143294 0.047843 -0.083593 -0.045342 -0.995468 0.496063 0.571429
  0 0.071410 -1.215076 0.295531 -0.054663 0.032687 -0.997970 0.889764 0.544031
tknife1.bmp
  0 1.853879 -1.143294 0.047843 -0.083593 -0.045342 -0.995468 0.496063 0.571429
  0 0.568099 -2.333868 0.323890 -0.083593 -0.045342 -0.995468 0.866142 0.612524
  0 0.071410 -1.215076 0.295531 -0.054663 0.032687 -0.997970 0.889764 0.544031
tknife1.bmp
  0 3.185290 -4.912479 0.110183 0.361315 0.066411 -0.930076 0.496063 0.794521
  0 2.727441 -3.611088 0.088838 0.310665 0.100834 -0.945156 0.496063 0.718200
  0 4.022686 -4.615060 0.618818 0.361315 0.066411 -0.930076 0.275591 0.796477
tknife1.bmp
  0 4.022686 -4.615060 0.618818 0.361315 0.066411 -0.930076 0.275591 0.796477
  0 2.727441 -3.611088 0.088838 0.310665 0.100834 -0.945156 0.496063 0.718200
  0 3.825144 -2.943095 0.629331 0.300023 0.062545 -0.951879 0.188976 0.704501
tknife1.bmp
  0 2.727441 -3.611088 0.088838 0.310665 0.100834 -0.945156 0.496063 0.718200
  0 2.260769 -2.305053 0.066719 0.263118 0.088529 -0.960693 0.496063 0.641879
  0 3.825144 -2.943095 0.629331 0.300023 0.062545 -0.951879 0.188976 0.704501
tknife1.bmp
  0 3.825144 -2.943095 0.629331 0.300023 0.062545 -0.951879 0.188976 0.704501
  0 2.260769 -2.305053 0.066719 0.263118 0.088529 -0.960693 0.496063 0.641879
  0 3.529376 -1.287100 0.630022 0.263118 0.088529 -0.960693 0.125984 0.612524
tknife1.bmp
  0 2.260769 -2.305053 0.066719 0.263118 0.088529 -0.960693 0.496063 0.641879
  0 3.211891 -0.104727 0.620192 0.263118 0.088529 -0.960693 0.102362 0.544031
  0 3.529376 -1.287100 0.630022 0.263118 0.088529 -0.960693 0.125984 0.612524
tknife1.bmp
  0 -2.066852 7.287973 0.238917 -0.210378 0.129163 -0.969050 0.708661 0.043053
  0 -1.121551 7.349276 -0.090246 -0.176620 0.063712 -0.982215 0.496063 0.064579
  0 -2.102661 7.024816 0.230767 -0.169251 -0.072283 -0.982919 0.755906 0.064579
tknife1.bmp
  0 -2.102661 7.024816 0.230767 -0.169251 -0.072283 -0.982919 0.755906 0.064579
  0 -1.121551 7.349276 -0.090246 -0.176620 0.063712 -0.982215 0.496063 0.064579
  0 -1.905939 6.819728 0.246226 -0.145281 -0.122857 -0.981733 0.748031 0.078278
tknife1.bmp
  0 -1.121551 7.349276 -0.090246 -0.176620 0.063712 -0.982215 0.496063 0.064579
  0 -0.858719 6.601768 -0.078000 -0.199773 -0.093213 -0.975398 0.496063 0.111546
  0 -1.905939 6.819728 0.246226 -0.145281 -0.122857 -0.981733 0.748031 0.078278
tknife1.bmp
  0 -1.905939 6.819728 0.246226 -0.145281 -0.122857 -0.981733 0.748031 0.078278
  0 -0.858719 6.601768 -0.078000 -0.199773 -0.093213 -0.975398 0.496063 0.111546
  0 -1.723564 6.306341 0.254817 -0.199773 -0.093213 -0.975398 0.724409 0.111546
tknife1.bmp
  0 -0.858719 6.601768 -0.078000 -0.199773 -0.093213 -0.975398 0.496063 0.111546
  0 -0.680662 3.343304 0.303460 -0.207618 -0.034680 -0.977595 0.724409 0.283757
  0 -1.723564 6.306341 0.254817 -0.199773 -0.093213 -0.975398 0.724409 0.111546
tknife1.bmp
  0 2.004809 2.132560 0.542718 0.187616 0.234963 -0.953726 0.173228 0.399217
  0 0.704844 2.112506 -0.005906 0.310665 0.100834 -0.945156 0.496063 0.379648
  0 1.671147 2.398462 0.515042 0.354106 0.179708 -0.917777 0.220472 0.379648
tknife1.bmp
  0 1.671147 2.398462 0.515042 0.354106 0.179708 -0.917777 0.220472 0.379648
  0 0.704844 2.112506 -0.005906 0.310665 0.100834 -0.945156 0.496063 0.379648
  0 1.620314 2.797475 0.517192 0.347202 -0.040617 -0.936910 0.204724 0.362035
tknife1.bmp
  0 0.704844 2.112506 -0.005906 0.310665 0.100834 -0.945156 0.496063 0.379648
  0 0.518649 2.661743 -0.014232 0.310665 0.100834 -0.945156 0.496063 0.346380
  0 1.620314 2.797475 0.517192 0.347202 -0.040617 -0.936910 0.204724 0.362035
tknife1.bmp
  0 1.620314 2.797475 0.517192 0.347202 -0.040617 -0.936910 0.204724 0.362035
  0 0.518649 2.661743 -0.014232 0.310665 0.100834 -0.945156 0.496063 0.346380
  0 1.854944 3.226688 0.547598 0.305143 0.027513 -0.951909 0.125984 0.338552
tknife1.bmp
  0 0.518649 2.661743 -0.014232 0.310665 0.100834 -0.945156 0.496063 0.346380
  0 1.756449 3.447747 0.541960 0.235538 0.182938 -0.954492 0.133858 0.322896
  0 1.854944 3.226688 0.547598 0.305143 0.027513 -0.951909 0.125984 0.338552
tknife1.bmp
  0 -0.418333 7.863979 0.409219 0.079623 0.270450 0.959436 0.283465 0.045010
  0 -1.202721 7.334430 0.745691 0.110641 0.215649 0.970183 0.496063 0.064579
  0 -0.230039 7.685887 0.424340 0.166302 0.081475 0.982703 0.236220 0.064579
tknife1.bmp
  0 -0.230039 7.685887 0.424340 0.166302 0.081475 0.982703 0.236220 0.064579
  0 -1.202721 7.334430 0.745691 0.110641 0.215649 0.970183 0.496063 0.064579
  0 -0.261634 7.409232 0.416358 0.175463 0.032418 0.983952 0.251969 0.078278
tknife1.bmp
  0 -1.202721 7.334430 0.745691 0.110641 0.215649 0.970183 0.496063 0.064579
  0 -0.939889 6.586921 0.757937 0.199799 0.093047 0.975409 0.496063 0.109589
  0 -0.261634 7.409232 0.416358 0.175463 0.032418 0.983952 0.251969 0.078278
tknife1.bmp
  0 -0.261634 7.409232 0.416358 0.175463 0.032418 0.983952 0.251969 0.078278
  0 -0.939889 6.586921 0.757937 0.199799 0.093047 0.975409 0.496063 0.109589
  0 -0.083867 6.886992 0.424345 0.199799 0.093047 0.975409 0.267717 0.111546
tknife1.bmp
  0 -0.939889 6.586921 0.757937 0.199799 0.093047 0.975409 0.496063 0.109589
  0 0.959035 3.923955 0.472988 0.168069 0.140390 0.975727 0.267717 0.283757
  0 -0.083867 6.886992 0.424345 0.199799 0.093047 0.975409 0.267717 0.111546
tknife1.bmp
  0 -0.680662 3.343304 0.303460 -0.386932 -0.071229 0.919353 0.724409 0.283757
  0 -0.939889 6.586921 0.757937 -0.383295 -0.126783 0.914883 0.496063 0.111546
  0 -1.723564 6.306341 0.254817 -0.383295 -0.126783 0.914883 0.724409 0.111546
tknife1.bmp
  0 -1.723564 6.306341 0.254817 -0.383295 -0.126783 0.914883 0.724409 0.111546
  0 -0.939889 6.586921 0.757937 -0.383295 -0.126783 0.914883 0.496063 0.111546
  0 -1.905939 6.819728 0.246226 -0.330961 -0.156818 0.930523 0.748031 0.078278
tknife1.bmp
  0 -0.939889 6.586921 0.757937 -0.383295 -0.126783 0.914883 0.496063 0.111546
  0 -1.202721 7.334430 0.745691 -0.362444 0.029724 0.931531 0.496063 0.064579
  0 -1.905939 6.819728 0.246226 -0.330961 -0.156818 0.930523 0.748031 0.078278
tknife1.bmp
  0 -1.905939 6.819728 0.246226 -0.330961 -0.156818 0.930523 0.748031 0.078278
  0 -1.202721 7.334430 0.745691 -0.362444 0.029724 0.931531 0.496063 0.064579
  0 -2.102661 7.024816 0.230767 -0.354884 -0.106236 0.928855 0.755906 0.064579
tknife1.bmp
  0 -1.202721 7.334430 0.745691 -0.362444 0.029724 0.931531 0.496063 0.064579
  0 -2.066852 7.287973 0.238917 -0.393264 0.095713 0.914430 0.708661 0.043053
  0 -2.102661 7.024816 0.230767 -0.354884 -0.106236 0.928855 0.755906 0.064579
tknife1.bmp
  0 0.568099 -2.333868 0.323890 -0.273331 -0.080045 0.958584 0.866142 0.612524
  0 1.772710 -1.158140 0.883780 -0.273331 -0.080045 0.958584 0.496063 0.571429
  0 0.071410 -1.215076 0.295531 -0.245690 -0.002253 0.969346 0.889764 0.544031
tknife1.bmp
  0 0.071410 -1.215076 0.295531 -0.245690 -0.002253 0.969346 0.889764 0.544031
  0 1.772710 -1.158140 0.883780 -0.273331 -0.080045 0.958584 0.496063 0.571429
  0 0.128682 -0.997060 0.304964 -0.286076 0.020611 0.957985 0.866142 0.534247
tknife1.bmp
  0 1.772710 -1.158140 0.883780 -0.273331 -0.080045 0.958584 0.496063 0.571429
  0 1.522518 -0.451127 0.872043 -0.273331 -0.080045 0.958584 0.496063 0.530333
  0 0.128682 -0.997060 0.304964 -0.286076 0.020611 0.957985 0.866142 0.534247
tknife1.bmp
  0 0.128682 -0.997060 0.304964 -0.286076 0.020611 0.957985 0.866142 0.534247
  0 1.522518 -0.451127 0.872043 -0.273331 -0.080045 0.958584 0.496063 0.530333
  0 0.115378 -0.741888 0.308204 -0.273331 -0.080045 0.958584 0.850394 0.520548
tknife1.bmp
  0 1.522518 -0.451127 0.872043 -0.273331 -0.080045 0.958584 0.496063 0.530333
  0 -0.005638 -0.283367 0.304597 -0.273331 -0.080045 0.958584 0.850394 0.495108
  0 0.115378 -0.741888 0.308204 -0.273331 -0.080045 0.958584 0.850394 0.520548
tknife1.bmp
  0 -4.732887 -4.733250 0.610632 -0.163389 0.096705 -0.981811 0.724409 0.794521
  0 -4.657121 -6.631278 0.373260 -0.163389 0.096705 -0.981811 0.496063 0.886497
  0 -5.127341 -6.398122 0.542763 -0.163389 0.096705 -0.981811 0.622047 0.886497
tknife1.bmp
  0 -4.732887 -4.733250 0.610632 -0.163389 0.096705 -0.981811 0.724409 0.794521
  0 -3.871846 -5.157763 0.264659 -0.163389 0.096705 -0.981811 0.496063 0.794521
  0 -4.657121 -6.631278 0.373260 -0.163389 0.096705 -0.981811 0.496063 0.886497
tknife1.bmp
  0 -4.732887 -4.733250 0.610632 -0.163389 0.096705 -0.981811 0.724409 0.794521
  0 -3.231288 -3.927023 0.348715 -0.114660 0.096663 -0.988691 0.496063 0.718200
  0 -3.871846 -5.157763 0.264659 -0.163389 0.096705 -0.981811 0.496063 0.794521
tknife1.bmp
  0 -4.732887 -4.733250 0.610632 -0.163389 0.096705 -0.981811 0.724409 0.794521
  0 -4.303144 -3.086955 0.681598 -0.114660 0.096663 -0.988691 0.803150 0.702544
  0 -3.231288 -3.927023 0.348715 -0.114660 0.096663 -0.988691 0.496063 0.718200
tknife1.bmp
  0 -1.672706 -0.934112 0.543159 -0.067294 0.107600 -0.991914 0.496063 0.530333
  0 -2.671669 0.306828 0.900288 -0.067294 0.107600 -0.991914 0.850394 0.495108
  0 -1.386990 -0.385149 0.580652 -0.067294 0.107600 -0.991914 0.496063 0.495108
tknife1.bmp
  0 -1.386990 -0.385149 0.580652 -0.067294 0.107600 -0.991914 0.496063 0.495108
  0 -2.671669 0.306828 0.900288 -0.067294 0.107600 -0.991914 0.850394 0.495108
  0 -0.976848 0.402878 0.634472 -0.067294 0.107600 -0.991914 0.496063 0.446184
tknife1.bmp
  0 -2.671669 0.306828 0.900288 -0.067294 0.107600 -0.991914 0.850394 0.495108
  0 -2.543298 0.769422 0.920969 -0.096559 0.055273 -0.993791 0.874016 0.467710
  0 -0.976848 0.402878 0.634472 -0.067294 0.107600 -0.991914 0.496063 0.446184
tknife1.bmp
  0 -0.976848 0.402878 0.634472 -0.067294 0.107600 -0.991914 0.496063 0.446184
  0 -2.543298 0.769422 0.920969 -0.096559 0.055273 -0.993791 0.874016 0.467710
  0 -2.575698 1.203852 0.925538 -0.096559 0.055273 -0.993791 0.921260 0.446184
tknife1.bmp
  0 2.123592 6.361607 1.051400 0.390842 0.024878 -0.920122 0.496063 0.064579
  0 2.739930 5.737612 1.522206 0.304295 -0.149512 -0.940771 0.251969 0.078278
  0 1.759533 5.662121 1.003627 0.362323 -0.125617 -0.923549 0.496063 0.109589
tknife1.bmp
  0 2.123592 6.361607 1.051400 0.390842 0.024878 -0.920122 0.496063 0.064579
  0 2.961003 5.903234 1.546614 0.335566 -0.105228 -0.936121 0.236220 0.064579
  0 2.739930 5.737612 1.522206 0.304295 -0.149512 -0.940771 0.251969 0.078278
tknife1.bmp
  0 2.123592 6.361607 1.051400 0.390842 0.024878 -0.920122 0.496063 0.064579
  0 2.965738 6.171470 1.551838 0.408226 0.089632 -0.908470 0.283465 0.045010
  0 2.961003 5.903234 1.546614 0.335566 -0.105228 -0.936121 0.236220 0.064579
tknife1.bmp
  0 2.123592 6.361607 1.051400 0.390842 0.024878 -0.920122 0.496063 0.064579
  0 2.433240 7.027106 1.515328 0.428439 0.239854 -0.871154 0.496063 0.015656
  0 2.965738 6.171470 1.551838 0.408226 0.089632 -0.908470 0.283465 0.045010
tknife1.bmp
  0 -0.437674 1.438824 0.705224 0.286798 -0.106376 -0.952067 0.496063 0.379648
  0 0.447633 0.469498 1.206063 0.310665 0.100834 -0.945156 0.173228 0.399217
  0 -0.672699 0.987258 0.674383 0.286798 -0.106376 -0.952067 0.496063 0.407045
tknife1.bmp
  0 -0.672699 0.987258 0.674383 0.286798 -0.106376 -0.952067 0.496063 0.407045
  0 0.447633 0.469498 1.206063 0.310665 0.100834 -0.945156 0.173228 0.399217
  0 -0.976848 0.402878 0.634472 0.255877 -0.059219 -0.964894 0.496063 0.446184
tknife1.bmp
  0 0.447633 0.469498 1.206063 0.310665 0.100834 -0.945156 0.173228 0.399217
  0 0.817246 -0.029657 1.233087 0.245719 0.010686 -0.969282 0.062992 0.418787
  0 -0.976848 0.402878 0.634472 0.255877 -0.059219 -0.964894 0.496063 0.446184
tknife1.bmp
  0 -0.976848 0.402878 0.634472 0.255877 -0.059219 -0.964894 0.496063 0.446184
  0 0.817246 -0.029657 1.233087 0.245719 0.010686 -0.969282 0.062992 0.418787
  0 0.529683 -0.431004 1.198037 0.234782 -0.119164 -0.964716 0.070866 0.446184
tknife1.bmp
  0 -4.732887 -4.733250 0.610632 -0.349496 0.062666 0.934840 0.724409 0.794521
  0 -3.312458 -3.941869 1.184652 -0.303000 0.062215 0.950958 0.496063 0.718200
  0 -4.303144 -3.086955 0.681598 -0.303000 0.062215 0.950958 0.803150 0.702544
tknife1.bmp
  0 -4.303144 -3.086955 0.681598 -0.303000 0.062215 0.950958 0.803150 0.702544
  0 -3.312458 -3.941869 1.184652 -0.303000 0.062215 0.950958 0.496063 0.718200
  0 -3.772144 -1.505249 0.761249 -0.257176 0.072870 0.963613 0.866142 0.612524
tknife1.bmp
  0 -3.312458 -3.941869 1.184652 -0.303000 0.062215 0.950958 0.496063 0.718200
  0 -2.671900 -2.711130 1.268709 -0.257176 0.072870 0.963613 0.496063 0.641879
  0 -3.772144 -1.505249 0.761249 -0.257176 0.072870 0.963613 0.866142 0.612524
tknife1.bmp
  0 -3.772144 -1.505249 0.761249 -0.257176 0.072870 0.963613 0.866142 0.612524
  0 -2.671900 -2.711130 1.268709 -0.257176 0.072870 0.963613 0.496063 0.641879
  0 -2.100467 -1.613204 1.343694 -0.257176 0.072870 0.963613 0.496063 0.571429
tknife1.bmp
  0 -3.312458 -3.941869 1.184652 -0.303000 0.062215 0.950958 0.496063 0.718200
  0 -4.732887 -4.733250 0.610632 -0.349496 0.062666 0.934840 0.724409 0.794521
  0 -3.952049 -5.172432 1.090645 -0.349496 0.062666 0.934840 0.496063 0.794521
tknife1.bmp
  0 -3.952049 -5.172432 1.090645 -0.349496 0.062666 0.934840 0.496063 0.794521
  0 -4.732887 -4.733250 0.610632 -0.349496 0.062666 0.934840 0.724409 0.794521
  0 -4.697706 -6.638701 0.791228 -0.349496 0.062666 0.934840 0.496063 0.886497
tknife1.bmp
  0 -4.732887 -4.733250 0.610632 -0.349496 0.062666 0.934840 0.724409 0.794521
  0 -5.127341 -6.398122 0.542763 -0.349496 0.062666 0.934840 0.622047 0.886497
  0 -4.697706 -6.638701 0.791228 -0.349496 0.062666 0.934840 0.496063 0.886497
tknife1.bmp
  0 -4.697706 -6.638701 0.791228 -0.349496 0.062666 0.934840 0.496063 0.886497
  0 -5.127341 -6.398122 0.542763 -0.349496 0.062666 0.934840 0.622047 0.886497
  0 -5.442396 -8.104794 0.481861 -0.362444 0.029724 0.931531 0.496063 0.978474
tknife1.bmp
  0 0.674356 1.207443 1.241183 0.030724 -0.250805 0.967550 0.204724 0.362035
  0 -0.519810 1.423802 1.551113 0.098698 -0.140780 0.985109 0.496063 0.379648
  0 0.415232 0.903928 1.210632 0.191093 -0.102515 0.976204 0.220472 0.379648
tknife1.bmp
  0 0.415232 0.903928 1.210632 0.191093 -0.102515 0.976204 0.220472 0.379648
  0 -0.519810 1.423802 1.551113 0.098698 -0.140780 0.985109 0.496063 0.379648
  0 0.447633 0.469498 1.206063 0.122741 0.066463 0.990211 0.173228 0.399217
tknife1.bmp
  0 -0.519810 1.423802 1.551113 0.098698 -0.140780 0.985109 0.496063 0.379648
  0 -0.754835 0.972235 1.520272 0.098698 -0.140780 0.985109 0.496063 0.407045
  0 0.447633 0.469498 1.206063 0.122741 0.066463 0.990211 0.173228 0.399217
tknife1.bmp
  0 0.447633 0.469498 1.206063 0.122741 0.066463 0.990211 0.173228 0.399217
  0 -0.754835 0.972235 1.520272 0.098698 -0.140780 0.985109 0.496063 0.407045
  0 -1.058984 0.387855 1.480361 0.065726 -0.093997 0.993401 0.496063 0.446184
tknife1.bmp
  0 2.262116 -5.233599 0.436881 -0.145281 -0.122857 -0.981733 0.724409 0.794521
  0 3.715945 -6.492201 0.344675 -0.145281 -0.122857 -0.981733 0.496063 0.886497
  0 3.216371 -6.660962 0.504190 -0.145281 -0.122857 -0.981733 0.622047 0.886497
tknife1.bmp
  0 2.262116 -5.233599 0.436881 -0.145281 -0.122857 -0.981733 0.724409 0.794521
  0 3.185290 -4.912479 0.110183 -0.145281 -0.122857 -0.981733 0.496063 0.794521
  0 3.715945 -6.492201 0.344675 -0.145281 -0.122857 -0.981733 0.496063 0.886497
tknife1.bmp
  0 2.262116 -5.233599 0.436881 -0.145281 -0.122857 -0.981733 0.724409 0.794521
  0 2.727441 -3.611088 0.088838 -0.109789 -0.088672 -0.989992 0.496063 0.718200
  0 3.185290 -4.912479 0.110183 -0.145281 -0.122857 -0.981733 0.496063 0.794521
tknife1.bmp
  0 2.262116 -5.233599 0.436881 -0.145281 -0.122857 -0.981733 0.724409 0.794521
  0 1.365797 -3.802894 0.375257 -0.109789 -0.088672 -0.989992 0.803150 0.702544
  0 2.727441 -3.611088 0.088838 -0.109789 -0.088672 -0.989992 0.496063 0.718200
tknife1.bmp
  0 1.603688 -0.436281 0.036106 -0.083593 -0.045342 -0.995468 0.496063 0.530333
  0 -0.005638 -0.283367 0.304597 -0.083593 -0.045342 -0.995468 0.850394 0.495108
  0 1.391816 0.171596 0.026329 -0.083593 -0.045342 -0.995468 0.496063 0.495108
tknife1.bmp
  0 1.391816 0.171596 0.026329 -0.083593 -0.045342 -0.995468 0.496063 0.495108
  0 -0.005638 -0.283367 0.304597 -0.083593 -0.045342 -0.995468 0.850394 0.495108
  0 1.094879 1.004741 0.012292 -0.083593 -0.045342 -0.995468 0.496063 0.446184
tknife1.bmp
  0 -0.005638 -0.283367 0.304597 -0.083593 -0.045342 -0.995468 0.850394 0.495108
  0 -0.260958 0.133057 0.287200 -0.067688 -0.100311 -0.992651 0.874016 0.467710
  0 1.094879 1.004741 0.012292 -0.083593 -0.045342 -0.995468 0.496063 0.446184
tknife1.bmp
  0 1.094879 1.004741 0.012292 -0.083593 -0.045342 -0.995468 0.496063 0.446184
  0 -0.260958 0.133057 0.287200 -0.067688 -0.100311 -0.992651 0.874016 0.467710
  0 -0.603442 0.403604 0.258750 -0.067688 -0.100311 -0.992651 0.921260 0.446184
tknife1.bmp
  0 -1.121551 7.349276 -0.090246 0.294429 0.249264 -0.922594 0.496063 0.064579
  0 -0.261634 7.409232 0.416358 0.361315 0.066411 -0.930076 0.251969 0.078278
  0 -0.858719 6.601768 -0.078000 0.383365 0.126633 -0.914875 0.496063 0.109589
tknife1.bmp
  0 -1.121551 7.349276 -0.090246 0.294429 0.249264 -0.922594 0.496063 0.064579
  0 -0.230039 7.685887 0.424340 0.351918 0.115425 -0.928887 0.236220 0.064579
  0 -0.261634 7.409232 0.416358 0.361315 0.066411 -0.930076 0.251969 0.078278
tknife1.bmp
  0 -1.121551 7.349276 -0.090246 0.294429 0.249264 -0.922594 0.496063 0.064579
  0 -0.418333 7.863979 0.409219 0.261736 0.303760 -0.916092 0.283465 0.045010
  0 -0.230039 7.685887 0.424340 0.351918 0.115425 -0.928887 0.236220 0.064579
tknife1.bmp
  0 -1.121551 7.349276 -0.090246 0.294429 0.249264 -0.922594 0.496063 0.064579
  0 -1.407719 8.057720 0.316590 0.169276 0.419049 -0.892045 0.496063 0.015656
  0 -0.418333 7.863979 0.409219 0.261736 0.303760 -0.916092 0.283465 0.045010
tknife1.bmp
  0 0.704844 2.112506 -0.005906 0.310665 0.100834 -0.945156 0.496063 0.379648
  0 2.004809 2.132560 0.542718 0.187616 0.234963 -0.953726 0.173228 0.399217
  0 0.878793 1.626117 0.002346 0.310665 0.100834 -0.945156 0.496063 0.407045
tknife1.bmp
  0 0.878793 1.626117 0.002346 0.310665 0.100834 -0.945156 0.496063 0.407045
  0 2.004809 2.132560 0.542718 0.187616 0.234963 -0.953726 0.173228 0.399217
  0 1.094879 1.004741 0.012292 0.263118 0.088529 -0.960693 0.496063 0.446184
tknife1.bmp
  0 2.004809 2.132560 0.542718 0.187616 0.234963 -0.953726 0.173228 0.399217
  0 2.617875 2.057974 0.600922 0.206152 0.126317 -0.970333 0.062992 0.418787
  0 1.094879 1.004741 0.012292 0.263118 0.088529 -0.960693 0.496063 0.446184
tknife1.bmp
  0 1.094879 1.004741 0.012292 0.263118 0.088529 -0.960693 0.496063 0.446184
  0 2.617875 2.057974 0.600922 0.206152 0.126317 -0.970333 0.062992 0.418787
  0 2.716243 1.577534 0.601941 0.245719 0.010686 -0.969282 0.070866 0.446184
tknife1.bmp
  0 2.262116 -5.233599 0.436881 -0.330961 -0.156818 0.930523 0.724409 0.794521
  0 2.646271 -3.625935 0.924776 -0.297837 -0.123067 0.946651 0.496063 0.718200
  0 1.365797 -3.802894 0.375257 -0.297837 -0.123067 0.946651 0.803150 0.702544
tknife1.bmp
  0 1.365797 -3.802894 0.375257 -0.297837 -0.123067 0.946651 0.803150 0.702544
  0 2.646271 -3.625935 0.924776 -0.297837 -0.123067 0.946651 0.496063 0.718200
  0 0.568099 -2.333868 0.323890 -0.273331 -0.080045 0.958584 0.866142 0.612524
tknife1.bmp
  0 2.646271 -3.625935 0.924776 -0.297837 -0.123067 0.946651 0.496063 0.718200
  0 2.179599 -2.319899 0.902657 -0.273331 -0.080045 0.958584 0.496063 0.641879
  0 0.568099 -2.333868 0.323890 -0.273331 -0.080045 0.958584 0.866142 0.612524
tknife1.bmp
  0 0.568099 -2.333868 0.323890 -0.273331 -0.080045 0.958584 0.866142 0.612524
  0 2.179599 -2.319899 0.902657 -0.273331 -0.080045 0.958584 0.496063 0.641879
  0 1.772710 -1.158140 0.883780 -0.273331 -0.080045 0.958584 0.496063 0.571429
tknife1.bmp
  0 2.646271 -3.625935 0.924776 -0.297837 -0.123067 0.946651 0.496063 0.718200
  0 2.262116 -5.233599 0.436881 -0.330961 -0.156818 0.930523 0.724409 0.794521
  0 3.105087 -4.927148 0.936169 -0.330961 -0.156818 0.930523 0.496063 0.794521
tknife1.bmp
  0 3.105087 -4.927148 0.936169 -0.330961 -0.156818 0.930523 0.496063 0.794521
  0 2.262116 -5.233599 0.436881 -0.330961 -0.156818 0.930523 0.724409 0.794521
  0 3.675360 -6.499624 0.762644 -0.330961 -0.156818 0.930523 0.496063 0.886497
tknife1.bmp
  0 2.262116 -5.233599 0.436881 -0.330961 -0.156818 0.930523 0.724409 0.794521
  0 3.216371 -6.660962 0.504190 -0.330961 -0.156818 0.930523 0.622047 0.886497
  0 3.675360 -6.499624 0.762644 -0.330961 -0.156818 0.930523 0.496063 0.886497
tknife1.bmp
  0 3.675360 -6.499624 0.762644 -0.330961 -0.156818 0.930523 0.496063 0.886497
  0 3.216371 -6.660962 0.504190 -0.330961 -0.156818 0.930523 0.622047 0.886497
  0 4.242386 -8.058423 0.578998 -0.315764 -0.188932 0.929838 0.496063 0.978474
tknife1.bmp
  0 1.620314 2.797475 0.517192 0.160665 -0.074735 0.984176 0.204724 0.362035
  0 0.623674 2.097659 0.830031 0.122741 0.066463 0.990211 0.496063 0.379648
  0 1.671147 2.398462 0.515042 0.168069 0.140390 0.975727 0.220472 0.379648
tknife1.bmp
  0 1.671147 2.398462 0.515042 0.168069 0.140390 0.975727 0.220472 0.379648
  0 0.623674 2.097659 0.830031 0.122741 0.066463 0.990211 0.496063 0.379648
  0 2.004809 2.132560 0.542718 -0.000116 0.200626 0.979668 0.173228 0.399217
tknife1.bmp
  0 0.623674 2.097659 0.830031 0.122741 0.066463 0.990211 0.496063 0.379648
  0 0.797623 1.611271 0.838283 0.122741 0.066463 0.990211 0.496063 0.407045
  0 2.004809 2.132560 0.542718 -0.000116 0.200626 0.979668 0.173228 0.399217
tknife1.bmp
  0 2.004809 2.132560 0.542718 -0.000116 0.200626 0.979668 0.173228 0.399217
  0 0.797623 1.611271 0.838283 0.122741 0.066463 0.990211 0.496063 0.407045
  0 1.013709 0.989895 0.848230 0.073136 0.053781 0.995871 0.496063 0.446184
tknife1.bmp
  0 -5.442396 -8.104794 0.481861 0.284677 -0.179142 -0.941736 0.496063 0.978474
  0 -4.657121 -6.631278 0.373260 0.304295 -0.149512 -0.940771 0.496063 0.886497
  0 -4.227486 -6.871858 0.621726 0.304295 -0.149512 -0.940771 0.377953 0.888454
tknife1.bmp
  0 -4.227486 -6.871858 0.621726 0.304295 -0.149512 -0.940771 0.377953 0.888454
  0 -4.657121 -6.631278 0.373260 0.304295 -0.149512 -0.940771 0.496063 0.886497
  0 -3.091975 -5.597122 0.754623 0.304295 -0.149512 -0.940771 0.275591 0.796477
tknife1.bmp
  0 -4.657121 -6.631278 0.373260 0.304295 -0.149512 -0.940771 0.496063 0.886497
  0 -3.871846 -5.157763 0.264659 0.304295 -0.149512 -0.940771 0.496063 0.794521
  0 -3.091975 -5.597122 0.754623 0.304295 -0.149512 -0.940771 0.275591 0.796477
tknife1.bmp
  0 0.229568 2.722513 0.802860 -0.145196 0.147736 -0.978311 0.496063 0.297456
  0 -0.165782 1.961225 0.740903 -0.110410 0.132808 -0.984973 0.496063 0.346380
  0 -0.699020 3.103624 1.141504 -0.056372 0.220906 -0.973665 0.748031 0.295499
tknife1.bmp
  0 -0.699020 3.103624 1.141504 -0.056372 0.220906 -0.973665 0.748031 0.295499
  0 -0.165782 1.961225 0.740903 -0.110410 0.132808 -0.984973 0.496063 0.346380
  0 -0.990275 2.997511 1.111338 0.038819 0.243950 -0.969011 0.795276 0.309198
tknife1.bmp
  0 -0.165782 1.961225 0.740903 -0.110410 0.132808 -0.984973 0.496063 0.346380
  0 -1.356716 2.919699 1.074375 -0.017137 0.171175 -0.985092 0.858268 0.324853
  0 -0.990275 2.997511 1.111338 0.038819 0.243950 -0.969011 0.795276 0.309198
tknife1.bmp
  0 -4.303144 -3.086955 0.681598 -0.114660 0.096663 -0.988691 0.803150 0.702544
  0 -3.772144 -1.505249 0.761249 -0.067294 0.107600 -0.991914 0.866142 0.612524
  0 -3.231288 -3.927023 0.348715 -0.114660 0.096663 -0.988691 0.496063 0.718200
tknife1.bmp
  0 -3.231288 -3.927023 0.348715 -0.114660 0.096663 -0.988691 0.496063 0.718200
  0 -3.772144 -1.505249 0.761249 -0.067294 0.107600 -0.991914 0.866142 0.612524
  0 -2.589764 -2.696107 0.422820 -0.067294 0.107600 -0.991914 0.496063 0.641879
tknife1.bmp
  0 -3.772144 -1.505249 0.761249 -0.067294 0.107600 -0.991914 0.866142 0.612524
  0 -2.018331 -1.598181 0.497805 -0.067294 0.107600 -0.991914 0.496063 0.571429
  0 -2.589764 -2.696107 0.422820 -0.067294 0.107600 -0.991914 0.496063 0.641879
tknife1.bmp
  0 1.012469 2.202596 1.291688 0.156398 -0.022157 0.987446 0.244094 0.295499
  0 1.034848 2.461542 1.298460 0.191093 -0.102515 0.976204 0.267717 0.283757
  0 0.106923 2.627979 1.633355 0.149618 -0.139237 0.978891 0.496063 0.303327
tknife1.bmp
  0 0.106923 2.627979 1.633355 0.149618 -0.139237 0.978891 0.496063 0.303327
  0 1.034848 2.461542 1.298460 0.191093 -0.102515 0.976204 0.267717 0.283757
  0 0.185265 2.778501 1.643635 0.178338 -0.159259 0.970995 0.496063 0.291585
tknife1.bmp
  0 1.034848 2.461542 1.298460 0.191093 -0.102515 0.976204 0.267717 0.283757
  0 1.678364 5.647275 1.839565 0.178338 -0.159259 0.970995 0.496063 0.109589
  0 0.185265 2.778501 1.643635 0.178338 -0.159259 0.970995 0.496063 0.291585
tknife1.bmp
  0 -2.543298 0.769422 0.920969 -0.286076 0.020611 0.957985 0.874016 0.467710
  0 -2.671669 0.306828 0.900288 -0.257176 0.072870 0.963613 0.850394 0.495108
  0 -1.058984 0.387855 1.480361 -0.257176 0.072870 0.963613 0.496063 0.446184
tknife1.bmp
  0 -1.058984 0.387855 1.480361 -0.257176 0.072870 0.963613 0.496063 0.446184
  0 -2.671669 0.306828 0.900288 -0.257176 0.072870 0.963613 0.850394 0.495108
  0 -1.469126 -0.400172 1.426541 -0.257176 0.072870 0.963613 0.496063 0.495108
tknife1.bmp
  0 -2.671669 0.306828 0.900288 -0.257176 0.072870 0.963613 0.850394 0.495108
  0 -1.754842 -0.949135 1.389048 -0.257176 0.072870 0.963613 0.496063 0.530333
  0 -1.469126 -0.400172 1.426541 -0.257176 0.072870 0.963613 0.496063 0.495108
tknife1.bmp
  0 4.242386 -8.058423 0.578998 0.390842 0.024878 -0.920122 0.496063 0.978474
  0 3.715945 -6.492201 0.344675 0.390842 0.024878 -0.920122 0.496063 0.886497
  0 4.179543 -6.322007 0.603734 0.390842 0.024878 -0.920122 0.377953 0.888454
tknife1.bmp
  0 4.179543 -6.322007 0.603734 0.390842 0.024878 -0.920122 0.377953 0.888454
  0 3.715945 -6.492201 0.344675 0.390842 0.024878 -0.920122 0.496063 0.886497
  0 4.022686 -4.615060 0.618818 0.361315 0.066411 -0.930076 0.275591 0.796477
tknife1.bmp
  0 3.715945 -6.492201 0.344675 0.390842 0.024878 -0.920122 0.496063 0.886497
  0 3.185290 -4.912479 0.110183 0.361315 0.066411 -0.930076 0.496063 0.794521
  0 4.022686 -4.615060 0.618818 0.361315 0.066411 -0.930076 0.275591 0.796477
tknife1.bmp
  0 0.243570 3.472101 -0.026550 -0.169251 -0.072283 -0.982919 0.496063 0.297456
  0 0.518649 2.661743 -0.014232 -0.109789 -0.088672 -0.989992 0.496063 0.346380
  0 -0.694219 3.079713 0.297463 -0.176620 0.063712 -0.982215 0.748031 0.295499
tknife1.bmp
  0 -0.694219 3.079713 0.297463 -0.176620 0.063712 -0.982215 0.748031 0.295499
  0 0.518649 2.661743 -0.014232 -0.109789 -0.088672 -0.989992 0.496063 0.346380
  0 -0.810611 2.791298 0.281039 -0.114660 0.096663 -0.988691 0.795276 0.309198
tknife1.bmp
  0 0.518649 2.661743 -0.014232 -0.109789 -0.088672 -0.989992 0.496063 0.346380
  0 -1.003371 2.464126 0.256511 -0.096559 0.055273 -0.993791 0.858268 0.324853
  0 -0.810611 2.791298 0.281039 -0.114660 0.096663 -0.988691 0.795276 0.309198
tknife1.bmp
  0 1.365797 -3.802894 0.375257 -0.109789 -0.088672 -0.989992 0.803150 0.702544
  0 0.568099 -2.333868 0.323890 -0.083593 -0.045342 -0.995468 0.866142 0.612524
  0 2.727441 -3.611088 0.088838 -0.109789 -0.088672 -0.989992 0.496063 0.718200
tknife1.bmp
  0 2.727441 -3.611088 0.088838 -0.109789 -0.088672 -0.989992 0.496063 0.718200
  0 0.568099 -2.333868 0.323890 -0.083593 -0.045342 -0.995468 0.866142 0.612524
  0 2.260769 -2.305053 0.066719 -0.083593 -0.045342 -0.995468 0.496063 0.641879
tknife1.bmp
  0 0.568099 -2.333868 0.323890 -0.083593 -0.045342 -0.995468 0.866142 0.612524
  0 1.853879 -1.143294 0.047843 -0.083593 -0.045342 -0.995468 0.496063 0.571429
  0 2.260769 -2.305053 0.066719 -0.083593 -0.045342 -0.995468 0.496063 0.641879
tknife1.bmp
  0 1.129291 3.732799 0.486125 0.087800 0.166424 0.982138 0.244094 0.295499
  0 0.959035 3.923955 0.472988 0.168069 0.140390 0.975727 0.267717 0.283757
  0 0.187683 3.376263 0.810404 0.166302 0.081475 0.982703 0.496063 0.303327
tknife1.bmp
  0 0.187683 3.376263 0.810404 0.166302 0.081475 0.982703 0.496063 0.303327
  0 0.959035 3.923955 0.472988 0.168069 0.140390 0.975727 0.267717 0.283757
  0 0.132509 3.529393 0.807766 0.199799 0.093047 0.975409 0.496063 0.291585
tknife1.bmp
  0 0.959035 3.923955 0.472988 0.168069 0.140390 0.975727 0.267717 0.283757
  0 -0.939889 6.586921 0.757937 0.199799 0.093047 0.975409 0.496063 0.109589
  0 0.132509 3.529393 0.807766 0.199799 0.093047 0.975409 0.496063 0.291585
tknife1.bmp
  0 -0.260958 0.133057 0.287200 -0.256994 -0.134936 0.956946 0.874016 0.467710
  0 -0.005638 -0.283367 0.304597 -0.273331 -0.080045 0.958584 0.850394 0.495108
  0 1.013709 0.989895 0.848230 -0.273331 -0.080045 0.958584 0.496063 0.446184
tknife1.bmp
  0 1.013709 0.989895 0.848230 -0.273331 -0.080045 0.958584 0.496063 0.446184
  0 -0.005638 -0.283367 0.304597 -0.273331 -0.080045 0.958584 0.850394 0.495108
  0 1.310646 0.156750 0.862266 -0.273331 -0.080045 0.958584 0.496063 0.495108
tknife1.bmp
  0 -0.005638 -0.283367 0.304597 -0.273331 -0.080045 0.958584 0.850394 0.495108
  0 1.522518 -0.451127 0.872043 -0.273331 -0.080045 0.958584 0.496063 0.530333
  0 1.310646 0.156750 0.862266 -0.273331 -0.080045 0.958584 0.496063 0.495108
tknife1.bmp
  0 -1.672706 -0.934112 0.543159 0.255877 -0.059219 -0.964894 0.496063 0.530333
  0 -0.351566 -1.929842 1.085848 0.255877 -0.059219 -0.964894 0.102362 0.544031
  0 -2.018331 -1.598181 0.497805 0.255877 -0.059219 -0.964894 0.496063 0.571429
tknife1.bmp
  0 -2.018331 -1.598181 0.497805 0.255877 -0.059219 -0.964894 0.496063 0.571429
  0 -0.351566 -1.929842 1.085848 0.255877 -0.059219 -0.964894 0.102362 0.544031
  0 -2.589764 -2.696107 0.422820 0.255877 -0.059219 -0.964894 0.496063 0.641879
tknife1.bmp
  0 1.759533 5.662121 1.003627 -0.178435 0.159125 -0.971000 0.496063 0.111546
  0 0.229568 2.722513 0.802860 -0.145196 0.147736 -0.978311 0.496063 0.291585
  0 -0.500199 3.269681 1.163759 -0.140608 0.207861 -0.968000 0.724409 0.283757
tknife1.bmp
  0 -0.500199 3.269681 1.163759 -0.140608 0.207861 -0.968000 0.724409 0.283757
  0 0.229568 2.722513 0.802860 -0.145196 0.147736 -0.978311 0.496063 0.291585
  0 -0.699020 3.103624 1.141504 -0.056372 0.220906 -0.973665 0.748031 0.295499
tknife1.bmp
  0 -3.091975 -5.597122 0.754623 0.118189 -0.183551 0.975879 0.275591 0.796477
  0 -4.697706 -6.638701 0.791228 0.118189 -0.183551 0.975879 0.496063 0.886497
  0 -4.227486 -6.871858 0.621726 0.118189 -0.183551 0.975879 0.377953 0.888454
tknife1.bmp
  0 -4.227486 -6.871858 0.621726 0.118189 -0.183551 0.975879 0.377953 0.888454
  0 -4.697706 -6.638701 0.791228 0.118189 -0.183551 0.975879 0.496063 0.886497
  0 -5.442396 -8.104794 0.481861 0.098853 -0.213130 0.972010 0.496063 0.978474
tknife1.bmp
  0 -1.754842 -0.949135 1.389048 0.065726 -0.093997 0.993401 0.496063 0.530333
  0 -2.100467 -1.613204 1.343694 0.065726 -0.093997 0.993401 0.496063 0.571429
  0 -0.351566 -1.929842 1.085848 0.065726 -0.093997 0.993401 0.102362 0.544031
tknife1.bmp
  0 -0.351566 -1.929842 1.085848 0.065726 -0.093997 0.993401 0.102362 0.544031
  0 -2.100467 -1.613204 1.343694 0.065726 -0.093997 0.993401 0.496063 0.571429
  0 -2.671900 -2.711130 1.268709 0.065726 -0.093997 0.993401 0.496063 0.641879
tknife1.bmp
  0 0.447633 0.469498 1.206063 0.122741 0.066463 0.990211 0.173228 0.399217
  0 -1.058984 0.387855 1.480361 0.065726 -0.093997 0.993401 0.496063 0.446184
  0 0.817246 -0.029657 1.233087 0.054676 -0.024256 0.998209 0.062992 0.418787
tknife1.bmp
  0 0.817246 -0.029657 1.233087 0.054676 -0.024256 0.998209 0.062992 0.418787
  0 -1.058984 0.387855 1.480361 0.065726 -0.093997 0.993401 0.496063 0.446184
  0 0.529683 -0.431004 1.198037 0.045265 -0.153827 0.987060 0.070866 0.446184
tknife1.bmp
  0 1.603688 -0.436281 0.036106 0.263118 0.088529 -0.960693 0.496063 0.530333
  0 3.211891 -0.104727 0.620192 0.263118 0.088529 -0.960693 0.102362 0.544031
  0 1.853879 -1.143294 0.047843 0.263118 0.088529 -0.960693 0.496063 0.571429
tknife1.bmp
  0 1.853879 -1.143294 0.047843 0.263118 0.088529 -0.960693 0.496063 0.571429
  0 3.211891 -0.104727 0.620192 0.263118 0.088529 -0.960693 0.102362 0.544031
  0 2.260769 -2.305053 0.066719 0.263118 0.088529 -0.960693 0.496063 0.641879
tknife1.bmp
  0 -0.858719 6.601768 -0.078000 -0.199773 -0.093213 -0.975398 0.496063 0.111546
  0 0.243570 3.472101 -0.026550 -0.169251 -0.072283 -0.982919 0.496063 0.291585
  0 -0.680662 3.343304 0.303460 -0.207618 -0.034680 -0.977595 0.724409 0.283757
tknife1.bmp
  0 -0.680662 3.343304 0.303460 -0.207618 -0.034680 -0.977595 0.724409 0.283757
  0 0.243570 3.472101 -0.026550 -0.169251 -0.072283 -0.982919 0.496063 0.291585
  0 -0.694219 3.079713 0.297463 -0.176620 0.063712 -0.982215 0.748031 0.295499
tknife1.bmp
  0 4.022686 -4.615060 0.618818 0.175463 0.032418 0.983952 0.275591 0.796477
  0 3.675360 -6.499624 0.762644 0.206495 -0.008839 0.978408 0.496063 0.886497
  0 4.179543 -6.322007 0.603734 0.206495 -0.008839 0.978408 0.377953 0.888454
tknife1.bmp
  0 4.179543 -6.322007 0.603734 0.206495 -0.008839 0.978408 0.377953 0.888454
  0 3.675360 -6.499624 0.762644 0.206495 -0.008839 0.978408 0.496063 0.886497
  0 4.242386 -8.058423 0.578998 0.206495 -0.008839 0.978408 0.496063 0.978474
tknife1.bmp
  0 1.522518 -0.451127 0.872043 0.073136 0.053781 0.995871 0.496063 0.530333
  0 1.772710 -1.158140 0.883780 0.073136 0.053781 0.995871 0.496063 0.571429
  0 3.211891 -0.104727 0.620192 0.073136 0.053781 0.995871 0.102362 0.544031
tknife1.bmp
  0 3.211891 -0.104727 0.620192 0.073136 0.053781 0.995871 0.102362 0.544031
  0 1.772710 -1.158140 0.883780 0.073136 0.053781 0.995871 0.496063 0.571429
  0 2.179599 -2.319899 0.902657 0.073136 0.053781 0.995871 0.496063 0.641879
tknife1.bmp
  0 2.004809 2.132560 0.542718 -0.000116 0.200626 0.979668 0.173228 0.399217
  0 1.013709 0.989895 0.848230 0.073136 0.053781 0.995871 0.496063 0.446184
  0 2.617875 2.057974 0.600922 0.015250 0.091400 0.995697 0.062992 0.418787
tknife1.bmp
  0 2.617875 2.057974 0.600922 0.015250 0.091400 0.995697 0.062992 0.418787
  0 1.013709 0.989895 0.848230 0.073136 0.053781 0.995871 0.496063 0.446184
  0 2.716243 1.577534 0.601941 0.054676 -0.024256 0.998209 0.070866 0.446184
tknife1.bmp
  0 2.123592 6.361607 1.051400 -0.071531 0.268258 -0.960688 0.496063 0.064579
  0 1.430692 6.979609 1.417136 -0.029674 0.320168 -0.946896 0.708661 0.043053
  0 2.433240 7.027106 1.515328 0.077083 0.424829 -0.901986 0.496063 0.015656
tknife1.bmp
  0 -5.442396 -8.104794 0.481861 -0.176620 0.063712 -0.982215 0.496063 0.978474
  0 -5.127341 -6.398122 0.542763 -0.163389 0.096705 -0.981811 0.622047 0.886497
  0 -4.657121 -6.631278 0.373260 -0.163389 0.096705 -0.981811 0.496063 0.886497
tknife1.bmp
  0 2.433240 7.027106 1.515328 -0.099283 0.392572 0.914347 0.496063 0.015656
  0 1.430692 6.979609 1.417136 -0.212326 0.286761 0.934177 0.708661 0.043053
  0 2.042422 6.346761 1.887338 -0.255877 0.234541 0.937826 0.496063 0.064579
tknife1.bmp
  0 2.965738 6.171470 1.551838 0.225573 0.056225 0.972602 0.283465 0.045010
  0 2.433240 7.027106 1.515328 0.252073 0.207597 0.945179 0.496063 0.015656
  0 2.042422 6.346761 1.887338 0.206495 -0.008839 0.978408 0.496063 0.064579
tknife1.bmp
  0 -2.543298 0.769422 0.920969 -0.286076 0.020611 0.957985 0.874016 0.467710
  0 -1.058984 0.387855 1.480361 -0.257176 0.072870 0.963613 0.496063 0.446184
  0 -2.575698 1.203852 0.925538 -0.286076 0.020611 0.957985 0.921260 0.446184
tknife1.bmp
  0 -1.121551 7.349276 -0.090246 -0.176620 0.063712 -0.982215 0.496063 0.064579
  0 -2.066852 7.287973 0.238917 -0.210378 0.129163 -0.969050 0.708661 0.043053
  0 -1.407719 8.057720 0.316590 -0.211284 0.277723 -0.937139 0.496063 0.015656
tknife1.bmp
  0 4.242386 -8.058423 0.578998 -0.130389 -0.155026 -0.979268 0.496063 0.978474
  0 3.216371 -6.660962 0.504190 -0.145281 -0.122857 -0.981733 0.622047 0.886497
  0 3.715945 -6.492201 0.344675 -0.145281 -0.122857 -0.981733 0.496063 0.886497
tknife1.bmp
  0 -1.407719 8.057720 0.316590 -0.388524 0.245306 0.888186 0.496063 0.015656
  0 -2.066852 7.287973 0.238917 -0.393264 0.095713 0.914430 0.708661 0.043053
  0 -1.202721 7.334430 0.745691 -0.362444 0.029724 0.931531 0.496063 0.064579
tknife1.bmp
  0 -0.418333 7.863979 0.409219 0.079623 0.270450 0.959436 0.283465 0.045010
  0 -1.407719 8.057720 0.316590 -0.006880 0.386830 0.922125 0.496063 0.015656
  0 -1.202721 7.334430 0.745691 0.110641 0.215649 0.970183 0.496063 0.064579
tknife1.bmp
  0 -0.260958 0.133057 0.287200 -0.256994 -0.134936 0.956946 0.874016 0.467710
  0 1.013709 0.989895 0.848230 -0.273331 -0.080045 0.958584 0.496063 0.446184
  0 -0.603442 0.403604 0.258750 -0.256994 -0.134936 0.956946 0.921260 0.446184
end
