// Created by Crowbar 0.58

$modelname "weapons/tfa_cso/w_uts15g.mdl"

$bodygroup "studio"
{
	studio "w_uts15g_w_ref"
}

$collisionmodel "w_uts15g_w_ref.smd"
{
	$mass 9
}

$CDMaterials "models\weapons\tfa_cso\uts15g"

$attachment "0" "UTS15_Muzzle" -14.70 5.40 1.20 rotate 0 0 -0

$sequence "idle" {
	"w_uts15g_anims\idle"
	fps 30
}
