version 1
nodes
  0 "root" -1
  1 "Bone01" 0
  2 "Bone_Lefthand" 1
  3 "Bone08" 2
  4 "Bone34" 3
  5 "Bone16" 3
  6 "Bone24" 3
  7 "Bone26" 3
  8 "Bone42" 3
  9 "Dummy01" 3
  10 "Bone02" 9
  11 "Bone_L_Upper" 1
  12 "Bone13" 2
  13 "Bone14" 12
  14 "Bone15" 13
  15 "Bone17" 2
  16 "Bone18" 15
  17 "Bone19" 16
  18 "Bone21" 2
  19 "Bone22" 18
  20 "Bone23" 19
  21 "Bone09" 2
  22 "Bone10" 21
  23 "Bone11" 22
  24 "Bone05" 2
  25 "Bone06" 24
  26 "Bone07" 25
  27 "Bone_Se_Hand-L" 2
  28 "Bone04" 0
  29 "Bone_Righthand" 28
  30 "Bone39" 29
  31 "Bone40" 30
  32 "Bone41" 31
  33 "Bone35" 29
  34 "Bone36" 33
  35 "Bone37" 34
  36 "Bone31" 29
  37 "Bone32" 36
  38 "Bone33" 37
  39 "Bone43" 29
  40 "Bone44" 39
  41 "Bone45" 40
  42 "Bone27" 29
  43 "Bone28" 42
  44 "Bone29" 43
  45 "Bone_Se_Hand-R" 29
  46 "Bone_R_Upper" 28
end
skeleton
  time 0
    0 -0.349399 1.166145 0.203512 0.000000 0.000000 0.000000
    1 8.725283 1.363271 -8.492768 -1.643123 -1.210116 1.291570
    2 -0.071918 -8.498730 -0.104137 0.215951 0.133608 -0.426345
    3 2.749697 -3.429129 0.581341 -3.052543 0.119162 -1.478491
    4 1.153882 1.376477 -0.000001 0.000000 0.000000 1.570796
    5 2.983339 -0.036872 0.000000 0.000000 0.000000 -1.570796
    6 -0.889233 0.786217 0.000000 0.000000 0.000000 -1.538396
    7 -0.702977 0.648954 0.000000 0.000000 0.000000 3.403384
    8 -1.583343 4.991766 -0.000001 0.000000 0.000000 1.570796
    9 2.837764 1.451600 -0.000002 0.000000 0.000000 1.570796
    10 0.000000 0.000000 0.000000 0.000000 0.000000 0.000000
    11 1.257180 8.762585 -0.153713 -1.570562 0.002683 -1.566807
    12 -0.488518 -2.755602 -0.228260 -0.419422 0.109301 -0.409563
    13 0.039887 -1.479790 0.029854 -2.134208 0.000000 0.000001
    14 0.028786 -1.075731 -0.023109 -0.454494 0.000000 0.000000
    15 0.250027 -2.820665 -0.238396 -0.451670 0.165690 -0.428552
    16 -0.049759 -1.680544 0.100479 -2.030714 0.000000 -0.000002
    17 -0.034142 -1.148312 0.084782 -0.832761 0.000000 0.000000
    18 0.957766 -2.746780 -0.090302 0.095852 -0.083263 0.019915
    19 -0.033420 -1.397129 -0.011257 -0.899595 0.000000 -0.000001
    20 -0.022360 -0.957436 0.018784 -1.195586 -0.032982 -0.008353
    21 -1.180681 -2.507217 -0.193859 -0.321933 0.231545 -0.524787
    22 -0.024967 -1.123934 0.017597 -1.831020 0.000000 0.000001
    23 -0.020057 -0.890968 0.010090 -0.851954 0.000000 0.000000
    24 0.583510 -1.197277 0.185379 0.467574 -0.766992 -0.918770
    25 1.535927 0.010246 0.005009 -0.002964 -0.012979 -1.021293
    26 1.100771 0.004527 -0.010679 -0.013942 0.008195 -0.867252
    27 0.120153 -0.050270 -0.054489 0.287569 3.110905 1.561085
    28 0.342531 -0.934254 -12.611043 0.969184 -3.959380 1.418275
    29 0.096944 -8.450418 -0.009365 0.645399 -1.447278 -0.049275
    30 0.447953 -2.798986 -0.200443 -0.949956 0.084282 0.421229
    31 -0.032909 -1.480204 0.004940 -1.124100 0.000000 0.000002
    32 -0.027022 -1.076920 -0.020210 -0.461587 0.000000 0.000000
    33 -0.249534 -2.846964 -0.174213 -0.632775 0.047286 0.373793
    34 0.043235 -1.683941 0.096012 -1.287512 0.002823 -0.000167
    35 0.031729 -1.160830 0.058838 -0.537664 0.000642 0.008372
    36 -0.963866 -2.785145 -0.085350 -0.592838 0.115248 0.261238
    37 0.028479 -1.403067 0.006271 -0.697246 0.000000 0.000000
    38 0.021413 -0.957781 0.020046 -1.149587 0.000000 0.000000
    39 1.164475 -2.543940 -0.170330 -1.155797 -0.073121 0.430228
    40 0.024032 -1.129042 0.017807 -1.006615 0.000000 0.000001
    41 0.014898 -0.883989 -0.019848 -0.425255 0.000000 0.000000
    42 -0.586770 -1.264477 0.200161 0.028458 -0.460692 -2.530217
    43 1.522835 0.058681 0.016848 0.001410 0.008985 0.623506
    44 1.117947 0.048424 -0.005766 -0.020437 -0.014747 1.002033
    45 -0.139399 -0.111698 0.014397 0.852409 0.162397 1.349481
    46 -6.260806 6.983652 -0.294122 1.580804 -0.005023 -0.912799
  time 1
    0 -0.349399 1.166145 0.203512 0.000000 0.000000 0.000000
    1 8.795598 3.515680 -8.090412 -1.669035 -1.214213 1.316719
    2 -0.071918 -8.498730 -0.104137 0.216538 0.062913 -0.425828
    3 2.749697 -3.429129 0.581341 -3.052543 0.119162 -1.478491
    4 1.153882 1.376477 -0.000001 0.000000 0.000000 2.014640
    5 1.428604 -0.036872 0.000000 0.000000 0.000000 -1.570796
    6 -0.889233 0.786217 0.000000 0.000000 0.000000 -2.760090
    7 -0.702977 0.648954 0.000000 0.000000 0.000000 3.403384
    8 -1.583343 4.991766 -0.000001 0.000000 0.000000 1.570796
    9 2.837764 1.451600 -0.000002 0.000000 0.000000 1.570796
    10 0.000000 0.000000 0.000000 0.000000 0.000000 0.000000
    11 1.257180 8.762585 -0.153713 -1.570562 0.002683 -1.566807
    12 -0.488518 -2.755602 -0.228260 -0.419422 0.109301 -0.409563
    13 0.039887 -1.479790 0.029854 -2.134208 0.000000 0.000001
    14 0.028786 -1.075731 -0.023109 -0.454494 0.000000 0.000000
    15 0.250027 -2.820665 -0.238396 -0.451670 0.165690 -0.428552
    16 -0.049759 -1.680544 0.100479 -2.030714 0.000000 -0.000002
    17 -0.034142 -1.148312 0.084782 -0.832761 0.000000 0.000000
    18 0.957766 -2.746780 -0.090302 0.095852 -0.083263 0.019915
    19 -0.033420 -1.397129 -0.011257 -0.899595 0.000000 -0.000001
    20 -0.022360 -0.957436 0.018784 -1.195586 -0.032982 -0.008353
    21 -1.180681 -2.507217 -0.193859 -0.321933 0.231545 -0.524787
    22 -0.024967 -1.123934 0.017597 -1.831020 0.000000 0.000001
    23 -0.020057 -0.890968 0.010090 -0.851954 0.000000 0.000000
    24 0.583510 -1.197277 0.185379 0.467574 -0.766992 -0.918770
    25 1.535927 0.010246 0.005009 -0.002964 -0.012979 -1.021293
    26 1.100771 0.004527 -0.010679 -0.013942 0.008195 -0.867252
    27 0.120153 -0.050270 -0.054489 0.287569 3.110905 1.561085
    28 0.963644 1.065807 -12.771204 1.082778 -3.945317 1.497266
    29 0.096944 -8.450418 -0.009365 0.645399 -1.447278 -0.049275
    30 0.447953 -2.798986 -0.200443 -0.949956 0.084282 0.421229
    31 -0.032909 -1.480204 0.004940 -1.124100 0.000000 0.000002
    32 -0.027022 -1.076920 -0.020210 -0.461587 0.000000 0.000000
    33 -0.249534 -2.846964 -0.174213 -0.632775 0.047286 0.373793
    34 0.043235 -1.683941 0.096012 -1.287512 0.002823 -0.000167
    35 0.031729 -1.160830 0.058838 -0.537664 0.000642 0.008372
    36 -0.963866 -2.785145 -0.085350 -0.592838 0.115248 0.261238
    37 0.028479 -1.403067 0.006271 -0.697246 0.000000 0.000000
    38 0.021413 -0.957781 0.020046 -1.149587 0.000000 0.000000
    39 1.164475 -2.543940 -0.170330 -1.155797 -0.073121 0.430228
    40 0.024032 -1.129042 0.017807 -1.006615 0.000000 0.000001
    41 0.014898 -0.883989 -0.019848 -0.425255 0.000000 0.000000
    42 -0.586770 -1.264477 0.200161 0.028458 -0.460692 -2.530217
    43 1.522835 0.058681 0.016848 0.001410 0.008985 0.623506
    44 1.117947 0.048424 -0.005766 -0.020437 -0.014747 1.002033
    45 -0.139399 -0.111698 0.014397 0.852409 0.162397 1.349481
    46 -6.260806 6.983652 -0.294122 1.580804 -0.005023 -0.912799
  time 2
    0 -0.349399 1.166145 0.203512 0.000000 0.000000 0.000000
    1 8.502620 4.043040 -7.891187 -1.670868 -1.220978 1.318601
    2 -0.071918 -8.498730 -0.104137 0.234011 0.180613 -0.272754
    3 2.749697 -3.429129 0.581341 -3.052543 0.119162 -1.478491
    4 1.153882 1.376477 -0.000001 0.000000 0.000000 2.014640
    5 2.983339 -0.036872 0.000000 0.000000 0.000000 -1.570796
    6 -0.889233 0.786217 0.000000 0.000000 0.000000 -2.710837
    7 -0.702977 0.648954 0.000000 0.000000 0.000000 3.403384
    8 -1.583343 4.991766 -0.000001 0.000000 0.000000 1.570796
    9 2.837764 1.451600 -0.000002 0.000000 0.000000 1.570796
    10 0.000000 0.000000 0.000000 0.000000 0.000000 0.000000
    11 1.257180 8.762585 -0.153713 -1.570562 0.002683 -1.566807
    12 -0.488518 -2.755602 -0.228260 -0.419422 0.109301 -0.409563
    13 0.039887 -1.479790 0.029854 -2.134208 0.000000 0.000001
    14 0.028786 -1.075731 -0.023109 -0.454494 0.000000 0.000000
    15 0.250027 -2.820665 -0.238396 -0.451670 0.165690 -0.428552
    16 -0.049759 -1.680544 0.100479 -2.030714 0.000000 -0.000002
    17 -0.034142 -1.148312 0.084782 -0.832761 0.000000 0.000000
    18 0.957766 -2.746780 -0.090302 0.095852 -0.083263 0.019915
    19 -0.033420 -1.397129 -0.011257 -0.899595 0.000000 -0.000001
    20 -0.022360 -0.957436 0.018784 -1.195586 -0.032982 -0.008353
    21 -1.180681 -2.507217 -0.193859 -0.321933 0.231545 -0.524787
    22 -0.024967 -1.123934 0.017597 -1.831020 0.000000 0.000001
    23 -0.020057 -0.890968 0.010090 -0.851954 0.000000 0.000000
    24 0.583510 -1.197277 0.185379 0.467574 -0.766992 -0.918770
    25 1.535927 0.010246 0.005009 -0.002964 -0.012979 -1.021293
    26 1.100771 0.004527 -0.010679 -0.013942 0.008195 -0.867252
    27 0.120153 -0.050270 -0.054489 0.287569 3.110905 1.561085
    28 -0.567653 0.800174 -12.165717 0.884692 -3.828347 1.374571
    29 0.096944 -8.450418 -0.009365 0.645399 -1.447278 -0.049275
    30 0.447953 -2.798986 -0.200443 -0.949956 0.084282 0.421229
    31 -0.032909 -1.480204 0.004940 -1.124100 0.000000 0.000002
    32 -0.027022 -1.076920 -0.020210 -0.461587 0.000000 0.000000
    33 -0.249534 -2.846964 -0.174213 -0.632775 0.047286 0.373793
    34 0.043235 -1.683941 0.096012 -1.287512 0.002823 -0.000167
    35 0.031729 -1.160830 0.058838 -0.537664 0.000642 0.008372
    36 -0.963866 -2.785145 -0.085350 -0.592838 0.115248 0.261238
    37 0.028479 -1.403067 0.006271 -0.697246 0.000000 0.000000
    38 0.021413 -0.957781 0.020046 -1.149587 0.000000 0.000000
    39 1.164475 -2.543940 -0.170330 -1.155797 -0.073121 0.430228
    40 0.024032 -1.129042 0.017807 -1.006615 0.000000 0.000001
    41 0.014898 -0.883989 -0.019848 -0.425255 0.000000 0.000000
    42 -0.586770 -1.264477 0.200161 0.028458 -0.460692 -2.530217
    43 1.522835 0.058681 0.016848 0.001410 0.008985 0.623506
    44 1.117947 0.048424 -0.005766 -0.020437 -0.014747 1.002033
    45 -0.139399 -0.111698 0.014397 0.852409 0.162397 1.349481
    46 -6.260806 6.983652 -0.294122 1.580804 -0.005023 -0.912799
  time 3
    0 -0.349399 1.166145 0.203512 0.000000 0.000000 0.000000
    1 8.654969 3.761782 -7.754465 -1.667988 -1.228125 1.316034
    2 -0.071918 -8.498730 -0.104137 0.231423 0.104593 -0.280260
    3 2.749697 -3.429129 0.581341 -3.052543 0.119162 -1.478491
    4 1.153882 1.376477 -0.000001 0.000000 0.000000 2.014640
    5 2.983339 -0.036872 0.000000 0.000000 0.000000 -1.570796
    6 -0.889233 0.786217 0.000000 0.000000 0.000000 -2.443434
    7 -0.702977 0.648954 0.000000 0.000000 0.000000 3.403384
    8 -1.583343 4.991766 -0.000001 0.000000 0.000000 1.570796
    9 2.837764 1.451600 -0.000002 0.000000 0.000000 1.570796
    10 0.000000 0.000000 0.000000 0.000000 0.000000 0.000000
    11 1.257180 8.762585 -0.153713 -1.570562 0.002683 -1.566807
    12 -0.488518 -2.755602 -0.228260 -0.419422 0.109301 -0.409563
    13 0.039887 -1.479790 0.029854 -2.134208 0.000000 0.000001
    14 0.028786 -1.075731 -0.023109 -0.454494 0.000000 0.000000
    15 0.250027 -2.820665 -0.238396 -0.451670 0.165690 -0.428552
    16 -0.049759 -1.680544 0.100479 -2.030651 0.000000 -0.000002
    17 -0.034142 -1.148312 0.084782 -0.832785 0.000000 0.000000
    18 0.957766 -2.746780 -0.090302 0.095852 -0.083263 0.019915
    19 -0.033420 -1.397129 -0.011257 -0.899595 0.000000 -0.000001
    20 -0.022360 -0.957436 0.018784 -1.195586 -0.032982 -0.008353
    21 -1.180681 -2.507217 -0.193859 -0.321933 0.231545 -0.524787
    22 -0.024967 -1.123934 0.017597 -1.831020 0.000000 0.000001
    23 -0.020057 -0.890968 0.010090 -0.851954 0.000000 0.000000
    24 0.583510 -1.197277 0.185379 0.467574 -0.766992 -0.918770
    25 1.535927 0.010246 0.005009 -0.002964 -0.012979 -1.021293
    26 1.100771 0.004527 -0.010679 -0.013942 0.008195 -0.867252
    27 0.120153 -0.050270 -0.054489 0.287569 3.110905 1.561085
    28 0.119868 0.390005 -12.583699 0.982634 -3.828672 1.439696
    29 0.096944 -8.450418 -0.009365 0.645399 -1.447278 -0.049275
    30 0.447953 -2.798986 -0.200443 -0.949956 0.084282 0.421229
    31 -0.032909 -1.480204 0.004940 -1.124100 0.000000 0.000002
    32 -0.027022 -1.076920 -0.020210 -0.461587 0.000000 0.000000
    33 -0.249534 -2.846964 -0.174213 -0.632775 0.047286 0.373793
    34 0.043235 -1.683941 0.096012 -1.287512 0.002823 -0.000167
    35 0.031729 -1.160830 0.058838 -0.537664 0.000642 0.008372
    36 -0.963866 -2.785145 -0.085350 -0.592838 0.115248 0.261238
    37 0.028479 -1.403067 0.006271 -0.697246 0.000000 0.000000
    38 0.021413 -0.957781 0.020046 -1.149587 0.000000 0.000000
    39 1.164475 -2.543940 -0.170330 -1.155797 -0.073121 0.430228
    40 0.024032 -1.129042 0.017807 -1.006615 0.000000 0.000001
    41 0.014898 -0.883989 -0.019848 -0.425255 0.000000 0.000000
    42 -0.586770 -1.264477 0.200161 0.028458 -0.460692 -2.530217
    43 1.522835 0.058681 0.016848 0.001410 0.008985 0.623506
    44 1.117947 0.048424 -0.005766 -0.020437 -0.014747 1.002033
    45 -0.139399 -0.111698 0.014397 0.852409 0.162397 1.349481
    46 -6.260806 6.983652 -0.294122 1.580804 -0.005023 -0.912799
  time 4
    0 -0.349399 1.166145 0.203512 0.000000 0.000000 0.000000
    1 8.830755 3.230515 -7.695869 -1.665894 -1.232175 1.314067
    2 -0.071918 -8.498730 -0.104137 0.227300 0.031483 -0.320321
    3 2.749697 -3.429129 0.581341 -3.052543 0.119162 -1.478491
    4 1.153882 1.376477 -0.000001 0.000000 0.000000 1.986073
    5 2.983339 -0.036872 0.000000 0.000000 0.000000 -1.570796
    6 -0.889233 0.786217 0.000000 0.000000 0.000000 -2.356152
    7 -0.702977 0.648954 0.000000 0.000000 0.000000 3.403384
    8 -1.583343 4.991766 -0.000001 0.000000 0.000000 1.570796
    9 2.837764 1.451600 -0.000002 0.000000 0.000000 1.570796
    10 0.000000 0.000000 0.000000 0.000000 0.000000 0.000000
    11 1.257180 8.762585 -0.153713 -1.570562 0.002683 -1.566807
    12 -0.488518 -2.755602 -0.228260 -0.419422 0.109301 -0.409563
    13 0.039887 -1.479790 0.029854 -2.134208 0.000000 0.000001
    14 0.028786 -1.075731 -0.023109 -0.454494 0.000000 0.000000
    15 0.250027 -2.820665 -0.238396 -0.451670 0.165690 -0.428552
    16 -0.049759 -1.680544 0.100479 -2.030714 0.000000 -0.000002
    17 -0.034142 -1.148312 0.084782 -0.832761 0.000000 0.000000
    18 0.957766 -2.746780 -0.090302 0.124893 -0.083263 0.019915
    19 -0.033420 -1.397129 -0.011257 -0.870545 0.000000 -0.000001
    20 -0.022360 -0.957436 0.018784 -1.121024 -0.032982 -0.008353
    21 -1.180681 -2.507217 -0.193859 -0.321933 0.231545 -0.524787
    22 -0.024967 -1.123934 0.017597 -1.831020 0.000000 0.000001
    23 -0.020057 -0.890968 0.010090 -0.851954 0.000000 0.000000
    24 0.583510 -1.197277 0.185379 0.467574 -0.766992 -0.918770
    25 1.535927 0.010246 0.005009 -0.002964 -0.012979 -1.021293
    26 1.100771 0.004527 -0.010679 -0.013942 0.008195 -0.867252
    27 0.120153 -0.050270 -0.054489 0.287569 3.110905 1.561085
    28 0.944112 -0.020163 -12.943084 1.088097 -3.853302 1.507594
    29 0.096944 -8.450418 -0.009365 0.645399 -1.447278 -0.049275
    30 0.447953 -2.798986 -0.200443 -0.949956 0.084282 0.421229
    31 -0.032909 -1.480204 0.004940 -1.124100 0.000000 0.000002
    32 -0.027022 -1.076920 -0.020210 -0.461587 0.000000 0.000000
    33 -0.249534 -2.846964 -0.174213 -0.632775 0.047286 0.373793
    34 0.043235 -1.683941 0.096012 -1.287512 0.002823 -0.000167
    35 0.031729 -1.160830 0.058838 -0.537664 0.000642 0.008372
    36 -0.963866 -2.785145 -0.085350 -0.592838 0.115248 0.261238
    37 0.028479 -1.403067 0.006271 -0.697246 0.000000 0.000000
    38 0.021413 -0.957781 0.020046 -1.149587 0.000000 0.000000
    39 1.164475 -2.543940 -0.170330 -1.155797 -0.073121 0.430228
    40 0.024032 -1.129042 0.017807 -1.006615 0.000000 0.000001
    41 0.014898 -0.883989 -0.019848 -0.425255 0.000000 0.000000
    42 -0.586770 -1.264477 0.200161 0.028458 -0.460692 -2.530217
    43 1.522835 0.058681 0.016848 0.001410 0.008985 0.623506
    44 1.117947 0.048424 -0.005766 -0.020437 -0.014747 1.002033
    45 -0.139399 -0.111698 0.014397 0.852409 0.162397 1.349481
    46 -6.260806 6.983652 -0.294122 1.580804 -0.005023 -0.912799
  time 5
    0 -0.349399 1.166145 0.203512 0.000000 0.000000 0.000000
    1 8.819036 2.441429 -7.816966 -1.669123 -1.231508 1.317146
    2 -0.071918 -8.498730 -0.104137 0.225143 0.091687 -0.359760
    3 2.749697 -3.429129 0.581341 -3.052543 0.119162 -1.478491
    4 1.153882 1.376477 -0.000001 0.000000 0.000000 1.956056
    5 2.983339 -0.036872 0.000000 0.000000 0.000000 -1.570796
    6 -0.889233 0.786217 0.000000 0.000000 0.000000 -2.356152
    7 -0.702977 0.648954 0.000000 0.000000 0.000000 3.403384
    8 -1.583343 4.991766 -0.000001 0.000000 0.000000 1.570796
    9 2.837764 1.451600 -0.000002 0.000000 0.000000 1.570796
    10 0.000000 0.000000 0.000000 0.000000 0.000000 0.000000
    11 1.257180 8.762585 -0.153713 -1.570562 0.002683 -1.566807
    12 -0.488518 -2.755602 -0.228260 -0.419422 0.109301 -0.409563
    13 0.039887 -1.479790 0.029854 -2.134208 0.000000 0.000001
    14 0.028786 -1.075731 -0.023109 -0.454494 0.000000 0.000000
    15 0.250027 -2.820665 -0.238396 -0.451670 0.165690 -0.428552
    16 -0.049759 -1.680544 0.100479 -2.030714 0.000000 -0.000002
    17 -0.034142 -1.148312 0.084782 -0.832761 0.000000 0.000000
    18 0.957766 -2.746780 -0.090302 0.188794 -0.083263 0.019915
    19 -0.033420 -1.397129 -0.011257 -0.806648 0.000000 -0.000001
    20 -0.022360 -0.957436 0.018784 -0.957003 -0.032982 -0.008353
    21 -1.180681 -2.507217 -0.193859 -0.321933 0.231545 -0.524787
    22 -0.024967 -1.123934 0.017597 -1.831020 0.000000 0.000001
    23 -0.020057 -0.890968 0.010090 -0.851954 0.000000 0.000000
    24 0.583510 -1.197277 0.185379 0.465362 -0.768130 -0.915566
    25 1.535927 0.010246 0.005009 -0.002964 -0.012979 -1.009115
    26 1.100771 0.004527 -0.010679 -0.013846 0.008351 -0.855135
    27 0.120153 -0.050270 -0.054489 0.287569 3.110905 1.561085
    28 0.604258 -0.367830 -12.575886 1.024575 -3.906056 1.464082
    29 0.096944 -8.450418 -0.009365 0.645399 -1.447313 -0.049275
    30 0.447953 -2.798986 -0.200443 -0.949956 0.084282 0.421229
    31 -0.032909 -1.480204 0.004940 -1.124100 0.000000 0.000002
    32 -0.027022 -1.076920 -0.020210 -0.461587 0.000000 0.000000
    33 -0.249534 -2.846964 -0.174213 -0.632775 0.047286 0.373793
    34 0.043235 -1.683941 0.096012 -1.287512 0.002823 -0.000167
    35 0.031729 -1.160830 0.058838 -0.537664 0.000642 0.008372
    36 -0.963866 -2.785145 -0.085350 -0.592838 0.115248 0.261238
    37 0.028479 -1.403067 0.006271 -0.697246 0.000000 0.000000
    38 0.021413 -0.957781 0.020046 -1.149587 0.000000 0.000000
    39 1.164475 -2.543940 -0.170330 -1.155797 -0.073121 0.430228
    40 0.024032 -1.129042 0.017807 -1.006615 0.000000 0.000001
    41 0.014898 -0.883989 -0.019848 -0.425255 0.000000 0.000000
    42 -0.586770 -1.264477 0.200161 0.028458 -0.460692 -2.530217
    43 1.522835 0.058681 0.016848 0.001410 0.008985 0.623506
    44 1.117947 0.048424 -0.005766 -0.020437 -0.014747 1.002033
    45 -0.139399 -0.111698 0.014397 0.852409 0.162397 1.349481
    46 -6.260806 6.983652 -0.294122 1.580804 -0.005023 -0.912799
  time 6
    0 -0.349399 1.166145 0.203512 0.000000 0.000000 0.000000
    1 8.772160 1.703125 -8.016191 -1.674794 -1.228315 1.322450
    2 -0.071918 -8.498730 -0.104137 0.220397 0.160687 -0.395683
    3 2.749697 -3.429129 0.581341 -3.052543 0.119162 -1.478491
    4 1.153882 1.376477 -0.000001 0.000000 0.000000 1.924901
    5 2.983339 -0.036872 0.000000 0.000000 0.000000 -1.570796
    6 -0.889233 0.786217 0.000000 0.000000 0.000000 -2.356152
    7 -0.702977 0.648954 0.000000 0.000000 0.000000 3.403384
    8 -1.583343 4.991766 -0.000001 0.000000 0.000000 1.570796
    9 2.837764 1.451600 -0.000002 0.000000 0.000000 1.570796
    10 0.000000 0.000000 0.000000 0.000000 0.000000 0.000000
    11 1.257180 8.762585 -0.153713 -1.570562 0.002683 -1.566807
    12 -0.488518 -2.755602 -0.228260 -0.419422 0.109301 -0.409563
    13 0.039887 -1.479790 0.029854 -2.134208 0.000000 0.000001
    14 0.028786 -1.075731 -0.023109 -0.454494 0.000000 0.000000
    15 0.250027 -2.820665 -0.238396 -0.451670 0.165690 -0.428552
    16 -0.049759 -1.680544 0.100479 -2.030651 0.000000 -0.000002
    17 -0.034142 -1.148312 0.084782 -0.832761 0.000000 0.000000
    18 0.957766 -2.746780 -0.090302 0.252695 -0.083263 0.019915
    19 -0.033420 -1.397129 -0.011257 -0.742750 0.000000 -0.000001
    20 -0.022360 -0.957436 0.018784 -0.793018 -0.032982 -0.008353
    21 -1.180681 -2.507217 -0.193859 -0.321933 0.231545 -0.524787
    22 -0.024967 -1.123934 0.017597 -1.831020 0.000000 0.000001
    23 -0.020057 -0.890968 0.010090 -0.851954 0.000000 0.000000
    24 0.583510 -1.197277 0.185379 0.460466 -0.770623 -0.908549
    25 1.535927 0.010246 0.005009 -0.002964 -0.012979 -0.982380
    26 1.100771 0.004527 -0.010679 -0.013642 0.008710 -0.828375
    27 0.120153 -0.050270 -0.054489 0.287569 3.110905 1.561085
    28 0.178464 -0.707684 -12.196968 0.941305 -3.951658 1.404217
    29 0.096944 -8.450418 -0.009365 0.645399 -1.447278 -0.049275
    30 0.447953 -2.798986 -0.200443 -0.949956 0.084282 0.421229
    31 -0.032909 -1.480204 0.004940 -1.124100 0.000000 0.000002
    32 -0.027022 -1.076920 -0.020210 -0.461587 0.000000 0.000000
    33 -0.249534 -2.846964 -0.174213 -0.632775 0.047286 0.373793
    34 0.043235 -1.683941 0.096012 -1.287512 0.002823 -0.000167
    35 0.031729 -1.160830 0.058838 -0.537664 0.000642 0.008372
    36 -0.963866 -2.785145 -0.085350 -0.592838 0.115248 0.261238
    37 0.028479 -1.403067 0.006271 -0.697246 0.000000 0.000000
    38 0.021413 -0.957781 0.020046 -1.149587 0.000000 0.000000
    39 1.164475 -2.543940 -0.170330 -1.155797 -0.073121 0.430228
    40 0.024032 -1.129042 0.017807 -1.006615 0.000000 0.000001
    41 0.014898 -0.883989 -0.019848 -0.425255 0.000000 0.000000
    42 -0.586770 -1.264477 0.200161 0.028458 -0.460692 -2.530217
    43 1.522835 0.058681 0.016848 0.001410 0.008985 0.623506
    44 1.117947 0.048424 -0.005766 -0.020437 -0.014747 1.002033
    45 -0.139399 -0.111698 0.014397 0.852409 0.162397 1.349481
    46 -6.260806 6.983652 -0.294122 1.580804 -0.005023 -0.912799
  time 7
    0 -0.349399 1.166145 0.203512 0.000000 0.000000 0.000000
    1 8.779973 1.378896 -8.250573 -1.676888 -1.224933 1.324417
    2 -0.071918 -8.498730 -0.104137 0.217772 0.151505 -0.414612
    3 2.749697 -3.429129 0.581341 -3.052543 0.119162 -1.478491
    4 1.153882 1.376477 -0.000001 0.000000 0.000000 1.892893
    5 2.983339 -0.036872 0.000000 0.000000 0.000000 -1.570796
    6 -0.889233 0.786217 0.000000 0.000000 0.000000 -2.356152
    7 -0.702977 0.648954 0.000000 0.000000 0.000000 3.403384
    8 -1.583343 4.991766 -0.000001 0.000000 0.000000 1.570796
    9 2.837764 1.451600 -0.000002 0.000000 0.000000 1.570796
    10 0.000000 0.000000 0.000000 0.000000 0.000000 0.000000
    11 1.257180 8.762585 -0.153713 -1.570562 0.002683 -1.566807
    12 -0.488518 -2.755602 -0.228260 -0.419422 0.109301 -0.409563
    13 0.039887 -1.479790 0.029854 -2.134208 0.000000 0.000001
    14 0.028786 -1.075731 -0.023109 -0.454494 0.000000 0.000000
    15 0.250027 -2.820665 -0.238396 -0.451670 0.165690 -0.428552
    16 -0.049759 -1.680544 0.100479 -2.030651 0.000000 -0.000002
    17 -0.034142 -1.148312 0.084782 -0.832761 0.000000 0.000000
    18 0.957766 -2.746780 -0.090302 0.281736 -0.083263 0.019915
    19 -0.033420 -1.397129 -0.011257 -0.713700 0.000000 -0.000001
    20 -0.022360 -0.957436 0.018784 -0.718456 -0.032982 -0.008353
    21 -1.180681 -2.507217 -0.193859 -0.321933 0.231545 -0.524787
    22 -0.024967 -1.123934 0.017597 -1.831020 0.000000 0.000001
    23 -0.020057 -0.890968 0.010090 -0.851954 0.000000 0.000000
    24 0.583510 -1.197277 0.185379 0.455584 -0.773128 -0.901533
    25 1.535927 0.010246 0.005009 -0.002964 -0.012979 -0.955646
    26 1.100771 0.004527 -0.010679 -0.013426 0.009058 -0.801662
    27 0.120153 -0.050270 -0.054489 0.287569 3.110905 1.561085
    28 0.307374 -0.930347 -12.431350 0.959830 -3.964907 1.415119
    29 0.096944 -8.450418 -0.009365 0.645399 -1.447313 -0.049275
    30 0.447953 -2.798986 -0.200443 -0.949956 0.084282 0.421229
    31 -0.032909 -1.480204 0.004940 -1.124100 0.000000 0.000002
    32 -0.027022 -1.076920 -0.020210 -0.461587 0.000000 0.000000
    33 -0.249534 -2.846964 -0.174213 -0.632775 0.047286 0.373793
    34 0.043235 -1.683941 0.096012 -1.287512 0.002823 -0.000167
    35 0.031729 -1.160830 0.058838 -0.537664 0.000642 0.008372
    36 -0.963866 -2.785145 -0.085350 -0.592838 0.115248 0.261238
    37 0.028479 -1.403067 0.006271 -0.697246 0.000000 0.000000
    38 0.021413 -0.957781 0.020046 -1.149587 0.000000 0.000000
    39 1.164475 -2.543940 -0.170330 -1.155797 -0.073121 0.430228
    40 0.024032 -1.129042 0.017807 -1.006615 0.000000 0.000001
    41 0.014898 -0.883989 -0.019848 -0.425255 0.000000 0.000000
    42 -0.586770 -1.264477 0.200161 0.028458 -0.460692 -2.530217
    43 1.522835 0.058681 0.016848 0.001410 0.008985 0.623506
    44 1.117947 0.048424 -0.005766 -0.020437 -0.014747 1.002033
    45 -0.139399 -0.111698 0.014397 0.852409 0.162397 1.349481
    46 -6.260806 6.983652 -0.294122 1.580804 -0.005023 -0.912799
  time 8
    0 -0.349399 1.166145 0.203512 0.000000 0.000000 0.000000
    1 8.776066 1.285144 -8.438079 -1.669908 -1.223599 1.317745
    2 -0.071918 -8.498730 -0.104137 0.216742 0.119341 -0.426552
    3 2.749697 -3.429129 0.581341 -3.052543 0.119162 -1.478491
    4 1.153882 1.376477 -0.000001 0.000000 0.000000 1.860330
    5 2.983339 -0.036872 0.000000 0.000000 0.000000 -1.570796
    6 -0.889233 0.786217 0.000000 0.000000 0.000000 -2.356152
    7 -0.702977 0.648954 0.000000 0.000000 0.000000 3.403384
    8 -1.583343 4.991766 -0.000001 0.000000 0.000000 1.570796
    9 2.837764 1.451600 -0.000002 0.000000 0.000000 1.570796
    10 0.000000 0.000000 0.000000 0.000000 0.000000 0.000000
    11 1.257180 8.762585 -0.153713 -1.570562 0.002683 -1.566807
    12 -0.488518 -2.755602 -0.228260 -0.419422 0.109301 -0.409563
    13 0.039887 -1.479790 0.029854 -2.134208 0.000000 0.000001
    14 0.028786 -1.075731 -0.023109 -0.454494 0.000000 0.000000
    15 0.250027 -2.820665 -0.238396 -0.451670 0.165690 -0.428552
    16 -0.049759 -1.680544 0.100479 -2.030651 0.000000 -0.000002
    17 -0.034142 -1.148312 0.084782 -0.832785 0.000000 0.000000
    18 0.957766 -2.746780 -0.090302 0.281736 -0.083263 0.019915
    19 -0.033420 -1.397129 -0.011257 -0.713700 0.000000 -0.000001
    20 -0.022360 -0.957436 0.018784 -0.718456 -0.032982 -0.008353
    21 -1.180681 -2.507217 -0.193859 -0.321933 0.231545 -0.524787
    22 -0.024967 -1.123934 0.017597 -1.831020 0.000000 0.000001
    23 -0.020057 -0.890968 0.010090 -0.851954 0.000000 0.000000
    24 0.583510 -1.197277 0.185379 0.453373 -0.774254 -0.898367
    25 1.535927 0.010246 0.005009 -0.002964 -0.012979 -0.943503
    26 1.100771 0.004527 -0.010679 -0.013330 0.009226 -0.789499
    27 0.120153 -0.050270 -0.054489 0.287569 3.110905 1.561085
    28 0.549569 -1.012381 -12.782923 1.005928 -3.968890 1.445912
    29 0.096944 -8.450418 -0.009365 0.645399 -1.447278 -0.049275
    30 0.447953 -2.798986 -0.200443 -0.949956 0.084282 0.421229
    31 -0.032909 -1.480204 0.004940 -1.124100 0.000000 0.000002
    32 -0.027022 -1.076920 -0.020210 -0.461587 0.000000 0.000000
    33 -0.249534 -2.846964 -0.174213 -0.632775 0.047286 0.373793
    34 0.043235 -1.683941 0.096012 -1.287512 0.002823 -0.000167
    35 0.031729 -1.160830 0.058838 -0.537664 0.000642 0.008372
    36 -0.963866 -2.785145 -0.085350 -0.592838 0.115248 0.261238
    37 0.028479 -1.403067 0.006271 -0.697246 0.000000 0.000000
    38 0.021413 -0.957781 0.020046 -1.149587 0.000000 0.000000
    39 1.164475 -2.543940 -0.170330 -1.155797 -0.073121 0.430228
    40 0.024032 -1.129042 0.017807 -1.006615 0.000000 0.000001
    41 0.014898 -0.883989 -0.019848 -0.425255 0.000000 0.000000
    42 -0.586770 -1.264477 0.200161 0.028458 -0.460692 -2.530217
    43 1.522835 0.058681 0.016848 0.001410 0.008985 0.623506
    44 1.117947 0.048424 -0.005766 -0.020437 -0.014747 1.002033
    45 -0.139399 -0.111698 0.014397 0.852409 0.162397 1.349481
    46 -6.260806 6.983652 -0.294122 1.580804 -0.005023 -0.912799
  time 9
    0 -0.349399 1.166145 0.203512 0.000000 0.000000 0.000000
    1 8.725283 1.261705 -8.524019 -1.645391 -1.225028 1.294564
    2 -0.071918 -8.498730 -0.104137 0.216490 0.095304 -0.432950
    3 2.749697 -3.429129 0.581341 -3.052543 0.119162 -1.478491
    4 1.153882 1.376477 -0.000001 0.000000 0.000000 1.827537
    5 2.983339 -0.036872 0.000000 0.000000 0.000000 -1.570796
    6 -0.889233 0.786217 0.000000 0.000000 0.000000 -2.356152
    7 -0.702977 0.648954 0.000000 0.000000 0.000000 3.403384
    8 -1.583343 4.991766 -0.000001 0.000000 0.000000 1.570796
    9 2.837764 1.451600 -0.000002 0.000000 0.000000 1.570796
    10 0.000000 0.000000 0.000000 0.000000 0.000000 0.000000
    11 1.257180 8.762585 -0.153713 -1.570562 0.002683 -1.566807
    12 -0.488518 -2.755602 -0.228260 -0.419422 0.109301 -0.409563
    13 0.039887 -1.479790 0.029854 -2.134208 0.000000 0.000001
    14 0.028786 -1.075731 -0.023109 -0.454494 0.000000 0.000000
    15 0.250027 -2.820665 -0.238396 -0.451670 0.165690 -0.428552
    16 -0.049759 -1.680544 0.100479 -2.030651 0.000000 -0.000002
    17 -0.034142 -1.148312 0.084782 -0.832785 0.000000 0.000000
    18 0.957766 -2.746780 -0.090302 0.281736 -0.083263 0.019915
    19 -0.033420 -1.397129 -0.011257 -0.713700 0.000000 -0.000001
    20 -0.022360 -0.957436 0.018784 -0.718456 -0.032982 -0.008353
    21 -1.180681 -2.507217 -0.193859 -0.321933 0.231545 -0.524787
    22 -0.024967 -1.123934 0.017597 -1.831020 0.000000 0.000001
    23 -0.020057 -0.890968 0.010090 -0.851954 0.000000 0.000000
    24 0.583510 -1.197277 0.185379 0.453373 -0.774254 -0.898367
    25 1.535927 0.010246 0.005009 -0.002964 -0.012979 -0.943503
    26 1.100771 0.004527 -0.010679 -0.013330 0.009226 -0.789499
    27 0.120153 -0.050270 -0.054489 0.287569 3.110905 1.561085
    28 0.651134 -1.020194 -12.962616 1.030627 -3.972385 1.462074
    29 0.096944 -8.450418 -0.009365 0.645399 -1.447278 -0.049275
    30 0.447953 -2.798986 -0.200443 -0.949956 0.084282 0.421229
    31 -0.032909 -1.480204 0.004940 -1.124100 0.000000 0.000002
    32 -0.027022 -1.076920 -0.020210 -0.461587 0.000000 0.000000
    33 -0.249534 -2.846964 -0.174213 -0.632775 0.047286 0.373793
    34 0.043235 -1.683941 0.096012 -1.287512 0.002823 -0.000167
    35 0.031729 -1.160830 0.058838 -0.537664 0.000642 0.008372
    36 -0.963866 -2.785145 -0.085350 -0.592838 0.115248 0.261238
    37 0.028479 -1.403067 0.006271 -0.697246 0.000000 0.000000
    38 0.021413 -0.957781 0.020046 -1.149587 0.000000 0.000000
    39 1.164475 -2.543940 -0.170330 -1.155797 -0.073121 0.430228
    40 0.024032 -1.129042 0.017807 -1.006615 0.000000 0.000001
    41 0.014898 -0.883989 -0.019848 -0.425255 0.000000 0.000000
    42 -0.586770 -1.264477 0.200161 0.028458 -0.460692 -2.530217
    43 1.522835 0.058681 0.016848 0.001410 0.008985 0.623506
    44 1.117947 0.048424 -0.005766 -0.020437 -0.014747 1.002033
    45 -0.139399 -0.111698 0.014397 0.852409 0.162397 1.349481
    46 -6.260806 6.983652 -0.294122 1.580804 -0.005023 -0.912799
  time 10
    0 -0.349399 1.166145 0.203512 0.000000 0.000000 0.000000
    1 8.662781 1.261705 -8.598240 -1.607962 -1.227648 1.259321
    2 -0.071918 -8.498730 -0.104137 0.216526 0.092381 -0.432862
    3 2.749697 -3.429129 0.581341 -3.052543 0.119162 -1.478491
    4 1.153882 1.376477 -0.000001 0.000000 0.000000 1.794784
    5 2.983339 -0.036872 0.000000 0.000000 0.000000 -1.570796
    6 -0.889233 0.786217 0.000000 0.000000 0.000000 -2.356152
    7 -0.702977 0.648954 0.000000 0.000000 0.000000 3.403384
    8 -1.583343 4.991766 -0.000001 0.000000 0.000000 1.570796
    9 2.837764 1.451600 -0.000002 0.000000 0.000000 1.570796
    10 0.000000 0.000000 0.000000 0.000000 0.000000 0.000000
    11 1.257180 8.762585 -0.153713 -1.570562 0.002683 -1.566807
    12 -0.488518 -2.755602 -0.228260 -0.419422 0.109301 -0.409563
    13 0.039887 -1.479790 0.029854 -2.134208 0.000000 0.000001
    14 0.028786 -1.075731 -0.023109 -0.454494 0.000000 0.000000
    15 0.250027 -2.820665 -0.238396 -0.451670 0.165690 -0.428552
    16 -0.049759 -1.680544 0.100479 -2.030714 0.000000 -0.000002
    17 -0.034142 -1.148312 0.084782 -0.832761 0.000000 0.000000
    18 0.957766 -2.746780 -0.090302 0.281736 -0.083263 0.019915
    19 -0.033420 -1.397129 -0.011257 -0.713700 0.000000 -0.000001
    20 -0.022360 -0.957436 0.018784 -0.718456 -0.032982 -0.008353
    21 -1.180681 -2.507217 -0.193859 -0.321933 0.231545 -0.524787
    22 -0.024967 -1.123934 0.017597 -1.831020 0.000000 0.000001
    23 -0.020057 -0.890968 0.010090 -0.851954 0.000000 0.000000
    24 0.583510 -1.197277 0.185379 0.453373 -0.774254 -0.898367
    25 1.535927 0.010246 0.005009 -0.002964 -0.012979 -0.943503
    26 1.100771 0.004527 -0.010679 -0.013330 0.009226 -0.789499
    27 0.120153 -0.050270 -0.054489 0.287569 3.110905 1.561085
    28 0.561288 -1.000662 -12.982148 1.017055 -3.976450 1.451650
    29 0.096944 -8.450418 -0.009365 0.645399 -1.447278 -0.049275
    30 0.447953 -2.798986 -0.200443 -0.949956 0.084282 0.421229
    31 -0.032909 -1.480204 0.004940 -1.124100 0.000000 0.000002
    32 -0.027022 -1.076920 -0.020210 -0.461587 0.000000 0.000000
    33 -0.249534 -2.846964 -0.174213 -0.632775 0.047286 0.373793
    34 0.043235 -1.683941 0.096012 -1.287512 0.002823 -0.000167
    35 0.031729 -1.160830 0.058838 -0.537664 0.000642 0.008372
    36 -0.963866 -2.785145 -0.085350 -0.592838 0.115248 0.261238
    37 0.028479 -1.403067 0.006271 -0.697246 0.000000 0.000000
    38 0.021413 -0.957781 0.020046 -1.149587 0.000000 0.000000
    39 1.164475 -2.543940 -0.170330 -1.155797 -0.073121 0.430228
    40 0.024032 -1.129042 0.017807 -1.006615 0.000000 0.000001
    41 0.014898 -0.883989 -0.019848 -0.425255 0.000000 0.000000
    42 -0.586770 -1.264477 0.200161 0.028458 -0.460692 -2.530217
    43 1.522835 0.058681 0.016848 0.001410 0.008985 0.623506
    44 1.117947 0.048424 -0.005766 -0.020437 -0.014747 1.002033
    45 -0.139399 -0.111698 0.014397 0.852409 0.162397 1.349481
    46 -6.260806 6.983652 -0.294122 1.580804 -0.005023 -0.912799
  time 11
    0 -0.349399 1.166145 0.203512 0.000000 0.000000 0.000000
    1 8.619811 1.269518 -8.649023 -1.572714 -1.230602 1.226045
    2 -0.071918 -8.498730 -0.104137 0.216981 0.097586 -0.427291
    3 2.749697 -3.429129 0.581341 -3.052543 0.119162 -1.478491
    4 1.153882 1.376477 -0.000001 0.000000 0.000000 1.762397
    5 2.983339 -0.036872 0.000000 0.000000 0.000000 -1.570796
    6 -0.889233 0.786217 0.000000 0.000000 0.000000 -2.356152
    7 -0.702977 0.648954 0.000000 0.000000 0.000000 3.403384
    8 -1.583343 4.991766 -0.000001 0.000000 0.000000 1.570796
    9 2.837764 1.451600 -0.000002 0.000000 0.000000 1.570796
    10 0.000000 0.000000 0.000000 0.000000 0.000000 0.000000
    11 1.257180 8.762585 -0.153713 -1.570562 0.002683 -1.566807
    12 -0.488518 -2.755602 -0.228260 -0.419422 0.109301 -0.409563
    13 0.039887 -1.479790 0.029854 -2.134208 0.000000 0.000001
    14 0.028786 -1.075731 -0.023109 -0.454494 0.000000 0.000000
    15 0.250027 -2.820665 -0.238396 -0.451670 0.165690 -0.428552
    16 -0.049759 -1.680544 0.100479 -2.030651 0.000000 -0.000002
    17 -0.034142 -1.148312 0.084782 -0.832761 0.000000 0.000000
    18 0.957766 -2.746780 -0.090302 0.281736 -0.083263 0.019915
    19 -0.033420 -1.397129 -0.011257 -0.713700 0.000000 -0.000001
    20 -0.022360 -0.957436 0.018784 -0.718456 -0.032982 -0.008353
    21 -1.180681 -2.507217 -0.193859 -0.321933 0.231545 -0.524787
    22 -0.024967 -1.123934 0.017597 -1.831020 0.000000 0.000001
    23 -0.020057 -0.890968 0.010090 -0.851954 0.000000 0.000000
    24 0.583510 -1.197277 0.185379 0.453373 -0.774254 -0.898367
    25 1.535927 0.010246 0.005009 -0.002964 -0.012979 -0.943503
    26 1.100771 0.004527 -0.010679 -0.013330 0.009226 -0.789499
    27 0.120153 -0.050270 -0.054489 0.287569 3.110905 1.561085
    28 0.416752 -0.992849 -12.943084 0.991377 -3.977506 1.433480
    29 0.096944 -8.450418 -0.009365 0.645399 -1.447278 -0.049275
    30 0.447953 -2.798986 -0.200443 -0.949956 0.084282 0.421229
    31 -0.032909 -1.480204 0.004940 -1.124100 0.000000 0.000002
    32 -0.027022 -1.076920 -0.020210 -0.461587 0.000000 0.000000
    33 -0.249534 -2.846964 -0.174213 -0.632775 0.047286 0.373793
    34 0.043235 -1.683941 0.096012 -1.287512 0.002823 -0.000167
    35 0.031729 -1.160830 0.058838 -0.537664 0.000642 0.008372
    36 -0.963866 -2.785145 -0.085350 -0.592838 0.115248 0.261238
    37 0.028479 -1.403067 0.006271 -0.697246 0.000000 0.000000
    38 0.021413 -0.957781 0.020046 -1.149587 0.000000 0.000000
    39 1.164475 -2.543940 -0.170330 -1.155797 -0.073121 0.430228
    40 0.024032 -1.129042 0.017807 -1.006615 0.000000 0.000001
    41 0.014898 -0.883989 -0.019848 -0.425255 0.000000 0.000000
    42 -0.586770 -1.264477 0.200161 0.028458 -0.460692 -2.530217
    43 1.522835 0.058681 0.016848 0.001410 0.008985 0.623506
    44 1.117947 0.048424 -0.005766 -0.020437 -0.014747 1.002033
    45 -0.139399 -0.111698 0.014397 0.852409 0.162397 1.349481
    46 -6.260806 6.983652 -0.294122 1.580804 -0.005023 -0.912799
  time 12
    0 -0.349399 1.166145 0.203512 0.000000 0.000000 0.000000
    1 8.608092 1.277331 -8.656836 -1.555265 -1.233890 1.209535
    2 -0.071918 -8.498730 -0.104137 0.217557 0.103205 -0.420774
    3 2.749697 -3.429129 0.581341 -3.052543 0.119162 -1.478491
    4 1.153882 1.376477 -0.000001 0.000000 0.000000 1.730660
    5 2.983339 -0.036872 0.000000 0.000000 0.000000 -1.570796
    6 -0.889233 0.786217 0.000000 0.000000 0.000000 -2.356152
    7 -0.702977 0.648954 0.000000 0.000000 0.000000 3.403384
    8 -1.583343 4.991766 -0.000001 0.000000 0.000000 1.570796
    9 2.837764 1.451600 -0.000002 0.000000 0.000000 1.570796
    10 0.000000 0.000000 0.000000 0.000000 0.000000 0.000000
    11 1.257180 8.762585 -0.153713 -1.570562 0.002683 -1.566807
    12 -0.488518 -2.755602 -0.228260 -0.419422 0.109301 -0.409563
    13 0.039887 -1.479790 0.029854 -2.134208 0.000000 0.000001
    14 0.028786 -1.075731 -0.023109 -0.454494 0.000000 0.000000
    15 0.250027 -2.820665 -0.238396 -0.451670 0.165690 -0.428552
    16 -0.049759 -1.680544 0.100479 -2.030651 0.000000 -0.000002
    17 -0.034142 -1.148312 0.084782 -0.832761 0.000000 0.000000
    18 0.957766 -2.746780 -0.090302 0.281736 -0.083263 0.019915
    19 -0.033420 -1.397129 -0.011257 -0.713700 0.000000 -0.000001
    20 -0.022360 -0.957436 0.018784 -0.718456 -0.032982 -0.008353
    21 -1.180681 -2.507217 -0.193859 -0.321933 0.231545 -0.524787
    22 -0.024967 -1.123934 0.017597 -1.831020 0.000000 0.000001
    23 -0.020057 -0.890968 0.010090 -0.851954 0.000000 0.000000
    24 0.583510 -1.197277 0.185379 0.453373 -0.774254 -0.898367
    25 1.535927 0.010246 0.005009 -0.002964 -0.012979 -0.943503
    26 1.100771 0.004527 -0.010679 -0.013330 0.009226 -0.789499
    27 0.120153 -0.050270 -0.054489 0.287569 3.110905 1.561085
    28 0.330812 -0.996756 -12.907927 0.973953 -3.976694 1.421526
    29 0.096944 -8.450418 -0.009365 0.645399 -1.447278 -0.049275
    30 0.447953 -2.798986 -0.200443 -0.949956 0.084282 0.421229
    31 -0.032909 -1.480204 0.004940 -1.124100 0.000000 0.000002
    32 -0.027022 -1.076920 -0.020210 -0.461587 0.000000 0.000000
    33 -0.249534 -2.846964 -0.174213 -0.632775 0.047286 0.373793
    34 0.043235 -1.683941 0.096012 -1.287512 0.002823 -0.000167
    35 0.031729 -1.160830 0.058838 -0.537664 0.000642 0.008372
    36 -0.963866 -2.785145 -0.085350 -0.592838 0.115248 0.261238
    37 0.028479 -1.403067 0.006271 -0.697246 0.000000 0.000000
    38 0.021413 -0.957781 0.020046 -1.149587 0.000000 0.000000
    39 1.164475 -2.543940 -0.170330 -1.155797 -0.073121 0.430228
    40 0.024032 -1.129042 0.017807 -1.006615 0.000000 0.000001
    41 0.014898 -0.883989 -0.019848 -0.425255 0.000000 0.000000
    42 -0.586770 -1.264477 0.200161 0.028458 -0.460692 -2.530217
    43 1.522835 0.058681 0.016848 0.001410 0.008985 0.623506
    44 1.117947 0.048424 -0.005766 -0.020437 -0.014747 1.002033
    45 -0.139399 -0.111698 0.014397 0.852409 0.162397 1.349481
    46 -6.260806 6.983652 -0.294122 1.580804 -0.005023 -0.912799
  time 13
    0 -0.349399 1.166145 0.203512 0.000000 0.000000 0.000000
    1 8.623718 1.285144 -8.637304 -1.558493 -1.237892 1.212529
    2 -0.071918 -8.498730 -0.104137 0.218180 0.106795 -0.414612
    3 2.749697 -3.429129 0.581341 -3.052543 0.119162 -1.478491
    4 1.153882 1.376477 -0.000001 0.000000 0.000000 1.699871
    5 2.983339 -0.036872 0.000000 0.000000 0.000000 -1.570796
    6 -0.889233 0.786217 0.000000 0.000000 0.000000 -2.356152
    7 -0.702977 0.648954 0.000000 0.000000 0.000000 3.403384
    8 -1.583343 4.991766 -0.000001 0.000000 0.000000 1.570796
    9 2.837764 1.451600 -0.000002 0.000000 0.000000 1.570796
    10 0.000000 0.000000 0.000000 0.000000 0.000000 0.000000
    11 1.257180 8.762585 -0.153713 -1.570562 0.002683 -1.566807
    12 -0.488518 -2.755602 -0.228260 -0.419422 0.109301 -0.409563
    13 0.039887 -1.479790 0.029854 -2.134208 0.000000 0.000001
    14 0.028786 -1.075731 -0.023109 -0.454494 0.000000 0.000000
    15 0.250027 -2.820665 -0.238396 -0.451670 0.165690 -0.428552
    16 -0.049759 -1.680544 0.100479 -2.030651 0.000000 -0.000002
    17 -0.034142 -1.148312 0.084782 -0.832761 0.000000 0.000000
    18 0.957766 -2.746780 -0.090302 0.281736 -0.083263 0.019915
    19 -0.033420 -1.397129 -0.011257 -0.713700 0.000000 -0.000001
    20 -0.022360 -0.957436 0.018784 -0.718456 -0.032982 -0.008353
    21 -1.180681 -2.507217 -0.193859 -0.321933 0.231545 -0.524787
    22 -0.024967 -1.123934 0.017597 -1.831020 0.000000 0.000001
    23 -0.020057 -0.890968 0.010090 -0.851954 0.000000 0.000000
    24 0.583510 -1.197277 0.185379 0.453373 -0.774254 -0.898367
    25 1.535927 0.010246 0.005009 -0.002964 -0.012979 -0.943503
    26 1.100771 0.004527 -0.010679 -0.013330 0.009226 -0.789499
    27 0.120153 -0.050270 -0.054489 0.287569 3.110905 1.561085
    28 0.315187 -1.008475 -12.911834 0.969796 -3.975068 1.419327
    29 0.096944 -8.450418 -0.009365 0.645399 -1.447278 -0.049275
    30 0.447953 -2.798986 -0.200443 -0.949956 0.084282 0.421229
    31 -0.032909 -1.480204 0.004940 -1.124100 0.000000 0.000002
    32 -0.027022 -1.076920 -0.020210 -0.461587 0.000000 0.000000
    33 -0.249534 -2.846964 -0.174213 -0.632775 0.047286 0.373793
    34 0.043235 -1.683941 0.096012 -1.287512 0.002823 -0.000167
    35 0.031729 -1.160830 0.058838 -0.537664 0.000642 0.008372
    36 -0.963866 -2.785145 -0.085350 -0.592838 0.115248 0.261238
    37 0.028479 -1.403067 0.006271 -0.697246 0.000000 0.000000
    38 0.021413 -0.957781 0.020046 -1.149587 0.000000 0.000000
    39 1.164475 -2.543940 -0.170330 -1.155797 -0.073121 0.430228
    40 0.024032 -1.129042 0.017807 -1.006615 0.000000 0.000001
    41 0.014898 -0.883989 -0.019848 -0.425255 0.000000 0.000000
    42 -0.586770 -1.264477 0.200161 0.028458 -0.460692 -2.530217
    43 1.522835 0.058681 0.016848 0.001410 0.008985 0.623506
    44 1.117947 0.048424 -0.005766 -0.020437 -0.014747 1.002033
    45 -0.139399 -0.111698 0.014397 0.852409 0.162397 1.349481
    46 -6.260806 6.983652 -0.294122 1.580804 -0.005023 -0.912799
  time 14
    0 -0.349399 1.166145 0.203512 0.000000 0.000000 0.000000
    1 8.647156 1.296863 -8.609959 -1.572016 -1.242751 1.225275
    2 -0.071918 -8.498730 -0.104137 0.218947 0.110852 -0.407519
    3 2.749697 -3.429129 0.581341 -3.052543 0.119162 -1.478491
    4 1.153882 1.376477 -0.000001 0.000000 0.000000 1.670342
    5 2.983339 -0.036872 0.000000 0.000000 0.000000 -1.570796
    6 -0.889233 0.786217 0.000000 0.000000 0.000000 -2.356152
    7 -0.702977 0.648954 0.000000 0.000000 0.000000 3.403384
    8 -1.583343 4.991766 -0.000001 0.000000 0.000000 1.570796
    9 2.837764 1.451600 -0.000002 0.000000 0.000000 1.570796
    10 0.000000 0.000000 0.000000 0.000000 0.000000 0.000000
    11 1.257180 8.762585 -0.153713 -1.570562 0.002683 -1.566807
    12 -0.488518 -2.755602 -0.228260 -0.419422 0.109301 -0.409563
    13 0.039887 -1.479790 0.029854 -2.134208 0.000000 0.000001
    14 0.028786 -1.075731 -0.023109 -0.454494 0.000000 0.000000
    15 0.250027 -2.820665 -0.238396 -0.451670 0.165690 -0.428552
    16 -0.049759 -1.680544 0.100479 -2.030651 0.000000 -0.000002
    17 -0.034142 -1.148312 0.084782 -0.832761 0.000000 0.000000
    18 0.957766 -2.746780 -0.090302 0.281736 -0.083263 0.019915
    19 -0.033420 -1.397129 -0.011257 -0.713700 0.000000 -0.000001
    20 -0.022360 -0.957436 0.018784 -0.718456 -0.032982 -0.008353
    21 -1.180681 -2.507217 -0.193859 -0.321933 0.231545 -0.524787
    22 -0.024967 -1.123934 0.017597 -1.831020 0.000000 0.000001
    23 -0.020057 -0.890968 0.010090 -0.851954 0.000000 0.000000
    24 0.583510 -1.197277 0.185379 0.453373 -0.774254 -0.898367
    25 1.535927 0.010246 0.005009 -0.002964 -0.012979 -0.943503
    26 1.100771 0.004527 -0.010679 -0.013330 0.009226 -0.789499
    27 0.120153 -0.050270 -0.054489 0.287569 3.110905 1.561085
    28 0.315187 -1.031913 -12.931365 0.969796 -3.972792 1.420379
    29 0.096944 -8.450418 -0.009365 0.645399 -1.447278 -0.049275
    30 0.447953 -2.798986 -0.200443 -0.949956 0.084282 0.421229
    31 -0.032909 -1.480204 0.004940 -1.124100 0.000000 0.000002
    32 -0.027022 -1.076920 -0.020210 -0.461587 0.000000 0.000000
    33 -0.249534 -2.846964 -0.174213 -0.632775 0.047286 0.373793
    34 0.043235 -1.683941 0.096012 -1.287512 0.002823 -0.000167
    35 0.031729 -1.160830 0.058838 -0.537664 0.000642 0.008372
    36 -0.963866 -2.785145 -0.085350 -0.592838 0.115248 0.261238
    37 0.028479 -1.403067 0.006271 -0.697246 0.000000 0.000000
    38 0.021413 -0.957781 0.020046 -1.149587 0.000000 0.000000
    39 1.164475 -2.543940 -0.170330 -1.155797 -0.073121 0.430228
    40 0.024032 -1.129042 0.017807 -1.006615 0.000000 0.000001
    41 0.014898 -0.883989 -0.019848 -0.425255 0.000000 0.000000
    42 -0.586770 -1.264477 0.200161 0.028458 -0.460692 -2.530217
    43 1.522835 0.058681 0.016848 0.001410 0.008985 0.623506
    44 1.117947 0.048424 -0.005766 -0.020437 -0.014747 1.002033
    45 -0.139399 -0.111698 0.014397 0.852409 0.162397 1.349481
    46 -6.260806 6.983652 -0.294122 1.580804 -0.005023 -0.912799
  time 15
    0 -0.349399 1.166145 0.203512 0.000000 0.000000 0.000000
    1 8.670594 1.304675 -8.582615 -1.592083 -1.247754 1.244265
    2 -0.071918 -8.498730 -0.104137 0.219786 0.115016 -0.400175
    3 2.749697 -3.429129 0.581341 -3.052543 0.119162 -1.478491
    4 1.153882 1.376477 -0.000001 0.000000 0.000000 1.642370
    5 2.983339 -0.036872 0.000000 0.000000 0.000000 -1.570796
    6 -0.889233 0.786217 0.000000 0.000000 0.000000 -2.356152
    7 -0.702977 0.648954 0.000000 0.000000 0.000000 3.403384
    8 -1.583343 4.991766 -0.000001 0.000000 0.000000 1.570796
    9 2.837764 1.451600 -0.000002 0.000000 0.000000 1.570796
    10 0.000000 0.000000 0.000000 0.000000 0.000000 0.000000
    11 1.257180 8.762585 -0.153713 -1.570562 0.002683 -1.566807
    12 -0.488518 -2.755602 -0.228260 -0.419422 0.109301 -0.409563
    13 0.039887 -1.479790 0.029854 -2.134208 0.000000 0.000001
    14 0.028786 -1.075731 -0.023109 -0.454494 0.000000 0.000000
    15 0.250027 -2.820665 -0.238396 -0.451670 0.165690 -0.428552
    16 -0.049759 -1.680544 0.100479 -2.030651 0.000000 -0.000002
    17 -0.034142 -1.148312 0.084782 -0.832761 0.000000 0.000000
    18 0.957766 -2.746780 -0.090302 0.281736 -0.083263 0.019915
    19 -0.033420 -1.397129 -0.011257 -0.713700 0.000000 -0.000001
    20 -0.022360 -0.957436 0.018784 -0.718456 -0.032982 -0.008353
    21 -1.180681 -2.507217 -0.193859 -0.321933 0.231545 -0.524787
    22 -0.024967 -1.123934 0.017597 -1.831020 0.000000 0.000001
    23 -0.020057 -0.890968 0.010090 -0.851954 0.000000 0.000000
    24 0.583510 -1.197277 0.185379 0.453373 -0.774254 -0.898367
    25 1.535927 0.010246 0.005009 -0.002964 -0.012979 -0.943503
    26 1.100771 0.004527 -0.010679 -0.013330 0.009226 -0.789499
    27 0.120153 -0.050270 -0.054489 0.287569 3.110905 1.561085
    28 0.319093 -1.055351 -12.966523 0.972486 -3.970272 1.423439
    29 0.096944 -8.450418 -0.009365 0.645399 -1.447278 -0.049275
    30 0.447953 -2.798986 -0.200443 -0.949956 0.084282 0.421229
    31 -0.032909 -1.480204 0.004940 -1.124100 0.000000 0.000002
    32 -0.027022 -1.076920 -0.020210 -0.461587 0.000000 0.000000
    33 -0.249534 -2.846964 -0.174213 -0.632775 0.047286 0.373793
    34 0.043235 -1.683941 0.096012 -1.287512 0.002823 -0.000167
    35 0.031729 -1.160830 0.058838 -0.537664 0.000642 0.008372
    36 -0.963866 -2.785145 -0.085350 -0.592838 0.115248 0.261238
    37 0.028479 -1.403067 0.006271 -0.697246 0.000000 0.000000
    38 0.021413 -0.957781 0.020046 -1.149587 0.000000 0.000000
    39 1.164475 -2.543940 -0.170330 -1.155797 -0.073121 0.430228
    40 0.024032 -1.129042 0.017807 -1.006615 0.000000 0.000001
    41 0.014898 -0.883989 -0.019848 -0.425255 0.000000 0.000000
    42 -0.586770 -1.264477 0.200161 0.028458 -0.460692 -2.530217
    43 1.522835 0.058681 0.016848 0.001410 0.008985 0.623506
    44 1.117947 0.048424 -0.005766 -0.020437 -0.014747 1.002033
    45 -0.139399 -0.111698 0.014397 0.852409 0.162397 1.349481
    46 -6.260806 6.983652 -0.294122 1.580804 -0.005023 -0.912799
  time 16
    0 -0.349399 1.166145 0.203512 0.000000 0.000000 0.000000
    1 8.694032 1.312488 -8.555270 -1.614506 -1.252375 1.265479
    2 -0.071918 -8.498730 -0.104137 0.220565 0.118887 -0.393274
    3 2.749697 -3.429129 0.581341 -3.052543 0.119162 -1.478491
    4 1.153882 1.376477 -0.000001 0.000000 0.000000 1.616255
    5 2.983339 -0.036872 0.000000 0.000000 0.000000 -1.570796
    6 -0.889233 0.786217 0.000000 0.000000 0.000000 -2.356152
    7 -0.702977 0.648954 0.000000 0.000000 0.000000 3.403384
    8 -1.583343 4.991766 -0.000001 0.000000 0.000000 1.570796
    9 2.837764 1.451600 -0.000002 0.000000 0.000000 1.570796
    10 0.000000 0.000000 0.000000 0.000000 0.000000 0.000000
    11 1.257180 8.762585 -0.153713 -1.570562 0.002683 -1.566807
    12 -0.488518 -2.755602 -0.228260 -0.419422 0.109301 -0.409563
    13 0.039887 -1.479790 0.029854 -2.134208 0.000000 0.000001
    14 0.028786 -1.075731 -0.023109 -0.454494 0.000000 0.000000
    15 0.250027 -2.820665 -0.238396 -0.451670 0.165690 -0.428552
    16 -0.049759 -1.680544 0.100479 -2.030651 0.000000 -0.000002
    17 -0.034142 -1.148312 0.084782 -0.832761 0.000000 0.000000
    18 0.957766 -2.746780 -0.090302 0.281736 -0.083263 0.019915
    19 -0.033420 -1.397129 -0.011257 -0.713700 0.000000 -0.000001
    20 -0.022360 -0.957436 0.018784 -0.718456 -0.032982 -0.008353
    21 -1.180681 -2.507217 -0.193859 -0.321933 0.231545 -0.524787
    22 -0.024967 -1.123934 0.017597 -1.831020 0.000000 0.000001
    23 -0.020057 -0.890968 0.010090 -0.851954 0.000000 0.000000
    24 0.583510 -1.197277 0.185379 0.453373 -0.774254 -0.898367
    25 1.535927 0.010246 0.005009 -0.002964 -0.012979 -0.943503
    26 1.100771 0.004527 -0.010679 -0.013330 0.009226 -0.789499
    27 0.120153 -0.050270 -0.054489 0.287569 3.110905 1.561085
    28 0.330812 -1.078789 -13.005586 0.976398 -3.967671 1.427360
    29 0.096944 -8.450418 -0.009365 0.645399 -1.447278 -0.049275
    30 0.447953 -2.798986 -0.200443 -0.949956 0.084282 0.421229
    31 -0.032909 -1.480204 0.004940 -1.124100 0.000000 0.000002
    32 -0.027022 -1.076920 -0.020210 -0.461587 0.000000 0.000000
    33 -0.249534 -2.846964 -0.174213 -0.632775 0.047286 0.373793
    34 0.043235 -1.683941 0.096012 -1.287512 0.002823 -0.000167
    35 0.031729 -1.160830 0.058838 -0.537664 0.000642 0.008372
    36 -0.963866 -2.785145 -0.085350 -0.592838 0.115248 0.261238
    37 0.028479 -1.403067 0.006271 -0.697246 0.000000 0.000000
    38 0.021413 -0.957781 0.020046 -1.149587 0.000000 0.000000
    39 1.164475 -2.543940 -0.170330 -1.155797 -0.073121 0.430228
    40 0.024032 -1.129042 0.017807 -1.006615 0.000000 0.000001
    41 0.014898 -0.883989 -0.019848 -0.425255 0.000000 0.000000
    42 -0.586770 -1.264477 0.200161 0.028458 -0.460692 -2.530217
    43 1.522835 0.058681 0.016848 0.001410 0.008985 0.623506
    44 1.117947 0.048424 -0.005766 -0.020437 -0.014747 1.002033
    45 -0.139399 -0.111698 0.014397 0.852409 0.162397 1.349481
    46 -6.260806 6.983652 -0.294122 1.580804 -0.005023 -0.912799
  time 17
    0 -0.349399 1.166145 0.203512 0.000000 0.000000 0.000000
    1 8.713564 1.320301 -8.531832 -1.634747 -1.256139 1.284641
    2 -0.071918 -8.498730 -0.104137 0.221152 0.122117 -0.387482
    3 2.749697 -3.429129 0.581341 -3.052543 0.119162 -1.478491
    4 1.153882 1.376477 -0.000001 0.000000 0.000000 1.592293
    5 2.983339 -0.036872 0.000000 0.000000 0.000000 -1.570796
    6 -0.889233 0.786217 0.000000 0.000000 0.000000 -2.356152
    7 -0.702977 0.648954 0.000000 0.000000 0.000000 3.403384
    8 -1.583343 4.991766 -0.000001 0.000000 0.000000 1.570796
    9 2.837764 1.451600 -0.000002 0.000000 0.000000 1.570796
    10 0.000000 0.000000 0.000000 0.000000 0.000000 0.000000
    11 1.257180 8.762585 -0.153713 -1.570562 0.002683 -1.566807
    12 -0.488518 -2.755602 -0.228260 -0.419422 0.109301 -0.409563
    13 0.039887 -1.479790 0.029854 -2.134208 0.000000 0.000001
    14 0.028786 -1.075731 -0.023109 -0.454494 0.000000 0.000000
    15 0.250027 -2.820665 -0.238396 -0.451670 0.165690 -0.428552
    16 -0.049759 -1.680544 0.100479 -2.030714 0.000000 -0.000002
    17 -0.034142 -1.148312 0.084782 -0.832761 0.000000 0.000000
    18 0.957766 -2.746780 -0.090302 0.281736 -0.083263 0.019915
    19 -0.033420 -1.397129 -0.011257 -0.713700 0.000000 -0.000001
    20 -0.022360 -0.957436 0.018784 -0.718456 -0.032982 -0.008353
    21 -1.180681 -2.507217 -0.193859 -0.321933 0.231545 -0.524787
    22 -0.024967 -1.123934 0.017597 -1.831020 0.000000 0.000001
    23 -0.020057 -0.890968 0.010090 -0.851954 0.000000 0.000000
    24 0.583510 -1.197277 0.185379 0.453373 -0.774254 -0.898367
    25 1.535927 0.010246 0.005009 -0.002964 -0.012979 -0.943503
    26 1.100771 0.004527 -0.010679 -0.013330 0.009226 -0.789499
    27 0.120153 -0.050270 -0.054489 0.287569 3.110905 1.561085
    28 0.346437 -1.094415 -13.040744 0.980128 -3.965476 1.430802
    29 0.096944 -8.450418 -0.009365 0.645399 -1.447278 -0.049275
    30 0.447953 -2.798986 -0.200443 -0.949956 0.084282 0.421229
    31 -0.032909 -1.480204 0.004940 -1.124100 0.000000 0.000002
    32 -0.027022 -1.076920 -0.020210 -0.461587 0.000000 0.000000
    33 -0.249534 -2.846964 -0.174213 -0.632775 0.047286 0.373793
    34 0.043235 -1.683941 0.096012 -1.287512 0.002823 -0.000167
    35 0.031729 -1.160830 0.058838 -0.537664 0.000642 0.008372
    36 -0.963866 -2.785145 -0.085350 -0.592838 0.115248 0.261238
    37 0.028479 -1.403067 0.006271 -0.697246 0.000000 0.000000
    38 0.021413 -0.957781 0.020046 -1.149587 0.000000 0.000000
    39 1.164475 -2.543940 -0.170330 -1.155797 -0.073121 0.430228
    40 0.024032 -1.129042 0.017807 -1.006615 0.000000 0.000001
    41 0.014898 -0.883989 -0.019848 -0.425255 0.000000 0.000000
    42 -0.586770 -1.264477 0.200161 0.028458 -0.460692 -2.530217
    43 1.522835 0.058681 0.016848 0.001410 0.008985 0.623506
    44 1.117947 0.048424 -0.005766 -0.020437 -0.014747 1.002033
    45 -0.139399 -0.111698 0.014397 0.852409 0.162397 1.349481
    46 -6.260806 6.983652 -0.294122 1.580804 -0.005023 -0.912799
  time 18
    0 -0.349399 1.166145 0.203512 0.000000 0.000000 0.000000
    1 8.725283 1.328114 -8.512300 -1.648009 -1.258664 1.297301
    2 -0.071918 -8.498730 -0.104137 0.221428 0.124319 -0.383507
    3 2.749697 -3.429129 0.581341 -3.052543 0.119162 -1.478491
    4 1.153882 1.376477 -0.000001 0.000000 0.000000 1.570796
    5 2.983339 -0.036872 0.000000 0.000000 0.000000 -1.570796
    6 -0.889233 0.786217 0.000000 0.000000 0.000000 -2.356152
    7 -0.702977 0.648954 0.000000 0.000000 0.000000 3.403384
    8 -1.583343 4.991766 -0.000001 0.000000 0.000000 1.570796
    9 2.837764 1.451600 -0.000002 0.000000 0.000000 1.570796
    10 0.000000 0.000000 0.000000 0.000000 0.000000 0.000000
    11 1.257180 8.762585 -0.153713 -1.570562 0.002683 -1.566807
    12 -0.488518 -2.755602 -0.228260 -0.419422 0.109301 -0.409563
    13 0.039887 -1.479790 0.029854 -2.134208 0.000000 0.000001
    14 0.028786 -1.075731 -0.023109 -0.454494 0.000000 0.000000
    15 0.250027 -2.820665 -0.238396 -0.451670 0.165690 -0.428552
    16 -0.049759 -1.680544 0.100479 -2.030714 0.000000 -0.000002
    17 -0.034142 -1.148312 0.084782 -0.832761 0.000000 0.000000
    18 0.957766 -2.746780 -0.090302 0.281736 -0.083263 0.019915
    19 -0.033420 -1.397129 -0.011257 -0.713700 0.000000 -0.000001
    20 -0.022360 -0.957436 0.018784 -0.718456 -0.032982 -0.008353
    21 -1.180681 -2.507217 -0.193859 -0.321933 0.231545 -0.524787
    22 -0.024967 -1.123934 0.017597 -1.831020 0.000000 0.000001
    23 -0.020057 -0.890968 0.010090 -0.851954 0.000000 0.000000
    24 0.583510 -1.197277 0.185379 0.453373 -0.774254 -0.898367
    25 1.535927 0.010246 0.005009 -0.002964 -0.012979 -0.943503
    26 1.100771 0.004527 -0.010679 -0.013330 0.009226 -0.789499
    27 0.120153 -0.050270 -0.054489 0.287569 3.110905 1.561085
    28 0.354250 -1.106134 -13.060276 0.982268 -3.964013 1.432619
    29 0.096944 -8.450418 -0.009365 0.645399 -1.447278 -0.049275
    30 0.447953 -2.798986 -0.200443 -0.949956 0.084282 0.421229
    31 -0.032909 -1.480204 0.004940 -1.124100 0.000000 0.000002
    32 -0.027022 -1.076920 -0.020210 -0.461587 0.000000 0.000000
    33 -0.249534 -2.846964 -0.174213 -0.632775 0.047286 0.373793
    34 0.043235 -1.683941 0.096012 -1.287512 0.002823 -0.000167
    35 0.031729 -1.160830 0.058838 -0.537664 0.000642 0.008372
    36 -0.963866 -2.785145 -0.085350 -0.592838 0.115248 0.261238
    37 0.028479 -1.403067 0.006271 -0.697246 0.000000 0.000000
    38 0.021413 -0.957781 0.020046 -1.149587 0.000000 0.000000
    39 1.164475 -2.543940 -0.170330 -1.155797 -0.073121 0.430228
    40 0.024032 -1.129042 0.017807 -1.006615 0.000000 0.000001
    41 0.014898 -0.883989 -0.019848 -0.425255 0.000000 0.000000
    42 -0.586770 -1.264477 0.200161 0.028458 -0.460692 -2.530217
    43 1.522835 0.058681 0.016848 0.001410 0.008985 0.623506
    44 1.117947 0.048424 -0.005766 -0.020437 -0.014747 1.002033
    45 -0.139399 -0.111698 0.014397 0.852409 0.162397 1.349481
    46 -6.260806 6.983652 -0.294122 1.580804 -0.005023 -0.912799
  time 19
    0 -0.349399 1.166145 0.203512 0.000000 0.000000 0.000000
    1 8.733096 1.335926 -8.504487 -1.654203 -1.259998 1.303203
    2 -0.071918 -8.498730 -0.104137 0.221356 0.125466 -0.381408
    3 2.749697 -3.429129 0.581341 -3.052543 0.119162 -1.478491
    4 1.153882 1.376477 -0.000001 0.000000 0.000000 1.555977
    5 2.983339 -0.036872 0.000000 0.000000 0.000000 -1.570796
    6 -0.889233 0.786217 0.000000 0.000000 0.000000 -2.356152
    7 -0.702977 0.648954 0.000000 0.000000 0.000000 3.403384
    8 -1.583343 4.991766 -0.000001 0.000000 0.000000 1.570796
    9 2.837764 1.451600 -0.000002 0.000000 0.000000 1.570796
    10 0.000000 0.000000 0.000000 0.000000 0.000000 0.000000
    11 1.257180 8.762585 -0.153713 -1.570562 0.002683 -1.566807
    12 -0.488518 -2.755602 -0.228260 -0.419422 0.109301 -0.409563
    13 0.039887 -1.479790 0.029854 -2.134208 0.000000 0.000001
    14 0.028786 -1.075731 -0.023109 -0.454494 0.000000 0.000000
    15 0.250027 -2.820665 -0.238396 -0.451670 0.165690 -0.428552
    16 -0.049759 -1.680544 0.100479 -2.030651 0.000000 -0.000002
    17 -0.034142 -1.148312 0.084782 -0.832761 0.000000 0.000000
    18 0.957766 -2.746780 -0.090302 0.281736 -0.083263 0.019915
    19 -0.033420 -1.397129 -0.011257 -0.713700 0.000000 -0.000001
    20 -0.022360 -0.957436 0.018784 -0.718456 -0.032982 -0.008353
    21 -1.180681 -2.507217 -0.193859 -0.321933 0.231545 -0.524787
    22 -0.024967 -1.123934 0.017597 -1.831020 0.000000 0.000001
    23 -0.020057 -0.890968 0.010090 -0.851954 0.000000 0.000000
    24 0.583510 -1.197277 0.185379 0.453373 -0.774254 -0.898367
    25 1.535927 0.010246 0.005009 -0.002964 -0.012979 -0.943503
    26 1.100771 0.004527 -0.010679 -0.013330 0.009226 -0.789499
    27 0.120153 -0.050270 -0.054489 0.287569 3.110905 1.561085
    28 0.358157 -1.106134 -13.068088 0.983062 -3.963281 1.433193
    29 0.096944 -8.450418 -0.009365 0.645399 -1.447278 -0.049275
    30 0.447953 -2.798986 -0.200443 -0.949956 0.084282 0.421229
    31 -0.032909 -1.480204 0.004940 -1.124100 0.000000 0.000002
    32 -0.027022 -1.076920 -0.020210 -0.461587 0.000000 0.000000
    33 -0.249534 -2.846964 -0.174213 -0.632775 0.047286 0.373793
    34 0.043235 -1.683941 0.096012 -1.287512 0.002823 -0.000167
    35 0.031729 -1.160830 0.058838 -0.537664 0.000642 0.008372
    36 -0.963866 -2.785145 -0.085350 -0.592838 0.115248 0.261238
    37 0.028479 -1.403067 0.006271 -0.697246 0.000000 0.000000
    38 0.021413 -0.957781 0.020046 -1.149587 0.000000 0.000000
    39 1.164475 -2.543940 -0.170330 -1.155797 -0.073121 0.430228
    40 0.024032 -1.129042 0.017807 -1.006615 0.000000 0.000001
    41 0.014898 -0.883989 -0.019848 -0.425255 0.000000 0.000000
    42 -0.586770 -1.264477 0.200161 0.028458 -0.460692 -2.530217
    43 1.522835 0.058681 0.016848 0.001410 0.008985 0.623506
    44 1.117947 0.048424 -0.005766 -0.020437 -0.014747 1.002033
    45 -0.139399 -0.111698 0.014397 0.852409 0.162397 1.349481
    46 -6.260806 6.983652 -0.294122 1.580804 -0.005023 -0.912799
  time 20
    0 -0.349399 1.166145 0.203512 0.000000 0.000000 0.000000
    1 8.737002 1.339833 -8.496675 -1.657082 -1.260570 1.305940
    2 -0.071918 -8.498730 -0.104137 0.221032 0.125867 -0.380625
    3 2.749697 -3.429129 0.581341 -3.052543 0.119162 -1.478491
    4 1.153882 1.376477 -0.000001 0.000000 0.000000 1.550220
    5 2.983339 -0.036872 0.000000 0.000000 0.000000 -1.570796
    6 -0.889233 0.786217 0.000000 0.000000 0.000000 -2.356152
    7 -0.702977 0.648954 0.000000 0.000000 0.000000 3.403384
    8 -1.583343 4.991766 -0.000001 0.000000 0.000000 1.570796
    9 2.837764 1.451600 -0.000002 0.000000 0.000000 1.570796
    10 0.000000 0.000000 0.000000 0.000000 0.000000 0.000000
    11 1.257180 8.762585 -0.153713 -1.570562 0.002683 -1.566807
    12 -0.488518 -2.755602 -0.228260 -0.419422 0.109301 -0.409563
    13 0.039887 -1.479790 0.029854 -2.134208 0.000000 0.000001
    14 0.028786 -1.075731 -0.023109 -0.454494 0.000000 0.000000
    15 0.250027 -2.820665 -0.238396 -0.451670 0.165690 -0.428552
    16 -0.049759 -1.680544 0.100479 -2.030651 0.000000 -0.000002
    17 -0.034142 -1.148312 0.084782 -0.832761 0.000000 0.000000
    18 0.957766 -2.746780 -0.090302 0.281736 -0.083263 0.019915
    19 -0.033420 -1.397129 -0.011257 -0.713700 0.000000 -0.000001
    20 -0.022360 -0.957436 0.018784 -0.718456 -0.032982 -0.008353
    21 -1.180681 -2.507217 -0.193859 -0.321933 0.231545 -0.524787
    22 -0.024967 -1.123934 0.017597 -1.831020 0.000000 0.000001
    23 -0.020057 -0.890968 0.010090 -0.851954 0.000000 0.000000
    24 0.583510 -1.197277 0.185379 0.453373 -0.774254 -0.898367
    25 1.535927 0.010246 0.005009 -0.002964 -0.012979 -0.943503
    26 1.100771 0.004527 -0.010679 -0.013330 0.009226 -0.789499
    27 0.120153 -0.050270 -0.054489 0.287569 3.110905 1.561085
    28 0.362063 -1.102228 -13.071995 0.983613 -3.963038 1.433289
    29 0.096944 -8.450418 -0.009365 0.645399 -1.447278 -0.049275
    30 0.447953 -2.798986 -0.200443 -0.949956 0.084282 0.421229
    31 -0.032909 -1.480204 0.004940 -1.124100 0.000000 0.000002
    32 -0.027022 -1.076920 -0.020210 -0.461587 0.000000 0.000000
    33 -0.249534 -2.846964 -0.174213 -0.632775 0.047286 0.373793
    34 0.043235 -1.683941 0.096012 -1.287512 0.002823 -0.000167
    35 0.031729 -1.160830 0.058838 -0.537664 0.000642 0.008372
    36 -0.963866 -2.785145 -0.085350 -0.592838 0.115248 0.261238
    37 0.028479 -1.403067 0.006271 -0.697246 0.000000 0.000000
    38 0.021413 -0.957781 0.020046 -1.149587 0.000000 0.000000
    39 1.164475 -2.543940 -0.170330 -1.155797 -0.073121 0.430228
    40 0.024032 -1.129042 0.017807 -1.006615 0.000000 0.000001
    41 0.014898 -0.883989 -0.019848 -0.425255 0.000000 0.000000
    42 -0.586770 -1.264477 0.200161 0.028458 -0.460692 -2.530217
    43 1.522835 0.058681 0.016848 0.001410 0.008985 0.623506
    44 1.117947 0.048424 -0.005766 -0.020437 -0.014747 1.002033
    45 -0.139399 -0.111698 0.014397 0.852409 0.162397 1.349481
    46 -6.260806 6.983652 -0.294122 1.580804 -0.005023 -0.912799
  time 21
    0 -0.349399 1.166145 0.203512 0.000000 0.000000 0.000000
    1 8.737002 1.347646 -8.492768 -1.657693 -1.260570 1.306539
    2 -0.071918 -8.498730 -0.104137 0.220529 0.125720 -0.380788
    3 2.749697 -3.429129 0.581341 -3.052543 0.119162 -1.478491
    4 1.153882 1.376477 -0.000001 0.000000 0.000000 1.551033
    5 2.983339 -0.036872 0.000000 0.000000 0.000000 -1.570796
    6 -0.889233 0.786217 0.000000 0.000000 0.000000 -2.356152
    7 -0.702977 0.648954 0.000000 0.000000 0.000000 3.403384
    8 -1.583343 4.991766 -0.000001 0.000000 0.000000 1.570796
    9 2.837764 1.451600 -0.000002 0.000000 0.000000 1.570796
    10 0.000000 0.000000 0.000000 0.000000 0.000000 0.000000
    11 1.257180 8.762585 -0.153713 -1.570562 0.002683 -1.566807
    12 -0.488518 -2.755602 -0.228260 -0.419422 0.109301 -0.409563
    13 0.039887 -1.479790 0.029854 -2.134208 0.000000 0.000001
    14 0.028786 -1.075731 -0.023109 -0.454494 0.000000 0.000000
    15 0.250027 -2.820665 -0.238396 -0.451670 0.165690 -0.428552
    16 -0.049759 -1.680544 0.100479 -2.030714 0.000000 -0.000002
    17 -0.034142 -1.148312 0.084782 -0.832761 0.000000 0.000000
    18 0.957766 -2.746780 -0.090302 0.281736 -0.083263 0.019915
    19 -0.033420 -1.397129 -0.011257 -0.713700 0.000000 -0.000001
    20 -0.022360 -0.957436 0.018784 -0.718456 -0.032982 -0.008353
    21 -1.180681 -2.507217 -0.193859 -0.321933 0.231545 -0.524787
    22 -0.024967 -1.123934 0.017597 -1.831020 0.000000 0.000001
    23 -0.020057 -0.890968 0.010090 -0.851954 0.000000 0.000000
    24 0.583510 -1.197277 0.185379 0.453373 -0.774254 -0.898367
    25 1.535927 0.010246 0.005009 -0.002964 -0.012979 -0.943503
    26 1.100771 0.004527 -0.010679 -0.013330 0.009226 -0.789499
    27 0.120153 -0.050270 -0.054489 0.287569 3.110905 1.561085
    28 0.369876 -1.094415 -13.068088 0.984041 -3.963038 1.433098
    29 0.096944 -8.450418 -0.009365 0.645399 -1.447313 -0.049275
    30 0.447953 -2.798986 -0.200443 -0.949956 0.084282 0.421229
    31 -0.032909 -1.480204 0.004940 -1.124100 0.000000 0.000002
    32 -0.027022 -1.076920 -0.020210 -0.461587 0.000000 0.000000
    33 -0.249534 -2.846964 -0.174213 -0.632775 0.047286 0.373793
    34 0.043235 -1.683941 0.096012 -1.287512 0.002823 -0.000167
    35 0.031729 -1.160830 0.058838 -0.537664 0.000642 0.008372
    36 -0.963866 -2.785145 -0.085350 -0.592838 0.115248 0.261238
    37 0.028479 -1.403067 0.006271 -0.697246 0.000000 0.000000
    38 0.021413 -0.957781 0.020046 -1.149587 0.000000 0.000000
    39 1.164475 -2.543940 -0.170330 -1.155797 -0.073121 0.430228
    40 0.024032 -1.129042 0.017807 -1.006615 0.000000 0.000001
    41 0.014898 -0.883989 -0.019848 -0.425255 0.000000 0.000000
    42 -0.586770 -1.264477 0.200161 0.028458 -0.460692 -2.530217
    43 1.522835 0.058681 0.016848 0.001410 0.008985 0.623506
    44 1.117947 0.048424 -0.005766 -0.020437 -0.014747 1.002033
    45 -0.139399 -0.111698 0.014397 0.852409 0.162397 1.349481
    46 -6.260806 6.983652 -0.294122 1.580804 -0.005023 -0.912799
  time 22
    0 -0.349399 1.166145 0.203512 0.000000 0.000000 0.000000
    1 8.737002 1.351552 -8.492768 -1.656733 -1.260189 1.305684
    2 -0.071918 -8.498730 -0.104137 0.219918 0.125240 -0.381526
    3 2.749697 -3.429129 0.581341 -3.052543 0.119162 -1.478491
    4 1.153882 1.376477 -0.000001 0.000000 0.000000 1.555977
    5 2.983339 -0.036872 0.000000 0.000000 0.000000 -1.570796
    6 -0.889233 0.786217 0.000000 0.000000 0.000000 -2.356152
    7 -0.702977 0.648954 0.000000 0.000000 0.000000 3.403384
    8 -1.583343 4.991766 -0.000001 0.000000 0.000000 1.570796
    9 2.837764 1.451600 -0.000002 0.000000 0.000000 1.570796
    10 0.000000 0.000000 0.000000 0.000000 0.000000 0.000000
    11 1.257180 8.762585 -0.153713 -1.570562 0.002683 -1.566807
    12 -0.488518 -2.755602 -0.228260 -0.419422 0.109301 -0.409563
    13 0.039887 -1.479790 0.029854 -2.134208 0.000000 0.000001
    14 0.028786 -1.075731 -0.023109 -0.454494 0.000000 0.000000
    15 0.250027 -2.820665 -0.238396 -0.451670 0.165690 -0.428552
    16 -0.049759 -1.680544 0.100479 -2.030714 0.000000 -0.000002
    17 -0.034142 -1.148312 0.084782 -0.832761 0.000000 0.000000
    18 0.957766 -2.746780 -0.090302 0.281736 -0.083263 0.019915
    19 -0.033420 -1.397129 -0.011257 -0.713700 0.000000 -0.000001
    20 -0.022360 -0.957436 0.018784 -0.718456 -0.032982 -0.008353
    21 -1.180681 -2.507217 -0.193859 -0.321933 0.231545 -0.524787
    22 -0.024967 -1.123934 0.017597 -1.831020 0.000000 0.000001
    23 -0.020057 -0.890968 0.010090 -0.851954 0.000000 0.000000
    24 0.583510 -1.197277 0.185379 0.453373 -0.774254 -0.898367
    25 1.535927 0.010246 0.005009 -0.002964 -0.012979 -0.943503
    26 1.100771 0.004527 -0.010679 -0.013330 0.009226 -0.789499
    27 0.120153 -0.050270 -0.054489 0.287569 3.110905 1.561085
    28 0.373782 -1.082696 -13.064182 0.984407 -3.963281 1.432811
    29 0.096944 -8.450418 -0.009365 0.645399 -1.447313 -0.049275
    30 0.447953 -2.798986 -0.200443 -0.949956 0.084282 0.421229
    31 -0.032909 -1.480204 0.004940 -1.124100 0.000000 0.000002
    32 -0.027022 -1.076920 -0.020210 -0.461587 0.000000 0.000000
    33 -0.249534 -2.846964 -0.174213 -0.632775 0.047286 0.373793
    34 0.043235 -1.683941 0.096012 -1.287512 0.002823 -0.000167
    35 0.031729 -1.160830 0.058838 -0.537664 0.000642 0.008372
    36 -0.963866 -2.785145 -0.085350 -0.592838 0.115248 0.261238
    37 0.028479 -1.403067 0.006271 -0.697246 0.000000 0.000000
    38 0.021413 -0.957781 0.020046 -1.149587 0.000000 0.000000
    39 1.164475 -2.543940 -0.170330 -1.155797 -0.073121 0.430228
    40 0.024032 -1.129042 0.017807 -1.006615 0.000000 0.000001
    41 0.014898 -0.883989 -0.019848 -0.425255 0.000000 0.000000
    42 -0.586770 -1.264477 0.200161 0.028458 -0.460692 -2.530217
    43 1.522835 0.058681 0.016848 0.001410 0.008985 0.623506
    44 1.117947 0.048424 -0.005766 -0.020437 -0.014747 1.002033
    45 -0.139399 -0.111698 0.014397 0.852409 0.162397 1.349481
    46 -6.260806 6.983652 -0.294122 1.580804 -0.005023 -0.912799
  time 23
    0 -0.349399 1.166145 0.203512 0.000000 0.000000 0.000000
    1 8.733096 1.355458 -8.492768 -1.655250 -1.259665 1.304315
    2 -0.071918 -8.498730 -0.104137 0.219258 0.124626 -0.382502
    3 2.749697 -3.429129 0.581341 -3.052543 0.119162 -1.478491
    4 1.153882 1.376477 -0.000001 0.000000 0.000000 1.562574
    5 2.983339 -0.036872 0.000000 0.000000 0.000000 -1.570796
    6 -0.889233 0.786217 0.000000 0.000000 0.000000 -2.356152
    7 -0.702977 0.648954 0.000000 0.000000 0.000000 3.403384
    8 -1.583343 4.991766 -0.000001 0.000000 0.000000 1.570796
    9 2.837764 1.451600 -0.000002 0.000000 0.000000 1.570796
    10 0.000000 0.000000 0.000000 0.000000 0.000000 0.000000
    11 1.257180 8.762585 -0.153713 -1.570562 0.002683 -1.566807
    12 -0.488518 -2.755602 -0.228260 -0.419422 0.109301 -0.409563
    13 0.039887 -1.479790 0.029854 -2.134208 0.000000 0.000001
    14 0.028786 -1.075731 -0.023109 -0.454494 0.000000 0.000000
    15 0.250027 -2.820665 -0.238396 -0.451670 0.165690 -0.428552
    16 -0.049759 -1.680544 0.100479 -2.030651 0.000000 -0.000002
    17 -0.034142 -1.148312 0.084782 -0.832761 0.000000 0.000000
    18 0.957766 -2.746780 -0.090302 0.281736 -0.083263 0.019915
    19 -0.033420 -1.397129 -0.011257 -0.713700 0.000000 -0.000001
    20 -0.022360 -0.957436 0.018784 -0.718456 -0.032982 -0.008353
    21 -1.180681 -2.507217 -0.193859 -0.321933 0.231545 -0.524787
    22 -0.024967 -1.123934 0.017597 -1.831020 0.000000 0.000001
    23 -0.020057 -0.890968 0.010090 -0.851954 0.000000 0.000000
    24 0.583510 -1.197277 0.185379 0.453373 -0.774254 -0.898367
    25 1.535927 0.010246 0.005009 -0.002964 -0.012979 -0.943503
    26 1.100771 0.004527 -0.010679 -0.013330 0.009226 -0.789499
    27 0.120153 -0.050270 -0.054489 0.287569 3.110905 1.561085
    28 0.377688 -1.070977 -13.060276 0.984713 -3.963607 1.432333
    29 0.096944 -8.450418 -0.009365 0.645399 -1.447278 -0.049275
    30 0.447953 -2.798986 -0.200443 -0.949956 0.084282 0.421229
    31 -0.032909 -1.480204 0.004940 -1.124100 0.000000 0.000002
    32 -0.027022 -1.076920 -0.020210 -0.461587 0.000000 0.000000
    33 -0.249534 -2.846964 -0.174213 -0.632775 0.047286 0.373793
    34 0.043235 -1.683941 0.096012 -1.287512 0.002823 -0.000167
    35 0.031729 -1.160830 0.058838 -0.537664 0.000642 0.008372
    36 -0.963866 -2.785145 -0.085350 -0.592838 0.115248 0.261238
    37 0.028479 -1.403067 0.006271 -0.697246 0.000000 0.000000
    38 0.021413 -0.957781 0.020046 -1.149587 0.000000 0.000000
    39 1.164475 -2.543940 -0.170330 -1.155797 -0.073121 0.430228
    40 0.024032 -1.129042 0.017807 -1.006615 0.000000 0.000001
    41 0.014898 -0.883989 -0.019848 -0.425255 0.000000 0.000000
    42 -0.586770 -1.264477 0.200161 0.028458 -0.460692 -2.530217
    43 1.522835 0.058681 0.016848 0.001410 0.008985 0.623506
    44 1.117947 0.048424 -0.005766 -0.020437 -0.014747 1.002033
    45 -0.139399 -0.111698 0.014397 0.852409 0.162397 1.349481
    46 -6.260806 6.983652 -0.294122 1.580804 -0.005023 -0.912799
  time 24
    0 -0.349399 1.166145 0.203512 0.000000 0.000000 0.000000
    1 8.729190 1.359365 -8.492768 -1.654029 -1.259236 1.303203
    2 -0.071918 -8.498730 -0.104137 0.218635 0.124078 -0.383359
    3 2.749697 -3.429129 0.581341 -3.052543 0.119162 -1.478491
    4 1.153882 1.376477 -0.000001 0.000000 0.000000 1.568331
    5 2.983339 -0.036872 0.000000 0.000000 0.000000 -1.570796
    6 -0.889233 0.786217 0.000000 0.000000 0.000000 -2.356152
    7 -0.702977 0.648954 0.000000 0.000000 0.000000 3.403384
    8 -1.583343 4.991766 -0.000001 0.000000 0.000000 1.570796
    9 2.837764 1.451600 -0.000002 0.000000 0.000000 1.570796
    10 0.000000 0.000000 0.000000 0.000000 0.000000 0.000000
    11 1.257180 8.762585 -0.153713 -1.570562 0.002683 -1.566807
    12 -0.488518 -2.755602 -0.228260 -0.419422 0.109301 -0.409563
    13 0.039887 -1.479790 0.029854 -2.134208 0.000000 0.000001
    14 0.028786 -1.075731 -0.023109 -0.454494 0.000000 0.000000
    15 0.250027 -2.820665 -0.238396 -0.451670 0.165690 -0.428552
    16 -0.049759 -1.680544 0.100479 -2.030714 0.000000 -0.000002
    17 -0.034142 -1.148312 0.084782 -0.832785 0.000000 0.000000
    18 0.957766 -2.746780 -0.090302 0.281736 -0.083263 0.019915
    19 -0.033420 -1.397129 -0.011257 -0.713700 0.000000 -0.000001
    20 -0.022360 -0.957436 0.018784 -0.718456 -0.032982 -0.008353
    21 -1.180681 -2.507217 -0.193859 -0.321933 0.231545 -0.524787
    22 -0.024967 -1.123934 0.017597 -1.831020 0.000000 0.000001
    23 -0.020057 -0.890968 0.010090 -0.851954 0.000000 0.000000
    24 0.583510 -1.197277 0.185379 0.453373 -0.774254 -0.898367
    25 1.535927 0.010246 0.005009 -0.002964 -0.012979 -0.943503
    26 1.100771 0.004527 -0.010679 -0.013330 0.009226 -0.789499
    27 0.120153 -0.050270 -0.054489 0.287569 3.110905 1.561085
    28 0.381595 -1.059258 -13.056369 0.985019 -3.963932 1.431950
    29 0.096944 -8.450418 -0.009365 0.645399 -1.447278 -0.049275
    30 0.447953 -2.798986 -0.200443 -0.949956 0.084282 0.421229
    31 -0.032909 -1.480204 0.004940 -1.124100 0.000000 0.000002
    32 -0.027022 -1.076920 -0.020210 -0.461587 0.000000 0.000000
    33 -0.249534 -2.846964 -0.174213 -0.632775 0.047286 0.373793
    34 0.043235 -1.683941 0.096012 -1.287512 0.002823 -0.000167
    35 0.031729 -1.160830 0.058838 -0.537664 0.000642 0.008372
    36 -0.963866 -2.785145 -0.085350 -0.592838 0.115248 0.261238
    37 0.028479 -1.403067 0.006271 -0.697246 0.000000 0.000000
    38 0.021413 -0.957781 0.020046 -1.149587 0.000000 0.000000
    39 1.164475 -2.543940 -0.170330 -1.155797 -0.073121 0.430228
    40 0.024032 -1.129042 0.017807 -1.006615 0.000000 0.000001
    41 0.014898 -0.883989 -0.019848 -0.425255 0.000000 0.000000
    42 -0.586770 -1.264477 0.200161 0.028458 -0.460692 -2.530217
    43 1.522835 0.058681 0.016848 0.001410 0.008985 0.623506
    44 1.117947 0.048424 -0.005766 -0.020437 -0.014747 1.002033
    45 -0.139399 -0.111698 0.014397 0.852409 0.162397 1.349481
    46 -6.260806 6.983652 -0.294122 1.580804 -0.005023 -0.912799
  time 25
    0 -0.349399 1.166145 0.203512 0.000000 0.000000 0.000000
    1 8.725283 1.363271 -8.492768 -1.654029 -1.259045 1.303118
    2 -0.071918 -8.498730 -0.104137 0.218096 0.123812 -0.383758
    3 2.749697 -3.429129 0.581341 -3.052543 0.119162 -1.478491
    4 1.153882 1.376477 -0.000001 0.000000 0.000000 1.570796
    5 2.983339 -0.036872 0.000000 0.000000 0.000000 -1.570796
    6 -0.889233 0.786217 0.000000 0.000000 0.000000 -2.356152
    7 -0.702977 0.648954 0.000000 0.000000 0.000000 3.403384
    8 -1.583343 4.991766 -0.000001 0.000000 0.000000 1.570796
    9 2.837764 1.451600 -0.000002 0.000000 0.000000 1.570796
    10 0.000000 0.000000 0.000000 0.000000 0.000000 0.000000
    11 1.257180 8.762585 -0.153713 -1.570562 0.002683 -1.566807
    12 -0.488518 -2.755602 -0.228260 -0.419422 0.109301 -0.409563
    13 0.039887 -1.479790 0.029854 -2.134208 0.000000 0.000001
    14 0.028786 -1.075731 -0.023109 -0.454494 0.000000 0.000000
    15 0.250027 -2.820665 -0.238396 -0.451670 0.165690 -0.428552
    16 -0.049759 -1.680544 0.100479 -2.030651 0.000000 -0.000002
    17 -0.034142 -1.148312 0.084782 -0.832761 0.000000 0.000000
    18 0.957766 -2.746780 -0.090302 0.281736 -0.083263 0.019915
    19 -0.033420 -1.397129 -0.011257 -0.713700 0.000000 -0.000001
    20 -0.022360 -0.957436 0.018784 -0.718456 -0.032982 -0.008353
    21 -1.180681 -2.507217 -0.193859 -0.321933 0.231545 -0.524787
    22 -0.024967 -1.123934 0.017597 -1.831020 0.000000 0.000001
    23 -0.020057 -0.890968 0.010090 -0.851954 0.000000 0.000000
    24 0.583510 -1.197277 0.185379 0.453373 -0.774254 -0.898367
    25 1.535927 0.010246 0.005009 -0.002964 -0.012979 -0.943503
    26 1.100771 0.004527 -0.010679 -0.013330 0.009226 -0.789499
    27 0.120153 -0.050270 -0.054489 0.287569 3.110905 1.561085
    28 0.381595 -1.051445 -13.056369 0.985386 -3.964013 1.431759
    29 0.096944 -8.450418 -0.009365 0.645399 -1.447278 -0.049275
    30 0.447953 -2.798986 -0.200443 -0.949956 0.084282 0.421229
    31 -0.032909 -1.480204 0.004940 -1.124100 0.000000 0.000002
    32 -0.027022 -1.076920 -0.020210 -0.461587 0.000000 0.000000
    33 -0.249534 -2.846964 -0.174213 -0.632775 0.047286 0.373793
    34 0.043235 -1.683941 0.096012 -1.287512 0.002823 -0.000167
    35 0.031729 -1.160830 0.058838 -0.537664 0.000642 0.008372
    36 -0.963866 -2.785145 -0.085350 -0.592838 0.115248 0.261238
    37 0.028479 -1.403067 0.006271 -0.697246 0.000000 0.000000
    38 0.021413 -0.957781 0.020046 -1.149587 0.000000 0.000000
    39 1.164475 -2.543940 -0.170330 -1.155797 -0.073121 0.430228
    40 0.024032 -1.129042 0.017807 -1.006615 0.000000 0.000001
    41 0.014898 -0.883989 -0.019848 -0.425255 0.000000 0.000000
    42 -0.586770 -1.264477 0.200161 0.028458 -0.460692 -2.530217
    43 1.522835 0.058681 0.016848 0.001410 0.008985 0.623506
    44 1.117947 0.048424 -0.005766 -0.020437 -0.014747 1.002033
    45 -0.139399 -0.111698 0.014397 0.852409 0.162397 1.349481
    46 -6.260806 6.983652 -0.294122 1.580804 -0.005023 -0.912799
end
