// Created by Crowbar 0.34.0.0

$ModelName "weapons/tfa_cso/w_awp.mdl"

$BodyGroup "studio"
{
	studio "v_awp_f_awm_template"
}

$collisionmodel "v_awp_f_awm_template.smd"
{
	$mass 9
}

$CDMaterials "models\weapons\tfa_cso\awp"

$attachment "0" "root" 0.00 -18.50 -0.60 rotate -0 0 0

$Sequence "idle" {
	"anims\idle.smd"
	fps 30
}