// Created by Crowbar 0.34.0.0

$ModelName "weapons/tfa_cso/w_budgetsword_hell.mdl"

$BodyGroup "studio"
{
	studio "v_dualswordm_v_ref_2"
}

$collisionmodel "v_dualswordm_v_ref_2.smd"
{
	$mass 9
}

$CDMaterials "models\weapons\tfa_cso\budgetslayer"

$Sequence "idle" {
	"anims\idle.smd"
	fps 30
}