version 1
nodes
  0 "root" -1
  1 "Bone01" 0
  2 "Bone_L_Upper" 1
  3 "Bone_Lefthand" 1
  4 "Bone13" 3
  5 "Bone14" 4
  6 "Bone15" 5
  7 "Bone17" 3
  8 "Bone18" 7
  9 "Bone19" 8
  10 "Bone21" 3
  11 "Bone22" 10
  12 "Bone23" 11
  13 "Bone09" 3
  14 "Bone10" 13
  15 "Bone11" 14
  16 "Bone05" 3
  17 "Bone06" 16
  18 "Bone07" 17
  19 "Bone_Se_Hand-L" 3
  20 "Bone04" 0
  21 "Bone_Righthand" 20
  22 "Bone39" 21
  23 "Bone40" 22
  24 "Bone41" 23
  25 "Bone35" 21
  26 "Bone36" 25
  27 "Bone37" 26
  28 "Bone31" 21
  29 "Bone32" 28
  30 "Bone33" 29
  31 "Bone43" 21
  32 "Bone44" 31
  33 "Bone45" 32
  34 "Bone27" 21
  35 "Bone28" 34
  36 "Bone29" 35
  37 "Bone_Se_Hand-R" 21
  38 "Bone_R_Upper" 20
  39 "d_root" -1
  40 "trigger" 39
  41 "Bone08" 39
  42 "Bone03" 39
  43 "Bone02" 42
  44 "Bone16" 43
  45 "Bone12" 44
  46 "d_root01" -1
  47 "Bone48" 46
  48 "trigger01" 46
  49 "Bone46" 46
  50 "Bone47" 49
  51 "Baa01" 50
  52 "Baa02" 51
  53 "d22" 46
  54 "d11" 53
  55 "lighfxx" 46
  56 "lighfxxxxx" 39
  57 "glass" 39
  58 "glass2" 57
  59 "Dum11my02" -1
  60 "Du11mmy01" 59
end
skeleton
  time 0
    0 -1.987188 8.428680 -1.108790 -0.009720 0.000000 -0.374591
    1 9.314010 1.247461 -4.792097 5.781265 -2.381525 0.792019
    2 6.987824 4.801526 -0.298249 1.565159 -3.126808 0.691082
    3 -0.009419 -8.377639 -0.108040 -0.353129 0.429952 -0.383100
    4 -0.488518 -2.755602 -0.228260 -1.005061 0.056341 -0.229052
    5 0.039887 -1.503228 0.010322 -0.833215 -0.012752 0.015857
    6 0.028786 -1.091357 -0.069985 -0.370277 -0.007994 0.005896
    7 0.250027 -2.820665 -0.238396 -0.720058 0.079749 -0.147608
    8 -0.049759 -1.621948 0.084854 -0.798409 0.008797 -0.021694
    9 -0.034142 -1.152218 0.065250 -0.516573 0.007095 -0.011937
    10 0.957766 -2.746780 -0.090302 -0.234135 -0.222068 -0.024896
    11 -0.033420 -1.397129 -0.011257 -0.188906 0.004758 -0.009049
    12 -0.022360 -0.957436 0.018784 -0.105091 0.002709 -0.004782
    13 -1.180681 -2.507217 -0.193859 -0.994751 0.161244 -0.240214
    14 -0.024967 -1.123934 0.017597 -0.658216 0.007454 -0.027731
    15 -0.020057 -0.898781 0.017903 -0.487339 0.007299 -0.017881
    16 0.587416 -1.208996 0.201004 -0.157495 -0.511990 -0.166069
    17 1.465612 -0.231949 0.075324 0.059368 -0.227647 -0.828568
    18 1.085145 -0.093132 0.016666 0.003592 -0.113209 -0.464023
    19 0.120153 -0.050270 -0.054489 0.287569 3.110905 1.561085
    20 -4.563869 -4.481237 -5.673331 0.642422 -4.379316 0.972828
    21 0.057880 -8.352759 -0.036710 -0.177788 -0.179693 0.503864
    22 0.447953 -2.798986 -0.200443 -1.102093 -0.014842 0.154548
    23 -0.032909 -1.499736 0.040097 -1.867668 0.020853 -0.039703
    24 -0.027022 -1.084733 -0.024116 -0.240942 0.006699 -0.001690
    25 -0.249534 -2.846964 -0.174213 -0.506443 -0.009677 0.074202
    26 0.043235 -1.660503 0.049136 -2.061415 -0.024969 0.019632
    27 0.031729 -1.153017 0.058838 -0.486236 -0.004415 0.005723
    28 -0.963866 -2.785145 -0.085350 0.115767 0.161701 0.061678
    29 0.028479 -1.403067 0.002365 -0.249724 -0.003272 -0.011421
    30 0.021413 -0.957781 0.020046 0.168675 0.000587 0.007418
    31 1.164475 -2.543940 -0.170330 -1.287253 -0.158056 0.208416
    32 0.024032 -1.144668 -0.005631 -1.194798 0.018936 0.059481
    33 0.014898 -0.899614 -0.019848 -0.774879 0.002301 0.039238
    34 -0.586770 -1.264477 0.200161 -0.225941 -0.693912 -2.492790
    35 1.554086 0.035243 0.016848 -0.013031 -0.005121 0.678841
    36 1.114041 0.044518 -0.005766 -0.017597 -0.034354 0.685966
    37 -0.139399 -0.111698 0.014397 0.285382 -0.030687 1.580508
    38 -6.120177 6.237535 -0.376156 1.579701 -0.022509 -0.899365
    39 -6.854566 -9.000275 -5.495079 1.345944 -1.162371 -1.278462
    40 -0.445597 0.884378 -0.000001 0.000000 0.000000 -2.855763
    41 0.752335 0.955584 -0.000001 0.000000 0.000002 -0.000001
    42 0.227005 -1.459700 -0.336619 0.000000 0.000000 -1.570796
    43 -1.773792 0.941444 0.336619 0.000000 0.000000 0.000000
    44 -12.940949 -13.876676 0.063470 0.000000 0.000000 3.141592
    45 -2.191151 0.000000 0.000000 0.000000 0.000000 0.000000
    46 5.860679 -7.273659 -11.036091 -1.423234 -2.333849 1.256973
    47 0.752335 0.955585 -0.000001 0.000000 0.000002 -0.000001
    48 -0.445597 0.884380 -0.000001 0.000000 0.000000 -2.855763
    49 0.227003 -1.459700 0.523556 0.000000 0.000000 -1.570796
    50 -1.773792 0.941444 -0.523556 0.000000 0.000000 0.000000
    51 -19.860804 -4.372061 -0.000001 0.000000 0.000000 3.141592
    52 -0.004971 0.000000 0.000000 0.000000 0.000000 3.141592
    53 1.105276 0.472918 0.044064 1.396626 1.315062 2.998056
    54 0.000000 0.000002 -0.051336 0.000000 0.000000 0.000000
    55 -21.550318 25.867062 0.077498 0.000001 1.570451 0.000000
    56 -13.515524 35.221081 -0.542491 0.000001 1.570451 0.000000
    57 0.176298 1.520552 -0.810270 -0.169797 3.020228 0.347598
    58 0.000000 0.000000 0.004268 0.000000 0.000000 0.000000
    59 50.887146 9.091324 -31.729149 0.000000 0.000000 -1.570796
    60 -0.000001 0.000000 0.008734 0.000000 0.000000 0.000000
  time 1
    0 -0.752775 7.823193 -1.507239 -0.009024 0.000000 -0.347588
    1 8.946811 0.048205 -4.823348 5.930133 -2.235466 0.554076
    2 7.030794 4.723399 -0.302155 1.565255 -3.126520 0.679948
    3 -0.017232 -8.373733 -0.115853 -0.297358 0.348029 -0.464010
    4 -0.488518 -2.755602 -0.228260 -1.104686 0.056317 -0.226367
    5 0.039887 -1.507135 0.010322 -0.924539 -0.013339 0.018230
    6 0.028786 -1.099169 -0.073892 -0.432219 -0.009084 0.007143
    7 0.250027 -2.820665 -0.238396 -0.814941 0.079833 -0.150401
    8 -0.049759 -1.618042 0.077041 -0.920805 0.008497 -0.025278
    9 -0.034142 -1.152218 0.065250 -0.552023 0.007383 -0.012931
    10 0.957766 -2.746780 -0.090302 -0.234135 -0.222068 -0.024896
    11 -0.033420 -1.397129 -0.011257 -0.188906 0.004758 -0.009049
    12 -0.022360 -0.957436 0.018784 -0.105091 0.002709 -0.004782
    13 -1.180681 -2.507217 -0.193859 -1.078100 0.172401 -0.244160
    14 -0.024967 -1.123934 0.017597 -0.709255 0.007263 -0.030044
    15 -0.020057 -0.898781 0.017903 -0.523746 0.007550 -0.019523
    16 0.591323 -1.212902 0.201004 -0.163079 -0.546049 -0.089098
    17 1.446081 -0.251481 0.079230 0.076578 -0.245900 -0.920799
    18 1.077333 -0.104851 0.020572 0.009476 -0.131030 -0.531792
    19 0.120153 -0.050270 -0.054489 0.287569 3.110905 1.561085
    20 -4.626371 -4.317169 -5.872556 1.155059 -4.461336 1.357336
    21 0.069599 -8.344947 -0.056241 -0.224219 -0.102159 0.485188
    22 0.447953 -2.798986 -0.200443 -1.143176 -0.012853 0.139699
    23 -0.032909 -1.499736 0.032285 -1.545778 0.023214 -0.030882
    24 -0.027022 -1.080826 -0.024116 -0.172090 0.004842 -0.001043
    25 -0.249534 -2.846964 -0.174213 -0.697556 -0.013056 0.075304
    26 0.043235 -1.656596 0.068667 -1.417018 -0.022081 0.007443
    27 0.031729 -1.156924 0.058838 -0.394060 -0.003277 0.006083
    28 -0.963866 -2.785145 -0.085350 0.104093 0.172499 -0.033899
    29 0.028479 -1.403067 0.002365 -0.226194 -0.002864 -0.010451
    30 0.021413 -0.957781 0.020046 0.168675 0.000587 0.007418
    31 1.164475 -2.543940 -0.170330 -1.298987 -0.136520 0.186519
    32 0.024032 -1.140761 -0.005631 -1.020284 0.011841 0.052721
    33 0.014898 -0.895708 -0.019848 -0.603014 -0.000815 0.030105
    34 -0.586770 -1.264477 0.200161 -0.079597 -0.399079 -2.562600
    35 1.538460 0.043056 0.016848 -0.005805 -0.000579 0.377765
    36 1.117947 0.048424 -0.005766 -0.007949 -0.030999 0.366963
    37 -0.139399 -0.111698 0.014397 0.285382 -0.030687 1.580508
    38 -6.444405 5.858617 -0.387875 1.579030 -0.023971 -0.838977
    39 -6.600652 -9.554979 -6.077128 -1.520979 -2.162292 1.453683
    40 -0.445597 0.884378 -0.000001 0.000000 0.000000 -2.855763
    41 0.752335 0.955584 -0.000001 0.000000 0.000002 -0.000001
    42 0.227005 -1.459700 -0.336619 0.000000 0.000000 -1.570796
    43 -1.773792 0.941444 0.336619 0.000000 0.000000 0.000000
    44 -12.940949 -13.876676 0.063470 0.000000 0.000000 3.141592
    45 -2.191151 0.000000 0.000000 0.000000 0.000000 0.000000
    46 5.067686 -8.976836 -9.942308 -1.376025 -2.270124 1.166816
    47 0.752335 0.955585 -0.000001 0.000000 0.000002 -0.000001
    48 -0.445597 0.884380 -0.000001 0.000000 0.000000 -2.855763
    49 0.227003 -1.459700 0.523556 0.000000 0.000000 -1.570796
    50 -1.773792 0.941444 -0.523556 0.000000 0.000000 0.000000
    51 -19.860804 -4.372061 -0.000001 0.000000 0.000000 3.141592
    52 -0.004971 0.000000 0.000000 0.000000 0.000000 3.141592
    53 1.105276 0.472918 0.044064 1.396626 1.315062 2.998056
    54 0.000000 0.000002 -0.051336 0.000000 0.000000 0.000000
    55 -21.550318 25.867062 0.077498 0.000001 1.570451 0.000000
    56 -13.515524 35.221081 -0.542491 0.000001 1.570451 0.000000
    57 0.176298 1.520552 -0.810270 -0.169797 3.020228 0.347598
    58 0.000000 0.000000 0.004268 0.000000 0.000000 0.000000
    59 50.887146 9.091324 -31.729149 0.000000 0.000000 -1.570796
    60 -0.000001 0.000000 0.008734 0.000000 0.000000 0.000000
  time 2
    0 0.477731 7.221612 -1.901783 -0.007227 0.000000 -0.278676
    1 8.438983 -1.084642 -4.639748 6.170443 -2.122321 0.229600
    2 7.077670 4.645272 -0.302155 1.565255 -3.126329 0.668813
    3 -0.021138 -8.365920 -0.119759 -0.236321 0.270656 -0.547511
    4 -0.488518 -2.755602 -0.228260 -1.204363 0.056545 -0.223694
    5 0.039887 -1.511041 0.010322 -1.015864 -0.013710 0.020650
    6 0.028786 -1.103076 -0.081705 -0.494139 -0.010103 0.008461
    7 0.250027 -2.820665 -0.238396 -0.909866 0.079641 -0.153181
    8 -0.049759 -1.610229 0.069228 -1.043247 0.007754 -0.028801
    9 -0.034142 -1.152218 0.065250 -0.587450 0.007634 -0.013950
    10 0.957766 -2.746780 -0.090302 -0.234135 -0.222068 -0.024896
    11 -0.033420 -1.397129 -0.011257 -0.188906 0.004758 -0.009049
    12 -0.022360 -0.957436 0.018784 -0.105091 0.002709 -0.004782
    13 -1.180681 -2.507217 -0.193859 -1.161645 0.183200 -0.249034
    14 -0.024967 -1.123934 0.017597 -0.760294 0.006951 -0.032357
    15 -0.020057 -0.902687 0.017903 -0.560133 0.007754 -0.021177
    16 0.599135 -1.212902 0.201004 -0.171900 -0.579649 -0.010255
    17 1.422642 -0.271013 0.087043 0.095525 -0.262522 -1.013820
    18 1.073426 -0.116570 0.024478 0.016595 -0.148408 -0.599845
    19 0.120153 -0.050270 -0.054489 0.287569 3.110905 1.561085
    20 -5.083416 -4.114038 -6.200691 -1.591269 -4.888306 -1.558097
    21 0.081319 -8.344947 -0.071867 -0.252501 -0.052399 0.449080
    22 0.447953 -2.798986 -0.200443 -1.075267 -0.012254 0.127583
    23 -0.032909 -1.499736 0.024472 -1.223831 0.022663 -0.021762
    24 -0.027022 -1.076920 -0.020210 -0.103239 0.002948 -0.000527
    25 -0.249534 -2.846964 -0.174213 -0.762594 -0.014147 0.075820
    26 0.043235 -1.660503 0.084293 -0.881503 -0.014399 0.000324
    27 0.031729 -1.156924 0.058838 -0.301883 -0.002186 0.006538
    28 -0.963866 -2.785145 -0.085350 0.097171 0.178024 -0.087194
    29 0.028479 -1.403067 0.002365 -0.202664 -0.002469 -0.009456
    30 0.021413 -0.957781 0.020046 0.168675 0.000587 0.007418
    31 1.164475 -2.543940 -0.170330 -1.197717 -0.120149 0.160444
    32 0.024032 -1.136855 -0.001725 -0.845733 0.006028 0.044823
    33 0.014898 -0.891802 -0.019848 -0.431125 -0.002325 0.020566
    34 -0.586770 -1.264477 0.200161 -0.024492 -0.191221 -2.585814
    35 1.530648 0.050868 0.016848 -0.002245 0.003113 0.197115
    36 1.117947 0.048424 -0.005766 -0.001477 -0.026396 0.119084
    37 -0.139399 -0.111698 0.014397 0.285382 -0.030687 1.580508
    38 -6.518626 5.760958 -0.391781 1.578851 -0.024330 -0.824008
    39 -6.776439 -10.262032 -7.948279 1.435135 -0.675230 -1.649700
    40 -0.445597 0.884378 -0.000001 0.000000 0.000000 -2.855763
    41 0.752335 0.955584 -0.000001 0.000000 0.000002 -0.000001
    42 0.227005 -1.459700 -0.336619 0.000000 0.000000 -1.570796
    43 -1.773792 0.941444 0.336619 0.000000 0.000000 0.000000
    44 -12.940949 -13.876676 0.063470 0.000000 0.000000 3.141592
    45 -2.191151 0.000000 0.000000 0.000000 0.000000 0.000000
    46 5.122375 -10.160466 -8.457887 -1.304742 -2.203665 1.107403
    47 0.752335 0.955585 -0.000001 0.000000 0.000002 -0.000001
    48 -0.445597 0.884380 -0.000001 0.000000 0.000000 -2.855763
    49 0.227003 -1.459700 0.523556 0.000000 0.000000 -1.570796
    50 -1.773792 0.941444 -0.523556 0.000000 0.000000 0.000000
    51 -19.860804 -4.372061 -0.000001 0.000000 0.000000 3.141592
    52 -0.004971 0.000000 0.000000 0.000000 0.000000 3.141592
    53 1.105276 0.472918 0.044064 1.396626 1.315062 2.998056
    54 0.000000 0.000002 -0.051336 0.000000 0.000000 0.000000
    55 -21.550318 25.867062 0.077498 0.000001 1.570451 0.000000
    56 -13.515524 35.221081 -0.542491 0.000001 1.570451 0.000000
    57 0.176298 1.520552 -0.810270 -0.169797 3.020228 0.347598
    58 0.000000 0.000000 0.004268 0.000000 0.000000 0.000000
    59 50.887146 9.091324 -31.729149 0.000000 0.000000 -1.570796
    60 -0.000001 0.000000 0.008734 0.000000 0.000000 0.000000
  time 3
    0 1.712144 6.620031 -2.300232 -0.004818 0.000000 -0.185799
    1 7.833496 -1.787788 -4.456149 0.203691 -2.061264 -0.178631
    2 7.323771 4.153069 -0.313874 1.565542 -3.124892 0.601363
    3 -0.021138 -8.358107 -0.127572 -0.169998 0.198482 -0.634173
    4 -0.488518 -2.755602 -0.228260 -1.303988 0.057048 -0.221058
    5 0.039887 -1.514947 0.010322 -1.107188 -0.013854 0.023095
    6 0.028786 -1.106982 -0.089517 -0.556059 -0.011026 0.009839
    7 0.250027 -2.820665 -0.238396 -1.004790 0.079185 -0.155950
    8 -0.049759 -1.606323 0.061415 -1.165689 0.006592 -0.032217
    9 -0.034142 -1.152218 0.061344 -0.622900 0.007862 -0.014969
    10 0.957766 -2.746780 -0.090302 -0.234135 -0.222068 -0.024896
    11 -0.033420 -1.397129 -0.011257 -0.188906 0.004758 -0.009049
    12 -0.022360 -0.957436 0.018784 -0.105091 0.002709 -0.004782
    13 -1.180681 -2.507217 -0.193859 -1.245435 0.193554 -0.254820
    14 -0.024967 -1.123934 0.017597 -0.811333 0.006520 -0.034646
    15 -0.020057 -0.902687 0.017903 -0.596520 0.007898 -0.022831
    16 0.603042 -1.212902 0.201004 -0.184142 -0.612526 0.070739
    17 1.399204 -0.286638 0.090949 0.116091 -0.277359 -1.107508
    18 1.061707 -0.128290 0.028385 0.024912 -0.165282 -0.668209
    19 0.120153 -0.050270 -0.054489 0.287569 3.110905 1.561085
    20 -6.450645 -3.574959 -6.747583 -0.235277 -4.645090 -0.449082
    21 0.093038 -8.356666 -0.067961 -0.237464 -0.062435 0.380437
    22 0.447953 -2.798986 -0.200443 -0.763094 -0.012409 0.121543
    23 -0.032909 -1.495829 0.016659 -0.901941 0.019259 -0.013289
    24 -0.027022 -1.076920 -0.020210 -0.034375 0.001019 -0.000144
    25 -0.249534 -2.846964 -0.174213 -0.545235 -0.010372 0.074370
    26 0.043235 -1.668316 0.092106 -0.589616 -0.008958 -0.001545
    27 0.031729 -1.160830 0.058838 -0.209692 -0.001132 0.007102
    28 -0.963866 -2.785145 -0.085350 0.102653 0.173709 -0.045224
    29 0.028479 -1.403067 0.002365 -0.179134 -0.002097 -0.008461
    30 0.021413 -0.957781 0.020046 0.168675 0.000587 0.007418
    31 1.164475 -2.543940 -0.170330 -0.842867 -0.106906 0.127636
    32 0.024032 -1.132948 0.002182 -0.671107 0.001666 0.036027
    33 0.014898 -0.887895 -0.019848 -0.259259 -0.002193 0.010918
    34 -0.586770 -1.264477 0.200161 -0.108061 -0.189988 -2.600160
    35 1.534554 0.046962 0.016848 -0.003911 0.001207 0.286322
    36 1.117947 0.048424 -0.005766 0.000524 -0.024383 0.030457
    37 -0.139399 -0.111698 0.014397 0.285382 -0.030687 1.580508
    38 -6.057675 6.307850 -0.376156 1.579821 -0.022221 -0.910911
    39 -9.003070 -10.125309 -11.467917 1.393660 -0.541998 -1.801306
    40 -0.445597 0.884378 -0.000001 0.000000 0.000000 -2.855763
    41 0.752335 0.955584 -0.000001 0.000000 0.000002 -0.000001
    42 0.227005 -1.459700 -0.336619 0.000000 0.000000 -1.570796
    43 -1.773792 0.941444 0.336619 0.000000 0.000000 0.000000
    44 -12.940949 -13.876676 0.063470 0.000000 0.000000 3.141592
    45 -2.191151 0.000000 0.000000 0.000000 0.000000 0.000000
    46 5.766926 -10.644856 -7.012531 -1.217932 -2.146413 1.059590
    47 0.752335 0.955585 -0.000001 0.000000 0.000002 -0.000001
    48 -0.445597 0.884380 -0.000001 0.000000 0.000000 -2.855763
    49 0.227003 -1.459700 0.523556 0.000000 0.000000 -1.570796
    50 -1.773792 0.941444 -0.523556 0.000000 0.000000 0.000000
    51 -19.860804 -4.372061 -0.000001 0.000000 0.000000 3.141592
    52 -0.004971 0.000000 0.000000 0.000000 0.000000 3.141592
    53 1.105276 0.472918 0.044064 1.396626 1.315062 2.998056
    54 0.000000 0.000002 -0.051336 0.000000 0.000000 0.000000
    55 -21.550318 25.867062 0.077498 0.000001 1.570451 0.000000
    56 -13.515524 35.221081 -0.542491 0.000001 1.570451 0.000000
    57 0.176298 1.520552 -0.810270 -0.169797 3.020228 0.347598
    58 0.000000 0.000000 0.004268 0.000000 0.000000 0.000000
    59 50.887146 9.091324 -31.729149 0.000000 0.000000 -1.570796
    60 -0.000001 0.000000 0.008734 0.000000 0.000000 0.000000
  time 4
    0 2.946556 6.018450 -2.698682 -0.002253 0.000000 -0.086903
    1 7.231915 -1.604189 -4.659280 0.533913 -2.045142 -0.614556
    2 7.874569 2.543645 -0.345125 1.566884 -3.120582 0.392018
    3 -0.025045 -8.354201 -0.135385 -0.098389 0.132292 -0.724453
    4 -0.488518 -2.755602 -0.228260 -1.403613 0.057803 -0.218493
    5 0.039887 -1.518854 0.010322 -1.198553 -0.013782 0.025540
    6 0.028786 -1.114795 -0.093424 -0.617979 -0.011877 0.011266
    7 0.250027 -2.820665 -0.238396 -1.099673 0.078478 -0.158646
    8 -0.049759 -1.602417 0.053603 -1.288085 0.005022 -0.035452
    9 -0.034142 -1.156125 0.061344 -0.658328 0.008042 -0.015999
    10 0.957766 -2.746780 -0.090302 -0.234135 -0.222068 -0.024896
    11 -0.033420 -1.397129 -0.011257 -0.188906 0.004758 -0.009049
    12 -0.022360 -0.957436 0.018784 -0.105091 0.002709 -0.004782
    13 -1.180681 -2.507217 -0.193859 -1.329421 0.203394 -0.261477
    14 -0.024967 -1.123934 0.017597 -0.862372 0.005980 -0.036912
    15 -0.020057 -0.902687 0.021809 -0.632927 0.007970 -0.024485
    16 0.610855 -1.212902 0.201004 -0.199951 -0.644482 0.154162
    17 1.375766 -0.302264 0.094855 0.138095 -0.290278 -1.201860
    18 1.053895 -0.140009 0.032291 0.034404 -0.181545 -0.736908
    19 0.120153 -0.050270 -0.054489 0.287569 3.110905 1.561085
    20 -8.028818 -2.449925 -7.118688 -0.811643 -4.404200 -1.319860
    21 0.096944 -8.376197 -0.056241 -0.202461 -0.093550 0.298117
    22 0.447953 -2.798986 -0.200443 -0.353987 -0.011798 0.117971
    23 -0.032909 -1.491923 0.008846 -0.580110 0.013351 -0.006338
    24 -0.027022 -1.076920 -0.020210 0.034464 -0.000911 0.000096
    25 -0.249534 -2.846964 -0.174213 -0.215869 -0.004296 0.073794
    26 0.043235 -1.672222 0.096012 -0.394446 -0.005123 -0.001893
    27 0.031729 -1.160830 0.058838 -0.117515 -0.000137 0.007761
    28 -0.963866 -2.785145 -0.085350 0.112542 0.164901 0.034389
    29 0.028479 -1.403067 0.002365 -0.155604 -0.001762 -0.007454
    30 0.021413 -0.957781 0.020046 0.168675 0.000587 0.007418
    31 1.164475 -2.543940 -0.170330 -0.388506 -0.083092 0.098971
    32 0.024032 -1.129042 0.006088 -0.496481 -0.001079 0.026619
    33 0.014898 -0.883989 -0.019848 -0.087370 -0.000419 0.001426
    34 -0.586770 -1.264477 0.200161 -0.246087 -0.272138 -2.604415
    35 1.542367 0.039149 0.016848 -0.008166 -0.002400 0.482570
    36 1.117947 0.048424 -0.005766 0.001063 -0.023772 0.004956
    37 -0.139399 -0.111698 0.014397 0.285382 -0.030687 1.580508
    38 -5.299839 7.030528 -0.352718 1.580888 -0.018997 -1.038226
    39 -12.104727 -8.285409 -15.018807 1.271135 -0.394821 -1.981152
    40 -0.445597 0.884378 -0.000001 0.000000 0.000000 -2.855763
    41 0.752335 0.955584 -0.000001 0.000000 0.000002 -0.000001
    42 0.227005 -1.459700 -0.336619 0.000000 0.000000 -1.570796
    43 -1.773792 0.941444 0.336619 0.000000 0.000000 0.000000
    44 -12.940949 -13.876676 0.063470 0.000000 0.000000 3.141592
    45 -2.191151 0.000000 0.000000 0.000000 0.000000 0.000000
    46 6.657578 -10.117496 -6.203912 -1.150256 -2.105207 1.029601
    47 0.752335 0.955585 -0.000001 0.000000 0.000002 -0.000001
    48 -0.445597 0.884380 -0.000001 0.000000 0.000000 -2.855763
    49 0.227003 -1.459700 0.523556 0.000000 0.000000 -1.570796
    50 -1.773792 0.941444 -0.523556 0.000000 0.000000 0.000000
    51 -19.860804 -4.372061 -0.000001 0.000000 0.000000 3.141592
    52 -0.004971 0.000000 0.000000 0.000000 0.000000 3.141592
    53 1.105276 0.472918 0.044064 1.396626 1.315062 2.998056
    54 0.000000 0.000002 -0.051336 0.000000 0.000000 0.000000
    55 -21.550318 25.867062 0.077498 0.000001 1.570451 0.000000
    56 -13.515524 35.221081 -0.542491 0.000001 1.570451 0.000000
    57 0.176298 1.520552 -0.810270 -0.169797 3.020228 0.347598
    58 0.000000 0.000000 0.004268 0.000000 0.000000 0.000000
    59 50.887146 9.091324 -31.729149 0.000000 0.000000 -1.570796
    60 -0.000001 0.000000 0.008734 0.000000 0.000000 0.000000
  time 5
    0 4.180969 5.412963 -3.097132 0.000000 0.000000 -0.000045
    1 6.661585 -0.967450 -4.963977 0.876367 -2.075288 -1.047894
    2 8.069888 0.336546 -0.384189 1.569952 -3.115698 0.119363
    3 -0.025045 -8.346388 -0.139291 -0.021577 0.072871 -0.818690
    4 -0.488518 -2.755602 -0.228260 -1.503290 0.058822 -0.216012
    5 0.039887 -1.522760 0.010322 -1.289877 -0.013483 0.027973
    6 0.028786 -1.118701 -0.101236 -0.679921 -0.012632 0.012752
    7 0.250027 -2.820665 -0.238396 -1.194597 0.077520 -0.161271
    8 -0.049759 -1.598510 0.041883 -1.410481 0.003068 -0.038473
    9 -0.034142 -1.156125 0.061344 -0.693755 0.008185 -0.017030
    10 0.957766 -2.746780 -0.090302 -0.234135 -0.222068 -0.024896
    11 -0.033420 -1.397129 -0.011257 -0.188906 0.004758 -0.009049
    12 -0.022360 -0.957436 0.018784 -0.105091 0.002709 -0.004782
    13 -1.180681 -2.507217 -0.193859 -1.413652 0.212658 -0.268977
    14 -0.024967 -1.127840 0.017597 -0.913381 0.005321 -0.039141
    15 -0.020057 -0.902687 0.021809 -0.669314 0.007994 -0.026150
    16 0.618667 -1.212902 0.204911 -0.219494 -0.675229 0.240292
    17 1.348421 -0.313983 0.102668 0.161357 -0.301137 -1.296879
    18 1.046082 -0.151728 0.032291 0.045035 -0.197125 -0.805943
    19 0.120153 -0.050270 -0.054489 0.287569 3.110905 1.561085
    20 -9.235886 -0.875658 -7.153845 2.359164 -5.249414 1.529096
    21 0.104757 -8.395729 -0.048429 -0.164896 -0.121660 0.214502
    22 0.447953 -2.798986 -0.200443 0.055082 -0.009845 0.114951
    23 -0.032909 -1.484110 0.004940 -0.258395 0.005537 -0.001604
    24 -0.027022 -1.076920 -0.020210 0.103316 -0.002864 0.000216
    25 -0.249534 -2.846964 -0.174213 0.113472 0.001649 0.075232
    26 0.043235 -1.680035 0.096012 -0.199208 -0.001288 -0.001485
    27 0.031729 -1.160830 0.058838 -0.025353 0.000786 0.008492
    28 -0.963866 -2.785145 -0.085350 0.121680 0.155349 0.113787
    29 0.028479 -1.403067 0.002365 -0.132049 -0.001438 -0.006436
    30 0.021413 -0.957781 0.020046 0.168675 0.000587 0.007418
    31 1.164475 -2.543940 -0.170330 0.064139 -0.049212 0.083735
    32 0.024032 -1.129042 0.009994 -0.321817 -0.002169 0.016875
    33 0.014898 -0.883989 -0.019848 0.084448 0.002948 -0.007598
    34 -0.586770 -1.264477 0.200161 -0.387433 -0.354090 -2.596696
    35 1.554086 0.035243 0.016848 -0.013031 -0.005121 0.678841
    36 1.117947 0.048424 -0.005766 0.001603 -0.023149 -0.020545
    37 -0.139399 -0.111698 0.014397 0.285382 -0.030687 1.580508
    38 -4.452157 7.651641 -0.325373 1.581535 -0.015653 -1.165540
    39 -14.932938 -4.843898 -17.264969 1.117028 -0.295863 -2.183420
    40 -0.445597 0.884378 -0.000001 0.000000 0.000000 -2.855763
    41 0.752335 0.955584 -0.000001 0.000000 0.000002 -0.000001
    42 0.227005 -1.459700 -0.336619 0.000000 0.000000 -1.570796
    43 -1.773792 0.941444 0.336619 0.000000 0.000000 0.000000
    44 -12.940949 -13.876676 0.063470 0.000000 0.000000 3.141592
    45 -2.191151 0.000000 0.000000 0.000000 0.000000 0.000000
    46 7.618545 -9.144810 -5.449983 -1.110027 -2.054883 1.027714
    47 0.752335 0.955585 -0.000001 0.000000 0.000002 -0.000001
    48 -0.445597 0.884380 -0.000001 0.000000 0.000000 -2.855763
    49 0.227003 -1.459700 0.523556 0.000000 0.000000 -1.570796
    50 -1.773792 0.941444 -0.523556 0.000000 0.000000 0.000000
    51 -19.860804 -4.372061 -0.000001 0.000000 0.000000 3.141592
    52 -0.004971 0.000000 0.000000 0.000000 0.000000 3.141592
    53 1.105276 0.472918 0.044064 1.396626 1.315062 2.998056
    54 0.000000 0.000002 -0.051336 0.000000 0.000000 0.000000
    55 -21.550318 25.867062 0.077498 0.000001 1.570451 0.000000
    56 -13.515524 35.221081 -0.542491 0.000001 1.570451 0.000000
    57 0.176298 1.520552 -0.810270 -0.169797 3.020228 0.347598
    58 0.000000 0.000000 0.004268 0.000000 0.000000 0.000000
    59 50.887146 9.091324 -31.729149 0.000000 0.000000 -1.570796
    60 -0.000001 0.000000 0.008734 0.000000 0.000000 0.000000
end
