// Created by Crowbar 0.34.0.0

$ModelName "weapons/tfa_cso/w_avalanche.mdl"

$BodyGroup "studio"
{
	studio "v_sfmg_sfmg_set"
}

$collisionmodel "v_sfmg_sfmg_set.smd"
{
	$mass 9
}

$CDMaterials "models\weapons\tfa_cso\avalanche"

$attachment "0" "root" -1.30 -24.40 1.80 rotate -0 0 0

$Sequence "idle" {
	"anims\idle.smd"
	fps 30
}