// Created by Crowbar 0.49.0.0

$modelname "weapons/tfa_cso/w_holysword.mdl"

$bodygroup "studio"
{
	studio "v_holysword1"
}

$collisionmodel "v_holysword1.smd"
{
	$mass 9
}

$CDMaterials "models\weapons\tfa_cso\holysword"

$sequence "idle" {
	"anims\idle"
	fps 30
}
