version 1
nodes
  0 "root" -1
  1 "Bone01" 0
  2 "Bone_L_Upper" 1
  3 "Bone_Lefthand" 1
  4 "Bone13" 3
  5 "Bone14" 4
  6 "Bone15" 5
  7 "Bone17" 3
  8 "Bone18" 7
  9 "Bone19" 8
  10 "Bone21" 3
  11 "Bone22" 10
  12 "Bone23" 11
  13 "Bone09" 3
  14 "Bone10" 13
  15 "Bone11" 14
  16 "Bone05" 3
  17 "Bone06" 16
  18 "Bone07" 17
  19 "Bone_Se_Hand-L" 3
  20 "Bone04" 0
  21 "Bone_Righthand" 20
  22 "Bone39" 21
  23 "Bone40" 22
  24 "Bone41" 23
  25 "Bone35" 21
  26 "Bone36" 25
  27 "Bone37" 26
  28 "Bone31" 21
  29 "Bone32" 28
  30 "Bone33" 29
  31 "Bone43" 21
  32 "Bone44" 31
  33 "Bone45" 32
  34 "Bone27" 21
  35 "Bone28" 34
  36 "Bone29" 35
  37 "Bone_Se_Hand-R" 21
  38 "Bone_R_Upper" 20
  39 "d_root" -1
  40 "trigger" 39
  41 "Bone08" 39
  42 "Bone03" 39
  43 "Bone02" 42
  44 "Bone16" 43
  45 "Bone12" 44
  46 "d_root01" -1
  47 "Bone48" 46
  48 "trigger01" 46
  49 "Bone46" 46
  50 "Bone47" 49
  51 "Baa01" 50
  52 "Baa02" 51
  53 "d22" 46
  54 "d11" 53
  55 "lighfxx" 46
  56 "lighfxxxxx" 39
  57 "glass" 39
  58 "glass2" 57
  59 "Dum11my02" -1
  60 "Du11mmy01" 59
end
skeleton
  time 0
    0 0.001265 -0.569176 -20.601572 0.000000 0.000000 0.000000
    1 9.310103 -5.299614 -12.557959 3.138909 -0.000224 -1.566807
    2 1.257180 8.762585 -0.153713 -1.570562 0.002683 -1.566807
    3 -0.071921 -8.498736 -0.104134 -0.025046 0.287591 0.014898
    4 -0.488518 -2.755602 -0.228260 0.106454 0.010332 -0.264490
    5 0.039887 -1.479790 0.029854 -0.055395 0.000000 0.000001
    6 0.028786 -1.075731 -0.023109 0.002099 0.000000 0.000000
    7 0.250027 -2.820665 -0.238396 0.041826 -0.002921 0.008443
    8 -0.049759 -1.680544 0.100479 0.019826 0.000000 -0.000002
    9 -0.034142 -1.148312 0.084782 -0.040115 0.000000 0.000000
    10 0.957766 -2.746780 -0.090302 -0.017221 -0.162277 0.191558
    11 -0.033420 -1.397129 -0.011257 0.013931 0.000000 -0.000001
    12 -0.022360 -0.957436 0.018784 0.003845 0.000000 0.000000
    13 -1.180681 -2.507217 -0.193859 0.082999 0.013294 -0.477915
    14 -0.024967 -1.123934 0.017597 -0.018065 0.000000 0.000001
    15 -0.020057 -0.890968 0.010090 -0.060797 0.000000 0.000000
    16 0.583510 -1.197277 0.185379 0.158049 -0.404973 -0.364290
    17 1.535927 0.010246 0.005009 -0.002964 -0.012979 0.000887
    18 1.100771 0.004527 -0.010679 -0.002796 0.015973 0.003458
    19 0.120153 -0.050270 -0.054489 0.287569 3.110905 1.561085
    20 -9.310107 -5.231260 -12.513384 0.004984 -3.131565 -1.566847
    21 0.096944 -8.450418 -0.009365 -0.032965 -0.297907 -0.004663
    22 0.447953 -2.798986 -0.200443 0.106456 -0.010396 0.265094
    23 -0.032909 -1.480204 0.004940 -0.055403 0.000000 0.000002
    24 -0.027022 -1.076920 -0.020210 0.002094 0.000000 0.000000
    25 -0.249534 -2.846964 -0.174213 0.041903 -0.000125 -0.008396
    26 0.043235 -1.683941 0.096012 0.019757 0.002823 -0.000167
    27 0.031729 -1.160830 0.058838 -0.040181 0.000642 0.008372
    28 -0.963866 -2.785145 -0.085350 -0.017227 0.162276 -0.191556
    29 0.028479 -1.403067 0.006271 0.013941 0.000000 0.000000
    30 0.021413 -0.957781 0.020046 0.003851 0.000000 0.000000
    31 1.164475 -2.543940 -0.170330 0.083003 -0.013294 0.477915
    32 0.024032 -1.129042 0.017807 -0.018074 0.000000 0.000001
    33 0.014898 -0.883989 -0.019848 -0.060801 0.000000 0.000000
    34 -0.586770 -1.264477 0.200161 -0.152092 -0.410513 -2.814816
    35 1.522835 0.058681 0.016848 0.001410 0.008985 -0.046880
    36 1.117947 0.048424 -0.005766 -0.000243 -0.025198 0.065422
    37 -0.139399 -0.111698 0.014397 0.285382 -0.030687 1.580508
    38 -1.393470 8.839177 -0.239433 1.580804 -0.005023 -1.566847
    39 0.000000 15.704716 -19.757233 0.000000 -1.570796 0.000000
    40 -0.445597 0.884378 -0.000001 0.000000 0.000000 -2.855763
    41 0.752335 0.955584 -0.000001 0.000000 0.000002 -0.000001
    42 0.227005 -1.459700 -0.336619 0.000000 0.000000 -1.570796
    43 -1.773792 0.941444 0.336619 0.000000 0.000000 0.000000
    44 -7.073582 3.401195 0.063470 0.000000 0.000000 3.141592
    45 -2.191151 0.000000 0.000000 0.000000 0.000000 0.000000
    46 0.000000 28.767628 -20.407471 0.000000 -1.570796 0.000000
    47 0.752335 0.955585 -0.000001 0.000000 0.000002 -0.000001
    48 -0.445597 0.884380 -0.000001 0.000000 0.000000 -2.855763
    49 0.227003 -1.459700 0.523556 0.000000 0.000000 -1.570796
    50 -1.773792 0.941444 -0.523556 0.000000 0.000000 0.000000
    51 -19.860804 -4.372061 -0.000001 0.000000 0.000000 3.141592
    52 -0.004971 0.000000 0.000000 0.000000 0.000000 3.141592
    53 1.105276 0.472918 0.044064 1.396626 1.315062 2.998056
    54 0.000000 0.000002 -0.051336 0.000000 0.000000 0.000000
    55 -21.550318 25.867062 0.077498 0.000001 1.570451 0.000000
    56 -13.515524 35.221081 -0.542491 0.000001 1.570451 0.000000
    57 0.176298 1.520552 -0.810270 -0.169797 3.020228 0.347598
    58 0.000000 0.000000 0.004268 0.000000 0.000000 0.000000
    59 -9.091324 50.887146 -31.729149 0.000000 0.000000 0.000000
    60 -0.000001 0.000000 0.008734 0.000000 0.000000 0.000000
end
triangles
$0b_lightningred.bmp
  56 1.932487 53.345797 -33.272275 0.000000 0.000000 1.000000 0.000000 1.000000
  56 -0.847513 53.345797 -33.273234 0.000000 0.000000 1.000000 1.000000 1.000000
  56 1.932487 48.505796 -33.272280 0.000000 0.000000 1.000000 0.000000 0.000000
$0b_lightningred.bmp
  56 1.932487 48.505796 -33.272280 0.000000 0.000000 1.000000 0.000000 0.000000
  56 -0.847513 53.345797 -33.273234 0.000000 0.000000 1.000000 1.000000 1.000000
  56 -0.847513 48.505796 -33.273239 0.000000 0.000000 1.000000 1.000000 0.000000
$0b_lightningred.bmp
  56 1.932490 53.345797 -33.282275 0.000000 0.000000 -1.000000 0.000000 1.000000
  56 1.932490 48.505796 -33.282280 0.000000 0.000000 -1.000000 0.000000 0.000000
  56 -0.847510 53.345797 -33.283234 0.000000 0.000000 -1.000000 1.000000 1.000000
$0b_lightningred.bmp
  56 -0.847510 53.345797 -33.283234 0.000000 0.000000 -1.000000 1.000000 1.000000
  56 1.932490 48.505796 -33.282280 0.000000 0.000000 -1.000000 0.000000 0.000000
  56 -0.847510 48.505796 -33.283239 0.000000 0.000000 -1.000000 1.000000 0.000000
end
