// Created by Crowbar 0.34.0.0

$ModelName "weapons/tfa_cso/w_rpg7_v6.mdl"

$BodyGroup "studio"
{
	studio "v_rpg7_1"
}

$collisionmodel "v_rpg7_1.smd"
{
	$mass 9
}

$CDMaterials "models\weapons\tfa_cso\rpg7_v6"

$attachment "0" "root" -0.30 -10.50 -0.50 rotate -0 0 0

$Sequence "idle" {
	"anims\idle.smd"
	fps 30
}