version 1
nodes
  0 "Bone01" -1
  1 "Bone_Lefthand" 0
  2 "Bone52" 1
  3 "Bone53" 2
  4 "Bone54" 3
  5 "Bone57" 3
  6 "Bone02" 5
  7 "Bone03" 6
  8 "Bone25" 7
  9 "Bone47" 8
  10 "Bone48" 9
  11 "Bone49" 10
  12 "Bone50" 11
  13 "Bone51" 12
  14 "Bone_cover" 3
  15 "Bone_Norise" 3
  16 "Bone_pin" 3
  17 "Bone04" -1
  18 "Bone_Righthand" 17
  19 "Bone27" 18
  20 "Bone28" 19
  21 "Bone29" 20
  22 "Bone31" 18
  23 "Bone32" 22
  24 "Bone33" 23
  25 "Bone35" 18
  26 "Bone36" 25
  27 "Bone37" 26
  28 "Bone39" 18
  29 "Bone40" 28
  30 "Bone41" 29
  31 "Bone43" 18
  32 "Bone44" 31
  33 "Bone45" 32
  34 "Bone_Se_Hand-R" 18
  35 "Bone05" 1
  36 "Bone06" 35
  37 "Bone07" 36
  38 "Bone21" 1
  39 "Bone22" 38
  40 "Bone23" 39
  41 "Bone17" 1
  42 "Bone18" 41
  43 "Bone19" 42
  44 "Bone13" 1
  45 "Bone14" 44
  46 "Bone15" 45
  47 "Bone09" 1
  48 "Bone10" 47
  49 "Bone11" 48
  50 "Bone_Se_Hand-L" 1
end
skeleton
  time 0
    0 8.776115 8.997218 -7.635448 0.882792 -1.704177 -1.200700
    1 -0.070316 -8.500780 -0.101570 0.330537 -0.261593 -0.067305
    2 -0.252329 -3.606634 0.757784 0.138373 1.855171 0.091839
    3 0.000001 0.701297 0.849854 0.000000 0.000000 0.000000
    4 -0.000001 -1.738946 1.116327 0.000000 0.000000 0.000000
    5 -0.297733 -5.341948 2.396937 0.000000 0.000000 0.000000
    6 0.143015 -0.350996 0.431416 0.000000 0.000000 -3.141592
    7 0.473605 -0.000001 0.423819 0.000000 -0.174211 0.000000
    8 0.541040 -0.000001 0.044965 0.000000 0.521417 0.000000
    9 0.428258 -0.000003 -0.270082 0.000000 1.167787 0.000000
    10 0.497090 -0.000003 0.046301 0.000000 -0.181224 0.000000
    11 0.513722 -0.000001 0.096829 0.000000 0.058671 0.000000
    12 0.519993 -0.000001 -0.110339 0.000000 0.177510 0.000000
    13 0.529985 -0.000001 -0.013396 0.000012 0.059262 0.000203
    14 0.012493 -7.011952 3.615968 1.570796 0.000001 -1.570796
    15 1.263050 0.374895 1.954940 0.000001 0.000000 0.000001
    16 0.027010 -21.283043 1.057788 1.236557 0.214457 -1.910326
    17 -5.046541 -11.189556 -10.494755 0.443836 -2.724468 0.307219
    18 0.096947 -8.450419 -0.009363 -0.086523 -0.690159 0.536370
    19 -0.586768 -1.264477 0.200164 -0.396970 -0.740661 -2.405841
    20 1.522834 0.058679 0.016851 0.103988 -0.347012 0.782554
    21 1.117947 0.048425 -0.005765 0.080085 -0.211061 1.248487
    22 -0.963867 -2.785143 -0.085346 -0.534765 -0.046320 0.035343
    23 0.028478 -1.403067 0.006271 -1.585396 0.000000 0.000000
    24 0.021414 -0.957781 0.020047 -1.007046 -0.248776 0.191909
    25 -0.249534 -2.846963 -0.174215 -0.881850 -0.052696 0.090280
    26 0.043234 -1.683940 0.096014 -1.837765 0.000000 0.000000
    27 0.031729 -1.160831 0.058836 -1.246302 0.000000 0.000000
    28 0.447952 -2.798983 -0.200441 -1.144031 0.037894 0.167993
    29 -0.032909 -1.480207 0.004936 -1.660022 0.000000 0.000000
    30 -0.027022 -1.076920 -0.020212 -0.972704 0.000000 0.000000
    31 1.164474 -2.543939 -0.170327 -1.340440 -0.035150 0.207252
    32 0.024032 -1.129040 0.017805 -1.441950 0.000000 0.000000
    33 0.014896 -0.883992 -0.019845 -0.763556 0.000000 0.000000
    34 -0.052495 -0.135915 0.010075 0.726552 0.046671 1.280799
    35 0.583509 -1.197274 0.185379 0.261037 -0.615925 -0.788424
    36 1.535926 0.010247 0.005008 -0.095978 -0.113051 -1.028567
    37 1.100770 0.004528 -0.010675 0.000000 0.000000 -0.250175
    38 0.957766 -2.746777 -0.090301 0.110316 0.161277 0.019479
    39 -0.033419 -1.397127 -0.011256 -0.344358 0.000000 0.000000
    40 -0.022361 -0.957434 0.018783 -0.638014 0.000000 0.000000
    41 0.250029 -2.820664 -0.238397 -0.618475 0.127049 -0.341497
    42 -0.049759 -1.680544 0.100479 -1.815417 0.077876 -0.019415
    43 -0.034141 -1.148310 0.084779 -0.997609 -0.031376 -0.015448
    44 -0.488517 -2.755600 -0.228262 -0.877258 0.177036 -0.438099
    45 0.039889 -1.479791 0.029854 -1.520913 0.000000 0.000000
    46 0.028786 -1.075733 -0.023111 -1.058310 0.000000 0.000000
    47 -1.180679 -2.507216 -0.193861 -1.019141 0.319461 -0.426610
    48 -0.024967 -1.123934 0.017594 -0.936346 0.000000 0.000000
    49 -0.020058 -0.890964 0.010091 -1.193241 0.000000 0.000000
    50 0.092807 -0.054173 -0.097459 3.122270 6.118195 -1.569909
  time 1
    0 8.772208 8.821431 -7.592478 0.838722 -1.697937 -1.156870
    1 -0.070316 -8.500780 -0.101570 0.332130 -0.267789 -0.050311
    2 -0.252329 -3.606634 0.757784 0.138373 1.855171 0.091839
    3 0.000001 0.701297 0.849854 0.000000 0.000000 0.000000
    4 -0.000001 -1.738946 1.116327 0.000000 0.000000 0.000000
    5 -0.297733 -5.341948 2.396937 0.000000 0.000000 0.000000
    6 0.143015 -0.350996 0.431416 0.000000 0.000000 -3.141592
    7 0.247035 -0.000001 0.412100 0.000000 -0.048973 0.000000
    8 0.541040 -0.000001 0.044965 0.000000 -0.358558 0.000000
    9 0.428258 -0.000003 -0.270082 0.000000 0.989832 0.000000
    10 0.497090 -0.000003 0.046301 0.000000 1.511367 0.000000
    11 0.513722 -0.000001 0.096829 0.000000 -0.995379 0.000000
    12 0.519993 -0.000001 -0.110339 0.000000 -0.146934 0.000000
    13 0.529985 -0.000001 -0.013396 0.000012 -0.098554 0.000203
    14 0.012493 -7.011952 3.615968 1.570796 0.000001 -1.570796
    15 1.263050 0.374895 1.954940 0.000001 0.000000 0.000001
    16 0.027010 -21.283043 1.057788 1.225012 0.238520 -1.952755
    17 -4.714499 -11.181743 -10.494755 0.498704 -2.734705 0.284923
    18 0.096947 -8.450419 -0.009363 -0.215296 -0.674170 0.610587
    19 -0.586768 -1.264477 0.200164 -0.407833 -0.729110 -2.410731
    20 1.522834 0.058679 0.016851 0.113370 -0.343764 0.754495
    21 1.117947 0.048425 -0.005765 0.080085 -0.211061 1.248487
    22 -0.963867 -2.785143 -0.085346 -0.433710 -0.097950 -0.079038
    23 0.028478 -1.403067 0.006271 -1.498221 0.000000 0.000000
    24 0.021414 -0.957781 0.020047 -1.125795 -0.248776 0.191909
    25 -0.249534 -2.846963 -0.174215 -0.881850 -0.052696 0.090280
    26 0.043234 -1.683940 0.096014 -1.837765 0.000000 0.000000
    27 0.031729 -1.160831 0.058836 -1.246302 0.000000 0.000000
    28 0.447952 -2.798983 -0.200441 -1.144031 0.037894 0.167993
    29 -0.032909 -1.480207 0.004936 -1.660022 0.000000 0.000000
    30 -0.027022 -1.076920 -0.020212 -0.972704 0.000000 0.000000
    31 1.164474 -2.543939 -0.170327 -1.340440 -0.035150 0.207252
    32 0.024032 -1.129040 0.017805 -1.441950 0.000000 0.000000
    33 0.014896 -0.883992 -0.019845 -0.763556 0.000000 0.000000
    34 -0.052495 -0.135915 0.010075 0.726552 0.046671 1.280799
    35 0.583509 -1.197274 0.185379 0.261037 -0.615925 -0.788424
    36 1.535926 0.010247 0.005008 -0.095978 -0.113051 -1.028567
    37 1.100770 0.004528 -0.010675 0.000000 0.000000 -0.250175
    38 0.957766 -2.746777 -0.090301 0.110316 0.161277 0.019479
    39 -0.033419 -1.397127 -0.011256 -0.344358 0.000000 0.000000
    40 -0.022361 -0.957434 0.018783 -0.638014 0.000000 0.000000
    41 0.250029 -2.820664 -0.238397 -0.618475 0.127049 -0.341497
    42 -0.049759 -1.680544 0.100479 -1.815417 0.077876 -0.019415
    43 -0.034141 -1.148310 0.084779 -0.997609 -0.031376 -0.015448
    44 -0.488517 -2.755600 -0.228262 -0.877258 0.177036 -0.438099
    45 0.039889 -1.479791 0.029854 -1.520913 0.000000 0.000000
    46 0.028786 -1.075733 -0.023111 -1.058310 0.000000 0.000000
    47 -1.180679 -2.507216 -0.193861 -1.019141 0.319461 -0.426610
    48 -0.024967 -1.123934 0.017594 -0.936346 0.000000 0.000000
    49 -0.020058 -0.890964 0.010091 -1.193241 0.000000 0.000000
    50 0.092807 -0.054173 -0.097459 3.122270 6.118195 -1.569909
  time 2
    0 8.760489 8.547986 -7.533882 0.778819 -1.689573 -1.097487
    1 -0.070316 -8.500780 -0.101570 0.334714 -0.277101 -0.027888
    2 -0.252329 -3.606634 0.757784 0.138373 1.855171 0.091839
    3 0.000001 0.701297 0.849854 0.000000 0.000000 0.000000
    4 -0.000001 -1.738946 1.116327 0.000000 0.000000 0.000000
    5 -0.297733 -5.341948 2.396937 0.000000 0.000000 0.000000
    6 0.146921 -0.350996 0.431416 0.000000 0.000000 -3.141592
    7 0.262661 -0.000001 0.412100 0.000000 0.034975 0.000000
    8 0.541040 -0.000001 0.044965 0.000000 -0.692134 0.000000
    9 0.428258 -0.000003 -0.270082 0.000000 0.973839 0.000000
    10 0.497090 -0.000003 0.046301 0.000000 1.615967 0.000000
    11 0.513722 -0.000001 0.096829 0.000000 -0.837969 0.000000
    12 0.519993 -0.000001 -0.110339 0.000000 -0.047578 0.000000
    13 0.529985 -0.000001 -0.013396 0.000012 -0.130542 0.000203
    14 0.012493 -7.011952 3.615968 1.570796 0.000001 -1.570796
    15 1.263050 0.374895 1.954940 0.000001 0.000000 0.000001
    16 0.027010 -21.283043 1.057788 1.235984 0.270444 -1.997866
    17 -4.378552 -11.166118 -10.494755 0.533556 -2.741019 0.271565
    18 0.096947 -8.450419 -0.009363 -0.344038 -0.650759 0.695582
    19 -0.586768 -1.264477 0.200164 -0.427993 -0.707670 -2.419782
    20 1.522834 0.058679 0.016851 0.130798 -0.337736 0.702419
    21 1.117947 0.048425 -0.005765 0.080085 -0.211061 1.248487
    22 -0.963867 -2.785143 -0.085346 -0.332599 -0.149568 -0.193419
    23 0.028478 -1.403067 0.006271 -1.381015 0.000000 0.000000
    24 0.021414 -0.957781 0.020047 -1.267174 -0.248776 0.191909
    25 -0.249534 -2.846963 -0.174215 -0.881850 -0.052696 0.090280
    26 0.043234 -1.683940 0.096014 -1.837765 0.000000 0.000000
    27 0.031729 -1.160831 0.058836 -1.246302 0.000000 0.000000
    28 0.447952 -2.798983 -0.200441 -1.144031 0.037894 0.167993
    29 -0.032909 -1.480207 0.004936 -1.660022 0.000000 0.000000
    30 -0.027022 -1.076920 -0.020212 -0.972704 0.000000 0.000000
    31 1.164474 -2.543939 -0.170327 -1.340440 -0.035150 0.207252
    32 0.024032 -1.129040 0.017805 -1.441950 0.000000 0.000000
    33 0.014896 -0.883992 -0.019845 -0.763556 0.000000 0.000000
    34 -0.052495 -0.135915 0.010075 0.726552 0.046671 1.280799
    35 0.583509 -1.197274 0.185379 0.261037 -0.615925 -0.788424
    36 1.535926 0.010247 0.005008 -0.095978 -0.113051 -1.028567
    37 1.100770 0.004528 -0.010675 0.000000 0.000000 -0.250175
    38 0.957766 -2.746777 -0.090301 0.110316 0.161277 0.019479
    39 -0.033419 -1.397127 -0.011256 -0.344358 0.000000 0.000000
    40 -0.022361 -0.957434 0.018783 -0.638014 0.000000 0.000000
    41 0.250029 -2.820664 -0.238397 -0.618475 0.127049 -0.341497
    42 -0.049759 -1.680544 0.100479 -1.815417 0.077876 -0.019415
    43 -0.034141 -1.148310 0.084779 -0.997609 -0.031376 -0.015448
    44 -0.488517 -2.755600 -0.228262 -0.877258 0.177036 -0.438099
    45 0.039889 -1.479791 0.029854 -1.520913 0.000000 0.000000
    46 0.028786 -1.075733 -0.023111 -1.058310 0.000000 0.000000
    47 -1.180679 -2.507216 -0.193861 -1.019141 0.319461 -0.426610
    48 -0.024967 -1.123934 0.017594 -0.936346 0.000000 0.000000
    49 -0.020058 -0.890964 0.010091 -1.193241 0.000000 0.000000
    50 0.092807 -0.054173 -0.097459 3.122270 6.118195 -1.569909
  time 3
    0 8.725332 8.372199 -7.502631 0.768285 -1.688587 -1.087983
    1 -0.070316 -8.500780 -0.101570 0.336669 -0.282074 -0.027852
    2 -0.252329 -3.606634 0.757784 0.138373 1.855171 0.091839
    3 0.000001 0.701297 0.849854 0.000000 0.000000 0.000000
    4 -0.000001 -1.738946 1.116327 0.000000 0.000000 0.000000
    5 -0.297733 -5.341948 2.396937 0.000000 0.000000 0.000000
    6 0.154734 -0.350996 0.431416 0.000000 0.000000 -3.141592
    7 0.301724 -0.000001 0.412100 0.000000 0.127370 0.000000
    8 0.541040 -0.000001 0.044965 0.000000 -0.914399 0.000000
    9 0.428258 -0.000003 -0.270082 0.000000 0.964790 0.000000
    10 0.497090 -0.000003 0.046301 0.000000 1.677736 0.000000
    11 0.513722 -0.000001 0.096829 0.000000 -0.518002 0.000000
    12 0.519993 -0.000001 -0.110339 0.000000 0.136962 0.000000
    13 0.529985 -0.000001 -0.013396 0.000012 -0.157401 0.000203
    14 0.012493 -7.011952 3.615968 1.570796 0.000001 -1.570796
    15 1.263050 0.374895 1.954940 0.000001 0.000000 0.000001
    16 0.027010 -21.283043 1.057788 1.228065 0.285111 -2.024396
    17 -4.382458 -11.138773 -10.494755 0.535219 -2.736427 0.278715
    18 0.096947 -8.450419 -0.009363 -0.334154 -0.645598 0.703580
    19 -0.586768 -1.264477 0.200164 -0.438857 -0.696118 -2.424659
    20 1.522834 0.058679 0.016851 0.140180 -0.334488 0.674360
    21 1.117947 0.048425 -0.005765 0.080085 -0.211061 1.248487
    22 -0.963867 -2.785143 -0.085346 -0.385655 -0.145457 -0.180033
    23 0.028478 -1.403067 0.006271 -1.322782 0.005249 0.003344
    24 0.021414 -0.957781 0.020047 -1.303280 -0.248776 0.191909
    25 -0.249534 -2.846963 -0.174215 -0.881850 -0.052696 0.090280
    26 0.043234 -1.683940 0.096014 -1.837765 0.000000 0.000000
    27 0.031729 -1.160831 0.058836 -1.246302 0.000000 0.000000
    28 0.447952 -2.798983 -0.200441 -1.144031 0.037894 0.167993
    29 -0.032909 -1.480207 0.004936 -1.660022 0.000000 0.000000
    30 -0.027022 -1.076920 -0.020212 -0.972704 0.000000 0.000000
    31 1.164474 -2.543939 -0.170327 -1.340440 -0.035150 0.207252
    32 0.024032 -1.129040 0.017805 -1.441950 0.000000 0.000000
    33 0.014896 -0.883992 -0.019845 -0.763556 0.000000 0.000000
    34 -0.052495 -0.135915 0.010075 0.726552 0.046671 1.280799
    35 0.583509 -1.197274 0.185379 0.261037 -0.615925 -0.788424
    36 1.535926 0.010247 0.005008 -0.095978 -0.113051 -1.028567
    37 1.100770 0.004528 -0.010675 0.000000 0.000000 -0.250175
    38 0.957766 -2.746777 -0.090301 0.110316 0.161277 0.019479
    39 -0.033419 -1.397127 -0.011256 -0.344358 0.000000 0.000000
    40 -0.022361 -0.957434 0.018783 -0.638014 0.000000 0.000000
    41 0.250029 -2.820664 -0.238397 -0.618475 0.127049 -0.341497
    42 -0.049759 -1.680544 0.100479 -1.815417 0.077876 -0.019415
    43 -0.034141 -1.148310 0.084779 -0.997609 -0.031376 -0.015448
    44 -0.488517 -2.755600 -0.228262 -0.877258 0.177036 -0.438099
    45 0.039889 -1.479791 0.029854 -1.520913 0.000000 0.000000
    46 0.028786 -1.075733 -0.023111 -1.058310 0.000000 0.000000
    47 -1.180679 -2.507216 -0.193861 -1.019141 0.319461 -0.426610
    48 -0.024967 -1.123934 0.017594 -0.936346 0.000000 0.000000
    49 -0.020058 -0.890964 0.010091 -1.193241 0.000000 0.000000
    50 0.092807 -0.054173 -0.097459 3.122270 6.118195 -1.569909
  time 4
    0 8.674549 8.235476 -7.490912 0.791161 -1.692683 -1.112333
    1 -0.070316 -8.500780 -0.101570 0.338552 -0.284807 -0.045805
    2 -0.252329 -3.606634 0.757784 0.138373 1.855171 0.091839
    3 0.000001 0.701297 0.849854 0.000000 0.000000 0.000000
    4 -0.000001 -1.738946 1.116327 0.000000 0.000000 0.000000
    5 -0.297733 -5.341948 2.396937 0.000000 0.000000 0.000000
    6 0.166453 -0.350996 0.431416 0.000000 0.000000 -3.141592
    7 0.356414 -0.000001 0.412100 0.000000 0.220426 0.000000
    8 0.541040 -0.000001 0.044965 0.000000 -0.995176 0.000000
    9 0.428258 -0.000003 -0.270082 0.000000 0.961933 0.000000
    10 0.497090 -0.000003 0.046301 0.000000 1.697999 0.000000
    11 0.513722 -0.000001 0.096829 0.000000 -0.264036 0.000000
    12 0.519993 -0.000001 -0.110339 0.000000 0.236287 0.000000
    13 0.529985 -0.000001 -0.013396 0.000012 -0.179233 0.000203
    14 0.012493 -7.011952 3.615968 1.570796 0.000001 -1.570796
    15 1.263050 0.374895 1.954940 0.000001 0.000000 0.000001
    16 0.027010 -21.283043 1.057788 1.207837 0.287796 -2.038763
    17 -4.386364 -11.107522 -10.494755 0.530806 -2.739967 0.271189
    18 0.096947 -8.450419 -0.009363 -0.362263 -0.643135 0.708023
    19 -0.586768 -1.264477 0.200164 -0.438035 -0.696993 -2.424295
    20 1.522834 0.058679 0.016851 0.139473 -0.334728 0.676486
    21 1.117947 0.048425 -0.005765 0.080085 -0.211061 1.248487
    22 -0.963867 -2.785143 -0.085346 -0.484154 -0.136169 -0.155164
    23 0.028478 -1.403067 0.006271 -1.272802 0.016790 0.010714
    24 0.021414 -0.957781 0.020047 -1.323846 -0.248776 0.191909
    25 -0.249534 -2.846963 -0.174215 -0.881850 -0.052696 0.090280
    26 0.043234 -1.683940 0.096014 -1.837765 0.000000 0.000000
    27 0.031729 -1.160831 0.058836 -1.246302 0.000000 0.000000
    28 0.447952 -2.798983 -0.200441 -1.144031 0.037894 0.167993
    29 -0.032909 -1.480207 0.004936 -1.660022 0.000000 0.000000
    30 -0.027022 -1.076920 -0.020212 -0.972704 0.000000 0.000000
    31 1.164474 -2.543939 -0.170327 -1.340440 -0.035150 0.207252
    32 0.024032 -1.129040 0.017805 -1.441950 0.000000 0.000000
    33 0.014896 -0.883992 -0.019845 -0.763556 0.000000 0.000000
    34 -0.052495 -0.135915 0.010075 0.726552 0.046671 1.280799
    35 0.583509 -1.197274 0.185379 0.261037 -0.615925 -0.788424
    36 1.535926 0.010247 0.005008 -0.095978 -0.113051 -1.028567
    37 1.100770 0.004528 -0.010675 0.000000 0.000000 -0.250175
    38 0.957766 -2.746777 -0.090301 0.110316 0.161277 0.019479
    39 -0.033419 -1.397127 -0.011256 -0.344358 0.000000 0.000000
    40 -0.022361 -0.957434 0.018783 -0.638014 0.000000 0.000000
    41 0.250029 -2.820664 -0.238397 -0.618475 0.127049 -0.341497
    42 -0.049759 -1.680544 0.100479 -1.815417 0.077876 -0.019415
    43 -0.034141 -1.148310 0.084779 -0.997609 -0.031376 -0.015448
    44 -0.488517 -2.755600 -0.228262 -0.877258 0.177036 -0.438099
    45 0.039889 -1.479791 0.029854 -1.520913 0.000000 0.000000
    46 0.028786 -1.075733 -0.023111 -1.058310 0.000000 0.000000
    47 -1.180679 -2.507216 -0.193861 -1.019141 0.319461 -0.426610
    48 -0.024967 -1.123934 0.017594 -0.936346 0.000000 0.000000
    49 -0.020058 -0.890964 0.010091 -1.193241 0.000000 0.000000
    50 0.092807 -0.054173 -0.097459 3.122270 6.118195 -1.569909
  time 5
    0 8.608141 8.130004 -7.487006 0.834296 -1.699845 -1.157263
    1 -0.070316 -8.500780 -0.101570 0.340315 -0.285742 -0.076258
    2 -0.252329 -3.606634 0.757784 0.138373 1.855171 0.091839
    3 0.000001 0.701297 0.849854 0.000000 0.000000 0.000000
    4 -0.000001 -1.738946 1.116327 0.000000 0.000000 0.000000
    5 -0.297733 -5.341948 2.396937 0.000000 0.000000 0.000000
    6 0.178172 -0.350996 0.431416 0.000000 0.000000 -3.141592
    7 0.418915 -0.000001 0.412100 0.000000 0.306309 0.000000
    8 0.541040 -0.000001 0.044965 0.000000 -0.955301 0.000000
    9 0.428258 -0.000003 -0.270082 0.000000 1.036147 0.000000
    10 0.497090 -0.000003 0.046301 0.000000 1.452443 0.000000
    11 0.513722 -0.000001 0.096829 0.000000 -0.138553 0.000000
    12 0.519993 -0.000001 -0.110339 0.000000 0.218027 0.000000
    13 0.529985 -0.000001 -0.013396 0.000012 -0.196071 0.000203
    14 0.012493 -7.011952 3.615968 1.570796 0.000001 -1.570796
    15 1.263050 0.374895 1.954940 0.000001 0.000000 0.000001
    16 0.027010 -21.283043 1.057788 1.183029 0.282523 -2.042881
    17 -4.398083 -11.068458 -10.494755 0.518784 -2.747812 0.254632
    18 0.096947 -8.450419 -0.009363 -0.429310 -0.640707 0.712581
    19 -0.586768 -1.264477 0.200164 -0.435749 -0.699422 -2.423268
    20 1.522834 0.058679 0.016851 0.137491 -0.335411 0.682386
    21 1.117947 0.048425 -0.005765 0.080085 -0.211061 1.248487
    22 -0.963867 -2.785143 -0.085346 -0.537210 -0.126258 -0.141766
    23 0.028478 -1.403067 0.006271 -1.237854 0.028344 0.018085
    24 0.021414 -0.957781 0.020047 -1.333110 -0.248776 0.191909
    25 -0.249534 -2.846963 -0.174215 -0.881850 -0.052696 0.090280
    26 0.043234 -1.683940 0.096014 -1.837765 0.000000 0.000000
    27 0.031729 -1.160831 0.058836 -1.246302 0.000000 0.000000
    28 0.447952 -2.798983 -0.200441 -1.144031 0.037894 0.167993
    29 -0.032909 -1.480207 0.004936 -1.660022 0.000000 0.000000
    30 -0.027022 -1.076920 -0.020212 -0.972704 0.000000 0.000000
    31 1.164474 -2.543939 -0.170327 -1.340440 -0.035150 0.207252
    32 0.024032 -1.129040 0.017805 -1.441950 0.000000 0.000000
    33 0.014896 -0.883992 -0.019845 -0.763556 0.000000 0.000000
    34 -0.052495 -0.135915 0.010075 0.726552 0.046671 1.280799
    35 0.583509 -1.197274 0.185379 0.261037 -0.615925 -0.788424
    36 1.535926 0.010247 0.005008 -0.095978 -0.113051 -1.028567
    37 1.100770 0.004528 -0.010675 0.000000 0.000000 -0.250175
    38 0.957766 -2.746777 -0.090301 0.110316 0.161277 0.019479
    39 -0.033419 -1.397127 -0.011256 -0.344358 0.000000 0.000000
    40 -0.022361 -0.957434 0.018783 -0.638014 0.000000 0.000000
    41 0.250029 -2.820664 -0.238397 -0.618475 0.127049 -0.341497
    42 -0.049759 -1.680544 0.100479 -1.815417 0.077876 -0.019415
    43 -0.034141 -1.148310 0.084779 -0.997609 -0.031376 -0.015448
    44 -0.488517 -2.755600 -0.228262 -0.877258 0.177036 -0.438099
    45 0.039889 -1.479791 0.029854 -1.520913 0.000000 0.000000
    46 0.028786 -1.075733 -0.023111 -1.058310 0.000000 0.000000
    47 -1.180679 -2.507216 -0.193861 -1.019141 0.319461 -0.426610
    48 -0.024967 -1.123934 0.017594 -0.936346 0.000000 0.000000
    49 -0.020058 -0.890964 0.010091 -1.193241 0.000000 0.000000
    50 0.092807 -0.054173 -0.097459 3.122270 6.118195 -1.569909
  time 6
    0 8.541733 8.047970 -7.487006 0.884599 -1.707973 -1.209262
    1 -0.070316 -8.500780 -0.101570 0.342005 -0.285322 -0.113734
    2 -0.252329 -3.606634 0.757784 0.138373 1.855171 0.091839
    3 0.000001 0.701297 0.849854 0.000000 0.000000 0.000000
    4 -0.000001 -1.738946 1.116327 0.000000 0.000000 0.000000
    5 -0.297733 -5.341948 2.396937 0.000000 0.000000 0.000000
    6 0.185985 -0.350996 0.431416 0.000000 0.000000 -3.141592
    7 0.473605 -0.000001 0.412100 0.000000 0.377280 0.000000
    8 0.541040 -0.000001 0.044965 0.000000 -0.851789 0.000000
    9 0.428258 -0.000003 -0.270082 0.000000 1.199417 0.000000
    10 0.497090 -0.000003 0.046301 0.000000 0.912271 0.000000
    11 0.513722 -0.000001 0.096829 0.000000 -0.050626 0.000000
    12 0.519993 -0.000001 -0.110339 0.000000 0.177817 0.000000
    13 0.529985 -0.000001 -0.013396 0.000012 -0.207982 0.000203
    14 0.012493 -7.011952 3.615968 1.570796 0.000001 -1.570796
    15 1.263050 0.374895 1.954940 0.000001 0.000000 0.000001
    16 0.027010 -21.283043 1.057788 1.154405 0.274374 -2.044318
    17 -4.409803 -11.021582 -10.494755 0.501198 -2.755657 0.238169
    18 0.096947 -8.450419 -0.009363 -0.509325 -0.638581 0.716623
    19 -0.586768 -1.264477 0.200164 -0.432308 -0.703075 -2.421720
    20 1.522834 0.058679 0.016851 0.134527 -0.336442 0.691250
    21 1.117947 0.048425 -0.005765 0.080085 -0.211061 1.248487
    22 -0.963867 -2.785143 -0.085346 -0.473377 -0.117880 -0.149664
    23 0.028478 -1.403067 0.006271 -1.224718 0.033593 0.021428
    24 0.021414 -0.957781 0.020047 -1.335283 -0.248776 0.191909
    25 -0.249534 -2.846963 -0.174215 -0.881850 -0.052696 0.090280
    26 0.043234 -1.683940 0.096014 -1.837765 0.000000 0.000000
    27 0.031729 -1.160831 0.058836 -1.246302 0.000000 0.000000
    28 0.447952 -2.798983 -0.200441 -1.144031 0.037894 0.167993
    29 -0.032909 -1.480207 0.004936 -1.660022 0.000000 0.000000
    30 -0.027022 -1.076920 -0.020212 -0.972704 0.000000 0.000000
    31 1.164474 -2.543939 -0.170327 -1.340440 -0.035150 0.207252
    32 0.024032 -1.129040 0.017805 -1.441950 0.000000 0.000000
    33 0.014896 -0.883992 -0.019845 -0.763556 0.000000 0.000000
    34 -0.052495 -0.135915 0.010075 0.726552 0.046671 1.280799
    35 0.583509 -1.197274 0.185379 0.261037 -0.615925 -0.788424
    36 1.535926 0.010247 0.005008 -0.095978 -0.113051 -1.028567
    37 1.100770 0.004528 -0.010675 0.000000 0.000000 -0.250175
    38 0.957766 -2.746777 -0.090301 0.110316 0.161277 0.019479
    39 -0.033419 -1.397127 -0.011256 -0.344358 0.000000 0.000000
    40 -0.022361 -0.957434 0.018783 -0.638014 0.000000 0.000000
    41 0.250029 -2.820664 -0.238397 -0.618475 0.127049 -0.341497
    42 -0.049759 -1.680544 0.100479 -1.815417 0.077876 -0.019415
    43 -0.034141 -1.148310 0.084779 -0.997609 -0.031376 -0.015448
    44 -0.488517 -2.755600 -0.228262 -0.877258 0.177036 -0.438099
    45 0.039889 -1.479791 0.029854 -1.520913 0.000000 0.000000
    46 0.028786 -1.075733 -0.023111 -1.058310 0.000000 0.000000
    47 -1.180679 -2.507216 -0.193861 -1.019141 0.319461 -0.426610
    48 -0.024967 -1.123934 0.017594 -0.936346 0.000000 0.000000
    49 -0.020058 -0.890964 0.010091 -1.193241 0.000000 0.000000
    50 0.092807 -0.054173 -0.097459 3.122270 6.118195 -1.569909
  time 7
    0 8.483137 7.985468 -7.494818 0.928856 -1.715028 -1.254821
    1 -0.070316 -8.500780 -0.101570 0.343598 -0.284004 -0.152780
    2 -0.252329 -3.606634 0.757784 0.138373 1.855171 0.091839
    3 0.000001 0.701297 0.849854 0.000000 0.000000 0.000000
    4 -0.000001 -1.738946 1.116327 0.000000 0.000000 0.000000
    5 -0.297733 -5.341948 2.396937 0.000000 0.000000 0.000000
    6 0.197704 -0.350996 0.431416 0.000000 0.000000 -3.141592
    7 0.508762 -0.000001 0.412100 0.000000 0.425601 0.000000
    8 0.541040 -0.000001 0.044965 0.000000 -0.709019 0.000000
    9 0.428258 -0.000003 -0.270082 0.000000 1.362648 0.000000
    10 0.497090 -0.000003 0.046301 0.000000 0.372049 0.000000
    11 0.513722 -0.000001 0.096829 0.000000 0.001115 0.000000
    12 0.519993 -0.000001 -0.110339 0.000000 0.137669 0.000000
    13 0.529985 -0.000001 -0.013396 0.000012 -0.215102 0.000203
    14 0.012493 -7.011952 3.615968 1.570796 0.000001 -1.570796
    15 1.263050 0.374895 1.954940 0.000001 0.000000 0.000001
    16 0.027010 -21.283043 1.057788 1.121677 0.267568 -2.050447
    17 -4.421522 -10.974705 -10.494755 0.480159 -2.759293 0.230643
    18 0.096947 -8.450419 -0.009363 -0.576340 -0.637097 0.719490
    19 -0.586768 -1.264477 0.200164 -0.427993 -0.707670 -2.419782
    20 1.522834 0.058679 0.016851 0.130798 -0.337736 0.702419
    21 1.117947 0.048425 -0.005765 0.080085 -0.211061 1.248487
    22 -0.963867 -2.785143 -0.085346 -0.354821 -0.108880 -0.164309
    23 0.028478 -1.403067 0.006271 -1.237082 0.032442 0.020697
    24 0.021414 -0.957781 0.020047 -1.324009 -0.248776 0.191909
    25 -0.249534 -2.846963 -0.174215 -0.881850 -0.052696 0.090280
    26 0.043234 -1.683940 0.096014 -1.837765 0.000000 0.000000
    27 0.031729 -1.160831 0.058836 -1.246302 0.000000 0.000000
    28 0.447952 -2.798983 -0.200441 -1.144031 0.037894 0.167993
    29 -0.032909 -1.480207 0.004936 -1.660022 0.000000 0.000000
    30 -0.027022 -1.076920 -0.020212 -0.972704 0.000000 0.000000
    31 1.164474 -2.543939 -0.170327 -1.340440 -0.035150 0.207252
    32 0.024032 -1.129040 0.017805 -1.441950 0.000000 0.000000
    33 0.014896 -0.883992 -0.019845 -0.763556 0.000000 0.000000
    34 -0.052495 -0.135915 0.010075 0.726552 0.046671 1.280799
    35 0.583509 -1.197274 0.185379 0.261037 -0.615925 -0.788424
    36 1.535926 0.010247 0.005008 -0.095978 -0.113051 -1.028567
    37 1.100770 0.004528 -0.010675 0.000000 0.000000 -0.250175
    38 0.957766 -2.746777 -0.090301 0.110316 0.161277 0.019479
    39 -0.033419 -1.397127 -0.011256 -0.344358 0.000000 0.000000
    40 -0.022361 -0.957434 0.018783 -0.638014 0.000000 0.000000
    41 0.250029 -2.820664 -0.238397 -0.618475 0.127049 -0.341497
    42 -0.049759 -1.680544 0.100479 -1.815417 0.077876 -0.019415
    43 -0.034141 -1.148310 0.084779 -0.997609 -0.031376 -0.015448
    44 -0.488517 -2.755600 -0.228262 -0.877258 0.177036 -0.438099
    45 0.039889 -1.479791 0.029854 -1.520913 0.000000 0.000000
    46 0.028786 -1.075733 -0.023111 -1.058310 0.000000 0.000000
    47 -1.180679 -2.507216 -0.193861 -1.019141 0.319461 -0.426610
    48 -0.024967 -1.123934 0.017594 -0.936346 0.000000 0.000000
    49 -0.020058 -0.890964 0.010091 -1.193241 0.000000 0.000000
    50 0.092807 -0.054173 -0.097459 3.122270 6.118195 -1.569909
  time 8
    0 8.444073 7.934686 -7.498725 0.953915 -1.718953 -1.280427
    1 -0.070316 -8.500780 -0.101570 0.345095 -0.282230 -0.187882
    2 -0.252329 -3.606634 0.757784 0.138373 1.855171 0.091839
    3 0.000001 0.701297 0.849854 0.000000 0.000000 0.000000
    4 -0.000001 -1.738946 1.116327 0.000000 0.000000 0.000000
    5 -0.297733 -5.341948 2.396937 0.000000 0.000000 0.000000
    6 0.209423 -0.350996 0.431416 0.000000 0.000000 -3.141592
    7 0.524387 -0.000001 0.412100 0.000000 0.443391 0.000000
    8 0.541040 -0.000001 0.044965 0.000000 -0.551262 0.000000
    9 0.428258 -0.000003 -0.270082 0.000000 1.436862 0.000000
    10 0.497090 -0.000003 0.046301 0.000000 0.126542 0.000000
    11 0.513722 -0.000001 0.096829 0.000000 0.018078 0.000000
    12 0.519993 -0.000001 -0.110339 0.000000 0.119409 0.000000
    13 0.529985 -0.000001 -0.013396 0.000012 -0.217464 0.000203
    14 0.012493 -7.011952 3.615968 1.570796 0.000001 -1.570796
    15 1.263050 0.374895 1.954940 0.000001 0.000000 0.000001
    16 0.027010 -21.283043 1.057788 1.117383 0.268239 -2.053895
    17 -4.437147 -10.923923 -10.494755 0.424652 -2.747621 0.256795
    18 0.096947 -8.450419 -0.009363 -0.604449 -0.636557 0.720608
    19 -0.586768 -1.264477 0.200164 -0.423114 -0.712876 -2.417585
    20 1.522834 0.058679 0.016851 0.126559 -0.339198 0.715056
    21 1.117947 0.048425 -0.005765 0.080085 -0.211061 1.248487
    22 -0.963867 -2.785143 -0.085346 -0.290988 -0.097411 -0.172195
    23 0.028478 -1.403067 0.006271 -1.270238 0.029350 0.018720
    24 0.021414 -0.957781 0.020047 -1.293853 -0.248776 0.191909
    25 -0.249534 -2.846963 -0.174215 -0.881850 -0.052696 0.090280
    26 0.043234 -1.683940 0.096014 -1.837765 0.000000 0.000000
    27 0.031729 -1.160831 0.058836 -1.246302 0.000000 0.000000
    28 0.447952 -2.798983 -0.200441 -1.144031 0.037894 0.167993
    29 -0.032909 -1.480207 0.004936 -1.660022 0.000000 0.000000
    30 -0.027022 -1.076920 -0.020212 -0.972704 0.000000 0.000000
    31 1.164474 -2.543939 -0.170327 -1.340440 -0.035150 0.207252
    32 0.024032 -1.129040 0.017805 -1.441950 0.000000 0.000000
    33 0.014896 -0.883992 -0.019845 -0.763556 0.000000 0.000000
    34 -0.052495 -0.135915 0.010075 0.726552 0.046671 1.280799
    35 0.583509 -1.197274 0.185379 0.261037 -0.615925 -0.788424
    36 1.535926 0.010247 0.005008 -0.095978 -0.113051 -1.028567
    37 1.100770 0.004528 -0.010675 0.000000 0.000000 -0.250175
    38 0.957766 -2.746777 -0.090301 0.110316 0.161277 0.019479
    39 -0.033419 -1.397127 -0.011256 -0.344358 0.000000 0.000000
    40 -0.022361 -0.957434 0.018783 -0.638014 0.000000 0.000000
    41 0.250029 -2.820664 -0.238397 -0.618475 0.127049 -0.341497
    42 -0.049759 -1.680544 0.100479 -1.815417 0.077876 -0.019415
    43 -0.034141 -1.148310 0.084779 -0.997609 -0.031376 -0.015448
    44 -0.488517 -2.755600 -0.228262 -0.877258 0.177036 -0.438099
    45 0.039889 -1.479791 0.029854 -1.520913 0.000000 0.000000
    46 0.028786 -1.075733 -0.023111 -1.058310 0.000000 0.000000
    47 -1.180679 -2.507216 -0.193861 -1.019141 0.319461 -0.426610
    48 -0.024967 -1.123934 0.017594 -0.936346 0.000000 0.000000
    49 -0.020058 -0.890964 0.010091 -1.193241 0.000000 0.000000
    50 0.092807 -0.054173 -0.097459 3.122270 6.118195 -1.569909
  time 9
    0 8.420635 7.899528 -7.502631 0.961893 -1.720068 -1.288361
    1 -0.070316 -8.500780 -0.101570 0.346495 -0.280444 -0.213601
    2 -0.252329 -3.606634 0.757784 0.138373 1.855171 0.091839
    3 0.000001 0.701297 0.849854 0.000000 0.000000 0.000000
    4 -0.000001 -1.738946 1.116327 0.000000 0.000000 0.000000
    5 -0.297733 -5.341948 2.396937 0.000000 0.000000 0.000000
    6 0.217236 -0.350996 0.431416 0.000000 0.000000 -3.141592
    7 0.512668 -0.000001 0.376943 0.000000 0.321645 0.000000
    8 0.541040 -0.000001 0.044965 0.000000 -0.311344 0.000000
    9 0.428258 -0.000003 -0.270082 0.000000 1.324787 0.000000
    10 0.497090 -0.000003 0.046301 0.000000 0.258225 0.000000
    11 0.513722 -0.000001 0.096829 0.000000 -0.076627 0.000000
    12 0.519993 -0.000001 -0.110339 0.000000 0.134472 0.000000
    13 0.529985 -0.000001 -0.013396 0.000012 -0.145693 0.000203
    14 0.012493 -7.011952 3.615968 1.570796 0.000001 -1.570796
    15 1.263050 0.374895 1.954940 0.000001 0.000000 0.000001
    16 0.027010 -21.283043 1.057788 1.083797 0.271019 -2.078031
    17 -4.448866 -10.877046 -10.494755 0.403612 -2.737766 0.280502
    18 0.096947 -8.450419 -0.009363 -0.593621 -0.637637 0.717454
    19 -0.586768 -1.264477 0.200164 -0.417926 -0.718390 -2.415257
    20 1.522834 0.058679 0.016851 0.122084 -0.340744 0.728442
    21 1.117947 0.048425 -0.005765 0.080085 -0.211061 1.248487
    22 -0.963867 -2.785143 -0.085346 -0.354210 -0.078247 -0.118384
    23 0.028478 -1.403067 0.006271 -1.318216 0.024880 0.015868
    24 0.021414 -0.957781 0.020047 -1.250167 -0.248776 0.191909
    25 -0.249534 -2.846963 -0.174215 -0.881850 -0.052696 0.090280
    26 0.043234 -1.683940 0.096014 -1.837765 0.000000 0.000000
    27 0.031729 -1.160831 0.058836 -1.246302 0.000000 0.000000
    28 0.447952 -2.798983 -0.200441 -1.144031 0.037894 0.167993
    29 -0.032909 -1.480207 0.004936 -1.660022 0.000000 0.000000
    30 -0.027022 -1.076920 -0.020212 -0.972704 0.000000 0.000000
    31 1.164474 -2.543939 -0.170327 -1.340440 -0.035150 0.207252
    32 0.024032 -1.129040 0.017805 -1.441950 0.000000 0.000000
    33 0.014896 -0.883992 -0.019845 -0.763556 0.000000 0.000000
    34 -0.052495 -0.135915 0.010075 0.726552 0.046671 1.280799
    35 0.583509 -1.197274 0.185379 0.261037 -0.615925 -0.788424
    36 1.535926 0.010247 0.005008 -0.095978 -0.113051 -1.028567
    37 1.100770 0.004528 -0.010675 0.000000 0.000000 -0.250175
    38 0.957766 -2.746777 -0.090301 0.110316 0.161277 0.019479
    39 -0.033419 -1.397127 -0.011256 -0.344358 0.000000 0.000000
    40 -0.022361 -0.957434 0.018783 -0.638014 0.000000 0.000000
    41 0.250029 -2.820664 -0.238397 -0.618475 0.127049 -0.341497
    42 -0.049759 -1.680544 0.100479 -1.815417 0.077876 -0.019415
    43 -0.034141 -1.148310 0.084779 -0.997609 -0.031376 -0.015448
    44 -0.488517 -2.755600 -0.228262 -0.877258 0.177036 -0.438099
    45 0.039889 -1.479791 0.029854 -1.520913 0.000000 0.000000
    46 0.028786 -1.075733 -0.023111 -1.058310 0.000000 0.000000
    47 -1.180679 -2.507216 -0.193861 -1.019141 0.319461 -0.426610
    48 -0.024967 -1.123934 0.017594 -0.936346 0.000000 0.000000
    49 -0.020058 -0.890964 0.010091 -1.193241 0.000000 0.000000
    50 0.092807 -0.054173 -0.097459 3.122270 6.118195 -1.569909
  time 10
    0 8.405010 7.883903 -7.510444 0.963826 -1.720132 -1.289853
    1 -0.070316 -8.500780 -0.101570 0.347799 -0.279114 -0.224447
    2 -0.252329 -3.606634 0.757784 0.138373 1.855171 0.091839
    3 0.000001 0.701297 0.849854 0.000000 0.000000 0.000000
    4 -0.000001 -1.738946 1.116327 0.000000 0.000000 0.000000
    5 -0.297733 -5.341948 2.396937 0.000000 0.000000 0.000000
    6 0.221142 -0.350996 0.431416 0.000000 0.000000 -3.141592
    7 0.489230 -0.000001 0.310534 0.000000 0.095565 0.000000
    8 0.541040 -0.000001 0.044965 0.000000 -0.030370 0.000000
    9 0.428258 -0.000003 -0.270082 0.000000 1.116750 0.000000
    10 0.497090 -0.000003 0.046301 0.000000 0.502897 0.000000
    11 0.513722 -0.000001 0.096829 0.000000 -0.252444 0.000000
    12 0.519993 -0.000001 -0.110339 0.000000 0.162447 0.000000
    13 0.529985 -0.000001 -0.013396 0.000012 -0.012475 0.000203
    14 0.012493 -7.011952 3.615968 1.570796 0.000001 -1.570796
    15 1.263050 0.374895 1.954940 0.000001 0.000000 0.000001
    16 0.027010 -21.283043 1.057788 1.055554 0.272745 -2.098240
    17 -4.464492 -10.830170 -10.494755 0.402781 -2.733270 0.290568
    18 0.096947 -8.450419 -0.009363 -0.566582 -0.640268 0.709858
    19 -0.586768 -1.264477 0.200164 -0.412738 -0.723903 -2.412929
    20 1.522834 0.058679 0.016851 0.117609 -0.342302 0.741858
    21 1.117947 0.048425 -0.005765 0.080085 -0.211061 1.248487
    22 -0.963867 -2.785143 -0.085346 -0.471599 -0.056603 -0.018456
    23 0.028478 -1.403067 0.006271 -1.375115 0.019583 0.012488
    24 0.021414 -0.957781 0.020047 -1.198413 -0.248776 0.191909
    25 -0.249534 -2.846963 -0.174215 -0.881850 -0.052696 0.090280
    26 0.043234 -1.683940 0.096014 -1.837765 0.000000 0.000000
    27 0.031729 -1.160831 0.058836 -1.246302 0.000000 0.000000
    28 0.447952 -2.798983 -0.200441 -1.144031 0.037894 0.167993
    29 -0.032909 -1.480207 0.004936 -1.660022 0.000000 0.000000
    30 -0.027022 -1.076920 -0.020212 -0.972704 0.000000 0.000000
    31 1.164474 -2.543939 -0.170327 -1.340440 -0.035150 0.207252
    32 0.024032 -1.129040 0.017805 -1.441950 0.000000 0.000000
    33 0.014896 -0.883992 -0.019845 -0.763556 0.000000 0.000000
    34 -0.052495 -0.135915 0.010075 0.726552 0.046671 1.280799
    35 0.583509 -1.197274 0.185379 0.261037 -0.615925 -0.788424
    36 1.535926 0.010247 0.005008 -0.095978 -0.113051 -1.028567
    37 1.100770 0.004528 -0.010675 0.000000 0.000000 -0.250175
    38 0.957766 -2.746777 -0.090301 0.110316 0.161277 0.019479
    39 -0.033419 -1.397127 -0.011256 -0.344358 0.000000 0.000000
    40 -0.022361 -0.957434 0.018783 -0.638014 0.000000 0.000000
    41 0.250029 -2.820664 -0.238397 -0.618475 0.127049 -0.341497
    42 -0.049759 -1.680544 0.100479 -1.815417 0.077876 -0.019415
    43 -0.034141 -1.148310 0.084779 -0.997609 -0.031376 -0.015448
    44 -0.488517 -2.755600 -0.228262 -0.877258 0.177036 -0.438099
    45 0.039889 -1.479791 0.029854 -1.520913 0.000000 0.000000
    46 0.028786 -1.075733 -0.023111 -1.058310 0.000000 0.000000
    47 -1.180679 -2.507216 -0.193861 -1.019141 0.319461 -0.426610
    48 -0.024967 -1.123934 0.017594 -0.936346 0.000000 0.000000
    49 -0.020058 -0.890964 0.010091 -1.193241 0.000000 0.000000
    50 0.092807 -0.054173 -0.097459 3.122270 6.118195 -1.569909
  time 11
    0 8.397197 7.887809 -7.522163 0.959774 -1.719081 -1.284905
    1 -0.070316 -8.500780 -0.101570 0.349127 -0.277604 -0.218815
    2 -0.252329 -3.606634 0.757784 0.138373 1.855171 0.091839
    3 0.000001 0.701297 0.849854 0.000000 0.000000 0.000000
    4 -0.000001 -1.738946 1.116327 0.000000 0.000000 0.000000
    5 -0.297733 -5.341948 2.396937 0.000000 0.000000 0.000000
    6 0.221142 -0.350996 0.431416 0.000000 0.000000 -3.141592
    7 0.477511 -0.000001 0.275377 0.000000 -0.026181 0.000000
    8 0.541040 -0.000001 0.044965 0.000000 0.104755 0.000000
    9 0.428258 -0.000003 -0.270082 0.000000 1.004715 0.000000
    10 0.497090 -0.000003 0.046301 0.000000 0.634629 0.000000
    11 0.513722 -0.000001 0.096829 0.000000 -0.347149 0.000000
    12 0.519993 -0.000001 -0.110339 0.000000 0.177510 0.000000
    13 0.529985 -0.000001 -0.013396 0.000012 0.059262 0.000203
    14 0.012493 -7.011952 3.615968 1.570796 0.000001 -1.570796
    15 1.263050 0.374895 1.954940 0.000001 0.000000 0.000001
    16 0.027010 -21.283043 1.057788 1.060898 0.278592 -2.105807
    17 -4.476211 -10.787200 -10.494755 0.402014 -2.728773 0.300728
    18 0.096947 -8.450419 -0.009363 -0.531422 -0.643473 0.700627
    19 -0.586768 -1.264477 0.200164 -0.407833 -0.729110 -2.410731
    20 1.522834 0.058679 0.016851 0.113370 -0.343764 0.754495
    21 1.117947 0.048425 -0.005765 0.080085 -0.211061 1.248487
    22 -0.963867 -2.785143 -0.085346 -0.534765 -0.046320 0.035343
    23 0.028478 -1.403067 0.006271 -1.434999 0.014010 0.008929
    24 0.021414 -0.957781 0.020047 -1.143915 -0.248776 0.191909
    25 -0.249534 -2.846963 -0.174215 -0.881850 -0.052696 0.090280
    26 0.043234 -1.683940 0.096014 -1.837765 0.000000 0.000000
    27 0.031729 -1.160831 0.058836 -1.246302 0.000000 0.000000
    28 0.447952 -2.798983 -0.200441 -1.144031 0.037894 0.167993
    29 -0.032909 -1.480207 0.004936 -1.660022 0.000000 0.000000
    30 -0.027022 -1.076920 -0.020212 -0.972704 0.000000 0.000000
    31 1.164474 -2.543939 -0.170327 -1.340440 -0.035150 0.207252
    32 0.024032 -1.129040 0.017805 -1.441950 0.000000 0.000000
    33 0.014896 -0.883992 -0.019845 -0.763556 0.000000 0.000000
    34 -0.052495 -0.135915 0.010075 0.726552 0.046671 1.280799
    35 0.583509 -1.197274 0.185379 0.261037 -0.615925 -0.788424
    36 1.535926 0.010247 0.005008 -0.095978 -0.113051 -1.028567
    37 1.100770 0.004528 -0.010675 0.000000 0.000000 -0.250175
    38 0.957766 -2.746777 -0.090301 0.110316 0.161277 0.019479
    39 -0.033419 -1.397127 -0.011256 -0.344358 0.000000 0.000000
    40 -0.022361 -0.957434 0.018783 -0.638014 0.000000 0.000000
    41 0.250029 -2.820664 -0.238397 -0.618475 0.127049 -0.341497
    42 -0.049759 -1.680544 0.100479 -1.815417 0.077876 -0.019415
    43 -0.034141 -1.148310 0.084779 -0.997609 -0.031376 -0.015448
    44 -0.488517 -2.755600 -0.228262 -0.877258 0.177036 -0.438099
    45 0.039889 -1.479791 0.029854 -1.520913 0.000000 0.000000
    46 0.028786 -1.075733 -0.023111 -1.058310 0.000000 0.000000
    47 -1.180679 -2.507216 -0.193861 -1.019141 0.319461 -0.426610
    48 -0.024967 -1.123934 0.017594 -0.936346 0.000000 0.000000
    49 -0.020058 -0.890964 0.010091 -1.193241 0.000000 0.000000
    50 0.092807 -0.054173 -0.097459 3.122270 6.118195 -1.569909
  time 12
    0 8.397197 7.907341 -7.533882 0.949614 -1.716980 -1.273515
    1 -0.070316 -8.500780 -0.101570 0.350503 -0.275399 -0.203091
    2 -0.252329 -3.606634 0.757784 0.138373 1.855171 0.091839
    3 0.000001 0.701297 0.849854 0.000000 0.000000 0.000000
    4 -0.000001 -1.738946 1.116327 0.000000 0.000000 0.000000
    5 -0.297733 -5.341948 2.396937 0.000000 0.000000 0.000000
    6 0.221142 -0.350996 0.431416 0.000000 0.000000 -3.141592
    7 0.477511 -0.000001 0.275377 0.000000 -0.026181 0.000000
    8 0.541040 -0.000001 0.044965 0.000000 0.095209 0.000000
    9 0.428258 -0.000003 -0.270082 0.000000 1.050712 0.000000
    10 0.497090 -0.000003 0.046301 0.000000 0.573841 0.000000
    11 0.513722 -0.000001 0.096829 0.000000 -0.328519 0.000000
    12 0.519993 -0.000001 -0.110339 0.000000 0.177510 0.000000
    13 0.529985 -0.000001 -0.013396 0.000012 0.059262 0.000203
    14 0.012493 -7.011952 3.615968 1.570796 0.000001 -1.570796
    15 1.263050 0.374895 1.954940 0.000001 0.000000 0.000001
    16 0.027010 -21.283043 1.057788 1.084942 0.285974 -2.104466
    17 -4.487930 -10.752042 -10.494755 0.401374 -2.724468 0.310041
    18 0.096947 -8.450419 -0.009363 -0.496230 -0.646306 0.692486
    19 -0.586768 -1.264477 0.200164 -0.403519 -0.733704 -2.408793
    20 1.522834 0.058679 0.016851 0.109641 -0.345059 0.765635
    21 1.117947 0.048425 -0.005765 0.080085 -0.211061 1.248487
    22 -0.963867 -2.785143 -0.085346 -0.534765 -0.046320 0.035343
    23 0.028478 -1.403067 0.006271 -1.491864 0.008701 0.005549
    24 0.021414 -0.957781 0.020047 -1.092161 -0.248776 0.191909
    25 -0.249534 -2.846963 -0.174215 -0.881850 -0.052696 0.090280
    26 0.043234 -1.683940 0.096014 -1.837765 0.000000 0.000000
    27 0.031729 -1.160831 0.058836 -1.246302 0.000000 0.000000
    28 0.447952 -2.798983 -0.200441 -1.144031 0.037894 0.167993
    29 -0.032909 -1.480207 0.004936 -1.660022 0.000000 0.000000
    30 -0.027022 -1.076920 -0.020212 -0.972704 0.000000 0.000000
    31 1.164474 -2.543939 -0.170327 -1.340440 -0.035150 0.207252
    32 0.024032 -1.129040 0.017805 -1.441950 0.000000 0.000000
    33 0.014896 -0.883992 -0.019845 -0.763556 0.000000 0.000000
    34 -0.052495 -0.135915 0.010075 0.726552 0.046671 1.280799
    35 0.583509 -1.197274 0.185379 0.261037 -0.615925 -0.788424
    36 1.535926 0.010247 0.005008 -0.095978 -0.113051 -1.028567
    37 1.100770 0.004528 -0.010675 0.000000 0.000000 -0.250175
    38 0.957766 -2.746777 -0.090301 0.110316 0.161277 0.019479
    39 -0.033419 -1.397127 -0.011256 -0.344358 0.000000 0.000000
    40 -0.022361 -0.957434 0.018783 -0.638014 0.000000 0.000000
    41 0.250029 -2.820664 -0.238397 -0.618475 0.127049 -0.341497
    42 -0.049759 -1.680544 0.100479 -1.815417 0.077876 -0.019415
    43 -0.034141 -1.148310 0.084779 -0.997609 -0.031376 -0.015448
    44 -0.488517 -2.755600 -0.228262 -0.877258 0.177036 -0.438099
    45 0.039889 -1.479791 0.029854 -1.520913 0.000000 0.000000
    46 0.028786 -1.075733 -0.023111 -1.058310 0.000000 0.000000
    47 -1.180679 -2.507216 -0.193861 -1.019141 0.319461 -0.426610
    48 -0.024967 -1.123934 0.017594 -0.936346 0.000000 0.000000
    49 -0.020058 -0.890964 0.010091 -1.193241 0.000000 0.000000
    50 0.092807 -0.054173 -0.097459 3.122270 6.118195 -1.569909
  time 13
    0 8.405010 7.950311 -7.549508 0.933407 -1.713785 -1.255685
    1 -0.070316 -8.500780 -0.101570 0.351710 -0.273086 -0.183784
    2 -0.252329 -3.606634 0.757784 0.138373 1.855171 0.091839
    3 0.000001 0.701297 0.849854 0.000000 0.000000 0.000000
    4 -0.000001 -1.738946 1.116327 0.000000 0.000000 0.000000
    5 -0.297733 -5.341948 2.396937 0.000000 0.000000 0.000000
    6 0.221142 -0.350996 0.431416 0.000000 0.000000 -3.141592
    7 0.477511 -0.000001 0.275377 0.000000 -0.026181 0.000000
    8 0.541040 -0.000001 0.044965 0.000000 0.074168 0.000000
    9 0.428258 -0.000003 -0.270082 0.000000 1.151873 0.000000
    10 0.497090 -0.000003 0.046301 0.000000 0.440098 0.000000
    11 0.513722 -0.000001 0.096829 0.000000 -0.287592 0.000000
    12 0.519993 -0.000001 -0.110339 0.000000 0.177510 0.000000
    13 0.529985 -0.000001 -0.013396 0.000012 0.059262 0.000203
    14 0.012493 -7.011952 3.615968 1.570796 0.000001 -1.570796
    15 1.263050 0.374895 1.954940 0.000001 0.000000 0.000001
    16 0.027010 -21.283043 1.057788 1.109273 0.291247 -2.098911
    17 -4.495743 -10.724698 -10.494755 0.400863 -2.721023 0.317755
    18 0.096947 -8.450419 -0.009363 -0.450872 -0.648937 0.684832
    19 -0.586768 -1.264477 0.200164 -0.400077 -0.737357 -2.407245
    20 1.522834 0.058679 0.016851 0.106677 -0.346077 0.774528
    21 1.117947 0.048425 -0.005765 0.080085 -0.211061 1.248487
    22 -0.963867 -2.785143 -0.085346 -0.534765 -0.046320 0.035343
    23 0.028478 -1.403067 0.006271 -1.539877 0.004231 0.002697
    24 0.021414 -0.957781 0.020047 -1.048476 -0.248776 0.191909
    25 -0.249534 -2.846963 -0.174215 -0.881850 -0.052696 0.090280
    26 0.043234 -1.683940 0.096014 -1.837765 0.000000 0.000000
    27 0.031729 -1.160831 0.058836 -1.246302 0.000000 0.000000
    28 0.447952 -2.798983 -0.200441 -1.144031 0.037894 0.167993
    29 -0.032909 -1.480207 0.004936 -1.660022 0.000000 0.000000
    30 -0.027022 -1.076920 -0.020212 -0.972704 0.000000 0.000000
    31 1.164474 -2.543939 -0.170327 -1.340440 -0.035150 0.207252
    32 0.024032 -1.129040 0.017805 -1.441950 0.000000 0.000000
    33 0.014896 -0.883992 -0.019845 -0.763556 0.000000 0.000000
    34 -0.052495 -0.135915 0.010075 0.726552 0.046671 1.280799
    35 0.583509 -1.197274 0.185379 0.261037 -0.615925 -0.788424
    36 1.535926 0.010247 0.005008 -0.095978 -0.113051 -1.028567
    37 1.100770 0.004528 -0.010675 0.000000 0.000000 -0.250175
    38 0.957766 -2.746777 -0.090301 0.110316 0.161277 0.019479
    39 -0.033419 -1.397127 -0.011256 -0.344358 0.000000 0.000000
    40 -0.022361 -0.957434 0.018783 -0.638014 0.000000 0.000000
    41 0.250029 -2.820664 -0.238397 -0.618475 0.127049 -0.341497
    42 -0.049759 -1.680544 0.100479 -1.815417 0.077876 -0.019415
    43 -0.034141 -1.148310 0.084779 -0.997609 -0.031376 -0.015448
    44 -0.488517 -2.755600 -0.228262 -0.877258 0.177036 -0.438099
    45 0.039889 -1.479791 0.029854 -1.520913 0.000000 0.000000
    46 0.028786 -1.075733 -0.023111 -1.058310 0.000000 0.000000
    47 -1.180679 -2.507216 -0.193861 -1.019141 0.319461 -0.426610
    48 -0.024967 -1.123934 0.017594 -0.936346 0.000000 0.000000
    49 -0.020058 -0.890964 0.010091 -1.193241 0.000000 0.000000
    50 0.092807 -0.054173 -0.097459 3.122270 6.118195 -1.569909
  time 14
    0 8.420635 8.008907 -7.569039 0.911154 -1.709517 -1.231413
    1 -0.070316 -8.500780 -0.101570 0.352579 -0.271264 -0.167437
    2 -0.252329 -3.606634 0.757784 0.138373 1.855171 0.091839
    3 0.000001 0.701297 0.849854 0.000000 0.000000 0.000000
    4 -0.000001 -1.738946 1.116327 0.000000 0.000000 0.000000
    5 -0.297733 -5.341948 2.396937 0.000000 0.000000 0.000000
    6 0.221142 -0.350996 0.431416 0.000000 0.000000 -3.141592
    7 0.477511 -0.000001 0.275377 0.000000 -0.026181 0.000000
    8 0.541040 -0.000001 0.044965 0.000000 0.053178 0.000000
    9 0.428258 -0.000003 -0.270082 0.000000 1.253034 0.000000
    10 0.497090 -0.000003 0.046301 0.000000 0.306355 0.000000
    11 0.513722 -0.000001 0.096829 0.000000 -0.246629 0.000000
    12 0.519993 -0.000001 -0.110339 0.000000 0.177510 0.000000
    13 0.529985 -0.000001 -0.013396 0.000012 0.059262 0.000203
    14 0.012493 -7.011952 3.615968 1.570796 0.000001 -1.570796
    15 1.263050 0.374895 1.954940 0.000001 0.000000 0.000001
    16 0.027010 -21.283043 1.057788 1.119387 0.291630 -2.093643
    17 -4.503555 -10.709072 -10.494755 0.400543 -2.718536 0.323023
    18 0.096947 -8.450419 -0.009363 -0.400665 -0.651501 0.677522
    19 -0.586768 -1.264477 0.200164 -0.397792 -0.739786 -2.406218
    20 1.522834 0.058679 0.016851 0.104695 -0.346760 0.780428
    21 1.117947 0.048425 -0.005765 0.080085 -0.211061 1.248487
    22 -0.963867 -2.785143 -0.085346 -0.534765 -0.046320 0.035343
    23 0.028478 -1.403067 0.006271 -1.573033 0.001151 0.000731
    24 0.021414 -0.957781 0.020047 -1.018320 -0.248776 0.191909
    25 -0.249534 -2.846963 -0.174215 -0.881850 -0.052696 0.090280
    26 0.043234 -1.683940 0.096014 -1.837765 0.000000 0.000000
    27 0.031729 -1.160831 0.058836 -1.246302 0.000000 0.000000
    28 0.447952 -2.798983 -0.200441 -1.144031 0.037894 0.167993
    29 -0.032909 -1.480207 0.004936 -1.660022 0.000000 0.000000
    30 -0.027022 -1.076920 -0.020212 -0.972704 0.000000 0.000000
    31 1.164474 -2.543939 -0.170327 -1.340440 -0.035150 0.207252
    32 0.024032 -1.129040 0.017805 -1.441950 0.000000 0.000000
    33 0.014896 -0.883992 -0.019845 -0.763556 0.000000 0.000000
    34 -0.052495 -0.135915 0.010075 0.726552 0.046671 1.280799
    35 0.583509 -1.197274 0.185379 0.261037 -0.615925 -0.788424
    36 1.535926 0.010247 0.005008 -0.095978 -0.113051 -1.028567
    37 1.100770 0.004528 -0.010675 0.000000 0.000000 -0.250175
    38 0.957766 -2.746777 -0.090301 0.110316 0.161277 0.019479
    39 -0.033419 -1.397127 -0.011256 -0.344358 0.000000 0.000000
    40 -0.022361 -0.957434 0.018783 -0.638014 0.000000 0.000000
    41 0.250029 -2.820664 -0.238397 -0.618475 0.127049 -0.341497
    42 -0.049759 -1.680544 0.100479 -1.815417 0.077876 -0.019415
    43 -0.034141 -1.148310 0.084779 -0.997609 -0.031376 -0.015448
    44 -0.488517 -2.755600 -0.228262 -0.877258 0.177036 -0.438099
    45 0.039889 -1.479791 0.029854 -1.520913 0.000000 0.000000
    46 0.028786 -1.075733 -0.023111 -1.058310 0.000000 0.000000
    47 -1.180679 -2.507216 -0.193861 -1.019141 0.319461 -0.426610
    48 -0.024967 -1.123934 0.017594 -0.936346 0.000000 0.000000
    49 -0.020058 -0.890964 0.010091 -1.193241 0.000000 0.000000
    50 0.092807 -0.054173 -0.097459 3.122270 6.118195 -1.569909
  time 15
    0 8.444073 8.087034 -7.592478 0.882792 -1.704177 -1.200700
    1 -0.070316 -8.500780 -0.101570 0.352893 -0.270521 -0.160546
    2 -0.252329 -3.606634 0.757784 0.138373 1.855171 0.091839
    3 0.000001 0.701297 0.849854 0.000000 0.000000 0.000000
    4 -0.000001 -1.738946 1.116327 0.000000 0.000000 0.000000
    5 -0.297733 -5.341948 2.396937 0.000000 0.000000 0.000000
    6 0.221142 -0.350996 0.431416 0.000000 0.000000 -3.141592
    7 0.477511 -0.000001 0.275377 0.000000 -0.026181 0.000000
    8 0.541040 -0.000001 0.044965 0.000000 0.043633 0.000000
    9 0.428258 -0.000003 -0.270082 0.000000 1.298991 0.000000
    10 0.497090 -0.000003 0.046301 0.000000 0.245616 0.000000
    11 0.513722 -0.000001 0.096829 0.000000 -0.228036 0.000000
    12 0.519993 -0.000001 -0.110339 0.000000 0.177510 0.000000
    13 0.529985 -0.000001 -0.013396 0.000012 0.059262 0.000203
    14 0.012493 -7.011952 3.615968 1.570796 0.000001 -1.570796
    15 1.263050 0.374895 1.954940 0.000001 0.000000 0.000001
    16 0.027010 -21.283043 1.057788 1.105647 0.285591 -2.091057
    17 -4.503555 -10.701260 -10.494755 0.400479 -2.717675 0.324999
    18 0.096947 -8.450419 -0.009363 -0.376963 -0.652614 0.674254
    19 -0.586768 -1.264477 0.200164 -0.396970 -0.740661 -2.405841
    20 1.522834 0.058679 0.016851 0.103988 -0.347012 0.782554
    21 1.117947 0.048425 -0.005765 0.080085 -0.211061 1.248487
    22 -0.963867 -2.785143 -0.085346 -0.534765 -0.046320 0.035343
    23 0.028478 -1.403067 0.006271 -1.585396 0.000000 0.000000
    24 0.021414 -0.957781 0.020047 -1.007046 -0.248776 0.191909
    25 -0.249534 -2.846963 -0.174215 -0.881850 -0.052696 0.090280
    26 0.043234 -1.683940 0.096014 -1.837765 0.000000 0.000000
    27 0.031729 -1.160831 0.058836 -1.246302 0.000000 0.000000
    28 0.447952 -2.798983 -0.200441 -1.144031 0.037894 0.167993
    29 -0.032909 -1.480207 0.004936 -1.660022 0.000000 0.000000
    30 -0.027022 -1.076920 -0.020212 -0.972704 0.000000 0.000000
    31 1.164474 -2.543939 -0.170327 -1.340440 -0.035150 0.207252
    32 0.024032 -1.129040 0.017805 -1.441950 0.000000 0.000000
    33 0.014896 -0.883992 -0.019845 -0.763556 0.000000 0.000000
    34 -0.052495 -0.135915 0.010075 0.726552 0.046671 1.280799
    35 0.583509 -1.197274 0.185379 0.261037 -0.615925 -0.788424
    36 1.535926 0.010247 0.005008 -0.095978 -0.113051 -1.028567
    37 1.100770 0.004528 -0.010675 0.000000 0.000000 -0.250175
    38 0.957766 -2.746777 -0.090301 0.110316 0.161277 0.019479
    39 -0.033419 -1.397127 -0.011256 -0.344358 0.000000 0.000000
    40 -0.022361 -0.957434 0.018783 -0.638014 0.000000 0.000000
    41 0.250029 -2.820664 -0.238397 -0.618475 0.127049 -0.341497
    42 -0.049759 -1.680544 0.100479 -1.815417 0.077876 -0.019415
    43 -0.034141 -1.148310 0.084779 -0.997609 -0.031376 -0.015448
    44 -0.488517 -2.755600 -0.228262 -0.877258 0.177036 -0.438099
    45 0.039889 -1.479791 0.029854 -1.520913 0.000000 0.000000
    46 0.028786 -1.075733 -0.023111 -1.058310 0.000000 0.000000
    47 -1.180679 -2.507216 -0.193861 -1.019141 0.319461 -0.426610
    48 -0.024967 -1.123934 0.017594 -0.936346 0.000000 0.000000
    49 -0.020058 -0.890964 0.010091 -1.193241 0.000000 0.000000
    50 0.092807 -0.054173 -0.097459 3.122270 6.118195 -1.569909
end
