// Created by Crowbar 0.49.0.0

$modelname "weapons/tfa_cso/c_dbarrelg.mdl"

$Include "csonline_gmod.qci"

$bodygroup "weapon"
{
	studio "v_dbarrelg_v_ref"
}

$CDMaterials "models\weapons\tfa_cso\dbarrel_g"

$attachment 0 "SiN_DoubleB_Barrel" 16.487 1.033 0.762
//$attachment 1 "SiN_DoubleB_Barrel" 16.487 1.033 -0.655

$definebone "Bone01" "" 0.497702 0.002174 -11.414404 -0.012834 -89.771431 179.847612 0.000000 0.000000 -0.000001 0.000000 0.000000 -0.000000
$definebone "Bone_Lefthand" "Bone01" -0.071918 -8.498729 -0.104137 16.477755 0.853593 -1.435030 0.000000 0.000000 0.000000 0.000005 0.000000 -0.000000
$definebone "SiN_DoubleB_Root" "Bone_Lefthand" 8.081758 6.834570 -14.572867 -16.468640 -1.076416 -88.166405 0.000000 0.000000 0.000000 0.000000 0.000002 0.000000
$definebone "SiN_DoubleB_Rotation" "SiN_DoubleB_Root" 4.542924 -0.382888 0.022987 -0.000057 -0.000056 0.000000 0.000000 0.000000 0.000000 0.000000 0.000002 0.000000
$definebone "SiN_DoubleB_Barrel" "SiN_DoubleB_Rotation" 3.200649 0.867596 0.043289 0.000000 0.000002 0.000000 0.000000 0.000000 0.000000 0.000000 0.000002 0.000000
$definebone "SiN_DoubleB_BulletBone" "SiN_DoubleB_Barrel" -3.600599 1.022408 5.944972 0.000000 0.225862 0.000000 0.000000 0.000000 0.000000 0.000000 0.000002 0.000000
$definebone "SiN_DoubleB_Bullet02" "SiN_DoubleB_BulletBone" 0.857399 0.018234 0.889513 0.000000 -0.225858 0.000000 0.000000 0.000000 0.000000 0.000000 0.000002 0.000000
$definebone "SiN_DoubleB_Bullet01" "SiN_DoubleB_BulletBone" 0.857398 0.018232 -0.898937 0.000000 -0.225858 0.000000 0.000000 0.000000 0.000000 0.000000 0.000002 0.000000
$definebone "SiN_DoubleB_Lock" "SiN_DoubleB_Rotation" 0.118242 2.570888 -0.001752 0.009110 179.990909 -0.020455 0.000000 0.000000 0.000000 -0.000000 0.000002 -0.000000
$definebone "SiN_DoubleB_Trigger" "SiN_DoubleB_Rotation" -0.469978 0.641242 -0.011208 0.000000 -78.448016 0.000057 0.000000 0.000000 -0.000000 0.000000 -0.000003 -0.000000

$sequence "idle" {
	"v_dbarrelg_anims\idle"
	fps 30
	loop
	activity "ACT_VM_IDLE" 1
	snap
}
$sequence "shoot1" {
	"v_dbarrelg_anims\shoot1"
	{ event 5001 0 "31" }
	fps 30
	activity "ACT_VM_PRIMARYATTACK" 1
	snap
}
$sequence "shoot2" {
	"v_dbarrelg_anims\shoot2"
	{ event 5011 0 "31" }
	fps 30
	activity "ACT_VM_PRIMARYATTACK" 2
	snap
}
$sequence "shoot3" {
	"v_dbarrelg_anims\shoot3"
	{ event 5001 0 "31" }
	fps 30
	activity "ACT_VM_PRIMARYATTACK" 3
	snap
}
$sequence "reload" {
	"v_dbarrelg_anims\reload"
	{ event 5004 9 "Dbarrel.Foley1" }
	{ event 5004 21 "Dbarrel.Foley2" }
	{ event 5004 86 "Dbarrel.Foley3" }
	{ event 5004 140 "Dbarrel.Foley4" }
	fps 90
	activity "ACT_VM_RELOAD" 1
	snap
}
$sequence "draw" {
	"v_dbarrelg_anims\draw"
	{ event 5004 9 "Dbarrel.Draw" }
	fps 30
	activity "ACT_VM_DRAW" 1
	snap
}
