// Created by Crowbar 0.49.0.0

$modelname "weapons/tfa_cso/w_gungnirb.mdl"

$bodygroup "studio"
{
	studio "p_gungnirb_p_refb"
}

$collisionmodel "p_gungnirb_p_refb.smd"
{
	$mass 9
}

$CDMaterials "models\weapons\tfa_cso\gungnir"

$sequence "idle" {
	"p_gungnirb_anims\idle"
	fps 30
}
