version 1
nodes
  0 "Bone01" -1
  1 "Bone_Lefthand" 0
  2 "windleo_VIPGun_Root" 1
  3 "windleo_VIPGun_Grenade" 2
  4 "windleo_VIPGun_Safety" 2
  5 "windleo_VIPGun_Slide" 2
  6 "windleo_VIPGun_GN_Slide" 2
  7 "windleo_VIPGun_Magazine" 2
  8 "windleo_VIPGun_GN_Trigger" 2
  9 "windleo_VIPGun_Trigger" 2
  10 "Bone13" 1
  11 "Bone14" 10
  12 "Bone15" 11
  13 "Bone17" 1
  14 "Bone18" 13
  15 "Bone19" 14
  16 "Bone21" 1
  17 "Bone22" 16
  18 "Bone23" 17
  19 "Bone09" 1
  20 "Bone10" 19
  21 "Bone11" 20
  22 "Bone05" 1
  23 "Bone06" 22
  24 "Bone07" 23
  25 "Bone_Se_Hand-L" 1
  26 "Bone_L_Upper" 0
  27 "Bone04" -1
  28 "Bone_Righthand" 27
  29 "Bone39" 28
  30 "Bone40" 29
  31 "Bone41" 30
  32 "Bone35" 28
  33 "Bone36" 32
  34 "Bone37" 33
  35 "Bone31" 28
  36 "Bone32" 35
  37 "Bone33" 36
  38 "Bone43" 28
  39 "Bone44" 38
  40 "Bone45" 39
  41 "Bone27" 28
  42 "Bone28" 41
  43 "Bone29" 42
  44 "Bone_Se_Hand-R" 28
  45 "Bone_R_Upper" 27
end
skeleton
  time 0
    0 9.441718 3.659041 -8.709211 -1.568115 -1.404062 1.285539
    1 -0.071919 -8.498734 -0.104136 0.263977 0.293325 -0.017505
    2 0.521574 -2.341931 0.944898 0.192476 1.308143 0.129949
    3 0.250714 25.919879 -8.640471 0.000000 0.000000 0.000000
    4 -0.000001 -5.493355 -0.179960 0.000000 0.000000 0.000000
    5 -0.670049 -8.175868 2.510258 0.000000 0.000000 0.000000
    6 -0.000001 -16.111864 -1.715292 0.000000 0.000000 0.000000
    7 -0.000001 -7.461284 -0.759587 0.000000 0.000000 0.000000
    8 -0.000001 -10.320615 -1.410366 0.000000 0.000000 0.000000
    9 -0.000001 -2.553366 0.694624 0.000000 0.000000 0.000000
    10 -0.488517 -2.755600 -0.228261 -1.125952 -0.132656 -0.266599
    11 0.039887 -1.479790 0.029853 -1.195951 0.000000 0.000000
    12 0.028785 -1.075733 -0.023111 -1.114265 0.000000 0.000000
    13 0.250028 -2.820663 -0.238396 -0.897278 -0.150104 -0.211378
    14 -0.049759 -1.680546 0.100480 -1.455996 0.000000 -0.000002
    15 -0.034141 -1.148310 0.084779 -1.197915 0.000000 0.000000
    16 0.957766 -2.746777 -0.090300 -0.168610 -0.360143 -0.074009
    17 -0.033419 -1.397129 -0.011255 -0.108946 0.000000 -0.000001
    18 -0.022360 -0.957436 0.018783 -0.423640 0.000000 0.000000
    19 -1.180680 -2.507214 -0.193861 -0.919163 -0.054420 -0.368807
    20 -0.024966 -1.123934 0.017594 -1.368378 0.000000 0.000001
    21 -0.020057 -0.890966 0.010091 -0.855336 0.000000 0.000000
    22 0.583510 -1.197275 0.185377 -0.876575 -1.052204 0.140503
    23 1.535927 0.010246 0.005008 0.012053 -0.005632 -1.358008
    24 1.100770 0.004526 -0.010676 -0.012959 0.009741 -0.750357
    25 0.120152 -0.050266 -0.054488 0.287568 3.110905 1.561085
    26 1.304055 8.801644 -0.126373 -4.678056 -1.493055 -0.161010
    27 -1.376817 -14.151546 -12.273641 -0.380991 -5.706885 -5.797397
    28 0.096944 -8.450418 -0.009364 0.055725 -0.504291 0.340435
    29 0.447952 -2.798983 -0.200442 -0.628043 -0.010396 0.265094
    30 -0.032910 -1.480204 0.004936 -0.846466 0.000000 0.000002
    31 -0.027022 -1.076918 -0.020212 -0.867930 0.000000 0.000000
    32 -0.249534 -2.846960 -0.174216 -0.198461 -0.000125 -0.008396
    33 0.043235 -1.683941 0.096014 -1.212507 0.002823 -0.000167
    34 0.031729 -1.160830 0.058836 -0.566470 0.000642 0.008372
    35 -0.963867 -2.785143 -0.085346 0.293038 0.092729 -0.159389
    36 0.028479 -1.403067 0.006271 -0.769830 0.000000 0.000000
    37 0.021413 -0.957779 0.020047 -0.465370 0.000000 0.000000
    38 1.164475 -2.543938 -0.170328 -0.596689 -0.013294 0.477915
    39 0.024033 -1.129040 0.017806 -0.829117 0.000000 0.000001
    40 0.014897 -0.883989 -0.019845 -0.446999 0.000000 0.000000
    41 -0.590676 -1.260571 0.231415 -0.205203 -0.602942 -2.603497
    42 1.522835 0.058680 0.016850 0.519010 0.250534 0.290949
    43 1.117948 0.048426 -0.005764 0.001171 -0.025174 0.008367
    44 -0.100335 -0.115604 0.006584 0.280984 0.050161 1.422275
    45 -1.440346 8.796207 -0.165213 4.639975 1.483718 0.062637
  time 1
    0 9.441718 3.659041 -8.709211 -1.568115 -1.404062 1.285539
    1 -0.071919 -8.498734 -0.104136 0.263977 0.293325 -0.017505
    2 0.521574 -2.341931 0.944898 0.192476 1.308143 0.129949
    3 0.250714 25.919879 -8.640471 0.000000 0.000000 0.000000
    4 -0.000001 -5.493355 -0.179960 0.000000 0.000000 0.000000
    5 -0.670049 -8.175868 2.510258 0.000000 0.000000 0.000000
    6 -0.000001 -16.111864 -1.715292 0.000000 0.000000 0.000000
    7 -0.000001 -7.461284 -0.759587 0.000000 0.000000 0.000000
    8 -0.000001 -10.320615 -1.410366 0.000000 0.000000 0.000000
    9 -0.000001 -2.553366 0.694624 0.000000 0.000000 0.000000
    10 -0.488517 -2.755600 -0.228261 -1.125952 -0.132656 -0.266599
    11 0.039887 -1.479790 0.029853 -1.195951 0.000000 0.000000
    12 0.028785 -1.075733 -0.023111 -1.114265 0.000000 0.000000
    13 0.250028 -2.820663 -0.238396 -0.897278 -0.150104 -0.211378
    14 -0.049759 -1.680546 0.100480 -1.455996 0.000000 -0.000002
    15 -0.034141 -1.148310 0.084779 -1.197915 0.000000 0.000000
    16 0.957766 -2.746777 -0.090300 -0.168610 -0.360143 -0.074009
    17 -0.033419 -1.397129 -0.011255 -0.108946 0.000000 -0.000001
    18 -0.022360 -0.957436 0.018783 -0.423640 0.000000 0.000000
    19 -1.180680 -2.507214 -0.193861 -0.919163 -0.054420 -0.368807
    20 -0.024966 -1.123934 0.017594 -1.368378 0.000000 0.000001
    21 -0.020057 -0.890966 0.010091 -0.855336 0.000000 0.000000
    22 0.583510 -1.197275 0.185377 -0.876575 -1.052204 0.140503
    23 1.535927 0.010246 0.005008 0.012053 -0.005632 -1.358008
    24 1.100770 0.004526 -0.010676 -0.012959 0.009741 -0.750357
    25 0.120152 -0.050266 -0.054488 0.287568 3.110905 1.561085
    26 1.304055 8.801644 -0.126373 -4.678056 -1.493055 -0.161010
    27 -1.376817 -14.151546 -12.273641 -0.380991 -5.706885 -5.797397
    28 0.096944 -8.450418 -0.009364 0.055725 -0.504291 0.340435
    29 0.447952 -2.798983 -0.200442 -0.628043 -0.010396 0.265094
    30 -0.032910 -1.480204 0.004936 -0.846466 0.000000 0.000002
    31 -0.027022 -1.076918 -0.020212 -0.867930 0.000000 0.000000
    32 -0.249534 -2.846960 -0.174216 -0.198461 -0.000125 -0.008396
    33 0.043235 -1.683941 0.096014 -1.212507 0.002823 -0.000167
    34 0.031729 -1.160830 0.058836 -0.566470 0.000642 0.008372
    35 -0.963867 -2.785143 -0.085346 0.293038 0.092729 -0.159389
    36 0.028479 -1.403067 0.006271 -0.769830 0.000000 0.000000
    37 0.021413 -0.957779 0.020047 -0.465370 0.000000 0.000000
    38 1.164475 -2.543938 -0.170328 -0.596689 -0.013294 0.477915
    39 0.024033 -1.129040 0.017806 -0.829117 0.000000 0.000001
    40 0.014897 -0.883989 -0.019845 -0.446999 0.000000 0.000000
    41 -0.590676 -1.260571 0.231415 -0.205203 -0.602942 -2.603497
    42 1.522835 0.058680 0.016850 0.519010 0.250534 0.290949
    43 1.117948 0.048426 -0.005764 0.001171 -0.025174 0.008367
    44 -0.100335 -0.115604 0.006584 0.280984 0.050161 1.422275
    45 -1.440346 8.796207 -0.165213 4.639975 1.483718 0.062637
end
