// Created by Crowbar 0.49.0.0

$modelname "weapons/tfa_cso/c_t50.mdl"

$Include "csonline_gmod.qci"

$bodygroup "weapon"
{
	studio "v_blockmg1_v_blockmg"
}
$bodygroup "weapon"
{
	studio "v_blockmg1_v_blockmgcov"
}

$CDMaterials "models\weapons\tfa_cso\t50\"

$attachment 0 "blockmg_root" 28 -1.3 0
//$attachment 1 "blockmg_root" 5 0.2 -2
//$attachment 2 "blockmg_root" 3 -1.8 0

$definebone "blockmg_root" "" 0.000000 -5.820797 0.333336 0.000000 -89.999983 -89.999983 0.000000 0.000000 0.000000 -0.000000 0.000000 0.000000
$definebone "trigger" "blockmg_root" 2.689171 0.593730 0.000000 -0.000000 59.331101 0.000000 0.000000 0.000000 0.000000 -0.000000 -0.000000 0.000000
$definebone "magazine" "blockmg_root" 6.773117 4.766943 -0.000000 -0.000000 -89.999983 89.999983 0.000000 0.000000 0.000000 -0.000000 0.000000 0.000000
$definebone "bullet13" "magazine" 2.591805 -3.354444 1.127110 89.999983 89.999874 0.000000 0.000000 0.000000 0.000000 0.000000 -0.000000 0.000000
$definebone "bullet12" "bullet13" 0.000001 -0.486002 -0.000017 0.000000 0.000057 179.999966 0.000000 0.000000 0.000000 -0.000000 -0.000000 0.000000
$definebone "bullet11" "bullet12" -0.000002 0.487466 -0.000032 -0.000000 -0.000000 -179.999966 0.000000 0.000000 0.000000 0.000000 0.000000 0.000000
$definebone "bullet10" "bullet11" 0.000001 -0.492183 -0.013676 0.000000 0.000000 179.999966 0.000000 0.000000 0.000000 -0.000000 -0.000000 0.000000
$definebone "bullet09" "bullet10" 0.000001 0.490505 -0.104796 -0.000000 -0.000000 -179.999966 0.000000 0.000000 0.000000 0.000000 0.000000 0.000000
$definebone "bullet08" "bullet09" -0.000002 -0.495221 0.171921 0.000000 0.000000 179.999966 0.000000 0.000000 0.000000 -0.000000 -0.000000 0.000000
$definebone "bullet07" "bullet08" 0.000001 0.501056 -0.186734 -0.000000 -0.000000 -179.999966 0.000000 0.000000 0.000000 0.000000 0.000000 0.000000
$definebone "bullet06" "bullet07" -0.000001 -0.421237 0.288713 0.000000 0.000000 179.999966 0.000000 0.000000 0.000000 -0.000000 -0.000000 0.000000
$definebone "bullet05" "bullet06" -0.000001 0.324773 -0.392147 -0.000000 -0.000000 -179.999966 0.000000 0.000000 0.000000 0.000000 0.000000 0.000000
$definebone "bullet04" "bullet05" 0.000000 -0.006677 0.578270 0.000000 0.000000 179.999966 0.000000 -0.000000 0.000000 -0.000000 -0.000000 0.000000
$definebone "bullet03" "bullet04" -0.000001 -0.001755 -0.596257 -0.000000 -0.000000 -179.999966 0.000000 0.000000 0.000000 0.000000 0.000000 0.000000
$definebone "bullet02" "bullet03" 0.000001 0.106629 0.545063 0.000000 0.000000 179.999966 0.000000 0.000000 0.000000 -0.000000 -0.000000 0.000000
$definebone "bullet01" "bullet02" -0.000001 -0.241343 -0.496625 -0.000000 -0.000000 -179.999966 0.000000 0.000000 0.000000 0.000000 0.000000 0.000000
$definebone "cover_magazine" "magazine" 4.050301 -4.256609 0.011034 0.000000 4.596840 179.999911 0.000000 0.000000 0.000000 -0.000000 0.000000 -0.000000
$definebone "reload" "blockmg_root" 5.341238 -0.511789 -0.617692 89.999983 -89.999983 0.000000 -0.000000 0.000000 0.000000 -0.000000 0.000000 -0.000000
$definebone "handle" "blockmg_root" 12.295322 -1.315802 -0.300404 89.999983 -89.999983 0.000000 -0.000000 0.000000 0.000000 -0.000000 0.000000 -0.000000
$definebone "prop" "blockmg_root" 17.598589 -0.123470 -0.000000 -0.000000 89.999983 0.000000 0.000000 0.000000 0.000000 -0.000000 -0.000000 0.000000
$definebone "blockmg_block1" "blockmg_root" -4.733709 0.000000 0.000000 -0.000000 0.000000 0.000000 0.000000 0.000000 0.000000 -0.000000 0.000000 0.000000
$definebone "cover1" "blockmg_root" 8.711886 -2.432072 0.000000 -0.000000 179.999966 0.000000 0.000000 0.000000 0.000000 -0.000000 -0.000000 0.000000
$definebone "cover2" "cover1" 1.765141 0.140406 -1.652433 33.270111 -89.999983 90.000038 -0.000000 0.000000 0.000000 0.000000 0.000000 -0.000000
$definebone "switch" "cover1" 8.386957 -0.305542 -0.000000 -0.000000 -0.000000 -179.999966 0.000000 0.000000 0.000000 -0.000000 0.000000 0.000000

$sequence "idle1" {
	"v_blockmg1_anims\idle1"
	fps 20
	loop
	activity "ACT_VM_IDLE" 1
	snap
}
$sequence "shoot1" {
	"v_blockmg1_anims\shoot1"
	{ event 5001 0 "#I36 S0.08 R2 F0 P30 T0.01 A1 L0 O0" }
	{ event 5001 1 "125" }
	fps 30
	activity "ACT_VM_PRIMARYATTACK" 1
	snap
}
$sequence "shoot2" {
	"v_blockmg1_anims\shoot2"
	{ event 5001 0 "#I36 S0.08 R2 F0 P30 T0.01 A1 L0 O0" }
	{ event 5001 1 "125" }
	fps 30
	activity "ACT_VM_PRIMARYATTACK" 2
	snap
}
$sequence "reload" {
	"v_blockmg1_anims\reload"
	{ event 5004 15 "T50.ClipOut1" }
	{ event 5004 35 "T50.ClipOut2" }
	{ event 5004 72 "T50.ClipIn1" }
	{ event 5004 85 "T50.ClipIn2" }
	{ event 5004 115 "T50.ClipIn3" }
	fps 30
	activity "ACT_VM_RELOAD" 1
	snap
}
$sequence "draw" {
	"v_blockmg1_anims\draw"
	{ event 5004 5 "T50.Draw" }
	fps 30
	activity "ACT_VM_DRAW" 1
	snap
}
$sequence "changeA" {
	"v_blockmg1_anims\changeA"
	{ event 5004 13 "weapons/blockmg1_changeA.wav" }
	fps 30
}
$sequence "changeB" {
	"v_blockmg1_anims\changeB"
	{ event 5004 10 "weapons/blockmg1_changeB.wav" }
	fps 30
}
