version 1
nodes
  0 "Bone01" -1
  1 "Bone_Lefthand" 0
  2 "NEXON_CSO_spectreBone03" 1
  3 "NEXON_CSO_spectreBone56" 2
end
skeleton
  time 0
    0 7.068737 2.905684 -6.607390 -0.774275 -1.331365 0.567256
    1 -0.071917 -8.498730 -0.104136 0.353109 -0.156770 -0.180431
    2 -0.218299 -3.278431 0.941145 -1.376715 1.442335 -1.362415
    3 0.000000 2.000727 0.853749 0.000000 0.000000 0.000000
  time 1
    0 7.178116 2.909591 -6.716769 -0.730863 -1.292254 0.518573
    1 -0.071917 -8.498730 -0.104136 0.360080 -0.147338 -0.206885
    2 -0.218299 -3.278431 0.941145 -1.376715 1.442335 -1.362415
    3 0.000000 2.000727 0.853749 0.000000 0.000000 0.000000
  time 2
    0 7.244524 2.901778 -6.806615 -0.697188 -1.250343 0.479337
    1 -0.071917 -8.498730 -0.104136 0.367143 -0.138601 -0.236393
    2 -0.218299 -3.278431 0.941145 -1.376715 1.442335 -1.362415
    3 0.000000 2.000727 0.853749 0.000000 0.000000 0.000000
  time 3
    0 7.271869 2.874433 -6.876930 -0.671141 -1.206740 0.447528
    1 -0.071917 -8.498730 -0.104136 0.373238 -0.127935 -0.259474
    2 -0.218299 -3.278431 0.941145 -1.376715 1.442335 -1.362415
    3 0.000000 2.000727 0.853749 0.000000 0.000000 0.000000
  time 4
    0 7.252337 2.835370 -6.927713 -0.651194 -1.162552 0.421693
    1 -0.071917 -8.498730 -0.104136 0.377418 -0.112823 -0.266634
    2 -0.218299 -3.278431 0.941145 -1.376715 1.442335 -1.362415
    3 0.000000 2.000727 0.853749 0.000000 0.000000 0.000000
  time 5
    0 7.162490 2.765055 -6.951151 -0.635883 -1.118887 0.400541
    1 -0.071917 -8.498730 -0.104136 0.380265 -0.092988 -0.258998
    2 -0.218299 -3.278431 0.941145 -1.376715 1.442335 -1.362415
    3 0.000000 2.000727 0.853749 0.000000 0.000000 0.000000
  time 6
    0 6.998423 2.667396 -6.943338 -0.624149 -1.076823 0.383183
    1 -0.071917 -8.498730 -0.104136 0.382984 -0.070493 -0.245191
    2 -0.218299 -3.278431 0.941145 -1.376715 1.442335 -1.362415
    3 0.000000 2.000727 0.853749 0.000000 0.000000 0.000000
  time 7
    0 6.791385 2.554111 -6.915993 -0.615291 -1.037466 0.368974
    1 -0.071917 -8.498730 -0.104136 0.385831 -0.046452 -0.227009
    2 -0.218299 -3.278431 0.941145 -1.376715 1.442335 -1.362415
    3 0.000000 2.000727 0.853749 0.000000 0.000000 0.000000
  time 8
    0 6.572628 2.440826 -6.880836 -0.608662 -1.001832 0.357429
    1 -0.071917 -8.498730 -0.104136 0.388933 -0.021979 -0.206213
    2 -0.218299 -3.278431 0.941145 -1.376715 1.442335 -1.362415
    3 0.000000 2.000727 0.853749 0.000000 0.000000 0.000000
  time 9
    0 6.381216 2.339261 -6.849585 -0.603792 -0.971030 0.348306
    1 -0.071917 -8.498730 -0.104136 0.392328 0.001822 -0.184585
    2 -0.218299 -3.278431 0.941145 -1.376715 1.442335 -1.362415
    3 0.000000 2.000727 0.853749 0.000000 0.000000 0.000000
  time 10
    0 6.248400 2.268946 -6.830053 -0.600390 -0.946074 0.341363
    1 -0.071917 -8.498730 -0.104136 0.395886 0.023850 -0.163911
    2 -0.218299 -3.278431 0.941145 -1.376715 1.442335 -1.362415
    3 0.000000 2.000727 0.853749 0.000000 0.000000 0.000000
  time 11
    0 6.185898 2.225976 -6.822241 -0.598982 -0.929827 0.337407
    1 -0.071917 -8.498730 -0.104136 0.399390 0.043037 -0.145950
    2 -0.218299 -3.278431 0.941145 -1.376715 1.442335 -1.362415
    3 0.000000 2.000727 0.853749 0.000000 0.000000 0.000000
  time 12
    0 6.166366 2.206444 -6.818334 -0.599627 -0.922873 0.336438
    1 -0.071917 -8.498730 -0.104136 0.402511 0.058353 -0.132558
    2 -0.218299 -3.278431 0.941145 -1.376715 1.442335 -1.362415
    3 0.000000 2.000727 0.853749 0.000000 0.000000 0.000000
  time 13
    0 6.181992 2.202538 -6.818334 -0.601446 -0.922873 0.337487
    1 -0.071917 -8.498730 -0.104136 0.404519 0.067701 -0.124555
    2 -0.218299 -3.278431 0.941145 -1.376715 1.442335 -1.362415
    3 0.000000 2.000727 0.853749 0.000000 0.000000 0.000000
  time 14
    0 6.221055 2.214257 -6.818334 -0.603675 -0.927519 0.339667
    1 -0.071917 -8.498730 -0.104136 0.405084 0.070805 -0.121170
    2 -0.218299 -3.278431 0.941145 -1.376715 1.442335 -1.362415
    3 0.000000 2.000727 0.853749 0.000000 0.000000 0.000000
  time 15
    0 6.264025 2.229882 -6.822241 -0.605552 -0.934473 0.342089
    1 -0.071917 -8.498730 -0.104136 0.404628 0.069223 -0.121793
    2 -0.218299 -3.278431 0.941145 -1.376715 1.442335 -1.362415
    3 0.000000 2.000727 0.853749 0.000000 0.000000 0.000000
  time 16
    0 6.303089 2.245508 -6.822241 -0.606198 -0.941428 0.343865
    1 -0.071917 -8.498730 -0.104136 0.403624 0.064549 -0.125801
    2 -0.218299 -3.278431 0.941145 -1.376715 1.442335 -1.362415
    3 0.000000 2.000727 0.853749 0.000000 0.000000 0.000000
  time 17
    0 6.322621 2.261133 -6.826147 -0.604790 -0.946074 0.343946
    1 -0.071917 -8.498730 -0.104136 0.402511 0.058353 -0.132558
    2 -0.218299 -3.278431 0.941145 -1.376715 1.442335 -1.362415
    3 0.000000 2.000727 0.853749 0.000000 0.000000 0.000000
  time 18
    0 6.306995 2.268946 -6.830053 -0.600390 -0.946074 0.341363
    1 -0.071917 -8.498730 -0.104136 0.401416 0.050108 -0.142479
    2 -0.218299 -3.278431 0.941145 -1.376715 1.442335 -1.362415
    3 0.000000 2.000727 0.853749 0.000000 0.000000 0.000000
  time 19
    0 6.260119 2.268946 -6.833960 -0.582614 -0.940689 0.327234
    1 -0.071917 -8.498730 -0.104136 0.400157 0.038998 -0.155639
    2 -0.218299 -3.278431 0.941145 -1.376715 1.442335 -1.362415
    3 0.000000 2.000727 0.853749 0.000000 0.000000 0.000000
  time 20
    0 6.201523 2.268946 -6.837866 -0.554689 -0.929488 0.306405
    1 -0.071917 -8.498730 -0.104136 0.398843 0.026067 -0.170974
    2 -0.218299 -3.278431 0.941145 -1.376715 1.442335 -1.362415
    3 0.000000 2.000727 0.853749 0.000000 0.000000 0.000000
  time 21
    0 6.166366 2.268946 -6.841772 -0.535682 -0.911302 0.298493
    1 -0.071917 -8.498730 -0.104136 0.397511 0.012392 -0.187408
    2 -0.218299 -3.278431 0.941145 -1.376715 1.442335 -1.362415
    3 0.000000 2.000727 0.853749 0.000000 0.000000 0.000000
  time 22
    0 6.178085 2.268946 -6.833960 -0.529756 -0.889916 0.305517
    1 -0.071917 -8.498730 -0.104136 0.396178 -0.000946 -0.203915
    2 -0.218299 -3.278431 0.941145 -1.376715 1.442335 -1.362415
    3 0.000000 2.000727 0.853749 0.000000 0.000000 0.000000
  time 23
    0 6.228868 2.268946 -6.818334 -0.527703 -0.867884 0.316820
    1 -0.071917 -8.498730 -0.104136 0.394755 -0.012895 -0.219421
    2 -0.218299 -3.278431 0.941145 -1.376715 1.442335 -1.362415
    3 0.000000 2.000727 0.853749 0.000000 0.000000 0.000000
  time 24
    0 6.291370 2.268946 -6.802709 -0.527175 -0.842590 0.331755
    1 -0.071917 -8.498730 -0.104136 0.394718 0.047076 -0.157753
    2 -0.218299 -3.278431 0.941145 -1.376715 1.442335 -1.362415
    3 0.000000 2.000727 0.853749 0.000000 0.000000 0.000000
  time 25
    0 6.349965 2.268946 -6.787083 -0.525943 -0.811480 0.349759
    1 -0.071917 -8.498730 -0.104136 0.396762 0.085031 -0.118262
    2 -0.218299 -3.278431 0.941145 -1.376715 1.442335 -1.362415
    3 0.000000 2.000727 0.853749 0.000000 0.000000 0.000000
  time 26
    0 6.381216 2.268946 -6.783177 -0.521778 -0.772030 0.370427
    1 -0.071917 -8.498730 -0.104136 0.401416 0.131256 -0.069521
    2 -0.218299 -3.278431 0.941145 -1.376715 1.442335 -1.362415
    3 0.000000 2.000727 0.853749 0.000000 0.000000 0.000000
  time 27
    0 6.373404 2.268946 -6.787083 -0.523714 -0.786155 0.362999
    1 -0.071917 -8.498730 -0.104136 0.415888 0.215352 0.021374
    2 -0.218299 -3.278431 0.941145 -1.376715 1.442335 -1.362415
    3 0.000000 2.000727 0.853749 0.000000 0.000000 0.000000
  time 28
    0 6.338246 2.268946 -6.802709 -0.525826 -0.798032 0.356864
    1 -0.071917 -8.498730 -0.104136 0.412731 0.156663 -0.015111
    2 -0.218299 -3.278431 0.941145 -1.376715 1.442335 -1.362415
    3 0.000000 2.000727 0.853749 0.000000 0.000000 0.000000
  time 29
    0 6.291370 2.268946 -6.822241 -0.527703 -0.808002 0.351697
    1 -0.071917 -8.498730 -0.104136 0.411837 0.113315 -0.040819
    2 -0.218299 -3.278431 0.941145 -1.376715 1.442335 -1.362415
    3 0.000000 2.000727 0.853749 0.000000 0.000000 0.000000
  time 30
    0 6.244493 2.268946 -6.841772 -0.528818 -0.816372 0.347256
    1 -0.071917 -8.498730 -0.104136 0.411910 0.081280 -0.059380
    2 -0.218299 -3.278431 0.941145 -1.376715 1.442335 -1.362415
    3 0.000000 2.000727 0.853749 0.000000 0.000000 0.000000
  time 31
    0 6.201523 2.268946 -6.857398 -0.528759 -0.823511 0.343220
    1 -0.071917 -8.498730 -0.104136 0.412366 0.056436 -0.074176
    2 -0.218299 -3.278431 0.941145 -1.376715 1.442335 -1.362415
    3 0.000000 2.000727 0.853749 0.000000 0.000000 0.000000
  time 32
    0 6.174179 2.268946 -6.869117 -0.526940 -0.829696 0.339264
    1 -0.071917 -8.498730 -0.104136 0.413059 0.034672 -0.088497
    2 -0.218299 -3.278431 0.941145 -1.376715 1.442335 -1.362415
    3 0.000000 2.000727 0.853749 0.000000 0.000000 0.000000
  time 33
    0 6.170272 2.268946 -6.873023 -0.522071 -0.835020 0.337245
    1 -0.071917 -8.498730 -0.104136 0.414136 0.011901 -0.105615
    2 -0.218299 -3.278431 0.941145 -1.376715 1.442335 -1.362415
    3 0.000000 2.000727 0.853749 0.000000 0.000000 0.000000
  time 34
    0 6.174179 2.268946 -6.869117 -0.514386 -0.838928 0.337568
    1 -0.071917 -8.498730 -0.104136 0.415487 -0.008185 -0.126742
    2 -0.218299 -3.278431 0.941145 -1.376715 1.442335 -1.362415
    3 0.000000 2.000727 0.853749 0.000000 0.000000 0.000000
  time 35
    0 6.189804 2.272853 -6.861304 -0.505527 -0.840836 0.337568
    1 -0.071917 -8.498730 -0.104136 0.416728 -0.020589 -0.148149
    2 -0.218299 -3.278431 0.941145 -1.376715 1.442335 -1.362415
    3 0.000000 2.000727 0.853749 0.000000 0.000000 0.000000
  time 36
    0 6.213243 2.276759 -6.853492 -0.497255 -0.840036 0.334743
    1 -0.071917 -8.498730 -0.104136 0.417677 -0.027540 -0.165830
    2 -0.218299 -3.278431 0.941145 -1.376715 1.442335 -1.362415
    3 0.000000 2.000727 0.853749 0.000000 0.000000 0.000000
  time 37
    0 6.232774 2.276759 -6.849585 -0.491389 -0.835851 0.326588
    1 -0.071917 -8.498730 -0.104136 0.418242 -0.031279 -0.175727
    2 -0.218299 -3.278431 0.941145 -1.376715 1.442335 -1.362415
    3 0.000000 2.000727 0.853749 0.000000 0.000000 0.000000
  time 38
    0 6.252306 2.272853 -6.853492 -0.487752 -0.828742 0.313590
    1 -0.071917 -8.498730 -0.104136 0.418735 -0.034371 -0.179563
    2 -0.218299 -3.278431 0.941145 -1.376715 1.442335 -1.362415
    3 0.000000 2.000727 0.853749 0.000000 0.000000 0.000000
  time 39
    0 6.260119 2.268946 -6.869117 -0.484877 -0.819849 0.298412
    1 -0.071917 -8.498730 -0.104136 0.419410 -0.037715 -0.181861
    2 -0.218299 -3.278431 0.941145 -1.376715 1.442335 -1.362415
    3 0.000000 2.000727 0.853749 0.000000 0.000000 0.000000
  time 40
    0 6.267932 2.257227 -6.904274 -0.482765 -0.809572 0.281781
    1 -0.071917 -8.498730 -0.104136 0.420177 -0.041035 -0.182911
    2 -0.218299 -3.278431 0.941145 -1.376715 1.442335 -1.362415
    3 0.000000 2.000727 0.853749 0.000000 0.000000 0.000000
  time 41
    0 6.267932 2.237695 -6.958964 -0.481357 -0.798371 0.264262
    1 -0.071917 -8.498730 -0.104136 0.420907 -0.044019 -0.182924
    2 -0.218299 -3.278431 0.941145 -1.376715 1.442335 -1.362415
    3 0.000000 2.000727 0.853749 0.000000 0.000000 0.000000
  time 42
    0 6.267932 2.218163 -7.021465 -0.480594 -0.786708 0.246500
    1 -0.071917 -8.498730 -0.104136 0.421546 -0.046392 -0.182178
    2 -0.218299 -3.278431 0.941145 -1.376715 1.442335 -1.362415
    3 0.000000 2.000727 0.853749 0.000000 0.000000 0.000000
  time 43
    0 6.267932 2.194725 -7.091780 -0.480360 -0.775015 0.228981
    1 -0.071917 -8.498730 -0.104136 0.421984 -0.047854 -0.180920
    2 -0.218299 -3.278431 0.941145 -1.376715 1.442335 -1.362415
    3 0.000000 2.000727 0.853749 0.000000 0.000000 0.000000
  time 44
    0 6.267932 2.175193 -7.158188 -0.480360 -0.763722 0.212269
    1 -0.071917 -8.498730 -0.104136 0.422148 -0.048118 -0.179405
    2 -0.218299 -3.278431 0.941145 -1.376715 1.442335 -1.362415
    3 0.000000 2.000727 0.853749 0.000000 0.000000 0.000000
  time 45
    0 6.264025 2.155661 -7.212878 -0.480477 -0.753321 0.196930
    1 -0.071917 -8.498730 -0.104136 0.421947 -0.046871 -0.177865
    2 -0.218299 -3.278431 0.941145 -1.376715 1.442335 -1.362415
    3 0.000000 2.000727 0.853749 0.000000 0.000000 0.000000
  time 46
    0 6.264025 2.143942 -7.255848 -0.480536 -0.744151 0.183447
    1 -0.071917 -8.498730 -0.104136 0.421272 -0.043851 -0.176570
    2 -0.218299 -3.278431 0.941145 -1.376715 1.442335 -1.362415
    3 0.000000 2.000727 0.853749 0.000000 0.000000 0.000000
  time 47
    0 6.260119 2.136130 -7.275379 -0.480477 -0.742059 0.180380
    1 -0.071917 -8.498730 -0.104136 0.420067 -0.038758 -0.175776
    2 -0.218299 -3.278431 0.941145 -1.376715 1.442335 -1.362415
    3 0.000000 2.000727 0.853749 0.000000 0.000000 0.000000
  time 48
    0 6.260119 2.136130 -7.275379 -0.480536 -0.744151 0.183447
    1 -0.071917 -8.498730 -0.104136 0.418242 -0.031279 -0.175727
    2 -0.218299 -3.278431 0.941145 -1.376715 1.442335 -1.362415
    3 0.000000 2.000727 0.853749 0.000000 0.000000 0.000000
  time 49
    0 6.260119 2.136130 -7.275379 -0.479480 -0.743967 0.182236
    1 -0.071917 -8.498730 -0.104136 0.410614 0.002925 -0.175641
    2 -0.218299 -3.278431 0.941145 -1.376715 1.442335 -1.362415
    3 0.000000 2.000727 0.853749 0.000000 0.000000 0.000000
  time 50
    0 6.260119 2.136130 -7.283192 -0.477016 -0.743536 0.179249
    1 -0.071917 -8.498730 -0.104136 0.397602 0.058521 -0.177254
    2 -0.218299 -3.278431 0.941145 -1.376715 1.442335 -1.362415
    3 0.000000 2.000727 0.853749 0.000000 0.000000 0.000000
  time 51
    0 6.260119 2.136130 -7.291005 -0.473906 -0.742982 0.175616
    1 -0.071917 -8.498730 -0.104136 0.387327 0.091203 -0.183571
    2 -0.218299 -3.278431 0.941145 -1.376715 1.442335 -1.362415
    3 0.000000 2.000727 0.853749 0.000000 0.000000 0.000000
  time 52
    0 6.260119 2.136130 -7.298818 -0.471149 -0.742459 0.172306
    1 -0.071917 -8.498730 -0.104136 0.383769 0.076906 -0.196731
    2 -0.218299 -3.278431 0.941145 -1.376715 1.442335 -1.362415
    3 0.000000 2.000727 0.853749 0.000000 0.000000 0.000000
  time 53
    0 6.260119 2.136130 -7.302724 -0.469565 -0.742182 0.170369
    1 -0.071917 -8.498730 -0.104136 0.383732 0.039705 -0.213800
    2 -0.218299 -3.278431 0.941145 -1.376715 1.442335 -1.362415
    3 0.000000 2.000727 0.853749 0.000000 0.000000 0.000000
  time 54
    0 6.260119 2.136130 -7.302724 -0.469976 -0.742244 0.170934
    1 -0.071917 -8.498730 -0.104136 0.384316 0.007491 -0.229135
    2 -0.218299 -3.278431 0.941145 -1.376715 1.442335 -1.362415
    3 0.000000 2.000727 0.853749 0.000000 0.000000 0.000000
  time 55
    0 6.260119 2.136130 -7.294911 -0.473320 -0.742859 0.174890
    1 -0.071917 -8.498730 -0.104136 0.383787 0.009432 -0.233949
    2 -0.218299 -3.278431 0.941145 -1.376715 1.442335 -1.362415
    3 0.000000 2.000727 0.853749 0.000000 0.000000 0.000000
  time 56
    0 6.260119 2.136130 -7.275379 -0.480536 -0.744151 0.183447
    1 -0.071917 -8.498730 -0.104136 0.385575 0.033018 -0.197977
    2 -0.218299 -3.278431 0.941145 -1.376715 1.442335 -1.362415
    3 0.000000 2.000727 0.853749 0.000000 0.000000 0.000000
  time 57
    0 6.260119 2.136130 -7.236316 -0.496023 -0.746059 0.201855
    1 -0.071917 -8.498730 -0.104136 0.388988 0.061206 -0.153415
    2 -0.218299 -3.278431 0.941145 -1.376715 1.442335 -1.362415
    3 0.000000 2.000727 0.853749 0.000000 0.000000 0.000000
  time 58
    0 6.260119 2.136130 -7.189439 -0.522012 -0.748736 0.232614
    1 -0.071917 -8.498730 -0.104136 0.395412 0.099676 -0.094961
    2 -0.218299 -3.278431 0.941145 -1.376715 1.442335 -1.362415
    3 0.000000 2.000727 0.853749 0.000000 0.000000 0.000000
  time 59
    0 6.260119 2.136130 -7.146469 -0.555863 -0.752644 0.272900
    1 -0.071917 -8.498730 -0.104136 0.394992 0.105824 -0.109147
    2 -0.218299 -3.278431 0.941145 -1.376715 1.442335 -1.362415
    3 0.000000 2.000727 0.853749 0.000000 0.000000 0.000000
  time 60
    0 6.260119 2.136130 -7.119125 -0.595227 -0.758214 0.320049
    1 -0.071917 -8.498730 -0.104136 0.395576 0.112763 -0.124836
    2 -0.218299 -3.278431 0.941145 -1.376715 1.442335 -1.362415
    3 0.000000 2.000727 0.853749 0.000000 0.000000 0.000000
  time 61
    0 6.260119 2.151755 -7.080061 -0.592470 -0.782216 0.321502
    1 -0.071917 -8.498730 -0.104136 0.396142 0.118456 -0.139608
    2 -0.218299 -3.278431 0.941145 -1.376715 1.442335 -1.362415
    3 0.000000 2.000727 0.853749 0.000000 0.000000 0.000000
  time 62
    0 6.260119 2.186912 -7.021465 -0.579329 -0.800125 0.310684
    1 -0.071917 -8.498730 -0.104136 0.395795 0.120805 -0.151094
    2 -0.218299 -3.278431 0.941145 -1.376715 1.442335 -1.362415
    3 0.000000 2.000727 0.853749 0.000000 0.000000 0.000000
  time 63
    0 6.256213 2.214257 -6.990214 -0.568006 -0.815418 0.301238
    1 -0.071917 -8.498730 -0.104136 0.393660 0.117737 -0.156861
    2 -0.218299 -3.278431 0.941145 -1.376715 1.442335 -1.362415
    3 0.000000 2.000727 0.853749 0.000000 0.000000 0.000000
  time 64
    0 6.256213 2.202538 -7.044904 -0.571820 -0.832004 0.307939
    1 -0.071917 -8.498730 -0.104136 0.388806 0.107167 -0.154503
    2 -0.218299 -3.278431 0.941145 -1.376715 1.442335 -1.362415
    3 0.000000 2.000727 0.853749 0.000000 0.000000 0.000000
  time 65
    0 6.260119 2.136130 -7.236316 -0.605494 -0.853144 0.346853
    1 -0.071917 -8.498730 -0.104136 0.381268 0.089741 -0.144777
    2 -0.218299 -3.278431 0.941145 -1.376715 1.442335 -1.362415
    3 0.000000 2.000727 0.853749 0.000000 0.000000 0.000000
  time 66
    0 6.271838 1.972062 -7.666016 -0.670378 -0.877054 0.419271
    1 -0.071917 -8.498730 -0.104136 0.371961 0.068145 -0.130688
    2 -0.218299 -3.278431 0.941145 -1.376715 1.442335 -1.362415
    3 0.000000 2.000727 0.853749 0.000000 0.000000 0.000000
  time 67
    0 6.287464 1.714242 -8.345725 -0.755267 -0.898502 0.512922
    1 -0.071917 -8.498730 -0.104136 0.361048 0.043457 -0.113057
    2 -0.218299 -3.278431 0.941145 -1.376715 1.442335 -1.362415
    3 0.000000 2.000727 0.853749 0.000000 0.000000 0.000000
  time 68
    0 6.306995 1.386107 -9.205126 -0.856701 -0.914287 0.623770
    1 -0.071917 -8.498730 -0.104136 0.348784 0.016767 -0.092725
    2 -0.218299 -3.278431 0.941145 -1.376715 1.442335 -1.362415
    3 0.000000 2.000727 0.853749 0.000000 0.000000 0.000000
  time 69
    0 6.326527 1.015002 -10.166093 -0.968987 -0.921888 0.745839
    1 -0.071917 -8.498730 -0.104136 0.335425 -0.010882 -0.070560
    2 -0.218299 -3.278431 0.941145 -1.376715 1.442335 -1.362415
    3 0.000000 2.000727 0.853749 0.000000 0.000000 0.000000
  time 70
    0 6.349965 0.628271 -11.154404 -1.084617 -0.920134 0.871299
    1 -0.071917 -8.498730 -0.104136 0.321354 -0.038470 -0.047478
    2 -0.218299 -3.278431 0.941145 -1.376715 1.442335 -1.362415
    3 0.000000 2.000727 0.853749 0.000000 0.000000 0.000000
  time 71
    0 6.373404 0.257166 -12.088026 -1.195730 -0.909518 0.992077
    1 -0.071917 -8.498730 -0.104136 0.307028 -0.065028 -0.024422
    2 -0.218299 -3.278431 0.941145 -1.376715 1.442335 -1.362415
    3 0.000000 2.000727 0.853749 0.000000 0.000000 0.000000
  time 72
    0 6.392936 -0.078782 -12.900551 -1.295696 -0.892193 1.101149
    1 -0.071917 -8.498730 -0.104136 0.292994 -0.089620 -0.002403
    2 -0.218299 -3.278431 0.941145 -1.376715 1.442335 -1.362415
    3 0.000000 2.000727 0.853749 0.000000 0.000000 0.000000
  time 73
    0 6.408561 -0.352228 -13.506038 -1.380058 -0.871453 1.193750
    1 -0.071917 -8.498730 -0.104136 0.279946 -0.111384 0.017489
    2 -0.218299 -3.278431 0.941145 -1.376715 1.442335 -1.362415
    3 0.000000 2.000727 0.853749 0.000000 0.000000 0.000000
  time 74
    0 6.416374 -0.528014 -13.838080 -1.446467 -0.851144 1.267056
    1 -0.071917 -8.498730 -0.104136 0.268576 -0.129493 0.034131
    2 -0.218299 -3.278431 0.941145 -1.376715 1.442335 -1.362415
    3 0.000000 2.000727 0.853749 0.000000 0.000000 0.000000
  time 75
    0 6.420280 -0.633486 -13.896675 -1.477971 -0.840866 1.302014
    1 -0.071917 -8.498730 -0.104136 0.262535 -0.137942 0.042879
    2 -0.218299 -3.278431 0.941145 -1.376715 1.442335 -1.362415
    3 0.000000 2.000727 0.853749 0.000000 0.000000 0.000000
  time 76
    0 6.420280 -0.703801 -13.795110 -1.474392 -0.843205 1.297978
    1 -0.071917 -8.498730 -0.104136 0.262791 -0.136037 0.042782
    2 -0.218299 -3.278431 0.941145 -1.376715 1.442335 -1.362415
    3 0.000000 2.000727 0.853749 0.000000 0.000000 0.000000
  time 77
    0 6.416374 -0.731145 -13.631042 -1.456851 -0.849513 1.278521
    1 -0.071917 -8.498730 -0.104136 0.265948 -0.130871 0.038358
    2 -0.218299 -3.278431 0.941145 -1.376715 1.442335 -1.362415
    3 0.000000 2.000727 0.853749 0.000000 0.000000 0.000000
  time 78
    0 6.416374 -0.711614 -13.494319 -1.446467 -0.851144 1.267056
    1 -0.071917 -8.498730 -0.104136 0.268576 -0.129493 0.034131
    2 -0.218299 -3.278431 0.941145 -1.376715 1.442335 -1.362415
    3 0.000000 2.000727 0.853749 0.000000 0.000000 0.000000
  time 79
    0 6.424186 -0.613954 -13.302907 -1.447699 -0.842220 1.268752
    1 -0.071917 -8.498730 -0.104136 0.272847 -0.133568 0.021998
    2 -0.218299 -3.278431 0.941145 -1.376715 1.442335 -1.362415
    3 0.000000 2.000727 0.853749 0.000000 0.000000 0.000000
  time 80
    0 6.416374 -0.528014 -13.299001 -1.449342 -0.830343 1.270932
    1 -0.071917 -8.498730 -0.104136 0.276332 -0.146751 0.018222
    2 -0.218299 -3.278431 0.941145 -1.376715 1.442335 -1.362415
    3 0.000000 2.000727 0.853749 0.000000 0.000000 0.000000
  time 81
    0 6.326527 -0.578797 -14.029492 -1.450750 -0.819603 1.272789
    1 -0.071917 -8.498730 -0.104136 0.274215 -0.175370 0.041401
    2 -0.218299 -3.278431 0.941145 -1.376715 1.442335 -1.362415
    3 0.000000 2.000727 0.853749 0.000000 0.000000 0.000000
  time 82
    0 6.197617 -0.695988 -15.146713 -1.452041 -0.809295 1.274645
    1 -0.071917 -8.498730 -0.104136 0.269251 -0.210940 0.074636
    2 -0.218299 -3.278431 0.941145 -1.376715 1.442335 -1.362415
    3 0.000000 2.000727 0.853749 0.000000 0.000000 0.000000
  time 83
    0 6.119490 -0.785835 -15.896736 -1.452627 -0.804371 1.275453
    1 -0.071917 -8.498730 -0.104136 0.263411 -0.241621 0.105403
    2 -0.218299 -3.278431 0.941145 -1.376715 1.442335 -1.362415
    3 0.000000 2.000727 0.853749 0.000000 0.000000 0.000000
  time 84
    0 6.139022 -0.809273 -15.900643 -1.454446 -0.799909 1.277552
    1 -0.071917 -8.498730 -0.104136 0.260163 -0.255787 0.120579
    2 -0.218299 -3.278431 0.941145 -1.376715 1.442335 -1.362415
    3 0.000000 2.000727 0.853749 0.000000 0.000000 0.000000
  time 85
    0 6.221055 -0.801460 -15.451410 -1.457849 -0.792617 1.281346
    1 -0.071917 -8.498730 -0.104136 0.261002 -0.243826 0.113675
    2 -0.218299 -3.278431 0.941145 -1.376715 1.442335 -1.362415
    3 0.000000 2.000727 0.853749 0.000000 0.000000 0.000000
  time 86
    0 6.326527 -0.762396 -14.802953 -1.460078 -0.789632 1.283768
    1 -0.071917 -8.498730 -0.104136 0.263941 -0.214152 0.092683
    2 -0.218299 -3.278431 0.941145 -1.376715 1.442335 -1.362415
    3 0.000000 2.000727 0.853749 0.000000 0.000000 0.000000
  time 87
    0 6.416374 -0.695988 -14.224810 -1.458494 -0.798094 1.281750
    1 -0.071917 -8.498730 -0.104136 0.268029 -0.182321 0.065790
    2 -0.218299 -3.278431 0.941145 -1.376715 1.442335 -1.362415
    3 0.000000 2.000727 0.853749 0.000000 0.000000 0.000000
  time 88
    0 6.482782 -0.598329 -13.759952 -1.449987 -0.825142 1.271820
    1 -0.071917 -8.498730 -0.104136 0.273412 -0.163913 0.040851
    2 -0.218299 -3.278431 0.941145 -1.376715 1.442335 -1.362415
    3 0.000000 2.000727 0.853749 0.000000 0.000000 0.000000
  time 89
    0 6.545284 -0.473325 -13.271656 -1.434324 -0.867884 1.253816
    1 -0.071917 -8.498730 -0.104136 0.280183 -0.158616 0.018979
    2 -0.218299 -3.278431 0.941145 -1.376715 1.442335 -1.362415
    3 0.000000 2.000727 0.853749 0.000000 0.000000 0.000000
  time 90
    0 6.607786 -0.317070 -12.763828 -1.413145 -0.917488 1.229919
    1 -0.071917 -8.498730 -0.104136 0.287611 -0.155428 -0.003613
    2 -0.218299 -3.278431 0.941145 -1.376715 1.442335 -1.362415
    3 0.000000 2.000727 0.853749 0.000000 0.000000 0.000000
  time 91
    0 6.666381 -0.129565 -12.236468 -1.385279 -0.972199 1.199079
    1 -0.071917 -8.498730 -0.104136 0.295586 -0.153894 -0.026707
    2 -0.218299 -3.278431 0.941145 -1.376715 1.442335 -1.362415
    3 0.000000 2.000727 0.853749 0.000000 0.000000 0.000000
  time 92
    0 6.721071 0.089192 -11.689577 -1.348906 -1.030204 1.159600
    1 -0.071917 -8.498730 -0.104136 0.303962 -0.153630 -0.050044
    2 -0.218299 -3.278431 0.941145 -1.376715 1.442335 -1.362415
    3 0.000000 2.000727 0.853749 0.000000 0.000000 0.000000
  time 93
    0 6.775760 0.335293 -11.123153 -1.301622 -1.089531 1.109060
    1 -0.071917 -8.498730 -0.104136 0.312613 -0.154205 -0.073370
    2 -0.218299 -3.278431 0.941145 -1.376715 1.442335 -1.362415
    3 0.000000 2.000727 0.853749 0.000000 0.000000 0.000000
  time 94
    0 6.826542 0.612646 -10.537198 -1.240140 -1.148213 1.044393
    1 -0.071917 -8.498730 -0.104136 0.321354 -0.155260 -0.096427
    2 -0.218299 -3.278431 0.941145 -1.376715 1.442335 -1.362415
    3 0.000000 2.000727 0.853749 0.000000 0.000000 0.000000
  time 95
    0 6.873419 0.921249 -9.931710 -1.160237 -1.204032 0.961398
    1 -0.071917 -8.498730 -0.104136 0.329987 -0.156398 -0.118946
    2 -0.218299 -3.278431 0.941145 -1.376715 1.442335 -1.362415
    3 0.000000 2.000727 0.853749 0.000000 0.000000 0.000000
  time 96
    0 6.916389 1.257197 -9.306691 -1.057279 -1.254682 0.855476
    1 -0.071917 -8.498730 -0.104136 0.338308 -0.157249 -0.140647
    2 -0.218299 -3.278431 0.941145 -1.376715 1.442335 -1.362415
    3 0.000000 2.000727 0.853749 0.000000 0.000000 0.000000
  time 97
    0 6.959359 1.624395 -8.662140 -0.928038 -1.297793 0.723476
    1 -0.071917 -8.498730 -0.104136 0.346101 -0.157489 -0.161248
    2 -0.218299 -3.278431 0.941145 -1.376715 1.442335 -1.362415
    3 0.000000 2.000727 0.853749 0.000000 0.000000 0.000000
  time 98
    0 6.998423 2.022845 -7.994151 -0.774275 -1.331365 0.567256
    1 -0.071917 -8.498730 -0.104136 0.353109 -0.156770 -0.180431
    2 -0.218299 -3.278431 0.941145 -1.376715 1.442335 -1.362415
    3 0.000000 2.000727 0.853749 0.000000 0.000000 0.000000
  time 99
    0 7.033580 2.448639 -7.310537 -0.732329 -1.338258 0.524709
    1 -0.071917 -8.498730 -0.104136 0.354733 -0.156446 -0.185025
    2 -0.218299 -3.278431 0.941145 -1.376715 1.442335 -1.362415
    3 0.000000 2.000727 0.853749 0.000000 0.000000 0.000000
  time 100
    0 7.068737 2.905684 -6.607390 -0.774275 -1.331365 0.567256
    1 -0.071917 -8.498730 -0.104136 0.353109 -0.156770 -0.180431
    2 -0.218299 -3.278431 0.941145 -1.376715 1.442335 -1.362415
    3 0.000000 2.000727 0.853749 0.000000 0.000000 0.000000
end
