// Created by Crowbar 0.49.0.0

$modelname "weapons/tfa_cso/w_sl8ex.mdl"

$bodygroup "studio"
{
	studio "w_sl8ex_w_ex_reference_sl8"
}

$collisionmodel "w_sl8ex_w_ex_reference_sl8.smd"
{
	$mass 9
}

$CDMaterials "models\weapons\tfa_cso\sl8ex"

$attachment "0" "[PWS]SL8-upgrade" 0.40 20.50 0.60 rotate 0 0 0

$sequence "idle" {
	"w_sl8ex_anims\idle"
	fps 30
}
