version 1
nodes
  0 "Bone01" -1
  1 "Bone_Lefthand" 0
  2 "Bone_AK47" 1
  3 "Bone03" 2
  4 "Bone25" 3
  5 "Bone48" 3
  6 "Bone50" 3
  7 "Bone52" 3
  8 "Bone04" -1
  9 "Bone_Righthand" 8
  10 "Bone27" 9
  11 "Bone28" 10
  12 "Bone29" 11
  13 "Bone31" 9
  14 "Bone32" 13
  15 "Bone33" 14
  16 "Bone35" 9
  17 "Bone36" 16
  18 "Bone37" 17
  19 "Bone39" 9
  20 "Bone40" 19
  21 "Bone41" 20
  22 "Bone43" 9
  23 "Bone44" 22
  24 "Bone45" 23
  25 "Bone_Se_Hand-R" 9
  26 "Bone05" 1
  27 "Bone06" 26
  28 "Bone07" 27
  29 "Bone21" 1
  30 "Bone22" 29
  31 "Bone23" 30
  32 "Bone17" 1
  33 "Bone18" 32
  34 "Bone19" 33
  35 "Bone13" 1
  36 "Bone14" 35
  37 "Bone15" 36
  38 "Bone09" 1
  39 "Bone10" 38
  40 "Bone11" 39
  41 "Bone_Se_Hand-L" 1
end
skeleton
  time 0
    0 8.930811 3.771143 -8.197964 -0.774258 -1.331378 0.567275
    1 -0.070315 -8.500782 -0.101566 0.355860 -0.246316 -0.214745
    2 -0.616358 -3.628539 0.998945 0.959327 1.722211 0.980637
    3 -0.000001 2.160511 0.950625 0.000000 0.000000 0.000000
    4 0.000001 -3.344302 1.710279 0.000000 0.000000 0.000000
    5 0.000002 -4.793801 0.448359 0.000000 0.000000 0.000000
    6 0.000003 -6.345618 1.761433 0.000000 0.000000 0.000000
    7 0.000002 -5.765821 2.989244 0.000000 0.000000 0.000000
    8 0.038254 -10.395756 -10.214524 -0.603475 0.454542 0.509951
    9 0.096946 -8.450419 -0.009364 0.352970 -0.430369 0.106636
    10 -0.586769 -1.264477 0.200164 -0.128840 -0.181460 -2.421838
    11 1.522834 0.058679 0.016851 -0.155475 -0.052443 0.060068
    12 1.117948 0.048425 -0.005765 0.057544 0.004929 0.271595
    13 -0.963866 -2.785142 -0.085346 -0.619229 0.039901 -0.096824
    14 0.028478 -1.403067 0.006272 -0.705553 0.000000 0.000000
    15 0.021414 -0.957782 0.020048 -0.522170 0.000000 0.000000
    16 -0.249534 -2.846962 -0.174215 -0.624211 -0.029290 -0.025634
    17 0.043234 -1.683940 0.096015 -1.175496 0.000000 0.000000
    18 0.031729 -1.160831 0.058835 -0.884580 0.000000 0.000000
    19 0.447952 -2.798982 -0.200441 -0.985036 0.020326 -0.016362
    20 -0.032910 -1.480207 0.004935 -0.877476 0.000000 0.000000
    21 -0.027022 -1.076921 -0.020212 -0.733859 0.000000 0.000000
    22 1.164474 -2.543939 -0.170327 -1.046214 -0.027804 -0.008910
    23 0.024032 -1.129040 0.017805 -0.863938 0.000000 0.000000
    24 0.014897 -0.883991 -0.019845 -0.523599 0.000000 0.000000
    25 -0.160030 -0.121640 -0.113773 0.376727 0.078269 1.517032
    26 0.583509 -1.197273 0.185379 0.261030 -0.793396 -0.991221
    27 1.535926 0.010246 0.005009 -0.245095 0.057685 -0.808970
    28 1.100770 0.004528 -0.010675 0.053177 0.000000 -0.538597
    29 0.957766 -2.746777 -0.090301 -0.235619 0.000000 0.130900
    30 -0.033419 -1.397128 -0.011256 -0.349066 0.000000 0.000000
    31 -0.022361 -0.957433 0.018783 -0.593412 0.000000 0.000000
    32 0.250028 -2.820664 -0.238397 -0.936117 0.062985 -0.171289
    33 -0.049759 -1.680544 0.100479 -1.601846 0.000000 0.000000
    34 -0.034141 -1.148311 0.084779 -1.612035 0.000000 0.000000
    35 -0.488517 -2.755600 -0.228262 -1.058151 0.012241 -0.214631
    36 0.039888 -1.479791 0.029853 -1.466752 0.000000 0.000000
    37 0.028785 -1.075732 -0.023111 -1.465947 0.000000 0.000000
    38 -1.180679 -2.507216 -0.193862 -0.962469 0.156569 -0.277659
    39 -0.024967 -1.123934 0.017593 -1.202545 0.000000 0.000000
    40 -0.020059 -0.890965 0.010091 -1.476039 0.000000 0.000000
    41 0.067672 -0.055398 -0.080485 3.078851 -0.275352 -1.546385
  time 1
    0 8.930811 3.771143 -8.197964 -0.774258 -1.331378 0.567275
    1 -0.070315 -8.500782 -0.101566 0.355860 -0.246316 -0.214745
    2 -0.616358 -3.628539 0.998945 0.959327 1.722211 0.980637
    3 -0.000001 2.160511 0.950625 0.000000 0.000000 0.000000
    4 0.000001 -3.344302 1.710279 0.000000 0.000000 0.000000
    5 0.000002 -4.793801 0.448359 0.000000 0.000000 0.000000
    6 0.000003 -6.345618 1.761433 0.000000 0.000000 0.000000
    7 0.000002 -5.765821 2.989244 0.000000 0.000000 0.000000
    8 0.038254 -10.395756 -10.214524 -0.603475 0.454542 0.509951
    9 0.096946 -8.450419 -0.009364 0.352970 -0.430369 0.106636
    10 -0.586769 -1.264477 0.200164 -0.128840 -0.181460 -2.421838
    11 1.522834 0.058679 0.016851 -0.155475 -0.052443 0.060068
    12 1.117948 0.048425 -0.005765 0.057544 0.004929 0.271595
    13 -0.963866 -2.785142 -0.085346 -0.619229 0.039901 -0.096824
    14 0.028478 -1.403067 0.006272 -0.705553 0.000000 0.000000
    15 0.021414 -0.957782 0.020048 -0.522170 0.000000 0.000000
    16 -0.249534 -2.846962 -0.174215 -0.624211 -0.029290 -0.025634
    17 0.043234 -1.683940 0.096015 -1.175496 0.000000 0.000000
    18 0.031729 -1.160831 0.058835 -0.884580 0.000000 0.000000
    19 0.447952 -2.798982 -0.200441 -0.985036 0.020326 -0.016362
    20 -0.032910 -1.480207 0.004935 -0.877476 0.000000 0.000000
    21 -0.027022 -1.076921 -0.020212 -0.733859 0.000000 0.000000
    22 1.164474 -2.543939 -0.170327 -1.046214 -0.027804 -0.008910
    23 0.024032 -1.129040 0.017805 -0.863938 0.000000 0.000000
    24 0.014897 -0.883991 -0.019845 -0.523599 0.000000 0.000000
    25 -0.160030 -0.121640 -0.113773 0.376727 0.078269 1.517032
    26 0.583509 -1.197273 0.185379 0.261030 -0.793396 -0.991221
    27 1.535926 0.010246 0.005009 -0.245095 0.057685 -0.808970
    28 1.100770 0.004528 -0.010675 0.053177 0.000000 -0.538597
    29 0.957766 -2.746777 -0.090301 -0.235619 0.000000 0.130900
    30 -0.033419 -1.397128 -0.011256 -0.349066 0.000000 0.000000
    31 -0.022361 -0.957433 0.018783 -0.593412 0.000000 0.000000
    32 0.250028 -2.820664 -0.238397 -0.936117 0.062985 -0.171289
    33 -0.049759 -1.680544 0.100479 -1.601846 0.000000 0.000000
    34 -0.034141 -1.148311 0.084779 -1.612035 0.000000 0.000000
    35 -0.488517 -2.755600 -0.228262 -1.058151 0.012241 -0.214631
    36 0.039888 -1.479791 0.029853 -1.466752 0.000000 0.000000
    37 0.028785 -1.075732 -0.023111 -1.465947 0.000000 0.000000
    38 -1.180679 -2.507216 -0.193862 -0.962469 0.156569 -0.277659
    39 -0.024967 -1.123934 0.017593 -1.202545 0.000000 0.000000
    40 -0.020059 -0.890965 0.010091 -1.476039 0.000000 0.000000
    41 0.067672 -0.055398 -0.080485 3.078851 -0.275352 -1.546385
end
