version 1
nodes
  0 "root" -1
  1 "Bone01" 0
  2 "Bone_Lefthand" 1
  3 "Bone02" 2
  4 "Bone03" 3
  5 "Dummy01" 4
  6 "Bone24" 5
  7 "Bone16" 5
  8 "Bone26" 3
  9 "Bone34" 3
  10 "Bone_L_Upper" 1
  11 "Bone13" 2
  12 "Bone14" 11
  13 "Bone15" 12
  14 "Bone17" 2
  15 "Bone18" 14
  16 "Bone19" 15
  17 "Bone21" 2
  18 "Bone22" 17
  19 "Bone23" 18
  20 "Bone09" 2
  21 "Bone10" 20
  22 "Bone11" 21
  23 "Bone05" 2
  24 "Bone06" 23
  25 "Bone07" 24
  26 "Bone_Se_Hand-L" 2
  27 "Bone04" 0
  28 "Bone_Righthand" 27
  29 "Bone39" 28
  30 "Bone40" 29
  31 "Bone41" 30
  32 "Bone35" 28
  33 "Bone36" 32
  34 "Bone37" 33
  35 "Bone31" 28
  36 "Bone32" 35
  37 "Bone33" 36
  38 "Bone43" 28
  39 "Bone44" 38
  40 "Bone45" 39
  41 "Bone27" 28
  42 "Bone28" 41
  43 "Bone29" 42
  44 "Bone_Se_Hand-R" 28
  45 "Bone_R_Upper" 27
end
skeleton
  time 0
    0 -0.944278 2.322973 0.541027 0.000000 0.000000 0.000000
    1 8.871383 -0.299733 -9.814667 1.567421 -1.435637 4.222961
    2 -0.071918 -8.498729 -0.104136 0.012305 0.094561 -0.474052
    3 3.509751 -0.490461 0.743484 -3.051446 0.124854 -1.547391
    4 -4.604834 1.953982 0.000000 0.000000 0.000000 3.141592
    5 -1.491883 -2.192085 0.000001 0.000000 0.000000 -1.570796
    6 21.233133 0.000000 0.000000 0.000000 0.000000 0.000000
    7 0.000000 0.000000 0.000000 0.000000 0.000000 0.000000
    8 0.500716 -0.717737 -0.772266 0.000000 3.141592 -1.570796
    9 0.531071 0.362873 -0.818099 -1.570796 1.570796 0.000000
    10 1.257180 8.762585 -0.153713 -1.570562 0.002683 -1.566807
    11 -0.488518 -2.755602 -0.228260 -0.186042 0.005934 -0.083631
    12 0.039887 -1.479790 0.029854 -2.165419 0.000000 0.000001
    13 0.028786 -1.075731 -0.023109 -1.399409 0.000000 0.000000
    14 0.250027 -2.820665 -0.238396 0.157693 -0.039690 0.158514
    15 -0.049759 -1.680544 0.100479 -1.621060 0.000000 -0.000002
    16 -0.034142 -1.148312 0.084782 -1.785312 0.000000 0.000000
    17 0.957766 -2.746780 -0.090302 0.178344 -0.172344 0.119866
    18 -0.033420 -1.397129 -0.011257 -1.242568 0.000000 -0.000001
    19 -0.022360 -0.957436 0.018784 -0.915050 0.000000 0.000000
    20 -1.180681 -2.507217 -0.193859 0.253911 0.096048 -0.028880
    21 -0.024967 -1.123934 0.017597 -1.613439 0.000000 0.000001
    22 -0.020057 -0.890968 0.010090 -1.691466 0.000000 0.000000
    23 0.583510 -1.197277 0.185379 0.344397 -0.598165 -0.858627
    24 1.535927 0.010246 0.005009 -0.002964 -0.012979 -0.682275
    25 1.100771 0.004527 -0.010679 -0.016147 -0.001453 -1.484192
    26 0.120153 -0.050270 -0.054489 0.287569 3.110905 1.561085
    27 -1.059855 1.565823 -12.767298 0.556974 -4.120784 0.750806
    28 0.096944 -8.450418 -0.009365 1.165740 -1.214902 -0.902606
    29 0.447953 -2.798986 -0.200443 -0.687281 -0.122128 0.297740
    30 -0.032909 -1.480204 0.004940 -1.178297 0.000000 0.000002
    31 -0.027022 -1.076920 -0.020210 -0.502723 0.000000 0.000000
    32 -0.249534 -2.846964 -0.174213 -0.633333 -0.095103 0.118113
    33 0.043235 -1.683941 0.096012 -0.899022 0.002823 -0.000167
    34 0.031729 -1.160830 0.058838 -0.415677 0.000642 0.008372
    35 -0.963866 -2.785145 -0.085350 -0.591051 0.087972 -0.157664
    36 0.028479 -1.403067 0.006271 -0.811348 0.000000 0.000000
    37 0.021413 -0.957781 0.020046 -0.281788 0.000000 0.000000
    38 1.164475 -2.543940 -0.170330 -0.716617 -0.155084 0.154760
    39 0.024032 -1.129042 0.017807 -1.350255 0.000000 0.000001
    40 0.014898 -0.883989 -0.019848 -0.143764 0.000000 0.000000
    41 -0.586770 -1.264477 0.200161 0.126017 -0.445585 -2.743539
    42 1.522835 0.058681 0.016848 0.001410 0.008985 0.582312
    43 1.117947 0.048424 -0.005766 -0.008105 -0.023868 0.383222
    44 -0.139399 -0.111698 0.014397 1.209113 0.256026 1.369783
    45 -1.393470 8.839177 -0.239433 1.580804 -0.005023 -1.566847
  time 1
    0 -0.944278 2.319067 0.541027 0.000000 0.000000 0.000000
    1 8.926072 -0.659119 -9.939671 -1.497269 -1.655829 1.033305
    2 -0.071918 -8.498729 -0.104136 0.009956 0.094285 -0.511693
    3 3.509751 -0.490461 0.743484 -3.051446 0.124854 -1.547391
    4 -4.604834 1.953982 0.000000 0.000000 0.000000 3.141592
    5 -1.491883 -2.192085 0.000001 0.000000 0.000000 -1.570796
    6 21.233133 0.000000 0.000000 0.000000 0.000000 0.000000
    7 0.000000 0.000000 0.000000 0.000000 0.000000 0.000000
    8 0.500716 -0.717737 -0.772266 3.141592 0.000000 1.570796
    9 0.531071 0.362873 -0.818099 -1.570796 1.570796 0.000000
    10 1.257180 8.762585 -0.153713 -1.570562 0.002683 -1.566807
    11 -0.488518 -2.755602 -0.228260 -0.186042 0.005934 -0.083631
    12 0.039887 -1.479790 0.029854 -2.165419 0.000000 0.000001
    13 0.028786 -1.075731 -0.023109 -1.399409 0.000000 0.000000
    14 0.250027 -2.820665 -0.238396 0.157693 -0.039690 0.158514
    15 -0.049759 -1.680544 0.100479 -1.621060 0.000000 -0.000002
    16 -0.034142 -1.148312 0.084782 -1.785312 0.000000 0.000000
    17 0.957766 -2.746780 -0.090302 0.178344 -0.172344 0.119866
    18 -0.033420 -1.397129 -0.011257 -1.242568 0.000000 -0.000001
    19 -0.022360 -0.957436 0.018784 -0.915050 0.000000 0.000000
    20 -1.180681 -2.507217 -0.193859 0.253911 0.096048 -0.028880
    21 -0.024967 -1.123934 0.017597 -1.613439 0.000000 0.000001
    22 -0.020057 -0.890968 0.010090 -1.691466 0.000000 0.000000
    23 0.583510 -1.197277 0.185379 0.344397 -0.598165 -0.858627
    24 1.535927 0.010246 0.005009 -0.002964 -0.012979 -0.682275
    25 1.100771 0.004527 -0.010679 -0.016147 -0.001453 -1.484192
    26 0.120153 -0.050270 -0.054489 0.287569 3.110905 1.561085
    27 -0.950477 1.073620 -12.591511 0.573676 -4.110281 0.791016
    28 0.096944 -8.450418 -0.009365 1.331488 -1.213242 -0.902022
    29 0.447953 -2.798986 -0.200443 -0.657490 -0.122128 0.297740
    30 -0.032909 -1.480204 0.004940 -1.139268 0.000000 0.000002
    31 -0.027022 -1.076920 -0.020210 -0.475885 0.000000 0.000000
    32 -0.249534 -2.846964 -0.174213 -0.619161 -0.095103 0.118113
    33 0.043235 -1.683941 0.096012 -0.868215 0.002823 -0.000167
    34 0.031729 -1.160830 0.058838 -0.415677 0.000642 0.008372
    35 -0.963866 -2.785145 -0.085350 -0.579399 0.087972 -0.157664
    36 0.028479 -1.403067 0.006271 -0.775128 0.000000 0.000000
    37 0.021413 -0.957781 0.020046 -0.268167 0.000000 0.000000
    38 1.164475 -2.543940 -0.170330 -0.677679 -0.155084 0.154760
    39 0.024032 -1.129042 0.017807 -1.298537 0.000000 0.000001
    40 0.014898 -0.883989 -0.019848 -0.143764 0.000000 0.000000
    41 -0.586770 -1.264477 0.200161 0.126017 -0.445585 -2.743539
    42 1.522835 0.058681 0.016848 0.001410 0.008985 0.582312
    43 1.117947 0.048424 -0.005766 -0.008105 -0.023868 0.383222
    44 -0.139399 -0.111698 0.014397 1.209113 0.256026 1.369783
    45 -1.393470 8.839177 -0.239433 1.580804 -0.005023 -1.566847
  time 2
    0 -0.944278 2.307347 0.541027 0.000000 0.000000 0.000000
    1 8.984667 -0.995067 -10.056862 -1.146594 -1.600238 0.713086
    2 -0.071918 -8.498729 -0.104136 0.010351 0.095951 -0.535504
    3 3.509751 -0.490461 0.743484 -3.051446 0.124854 -1.547391
    4 -4.604834 1.953982 0.000000 0.000000 0.000000 3.141592
    5 -1.491883 -2.192085 0.000001 0.000000 0.000000 -1.570796
    6 21.233133 0.000000 0.000000 0.000000 0.000000 0.000000
    7 0.000000 0.000000 0.000000 0.000000 0.000000 0.000000
    8 0.500716 -0.717737 -0.772266 3.141592 0.000000 1.570796
    9 0.531071 0.362873 -0.818099 -1.570796 1.570796 0.000000
    10 1.257180 8.762585 -0.153713 -1.570562 0.002683 -1.566807
    11 -0.488518 -2.755602 -0.228260 -0.186042 0.005934 -0.083631
    12 0.039887 -1.479790 0.029854 -2.165419 0.000000 0.000001
    13 0.028786 -1.075731 -0.023109 -1.399409 0.000000 0.000000
    14 0.250027 -2.820665 -0.238396 0.157693 -0.039690 0.158514
    15 -0.049759 -1.680544 0.100479 -1.621060 0.000000 -0.000002
    16 -0.034142 -1.148312 0.084782 -1.785312 0.000000 0.000000
    17 0.957766 -2.746780 -0.090302 0.178344 -0.172344 0.119866
    18 -0.033420 -1.397129 -0.011257 -1.242568 0.000000 -0.000001
    19 -0.022360 -0.957436 0.018784 -0.915050 0.000000 0.000000
    20 -1.180681 -2.507217 -0.193859 0.253911 0.096048 -0.028880
    21 -0.024967 -1.123934 0.017597 -1.613439 0.000000 0.000001
    22 -0.020057 -0.890968 0.010090 -1.691466 0.000000 0.000000
    23 0.583510 -1.197277 0.185379 0.344397 -0.598165 -0.858627
    24 1.535927 0.010246 0.005009 -0.002964 -0.012979 -0.682275
    25 1.100771 0.004527 -0.010679 -0.016147 -0.001453 -1.484192
    26 0.120153 -0.050270 -0.054489 0.287569 3.110905 1.561085
    27 -0.911413 0.495477 -12.450882 0.599096 -4.079152 0.843109
    28 0.096944 -8.450418 -0.009365 1.496554 -1.211667 -0.900661
    29 0.447953 -2.798986 -0.200443 -0.582965 -0.122128 0.297740
    30 -0.032909 -1.480204 0.004940 -1.041616 0.000000 0.000002
    31 -0.027022 -1.076920 -0.020210 -0.408838 0.000000 0.000000
    32 -0.249534 -2.846964 -0.174213 -0.583690 -0.095103 0.118113
    33 0.043235 -1.683941 0.096012 -0.791288 0.002823 -0.000167
    34 0.031729 -1.160830 0.058838 -0.415677 0.000642 0.008372
    35 -0.963866 -2.785145 -0.085350 -0.550305 0.087972 -0.157664
    36 0.028479 -1.403067 0.006271 -0.684538 0.000000 0.000000
    37 0.021413 -0.957781 0.020046 -0.234151 0.000000 0.000000
    38 1.164475 -2.543940 -0.170330 -0.580270 -0.155084 0.154760
    39 0.024032 -1.129042 0.017807 -1.169118 0.000000 0.000001
    40 0.014898 -0.883989 -0.019848 -0.143764 0.000000 0.000000
    41 -0.586770 -1.264477 0.200161 0.126017 -0.445585 -2.743539
    42 1.522835 0.058681 0.016848 0.001410 0.008985 0.582312
    43 1.117947 0.048424 -0.005766 -0.008105 -0.023868 0.383222
    44 -0.139399 -0.111698 0.014397 1.209113 0.256026 1.369783
    45 -1.393470 8.839177 -0.239433 1.580804 -0.005023 -1.566847
  time 3
    0 -0.944278 2.287816 0.541027 0.000000 0.000000 0.000000
    1 9.035450 -1.307576 -10.166240 1.147206 -1.610516 -1.549782
    2 -0.071918 -8.498729 -0.104136 0.013012 0.100110 -0.540644
    3 3.509751 -0.490461 0.743484 -3.051446 0.124854 -1.547391
    4 -4.604834 1.953982 0.000000 0.000000 0.000000 3.141592
    5 -1.491883 -2.192085 0.000001 0.000000 0.000000 -1.570796
    6 21.233133 0.000000 0.000000 0.000000 0.000000 0.000000
    7 0.000000 0.000000 0.000000 0.000000 0.000000 0.000000
    8 0.500716 -0.717737 -0.772266 3.141592 0.000000 1.570796
    9 0.531071 0.362873 -0.818099 -1.570796 1.570796 0.000000
    10 1.257180 8.762585 -0.153713 -1.570562 0.002683 -1.566807
    11 -0.488518 -2.755602 -0.228260 -0.186042 0.005934 -0.083631
    12 0.039887 -1.479790 0.029854 -2.165419 0.000000 0.000001
    13 0.028786 -1.075731 -0.023109 -1.399409 0.000000 0.000000
    14 0.250027 -2.820665 -0.238396 0.157681 -0.039690 0.158514
    15 -0.049759 -1.680544 0.100479 -1.621060 0.000000 -0.000002
    16 -0.034142 -1.148312 0.084782 -1.785312 0.000000 0.000000
    17 0.957766 -2.746780 -0.090302 0.178344 -0.172344 0.119866
    18 -0.033420 -1.397129 -0.011257 -1.242568 0.000000 -0.000001
    19 -0.022360 -0.957436 0.018784 -0.915050 0.000000 0.000000
    20 -1.180681 -2.507217 -0.193859 0.253911 0.096048 -0.028880
    21 -0.024967 -1.123934 0.017597 -1.613439 0.000000 0.000001
    22 -0.020057 -0.890968 0.010090 -1.691466 0.000000 0.000000
    23 0.583510 -1.197277 0.185379 0.344397 -0.598165 -0.858627
    24 1.535927 0.010246 0.005009 -0.002964 -0.012979 -0.682275
    25 1.100771 0.004527 -0.010679 -0.016147 -0.001453 -1.484192
    26 0.120153 -0.050270 -0.054489 0.287569 3.110905 1.561085
    27 -0.950477 -0.211575 -12.337597 0.628278 -4.024180 0.901190
    28 0.096944 -8.450418 -0.009365 1.579059 -1.214902 -0.902606
    29 0.447953 -2.798986 -0.200443 -0.486096 -0.122128 0.297740
    30 -0.032909 -1.480204 0.004940 -0.914678 0.000000 0.000002
    31 -0.027022 -1.076920 -0.020210 -0.321687 0.000000 0.000000
    32 -0.249534 -2.846964 -0.174213 -0.537611 -0.095103 0.118113
    33 0.043235 -1.683941 0.096012 -0.691240 0.002823 -0.000167
    34 0.031729 -1.160830 0.058838 -0.415677 0.000642 0.008372
    35 -0.963866 -2.785145 -0.085350 -0.512510 0.087972 -0.157664
    36 0.028479 -1.403067 0.006271 -0.566804 0.000000 0.000000
    37 0.021413 -0.957781 0.020046 -0.189938 0.000000 0.000000
    38 1.164475 -2.543940 -0.170330 -0.453691 -0.155084 0.154760
    39 0.024032 -1.129042 0.017807 -1.000873 0.000000 0.000001
    40 0.014898 -0.883989 -0.019848 -0.143764 0.000000 0.000000
    41 -0.586770 -1.264477 0.200161 0.126017 -0.445585 -2.743539
    42 1.522835 0.058681 0.016848 0.001410 0.008985 0.582312
    43 1.117947 0.048424 -0.005766 -0.008105 -0.023868 0.383222
    44 -0.139399 -0.111698 0.014397 1.209113 0.256026 1.369783
    45 -1.393470 8.839177 -0.239433 1.580804 -0.005023 -1.566847
  time 4
    0 -0.944278 2.264377 0.541027 0.000000 0.000000 0.000000
    1 9.090139 -1.592741 -10.263899 -1.748900 -1.467305 1.377235
    2 -0.071918 -8.498729 -0.104136 0.016751 0.103909 -0.543948
    3 3.509751 -0.490461 0.743484 -3.051446 0.124854 -1.547391
    4 -4.604834 1.953982 0.000000 0.000000 0.000000 3.141592
    5 -1.491883 -2.192085 0.000001 0.000000 0.000000 -1.570796
    6 21.233133 0.000000 0.000000 0.000000 0.000000 0.000000
    7 0.000000 0.000000 0.000000 0.000000 0.000000 0.000000
    8 0.500716 -0.717737 -0.772266 3.141592 0.000000 1.570796
    9 0.531071 0.362873 -0.818099 -1.570796 1.570796 0.000000
    10 1.257180 8.762585 -0.153713 -1.570562 0.002683 -1.566807
    11 -0.488518 -2.755602 -0.228260 -0.186042 0.005934 -0.083631
    12 0.039887 -1.479790 0.029854 -2.165419 0.000000 0.000001
    13 0.028786 -1.075731 -0.023109 -1.399409 0.000000 0.000000
    14 0.250027 -2.820665 -0.238396 0.157693 -0.039690 0.158514
    15 -0.049759 -1.680544 0.100479 -1.621060 0.000000 -0.000002
    16 -0.034142 -1.148312 0.084782 -1.785312 0.000000 0.000000
    17 0.957766 -2.746780 -0.090302 0.178344 -0.172344 0.119866
    18 -0.033420 -1.397129 -0.011257 -1.242568 0.000000 -0.000001
    19 -0.022360 -0.957436 0.018784 -0.915050 0.000000 0.000000
    20 -1.180681 -2.507217 -0.193859 0.253911 0.096048 -0.028880
    21 -0.024967 -1.123934 0.017597 -1.613439 0.000000 0.000001
    22 -0.020057 -0.890968 0.010090 -1.691466 0.000000 0.000000
    23 0.583510 -1.197277 0.185379 0.344397 -0.598165 -0.858627
    24 1.535927 0.010246 0.005009 -0.002964 -0.012979 -0.682275
    25 1.100771 0.004527 -0.010679 -0.016147 -0.001453 -1.484192
    26 0.120153 -0.050270 -0.054489 0.287569 3.110905 1.561085
    27 -1.028605 -1.000662 -12.185249 0.653423 -3.963625 0.956135
    28 0.096944 -8.450418 -0.009365 1.570252 -1.219712 -0.904434
    29 0.447953 -2.798986 -0.200443 -0.389277 -0.122128 0.297740
    30 -0.032909 -1.480204 0.004940 -0.787741 0.000000 0.000002
    31 -0.027022 -1.076920 -0.020210 -0.234536 0.000000 0.000000
    32 -0.249534 -2.846964 -0.174213 -0.491531 -0.095103 0.118113
    33 0.043235 -1.683941 0.096012 -0.591193 0.002823 -0.000167
    34 0.031729 -1.160830 0.058838 -0.415677 0.000642 0.008372
    35 -0.963866 -2.785145 -0.085350 -0.474678 0.087972 -0.157664
    36 0.028479 -1.403067 0.006271 -0.449070 0.000000 0.000000
    37 0.021413 -0.957781 0.020046 -0.145725 0.000000 0.000000
    38 1.164475 -2.543940 -0.170330 -0.327111 -0.155084 0.154760
    39 0.024032 -1.129042 0.017807 -0.832628 0.000000 0.000001
    40 0.014898 -0.883989 -0.019848 -0.143764 0.000000 0.000000
    41 -0.586770 -1.264477 0.200161 0.126017 -0.445585 -2.743539
    42 1.522835 0.058681 0.016848 0.001410 0.008985 0.582312
    43 1.117947 0.048424 -0.005766 -0.008105 -0.023868 0.383222
    44 -0.139399 -0.111698 0.014397 1.209113 0.256026 1.369783
    45 -1.393470 8.839177 -0.239433 1.580804 -0.005023 -1.566847
  time 5
    0 -0.944278 2.229220 0.541027 0.000000 0.000000 0.000000
    1 9.137016 -1.854468 -10.357652 -1.677443 -1.402521 1.335308
    2 -0.071918 -8.498729 -0.104136 0.021905 0.107996 -0.544088
    3 3.509751 -0.490461 0.743484 -3.051446 0.124854 -1.547391
    4 -4.604834 1.953982 0.000000 0.000000 0.000000 3.141592
    5 -1.491883 -2.192085 0.000001 0.000000 0.000000 -1.570796
    6 21.233133 0.000000 0.000000 0.000000 0.000000 0.000000
    7 0.000000 0.000000 0.000000 0.000000 0.000000 0.000000
    8 0.500716 -0.717737 -0.772266 3.141592 0.000000 1.570796
    9 0.531071 0.362873 -0.818099 -1.570796 1.570796 0.000000
    10 1.257180 8.762585 -0.153713 -1.570562 0.002683 -1.566807
    11 -0.488518 -2.755602 -0.228260 -0.186042 0.005934 -0.083631
    12 0.039887 -1.479790 0.029854 -2.165419 0.000000 0.000001
    13 0.028786 -1.075731 -0.023109 -1.399409 0.000000 0.000000
    14 0.250027 -2.820665 -0.238396 0.157693 -0.039690 0.158514
    15 -0.049759 -1.680544 0.100479 -1.621060 0.000000 -0.000002
    16 -0.034142 -1.148312 0.084782 -1.785312 0.000000 0.000000
    17 0.957766 -2.746780 -0.090302 0.178344 -0.172344 0.119866
    18 -0.033420 -1.397129 -0.011257 -1.242568 0.000000 -0.000001
    19 -0.022360 -0.957436 0.018784 -0.915050 0.000000 0.000000
    20 -1.180681 -2.507217 -0.193859 0.253911 0.096048 -0.028880
    21 -0.024967 -1.123934 0.017597 -1.613439 0.000000 0.000001
    22 -0.020057 -0.890968 0.010090 -1.691466 0.000000 0.000000
    23 0.583510 -1.197277 0.185379 0.344397 -0.598165 -0.858627
    24 1.535927 0.010246 0.005009 -0.002964 -0.012979 -0.682275
    25 1.100771 0.004527 -0.010679 -0.016147 -0.001453 -1.484192
    26 0.120153 -0.050270 -0.054489 0.287569 3.110905 1.561085
    27 -1.118451 -1.824906 -11.989930 0.673612 -3.898529 1.007087
    28 0.096944 -8.450418 -0.009365 1.525420 -1.221670 -0.901478
    29 0.447953 -2.798986 -0.200443 -0.314751 -0.122128 0.297740
    30 -0.032909 -1.480204 0.004940 -0.690089 0.000000 0.000002
    31 -0.027022 -1.076920 -0.020210 -0.167489 0.000000 0.000000
    32 -0.249534 -2.846964 -0.174213 -0.456102 -0.095103 0.118113
    33 0.043235 -1.683941 0.096012 -0.514266 0.002823 -0.000167
    34 0.031729 -1.160830 0.058838 -0.415677 0.000642 0.008372
    35 -0.963866 -2.785145 -0.085350 -0.445585 0.087972 -0.157664
    36 0.028479 -1.403067 0.006271 -0.358480 0.000000 0.000000
    37 0.021413 -0.957781 0.020046 -0.111709 0.000000 0.000000
    38 1.164475 -2.543940 -0.170330 -0.229746 -0.155084 0.154760
    39 0.024032 -1.129042 0.017807 -0.703258 0.000000 0.000001
    40 0.014898 -0.883989 -0.019848 -0.143764 0.000000 0.000000
    41 -0.586770 -1.264477 0.200161 0.126017 -0.445585 -2.743539
    42 1.522835 0.058681 0.016848 0.001410 0.008985 0.582312
    43 1.117947 0.048424 -0.005766 -0.008105 -0.023868 0.383222
    44 -0.139399 -0.111698 0.014397 1.209113 0.256026 1.369783
    45 -1.393470 8.839177 -0.239433 1.580804 -0.005023 -1.566847
  time 6
    0 -0.944278 2.194063 0.541027 0.000000 0.000000 0.000000
    1 9.176080 -2.088850 -10.439686 -1.636638 -1.340271 1.321943
    2 -0.071918 -8.498729 -0.104136 0.028808 0.112981 -0.539752
    3 3.509751 -0.490461 0.743484 -3.051446 0.124854 -1.547391
    4 -4.604834 1.953982 0.000000 0.000000 0.000000 3.141592
    5 -1.491883 -2.192085 0.000001 0.000000 0.000000 -1.570796
    6 21.233133 0.000000 0.000000 0.000000 0.000000 0.000000
    7 0.000000 0.000000 0.000000 0.000000 0.000000 0.000000
    8 0.500716 -0.717737 -0.772266 3.141592 0.000000 1.570796
    9 0.531071 0.362873 -0.818099 -1.570796 1.570796 0.000000
    10 1.257180 8.762585 -0.153713 -1.570562 0.002683 -1.566807
    11 -0.488518 -2.755602 -0.228260 -0.186042 0.005934 -0.083631
    12 0.039887 -1.479790 0.029854 -2.165419 0.000000 0.000001
    13 0.028786 -1.075731 -0.023109 -1.399409 0.000000 0.000000
    14 0.250027 -2.820665 -0.238396 0.157693 -0.039690 0.158514
    15 -0.049759 -1.680544 0.100479 -1.621060 0.000000 -0.000002
    16 -0.034142 -1.148312 0.084782 -1.785312 0.000000 0.000000
    17 0.957766 -2.746780 -0.090302 0.178344 -0.172344 0.119866
    18 -0.033420 -1.397129 -0.011257 -1.242568 0.000000 -0.000001
    19 -0.022360 -0.957436 0.018784 -0.915050 0.000000 0.000000
    20 -1.180681 -2.507217 -0.193859 0.253911 0.096048 -0.028880
    21 -0.024967 -1.123934 0.017597 -1.613439 0.000000 0.000001
    22 -0.020057 -0.890968 0.010090 -1.691466 0.000000 0.000000
    23 0.583510 -1.197277 0.185379 0.344397 -0.598165 -0.858627
    24 1.535927 0.010246 0.005009 -0.002964 -0.012979 -0.682275
    25 1.100771 0.004527 -0.010679 -0.016147 -0.001453 -1.484192
    26 0.120153 -0.050270 -0.054489 0.287569 3.110905 1.561085
    27 -1.196578 -2.625712 -11.716485 0.687561 -3.830878 1.052620
    28 0.096944 -8.450418 -0.009365 1.459848 -1.223501 -0.897433
    29 0.447953 -2.798986 -0.200443 -0.284960 -0.122128 0.297740
    30 -0.032909 -1.480204 0.004940 -0.651060 0.000000 0.000002
    31 -0.027022 -1.076920 -0.020210 -0.140651 0.000000 0.000000
    32 -0.249534 -2.846964 -0.174213 -0.441930 -0.095103 0.118113
    33 0.043235 -1.683941 0.096012 -0.483459 0.002823 -0.000167
    34 0.031729 -1.160830 0.058838 -0.415677 0.000642 0.008372
    35 -0.963866 -2.785145 -0.085350 -0.433970 0.087972 -0.157664
    36 0.028479 -1.403067 0.006271 -0.322260 0.000000 0.000000
    37 0.021413 -0.957781 0.020046 -0.098125 0.000000 0.000000
    38 1.164475 -2.543940 -0.170330 -0.190808 -0.155084 0.154760
    39 0.024032 -1.129042 0.017807 -0.651490 0.000000 0.000001
    40 0.014898 -0.883989 -0.019848 -0.143764 0.000000 0.000000
    41 -0.586770 -1.264477 0.200161 0.126017 -0.445585 -2.743539
    42 1.522835 0.058681 0.016848 0.001410 0.008985 0.582312
    43 1.117947 0.048424 -0.005766 -0.008105 -0.023868 0.383222
    44 -0.139399 -0.111698 0.014397 1.209113 0.256026 1.369783
    45 -1.393470 8.839177 -0.239433 1.580804 -0.005023 -1.566847
  time 7
    0 -0.944278 2.151093 0.541027 0.000000 0.000000 0.000000
    1 9.211237 -2.291981 -10.521720 -1.607615 -1.283269 1.317182
    2 -0.071918 -8.498729 -0.104136 0.037808 0.119441 -0.529577
    3 3.509751 -0.490461 0.743484 -3.051446 0.124854 -1.547391
    4 -4.604834 1.953982 0.000000 0.000000 0.000000 3.141592
    5 -1.491883 -2.192085 0.000001 0.000000 0.000000 -1.570796
    6 21.233133 0.000000 0.000000 0.000000 0.000000 0.000000
    7 0.000000 0.000000 0.000000 0.000000 0.000000 0.000000
    8 0.500716 -0.717737 -0.772266 3.141592 0.000000 1.570796
    9 0.531071 0.362873 -0.818099 -1.570796 1.570796 0.000000
    10 1.257180 8.762585 -0.153713 -1.570562 0.002683 -1.566807
    11 -0.488518 -2.755602 -0.228260 -0.186042 0.005934 -0.083631
    12 0.039887 -1.479790 0.029854 -2.165419 0.000000 0.000001
    13 0.028786 -1.075731 -0.023109 -1.399409 0.000000 0.000000
    14 0.250027 -2.820665 -0.238396 0.157681 -0.039690 0.158514
    15 -0.049759 -1.680544 0.100479 -1.621060 0.000000 -0.000002
    16 -0.034142 -1.148312 0.084782 -1.785312 0.000000 0.000000
    17 0.957766 -2.746780 -0.090302 0.178344 -0.172344 0.119866
    18 -0.033420 -1.397129 -0.011257 -1.242568 0.000000 -0.000001
    19 -0.022360 -0.957436 0.018784 -0.915050 0.000000 0.000000
    20 -1.180681 -2.507217 -0.193859 0.253911 0.096048 -0.028880
    21 -0.024967 -1.123934 0.017597 -1.613439 0.000000 0.000001
    22 -0.020057 -0.890968 0.010090 -1.691466 0.000000 0.000000
    23 0.583510 -1.197277 0.185379 0.344397 -0.598165 -0.858627
    24 1.535927 0.010246 0.005009 -0.002964 -0.012979 -0.682275
    25 1.100771 0.004527 -0.010679 -0.016147 -0.001453 -1.484192
    26 0.120153 -0.050270 -0.054489 0.287569 3.110905 1.561085
    27 -1.247361 -3.352296 -11.357099 0.694903 -3.762565 1.091975
    28 0.096944 -8.450418 -0.009365 1.388253 -1.228098 -0.895294
    29 0.447953 -2.798986 -0.200443 -0.472807 -0.106992 0.275233
    30 -0.032909 -1.480204 0.004940 -0.829100 0.000000 0.000002
    31 -0.027022 -1.076920 -0.020210 -0.370055 0.000000 0.000000
    32 -0.249534 -2.846964 -0.174213 -0.578510 -0.095103 0.118113
    33 0.043235 -1.683941 0.096012 -0.709951 0.002823 -0.000167
    34 0.031729 -1.160830 0.058838 -0.588229 0.000642 0.008372
    35 -0.963866 -2.785145 -0.085350 -0.557643 0.078935 -0.145236
    36 0.028479 -1.403067 0.006271 -0.479951 0.000000 0.000000
    37 0.021413 -0.957781 0.020046 -0.259788 0.000000 0.000000
    38 1.164475 -2.543940 -0.170330 -0.368286 -0.155084 0.154760
    39 0.024032 -1.129042 0.017807 -0.804480 0.000000 0.000001
    40 0.014898 -0.883989 -0.019848 -0.417029 0.000000 0.000000
    41 -0.586770 -1.264477 0.200161 0.198135 -0.513187 -2.774812
    42 1.522835 0.058681 0.016848 0.001410 0.008985 0.592128
    43 1.117947 0.048424 -0.005766 -0.010753 -0.020500 0.562883
    44 -0.139399 -0.111698 0.014397 1.209113 0.256026 1.369783
    45 -1.393470 8.839177 -0.239433 1.580804 -0.005023 -1.566847
  time 8
    0 -0.944278 2.104216 0.541027 0.000000 0.000000 0.000000
    1 9.242488 -2.463861 -10.595941 -1.585296 -1.234012 1.314894
    2 -0.071918 -8.498729 -0.104136 0.049325 0.127794 -0.512165
    3 3.509751 -0.490461 0.743484 -3.051446 0.124854 -1.547391
    4 -4.604834 1.953982 0.000000 0.000000 0.000000 3.141592
    5 -1.491883 -2.192085 0.000001 0.000000 0.000000 -1.570796
    6 21.233133 0.000000 0.000000 0.000000 0.000000 0.000000
    7 0.000000 0.000000 0.000000 0.000000 0.000000 0.000000
    8 0.500716 -0.717737 -0.772266 3.141592 0.000000 1.570796
    9 0.531071 0.362873 -0.818099 -1.570796 1.570796 0.000000
    10 1.257180 8.762585 -0.153713 -1.570562 0.002683 -1.566807
    11 -0.488518 -2.755602 -0.228260 -0.186042 0.005934 -0.083631
    12 0.039887 -1.479790 0.029854 -2.165419 0.000000 0.000001
    13 0.028786 -1.075731 -0.023109 -1.399409 0.000000 0.000000
    14 0.250027 -2.820665 -0.238396 0.157693 -0.039690 0.158514
    15 -0.049759 -1.680544 0.100479 -1.621060 0.000000 -0.000002
    16 -0.034142 -1.148312 0.084782 -1.785312 0.000000 0.000000
    17 0.957766 -2.746780 -0.090302 0.178344 -0.172344 0.119866
    18 -0.033420 -1.397129 -0.011257 -1.242568 0.000000 -0.000001
    19 -0.022360 -0.957436 0.018784 -0.915050 0.000000 0.000000
    20 -1.180681 -2.507217 -0.193859 0.253911 0.096048 -0.028880
    21 -0.024967 -1.123934 0.017597 -1.613439 0.000000 0.000001
    22 -0.020057 -0.890968 0.010090 -1.691466 0.000000 0.000000
    23 0.583510 -1.197277 0.185379 0.344397 -0.598165 -0.858627
    24 1.535927 0.010246 0.005009 -0.002964 -0.012979 -0.682275
    25 1.100771 0.004527 -0.010679 -0.016147 -0.001453 -1.484192
    26 0.120153 -0.050270 -0.054489 0.287569 3.110905 1.561085
    27 -1.247361 -4.082787 -10.849271 0.695912 -3.695860 1.124486
    28 0.096944 -8.450418 -0.009365 1.324556 -1.238400 -0.897316
    29 0.447953 -2.798986 -0.200443 -0.886177 -0.073675 0.225725
    30 -0.032909 -1.480204 0.004940 -1.220874 0.000000 0.000002
    31 -0.027022 -1.076920 -0.020210 -0.874626 0.000000 0.000000
    32 -0.249534 -2.846964 -0.174213 -0.878937 -0.095103 0.118113
    33 0.043235 -1.683941 0.096012 -1.208102 0.002823 -0.000167
    34 0.031729 -1.160830 0.058838 -0.967790 0.000642 0.008372
    35 -0.963866 -2.785145 -0.085350 -0.829732 0.059077 -0.117887
    36 0.028479 -1.403067 0.006271 -0.826953 0.000000 0.000000
    37 0.021413 -0.957781 0.020046 -0.615454 0.000000 0.000000
    38 1.164475 -2.543940 -0.170330 -0.758824 -0.155084 0.154760
    39 0.024032 -1.129042 0.017807 -1.141019 0.000000 0.000001
    40 0.014898 -0.883989 -0.019848 -1.018235 0.000000 0.000000
    41 -0.586770 -1.264477 0.200161 0.356771 -0.661910 -2.843609
    42 1.522835 0.058681 0.016848 0.001410 0.008985 0.613742
    43 1.117947 0.048424 -0.005766 -0.016590 -0.013118 0.958174
    44 -0.139399 -0.111698 0.014397 1.209113 0.256026 1.369783
    45 -1.393470 8.839177 -0.239433 1.580804 -0.005023 -1.566847
  time 9
    0 -0.944278 2.057340 0.541027 0.000000 0.000000 0.000000
    1 9.246394 -2.573240 -10.674068 -1.575047 -1.209727 1.312422
    2 -0.071918 -8.498729 -0.104136 0.063827 0.138365 -0.486063
    3 3.509751 -0.490461 0.743484 -3.051446 0.124854 -1.547391
    4 -4.604834 1.953982 0.000000 0.000000 0.000000 3.141592
    5 -1.491883 -2.192085 0.000001 0.000000 0.000000 -1.570796
    6 21.233133 0.000000 0.000000 0.000000 0.000000 0.000000
    7 0.000000 0.000000 0.000000 0.000000 0.000000 0.000000
    8 0.500716 -0.717737 -0.772266 3.141592 0.000000 1.570796
    9 0.531071 0.362873 -0.818099 -1.570796 1.570796 0.000000
    10 1.257180 8.762585 -0.153713 -1.570562 0.002683 -1.566807
    11 -0.488518 -2.755602 -0.228260 -0.186042 0.005934 -0.083631
    12 0.039887 -1.479790 0.029854 -2.165419 0.000000 0.000001
    13 0.028786 -1.075731 -0.023109 -1.399409 0.000000 0.000000
    14 0.250027 -2.820665 -0.238396 0.157693 -0.039690 0.158514
    15 -0.049759 -1.680544 0.100479 -1.621060 0.000000 -0.000002
    16 -0.034142 -1.148312 0.084782 -1.785312 0.000000 0.000000
    17 0.957766 -2.746780 -0.090302 0.178344 -0.172344 0.119866
    18 -0.033420 -1.397129 -0.011257 -1.242568 0.000000 -0.000001
    19 -0.022360 -0.957436 0.018784 -0.915050 0.000000 0.000000
    20 -1.180681 -2.507217 -0.193859 0.253911 0.096048 -0.028880
    21 -0.024967 -1.123934 0.017597 -1.613439 0.000000 0.000001
    22 -0.020057 -0.890968 0.010090 -1.691466 0.000000 0.000000
    23 0.583510 -1.197277 0.185379 0.344397 -0.598165 -0.858627
    24 1.535927 0.010246 0.005009 -0.002964 -0.012979 -0.682275
    25 1.100771 0.004527 -0.010679 -0.016147 -0.001453 -1.484192
    26 0.120153 -0.050270 -0.054489 0.287569 3.110905 1.561085
    27 -1.239548 -4.602334 -10.353162 0.691140 -3.647605 1.143402
    28 0.096944 -8.450418 -0.009365 1.282963 -1.257470 -0.905834
    29 0.447953 -2.798986 -0.200443 -1.299693 -0.040357 0.176204
    30 -0.032909 -1.480204 0.004940 -1.612595 0.000000 0.000002
    31 -0.027022 -1.076920 -0.020210 -1.379198 0.000000 0.000000
    32 -0.249534 -2.846964 -0.174213 -1.179365 -0.095103 0.118113
    33 0.043235 -1.683941 0.096012 -1.706312 0.002823 -0.000167
    34 0.031729 -1.160830 0.058838 -1.347396 0.000642 0.008372
    35 -0.963866 -2.785145 -0.085350 -1.101784 0.039218 -0.090550
    36 0.028479 -1.403067 0.006271 -1.173954 0.000000 0.000000
    37 0.021413 -0.957781 0.020046 -0.971121 0.000000 0.000000
    38 1.164475 -2.543940 -0.170330 -1.149319 -0.155084 0.154760
    39 0.024032 -1.129042 0.017807 -1.477559 0.000000 0.000001
    40 0.014898 -0.883989 -0.019848 -1.619384 0.000000 0.000000
    41 -0.586770 -1.264477 0.200161 0.515407 -0.810647 -2.912418
    42 1.522835 0.058681 0.016848 0.001410 0.008985 0.635326
    43 1.117947 0.048424 -0.005766 -0.022426 -0.005723 1.353419
    44 -0.139399 -0.111698 0.014397 1.209113 0.256026 1.369783
    45 -1.393470 8.839177 -0.239433 1.580804 -0.005023 -1.566847
  time 10
    0 -0.944278 2.002651 0.541027 0.000000 0.000000 0.000000
    1 9.222956 -2.596678 -10.756102 -1.575814 -1.213817 1.307112
    2 -0.071918 -8.498729 -0.104136 0.089905 0.155754 -0.425974
    3 3.509751 -0.490461 0.743484 -3.051446 0.124854 -1.547391
    4 -4.604834 1.953982 0.000000 0.000000 0.000000 3.141592
    5 -1.491883 -2.192085 0.000001 0.000000 0.000000 -1.570796
    6 21.233133 0.000000 0.000000 0.000000 0.000000 0.000000
    7 0.000000 0.000000 0.000000 0.000000 0.000000 0.000000
    8 0.500716 -0.717737 -0.772266 3.141592 0.000000 1.570796
    9 0.531071 0.362873 -0.818099 -1.570796 1.570796 0.000000
    10 1.257180 8.762585 -0.153713 -1.570562 0.002683 -1.566807
    11 -0.488518 -2.755602 -0.228260 -0.186042 0.005934 -0.083631
    12 0.039887 -1.479790 0.029854 -2.165419 0.000000 0.000001
    13 0.028786 -1.075731 -0.023109 -1.399409 0.000000 0.000000
    14 0.250027 -2.820665 -0.238396 0.157693 -0.039690 0.158514
    15 -0.049759 -1.680544 0.100479 -1.621060 0.000000 -0.000002
    16 -0.034142 -1.148312 0.084782 -1.785312 0.000000 0.000000
    17 0.957766 -2.746780 -0.090302 0.178344 -0.172344 0.119866
    18 -0.033420 -1.397129 -0.011257 -1.242568 0.000000 -0.000001
    19 -0.022360 -0.957436 0.018784 -0.915050 0.000000 0.000000
    20 -1.180681 -2.507217 -0.193859 0.253911 0.096048 -0.028880
    21 -0.024967 -1.123934 0.017597 -1.613439 0.000000 0.000001
    22 -0.020057 -0.890968 0.010090 -1.691466 0.000000 0.000000
    23 0.583510 -1.197277 0.185379 0.344397 -0.598165 -0.858627
    24 1.535927 0.010246 0.005009 -0.002964 -0.012979 -0.682275
    25 1.100771 0.004527 -0.010679 -0.016147 -0.001453 -1.484192
    26 0.120153 -0.050270 -0.054489 0.287569 3.110905 1.561085
    27 -1.387990 -4.696087 -10.150030 0.681596 -3.597648 1.155950
    28 0.096944 -8.450418 -0.009365 1.280974 -1.288076 -0.926759
    29 0.447953 -2.798986 -0.200443 -1.487978 -0.025209 0.153697
    30 -0.032909 -1.480204 0.004940 -1.790635 0.000000 0.000002
    31 -0.027022 -1.076920 -0.020210 -1.608553 0.000000 0.000000
    32 -0.249534 -2.846964 -0.174213 -1.315904 -0.095103 0.118113
    33 0.043235 -1.683941 0.096012 -1.932744 0.002823 -0.000167
    34 0.031729 -1.160830 0.058838 -1.519948 0.000642 0.008372
    35 -0.963866 -2.785145 -0.085350 -1.225494 0.030194 -0.078122
    36 0.028479 -1.403067 0.006271 -1.331645 0.000000 0.000000
    37 0.021413 -0.957781 0.020046 -1.132784 0.000000 0.000000
    38 1.164475 -2.543940 -0.170330 -1.326797 -0.155084 0.154760
    39 0.024032 -1.129042 0.017807 -1.630549 0.000000 0.000001
    40 0.014898 -0.883989 -0.019848 -1.892705 0.000000 0.000000
    41 -0.586770 -1.264477 0.200161 0.587501 -0.878249 -2.943703
    42 1.522835 0.058681 0.016848 0.001410 0.008985 0.645143
    43 1.117947 0.048424 -0.005766 -0.025087 -0.002355 1.533080
    44 -0.139399 -0.111698 0.014397 1.209113 0.256026 1.369783
    45 -1.393470 8.839177 -0.239433 1.580804 -0.005023 -1.566847
  time 11
    0 -0.944278 1.947962 0.541027 0.000000 0.000000 0.000000
    1 9.187799 -2.561521 -10.834229 -1.577346 -1.228112 1.297043
    2 -0.071918 -8.498729 -0.104136 0.126135 0.177818 -0.333875
    3 3.509751 -0.490461 0.743484 -3.051446 0.124854 -1.547391
    4 -4.604834 1.953982 0.000000 0.000000 0.000000 3.141592
    5 -1.491883 -2.192085 0.000001 0.000000 0.000000 -1.570796
    6 21.233133 0.000000 0.000000 0.000000 0.000000 0.000000
    7 0.000000 0.000000 0.000000 0.000000 0.000000 0.000000
    8 0.500716 -0.717737 -0.772266 3.141592 0.000000 1.570796
    9 0.531071 0.362873 -0.818099 -1.570796 1.570796 0.000000
    10 1.257180 8.762585 -0.153713 -1.570562 0.002683 -1.566807
    11 -0.488518 -2.755602 -0.228260 -0.186042 0.005934 -0.083631
    12 0.039887 -1.479790 0.029854 -2.165419 0.000000 0.000001
    13 0.028786 -1.075731 -0.023109 -1.399409 0.000000 0.000000
    14 0.250027 -2.820665 -0.238396 0.157693 -0.039690 0.158514
    15 -0.049759 -1.680544 0.100479 -1.621060 0.000000 -0.000002
    16 -0.034142 -1.148312 0.084782 -1.785312 0.000000 0.000000
    17 0.957766 -2.746780 -0.090302 0.178344 -0.172344 0.119866
    18 -0.033420 -1.397129 -0.011257 -1.242568 0.000000 -0.000001
    19 -0.022360 -0.957436 0.018784 -0.915050 0.000000 0.000000
    20 -1.180681 -2.507217 -0.193859 0.253911 0.096048 -0.028880
    21 -0.024967 -1.123934 0.017597 -1.613439 0.000000 0.000001
    22 -0.020057 -0.890968 0.010090 -1.691466 0.000000 0.000000
    23 0.583510 -1.197277 0.185379 0.344397 -0.598165 -0.858627
    24 1.535927 0.010246 0.005009 -0.002964 -0.012979 -0.682275
    25 1.100771 0.004527 -0.010679 -0.016147 -0.001453 -1.484192
    26 0.120153 -0.050270 -0.054489 0.287569 3.110905 1.561085
    27 -1.665343 -4.266387 -10.185188 0.666363 -3.527442 1.165837
    28 0.096944 -8.450418 -0.009365 1.739182 -1.422803 -1.279098
    29 0.447953 -2.798986 -0.200443 -1.488368 -0.048195 0.160840
    30 -0.032909 -1.480204 0.004940 -1.790635 0.000000 0.000002
    31 -0.027022 -1.076920 -0.020210 -1.608553 0.000000 0.000000
    32 -0.249534 -2.846964 -0.174213 -1.315904 -0.095103 0.118113
    33 0.043235 -1.683941 0.096012 -1.932744 0.002823 -0.000167
    34 0.031729 -1.160830 0.058838 -1.519948 0.000642 0.008372
    35 -0.963866 -2.785145 -0.085350 -1.225494 0.030194 -0.078122
    36 0.028479 -1.403067 0.006271 -1.331645 0.000000 0.000000
    37 0.021413 -0.957781 0.020046 -1.132784 0.000000 0.000000
    38 1.164475 -2.543940 -0.170330 -1.326797 -0.155084 0.154760
    39 0.024032 -1.129042 0.017807 -1.630500 0.000000 0.000001
    40 0.014898 -0.883989 -0.019848 -1.892705 0.000000 0.000000
    41 -0.586770 -1.264477 0.200161 0.587501 -0.878249 -2.943703
    42 1.522835 0.058681 0.016848 0.001410 0.008985 0.645143
    43 1.117947 0.048424 -0.005766 -0.025087 -0.002355 1.533080
    44 -0.139399 -0.111698 0.014397 1.209113 0.256026 1.369783
    45 -1.393470 8.839177 -0.239433 1.580804 -0.005023 -1.566847
  time 12
    0 -0.944278 1.889366 0.541027 0.000000 0.000000 0.000000
    1 9.160454 -2.495112 -10.896731 -1.568534 -1.234518 1.279741
    2 -0.071918 -8.498729 -0.104136 0.156312 0.198336 -0.250290
    3 3.509751 -0.490461 0.743484 -3.051446 0.124854 -1.547391
    4 -4.604834 1.953982 0.000000 0.000000 0.000000 3.141592
    5 -1.491883 -2.192085 0.000001 0.000000 0.000000 -1.570796
    6 21.233133 0.000000 0.000000 0.000000 0.000000 0.000000
    7 0.000000 0.000000 0.000000 0.000000 0.000000 0.000000
    8 0.500716 -0.717737 -0.772266 3.141592 0.000000 1.570796
    9 -0.843971 0.362873 -0.818099 -1.570796 1.570796 0.000000
    10 1.257180 8.762585 -0.153713 -1.570562 0.002683 -1.566807
    11 -0.488518 -2.755602 -0.228260 -0.186042 0.005934 -0.083631
    12 0.039887 -1.479790 0.029854 -2.165419 0.000000 0.000001
    13 0.028786 -1.075731 -0.023109 -1.399409 0.000000 0.000000
    14 0.250027 -2.820665 -0.238396 0.157693 -0.039690 0.158514
    15 -0.049759 -1.680544 0.100479 -1.621060 0.000000 -0.000002
    16 -0.034142 -1.148312 0.084782 -1.785312 0.000000 0.000000
    17 0.957766 -2.746780 -0.090302 0.178344 -0.172344 0.119866
    18 -0.033420 -1.397129 -0.011257 -1.242568 0.000000 -0.000001
    19 -0.022360 -0.957436 0.018784 -0.915050 0.000000 0.000000
    20 -1.180681 -2.507217 -0.193859 0.253911 0.096048 -0.028880
    21 -0.024967 -1.123934 0.017597 -1.613439 0.000000 0.000001
    22 -0.020057 -0.890968 0.010090 -1.691466 0.000000 0.000000
    23 0.583510 -1.197277 0.185379 0.344397 -0.598165 -0.858627
    24 1.535927 0.010246 0.005009 -0.002964 -0.012979 -0.682275
    25 1.100771 0.004527 -0.010679 -0.016147 -0.001453 -1.484192
    26 0.120153 -0.050270 -0.054489 0.287569 3.110905 1.561085
    27 -1.899725 -3.418705 -10.224252 0.645348 -3.456763 1.164981
    28 0.096944 -8.450418 -0.009365 -0.314174 -1.692768 0.936957
    29 0.447953 -2.798986 -0.200443 -1.488562 -0.090885 0.175629
    30 -0.032909 -1.480204 0.004940 -1.790635 0.000000 0.000002
    31 -0.027022 -1.076920 -0.020210 -1.608553 0.000000 0.000000
    32 -0.249534 -2.846964 -0.174213 -1.315904 -0.095103 0.118113
    33 0.043235 -1.683941 0.096012 -1.932744 0.002823 -0.000167
    34 0.031729 -1.160830 0.058838 -1.519948 0.000642 0.008372
    35 -0.963866 -2.785145 -0.085350 -1.225494 0.030194 -0.078122
    36 0.028479 -1.403067 0.006271 -1.331645 0.000000 0.000000
    37 0.021413 -0.957781 0.020046 -1.132784 0.000000 0.000000
    38 1.164475 -2.543940 -0.170330 -1.326797 -0.155084 0.154760
    39 0.024032 -1.129042 0.017807 -1.630500 0.000000 0.000001
    40 0.014898 -0.883989 -0.019848 -1.892705 0.000000 0.000000
    41 -0.586770 -1.264477 0.200161 0.587501 -0.878249 -2.943703
    42 1.522835 0.058681 0.016848 0.001410 0.008985 0.645143
    43 1.117947 0.048424 -0.005766 -0.025087 -0.002355 1.533080
    44 -0.139399 -0.111698 0.014397 1.209113 0.256026 1.369783
    45 -1.393470 8.839177 -0.239433 1.580804 -0.005023 -1.566847
  time 13
    0 -0.944278 1.830770 0.541027 0.000000 0.000000 0.000000
    1 9.140922 -2.116194 -10.845948 -1.498418 -1.217508 1.207696
    2 -0.071918 -8.498729 -0.104136 0.142038 0.227626 -0.230027
    3 3.509751 -0.490461 0.743484 -3.051446 0.124854 -1.547391
    4 -4.604834 1.953982 0.000000 0.000000 0.000000 3.141592
    5 -1.491883 -2.192085 0.000001 0.000000 0.000000 -1.570796
    6 21.233133 0.000000 0.000000 0.000000 0.000000 0.000000
    7 0.000000 0.000000 0.000000 0.000000 0.000000 0.000000
    8 0.500716 -0.717737 -0.772266 3.141592 0.000000 1.570796
    9 -2.219013 0.362873 -0.818099 -1.570796 1.570796 0.000000
    10 1.257180 8.762585 -0.153713 -1.570562 0.002683 -1.566807
    11 -0.488518 -2.755602 -0.228260 -0.186042 0.005934 -0.083631
    12 0.039887 -1.479790 0.029854 -2.165419 0.000000 0.000001
    13 0.028786 -1.075731 -0.023109 -1.399409 0.000000 0.000000
    14 0.250027 -2.820665 -0.238396 0.157693 -0.039690 0.158514
    15 -0.049759 -1.680544 0.100479 -1.621060 0.000000 -0.000002
    16 -0.034142 -1.148312 0.084782 -1.785312 0.000000 0.000000
    17 0.957766 -2.746780 -0.090302 0.178344 -0.172344 0.119866
    18 -0.033420 -1.397129 -0.011257 -1.242568 0.000000 -0.000001
    19 -0.022360 -0.957436 0.018784 -0.915050 0.000000 0.000000
    20 -1.180681 -2.507217 -0.193859 0.253911 0.096048 -0.028880
    21 -0.024967 -1.123934 0.017597 -1.613439 0.000000 0.000001
    22 -0.020057 -0.890968 0.010090 -1.691466 0.000000 0.000000
    23 0.583510 -1.197277 0.185379 0.344397 -0.598165 -0.858627
    24 1.535927 0.010246 0.005009 -0.002964 -0.012979 -0.682275
    25 1.100771 0.004527 -0.010679 -0.016147 -0.001453 -1.484192
    26 0.120153 -0.050270 -0.054489 0.287569 3.110905 1.561085
    27 -1.778627 -1.731153 -9.692985 0.592947 -3.417308 1.109941
    28 0.096944 -8.450418 -0.009365 1.585025 -1.214902 -0.902606
    29 0.447953 -2.798986 -0.200443 -1.488562 -0.113859 0.188129
    30 -0.032909 -1.480204 0.004940 -1.790635 0.000000 0.000002
    31 -0.027022 -1.076920 -0.020210 -1.608553 0.000000 0.000000
    32 -0.249534 -2.846964 -0.174213 -1.315904 -0.095103 0.118113
    33 0.043235 -1.683941 0.096012 -1.932744 0.002823 -0.000167
    34 0.031729 -1.160830 0.058838 -1.519948 0.000642 0.008372
    35 -0.963866 -2.785145 -0.085350 -1.225494 0.030194 -0.078122
    36 0.028479 -1.403067 0.006271 -1.331645 0.000000 0.000000
    37 0.021413 -0.957781 0.020046 -1.132784 0.000000 0.000000
    38 1.164475 -2.543940 -0.170330 -1.326797 -0.155084 0.154760
    39 0.024032 -1.129042 0.017807 -1.630500 0.000000 0.000001
    40 0.014898 -0.883989 -0.019848 -1.892705 0.000000 0.000000
    41 -0.586770 -1.264477 0.200161 0.587501 -0.878249 -2.943703
    42 1.522835 0.058681 0.016848 0.001410 0.008985 0.645143
    43 1.117947 0.048424 -0.005766 -0.025087 -0.002355 1.533080
    44 -0.139399 -0.111698 0.014397 1.209113 0.256026 1.369783
    45 -1.393470 8.839177 -0.239433 1.580804 -0.005023 -1.566847
  time 14
    0 -0.944278 1.772175 0.541027 0.000000 0.000000 0.000000
    1 8.769817 -1.885719 -10.888918 -1.404547 -1.202235 1.140686
    2 -0.071918 -8.498729 -0.104136 0.142302 0.231389 -0.272615
    3 3.509751 -0.490461 0.743484 -3.051446 0.124854 -1.547391
    4 -4.604834 1.953982 0.000000 0.000000 0.000000 3.141592
    5 -1.491883 -2.192085 0.000001 0.000000 0.000000 -1.570796
    6 21.233133 0.000000 0.000000 0.000000 0.000000 0.000000
    7 0.000000 0.000000 0.000000 0.000000 0.000000 0.000000
    8 0.500716 -0.717737 -0.772266 3.141592 0.000000 1.570796
    9 -2.219013 0.362873 -0.818099 -1.570796 1.570796 0.000000
    10 1.257180 8.762585 -0.153713 -1.570562 0.002683 -1.566807
    11 -0.488518 -2.755602 -0.228260 -0.186042 0.005934 -0.083631
    12 0.039887 -1.479790 0.029854 -2.165419 0.000000 0.000001
    13 0.028786 -1.075731 -0.023109 -1.399409 0.000000 0.000000
    14 0.250027 -2.820665 -0.238396 0.157693 -0.039690 0.158514
    15 -0.049759 -1.680544 0.100479 -1.621060 0.000000 -0.000002
    16 -0.034142 -1.148312 0.084782 -1.785312 0.000000 0.000000
    17 0.957766 -2.746780 -0.090302 0.178344 -0.172344 0.119866
    18 -0.033420 -1.397129 -0.011257 -1.242568 0.000000 -0.000001
    19 -0.022360 -0.957436 0.018784 -0.915050 0.000000 0.000000
    20 -1.180681 -2.507217 -0.193859 0.253911 0.096048 -0.028880
    21 -0.024967 -1.123934 0.017597 -1.613439 0.000000 0.000001
    22 -0.020057 -0.890968 0.010090 -1.691466 0.000000 0.000000
    23 0.583510 -1.197277 0.185379 0.344397 -0.598165 -0.858627
    24 1.535927 0.010246 0.005009 -0.002964 -0.012979 -0.682275
    25 1.100771 0.004527 -0.010679 -0.016147 -0.001453 -1.484192
    26 0.120153 -0.050270 -0.054489 0.287569 3.110905 1.561085
    27 -2.083324 -0.801437 -9.091404 0.540731 -3.455722 1.093971
    28 0.096944 -8.450418 -0.009365 0.748443 -1.190638 -0.653413
    29 0.447953 -2.798986 -0.200443 -1.479946 -0.111786 0.191676
    30 -0.032909 -1.480204 0.004940 -1.782850 0.000000 0.000002
    31 -0.027022 -1.076920 -0.020210 -1.573407 0.000000 0.000000
    32 -0.249534 -2.846964 -0.174213 -1.302685 -0.093197 0.115585
    33 0.043235 -1.683941 0.096012 -1.925832 0.002823 -0.000167
    34 0.031729 -1.160830 0.058838 -1.487840 0.000642 0.008372
    35 -0.963866 -2.785145 -0.085350 -1.207832 0.032854 -0.078673
    36 0.028479 -1.403067 0.006271 -1.321995 0.000000 0.000000
    37 0.021413 -0.957781 0.020046 -1.080584 0.000000 0.000000
    38 1.164475 -2.543940 -0.170330 -1.324474 -0.152244 0.161245
    39 0.024032 -1.129042 0.017807 -1.626957 0.000000 0.000001
    40 0.014898 -0.883989 -0.019848 -1.852174 0.000000 0.000000
    41 -0.586770 -1.264477 0.200161 0.578269 -0.869570 -2.939681
    42 1.522835 0.058681 0.016848 0.001410 0.008985 0.639076
    43 1.117947 0.048424 -0.005766 -0.024740 -0.002787 1.510057
    44 -0.139399 -0.111698 0.014397 1.209113 0.256026 1.369783
    45 -1.393470 8.839177 -0.239433 1.580804 -0.005023 -1.566847
  time 15
    0 -0.944278 1.713579 0.541027 0.000000 0.000000 0.000000
    1 8.418244 -1.459924 -10.920169 -1.354547 -1.196553 1.110294
    2 -0.071918 -8.498729 -0.104136 0.157211 0.226356 -0.294364
    3 3.509751 -0.490461 0.743484 -3.051446 0.124854 -1.547391
    4 -4.604834 1.953982 0.000000 0.000000 0.000000 3.141592
    5 -1.491883 -2.192085 0.000001 0.000000 0.000000 -1.570796
    6 21.233133 0.000000 0.000000 0.000000 0.000000 0.000000
    7 0.000000 0.000000 0.000000 0.000000 0.000000 0.000000
    8 0.500716 -0.717737 -0.772266 3.141592 0.000000 1.570796
    9 -2.219013 0.362873 -0.818099 -1.570796 1.570796 0.000000
    10 1.257180 8.762585 -0.153713 -1.570562 0.002683 -1.566807
    11 -0.488518 -2.755602 -0.228260 -0.186042 0.005934 -0.083631
    12 0.039887 -1.479790 0.029854 -2.165419 0.000000 0.000001
    13 0.028786 -1.075731 -0.023109 -1.399409 0.000000 0.000000
    14 0.250027 -2.820665 -0.238396 0.157693 -0.039690 0.158514
    15 -0.049759 -1.680544 0.100479 -1.621060 0.000000 -0.000002
    16 -0.034142 -1.148312 0.084782 -1.785312 0.000000 0.000000
    17 0.957766 -2.746780 -0.090302 0.178344 -0.172344 0.119866
    18 -0.033420 -1.397129 -0.011257 -1.242568 0.000000 -0.000001
    19 -0.022360 -0.957436 0.018784 -0.915050 0.000000 0.000000
    20 -1.180681 -2.507217 -0.193859 0.253911 0.096048 -0.028880
    21 -0.024967 -1.123934 0.017597 -1.613439 0.000000 0.000001
    22 -0.020057 -0.890968 0.010090 -1.691466 0.000000 0.000000
    23 0.583510 -1.197277 0.185379 0.344397 -0.598165 -0.858627
    24 1.535927 0.010246 0.005009 -0.002964 -0.012979 -0.682275
    25 1.100771 0.004527 -0.010679 -0.016147 -0.001453 -1.484192
    26 0.120153 -0.050270 -0.054489 0.287569 3.110905 1.561085
    27 -2.595059 -0.356111 -8.829678 0.508704 -3.502841 1.090929
    28 0.096944 -8.450418 -0.009365 0.078007 -1.173867 -0.486169
    29 0.447953 -2.798986 -0.200443 -1.456630 -0.106201 0.193834
    30 -0.032909 -1.480204 0.004940 -1.761774 0.000000 0.000002
    31 -0.027022 -1.076920 -0.020210 -1.478588 0.000000 0.000000
    32 -0.249534 -2.846964 -0.174213 -1.266965 -0.088068 0.108741
    33 0.043235 -1.683941 0.096012 -1.907122 0.002823 -0.000167
    34 0.031729 -1.160830 0.058838 -1.401270 0.000642 0.008372
    35 -0.963866 -2.785145 -0.085350 -1.160302 0.040045 -0.080183
    36 0.028479 -1.403067 0.006271 -1.295877 0.000000 0.000000
    37 0.021413 -0.957781 0.020046 -0.969588 0.000000 0.000000
    38 1.164475 -2.543940 -0.170330 -1.318149 -0.144585 0.178699
    39 0.024032 -1.129042 0.017807 -1.617361 0.000000 0.000001
    40 0.014898 -0.883989 -0.019848 -1.742991 0.000000 0.000000
    41 -0.586770 -1.264477 0.200161 0.553327 -0.846189 -2.928867
    42 1.522835 0.058681 0.016848 0.001410 0.008985 0.622705
    43 1.117947 0.048424 -0.005766 -0.023829 -0.003949 1.447931
    44 -0.139399 -0.111698 0.014397 1.209113 0.256026 1.369783
    45 -1.393470 8.839177 -0.239433 1.580804 -0.005023 -1.566847
  time 16
    0 -0.944278 1.654984 0.541027 0.000000 0.000000 0.000000
    1 8.347929 -0.280201 -10.885012 -1.452632 -1.220802 1.192225
    2 -0.071918 -8.498729 -0.104136 0.200882 0.211854 -0.239380
    3 3.509751 -0.490461 0.743484 -3.051446 0.124854 -1.547391
    4 -4.604834 1.953982 0.000000 0.000000 0.000000 3.141592
    5 -1.491883 -2.192085 0.000001 0.000000 0.000000 -1.570796
    6 21.233133 0.000000 0.000000 0.000000 0.000000 0.000000
    7 0.000000 0.000000 0.000000 0.000000 0.000000 0.000000
    8 0.500716 -0.717737 -0.772266 3.141592 0.000000 1.570796
    9 -2.219013 0.362873 -0.818099 -1.570796 1.570796 0.000000
    10 1.257180 8.762585 -0.153713 -1.570562 0.002683 -1.566807
    11 -0.488518 -2.755602 -0.228260 -0.186042 0.005934 -0.083631
    12 0.039887 -1.479790 0.029854 -2.165419 0.000000 0.000001
    13 0.028786 -1.075731 -0.023109 -1.399409 0.000000 0.000000
    14 0.250027 -2.820665 -0.238396 0.157693 -0.039690 0.158514
    15 -0.049759 -1.680544 0.100479 -1.621060 0.000000 -0.000002
    16 -0.034142 -1.148312 0.084782 -1.785312 0.000000 0.000000
    17 0.957766 -2.746780 -0.090302 0.178344 -0.172344 0.119866
    18 -0.033420 -1.397129 -0.011257 -1.242568 0.000000 -0.000001
    19 -0.022360 -0.957436 0.018784 -0.915050 0.000000 0.000000
    20 -1.180681 -2.507217 -0.193859 0.253911 0.096048 -0.028880
    21 -0.024967 -1.123934 0.017597 -1.613439 0.000000 0.000001
    22 -0.020057 -0.890968 0.010090 -1.691466 0.000000 0.000000
    23 0.583510 -1.197277 0.185379 0.344397 -0.598165 -0.858627
    24 1.535927 0.010246 0.005009 -0.002964 -0.012979 -0.682275
    25 1.100771 0.004527 -0.010679 -0.016147 -0.001453 -1.484192
    26 0.120153 -0.050270 -0.054489 0.287569 3.110905 1.561085
    27 -3.325550 -0.004538 -9.720330 0.545870 -3.532646 1.111557
    28 0.096944 -8.450418 -0.009365 -0.054784 -1.157691 -0.500638
    29 0.447953 -2.798986 -0.200443 -1.424162 -0.098399 0.199634
    30 -0.032909 -1.480204 0.004940 -1.732436 0.000000 0.000002
    31 -0.027022 -1.076920 -0.020210 -1.346412 0.000000 0.000000
    32 -0.249534 -2.846964 -0.174213 -1.217156 -0.080901 0.099214
    33 0.043235 -1.683941 0.096012 -1.880963 0.002823 -0.000167
    34 0.031729 -1.160830 0.058838 -1.280606 0.000642 0.008372
    35 -0.963866 -2.785145 -0.085350 -1.094003 0.050052 -0.082281
    36 0.028479 -1.403067 0.006271 -1.259493 0.000000 0.000000
    37 0.021413 -0.957781 0.020046 -0.825681 0.000000 0.000000
    38 1.164475 -2.543940 -0.170330 -1.309329 -0.133904 0.203041
    39 0.024032 -1.129042 0.017807 -1.604025 0.000000 0.000001
    40 0.014898 -0.883989 -0.019848 -1.590705 0.000000 0.000000
    41 -0.586770 -1.264477 0.200161 0.518567 -0.813601 -2.913790
    42 1.522835 0.058681 0.016848 0.001410 0.008985 0.599902
    43 1.117947 0.048424 -0.005766 -0.022546 -0.005567 1.361303
    44 -0.139399 -0.111698 0.014397 1.209142 0.218112 1.383242
    45 -1.393470 8.839177 -0.239433 1.580804 -0.005023 -1.566847
  time 17
    0 -0.944278 1.600295 0.541027 0.000000 0.000000 0.000000
    1 8.367461 0.805770 -10.779540 -1.576771 -1.246245 1.291550
    2 -0.071918 -8.498729 -0.104136 0.251949 0.189048 -0.160428
    3 3.509751 -0.490461 0.743484 -3.051446 0.124854 -1.547391
    4 -4.604834 1.953982 0.000000 0.000000 0.000000 3.141592
    5 -1.491883 -2.192085 0.000001 0.000000 0.000000 -1.570796
    6 21.233133 0.000000 0.000000 0.000000 0.000000 0.000000
    7 0.000000 0.000000 0.000000 0.000000 0.000000 0.000000
    8 0.500716 -0.717737 -0.772266 0.000000 3.141592 -1.570796
    9 -2.219013 0.362873 -0.818099 -1.570796 1.570796 0.000000
    10 1.257180 8.762585 -0.153713 -1.570562 0.002683 -1.566807
    11 -0.488518 -2.755602 -0.228260 -0.186042 0.005934 -0.083631
    12 0.039887 -1.479790 0.029854 -2.165419 0.000000 0.000001
    13 0.028786 -1.075731 -0.023109 -1.399409 0.000000 0.000000
    14 0.250027 -2.820665 -0.238396 0.157693 -0.039690 0.158514
    15 -0.049759 -1.680544 0.100479 -1.621060 0.000000 -0.000002
    16 -0.034142 -1.148312 0.084782 -1.785312 0.000000 0.000000
    17 0.957766 -2.746780 -0.090302 0.178344 -0.172344 0.119866
    18 -0.033420 -1.397129 -0.011257 -1.242568 0.000000 -0.000001
    19 -0.022360 -0.957436 0.018784 -0.915050 0.000000 0.000000
    20 -1.180681 -2.507217 -0.193859 0.253911 0.096048 -0.028880
    21 -0.024967 -1.123934 0.017597 -1.613439 0.000000 0.000001
    22 -0.020057 -0.890968 0.010090 -1.691466 0.000000 0.000000
    23 0.583510 -1.197277 0.185379 0.344397 -0.598165 -0.858627
    24 1.535927 0.010246 0.005009 -0.002964 -0.012979 -0.682275
    25 1.100771 0.004527 -0.010679 -0.016147 -0.001453 -1.484192
    26 0.120153 -0.050270 -0.054489 0.287569 3.110905 1.561085
    27 -4.020883 -0.371737 -10.790675 0.590286 -3.557625 1.129334
    28 0.096944 -8.450418 -0.009365 -0.092855 -1.150284 -0.549216
    29 0.447953 -2.798986 -0.200443 -1.386388 -0.089338 0.206382
    30 -0.032909 -1.480204 0.004940 -1.698279 0.000000 0.000002
    31 -0.027022 -1.076920 -0.020210 -1.192607 0.000000 0.000000
    32 -0.249534 -2.846964 -0.174213 -1.159184 -0.072584 0.088128
    33 0.043235 -1.683941 0.096012 -1.850573 0.002823 -0.000167
    34 0.031729 -1.160830 0.058838 -1.140162 0.000642 0.008372
    35 -0.963866 -2.785145 -0.085350 -1.016864 0.061713 -0.084713
    36 0.028479 -1.403067 0.006271 -1.217114 0.000000 0.000000
    37 0.021413 -0.957781 0.020046 -0.652608 0.000000 0.000000
    38 1.164475 -2.543940 -0.170330 -1.299089 -0.121470 0.231370
    39 0.024032 -1.129042 0.017807 -1.588426 0.000000 0.000001
    40 0.014898 -0.883989 -0.019848 -1.413597 0.000000 0.000000
    41 -0.586770 -1.264477 0.200161 0.478095 -0.775675 -2.896245
    42 1.522835 0.058681 0.016848 0.001410 0.008985 0.573349
    43 1.117947 0.048424 -0.005766 -0.021060 -0.007461 1.260520
    44 -0.139399 -0.111698 0.014397 1.209142 0.134684 1.412856
    45 -1.393470 8.839177 -0.239433 1.580804 -0.005023 -1.566847
  time 18
    0 -0.944278 1.545605 0.541027 0.000000 0.000000 0.000000
    1 8.367461 0.938586 -10.564690 -1.551101 -1.258007 1.248708
    2 -0.071918 -8.498729 -0.104136 0.281395 0.166433 -0.102927
    3 3.509751 -0.490461 0.743484 -3.051446 0.124854 -1.547391
    4 -4.604834 1.953982 0.000000 0.000000 0.000000 3.141592
    5 -1.491883 -2.192085 0.000001 0.000000 0.000000 -1.570796
    6 21.233133 0.000000 0.000000 0.000000 0.000000 0.000000
    7 0.000000 0.000000 0.000000 0.000000 0.000000 0.000000
    8 0.500716 -0.717737 -0.772266 3.141592 0.000000 1.570796
    9 -2.219013 0.362873 -0.818099 -1.570796 1.570796 0.000000
    10 1.257180 8.762585 -0.153713 -1.570562 0.002683 -1.566807
    11 -0.488518 -2.755602 -0.228260 -0.186042 0.005934 -0.083631
    12 0.039887 -1.479790 0.029854 -2.165419 0.000000 0.000001
    13 0.028786 -1.075731 -0.023109 -1.399409 0.000000 0.000000
    14 0.250027 -2.820665 -0.238396 0.157693 -0.039690 0.158514
    15 -0.049759 -1.680544 0.100479 -1.621060 0.000000 -0.000002
    16 -0.034142 -1.148312 0.084782 -1.785312 0.000000 0.000000
    17 0.957766 -2.746780 -0.090302 0.178344 -0.172344 0.119866
    18 -0.033420 -1.397129 -0.011257 -1.242568 0.000000 -0.000001
    19 -0.022360 -0.957436 0.018784 -0.915050 0.000000 0.000000
    20 -1.180681 -2.507217 -0.193859 0.253911 0.096048 -0.028880
    21 -0.024967 -1.123934 0.017597 -1.613439 0.000000 0.000001
    22 -0.020057 -0.890968 0.010090 -1.691466 0.000000 0.000000
    23 0.583510 -1.197277 0.185379 0.344397 -0.598165 -0.858627
    24 1.535927 0.010246 0.005009 -0.002964 -0.012979 -0.682275
    25 1.100771 0.004527 -0.010679 -0.016147 -0.001453 -1.484192
    26 0.120153 -0.050270 -0.054489 0.287569 3.110905 1.561085
    27 -4.474022 -1.762404 -10.954743 0.578448 -3.586861 1.106424
    28 0.096944 -8.450418 -0.009365 -0.069388 -1.150752 -0.600284
    29 0.447953 -2.798986 -0.200443 -1.344817 -0.079355 0.213800
    30 -0.032909 -1.480204 0.004940 -1.660732 0.000000 0.000002
    31 -0.027022 -1.076920 -0.020210 -1.023466 0.000000 0.000000
    32 -0.249534 -2.846964 -0.174213 -1.095494 -0.063428 0.075928
    33 0.043235 -1.683941 0.096012 -1.817145 0.002823 -0.000167
    34 0.031729 -1.160830 0.058838 -0.985763 0.000642 0.008372
    35 -0.963866 -2.785145 -0.085350 -0.932056 0.074525 -0.087398
    36 0.028479 -1.403067 0.006271 -1.170546 0.000000 0.000000
    37 0.021413 -0.957781 0.020046 -0.485453 0.000000 0.000000
    38 1.164475 -2.543940 -0.170330 -1.287816 -0.107806 0.262519
    39 0.024032 -1.129042 0.017807 -1.571351 0.000000 0.000001
    40 0.014898 -0.883989 -0.019848 -1.218767 0.000000 0.000000
    41 -0.586770 -1.264477 0.200161 0.433628 -0.733966 -2.876953
    42 1.522835 0.058681 0.016848 0.001410 0.008985 0.544144
    43 1.117947 0.048424 -0.005766 -0.019418 -0.009534 1.149660
    44 -0.139399 -0.111698 0.014397 1.209170 0.051256 1.442469
    45 -1.393470 8.839177 -0.239433 1.580804 -0.005023 -1.566847
  time 19
    0 -0.944278 1.490916 0.541027 0.000000 0.000000 0.000000
    1 8.383087 0.766706 -10.310776 -1.510966 -1.265462 1.195155
    2 -0.071918 -8.498729 -0.104136 0.283253 0.148731 -0.074185
    3 3.509751 -0.490461 0.743484 -3.051446 0.124854 -1.547391
    4 -4.604834 1.953982 0.000000 0.000000 0.000000 3.141592
    5 -1.491883 -2.192085 0.000001 0.000000 0.000000 -1.570796
    6 21.233133 0.000000 0.000000 0.000000 0.000000 0.000000
    7 0.000000 0.000000 0.000000 0.000000 0.000000 0.000000
    8 0.500716 -0.717737 -0.772266 3.141592 0.000000 1.570796
    9 -1.504147 0.362873 -0.818099 -1.570796 1.570796 0.000000
    10 1.257180 8.762585 -0.153713 -1.570562 0.002683 -1.566807
    11 -0.488518 -2.755602 -0.228260 -0.186042 0.005934 -0.083631
    12 0.039887 -1.479790 0.029854 -2.165419 0.000000 0.000001
    13 0.028786 -1.075731 -0.023109 -1.399409 0.000000 0.000000
    14 0.250027 -2.820665 -0.238396 0.157693 -0.039690 0.158514
    15 -0.049759 -1.680544 0.100479 -1.621060 0.000000 -0.000002
    16 -0.034142 -1.148312 0.084782 -1.785312 0.000000 0.000000
    17 0.957766 -2.746780 -0.090302 0.178344 -0.172344 0.119866
    18 -0.033420 -1.397129 -0.011257 -1.242568 0.000000 -0.000001
    19 -0.022360 -0.957436 0.018784 -0.915050 0.000000 0.000000
    20 -1.180681 -2.507217 -0.193859 0.253911 0.096048 -0.028880
    21 -0.024967 -1.123934 0.017597 -1.613439 0.000000 0.000001
    22 -0.020057 -0.890968 0.010090 -1.691466 0.000000 0.000000
    23 0.583510 -1.197277 0.185379 0.344397 -0.598165 -0.858627
    24 1.535927 0.010246 0.005009 -0.002964 -0.012979 -0.682275
    25 1.100771 0.004527 -0.010679 -0.016147 -0.001453 -1.484192
    26 0.120153 -0.050270 -0.054489 0.287569 3.110905 1.561085
    27 -4.630277 -3.160884 -10.845364 0.561104 -3.637008 1.068400
    28 0.096944 -8.450418 -0.009365 -0.012964 -1.158542 -0.627120
    29 0.447953 -2.798986 -0.200443 -1.301056 -0.068857 0.221614
    30 -0.032909 -1.480204 0.004940 -1.621174 0.000000 0.000002
    31 -0.027022 -1.076920 -0.020210 -0.845379 0.000000 0.000000
    32 -0.249534 -2.846964 -0.174213 -1.028364 -0.053780 0.063080
    33 0.043235 -1.683941 0.096012 -1.781988 0.002823 -0.000167
    34 0.031729 -1.160830 0.058838 -0.823191 0.000642 0.008372
    35 -0.963866 -2.785145 -0.085350 -0.842711 0.088031 -0.090226
    36 0.028479 -1.403067 0.006271 -1.121514 0.000000 0.000000
    37 0.021413 -0.957781 0.020046 -0.359410 0.000000 0.000000
    38 1.164475 -2.543940 -0.170330 -1.275942 -0.093408 0.295332
    39 0.024032 -1.129042 0.017807 -1.553340 0.000000 0.000001
    40 0.014898 -0.883989 -0.019848 -1.013650 0.000000 0.000000
    41 -0.586770 -1.264477 0.200161 0.386769 -0.690044 -2.856626
    42 1.522835 0.058681 0.016848 0.001410 0.008985 0.513384
    43 1.117947 0.048424 -0.005766 -0.017693 -0.011715 1.032932
    44 -0.139399 -0.111698 0.014397 1.209198 0.013320 1.455928
    45 -1.393470 8.839177 -0.239433 1.580804 -0.005023 -1.566847
  time 20
    0 -0.944278 1.440134 0.541027 0.000000 0.000000 0.000000
    1 8.394806 0.700298 -10.052955 -1.555698 -1.276465 1.230490
    2 -0.071918 -8.498729 -0.104136 0.272922 0.132301 -0.053206
    3 3.509751 -0.490461 0.743484 -3.051446 0.124854 -1.547391
    4 -4.604834 1.953982 0.000000 0.000000 0.000000 3.141592
    5 -1.491883 -2.192085 0.000001 0.000000 0.000000 -1.570796
    6 21.233133 0.000000 0.000000 0.000000 0.000000 0.000000
    7 0.000000 0.000000 0.000000 0.000000 0.000000 0.000000
    8 0.500716 -0.717737 -0.772266 3.141592 0.000000 1.570796
    9 -0.179888 0.362873 -0.818099 -1.570796 1.570796 0.000000
    10 1.257180 8.762585 -0.153713 -1.570562 0.002683 -1.566807
    11 -0.488518 -2.755602 -0.228260 -0.186042 0.005934 -0.083631
    12 0.039887 -1.479790 0.029854 -2.165419 0.000000 0.000001
    13 0.028786 -1.075731 -0.023109 -1.399409 0.000000 0.000000
    14 0.250027 -2.820665 -0.238396 0.157693 -0.039690 0.158514
    15 -0.049759 -1.680544 0.100479 -1.621060 0.000000 -0.000002
    16 -0.034142 -1.148312 0.084782 -1.785312 0.000000 0.000000
    17 0.957766 -2.746780 -0.090302 0.178344 -0.172344 0.119866
    18 -0.033420 -1.397129 -0.011257 -1.242568 0.000000 -0.000001
    19 -0.022360 -0.957436 0.018784 -0.915050 0.000000 0.000000
    20 -1.180681 -2.507217 -0.193859 0.253911 0.096048 -0.028880
    21 -0.024967 -1.123934 0.017597 -1.613439 0.000000 0.000001
    22 -0.020057 -0.890968 0.010090 -1.691466 0.000000 0.000000
    23 0.583510 -1.197277 0.185379 0.344397 -0.598165 -0.858627
    24 1.535927 0.010246 0.005009 -0.002964 -0.012979 -0.682275
    25 1.100771 0.004527 -0.010679 -0.016147 -0.001453 -1.484192
    26 0.120153 -0.050270 -0.054489 0.287569 3.110905 1.561085
    27 -4.489648 -4.157008 -10.943023 0.582027 -3.696711 1.067545
    28 0.096944 -8.450418 -0.009365 0.047210 -1.175527 -0.602617
    29 0.447953 -2.798986 -0.200443 -1.256662 -0.058191 0.229536
    30 -0.032909 -1.480204 0.004940 -1.581032 0.000000 0.000002
    31 -0.027022 -1.076920 -0.020210 -0.664540 0.000000 0.000000
    32 -0.249534 -2.846964 -0.174213 -0.960239 -0.044001 0.050053
    33 0.043235 -1.683941 0.096012 -1.746236 0.002823 -0.000167
    34 0.031729 -1.160830 0.058838 -0.658090 0.000642 0.008372
    35 -0.963866 -2.785145 -0.085350 -0.752040 0.101730 -0.093091
    36 0.028479 -1.403067 0.006271 -1.071702 0.000000 0.000000
    37 0.021413 -0.957781 0.020046 -0.309599 0.000000 0.000000
    38 1.164475 -2.543940 -0.170330 -1.263851 -0.078798 0.328629
    39 0.024032 -1.129042 0.017807 -1.535035 0.000000 0.000001
    40 0.014898 -0.883989 -0.019848 -0.805403 0.000000 0.000000
    41 -0.586770 -1.264477 0.200161 0.339210 -0.645466 -2.835998
    42 1.522835 0.058681 0.016848 0.001410 0.008985 0.482197
    43 1.117947 0.048424 -0.005766 -0.015943 -0.013932 0.914456
    44 -0.139399 -0.111698 0.014397 1.209170 0.023760 1.452225
    45 -1.393470 8.839177 -0.239433 1.580804 -0.005023 -1.566847
  time 21
    0 -0.944278 1.397163 0.541027 0.000000 0.000000 0.000000
    1 8.410431 0.610451 -9.787322 -1.629454 -1.289711 1.296677
    2 -0.071918 -8.498729 -0.104136 0.256119 0.117931 -0.041055
    3 3.509751 -0.490461 0.743484 -3.051446 0.124854 -1.547391
    4 -4.604834 1.953982 0.000000 0.000000 0.000000 3.141592
    5 -1.491883 -2.192085 0.000001 0.000000 0.000000 -1.570796
    6 21.233133 0.000000 0.000000 0.000000 0.000000 0.000000
    7 0.000000 0.000000 0.000000 0.000000 0.000000 0.000000
    8 0.500716 -0.717737 -0.772266 3.141592 0.000000 1.570796
    9 0.531071 0.362873 -0.818099 -1.570796 1.570796 0.000000
    10 1.257180 8.762585 -0.153713 -1.570562 0.002683 -1.566807
    11 -0.488518 -2.755602 -0.228260 -0.186042 0.005934 -0.083631
    12 0.039887 -1.479790 0.029854 -2.165419 0.000000 0.000001
    13 0.028786 -1.075731 -0.023109 -1.399409 0.000000 0.000000
    14 0.250027 -2.820665 -0.238396 0.157693 -0.039690 0.158514
    15 -0.049759 -1.680544 0.100479 -1.621060 0.000000 -0.000002
    16 -0.034142 -1.148312 0.084782 -1.785312 0.000000 0.000000
    17 0.957766 -2.746780 -0.090302 0.178344 -0.172344 0.119866
    18 -0.033420 -1.397129 -0.011257 -1.242568 0.000000 -0.000001
    19 -0.022360 -0.957436 0.018784 -0.915050 0.000000 0.000000
    20 -1.180681 -2.507217 -0.193859 0.253911 0.096048 -0.028880
    21 -0.024967 -1.123934 0.017597 -1.613439 0.000000 0.000001
    22 -0.020057 -0.890968 0.010090 -1.691466 0.000000 0.000000
    23 0.583510 -1.197277 0.185379 0.344397 -0.598165 -0.858627
    24 1.535927 0.010246 0.005009 -0.002964 -0.012979 -0.682275
    25 1.100771 0.004527 -0.010679 -0.016147 -0.001453 -1.484192
    26 0.120153 -0.050270 -0.054489 0.287569 3.110905 1.561085
    27 -4.095104 -4.871874 -11.036776 0.628737 -3.764268 1.116691
    28 0.096944 -8.450418 -0.009365 0.142443 -1.213199 -0.483680
    29 0.447953 -2.798986 -0.200443 -1.213096 -0.047740 0.237314
    30 -0.032909 -1.480204 0.004940 -1.541686 0.000000 0.000002
    31 -0.027022 -1.076920 -0.020210 -0.487387 0.000000 0.000000
    32 -0.249534 -2.846964 -0.174213 -0.893482 -0.034401 0.037265
    33 0.043235 -1.683941 0.096012 -1.711258 0.002823 -0.000167
    34 0.031729 -1.160830 0.058838 -0.496376 0.000642 0.008372
    35 -0.963866 -2.785145 -0.085350 -0.663175 0.115153 -0.095907
    36 0.028479 -1.403067 0.006271 -1.022916 0.000000 0.000000
    37 0.021413 -0.957781 0.020046 -0.342723 0.000000 0.000000
    38 1.164475 -2.543940 -0.170330 -1.252063 -0.064471 0.361255
    39 0.024032 -1.129042 0.017807 -1.517123 0.000000 0.000001
    40 0.014898 -0.883989 -0.019848 -0.601293 0.000000 0.000000
    41 -0.586770 -1.264477 0.200161 0.292621 -0.601773 -2.815791
    42 1.522835 0.058681 0.016848 0.001410 0.008985 0.451590
    43 1.117947 0.048424 -0.005766 -0.014229 -0.016102 0.798311
    44 -0.139399 -0.111698 0.014397 1.209170 0.051256 1.442469
    45 -1.393470 8.839177 -0.239433 1.580804 -0.005023 -1.566847
  time 22
    0 -0.944278 1.354193 0.541027 0.000000 0.000000 0.000000
    1 8.433869 0.508886 -9.564659 -1.705509 -1.302161 1.366616
    2 -0.071918 -8.498729 -0.104136 0.238502 0.106186 -0.039010
    3 3.509751 -0.490461 0.743484 -3.051446 0.124854 -1.547391
    4 -4.604834 1.953982 0.000000 0.000000 0.000000 3.141592
    5 -1.491883 -2.192085 0.000001 0.000000 0.000000 -1.570796
    6 21.233133 0.000000 0.000000 0.000000 0.000000 0.000000
    7 0.000000 0.000000 0.000000 0.000000 0.000000 0.000000
    8 0.500716 -0.717737 -0.772266 0.000000 3.141592 -1.570796
    9 0.531071 0.362873 -0.818099 -1.570796 1.570796 0.000000
    10 1.257180 8.762585 -0.153713 -1.570562 0.002683 -1.566807
    11 -0.488518 -2.755602 -0.228260 -0.186042 0.005934 -0.083631
    12 0.039887 -1.479790 0.029854 -2.165419 0.000000 0.000001
    13 0.028786 -1.075731 -0.023109 -1.399409 0.000000 0.000000
    14 0.250027 -2.820665 -0.238396 0.157693 -0.039690 0.158514
    15 -0.049759 -1.680544 0.100479 -1.621060 0.000000 -0.000002
    16 -0.034142 -1.148312 0.084782 -1.785312 0.000000 0.000000
    17 0.957766 -2.746780 -0.090302 0.178344 -0.172344 0.119866
    18 -0.033420 -1.397129 -0.011257 -1.242568 0.000000 -0.000001
    19 -0.022360 -0.957436 0.018784 -0.915050 0.000000 0.000000
    20 -1.180681 -2.507217 -0.193859 0.253911 0.096048 -0.028880
    21 -0.024967 -1.123934 0.017597 -1.613439 0.000000 0.000001
    22 -0.020057 -0.890968 0.010090 -1.691466 0.000000 0.000000
    23 0.583510 -1.197277 0.185379 0.344397 -0.598165 -0.858627
    24 1.535927 0.010246 0.005009 -0.002964 -0.012979 -0.682275
    25 1.100771 0.004527 -0.010679 -0.016147 -0.001453 -1.484192
    26 0.120153 -0.050270 -0.054489 0.287569 3.110905 1.561085
    27 -3.563838 -5.520331 -11.075840 0.694994 -3.835893 1.212891
    28 0.096944 -8.450418 -0.009365 0.281883 -1.277945 -0.284621
    29 0.447953 -2.798986 -0.200443 -1.172012 -0.037877 0.244648
    30 -0.032909 -1.480204 0.004940 -1.504563 0.000000 0.000002
    31 -0.027022 -1.076920 -0.020210 -0.320163 0.000000 0.000000
    32 -0.249534 -2.846964 -0.174213 -0.830496 -0.025353 0.025209
    33 0.043235 -1.683941 0.096012 -1.678187 0.002823 -0.000167
    34 0.031729 -1.160830 0.058838 -0.343694 0.000642 0.008372
    35 -0.963866 -2.785145 -0.085350 -0.579325 0.127820 -0.098556
    36 0.028479 -1.403067 0.006271 -0.976882 0.000000 0.000000
    37 0.021413 -0.957781 0.020046 -0.428190 0.000000 0.000000
    38 1.164475 -2.543940 -0.170330 -1.240876 -0.050963 0.392068
    39 0.024032 -1.129042 0.017807 -1.500195 0.000000 0.000001
    40 0.014898 -0.883989 -0.019848 -0.408700 0.000000 0.000000
    41 -0.586770 -1.264477 0.200161 0.248628 -0.560535 -2.796717
    42 1.522835 0.058681 0.016848 0.001410 0.008985 0.422720
    43 1.117947 0.048424 -0.005766 -0.012611 -0.018151 0.688749
    44 -0.139399 -0.111698 0.014397 1.209170 0.090109 1.428675
    45 -1.393470 8.839177 -0.239433 1.580804 -0.005023 -1.566847
  time 23
    0 -0.944278 1.315130 0.541027 0.000000 0.000000 0.000000
    1 8.476839 0.399507 -9.455281 -1.749475 -1.312946 1.406163
    2 -0.071918 -8.498729 -0.104136 0.225726 0.097485 -0.048521
    3 3.509751 -0.490461 0.743484 -3.051446 0.124854 -1.547391
    4 -4.604834 1.953982 0.000000 0.000000 0.000000 3.141592
    5 -1.491883 -2.192085 0.000001 0.000000 0.000000 -1.570796
    6 21.233133 0.000000 0.000000 0.000000 0.000000 0.000000
    7 0.000000 0.000000 0.000000 0.000000 0.000000 0.000000
    8 0.500716 -0.717737 -0.772266 3.141592 0.000000 1.570796
    9 0.531071 0.362873 -0.818099 -1.570796 1.570796 0.000000
    10 1.257180 8.762585 -0.153713 -1.570562 0.002683 -1.566807
    11 -0.488518 -2.755602 -0.228260 -0.186042 0.005934 -0.083631
    12 0.039887 -1.479790 0.029854 -2.165419 0.000000 0.000001
    13 0.028786 -1.075731 -0.023109 -1.399409 0.000000 0.000000
    14 0.250027 -2.820665 -0.238396 0.157693 -0.039690 0.158514
    15 -0.049759 -1.680544 0.100479 -1.621060 0.000000 -0.000002
    16 -0.034142 -1.148312 0.084782 -1.785312 0.000000 0.000000
    17 0.957766 -2.746780 -0.090302 0.178344 -0.172344 0.119866
    18 -0.033420 -1.397129 -0.011257 -1.242568 0.000000 -0.000001
    19 -0.022360 -0.957436 0.018784 -0.915050 0.000000 0.000000
    20 -1.180681 -2.507217 -0.193859 0.253911 0.096048 -0.028880
    21 -0.024967 -1.123934 0.017597 -1.613439 0.000000 0.000001
    22 -0.020057 -0.890968 0.010090 -1.691466 0.000000 0.000000
    23 0.583510 -1.197277 0.185379 0.344397 -0.598165 -0.858627
    24 1.535927 0.010246 0.005009 -0.002964 -0.012979 -0.682275
    25 1.100771 0.004527 -0.010679 -0.016147 -0.001453 -1.484192
    26 0.120153 -0.050270 -0.054489 0.287569 3.110905 1.561085
    27 -2.966164 -6.149257 -11.036776 0.767125 -3.905909 1.328769
    28 0.096944 -8.450418 -0.009365 0.392173 -1.356695 -0.051686
    29 0.447953 -2.798986 -0.200443 -1.134920 -0.028972 0.251276
    30 -0.032909 -1.480204 0.004940 -1.471041 0.000000 0.000002
    31 -0.027022 -1.076920 -0.020210 -0.169160 0.000000 0.000000
    32 -0.249534 -2.846964 -0.174213 -0.773601 -0.017179 0.014327
    33 0.043235 -1.683941 0.096012 -1.648334 0.002823 -0.000167
    34 0.031729 -1.160830 0.058838 -0.205824 0.000642 0.008372
    35 -0.963866 -2.785145 -0.085350 -0.503587 0.139266 -0.100952
    36 0.028479 -1.403067 0.006271 -0.935283 0.000000 0.000000
    37 0.021413 -0.957781 0.020046 -0.545034 0.000000 0.000000
    38 1.164475 -2.543940 -0.170330 -1.230808 -0.038755 0.419874
    39 0.024032 -1.129042 0.017807 -1.484891 0.000000 0.000001
    40 0.014898 -0.883989 -0.019848 -0.234778 0.000000 0.000000
    41 -0.586770 -1.264477 0.200161 0.208924 -0.523307 -2.779496
    42 1.522835 0.058681 0.016848 0.001410 0.008985 0.396655
    43 1.117947 0.048424 -0.005766 -0.011149 -0.020009 0.589758
    44 -0.139399 -0.111698 0.014397 1.209142 0.134684 1.412856
    45 -1.393470 8.839177 -0.239433 1.580804 -0.005023 -1.566847
  time 24
    0 -0.944278 1.283879 0.541027 0.000000 0.000000 0.000000
    1 8.543248 0.290129 -9.467000 -1.745356 -1.321089 1.399480
    2 -0.071918 -8.498729 -0.104136 0.220010 0.092332 -0.073539
    3 3.509751 -0.490461 0.743484 -3.051446 0.124854 -1.547391
    4 -4.604834 1.953982 0.000000 0.000000 0.000000 3.141592
    5 -1.491883 -2.192085 0.000001 0.000000 0.000000 -1.570796
    6 21.233133 0.000000 0.000000 0.000000 0.000000 0.000000
    7 0.000000 0.000000 0.000000 0.000000 0.000000 0.000000
    8 0.500716 -0.717737 -0.772266 3.141592 0.000000 1.570796
    9 0.531071 0.362873 -0.818099 -1.570796 1.570796 0.000000
    10 1.257180 8.762585 -0.153713 -1.570562 0.002683 -1.566807
    11 -0.488518 -2.755602 -0.228260 -0.186042 0.005934 -0.083631
    12 0.039887 -1.479790 0.029854 -2.165419 0.000000 0.000001
    13 0.028786 -1.075731 -0.023109 -1.399409 0.000000 0.000000
    14 0.250027 -2.820665 -0.238396 0.157693 -0.039690 0.158514
    15 -0.049759 -1.680544 0.100479 -1.621060 0.000000 -0.000002
    16 -0.034142 -1.148312 0.084782 -1.785312 0.000000 0.000000
    17 0.957766 -2.746780 -0.090302 0.178344 -0.172344 0.119866
    18 -0.033420 -1.397129 -0.011257 -1.242568 0.000000 -0.000001
    19 -0.022360 -0.957436 0.018784 -0.915050 0.000000 0.000000
    20 -1.180681 -2.507217 -0.193859 0.253911 0.096048 -0.028880
    21 -0.024967 -1.123934 0.017597 -1.613439 0.000000 0.000001
    22 -0.020057 -0.890968 0.010090 -1.691466 0.000000 0.000000
    23 0.583510 -1.197277 0.185379 0.344397 -0.598165 -0.858627
    24 1.535927 0.010246 0.005009 -0.002964 -0.012979 -0.682275
    25 1.100771 0.004527 -0.010679 -0.016147 -0.001453 -1.484192
    26 0.120153 -0.050270 -0.054489 0.287569 3.110905 1.561085
    27 -2.337238 -6.754744 -10.943023 0.832923 -3.979616 1.433335
    28 0.096944 -8.450418 -0.009365 0.392059 -1.424336 0.181016
    29 0.447953 -2.798986 -0.200443 -1.103377 -0.021410 0.256909
    30 -0.032909 -1.480204 0.004940 -1.442498 0.000000 0.000002
    31 -0.027022 -1.076920 -0.020210 -0.040720 0.000000 0.000000
    32 -0.249534 -2.846964 -0.174213 -0.725202 -0.010228 0.005063
    33 0.043235 -1.683941 0.096012 -1.623009 0.002823 -0.000167
    34 0.031729 -1.160830 0.058838 -0.088591 0.000642 0.008372
    35 -0.963866 -2.785145 -0.085350 -0.439169 0.148997 -0.102990
    36 0.028479 -1.403067 0.006271 -0.899926 0.000000 0.000000
    37 0.021413 -0.957781 0.020046 -0.672325 0.000000 0.000000
    38 1.164475 -2.543940 -0.170330 -1.222246 -0.028384 0.443531
    39 0.024032 -1.129042 0.017807 -1.471900 0.000000 0.000001
    40 0.014898 -0.883989 -0.019848 -0.086853 0.000000 0.000000
    41 -0.586770 -1.264477 0.200161 0.175134 -0.491633 -2.764841
    42 1.522835 0.058681 0.016848 0.001410 0.008985 0.374492
    43 1.117947 0.048424 -0.005766 -0.009903 -0.021579 0.505594
    44 -0.139399 -0.111698 0.014397 1.209142 0.179238 1.397036
    45 -1.393470 8.839177 -0.239433 1.580804 -0.005023 -1.566847
  time 25
    0 -0.944278 1.260441 0.541027 0.000000 0.000000 0.000000
    1 8.629188 0.188563 -9.556846 -1.711256 -1.325975 1.364236
    2 -0.071918 -8.498729 -0.104136 0.218632 0.090163 -0.112036
    3 3.509751 -0.490461 0.743484 -3.051446 0.124854 -1.547391
    4 -4.604834 1.953982 0.000000 0.000000 0.000000 3.141592
    5 -1.491883 -2.192085 0.000001 0.000000 0.000000 -1.570796
    6 21.233133 0.000000 0.000000 0.000000 0.000000 0.000000
    7 0.000000 0.000000 0.000000 0.000000 0.000000 0.000000
    8 0.500716 -0.717737 -0.772266 3.141592 0.000000 1.570796
    9 0.531071 0.362873 -0.818099 -1.570796 1.570796 0.000000
    10 1.257180 8.762585 -0.153713 -1.570562 0.002683 -1.566807
    11 -0.488518 -2.755602 -0.228260 -0.186042 0.005934 -0.083631
    12 0.039887 -1.479790 0.029854 -2.165419 0.000000 0.000001
    13 0.028786 -1.075731 -0.023109 -1.399409 0.000000 0.000000
    14 0.250027 -2.820665 -0.238396 0.157693 -0.039690 0.158514
    15 -0.049759 -1.680544 0.100479 -1.621060 0.000000 -0.000002
    16 -0.034142 -1.148312 0.084782 -1.785312 0.000000 0.000000
    17 0.957766 -2.746780 -0.090302 0.178344 -0.172344 0.119866
    18 -0.033420 -1.397129 -0.011257 -1.242568 0.000000 -0.000001
    19 -0.022360 -0.957436 0.018784 -0.915050 0.000000 0.000000
    20 -1.180681 -2.507217 -0.193859 0.253911 0.096048 -0.028880
    21 -0.024967 -1.123934 0.017597 -1.613439 0.000000 0.000001
    22 -0.020057 -0.890968 0.010090 -1.691466 0.000000 0.000000
    23 0.583510 -1.197277 0.185379 0.344397 -0.598165 -0.858627
    24 1.535927 0.010246 0.005009 -0.002964 -0.012979 -0.682275
    25 1.100771 0.004527 -0.010679 -0.016147 -0.001453 -1.484192
    26 0.120153 -0.050270 -0.054489 0.287569 3.110905 1.561085
    27 -1.696594 -7.344606 -10.853177 0.902117 -4.058810 1.518508
    28 0.096944 -8.450418 -0.009365 0.208299 -1.463881 0.399678
    29 0.447953 -2.798986 -0.200443 -1.078892 -0.015537 0.261271
    30 -0.032909 -1.480204 0.004940 -1.420415 0.000000 0.000002
    31 -0.027022 -1.076920 -0.020210 0.058769 0.000000 0.000000
    32 -0.249534 -2.846964 -0.174213 -0.687700 -0.004835 -0.002116
    33 0.043235 -1.683941 0.096012 -1.603345 0.002823 -0.000167
    34 0.031729 -1.160830 0.058838 0.002223 0.000642 0.008372
    35 -0.963866 -2.785145 -0.085350 -0.389243 0.156547 -0.104572
    36 0.028479 -1.403067 0.006271 -0.872494 0.000000 0.000000
    37 0.021413 -0.957781 0.020046 -0.789170 0.000000 0.000000
    38 1.164475 -2.543940 -0.170330 -1.215620 -0.020330 0.461857
    39 0.024032 -1.129042 0.017807 -1.461861 0.000000 0.000001
    40 0.014898 -0.883989 -0.019848 0.027753 0.000000 0.000000
    41 -0.586770 -1.264477 0.200161 0.148950 -0.467096 -2.753485
    42 1.522835 0.058681 0.016848 0.001410 0.008985 0.357298
    43 1.117947 0.048424 -0.005766 -0.008944 -0.022801 0.440377
    44 -0.139399 -0.111698 0.014397 1.209142 0.218112 1.383242
    45 -1.393470 8.839177 -0.239433 1.580804 -0.005023 -1.566847
  time 26
    0 -0.944278 1.240909 0.541027 0.000000 0.000000 0.000000
    1 8.719034 0.090904 -9.685757 -1.660968 -1.328328 1.313521
    2 -0.071918 -8.498729 -0.104136 0.219758 0.089887 -0.156459
    3 3.509751 -0.490461 0.743484 -3.051446 0.124854 -1.547391
    4 -4.604834 1.953982 0.000000 0.000000 0.000000 3.141592
    5 -1.491883 -2.192085 0.000001 0.000000 0.000000 -1.570796
    6 21.233133 0.000000 0.000000 0.000000 0.000000 0.000000
    7 0.000000 0.000000 0.000000 0.000000 0.000000 0.000000
    8 0.500716 -0.717737 -0.772266 3.141592 0.000000 1.570796
    9 0.531071 0.362873 -0.818099 -1.570796 1.570796 0.000000
    10 1.257180 8.762585 -0.153713 -1.570562 0.002683 -1.566807
    11 -0.488518 -2.755602 -0.228260 -0.186042 0.005934 -0.083631
    12 0.039887 -1.479790 0.029854 -2.165419 0.000000 0.000001
    13 0.028786 -1.075731 -0.023109 -1.399409 0.000000 0.000000
    14 0.250027 -2.820665 -0.238396 0.157693 -0.039690 0.158514
    15 -0.049759 -1.680544 0.100479 -1.621060 0.000000 -0.000002
    16 -0.034142 -1.148312 0.084782 -1.785312 0.000000 0.000000
    17 0.957766 -2.746780 -0.090302 0.178344 -0.172344 0.119866
    18 -0.033420 -1.397129 -0.011257 -1.242568 0.000000 -0.000001
    19 -0.022360 -0.957436 0.018784 -0.915050 0.000000 0.000000
    20 -1.180681 -2.507217 -0.193859 0.253911 0.096048 -0.028880
    21 -0.024967 -1.123934 0.017597 -1.613439 0.000000 0.000001
    22 -0.020057 -0.890968 0.010090 -1.691466 0.000000 0.000000
    23 0.583510 -1.197277 0.185379 0.344397 -0.598165 -0.858627
    24 1.535927 0.010246 0.005009 -0.002964 -0.012979 -0.682275
    25 1.100771 0.004527 -0.010679 -0.016147 -0.001453 -1.484192
    26 0.120153 -0.050270 -0.054489 0.287569 3.110905 1.561085
    27 -1.083294 -7.922748 -10.802394 -2.160212 -5.290058 -1.542797
    28 0.096944 -8.450418 -0.009365 -0.121834 -1.482398 0.642220
    29 0.447953 -2.798986 -0.200443 -1.063120 -0.011738 0.264099
    30 -0.032909 -1.480204 0.004940 -1.406117 0.000000 0.000002
    31 -0.027022 -1.076920 -0.020210 0.123112 0.000000 0.000000
    32 -0.249534 -2.846964 -0.174213 -0.663459 -0.001359 -0.006754
    33 0.043235 -1.683941 0.096012 -1.590593 0.002823 -0.000167
    34 0.031729 -1.160830 0.058838 0.060975 0.000642 0.008372
    35 -0.963866 -2.785145 -0.085350 -0.356978 0.161425 -0.105591
    36 0.028479 -1.403067 0.006271 -0.854795 0.000000 0.000000
    37 0.021413 -0.957781 0.020046 -0.874636 0.000000 0.000000
    38 1.164475 -2.543940 -0.170330 -1.211318 -0.015131 0.473713
    39 0.024032 -1.129042 0.017807 -1.455316 0.000000 0.000001
    40 0.014898 -0.883989 -0.019848 0.101883 0.000000 0.000000
    41 -0.586770 -1.264477 0.200161 0.132021 -0.451223 -2.746140
    42 1.522835 0.058681 0.016848 0.001410 0.008985 0.346201
    43 1.117947 0.048424 -0.005766 -0.008321 -0.023580 0.398183
    44 -0.139399 -0.111698 0.014397 1.209113 0.245609 1.373486
    45 -1.393470 8.839177 -0.239433 1.580804 -0.005023 -1.566847
  time 27
    0 -0.944278 1.229190 0.541027 0.000000 0.000000 0.000000
    1 8.804974 0.004964 -9.814667 -1.609435 -1.329196 1.261981
    2 -0.071918 -8.498729 -0.104136 0.221532 0.090271 -0.199205
    3 3.509751 -0.490461 0.743484 -3.051446 0.124854 -1.547391
    4 -4.604834 1.953982 0.000000 0.000000 0.000000 3.141592
    5 -1.491883 -2.192085 0.000001 0.000000 0.000000 -1.570796
    6 21.233133 0.000000 0.000000 0.000000 0.000000 0.000000
    7 0.000000 0.000000 0.000000 0.000000 0.000000 0.000000
    8 0.500716 -0.717737 -0.772266 3.141592 0.000000 1.570796
    9 0.531071 0.362873 -0.818099 -1.570796 1.570796 0.000000
    10 1.257180 8.762585 -0.153713 -1.570562 0.002683 -1.566807
    11 -0.488518 -2.755602 -0.228260 -0.186042 0.005934 -0.083631
    12 0.039887 -1.479790 0.029854 -2.165419 0.000000 0.000001
    13 0.028786 -1.075731 -0.023109 -1.399409 0.000000 0.000000
    14 0.250027 -2.820665 -0.238396 0.157693 -0.039690 0.158514
    15 -0.049759 -1.680544 0.100479 -1.621060 0.000000 -0.000002
    16 -0.034142 -1.148312 0.084782 -1.785312 0.000000 0.000000
    17 0.957766 -2.746780 -0.090302 0.178344 -0.172344 0.119866
    18 -0.033420 -1.397129 -0.011257 -1.242568 0.000000 -0.000001
    19 -0.022360 -0.957436 0.018784 -0.915050 0.000000 0.000000
    20 -1.180681 -2.507217 -0.193859 0.253911 0.096048 -0.028880
    21 -0.024967 -1.123934 0.017597 -1.613439 0.000000 0.000001
    22 -0.020057 -0.890968 0.010090 -1.691466 0.000000 0.000000
    23 0.583510 -1.197277 0.185379 0.344397 -0.598165 -0.858627
    24 1.535927 0.010246 0.005009 -0.002964 -0.012979 -0.682275
    25 1.100771 0.004527 -0.010679 -0.016147 -0.001453 -1.484192
    26 0.120153 -0.050270 -0.054489 0.287569 3.110905 1.561085
    27 -0.544215 -8.496984 -10.814113 -2.082667 -5.227233 -1.464753
    28 0.096944 -8.450418 -0.009365 -0.475320 -1.489847 0.915488
    29 0.447953 -2.798986 -0.200443 -1.057474 -0.010396 0.265094
    30 -0.032909 -1.480204 0.004940 -1.401033 0.000000 0.000002
    31 -0.027022 -1.076920 -0.020210 0.145969 0.000000 0.000000
    32 -0.249534 -2.846964 -0.174213 -0.654839 -0.000125 -0.008396
    33 0.043235 -1.683941 0.096012 -1.586065 0.002823 -0.000167
    34 0.031729 -1.160830 0.058838 0.081838 0.000642 0.008372
    35 -0.963866 -2.785145 -0.085350 -0.345511 0.163139 -0.105950
    36 0.028479 -1.403067 0.006271 -0.848512 0.000000 0.000000
    37 0.021413 -0.957781 0.020046 -0.907761 0.000000 0.000000
    38 1.164475 -2.543940 -0.170330 -1.209812 -0.013294 0.477915
    39 0.024032 -1.129042 0.017807 -1.453003 0.000000 0.000001
    40 0.014898 -0.883989 -0.019848 0.128215 0.000000 0.000000
    41 -0.586770 -1.264477 0.200161 0.126017 -0.445585 -2.743539
    42 1.522835 0.058681 0.016848 0.001410 0.008985 0.342268
    43 1.117947 0.048424 -0.005766 -0.008105 -0.023868 0.383222
    44 -0.139399 -0.111698 0.014397 1.209113 0.256026 1.369783
    45 -1.393470 8.839177 -0.239433 1.580804 -0.005023 -1.566847
  time 28
    0 -0.944278 1.225283 0.541027 0.000000 0.000000 0.000000
    1 8.871383 -0.069257 -9.908420 -1.571120 -1.330246 1.223350
    2 -0.071918 -8.498729 -0.104136 0.222215 0.089995 -0.232667
    3 3.509751 -0.490461 0.743484 -3.051446 0.124854 -1.547391
    4 -4.604834 1.953982 0.000000 0.000000 0.000000 3.141592
    5 -1.491883 -2.192085 0.000001 0.000000 0.000000 -1.570796
    6 21.233133 0.000000 0.000000 0.000000 0.000000 0.000000
    7 0.000000 0.000000 0.000000 0.000000 0.000000 0.000000
    8 0.500716 -0.717737 -0.772266 3.141592 0.000000 1.570796
    9 0.531071 0.362873 -0.818099 -1.570796 1.570796 0.000000
    10 1.257180 8.762585 -0.153713 -1.570562 0.002683 -1.566807
    11 -0.488518 -2.755602 -0.228260 -0.186042 0.005934 -0.083631
    12 0.039887 -1.479790 0.029854 -2.165419 0.000000 0.000001
    13 0.028786 -1.075731 -0.023109 -1.399409 0.000000 0.000000
    14 0.250027 -2.820665 -0.238396 0.157693 -0.039690 0.158514
    15 -0.049759 -1.680544 0.100479 -1.621060 0.000000 -0.000002
    16 -0.034142 -1.148312 0.084782 -1.785312 0.000000 0.000000
    17 0.957766 -2.746780 -0.090302 0.178344 -0.172344 0.119866
    18 -0.033420 -1.397129 -0.011257 -1.242568 0.000000 -0.000001
    19 -0.022360 -0.957436 0.018784 -0.915050 0.000000 0.000000
    20 -1.180681 -2.507217 -0.193859 0.253911 0.096048 -0.028880
    21 -0.024967 -1.123934 0.017597 -1.613439 0.000000 0.000001
    22 -0.020057 -0.890968 0.010090 -1.691466 0.000000 0.000000
    23 0.583510 -1.197277 0.185379 0.344397 -0.598165 -0.858627
    24 1.535927 0.010246 0.005009 -0.002964 -0.012979 -0.682275
    25 1.100771 0.004527 -0.010679 -0.016147 -0.001453 -1.484192
    26 0.120153 -0.050270 -0.054489 0.287569 3.110905 1.561085
    27 -0.462181 -8.465734 -10.962555 -2.107353 -5.210391 -1.483004
    28 0.096944 -8.450418 -0.009365 -0.475320 -1.489847 0.915488
    29 0.447953 -2.798986 -0.200443 -1.057474 -0.010396 0.265094
    30 -0.032909 -1.480204 0.004940 -1.401033 0.000000 0.000002
    31 -0.027022 -1.076920 -0.020210 0.145969 0.000000 0.000000
    32 -0.249534 -2.846964 -0.174213 -0.654839 -0.000125 -0.008396
    33 0.043235 -1.683941 0.096012 -1.586065 0.002823 -0.000167
    34 0.031729 -1.160830 0.058838 0.081838 0.000642 0.008372
    35 -0.963866 -2.785145 -0.085350 -0.345511 0.163139 -0.105950
    36 0.028479 -1.403067 0.006271 -0.848512 0.000000 0.000000
    37 0.021413 -0.957781 0.020046 -0.907761 0.000000 0.000000
    38 1.164475 -2.543940 -0.170330 -1.209812 -0.013294 0.477915
    39 0.024032 -1.129042 0.017807 -1.453003 0.000000 0.000001
    40 0.014898 -0.883989 -0.019848 0.128215 0.000000 0.000000
    41 -0.586770 -1.264477 0.200161 0.126017 -0.445585 -2.743539
    42 1.522835 0.058681 0.016848 0.001410 0.008985 0.342268
    43 1.117947 0.048424 -0.005766 -0.008105 -0.023868 0.383222
    44 -0.139399 -0.111698 0.014397 1.209113 0.256026 1.369783
    45 -1.393470 8.839177 -0.239433 1.580804 -0.005023 -1.566847
  time 29
    0 -0.944278 1.225283 0.541027 0.000000 0.000000 0.000000
    1 8.890915 -0.092695 -9.931858 -1.564319 -1.330680 1.216393
    2 -0.071918 -8.498729 -0.104136 0.222119 0.089719 -0.239241
    3 3.509751 -0.490461 0.743484 -3.051446 0.124854 -1.547391
    4 -4.604834 1.953982 0.000000 0.000000 0.000000 3.141592
    5 -1.491883 -2.192085 0.000001 0.000000 0.000000 -1.570796
    6 21.233133 0.000000 0.000000 0.000000 0.000000 0.000000
    7 0.000000 0.000000 0.000000 0.000000 0.000000 0.000000
    8 0.500716 -0.717737 -0.772266 3.141592 0.000000 1.570796
    9 0.531071 0.362873 -0.818099 -1.570796 1.570796 0.000000
    10 1.257180 8.762585 -0.153713 -1.570562 0.002683 -1.566807
    11 -0.488518 -2.755602 -0.228260 -0.186042 0.005934 -0.083631
    12 0.039887 -1.479790 0.029854 -2.165419 0.000000 0.000001
    13 0.028786 -1.075731 -0.023109 -1.399409 0.000000 0.000000
    14 0.250027 -2.820665 -0.238396 0.157693 -0.039690 0.158514
    15 -0.049759 -1.680544 0.100479 -1.621060 0.000000 -0.000002
    16 -0.034142 -1.148312 0.084782 -1.785312 0.000000 0.000000
    17 0.957766 -2.746780 -0.090302 0.178344 -0.172344 0.119866
    18 -0.033420 -1.397129 -0.011257 -1.242568 0.000000 -0.000001
    19 -0.022360 -0.957436 0.018784 -0.915050 0.000000 0.000000
    20 -1.180681 -2.507217 -0.193859 0.253911 0.096048 -0.028880
    21 -0.024967 -1.123934 0.017597 -1.613439 0.000000 0.000001
    22 -0.020057 -0.890968 0.010090 -1.691466 0.000000 0.000000
    23 0.583510 -1.197277 0.185379 0.344397 -0.598165 -0.858627
    24 1.535927 0.010246 0.005009 -0.002964 -0.012979 -0.682275
    25 1.100771 0.004527 -0.010679 -0.016147 -0.001453 -1.484192
    26 0.120153 -0.050270 -0.054489 0.287569 3.110905 1.561085
    27 -0.434836 -8.465734 -11.001619 -2.106986 -5.204998 -1.482624
    28 0.096944 -8.450418 -0.009365 -0.475320 -1.489847 0.915488
    29 0.447953 -2.798986 -0.200443 -1.057474 -0.010396 0.265094
    30 -0.032909 -1.480204 0.004940 -1.401033 0.000000 0.000002
    31 -0.027022 -1.076920 -0.020210 0.145969 0.000000 0.000000
    32 -0.249534 -2.846964 -0.174213 -0.654839 -0.000125 -0.008396
    33 0.043235 -1.683941 0.096012 -1.586065 0.002823 -0.000167
    34 0.031729 -1.160830 0.058838 0.081838 0.000642 0.008372
    35 -0.963866 -2.785145 -0.085350 -0.345511 0.163139 -0.105950
    36 0.028479 -1.403067 0.006271 -0.848512 0.000000 0.000000
    37 0.021413 -0.957781 0.020046 -0.907761 0.000000 0.000000
    38 1.164475 -2.543940 -0.170330 -1.209812 -0.013294 0.477915
    39 0.024032 -1.129042 0.017807 -1.453003 0.000000 0.000001
    40 0.014898 -0.883989 -0.019848 0.128215 0.000000 0.000000
    41 -0.586770 -1.264477 0.200161 0.126017 -0.445585 -2.743539
    42 1.522835 0.058681 0.016848 0.001410 0.008985 0.342268
    43 1.117947 0.048424 -0.005766 -0.008105 -0.023868 0.383222
    44 -0.139399 -0.111698 0.014397 1.209113 0.256026 1.369783
    45 -1.393470 8.839177 -0.239433 1.580804 -0.005023 -1.566847
  time 30
    0 -0.944278 1.225283 0.541027 0.000000 0.000000 0.000000
    1 8.871383 -0.069257 -9.908420 -1.571120 -1.330246 1.223350
    2 -0.071918 -8.498729 -0.104136 0.222215 0.089995 -0.232667
    3 3.509751 -0.490461 0.743484 -3.051446 0.124854 -1.547391
    4 -4.604834 1.953982 0.000000 0.000000 0.000000 3.141592
    5 -1.491883 -2.192085 0.000001 0.000000 0.000000 -1.570796
    6 21.233133 0.000000 0.000000 0.000000 0.000000 0.000000
    7 0.000000 0.000000 0.000000 0.000000 0.000000 0.000000
    8 0.500716 -0.717737 -0.772266 3.141592 0.000000 1.570796
    9 0.531071 0.362873 -0.818099 -1.570796 1.570796 0.000000
    10 1.257180 8.762585 -0.153713 -1.570562 0.002683 -1.566807
    11 -0.488518 -2.755602 -0.228260 -0.186042 0.005934 -0.083631
    12 0.039887 -1.479790 0.029854 -2.165419 0.000000 0.000001
    13 0.028786 -1.075731 -0.023109 -1.399409 0.000000 0.000000
    14 0.250027 -2.820665 -0.238396 0.157693 -0.039690 0.158514
    15 -0.049759 -1.680544 0.100479 -1.621060 0.000000 -0.000002
    16 -0.034142 -1.148312 0.084782 -1.785312 0.000000 0.000000
    17 0.957766 -2.746780 -0.090302 0.178344 -0.172344 0.119866
    18 -0.033420 -1.397129 -0.011257 -1.242568 0.000000 -0.000001
    19 -0.022360 -0.957436 0.018784 -0.915050 0.000000 0.000000
    20 -1.180681 -2.507217 -0.193859 0.253911 0.096048 -0.028880
    21 -0.024967 -1.123934 0.017597 -1.613439 0.000000 0.000001
    22 -0.020057 -0.890968 0.010090 -1.691466 0.000000 0.000000
    23 0.583510 -1.197277 0.185379 0.344397 -0.598165 -0.858627
    24 1.535927 0.010246 0.005009 -0.002964 -0.012979 -0.682275
    25 1.100771 0.004527 -0.010679 -0.016147 -0.001453 -1.484192
    26 0.120153 -0.050270 -0.054489 0.287569 3.110905 1.561085
    27 -0.462181 -8.465734 -10.962555 -2.107353 -5.210391 -1.483004
    28 0.096944 -8.450418 -0.009365 -0.475320 -1.489847 0.915488
    29 0.447953 -2.798986 -0.200443 -1.057474 -0.010396 0.265094
    30 -0.032909 -1.480204 0.004940 -1.401033 0.000000 0.000002
    31 -0.027022 -1.076920 -0.020210 0.145969 0.000000 0.000000
    32 -0.249534 -2.846964 -0.174213 -0.654839 -0.000125 -0.008396
    33 0.043235 -1.683941 0.096012 -1.586065 0.002823 -0.000167
    34 0.031729 -1.160830 0.058838 0.081838 0.000642 0.008372
    35 -0.963866 -2.785145 -0.085350 -0.345511 0.163139 -0.105950
    36 0.028479 -1.403067 0.006271 -0.848512 0.000000 0.000000
    37 0.021413 -0.957781 0.020046 -0.907761 0.000000 0.000000
    38 1.164475 -2.543940 -0.170330 -1.209812 -0.013294 0.477915
    39 0.024032 -1.129042 0.017807 -1.453003 0.000000 0.000001
    40 0.014898 -0.883989 -0.019848 0.128215 0.000000 0.000000
    41 -0.586770 -1.264477 0.200161 0.126017 -0.445585 -2.743539
    42 1.522835 0.058681 0.016848 0.001410 0.008985 0.342268
    43 1.117947 0.048424 -0.005766 -0.008105 -0.023868 0.383222
    44 -0.139399 -0.111698 0.014397 1.209113 0.256026 1.369783
    45 -1.393470 8.839177 -0.239433 1.580804 -0.005023 -1.566847
end
