version 1
nodes
  0 "Bip01" -1
  1 "Bip01 Pelvis" 0
  2 "Bip01 Spine" 1
  3 "Bip01 Spine1" 2
  4 "Bip01 Spine2" 3
  5 "Bip01 Spine3" 4
  6 "Bip01 Neck" 5
  7 "Bip01 R Clavicle" 6
  8 "Bip01 R UpperArm" 7
  9 "Bip01 R Forearm" 8
  10 "Bip01 R Hand" 9
  11 "flash" 10
  12 "ak47" 11
end
skeleton
  time 0
    0 0.232784 -2.249535 38.192150 0.000000 0.000000 -1.570795
    1 -2.276912 0.000003 -1.238186 -1.570795 -1.570796 0.000000
    2 1.797146 0.711796 -0.000002 -0.000004 -0.000001 0.000739
    3 4.118603 -0.003280 0.000000 0.000000 0.000000 0.000035
    4 4.118599 -0.003280 0.000000 0.000000 0.000000 0.000049
    5 4.118603 -0.003280 0.000000 0.000000 0.000000 -0.000009
    6 4.118534 -0.003538 0.000000 0.000000 0.000000 -0.019437
    7 0.000004 0.003543 -1.732721 -0.000040 1.501696 -3.122992
    8 6.384777 0.000000 0.000000 -0.025648 0.046980 0.004099
    9 10.242683 0.000000 0.000004 0.000000 0.000000 -0.008014
    10 11.375561 0.000000 -0.000004 1.580468 0.132234 0.009455
    11 31.286087 -1.997391 -2.980785 0.219518 -0.013465 1.468817
    12 -0.805893 23.111935 -0.091638 0.016413 0.004920 0.037364
  time 1
    0 0.232784 -2.249535 38.192150 0.000000 0.000000 -1.570795
    1 -2.276912 0.000003 -1.238186 -1.570795 -1.570796 0.000000
    2 1.797146 0.711796 -0.000002 -0.000004 -0.000001 0.000739
    3 4.118603 -0.003280 0.000000 0.000000 0.000000 0.000035
    4 4.118599 -0.003280 0.000000 0.000000 0.000000 0.000049
    5 4.118603 -0.003280 0.000000 0.000000 0.000000 -0.000009
    6 4.118534 -0.003538 0.000000 0.000000 0.000000 -0.019437
    7 0.000004 0.003543 -1.732721 -0.000040 1.501696 -3.122992
    8 6.384777 0.000000 0.000000 -0.025648 0.046980 0.004099
    9 10.242683 0.000000 0.000004 0.000000 0.000000 -0.008014
    10 11.375561 0.000000 -0.000004 1.580468 0.132234 0.009455
    11 31.286087 -1.997391 -2.980785 0.219518 -0.013465 1.468817
    12 -0.805893 23.111935 -0.091638 0.016413 0.004920 0.037364
end
