// Created by Crowbar 0.58

$modelname "weapons/tfa_cso/w_dreadnova_a.mdl"

$bodygroup "studio"
{
	studio "p_summonknife_a"
}

$collisionmodel "p_summonknife_a.smd"
{
	$mass 9
}

$CDMaterials "models\weapons\tfa_cso\dreadnova"

$sequence "idle" {
	"p_summonknife_a_anims\idle"
	fps 30
}
