version 1
nodes
  0 "kronos1_root" -1
  1 "fnp_trigger" 0
  2 "fnp_reload" 0
  3 "fnp_button" 0
  4 "fnp_trigger02" 0
  5 "fnp_slider" 0
  6 "trans01" 0
  7 "trans02" 0
  8 "ef" 0
  9 "root" -1
  10 "Bone01" 9
  11 "Bone_L_Upper" 10
  12 "Bone_Lefthand" 10
  13 "Bone13" 12
  14 "Bone14" 13
  15 "Bone15" 14
  16 "Bone17" 12
  17 "Bone18" 16
  18 "Bone19" 17
  19 "Bone21" 12
  20 "Bone22" 19
  21 "Bone23" 20
  22 "Bone09" 12
  23 "Bone10" 22
  24 "Bone11" 23
  25 "Bone05" 12
  26 "Bone06" 25
  27 "Bone07" 26
  28 "Bone_Se_Hand-L" 12
  29 "Bone04" 9
  30 "Bone_Righthand" 29
  31 "Bone39" 30
  32 "Bone40" 31
  33 "Bone41" 32
  34 "Bone35" 30
  35 "Bone36" 34
  36 "Bone37" 35
  37 "Bone31" 30
  38 "Bone32" 37
  39 "Bone33" 38
  40 "Bone43" 30
  41 "Bone44" 40
  42 "Bone45" 41
  43 "Bone27" 30
  44 "Bone28" 43
  45 "Bone29" 44
  46 "Bone_Se_Hand-R" 30
  47 "Bone_R_Upper" 29
end
skeleton
  time 0
    0 -6.061896 -5.700729 -11.123550 -0.893448 -0.526928 -0.193600
    1 -0.881688 0.301299 0.000000 0.000001 0.000000 -1.382160
    2 1.671935 4.611084 0.000000 0.000000 0.000000 1.232289
    3 -0.763543 -0.089952 0.631852 -0.002283 1.570796 0.000000
    4 1.384421 -0.042067 0.000000 0.000000 0.000000 1.345677
    5 0.660750 -0.739376 0.000000 0.000000 0.000000 0.002283
    6 -0.736122 -1.726717 0.123753 1.570770 -1.561760 1.573105
    7 -0.736128 -1.724683 -0.137291 -1.570809 1.561648 -1.568528
    8 9.538607 12.176788 -0.507388 0.019412 -0.056377 3.115553
    9 -0.002752 -0.001265 -0.003287 0.000000 0.000000 0.000000
    10 5.395921 -2.787819 -8.362518 5.363095 -2.083960 -0.289743
    11 7.073764 4.653084 -0.302155 1.565277 -3.126384 0.669730
    12 0.025738 -8.330763 -0.139291 -0.852914 0.609092 -0.458520
    13 -0.488518 -2.755602 -0.228260 -0.242250 0.060691 -0.057732
    14 0.039887 -1.538386 0.018135 -1.634758 -0.010403 0.036650
    15 0.028786 -1.134327 -0.109049 -0.791864 -0.013746 0.015532
    16 0.250027 -2.820665 -0.238396 -0.313985 0.018280 -0.085804
    17 -0.049759 -1.602417 0.049696 -1.312009 0.004662 -0.036064
    18 -0.034142 -1.175657 0.045718 -1.263189 0.005489 -0.033341
    19 0.957766 -2.746780 -0.090302 0.167150 -0.150256 0.099289
    20 -0.033420 -1.393223 -0.019070 -0.517853 0.008329 -0.025205
    21 -0.022360 -0.957436 0.007065 -0.527929 0.007982 -0.025323
    22 -1.180681 -2.507217 -0.193859 -0.150629 0.142428 -0.022097
    23 -0.024967 -1.123934 0.017597 -0.759772 0.006951 -0.032333
    24 -0.020057 -0.906594 0.037435 -1.161982 0.002397 -0.047687
    25 0.603042 -1.197277 0.181473 0.666402 -0.922572 -1.051051
    26 1.504676 -0.177260 -0.006710 0.213418 0.065484 -0.624307
    27 1.049988 -0.147821 0.032291 0.039018 -0.188604 -0.767764
    28 0.120153 -0.050270 -0.054489 0.287569 3.110905 1.561085
    29 -2.505212 5.237810 -7.298381 -0.761343 -4.004512 -0.606231
    30 -0.090562 -8.634018 0.025792 1.437359 -1.163300 -0.309882
    31 0.447953 -2.798986 -0.200443 -0.244439 -0.056549 0.060325
    32 -0.032909 -1.499736 0.024472 -1.286546 0.022998 -0.023524
    33 -0.027022 -1.096452 -0.028023 -0.524789 0.013722 -0.005621
    34 -0.249534 -2.846964 -0.174213 -0.316343 -0.019324 0.076958
    35 0.043235 -1.656596 0.076480 -1.215735 -0.019648 0.004291
    36 0.031729 -1.149111 0.058838 -0.758918 -0.007903 0.005292
    37 -0.963866 -2.785145 -0.085350 -0.133536 0.264013 -0.032832
    38 0.028479 -1.403067 -0.009354 -0.611716 -0.012368 -0.024940
    39 0.021413 -0.942156 0.012233 -1.051190 -0.028955 -0.035163
    40 1.164475 -2.543940 -0.170330 -0.166622 -0.161422 -0.083745
    41 0.024032 -1.136855 -0.001725 -0.790999 0.004494 0.042151
    42 0.014898 -0.903521 -0.015942 -1.038482 0.010007 0.051857
    43 -0.586770 -1.264477 0.200161 -0.200114 -0.096951 -2.129323
    44 1.530648 0.054775 0.009035 0.154202 -0.079650 0.158043
    45 1.106228 0.052330 -0.001860 0.312990 -0.289446 0.975210
    46 -0.139399 -0.111698 0.014397 0.285382 -0.030687 1.580508
    47 -5.690476 -5.239377 -0.450377 1.545366 -0.037094 0.644081
  time 1
    0 -5.393907 -6.696853 -10.736820 -0.995229 -0.498151 -0.045478
    1 -0.881688 0.301299 0.000000 0.000001 0.000000 -1.382160
    2 1.671935 4.611084 0.000000 0.000000 0.000000 1.232289
    3 -0.763543 -0.089952 0.631852 -0.002283 1.570796 0.000000
    4 1.384421 -0.042067 0.000000 0.000000 0.000000 1.345677
    5 0.660750 -0.739376 0.000000 0.000000 0.000000 0.002283
    6 -0.736122 -1.726717 0.123753 1.570770 -1.561760 1.573105
    7 -0.736128 -1.724683 -0.137291 -1.570809 1.561648 -1.568528
    8 9.538607 12.176788 -0.507388 0.019412 -0.056377 3.115553
    9 -0.002752 -0.001265 -0.003287 0.000000 0.000000 0.000000
    10 5.954532 -2.873759 -8.452365 5.481951 -2.083135 -0.343549
    11 7.542528 3.633522 -0.325593 1.565852 -3.123424 0.531785
    12 0.021832 -8.338575 -0.127572 -0.788050 0.635578 -0.409014
    13 -0.488518 -2.755602 -0.228260 -0.242250 0.060691 -0.057732
    14 0.039887 -1.538386 0.018135 -1.634758 -0.010403 0.036650
    15 0.028786 -1.134327 -0.109049 -0.791864 -0.013746 0.015532
    16 0.250027 -2.820665 -0.238396 -0.313985 0.018280 -0.085804
    17 -0.049759 -1.602417 0.049696 -1.312009 0.004662 -0.036064
    18 -0.034142 -1.175657 0.045718 -1.263189 0.005489 -0.033341
    19 0.957766 -2.746780 -0.090302 0.167150 -0.150256 0.099289
    20 -0.033420 -1.393223 -0.019070 -0.517853 0.008329 -0.025205
    21 -0.022360 -0.957436 0.007065 -0.527929 0.007982 -0.025323
    22 -1.180681 -2.507217 -0.193859 -0.150629 0.142428 -0.022097
    23 -0.024967 -1.123934 0.017597 -0.759772 0.006951 -0.032333
    24 -0.020057 -0.906594 0.037435 -1.161982 0.002397 -0.047687
    25 0.603042 -1.197277 0.181473 0.666402 -0.922572 -1.051051
    26 1.504676 -0.177260 -0.006710 0.213418 0.065484 -0.624307
    27 1.049988 -0.147821 0.032291 0.039018 -0.188604 -0.767764
    28 0.120153 -0.050270 -0.054489 0.287569 3.110905 1.561085
    29 -2.598965 4.890143 -8.130438 -0.681496 -4.114185 -0.516517
    30 -0.063217 -8.626205 0.029699 1.303371 -1.048966 -0.184345
    31 0.447953 -2.798986 -0.200443 -0.244439 -0.056549 0.060325
    32 -0.032909 -1.499736 0.024472 -1.286546 0.022998 -0.023524
    33 -0.027022 -1.096452 -0.028023 -0.524789 0.013722 -0.005621
    34 -0.249534 -2.846964 -0.174213 -0.316343 -0.019324 0.076958
    35 0.043235 -1.656596 0.076480 -1.215735 -0.019648 0.004291
    36 0.031729 -1.149111 0.058838 -0.758918 -0.007903 0.005292
    37 -0.963866 -2.785145 -0.085350 -0.133536 0.264013 -0.032832
    38 0.028479 -1.403067 -0.009354 -0.611716 -0.012368 -0.024940
    39 0.021413 -0.942156 0.012233 -1.051190 -0.028955 -0.035163
    40 1.164475 -2.543940 -0.170330 -0.166622 -0.161422 -0.083745
    41 0.024032 -1.136855 -0.001725 -0.790999 0.004494 0.042151
    42 0.014898 -0.903521 -0.015942 -1.038482 0.010007 0.051857
    43 -0.586770 -1.264477 0.200161 -0.200114 -0.096951 -2.129323
    44 1.530648 0.054775 0.009035 0.154202 -0.079650 0.158043
    45 1.106228 0.052330 -0.001860 0.312990 -0.289446 0.975210
    46 -0.139399 -0.111698 0.014397 0.285382 -0.030687 1.580508
    47 -5.991267 -4.938587 -0.454283 1.546684 -0.037561 0.591984
  time 2
    0 -4.585288 -7.474220 -10.061018 -1.122408 -0.495500 0.100131
    1 -0.881688 0.301299 0.000000 0.000001 0.000000 -1.382160
    2 1.671935 4.611084 0.000000 0.000000 0.000000 1.232289
    3 -0.763543 -0.089952 0.631852 -0.002283 1.570796 0.000000
    4 1.384421 -0.042067 0.000000 0.000000 0.000000 1.345677
    5 0.660750 -0.739376 0.000000 0.000000 0.000000 0.002283
    6 -0.736122 -1.726717 0.123753 1.570770 -1.561760 1.573105
    7 -0.736128 -1.724683 -0.137291 -1.570809 1.561648 -1.568528
    8 9.538607 12.176788 -0.507388 0.019412 -0.056377 3.115553
    9 -0.002752 -0.001265 -0.003287 0.000000 0.000000 0.000000
    10 6.716274 -2.947980 -8.288297 5.655736 -2.094003 -0.468105
    11 7.937071 2.246761 -0.352938 1.567194 -3.119891 0.354729
    12 0.025738 -8.350294 -0.119759 -0.712579 0.643818 -0.396841
    13 -0.488518 -2.755602 -0.228260 -0.242250 0.060691 -0.057732
    14 0.039887 -1.538386 0.018135 -1.634758 -0.010403 0.036650
    15 0.028786 -1.134327 -0.109049 -0.791864 -0.013746 0.015532
    16 0.250027 -2.820665 -0.238396 -0.313985 0.018280 -0.085804
    17 -0.049759 -1.602417 0.049696 -1.312009 0.004662 -0.036064
    18 -0.034142 -1.175657 0.045718 -1.263189 0.005489 -0.033341
    19 0.957766 -2.746780 -0.090302 0.167150 -0.150256 0.099289
    20 -0.033420 -1.393223 -0.019070 -0.517853 0.008329 -0.025205
    21 -0.022360 -0.957436 0.007065 -0.527929 0.007982 -0.025323
    22 -1.180681 -2.507217 -0.193859 -0.150629 0.142428 -0.022097
    23 -0.024967 -1.123934 0.017597 -0.759772 0.006951 -0.032333
    24 -0.020057 -0.906594 0.037435 -1.161982 0.002397 -0.047687
    25 0.603042 -1.197277 0.181473 0.666402 -0.922572 -1.051051
    26 1.504676 -0.177260 -0.006710 0.213418 0.065484 -0.624307
    27 1.049988 -0.147821 0.032291 0.039018 -0.188604 -0.767764
    28 0.120153 -0.050270 -0.054489 0.287569 3.110905 1.561085
    29 -2.548182 4.546382 -8.743738 -0.568331 -4.227454 -0.387548
    30 -0.043685 -8.622299 0.033605 1.232832 -0.965020 -0.138715
    31 0.447953 -2.798986 -0.200443 -0.244439 -0.056549 0.060325
    32 -0.032909 -1.499736 0.024472 -1.286546 0.022998 -0.023524
    33 -0.027022 -1.096452 -0.028023 -0.524789 0.013722 -0.005621
    34 -0.249534 -2.846964 -0.174213 -0.316343 -0.019324 0.076958
    35 0.043235 -1.656596 0.076480 -1.215735 -0.019648 0.004291
    36 0.031729 -1.149111 0.058838 -0.758918 -0.007903 0.005292
    37 -0.963866 -2.785145 -0.085350 -0.133536 0.264013 -0.032832
    38 0.028479 -1.403067 -0.009354 -0.611716 -0.012368 -0.024940
    39 0.021413 -0.942156 0.012233 -1.051190 -0.028955 -0.035163
    40 1.164475 -2.543940 -0.170330 -0.166622 -0.161422 -0.083745
    41 0.024032 -1.136855 -0.001725 -0.790999 0.004494 0.042151
    42 0.014898 -0.903521 -0.015942 -1.038482 0.010007 0.051857
    43 -0.586770 -1.264477 0.200161 -0.200114 -0.096951 -2.129323
    44 1.530648 0.054775 0.009035 0.154202 -0.079650 0.158043
    45 1.106228 0.052330 -0.001860 0.312990 -0.289446 0.975210
    46 -0.139399 -0.111698 0.014397 0.285382 -0.030687 1.580508
    47 -6.042049 -4.883898 -0.458190 1.546912 -0.037633 0.583115
  time 3
    0 -3.764951 -7.985955 -9.135208 -1.265757 -0.494933 0.242927
    1 -0.881688 0.301299 0.000000 0.000001 0.000000 -1.382160
    2 1.671935 4.611084 0.000000 0.000000 0.000000 1.232289
    3 -0.763543 -0.089952 0.631852 -0.002283 1.570796 0.000000
    4 1.384421 -0.042067 0.000000 0.000000 0.000000 1.345677
    5 0.660750 -0.739376 0.000000 0.000000 0.000000 0.002283
    6 -0.736122 -1.726717 0.123753 1.570770 -1.561760 1.573105
    7 -0.736128 -1.724683 -0.137291 -1.570809 1.561648 -1.568528
    8 9.538607 12.176788 -0.507388 0.019412 -0.056377 3.115553
    9 -0.002752 -0.001265 -0.003287 0.000000 0.000000 0.000000
    10 7.544425 -2.947980 -7.905473 5.843111 -2.125330 -0.621958
    11 8.081607 0.688120 -0.376376 1.569399 -3.116357 0.162453
    12 0.029645 -8.358107 -0.111947 -0.633572 0.642007 -0.405500
    13 -0.488518 -2.755602 -0.228260 -0.242250 0.060691 -0.057732
    14 0.039887 -1.538386 0.018135 -1.634758 -0.010403 0.036650
    15 0.028786 -1.134327 -0.109049 -0.791864 -0.013746 0.015532
    16 0.250027 -2.820665 -0.238396 -0.313985 0.018280 -0.085804
    17 -0.049759 -1.602417 0.049696 -1.312009 0.004662 -0.036064
    18 -0.034142 -1.175657 0.045718 -1.263189 0.005489 -0.033341
    19 0.957766 -2.746780 -0.090302 0.167150 -0.150256 0.099289
    20 -0.033420 -1.393223 -0.019070 -0.517853 0.008329 -0.025205
    21 -0.022360 -0.957436 0.007065 -0.527929 0.007982 -0.025323
    22 -1.180681 -2.507217 -0.193859 -0.150629 0.142428 -0.022097
    23 -0.024967 -1.123934 0.017597 -0.759772 0.006951 -0.032333
    24 -0.020057 -0.906594 0.037435 -1.161982 0.002397 -0.047687
    25 0.603042 -1.197277 0.181473 0.666402 -0.922572 -1.051051
    26 1.504676 -0.177260 -0.006710 0.213418 0.065484 -0.624307
    27 1.049988 -0.147821 0.032291 0.039018 -0.188604 -0.767764
    28 0.120153 -0.050270 -0.054489 0.287569 3.110905 1.561085
    29 -2.427085 4.241686 -9.173438 -0.388411 -4.332024 -0.186482
    30 -0.028060 -8.618392 0.033605 1.188902 -0.901416 -0.125232
    31 0.447953 -2.798986 -0.200443 -0.244439 -0.056549 0.060325
    32 -0.032909 -1.499736 0.024472 -1.286546 0.022998 -0.023524
    33 -0.027022 -1.096452 -0.028023 -0.524789 0.013722 -0.005621
    34 -0.249534 -2.846964 -0.174213 -0.316343 -0.019324 0.076958
    35 0.043235 -1.656596 0.076480 -1.215735 -0.019648 0.004291
    36 0.031729 -1.149111 0.058838 -0.758918 -0.007903 0.005292
    37 -0.963866 -2.785145 -0.085350 -0.133536 0.264013 -0.032832
    38 0.028479 -1.403067 -0.009354 -0.611716 -0.012368 -0.024940
    39 0.021413 -0.942156 0.012233 -1.051190 -0.028955 -0.035163
    40 1.164475 -2.543940 -0.170330 -0.166622 -0.161422 -0.083745
    41 0.024032 -1.136855 -0.001725 -0.790999 0.004494 0.042151
    42 0.014898 -0.903521 -0.015942 -1.038482 0.010007 0.051857
    43 -0.586770 -1.264477 0.200161 -0.200114 -0.096951 -2.129323
    44 1.530648 0.054775 0.009035 0.154202 -0.079650 0.158043
    45 1.106228 0.052330 -0.001860 0.312990 -0.289446 0.975210
    46 -0.139399 -0.111698 0.014397 0.285382 -0.030687 1.580508
    47 -5.905326 -5.028434 -0.454283 1.546300 -0.037429 0.607138
  time 4
    0 -3.014928 -8.247681 -8.057050 -1.409487 -0.476947 0.377182
    1 -0.881688 0.301299 0.000000 0.000001 0.000000 -1.382160
    2 1.671935 4.611084 0.000000 0.000000 0.000000 1.232289
    3 -0.763543 -0.089952 0.631852 -0.002283 1.570796 0.000000
    4 1.384421 -0.042067 0.000000 0.000000 0.000000 1.345677
    5 0.660750 -0.739376 0.000000 0.000000 0.000000 0.002283
    6 -0.736122 -1.726717 0.123753 1.570770 -1.561760 1.573105
    7 -0.736128 -1.724683 -0.137291 -1.570809 1.561648 -1.568528
    8 9.538607 12.176788 -0.507388 0.019412 -0.056377 3.115553
    9 -0.002752 -0.001265 -0.003287 0.000000 0.000000 0.000000
    10 8.306167 -2.846414 -7.401551 6.007135 -2.174870 -0.761545
    11 7.937071 -0.796301 -0.395908 -1.569507 -0.027970 -3.162695
    12 0.029645 -8.365920 -0.104134 -0.556288 0.636212 -0.416355
    13 -0.488518 -2.755602 -0.228260 -0.242250 0.060691 -0.057732
    14 0.039887 -1.538386 0.018135 -1.634758 -0.010403 0.036650
    15 0.028786 -1.134327 -0.109049 -0.791864 -0.013746 0.015532
    16 0.250027 -2.820665 -0.238396 -0.313985 0.018280 -0.085804
    17 -0.049759 -1.602417 0.049696 -1.312009 0.004662 -0.036064
    18 -0.034142 -1.175657 0.045718 -1.263189 0.005489 -0.033341
    19 0.957766 -2.746780 -0.090302 0.167150 -0.150256 0.099289
    20 -0.033420 -1.393223 -0.019070 -0.517853 0.008329 -0.025205
    21 -0.022360 -0.957436 0.007065 -0.527929 0.007982 -0.025323
    22 -1.180681 -2.507217 -0.193859 -0.150629 0.142428 -0.022097
    23 -0.024967 -1.123934 0.017597 -0.759772 0.006951 -0.032333
    24 -0.020057 -0.906594 0.037435 -1.161982 0.002397 -0.047687
    25 0.603042 -1.197277 0.181473 0.666402 -0.922572 -1.051051
    26 1.504676 -0.177260 -0.006710 0.213418 0.065484 -0.624307
    27 1.049988 -0.147821 0.032291 0.039018 -0.188604 -0.767764
    28 0.120153 -0.050270 -0.054489 0.287569 3.110905 1.561085
    29 -2.290362 3.983865 -9.474229 -0.096092 -4.410075 0.129191
    30 -0.016341 -8.614486 0.033605 1.153004 -0.844775 -0.119839
    31 0.447953 -2.798986 -0.200443 -0.244439 -0.056549 0.060325
    32 -0.032909 -1.499736 0.024472 -1.286546 0.022998 -0.023524
    33 -0.027022 -1.096452 -0.028023 -0.524789 0.013722 -0.005621
    34 -0.249534 -2.846964 -0.174213 -0.316343 -0.019324 0.076958
    35 0.043235 -1.656596 0.076480 -1.215735 -0.019648 0.004291
    36 0.031729 -1.149111 0.058838 -0.758918 -0.007903 0.005292
    37 -0.963866 -2.785145 -0.085350 -0.133536 0.264013 -0.032832
    38 0.028479 -1.403067 -0.009354 -0.611716 -0.012368 -0.024940
    39 0.021413 -0.942156 0.012233 -1.051190 -0.028955 -0.035163
    40 1.164475 -2.543940 -0.170330 -0.166622 -0.161422 -0.083745
    41 0.024032 -1.136855 -0.001725 -0.790999 0.004494 0.042151
    42 0.014898 -0.903521 -0.015942 -1.038482 0.010007 0.051857
    43 -0.586770 -1.264477 0.200161 -0.200114 -0.096951 -2.129323
    44 1.530648 0.054775 0.009035 0.154202 -0.079650 0.158043
    45 1.106228 0.052330 -0.001860 0.312990 -0.289446 0.975210
    46 -0.139399 -0.111698 0.014397 0.285382 -0.030687 1.580508
    47 -5.663132 -5.266722 -0.450377 1.545258 -0.037046 0.648481
  time 5
    0 -2.366471 -8.345340 -6.932016 -1.534382 -0.428765 0.493650
    1 -0.881688 0.301299 0.000000 0.000001 0.000000 -1.382160
    2 1.671935 4.611084 0.000000 0.000000 0.000000 1.232289
    3 -0.763543 -0.089952 0.631852 -0.002283 1.570796 0.000000
    4 1.384421 -0.042067 0.000000 0.000000 0.000000 1.345677
    5 0.660750 -0.739376 0.000000 0.000000 0.000000 0.002283
    6 -0.736122 -1.726717 0.123753 1.570770 -1.561760 1.573105
    7 -0.736128 -1.724683 -0.137291 -1.570809 1.561648 -1.568528
    8 9.538607 12.176788 -0.507388 0.019412 -0.056377 3.115553
    9 -0.002752 -0.001265 -0.003287 0.000000 0.000000 0.000000
    10 8.899935 -2.631564 -6.901536 6.134507 -2.231080 -0.860061
    11 7.616749 -1.983837 -0.411533 -1.567015 -0.029975 -3.313814
    12 0.029645 -8.373733 -0.104134 -0.485577 0.630326 -0.410143
    13 -0.488518 -2.755602 -0.228260 -0.242250 0.060691 -0.057732
    14 0.039887 -1.538386 0.018135 -1.634758 -0.010403 0.036650
    15 0.028786 -1.134327 -0.109049 -0.791864 -0.013746 0.015532
    16 0.250027 -2.820665 -0.238396 -0.313985 0.018280 -0.085804
    17 -0.049759 -1.602417 0.049696 -1.312009 0.004662 -0.036064
    18 -0.034142 -1.175657 0.045718 -1.263189 0.005489 -0.033341
    19 0.957766 -2.746780 -0.090302 0.167150 -0.150256 0.099289
    20 -0.033420 -1.393223 -0.019070 -0.517853 0.008329 -0.025205
    21 -0.022360 -0.957436 0.007065 -0.527929 0.007982 -0.025323
    22 -1.180681 -2.507217 -0.193859 -0.150629 0.142428 -0.022097
    23 -0.024967 -1.123934 0.017597 -0.759772 0.006951 -0.032333
    24 -0.020057 -0.906594 0.037435 -1.161982 0.002397 -0.047687
    25 0.603042 -1.197277 0.181473 0.666402 -0.922572 -1.051051
    26 1.504676 -0.177260 -0.006710 0.213418 0.065484 -0.624307
    27 1.049988 -0.147821 0.032291 0.039018 -0.188604 -0.767764
    28 0.120153 -0.050270 -0.054489 0.287569 3.110905 1.561085
    29 -2.161452 3.706513 -9.751581 0.310866 -4.439103 0.556983
    30 -0.004622 -8.610580 0.029699 1.109075 -0.782984 -0.103197
    31 0.447953 -2.798986 -0.200443 -0.244439 -0.056549 0.060325
    32 -0.032909 -1.499736 0.024472 -1.286546 0.022998 -0.023524
    33 -0.027022 -1.096452 -0.028023 -0.524789 0.013722 -0.005621
    34 -0.249534 -2.846964 -0.174213 -0.316343 -0.019324 0.076958
    35 0.043235 -1.656596 0.076480 -1.215735 -0.019648 0.004291
    36 0.031729 -1.149111 0.058838 -0.758918 -0.007903 0.005292
    37 -0.963866 -2.785145 -0.085350 -0.133536 0.264013 -0.032832
    38 0.028479 -1.403067 -0.009354 -0.611716 -0.012368 -0.024940
    39 0.021413 -0.942156 0.012233 -1.051190 -0.028955 -0.035163
    40 1.164475 -2.543940 -0.170330 -0.166622 -0.161422 -0.083745
    41 0.024032 -1.136855 -0.001725 -0.790999 0.004494 0.042151
    42 0.014898 -0.903521 -0.015942 -1.038482 0.010007 0.051857
    43 -0.586770 -1.264477 0.200161 -0.200114 -0.096951 -2.129323
    44 1.530648 0.054775 0.009035 0.154202 -0.079650 0.158043
    45 1.106228 0.052330 -0.001860 0.312990 -0.289446 0.975210
    46 -0.139399 -0.111698 0.014397 0.285382 -0.030687 1.580508
    47 -5.436562 -5.473760 -0.446471 1.544347 -0.036662 0.685703
  time 6
    0 -1.788328 -8.427374 -5.857764 -1.623321 -0.343193 0.584693
    1 -0.881688 0.301299 0.000000 0.000001 0.000000 -1.382160
    2 1.671935 4.611084 0.000000 0.000000 0.000000 1.232289
    3 -0.763543 -0.089952 0.631852 -0.002283 1.570796 0.000000
    4 1.384421 -0.042067 0.000000 0.000000 0.000000 1.345677
    5 0.660750 -0.739376 0.000000 0.000000 0.000000 0.002283
    6 -0.736122 -1.726717 0.123753 1.570770 -1.561760 1.573105
    7 -0.736128 -1.724683 -0.137291 -1.570821 1.561648 -1.568540
    8 9.538607 12.176788 -0.507388 0.019412 -0.056377 3.115553
    9 -0.002752 -0.001265 -0.003287 0.000000 0.000000 0.000000
    10 9.255414 -2.307335 -6.561682 6.232022 -2.278970 -0.904867
    11 7.323771 -2.698703 -0.415440 -1.565193 -0.031026 -3.408484
    12 0.025738 -8.385452 -0.096321 -0.426152 0.626206 -0.366911
    13 -0.488518 -2.755602 -0.228260 -0.242250 0.060691 -0.057732
    14 0.039887 -1.538386 0.018135 -1.634758 -0.010403 0.036650
    15 0.028786 -1.134327 -0.109049 -0.791864 -0.013746 0.015532
    16 0.250027 -2.820665 -0.238396 -0.313985 0.018280 -0.085804
    17 -0.049759 -1.602417 0.049696 -1.312009 0.004662 -0.036064
    18 -0.034142 -1.175657 0.045718 -1.263189 0.005489 -0.033341
    19 0.957766 -2.746780 -0.090302 0.167150 -0.150256 0.099289
    20 -0.033420 -1.393223 -0.019070 -0.517853 0.008329 -0.025205
    21 -0.022360 -0.957436 0.007065 -0.527929 0.007982 -0.025323
    22 -1.180681 -2.507217 -0.193859 -0.150629 0.142428 -0.022097
    23 -0.024967 -1.123934 0.017597 -0.759772 0.006951 -0.032333
    24 -0.020057 -0.906594 0.037435 -1.161982 0.002397 -0.047687
    25 0.603042 -1.197277 0.181473 0.666402 -0.922572 -1.051051
    26 1.504676 -0.177260 -0.006710 0.213418 0.065484 -0.624307
    27 1.049988 -0.147821 0.032291 0.039018 -0.188604 -0.767764
    28 0.120153 -0.050270 -0.054489 0.287569 3.110905 1.561085
    29 -2.024729 3.296344 -10.091435 0.698953 -4.408987 0.957008
    30 0.014910 -8.602767 0.029699 1.042978 -0.705927 -0.060406
    31 0.447953 -2.798986 -0.200443 -0.244439 -0.056549 0.060325
    32 -0.032909 -1.499736 0.024472 -1.286546 0.022998 -0.023524
    33 -0.027022 -1.096452 -0.028023 -0.524789 0.013722 -0.005621
    34 -0.249534 -2.846964 -0.174213 -0.316343 -0.019324 0.076958
    35 0.043235 -1.656596 0.076480 -1.215735 -0.019648 0.004291
    36 0.031729 -1.149111 0.058838 -0.758918 -0.007903 0.005292
    37 -0.963866 -2.785145 -0.085350 -0.133536 0.264013 -0.032832
    38 0.028479 -1.403067 -0.009354 -0.611716 -0.012368 -0.024940
    39 0.021413 -0.942156 0.012233 -1.051190 -0.028955 -0.035163
    40 1.164475 -2.543940 -0.170330 -0.166622 -0.161422 -0.083745
    41 0.024032 -1.136855 -0.001725 -0.790999 0.004494 0.042151
    42 0.014898 -0.903521 -0.015942 -1.038482 0.010007 0.051857
    43 -0.586770 -1.264477 0.200161 -0.200114 -0.096951 -2.129323
    44 1.530648 0.054775 0.009035 0.154202 -0.079650 0.158043
    45 1.106228 0.052330 -0.001860 0.312990 -0.289446 0.975210
    46 -0.139399 -0.111698 0.014397 0.285382 -0.030687 1.580508
    47 -5.385779 -5.516730 -0.442564 1.544143 -0.036578 0.693804
  time 7
    0 -1.139871 -8.575816 -4.740543 -1.677541 -0.213698 0.655137
    1 -0.881688 0.301299 0.000000 0.000001 0.000000 -1.382160
    2 1.671935 4.611084 0.000000 0.000000 0.000000 1.232289
    3 -0.763543 -0.089952 0.631852 -0.002283 1.570796 0.000000
    4 1.384421 -0.042067 0.000000 0.000000 0.000000 1.345677
    5 0.660750 -0.739376 0.000000 0.000000 0.000000 0.002283
    6 -0.736122 -1.726717 0.123753 1.570770 -1.561760 1.573105
    7 -0.736128 -1.724683 -0.137291 -1.570821 1.561648 -1.568540
    8 9.538607 12.176788 -0.507388 0.019412 -0.056377 3.115553
    9 -0.002752 -0.001265 -0.003287 0.000000 0.000000 0.000000
    10 9.356980 -1.862009 -6.417146 0.043977 -2.306776 -0.901707
    11 7.226112 -2.905740 -0.419346 -1.564714 -0.031312 -3.436947
    12 0.014019 -8.393264 -0.096321 -0.382547 0.618600 -0.277122
    13 -0.488518 -2.755602 -0.228260 -0.242250 0.060691 -0.057732
    14 0.039887 -1.538386 0.018135 -1.634758 -0.010403 0.036650
    15 0.028786 -1.134327 -0.109049 -0.791864 -0.013746 0.015532
    16 0.250027 -2.820665 -0.238396 -0.313985 0.018280 -0.085804
    17 -0.049759 -1.602417 0.049696 -1.312009 0.004662 -0.036064
    18 -0.034142 -1.175657 0.045718 -1.263189 0.005489 -0.033341
    19 0.957766 -2.746780 -0.090302 0.167150 -0.150256 0.099289
    20 -0.033420 -1.393223 -0.019070 -0.517853 0.008329 -0.025205
    21 -0.022360 -0.957436 0.007065 -0.527929 0.007982 -0.025323
    22 -1.180681 -2.507217 -0.193859 -0.150629 0.142428 -0.022097
    23 -0.024967 -1.123934 0.017597 -0.759772 0.006951 -0.032333
    24 -0.020057 -0.906594 0.037435 -1.161982 0.002397 -0.047687
    25 0.603042 -1.197277 0.181473 0.666402 -0.922572 -1.051051
    26 1.504676 -0.177260 -0.006710 0.213418 0.065484 -0.624307
    27 1.049988 -0.147821 0.032291 0.039018 -0.188604 -0.767764
    28 0.120153 -0.050270 -0.054489 0.287569 3.110905 1.561085
    29 -1.829410 2.612730 -10.540667 0.990093 -4.329012 1.252096
    30 0.038348 -8.583235 0.025792 0.950945 -0.598012 0.013220
    31 0.447953 -2.798986 -0.200443 -0.244439 -0.056549 0.060325
    32 -0.032909 -1.499736 0.024472 -1.286546 0.022998 -0.023524
    33 -0.027022 -1.096452 -0.028023 -0.524789 0.013722 -0.005621
    34 -0.249534 -2.846964 -0.174213 -0.316343 -0.019324 0.076958
    35 0.043235 -1.656596 0.076480 -1.215735 -0.019648 0.004291
    36 0.031729 -1.149111 0.058838 -0.758918 -0.007903 0.005292
    37 -0.963866 -2.785145 -0.085350 -0.133536 0.264013 -0.032832
    38 0.028479 -1.403067 -0.009354 -0.611716 -0.012368 -0.024940
    39 0.021413 -0.942156 0.012233 -1.051190 -0.028955 -0.035163
    40 1.164475 -2.543940 -0.170330 -0.166622 -0.161422 -0.083745
    41 0.024032 -1.136855 -0.001725 -0.790999 0.004494 0.042151
    42 0.014898 -0.903521 -0.015942 -1.038482 0.010007 0.051857
    43 -0.586770 -1.264477 0.200161 -0.200114 -0.096951 -2.129323
    44 1.530648 0.054775 0.009035 0.154202 -0.079650 0.158043
    45 1.106228 0.052330 -0.001860 0.312990 -0.289446 0.975210
    46 -0.139399 -0.111698 0.014397 0.285382 -0.030687 1.580508
    47 -5.585004 -5.340943 -0.446471 1.544934 -0.036914 0.661470
  time 8
    0 -0.339065 -8.708633 -3.533475 -1.712070 -0.051261 0.716435
    1 -0.881688 0.301299 0.000000 0.000001 0.000000 -1.382160
    2 1.671935 4.611084 0.000000 0.000000 0.000000 1.232289
    3 -0.763543 -0.089952 0.631852 -0.002283 1.570796 0.000000
    4 1.384421 -0.042067 0.000000 0.000000 0.000000 1.345677
    5 0.660750 -0.739376 0.000000 0.000000 0.000000 0.002283
    6 -0.736122 -1.726717 0.123753 1.570770 -1.561760 1.573105
    7 -0.736128 -1.724683 -0.137291 -1.570809 1.561648 -1.568528
    8 9.538607 12.176788 -0.507388 0.019412 -0.056377 3.115553
    9 -0.002752 -0.001265 -0.003287 0.000000 0.000000 0.000000
    10 9.243695 -1.330743 -6.389802 0.152976 -2.311572 -0.871550
    11 7.296427 -2.757298 -0.415440 -1.565098 -0.031121 -3.416334
    12 -0.001606 -8.404984 -0.092415 -0.353537 0.603840 -0.155959
    13 -0.488518 -2.755602 -0.228260 -0.242250 0.060691 -0.057732
    14 0.039887 -1.538386 0.018135 -1.634758 -0.010403 0.036650
    15 0.028786 -1.134327 -0.109049 -0.791864 -0.013746 0.015532
    16 0.250027 -2.820665 -0.238396 -0.313985 0.018280 -0.085804
    17 -0.049759 -1.602417 0.049696 -1.312009 0.004662 -0.036064
    18 -0.034142 -1.175657 0.045718 -1.263189 0.005489 -0.033341
    19 0.957766 -2.746780 -0.090302 0.167150 -0.150256 0.099289
    20 -0.033420 -1.393223 -0.019070 -0.517853 0.008329 -0.025205
    21 -0.022360 -0.957436 0.007065 -0.527929 0.007982 -0.025323
    22 -1.180681 -2.507217 -0.193859 -0.150629 0.142428 -0.022097
    23 -0.024967 -1.123934 0.017597 -0.759772 0.006951 -0.032333
    24 -0.020057 -0.906594 0.037435 -1.161982 0.002397 -0.047687
    25 0.603042 -1.197277 0.181473 0.666402 -0.922572 -1.051051
    26 1.504676 -0.177260 -0.006710 0.213418 0.065484 -0.624307
    27 1.049988 -0.147821 0.032291 0.039018 -0.188604 -0.767764
    28 0.120153 -0.050270 -0.054489 0.287569 3.110905 1.561085
    29 -1.548152 1.651763 -10.946930 1.182751 -4.217499 1.449332
    30 0.069599 -8.559797 0.014073 0.846932 -0.464023 0.091246
    31 0.447953 -2.798986 -0.200443 -0.244439 -0.056549 0.060325
    32 -0.032909 -1.499736 0.024472 -1.286546 0.022998 -0.023524
    33 -0.027022 -1.096452 -0.028023 -0.524789 0.013722 -0.005621
    34 -0.249534 -2.846964 -0.174213 -0.316343 -0.019324 0.076958
    35 0.043235 -1.656596 0.076480 -1.215735 -0.019648 0.004291
    36 0.031729 -1.149111 0.058838 -0.758918 -0.007903 0.005292
    37 -0.963866 -2.785145 -0.085350 -0.133536 0.264013 -0.032832
    38 0.028479 -1.403067 -0.009354 -0.611716 -0.012368 -0.024940
    39 0.021413 -0.942156 0.012233 -1.051190 -0.028955 -0.035163
    40 1.164475 -2.543940 -0.170330 -0.166622 -0.161422 -0.083745
    41 0.024032 -1.136855 -0.001725 -0.790999 0.004494 0.042151
    42 0.014898 -0.903521 -0.015942 -1.038482 0.010007 0.051857
    43 -0.586770 -1.264477 0.200161 -0.200114 -0.096951 -2.129323
    44 1.530648 0.054775 0.009035 0.154202 -0.079650 0.158043
    45 1.106228 0.052330 -0.001860 0.312990 -0.289446 0.975210
    46 -0.139399 -0.111698 0.014397 0.285382 -0.030687 1.580508
    47 -5.956109 -4.977651 -0.454283 1.546516 -0.037501 0.598548
  time 9
    0 0.563306 -8.751603 -2.377190 -1.732902 0.124049 0.774870
    1 -0.881688 0.301299 0.000000 0.000001 0.000000 -1.382160
    2 1.671935 4.611084 0.000000 0.000000 0.000000 1.232289
    3 -0.763543 -0.089952 0.631852 -0.002283 1.570796 0.000000
    4 1.384421 -0.042067 0.000000 0.000000 0.000000 1.345677
    5 0.660750 -0.739376 0.000000 0.000000 0.000000 0.002283
    6 -0.736122 -1.726717 0.123753 1.570770 -1.561760 1.573105
    7 -0.736128 -1.724683 -0.137291 -1.570809 1.561648 -1.568528
    8 9.538607 12.176788 -0.507388 0.019412 -0.056377 3.115553
    9 -0.002752 -0.001265 -0.003287 0.000000 0.000000 0.000000
    10 8.903841 -0.807289 -6.409333 0.268099 -2.291337 -0.829233
    11 7.472213 -2.358848 -0.411533 -1.566056 -0.030548 -3.363231
    12 -0.017232 -8.416703 -0.096321 -0.334318 0.585594 -0.019424
    13 -0.488518 -2.755602 -0.228260 -0.242250 0.060691 -0.057732
    14 0.039887 -1.538386 0.018135 -1.634758 -0.010403 0.036650
    15 0.028786 -1.134327 -0.109049 -0.791864 -0.013746 0.015532
    16 0.250027 -2.820665 -0.238396 -0.313985 0.018280 -0.085804
    17 -0.049759 -1.602417 0.049696 -1.312009 0.004662 -0.036064
    18 -0.034142 -1.175657 0.045718 -1.263189 0.005489 -0.033341
    19 0.957766 -2.746780 -0.090302 0.167150 -0.150256 0.099289
    20 -0.033420 -1.393223 -0.019070 -0.517853 0.008329 -0.025205
    21 -0.022360 -0.957436 0.007065 -0.527929 0.007982 -0.025323
    22 -1.180681 -2.507217 -0.193859 -0.150629 0.142428 -0.022097
    23 -0.024967 -1.123934 0.017597 -0.759772 0.006951 -0.032333
    24 -0.020057 -0.906594 0.037435 -1.161982 0.002397 -0.047687
    25 0.603042 -1.197277 0.181473 0.666402 -0.922572 -1.051051
    26 1.504676 -0.177260 -0.006710 0.213418 0.065484 -0.624307
    27 1.049988 -0.147821 0.032291 0.039018 -0.188604 -0.767764
    28 0.120153 -0.050270 -0.054489 0.287569 3.110905 1.561085
    29 -1.204391 0.589230 -11.157874 1.293793 -4.105819 1.568822
    30 0.096944 -8.532452 -0.001552 0.738970 -0.326228 0.144824
    31 0.447953 -2.798986 -0.200443 -0.244439 -0.056549 0.060325
    32 -0.032909 -1.499736 0.024472 -1.286546 0.022998 -0.023524
    33 -0.027022 -1.096452 -0.028023 -0.524789 0.013722 -0.005621
    34 -0.249534 -2.846964 -0.174213 -0.316343 -0.019324 0.076958
    35 0.043235 -1.656596 0.076480 -1.215735 -0.019648 0.004291
    36 0.031729 -1.149111 0.058838 -0.758918 -0.007903 0.005292
    37 -0.963866 -2.785145 -0.085350 -0.133536 0.264013 -0.032832
    38 0.028479 -1.403067 -0.009354 -0.611716 -0.012368 -0.024940
    39 0.021413 -0.942156 0.012233 -1.051190 -0.028955 -0.035163
    40 1.164475 -2.543940 -0.170330 -0.166622 -0.161422 -0.083745
    41 0.024032 -1.136855 -0.001725 -0.790999 0.004494 0.042151
    42 0.014898 -0.903521 -0.015942 -1.038482 0.010007 0.051857
    43 -0.586770 -1.264477 0.200161 -0.200114 -0.096951 -2.129323
    44 1.530648 0.054775 0.009035 0.154202 -0.079650 0.158043
    45 1.106228 0.052330 -0.001860 0.312990 -0.289446 0.975210
    46 -0.139399 -0.111698 0.014397 0.285382 -0.030687 1.580508
    47 -6.405342 -4.465916 -0.462096 1.548637 -0.038124 0.516002
  time 10
    0 1.461771 -8.693007 -1.412316 -1.742700 0.293680 0.835415
    1 -0.881688 0.301299 0.000000 0.000001 0.000000 -1.382160
    2 1.671935 4.611084 0.000000 0.000000 0.000000 1.232289
    3 -0.763543 -0.089952 0.631852 -0.002283 1.570796 0.000000
    4 1.384421 -0.042067 0.000000 0.000000 0.000000 1.345677
    5 0.660750 -0.739376 0.000000 0.000000 0.000000 0.002283
    6 -0.736122 -1.726717 0.123753 1.570770 -1.561760 1.573105
    7 -0.736128 -1.724683 -0.137291 -1.570809 1.561648 -1.568528
    8 9.538607 12.176788 -0.507388 0.019412 -0.056377 3.115553
    9 -0.002752 -0.001265 -0.003287 0.000000 0.000000 0.000000
    10 8.399919 -0.369776 -6.428865 0.379012 -2.250566 -0.787586
    11 7.667532 -1.831489 -0.407627 -1.567302 -0.029784 -3.294019
    12 -0.032857 -8.432328 -0.096321 -0.318408 0.567303 0.117237
    13 -0.488518 -2.755602 -0.228260 -0.242250 0.060691 -0.057732
    14 0.039887 -1.538386 0.018135 -1.634758 -0.010403 0.036650
    15 0.028786 -1.134327 -0.109049 -0.791864 -0.013746 0.015532
    16 0.250027 -2.820665 -0.238396 -0.313985 0.018280 -0.085804
    17 -0.049759 -1.602417 0.049696 -1.312009 0.004662 -0.036064
    18 -0.034142 -1.175657 0.045718 -1.263189 0.005489 -0.033341
    19 0.957766 -2.746780 -0.090302 0.167150 -0.150256 0.099289
    20 -0.033420 -1.393223 -0.019070 -0.517853 0.008329 -0.025205
    21 -0.022360 -0.957436 0.007065 -0.527929 0.007982 -0.025323
    22 -1.180681 -2.507217 -0.193859 -0.150629 0.142428 -0.022097
    23 -0.024967 -1.123934 0.017597 -0.759772 0.006951 -0.032333
    24 -0.020057 -0.906594 0.037435 -1.161982 0.002397 -0.047687
    25 0.603042 -1.197277 0.181473 0.666402 -0.922572 -1.051051
    26 1.504676 -0.177260 -0.006710 0.213418 0.065484 -0.624307
    27 1.049988 -0.147821 0.032291 0.039018 -0.188604 -0.767764
    28 0.120153 -0.050270 -0.054489 0.287569 3.110905 1.561085
    29 -0.864537 -0.395175 -11.153967 -1.787082 -5.409175 -1.501357
    30 0.112569 -8.512920 -0.013271 0.629078 -0.206055 0.163523
    31 0.447953 -2.798986 -0.200443 -0.244439 -0.056549 0.060325
    32 -0.032909 -1.499736 0.024472 -1.286546 0.022998 -0.023524
    33 -0.027022 -1.096452 -0.028023 -0.524789 0.013722 -0.005621
    34 -0.249534 -2.846964 -0.174213 -0.316343 -0.019324 0.076958
    35 0.043235 -1.656596 0.076480 -1.215735 -0.019648 0.004291
    36 0.031729 -1.149111 0.058838 -0.758918 -0.007903 0.005292
    37 -0.963866 -2.785145 -0.085350 -0.133536 0.264013 -0.032832
    38 0.028479 -1.403067 -0.009354 -0.611716 -0.012368 -0.024940
    39 0.021413 -0.942156 0.012233 -1.051190 -0.028955 -0.035163
    40 1.164475 -2.543940 -0.170330 -0.166622 -0.161422 -0.083745
    41 0.024032 -1.136855 -0.001725 -0.790999 0.004494 0.042151
    42 0.014898 -0.903521 -0.015942 -1.038482 0.010007 0.051857
    43 -0.586770 -1.264477 0.200161 -0.200114 -0.096951 -2.129323
    44 1.530648 0.054775 0.009035 0.154202 -0.079650 0.158043
    45 1.106228 0.052330 -0.001860 0.312990 -0.289446 0.975210
    46 -0.139399 -0.111698 0.014397 0.285382 -0.030687 1.580508
    47 -6.846761 -3.868242 -0.469909 1.551010 -0.038592 0.425565
  time 11
    0 2.258670 -8.587535 -0.720889 -1.742795 0.439929 0.900784
    1 -0.881688 0.301299 0.000000 0.000001 0.000000 -1.382160
    2 1.671935 4.611084 0.000000 0.000000 0.000000 1.232289
    3 -0.763543 -0.089952 0.631852 -0.002283 1.570796 0.000000
    4 1.384421 -0.042067 0.000000 0.000000 0.000000 1.345677
    5 0.660750 -0.739376 0.000000 0.000000 0.000000 0.002283
    6 -0.736122 -1.726717 0.123753 1.570770 -1.561760 1.573105
    7 -0.736128 -1.724683 -0.137291 -1.570809 1.561648 -1.568528
    8 9.538607 12.176788 -0.507388 0.019412 -0.056377 3.115553
    9 -0.002752 -0.001265 -0.003287 0.000000 0.000000 0.000000
    10 7.860840 -0.076798 -6.421053 0.473082 -2.202825 -0.753886
    11 7.823787 -1.296316 -0.403721 -1.568549 -0.028925 -3.225354
    12 -0.044576 -8.447954 -0.096321 -0.297874 0.551230 0.239717
    13 -0.488518 -2.755602 -0.228260 -0.242250 0.060691 -0.057732
    14 0.039887 -1.538386 0.018135 -1.634758 -0.010403 0.036650
    15 0.028786 -1.134327 -0.109049 -0.791864 -0.013746 0.015532
    16 0.250027 -2.820665 -0.238396 -0.313985 0.018280 -0.085804
    17 -0.049759 -1.602417 0.049696 -1.312009 0.004662 -0.036064
    18 -0.034142 -1.175657 0.045718 -1.263189 0.005489 -0.033341
    19 0.957766 -2.746780 -0.090302 0.167150 -0.150256 0.099289
    20 -0.033420 -1.393223 -0.019070 -0.517853 0.008329 -0.025205
    21 -0.022360 -0.957436 0.007065 -0.527929 0.007982 -0.025323
    22 -1.180681 -2.507217 -0.193859 -0.150629 0.142428 -0.022097
    23 -0.024967 -1.123934 0.017597 -0.759772 0.006951 -0.032333
    24 -0.020057 -0.906594 0.037435 -1.161982 0.002397 -0.047687
    25 0.603042 -1.197277 0.181473 0.666402 -0.922572 -1.051051
    26 1.504676 -0.177260 -0.006710 0.213418 0.065484 -0.624307
    27 1.049988 -0.147821 0.032291 0.039018 -0.188604 -0.767764
    28 0.120153 -0.050270 -0.054489 0.287569 3.110905 1.561085
    29 -0.571559 -1.180355 -11.013338 -1.756064 -5.468988 -1.459420
    30 0.124289 -8.497295 -0.024990 0.522327 -0.118809 0.151104
    31 0.447953 -2.798986 -0.200443 -0.244439 -0.056549 0.060325
    32 -0.032909 -1.499736 0.024472 -1.286546 0.022998 -0.023524
    33 -0.027022 -1.096452 -0.028023 -0.524789 0.013722 -0.005621
    34 -0.249534 -2.846964 -0.174213 -0.316343 -0.019324 0.076958
    35 0.043235 -1.656596 0.076480 -1.215735 -0.019648 0.004291
    36 0.031729 -1.149111 0.058838 -0.758918 -0.007903 0.005292
    37 -0.963866 -2.785145 -0.085350 -0.133536 0.264013 -0.032832
    38 0.028479 -1.403067 -0.009354 -0.611716 -0.012368 -0.024940
    39 0.021413 -0.942156 0.012233 -1.051190 -0.028955 -0.035163
    40 1.164475 -2.543940 -0.170330 -0.166622 -0.161422 -0.083745
    41 0.024032 -1.136855 -0.001725 -0.790999 0.004494 0.042151
    42 0.014898 -0.903521 -0.015942 -1.038482 0.010007 0.051857
    43 -0.586770 -1.264477 0.200161 -0.200114 -0.096951 -2.129323
    44 1.530648 0.054775 0.009035 0.154202 -0.079650 0.158043
    45 1.106228 0.052330 -0.001860 0.312990 -0.289446 0.975210
    46 -0.139399 -0.111698 0.014397 0.285382 -0.030687 1.580508
    47 -7.225679 -3.243223 -0.473815 1.553371 -0.038844 0.336804
  time 12
    0 2.883690 -8.525033 -0.330252 -1.736422 0.545948 0.970373
    1 -0.881688 0.301299 0.000000 0.000001 0.000000 -1.382160
    2 1.671935 4.611084 0.000000 0.000000 0.000000 1.232289
    3 -0.763543 -0.089952 0.631852 -0.002283 1.570796 0.000000
    4 1.384421 -0.042067 0.000000 0.000000 0.000000 1.345677
    5 0.660750 -0.739376 0.000000 0.000000 0.000000 0.002283
    6 -0.736122 -1.726717 0.123753 1.570770 -1.561760 1.573105
    7 -0.736128 -1.724683 -0.137291 -1.570809 1.561648 -1.568528
    8 9.538607 12.176788 -0.507388 0.019412 -0.056377 3.115553
    9 -0.002752 -0.001265 -0.003287 0.000000 0.000000 0.000000
    10 7.470204 0.075550 -6.405427 0.533563 -2.167900 -0.724590
    11 7.917539 -0.886147 -0.399814 -1.569316 -0.028161 -3.173684
    12 -0.048483 -8.463579 -0.092415 -0.264150 0.538643 0.333648
    13 -0.488518 -2.755602 -0.228260 -0.242250 0.060691 -0.057732
    14 0.039887 -1.538386 0.018135 -1.634758 -0.010403 0.036650
    15 0.028786 -1.134327 -0.109049 -0.791864 -0.013746 0.015532
    16 0.250027 -2.820665 -0.238396 -0.313985 0.018280 -0.085804
    17 -0.049759 -1.602417 0.049696 -1.312009 0.004662 -0.036064
    18 -0.034142 -1.175657 0.045718 -1.263189 0.005489 -0.033341
    19 0.957766 -2.746780 -0.090302 0.167150 -0.150256 0.099289
    20 -0.033420 -1.393223 -0.019070 -0.517853 0.008329 -0.025205
    21 -0.022360 -0.957436 0.007065 -0.527929 0.007982 -0.025323
    22 -1.180681 -2.507217 -0.193859 -0.150629 0.142428 -0.022097
    23 -0.024967 -1.123934 0.017597 -0.759772 0.006951 -0.032333
    24 -0.020057 -0.906594 0.037435 -1.161982 0.002397 -0.047687
    25 0.603042 -1.197277 0.181473 0.666402 -0.922572 -1.051051
    26 1.504676 -0.177260 -0.006710 0.213418 0.065484 -0.624307
    27 1.049988 -0.147821 0.032291 0.039018 -0.188604 -0.767764
    28 0.120153 -0.050270 -0.054489 0.287569 3.110905 1.561085
    29 -0.348896 -1.742872 -10.837551 -1.743326 -5.497515 -1.435292
    30 0.132101 -8.489482 -0.036710 0.430564 -0.072756 0.120554
    31 0.447953 -2.798986 -0.200443 -0.244439 -0.056549 0.060325
    32 -0.032909 -1.499736 0.024472 -1.286546 0.022998 -0.023524
    33 -0.027022 -1.096452 -0.028023 -0.524789 0.013722 -0.005621
    34 -0.249534 -2.846964 -0.174213 -0.316343 -0.019324 0.076958
    35 0.043235 -1.656596 0.076480 -1.215735 -0.019648 0.004291
    36 0.031729 -1.149111 0.058838 -0.758918 -0.007903 0.005292
    37 -0.963866 -2.785145 -0.085350 -0.133536 0.264013 -0.032832
    38 0.028479 -1.403067 -0.009354 -0.611716 -0.012368 -0.024940
    39 0.021413 -0.942156 0.012233 -1.051190 -0.028955 -0.035163
    40 1.164475 -2.543940 -0.170330 -0.166622 -0.161422 -0.083745
    41 0.024032 -1.136855 -0.001725 -0.790999 0.004494 0.042151
    42 0.014898 -0.903521 -0.015942 -1.038482 0.010007 0.051857
    43 -0.586770 -1.264477 0.200161 -0.200114 -0.096951 -2.129323
    44 1.530648 0.054775 0.009035 0.154202 -0.079650 0.158043
    45 1.106228 0.052330 -0.001860 0.312990 -0.289446 0.975210
    46 -0.139399 -0.111698 0.014397 0.285382 -0.030687 1.580508
    47 -7.518657 -2.649455 -0.477722 1.555517 -0.038891 0.256284
  time 13
    0 3.297765 -8.634412 -0.443537 -1.716446 0.623191 1.042977
    1 -0.881688 0.301299 0.000000 0.000001 0.000000 -1.382160
    2 1.671935 4.611084 0.000000 0.000000 0.000000 1.232289
    3 -0.763543 -0.089952 0.631852 -0.002283 1.570796 0.000000
    4 1.384421 -0.042067 0.000000 0.000000 0.000000 1.345677
    5 0.660750 -0.739376 0.000000 0.000000 0.000000 0.002283
    6 -0.736122 -1.726717 0.123753 1.570770 -1.561760 1.573105
    7 -0.736128 -1.724683 -0.137291 -1.570821 1.561648 -1.568540
    8 9.538607 12.176788 -0.507388 0.019412 -0.056377 3.115553
    9 -0.002752 -0.001265 -0.003287 0.000000 0.000000 0.000000
    10 7.220196 0.091176 -6.448397 0.512031 -2.126305 -0.661019
    11 8.011292 -0.323630 -0.392002 -1.570466 -0.027110 -3.103654
    12 -0.048483 -8.487017 -0.092415 -0.195569 0.517907 0.443892
    13 -0.488518 -2.755602 -0.228260 -0.242250 0.060691 -0.057732
    14 0.039887 -1.538386 0.018135 -1.634758 -0.010403 0.036650
    15 0.028786 -1.134327 -0.109049 -0.791864 -0.013746 0.015532
    16 0.250027 -2.820665 -0.238396 -0.313985 0.018280 -0.085804
    17 -0.049759 -1.602417 0.049696 -1.312009 0.004662 -0.036064
    18 -0.034142 -1.175657 0.045718 -1.263189 0.005489 -0.033341
    19 0.957766 -2.746780 -0.090302 0.167150 -0.150256 0.099289
    20 -0.033420 -1.393223 -0.019070 -0.517853 0.008329 -0.025205
    21 -0.022360 -0.957436 0.007065 -0.527929 0.007982 -0.025323
    22 -1.180681 -2.507217 -0.193859 -0.150629 0.142428 -0.022097
    23 -0.024967 -1.123934 0.017597 -0.759772 0.006951 -0.032333
    24 -0.020057 -0.906594 0.037435 -1.161982 0.002397 -0.047687
    25 0.603042 -1.197277 0.181473 0.666402 -0.922572 -1.051051
    26 1.504676 -0.177260 -0.006710 0.213418 0.065484 -0.624307
    27 1.049988 -0.147821 0.032291 0.039018 -0.188604 -0.767764
    28 0.120153 -0.050270 -0.054489 0.287569 3.110905 1.561085
    29 -0.274675 -2.028037 -10.751611 -1.751936 -5.470913 -1.445154
    30 0.132101 -8.489482 -0.036710 0.345352 -0.057308 0.051044
    31 0.447953 -2.798986 -0.200443 -0.244439 -0.056549 0.060325
    32 -0.032909 -1.499736 0.024472 -1.286546 0.022998 -0.023524
    33 -0.027022 -1.096452 -0.028023 -0.524789 0.013722 -0.005621
    34 -0.249534 -2.846964 -0.174213 -0.316343 -0.019324 0.076958
    35 0.043235 -1.656596 0.076480 -1.215735 -0.019648 0.004291
    36 0.031729 -1.149111 0.058838 -0.758918 -0.007903 0.005292
    37 -0.963866 -2.785145 -0.085350 -0.133536 0.264013 -0.032832
    38 0.028479 -1.403067 -0.009354 -0.611716 -0.012368 -0.024940
    39 0.021413 -0.942156 0.012233 -1.051190 -0.028955 -0.035163
    40 1.164475 -2.543940 -0.170330 -0.166622 -0.161422 -0.083745
    41 0.024032 -1.136855 -0.001725 -0.790999 0.004494 0.042151
    42 0.014898 -0.903521 -0.015942 -1.038482 0.010007 0.051857
    43 -0.586770 -1.264477 0.200161 -0.200114 -0.096951 -2.129323
    44 1.530648 0.054775 0.009035 0.154202 -0.079650 0.158043
    45 1.106228 0.052330 -0.001860 0.312990 -0.289446 0.975210
    46 -0.139399 -0.111698 0.014397 0.285382 -0.030687 1.580508
    47 -7.764758 -2.040061 -0.481628 1.557650 -0.038772 0.176531
  time 14
    0 3.696214 -8.767228 -0.525571 -1.688385 0.684152 1.122263
    1 -0.881688 0.301299 0.000000 0.000001 0.000000 -1.382160
    2 1.671935 4.611084 0.000000 0.000000 0.000000 1.232289
    3 -0.763543 -0.089952 0.631852 -0.002283 1.570796 0.000000
    4 1.384421 -0.042067 0.000000 0.000000 0.000000 1.345677
    5 0.660750 -0.739376 0.000000 0.000000 0.000000 0.002283
    6 -0.736122 -1.726717 0.123753 1.570770 -1.561760 1.573105
    7 -0.736128 -1.724683 -0.137291 -1.570809 1.561648 -1.568528
    8 9.538607 12.176788 -0.507388 0.019412 -0.056377 3.115553
    9 -0.002752 -0.001265 -0.003287 0.000000 0.000000 0.000000
    10 7.095192 0.044299 -6.491367 0.486575 -2.105769 -0.603863
    11 8.058169 0.113883 -0.384189 1.570358 -3.115211 0.091945
    12 -0.044576 -8.502643 -0.088509 -0.122093 0.504868 0.528725
    13 -0.488518 -2.755602 -0.228260 -0.242250 0.060691 -0.057732
    14 0.039887 -1.538386 0.018135 -1.634758 -0.010403 0.036650
    15 0.028786 -1.134327 -0.109049 -0.791864 -0.013746 0.015532
    16 0.250027 -2.820665 -0.238396 -0.313985 0.018280 -0.085804
    17 -0.049759 -1.602417 0.049696 -1.312009 0.004662 -0.036064
    18 -0.034142 -1.175657 0.045718 -1.263189 0.005489 -0.033341
    19 0.957766 -2.746780 -0.090302 0.167150 -0.150256 0.099289
    20 -0.033420 -1.393223 -0.019070 -0.517853 0.008329 -0.025205
    21 -0.022360 -0.957436 0.007065 -0.527929 0.007982 -0.025323
    22 -1.180681 -2.507217 -0.193859 -0.150629 0.142428 -0.022097
    23 -0.024967 -1.123934 0.017597 -0.759772 0.006951 -0.032333
    24 -0.020057 -0.906594 0.037435 -1.161982 0.002397 -0.047687
    25 0.603042 -1.197277 0.181473 0.666402 -0.922572 -1.051051
    26 1.504676 -0.177260 -0.006710 0.213418 0.065484 -0.624307
    27 1.049988 -0.147821 0.032291 0.039018 -0.188604 -0.767764
    28 0.120153 -0.050270 -0.054489 0.287569 3.110905 1.561085
    29 -0.177016 -2.332734 -10.630514 -1.758894 -5.448911 -1.449559
    30 0.136008 -8.489482 -0.040616 0.267274 -0.050709 -0.003953
    31 0.447953 -2.798986 -0.200443 -0.244439 -0.056549 0.060325
    32 -0.032909 -1.499736 0.024472 -1.286546 0.022998 -0.023524
    33 -0.027022 -1.096452 -0.028023 -0.524789 0.013722 -0.005621
    34 -0.249534 -2.846964 -0.174213 -0.316343 -0.019324 0.076958
    35 0.043235 -1.656596 0.076480 -1.215735 -0.019648 0.004291
    36 0.031729 -1.149111 0.058838 -0.758918 -0.007903 0.005292
    37 -0.963866 -2.785145 -0.085350 -0.133536 0.264013 -0.032832
    38 0.028479 -1.403067 -0.009354 -0.611716 -0.012368 -0.024940
    39 0.021413 -0.942156 0.012233 -1.051190 -0.028955 -0.035163
    40 1.164475 -2.543940 -0.170330 -0.166622 -0.161422 -0.083745
    41 0.024032 -1.136855 -0.001725 -0.790999 0.004494 0.042151
    42 0.014898 -0.903521 -0.015942 -1.038482 0.010007 0.051857
    43 -0.586770 -1.264477 0.200161 -0.200114 -0.096951 -2.129323
    44 1.530648 0.054775 0.009035 0.154202 -0.079650 0.158043
    45 1.106228 0.052330 -0.001860 0.312990 -0.289446 0.975210
    46 -0.139399 -0.111698 0.014397 0.285382 -0.030687 1.580508
    47 -7.963983 -1.403323 -0.481628 1.559795 -0.038472 0.095452
  time 15
    0 4.079039 -8.931296 -0.595885 -1.654141 0.727412 1.206323
    1 -0.881688 0.301299 0.000000 0.000001 0.000000 -1.382160
    2 1.671935 4.611084 0.000000 0.000000 0.000000 1.232289
    3 -0.763543 -0.089952 0.631852 -0.002283 1.570796 0.000000
    4 1.384421 -0.042067 0.000000 0.000000 0.000000 1.345677
    5 0.660750 -0.739376 0.000000 0.000000 0.000000 0.002283
    6 -0.736122 -1.726717 0.123753 1.570770 -1.561760 1.573105
    7 -0.736128 -1.724683 -0.137291 -1.570809 1.561648 -1.568528
    8 9.538607 12.176788 -0.507388 0.019412 -0.056377 3.115553
    9 -0.002752 -0.001265 -0.003287 0.000000 0.000000 0.000000
    10 7.063941 -0.037735 -6.538244 0.459015 -2.100823 -0.553313
    11 8.073794 0.442018 -0.380282 1.569782 -3.115880 0.132352
    12 -0.040670 -8.518268 -0.084602 -0.046169 0.495813 0.590090
    13 -0.488518 -2.755602 -0.228260 -0.242250 0.060691 -0.057732
    14 0.039887 -1.538386 0.018135 -1.634758 -0.010403 0.036650
    15 0.028786 -1.134327 -0.109049 -0.791864 -0.013746 0.015532
    16 0.250027 -2.820665 -0.238396 -0.313985 0.018280 -0.085804
    17 -0.049759 -1.602417 0.049696 -1.312009 0.004662 -0.036064
    18 -0.034142 -1.175657 0.045718 -1.263189 0.005489 -0.033341
    19 0.957766 -2.746780 -0.090302 0.167150 -0.150256 0.099289
    20 -0.033420 -1.393223 -0.019070 -0.517853 0.008329 -0.025205
    21 -0.022360 -0.957436 0.007065 -0.527929 0.007982 -0.025323
    22 -1.180681 -2.507217 -0.193859 -0.150629 0.142428 -0.022097
    23 -0.024967 -1.123934 0.017597 -0.759772 0.006951 -0.032333
    24 -0.020057 -0.906594 0.037435 -1.161982 0.002397 -0.047687
    25 0.603042 -1.197277 0.181473 0.666402 -0.922572 -1.051051
    26 1.504676 -0.177260 -0.006710 0.213418 0.065484 -0.624307
    27 1.049988 -0.147821 0.032291 0.039018 -0.188604 -0.767764
    28 0.120153 -0.050270 -0.054489 0.287569 3.110905 1.561085
    29 -0.063731 -2.633524 -10.493791 -1.765617 -5.427997 -1.450325
    30 0.136008 -8.489482 -0.040616 0.197678 -0.052159 -0.046355
    31 0.447953 -2.798986 -0.200443 -0.244439 -0.056549 0.060325
    32 -0.032909 -1.499736 0.024472 -1.286546 0.022998 -0.023524
    33 -0.027022 -1.096452 -0.028023 -0.524789 0.013722 -0.005621
    34 -0.249534 -2.846964 -0.174213 -0.316343 -0.019324 0.076958
    35 0.043235 -1.656596 0.076480 -1.215735 -0.019648 0.004291
    36 0.031729 -1.149111 0.058838 -0.758918 -0.007903 0.005292
    37 -0.963866 -2.785145 -0.085350 -0.133536 0.264013 -0.032832
    38 0.028479 -1.403067 -0.009354 -0.611716 -0.012368 -0.024940
    39 0.021413 -0.942156 0.012233 -1.051190 -0.028967 -0.035163
    40 1.164475 -2.543940 -0.170330 -0.166622 -0.161422 -0.083745
    41 0.024032 -1.136855 -0.001725 -0.790999 0.004494 0.042151
    42 0.014898 -0.903521 -0.015942 -1.038482 0.010007 0.051857
    43 -0.586770 -1.264477 0.200161 -0.200114 -0.096951 -2.129323
    44 1.530648 0.054775 0.009035 0.154202 -0.079650 0.158043
    45 1.106228 0.052330 -0.001860 0.312990 -0.289446 0.975210
    46 -0.139399 -0.111698 0.014397 0.285382 -0.030687 1.580508
    47 -8.108519 -0.750959 -0.481628 1.561916 -0.038005 0.014233
  time 16
    0 4.438424 -9.126614 -0.677919 -1.616948 0.751929 1.291991
    1 -0.881688 0.301299 0.000000 0.000001 0.000000 -1.382160
    2 1.671935 4.611084 0.000000 0.000000 0.000000 1.232289
    3 -0.763543 -0.089952 0.631852 -0.002283 1.570796 0.000000
    4 1.384421 -0.042067 0.000000 0.000000 0.000000 1.345677
    5 0.660750 -0.739376 0.000000 0.000000 0.000000 0.002283
    6 -0.736122 -1.726717 0.123753 1.570770 -1.561760 1.573105
    7 -0.736128 -1.724683 -0.137291 -1.570809 1.561648 -1.568528
    8 9.538607 12.176788 -0.507388 0.019412 -0.056377 3.115553
    9 -0.002752 -0.001265 -0.003287 0.000000 0.000000 0.000000
    10 7.106911 -0.135394 -6.592933 0.430880 -2.105544 -0.508603
    11 8.081607 0.684213 -0.376376 1.569399 -3.116357 0.161770
    12 -0.032857 -8.533894 -0.084602 0.027081 0.489112 0.629181
    13 -0.488518 -2.755602 -0.228260 -0.242250 0.060691 -0.057732
    14 0.039887 -1.538386 0.018135 -1.634758 -0.010403 0.036650
    15 0.028786 -1.134327 -0.109049 -0.791864 -0.013746 0.015532
    16 0.250027 -2.820665 -0.238396 -0.313985 0.018280 -0.085804
    17 -0.049759 -1.602417 0.049696 -1.312009 0.004662 -0.036064
    18 -0.034142 -1.175657 0.045718 -1.263189 0.005489 -0.033341
    19 0.957766 -2.746780 -0.090302 0.167150 -0.150256 0.099289
    20 -0.033420 -1.393223 -0.019070 -0.517853 0.008329 -0.025205
    21 -0.022360 -0.957436 0.007065 -0.527929 0.007982 -0.025323
    22 -1.180681 -2.507217 -0.193859 -0.150629 0.142428 -0.022097
    23 -0.024967 -1.123934 0.017597 -0.759772 0.006951 -0.032333
    24 -0.020057 -0.906594 0.037435 -1.161982 0.002397 -0.047687
    25 0.603042 -1.197277 0.181473 0.666402 -0.922572 -1.051051
    26 1.504676 -0.177260 -0.006710 0.213418 0.065484 -0.624307
    27 1.049988 -0.147821 0.032291 0.039018 -0.188604 -0.767764
    28 0.120153 -0.050270 -0.054489 0.287569 3.110905 1.561085
    29 0.061273 -2.906970 -10.345349 -1.773578 -5.405243 -1.449463
    30 0.136008 -8.485576 -0.044522 0.137639 -0.060862 -0.077721
    31 0.447953 -2.798986 -0.200443 -0.244439 -0.056549 0.060325
    32 -0.032909 -1.499736 0.024472 -1.286546 0.022998 -0.023524
    33 -0.027022 -1.096452 -0.028023 -0.524789 0.013722 -0.005621
    34 -0.249534 -2.846964 -0.174213 -0.316343 -0.019324 0.076958
    35 0.043235 -1.656596 0.076480 -1.215735 -0.019648 0.004291
    36 0.031729 -1.149111 0.058838 -0.758918 -0.007903 0.005292
    37 -0.963866 -2.785145 -0.085350 -0.133536 0.264013 -0.032832
    38 0.028479 -1.403067 -0.009354 -0.611716 -0.012368 -0.024940
    39 0.021413 -0.942156 0.012233 -1.051190 -0.028955 -0.035163
    40 1.164475 -2.543940 -0.170330 -0.166622 -0.161422 -0.083745
    41 0.024032 -1.136855 -0.001725 -0.790999 0.004494 0.042151
    42 0.014898 -0.903521 -0.015942 -1.038482 0.010007 0.051857
    43 -0.586770 -1.264477 0.200161 -0.200114 -0.096951 -2.129323
    44 1.530648 0.054775 0.009035 0.154202 -0.079650 0.158043
    45 1.106228 0.052330 -0.001860 0.312990 -0.289446 0.975210
    46 -0.139399 -0.111698 0.014397 0.285382 -0.030687 1.580508
    47 -8.198365 -0.094689 -0.477722 1.563966 -0.037369 -0.066078
  time 17
    0 4.778279 -9.357090 -0.783391 -1.581182 0.757040 1.374895
    1 -0.881688 0.301299 0.000000 0.000001 0.000000 -1.382160
    2 1.671935 4.611084 0.000000 0.000000 0.000000 1.232289
    3 -0.763543 -0.089952 0.631852 -0.002283 1.570796 0.000000
    4 1.384421 -0.042067 0.000000 0.000000 0.000000 1.345677
    5 0.660750 -0.739376 0.000000 0.000000 0.000000 0.002283
    6 -0.736122 -1.726717 0.123753 1.570770 -1.561760 1.573105
    7 -0.736128 -1.724683 -0.137291 -1.570809 1.561648 -1.568528
    8 9.538607 12.176788 -0.507388 0.019412 -0.056377 3.115553
    9 -0.002752 -0.001265 -0.003287 0.000000 0.000000 0.000000
    10 7.185039 -0.229147 -6.655435 0.402936 -2.114163 -0.467722
    11 8.077701 0.863906 -0.376376 1.569111 -3.116739 0.183749
    12 -0.025045 -8.541706 -0.084602 0.091764 0.484132 0.647001
    13 -0.488518 -2.755602 -0.228260 -0.242250 0.060691 -0.057732
    14 0.039887 -1.538386 0.018135 -1.634758 -0.010403 0.036650
    15 0.028786 -1.134327 -0.109049 -0.791864 -0.013746 0.015532
    16 0.250027 -2.820665 -0.238396 -0.313985 0.018280 -0.085804
    17 -0.049759 -1.602417 0.049696 -1.312009 0.004662 -0.036064
    18 -0.034142 -1.175657 0.045718 -1.263189 0.005489 -0.033341
    19 0.957766 -2.746780 -0.090302 0.167150 -0.150256 0.099289
    20 -0.033420 -1.393223 -0.019070 -0.517853 0.008329 -0.025205
    21 -0.022360 -0.957436 0.007065 -0.527929 0.007982 -0.025323
    22 -1.180681 -2.507217 -0.193859 -0.150629 0.142428 -0.022097
    23 -0.024967 -1.123934 0.017597 -0.759772 0.006951 -0.032333
    24 -0.020057 -0.906594 0.037435 -1.161982 0.002397 -0.047687
    25 0.603042 -1.197277 0.181473 0.666402 -0.922572 -1.051051
    26 1.504676 -0.177260 -0.006710 0.213418 0.065484 -0.624307
    27 1.049988 -0.147821 0.032291 0.039018 -0.188604 -0.767764
    28 0.120153 -0.050270 -0.054489 0.287569 3.110905 1.561085
    29 0.182370 -3.141352 -10.204720 -1.783957 -5.378640 -1.448601
    30 0.136008 -8.485576 -0.040616 0.087831 -0.076201 -0.099365
    31 0.447953 -2.798986 -0.200443 -0.244439 -0.056549 0.060325
    32 -0.032909 -1.499736 0.024472 -1.286546 0.022998 -0.023524
    33 -0.027022 -1.096452 -0.028023 -0.524789 0.013722 -0.005621
    34 -0.249534 -2.846964 -0.174213 -0.316343 -0.019324 0.076958
    35 0.043235 -1.656596 0.076480 -1.215735 -0.019648 0.004291
    36 0.031729 -1.149111 0.058838 -0.758918 -0.007903 0.005292
    37 -0.963866 -2.785145 -0.085350 -0.133536 0.264013 -0.032832
    38 0.028479 -1.403067 -0.009354 -0.611716 -0.012368 -0.024940
    39 0.021413 -0.942156 0.012233 -1.051190 -0.028967 -0.035163
    40 1.164475 -2.543940 -0.170330 -0.166622 -0.161422 -0.083745
    41 0.024032 -1.136855 -0.001725 -0.790999 0.004494 0.042151
    42 0.014898 -0.903521 -0.015942 -1.038482 0.010007 0.051857
    43 -0.586770 -1.264477 0.200161 -0.200114 -0.096951 -2.129323
    44 1.530648 0.054775 0.009035 0.154202 -0.079650 0.158043
    45 1.106228 0.052330 -0.001860 0.312990 -0.289446 0.975210
    46 -0.139399 -0.111698 0.014397 0.285382 -0.030687 1.580508
    47 -8.237429 0.549862 -0.473815 1.565907 -0.036590 -0.144503
  time 18
    0 5.102507 -9.630536 -0.939646 -1.551409 0.742841 1.450363
    1 -0.881688 0.301299 0.000000 0.000001 0.000000 -1.382160
    2 1.671935 4.611084 0.000000 0.000000 0.000000 1.232289
    3 -0.763543 -0.089952 0.631852 -0.002283 1.570796 0.000000
    4 1.384421 -0.042067 0.000000 0.000000 0.000000 1.345677
    5 0.660750 -0.739376 0.000000 0.000000 0.000000 0.002283
    6 -0.736122 -1.726717 0.123753 1.570770 -1.561760 1.573105
    7 -0.736128 -1.724683 -0.137291 -1.570809 1.561648 -1.568528
    8 9.538607 12.176788 -0.507388 0.019412 -0.056377 3.115553
    9 -0.002752 -0.001265 -0.003287 0.000000 0.000000 0.000000
    10 7.274885 -0.311180 -6.721843 0.374801 -2.120534 -0.428182
    11 8.073794 1.016255 -0.372470 1.568920 -3.117121 0.202383
    12 -0.021138 -8.549519 -0.080696 0.141670 0.480283 0.644930
    13 -0.488518 -2.755602 -0.228260 -0.242250 0.060691 -0.057732
    14 0.039887 -1.538386 0.018135 -1.634758 -0.010403 0.036650
    15 0.028786 -1.134327 -0.109049 -0.791864 -0.013746 0.015532
    16 0.250027 -2.820665 -0.238396 -0.313985 0.018280 -0.085804
    17 -0.049759 -1.602417 0.049696 -1.312009 0.004662 -0.036064
    18 -0.034142 -1.175657 0.045718 -1.263189 0.005489 -0.033341
    19 0.957766 -2.746780 -0.090302 0.167150 -0.150256 0.099289
    20 -0.033420 -1.393223 -0.019070 -0.517853 0.008329 -0.025205
    21 -0.022360 -0.957436 0.007065 -0.527929 0.007982 -0.025323
    22 -1.180681 -2.507217 -0.193859 -0.150629 0.142428 -0.022097
    23 -0.024967 -1.123934 0.017597 -0.759772 0.006951 -0.032333
    24 -0.020057 -0.906594 0.037435 -1.161982 0.002397 -0.047687
    25 0.603042 -1.197277 0.181473 0.666402 -0.922572 -1.051051
    26 1.504676 -0.177260 -0.006710 0.213418 0.065484 -0.624307
    27 1.049988 -0.147821 0.032291 0.039018 -0.188604 -0.767764
    28 0.120153 -0.050270 -0.054489 0.287569 3.110905 1.561085
    29 0.303467 -3.328858 -10.083622 -1.797874 -5.346517 -1.449559
    30 0.132101 -8.481669 -0.040616 0.048747 -0.097596 -0.112600
    31 0.447953 -2.798986 -0.200443 -0.244439 -0.056549 0.060325
    32 -0.032909 -1.499736 0.024472 -1.286546 0.022998 -0.023524
    33 -0.027022 -1.096452 -0.028023 -0.524789 0.013722 -0.005621
    34 -0.249534 -2.846964 -0.174213 -0.316343 -0.019324 0.076958
    35 0.043235 -1.656596 0.076480 -1.215735 -0.019648 0.004291
    36 0.031729 -1.149111 0.058838 -0.758918 -0.007903 0.005292
    37 -0.963866 -2.785145 -0.085350 -0.133536 0.264013 -0.032832
    38 0.028479 -1.403067 -0.009354 -0.611716 -0.012368 -0.024940
    39 0.021413 -0.942156 0.012233 -1.051190 -0.028955 -0.035163
    40 1.164475 -2.543940 -0.170330 -0.166622 -0.161422 -0.083745
    41 0.024032 -1.136855 -0.001725 -0.790999 0.004494 0.042151
    42 0.014898 -0.903521 -0.015942 -1.038482 0.010007 0.051857
    43 -0.586770 -1.264477 0.200161 -0.200114 -0.096951 -2.129323
    44 1.530648 0.054775 0.009035 0.154202 -0.079650 0.158043
    45 1.106228 0.052330 -0.001860 0.312990 -0.289446 0.975210
    46 -0.139399 -0.111698 0.014397 0.285382 -0.030687 1.580508
    47 -8.229616 1.174881 -0.469909 1.567729 -0.035692 -0.220345
  time 19
    0 5.399391 -9.950858 -1.166215 -1.531243 0.709710 1.514576
    1 -0.881688 0.301299 0.000000 0.000001 0.000000 -1.382160
    2 1.671935 4.611084 0.000000 0.000000 0.000000 1.232289
    3 -0.763543 -0.089952 0.631852 -0.002283 1.570796 0.000000
    4 1.384421 -0.042067 0.000000 0.000000 0.000000 1.345677
    5 0.660750 -0.739376 0.000000 0.000000 0.000000 0.002283
    6 -0.736122 -1.726717 0.123753 1.570770 -1.561760 1.573105
    7 -0.736128 -1.724683 -0.137291 -1.570809 1.561648 -1.568528
    8 9.538607 12.176788 -0.507388 0.019412 -0.056377 3.115553
    9 -0.002752 -0.001265 -0.003287 0.000000 0.000000 0.000000
    10 7.341293 -0.385401 -6.796064 0.345518 -2.118810 -0.386727
    11 8.065982 1.176416 -0.368563 1.568632 -3.117408 0.222313
    12 -0.021138 -8.549519 -0.080696 0.170680 0.476027 0.624224
    13 -0.488518 -2.755602 -0.228260 -0.242250 0.060691 -0.057732
    14 0.039887 -1.538386 0.018135 -1.634758 -0.010403 0.036650
    15 0.028786 -1.134327 -0.109049 -0.791864 -0.013746 0.015532
    16 0.250027 -2.820665 -0.238396 -0.313985 0.018280 -0.085804
    17 -0.049759 -1.602417 0.049696 -1.312009 0.004662 -0.036064
    18 -0.034142 -1.175657 0.045718 -1.263189 0.005489 -0.033341
    19 0.957766 -2.746780 -0.090302 0.167150 -0.150256 0.099289
    20 -0.033420 -1.393223 -0.019070 -0.517853 0.008329 -0.025205
    21 -0.022360 -0.957436 0.007065 -0.527929 0.007982 -0.025323
    22 -1.180681 -2.507217 -0.193859 -0.150629 0.142428 -0.022097
    23 -0.024967 -1.123934 0.017597 -0.759772 0.006951 -0.032333
    24 -0.020057 -0.906594 0.037435 -1.161982 0.002397 -0.047687
    25 0.603042 -1.197277 0.181473 0.666402 -0.922572 -1.051051
    26 1.504676 -0.177260 -0.006710 0.213418 0.065484 -0.624307
    27 1.049988 -0.147821 0.032291 0.039018 -0.188604 -0.767764
    28 0.120153 -0.050270 -0.054489 0.287569 3.110905 1.561085
    29 0.412846 -3.469487 -9.997682 -1.816568 -5.307533 -1.453963
    30 0.128195 -8.477763 -0.036710 0.020523 -0.124828 -0.118703
    31 0.447953 -2.798986 -0.200443 -0.244439 -0.056549 0.060325
    32 -0.032909 -1.499736 0.024472 -1.286546 0.022998 -0.023524
    33 -0.027022 -1.096452 -0.028023 -0.524789 0.013722 -0.005621
    34 -0.249534 -2.846964 -0.174213 -0.316343 -0.019324 0.076958
    35 0.043235 -1.656596 0.076480 -1.215735 -0.019648 0.004291
    36 0.031729 -1.149111 0.058838 -0.758918 -0.007903 0.005292
    37 -0.963866 -2.785145 -0.085350 -0.133536 0.264013 -0.032832
    38 0.028479 -1.403067 -0.009354 -0.611716 -0.012368 -0.024940
    39 0.021413 -0.942156 0.012233 -1.051190 -0.028955 -0.035163
    40 1.164475 -2.543940 -0.170330 -0.166622 -0.161422 -0.083745
    41 0.024032 -1.136855 -0.001725 -0.790999 0.004494 0.042151
    42 0.014898 -0.903521 -0.015942 -1.038482 0.010007 0.051857
    43 -0.586770 -1.264477 0.200161 -0.200114 -0.096951 -2.129323
    44 1.530648 0.054775 0.009035 0.154202 -0.079650 0.158043
    45 1.106228 0.052330 -0.001860 0.312990 -0.289446 0.975210
    46 -0.139399 -0.111698 0.014397 0.285382 -0.030687 1.580508
    47 -8.174927 1.768649 -0.462096 1.569407 -0.034709 -0.292904
  time 20
    0 5.469706 -10.763383 -1.990459 -1.590219 0.494264 1.494679
    1 -0.881688 0.301299 0.000000 0.000001 0.000000 -1.382160
    2 1.671935 4.611084 0.000000 0.000000 0.000000 1.232289
    3 -0.763543 -0.089952 0.631852 -0.002283 1.570796 0.000000
    4 1.384421 -0.042067 0.000000 0.000000 0.000000 1.345677
    5 0.660750 -0.739376 0.000000 0.000000 0.000000 0.002283
    6 -0.736122 -1.726717 0.123753 1.570770 -1.561760 1.573105
    7 -0.736128 -1.724683 -0.137291 -1.570809 1.561648 -1.568528
    8 9.538607 12.176788 -0.507388 0.019412 -0.056377 3.115553
    9 -0.002752 -0.001265 -0.003287 0.000000 0.000000 0.000000
    10 7.556144 -0.361963 -7.042165 0.318819 -2.114538 -0.355803
    11 8.077701 0.848281 -0.376376 1.569111 -3.116739 0.182042
    12 -0.036764 -8.510455 -0.084602 0.045257 0.486169 0.392064
    13 -0.488518 -2.755602 -0.228260 -0.242250 0.060691 -0.057732
    14 0.039887 -1.538386 0.018135 -1.634758 -0.010403 0.036650
    15 0.028786 -1.134327 -0.109049 -0.791864 -0.013746 0.015532
    16 0.250027 -2.820665 -0.238396 -0.313985 0.018280 -0.085804
    17 -0.049759 -1.602417 0.049696 -1.312009 0.004662 -0.036064
    18 -0.034142 -1.175657 0.045718 -1.263189 0.005489 -0.033341
    19 0.957766 -2.746780 -0.090302 0.167150 -0.150256 0.099289
    20 -0.033420 -1.393223 -0.019070 -0.517853 0.008329 -0.025205
    21 -0.022360 -0.957436 0.007065 -0.527929 0.007982 -0.025323
    22 -1.180681 -2.507217 -0.193859 -0.150629 0.142428 -0.022097
    23 -0.024967 -1.123934 0.017597 -0.759772 0.006951 -0.032333
    24 -0.020057 -0.906594 0.037435 -1.161982 0.002397 -0.047687
    25 0.603042 -1.197277 0.181473 0.666402 -0.922572 -1.051051
    26 1.504676 -0.177260 -0.006710 0.213418 0.065484 -0.624307
    27 1.049988 -0.147821 0.032291 0.039018 -0.188604 -0.767764
    28 0.120153 -0.050270 -0.054489 0.287569 3.110905 1.561085
    29 0.405033 -3.176510 -10.278941 -1.863685 -5.228897 -1.466027
    30 0.104757 -8.473857 -0.009365 0.100978 -0.235681 -0.035675
    31 0.447953 -2.798986 -0.200443 -0.244439 -0.056549 0.060325
    32 -0.032909 -1.499736 0.024472 -1.286546 0.022998 -0.023524
    33 -0.027022 -1.096452 -0.028023 -0.524789 0.013722 -0.005621
    34 -0.249534 -2.846964 -0.174213 -0.316343 -0.019324 0.076958
    35 0.043235 -1.656596 0.076480 -1.215735 -0.019648 0.004291
    36 0.031729 -1.149111 0.058838 -0.758918 -0.007903 0.005292
    37 -0.963866 -2.785145 -0.085350 -0.133536 0.264013 -0.032832
    38 0.028479 -1.403067 -0.009354 -0.611716 -0.012368 -0.024940
    39 0.021413 -0.942156 0.012233 -1.051190 -0.028955 -0.035163
    40 1.164475 -2.543940 -0.170330 -0.166622 -0.161422 -0.083745
    41 0.024032 -1.136855 -0.001725 -0.790999 0.004494 0.042151
    42 0.014898 -0.903521 -0.015942 -1.038482 0.010007 0.051857
    43 -0.586770 -1.264477 0.200161 -0.200114 -0.096951 -2.129323
    44 1.530648 0.054775 0.009035 0.154202 -0.079650 0.158043
    45 1.106228 0.052330 -0.001860 0.312990 -0.289446 0.975210
    46 -0.139399 -0.111698 0.014397 0.285382 -0.030687 1.580508
    47 -8.159302 1.878027 -0.462096 1.569706 -0.034517 -0.306383
  time 21
    0 5.469706 -11.650129 -3.076430 -1.637780 0.211988 1.478098
    1 -0.881688 0.301299 0.000000 0.000001 0.000000 -1.382160
    2 1.671935 4.611084 0.000000 0.000000 0.000000 1.232289
    3 -0.763543 -0.089952 0.631852 -0.002283 1.570796 0.000000
    4 1.384421 -0.042067 0.000000 0.000000 0.000000 1.345677
    5 0.660750 -0.739376 0.000000 0.000000 0.000000 0.002283
    6 -0.736122 -1.726717 0.123753 1.570770 -1.561760 1.573105
    7 -0.736128 -1.724683 -0.137291 -1.570809 1.561648 -1.568528
    8 9.538607 12.176788 -0.507388 0.019412 -0.056377 3.115553
    9 -0.002752 -0.001265 -0.003287 0.000000 0.000000 0.000000
    10 7.853028 -0.369776 -7.108574 0.277765 -2.102247 -0.331868
    11 8.077701 0.492801 -0.380282 1.569686 -3.115975 0.138563
    12 -0.040670 -8.463579 -0.092415 -0.105186 0.466021 0.095966
    13 -0.488518 -2.755602 -0.228260 -0.242250 0.060691 -0.057732
    14 0.039887 -1.538386 0.018135 -1.634758 -0.010403 0.036650
    15 0.028786 -1.134327 -0.109049 -0.791864 -0.013746 0.015532
    16 0.250027 -2.820665 -0.238396 -0.313985 0.018280 -0.085804
    17 -0.049759 -1.602417 0.049696 -1.312009 0.004662 -0.036064
    18 -0.034142 -1.175657 0.045718 -1.263189 0.005489 -0.033341
    19 0.957766 -2.746780 -0.090302 0.167150 -0.150256 0.099289
    20 -0.033420 -1.393223 -0.019070 -0.517853 0.008329 -0.025205
    21 -0.022360 -0.957436 0.007065 -0.527929 0.007982 -0.025323
    22 -1.180681 -2.507217 -0.193859 -0.150629 0.142428 -0.022097
    23 -0.024967 -1.123934 0.017597 -0.759772 0.006951 -0.032333
    24 -0.020057 -0.906594 0.037435 -1.161982 0.002397 -0.047687
    25 0.603042 -1.197277 0.181473 0.666402 -0.922572 -1.051051
    26 1.504676 -0.177260 -0.006710 0.213418 0.065484 -0.624307
    27 1.049988 -0.147821 0.032291 0.039018 -0.188604 -0.767764
    28 0.120153 -0.050270 -0.054489 0.287569 3.110905 1.561085
    29 0.365969 -2.781966 -10.583637 -1.905496 -5.161303 -1.471389
    30 0.073506 -8.462138 0.010167 0.181030 -0.383921 0.104871
    31 0.447953 -2.798986 -0.200443 -0.244439 -0.056549 0.060325
    32 -0.032909 -1.499736 0.024472 -1.286546 0.022998 -0.023524
    33 -0.027022 -1.096452 -0.028023 -0.524789 0.013722 -0.005621
    34 -0.249534 -2.846964 -0.174213 -0.316343 -0.019324 0.076958
    35 0.043235 -1.656596 0.076480 -1.215735 -0.019648 0.004291
    36 0.031729 -1.149111 0.058838 -0.758918 -0.007903 0.005292
    37 -0.963866 -2.785145 -0.085350 -0.133536 0.264013 -0.032832
    38 0.028479 -1.403067 -0.009354 -0.611716 -0.012368 -0.024940
    39 0.021413 -0.942156 0.012233 -1.051190 -0.028955 -0.035163
    40 1.164475 -2.543940 -0.170330 -0.166622 -0.161422 -0.083745
    41 0.024032 -1.136855 -0.001725 -0.790999 0.004494 0.042151
    42 0.014898 -0.903521 -0.015942 -1.038482 0.010007 0.051857
    43 -0.586770 -1.264477 0.200161 -0.200114 -0.096951 -2.129323
    44 1.530648 0.054775 0.009035 0.154202 -0.079650 0.158043
    45 1.106228 0.052330 -0.001860 0.312990 -0.289446 0.975210
    46 -0.139399 -0.111698 0.014397 0.285382 -0.030687 1.580508
    47 -8.174927 1.753023 -0.462096 1.569371 -0.034745 -0.291158
  time 22
    0 5.735339 -11.931387 -3.392846 -1.598209 0.086374 1.535226
    1 -0.881688 0.301299 0.000000 0.000001 0.000000 -1.382160
    2 1.671935 4.611084 0.000000 0.000000 0.000000 1.232289
    3 -0.763543 -0.089952 0.631852 -0.002283 1.570796 0.000000
    4 1.384421 -0.042067 0.000000 0.000000 0.000000 1.345677
    5 0.660750 -0.739376 0.000000 0.000000 0.000000 0.002283
    6 -0.736122 -1.726717 0.123753 1.570770 -1.561760 1.573105
    7 -0.736128 -1.724683 -0.137291 -1.570809 1.561648 -1.568528
    8 9.538607 12.176788 -0.507388 0.019412 -0.056377 3.115553
    9 -0.002752 -0.001265 -0.003287 0.000000 0.000000 0.000000
    10 8.157724 -0.201802 -6.561682 0.169149 -2.060951 -0.272319
    11 8.077701 0.484988 -0.380282 1.569686 -3.115975 0.137403
    12 -0.036764 -8.459673 -0.088509 -0.053285 0.468149 0.021486
    13 -0.488518 -2.755602 -0.228260 -0.242250 0.060691 -0.057732
    14 0.039887 -1.538386 0.018135 -1.634758 -0.010403 0.036650
    15 0.028786 -1.134327 -0.109049 -0.791864 -0.013746 0.015532
    16 0.250027 -2.820665 -0.238396 -0.313985 0.018280 -0.085804
    17 -0.049759 -1.602417 0.049696 -1.312009 0.004662 -0.036064
    18 -0.034142 -1.175657 0.045718 -1.263189 0.005489 -0.033341
    19 0.957766 -2.746780 -0.090302 0.167150 -0.150256 0.099289
    20 -0.033420 -1.393223 -0.019070 -0.517853 0.008329 -0.025205
    21 -0.022360 -0.957436 0.007065 -0.527929 0.007982 -0.025323
    22 -1.180681 -2.507217 -0.193859 -0.150629 0.142428 -0.022097
    23 -0.024967 -1.123934 0.017597 -0.759772 0.006951 -0.032333
    24 -0.020057 -0.906594 0.037435 -1.161982 0.002397 -0.047687
    25 0.603042 -1.197277 0.181473 0.666402 -0.922572 -1.051051
    26 1.504676 -0.177260 -0.006710 0.213418 0.065484 -0.624307
    27 1.049988 -0.147821 0.032291 0.039018 -0.188604 -0.767764
    28 0.120153 -0.050270 -0.054489 0.287569 3.110905 1.561085
    29 0.369876 -2.723371 -10.610982 -1.900247 -5.166239 -1.458942
    30 0.053974 -8.438699 0.014073 0.121350 -0.419965 0.255777
    31 0.447953 -2.798986 -0.200443 -0.244439 -0.056549 0.060325
    32 -0.032909 -1.499736 0.024472 -1.286546 0.022998 -0.023524
    33 -0.027022 -1.096452 -0.028023 -0.524789 0.013722 -0.005621
    34 -0.249534 -2.846964 -0.174213 -0.316343 -0.019324 0.076958
    35 0.043235 -1.656596 0.076480 -1.215735 -0.019648 0.004291
    36 0.031729 -1.149111 0.058838 -0.758918 -0.007903 0.005292
    37 -0.963866 -2.785145 -0.085350 -0.133536 0.264013 -0.032832
    38 0.028479 -1.403067 -0.009354 -0.611716 -0.012368 -0.024940
    39 0.021413 -0.942156 0.012233 -1.051190 -0.028955 -0.035163
    40 1.164475 -2.543940 -0.170330 -0.166622 -0.161422 -0.083745
    41 0.024032 -1.136855 -0.001725 -0.790999 0.004494 0.042151
    42 0.014898 -0.903521 -0.015942 -1.038482 0.010007 0.051857
    43 -0.586770 -1.264477 0.200161 -0.200114 -0.096951 -2.129323
    44 1.530648 0.054775 0.009035 0.154202 -0.079650 0.158043
    45 1.106228 0.052330 -0.001860 0.312990 -0.289446 0.975210
    46 -0.139399 -0.111698 0.014397 0.285382 -0.030687 1.580508
    47 -8.190552 1.620207 -0.466002 1.568987 -0.034972 -0.274747
  time 23
    0 6.040036 -11.974357 -3.435816 -1.541136 0.016137 1.588637
    1 -0.881688 0.301299 0.000000 0.000001 0.000000 -1.382160
    2 1.671935 4.611084 0.000000 0.000000 0.000000 1.232289
    3 -0.763543 -0.089952 0.631852 -0.002283 1.570796 0.000000
    4 1.384421 -0.042067 0.000000 0.000000 0.000000 1.345677
    5 0.660750 -0.739376 0.000000 0.000000 0.000000 0.002283
    6 -0.736122 -1.726717 0.123753 1.570770 -1.561760 1.573105
    7 -0.736128 -1.724683 -0.137291 -1.570809 1.561648 -1.568528
    8 9.538607 12.176788 -0.507388 0.019412 -0.056377 3.115553
    9 -0.002752 -0.001265 -0.003287 0.000000 0.000000 0.000000
    10 8.392107 0.001329 -5.772595 0.004263 -2.021005 -0.153889
    11 8.073794 0.445925 -0.380282 1.569782 -3.115880 0.132762
    12 -0.028951 -8.475298 -0.084602 0.036101 0.494138 0.040122
    13 -0.488518 -2.755602 -0.228260 -0.242250 0.060691 -0.057732
    14 0.039887 -1.538386 0.018135 -1.634758 -0.010403 0.036650
    15 0.028786 -1.134327 -0.109049 -0.791864 -0.013746 0.015532
    16 0.250027 -2.820665 -0.238396 -0.313985 0.018280 -0.085804
    17 -0.049759 -1.602417 0.049696 -1.312009 0.004662 -0.036064
    18 -0.034142 -1.175657 0.045718 -1.263189 0.005489 -0.033341
    19 0.957766 -2.746780 -0.090302 0.167150 -0.150256 0.099289
    20 -0.033420 -1.393223 -0.019070 -0.517853 0.008329 -0.025205
    21 -0.022360 -0.957436 0.007065 -0.527929 0.007982 -0.025323
    22 -1.180681 -2.507217 -0.193859 -0.150629 0.142428 -0.022097
    23 -0.024967 -1.123934 0.017597 -0.759772 0.006951 -0.032333
    24 -0.020057 -0.906594 0.037435 -1.161982 0.002397 -0.047687
    25 0.603042 -1.197277 0.181473 0.666402 -0.922572 -1.051051
    26 1.504676 -0.177260 -0.006710 0.213418 0.065484 -0.624307
    27 1.049988 -0.147821 0.032291 0.039018 -0.188604 -0.767764
    28 0.120153 -0.050270 -0.054489 0.287569 3.110905 1.561085
    29 0.381595 -2.742903 -10.575825 -1.882084 -5.193259 -1.439601
    30 0.046161 -8.411355 0.010167 0.049689 -0.404010 0.392277
    31 0.447953 -2.798986 -0.200443 -0.244439 -0.056549 0.060325
    32 -0.032909 -1.499736 0.024472 -1.286546 0.022998 -0.023524
    33 -0.027022 -1.096452 -0.028023 -0.524789 0.013722 -0.005621
    34 -0.249534 -2.846964 -0.174213 -0.316343 -0.019324 0.076958
    35 0.043235 -1.656596 0.076480 -1.215735 -0.019648 0.004291
    36 0.031729 -1.149111 0.058838 -0.758918 -0.007903 0.005292
    37 -0.963866 -2.785145 -0.085350 -0.133536 0.264013 -0.032832
    38 0.028479 -1.403067 -0.009354 -0.611716 -0.012368 -0.024940
    39 0.021413 -0.942156 0.012233 -1.051190 -0.028955 -0.035163
    40 1.164475 -2.543940 -0.170330 -0.166622 -0.161422 -0.083745
    41 0.024032 -1.136855 -0.001725 -0.790999 0.004494 0.042151
    42 0.014898 -0.903521 -0.015942 -1.038482 0.010007 0.051857
    43 -0.586770 -1.264477 0.200161 -0.200114 -0.096951 -2.129323
    44 1.530648 0.054775 0.009035 0.154202 -0.079650 0.158043
    45 1.106228 0.052330 -0.001860 0.312990 -0.289446 0.975210
    46 -0.139399 -0.111698 0.014397 0.285382 -0.030687 1.580508
    47 -8.210084 1.436607 -0.466002 1.568484 -0.035272 -0.252330
  time 24
    0 6.129882 -11.767320 -3.252216 -1.500043 0.040654 1.559947
    1 -0.881688 0.301299 0.000000 0.000001 0.000000 -1.382160
    2 1.671935 4.611084 0.000000 0.000000 0.000000 1.232289
    3 -0.763543 -0.089952 0.631852 -0.002283 1.570796 0.000000
    4 1.384421 -0.042067 0.000000 0.000000 0.000000 1.345677
    5 0.660750 -0.739376 0.000000 0.000000 0.000000 0.002283
    6 -0.736122 -1.726717 0.123753 1.570770 -1.561760 1.573105
    7 -0.736128 -1.724683 -0.137291 -1.570809 1.561648 -1.568528
    8 9.538607 12.176788 -0.507388 0.019412 -0.056377 3.115553
    9 -0.002752 -0.001265 -0.003287 0.000000 0.000000 0.000000
    10 8.587425 0.098988 -5.253048 6.157379 -2.003093 -0.046853
    11 8.054262 0.094351 -0.384189 1.570358 -3.115211 0.089556
    12 -0.028951 -8.490924 -0.080696 0.058448 0.507675 0.136311
    13 -0.488518 -2.755602 -0.228260 -0.242250 0.060691 -0.057732
    14 0.039887 -1.538386 0.018135 -1.634758 -0.010403 0.036650
    15 0.028786 -1.134327 -0.109049 -0.791864 -0.013746 0.015532
    16 0.250027 -2.820665 -0.238396 -0.313985 0.018280 -0.085804
    17 -0.049759 -1.602417 0.049696 -1.312009 0.004662 -0.036064
    18 -0.034142 -1.175657 0.045718 -1.263189 0.005489 -0.033341
    19 0.957766 -2.746780 -0.090302 0.167150 -0.150256 0.099289
    20 -0.033420 -1.393223 -0.019070 -0.517853 0.008329 -0.025205
    21 -0.022360 -0.957436 0.007065 -0.527929 0.007982 -0.025323
    22 -1.180681 -2.507217 -0.193859 -0.150629 0.142428 -0.022097
    23 -0.024967 -1.123934 0.017597 -0.759772 0.006951 -0.032333
    24 -0.020057 -0.906594 0.037435 -1.161982 0.002397 -0.047687
    25 0.603042 -1.197277 0.181473 0.666402 -0.922572 -1.051051
    26 1.504676 -0.177260 -0.006710 0.213418 0.065484 -0.624307
    27 1.049988 -0.147821 0.032291 0.039018 -0.188604 -0.767764
    28 0.120153 -0.050270 -0.054489 0.287569 3.110905 1.561085
    29 0.389408 -2.692120 -10.575825 -1.863921 -5.222371 -1.412984
    30 0.053974 -8.411355 0.002354 0.085183 -0.353352 0.408741
    31 0.447953 -2.798986 -0.200443 -0.244439 -0.056549 0.060325
    32 -0.032909 -1.499736 0.024472 -1.286546 0.022998 -0.023524
    33 -0.027022 -1.096452 -0.028023 -0.524789 0.013722 -0.005621
    34 -0.249534 -2.846964 -0.174213 -0.316343 -0.019324 0.076958
    35 0.043235 -1.656596 0.076480 -1.215735 -0.019648 0.004291
    36 0.031729 -1.149111 0.058838 -0.758918 -0.007903 0.005292
    37 -0.963866 -2.785145 -0.085350 -0.133536 0.264013 -0.032832
    38 0.028479 -1.403067 -0.009354 -0.611716 -0.012368 -0.024940
    39 0.021413 -0.942156 0.012233 -1.051190 -0.028955 -0.035163
    40 1.164475 -2.543940 -0.170330 -0.166622 -0.161422 -0.083745
    41 0.024032 -1.136855 -0.001725 -0.790999 0.004494 0.042151
    42 0.014898 -0.903521 -0.015942 -1.038482 0.010007 0.051857
    43 -0.586770 -1.264477 0.200161 -0.200114 -0.096951 -2.129323
    44 1.530648 0.054775 0.009035 0.154202 -0.079650 0.158043
    45 1.106228 0.052330 -0.001860 0.312990 -0.289446 0.975210
    46 -0.139399 -0.111698 0.014397 0.285382 -0.030687 1.580508
    47 -8.229616 1.128004 -0.469909 1.567597 -0.035763 -0.214828
  time 25
    0 6.122070 -11.767320 -3.248310 -1.511077 0.045008 1.555776
    1 -0.881688 0.301299 0.000000 0.000001 0.000000 -1.382160
    2 1.671935 4.611084 0.000000 0.000000 0.000000 1.232289
    3 -0.763543 -0.089952 0.631852 -0.002283 1.570796 0.000000
    4 1.384421 -0.042067 0.000000 0.000000 0.000000 1.345677
    5 0.660750 -0.739376 0.000000 0.000000 0.000000 0.002283
    6 -0.736122 -1.726717 0.123753 1.570770 -1.561760 1.573105
    7 -0.736128 -1.724683 -0.137291 -1.570809 1.561648 -1.568528
    8 9.538607 12.176788 -0.507388 0.019412 -0.056377 3.115553
    9 -0.002752 -0.001265 -0.003287 0.000000 0.000000 0.000000
    10 8.724148 0.063831 -5.143670 6.125416 -1.994624 -0.030099
    11 7.999573 -0.409570 -0.392002 -1.570274 -0.027301 -3.114507
    12 -0.032857 -8.494830 -0.084602 0.072001 0.484630 0.152123
    13 -0.488518 -2.755602 -0.228260 -0.242250 0.060691 -0.057732
    14 0.039887 -1.538386 0.018135 -1.634758 -0.010403 0.036650
    15 0.028786 -1.134327 -0.109049 -0.791864 -0.013746 0.015532
    16 0.250027 -2.820665 -0.238396 -0.313985 0.018280 -0.085804
    17 -0.049759 -1.602417 0.049696 -1.312009 0.004662 -0.036064
    18 -0.034142 -1.175657 0.045718 -1.263189 0.005489 -0.033341
    19 0.957766 -2.746780 -0.090302 0.167150 -0.150256 0.099289
    20 -0.033420 -1.393223 -0.019070 -0.517853 0.008329 -0.025205
    21 -0.022360 -0.957436 0.007065 -0.527929 0.007982 -0.025323
    22 -1.180681 -2.507217 -0.193859 -0.150629 0.142428 -0.022097
    23 -0.024967 -1.123934 0.017597 -0.759772 0.006951 -0.032333
    24 -0.020057 -0.906594 0.037435 -1.161982 0.002397 -0.047687
    25 0.603042 -1.197277 0.181473 0.666402 -0.922572 -1.051051
    26 1.504676 -0.177260 -0.006710 0.213418 0.065484 -0.624307
    27 1.049988 -0.147821 0.032291 0.039018 -0.188604 -0.767764
    28 0.120153 -0.050270 -0.054489 0.287569 3.110905 1.561085
    29 0.401127 -2.696026 -10.575825 -1.865690 -5.218356 -1.411931
    30 0.053974 -8.415261 0.006260 0.094427 -0.360640 0.393874
    31 0.447953 -2.798986 -0.200443 -0.244439 -0.056549 0.060325
    32 -0.032909 -1.499736 0.024472 -1.286546 0.022998 -0.023524
    33 -0.027022 -1.096452 -0.028023 -0.524789 0.013722 -0.005621
    34 -0.249534 -2.846964 -0.174213 -0.316343 -0.019324 0.076958
    35 0.043235 -1.656596 0.076480 -1.215735 -0.019648 0.004291
    36 0.031729 -1.149111 0.058838 -0.758918 -0.007903 0.005292
    37 -0.963866 -2.785145 -0.085350 -0.133536 0.264013 -0.032832
    38 0.028479 -1.403067 -0.009354 -0.611716 -0.012368 -0.024940
    39 0.021413 -0.942156 0.012233 -1.051190 -0.028955 -0.035163
    40 1.164475 -2.543940 -0.170330 -0.166622 -0.161422 -0.083745
    41 0.024032 -1.136855 -0.001725 -0.790999 0.004494 0.042151
    42 0.014898 -0.903521 -0.015942 -1.038482 0.010007 0.051857
    43 -0.586770 -1.264477 0.200161 -0.200114 -0.096951 -2.129323
    44 1.530648 0.054775 0.009035 0.154202 -0.079650 0.158043
    45 1.106228 0.052330 -0.001860 0.312990 -0.289446 0.975210
    46 -0.139399 -0.111698 0.014397 0.285382 -0.030687 1.580508
    47 -8.229616 1.170974 -0.469909 1.567717 -0.035704 -0.219856
  time 26
    0 6.063474 -11.814196 -3.263935 -1.530767 0.045576 1.556128
    1 -0.881688 0.301299 0.000000 0.000001 0.000000 -1.382160
    2 1.671935 4.611084 0.000000 0.000000 0.000000 1.232289
    3 -0.763543 -0.089952 0.631852 -0.002283 1.570796 0.000000
    4 1.384421 -0.042067 0.000000 0.000000 0.000000 1.345677
    5 0.660750 -0.739376 0.000000 0.000000 0.000000 0.002283
    6 -0.736122 -1.726717 0.123753 1.570770 -1.561760 1.573105
    7 -0.736128 -1.724683 -0.137291 -1.570809 1.561648 -1.568528
    8 9.538607 12.176788 -0.507388 0.019412 -0.056377 3.115553
    9 -0.002752 -0.001265 -0.003287 0.000000 0.000000 0.000000
    10 8.810088 -0.006484 -5.092887 6.112976 -1.986679 -0.030769
    11 7.909727 -0.933024 -0.399814 -1.569220 -0.028256 -3.179623
    12 -0.040670 -8.494830 -0.084602 0.083288 0.455653 0.152186
    13 -0.488518 -2.755602 -0.228260 -0.242250 0.060691 -0.057732
    14 0.039887 -1.538386 0.018135 -1.634758 -0.010403 0.036650
    15 0.028786 -1.134327 -0.109049 -0.791864 -0.013746 0.015532
    16 0.250027 -2.820665 -0.238396 -0.313985 0.018280 -0.085804
    17 -0.049759 -1.602417 0.049696 -1.312009 0.004662 -0.036064
    18 -0.034142 -1.175657 0.045718 -1.263189 0.005489 -0.033341
    19 0.957766 -2.746780 -0.090302 0.167150 -0.150256 0.099289
    20 -0.033420 -1.393223 -0.019070 -0.517853 0.008329 -0.025205
    21 -0.022360 -0.957436 0.007065 -0.527929 0.007982 -0.025323
    22 -1.180681 -2.507217 -0.193859 -0.150629 0.142428 -0.022097
    23 -0.024967 -1.123934 0.017597 -0.759772 0.006951 -0.032333
    24 -0.020057 -0.906594 0.037435 -1.161982 0.002397 -0.047687
    25 0.603042 -1.197277 0.181473 0.666402 -0.922572 -1.051051
    26 1.504676 -0.177260 -0.006710 0.213418 0.065484 -0.624307
    27 1.049988 -0.147821 0.032291 0.039018 -0.188604 -0.767764
    28 0.120153 -0.050270 -0.054489 0.287569 3.110905 1.561085
    29 0.405033 -2.715558 -10.571918 -1.870290 -5.210409 -1.417963
    30 0.053974 -8.419168 0.006260 0.095414 -0.378300 0.376239
    31 0.447953 -2.798986 -0.200443 -0.244439 -0.056549 0.060325
    32 -0.032909 -1.499736 0.024472 -1.286546 0.022998 -0.023524
    33 -0.027022 -1.096452 -0.028023 -0.524789 0.013722 -0.005621
    34 -0.249534 -2.846964 -0.174213 -0.316343 -0.019324 0.076958
    35 0.043235 -1.656596 0.076480 -1.215735 -0.019648 0.004291
    36 0.031729 -1.149111 0.058838 -0.758918 -0.007903 0.005292
    37 -0.963866 -2.785145 -0.085350 -0.133536 0.264013 -0.032832
    38 0.028479 -1.403067 -0.009354 -0.611716 -0.012368 -0.024940
    39 0.021413 -0.942156 0.012233 -1.051190 -0.028955 -0.035163
    40 1.164475 -2.543940 -0.170330 -0.166622 -0.161422 -0.083745
    41 0.024032 -1.136855 -0.001725 -0.790999 0.004494 0.042151
    42 0.014898 -0.903521 -0.015942 -1.038482 0.010007 0.051857
    43 -0.586770 -1.264477 0.200161 -0.200114 -0.096951 -2.129323
    44 1.530648 0.054775 0.009035 0.154202 -0.079650 0.158043
    45 1.106228 0.052330 -0.001860 0.312990 -0.289446 0.975210
    46 -0.139399 -0.111698 0.014397 0.285382 -0.030687 1.580508
    47 -8.221803 1.268634 -0.469909 1.568004 -0.035548 -0.231868
  time 27
    0 6.000972 -11.845447 -3.263935 -1.540375 0.043683 1.556480
    1 -0.881688 0.301299 0.000000 0.000001 0.000000 -1.382160
    2 1.671935 4.611084 0.000000 0.000000 0.000000 1.232289
    3 -0.763543 -0.089952 0.631852 -0.002283 1.570796 0.000000
    4 1.384421 -0.042067 0.000000 0.000000 0.000000 1.345677
    5 0.660750 -0.739376 0.000000 0.000000 0.000000 0.002283
    6 -0.736122 -1.726717 0.123753 1.570770 -1.561760 1.573105
    7 -0.736128 -1.724683 -0.137291 -1.570809 1.561648 -1.568528
    8 9.538607 12.176788 -0.507388 0.019412 -0.056377 3.115553
    9 -0.002752 -0.001265 -0.003287 0.000000 0.000000 0.000000
    10 8.841339 -0.045547 -5.049917 6.104363 -1.980159 -0.031631
    11 7.819880 -1.319754 -0.403721 -1.568453 -0.028925 -3.228221
    12 -0.044576 -8.498736 -0.088509 0.090903 0.438992 0.150178
    13 -0.488518 -2.755602 -0.228260 -0.242250 0.060691 -0.057732
    14 0.039887 -1.538386 0.018135 -1.634758 -0.010403 0.036650
    15 0.028786 -1.134327 -0.109049 -0.791864 -0.013746 0.015532
    16 0.250027 -2.820665 -0.238396 -0.313985 0.018280 -0.085804
    17 -0.049759 -1.602417 0.049696 -1.312009 0.004662 -0.036064
    18 -0.034142 -1.175657 0.045718 -1.263189 0.005489 -0.033341
    19 0.957766 -2.746780 -0.090302 0.167150 -0.150256 0.099289
    20 -0.033420 -1.393223 -0.019070 -0.517853 0.008329 -0.025205
    21 -0.022360 -0.957436 0.007065 -0.527929 0.007982 -0.025323
    22 -1.180681 -2.507217 -0.193859 -0.150629 0.142428 -0.022097
    23 -0.024967 -1.123934 0.017597 -0.759772 0.006951 -0.032333
    24 -0.020057 -0.906594 0.037435 -1.161982 0.002397 -0.047687
    25 0.603042 -1.197277 0.181473 0.666402 -0.922572 -1.051051
    26 1.504676 -0.177260 -0.006710 0.213418 0.065484 -0.624307
    27 1.049988 -0.147821 0.032291 0.039018 -0.188604 -0.767764
    28 0.120153 -0.050270 -0.054489 0.287569 3.110905 1.561085
    29 0.393314 -2.723371 -10.571918 -1.871941 -5.208485 -1.423420
    30 0.050068 -8.419168 0.010167 0.092094 -0.388417 0.372549
    31 0.447953 -2.798986 -0.200443 -0.244439 -0.056549 0.060325
    32 -0.032909 -1.499736 0.024472 -1.286546 0.022998 -0.023524
    33 -0.027022 -1.096452 -0.028023 -0.524789 0.013722 -0.005621
    34 -0.249534 -2.846964 -0.174213 -0.316343 -0.019324 0.076958
    35 0.043235 -1.656596 0.076480 -1.215735 -0.019648 0.004291
    36 0.031729 -1.149111 0.058838 -0.758918 -0.007903 0.005292
    37 -0.963866 -2.785145 -0.085350 -0.133536 0.264013 -0.032832
    38 0.028479 -1.403067 -0.009354 -0.611716 -0.012368 -0.024940
    39 0.021413 -0.942156 0.012233 -1.051190 -0.028955 -0.035163
    40 1.164475 -2.543940 -0.170330 -0.166622 -0.161422 -0.083745
    41 0.024032 -1.136855 -0.001725 -0.790999 0.004494 0.042151
    42 0.014898 -0.903521 -0.015942 -1.038482 0.010007 0.051857
    43 -0.586770 -1.264477 0.200161 -0.200114 -0.096951 -2.129323
    44 1.530648 0.054775 0.009035 0.154202 -0.079650 0.158043
    45 1.106228 0.052330 -0.001860 0.312990 -0.289446 0.975210
    46 -0.139399 -0.111698 0.014397 0.285382 -0.030687 1.580508
    47 -8.221803 1.288165 -0.469909 1.568064 -0.035512 -0.234452
  time 28
    0 5.981440 -11.814196 -3.263935 -1.530958 0.038571 1.554972
    1 -0.881688 0.301299 0.000000 0.000001 0.000000 -1.382160
    2 1.671935 4.611084 0.000000 0.000000 0.000000 1.232289
    3 -0.763543 -0.089952 0.631852 -0.002283 1.570796 0.000000
    4 1.384421 -0.042067 0.000000 0.000000 0.000000 1.345677
    5 0.660750 -0.739376 0.000000 0.000000 0.000000 0.002283
    6 -0.736122 -1.726717 0.123753 1.570770 -1.561760 1.573105
    7 -0.736128 -1.724683 -0.137291 -1.570809 1.561648 -1.568528
    8 9.538607 12.176788 -0.507388 0.019412 -0.056377 3.115553
    9 -0.002752 -0.001265 -0.003287 0.000000 0.000000 0.000000
    10 8.841339 -0.014296 -5.014760 6.095272 -1.976487 -0.026939
    11 7.776910 -1.476009 -0.403721 -1.568069 -0.029211 -3.248493
    12 -0.040670 -8.498736 -0.088509 0.092988 0.444833 0.150116
    13 -0.488518 -2.755602 -0.228260 -0.242250 0.060691 -0.057732
    14 0.039887 -1.538386 0.018135 -1.634758 -0.010403 0.036650
    15 0.028786 -1.134327 -0.109049 -0.791864 -0.013746 0.015532
    16 0.250027 -2.820665 -0.238396 -0.313985 0.018280 -0.085804
    17 -0.049759 -1.602417 0.049696 -1.312009 0.004662 -0.036064
    18 -0.034142 -1.175657 0.045718 -1.263189 0.005489 -0.033341
    19 0.957766 -2.746780 -0.090302 0.167150 -0.150256 0.099289
    20 -0.033420 -1.393223 -0.019070 -0.517853 0.008329 -0.025205
    21 -0.022360 -0.957436 0.007065 -0.527929 0.007982 -0.025323
    22 -1.180681 -2.507217 -0.193859 -0.150629 0.142428 -0.022097
    23 -0.024967 -1.123934 0.017597 -0.759772 0.006951 -0.032333
    24 -0.020057 -0.906594 0.037435 -1.161982 0.002397 -0.047687
    25 0.603042 -1.197277 0.181473 0.666402 -0.922572 -1.051051
    26 1.504676 -0.177260 -0.006710 0.213418 0.065484 -0.624307
    27 1.049988 -0.147821 0.032291 0.039018 -0.188604 -0.767764
    28 0.120153 -0.050270 -0.054489 0.287569 3.110905 1.561085
    29 0.369876 -2.692120 -10.583637 -1.868344 -5.215261 -1.421697
    30 0.050068 -8.415261 0.010167 0.089491 -0.382325 0.389013
    31 0.447953 -2.798986 -0.200443 -0.244439 -0.056549 0.060325
    32 -0.032909 -1.499736 0.024472 -1.286546 0.022998 -0.023524
    33 -0.027022 -1.096452 -0.028023 -0.524789 0.013722 -0.005621
    34 -0.249534 -2.846964 -0.174213 -0.316343 -0.019324 0.076958
    35 0.043235 -1.656596 0.076480 -1.215735 -0.019648 0.004291
    36 0.031729 -1.149111 0.058838 -0.758918 -0.007903 0.005292
    37 -0.963866 -2.785145 -0.085350 -0.133536 0.264013 -0.032832
    38 0.028479 -1.403067 -0.009354 -0.611716 -0.012368 -0.024940
    39 0.021413 -0.942156 0.012233 -1.051190 -0.028955 -0.035163
    40 1.164475 -2.543940 -0.170330 -0.166622 -0.161422 -0.083745
    41 0.024032 -1.136855 -0.001725 -0.790999 0.004494 0.042151
    42 0.014898 -0.903521 -0.015942 -1.038482 0.010007 0.051857
    43 -0.586770 -1.264477 0.200161 -0.200114 -0.096951 -2.129323
    44 1.530648 0.054775 0.009035 0.154202 -0.079650 0.158043
    45 1.106228 0.052330 -0.001860 0.312990 -0.289446 0.975210
    46 -0.139399 -0.111698 0.014397 0.285382 -0.030687 1.580508
    47 -8.229616 1.174881 -0.469909 1.567741 -0.035692 -0.220555
  time 29
    0 5.997066 -11.751694 -3.275654 -1.512314 0.030620 1.552912
    1 -0.881688 0.301299 0.000000 0.000001 0.000000 -1.382160
    2 1.671935 4.611084 0.000000 0.000000 0.000000 1.232289
    3 -0.763543 -0.089952 0.631852 -0.002283 1.570796 0.000000
    4 1.384421 -0.042067 0.000000 0.000000 0.000000 1.345677
    5 0.660750 -0.739376 0.000000 0.000000 0.000000 0.002283
    6 -0.736122 -1.726717 0.123753 1.570770 -1.561760 1.573105
    7 -0.736128 -1.724683 -0.137291 -1.570809 1.561648 -1.568528
    8 9.538607 12.176788 -0.507388 0.019412 -0.056377 3.115553
    9 -0.002752 -0.001265 -0.003287 0.000000 0.000000 0.000000
    10 8.833526 0.059925 -5.006947 6.090200 -1.974988 -0.023014
    11 7.769097 -1.507260 -0.403721 -1.568069 -0.029211 -3.252247
    12 -0.036764 -8.494830 -0.084602 0.091447 0.463033 0.148296
    13 -0.488518 -2.755602 -0.228260 -0.242250 0.060691 -0.057732
    14 0.039887 -1.538386 0.018135 -1.634758 -0.010403 0.036650
    15 0.028786 -1.134327 -0.109049 -0.791864 -0.013746 0.015532
    16 0.250027 -2.820665 -0.238396 -0.313985 0.018280 -0.085804
    17 -0.049759 -1.602417 0.049696 -1.312009 0.004662 -0.036064
    18 -0.034142 -1.175657 0.045718 -1.263189 0.005489 -0.033341
    19 0.957766 -2.746780 -0.090302 0.167150 -0.150256 0.099289
    20 -0.033420 -1.393223 -0.019070 -0.517853 0.008329 -0.025205
    21 -0.022360 -0.957436 0.007065 -0.527929 0.007982 -0.025323
    22 -1.180681 -2.507217 -0.193859 -0.150629 0.142428 -0.022097
    23 -0.024967 -1.123934 0.017597 -0.759772 0.006951 -0.032333
    24 -0.020057 -0.906594 0.037435 -1.161982 0.002397 -0.047687
    25 0.603042 -1.197277 0.181473 0.666402 -0.922572 -1.051051
    26 1.504676 -0.177260 -0.006710 0.213418 0.065484 -0.624307
    27 1.049988 -0.147821 0.032291 0.039018 -0.188604 -0.767764
    28 0.120153 -0.050270 -0.054489 0.287569 3.110905 1.561085
    29 0.342531 -2.637431 -10.610982 -1.862919 -5.225048 -1.416048
    30 0.050068 -8.411355 0.006260 0.088279 -0.368618 0.414738
    31 0.447953 -2.798986 -0.200443 -0.244439 -0.056549 0.060325
    32 -0.032909 -1.499736 0.024472 -1.286546 0.022998 -0.023524
    33 -0.027022 -1.096452 -0.028023 -0.524789 0.013722 -0.005621
    34 -0.249534 -2.846964 -0.174213 -0.316343 -0.019324 0.076958
    35 0.043235 -1.656596 0.076480 -1.215735 -0.019648 0.004291
    36 0.031729 -1.149111 0.058838 -0.758918 -0.007903 0.005292
    37 -0.963866 -2.785145 -0.085350 -0.133536 0.264013 -0.032832
    38 0.028479 -1.403067 -0.009354 -0.611716 -0.012368 -0.024940
    39 0.021413 -0.942156 0.012233 -1.051190 -0.028955 -0.035163
    40 1.164475 -2.543940 -0.170330 -0.166622 -0.161422 -0.083745
    41 0.024032 -1.136855 -0.001725 -0.790999 0.004494 0.042151
    42 0.014898 -0.903521 -0.015942 -1.038482 0.010007 0.051857
    43 -0.586770 -1.264477 0.200161 -0.200114 -0.096951 -2.129323
    44 1.530648 0.054775 0.009035 0.154202 -0.079650 0.158043
    45 1.106228 0.052330 -0.001860 0.312990 -0.289446 0.975210
    46 -0.139399 -0.111698 0.014397 0.285382 -0.030687 1.580508
    47 -8.237429 0.999094 -0.469909 1.567225 -0.035955 -0.199115
  time 30
    0 6.012691 -11.693099 -3.287374 -1.493575 0.022857 1.550702
    1 -0.881688 0.301299 0.000000 0.000001 0.000000 -1.382160
    2 1.671935 4.611084 0.000000 0.000000 0.000000 1.232289
    3 -0.763543 -0.089952 0.631852 -0.002283 1.570796 0.000000
    4 1.384421 -0.042067 0.000000 0.000000 0.000000 1.345677
    5 0.660750 -0.739376 0.000000 0.000000 0.000000 0.002283
    6 -0.736122 -1.726717 0.123753 1.570770 -1.561760 1.573105
    7 -0.736128 -1.724683 -0.137291 -1.570809 1.561648 -1.568528
    8 9.538607 12.176788 -0.507388 0.019412 -0.056377 3.115553
    9 -0.002752 -0.001265 -0.003287 0.000000 0.000000 0.000000
    10 8.825714 0.130239 -5.003041 6.085032 -1.973489 -0.018993
    11 7.757378 -1.534605 -0.403721 -1.567974 -0.029307 -3.256001
    12 -0.032857 -8.494830 -0.084602 0.089905 0.481234 0.146414
    13 -0.488518 -2.755602 -0.228260 -0.242250 0.060691 -0.057732
    14 0.039887 -1.538386 0.018135 -1.634758 -0.010403 0.036650
    15 0.028786 -1.134327 -0.109049 -0.791864 -0.013746 0.015532
    16 0.250027 -2.820665 -0.238396 -0.313985 0.018280 -0.085804
    17 -0.049759 -1.602417 0.049696 -1.312009 0.004662 -0.036064
    18 -0.034142 -1.175657 0.045718 -1.263189 0.005489 -0.033341
    19 0.957766 -2.746780 -0.090302 0.167150 -0.150256 0.099289
    20 -0.033420 -1.393223 -0.019070 -0.517853 0.008329 -0.025205
    21 -0.022360 -0.957436 0.007065 -0.527929 0.007982 -0.025323
    22 -1.180681 -2.507217 -0.193859 -0.150629 0.142428 -0.022097
    23 -0.024967 -1.123934 0.017597 -0.759772 0.006951 -0.032333
    24 -0.020057 -0.906594 0.037435 -1.161982 0.002397 -0.047687
    25 0.603042 -1.197277 0.181473 0.666402 -0.922572 -1.051051
    26 1.504676 -0.177260 -0.006710 0.213418 0.065484 -0.624307
    27 1.049988 -0.147821 0.032291 0.039018 -0.188604 -0.767764
    28 0.120153 -0.050270 -0.054489 0.287569 3.110905 1.561085
    29 0.315187 -2.586648 -10.630514 -1.857729 -5.234753 -1.410590
    30 0.050068 -8.407448 0.002354 0.087337 -0.354911 0.440356
    31 0.447953 -2.798986 -0.200443 -0.244439 -0.056549 0.060325
    32 -0.032909 -1.499736 0.024472 -1.286546 0.022998 -0.023524
    33 -0.027022 -1.096452 -0.028023 -0.524789 0.013722 -0.005621
    34 -0.249534 -2.846964 -0.174213 -0.316343 -0.019324 0.076958
    35 0.043235 -1.656596 0.076480 -1.215735 -0.019648 0.004291
    36 0.031729 -1.149111 0.058838 -0.758918 -0.007903 0.005292
    37 -0.963866 -2.785145 -0.085350 -0.133536 0.264013 -0.032832
    38 0.028479 -1.403067 -0.009354 -0.611716 -0.012368 -0.024940
    39 0.021413 -0.942156 0.012233 -1.051190 -0.028955 -0.035163
    40 1.164475 -2.543940 -0.170330 -0.166622 -0.161422 -0.083745
    41 0.024032 -1.136855 -0.001725 -0.790999 0.004494 0.042151
    42 0.014898 -0.903521 -0.015942 -1.038482 0.010007 0.051857
    43 -0.586770 -1.264477 0.200161 -0.200114 -0.096951 -2.129323
    44 1.530648 0.054775 0.009035 0.154202 -0.079650 0.158043
    45 1.106228 0.052330 -0.001860 0.312990 -0.289446 0.975210
    46 -0.139399 -0.111698 0.014397 0.285382 -0.030687 1.580508
    47 -8.241335 0.823308 -0.473815 1.566722 -0.036207 -0.178025
end
