version 1
nodes
  0 "kronos1_root" -1
  1 "fnp_trigger" 0
  2 "fnp_reload" 0
  3 "fnp_button" 0
  4 "fnp_trigger02" 0
  5 "fnp_slider" 0
  6 "trans01" 0
  7 "trans02" 0
  8 "ef" 0
  9 "root" -1
  10 "Bone01" 9
  11 "Bone_L_Upper" 10
  12 "Bone_Lefthand" 10
  13 "Bone13" 12
  14 "Bone14" 13
  15 "Bone15" 14
  16 "Bone17" 12
  17 "Bone18" 16
  18 "Bone19" 17
  19 "Bone21" 12
  20 "Bone22" 19
  21 "Bone23" 20
  22 "Bone09" 12
  23 "Bone10" 22
  24 "Bone11" 23
  25 "Bone05" 12
  26 "Bone06" 25
  27 "Bone07" 26
  28 "Bone_Se_Hand-L" 12
  29 "Bone04" 9
  30 "Bone_Righthand" 29
  31 "Bone39" 30
  32 "Bone40" 31
  33 "Bone41" 32
  34 "Bone35" 30
  35 "Bone36" 34
  36 "Bone37" 35
  37 "Bone31" 30
  38 "Bone32" 37
  39 "Bone33" 38
  40 "Bone43" 30
  41 "Bone44" 40
  42 "Bone45" 41
  43 "Bone27" 30
  44 "Bone28" 43
  45 "Bone29" 44
  46 "Bone_Se_Hand-R" 30
  47 "Bone_R_Upper" 29
end
skeleton
  time 0
    0 6.012691 -11.693099 -3.287374 -1.493575 0.022857 1.550702
    1 -0.881688 0.301299 0.000000 0.000001 0.000000 -1.382160
    2 1.671935 4.611084 0.000000 0.000000 0.000000 1.232289
    3 -0.763543 -0.089952 0.631852 -0.002283 1.570796 0.000000
    4 1.384421 -0.042067 0.000000 0.000000 0.000000 1.345677
    5 0.660750 -0.739376 0.000000 0.000000 0.000000 0.002283
    6 -0.736122 -1.726717 0.123753 1.570770 -1.561760 1.573105
    7 -0.736128 -1.724683 -0.137291 -1.570809 1.561648 -1.568528
    8 1.971970 -2.249433 0.180133 0.019412 -0.056377 3.115553
    9 -0.002752 -0.001265 -0.003287 0.000000 0.000000 0.000000
    10 8.825714 0.130239 -5.003041 6.085032 -1.973489 -0.018993
    11 7.757378 -1.534605 -0.403721 -1.567974 -0.029307 -3.256001
    12 -0.032857 -8.494830 -0.084602 0.089905 0.481234 0.146414
    13 -0.488518 -2.755602 -0.228260 -0.242250 0.060691 -0.057732
    14 0.039887 -1.538386 0.018135 -1.634758 -0.010403 0.036650
    15 0.028786 -1.134327 -0.109049 -0.791864 -0.013746 0.015532
    16 0.250027 -2.820665 -0.238396 -0.313985 0.018280 -0.085804
    17 -0.049759 -1.602417 0.049696 -1.312009 0.004662 -0.036064
    18 -0.034142 -1.175657 0.045718 -1.263189 0.005489 -0.033341
    19 0.957766 -2.746780 -0.090302 0.167150 -0.150256 0.099289
    20 -0.033420 -1.393223 -0.019070 -0.517853 0.008329 -0.025205
    21 -0.022360 -0.957436 0.007065 -0.527929 0.007982 -0.025323
    22 -1.180681 -2.507217 -0.193859 -0.150629 0.142428 -0.022097
    23 -0.024967 -1.123934 0.017597 -0.759772 0.006951 -0.032333
    24 -0.020057 -0.906594 0.037435 -1.161982 0.002397 -0.047687
    25 0.603042 -1.197277 0.181473 0.666402 -0.922572 -1.051051
    26 1.504676 -0.177260 -0.006710 0.213418 0.065484 -0.624307
    27 1.049988 -0.147821 0.032291 0.039018 -0.188604 -0.767764
    28 0.120153 -0.050270 -0.054489 0.287569 3.110905 1.561085
    29 0.358157 -2.567116 -10.634420 -1.837090 -5.232243 -1.393260
    30 0.053974 -8.407448 0.002354 0.085991 -0.344395 0.440746
    31 0.447953 -2.798986 -0.200443 -0.244439 -0.056549 0.060325
    32 -0.032909 -1.499736 0.024472 -1.286546 0.022998 -0.023524
    33 -0.027022 -1.096452 -0.028023 -0.524789 0.013722 -0.005621
    34 -0.249534 -2.846964 -0.174213 -0.316343 -0.019324 0.076958
    35 0.043235 -1.656596 0.076480 -1.215735 -0.019648 0.004291
    36 0.031729 -1.149111 0.058838 -0.758918 -0.007903 0.005292
    37 -0.963866 -2.785145 -0.085350 -0.133536 0.264013 -0.032832
    38 0.028479 -1.403067 -0.009354 -0.611716 -0.012368 -0.024940
    39 0.021413 -0.942156 0.012233 -1.051190 -0.028955 -0.035163
    40 1.164475 -2.543940 -0.170330 -0.166622 -0.161422 -0.083745
    41 0.024032 -1.136855 -0.001725 -0.790999 0.004494 0.042151
    42 0.014898 -0.903521 -0.015942 -1.038482 0.010007 0.051857
    43 -0.586770 -1.264477 0.200161 -0.200114 -0.096951 -2.129323
    44 1.530648 0.054775 0.009035 0.154202 -0.079650 0.158043
    45 1.106228 0.052330 -0.001860 0.312990 -0.289446 0.975210
    46 -0.139399 -0.111698 0.014397 0.285382 -0.030687 1.580508
    47 -8.241335 0.823308 -0.473815 1.566722 -0.036207 -0.178025
  time 1
    0 6.016598 -11.700912 -3.302999 -1.495192 0.019450 1.553013
    1 -0.881688 0.301299 0.000000 0.000001 0.000000 -1.382160
    2 1.671935 4.611084 0.000000 0.000000 0.000000 1.232289
    3 -0.763543 -0.089952 0.631852 -0.002283 1.570796 0.000000
    4 1.384421 -0.042067 0.000000 0.000000 0.000000 1.345677
    5 0.660750 -0.739376 0.000000 0.000000 0.000000 0.002283
    6 -0.736122 -1.726717 0.084690 1.570770 -1.561760 1.573105
    7 -0.736128 -1.724683 -0.094321 -1.570809 1.561648 -1.568528
    8 1.971970 -2.249433 0.180133 0.019412 -0.056377 3.115553
    9 -0.002752 -0.001265 -0.003287 0.000000 0.000000 0.000000
    10 8.938998 0.106801 -4.956164 6.078525 -1.993799 -0.028088
    11 7.761285 -1.534605 -0.403721 -1.567974 -0.029307 -3.255660
    12 -0.028951 -8.498736 -0.080696 0.110575 0.498529 0.152374
    13 -0.488518 -2.755602 -0.228260 -0.242250 0.060691 -0.057732
    14 0.039887 -1.538386 0.018135 -1.634758 -0.010403 0.036650
    15 0.028786 -1.134327 -0.109049 -0.791864 -0.013746 0.015532
    16 0.250027 -2.820665 -0.238396 -0.313985 0.018280 -0.085804
    17 -0.049759 -1.602417 0.049696 -1.312009 0.004662 -0.036064
    18 -0.034142 -1.175657 0.045718 -1.263189 0.005489 -0.033341
    19 0.957766 -2.746780 -0.090302 0.167150 -0.150256 0.099289
    20 -0.033420 -1.393223 -0.019070 -0.517853 0.008329 -0.025205
    21 -0.022360 -0.957436 0.007065 -0.527929 0.007982 -0.025323
    22 -1.180681 -2.507217 -0.193859 -0.150629 0.142428 -0.022097
    23 -0.024967 -1.123934 0.017597 -0.759772 0.006951 -0.032333
    24 -0.020057 -0.906594 0.037435 -1.161982 0.002397 -0.047687
    25 0.603042 -1.197277 0.181473 0.666402 -0.922572 -1.051051
    26 1.504676 -0.177260 -0.006710 0.213418 0.065484 -0.624307
    27 1.049988 -0.147821 0.032291 0.039018 -0.188604 -0.767764
    28 0.120153 -0.050270 -0.054489 0.287569 3.110905 1.561085
    29 0.362063 -2.567116 -10.638327 -1.837797 -5.230653 -1.393643
    30 0.050068 -8.407448 0.002354 0.083882 -0.347405 0.442024
    31 0.447953 -2.798986 -0.200443 -0.244439 -0.056549 0.060325
    32 -0.032909 -1.499736 0.024472 -1.286546 0.022998 -0.023524
    33 -0.027022 -1.096452 -0.028023 -0.524789 0.013722 -0.005621
    34 -0.249534 -2.846964 -0.174213 -0.316343 -0.019324 0.076958
    35 0.043235 -1.656596 0.076480 -1.215735 -0.019648 0.004291
    36 0.031729 -1.149111 0.058838 -0.758918 -0.007903 0.005292
    37 -0.963866 -2.785145 -0.085350 -0.133536 0.264013 -0.032832
    38 0.028479 -1.403067 -0.009354 -0.611716 -0.012368 -0.024940
    39 0.021413 -0.942156 0.012233 -1.051190 -0.028955 -0.035163
    40 1.164475 -2.543940 -0.170330 -0.166622 -0.161422 -0.083745
    41 0.024032 -1.136855 -0.001725 -0.790999 0.004494 0.042151
    42 0.014898 -0.903521 -0.015942 -1.038482 0.010007 0.051857
    43 -0.586770 -1.264477 0.200161 -0.200114 -0.096951 -2.129323
    44 1.530648 0.054775 0.009035 0.154202 -0.079650 0.158043
    45 1.106228 0.052330 -0.001860 0.312990 -0.289446 0.975210
    46 -0.139399 -0.111698 0.014397 0.285382 -0.030687 1.580508
    47 -8.241335 0.838933 -0.469909 1.566758 -0.036195 -0.179491
  time 2
    0 6.020504 -11.716537 -3.322531 -1.493480 0.022100 1.545124
    1 -0.881688 0.301299 0.000000 0.000001 0.000000 -1.382160
    2 1.671935 4.611084 0.000000 0.000000 0.000000 1.232289
    3 -0.763543 -0.089952 0.631852 -0.002283 1.570796 0.000000
    4 1.384421 -0.042067 0.000000 0.000000 0.000000 1.345677
    5 0.660750 -0.739376 0.000000 0.000000 0.000000 0.002283
    6 -0.736122 -1.726717 -0.001251 1.570770 -1.561760 1.573105
    7 -0.736128 -1.724683 0.003339 -1.570809 1.561648 -1.568528
    8 1.971970 -2.249433 0.180133 0.019412 -0.056377 3.115553
    9 -0.002752 -0.001265 -0.003287 0.000000 0.000000 0.000000
    10 8.829620 0.106801 -5.010853 6.079195 -1.975512 -0.011047
    11 7.776910 -1.472103 -0.403721 -1.568165 -0.029211 -3.248015
    12 -0.032857 -8.494830 -0.084602 0.082290 0.483317 0.147857
    13 -0.488518 -2.755602 -0.228260 -0.242250 0.060691 -0.057732
    14 0.039887 -1.538386 0.018135 -1.634758 -0.010403 0.036650
    15 0.028786 -1.134327 -0.109049 -0.791864 -0.013746 0.015532
    16 0.250027 -2.820665 -0.238396 -0.313985 0.018280 -0.085804
    17 -0.049759 -1.602417 0.049696 -1.312009 0.004662 -0.036064
    18 -0.034142 -1.175657 0.045718 -1.263189 0.005489 -0.033341
    19 0.957766 -2.746780 -0.090302 0.167150 -0.150256 0.099289
    20 -0.033420 -1.393223 -0.019070 -0.517853 0.008329 -0.025205
    21 -0.022360 -0.957436 0.007065 -0.527929 0.007982 -0.025323
    22 -1.180681 -2.507217 -0.193859 -0.150629 0.142428 -0.022097
    23 -0.024967 -1.123934 0.017597 -0.759772 0.006951 -0.032333
    24 -0.020057 -0.906594 0.037435 -1.161982 0.002397 -0.047687
    25 0.603042 -1.197277 0.181473 0.666402 -0.922572 -1.051051
    26 1.504676 -0.177260 -0.006710 0.213418 0.065484 -0.624307
    27 1.049988 -0.147821 0.032291 0.039018 -0.188604 -0.767764
    28 0.120153 -0.050270 -0.054489 0.287569 3.110905 1.561085
    29 0.365969 -2.563210 -10.638327 -1.838682 -5.228478 -1.393069
    30 0.053974 -8.407448 0.002354 0.093933 -0.344069 0.435921
    31 0.447953 -2.798986 -0.200443 -0.244439 -0.056549 0.060325
    32 -0.032909 -1.499736 0.024472 -1.286546 0.022998 -0.023524
    33 -0.027022 -1.096452 -0.028023 -0.524789 0.013722 -0.005621
    34 -0.249534 -2.846964 -0.174213 -0.316343 -0.019324 0.076958
    35 0.043235 -1.656596 0.076480 -1.215735 -0.019648 0.004291
    36 0.031729 -1.149111 0.058838 -0.758918 -0.007903 0.005292
    37 -0.963866 -2.785145 -0.085350 -0.133536 0.264013 -0.032832
    38 0.028479 -1.403067 -0.009354 -0.611716 -0.012368 -0.024940
    39 0.021413 -0.942156 0.012233 -1.051190 -0.028955 -0.035163
    40 1.164475 -2.543940 -0.170330 -0.166622 -0.161422 -0.083745
    41 0.024032 -1.136855 -0.001725 -0.790999 0.004494 0.042151
    42 0.014898 -0.903521 -0.015942 -1.038482 0.010007 0.051857
    43 -0.586770 -1.264477 0.200161 -0.200114 -0.096951 -2.129323
    44 1.530648 0.054775 0.009035 0.154202 -0.079650 0.158043
    45 1.106228 0.052330 -0.001860 0.312990 -0.289446 0.975210
    46 -0.139399 -0.111698 0.014397 0.285382 -0.030687 1.580508
    47 -8.241335 0.854558 -0.469909 1.566806 -0.036171 -0.181447
  time 3
    0 6.012691 -11.720443 -3.310812 -1.492719 0.021154 1.545024
    1 -0.881688 0.301299 0.000000 0.000001 0.000000 -1.382160
    2 1.671935 4.611084 0.000000 0.000000 0.000000 1.232289
    3 -0.763543 -0.089952 0.631852 -0.002283 1.570796 0.000000
    4 1.384421 -0.042067 0.000000 0.000000 0.000000 1.345677
    5 0.660750 -0.739376 0.000000 0.000000 0.000000 0.002283
    6 -0.736122 -1.726717 -0.087191 1.570770 -1.561760 1.573105
    7 -0.736128 -1.724683 0.104904 -1.570809 1.561648 -1.568528
    8 1.971970 -2.249433 0.180133 0.019412 -0.056377 3.115553
    9 -0.002752 -0.001265 -0.003287 0.000000 0.000000 0.000000
    10 8.813995 0.106801 -5.014760 6.083405 -1.972664 -0.013919
    11 7.773004 -1.479915 -0.403721 -1.568069 -0.029211 -3.249039
    12 -0.032857 -8.494830 -0.084602 0.079752 0.482004 0.144406
    13 -0.488518 -2.755602 -0.228260 -0.242250 0.060691 -0.057732
    14 0.039887 -1.538386 0.018135 -1.634758 -0.010403 0.036650
    15 0.028786 -1.134327 -0.109049 -0.791864 -0.013746 0.015532
    16 0.250027 -2.820665 -0.238396 -0.313985 0.018280 -0.085804
    17 -0.049759 -1.602417 0.049696 -1.312009 0.004662 -0.036064
    18 -0.034142 -1.175657 0.045718 -1.263189 0.005489 -0.033341
    19 0.957766 -2.746780 -0.090302 0.167150 -0.150256 0.099289
    20 -0.033420 -1.393223 -0.019070 -0.517853 0.008329 -0.025205
    21 -0.022360 -0.957436 0.007065 -0.527929 0.007982 -0.025323
    22 -1.180681 -2.507217 -0.193859 -0.150629 0.142428 -0.022097
    23 -0.024967 -1.123934 0.017597 -0.759772 0.006951 -0.032333
    24 -0.020057 -0.906594 0.037435 -1.161982 0.002397 -0.047687
    25 0.603042 -1.197277 0.181473 0.666402 -0.922572 -1.051051
    26 1.504676 -0.177260 -0.006710 0.213418 0.065484 -0.624307
    27 1.049988 -0.147821 0.032291 0.039018 -0.188604 -0.767764
    28 0.120153 -0.050270 -0.054489 0.287569 3.110905 1.561085
    29 0.365969 -2.567116 -10.634420 -1.838092 -5.229900 -1.393356
    30 0.053974 -8.407448 0.002354 0.092856 -0.343815 0.438759
    31 0.447953 -2.798986 -0.200443 -0.244439 -0.056549 0.060325
    32 -0.032909 -1.499736 0.024472 -1.286546 0.022998 -0.023524
    33 -0.027022 -1.096452 -0.028023 -0.524789 0.013722 -0.005621
    34 -0.249534 -2.846964 -0.174213 -0.316343 -0.019324 0.076958
    35 0.043235 -1.656596 0.076480 -1.215735 -0.019648 0.004291
    36 0.031729 -1.149111 0.058838 -0.758918 -0.007903 0.005292
    37 -0.963866 -2.785145 -0.085350 -0.133536 0.264013 -0.032832
    38 0.028479 -1.403067 -0.009354 -0.611716 -0.012368 -0.024940
    39 0.021413 -0.942156 0.012233 -1.051190 -0.028955 -0.035163
    40 1.164475 -2.543940 -0.170330 -0.166622 -0.161422 -0.083745
    41 0.024032 -1.136855 -0.001725 -0.790999 0.004494 0.042151
    42 0.014898 -0.903521 -0.015942 -1.038482 0.010007 0.051857
    43 -0.586770 -1.264477 0.200161 -0.200114 -0.096951 -2.129323
    44 1.530648 0.054775 0.009035 0.154202 -0.079650 0.158043
    45 1.106228 0.052330 -0.001860 0.312990 -0.289446 0.975210
    46 -0.139399 -0.111698 0.014397 0.285382 -0.030687 1.580508
    47 -8.241335 0.846746 -0.469909 1.566794 -0.036183 -0.180888
  time 4
    0 6.004879 -11.724350 -3.295186 -1.491958 0.019734 1.545979
    1 -0.881688 0.301299 0.000000 0.000001 0.000000 -1.382160
    2 1.671935 4.611084 0.000000 0.000000 0.000000 1.232289
    3 -0.763543 -0.089952 0.631852 -0.002283 1.570796 0.000000
    4 1.384421 -0.042067 0.000000 0.000000 0.000000 1.345677
    5 0.660750 -0.739376 0.000000 0.000000 0.000000 0.002283
    6 -0.736122 -1.726717 -0.122348 1.570770 -1.561760 1.573105
    7 -0.736128 -1.724683 0.143968 -1.570809 1.561648 -1.568528
    8 1.971970 -2.249433 0.180133 0.019412 -0.056377 3.115553
    9 -0.002752 -0.001265 -0.003287 0.000000 0.000000 0.000000
    10 8.813995 0.106801 -5.014760 6.088477 -1.972065 -0.019950
    11 7.769097 -1.499447 -0.403721 -1.568069 -0.029211 -3.251360
    12 -0.032857 -8.494830 -0.084602 0.080795 0.482773 0.140892
    13 -0.488518 -2.755602 -0.228260 -0.242250 0.060691 -0.057732
    14 0.039887 -1.538386 0.018135 -1.634758 -0.010403 0.036650
    15 0.028786 -1.134327 -0.109049 -0.791864 -0.013746 0.015532
    16 0.250027 -2.820665 -0.238396 -0.313985 0.018280 -0.085804
    17 -0.049759 -1.602417 0.049696 -1.312009 0.004662 -0.036064
    18 -0.034142 -1.175657 0.045718 -1.263189 0.005489 -0.033341
    19 0.957766 -2.746780 -0.090302 0.167150 -0.150256 0.099289
    20 -0.033420 -1.393223 -0.019070 -0.517853 0.008329 -0.025205
    21 -0.022360 -0.957436 0.007065 -0.527929 0.007982 -0.025323
    22 -1.180681 -2.507217 -0.193859 -0.150629 0.142428 -0.022097
    23 -0.024967 -1.123934 0.017597 -0.759772 0.006951 -0.032333
    24 -0.020057 -0.906594 0.037435 -1.161982 0.002397 -0.047687
    25 0.603042 -1.197277 0.181473 0.666402 -0.922572 -1.051051
    26 1.504676 -0.177260 -0.006710 0.213418 0.065484 -0.624307
    27 1.049988 -0.147821 0.032291 0.039018 -0.188604 -0.767764
    28 0.120153 -0.050270 -0.054489 0.287569 3.110905 1.561085
    29 0.362063 -2.574929 -10.630514 -1.837208 -5.231992 -1.393739
    30 0.053974 -8.407448 0.002354 0.090164 -0.343996 0.443124
    31 0.447953 -2.798986 -0.200443 -0.244439 -0.056549 0.060325
    32 -0.032909 -1.499736 0.024472 -1.286546 0.022998 -0.023524
    33 -0.027022 -1.096452 -0.028023 -0.524789 0.013722 -0.005621
    34 -0.249534 -2.846964 -0.174213 -0.316343 -0.019324 0.076958
    35 0.043235 -1.656596 0.076480 -1.215735 -0.019648 0.004291
    36 0.031729 -1.149111 0.058838 -0.758918 -0.007903 0.005292
    37 -0.963866 -2.785145 -0.085350 -0.133536 0.264013 -0.032832
    38 0.028479 -1.403067 -0.009354 -0.611716 -0.012368 -0.024940
    39 0.021413 -0.942156 0.012233 -1.051190 -0.028955 -0.035163
    40 1.164475 -2.543940 -0.170330 -0.166622 -0.161422 -0.083745
    41 0.024032 -1.136855 -0.001725 -0.790999 0.004494 0.042151
    42 0.014898 -0.903521 -0.015942 -1.038482 0.010007 0.051857
    43 -0.586770 -1.264477 0.200161 -0.200114 -0.096951 -2.129323
    44 1.530648 0.054775 0.009035 0.154202 -0.079650 0.158043
    45 1.106228 0.052330 -0.001860 0.312990 -0.289446 0.975210
    46 -0.139399 -0.111698 0.014397 0.285382 -0.030687 1.580508
    47 -8.241335 0.838933 -0.469909 1.566770 -0.036195 -0.179910
  time 5
    0 5.997066 -11.724350 -3.283467 -1.491482 0.018314 1.547385
    1 -0.881688 0.301299 0.000000 0.000001 0.000000 -1.382160
    2 1.671935 4.611084 0.000000 0.000000 0.000000 1.232289
    3 -0.763543 -0.089952 0.631852 -0.002283 1.570796 0.000000
    4 1.384421 -0.042067 0.000000 0.000000 0.000000 1.345677
    5 0.660750 -0.739376 0.000000 0.000000 0.000000 0.002283
    6 -0.736122 -1.726717 -0.083284 1.570770 -1.561760 1.573105
    7 -0.736128 -1.724683 0.108811 -1.570809 1.561648 -1.568528
    8 1.971970 -2.249433 0.180133 0.019412 -0.056377 3.115553
    9 -0.002752 -0.001265 -0.003287 0.000000 0.000000 0.000000
    10 8.817901 0.106801 -5.010853 6.093166 -1.972365 -0.026461
    11 7.765191 -1.518979 -0.403721 -1.568069 -0.029307 -3.253885
    12 -0.032857 -8.494830 -0.084602 0.083333 0.484132 0.137943
    13 -0.488518 -2.755602 -0.228260 -0.242250 0.060691 -0.057732
    14 0.039887 -1.538386 0.018135 -1.634758 -0.010403 0.036650
    15 0.028786 -1.134327 -0.109049 -0.791864 -0.013746 0.015532
    16 0.250027 -2.820665 -0.238396 -0.313985 0.018280 -0.085804
    17 -0.049759 -1.602417 0.049696 -1.312009 0.004662 -0.036064
    18 -0.034142 -1.175657 0.045718 -1.263189 0.005489 -0.033341
    19 0.957766 -2.746780 -0.090302 0.167150 -0.150256 0.099289
    20 -0.033420 -1.393223 -0.019070 -0.517853 0.008329 -0.025205
    21 -0.022360 -0.957436 0.007065 -0.527929 0.007982 -0.025323
    22 -1.180681 -2.507217 -0.193859 -0.150629 0.142428 -0.022097
    23 -0.024967 -1.123934 0.017597 -0.759772 0.006951 -0.032333
    24 -0.020057 -0.906594 0.037435 -1.161982 0.002397 -0.047687
    25 0.603042 -1.197277 0.181473 0.666402 -0.922572 -1.051051
    26 1.504676 -0.177260 -0.006710 0.213418 0.065484 -0.624307
    27 1.049988 -0.147821 0.032291 0.039018 -0.188604 -0.767764
    28 0.120153 -0.050270 -0.054489 0.287569 3.110905 1.561085
    29 0.362063 -2.578835 -10.626608 -1.836382 -5.233916 -1.394122
    30 0.050068 -8.407448 0.002354 0.087068 -0.344359 0.447311
    31 0.447953 -2.798986 -0.200443 -0.244439 -0.056549 0.060325
    32 -0.032909 -1.499736 0.024472 -1.286546 0.022998 -0.023524
    33 -0.027022 -1.096452 -0.028023 -0.524789 0.013722 -0.005621
    34 -0.249534 -2.846964 -0.174213 -0.316343 -0.019324 0.076958
    35 0.043235 -1.656596 0.076480 -1.215735 -0.019648 0.004291
    36 0.031729 -1.149111 0.058838 -0.758918 -0.007903 0.005292
    37 -0.963866 -2.785145 -0.085350 -0.133536 0.264013 -0.032832
    38 0.028479 -1.403067 -0.009354 -0.611716 -0.012368 -0.024940
    39 0.021413 -0.942156 0.012233 -1.051190 -0.028955 -0.035163
    40 1.164475 -2.543940 -0.170330 -0.166622 -0.161422 -0.083745
    41 0.024032 -1.136855 -0.001725 -0.790999 0.004494 0.042151
    42 0.014898 -0.903521 -0.015942 -1.038482 0.010007 0.051857
    43 -0.586770 -1.264477 0.200161 -0.200114 -0.096951 -2.129323
    44 1.530648 0.054775 0.009035 0.154202 -0.079650 0.158043
    45 1.106228 0.052330 -0.001860 0.312990 -0.289446 0.975210
    46 -0.139399 -0.111698 0.014397 0.285382 -0.030687 1.580508
    47 -8.241335 0.831120 -0.469909 1.566746 -0.036195 -0.178932
  time 6
    0 5.993159 -11.728256 -3.271748 -1.491387 0.017651 1.548591
    1 -0.881688 0.301299 0.000000 0.000001 0.000000 -1.382160
    2 1.671935 4.611084 0.000000 0.000000 0.000000 1.232289
    3 -0.763543 -0.089952 0.631852 -0.002283 1.570796 0.000000
    4 1.384421 -0.042067 0.000000 0.000000 0.000000 1.345677
    5 0.660750 -0.739376 0.000000 0.000000 0.000000 0.002283
    6 -0.736122 -1.726717 -0.044221 1.570770 -1.561760 1.573105
    7 -0.736128 -1.724683 0.065841 -1.570809 1.561648 -1.568528
    8 1.971970 -2.249433 0.180133 0.019412 -0.056377 3.115553
    9 -0.002752 -0.001265 -0.003287 0.000000 0.000000 0.000000
    10 8.817901 0.106801 -5.010853 6.096133 -1.972514 -0.030577
    11 7.761285 -1.530698 -0.403721 -1.567974 -0.029307 -3.255523
    12 -0.032857 -8.494830 -0.084602 0.085327 0.484675 0.136249
    13 -0.488518 -2.755602 -0.228260 -0.242250 0.060691 -0.057732
    14 0.039887 -1.538386 0.018135 -1.634758 -0.010403 0.036650
    15 0.028786 -1.134327 -0.109049 -0.791864 -0.013746 0.015532
    16 0.250027 -2.820665 -0.238396 -0.313985 0.018280 -0.085804
    17 -0.049759 -1.602417 0.049696 -1.312009 0.004662 -0.036064
    18 -0.034142 -1.175657 0.045718 -1.263189 0.005489 -0.033341
    19 0.957766 -2.746780 -0.090302 0.167150 -0.150256 0.099289
    20 -0.033420 -1.393223 -0.019070 -0.517853 0.008329 -0.025205
    21 -0.022360 -0.957436 0.007065 -0.527929 0.007982 -0.025323
    22 -1.180681 -2.507217 -0.193859 -0.150629 0.142428 -0.022097
    23 -0.024967 -1.123934 0.017597 -0.759772 0.006951 -0.032333
    24 -0.020057 -0.906594 0.037435 -1.161982 0.002397 -0.047687
    25 0.603042 -1.197277 0.181473 0.666402 -0.922572 -1.051051
    26 1.504676 -0.177260 -0.006710 0.213418 0.065484 -0.624307
    27 1.049988 -0.147821 0.032291 0.039018 -0.188604 -0.767764
    28 0.120153 -0.050270 -0.054489 0.287569 3.110905 1.561085
    29 0.358157 -2.582741 -10.622701 -1.835910 -5.235087 -1.394505
    30 0.050068 -8.403542 0.002354 0.084779 -0.344685 0.449688
    31 0.447953 -2.798986 -0.200443 -0.244439 -0.056549 0.060325
    32 -0.032909 -1.499736 0.024472 -1.286546 0.022998 -0.023524
    33 -0.027022 -1.096452 -0.028023 -0.524789 0.013722 -0.005621
    34 -0.249534 -2.846964 -0.174213 -0.316343 -0.019324 0.076958
    35 0.043235 -1.656596 0.076480 -1.215735 -0.019648 0.004291
    36 0.031729 -1.149111 0.058838 -0.758918 -0.007903 0.005292
    37 -0.963866 -2.785145 -0.085350 -0.133536 0.264013 -0.032832
    38 0.028479 -1.403067 -0.009354 -0.611716 -0.012368 -0.024940
    39 0.021413 -0.942156 0.012233 -1.051190 -0.028955 -0.035163
    40 1.164475 -2.543940 -0.170330 -0.166622 -0.161422 -0.083745
    41 0.024032 -1.136855 -0.001725 -0.790999 0.004494 0.042151
    42 0.014898 -0.903521 -0.015942 -1.038482 0.010007 0.051857
    43 -0.586770 -1.264477 0.200161 -0.200114 -0.096951 -2.129323
    44 1.530648 0.054775 0.009035 0.154202 -0.079650 0.158043
    45 1.106228 0.052330 -0.001860 0.312990 -0.289446 0.975210
    46 -0.139399 -0.111698 0.014397 0.285382 -0.030687 1.580508
    47 -8.241335 0.831120 -0.473815 1.566734 -0.036207 -0.178513
  time 7
    0 5.993159 -11.728256 -3.267842 -1.491862 0.018030 1.549496
    1 -0.881688 0.301299 0.000000 0.000001 0.000000 -1.382160
    2 1.671935 4.611084 0.000000 0.000000 0.000000 1.232289
    3 -0.763543 -0.089952 0.631852 -0.002283 1.570796 0.000000
    4 1.384421 -0.042067 0.000000 0.000000 0.000000 1.345677
    5 0.660750 -0.739376 0.000000 0.000000 0.000000 0.002283
    6 -0.736122 -1.726717 -0.083284 1.570770 -1.561760 1.573105
    7 -0.736128 -1.724683 0.108811 -1.570809 1.561648 -1.568528
    8 1.971970 -2.249433 0.180133 0.019412 -0.056377 3.115553
    9 -0.002752 -0.001265 -0.003287 0.000000 0.000000 0.000000
    10 8.817901 0.102895 -5.010853 6.096803 -1.972290 -0.031631
    11 7.761285 -1.534605 -0.403721 -1.567974 -0.029307 -3.255864
    12 -0.032857 -8.494830 -0.084602 0.086551 0.483905 0.136311
    13 -0.488518 -2.755602 -0.228260 -0.242250 0.060691 -0.057732
    14 0.039887 -1.538386 0.018135 -1.634758 -0.010403 0.036650
    15 0.028786 -1.134327 -0.109049 -0.791864 -0.013746 0.015532
    16 0.250027 -2.820665 -0.238396 -0.313985 0.018280 -0.085804
    17 -0.049759 -1.602417 0.049696 -1.312009 0.004662 -0.036064
    18 -0.034142 -1.175657 0.045718 -1.263189 0.005489 -0.033341
    19 0.957766 -2.746780 -0.090302 0.167150 -0.150256 0.099289
    20 -0.033420 -1.393223 -0.019070 -0.517853 0.008329 -0.025205
    21 -0.022360 -0.957436 0.007065 -0.527929 0.007982 -0.025323
    22 -1.180681 -2.507217 -0.193859 -0.150629 0.142428 -0.022097
    23 -0.024967 -1.123934 0.017597 -0.759772 0.006951 -0.032333
    24 -0.020057 -0.906594 0.037435 -1.161982 0.002397 -0.047687
    25 0.603042 -1.197277 0.181473 0.666402 -0.922572 -1.051051
    26 1.504676 -0.177260 -0.006710 0.213418 0.065484 -0.624307
    27 1.049988 -0.147821 0.032291 0.039018 -0.188604 -0.767764
    28 0.120153 -0.050270 -0.054489 0.287569 3.110905 1.561085
    29 0.358157 -2.586648 -10.622701 -1.835969 -5.235171 -1.394888
    30 0.050068 -8.403542 0.002354 0.083523 -0.345048 0.449404
    31 0.447953 -2.798986 -0.200443 -0.244439 -0.056549 0.060325
    32 -0.032909 -1.499736 0.024472 -1.286546 0.022998 -0.023524
    33 -0.027022 -1.096452 -0.028023 -0.524789 0.013722 -0.005621
    34 -0.249534 -2.846964 -0.174213 -0.316343 -0.019324 0.076958
    35 0.043235 -1.656596 0.076480 -1.215735 -0.019648 0.004291
    36 0.031729 -1.149111 0.058838 -0.758918 -0.007903 0.005292
    37 -0.963866 -2.785145 -0.085350 -0.133536 0.264013 -0.032832
    38 0.028479 -1.403067 -0.009354 -0.611716 -0.012368 -0.024940
    39 0.021413 -0.942156 0.012233 -1.051190 -0.028955 -0.035163
    40 1.164475 -2.543940 -0.170330 -0.166622 -0.161422 -0.083745
    41 0.024032 -1.136855 -0.001725 -0.790999 0.004494 0.042151
    42 0.014898 -0.903521 -0.015942 -1.038482 0.010007 0.051857
    43 -0.586770 -1.264477 0.200161 -0.200114 -0.096951 -2.129323
    44 1.530648 0.054775 0.009035 0.154202 -0.079650 0.158043
    45 1.106228 0.052330 -0.001860 0.312990 -0.289446 0.975210
    46 -0.139399 -0.111698 0.014397 0.285382 -0.030687 1.580508
    47 -8.241335 0.835027 -0.469909 1.566746 -0.036195 -0.179002
  time 8
    0 5.993159 -11.728256 -3.267842 -1.492719 0.019071 1.550400
    1 -0.881688 0.301299 0.000000 0.000001 0.000000 -1.382160
    2 1.671935 4.611084 0.000000 0.000000 0.000000 1.232289
    3 -0.763543 -0.089952 0.631852 -0.002283 1.570796 0.000000
    4 1.384421 -0.042067 0.000000 0.000000 0.000000 1.345677
    5 0.660750 -0.739376 0.000000 0.000000 0.000000 0.002283
    6 -0.736122 -1.726717 -0.122348 1.570770 -1.561760 1.573105
    7 -0.736128 -1.724683 0.143968 -1.570809 1.561648 -1.568528
    8 1.971970 -2.249433 0.180133 0.019412 -0.056377 3.115553
    9 -0.002752 -0.001265 -0.003287 0.000000 0.000000 0.000000
    10 8.817901 0.102895 -5.010853 6.096037 -1.972215 -0.030960
    11 7.761285 -1.534605 -0.403721 -1.567974 -0.029307 -3.255591
    12 -0.032857 -8.494830 -0.084602 0.088002 0.482592 0.137629
    13 -0.488518 -2.755602 -0.228260 -0.242250 0.060691 -0.057732
    14 0.039887 -1.538386 0.018135 -1.634758 -0.010403 0.036650
    15 0.028786 -1.134327 -0.109049 -0.791864 -0.013746 0.015532
    16 0.250027 -2.820665 -0.238396 -0.313985 0.018280 -0.085804
    17 -0.049759 -1.602417 0.049696 -1.312009 0.004662 -0.036064
    18 -0.034142 -1.175657 0.045718 -1.263189 0.005489 -0.033341
    19 0.957766 -2.746780 -0.090302 0.167150 -0.150256 0.099289
    20 -0.033420 -1.393223 -0.019070 -0.517853 0.008329 -0.025205
    21 -0.022360 -0.957436 0.007065 -0.527929 0.007982 -0.025323
    22 -1.180681 -2.507217 -0.193859 -0.150629 0.142428 -0.022097
    23 -0.024967 -1.123934 0.017597 -0.759772 0.006951 -0.032333
    24 -0.020057 -0.906594 0.037435 -1.161982 0.002397 -0.047687
    25 0.603042 -1.197277 0.181473 0.666402 -0.922572 -1.051051
    26 1.504676 -0.177260 -0.006710 0.213418 0.065484 -0.624307
    27 1.049988 -0.147821 0.032291 0.039018 -0.188604 -0.767764
    28 0.120153 -0.050270 -0.054489 0.287569 3.110905 1.561085
    29 0.358157 -2.586648 -10.622701 -1.836323 -5.234418 -1.395271
    30 0.050068 -8.403542 0.002354 0.082715 -0.345483 0.447488
    31 0.447953 -2.798986 -0.200443 -0.244439 -0.056549 0.060325
    32 -0.032909 -1.499736 0.024472 -1.286546 0.022998 -0.023524
    33 -0.027022 -1.096452 -0.028023 -0.524789 0.013722 -0.005621
    34 -0.249534 -2.846964 -0.174213 -0.316343 -0.019324 0.076958
    35 0.043235 -1.656596 0.076480 -1.215735 -0.019648 0.004291
    36 0.031729 -1.149111 0.058838 -0.758918 -0.007903 0.005292
    37 -0.963866 -2.785145 -0.085350 -0.133536 0.264013 -0.032832
    38 0.028479 -1.403067 -0.009354 -0.611716 -0.012368 -0.024940
    39 0.021413 -0.942156 0.012233 -1.051190 -0.028955 -0.035163
    40 1.164475 -2.543940 -0.170330 -0.166622 -0.161422 -0.083745
    41 0.024032 -1.136855 -0.001725 -0.790999 0.004494 0.042151
    42 0.014898 -0.903521 -0.015942 -1.038482 0.010007 0.051857
    43 -0.586770 -1.264477 0.200161 -0.200114 -0.096951 -2.129323
    44 1.530648 0.054775 0.009035 0.154202 -0.079650 0.158043
    45 1.106228 0.052330 -0.001860 0.312990 -0.289446 0.975210
    46 -0.139399 -0.111698 0.014397 0.285382 -0.030687 1.580508
    47 -8.241335 0.842839 -0.469909 1.566770 -0.036183 -0.179980
  time 9
    0 5.993159 -11.724350 -3.271748 -1.493670 0.020302 1.551204
    1 -0.881688 0.301299 0.000000 0.000001 0.000000 -1.382160
    2 1.671935 4.611084 0.000000 0.000000 0.000000 1.232289
    3 -0.763543 -0.089952 0.631852 -0.002283 1.570796 0.000000
    4 1.384421 -0.042067 0.000000 0.000000 0.000000 1.345677
    5 0.660750 -0.739376 0.000000 0.000000 0.000000 0.002283
    6 -0.736122 -1.726717 -0.122348 1.570770 -1.561760 1.573105
    7 -0.736128 -1.724683 0.143968 -1.570809 1.561648 -1.568528
    8 1.971970 -2.249433 0.180133 0.019412 -0.056377 3.115553
    9 -0.002752 -0.001265 -0.003287 0.000000 0.000000 0.000000
    10 8.817901 0.106801 -5.010853 6.094506 -1.972290 -0.029429
    11 7.761285 -1.530698 -0.403721 -1.567974 -0.029307 -3.255045
    12 -0.032857 -8.494830 -0.084602 0.089316 0.481234 0.139449
    13 -0.488518 -2.755602 -0.228260 -0.242250 0.060691 -0.057732
    14 0.039887 -1.538386 0.018135 -1.634758 -0.010403 0.036650
    15 0.028786 -1.134327 -0.109049 -0.791864 -0.013746 0.015532
    16 0.250027 -2.820665 -0.238396 -0.313985 0.018280 -0.085804
    17 -0.049759 -1.602417 0.049696 -1.312009 0.004662 -0.036064
    18 -0.034142 -1.175657 0.045718 -1.263189 0.005489 -0.033341
    19 0.957766 -2.746780 -0.090302 0.167150 -0.150256 0.099289
    20 -0.033420 -1.393223 -0.019070 -0.517853 0.008329 -0.025205
    21 -0.022360 -0.957436 0.007065 -0.527929 0.007982 -0.025323
    22 -1.180681 -2.507217 -0.193859 -0.150629 0.142428 -0.022097
    23 -0.024967 -1.123934 0.017597 -0.759772 0.006951 -0.032333
    24 -0.020057 -0.906594 0.037435 -1.161982 0.002397 -0.047687
    25 0.603042 -1.197277 0.181473 0.666402 -0.922572 -1.051051
    26 1.504676 -0.177260 -0.006710 0.213418 0.065484 -0.624307
    27 1.049988 -0.147821 0.032291 0.039018 -0.188604 -0.767764
    28 0.120153 -0.050270 -0.054489 0.287569 3.110905 1.561085
    29 0.362063 -2.586648 -10.622701 -1.836736 -5.233498 -1.395558
    30 0.050068 -8.403542 0.002354 0.082311 -0.345882 0.445075
    31 0.447953 -2.798986 -0.200443 -0.244439 -0.056549 0.060325
    32 -0.032909 -1.499736 0.024472 -1.286546 0.022998 -0.023524
    33 -0.027022 -1.096452 -0.028023 -0.524789 0.013722 -0.005621
    34 -0.249534 -2.846964 -0.174213 -0.316343 -0.019324 0.076958
    35 0.043235 -1.656596 0.076480 -1.215735 -0.019648 0.004291
    36 0.031729 -1.149111 0.058838 -0.758918 -0.007903 0.005292
    37 -0.963866 -2.785145 -0.085350 -0.133536 0.264013 -0.032832
    38 0.028479 -1.403067 -0.009354 -0.611716 -0.012368 -0.024940
    39 0.021413 -0.942156 0.012233 -1.051190 -0.028955 -0.035163
    40 1.164475 -2.543940 -0.170330 -0.166622 -0.161422 -0.083745
    41 0.024032 -1.136855 -0.001725 -0.790999 0.004494 0.042151
    42 0.014898 -0.903521 -0.015942 -1.038482 0.010007 0.051857
    43 -0.586770 -1.264477 0.200161 -0.200114 -0.096951 -2.129323
    44 1.530648 0.054775 0.009035 0.154202 -0.079650 0.158043
    45 1.106228 0.052330 -0.001860 0.312990 -0.289446 0.975210
    46 -0.139399 -0.111698 0.014397 0.285382 -0.030687 1.580508
    47 -8.241335 0.850652 -0.469909 1.566794 -0.036171 -0.181028
  time 10
    0 5.997066 -11.720443 -3.271748 -1.494241 0.021248 1.551656
    1 -0.881688 0.301299 0.000000 0.000001 0.000000 -1.382160
    2 1.671935 4.611084 0.000000 0.000000 0.000000 1.232289
    3 -0.763543 -0.089952 0.631852 -0.002283 1.570796 0.000000
    4 1.384421 -0.042067 0.000000 0.000000 0.000000 1.345677
    5 0.660750 -0.739376 0.000000 0.000000 0.000000 0.002283
    6 -0.736122 -1.726717 -0.122348 1.570770 -1.561760 1.573105
    7 -0.736128 -1.724683 0.143968 -1.570809 1.561648 -1.568528
    8 1.971970 -2.249433 0.180133 0.019412 -0.056377 3.115553
    9 -0.002752 -0.001265 -0.003287 0.000000 0.000000 0.000000
    10 8.817901 0.106801 -5.010853 6.093071 -1.972365 -0.027801
    11 7.761285 -1.526792 -0.403721 -1.567974 -0.029307 -3.254841
    12 -0.032857 -8.494830 -0.084602 0.090177 0.480419 0.141017
    13 -0.488518 -2.755602 -0.228260 -0.242250 0.060691 -0.057732
    14 0.039887 -1.538386 0.018135 -1.634758 -0.010403 0.036650
    15 0.028786 -1.134327 -0.109049 -0.791864 -0.013746 0.015532
    16 0.250027 -2.820665 -0.238396 -0.313985 0.018280 -0.085804
    17 -0.049759 -1.602417 0.049696 -1.312009 0.004662 -0.036064
    18 -0.034142 -1.175657 0.045718 -1.263189 0.005489 -0.033341
    19 0.957766 -2.746780 -0.090302 0.167150 -0.150256 0.099289
    20 -0.033420 -1.393223 -0.019070 -0.517853 0.008329 -0.025205
    21 -0.022360 -0.957436 0.007065 -0.527929 0.007982 -0.025323
    22 -1.180681 -2.507217 -0.193859 -0.150629 0.142428 -0.022097
    23 -0.024967 -1.123934 0.017597 -0.759772 0.006951 -0.032333
    24 -0.020057 -0.906594 0.037435 -1.161982 0.002397 -0.047687
    25 0.603042 -1.197277 0.181473 0.666402 -0.922572 -1.051051
    26 1.504676 -0.177260 -0.006710 0.213418 0.065484 -0.624307
    27 1.049988 -0.147821 0.032291 0.039018 -0.188604 -0.767764
    28 0.120153 -0.050270 -0.054489 0.287569 3.110905 1.561085
    29 0.362063 -2.586648 -10.622701 -1.837031 -5.232828 -1.395558
    30 0.050068 -8.407448 0.002354 0.082267 -0.346027 0.443372
    31 0.447953 -2.798986 -0.200443 -0.244439 -0.056549 0.060325
    32 -0.032909 -1.499736 0.024472 -1.286546 0.022998 -0.023524
    33 -0.027022 -1.096452 -0.028023 -0.524789 0.013722 -0.005621
    34 -0.249534 -2.846964 -0.174213 -0.316343 -0.019324 0.076958
    35 0.043235 -1.656596 0.076480 -1.215735 -0.019648 0.004291
    36 0.031729 -1.149111 0.058838 -0.758918 -0.007903 0.005292
    37 -0.963866 -2.785145 -0.085350 -0.133536 0.264013 -0.032832
    38 0.028479 -1.403067 -0.009354 -0.611716 -0.012368 -0.024940
    39 0.021413 -0.942156 0.012233 -1.051190 -0.028955 -0.035163
    40 1.164475 -2.543940 -0.170330 -0.166622 -0.161422 -0.083745
    41 0.024032 -1.136855 -0.001725 -0.790999 0.004494 0.042151
    42 0.014898 -0.903521 -0.015942 -1.038482 0.010007 0.051857
    43 -0.586770 -1.264477 0.200161 -0.200114 -0.096951 -2.129323
    44 1.530648 0.054775 0.009035 0.154202 -0.079650 0.158043
    45 1.106228 0.052330 -0.001860 0.312990 -0.289446 0.975210
    46 -0.139399 -0.111698 0.014397 0.285382 -0.030687 1.580508
    47 -8.241335 0.854558 -0.469909 1.566806 -0.036171 -0.181447
  time 11
    0 6.000972 -11.716537 -3.275654 -1.494336 0.021722 1.551757
    1 -0.881688 0.301299 0.000000 0.000001 0.000000 -1.382160
    2 1.671935 4.611084 0.000000 0.000000 0.000000 1.232289
    3 -0.763543 -0.089952 0.631852 -0.002283 1.570796 0.000000
    4 1.384421 -0.042067 0.000000 0.000000 0.000000 1.345677
    5 0.660750 -0.739376 0.000000 0.000000 0.000000 0.002283
    6 -0.736122 -1.726717 -0.122348 1.570770 -1.561760 1.573105
    7 -0.736128 -1.724683 0.143968 -1.570809 1.561648 -1.568528
    8 1.971970 -2.249433 0.180133 0.019412 -0.056377 3.115553
    9 -0.002752 -0.001265 -0.003287 0.000000 0.000000 0.000000
    10 8.817901 0.110707 -5.006947 6.091444 -1.972589 -0.026173
    11 7.761285 -1.526792 -0.403721 -1.567974 -0.029307 -3.254977
    12 -0.032857 -8.494830 -0.084602 0.090449 0.480283 0.142210
    13 -0.488518 -2.755602 -0.228260 -0.242250 0.060691 -0.057732
    14 0.039887 -1.538386 0.018135 -1.634758 -0.010403 0.036650
    15 0.028786 -1.134327 -0.109049 -0.791864 -0.013746 0.015532
    16 0.250027 -2.820665 -0.238396 -0.313985 0.018280 -0.085804
    17 -0.049759 -1.602417 0.049696 -1.312009 0.004662 -0.036064
    18 -0.034142 -1.175657 0.045718 -1.263189 0.005489 -0.033341
    19 0.957766 -2.746780 -0.090302 0.167150 -0.150256 0.099289
    20 -0.033420 -1.393223 -0.019070 -0.517853 0.008329 -0.025205
    21 -0.022360 -0.957436 0.007065 -0.527929 0.007982 -0.025323
    22 -1.180681 -2.507217 -0.193859 -0.150629 0.142428 -0.022097
    23 -0.024967 -1.123934 0.017597 -0.759772 0.006951 -0.032333
    24 -0.020057 -0.906594 0.037435 -1.161982 0.002397 -0.047687
    25 0.603042 -1.197277 0.181473 0.666402 -0.922572 -1.051051
    26 1.504676 -0.177260 -0.006710 0.213418 0.065484 -0.624307
    27 1.049988 -0.147821 0.032291 0.039018 -0.188604 -0.767764
    28 0.120153 -0.050270 -0.054489 0.287569 3.110905 1.561085
    29 0.362063 -2.582741 -10.626608 -1.837090 -5.232577 -1.395271
    30 0.050068 -8.407448 0.002354 0.082715 -0.345845 0.442485
    31 0.447953 -2.798986 -0.200443 -0.244439 -0.056549 0.060325
    32 -0.032909 -1.499736 0.024472 -1.286546 0.022998 -0.023524
    33 -0.027022 -1.096452 -0.028023 -0.524789 0.013722 -0.005621
    34 -0.249534 -2.846964 -0.174213 -0.316343 -0.019324 0.076958
    35 0.043235 -1.656596 0.076480 -1.215735 -0.019648 0.004291
    36 0.031729 -1.149111 0.058838 -0.758918 -0.007903 0.005292
    37 -0.963866 -2.785145 -0.085350 -0.133536 0.264013 -0.032832
    38 0.028479 -1.403067 -0.009354 -0.611716 -0.012368 -0.024940
    39 0.021413 -0.942156 0.012233 -1.051190 -0.028955 -0.035163
    40 1.164475 -2.543940 -0.170330 -0.166622 -0.161422 -0.083745
    41 0.024032 -1.136855 -0.001725 -0.790999 0.004494 0.042151
    42 0.014898 -0.903521 -0.015942 -1.038482 0.010007 0.051857
    43 -0.586770 -1.264477 0.200161 -0.200114 -0.096951 -2.129323
    44 1.530648 0.054775 0.009035 0.154202 -0.079650 0.158043
    45 1.106228 0.052330 -0.001860 0.312990 -0.289446 0.975210
    46 -0.139399 -0.111698 0.014397 0.285382 -0.030687 1.580508
    47 -8.241335 0.850652 -0.469909 1.566794 -0.036171 -0.181097
  time 12
    0 6.004879 -11.708724 -3.279561 -1.494241 0.022195 1.551556
    1 -0.881688 0.301299 0.000000 0.000001 0.000000 -1.382160
    2 1.671935 4.611084 0.000000 0.000000 0.000000 1.232289
    3 -0.763543 -0.089952 0.631852 -0.002283 1.570796 0.000000
    4 1.384421 -0.042067 0.000000 0.000000 0.000000 1.345677
    5 0.660750 -0.739376 0.000000 0.000000 0.000000 0.002283
    6 -0.736122 -1.726717 -0.122348 1.570770 -1.561760 1.573105
    7 -0.736128 -1.724683 0.143968 -1.570809 1.561648 -1.568528
    8 1.971970 -2.249433 0.180133 0.019412 -0.056377 3.115553
    9 -0.002752 -0.001265 -0.003287 0.000000 0.000000 0.000000
    10 8.821807 0.118520 -5.006947 6.089530 -1.972814 -0.024067
    11 7.761285 -1.530698 -0.403721 -1.567974 -0.029307 -3.255250
    12 -0.032857 -8.494830 -0.084602 0.090449 0.480419 0.143527
    13 -0.488518 -2.755602 -0.228260 -0.242250 0.060691 -0.057732
    14 0.039887 -1.538386 0.018135 -1.634758 -0.010403 0.036650
    15 0.028786 -1.134327 -0.109049 -0.791864 -0.013746 0.015532
    16 0.250027 -2.820665 -0.238396 -0.313985 0.018280 -0.085804
    17 -0.049759 -1.602417 0.049696 -1.312009 0.004662 -0.036064
    18 -0.034142 -1.175657 0.045718 -1.263189 0.005489 -0.033341
    19 0.957766 -2.746780 -0.090302 0.167150 -0.150256 0.099289
    20 -0.033420 -1.393223 -0.019070 -0.517853 0.008329 -0.025205
    21 -0.022360 -0.957436 0.007065 -0.527929 0.007982 -0.025323
    22 -1.180681 -2.507217 -0.193859 -0.150629 0.142428 -0.022097
    23 -0.024967 -1.123934 0.017597 -0.759772 0.006951 -0.032333
    24 -0.020057 -0.906594 0.037435 -1.161982 0.002397 -0.047687
    25 0.603042 -1.197277 0.181473 0.666402 -0.922572 -1.051051
    26 1.504676 -0.177260 -0.006710 0.213418 0.065484 -0.624307
    27 1.049988 -0.147821 0.032291 0.039018 -0.188604 -0.767764
    28 0.120153 -0.050270 -0.054489 0.287569 3.110905 1.561085
    29 0.362063 -2.578835 -10.630514 -1.837149 -5.232410 -1.394696
    30 0.053974 -8.407448 0.002354 0.083568 -0.345447 0.441811
    31 0.447953 -2.798986 -0.200443 -0.244439 -0.056549 0.060325
    32 -0.032909 -1.499736 0.024472 -1.286546 0.022998 -0.023524
    33 -0.027022 -1.096452 -0.028023 -0.524789 0.013722 -0.005621
    34 -0.249534 -2.846964 -0.174213 -0.316343 -0.019324 0.076958
    35 0.043235 -1.656596 0.076480 -1.215735 -0.019648 0.004291
    36 0.031729 -1.149111 0.058838 -0.758918 -0.007903 0.005292
    37 -0.963866 -2.785145 -0.085350 -0.133536 0.264013 -0.032832
    38 0.028479 -1.403067 -0.009354 -0.611716 -0.012368 -0.024940
    39 0.021413 -0.942156 0.012233 -1.051190 -0.028955 -0.035163
    40 1.164475 -2.543940 -0.170330 -0.166622 -0.161422 -0.083745
    41 0.024032 -1.136855 -0.001725 -0.790999 0.004494 0.042151
    42 0.014898 -0.903521 -0.015942 -1.038482 0.010007 0.051857
    43 -0.586770 -1.264477 0.200161 -0.200114 -0.096951 -2.129323
    44 1.530648 0.054775 0.009035 0.154202 -0.079650 0.158043
    45 1.106228 0.052330 -0.001860 0.312990 -0.289446 0.975210
    46 -0.139399 -0.111698 0.014397 0.285382 -0.030687 1.580508
    47 -8.241335 0.842839 -0.469909 1.566782 -0.036183 -0.180329
  time 13
    0 6.008785 -11.700912 -3.283467 -1.493955 0.022479 1.551204
    1 -0.881688 0.301299 0.000000 0.000001 0.000000 -1.382160
    2 1.671935 4.611084 0.000000 0.000000 0.000000 1.232289
    3 -0.763543 -0.089952 0.631852 -0.002283 1.570796 0.000000
    4 1.384421 -0.042067 0.000000 0.000000 0.000000 1.345677
    5 0.660750 -0.739376 0.000000 0.000000 0.000000 0.002283
    6 -0.736122 -1.726717 -0.122348 1.570770 -1.561760 1.573105
    7 -0.736128 -1.724683 0.143968 -1.570809 1.561648 -1.568528
    8 1.971970 -2.249433 0.180133 0.019412 -0.056377 3.115553
    9 -0.002752 -0.001265 -0.003287 0.000000 0.000000 0.000000
    10 8.821807 0.122427 -5.003041 6.087616 -1.973114 -0.021865
    11 7.761285 -1.534605 -0.403721 -1.567974 -0.029307 -3.255523
    12 -0.032857 -8.494830 -0.084602 0.090223 0.480736 0.144782
    13 -0.488518 -2.755602 -0.228260 -0.242250 0.060691 -0.057732
    14 0.039887 -1.538386 0.018135 -1.634758 -0.010403 0.036650
    15 0.028786 -1.134327 -0.109049 -0.791864 -0.013746 0.015532
    16 0.250027 -2.820665 -0.238396 -0.313985 0.018280 -0.085804
    17 -0.049759 -1.602417 0.049696 -1.312009 0.004662 -0.036064
    18 -0.034142 -1.175657 0.045718 -1.263189 0.005489 -0.033341
    19 0.957766 -2.746780 -0.090302 0.167150 -0.150256 0.099289
    20 -0.033420 -1.393223 -0.019070 -0.517853 0.008329 -0.025205
    21 -0.022360 -0.957436 0.007065 -0.527929 0.007982 -0.025323
    22 -1.180681 -2.507217 -0.193859 -0.150629 0.142428 -0.022097
    23 -0.024967 -1.123934 0.017597 -0.759772 0.006951 -0.032333
    24 -0.020057 -0.906594 0.037435 -1.161982 0.002397 -0.047687
    25 0.603042 -1.197277 0.181473 0.666402 -0.922572 -1.051051
    26 1.504676 -0.177260 -0.006710 0.213418 0.065484 -0.624307
    27 1.049988 -0.147821 0.032291 0.039018 -0.188604 -0.767764
    28 0.120153 -0.050270 -0.054489 0.287569 3.110905 1.561085
    29 0.362063 -2.574929 -10.630514 -1.837090 -5.232327 -1.394122
    30 0.053974 -8.407448 0.002354 0.084600 -0.345011 0.441314
    31 0.447953 -2.798986 -0.200443 -0.244439 -0.056549 0.060325
    32 -0.032909 -1.499736 0.024472 -1.286546 0.022998 -0.023524
    33 -0.027022 -1.096452 -0.028023 -0.524789 0.013722 -0.005621
    34 -0.249534 -2.846964 -0.174213 -0.316343 -0.019324 0.076958
    35 0.043235 -1.656596 0.076480 -1.215735 -0.019648 0.004291
    36 0.031729 -1.149111 0.058838 -0.758918 -0.007903 0.005292
    37 -0.963866 -2.785145 -0.085350 -0.133536 0.264013 -0.032832
    38 0.028479 -1.403067 -0.009354 -0.611716 -0.012368 -0.024940
    39 0.021413 -0.942156 0.012233 -1.051190 -0.028955 -0.035163
    40 1.164475 -2.543940 -0.170330 -0.166622 -0.161422 -0.083745
    41 0.024032 -1.136855 -0.001725 -0.790999 0.004494 0.042151
    42 0.014898 -0.903521 -0.015942 -1.038482 0.010007 0.051857
    43 -0.586770 -1.264477 0.200161 -0.200114 -0.096951 -2.129323
    44 1.530648 0.054775 0.009035 0.154202 -0.079650 0.158043
    45 1.106228 0.052330 -0.001860 0.312990 -0.289446 0.975210
    46 -0.139399 -0.111698 0.014397 0.285382 -0.030687 1.580508
    47 -8.241335 0.835027 -0.469909 1.566758 -0.036195 -0.179351
  time 14
    0 6.008785 -11.697005 -3.283467 -1.493765 0.022668 1.550903
    1 -0.881688 0.301299 0.000000 0.000001 0.000000 -1.382160
    2 1.671935 4.611084 0.000000 0.000000 0.000000 1.232289
    3 -0.763543 -0.089952 0.631852 -0.002283 1.570796 0.000000
    4 1.384421 -0.042067 0.000000 0.000000 0.000000 1.345677
    5 0.660750 -0.739376 0.000000 0.000000 0.000000 0.002283
    6 -0.736122 -1.726717 -0.122348 1.570770 -1.561760 1.573105
    7 -0.736128 -1.724683 0.143968 -1.570809 1.561648 -1.568528
    8 1.971970 -2.249433 0.180133 0.019412 -0.056377 3.115553
    9 -0.002752 -0.001265 -0.003287 0.000000 0.000000 0.000000
    10 8.821807 0.130239 -5.003041 6.085989 -1.973339 -0.020046
    11 7.761285 -1.534605 -0.403721 -1.567974 -0.029307 -3.255796
    12 -0.032857 -8.494830 -0.084602 0.089996 0.481053 0.145849
    13 -0.488518 -2.755602 -0.228260 -0.242250 0.060691 -0.057732
    14 0.039887 -1.538386 0.018135 -1.634758 -0.010403 0.036650
    15 0.028786 -1.134327 -0.109049 -0.791864 -0.013746 0.015532
    16 0.250027 -2.820665 -0.238396 -0.313985 0.018280 -0.085804
    17 -0.049759 -1.602417 0.049696 -1.312009 0.004662 -0.036064
    18 -0.034142 -1.175657 0.045718 -1.263189 0.005489 -0.033341
    19 0.957766 -2.746780 -0.090302 0.167150 -0.150256 0.099289
    20 -0.033420 -1.393223 -0.019070 -0.517853 0.008329 -0.025205
    21 -0.022360 -0.957436 0.007065 -0.527929 0.007982 -0.025323
    22 -1.180681 -2.507217 -0.193859 -0.150629 0.142428 -0.022097
    23 -0.024967 -1.123934 0.017597 -0.759772 0.006951 -0.032333
    24 -0.020057 -0.906594 0.037435 -1.161982 0.002397 -0.047687
    25 0.603042 -1.197277 0.181473 0.666402 -0.922572 -1.051051
    26 1.504676 -0.177260 -0.006710 0.213418 0.065484 -0.624307
    27 1.049988 -0.147821 0.032291 0.039018 -0.188604 -0.767764
    28 0.120153 -0.050270 -0.054489 0.287569 3.110905 1.561085
    29 0.362063 -2.567116 -10.634420 -1.837090 -5.232243 -1.393547
    30 0.053974 -8.407448 0.002354 0.085497 -0.344612 0.440959
    31 0.447953 -2.798986 -0.200443 -0.244439 -0.056549 0.060325
    32 -0.032909 -1.499736 0.024472 -1.286546 0.022998 -0.023524
    33 -0.027022 -1.096452 -0.028023 -0.524789 0.013722 -0.005621
    34 -0.249534 -2.846964 -0.174213 -0.316343 -0.019324 0.076958
    35 0.043235 -1.656596 0.076480 -1.215735 -0.019648 0.004291
    36 0.031729 -1.149111 0.058838 -0.758918 -0.007903 0.005292
    37 -0.963866 -2.785145 -0.085350 -0.133536 0.264013 -0.032832
    38 0.028479 -1.403067 -0.009354 -0.611716 -0.012368 -0.024940
    39 0.021413 -0.942156 0.012233 -1.051190 -0.028955 -0.035163
    40 1.164475 -2.543940 -0.170330 -0.166622 -0.161422 -0.083745
    41 0.024032 -1.136855 -0.001725 -0.790999 0.004494 0.042151
    42 0.014898 -0.903521 -0.015942 -1.038482 0.010007 0.051857
    43 -0.586770 -1.264477 0.200161 -0.200114 -0.096951 -2.129323
    44 1.530648 0.054775 0.009035 0.154202 -0.079650 0.158043
    45 1.106228 0.052330 -0.001860 0.312990 -0.289446 0.975210
    46 -0.139399 -0.111698 0.014397 0.285382 -0.030687 1.580508
    47 -8.241335 0.831120 -0.473815 1.566734 -0.036207 -0.178513
  time 15
    0 6.012691 -11.693099 -3.287374 -1.493575 0.022857 1.550702
    1 -0.881688 0.301299 0.000000 0.000001 0.000000 -1.382160
    2 1.671935 4.611084 0.000000 0.000000 0.000000 1.232289
    3 -0.763543 -0.089952 0.631852 -0.002283 1.570796 0.000000
    4 1.384421 -0.042067 0.000000 0.000000 0.000000 1.345677
    5 0.660750 -0.739376 0.000000 0.000000 0.000000 0.002283
    6 -0.736122 -1.726717 -0.122348 1.570770 -1.561760 1.573105
    7 -0.736128 -1.724683 0.143968 -1.570809 1.561648 -1.568528
    8 1.971970 -2.249433 0.180133 0.019412 -0.056377 3.115553
    9 -0.002752 -0.001265 -0.003287 0.000000 0.000000 0.000000
    10 8.825714 0.130239 -5.003041 6.085032 -1.973489 -0.018993
    11 7.757378 -1.534605 -0.403721 -1.567974 -0.029307 -3.256001
    12 -0.032857 -8.494830 -0.084602 0.089905 0.481234 0.146414
    13 -0.488518 -2.755602 -0.228260 -0.242250 0.060691 -0.057732
    14 0.039887 -1.538386 0.018135 -1.634758 -0.010403 0.036650
    15 0.028786 -1.134327 -0.109049 -0.791864 -0.013746 0.015532
    16 0.250027 -2.820665 -0.238396 -0.313985 0.018280 -0.085804
    17 -0.049759 -1.602417 0.049696 -1.312009 0.004662 -0.036064
    18 -0.034142 -1.175657 0.045718 -1.263189 0.005489 -0.033341
    19 0.957766 -2.746780 -0.090302 0.167150 -0.150256 0.099289
    20 -0.033420 -1.393223 -0.019070 -0.517853 0.008329 -0.025205
    21 -0.022360 -0.957436 0.007065 -0.527929 0.007982 -0.025323
    22 -1.180681 -2.507217 -0.193859 -0.150629 0.142428 -0.022097
    23 -0.024967 -1.123934 0.017597 -0.759772 0.006951 -0.032333
    24 -0.020057 -0.906594 0.037435 -1.161982 0.002397 -0.047687
    25 0.603042 -1.197277 0.181473 0.666402 -0.922572 -1.051051
    26 1.504676 -0.177260 -0.006710 0.213418 0.065484 -0.624307
    27 1.049988 -0.147821 0.032291 0.039018 -0.188604 -0.767764
    28 0.120153 -0.050270 -0.054489 0.287569 3.110905 1.561085
    29 0.358157 -2.567116 -10.634420 -1.837031 -5.232243 -1.393164
    30 0.053974 -8.407448 0.002354 0.085991 -0.344359 0.440746
    31 0.447953 -2.798986 -0.200443 -0.244439 -0.056549 0.060325
    32 -0.032909 -1.499736 0.024472 -1.286546 0.022998 -0.023524
    33 -0.027022 -1.096452 -0.028023 -0.524789 0.013722 -0.005621
    34 -0.249534 -2.846964 -0.174213 -0.316343 -0.019324 0.076958
    35 0.043235 -1.656596 0.076480 -1.215735 -0.019648 0.004291
    36 0.031729 -1.149111 0.058838 -0.758918 -0.007903 0.005292
    37 -0.963866 -2.785145 -0.085350 -0.133536 0.264013 -0.032832
    38 0.028479 -1.403067 -0.009354 -0.611716 -0.012368 -0.024940
    39 0.021413 -0.942156 0.012233 -1.051190 -0.028955 -0.035163
    40 1.164475 -2.543940 -0.170330 -0.166622 -0.161422 -0.083745
    41 0.024032 -1.136855 -0.001725 -0.790999 0.004494 0.042151
    42 0.014898 -0.903521 -0.015942 -1.038482 0.010007 0.051857
    43 -0.586770 -1.264477 0.200161 -0.200114 -0.096951 -2.129323
    44 1.530648 0.054775 0.009035 0.154202 -0.079650 0.158043
    45 1.106228 0.052330 -0.001860 0.312990 -0.289446 0.975210
    46 -0.139399 -0.111698 0.014397 0.285382 -0.030687 1.580508
    47 -8.241335 0.823308 -0.473815 1.566722 -0.036207 -0.178025
  time 16
    0 6.012691 -11.689193 -3.287374 -1.493575 0.022952 1.550651
    1 -0.881688 0.301299 0.000000 0.000001 0.000000 -1.382160
    2 1.671935 4.611084 0.000000 0.000000 0.000000 1.232289
    3 -0.763543 -0.089952 0.631852 -0.002283 1.570796 0.000000
    4 1.384421 -0.042067 0.000000 0.000000 0.000000 1.345677
    5 0.660750 -0.739376 0.000000 0.000000 0.000000 0.002283
    6 -0.736122 -1.726717 -0.122348 1.570770 -1.561760 1.573105
    7 -0.736128 -1.724683 0.143968 -1.570809 1.561648 -1.568528
    8 1.971970 -2.249433 0.180133 0.019412 -0.056377 3.115553
    9 -0.002752 -0.001265 -0.003287 0.000000 0.000000 0.000000
    10 8.825714 0.134146 -4.999134 6.084554 -1.973564 -0.018514
    11 7.757378 -1.538511 -0.403721 -1.567974 -0.029307 -3.256069
    12 -0.032857 -8.494830 -0.084602 0.089860 0.481279 0.146727
    13 -0.488518 -2.755602 -0.228260 -0.242250 0.060691 -0.057732
    14 0.039887 -1.538386 0.018135 -1.634758 -0.010403 0.036650
    15 0.028786 -1.134327 -0.109049 -0.791864 -0.013746 0.015532
    16 0.250027 -2.820665 -0.238396 -0.313985 0.018280 -0.085804
    17 -0.049759 -1.602417 0.049696 -1.312009 0.004662 -0.036064
    18 -0.034142 -1.175657 0.045718 -1.263189 0.005489 -0.033341
    19 0.957766 -2.746780 -0.090302 0.167150 -0.150256 0.099289
    20 -0.033420 -1.393223 -0.019070 -0.517853 0.008329 -0.025205
    21 -0.022360 -0.957436 0.007065 -0.527929 0.007982 -0.025323
    22 -1.180681 -2.507217 -0.193859 -0.150629 0.142428 -0.022097
    23 -0.024967 -1.123934 0.017597 -0.759772 0.006951 -0.032333
    24 -0.020057 -0.906594 0.037435 -1.161982 0.002397 -0.047687
    25 0.603042 -1.197277 0.181473 0.666402 -0.922572 -1.051051
    26 1.504676 -0.177260 -0.006710 0.213418 0.065484 -0.624307
    27 1.049988 -0.147821 0.032291 0.039018 -0.188604 -0.767764
    28 0.120153 -0.050270 -0.054489 0.287569 3.110905 1.561085
    29 0.358157 -2.567116 -10.634420 -1.837090 -5.232159 -1.393069
    30 0.053974 -8.407448 0.002354 0.086215 -0.344286 0.440604
    31 0.447953 -2.798986 -0.200443 -0.244439 -0.056549 0.060325
    32 -0.032909 -1.499736 0.024472 -1.286546 0.022998 -0.023524
    33 -0.027022 -1.096452 -0.028023 -0.524789 0.013722 -0.005621
    34 -0.249534 -2.846964 -0.174213 -0.316343 -0.019324 0.076958
    35 0.043235 -1.656596 0.076480 -1.215735 -0.019648 0.004291
    36 0.031729 -1.149111 0.058838 -0.758918 -0.007903 0.005292
    37 -0.963866 -2.785145 -0.085350 -0.133536 0.264013 -0.032832
    38 0.028479 -1.403067 -0.009354 -0.611716 -0.012368 -0.024940
    39 0.021413 -0.942156 0.012233 -1.051190 -0.028955 -0.035163
    40 1.164475 -2.543940 -0.170330 -0.166622 -0.161422 -0.083745
    41 0.024032 -1.136855 -0.001725 -0.790999 0.004494 0.042151
    42 0.014898 -0.903521 -0.015942 -1.038482 0.010007 0.051857
    43 -0.586770 -1.264477 0.200161 -0.200114 -0.096951 -2.129323
    44 1.530648 0.054775 0.009035 0.154202 -0.079650 0.158043
    45 1.106228 0.052330 -0.001860 0.312990 -0.289446 0.975210
    46 -0.139399 -0.111698 0.014397 0.285382 -0.030687 1.580508
    47 -8.241335 0.823308 -0.473815 1.566722 -0.036219 -0.177885
  time 17
    0 6.012691 -11.689193 -3.287374 -1.493575 0.022952 1.550651
    1 -0.881688 0.301299 0.000000 0.000001 0.000000 -1.382160
    2 1.671935 4.611084 0.000000 0.000000 0.000000 1.232289
    3 -0.763543 -0.089952 0.631852 -0.002283 1.570796 0.000000
    4 1.384421 -0.042067 0.000000 0.000000 0.000000 1.345677
    5 0.660750 -0.739376 0.000000 0.000000 0.000000 0.002283
    6 -0.736122 -1.726717 -0.122348 1.570770 -1.561760 1.573105
    7 -0.736128 -1.724683 0.143968 -1.570809 1.561648 -1.568528
    8 1.971970 -2.249433 0.180133 0.019412 -0.056377 3.115553
    9 -0.002752 -0.001265 -0.003287 0.000000 0.000000 0.000000
    10 8.825714 0.134146 -4.999134 6.084267 -1.973639 -0.018227
    11 7.757378 -1.538511 -0.403721 -1.567974 -0.029307 -3.256069
    12 -0.032857 -8.494830 -0.084602 0.089860 0.481279 0.146916
    13 -0.488518 -2.755602 -0.228260 -0.242250 0.060691 -0.057732
    14 0.039887 -1.538386 0.018135 -1.634758 -0.010403 0.036650
    15 0.028786 -1.134327 -0.109049 -0.791864 -0.013746 0.015532
    16 0.250027 -2.820665 -0.238396 -0.313985 0.018280 -0.085804
    17 -0.049759 -1.602417 0.049696 -1.312009 0.004662 -0.036064
    18 -0.034142 -1.175657 0.045718 -1.263189 0.005489 -0.033341
    19 0.957766 -2.746780 -0.090302 0.167150 -0.150256 0.099289
    20 -0.033420 -1.393223 -0.019070 -0.517853 0.008329 -0.025205
    21 -0.022360 -0.957436 0.007065 -0.527929 0.007982 -0.025323
    22 -1.180681 -2.507217 -0.193859 -0.150629 0.142428 -0.022097
    23 -0.024967 -1.123934 0.017597 -0.759772 0.006951 -0.032333
    24 -0.020057 -0.906594 0.037435 -1.161982 0.002397 -0.047687
    25 0.603042 -1.197277 0.181473 0.666402 -0.922572 -1.051051
    26 1.504676 -0.177260 -0.006710 0.213418 0.065484 -0.624307
    27 1.049988 -0.147821 0.032291 0.039018 -0.188604 -0.767764
    28 0.120153 -0.050270 -0.054489 0.287569 3.110905 1.561085
    29 0.358157 -2.563210 -10.638327 -1.837090 -5.232159 -1.392973
    30 0.053974 -8.407448 0.002354 0.086350 -0.344214 0.440498
    31 0.447953 -2.798986 -0.200443 -0.244439 -0.056549 0.060325
    32 -0.032909 -1.499736 0.024472 -1.286546 0.022998 -0.023524
    33 -0.027022 -1.096452 -0.028023 -0.524789 0.013722 -0.005621
    34 -0.249534 -2.846964 -0.174213 -0.316343 -0.019324 0.076958
    35 0.043235 -1.656596 0.076480 -1.215735 -0.019648 0.004291
    36 0.031729 -1.149111 0.058838 -0.758918 -0.007903 0.005292
    37 -0.963866 -2.785145 -0.085350 -0.133536 0.264013 -0.032832
    38 0.028479 -1.403067 -0.009354 -0.611716 -0.012368 -0.024940
    39 0.021413 -0.942156 0.012233 -1.051190 -0.028955 -0.035163
    40 1.164475 -2.543940 -0.170330 -0.166622 -0.161422 -0.083745
    41 0.024032 -1.136855 -0.001725 -0.790999 0.004494 0.042151
    42 0.014898 -0.903521 -0.015942 -1.038482 0.010007 0.051857
    43 -0.586770 -1.264477 0.200161 -0.200114 -0.096951 -2.129323
    44 1.530648 0.054775 0.009035 0.154202 -0.079650 0.158043
    45 1.106228 0.052330 -0.001860 0.312990 -0.289446 0.975210
    46 -0.139399 -0.111698 0.014397 0.285382 -0.030687 1.580508
    47 -8.241335 0.823308 -0.473815 1.566722 -0.036219 -0.177745
  time 18
    0 6.012691 -11.689193 -3.287374 -1.493480 0.022952 1.550601
    1 -0.881688 0.301299 0.000000 0.000001 0.000000 -1.382160
    2 1.671935 4.611084 0.000000 0.000000 0.000000 1.232289
    3 -0.763543 -0.089952 0.631852 -0.002283 1.570796 0.000000
    4 1.384421 -0.042067 0.000000 0.000000 0.000000 1.345677
    5 0.660750 -0.739376 0.000000 0.000000 0.000000 0.002283
    6 -0.736122 -1.726717 -0.122348 1.570770 -1.561760 1.573105
    7 -0.736128 -1.724683 0.143968 -1.570809 1.561648 -1.568528
    8 1.971970 -2.249433 0.180133 0.019412 -0.056377 3.115553
    9 -0.002752 -0.001265 -0.003287 0.000000 0.000000 0.000000
    10 8.825714 0.134146 -4.999134 6.084171 -1.973639 -0.018131
    11 7.757378 -1.538511 -0.403721 -1.567974 -0.029307 -3.256069
    12 -0.032857 -8.494830 -0.084602 0.089860 0.481325 0.146978
    13 -0.488518 -2.755602 -0.228260 -0.242250 0.060691 -0.057732
    14 0.039887 -1.538386 0.018135 -1.634758 -0.010403 0.036650
    15 0.028786 -1.134327 -0.109049 -0.791864 -0.013746 0.015532
    16 0.250027 -2.820665 -0.238396 -0.313985 0.018280 -0.085804
    17 -0.049759 -1.602417 0.049696 -1.312009 0.004662 -0.036064
    18 -0.034142 -1.175657 0.045718 -1.263189 0.005489 -0.033341
    19 0.957766 -2.746780 -0.090302 0.167150 -0.150256 0.099289
    20 -0.033420 -1.393223 -0.019070 -0.517853 0.008329 -0.025205
    21 -0.022360 -0.957436 0.007065 -0.527929 0.007982 -0.025323
    22 -1.180681 -2.507217 -0.193859 -0.150629 0.142428 -0.022097
    23 -0.024967 -1.123934 0.017597 -0.759772 0.006951 -0.032333
    24 -0.020057 -0.906594 0.037435 -1.161982 0.002397 -0.047687
    25 0.603042 -1.197277 0.181473 0.666402 -0.922572 -1.051051
    26 1.504676 -0.177260 -0.006710 0.213418 0.065484 -0.624307
    27 1.049988 -0.147821 0.032291 0.039018 -0.188604 -0.767764
    28 0.120153 -0.050270 -0.054489 0.287569 3.110905 1.561085
    29 0.358157 -2.563210 -10.638327 -1.837090 -5.232159 -1.392973
    30 0.053974 -8.407448 0.002354 0.086395 -0.344214 0.440498
    31 0.447953 -2.798986 -0.200443 -0.244439 -0.056549 0.060325
    32 -0.032909 -1.499736 0.024472 -1.286546 0.022998 -0.023524
    33 -0.027022 -1.096452 -0.028023 -0.524789 0.013722 -0.005621
    34 -0.249534 -2.846964 -0.174213 -0.316343 -0.019324 0.076958
    35 0.043235 -1.656596 0.076480 -1.215735 -0.019648 0.004291
    36 0.031729 -1.149111 0.058838 -0.758918 -0.007903 0.005292
    37 -0.963866 -2.785145 -0.085350 -0.133536 0.264013 -0.032832
    38 0.028479 -1.403067 -0.009354 -0.611716 -0.012368 -0.024940
    39 0.021413 -0.942156 0.012233 -1.051190 -0.028955 -0.035163
    40 1.164475 -2.543940 -0.170330 -0.166622 -0.161422 -0.083745
    41 0.024032 -1.136855 -0.001725 -0.790999 0.004494 0.042151
    42 0.014898 -0.903521 -0.015942 -1.038482 0.010007 0.051857
    43 -0.586770 -1.264477 0.200161 -0.200114 -0.096951 -2.129323
    44 1.530648 0.054775 0.009035 0.154202 -0.079650 0.158043
    45 1.106228 0.052330 -0.001860 0.312990 -0.289446 0.975210
    46 -0.139399 -0.111698 0.014397 0.285382 -0.030687 1.580508
    47 -8.241335 0.823308 -0.473815 1.566710 -0.036219 -0.177745
  time 19
    0 6.012691 -11.689193 -3.287374 -1.493480 0.022952 1.550601
    1 -0.881688 0.301299 0.000000 0.000001 0.000000 -1.382160
    2 1.671935 4.611084 0.000000 0.000000 0.000000 1.232289
    3 -0.763543 -0.089952 0.631852 -0.002283 1.570796 0.000000
    4 1.384421 -0.042067 0.000000 0.000000 0.000000 1.345677
    5 0.660750 -0.739376 0.000000 0.000000 0.000000 0.002283
    6 -0.736122 -1.726717 -0.122348 1.570770 -1.561760 1.573105
    7 -0.736128 -1.724683 0.143968 -1.570809 1.561648 -1.568528
    8 1.971970 -2.249433 0.180133 0.019412 -0.056377 3.115553
    9 -0.002752 -0.001265 -0.003287 0.000000 0.000000 0.000000
    10 8.825714 0.134146 -4.999134 6.084267 -1.973639 -0.018131
    11 7.757378 -1.538511 -0.403721 -1.567974 -0.029307 -3.256069
    12 -0.032857 -8.494830 -0.084602 0.089860 0.481325 0.146978
    13 -0.488518 -2.755602 -0.228260 -0.242250 0.060691 -0.057732
    14 0.039887 -1.538386 0.018135 -1.634758 -0.010403 0.036650
    15 0.028786 -1.134327 -0.109049 -0.791864 -0.013746 0.015532
    16 0.250027 -2.820665 -0.238396 -0.313985 0.018280 -0.085804
    17 -0.049759 -1.602417 0.049696 -1.312009 0.004662 -0.036064
    18 -0.034142 -1.175657 0.045718 -1.263189 0.005489 -0.033341
    19 0.957766 -2.746780 -0.090302 0.167150 -0.150256 0.099289
    20 -0.033420 -1.393223 -0.019070 -0.517853 0.008329 -0.025205
    21 -0.022360 -0.957436 0.007065 -0.527929 0.007982 -0.025323
    22 -1.180681 -2.507217 -0.193859 -0.150629 0.142428 -0.022097
    23 -0.024967 -1.123934 0.017597 -0.759772 0.006951 -0.032333
    24 -0.020057 -0.906594 0.037435 -1.161982 0.002397 -0.047687
    25 0.603042 -1.197277 0.181473 0.666402 -0.922572 -1.051051
    26 1.504676 -0.177260 -0.006710 0.213418 0.065484 -0.624307
    27 1.049988 -0.147821 0.032291 0.039018 -0.188604 -0.767764
    28 0.120153 -0.050270 -0.054489 0.287569 3.110905 1.561085
    29 0.358157 -2.563210 -10.638327 -1.837090 -5.232159 -1.392973
    30 0.053974 -8.407448 0.002354 0.086350 -0.344214 0.440498
    31 0.447953 -2.798986 -0.200443 -0.244439 -0.056549 0.060325
    32 -0.032909 -1.499736 0.024472 -1.286546 0.022998 -0.023524
    33 -0.027022 -1.096452 -0.028023 -0.524789 0.013722 -0.005621
    34 -0.249534 -2.846964 -0.174213 -0.316343 -0.019324 0.076958
    35 0.043235 -1.656596 0.076480 -1.215735 -0.019648 0.004291
    36 0.031729 -1.149111 0.058838 -0.758918 -0.007903 0.005292
    37 -0.963866 -2.785145 -0.085350 -0.133536 0.264013 -0.032832
    38 0.028479 -1.403067 -0.009354 -0.611716 -0.012368 -0.024940
    39 0.021413 -0.942156 0.012233 -1.051190 -0.028955 -0.035163
    40 1.164475 -2.543940 -0.170330 -0.166622 -0.161422 -0.083745
    41 0.024032 -1.136855 -0.001725 -0.790999 0.004494 0.042151
    42 0.014898 -0.903521 -0.015942 -1.038482 0.010007 0.051857
    43 -0.586770 -1.264477 0.200161 -0.200114 -0.096951 -2.129323
    44 1.530648 0.054775 0.009035 0.154202 -0.079650 0.158043
    45 1.106228 0.052330 -0.001860 0.312990 -0.289446 0.975210
    46 -0.139399 -0.111698 0.014397 0.285382 -0.030687 1.580508
    47 -8.241335 0.823308 -0.473815 1.566722 -0.036219 -0.177745
  time 20
    0 6.012691 -11.689193 -3.287374 -1.493575 0.022952 1.550651
    1 -0.881688 0.301299 0.000000 0.000001 0.000000 -1.382160
    2 1.671935 4.611084 0.000000 0.000000 0.000000 1.232289
    3 -0.763543 -0.089952 0.631852 -0.002283 1.570796 0.000000
    4 1.384421 -0.042067 0.000000 0.000000 0.000000 1.345677
    5 0.660750 -0.739376 0.000000 0.000000 0.000000 0.002283
    6 -0.736122 -1.726717 -0.122348 1.570770 -1.561760 1.573105
    7 -0.736128 -1.724683 0.143968 -1.570809 1.561648 -1.568528
    8 1.971970 -2.249433 0.180133 0.019412 -0.056377 3.115553
    9 -0.002752 -0.001265 -0.003287 0.000000 0.000000 0.000000
    10 8.825714 0.134146 -4.999134 6.084362 -1.973639 -0.018227
    11 7.757378 -1.538511 -0.403721 -1.567974 -0.029307 -3.256069
    12 -0.032857 -8.494830 -0.084602 0.089860 0.481279 0.146916
    13 -0.488518 -2.755602 -0.228260 -0.242250 0.060691 -0.057732
    14 0.039887 -1.538386 0.018135 -1.634758 -0.010403 0.036650
    15 0.028786 -1.134327 -0.109049 -0.791864 -0.013746 0.015532
    16 0.250027 -2.820665 -0.238396 -0.313985 0.018280 -0.085804
    17 -0.049759 -1.602417 0.049696 -1.312009 0.004662 -0.036064
    18 -0.034142 -1.175657 0.045718 -1.263189 0.005489 -0.033341
    19 0.957766 -2.746780 -0.090302 0.167150 -0.150256 0.099289
    20 -0.033420 -1.393223 -0.019070 -0.517853 0.008329 -0.025205
    21 -0.022360 -0.957436 0.007065 -0.527929 0.007982 -0.025323
    22 -1.180681 -2.507217 -0.193859 -0.150629 0.142428 -0.022097
    23 -0.024967 -1.123934 0.017597 -0.759772 0.006951 -0.032333
    24 -0.020057 -0.906594 0.037435 -1.161982 0.002397 -0.047687
    25 0.603042 -1.197277 0.181473 0.666402 -0.922572 -1.051051
    26 1.504676 -0.177260 -0.006710 0.213418 0.065484 -0.624307
    27 1.049988 -0.147821 0.032291 0.039018 -0.188604 -0.767764
    28 0.120153 -0.050270 -0.054489 0.287569 3.110905 1.561085
    29 0.358157 -2.563210 -10.638327 -1.837090 -5.232159 -1.392973
    30 0.053974 -8.407448 0.002354 0.086305 -0.344250 0.440533
    31 0.447953 -2.798986 -0.200443 -0.244439 -0.056549 0.060325
    32 -0.032909 -1.499736 0.024472 -1.286546 0.022998 -0.023524
    33 -0.027022 -1.096452 -0.028023 -0.524789 0.013722 -0.005621
    34 -0.249534 -2.846964 -0.174213 -0.316343 -0.019324 0.076958
    35 0.043235 -1.656596 0.076480 -1.215735 -0.019648 0.004291
    36 0.031729 -1.149111 0.058838 -0.758918 -0.007903 0.005292
    37 -0.963866 -2.785145 -0.085350 -0.133536 0.264013 -0.032832
    38 0.028479 -1.403067 -0.009354 -0.611716 -0.012368 -0.024940
    39 0.021413 -0.942156 0.012233 -1.051190 -0.028955 -0.035163
    40 1.164475 -2.543940 -0.170330 -0.166622 -0.161422 -0.083745
    41 0.024032 -1.136855 -0.001725 -0.790999 0.004494 0.042151
    42 0.014898 -0.903521 -0.015942 -1.038482 0.010007 0.051857
    43 -0.586770 -1.264477 0.200161 -0.200114 -0.096951 -2.129323
    44 1.530648 0.054775 0.009035 0.154202 -0.079650 0.158043
    45 1.106228 0.052330 -0.001860 0.312990 -0.289446 0.975210
    46 -0.139399 -0.111698 0.014397 0.285382 -0.030687 1.580508
    47 -8.241335 0.823308 -0.473815 1.566722 -0.036219 -0.177745
  time 21
    0 6.012691 -11.689193 -3.287374 -1.493575 0.022952 1.550651
    1 -0.881688 0.301299 0.000000 0.000001 0.000000 -1.382160
    2 1.671935 4.611084 0.000000 0.000000 0.000000 1.232289
    3 -0.763543 -0.089952 0.631852 -0.002283 1.570796 0.000000
    4 1.384421 -0.042067 0.000000 0.000000 0.000000 1.345677
    5 0.660750 -0.739376 0.000000 0.000000 0.000000 0.002283
    6 -0.736122 -1.726717 -0.122348 1.570770 -1.561760 1.573105
    7 -0.736128 -1.724683 0.143968 -1.570809 1.561648 -1.568528
    8 1.971970 -2.249433 0.180133 0.019412 -0.056377 3.115553
    9 -0.002752 -0.001265 -0.003287 0.000000 0.000000 0.000000
    10 8.825714 0.134146 -4.999134 6.084458 -1.973564 -0.018419
    11 7.757378 -1.538511 -0.403721 -1.567974 -0.029307 -3.256069
    12 -0.032857 -8.494830 -0.084602 0.089860 0.481279 0.146790
    13 -0.488518 -2.755602 -0.228260 -0.242250 0.060691 -0.057732
    14 0.039887 -1.538386 0.018135 -1.634758 -0.010403 0.036650
    15 0.028786 -1.134327 -0.109049 -0.791864 -0.013746 0.015532
    16 0.250027 -2.820665 -0.238396 -0.313985 0.018280 -0.085804
    17 -0.049759 -1.602417 0.049696 -1.312009 0.004662 -0.036064
    18 -0.034142 -1.175657 0.045718 -1.263189 0.005489 -0.033341
    19 0.957766 -2.746780 -0.090302 0.167150 -0.150256 0.099289
    20 -0.033420 -1.393223 -0.019070 -0.517853 0.008329 -0.025205
    21 -0.022360 -0.957436 0.007065 -0.527929 0.007982 -0.025323
    22 -1.180681 -2.507217 -0.193859 -0.150629 0.142428 -0.022097
    23 -0.024967 -1.123934 0.017597 -0.759772 0.006951 -0.032333
    24 -0.020057 -0.906594 0.037435 -1.161982 0.002397 -0.047687
    25 0.603042 -1.197277 0.181473 0.666402 -0.922572 -1.051051
    26 1.504676 -0.177260 -0.006710 0.213418 0.065484 -0.624307
    27 1.049988 -0.147821 0.032291 0.039018 -0.188604 -0.767764
    28 0.120153 -0.050270 -0.054489 0.287569 3.110905 1.561085
    29 0.358157 -2.563210 -10.634420 -1.837090 -5.232159 -1.393069
    30 0.053974 -8.407448 0.002354 0.086260 -0.344250 0.440569
    31 0.447953 -2.798986 -0.200443 -0.244439 -0.056549 0.060325
    32 -0.032909 -1.499736 0.024472 -1.286546 0.022998 -0.023524
    33 -0.027022 -1.096452 -0.028023 -0.524789 0.013722 -0.005621
    34 -0.249534 -2.846964 -0.174213 -0.316343 -0.019324 0.076958
    35 0.043235 -1.656596 0.076480 -1.215735 -0.019648 0.004291
    36 0.031729 -1.149111 0.058838 -0.758918 -0.007903 0.005292
    37 -0.963866 -2.785145 -0.085350 -0.133536 0.264013 -0.032832
    38 0.028479 -1.403067 -0.009354 -0.611716 -0.012368 -0.024940
    39 0.021413 -0.942156 0.012233 -1.051190 -0.028955 -0.035163
    40 1.164475 -2.543940 -0.170330 -0.166622 -0.161422 -0.083745
    41 0.024032 -1.136855 -0.001725 -0.790999 0.004494 0.042151
    42 0.014898 -0.903521 -0.015942 -1.038482 0.010007 0.051857
    43 -0.586770 -1.264477 0.200161 -0.200114 -0.096951 -2.129323
    44 1.530648 0.054775 0.009035 0.154202 -0.079650 0.158043
    45 1.106228 0.052330 -0.001860 0.312990 -0.289446 0.975210
    46 -0.139399 -0.111698 0.014397 0.285382 -0.030687 1.580508
    47 -8.241335 0.823308 -0.473815 1.566722 -0.036219 -0.177815
  time 22
    0 6.012691 -11.693099 -3.287374 -1.493575 0.022952 1.550651
    1 -0.881688 0.301299 0.000000 0.000001 0.000000 -1.382160
    2 1.671935 4.611084 0.000000 0.000000 0.000000 1.232289
    3 -0.763543 -0.089952 0.631852 -0.002283 1.570796 0.000000
    4 1.384421 -0.042067 0.000000 0.000000 0.000000 1.345677
    5 0.660750 -0.739376 0.000000 0.000000 0.000000 0.002283
    6 -0.736122 -1.726717 -0.122348 1.570770 -1.561760 1.573105
    7 -0.736128 -1.724683 0.143968 -1.570809 1.561648 -1.568528
    8 1.971970 -2.249433 0.180133 0.019412 -0.056377 3.115553
    9 -0.002752 -0.001265 -0.003287 0.000000 0.000000 0.000000
    10 8.825714 0.134146 -4.999134 6.084649 -1.973564 -0.018610
    11 7.757378 -1.538511 -0.403721 -1.567974 -0.029307 -3.256001
    12 -0.032857 -8.494830 -0.084602 0.089860 0.481279 0.146665
    13 -0.488518 -2.755602 -0.228260 -0.242250 0.060691 -0.057732
    14 0.039887 -1.538386 0.018135 -1.634758 -0.010403 0.036650
    15 0.028786 -1.134327 -0.109049 -0.791864 -0.013746 0.015532
    16 0.250027 -2.820665 -0.238396 -0.313985 0.018280 -0.085804
    17 -0.049759 -1.602417 0.049696 -1.312009 0.004662 -0.036064
    18 -0.034142 -1.175657 0.045718 -1.263189 0.005489 -0.033341
    19 0.957766 -2.746780 -0.090302 0.167150 -0.150256 0.099289
    20 -0.033420 -1.393223 -0.019070 -0.517853 0.008329 -0.025205
    21 -0.022360 -0.957436 0.007065 -0.527929 0.007982 -0.025323
    22 -1.180681 -2.507217 -0.193859 -0.150629 0.142428 -0.022097
    23 -0.024967 -1.123934 0.017597 -0.759772 0.006951 -0.032333
    24 -0.020057 -0.906594 0.037435 -1.161982 0.002397 -0.047687
    25 0.603042 -1.197277 0.181473 0.666402 -0.922572 -1.051051
    26 1.504676 -0.177260 -0.006710 0.213418 0.065484 -0.624307
    27 1.049988 -0.147821 0.032291 0.039018 -0.188604 -0.767764
    28 0.120153 -0.050270 -0.054489 0.287569 3.110905 1.561085
    29 0.358157 -2.567116 -10.634420 -1.837031 -5.232159 -1.393069
    30 0.053974 -8.407448 0.002354 0.086170 -0.344286 0.440640
    31 0.447953 -2.798986 -0.200443 -0.244439 -0.056549 0.060325
    32 -0.032909 -1.499736 0.024472 -1.286546 0.022998 -0.023524
    33 -0.027022 -1.096452 -0.028023 -0.524789 0.013722 -0.005621
    34 -0.249534 -2.846964 -0.174213 -0.316343 -0.019324 0.076958
    35 0.043235 -1.656596 0.076480 -1.215735 -0.019648 0.004291
    36 0.031729 -1.149111 0.058838 -0.758918 -0.007903 0.005292
    37 -0.963866 -2.785145 -0.085350 -0.133536 0.264013 -0.032832
    38 0.028479 -1.403067 -0.009354 -0.611716 -0.012368 -0.024940
    39 0.021413 -0.942156 0.012233 -1.051190 -0.028955 -0.035163
    40 1.164475 -2.543940 -0.170330 -0.166622 -0.161422 -0.083745
    41 0.024032 -1.136855 -0.001725 -0.790999 0.004494 0.042151
    42 0.014898 -0.903521 -0.015942 -1.038482 0.010007 0.051857
    43 -0.586770 -1.264477 0.200161 -0.200114 -0.096951 -2.129323
    44 1.530648 0.054775 0.009035 0.154202 -0.079650 0.158043
    45 1.106228 0.052330 -0.001860 0.312990 -0.289446 0.975210
    46 -0.139399 -0.111698 0.014397 0.285382 -0.030687 1.580508
    47 -8.241335 0.823308 -0.473815 1.566722 -0.036219 -0.177885
  time 23
    0 6.012691 -11.693099 -3.287374 -1.493575 0.022857 1.550702
    1 -0.881688 0.301299 0.000000 0.000001 0.000000 -1.382160
    2 1.671935 4.611084 0.000000 0.000000 0.000000 1.232289
    3 -0.763543 -0.089952 0.631852 -0.002283 1.570796 0.000000
    4 1.384421 -0.042067 0.000000 0.000000 0.000000 1.345677
    5 0.660750 -0.739376 0.000000 0.000000 0.000000 0.002283
    6 -0.736122 -1.726717 -0.122348 1.570770 -1.561760 1.573105
    7 -0.736128 -1.724683 0.143968 -1.570809 1.561648 -1.568528
    8 1.971970 -2.249433 0.180133 0.019412 -0.056377 3.115553
    9 -0.002752 -0.001265 -0.003287 0.000000 0.000000 0.000000
    10 8.825714 0.134146 -4.999134 6.084841 -1.973564 -0.018801
    11 7.757378 -1.534605 -0.403721 -1.567974 -0.029307 -3.256001
    12 -0.032857 -8.494830 -0.084602 0.089905 0.481234 0.146539
    13 -0.488518 -2.755602 -0.228260 -0.242250 0.060691 -0.057732
    14 0.039887 -1.538386 0.018135 -1.634758 -0.010403 0.036650
    15 0.028786 -1.134327 -0.109049 -0.791864 -0.013746 0.015532
    16 0.250027 -2.820665 -0.238396 -0.313985 0.018280 -0.085804
    17 -0.049759 -1.602417 0.049696 -1.312009 0.004662 -0.036064
    18 -0.034142 -1.175657 0.045718 -1.263189 0.005489 -0.033341
    19 0.957766 -2.746780 -0.090302 0.167150 -0.150256 0.099289
    20 -0.033420 -1.393223 -0.019070 -0.517853 0.008329 -0.025205
    21 -0.022360 -0.957436 0.007065 -0.527929 0.007982 -0.025323
    22 -1.180681 -2.507217 -0.193859 -0.150629 0.142428 -0.022097
    23 -0.024967 -1.123934 0.017597 -0.759772 0.006951 -0.032333
    24 -0.020057 -0.906594 0.037435 -1.161982 0.002397 -0.047687
    25 0.603042 -1.197277 0.181473 0.666402 -0.922572 -1.051051
    26 1.504676 -0.177260 -0.006710 0.213418 0.065484 -0.624307
    27 1.049988 -0.147821 0.032291 0.039018 -0.188604 -0.767764
    28 0.120153 -0.050270 -0.054489 0.287569 3.110905 1.561085
    29 0.358157 -2.567116 -10.634420 -1.837031 -5.232243 -1.393164
    30 0.053974 -8.407448 0.002354 0.086081 -0.344322 0.440675
    31 0.447953 -2.798986 -0.200443 -0.244439 -0.056549 0.060325
    32 -0.032909 -1.499736 0.024472 -1.286546 0.022998 -0.023524
    33 -0.027022 -1.096452 -0.028023 -0.524789 0.013722 -0.005621
    34 -0.249534 -2.846964 -0.174213 -0.316343 -0.019324 0.076958
    35 0.043235 -1.656596 0.076480 -1.215735 -0.019648 0.004291
    36 0.031729 -1.149111 0.058838 -0.758918 -0.007903 0.005292
    37 -0.963866 -2.785145 -0.085350 -0.133536 0.264013 -0.032832
    38 0.028479 -1.403067 -0.009354 -0.611716 -0.012368 -0.024940
    39 0.021413 -0.942156 0.012233 -1.051190 -0.028955 -0.035163
    40 1.164475 -2.543940 -0.170330 -0.166622 -0.161422 -0.083745
    41 0.024032 -1.136855 -0.001725 -0.790999 0.004494 0.042151
    42 0.014898 -0.903521 -0.015942 -1.038482 0.010007 0.051857
    43 -0.586770 -1.264477 0.200161 -0.200114 -0.096951 -2.129323
    44 1.530648 0.054775 0.009035 0.154202 -0.079650 0.158043
    45 1.106228 0.052330 -0.001860 0.312990 -0.289446 0.975210
    46 -0.139399 -0.111698 0.014397 0.285382 -0.030687 1.580508
    47 -8.241335 0.823308 -0.473815 1.566722 -0.036207 -0.177955
  time 24
    0 6.012691 -11.693099 -3.287374 -1.493575 0.022857 1.550702
    1 -0.881688 0.301299 0.000000 0.000001 0.000000 -1.382160
    2 1.671935 4.611084 0.000000 0.000000 0.000000 1.232289
    3 -0.763543 -0.089952 0.631852 -0.002283 1.570796 0.000000
    4 1.384421 -0.042067 0.000000 0.000000 0.000000 1.345677
    5 0.660750 -0.739376 0.000000 0.000000 0.000000 0.002283
    6 -0.736122 -1.726717 -0.122348 1.570770 -1.561760 1.573105
    7 -0.736128 -1.724683 0.143968 -1.570809 1.561648 -1.568528
    8 1.971970 -2.249433 0.180133 0.019412 -0.056377 3.115553
    9 -0.002752 -0.001265 -0.003287 0.000000 0.000000 0.000000
    10 8.825714 0.130239 -5.003041 6.084936 -1.973564 -0.018993
    11 7.757378 -1.534605 -0.403721 -1.567974 -0.029307 -3.256001
    12 -0.032857 -8.494830 -0.084602 0.089905 0.481234 0.146476
    13 -0.488518 -2.755602 -0.228260 -0.242250 0.060691 -0.057732
    14 0.039887 -1.538386 0.018135 -1.634758 -0.010403 0.036650
    15 0.028786 -1.134327 -0.109049 -0.791864 -0.013746 0.015532
    16 0.250027 -2.820665 -0.238396 -0.313985 0.018280 -0.085804
    17 -0.049759 -1.602417 0.049696 -1.312009 0.004662 -0.036064
    18 -0.034142 -1.175657 0.045718 -1.263189 0.005489 -0.033341
    19 0.957766 -2.746780 -0.090302 0.167150 -0.150256 0.099289
    20 -0.033420 -1.393223 -0.019070 -0.517853 0.008329 -0.025205
    21 -0.022360 -0.957436 0.007065 -0.527929 0.007982 -0.025323
    22 -1.180681 -2.507217 -0.193859 -0.150629 0.142428 -0.022097
    23 -0.024967 -1.123934 0.017597 -0.759772 0.006951 -0.032333
    24 -0.020057 -0.906594 0.037435 -1.161982 0.002397 -0.047687
    25 0.603042 -1.197277 0.181473 0.666402 -0.922572 -1.051051
    26 1.504676 -0.177260 -0.006710 0.213418 0.065484 -0.624307
    27 1.049988 -0.147821 0.032291 0.039018 -0.188604 -0.767764
    28 0.120153 -0.050270 -0.054489 0.287569 3.110905 1.561085
    29 0.362063 -2.567116 -10.634420 -1.837031 -5.232243 -1.393164
    30 0.053974 -8.407448 0.002354 0.086036 -0.344359 0.440711
    31 0.447953 -2.798986 -0.200443 -0.244439 -0.056549 0.060325
    32 -0.032909 -1.499736 0.024472 -1.286546 0.022998 -0.023524
    33 -0.027022 -1.096452 -0.028023 -0.524789 0.013722 -0.005621
    34 -0.249534 -2.846964 -0.174213 -0.316343 -0.019324 0.076958
    35 0.043235 -1.656596 0.076480 -1.215735 -0.019648 0.004291
    36 0.031729 -1.149111 0.058838 -0.758918 -0.007903 0.005292
    37 -0.963866 -2.785145 -0.085350 -0.133536 0.264013 -0.032832
    38 0.028479 -1.403067 -0.009354 -0.611716 -0.012368 -0.024940
    39 0.021413 -0.942156 0.012233 -1.051190 -0.028955 -0.035163
    40 1.164475 -2.543940 -0.170330 -0.166622 -0.161422 -0.083745
    41 0.024032 -1.136855 -0.001725 -0.790999 0.004494 0.042151
    42 0.014898 -0.903521 -0.015942 -1.038482 0.010007 0.051857
    43 -0.586770 -1.264477 0.200161 -0.200114 -0.096951 -2.129323
    44 1.530648 0.054775 0.009035 0.154202 -0.079650 0.158043
    45 1.106228 0.052330 -0.001860 0.312990 -0.289446 0.975210
    46 -0.139399 -0.111698 0.014397 0.285382 -0.030687 1.580508
    47 -8.241335 0.823308 -0.473815 1.566722 -0.036207 -0.178025
  time 25
    0 6.012691 -11.693099 -3.287374 -1.493575 0.022857 1.550702
    1 -0.881688 0.301299 0.000000 0.000001 0.000000 -1.382160
    2 1.671935 4.611084 0.000000 0.000000 0.000000 1.232289
    3 -0.763543 -0.089952 0.631852 -0.002283 1.570796 0.000000
    4 1.384421 -0.042067 0.000000 0.000000 0.000000 1.345677
    5 0.660750 -0.739376 0.000000 0.000000 0.000000 0.002283
    6 -0.736122 -1.726717 -0.122348 1.570770 -1.561760 1.573105
    7 -0.736128 -1.724683 0.143968 -1.570809 1.561648 -1.568528
    8 1.971970 -2.249433 0.180133 0.019412 -0.056377 3.115553
    9 -0.002752 -0.001265 -0.003287 0.000000 0.000000 0.000000
    10 8.825714 0.130239 -5.003041 6.085032 -1.973489 -0.018993
    11 7.757378 -1.534605 -0.403721 -1.567974 -0.029307 -3.256001
    12 -0.032857 -8.494830 -0.084602 0.089905 0.481234 0.146414
    13 -0.488518 -2.755602 -0.228260 -0.242250 0.060691 -0.057732
    14 0.039887 -1.538386 0.018135 -1.634758 -0.010403 0.036650
    15 0.028786 -1.134327 -0.109049 -0.791864 -0.013746 0.015532
    16 0.250027 -2.820665 -0.238396 -0.313985 0.018280 -0.085804
    17 -0.049759 -1.602417 0.049696 -1.312009 0.004662 -0.036064
    18 -0.034142 -1.175657 0.045718 -1.263189 0.005489 -0.033341
    19 0.957766 -2.746780 -0.090302 0.167150 -0.150256 0.099289
    20 -0.033420 -1.393223 -0.019070 -0.517853 0.008329 -0.025205
    21 -0.022360 -0.957436 0.007065 -0.527929 0.007982 -0.025323
    22 -1.180681 -2.507217 -0.193859 -0.150629 0.142428 -0.022097
    23 -0.024967 -1.123934 0.017597 -0.759772 0.006951 -0.032333
    24 -0.020057 -0.906594 0.037435 -1.161982 0.002397 -0.047687
    25 0.603042 -1.197277 0.181473 0.666402 -0.922572 -1.051051
    26 1.504676 -0.177260 -0.006710 0.213418 0.065484 -0.624307
    27 1.049988 -0.147821 0.032291 0.039018 -0.188604 -0.767764
    28 0.120153 -0.050270 -0.054489 0.287569 3.110905 1.561085
    29 0.362063 -2.567116 -10.634420 -1.837031 -5.232243 -1.393164
    30 0.053974 -8.407448 0.002354 0.085991 -0.344359 0.440746
    31 0.447953 -2.798986 -0.200443 -0.244439 -0.056549 0.060325
    32 -0.032909 -1.499736 0.024472 -1.286546 0.022998 -0.023524
    33 -0.027022 -1.096452 -0.028023 -0.524789 0.013722 -0.005621
    34 -0.249534 -2.846964 -0.174213 -0.316343 -0.019324 0.076958
    35 0.043235 -1.656596 0.076480 -1.215735 -0.019648 0.004291
    36 0.031729 -1.149111 0.058838 -0.758918 -0.007903 0.005292
    37 -0.963866 -2.785145 -0.085350 -0.133536 0.264013 -0.032832
    38 0.028479 -1.403067 -0.009354 -0.611716 -0.012368 -0.024940
    39 0.021413 -0.942156 0.012233 -1.051190 -0.028955 -0.035163
    40 1.164475 -2.543940 -0.170330 -0.166622 -0.161422 -0.083745
    41 0.024032 -1.136855 -0.001725 -0.790999 0.004494 0.042151
    42 0.014898 -0.903521 -0.015942 -1.038482 0.010007 0.051857
    43 -0.586770 -1.264477 0.200161 -0.200114 -0.096951 -2.129323
    44 1.530648 0.054775 0.009035 0.154202 -0.079650 0.158043
    45 1.106228 0.052330 -0.001860 0.312990 -0.289446 0.975210
    46 -0.139399 -0.111698 0.014397 0.285382 -0.030687 1.580508
    47 -8.241335 0.823308 -0.473815 1.566722 -0.036207 -0.178025
end
