version 1
nodes
  0 "kronos1_root" -1
  1 "fnp_trigger" 0
  2 "fnp_reload" 0
  3 "fnp_button" 0
  4 "fnp_trigger02" 0
  5 "fnp_slider" 0
  6 "trans01" 0
  7 "trans02" 0
  8 "ef" 0
  9 "root" -1
  10 "Bone01" 9
  11 "Bone_L_Upper" 10
  12 "Bone_Lefthand" 10
  13 "Bone13" 12
  14 "Bone14" 13
  15 "Bone15" 14
  16 "Bone17" 12
  17 "Bone18" 16
  18 "Bone19" 17
  19 "Bone21" 12
  20 "Bone22" 19
  21 "Bone23" 20
  22 "Bone09" 12
  23 "Bone10" 22
  24 "Bone11" 23
  25 "Bone05" 12
  26 "Bone06" 25
  27 "Bone07" 26
  28 "Bone_Se_Hand-L" 12
  29 "Bone04" 9
  30 "Bone_Righthand" 29
  31 "Bone39" 30
  32 "Bone40" 31
  33 "Bone41" 32
  34 "Bone35" 30
  35 "Bone36" 34
  36 "Bone37" 35
  37 "Bone31" 30
  38 "Bone32" 37
  39 "Bone33" 38
  40 "Bone43" 30
  41 "Bone44" 40
  42 "Bone45" 41
  43 "Bone27" 30
  44 "Bone28" 43
  45 "Bone29" 44
  46 "Bone_Se_Hand-R" 30
  47 "Bone_R_Upper" 29
end
skeleton
  time 0
    0 6.012691 -11.693099 -3.287374 -1.493575 0.022857 1.550702
    1 -0.881688 0.301299 0.000000 0.000001 0.000000 -1.382160
    2 1.671935 4.611084 0.000000 0.000000 0.000000 1.232289
    3 -0.763543 -0.089952 0.631852 -0.002283 1.570796 0.000000
    4 1.384421 -0.042067 0.000000 0.000000 0.000000 1.345677
    5 0.660750 -0.739376 0.000000 0.000000 0.000000 0.002283
    6 -0.736122 -1.726717 -0.122348 1.570770 -1.561760 1.573105
    7 -0.736128 -1.724683 0.143968 -1.570809 1.561648 -1.568528
    8 1.971970 -2.249433 0.180133 0.019412 -0.056377 3.115553
    9 -0.002752 -0.001265 -0.003287 0.000000 0.000000 0.000000
    10 8.825714 0.130239 -5.003041 6.085032 -1.973489 -0.018993
    11 7.757378 -1.534605 -0.403721 -1.567974 -0.029307 -3.256001
    12 -0.032857 -8.494830 -0.084602 0.089905 0.481234 0.146414
    13 -0.488518 -2.755602 -0.228260 -0.242250 0.060691 -0.057732
    14 0.039887 -1.538386 0.018135 -1.634758 -0.010403 0.036650
    15 0.028786 -1.134327 -0.109049 -0.791864 -0.013746 0.015532
    16 0.250027 -2.820665 -0.238396 -0.313985 0.018280 -0.085804
    17 -0.049759 -1.602417 0.049696 -1.312009 0.004662 -0.036064
    18 -0.034142 -1.175657 0.045718 -1.263189 0.005489 -0.033341
    19 0.957766 -2.746780 -0.090302 0.167150 -0.150256 0.099289
    20 -0.033420 -1.393223 -0.019070 -0.517853 0.008329 -0.025205
    21 -0.022360 -0.957436 0.007065 -0.527929 0.007982 -0.025323
    22 -1.180681 -2.507217 -0.193859 -0.150629 0.142428 -0.022097
    23 -0.024967 -1.123934 0.017597 -0.759772 0.006951 -0.032333
    24 -0.020057 -0.906594 0.037435 -1.161982 0.002397 -0.047687
    25 0.603042 -1.197277 0.181473 0.666402 -0.922572 -1.051051
    26 1.504676 -0.177260 -0.006710 0.213418 0.065484 -0.624307
    27 1.049988 -0.147821 0.032291 0.039018 -0.188604 -0.767764
    28 0.120153 -0.050270 -0.054489 0.287569 3.110905 1.561085
    29 0.315187 -2.586648 -10.630514 -1.857729 -5.234753 -1.410590
    30 0.050068 -8.407448 0.002354 0.087337 -0.354911 0.440356
    31 0.447953 -2.798986 -0.200443 -0.244439 -0.056549 0.060325
    32 -0.032909 -1.499736 0.024472 -1.286546 0.022998 -0.023524
    33 -0.027022 -1.096452 -0.028023 -0.524789 0.013722 -0.005621
    34 -0.249534 -2.846964 -0.174213 -0.316343 -0.019324 0.076958
    35 0.043235 -1.656596 0.076480 -1.215735 -0.019648 0.004291
    36 0.031729 -1.149111 0.058838 -0.758918 -0.007903 0.005292
    37 -0.963866 -2.785145 -0.085350 -0.133536 0.264013 -0.032832
    38 0.028479 -1.403067 -0.009354 -0.611716 -0.012368 -0.024940
    39 0.021413 -0.942156 0.012233 -1.051190 -0.028955 -0.035163
    40 1.164475 -2.543940 -0.170330 -0.166622 -0.161422 -0.083745
    41 0.024032 -1.136855 -0.001725 -0.790999 0.004494 0.042151
    42 0.014898 -0.903521 -0.015942 -1.038482 0.010007 0.051857
    43 -0.586770 -1.264477 0.200161 -0.200114 -0.096951 -2.129323
    44 1.530648 0.054775 0.009035 0.154202 -0.079650 0.158043
    45 1.106228 0.052330 -0.001860 0.312990 -0.289446 0.975210
    46 -0.139399 -0.111698 0.014397 0.285382 -0.030687 1.580508
    47 -8.241335 0.827214 -0.473815 1.566722 -0.036207 -0.178025
  time 1
    0 6.016598 -12.626721 -3.287374 -1.496809 0.023615 1.553365
    1 -0.881688 0.137231 0.011719 0.000001 0.000000 -1.703671
    2 1.671935 4.611084 0.000000 0.000000 0.000000 1.232289
    3 -0.763543 -0.089952 0.631852 -0.002283 1.570796 0.000000
    4 1.384421 -0.042067 0.000000 0.000000 0.000000 0.416589
    5 -0.163494 -0.739376 0.000000 0.000000 0.000000 0.002283
    6 -0.736122 -1.726717 -0.122348 1.570770 -1.561760 1.573105
    7 -0.736128 -1.724683 0.143968 -1.570809 1.561648 -1.568528
    8 1.971970 -2.249433 0.180133 0.019412 -0.056377 3.115553
    9 -0.002752 -0.001265 -0.003287 0.000000 0.000000 0.000000
    10 8.782744 -0.783851 -5.237423 6.157857 -1.980684 -0.081032
    11 7.999573 -0.405664 -0.392002 -1.570274 -0.027301 -3.113824
    12 -0.032857 -8.490924 -0.080696 0.076398 0.490742 0.116170
    13 -0.488518 -2.755602 -0.228260 -0.242250 0.060691 -0.057732
    14 0.039887 -1.538386 0.018135 -1.634758 -0.010403 0.036650
    15 0.028786 -1.134327 -0.109049 -0.791864 -0.013746 0.015532
    16 0.250027 -2.820665 -0.238396 -0.313985 0.018280 -0.085804
    17 -0.049759 -1.602417 0.049696 -1.312009 0.004662 -0.036064
    18 -0.034142 -1.175657 0.045718 -1.263189 0.005489 -0.033341
    19 0.957766 -2.746780 -0.090302 0.290555 -0.154811 0.103639
    20 -0.033420 -1.393223 -0.022976 -0.779363 0.007323 -0.038340
    21 -0.022360 -0.957436 0.003159 -0.644051 0.007874 -0.031184
    22 -1.180681 -2.507217 -0.193859 -0.150629 0.142428 -0.022097
    23 -0.024967 -1.123934 0.017597 -0.759772 0.006951 -0.032333
    24 -0.020057 -0.906594 0.037435 -1.161982 0.002397 -0.047687
    25 0.603042 -1.197277 0.181473 0.666402 -0.922572 -1.051051
    26 1.504676 -0.177260 -0.006710 0.213418 0.065484 -0.624307
    27 1.049988 -0.147821 0.032291 0.039018 -0.188604 -0.767764
    28 0.120153 -0.050270 -0.054489 0.287569 3.110905 1.561085
    29 0.498786 -3.227292 -10.267222 -1.889338 -5.187236 -1.476559
    30 0.053974 -8.407448 0.002354 0.052337 -0.361583 0.395435
    31 0.447953 -2.798986 -0.200443 -0.244439 -0.056549 0.060325
    32 -0.032909 -1.499736 0.024472 -1.286546 0.022998 -0.023524
    33 -0.027022 -1.096452 -0.028023 -0.524789 0.013722 -0.005621
    34 -0.249534 -2.846964 -0.174213 -0.316343 -0.019324 0.076958
    35 0.043235 -1.656596 0.076480 -1.215735 -0.019648 0.004291
    36 0.031729 -1.149111 0.058838 -0.758918 -0.007903 0.005292
    37 -0.963866 -2.785145 -0.085350 -0.133536 0.264013 -0.032832
    38 0.028479 -1.403067 -0.009354 -0.611716 -0.012368 -0.024940
    39 0.021413 -0.942156 0.012233 -1.051190 -0.028955 -0.035163
    40 1.164475 -2.543940 -0.170330 -0.166622 -0.161422 -0.083745
    41 0.024032 -1.136855 -0.001725 -0.790999 0.004494 0.042151
    42 0.014898 -0.903521 -0.015942 -1.038482 0.010007 0.051857
    43 -0.586770 -1.264477 0.200161 -0.200114 -0.096951 -2.129323
    44 1.530648 0.054775 0.009035 0.154202 -0.079650 0.158043
    45 1.106228 0.052330 -0.001860 0.312990 -0.289446 0.975210
    46 -0.139399 -0.111698 0.014397 0.285382 -0.030687 1.580508
    47 -8.081174 2.335072 -0.458190 1.570941 -0.033654 -0.362670
  time 2
    0 5.961908 -10.403997 -2.865486 -1.475121 0.155192 1.530001
    1 -0.881688 0.137231 0.011719 0.000001 0.000000 -1.703671
    2 1.671935 4.611084 0.000000 0.000000 0.000000 1.232289
    3 -0.763543 -0.089952 0.631852 -0.002283 1.570796 0.000000
    4 1.384421 -0.042067 0.000000 0.000000 0.000000 1.728044
    5 1.207642 -0.739376 0.000000 0.000000 0.000000 0.002283
    6 -0.736122 -1.726717 -0.122348 1.570770 -1.561760 1.573105
    7 -0.736128 -1.724683 0.143968 -1.570809 1.561648 -1.568528
    8 1.971970 -2.249433 0.180133 0.019412 -0.056377 3.115553
    9 -0.002752 -0.001265 -0.003287 0.000000 0.000000 0.000000
    10 8.013189 1.173240 -5.221797 6.152211 -2.032547 0.009729
    11 8.073794 0.422486 -0.380282 1.569878 -3.115880 0.129554
    12 -0.021138 -8.498736 -0.076789 0.038277 0.548604 0.273600
    13 -0.488518 -2.755602 -0.228260 -0.242250 0.060691 -0.057732
    14 0.039887 -1.538386 0.018135 -1.634758 -0.010403 0.036650
    15 0.028786 -1.134327 -0.109049 -0.791864 -0.013746 0.015532
    16 0.250027 -2.820665 -0.238396 -0.313985 0.018280 -0.085804
    17 -0.049759 -1.602417 0.049696 -1.312009 0.004662 -0.036064
    18 -0.034142 -1.175657 0.045718 -1.263189 0.005489 -0.033341
    19 0.957766 -2.746780 -0.090302 0.290555 -0.154811 0.103639
    20 -0.033420 -1.393223 -0.022976 -0.779363 0.007323 -0.038340
    21 -0.022360 -0.957436 0.003159 -0.644051 0.007874 -0.031184
    22 -1.180681 -2.507217 -0.193859 -0.150629 0.142428 -0.022097
    23 -0.024967 -1.123934 0.017597 -0.759772 0.006951 -0.032333
    24 -0.020057 -0.906594 0.037435 -1.161982 0.002397 -0.047687
    25 0.603042 -1.197277 0.181473 0.666402 -0.922572 -1.051051
    26 1.504676 -0.177260 -0.006710 0.213418 0.065484 -0.624307
    27 1.049988 -0.147821 0.032291 0.039018 -0.188604 -0.767764
    28 0.120153 -0.050270 -0.054489 0.287569 3.110905 1.561085
    29 0.123774 -2.016318 -10.860990 -1.830367 -5.288125 -1.352664
    30 0.073506 -8.415261 -0.005459 0.144190 -0.271436 0.375565
    31 0.447953 -2.798986 -0.200443 -0.244439 -0.056549 0.060325
    32 -0.032909 -1.499736 0.024472 -1.286546 0.022998 -0.023524
    33 -0.027022 -1.096452 -0.028023 -0.524789 0.013722 -0.005621
    34 -0.249534 -2.846964 -0.174213 -0.316343 -0.019324 0.076958
    35 0.043235 -1.656596 0.076480 -1.215735 -0.019648 0.004291
    36 0.031729 -1.149111 0.058838 -0.758918 -0.007903 0.005292
    37 -0.963866 -2.785145 -0.085350 -0.133536 0.264013 -0.032832
    38 0.028479 -1.403067 -0.009354 -0.611716 -0.012368 -0.024940
    39 0.021413 -0.942156 0.012233 -1.051190 -0.028955 -0.035163
    40 1.164475 -2.543940 -0.170330 -0.166622 -0.161422 -0.083745
    41 0.024032 -1.136855 -0.001725 -0.790999 0.004494 0.042151
    42 0.014898 -0.903521 -0.015942 -1.038482 0.010007 0.051857
    43 -0.586770 -1.264477 0.200161 -0.200114 -0.096951 -2.129323
    44 1.530648 0.054775 0.009035 0.154202 -0.079650 0.158043
    45 1.106228 0.052330 -0.001860 0.312990 -0.289446 0.975210
    46 -0.139399 -0.111698 0.014397 0.285382 -0.030687 1.580508
    47 -8.139770 -0.559547 -0.477722 1.562516 -0.037837 -0.009302
  time 3
    0 5.895500 -10.071956 -2.900643 -1.502516 0.184821 1.526835
    1 -0.881688 0.137231 0.011719 0.000001 0.000000 -1.703671
    2 1.671935 4.611084 0.000000 0.000000 0.000000 1.232289
    3 -0.763543 -0.089952 0.631852 -0.002283 1.570796 0.000000
    4 1.384421 -0.042067 0.000000 0.000000 0.000000 3.039611
    5 2.578777 -0.735470 0.000000 0.000000 0.000000 0.002283
    6 -0.736122 -1.726717 -0.122348 1.570770 -1.561760 1.573105
    7 -0.736128 -1.724683 0.143968 -1.570809 1.561648 -1.568528
    8 1.971970 -2.249433 0.180133 0.019412 -0.056377 3.115553
    9 -0.002752 -0.001265 -0.003287 0.000000 0.000000 0.000000
    10 7.884279 1.431060 -5.210078 6.126565 -2.039816 0.047450
    11 8.073794 0.442018 -0.380282 1.569782 -3.115880 0.132216
    12 -0.028951 -8.498736 -0.080696 0.038413 0.523748 0.315075
    13 -0.488518 -2.755602 -0.228260 -0.242250 0.060691 -0.057732
    14 0.039887 -1.538386 0.018135 -1.634758 -0.010403 0.036650
    15 0.028786 -1.134327 -0.109049 -0.791864 -0.013746 0.015532
    16 0.250027 -2.820665 -0.238396 -0.313985 0.018280 -0.085804
    17 -0.049759 -1.602417 0.049696 -1.312009 0.004662 -0.036064
    18 -0.034142 -1.175657 0.045718 -1.263189 0.005489 -0.033341
    19 0.957766 -2.746780 -0.090302 0.266203 -0.153876 0.102824
    20 -0.033420 -1.393223 -0.022976 -0.727748 0.007790 -0.035775
    21 -0.022360 -0.957436 0.003159 -0.621135 0.007946 -0.030021
    22 -1.180681 -2.507217 -0.193859 -0.150629 0.142428 -0.022097
    23 -0.024967 -1.123934 0.017597 -0.759772 0.006951 -0.032333
    24 -0.020057 -0.906594 0.037435 -1.161982 0.002397 -0.047687
    25 0.603042 -1.197277 0.181473 0.666402 -0.922572 -1.051051
    26 1.504676 -0.177260 -0.006710 0.213418 0.065484 -0.624307
    27 1.049988 -0.147821 0.032291 0.039018 -0.188604 -0.767764
    28 0.120153 -0.050270 -0.054489 0.287569 3.110905 1.561085
    29 0.049553 -1.797561 -10.950836 -1.832077 -5.278755 -1.341366
    30 0.081319 -8.426980 -0.005459 0.164248 -0.276476 0.324010
    31 0.447953 -2.798986 -0.200443 -0.244439 -0.056549 0.060325
    32 -0.032909 -1.499736 0.024472 -1.286546 0.022998 -0.023524
    33 -0.027022 -1.096452 -0.028023 -0.524789 0.013722 -0.005621
    34 -0.249534 -2.846964 -0.174213 -0.316343 -0.019324 0.076958
    35 0.043235 -1.656596 0.076480 -1.215735 -0.019648 0.004291
    36 0.031729 -1.149111 0.058838 -0.758918 -0.007903 0.005292
    37 -0.963866 -2.785145 -0.085350 -0.133536 0.264013 -0.032832
    38 0.028479 -1.403067 -0.009354 -0.611716 -0.012368 -0.024940
    39 0.021413 -0.942156 0.012233 -1.051190 -0.028955 -0.035163
    40 1.164475 -2.543940 -0.170330 -0.166622 -0.161422 -0.083745
    41 0.024032 -1.136855 -0.001725 -0.790999 0.004494 0.042151
    42 0.014898 -0.903521 -0.015942 -1.038482 0.010007 0.051857
    43 -0.586770 -1.264477 0.200161 -0.200114 -0.096951 -2.129323
    44 1.530648 0.054775 0.009035 0.154202 -0.079650 0.158043
    45 1.106228 0.052330 -0.001860 0.312990 -0.289446 0.975210
    46 -0.139399 -0.111698 0.014397 0.285382 -0.030687 1.580508
    47 -8.092893 -0.840806 -0.481628 1.561629 -0.038077 0.025197
  time 4
    0 5.860343 -10.173521 -3.017834 -1.524680 0.188039 1.527539
    1 -0.881688 0.137231 0.011719 0.000001 0.000000 -1.703671
    2 1.671935 4.611084 0.000000 0.000000 0.000000 1.232289
    3 -0.763543 -0.089952 0.631852 -0.002283 1.570796 0.000000
    4 1.384421 -0.042067 0.000000 0.000000 0.000000 2.600431
    5 2.082668 -0.739376 0.000000 0.000000 0.000000 0.002283
    6 -0.736122 -1.726717 -0.122348 1.570770 -1.561760 1.573105
    7 -0.736128 -1.724683 0.143968 -1.570809 1.561648 -1.568528
    8 1.971970 -2.249433 0.180133 0.019412 -0.056377 3.115553
    9 -0.002752 -0.001265 -0.003287 0.000000 0.000000 0.000000
    10 8.017095 1.313869 -5.225704 6.101396 -2.030373 0.055779
    11 8.069888 0.359985 -0.384189 1.569974 -3.115689 0.122046
    12 -0.036764 -8.502643 -0.084602 0.053598 0.486214 0.323483
    13 -0.488518 -2.755602 -0.228260 -0.242250 0.060691 -0.057732
    14 0.039887 -1.538386 0.018135 -1.634758 -0.010403 0.036650
    15 0.028786 -1.134327 -0.109049 -0.791864 -0.013746 0.015532
    16 0.250027 -2.820665 -0.238396 -0.313985 0.018280 -0.085804
    17 -0.049759 -1.602417 0.049696 -1.312009 0.004662 -0.036064
    18 -0.034142 -1.175657 0.045718 -1.263189 0.005489 -0.033341
    19 0.957766 -2.746780 -0.090302 0.238219 -0.152821 0.101865
    20 -0.033420 -1.393223 -0.022976 -0.668484 0.008173 -0.032803
    21 -0.022360 -0.957436 0.003159 -0.594818 0.008006 -0.028691
    22 -1.180681 -2.507217 -0.193859 -0.150629 0.142428 -0.022097
    23 -0.024967 -1.123934 0.017597 -0.759772 0.006951 -0.032333
    24 -0.020057 -0.906594 0.037435 -1.161982 0.002397 -0.047687
    25 0.603042 -1.197277 0.181473 0.666402 -0.922572 -1.051051
    26 1.504676 -0.177260 -0.006710 0.213418 0.065484 -0.624307
    27 1.049988 -0.147821 0.032291 0.039018 -0.188604 -0.767764
    28 0.120153 -0.050270 -0.054489 0.287569 3.110905 1.561085
    29 0.061273 -1.821000 -10.958649 -1.841041 -5.256085 -1.352281
    30 0.081319 -8.434793 -0.001552 0.165370 -0.293809 0.286540
    31 0.447953 -2.798986 -0.200443 -0.244439 -0.056549 0.060325
    32 -0.032909 -1.499736 0.024472 -1.286546 0.022998 -0.023524
    33 -0.027022 -1.096452 -0.028023 -0.524789 0.013722 -0.005621
    34 -0.249534 -2.846964 -0.174213 -0.316343 -0.019324 0.076958
    35 0.043235 -1.656596 0.076480 -1.215735 -0.019648 0.004291
    36 0.031729 -1.149111 0.058838 -0.758918 -0.007903 0.005292
    37 -0.963866 -2.785145 -0.085350 -0.133536 0.264013 -0.032832
    38 0.028479 -1.403067 -0.009354 -0.611716 -0.012368 -0.024940
    39 0.021413 -0.942156 0.012233 -1.051190 -0.028955 -0.035163
    40 1.164475 -2.543940 -0.170330 -0.166622 -0.161422 -0.083745
    41 0.024032 -1.136855 -0.001725 -0.790999 0.004494 0.042151
    42 0.014898 -0.903521 -0.015942 -1.038482 0.010007 0.051857
    43 -0.586770 -1.264477 0.200161 -0.200114 -0.096951 -2.129323
    44 1.530648 0.054775 0.009035 0.154202 -0.079650 0.158043
    45 1.106228 0.052330 -0.001860 0.312990 -0.289446 0.975210
    46 -0.139399 -0.111698 0.014397 0.285382 -0.030687 1.580508
    47 -8.131957 -0.625955 -0.477722 1.562312 -0.037897 -0.001061
  time 5
    0 5.899407 -10.271181 -3.119400 -1.511838 0.187282 1.527388
    1 -0.881688 0.148951 0.007813 0.000001 0.000000 -1.679857
    2 1.671935 4.611084 0.000000 0.000000 0.000000 1.232289
    3 -0.763543 -0.089952 0.631852 -0.002283 1.570796 0.000000
    4 1.384421 -0.042067 0.000000 0.000000 0.000000 1.784801
    5 1.156859 -0.739376 0.000000 0.000000 0.000000 0.002283
    6 -0.736122 -1.726717 -0.122348 1.570770 -1.561760 1.573105
    7 -0.736128 -1.724683 0.143968 -1.570809 1.561648 -1.568528
    8 1.971970 -2.249433 0.180133 0.019412 -0.056377 3.115553
    9 -0.002752 -0.001265 -0.003287 0.000000 0.000000 0.000000
    10 8.134286 1.200584 -5.237423 6.071539 -2.022129 0.070810
    11 8.069888 0.293576 -0.384189 1.570070 -3.115593 0.114060
    12 -0.032857 -8.506549 -0.084602 0.068737 0.484720 0.337161
    13 -0.488518 -2.755602 -0.228260 -0.242250 0.060691 -0.057732
    14 0.039887 -1.538386 0.018135 -1.634758 -0.010403 0.036650
    15 0.028786 -1.134327 -0.109049 -0.791864 -0.013746 0.015532
    16 0.250027 -2.820665 -0.238396 -0.313985 0.018280 -0.085804
    17 -0.049759 -1.602417 0.049696 -1.312009 0.004662 -0.036064
    18 -0.034142 -1.175657 0.045718 -1.263189 0.005489 -0.033341
    19 0.957766 -2.746780 -0.090302 0.210798 -0.151814 0.100895
    20 -0.033420 -1.393223 -0.019070 -0.610357 0.008365 -0.029879
    21 -0.022360 -0.957436 0.003159 -0.569015 0.008018 -0.027397
    22 -1.180681 -2.507217 -0.193859 -0.150629 0.142428 -0.022097
    23 -0.024967 -1.123934 0.017597 -0.759772 0.006951 -0.032333
    24 -0.020057 -0.906594 0.037435 -1.161982 0.002397 -0.047687
    25 0.603042 -1.197277 0.181473 0.666402 -0.922572 -1.051051
    26 1.504676 -0.177260 -0.006710 0.213418 0.065484 -0.624307
    27 1.049988 -0.147821 0.032291 0.039018 -0.188604 -0.767764
    28 0.120153 -0.050270 -0.054489 0.287569 3.110905 1.561085
    29 0.069085 -1.852250 -10.954743 -1.845640 -5.246548 -1.360707
    30 0.081319 -8.434793 -0.005459 0.161197 -0.283765 0.284269
    31 0.447953 -2.798986 -0.200443 -0.244439 -0.056549 0.060325
    32 -0.032909 -1.499736 0.024472 -1.286546 0.022998 -0.023524
    33 -0.027022 -1.096452 -0.028023 -0.524789 0.013722 -0.005621
    34 -0.249534 -2.846964 -0.174213 -0.316343 -0.019324 0.076958
    35 0.043235 -1.656596 0.076480 -1.215735 -0.019648 0.004291
    36 0.031729 -1.149111 0.058838 -0.758918 -0.007903 0.005292
    37 -0.963866 -2.785145 -0.085350 -0.133536 0.264013 -0.032832
    38 0.028479 -1.403067 -0.009354 -0.611716 -0.012368 -0.024940
    39 0.021413 -0.942156 0.012233 -1.051190 -0.028955 -0.035163
    40 1.164475 -2.543940 -0.170330 -0.166622 -0.161422 -0.083745
    41 0.024032 -1.136855 -0.001725 -0.790999 0.004494 0.042151
    42 0.014898 -0.903521 -0.015942 -1.038482 0.010007 0.051857
    43 -0.586770 -1.264477 0.200161 -0.200114 -0.096951 -2.129323
    44 1.530648 0.054775 0.009035 0.154202 -0.079650 0.158043
    45 1.106228 0.052330 -0.001860 0.312990 -0.289446 0.975210
    46 -0.139399 -0.111698 0.014397 0.285382 -0.030687 1.580508
    47 -8.151489 -0.497045 -0.477722 1.562707 -0.037777 -0.016704
  time 6
    0 5.961908 -10.439154 -3.220965 -1.487772 0.180277 1.527689
    1 -0.881688 0.180202 0.007813 0.000001 0.000000 -1.620318
    2 1.671935 4.611084 0.000000 0.000000 0.000000 1.232289
    3 -0.763543 -0.089952 0.631852 -0.002283 1.570796 0.000000
    4 1.384421 -0.042067 0.000000 0.000000 0.000000 1.345677
    5 0.660750 -0.739376 0.000000 0.000000 0.000000 0.002283
    6 -0.736122 -1.726717 -0.122348 1.570770 -1.561760 1.573105
    7 -0.736128 -1.724683 0.143968 -1.570809 1.561648 -1.568528
    8 1.971970 -2.249433 0.180133 0.019412 -0.056377 3.115553
    9 -0.002752 -0.001265 -0.003287 0.000000 0.000000 0.000000
    10 8.271009 1.028704 -5.249142 6.039672 -2.012536 0.085554
    11 8.062075 0.211542 -0.384189 1.570166 -3.115402 0.103958
    12 -0.032857 -8.510455 -0.080696 0.084919 0.493413 0.347013
    13 -0.488518 -2.755602 -0.228260 -0.242250 0.060691 -0.057732
    14 0.039887 -1.538386 0.018135 -1.634758 -0.010403 0.036650
    15 0.028786 -1.134327 -0.109049 -0.791864 -0.013746 0.015532
    16 0.250027 -2.820665 -0.238396 -0.313985 0.018280 -0.085804
    17 -0.049759 -1.602417 0.049696 -1.312009 0.004662 -0.036064
    18 -0.034142 -1.175657 0.045718 -1.263189 0.005489 -0.033341
    19 0.957766 -2.746780 -0.090302 0.184036 -0.150856 0.099912
    20 -0.033420 -1.393223 -0.019070 -0.553659 0.008401 -0.027014
    21 -0.022360 -0.957436 0.007065 -0.543826 0.008006 -0.026126
    22 -1.180681 -2.507217 -0.193859 -0.150629 0.142428 -0.022097
    23 -0.024967 -1.123934 0.017597 -0.759772 0.006951 -0.032333
    24 -0.020057 -0.906594 0.037435 -1.161982 0.002397 -0.047687
    25 0.603042 -1.197277 0.181473 0.666402 -0.922572 -1.051051
    26 1.504676 -0.177260 -0.006710 0.213418 0.065484 -0.624307
    27 1.049988 -0.147821 0.032291 0.039018 -0.188604 -0.767764
    28 0.120153 -0.050270 -0.054489 0.287569 3.110905 1.561085
    29 0.088617 -1.930378 -10.931304 -1.850063 -5.239270 -1.371909
    30 0.085225 -8.430887 -0.005459 0.152626 -0.268027 0.295872
    31 0.447953 -2.798986 -0.200443 -0.244439 -0.056549 0.060325
    32 -0.032909 -1.499736 0.024472 -1.286546 0.022998 -0.023524
    33 -0.027022 -1.096452 -0.028023 -0.524789 0.013722 -0.005621
    34 -0.249534 -2.846964 -0.174213 -0.316343 -0.019324 0.076958
    35 0.043235 -1.656596 0.076480 -1.215735 -0.019648 0.004291
    36 0.031729 -1.149111 0.058838 -0.758918 -0.007903 0.005292
    37 -0.963866 -2.785145 -0.085350 -0.133536 0.264013 -0.032832
    38 0.028479 -1.403067 -0.009354 -0.611716 -0.012368 -0.024940
    39 0.021413 -0.942156 0.012233 -1.051190 -0.028955 -0.035163
    40 1.164475 -2.543940 -0.170330 -0.166622 -0.161422 -0.083745
    41 0.024032 -1.136855 -0.001725 -0.790999 0.004494 0.042151
    42 0.014898 -0.903521 -0.015942 -1.038482 0.010007 0.051857
    43 -0.586770 -1.264477 0.200161 -0.200114 -0.096951 -2.129323
    44 1.530648 0.054775 0.009035 0.154202 -0.079650 0.158043
    45 1.106228 0.052330 -0.001860 0.312990 -0.289446 0.975210
    46 -0.139399 -0.111698 0.014397 0.285382 -0.030687 1.580508
    47 -8.174927 -0.317352 -0.477722 1.563271 -0.037597 -0.038772
  time 7
    0 6.004879 -10.618847 -3.299093 -1.471887 0.166551 1.528946
    1 -0.881688 0.219265 0.003906 0.000001 0.000000 -1.542909
    2 1.671935 4.611084 0.000000 0.000000 0.000000 1.232289
    3 -0.763543 -0.089952 0.631852 -0.002283 1.570796 0.000000
    4 1.384421 -0.042067 0.000000 0.000000 0.000000 1.345677
    5 0.660750 -0.739376 0.000000 0.000000 0.000000 0.002283
    6 -0.736122 -1.726717 -0.122348 1.570770 -1.561760 1.573105
    7 -0.736128 -1.724683 0.143968 -1.570809 1.561648 -1.568528
    8 1.971970 -2.249433 0.180133 0.019412 -0.056377 3.115553
    9 -0.002752 -0.001265 -0.003287 0.000000 0.000000 0.000000
    10 8.368668 0.868543 -5.256955 6.021872 -2.005641 0.091394
    11 8.058169 0.141228 -0.384189 1.570358 -3.115307 0.094948
    12 -0.028951 -8.510455 -0.080696 0.093350 0.500702 0.341930
    13 -0.488518 -2.755602 -0.228260 -0.242250 0.060691 -0.057732
    14 0.039887 -1.538386 0.018135 -1.634758 -0.010403 0.036650
    15 0.028786 -1.134327 -0.109049 -0.791864 -0.013746 0.015532
    16 0.250027 -2.820665 -0.238396 -0.313985 0.018280 -0.085804
    17 -0.049759 -1.602417 0.049696 -1.312009 0.004662 -0.036064
    18 -0.034142 -1.175657 0.045718 -1.263189 0.005489 -0.033341
    19 0.957766 -2.746780 -0.090302 0.167150 -0.150256 0.099289
    20 -0.033420 -1.393223 -0.019070 -0.517853 0.008329 -0.025205
    21 -0.022360 -0.957436 0.007065 -0.527929 0.007982 -0.025323
    22 -1.180681 -2.507217 -0.193859 -0.150629 0.142428 -0.022097
    23 -0.024967 -1.123934 0.017597 -0.759772 0.006951 -0.032333
    24 -0.020057 -0.906594 0.037435 -1.161982 0.002397 -0.047687
    25 0.603042 -1.197277 0.181473 0.666402 -0.922572 -1.051051
    26 1.504676 -0.177260 -0.006710 0.213418 0.065484 -0.624307
    27 1.049988 -0.147821 0.032291 0.039018 -0.188604 -0.767764
    28 0.120153 -0.050270 -0.054489 0.287569 3.110905 1.561085
    29 0.115962 -2.012412 -10.903960 -1.853837 -5.233832 -1.381579
    30 0.081319 -8.426980 -0.009365 0.144280 -0.262588 0.310881
    31 0.447953 -2.798986 -0.200443 -0.244439 -0.056549 0.060325
    32 -0.032909 -1.499736 0.024472 -1.286546 0.022998 -0.023524
    33 -0.027022 -1.096452 -0.028023 -0.524789 0.013722 -0.005621
    34 -0.249534 -2.846964 -0.174213 -0.316343 -0.019324 0.076958
    35 0.043235 -1.656596 0.076480 -1.215735 -0.019648 0.004291
    36 0.031729 -1.149111 0.058838 -0.758918 -0.007903 0.005292
    37 -0.963866 -2.785145 -0.085350 -0.133536 0.264013 -0.032832
    38 0.028479 -1.403067 -0.009354 -0.611716 -0.012368 -0.024940
    39 0.021413 -0.942156 0.012233 -1.051190 -0.028955 -0.035163
    40 1.164475 -2.543940 -0.170330 -0.166622 -0.161422 -0.083745
    41 0.024032 -1.136855 -0.001725 -0.790999 0.004494 0.042151
    42 0.014898 -0.903521 -0.015942 -1.038482 0.010007 0.051857
    43 -0.586770 -1.264477 0.200161 -0.200114 -0.096951 -2.129323
    44 1.530648 0.054775 0.009035 0.154202 -0.079650 0.158043
    45 1.106228 0.052330 -0.001860 0.312990 -0.289446 0.975210
    46 -0.139399 -0.111698 0.014397 0.285382 -0.030687 1.580508
    47 -8.194459 -0.137659 -0.477722 1.563834 -0.037417 -0.060840
  time 8
    0 6.016598 -10.794634 -3.349875 -1.469414 0.146010 1.531357
    1 -0.881688 0.262235 0.000000 0.000001 0.000000 -1.465513
    2 1.671935 4.611084 0.000000 0.000000 0.000000 1.232289
    3 -0.763543 -0.089952 0.631852 -0.002283 1.570796 0.000000
    4 1.384421 -0.042067 0.000000 0.000000 0.000000 1.345677
    5 0.660750 -0.739376 0.000000 0.000000 0.000000 0.002283
    6 -0.736122 -1.726717 -0.122348 1.570770 -1.561760 1.573105
    7 -0.736128 -1.724683 0.143968 -1.570809 1.561648 -1.568528
    8 1.971970 -2.249433 0.180133 0.019412 -0.056377 3.115553
    9 -0.002752 -0.001265 -0.003287 0.000000 0.000000 0.000000
    10 8.427264 0.747446 -5.256955 6.023403 -2.001669 0.083639
    11 8.054262 0.086539 -0.384189 1.570453 -3.115116 0.088327
    12 -0.028951 -8.506549 -0.080696 0.092625 0.502830 0.318463
    13 -0.488518 -2.755602 -0.228260 -0.242250 0.060691 -0.057732
    14 0.039887 -1.538386 0.018135 -1.634758 -0.010403 0.036650
    15 0.028786 -1.134327 -0.109049 -0.791864 -0.013746 0.015532
    16 0.250027 -2.820665 -0.238396 -0.313985 0.018280 -0.085804
    17 -0.049759 -1.602417 0.049696 -1.312009 0.004662 -0.036064
    18 -0.034142 -1.175657 0.045718 -1.263189 0.005489 -0.033341
    19 0.957766 -2.746780 -0.090302 0.161469 -0.150065 0.099073
    20 -0.033420 -1.393223 -0.019070 -0.505797 0.008293 -0.024593
    21 -0.022360 -0.957436 0.007065 -0.522590 0.007970 -0.025048
    22 -1.180681 -2.507217 -0.193859 -0.150629 0.142428 -0.022097
    23 -0.024967 -1.123934 0.017597 -0.759772 0.006951 -0.032333
    24 -0.020057 -0.906594 0.037435 -1.161982 0.002397 -0.047687
    25 0.603042 -1.197277 0.181473 0.666402 -0.922572 -1.051051
    26 1.504676 -0.177260 -0.006710 0.213418 0.065484 -0.624307
    27 1.049988 -0.147821 0.032291 0.039018 -0.188604 -0.767764
    28 0.120153 -0.050270 -0.054489 0.287569 3.110905 1.561085
    29 0.139400 -2.090539 -10.876615 -1.856727 -5.229733 -1.388856
    30 0.077412 -8.423074 -0.005459 0.136741 -0.271653 0.326848
    31 0.447953 -2.798986 -0.200443 -0.244439 -0.056549 0.060325
    32 -0.032909 -1.499736 0.024472 -1.286546 0.022998 -0.023524
    33 -0.027022 -1.096452 -0.028023 -0.524789 0.013722 -0.005621
    34 -0.249534 -2.846964 -0.174213 -0.316343 -0.019324 0.076958
    35 0.043235 -1.656596 0.076480 -1.215735 -0.019648 0.004291
    36 0.031729 -1.149111 0.058838 -0.758918 -0.007903 0.005292
    37 -0.963866 -2.785145 -0.085350 -0.133536 0.264013 -0.032832
    38 0.028479 -1.403067 -0.009354 -0.611716 -0.012368 -0.024940
    39 0.021413 -0.942156 0.012233 -1.051190 -0.028955 -0.035163
    40 1.164475 -2.543940 -0.170330 -0.166622 -0.161422 -0.083745
    41 0.024032 -1.136855 -0.001725 -0.790999 0.004494 0.042151
    42 0.014898 -0.903521 -0.015942 -1.038482 0.010007 0.051857
    43 -0.586770 -1.264477 0.200161 -0.200114 -0.096951 -2.129323
    44 1.530648 0.054775 0.009035 0.154202 -0.079650 0.158043
    45 1.106228 0.052330 -0.001860 0.312990 -0.289446 0.975210
    46 -0.139399 -0.111698 0.014397 0.285382 -0.030687 1.580508
    47 -8.210084 0.022502 -0.477722 1.564325 -0.037238 -0.080255
  time 9
    0 6.020504 -10.978233 -3.388939 -1.471221 0.121115 1.534473
    1 -0.881688 0.289580 0.000000 0.000001 0.000000 -1.405973
    2 1.671935 4.611084 0.000000 0.000000 0.000000 1.232289
    3 -0.763543 -0.089952 0.631852 -0.002283 1.570796 0.000000
    4 1.384421 -0.042067 0.000000 0.000000 0.000000 1.345677
    5 0.660750 -0.739376 0.000000 0.000000 0.000000 0.002283
    6 -0.736122 -1.726717 -0.122348 1.570770 -1.561760 1.573105
    7 -0.736128 -1.724683 0.143968 -1.570809 1.561648 -1.568528
    8 1.971970 -2.249433 0.180133 0.019412 -0.056377 3.115553
    9 -0.002752 -0.001265 -0.003287 0.000000 0.000000 0.000000
    10 8.470234 0.630255 -5.256955 6.034217 -1.998746 0.068704
    11 8.050356 0.039662 -0.388095 1.570453 -3.115020 0.082798
    12 -0.028951 -8.502643 -0.080696 0.087911 0.504325 0.285333
    13 -0.488518 -2.755602 -0.228260 -0.242250 0.060691 -0.057732
    14 0.039887 -1.538386 0.018135 -1.634758 -0.010403 0.036650
    15 0.028786 -1.134327 -0.109049 -0.791864 -0.013746 0.015532
    16 0.250027 -2.820665 -0.238396 -0.313985 0.018280 -0.085804
    17 -0.049759 -1.602417 0.049696 -1.312009 0.004662 -0.036064
    18 -0.034142 -1.175657 0.045718 -1.263189 0.005489 -0.033341
    19 0.957766 -2.746780 -0.090302 0.160750 -0.150041 0.099049
    20 -0.033420 -1.393223 -0.019070 -0.504296 0.008293 -0.024521
    21 -0.022360 -0.957436 0.007065 -0.521918 0.007970 -0.025012
    22 -1.180681 -2.507217 -0.193859 -0.150629 0.142428 -0.022097
    23 -0.024967 -1.123934 0.017597 -0.759772 0.006951 -0.032333
    24 -0.020057 -0.906594 0.037435 -1.161982 0.002397 -0.047687
    25 0.603042 -1.197277 0.181473 0.666402 -0.922572 -1.051051
    26 1.504676 -0.177260 -0.006710 0.213418 0.065484 -0.624307
    27 1.049988 -0.147821 0.032291 0.039018 -0.188604 -0.767764
    28 0.120153 -0.050270 -0.054489 0.287569 3.110905 1.561085
    29 0.166744 -2.172573 -10.845364 -1.859086 -5.226638 -1.395367
    30 0.073506 -8.419168 -0.005459 0.128440 -0.286339 0.346009
    31 0.447953 -2.798986 -0.200443 -0.244439 -0.056549 0.060325
    32 -0.032909 -1.499736 0.024472 -1.286546 0.022998 -0.023524
    33 -0.027022 -1.096452 -0.028023 -0.524789 0.013722 -0.005621
    34 -0.249534 -2.846964 -0.174213 -0.316343 -0.019324 0.076958
    35 0.043235 -1.656596 0.076480 -1.215735 -0.019648 0.004291
    36 0.031729 -1.149111 0.058838 -0.758918 -0.007903 0.005292
    37 -0.963866 -2.785145 -0.085350 -0.133536 0.264013 -0.032832
    38 0.028479 -1.403067 -0.009354 -0.611716 -0.012368 -0.024940
    39 0.021413 -0.942156 0.012233 -1.051190 -0.028955 -0.035163
    40 1.164475 -2.543940 -0.170330 -0.166622 -0.161422 -0.083745
    41 0.024032 -1.136855 -0.001725 -0.790999 0.004494 0.042151
    42 0.014898 -0.903521 -0.015942 -1.038482 0.010007 0.051857
    43 -0.586770 -1.264477 0.200161 -0.200114 -0.096951 -2.129323
    44 1.530648 0.054775 0.009035 0.154202 -0.079650 0.158043
    45 1.106228 0.052330 -0.001860 0.312990 -0.289446 0.975210
    46 -0.139399 -0.111698 0.014397 0.285382 -0.030687 1.580508
    47 -8.221803 0.178757 -0.477722 1.564805 -0.037058 -0.099529
  time 10
    0 6.016598 -11.161833 -3.420190 -1.475501 0.094799 1.537939
    1 -0.881688 0.301299 0.000000 0.000001 0.000000 -1.382160
    2 1.671935 4.611084 0.000000 0.000000 0.000000 1.232289
    3 -0.763543 -0.089952 0.631852 -0.002283 1.570796 0.000000
    4 1.384421 -0.042067 0.000000 0.000000 0.000000 1.345677
    5 0.660750 -0.739376 0.000000 0.000000 0.000000 0.002283
    6 -0.736122 -1.726717 -0.122348 1.570770 -1.561760 1.573105
    7 -0.736128 -1.724683 0.143968 -1.570809 1.561648 -1.568528
    8 1.971970 -2.249433 0.180133 0.019412 -0.056377 3.115553
    9 -0.002752 -0.001265 -0.003287 0.000000 0.000000 0.000000
    10 8.509298 0.516970 -5.256955 6.049816 -1.996422 0.050035
    11 8.046450 0.000599 -0.388095 1.570549 -3.115020 0.078021
    12 -0.028951 -8.498736 -0.080696 0.081429 0.504958 0.248062
    13 -0.488518 -2.755602 -0.228260 -0.242250 0.060691 -0.057732
    14 0.039887 -1.538386 0.018135 -1.634758 -0.010403 0.036650
    15 0.028786 -1.134327 -0.109049 -0.791864 -0.013746 0.015532
    16 0.250027 -2.820665 -0.238396 -0.313985 0.018280 -0.085804
    17 -0.049759 -1.602417 0.049696 -1.312009 0.004662 -0.036064
    18 -0.034142 -1.175657 0.045718 -1.263189 0.005489 -0.033341
    19 0.957766 -2.746780 -0.090302 0.162883 -0.150113 0.099121
    20 -0.033420 -1.393223 -0.019070 -0.508823 0.008305 -0.024749
    21 -0.022360 -0.957436 0.007065 -0.523935 0.007970 -0.025120
    22 -1.180681 -2.507217 -0.193859 -0.150629 0.142428 -0.022097
    23 -0.024967 -1.123934 0.017597 -0.759772 0.006951 -0.032333
    24 -0.020057 -0.906594 0.037435 -1.161982 0.002397 -0.047687
    25 0.603042 -1.197277 0.181473 0.666402 -0.922572 -1.051051
    26 1.504676 -0.177260 -0.006710 0.213418 0.065484 -0.624307
    27 1.049988 -0.147821 0.032291 0.039018 -0.188604 -0.767764
    28 0.120153 -0.050270 -0.054489 0.287569 3.110905 1.561085
    29 0.194089 -2.254606 -10.810207 -1.861327 -5.223877 -1.401590
    30 0.069599 -8.415261 -0.001552 0.119600 -0.303528 0.365950
    31 0.447953 -2.798986 -0.200443 -0.244439 -0.056549 0.060325
    32 -0.032909 -1.499736 0.024472 -1.286546 0.022998 -0.023524
    33 -0.027022 -1.096452 -0.028023 -0.524789 0.013722 -0.005621
    34 -0.249534 -2.846964 -0.174213 -0.316343 -0.019324 0.076958
    35 0.043235 -1.656596 0.076480 -1.215735 -0.019648 0.004291
    36 0.031729 -1.149111 0.058838 -0.758918 -0.007903 0.005292
    37 -0.963866 -2.785145 -0.085350 -0.133536 0.264013 -0.032832
    38 0.028479 -1.403067 -0.009354 -0.611716 -0.012368 -0.024940
    39 0.021413 -0.942156 0.012233 -1.051190 -0.028955 -0.035163
    40 1.164475 -2.543940 -0.170330 -0.166622 -0.161422 -0.083745
    41 0.024032 -1.136855 -0.001725 -0.790999 0.004494 0.042151
    42 0.014898 -0.903521 -0.015942 -1.038482 0.010007 0.051857
    43 -0.586770 -1.264477 0.200161 -0.200114 -0.096951 -2.129323
    44 1.530648 0.054775 0.009035 0.154202 -0.079650 0.158043
    45 1.106228 0.052330 -0.001860 0.312990 -0.289446 0.975210
    46 -0.139399 -0.111698 0.014397 0.285382 -0.030687 1.580508
    47 -8.233523 0.338918 -0.473815 1.565284 -0.036854 -0.118944
  time 11
    0 6.016598 -11.341526 -3.451441 -1.480448 0.069998 1.541406
    1 -0.881688 0.301299 0.000000 0.000001 0.000000 -1.382160
    2 1.671935 4.611084 0.000000 0.000000 0.000000 1.232289
    3 -0.763543 -0.089952 0.631852 -0.002283 1.570796 0.000000
    4 1.384421 -0.042067 0.000000 0.000000 0.000000 1.345677
    5 0.660750 -0.739376 0.000000 0.000000 0.000000 0.002283
    6 -0.736122 -1.726717 -0.122348 1.570770 -1.561760 1.573105
    7 -0.736128 -1.724683 0.143968 -1.570809 1.561648 -1.568528
    8 1.971970 -2.249433 0.180133 0.019412 -0.056377 3.115553
    9 -0.002752 -0.001265 -0.003287 0.000000 0.000000 0.000000
    10 8.544455 0.399779 -5.256955 6.065414 -1.994324 0.031462
    11 8.042543 -0.034559 -0.388095 1.570645 -3.114925 0.073584
    12 -0.028951 -8.498736 -0.080696 0.075265 0.504687 0.212548
    13 -0.488518 -2.755602 -0.228260 -0.242250 0.060691 -0.057732
    14 0.039887 -1.538386 0.018135 -1.634758 -0.010403 0.036650
    15 0.028786 -1.134327 -0.109049 -0.791864 -0.013746 0.015532
    16 0.250027 -2.820665 -0.238396 -0.313985 0.018280 -0.085804
    17 -0.049759 -1.602417 0.049696 -1.312009 0.004662 -0.036064
    18 -0.034142 -1.175657 0.045718 -1.263189 0.005489 -0.033341
    19 0.957766 -2.746780 -0.090302 0.165736 -0.150209 0.099229
    20 -0.033420 -1.393223 -0.019070 -0.514851 0.008329 -0.025049
    21 -0.022360 -0.957436 0.007065 -0.526604 0.007982 -0.025252
    22 -1.180681 -2.507217 -0.193859 -0.150629 0.142428 -0.022097
    23 -0.024967 -1.123934 0.017597 -0.759772 0.006951 -0.032333
    24 -0.020057 -0.906594 0.037435 -1.161982 0.002397 -0.047687
    25 0.603042 -1.197277 0.181473 0.666402 -0.922572 -1.051051
    26 1.504676 -0.177260 -0.006710 0.213418 0.065484 -0.624307
    27 1.049988 -0.147821 0.032291 0.039018 -0.188604 -0.767764
    28 0.120153 -0.050270 -0.054489 0.287569 3.110905 1.561085
    29 0.221434 -2.336640 -10.775050 -1.863744 -5.220782 -1.407909
    30 0.065693 -8.415261 -0.001552 0.110626 -0.320208 0.384188
    31 0.447953 -2.798986 -0.200443 -0.244439 -0.056549 0.060325
    32 -0.032909 -1.499736 0.024472 -1.286546 0.022998 -0.023524
    33 -0.027022 -1.096452 -0.028023 -0.524789 0.013722 -0.005621
    34 -0.249534 -2.846964 -0.174213 -0.316343 -0.019324 0.076958
    35 0.043235 -1.656596 0.076480 -1.215735 -0.019648 0.004291
    36 0.031729 -1.149111 0.058838 -0.758918 -0.007903 0.005292
    37 -0.963866 -2.785145 -0.085350 -0.133536 0.264013 -0.032832
    38 0.028479 -1.403067 -0.009354 -0.611716 -0.012368 -0.024940
    39 0.021413 -0.942156 0.012233 -1.051190 -0.028955 -0.035163
    40 1.164475 -2.543940 -0.170330 -0.166622 -0.161422 -0.083745
    41 0.024032 -1.136855 -0.001725 -0.790999 0.004494 0.042151
    42 0.014898 -0.903521 -0.015942 -1.038482 0.010007 0.051857
    43 -0.586770 -1.264477 0.200161 -0.200114 -0.096951 -2.129323
    44 1.530648 0.054775 0.009035 0.154202 -0.079650 0.158043
    45 1.106228 0.052330 -0.001860 0.312990 -0.289446 0.975210
    46 -0.139399 -0.111698 0.014397 0.285382 -0.030687 1.580508
    47 -8.237429 0.502985 -0.473815 1.565775 -0.036650 -0.138986
  time 12
    0 6.012691 -11.513406 -3.486598 -1.484158 0.049741 1.544321
    1 -0.881688 0.301299 0.000000 0.000001 0.000000 -1.382160
    2 1.671935 4.611084 0.000000 0.000000 0.000000 1.232289
    3 -0.763543 -0.089952 0.631852 -0.002283 1.570796 0.000000
    4 1.384421 -0.042067 0.000000 0.000000 0.000000 1.345677
    5 0.660750 -0.739376 0.000000 0.000000 0.000000 0.002283
    6 -0.736122 -1.726717 -0.122348 1.570770 -1.561760 1.573105
    7 -0.736128 -1.724683 0.143968 -1.570809 1.561648 -1.568528
    8 1.971970 -2.249433 0.180133 0.019412 -0.056377 3.115553
    9 -0.002752 -0.001265 -0.003287 0.000000 0.000000 0.000000
    10 8.579612 0.278681 -5.253048 6.075941 -1.992075 0.017388
    11 8.038637 -0.073622 -0.388095 1.570741 -3.114829 0.068670
    12 -0.028951 -8.494830 -0.080696 0.071457 0.503826 0.184438
    13 -0.488518 -2.755602 -0.228260 -0.242250 0.060691 -0.057732
    14 0.039887 -1.538386 0.018135 -1.634758 -0.010403 0.036650
    15 0.028786 -1.134327 -0.109049 -0.791864 -0.013746 0.015532
    16 0.250027 -2.820665 -0.238396 -0.313985 0.018280 -0.085804
    17 -0.049759 -1.602417 0.049696 -1.312009 0.004662 -0.036064
    18 -0.034142 -1.175657 0.045718 -1.263189 0.005489 -0.033341
    19 0.957766 -2.746780 -0.090302 0.167150 -0.150256 0.099289
    20 -0.033420 -1.393223 -0.019070 -0.517853 0.008329 -0.025205
    21 -0.022360 -0.957436 0.007065 -0.527929 0.007982 -0.025323
    22 -1.180681 -2.507217 -0.193859 -0.150629 0.142428 -0.022097
    23 -0.024967 -1.123934 0.017597 -0.759772 0.006951 -0.032333
    24 -0.020057 -0.906594 0.037435 -1.161982 0.002397 -0.047687
    25 0.603042 -1.197277 0.181473 0.666402 -0.922572 -1.051051
    26 1.504676 -0.177260 -0.006710 0.213418 0.065484 -0.624307
    27 1.049988 -0.147821 0.032291 0.039018 -0.188604 -0.767764
    28 0.120153 -0.050270 -0.054489 0.287569 3.110905 1.561085
    29 0.248778 -2.418674 -10.735986 -1.866693 -5.216599 -1.414899
    30 0.057880 -8.411355 0.002354 0.102235 -0.333480 0.398061
    31 0.447953 -2.798986 -0.200443 -0.244439 -0.056549 0.060325
    32 -0.032909 -1.499736 0.024472 -1.286546 0.022998 -0.023524
    33 -0.027022 -1.096452 -0.028023 -0.524789 0.013722 -0.005621
    34 -0.249534 -2.846964 -0.174213 -0.316343 -0.019324 0.076958
    35 0.043235 -1.656596 0.076480 -1.215735 -0.019648 0.004291
    36 0.031729 -1.149111 0.058838 -0.758918 -0.007903 0.005292
    37 -0.963866 -2.785145 -0.085350 -0.133536 0.264013 -0.032832
    38 0.028479 -1.403067 -0.009354 -0.611716 -0.012368 -0.024940
    39 0.021413 -0.942156 0.012233 -1.051190 -0.028955 -0.035163
    40 1.164475 -2.543940 -0.170330 -0.166622 -0.161422 -0.083745
    41 0.024032 -1.136855 -0.001725 -0.790999 0.004494 0.042151
    42 0.014898 -0.903521 -0.015942 -1.038482 0.010007 0.051857
    43 -0.586770 -1.264477 0.200161 -0.200114 -0.096951 -2.129323
    44 1.530648 0.054775 0.009035 0.154202 -0.079650 0.158043
    45 1.106228 0.052330 -0.001860 0.312990 -0.289446 0.975210
    46 -0.139399 -0.111698 0.014397 0.285382 -0.030687 1.580508
    47 -8.241335 0.674865 -0.473815 1.566291 -0.036423 -0.159937
  time 13
    0 6.020504 -11.595440 -3.486598 -1.487011 0.034690 1.546481
    1 -0.881688 0.301299 0.000000 0.000001 0.000000 -1.382160
    2 1.671935 4.611084 0.000000 0.000000 0.000000 1.232289
    3 -0.763543 -0.089952 0.631852 -0.002283 1.570796 0.000000
    4 1.384421 -0.042067 0.000000 0.000000 0.000000 1.345677
    5 0.660750 -0.739376 0.000000 0.000000 0.000000 0.002283
    6 -0.736122 -1.726717 -0.122348 1.570770 -1.561760 1.573105
    7 -0.736128 -1.724683 0.143968 -1.570809 1.561648 -1.568528
    8 1.971970 -2.249433 0.180133 0.019412 -0.056377 3.115553
    9 -0.002752 -0.001265 -0.003287 0.000000 0.000000 0.000000
    10 8.634302 0.227898 -5.233516 6.084554 -1.989228 0.004272
    11 8.019105 -0.268941 -0.392002 -1.570562 -0.027015 -3.096760
    12 -0.028951 -8.494830 -0.080696 0.070369 0.501834 0.163104
    13 -0.488518 -2.755602 -0.228260 -0.242250 0.060691 -0.057732
    14 0.039887 -1.538386 0.018135 -1.634758 -0.010403 0.036650
    15 0.028786 -1.134327 -0.109049 -0.791864 -0.013746 0.015532
    16 0.250027 -2.820665 -0.238396 -0.313985 0.018280 -0.085804
    17 -0.049759 -1.602417 0.049696 -1.312009 0.004662 -0.036064
    18 -0.034142 -1.175657 0.045718 -1.263189 0.005489 -0.033341
    19 0.957766 -2.746780 -0.090302 0.167150 -0.150256 0.099289
    20 -0.033420 -1.393223 -0.019070 -0.517853 0.008329 -0.025205
    21 -0.022360 -0.957436 0.007065 -0.527929 0.007982 -0.025323
    22 -1.180681 -2.507217 -0.193859 -0.150629 0.142428 -0.022097
    23 -0.024967 -1.123934 0.017597 -0.759772 0.006951 -0.032333
    24 -0.020057 -0.906594 0.037435 -1.161982 0.002397 -0.047687
    25 0.603042 -1.197277 0.181473 0.666402 -0.922572 -1.051051
    26 1.504676 -0.177260 -0.006710 0.213418 0.065484 -0.624307
    27 1.049988 -0.147821 0.032291 0.039018 -0.188604 -0.767764
    28 0.120153 -0.050270 -0.054489 0.287569 3.110905 1.561085
    29 0.268310 -2.457738 -10.716454 -1.866398 -5.217436 -1.415282
    30 0.057880 -8.411355 0.002354 0.098017 -0.342944 0.412148
    31 0.447953 -2.798986 -0.200443 -0.244439 -0.056549 0.060325
    32 -0.032909 -1.499736 0.024472 -1.286546 0.022998 -0.023524
    33 -0.027022 -1.096452 -0.028023 -0.524789 0.013722 -0.005621
    34 -0.249534 -2.846964 -0.174213 -0.316343 -0.019324 0.076958
    35 0.043235 -1.656596 0.076480 -1.215735 -0.019648 0.004291
    36 0.031729 -1.149111 0.058838 -0.758918 -0.007903 0.005292
    37 -0.963866 -2.785145 -0.085350 -0.133536 0.264013 -0.032832
    38 0.028479 -1.403067 -0.009354 -0.611716 -0.012368 -0.024940
    39 0.021413 -0.942156 0.012233 -1.051190 -0.028955 -0.035163
    40 1.164475 -2.543940 -0.170330 -0.166622 -0.161422 -0.083745
    41 0.024032 -1.136855 -0.001725 -0.790999 0.004494 0.042151
    42 0.014898 -0.903521 -0.015942 -1.038482 0.010007 0.051857
    43 -0.586770 -1.264477 0.200161 -0.200114 -0.096951 -2.129323
    44 1.530648 0.054775 0.009035 0.154202 -0.079650 0.158043
    45 1.106228 0.052330 -0.001860 0.312990 -0.289446 0.975210
    46 -0.139399 -0.111698 0.014397 0.285382 -0.030687 1.580508
    47 -8.241335 0.741274 -0.473815 1.566482 -0.036327 -0.167759
  time 14
    0 6.032223 -11.634503 -3.459254 -1.489865 0.023709 1.548290
    1 -0.881688 0.301299 0.000000 0.000001 0.000000 -1.382160
    2 1.671935 4.611084 0.000000 0.000000 0.000000 1.232289
    3 -0.763543 -0.089952 0.631852 -0.002283 1.570796 0.000000
    4 1.384421 -0.042067 0.000000 0.000000 0.000000 1.345677
    5 0.660750 -0.739376 0.000000 0.000000 0.000000 0.002283
    6 -0.736122 -1.726717 -0.122348 1.570770 -1.561760 1.573105
    7 -0.736128 -1.724683 0.143968 -1.570809 1.561648 -1.568528
    8 1.971970 -2.249433 0.180133 0.019412 -0.056377 3.115553
    9 -0.002752 -0.001265 -0.003287 0.000000 0.000000 0.000000
    10 8.688991 0.212273 -5.194453 6.092018 -1.986155 -0.008079
    11 7.980041 -0.538480 -0.395908 -1.570083 -0.027588 -3.130479
    12 -0.028951 -8.490924 -0.080696 0.070913 0.498665 0.146665
    13 -0.488518 -2.755602 -0.228260 -0.242250 0.060691 -0.057732
    14 0.039887 -1.538386 0.018135 -1.634758 -0.010403 0.036650
    15 0.028786 -1.134327 -0.109049 -0.791864 -0.013746 0.015532
    16 0.250027 -2.820665 -0.238396 -0.313985 0.018280 -0.085804
    17 -0.049759 -1.602417 0.049696 -1.312009 0.004662 -0.036064
    18 -0.034142 -1.175657 0.045718 -1.263189 0.005489 -0.033341
    19 0.957766 -2.746780 -0.090302 0.167150 -0.150256 0.099289
    20 -0.033420 -1.393223 -0.019070 -0.517853 0.008329 -0.025205
    21 -0.022360 -0.957436 0.007065 -0.527929 0.007982 -0.025323
    22 -1.180681 -2.507217 -0.193859 -0.150629 0.142428 -0.022097
    23 -0.024967 -1.123934 0.017597 -0.759772 0.006951 -0.032333
    24 -0.020057 -0.906594 0.037435 -1.161982 0.002397 -0.047687
    25 0.603042 -1.197277 0.181473 0.666402 -0.922572 -1.051051
    26 1.504676 -0.177260 -0.006710 0.213418 0.065484 -0.624307
    27 1.049988 -0.147821 0.032291 0.039018 -0.188604 -0.767764
    28 0.120153 -0.050270 -0.054489 0.287569 3.110905 1.561085
    29 0.280029 -2.481176 -10.696922 -1.864334 -5.221117 -1.412601
    30 0.053974 -8.411355 0.002354 0.095638 -0.350414 0.425241
    31 0.447953 -2.798986 -0.200443 -0.244439 -0.056549 0.060325
    32 -0.032909 -1.499736 0.024472 -1.286546 0.022998 -0.023524
    33 -0.027022 -1.096452 -0.028023 -0.524789 0.013722 -0.005621
    34 -0.249534 -2.846964 -0.174213 -0.316343 -0.019324 0.076958
    35 0.043235 -1.656596 0.076480 -1.215735 -0.019648 0.004291
    36 0.031729 -1.149111 0.058838 -0.758918 -0.007903 0.005292
    37 -0.963866 -2.785145 -0.085350 -0.133536 0.264013 -0.032832
    38 0.028479 -1.403067 -0.009354 -0.611716 -0.012368 -0.024940
    39 0.021413 -0.942156 0.012233 -1.051190 -0.028955 -0.035163
    40 1.164475 -2.543940 -0.170330 -0.166622 -0.161422 -0.083745
    41 0.024032 -1.136855 -0.001725 -0.790999 0.004494 0.042151
    42 0.014898 -0.903521 -0.015942 -1.038482 0.010007 0.051857
    43 -0.586770 -1.264477 0.200161 -0.200114 -0.096951 -2.129323
    44 1.530648 0.054775 0.009035 0.154202 -0.079650 0.158043
    45 1.106228 0.052330 -0.001860 0.312990 -0.289446 0.975210
    46 -0.139399 -0.111698 0.014397 0.285382 -0.030687 1.580508
    47 -8.241335 0.756899 -0.473815 1.566518 -0.036315 -0.169575
  time 15
    0 6.036129 -11.646222 -3.424096 -1.492243 0.016515 1.549596
    1 -0.881688 0.301299 0.000000 0.000001 0.000000 -1.382160
    2 1.671935 4.611084 0.000000 0.000000 0.000000 1.232289
    3 -0.763543 -0.089952 0.631852 -0.002283 1.570796 0.000000
    4 1.384421 -0.042067 0.000000 0.000000 0.000000 1.345677
    5 0.660750 -0.739376 0.000000 0.000000 0.000000 0.002283
    6 -0.736122 -1.726717 -0.122348 1.570770 -1.561760 1.573105
    7 -0.736128 -1.724683 0.143968 -1.570809 1.561648 -1.568528
    8 1.971970 -2.249433 0.180133 0.019412 -0.056377 3.115553
    9 -0.002752 -0.001265 -0.003287 0.000000 0.000000 0.000000
    10 8.735867 0.208367 -5.151483 6.097568 -1.983232 -0.017844
    11 7.933165 -0.808020 -0.395908 -1.569507 -0.028065 -3.164197
    12 -0.028951 -8.490924 -0.080696 0.072500 0.495315 0.135559
    13 -0.488518 -2.755602 -0.228260 -0.242250 0.060691 -0.057732
    14 0.039887 -1.538386 0.018135 -1.634758 -0.010403 0.036650
    15 0.028786 -1.134327 -0.109049 -0.791864 -0.013746 0.015532
    16 0.250027 -2.820665 -0.238396 -0.313985 0.018280 -0.085804
    17 -0.049759 -1.602417 0.049696 -1.312009 0.004662 -0.036064
    18 -0.034142 -1.175657 0.045718 -1.263189 0.005489 -0.033341
    19 0.957766 -2.746780 -0.090302 0.167150 -0.150256 0.099289
    20 -0.033420 -1.393223 -0.019070 -0.517853 0.008329 -0.025205
    21 -0.022360 -0.957436 0.007065 -0.527929 0.007982 -0.025323
    22 -1.180681 -2.507217 -0.193859 -0.150629 0.142428 -0.022097
    23 -0.024967 -1.123934 0.017597 -0.759772 0.006951 -0.032333
    24 -0.020057 -0.906594 0.037435 -1.161982 0.002397 -0.047687
    25 0.603042 -1.197277 0.181473 0.666402 -0.922572 -1.051051
    26 1.504676 -0.177260 -0.006710 0.213418 0.065484 -0.624307
    27 1.049988 -0.147821 0.032291 0.039018 -0.188604 -0.767764
    28 0.120153 -0.050270 -0.054489 0.287569 3.110905 1.561085
    29 0.291748 -2.496801 -10.685203 -1.861739 -5.225801 -1.409441
    30 0.050068 -8.407448 0.006260 0.093933 -0.355672 0.436027
    31 0.447953 -2.798986 -0.200443 -0.244439 -0.056549 0.060325
    32 -0.032909 -1.499736 0.024472 -1.286546 0.022998 -0.023524
    33 -0.027022 -1.096452 -0.028023 -0.524789 0.013722 -0.005621
    34 -0.249534 -2.846964 -0.174213 -0.316343 -0.019324 0.076958
    35 0.043235 -1.656596 0.076480 -1.215735 -0.019648 0.004291
    36 0.031729 -1.149111 0.058838 -0.758918 -0.007903 0.005292
    37 -0.963866 -2.785145 -0.085350 -0.133536 0.264013 -0.032832
    38 0.028479 -1.403067 -0.009354 -0.611716 -0.012368 -0.024940
    39 0.021413 -0.942156 0.012233 -1.051190 -0.028955 -0.035163
    40 1.164475 -2.543940 -0.170330 -0.166622 -0.161422 -0.083745
    41 0.024032 -1.136855 -0.001725 -0.790999 0.004494 0.042151
    42 0.014898 -0.903521 -0.015942 -1.038482 0.010007 0.051857
    43 -0.586770 -1.264477 0.200161 -0.200114 -0.096951 -2.129323
    44 1.530648 0.054775 0.009035 0.154202 -0.079650 0.158043
    45 1.106228 0.052330 -0.001860 0.312990 -0.289446 0.975210
    46 -0.139399 -0.111698 0.014397 0.285382 -0.030687 1.580508
    47 -8.241335 0.749086 -0.473815 1.566494 -0.036327 -0.168597
  time 16
    0 6.032223 -11.654035 -3.396752 -1.493575 0.013108 1.550350
    1 -0.881688 0.301299 0.000000 0.000001 0.000000 -1.382160
    2 1.671935 4.611084 0.000000 0.000000 0.000000 1.232289
    3 -0.763543 -0.089952 0.631852 -0.002283 1.570796 0.000000
    4 1.384421 -0.042067 0.000000 0.000000 0.000000 1.345677
    5 0.660750 -0.739376 0.000000 0.000000 0.000000 0.002283
    6 -0.736122 -1.726717 -0.122348 1.570770 -1.561760 1.573105
    7 -0.736128 -1.724683 0.143968 -1.570809 1.561648 -1.568528
    8 1.971970 -2.249433 0.180133 0.019412 -0.056377 3.115553
    9 -0.002752 -0.001265 -0.003287 0.000000 0.000000 0.000000
    10 8.763212 0.204460 -5.116325 6.100057 -1.981058 -0.023493
    11 7.894101 -0.999432 -0.399814 -1.569124 -0.028352 -3.188223
    12 -0.032857 -8.490924 -0.080696 0.074403 0.492689 0.130288
    13 -0.488518 -2.755602 -0.228260 -0.242250 0.060691 -0.057732
    14 0.039887 -1.538386 0.018135 -1.634758 -0.010403 0.036650
    15 0.028786 -1.134327 -0.109049 -0.791864 -0.013746 0.015532
    16 0.250027 -2.820665 -0.238396 -0.313985 0.018280 -0.085804
    17 -0.049759 -1.602417 0.049696 -1.312009 0.004662 -0.036064
    18 -0.034142 -1.175657 0.045718 -1.263189 0.005489 -0.033341
    19 0.957766 -2.746780 -0.090302 0.167150 -0.150256 0.099289
    20 -0.033420 -1.393223 -0.019070 -0.517853 0.008329 -0.025205
    21 -0.022360 -0.957436 0.007065 -0.527929 0.007982 -0.025323
    22 -1.180681 -2.507217 -0.193859 -0.150629 0.142428 -0.022097
    23 -0.024967 -1.123934 0.017597 -0.759772 0.006951 -0.032333
    24 -0.020057 -0.906594 0.037435 -1.161982 0.002397 -0.047687
    25 0.603042 -1.197277 0.181473 0.666402 -0.922572 -1.051051
    26 1.504676 -0.177260 -0.006710 0.213418 0.065484 -0.624307
    27 1.049988 -0.147821 0.032291 0.039018 -0.188604 -0.767764
    28 0.120153 -0.050270 -0.054489 0.287569 3.110905 1.561085
    29 0.299561 -2.512427 -10.677390 -1.859970 -5.229231 -1.407718
    30 0.050068 -8.407448 0.006260 0.092542 -0.358392 0.442414
    31 0.447953 -2.798986 -0.200443 -0.244439 -0.056549 0.060325
    32 -0.032909 -1.499736 0.024472 -1.286546 0.022998 -0.023524
    33 -0.027022 -1.096452 -0.028023 -0.524789 0.013722 -0.005621
    34 -0.249534 -2.846964 -0.174213 -0.316343 -0.019324 0.076958
    35 0.043235 -1.656596 0.076480 -1.215735 -0.019648 0.004291
    36 0.031729 -1.149111 0.058838 -0.758918 -0.007903 0.005292
    37 -0.963866 -2.785145 -0.085350 -0.133536 0.264013 -0.032832
    38 0.028479 -1.403067 -0.009354 -0.611716 -0.012368 -0.024940
    39 0.021413 -0.942156 0.012233 -1.051190 -0.028955 -0.035163
    40 1.164475 -2.543940 -0.170330 -0.166622 -0.161422 -0.083745
    41 0.024032 -1.136855 -0.001725 -0.790999 0.004494 0.042151
    42 0.014898 -0.903521 -0.015942 -1.038482 0.010007 0.051857
    43 -0.586770 -1.264477 0.200161 -0.200114 -0.096951 -2.129323
    44 1.530648 0.054775 0.009035 0.154202 -0.079650 0.158043
    45 1.106228 0.052330 -0.001860 0.312990 -0.289446 0.975210
    46 -0.139399 -0.111698 0.014397 0.285382 -0.030687 1.580508
    47 -8.241335 0.741274 -0.473815 1.566482 -0.036327 -0.168038
  time 17
    0 6.032223 -11.661848 -3.373314 -1.494050 0.012729 1.550651
    1 -0.881688 0.301299 0.000000 0.000001 0.000000 -1.382160
    2 1.671935 4.611084 0.000000 0.000000 0.000000 1.232289
    3 -0.763543 -0.089952 0.631852 -0.002283 1.570796 0.000000
    4 1.384421 -0.042067 0.000000 0.000000 0.000000 1.345677
    5 0.660750 -0.739376 0.000000 0.000000 0.000000 0.002283
    6 -0.736122 -1.726717 -0.122348 1.570770 -1.561760 1.573105
    7 -0.736128 -1.724683 0.143968 -1.570809 1.561648 -1.568528
    8 1.971970 -2.249433 0.180133 0.019412 -0.056377 3.115553
    9 -0.002752 -0.001265 -0.003287 0.000000 0.000000 0.000000
    10 8.778837 0.196648 -5.096793 6.099961 -1.979634 -0.025407
    11 7.866757 -1.120529 -0.399814 -1.568836 -0.028543 -3.203034
    12 -0.032857 -8.490924 -0.080696 0.076443 0.490742 0.129598
    13 -0.488518 -2.755602 -0.228260 -0.242250 0.060691 -0.057732
    14 0.039887 -1.538386 0.018135 -1.634758 -0.010403 0.036650
    15 0.028786 -1.134327 -0.109049 -0.791864 -0.013746 0.015532
    16 0.250027 -2.820665 -0.238396 -0.313985 0.018280 -0.085804
    17 -0.049759 -1.602417 0.049696 -1.312009 0.004662 -0.036064
    18 -0.034142 -1.175657 0.045718 -1.263189 0.005489 -0.033341
    19 0.957766 -2.746780 -0.090302 0.167150 -0.150256 0.099289
    20 -0.033420 -1.393223 -0.019070 -0.517853 0.008329 -0.025205
    21 -0.022360 -0.957436 0.007065 -0.527929 0.007982 -0.025323
    22 -1.180681 -2.507217 -0.193859 -0.150629 0.142428 -0.022097
    23 -0.024967 -1.123934 0.017597 -0.759772 0.006951 -0.032333
    24 -0.020057 -0.906594 0.037435 -1.161982 0.002397 -0.047687
    25 0.603042 -1.197277 0.181473 0.666402 -0.922572 -1.051051
    26 1.504676 -0.177260 -0.006710 0.213418 0.065484 -0.624307
    27 1.049988 -0.147821 0.032291 0.039018 -0.188604 -0.767764
    28 0.120153 -0.050270 -0.054489 0.287569 3.110905 1.561085
    29 0.303467 -2.520240 -10.669578 -1.859086 -5.231072 -1.407335
    30 0.050068 -8.407448 0.006260 0.091600 -0.359081 0.444720
    31 0.447953 -2.798986 -0.200443 -0.244439 -0.056549 0.060325
    32 -0.032909 -1.499736 0.024472 -1.286546 0.022998 -0.023524
    33 -0.027022 -1.096452 -0.028023 -0.524789 0.013722 -0.005621
    34 -0.249534 -2.846964 -0.174213 -0.316343 -0.019324 0.076958
    35 0.043235 -1.656596 0.076480 -1.215735 -0.019648 0.004291
    36 0.031729 -1.149111 0.058838 -0.758918 -0.007903 0.005292
    37 -0.963866 -2.785145 -0.085350 -0.133536 0.264013 -0.032832
    38 0.028479 -1.403067 -0.009354 -0.611716 -0.012368 -0.024940
    39 0.021413 -0.942156 0.012233 -1.051190 -0.028955 -0.035163
    40 1.164475 -2.543940 -0.170330 -0.166622 -0.161422 -0.083745
    41 0.024032 -1.136855 -0.001725 -0.790999 0.004494 0.042151
    42 0.014898 -0.903521 -0.015942 -1.038482 0.010007 0.051857
    43 -0.586770 -1.264477 0.200161 -0.200114 -0.096951 -2.129323
    44 1.530648 0.054775 0.009035 0.154202 -0.079650 0.158043
    45 1.106228 0.052330 -0.001860 0.312990 -0.289446 0.975210
    46 -0.139399 -0.111698 0.014397 0.285382 -0.030687 1.580508
    47 -8.241335 0.749086 -0.473815 1.566494 -0.036315 -0.168597
  time 18
    0 6.028317 -11.661848 -3.353782 -1.494145 0.014054 1.550651
    1 -0.881688 0.301299 0.000000 0.000001 0.000000 -1.382160
    2 1.671935 4.611084 0.000000 0.000000 0.000000 1.232289
    3 -0.763543 -0.089952 0.631852 -0.002283 1.570796 0.000000
    4 1.384421 -0.042067 0.000000 0.000000 0.000000 1.345677
    5 0.660750 -0.739376 0.000000 0.000000 0.000000 0.002283
    6 -0.736122 -1.726717 -0.122348 1.570770 -1.561760 1.573105
    7 -0.736128 -1.724683 0.143968 -1.570809 1.561648 -1.568528
    8 1.971970 -2.249433 0.180133 0.019412 -0.056377 3.115553
    9 -0.002752 -0.001265 -0.003287 0.000000 0.000000 0.000000
    10 8.794463 0.192741 -5.073355 6.098430 -1.978285 -0.025790
    11 7.843318 -1.222095 -0.403721 -1.568645 -0.028734 -3.215935
    12 -0.032857 -8.490924 -0.084602 0.078891 0.488840 0.131606
    13 -0.488518 -2.755602 -0.228260 -0.242250 0.060691 -0.057732
    14 0.039887 -1.538386 0.018135 -1.634758 -0.010403 0.036650
    15 0.028786 -1.134327 -0.109049 -0.791864 -0.013746 0.015532
    16 0.250027 -2.820665 -0.238396 -0.313985 0.018280 -0.085804
    17 -0.049759 -1.602417 0.049696 -1.312009 0.004662 -0.036064
    18 -0.034142 -1.175657 0.045718 -1.263189 0.005489 -0.033341
    19 0.957766 -2.746780 -0.090302 0.167150 -0.150256 0.099289
    20 -0.033420 -1.393223 -0.019070 -0.517853 0.008329 -0.025205
    21 -0.022360 -0.957436 0.007065 -0.527929 0.007982 -0.025323
    22 -1.180681 -2.507217 -0.193859 -0.150629 0.142428 -0.022097
    23 -0.024967 -1.123934 0.017597 -0.759772 0.006951 -0.032333
    24 -0.020057 -0.906594 0.037435 -1.161982 0.002397 -0.047687
    25 0.603042 -1.197277 0.181473 0.666402 -0.922572 -1.051051
    26 1.504676 -0.177260 -0.006710 0.213418 0.065484 -0.624307
    27 1.049988 -0.147821 0.032291 0.039018 -0.188604 -0.767764
    28 0.120153 -0.050270 -0.054489 0.287569 3.110905 1.561085
    29 0.303467 -2.531959 -10.661765 -1.858319 -5.232661 -1.407048
    30 0.050068 -8.407448 0.006260 0.091106 -0.358646 0.445217
    31 0.447953 -2.798986 -0.200443 -0.244439 -0.056549 0.060325
    32 -0.032909 -1.499736 0.024472 -1.286546 0.022998 -0.023524
    33 -0.027022 -1.096452 -0.028023 -0.524789 0.013722 -0.005621
    34 -0.249534 -2.846964 -0.174213 -0.316343 -0.019324 0.076958
    35 0.043235 -1.656596 0.076480 -1.215735 -0.019648 0.004291
    36 0.031729 -1.149111 0.058838 -0.758918 -0.007903 0.005292
    37 -0.963866 -2.785145 -0.085350 -0.133536 0.264013 -0.032832
    38 0.028479 -1.403067 -0.009354 -0.611716 -0.012368 -0.024940
    39 0.021413 -0.942156 0.012233 -1.051190 -0.028955 -0.035163
    40 1.164475 -2.543940 -0.170330 -0.166622 -0.161422 -0.083745
    41 0.024032 -1.136855 -0.001725 -0.790999 0.004494 0.042151
    42 0.014898 -0.903521 -0.015942 -1.038482 0.010007 0.051857
    43 -0.586770 -1.264477 0.200161 -0.200114 -0.096951 -2.129323
    44 1.530648 0.054775 0.009035 0.154202 -0.079650 0.158043
    45 1.106228 0.052330 -0.001860 0.312990 -0.289446 0.975210
    46 -0.139399 -0.111698 0.014397 0.285382 -0.030687 1.580508
    47 -8.241335 0.749086 -0.473815 1.566506 -0.036315 -0.168946
  time 19
    0 6.024410 -11.654035 -3.330344 -1.493955 0.016799 1.550450
    1 -0.881688 0.301299 0.000000 0.000001 0.000000 -1.382160
    2 1.671935 4.611084 0.000000 0.000000 0.000000 1.232289
    3 -0.763543 -0.089952 0.631852 -0.002283 1.570796 0.000000
    4 1.384421 -0.042067 0.000000 0.000000 0.000000 1.345677
    5 0.660750 -0.739376 0.000000 0.000000 0.000000 0.002283
    6 -0.736122 -1.726717 -0.122348 1.570770 -1.561760 1.573105
    7 -0.736128 -1.724683 0.143968 -1.570809 1.561648 -1.568528
    8 1.971970 -2.249433 0.180133 0.019412 -0.056377 3.115553
    9 -0.002752 -0.001265 -0.003287 0.000000 0.000000 0.000000
    10 8.802275 0.188835 -5.053823 6.095942 -1.977161 -0.025025
    11 7.819880 -1.308035 -0.403721 -1.568453 -0.028925 -3.227129
    12 -0.032857 -8.494830 -0.084602 0.081565 0.487029 0.135496
    13 -0.488518 -2.755602 -0.228260 -0.242250 0.060691 -0.057732
    14 0.039887 -1.538386 0.018135 -1.634758 -0.010403 0.036650
    15 0.028786 -1.134327 -0.109049 -0.791864 -0.013746 0.015532
    16 0.250027 -2.820665 -0.238396 -0.313985 0.018280 -0.085804
    17 -0.049759 -1.602417 0.049696 -1.312009 0.004662 -0.036064
    18 -0.034142 -1.175657 0.045718 -1.263189 0.005489 -0.033341
    19 0.957766 -2.746780 -0.090302 0.167150 -0.150256 0.099289
    20 -0.033420 -1.393223 -0.019070 -0.517853 0.008329 -0.025205
    21 -0.022360 -0.957436 0.007065 -0.527929 0.007982 -0.025323
    22 -1.180681 -2.507217 -0.193859 -0.150629 0.142428 -0.022097
    23 -0.024967 -1.123934 0.017597 -0.759772 0.006951 -0.032333
    24 -0.020057 -0.906594 0.037435 -1.161982 0.002397 -0.047687
    25 0.603042 -1.197277 0.181473 0.666402 -0.922572 -1.051051
    26 1.504676 -0.177260 -0.006710 0.213418 0.065484 -0.624307
    27 1.049988 -0.147821 0.032291 0.039018 -0.188604 -0.767764
    28 0.120153 -0.050270 -0.054489 0.287569 3.110905 1.561085
    29 0.307374 -2.539771 -10.657858 -1.857670 -5.234083 -1.406856
    30 0.050068 -8.407448 0.006260 0.090927 -0.357413 0.444365
    31 0.447953 -2.798986 -0.200443 -0.244439 -0.056549 0.060325
    32 -0.032909 -1.499736 0.024472 -1.286546 0.022998 -0.023524
    33 -0.027022 -1.096452 -0.028023 -0.524789 0.013722 -0.005621
    34 -0.249534 -2.846964 -0.174213 -0.316343 -0.019324 0.076958
    35 0.043235 -1.656596 0.076480 -1.215735 -0.019648 0.004291
    36 0.031729 -1.149111 0.058838 -0.758918 -0.007903 0.005292
    37 -0.963866 -2.785145 -0.085350 -0.133536 0.264013 -0.032832
    38 0.028479 -1.403067 -0.009354 -0.611716 -0.012368 -0.024940
    39 0.021413 -0.942156 0.012233 -1.051190 -0.028955 -0.035163
    40 1.164475 -2.543940 -0.170330 -0.166622 -0.161422 -0.083745
    41 0.024032 -1.136855 -0.001725 -0.790999 0.004494 0.042151
    42 0.014898 -0.903521 -0.015942 -1.038482 0.010007 0.051857
    43 -0.586770 -1.264477 0.200161 -0.200114 -0.096951 -2.129323
    44 1.530648 0.054775 0.009035 0.154202 -0.079650 0.158043
    45 1.106228 0.052330 -0.001860 0.312990 -0.289446 0.975210
    46 -0.139399 -0.111698 0.014397 0.285382 -0.030687 1.580508
    47 -8.241335 0.752993 -0.473815 1.566506 -0.036315 -0.169086
  time 20
    0 6.020504 -11.646222 -3.310812 -1.493575 0.020207 1.550149
    1 -0.881688 0.301299 0.000000 0.000001 0.000000 -1.382160
    2 1.671935 4.611084 0.000000 0.000000 0.000000 1.232289
    3 -0.763543 -0.089952 0.631852 -0.002283 1.570796 0.000000
    4 1.384421 -0.042067 0.000000 0.000000 0.000000 1.345677
    5 0.660750 -0.739376 0.000000 0.000000 0.000000 0.002283
    6 -0.736122 -1.726717 -0.122348 1.570770 -1.561760 1.573105
    7 -0.736128 -1.724683 0.143968 -1.570809 1.561648 -1.568528
    8 1.971970 -2.249433 0.180133 0.019412 -0.056377 3.115553
    9 -0.002752 -0.001265 -0.003287 0.000000 0.000000 0.000000
    10 8.810088 0.184928 -5.038198 6.092975 -1.976112 -0.023397
    11 7.800348 -1.386163 -0.403721 -1.568357 -0.029020 -3.236685
    12 -0.032857 -8.494830 -0.084602 0.084285 0.485309 0.140515
    13 -0.488518 -2.755602 -0.228260 -0.242250 0.060691 -0.057732
    14 0.039887 -1.538386 0.018135 -1.634758 -0.010403 0.036650
    15 0.028786 -1.134327 -0.109049 -0.791864 -0.013746 0.015532
    16 0.250027 -2.820665 -0.238396 -0.313985 0.018280 -0.085804
    17 -0.049759 -1.602417 0.049696 -1.312009 0.004662 -0.036064
    18 -0.034142 -1.175657 0.045718 -1.263189 0.005489 -0.033341
    19 0.957766 -2.746780 -0.090302 0.167150 -0.150256 0.099289
    20 -0.033420 -1.393223 -0.019070 -0.517853 0.008329 -0.025205
    21 -0.022360 -0.957436 0.007065 -0.527929 0.007982 -0.025323
    22 -1.180681 -2.507217 -0.193859 -0.150629 0.142428 -0.022097
    23 -0.024967 -1.123934 0.017597 -0.759772 0.006951 -0.032333
    24 -0.020057 -0.906594 0.037435 -1.161982 0.002397 -0.047687
    25 0.603042 -1.197277 0.181473 0.666402 -0.922572 -1.051051
    26 1.504676 -0.177260 -0.006710 0.213418 0.065484 -0.624307
    27 1.049988 -0.147821 0.032291 0.039018 -0.188604 -0.767764
    28 0.120153 -0.050270 -0.054489 0.287569 3.110905 1.561085
    29 0.307374 -2.543678 -10.653952 -1.857081 -5.235338 -1.406760
    30 0.050068 -8.407448 0.006260 0.090972 -0.355636 0.442627
    31 0.447953 -2.798986 -0.200443 -0.244439 -0.056549 0.060325
    32 -0.032909 -1.499736 0.024472 -1.286546 0.022998 -0.023524
    33 -0.027022 -1.096452 -0.028023 -0.524789 0.013722 -0.005621
    34 -0.249534 -2.846964 -0.174213 -0.316343 -0.019324 0.076958
    35 0.043235 -1.656596 0.076480 -1.215735 -0.019648 0.004291
    36 0.031729 -1.149111 0.058838 -0.758918 -0.007903 0.005292
    37 -0.963866 -2.785145 -0.085350 -0.133536 0.264013 -0.032832
    38 0.028479 -1.403067 -0.009354 -0.611716 -0.012368 -0.024940
    39 0.021413 -0.942156 0.012233 -1.051190 -0.028955 -0.035163
    40 1.164475 -2.543940 -0.170330 -0.166622 -0.161422 -0.083745
    41 0.024032 -1.136855 -0.001725 -0.790999 0.004494 0.042151
    42 0.014898 -0.903521 -0.015942 -1.038482 0.010007 0.051857
    43 -0.586770 -1.264477 0.200161 -0.200114 -0.096951 -2.129323
    44 1.530648 0.054775 0.009035 0.154202 -0.079650 0.158043
    45 1.106228 0.052330 -0.001860 0.312990 -0.289446 0.975210
    46 -0.139399 -0.111698 0.014397 0.285382 -0.030687 1.580508
    47 -8.241335 0.752993 -0.473815 1.566506 -0.036315 -0.169086
  time 21
    0 6.020504 -11.638410 -3.291280 -1.493099 0.023899 1.549797
    1 -0.881688 0.301299 0.000000 0.000001 0.000000 -1.382160
    2 1.671935 4.611084 0.000000 0.000000 0.000000 1.232289
    3 -0.763543 -0.089952 0.631852 -0.002283 1.570796 0.000000
    4 1.384421 -0.042067 0.000000 0.000000 0.000000 1.345677
    5 0.660750 -0.739376 0.000000 0.000000 0.000000 0.002283
    6 -0.736122 -1.726717 -0.122348 1.570770 -1.561760 1.573105
    7 -0.736128 -1.724683 0.143968 -1.570809 1.561648 -1.568528
    8 1.971970 -2.249433 0.180133 0.019412 -0.056377 3.115553
    9 -0.002752 -0.001265 -0.003287 0.000000 0.000000 0.000000
    10 8.813995 0.184928 -5.022572 6.089721 -1.975287 -0.021291
    11 7.784723 -1.448664 -0.403721 -1.568165 -0.029116 -3.244875
    12 -0.032857 -8.494830 -0.084602 0.086868 0.483679 0.145974
    13 -0.488518 -2.755602 -0.228260 -0.242250 0.060691 -0.057732
    14 0.039887 -1.538386 0.018135 -1.634758 -0.010403 0.036650
    15 0.028786 -1.134327 -0.109049 -0.791864 -0.013746 0.015532
    16 0.250027 -2.820665 -0.238396 -0.313985 0.018280 -0.085804
    17 -0.049759 -1.602417 0.049696 -1.312009 0.004662 -0.036064
    18 -0.034142 -1.175657 0.045718 -1.263189 0.005489 -0.033341
    19 0.957766 -2.746780 -0.090302 0.167150 -0.150256 0.099289
    20 -0.033420 -1.393223 -0.019070 -0.517853 0.008329 -0.025205
    21 -0.022360 -0.957436 0.007065 -0.527929 0.007982 -0.025323
    22 -1.180681 -2.507217 -0.193859 -0.150629 0.142428 -0.022097
    23 -0.024967 -1.123934 0.017597 -0.759772 0.006951 -0.032333
    24 -0.020057 -0.906594 0.037435 -1.161982 0.002397 -0.047687
    25 0.603042 -1.197277 0.181473 0.666402 -0.922572 -1.051051
    26 1.504676 -0.177260 -0.006710 0.213418 0.065484 -0.624307
    27 1.049988 -0.147821 0.032291 0.039018 -0.188604 -0.767764
    28 0.120153 -0.050270 -0.054489 0.287569 3.110905 1.561085
    29 0.307374 -2.551491 -10.650046 -1.856609 -5.236426 -1.406760
    30 0.050068 -8.407448 0.002354 0.091106 -0.353642 0.440498
    31 0.447953 -2.798986 -0.200443 -0.244439 -0.056549 0.060325
    32 -0.032909 -1.499736 0.024472 -1.286546 0.022998 -0.023524
    33 -0.027022 -1.096452 -0.028023 -0.524789 0.013722 -0.005621
    34 -0.249534 -2.846964 -0.174213 -0.316343 -0.019324 0.076958
    35 0.043235 -1.656596 0.076480 -1.215735 -0.019648 0.004291
    36 0.031729 -1.149111 0.058838 -0.758918 -0.007903 0.005292
    37 -0.963866 -2.785145 -0.085350 -0.133536 0.264013 -0.032832
    38 0.028479 -1.403067 -0.009354 -0.611716 -0.012368 -0.024940
    39 0.021413 -0.942156 0.012233 -1.051190 -0.028955 -0.035163
    40 1.164475 -2.543940 -0.170330 -0.166622 -0.161422 -0.083745
    41 0.024032 -1.136855 -0.001725 -0.790999 0.004494 0.042151
    42 0.014898 -0.903521 -0.015942 -1.038482 0.010007 0.051857
    43 -0.586770 -1.264477 0.200161 -0.200114 -0.096951 -2.129323
    44 1.530648 0.054775 0.009035 0.154202 -0.079650 0.158043
    45 1.106228 0.052330 -0.001860 0.312990 -0.289446 0.975210
    46 -0.139399 -0.111698 0.014397 0.285382 -0.030687 1.580508
    47 -8.241335 0.752993 -0.473815 1.566506 -0.036315 -0.169155
  time 22
    0 6.016598 -11.630597 -3.271748 -1.492719 0.027306 1.549496
    1 -0.881688 0.301299 0.000000 0.000001 0.000000 -1.382160
    2 1.671935 4.611084 0.000000 0.000000 0.000000 1.232289
    3 -0.763543 -0.089952 0.631852 -0.002283 1.570796 0.000000
    4 1.384421 -0.042067 0.000000 0.000000 0.000000 1.345677
    5 0.660750 -0.739376 0.000000 0.000000 0.000000 0.002283
    6 -0.736122 -1.726717 -0.122348 1.570770 -1.561760 1.573105
    7 -0.736128 -1.724683 0.143968 -1.570809 1.561648 -1.568528
    8 1.971970 -2.249433 0.180133 0.019412 -0.056377 3.115553
    9 -0.002752 -0.001265 -0.003287 0.000000 0.000000 0.000000
    10 8.817901 0.181022 -5.006947 6.086563 -1.974538 -0.019184
    11 7.769097 -1.503354 -0.403721 -1.568069 -0.029211 -3.251906
    12 -0.032857 -8.494830 -0.084602 0.089226 0.482275 0.151057
    13 -0.488518 -2.755602 -0.228260 -0.242250 0.060691 -0.057732
    14 0.039887 -1.538386 0.018135 -1.634758 -0.010403 0.036650
    15 0.028786 -1.134327 -0.109049 -0.791864 -0.013746 0.015532
    16 0.250027 -2.820665 -0.238396 -0.313985 0.018280 -0.085804
    17 -0.049759 -1.602417 0.049696 -1.312009 0.004662 -0.036064
    18 -0.034142 -1.175657 0.045718 -1.263189 0.005489 -0.033341
    19 0.957766 -2.746780 -0.090302 0.167150 -0.150256 0.099289
    20 -0.033420 -1.393223 -0.019070 -0.517853 0.008329 -0.025205
    21 -0.022360 -0.957436 0.007065 -0.527929 0.007982 -0.025323
    22 -1.180681 -2.507217 -0.193859 -0.150629 0.142428 -0.022097
    23 -0.024967 -1.123934 0.017597 -0.759772 0.006951 -0.032333
    24 -0.020057 -0.906594 0.037435 -1.161982 0.002397 -0.047687
    25 0.603042 -1.197277 0.181473 0.666402 -0.922572 -1.051051
    26 1.504676 -0.177260 -0.006710 0.213418 0.065484 -0.624307
    27 1.049988 -0.147821 0.032291 0.039018 -0.188604 -0.767764
    28 0.120153 -0.050270 -0.054489 0.287569 3.110905 1.561085
    29 0.307374 -2.555397 -10.646139 -1.856196 -5.237262 -1.406760
    30 0.050068 -8.407448 0.002354 0.091241 -0.351792 0.438404
    31 0.447953 -2.798986 -0.200443 -0.244439 -0.056549 0.060325
    32 -0.032909 -1.499736 0.024472 -1.286546 0.022998 -0.023524
    33 -0.027022 -1.096452 -0.028023 -0.524789 0.013722 -0.005621
    34 -0.249534 -2.846964 -0.174213 -0.316343 -0.019324 0.076958
    35 0.043235 -1.656596 0.076480 -1.215735 -0.019648 0.004291
    36 0.031729 -1.149111 0.058838 -0.758918 -0.007903 0.005292
    37 -0.963866 -2.785145 -0.085350 -0.133536 0.264013 -0.032832
    38 0.028479 -1.403067 -0.009354 -0.611716 -0.012368 -0.024940
    39 0.021413 -0.942156 0.012233 -1.051190 -0.028955 -0.035163
    40 1.164475 -2.543940 -0.170330 -0.166622 -0.161422 -0.083745
    41 0.024032 -1.136855 -0.001725 -0.790999 0.004494 0.042151
    42 0.014898 -0.903521 -0.015942 -1.038482 0.010007 0.051857
    43 -0.586770 -1.264477 0.200161 -0.200114 -0.096951 -2.129323
    44 1.530648 0.054775 0.009035 0.154202 -0.079650 0.158043
    45 1.106228 0.052330 -0.001860 0.312990 -0.289446 0.975210
    46 -0.139399 -0.111698 0.014397 0.285382 -0.030687 1.580508
    47 -8.241335 0.752993 -0.473815 1.566506 -0.036315 -0.169225
  time 23
    0 6.012691 -11.626691 -3.260029 -1.492338 0.030052 1.549245
    1 -0.881688 0.301299 0.000000 0.000001 0.000000 -1.382160
    2 1.671935 4.611084 0.000000 0.000000 0.000000 1.232289
    3 -0.763543 -0.089952 0.631852 -0.002283 1.570796 0.000000
    4 1.384421 -0.042067 0.000000 0.000000 0.000000 1.345677
    5 0.660750 -0.739376 0.000000 0.000000 0.000000 0.002283
    6 -0.736122 -1.726717 -0.122348 1.570770 -1.561760 1.573105
    7 -0.736128 -1.724683 0.143968 -1.570809 1.561648 -1.568528
    8 1.971970 -2.249433 0.180133 0.019412 -0.056377 3.115553
    9 -0.002752 -0.001265 -0.003287 0.000000 0.000000 0.000000
    10 8.821807 0.181022 -4.995228 6.083979 -1.973863 -0.017557
    11 7.753472 -1.550230 -0.403721 -1.567974 -0.029307 -3.257912
    12 -0.032857 -8.498736 -0.084602 0.091220 0.481053 0.155135
    13 -0.488518 -2.755602 -0.228260 -0.242250 0.060691 -0.057732
    14 0.039887 -1.538386 0.018135 -1.634758 -0.010403 0.036650
    15 0.028786 -1.134327 -0.109049 -0.791864 -0.013746 0.015532
    16 0.250027 -2.820665 -0.238396 -0.313985 0.018280 -0.085804
    17 -0.049759 -1.602417 0.049696 -1.312009 0.004662 -0.036064
    18 -0.034142 -1.175657 0.045718 -1.263189 0.005489 -0.033341
    19 0.957766 -2.746780 -0.090302 0.167150 -0.150256 0.099289
    20 -0.033420 -1.393223 -0.019070 -0.517853 0.008329 -0.025205
    21 -0.022360 -0.957436 0.007065 -0.527929 0.007982 -0.025323
    22 -1.180681 -2.507217 -0.193859 -0.150629 0.142428 -0.022097
    23 -0.024967 -1.123934 0.017597 -0.759772 0.006951 -0.032333
    24 -0.020057 -0.906594 0.037435 -1.161982 0.002397 -0.047687
    25 0.603042 -1.197277 0.181473 0.666402 -0.922572 -1.051051
    26 1.504676 -0.177260 -0.006710 0.213418 0.065484 -0.624307
    27 1.049988 -0.147821 0.032291 0.039018 -0.188604 -0.767764
    28 0.120153 -0.050270 -0.054489 0.287569 3.110905 1.561085
    29 0.307374 -2.559303 -10.642233 -1.855842 -5.238015 -1.406952
    30 0.053974 -8.407448 0.002354 0.091151 -0.350342 0.436808
    31 0.447953 -2.798986 -0.200443 -0.244439 -0.056549 0.060325
    32 -0.032909 -1.499736 0.024472 -1.286546 0.022998 -0.023524
    33 -0.027022 -1.096452 -0.028023 -0.524789 0.013722 -0.005621
    34 -0.249534 -2.846964 -0.174213 -0.316343 -0.019324 0.076958
    35 0.043235 -1.656596 0.076480 -1.215735 -0.019648 0.004291
    36 0.031729 -1.149111 0.058838 -0.758918 -0.007903 0.005292
    37 -0.963866 -2.785145 -0.085350 -0.133536 0.264013 -0.032832
    38 0.028479 -1.403067 -0.009354 -0.611716 -0.012368 -0.024940
    39 0.021413 -0.942156 0.012233 -1.051190 -0.028955 -0.035163
    40 1.164475 -2.543940 -0.170330 -0.166622 -0.161422 -0.083745
    41 0.024032 -1.136855 -0.001725 -0.790999 0.004494 0.042151
    42 0.014898 -0.903521 -0.015942 -1.038482 0.010007 0.051857
    43 -0.586770 -1.264477 0.200161 -0.200114 -0.096951 -2.129323
    44 1.530648 0.054775 0.009035 0.154202 -0.079650 0.158043
    45 1.106228 0.052330 -0.001860 0.312990 -0.289446 0.975210
    46 -0.139399 -0.111698 0.014397 0.285382 -0.030687 1.580508
    47 -8.241335 0.752993 -0.473815 1.566518 -0.036315 -0.169505
  time 24
    0 6.008785 -11.626691 -3.248310 -1.492148 0.031566 1.549194
    1 -0.881688 0.301299 0.000000 0.000001 0.000000 -1.382160
    2 1.671935 4.611084 0.000000 0.000000 0.000000 1.232289
    3 -0.763543 -0.089952 0.631852 -0.002283 1.570796 0.000000
    4 1.384421 -0.042067 0.000000 0.000000 0.000000 1.345677
    5 0.660750 -0.739376 0.000000 0.000000 0.000000 0.002283
    6 -0.736122 -1.726717 -0.122348 1.570770 -1.561760 1.573105
    7 -0.736128 -1.724683 0.143968 -1.570809 1.561648 -1.568528
    8 1.971970 -2.249433 0.180133 0.019412 -0.056377 3.115553
    9 -0.002752 -0.001265 -0.003287 0.000000 0.000000 0.000000
    10 8.825714 0.173209 -4.987415 6.082257 -1.973264 -0.016695
    11 7.741753 -1.593200 -0.407627 -1.567878 -0.029402 -3.263168
    12 -0.032857 -8.498736 -0.084602 0.092625 0.480057 0.157394
    13 -0.488518 -2.755602 -0.228260 -0.242250 0.060691 -0.057732
    14 0.039887 -1.538386 0.018135 -1.634758 -0.010403 0.036650
    15 0.028786 -1.134327 -0.109049 -0.791864 -0.013746 0.015532
    16 0.250027 -2.820665 -0.238396 -0.313985 0.018280 -0.085804
    17 -0.049759 -1.602417 0.049696 -1.312009 0.004662 -0.036064
    18 -0.034142 -1.175657 0.045718 -1.263189 0.005489 -0.033341
    19 0.957766 -2.746780 -0.090302 0.167150 -0.150256 0.099289
    20 -0.033420 -1.393223 -0.019070 -0.517853 0.008329 -0.025205
    21 -0.022360 -0.957436 0.007065 -0.527929 0.007982 -0.025323
    22 -1.180681 -2.507217 -0.193859 -0.150629 0.142428 -0.022097
    23 -0.024967 -1.123934 0.017597 -0.759772 0.006951 -0.032333
    24 -0.020057 -0.906594 0.037435 -1.161982 0.002397 -0.047687
    25 0.603042 -1.197277 0.181473 0.666402 -0.922572 -1.051051
    26 1.504676 -0.177260 -0.006710 0.213418 0.065484 -0.624307
    27 1.049988 -0.147821 0.032291 0.039018 -0.188604 -0.767764
    28 0.120153 -0.050270 -0.054489 0.287569 3.110905 1.561085
    29 0.311280 -2.563210 -10.638327 -1.855606 -5.238601 -1.407239
    30 0.053974 -8.407448 0.002354 0.090702 -0.349617 0.436205
    31 0.447953 -2.798986 -0.200443 -0.244439 -0.056549 0.060325
    32 -0.032909 -1.499736 0.024472 -1.286546 0.022998 -0.023524
    33 -0.027022 -1.096452 -0.028023 -0.524789 0.013722 -0.005621
    34 -0.249534 -2.846964 -0.174213 -0.316343 -0.019324 0.076958
    35 0.043235 -1.656596 0.076480 -1.215735 -0.019648 0.004291
    36 0.031729 -1.149111 0.058838 -0.758918 -0.007903 0.005292
    37 -0.963866 -2.785145 -0.085350 -0.133536 0.264013 -0.032832
    38 0.028479 -1.403067 -0.009354 -0.611716 -0.012368 -0.024940
    39 0.021413 -0.942156 0.012233 -1.051190 -0.028955 -0.035163
    40 1.164475 -2.543940 -0.170330 -0.166622 -0.161422 -0.083745
    41 0.024032 -1.136855 -0.001725 -0.790999 0.004494 0.042151
    42 0.014898 -0.903521 -0.015942 -1.038482 0.010007 0.051857
    43 -0.586770 -1.264477 0.200161 -0.200114 -0.096951 -2.129323
    44 1.530648 0.054775 0.009035 0.154202 -0.079650 0.158043
    45 1.106228 0.052330 -0.001860 0.312990 -0.289446 0.975210
    46 -0.139399 -0.111698 0.014397 0.285382 -0.030687 1.580508
    47 -8.241335 0.760806 -0.473815 1.566530 -0.036303 -0.169994
  time 25
    0 6.008785 -11.634503 -3.244403 -1.492243 0.031661 1.549295
    1 -0.881688 0.301299 0.000000 0.000001 0.000000 -1.382160
    2 1.671935 4.611084 0.000000 0.000000 0.000000 1.232289
    3 -0.763543 -0.089952 0.631852 -0.002283 1.570796 0.000000
    4 1.384421 -0.042067 0.000000 0.000000 0.000000 1.345677
    5 0.660750 -0.739376 0.000000 0.000000 0.000000 0.002283
    6 -0.736122 -1.726717 -0.122348 1.570770 -1.561760 1.573105
    7 -0.736128 -1.724683 0.143968 -1.570809 1.561648 -1.568528
    8 1.971970 -2.249433 0.180133 0.019412 -0.056377 3.115553
    9 -0.002752 -0.001265 -0.003287 0.000000 0.000000 0.000000
    10 8.825714 0.169303 -4.979602 6.081683 -1.972889 -0.016504
    11 7.733940 -1.616638 -0.407627 -1.567782 -0.029402 -3.266103
    12 -0.032857 -8.498736 -0.084602 0.093260 0.479559 0.157645
    13 -0.488518 -2.755602 -0.228260 -0.242250 0.060691 -0.057732
    14 0.039887 -1.538386 0.018135 -1.634758 -0.010403 0.036650
    15 0.028786 -1.134327 -0.109049 -0.791864 -0.013746 0.015532
    16 0.250027 -2.820665 -0.238396 -0.313985 0.018280 -0.085804
    17 -0.049759 -1.602417 0.049696 -1.312009 0.004662 -0.036064
    18 -0.034142 -1.175657 0.045718 -1.263189 0.005489 -0.033341
    19 0.957766 -2.746780 -0.090302 0.167150 -0.150256 0.099289
    20 -0.033420 -1.393223 -0.019070 -0.517853 0.008329 -0.025205
    21 -0.022360 -0.957436 0.007065 -0.527929 0.007982 -0.025323
    22 -1.180681 -2.507217 -0.193859 -0.150629 0.142428 -0.022097
    23 -0.024967 -1.123934 0.017597 -0.759772 0.006951 -0.032333
    24 -0.020057 -0.906594 0.037435 -1.161982 0.002397 -0.047687
    25 0.603042 -1.197277 0.181473 0.666402 -0.922572 -1.051051
    26 1.504676 -0.177260 -0.006710 0.213418 0.065484 -0.624307
    27 1.049988 -0.147821 0.032291 0.039018 -0.188604 -0.767764
    28 0.120153 -0.050270 -0.054489 0.287569 3.110905 1.561085
    29 0.311280 -2.571022 -10.638327 -1.855606 -5.238768 -1.407622
    30 0.053974 -8.407448 0.002354 0.090074 -0.349725 0.436453
    31 0.447953 -2.798986 -0.200443 -0.244439 -0.056549 0.060325
    32 -0.032909 -1.499736 0.024472 -1.286546 0.022998 -0.023524
    33 -0.027022 -1.096452 -0.028023 -0.524789 0.013722 -0.005621
    34 -0.249534 -2.846964 -0.174213 -0.316343 -0.019324 0.076958
    35 0.043235 -1.656596 0.076480 -1.215735 -0.019648 0.004291
    36 0.031729 -1.149111 0.058838 -0.758918 -0.007903 0.005292
    37 -0.963866 -2.785145 -0.085350 -0.133536 0.264013 -0.032832
    38 0.028479 -1.403067 -0.009354 -0.611716 -0.012368 -0.024940
    39 0.021413 -0.942156 0.012233 -1.051190 -0.028955 -0.035163
    40 1.164475 -2.543940 -0.170330 -0.166622 -0.161422 -0.083745
    41 0.024032 -1.136855 -0.001725 -0.790999 0.004494 0.042151
    42 0.014898 -0.903521 -0.015942 -1.038482 0.010007 0.051857
    43 -0.586770 -1.264477 0.200161 -0.200114 -0.096951 -2.129323
    44 1.530648 0.054775 0.009035 0.154202 -0.079650 0.158043
    45 1.106228 0.052330 -0.001860 0.312990 -0.289446 0.975210
    46 -0.139399 -0.111698 0.014397 0.285382 -0.030687 1.580508
    47 -8.241335 0.764712 -0.473815 1.566554 -0.036291 -0.170901
  time 26
    0 6.008785 -11.642316 -3.248310 -1.492433 0.030620 1.549546
    1 -0.881688 0.301299 0.000000 0.000001 0.000000 -1.382160
    2 1.671935 4.611084 0.000000 0.000000 0.000000 1.232289
    3 -0.763543 -0.089952 0.631852 -0.002283 1.570796 0.000000
    4 1.384421 -0.042067 0.000000 0.000000 0.000000 1.345677
    5 0.660750 -0.739376 0.000000 0.000000 0.000000 0.002283
    6 -0.736122 -1.726717 -0.122348 1.570770 -1.561760 1.573105
    7 -0.736128 -1.724683 0.143968 -1.570809 1.561648 -1.568528
    8 1.971970 -2.249433 0.180133 0.019412 -0.056377 3.115553
    9 -0.002752 -0.001265 -0.003287 0.000000 0.000000 0.000000
    10 8.825714 0.161490 -4.979602 6.081874 -1.972814 -0.016791
    11 7.733940 -1.616638 -0.407627 -1.567782 -0.029402 -3.266103
    12 -0.032857 -8.498736 -0.084602 0.093078 0.479559 0.156390
    13 -0.488518 -2.755602 -0.228260 -0.242250 0.060691 -0.057732
    14 0.039887 -1.538386 0.018135 -1.634758 -0.010403 0.036650
    15 0.028786 -1.134327 -0.109049 -0.791864 -0.013746 0.015532
    16 0.250027 -2.820665 -0.238396 -0.313985 0.018280 -0.085804
    17 -0.049759 -1.602417 0.049696 -1.312009 0.004662 -0.036064
    18 -0.034142 -1.175657 0.045718 -1.263189 0.005489 -0.033341
    19 0.957766 -2.746780 -0.090302 0.167150 -0.150256 0.099289
    20 -0.033420 -1.393223 -0.019070 -0.517853 0.008329 -0.025205
    21 -0.022360 -0.957436 0.007065 -0.527929 0.007982 -0.025323
    22 -1.180681 -2.507217 -0.193859 -0.150629 0.142428 -0.022097
    23 -0.024967 -1.123934 0.017597 -0.759772 0.006951 -0.032333
    24 -0.020057 -0.906594 0.037435 -1.161982 0.002397 -0.047687
    25 0.603042 -1.197277 0.181473 0.666402 -0.922572 -1.051051
    26 1.504676 -0.177260 -0.006710 0.213418 0.065484 -0.624307
    27 1.049988 -0.147821 0.032291 0.039018 -0.188604 -0.767764
    28 0.120153 -0.050270 -0.054489 0.287569 3.110905 1.561085
    29 0.311280 -2.574929 -10.634420 -1.855842 -5.238350 -1.408196
    30 0.053974 -8.407448 0.002354 0.089536 -0.350378 0.437021
    31 0.447953 -2.798986 -0.200443 -0.244439 -0.056549 0.060325
    32 -0.032909 -1.499736 0.024472 -1.286546 0.022998 -0.023524
    33 -0.027022 -1.096452 -0.028023 -0.524789 0.013722 -0.005621
    34 -0.249534 -2.846964 -0.174213 -0.316343 -0.019324 0.076958
    35 0.043235 -1.656596 0.076480 -1.215735 -0.019648 0.004291
    36 0.031729 -1.149111 0.058838 -0.758918 -0.007903 0.005292
    37 -0.963866 -2.785145 -0.085350 -0.133536 0.264013 -0.032832
    38 0.028479 -1.403067 -0.009354 -0.611716 -0.012368 -0.024940
    39 0.021413 -0.942156 0.012233 -1.051190 -0.028955 -0.035163
    40 1.164475 -2.543940 -0.170330 -0.166622 -0.161422 -0.083745
    41 0.024032 -1.136855 -0.001725 -0.790999 0.004494 0.042151
    42 0.014898 -0.903521 -0.015942 -1.038482 0.010007 0.051857
    43 -0.586770 -1.264477 0.200161 -0.200114 -0.096951 -2.129323
    44 1.530648 0.054775 0.009035 0.154202 -0.079650 0.158043
    45 1.106228 0.052330 -0.001860 0.312990 -0.289446 0.975210
    46 -0.139399 -0.111698 0.014397 0.285382 -0.030687 1.580508
    47 -8.241335 0.776431 -0.473815 1.566578 -0.036279 -0.172089
  time 27
    0 6.008785 -11.654035 -3.256123 -1.492719 0.028821 1.549797
    1 -0.881688 0.301299 0.000000 0.000001 0.000000 -1.382160
    2 1.671935 4.611084 0.000000 0.000000 0.000000 1.232289
    3 -0.763543 -0.089952 0.631852 -0.002283 1.570796 0.000000
    4 1.384421 -0.042067 0.000000 0.000000 0.000000 1.345677
    5 0.660750 -0.739376 0.000000 0.000000 0.000000 0.002283
    6 -0.736122 -1.726717 -0.122348 1.570770 -1.561760 1.573105
    7 -0.736128 -1.724683 0.143968 -1.570809 1.561648 -1.568528
    8 1.971970 -2.249433 0.180133 0.019412 -0.056377 3.115553
    9 -0.002752 -0.001265 -0.003287 0.000000 0.000000 0.000000
    10 8.825714 0.153677 -4.983509 6.082544 -1.972964 -0.017270
    11 7.741753 -1.601013 -0.407627 -1.567878 -0.029402 -3.264055
    12 -0.032857 -8.498736 -0.084602 0.092398 0.479876 0.154131
    13 -0.488518 -2.755602 -0.228260 -0.242250 0.060691 -0.057732
    14 0.039887 -1.538386 0.018135 -1.634758 -0.010403 0.036650
    15 0.028786 -1.134327 -0.109049 -0.791864 -0.013746 0.015532
    16 0.250027 -2.820665 -0.238396 -0.313985 0.018280 -0.085804
    17 -0.049759 -1.602417 0.049696 -1.312009 0.004662 -0.036064
    18 -0.034142 -1.175657 0.045718 -1.263189 0.005489 -0.033341
    19 0.957766 -2.746780 -0.090302 0.167150 -0.150256 0.099289
    20 -0.033420 -1.393223 -0.019070 -0.517853 0.008329 -0.025205
    21 -0.022360 -0.957436 0.007065 -0.527929 0.007982 -0.025323
    22 -1.180681 -2.507217 -0.193859 -0.150629 0.142428 -0.022097
    23 -0.024967 -1.123934 0.017597 -0.759772 0.006951 -0.032333
    24 -0.020057 -0.906594 0.037435 -1.161982 0.002397 -0.047687
    25 0.603042 -1.197277 0.181473 0.666402 -0.922572 -1.051051
    26 1.504676 -0.177260 -0.006710 0.213418 0.065484 -0.624307
    27 1.049988 -0.147821 0.032291 0.039018 -0.188604 -0.767764
    28 0.120153 -0.050270 -0.054489 0.287569 3.110905 1.561085
    29 0.311280 -2.578835 -10.634420 -1.856255 -5.237513 -1.408771
    30 0.050068 -8.407448 0.002354 0.088997 -0.351430 0.437801
    31 0.447953 -2.798986 -0.200443 -0.244439 -0.056549 0.060325
    32 -0.032909 -1.499736 0.024472 -1.286546 0.022998 -0.023524
    33 -0.027022 -1.096452 -0.028023 -0.524789 0.013722 -0.005621
    34 -0.249534 -2.846964 -0.174213 -0.316343 -0.019324 0.076958
    35 0.043235 -1.656596 0.076480 -1.215735 -0.019648 0.004291
    36 0.031729 -1.149111 0.058838 -0.758918 -0.007903 0.005292
    37 -0.963866 -2.785145 -0.085350 -0.133536 0.264013 -0.032832
    38 0.028479 -1.403067 -0.009354 -0.611716 -0.012368 -0.024940
    39 0.021413 -0.942156 0.012233 -1.051190 -0.028955 -0.035163
    40 1.164475 -2.543940 -0.170330 -0.166622 -0.161422 -0.083745
    41 0.024032 -1.136855 -0.001725 -0.790999 0.004494 0.042151
    42 0.014898 -0.903521 -0.015942 -1.038482 0.010007 0.051857
    43 -0.586770 -1.264477 0.200161 -0.200114 -0.096951 -2.129323
    44 1.530648 0.054775 0.009035 0.154202 -0.079650 0.158043
    45 1.106228 0.052330 -0.001860 0.312990 -0.289446 0.975210
    46 -0.139399 -0.111698 0.014397 0.285382 -0.030687 1.580508
    47 -8.241335 0.788150 -0.473815 1.566614 -0.036267 -0.173555
  time 28
    0 6.008785 -11.665754 -3.267842 -1.493004 0.026644 1.550099
    1 -0.881688 0.301299 0.000000 0.000001 0.000000 -1.382160
    2 1.671935 4.611084 0.000000 0.000000 0.000000 1.232289
    3 -0.763543 -0.089952 0.631852 -0.002283 1.570796 0.000000
    4 1.384421 -0.042067 0.000000 0.000000 0.000000 1.345677
    5 0.660750 -0.739376 0.000000 0.000000 0.000000 0.002283
    6 -0.736122 -1.726717 -0.122348 1.570770 -1.561760 1.573105
    7 -0.736128 -1.724683 0.143968 -1.570809 1.561648 -1.568528
    8 1.971970 -2.249433 0.180133 0.019412 -0.056377 3.115553
    9 -0.002752 -0.001265 -0.003287 0.000000 0.000000 0.000000
    10 8.825714 0.145865 -4.991321 6.083405 -1.973189 -0.017844
    11 7.745659 -1.577575 -0.407627 -1.567878 -0.029402 -3.261052
    12 -0.032857 -8.494830 -0.084602 0.091492 0.480374 0.151433
    13 -0.488518 -2.755602 -0.228260 -0.242250 0.060691 -0.057732
    14 0.039887 -1.538386 0.018135 -1.634758 -0.010403 0.036650
    15 0.028786 -1.134327 -0.109049 -0.791864 -0.013746 0.015532
    16 0.250027 -2.820665 -0.238396 -0.313985 0.018280 -0.085804
    17 -0.049759 -1.602417 0.049696 -1.312009 0.004662 -0.036064
    18 -0.034142 -1.175657 0.045718 -1.263189 0.005489 -0.033341
    19 0.957766 -2.746780 -0.090302 0.167150 -0.150256 0.099289
    20 -0.033420 -1.393223 -0.019070 -0.517853 0.008329 -0.025205
    21 -0.022360 -0.957436 0.007065 -0.527929 0.007982 -0.025323
    22 -1.180681 -2.507217 -0.193859 -0.150629 0.142428 -0.022097
    23 -0.024967 -1.123934 0.017597 -0.759772 0.006951 -0.032333
    24 -0.020057 -0.906594 0.037435 -1.161982 0.002397 -0.047687
    25 0.603042 -1.197277 0.181473 0.666402 -0.922572 -1.051051
    26 1.504676 -0.177260 -0.006710 0.213418 0.065484 -0.624307
    27 1.049988 -0.147821 0.032291 0.039018 -0.188604 -0.767764
    28 0.120153 -0.050270 -0.054489 0.287569 3.110905 1.561085
    29 0.315187 -2.578835 -10.634420 -1.856786 -5.236593 -1.409345
    30 0.050068 -8.407448 0.002354 0.088459 -0.352663 0.438688
    31 0.447953 -2.798986 -0.200443 -0.244439 -0.056549 0.060325
    32 -0.032909 -1.499736 0.024472 -1.286546 0.022998 -0.023524
    33 -0.027022 -1.096452 -0.028023 -0.524789 0.013722 -0.005621
    34 -0.249534 -2.846964 -0.174213 -0.316343 -0.019324 0.076958
    35 0.043235 -1.656596 0.076480 -1.215735 -0.019648 0.004291
    36 0.031729 -1.149111 0.058838 -0.758918 -0.007903 0.005292
    37 -0.963866 -2.785145 -0.085350 -0.133536 0.264013 -0.032832
    38 0.028479 -1.403067 -0.009354 -0.611716 -0.012368 -0.024940
    39 0.021413 -0.942156 0.012233 -1.051190 -0.028955 -0.035163
    40 1.164475 -2.543940 -0.170330 -0.166622 -0.161422 -0.083745
    41 0.024032 -1.136855 -0.001725 -0.790999 0.004494 0.042151
    42 0.014898 -0.903521 -0.015942 -1.038482 0.010007 0.051857
    43 -0.586770 -1.264477 0.200161 -0.200114 -0.096951 -2.129323
    44 1.530648 0.054775 0.009035 0.154202 -0.079650 0.158043
    45 1.106228 0.052330 -0.001860 0.312990 -0.289446 0.975210
    46 -0.139399 -0.111698 0.014397 0.285382 -0.030687 1.580508
    47 -8.241335 0.799869 -0.473815 1.566650 -0.036243 -0.175092
  time 29
    0 6.012691 -11.681380 -3.279561 -1.493289 0.024656 1.550450
    1 -0.881688 0.301299 0.000000 0.000001 0.000000 -1.382160
    2 1.671935 4.611084 0.000000 0.000000 0.000000 1.232289
    3 -0.763543 -0.089952 0.631852 -0.002283 1.570796 0.000000
    4 1.384421 -0.042067 0.000000 0.000000 0.000000 1.345677
    5 0.660750 -0.739376 0.000000 0.000000 0.000000 0.002283
    6 -0.736122 -1.726717 -0.122348 1.570770 -1.561760 1.573105
    7 -0.736128 -1.724683 0.143968 -1.570809 1.561648 -1.568528
    8 1.971970 -2.249433 0.180133 0.019412 -0.056377 3.115553
    9 -0.002752 -0.001265 -0.003287 0.000000 0.000000 0.000000
    10 8.825714 0.138052 -4.995228 6.084362 -1.973414 -0.018514
    11 7.753472 -1.550230 -0.403721 -1.567974 -0.029307 -3.257980
    12 -0.032857 -8.494830 -0.084602 0.090540 0.480917 0.148672
    13 -0.488518 -2.755602 -0.228260 -0.242250 0.060691 -0.057732
    14 0.039887 -1.538386 0.018135 -1.634758 -0.010403 0.036650
    15 0.028786 -1.134327 -0.109049 -0.791864 -0.013746 0.015532
    16 0.250027 -2.820665 -0.238396 -0.313985 0.018280 -0.085804
    17 -0.049759 -1.602417 0.049696 -1.312009 0.004662 -0.036064
    18 -0.034142 -1.175657 0.045718 -1.263189 0.005489 -0.033341
    19 0.957766 -2.746780 -0.090302 0.167150 -0.150256 0.099289
    20 -0.033420 -1.393223 -0.019070 -0.517853 0.008329 -0.025205
    21 -0.022360 -0.957436 0.007065 -0.527929 0.007982 -0.025323
    22 -1.180681 -2.507217 -0.193859 -0.150629 0.142428 -0.022097
    23 -0.024967 -1.123934 0.017597 -0.759772 0.006951 -0.032333
    24 -0.020057 -0.906594 0.037435 -1.161982 0.002397 -0.047687
    25 0.603042 -1.197277 0.181473 0.666402 -0.922572 -1.051051
    26 1.504676 -0.177260 -0.006710 0.213418 0.065484 -0.624307
    27 1.049988 -0.147821 0.032291 0.039018 -0.188604 -0.767764
    28 0.120153 -0.050270 -0.054489 0.287569 3.110905 1.561085
    29 0.315187 -2.582741 -10.634420 -1.857317 -5.235589 -1.410016
    30 0.050068 -8.407448 0.002354 0.087876 -0.353896 0.439575
    31 0.447953 -2.798986 -0.200443 -0.244439 -0.056549 0.060325
    32 -0.032909 -1.499736 0.024472 -1.286546 0.022998 -0.023524
    33 -0.027022 -1.096452 -0.028023 -0.524789 0.013722 -0.005621
    34 -0.249534 -2.846964 -0.174213 -0.316343 -0.019324 0.076958
    35 0.043235 -1.656596 0.076480 -1.215735 -0.019648 0.004291
    36 0.031729 -1.149111 0.058838 -0.758918 -0.007903 0.005292
    37 -0.963866 -2.785145 -0.085350 -0.133536 0.264013 -0.032832
    38 0.028479 -1.403067 -0.009354 -0.611716 -0.012368 -0.024940
    39 0.021413 -0.942156 0.012233 -1.051190 -0.028955 -0.035163
    40 1.164475 -2.543940 -0.170330 -0.166622 -0.161422 -0.083745
    41 0.024032 -1.136855 -0.001725 -0.790999 0.004494 0.042151
    42 0.014898 -0.903521 -0.015942 -1.038482 0.010007 0.051857
    43 -0.586770 -1.264477 0.200161 -0.200114 -0.096951 -2.129323
    44 1.530648 0.054775 0.009035 0.154202 -0.079650 0.158043
    45 1.106228 0.052330 -0.001860 0.312990 -0.289446 0.975210
    46 -0.139399 -0.111698 0.014397 0.285382 -0.030687 1.580508
    47 -8.241335 0.811588 -0.473815 1.566686 -0.036231 -0.176628
  time 30
    0 6.012691 -11.693099 -3.287374 -1.493575 0.022857 1.550702
    1 -0.881688 0.301299 0.000000 0.000001 0.000000 -1.382160
    2 1.671935 4.611084 0.000000 0.000000 0.000000 1.232289
    3 -0.763543 -0.089952 0.631852 -0.002283 1.570796 0.000000
    4 1.384421 -0.042067 0.000000 0.000000 0.000000 1.345677
    5 0.660750 -0.739376 0.000000 0.000000 0.000000 0.002283
    6 -0.736122 -1.726717 -0.122348 1.570770 -1.561760 1.573105
    7 -0.736128 -1.724683 0.143968 -1.570809 1.561648 -1.568528
    8 1.971970 -2.249433 0.180133 0.019412 -0.056377 3.115553
    9 -0.002752 -0.001265 -0.003287 0.000000 0.000000 0.000000
    10 8.825714 0.130239 -5.003041 6.085032 -1.973489 -0.018993
    11 7.757378 -1.534605 -0.403721 -1.567974 -0.029307 -3.256001
    12 -0.032857 -8.494830 -0.084602 0.089905 0.481234 0.146414
    13 -0.488518 -2.755602 -0.228260 -0.242250 0.060691 -0.057732
    14 0.039887 -1.538386 0.018135 -1.634758 -0.010403 0.036650
    15 0.028786 -1.134327 -0.109049 -0.791864 -0.013746 0.015532
    16 0.250027 -2.820665 -0.238396 -0.313985 0.018280 -0.085804
    17 -0.049759 -1.602417 0.049696 -1.312009 0.004662 -0.036064
    18 -0.034142 -1.175657 0.045718 -1.263189 0.005489 -0.033341
    19 0.957766 -2.746780 -0.090302 0.167150 -0.150256 0.099289
    20 -0.033420 -1.393223 -0.019070 -0.517853 0.008329 -0.025205
    21 -0.022360 -0.957436 0.007065 -0.527929 0.007982 -0.025323
    22 -1.180681 -2.507217 -0.193859 -0.150629 0.142428 -0.022097
    23 -0.024967 -1.123934 0.017597 -0.759772 0.006951 -0.032333
    24 -0.020057 -0.906594 0.037435 -1.161982 0.002397 -0.047687
    25 0.603042 -1.197277 0.181473 0.666402 -0.922572 -1.051051
    26 1.504676 -0.177260 -0.006710 0.213418 0.065484 -0.624307
    27 1.049988 -0.147821 0.032291 0.039018 -0.188604 -0.767764
    28 0.120153 -0.050270 -0.054489 0.287569 3.110905 1.561085
    29 0.315187 -2.586648 -10.630514 -1.857729 -5.234753 -1.410590
    30 0.050068 -8.407448 0.002354 0.087337 -0.354911 0.440356
    31 0.447953 -2.798986 -0.200443 -0.244439 -0.056549 0.060325
    32 -0.032909 -1.499736 0.024472 -1.286546 0.022998 -0.023524
    33 -0.027022 -1.096452 -0.028023 -0.524789 0.013722 -0.005621
    34 -0.249534 -2.846964 -0.174213 -0.316343 -0.019324 0.076958
    35 0.043235 -1.656596 0.076480 -1.215735 -0.019648 0.004291
    36 0.031729 -1.149111 0.058838 -0.758918 -0.007903 0.005292
    37 -0.963866 -2.785145 -0.085350 -0.133536 0.264013 -0.032832
    38 0.028479 -1.403067 -0.009354 -0.611716 -0.012368 -0.024940
    39 0.021413 -0.942156 0.012233 -1.051190 -0.028955 -0.035163
    40 1.164475 -2.543940 -0.170330 -0.166622 -0.161422 -0.083745
    41 0.024032 -1.136855 -0.001725 -0.790999 0.004494 0.042151
    42 0.014898 -0.903521 -0.015942 -1.038482 0.010007 0.051857
    43 -0.586770 -1.264477 0.200161 -0.200114 -0.096951 -2.129323
    44 1.530648 0.054775 0.009035 0.154202 -0.079650 0.158043
    45 1.106228 0.052330 -0.001860 0.312990 -0.289446 0.975210
    46 -0.139399 -0.111698 0.014397 0.285382 -0.030687 1.580508
    47 -8.241335 0.827214 -0.473815 1.566722 -0.036207 -0.178025
end
