// Created by Crowbar 0.56

$modelname "weapons/tfa_cso/c_m3_dragon.mdl"

$include "csonline_gmod.qci"

$bodygroup "weapon"
{
	studio "v_m3dragon_m3_dragon"
}
$bodygroup "weapon"
{
	studio "v_m3dragon_m3_dragon2"
}
$bodygroup "weapon"
{
	studio "v_m3dragon_m3_dragon_gold"
}

$CDMaterials "models\weapons\tfa_cso\m3_dragon\"

$attachment 0 "m3_dragon" 22.5 0.5 0
//$attachment 1 "m3_dragon" 8 0 -1
//$attachment 2 "m3_dragon" 22 2.5 2.6
//$attachment 3 "m3_dragon" 22 2.5 -2.6

$sequence "idle" {
	"v_m3dragon_anims\idle"
	fps 30
	activity "ACT_VM_IDLE" 1
	snap
}
$sequence "shoot1" {
	"v_m3dragon_anims\shoot1"
	{ event 5001 0 "21" }
	fps 30
	activity "ACT_VM_PRIMARYATTACK" 1
	snap
	//{ event 5004 1 "M3Dragon.Shoot1" }
}
$sequence "shooot2" {
	"v_m3dragon_anims\shooot2"
	{ event 5001 0 "21" }
	fps 37
	//activity "ACT_VM_PRIMARYATTACK" 1
	snap
	//{ event 5004 1 "M3Dragon.Shoot2" }
}
$sequence "insert" {
	"v_m3dragon_anims\insert"
	{ event 5004 1 "M3Dragon.ReloadInsert" }
	fps 65
	activity "ACT_VM_RELOAD" 1
	snap
}
$sequence "after_reload" {
	"v_m3dragon_anims\after_reload"
	{ event 5004 1 "M3Dragon.ReloadFinish" }
	fps 38
	activity "ACT_SHOTGUN_RELOAD_FINISH" 1
	snap
}
$sequence "before_reload" {
	"v_m3dragon_anims\before_reload"
	fps 30
	activity "M3Dragon.ReloadStart" 1 
	activity "ACT_SHOTGUN_RELOAD_START" 1 
	snap
}
$sequence "draw" {
	"v_m3dragon_anims\draw"
	{ event 5004 8 "M3Dragon.ReloadFinish" }
	fps 30
	activity "ACT_VM_DRAW" 1
	snap
}
$sequence "Secondary_ready" {
	"v_m3dragon_anims\Secondary_ready"
	fps 30
}
$sequence "Secondary_shoot" {
	"v_m3dragon_anims\Secondary_shoot"
	fps 30
}
$sequence "Secondary_insert" {
	"v_m3dragon_anims\Secondary_insert"
	{ event 5004 1 "weapons/m3dragon_reload_insert.wav" }
	fps 65
}
$sequence "Secondary_after_reload" {
	"v_m3dragon_anims\Secondary_after_reload"
	{ event 5004 1 "weapons/m3dragon_secondary_draw.wav" }
	fps 38
}
$sequence "Secondary_before_reload" {
	"v_m3dragon_anims\Secondary_before_reload"
	fps 30
}
$sequence "Secondary_draw" {
	"v_m3dragon_anims\Secondary_draw"
	{ event 5004 3 "weapons/m3dragon_secondary_draw.wav" }
	fps 30
}
