// Created by Crowbar 0.49.0.0

$modelname "weapons/tfa_cso/c_sfgrenade.mdl"

$Include "csonline_gmod.qci"

$bodygroup "weapon"
{
	studio "v_sfgrenade"
}

$cdmaterials "models\weapons\tfa_cso\sfgrenade\"

$cbox 0 0 0 0 0 0

$definebone "root" "" 0.001265 -0.569176 -20.601572 0.000000 0.000000 0.000000 0.000000 0.000000 0.000000 -0.000000 0.000000 0.000000
$definebone "Bone01" "root" 9.310103 -5.299614 -12.557959 -0.012834 -89.771431 179.846260 0.000000 -0.000001 -0.000004 0.000000 0.000000 -0.000000
$definebone "Bone_Lefthand" "Bone01" -0.071921 -8.498736 -0.104137 16.477753 0.853593 -1.435030 0.000000 0.000000 0.000000 0.000002 0.000000 -0.000000
$definebone "P_root" "Bone_Lefthand" 0.193629 -2.593090 1.810352 24.572907 13.277094 18.952071 0.000000 0.000000 0.000000 0.000003 0.000002 0.000000
$definebone "P_out_02" "P_root" 0.667727 0.657776 0.000000 0.000003 0.000002 0.000000 0.000000 0.000001 0.000000 0.000003 0.000002 0.000000
$definebone "P_out_03" "P_root" 0.885233 -0.379599 0.000000 0.000003 0.000002 0.000000 -0.000002 0.000000 0.000000 0.000003 0.000002 0.000000
$definebone "P_out_04" "P_root" 0.315647 -1.080107 0.000000 0.000003 0.000002 0.000000 0.000000 0.000000 0.000000 0.000003 0.000002 0.000000
$definebone "P_out_05" "P_root" -0.671106 -0.663693 0.000000 0.000003 0.000002 0.000000 0.000000 0.000001 0.000000 0.000003 0.000002 0.000000
$definebone "P_out_06" "P_root" -0.968721 0.298545 0.000000 0.000003 0.000002 0.000000 0.000000 -0.000001 0.000000 0.000003 0.000002 0.000000
$definebone "P_out_01" "P_root" -0.284750 0.960830 0.000000 0.000003 0.000002 0.000000 0.000000 -0.000001 0.000000 0.000003 0.000002 0.000000
$definebone "P_cap" "P_root" 0.000002 -0.000002 0.677212 0.000003 0.000002 0.000000 0.000000 -0.000001 0.000000 0.000003 0.000002 0.000000
$definebone "P_in_02" "P_cap" 0.734838 0.381135 0.182114 0.000003 0.000002 0.000000 -0.000002 0.000001 -0.000004 0.000003 0.000002 0.000000
$definebone "P_in_03" "P_cap" 0.700356 -0.459799 0.182114 0.000003 0.000002 0.000000 -0.000002 0.000000 -0.000004 0.000003 0.000002 0.000000
$definebone "P_in_04" "P_cap" 0.007362 -0.775513 0.182117 0.000003 0.000002 0.000000 0.000002 0.000001 0.000000 0.000003 0.000002 0.000000
$definebone "P_in_05" "P_cap" -0.719105 -0.430555 0.182114 0.000003 0.000002 0.000000 0.000000 0.000000 0.000000 0.000003 0.000002 0.000000
$definebone "P_in_06" "P_cap" -0.758841 0.405266 0.182114 0.000003 0.000002 0.000000 -0.000002 0.000000 0.000000 0.000003 0.000002 0.000000
$definebone "P_in_01" "P_cap" 0.010214 0.818763 0.182117 0.000003 0.000002 0.000000 0.000000 0.000000 0.000000 0.000003 0.000002 0.000000
$definebone "Point01" "P_root" 0.006075 0.004946 -0.088394 -0.000035 -180.000007 90.000017 0.000000 0.000000 0.000001 -0.000000 -0.000000 -0.000001
$definebone "plane" "Point01" 0.000000 -0.009895 0.000000 -0.000000 89.999983 0.000000 0.000000 0.000002 0.000000 -0.000000 0.000004 0.000000
$definebone "Point02" "P_root" -0.000395 -0.006433 -0.371212 0.000003 0.000002 90.000038 0.000000 0.000000 -0.000001 0.000001 -0.000004 0.000000
$definebone "plane01" "Point02" 0.000002 -0.009892 0.000000 -0.000000 89.999983 0.000001 0.000000 0.000000 0.000000 -0.000000 0.000004 0.000001
$definebone "Point03" "P_root" -0.011751 0.034234 -0.371216 -0.000056 60.000037 90.000038 0.000000 0.000000 0.000000 0.000002 0.000000 -0.000003
$definebone "plane02" "Point03" -0.000002 -0.009888 -0.000002 0.000003 89.999983 0.000000 0.000000 0.000000 -0.000001 0.000003 -0.000001 0.000000
$definebone "Point04" "P_root" 0.514042 -1.170259 -0.371216 0.000003 0.000002 90.000038 -0.000002 0.000000 0.000000 0.000001 -0.000004 0.000000
$definebone "plane03" "Point04" 0.000000 -0.009888 0.000000 -0.000000 89.999983 0.000001 0.000000 0.000000 -0.000001 -0.000000 0.000004 0.000001
$definebone "Point06" "P_root" 0.031031 -0.009885 -0.371212 0.000003 0.000002 90.000038 0.000000 0.000000 0.000001 0.000001 -0.000004 0.000000
$definebone "plane04" "Point06" 0.000002 -0.009892 0.000002 -0.000000 89.999983 0.000001 0.000000 0.000000 0.000000 -0.000000 0.000004 0.000001
$definebone "Point05" "P_root" -0.029844 0.001889 -0.371216 0.000003 0.000002 90.000038 0.000000 0.000000 0.000000 0.000001 -0.000004 0.000000
$definebone "plane05" "Point05" 0.000002 -0.009892 0.000001 -0.000000 89.999983 0.000001 0.000000 0.000000 0.000001 -0.000000 0.000004 0.000001
$definebone "Point_top" "P_root" -0.272106 0.085604 -0.046005 -0.000004 179.999966 0.000058 0.000000 0.000000 0.000000 -0.000003 0.000001 0.000002
$definebone "plane06" "Point_top" -0.000002 -0.009890 0.000000 -0.000001 89.999983 -0.000003 0.000000 0.000000 0.000000 -0.000001 -0.000003 -0.000003

$sequence "idle" {
	"v_sfgrenade_anims\idle"
	fps 10
	loop
	activity "ACT_VM_IDLE" 1
	snap
}
$sequence "pullpin" {
	"v_sfgrenade_anims\pullpin"
	{ event 5004 10 "Sfnade.Pullpin" }
	fps 41
	activity "ACT_VM_PULLPIN" 1
	snap
}
$sequence "throw" {
	"v_sfgrenade_anims\throw"
	fps 30
	activity "ACT_VM_THROW" 1
	snap
}
$sequence "deploy" {
	"v_sfgrenade_anims\deploy"
	{ event 5004 5 "Sfnade.Draw" }
	fps 30
	activity "ACT_VM_DRAW" 1
	snap
}
