// Created by Crowbar 0.49.0.0

$modelname "weapons/tfa_cso/c_scout.mdl"

$Include "csonline_gmod.qci"

$bodygroup "weapon"
{
	studio "v_scout_f_scout_template"
}

$CDMaterials "models\weapons\tfa_cso\scout"

$attachment 0 "Bone 04" 11.8 -20.5 2.25
//$attachment 1 "Bone49" 0 -4.5 0

$definebone "Bone01" "" 9.959744 4.965845 -4.869739 -77.881445 110.371193 -140.900958 0.000000 0.000001 0.000000 0.000001 0.000000 0.000000
$definebone "Bone_Lefthand" "Bone01" 0.000000 -8.563282 -0.000003 18.724144 -34.030021 29.178046 0.000000 0.000000 -0.000000 0.000002 0.000005 0.000003
$definebone "Bone 04" "Bone_Lefthand" -0.003480 -0.404829 -0.000000 0.000002 0.000005 0.000003 0.000000 0.000000 0.000000 0.000002 0.000005 0.000003
$definebone "Bone02" "Bone_Lefthand" -0.109710 -3.119557 0.832131 82.742074 -115.614026 -142.412506 0.000000 0.000000 -0.000000 -0.000001 -0.000003 0.000005
$definebone "Bone03" "Bone02" 0.000000 1.322671 2.154066 -0.000001 -0.000003 0.000005 0.000000 0.000000 0.000000 -0.000001 -0.000003 0.000005
$definebone "Bone48" "Bone03" 0.000000 -2.226187 0.667243 -0.000001 -0.000003 0.000005 0.000000 0.000000 0.000000 -0.000001 -0.000003 0.000005
$definebone "Bone49" "Bone48" 0.000000 -0.744802 -0.000001 -15.300035 -0.000002 0.000005 0.000000 0.000000 0.000000 -0.000000 -0.000002 0.000006
$definebone "Bone25" "Bone03" 0.000001 -2.694759 -0.628573 -0.000001 -0.000003 0.000005 0.000000 0.000000 0.000000 -0.000001 -0.000003 0.000005
$definebone "Bone51" "Bone03" 0.000002 -5.701930 -1.088362 -0.000001 -0.000003 0.000005 0.000000 0.000000 0.000000 -0.000001 -0.000003 0.000005

$sequence "idle1" {
	"v_scout_anims\idle1"
	fps 16
	loop
	activity "ACT_VM_IDLE" 1
	snap
}
$sequence "shoot_1" {
	"v_scout_anims\shoot_1"
	{ event 5001 0 "21" }
	{ event 5004 13 "Scout.Bolt" }
	fps 35
	activity "ACT_VM_PRIMARYATTACK" 1
	snap
}
$sequence "shoot_2" {
	"v_scout_anims\shoot_2"
	{ event 5001 0 "21" }
	{ event 5004 13 "Scout.Bolt" }
	fps 35
	activity "ACT_VM_PRIMARYATTACK" 2
	snap
}
$sequence "reload" {
	"v_scout_anims\reload"
	{ event 5004 13 "Scout.ClipOut" }
	{ event 5004 37 "Scout.ClipIn" }
	fps 30
	activity "ACT_VM_RELOAD" 1
	snap
}
$sequence "draw" {
	"v_scout_anims\draw"
	fps 30
	activity "ACT_VM_DRAW" 1
	snap
}
