version 1
nodes
  0 "Bone01" -1
  1 "Bone_Lefthand" 0
  2 "Bone02" 1
  3 "Bone03" 2
  4 "Bone25" 3
  5 "Bone54" 3
  6 "Bone50" 3
  7 "Bone52" 3
  8 "Bone56" 3
  9 "Bone04" -1
  10 "Bone_Righthand" 9
  11 "Bone27" 10
  12 "Bone28" 11
  13 "Bone29" 12
  14 "Bone31" 10
  15 "Bone32" 14
  16 "Bone33" 15
  17 "Bone35" 10
  18 "Bone36" 17
  19 "Bone37" 18
  20 "Bone39" 10
  21 "Bone40" 20
  22 "Bone41" 21
  23 "Bone43" 10
  24 "Bone44" 23
  25 "Bone45" 24
  26 "Bone_Se_Hand-R" 10
  27 "Bone05" 1
  28 "Bone06" 27
  29 "Bone07" 28
  30 "Bone21" 1
  31 "Bone22" 30
  32 "Bone23" 31
  33 "Bone17" 1
  34 "Bone18" 33
  35 "Bone19" 34
  36 "Bone13" 1
  37 "Bone14" 36
  38 "Bone15" 37
  39 "Bone09" 1
  40 "Bone10" 39
  41 "Bone11" 40
  42 "Bone_Se_Hand-L" 1
end
skeleton
  time 0
    0 8.577945 3.427503 -7.942452 -0.673626 -1.336221 0.440563
    1 -0.071918 -8.498730 -0.104136 0.347501 -0.147564 -0.160936
    2 -0.549375 -3.389827 1.033062 0.764914 1.739162 0.793994
    3 0.013588 1.872282 1.004920 0.016326 -0.000098 -0.007310
    4 -0.013949 -2.720515 1.100493 0.000000 0.000000 0.000000
    5 -0.013949 -4.784639 0.650334 0.000000 0.000000 0.000000
    6 -0.013949 -3.609847 2.626635 0.000000 0.000000 0.000000
    7 -0.642551 -1.684088 2.571739 0.000000 0.000000 0.223896
    8 -0.666020 -4.704161 1.993688 0.000000 0.251327 0.000000
    9 -0.589374 -9.567361 -11.200372 -0.813131 0.476918 0.472396
    10 0.096946 -8.450419 -0.009363 0.559951 -0.609135 0.060056
    11 -0.586769 -1.264477 0.200164 0.034713 -0.642599 -2.846409
    12 1.522835 0.058680 0.016850 -0.012211 0.029133 0.327991
    13 1.117947 0.048424 -0.005765 0.000000 0.000000 0.511917
    14 -0.963867 -2.785143 -0.085346 -0.602174 0.000001 -0.000001
    15 0.028478 -1.403067 0.006272 -0.597193 -0.049204 -0.002683
    16 0.021412 -0.957782 0.020047 -0.748193 -0.033045 -0.015228
    17 -0.249534 -2.846963 -0.174215 -0.933606 -0.052401 0.079204
    18 0.043235 -1.683940 0.096015 -0.872906 0.000001 0.000000
    19 0.031729 -1.160830 0.058836 -0.944945 0.000000 0.000000
    20 0.447951 -2.798983 -0.200441 -1.237849 0.026293 0.158084
    21 -0.032909 -1.480207 0.004935 -0.568423 0.000000 0.000000
    22 -0.027023 -1.076921 -0.020212 -0.721161 0.000000 0.000000
    23 1.164474 -2.543939 -0.170327 -0.757778 0.016742 0.044587
    24 0.024033 -1.129040 0.017807 -1.945893 0.000000 -0.000001
    25 0.014896 -0.883992 -0.019846 -1.031490 0.000000 0.000000
    26 -0.111496 -0.128692 -0.041031 0.399248 0.113804 1.444521
    27 0.583509 -1.197274 0.185379 0.377232 -0.745798 -1.043320
    28 1.535926 0.010247 0.005009 -0.290357 -0.063207 -0.837499
    29 1.100770 0.004528 -0.010675 0.000000 0.000000 -0.577704
    30 0.957766 -2.746777 -0.090301 -0.201716 0.016530 0.045802
    31 -0.033419 -1.397128 -0.011255 -0.763584 0.000000 0.000000
    32 -0.022361 -0.957433 0.018783 -0.593413 0.000000 0.000000
    33 0.250029 -2.820664 -0.238396 -0.872208 -0.049326 -0.238818
    34 -0.049759 -1.680544 0.100479 -1.454738 0.000000 0.000000
    35 -0.034141 -1.148311 0.084779 -1.567306 0.000000 0.000000
    36 -0.488517 -2.755600 -0.228261 -1.098181 -0.096000 -0.264903
    37 0.039889 -1.479791 0.029854 -1.354100 0.000000 0.000000
    38 0.028785 -1.075733 -0.023110 -1.435200 0.000000 0.000000
    39 -1.180679 -2.507216 -0.193861 -1.163678 -0.049451 -0.281014
    40 -0.024967 -1.123934 0.017595 -0.883852 0.000000 0.000000
    41 -0.020058 -0.890965 0.010091 -1.435318 0.000000 0.000000
    42 0.120180 -0.051600 -0.063059 0.012085 -2.987703 1.512552
  time 1
    0 8.577945 3.427503 -7.942452 -0.673626 -1.336221 0.440563
    1 -0.071918 -8.498730 -0.104136 0.347501 -0.147564 -0.160936
    2 -0.549375 -3.389827 1.033062 0.764914 1.739162 0.793994
    3 0.013588 1.872282 1.004920 0.016326 -0.000098 -0.007310
    4 -0.013949 -2.720515 1.100493 0.000000 0.000000 0.000000
    5 -0.013949 -4.784639 0.650334 0.000000 0.000000 0.000000
    6 -0.013949 -3.609847 2.626635 0.000000 0.000000 0.000000
    7 -0.642551 -1.684088 2.571739 0.000000 0.000000 0.223896
    8 -0.666020 -4.704161 1.993688 0.000000 0.251327 0.000000
    9 -0.589374 -9.567361 -11.200372 -0.813131 0.476918 0.472396
    10 0.096946 -8.450419 -0.009363 0.559951 -0.609135 0.060056
    11 -0.586769 -1.264477 0.200164 0.034713 -0.642599 -2.846409
    12 1.522835 0.058680 0.016850 -0.012211 0.029133 0.327991
    13 1.117947 0.048424 -0.005765 0.000000 0.000000 0.511917
    14 -0.963867 -2.785143 -0.085346 -0.602174 0.000001 -0.000001
    15 0.028478 -1.403067 0.006272 -0.597193 -0.049204 -0.002683
    16 0.021412 -0.957782 0.020047 -0.748193 -0.033045 -0.015228
    17 -0.249534 -2.846963 -0.174215 -0.933606 -0.052401 0.079204
    18 0.043235 -1.683940 0.096015 -0.872906 0.000001 0.000000
    19 0.031729 -1.160830 0.058836 -0.944945 0.000000 0.000000
    20 0.447951 -2.798983 -0.200441 -1.237849 0.026293 0.158084
    21 -0.032909 -1.480207 0.004935 -0.568423 0.000000 0.000000
    22 -0.027023 -1.076921 -0.020212 -0.721161 0.000000 0.000000
    23 1.164474 -2.543939 -0.170327 -0.757778 0.016742 0.044587
    24 0.024033 -1.129040 0.017807 -1.945893 0.000000 -0.000001
    25 0.014896 -0.883992 -0.019846 -1.031490 0.000000 0.000000
    26 -0.111496 -0.128692 -0.041031 0.399248 0.113804 1.444521
    27 0.583509 -1.197274 0.185379 0.377232 -0.745798 -1.043320
    28 1.535926 0.010247 0.005009 -0.290357 -0.063207 -0.837499
    29 1.100770 0.004528 -0.010675 0.000000 0.000000 -0.577704
    30 0.957766 -2.746777 -0.090301 -0.201716 0.016530 0.045802
    31 -0.033419 -1.397128 -0.011255 -0.763584 0.000000 0.000000
    32 -0.022361 -0.957433 0.018783 -0.593413 0.000000 0.000000
    33 0.250029 -2.820664 -0.238396 -0.872208 -0.049326 -0.238818
    34 -0.049759 -1.680544 0.100479 -1.454738 0.000000 0.000000
    35 -0.034141 -1.148311 0.084779 -1.567306 0.000000 0.000000
    36 -0.488517 -2.755600 -0.228261 -1.098181 -0.096000 -0.264903
    37 0.039889 -1.479791 0.029854 -1.354100 0.000000 0.000000
    38 0.028785 -1.075733 -0.023110 -1.435200 0.000000 0.000000
    39 -1.180679 -2.507216 -0.193861 -1.163678 -0.049451 -0.281014
    40 -0.024967 -1.123934 0.017595 -0.883852 0.000000 0.000000
    41 -0.020058 -0.890965 0.010091 -1.435318 0.000000 0.000000
    42 0.120180 -0.051600 -0.063059 0.012085 -2.987703 1.512552
end
