// Created by Crowbar 0.49.0.0

$modelname "weapons/tfa_cso/c_as50g.mdl"

$Include "csonline_gmod.qci"

$bodygroup "weapon"
{
	studio "v_as50g"
}

$CDMaterials "models\weapons\tfa_cso\as50g"

$attachment 0 "Bone02" 36.5 0 0
//$attachment 1 "Bone02" 4.5 -1 -0.3

$definebone "root" "" 0.000000 1.629157 0.541027 0.000000 0.000000 0.000000 0.000000 0.000000 0.000000 -0.000000 0.000000 0.000000
$definebone "Bone01" "root" 9.310103 0.168160 -0.149879 -0.012834 -89.771431 179.846260 0.000000 -0.000001 0.000000 0.000000 0.000000 -0.000000
$definebone "Bone_Lefthand" "Bone01" -0.071918 -8.498730 -0.104137 16.477753 0.853593 -1.435030 0.000000 -0.000002 0.000000 0.000002 0.000000 -0.000000
$definebone "Dummy03" "Bone_Lefthand" 17.971800 10.443430 7.343718 -16.468580 -1.076416 91.835002 0.000000 0.000000 0.000000 -0.000000 -0.000002 0.000000
$definebone "Bone02" "Dummy03" 0.000000 0.000000 0.000000 -0.000000 -0.000002 0.000000 0.000000 0.000000 0.000000 -0.000000 -0.000002 0.000000
$definebone "Bone24" "Bone02" 4.320393 -1.031701 0.000001 -89.999983 -89.999928 0.000000 -0.000000 0.000000 0.000000 -0.000000 0.000000 -0.000002
$definebone "Dummy02" "Bone02" 4.110971 2.892190 0.000001 -0.000000 89.999983 -0.000000 -0.000000 0.000000 0.000000 -0.000000 0.000002 -0.000000
$definebone "Bone08" "Dummy02" -0.000000 -0.000002 0.000000 -0.000000 0.000002 0.000057 -0.000000 0.000000 -0.000000 -0.000000 0.000002 -0.000000
$definebone "Bone16" "Bone02" -0.248228 2.512564 0.000000 -0.000000 89.999983 0.000057 0.000000 0.000000 0.000000 -0.000000 0.000002 -0.000000

$sequence "idle1" {
	"v_as50g_anims\idle1"
	fps 30
	loop
	activity "ACT_VM_IDLE" 1
	snap
}
$sequence "shoot1" {
	"v_as50g_anims\shoot1"
	{ event 5001 0 "23" }
	fps 30
	activity "ACT_VM_PRIMARYATTACK" 1
	snap
}
$sequence "shoot2" {
	"v_as50g_anims\shoot2"
	{ event 5001 0 "23" }
	fps 30
	activity "ACT_VM_PRIMARYATTACK" 2
	snap
}
$sequence "shoot3" {
	"v_as50g_anims\shoot3"
	{ event 5001 0 "23" }
	fps 30
	activity "ACT_VM_PRIMARYATTACK" 3
	snap
}
$sequence "reload" {
	"v_as50g_anims\reload"
	{ event 5004 0 "As50.ClipOut1" }
	{ event 5004 23 "As50.ClipOut2" }
	{ event 5004 62 "As50.ClipIn1" }
	{ event 5004 78 "As50.ClipIn2" }
	fps 30
	activity "ACT_VM_RELOAD" 1
	snap
}
$sequence "draw" {
	"v_as50g_anims\draw"
	{ event 5004 3 "As50.Draw" }
	fps 30
	activity "ACT_VM_DRAW" 1
	snap
}
