version 1
nodes
  0 "Bone01" -1
  1 "Bone_Lefthand" 0
  2 "Bone02" 1
  3 "Bone 04" 1
  4 "Bone13" 3
  5 "Bone14" 4
  6 "Bone15" 5
  7 "Bone17" 3
  8 "Bone18" 7
  9 "Bone19" 8
  10 "Bone21" 3
  11 "Bone22" 10
  12 "Bone23" 11
  13 "Bone05" 3
  14 "Bone06" 13
  15 "Bone07" 14
  16 "Bone09" 3
  17 "Bone10" 16
  18 "Bone11" 17
  19 "Bone04" -1
  20 "Bone_Righthand" 19
  21 "Bone26" 20
  22 "Bone35" 21
  23 "Bone36" 22
  24 "Bone37" 23
  25 "Bone31" 21
  26 "Bone32" 25
  27 "Bone33" 26
  28 "Bone39" 21
  29 "Bone40" 28
  30 "Bone41" 29
  31 "Bone43" 21
  32 "Bone44" 31
  33 "Bone45" 32
  34 "Bone27" 21
  35 "Bone28" 34
  36 "Bone29" 35
end
skeleton
  time 0
    0 8.071408 7.329847 -4.846300 1.261515 -2.553384 -0.274379
    1 0.000000 -8.563282 0.000001 0.011360 0.045153 -0.172443
    2 2.356389 -3.246029 1.423717 -1.205412 1.106299 -1.376893
    3 -0.003480 -0.404830 0.000000 0.000000 0.000000 0.000000
    4 -0.519309 -2.501153 -0.278956 -0.390529 0.037668 -0.005934
    5 -0.010598 -1.208185 0.000000 -1.055925 0.000000 0.000000
    6 0.000000 -0.763066 -0.000001 -0.602148 0.000000 0.000000
    7 0.105981 -2.607132 -0.278957 -0.537311 0.054194 -0.010195
    8 0.000000 -1.250579 0.000000 -0.776700 0.000000 0.000000
    9 -0.000001 -0.932634 0.000000 -1.230488 0.000000 0.000000
    10 0.763064 -2.490553 -0.278957 -0.349065 0.000000 0.130900
    11 -0.012322 -1.280917 0.000000 -0.750491 0.000000 0.000000
    12 -0.001697 -0.749371 -0.000001 -0.907564 0.000000 0.000000
    13 0.354567 0.016268 0.318133 0.743986 -0.762896 -1.122494
    14 1.887164 0.012878 0.000000 -0.040082 -0.219749 -0.583100
    15 1.001874 -0.000270 0.000000 0.000000 0.000000 -0.532315
    16 -1.123359 -2.195091 -0.278957 -0.156516 0.013626 -0.001073
    17 0.010771 -0.963790 0.000000 -0.698121 0.000000 0.000000
    18 -0.010411 -0.631916 0.000000 -0.907581 0.000000 0.000000
    19 -4.902005 4.842183 -9.193934 0.790237 1.318993 0.567375
    20 0.089928 -8.543162 0.000000 0.079760 -0.284688 0.455199
    21 0.000000 -0.359714 0.000001 0.000000 0.000000 0.000000
    22 -0.170480 -2.636147 -0.277655 -0.820310 0.000000 0.000000
    23 0.010599 -1.261177 0.000001 -0.584663 0.000000 0.000000
    24 -0.000001 -0.943232 0.000001 -0.532326 0.000000 0.000000
    25 -0.827563 -2.508973 -0.277656 -0.942498 0.000000 0.000000
    26 0.000000 -1.292970 0.000000 -0.287990 0.000000 0.000000
    27 0.000000 -0.752466 0.000001 -0.445059 0.000000 0.000000
    28 0.444212 -2.561960 -0.277654 -1.081537 -0.046226 -0.024599
    29 0.021022 -1.208186 -0.000001 -0.427606 0.000000 0.000000
    30 0.010597 -0.741867 -0.000002 -0.453786 0.000000 0.000000
    31 1.047444 -2.222821 -0.277654 -1.019678 -0.066950 -0.041090
    32 0.000000 -0.996222 -0.000001 -0.584686 0.000000 0.000000
    33 -0.000001 -0.614690 0.000000 -0.523599 0.000000 0.000000
    34 -0.308254 -0.007814 0.307167 -0.318048 -0.539825 -2.424633
    35 1.978377 0.019543 0.000001 -0.000002 -0.000010 0.549774
    36 0.982426 0.003186 0.000000 0.000000 0.000000 0.593405
  time 1
    0 7.852652 6.474352 -4.811142 -1.538010 -0.637841 -3.662545
    1 0.000000 -8.563282 0.000001 0.143459 0.045153 -0.172443
    2 2.356389 -3.246029 1.423717 -1.205412 1.106299 -1.376893
    3 -0.003480 -0.404830 0.000000 0.000000 0.000000 0.000000
    4 -0.519309 -2.501153 -0.278956 -0.371773 0.037668 -0.005934
    5 -0.010598 -1.208185 0.000000 -1.007623 0.000000 0.000000
    6 0.000000 -0.763066 -0.000001 -0.561793 0.000000 0.000000
    7 0.105981 -2.607132 -0.278957 -0.520724 0.054194 -0.010195
    8 0.000000 -1.250579 0.000000 -0.714678 0.000000 0.000000
    9 -0.000001 -0.932634 0.000000 -1.156230 0.000000 0.000000
    10 0.763064 -2.490553 -0.278957 -0.349065 0.000000 0.130900
    11 -0.012322 -1.280917 0.000000 -0.700008 0.000000 0.000000
    12 -0.001697 -0.749371 -0.000001 -0.864309 0.000000 0.000000
    13 0.354567 0.016268 0.318133 0.752699 -0.783054 -1.133592
    14 1.887164 0.012878 0.000000 -0.048399 -0.218107 -0.544731
    15 1.001874 -0.000270 0.000000 0.000000 0.000000 -0.485473
    16 -1.123359 -2.195091 -0.278957 -0.156516 0.013626 -0.001073
    17 0.010771 -0.963790 0.000000 -0.657029 0.000000 0.000000
    18 -0.010411 -0.631916 0.000000 -0.880915 0.000000 0.000000
    19 -4.902005 4.842183 -9.193934 0.790237 1.318993 0.567375
    20 0.089928 -8.543162 0.000000 0.079760 -0.284688 0.455199
    21 0.000000 -0.359714 0.000001 0.000000 0.000000 0.000000
    22 -0.170480 -2.636147 -0.277655 -0.820310 0.000000 0.000000
    23 0.010599 -1.261177 0.000001 -0.584663 0.000000 0.000000
    24 -0.000001 -0.943232 0.000001 -0.532326 0.000000 0.000000
    25 -0.827563 -2.508973 -0.277656 -0.942498 0.000000 0.000000
    26 0.000000 -1.292970 0.000000 -0.287990 0.000000 0.000000
    27 0.000000 -0.752466 0.000001 -0.445059 0.000000 0.000000
    28 0.444212 -2.561960 -0.277654 -1.081537 -0.046226 -0.024599
    29 0.021022 -1.208186 -0.000001 -0.427606 0.000000 0.000000
    30 0.010597 -0.741867 -0.000002 -0.453786 0.000000 0.000000
    31 1.047444 -2.222821 -0.277654 -1.019678 -0.066950 -0.041090
    32 0.000000 -0.996222 -0.000001 -0.584686 0.000000 0.000000
    33 -0.000001 -0.614690 0.000000 -0.523599 0.000000 0.000000
    34 -0.308254 -0.007814 0.307167 -0.318048 -0.539825 -2.424633
    35 1.978377 0.019543 0.000001 -0.000002 -0.000010 0.549774
    36 0.982426 0.003186 0.000000 0.000000 0.000000 0.593405
  time 2
    0 7.641708 5.681359 -4.787704 -1.150976 -0.609310 -3.937639
    1 0.000000 -8.563282 0.000001 0.282627 0.045153 -0.172443
    2 2.356389 -3.246029 1.423717 -1.205412 1.106299 -1.376893
    3 -0.003480 -0.404830 0.000000 0.000000 0.000000 0.000000
    4 -0.519309 -2.501153 -0.278956 -0.350956 0.037668 -0.005934
    5 -0.010598 -1.208185 0.000000 -0.953967 0.000000 0.000000
    6 0.000000 -0.763066 -0.000001 -0.516920 0.000000 0.000000
    7 0.105981 -2.607132 -0.278957 -0.502304 0.054194 -0.010195
    8 0.000000 -1.250579 0.000000 -0.645807 0.000000 0.000000
    9 -0.000001 -0.932634 0.000000 -1.073714 0.000000 0.000000
    10 0.763064 -2.490553 -0.278957 -0.349065 0.000000 0.130900
    11 -0.012322 -1.280917 0.000000 -0.643951 0.000000 0.000000
    12 -0.001697 -0.749371 -0.000001 -0.816244 0.000000 0.000000
    13 0.354567 0.016268 0.318133 0.762982 -0.805357 -1.146487
    14 1.887164 0.012878 0.000000 -0.057591 -0.215890 -0.502138
    15 1.001874 -0.000270 0.000000 0.000000 0.000000 -0.433403
    16 -1.123359 -2.195091 -0.278957 -0.156516 0.013626 -0.001073
    17 0.010771 -0.963790 0.000000 -0.611367 0.000000 0.000000
    18 -0.010411 -0.631916 0.000000 -0.851265 0.000000 0.000000
    19 -4.902005 4.842183 -9.193934 0.790237 1.318993 0.567375
    20 0.089928 -8.543162 0.000000 0.079760 -0.284688 0.455199
    21 0.000000 -0.359714 0.000001 0.000000 0.000000 0.000000
    22 -0.170480 -2.636147 -0.277655 -0.820310 0.000000 0.000000
    23 0.010599 -1.261177 0.000001 -0.584663 0.000000 0.000000
    24 -0.000001 -0.943232 0.000001 -0.532326 0.000000 0.000000
    25 -0.827563 -2.508973 -0.277656 -0.942498 0.000000 0.000000
    26 0.000000 -1.292970 0.000000 -0.287990 0.000000 0.000000
    27 0.000000 -0.752466 0.000001 -0.445059 0.000000 0.000000
    28 0.444212 -2.561960 -0.277654 -1.081537 -0.046226 -0.024599
    29 0.021022 -1.208186 -0.000001 -0.427606 0.000000 0.000000
    30 0.010597 -0.741867 -0.000002 -0.453786 0.000000 0.000000
    31 1.047444 -2.222821 -0.277654 -1.019678 -0.066950 -0.041090
    32 0.000000 -0.996222 -0.000001 -0.584686 0.000000 0.000000
    33 -0.000001 -0.614690 0.000000 -0.523599 0.000000 0.000000
    34 -0.308254 -0.007814 0.307167 -0.318048 -0.539825 -2.424633
    35 1.978377 0.019543 0.000001 -0.000002 -0.000010 0.549774
    36 0.982426 0.003186 0.000000 0.000000 0.000000 0.593405
  time 3
    0 7.442483 4.954774 -4.775985 -0.910938 -0.541640 -4.121465
    1 0.000000 -8.563282 0.000001 0.422742 0.045153 -0.172443
    2 2.356389 -3.246029 1.423717 -1.205412 1.106299 -1.376893
    3 -0.003480 -0.404830 0.000000 0.000000 0.000000 0.000000
    4 -0.519309 -2.501153 -0.278956 -0.328677 0.037668 -0.005934
    5 -0.010598 -1.208185 0.000000 -0.896547 0.000000 0.000000
    6 0.000000 -0.763066 -0.000001 -0.468959 0.000000 0.000000
    7 0.105981 -2.607132 -0.278957 -0.482601 0.054194 -0.010195
    8 0.000000 -1.250579 0.000000 -0.572104 0.000000 0.000000
    9 -0.000001 -0.932634 0.000000 -0.985465 0.000000 0.000000
    10 0.763064 -2.490553 -0.278957 -0.349065 0.000000 0.130900
    11 -0.012322 -1.280917 0.000000 -0.583961 0.000000 0.000000
    12 -0.001697 -0.749371 -0.000001 -0.764840 0.000000 0.000000
    13 0.354567 0.016268 0.318133 0.774703 -0.829099 -1.161000
    14 1.887164 0.012878 0.000000 -0.067263 -0.213122 -0.456631
    15 1.001874 -0.000270 0.000000 0.000000 0.000000 -0.377715
    16 -1.123359 -2.195091 -0.278957 -0.156516 0.013626 -0.001073
    17 0.010771 -0.963790 0.000000 -0.562549 0.000000 0.000000
    18 -0.010411 -0.631916 0.000000 -0.819566 0.000000 0.000000
    19 -4.902005 4.842183 -9.193934 0.790237 1.318993 0.567375
    20 0.089928 -8.543162 0.000000 0.079760 -0.284688 0.455199
    21 0.000000 -0.359714 0.000001 0.000000 0.000000 0.000000
    22 -0.170480 -2.636147 -0.277655 -0.820310 0.000000 0.000000
    23 0.010599 -1.261177 0.000001 -0.584663 0.000000 0.000000
    24 -0.000001 -0.943232 0.000001 -0.532326 0.000000 0.000000
    25 -0.827563 -2.508973 -0.277656 -0.942498 0.000000 0.000000
    26 0.000000 -1.292970 0.000000 -0.287990 0.000000 0.000000
    27 0.000000 -0.752466 0.000001 -0.445059 0.000000 0.000000
    28 0.444212 -2.561960 -0.277654 -1.081537 -0.046226 -0.024599
    29 0.021022 -1.208186 -0.000001 -0.427606 0.000000 0.000000
    30 0.010597 -0.741867 -0.000002 -0.453786 0.000000 0.000000
    31 1.047444 -2.222821 -0.277654 -1.019678 -0.066950 -0.041090
    32 0.000000 -0.996222 -0.000001 -0.584686 0.000000 0.000000
    33 -0.000001 -0.614690 0.000000 -0.523599 0.000000 0.000000
    34 -0.308254 -0.007814 0.307167 -0.318048 -0.539825 -2.424633
    35 1.978377 0.019543 0.000001 -0.000002 -0.000010 0.549774
    36 0.982426 0.003186 0.000000 0.000000 0.000000 0.593405
  time 4
    0 7.251071 4.294598 -4.775985 -0.925303 -0.537234 -4.176079
    1 0.000000 -8.563282 0.000001 0.557759 0.045153 -0.172443
    2 2.356389 -3.246029 1.423717 -1.205412 1.106299 -1.376893
    3 -0.003480 -0.404830 0.000000 0.000000 0.000000 0.000000
    4 -0.519309 -2.501153 -0.278956 -0.305582 0.037668 -0.005934
    5 -0.010598 -1.208185 0.000000 -0.837021 0.000000 0.000000
    6 0.000000 -0.763066 -0.000001 -0.419209 0.000000 0.000000
    7 0.105981 -2.607132 -0.278957 -0.462156 0.054194 -0.010195
    8 0.000000 -1.250579 0.000000 -0.495721 0.000000 0.000000
    9 -0.000001 -0.932634 0.000000 -0.893925 0.000000 0.000000
    10 0.763064 -2.490553 -0.278957 -0.349065 0.000000 0.130900
    11 -0.012322 -1.280917 0.000000 -0.521770 0.000000 0.000000
    12 -0.001697 -0.749371 -0.000001 -0.711534 0.000000 0.000000
    13 0.354567 0.016268 0.318133 0.787754 -0.853595 -1.176904
    14 1.887164 0.012878 0.000000 -0.077162 -0.209778 -0.409504
    15 1.001874 -0.000270 0.000000 0.000000 0.000000 -0.319967
    16 -1.123359 -2.195091 -0.278957 -0.156516 0.013626 -0.001073
    17 0.010771 -0.963790 0.000000 -0.511893 0.000000 0.000000
    18 -0.010411 -0.631916 0.000000 -0.786692 0.000000 0.000000
    19 -4.902005 4.842183 -9.193934 0.790237 1.318993 0.567375
    20 0.089928 -8.543162 0.000000 0.079760 -0.284688 0.455199
    21 0.000000 -0.359714 0.000001 0.000000 0.000000 0.000000
    22 -0.170480 -2.636147 -0.277655 -0.820310 0.000000 0.000000
    23 0.010599 -1.261177 0.000001 -0.584663 0.000000 0.000000
    24 -0.000001 -0.943232 0.000001 -0.532326 0.000000 0.000000
    25 -0.827563 -2.508973 -0.277656 -0.942498 0.000000 0.000000
    26 0.000000 -1.292970 0.000000 -0.287990 0.000000 0.000000
    27 0.000000 -0.752466 0.000001 -0.445059 0.000000 0.000000
    28 0.444212 -2.561960 -0.277654 -1.081537 -0.046226 -0.024599
    29 0.021022 -1.208186 -0.000001 -0.427606 0.000000 0.000000
    30 0.010597 -0.741867 -0.000002 -0.453786 0.000000 0.000000
    31 1.047444 -2.222821 -0.277654 -1.019678 -0.066950 -0.041090
    32 0.000000 -0.996222 -0.000001 -0.584686 0.000000 0.000000
    33 -0.000001 -0.614690 0.000000 -0.523599 0.000000 0.000000
    34 -0.308254 -0.007814 0.307167 -0.318048 -0.539825 -2.424633
    35 1.978377 0.019543 0.000001 -0.000002 -0.000010 0.549774
    36 0.982426 0.003186 0.000000 0.000000 0.000000 0.593405
  time 5
    0 7.071378 3.696923 -4.783798 -1.034632 -0.568973 -4.195696
    1 0.000000 -8.563282 0.000001 0.681631 0.045153 -0.172443
    2 2.356389 -3.246029 1.423717 -1.205412 1.106299 -1.376893
    3 -0.003480 -0.404830 0.000000 0.000000 0.000000 0.000000
    4 -0.519309 -2.501153 -0.278956 -0.282284 0.037668 -0.005934
    5 -0.010598 -1.208185 0.000000 -0.776977 0.000000 0.000000
    6 0.000000 -0.763066 -0.000001 -0.368996 0.000000 0.000000
    7 0.105981 -2.607132 -0.278957 -0.441554 0.054194 -0.010195
    8 0.000000 -1.250579 0.000000 -0.418606 0.000000 0.000000
    9 -0.000001 -0.932634 0.000000 -0.801616 0.000000 0.000000
    10 0.763064 -2.490553 -0.278957 -0.349065 0.000000 0.130900
    11 -0.012322 -1.280917 0.000000 -0.459039 0.000000 0.000000
    12 -0.001697 -0.749371 -0.000001 -0.657749 0.000000 0.000000
    13 0.354567 0.016268 0.318133 0.801920 -0.878164 -1.193922
    14 1.887164 0.012878 0.000000 -0.086966 -0.205955 -0.362039
    15 1.001874 -0.000270 0.000000 0.000000 0.000000 -0.261700
    16 -1.123359 -2.195091 -0.278957 -0.156516 0.013626 -0.001073
    17 0.010771 -0.963790 0.000000 -0.460813 0.000000 0.000000
    18 -0.010411 -0.631916 0.000000 -0.753531 0.000000 0.000000
    19 -4.902005 4.842183 -9.193934 0.790237 1.318993 0.567375
    20 0.089928 -8.543162 0.000000 0.079760 -0.284688 0.455199
    21 0.000000 -0.359714 0.000001 0.000000 0.000000 0.000000
    22 -0.170480 -2.636147 -0.277655 -0.820310 0.000000 0.000000
    23 0.010599 -1.261177 0.000001 -0.584663 0.000000 0.000000
    24 -0.000001 -0.943232 0.000001 -0.532326 0.000000 0.000000
    25 -0.827563 -2.508973 -0.277656 -0.942498 0.000000 0.000000
    26 0.000000 -1.292970 0.000000 -0.287990 0.000000 0.000000
    27 0.000000 -0.752466 0.000001 -0.445059 0.000000 0.000000
    28 0.444212 -2.561960 -0.277654 -1.081537 -0.046226 -0.024599
    29 0.021022 -1.208186 -0.000001 -0.427606 0.000000 0.000000
    30 0.010597 -0.741867 -0.000002 -0.453786 0.000000 0.000000
    31 1.047444 -2.222821 -0.277654 -1.019678 -0.066950 -0.041090
    32 0.000000 -0.996222 -0.000001 -0.584686 0.000000 0.000000
    33 -0.000001 -0.614690 0.000000 -0.523599 0.000000 0.000000
    34 -0.308254 -0.007814 0.307167 -0.318048 -0.539825 -2.424633
    35 1.978377 0.019543 0.000001 -0.000002 -0.000010 0.549774
    36 0.982426 0.003186 0.000000 0.000000 0.000000 0.593405
  time 6
    0 6.899498 3.165657 -4.803329 -1.165842 -0.610807 -4.214299
    1 0.000000 -8.563282 0.000001 0.788261 0.045153 -0.172443
    2 2.356389 -3.246029 1.423717 -1.205412 1.106299 -1.376893
    3 -0.003480 -0.404830 0.000000 0.000000 0.000000 0.000000
    4 -0.519309 -2.501153 -0.278956 -0.259394 0.037668 -0.005934
    5 -0.010598 -1.208185 0.000000 -0.718022 0.000000 0.000000
    6 0.000000 -0.763066 -0.000001 -0.319723 0.000000 0.000000
    7 0.105981 -2.607132 -0.278957 -0.421312 0.054194 -0.010195
    8 0.000000 -1.250579 0.000000 -0.342933 0.000000 0.000000
    9 -0.000001 -0.932634 0.000000 -0.710981 0.000000 0.000000
    10 0.763064 -2.490553 -0.278957 -0.349065 0.000000 0.130900
    11 -0.012322 -1.280917 0.000000 -0.397446 0.000000 0.000000
    12 -0.001697 -0.749371 -0.000001 -0.604954 0.000000 0.000000
    13 0.354567 0.016268 0.318133 0.816912 -0.902121 -1.211683
    14 1.887164 0.012878 0.000000 -0.096386 -0.201772 -0.315518
    15 1.001874 -0.000270 0.000000 0.000000 0.000000 -0.204506
    16 -1.123359 -2.195091 -0.278957 -0.156516 0.013626 -0.001073
    17 0.010771 -0.963790 0.000000 -0.410658 0.000000 0.000000
    18 -0.010411 -0.631916 0.000000 -0.720969 0.000000 0.000000
    19 -4.902005 4.842183 -9.193934 0.790237 1.318993 0.567375
    20 0.089928 -8.543162 0.000000 0.079760 -0.284688 0.455199
    21 0.000000 -0.359714 0.000001 0.000000 0.000000 0.000000
    22 -0.170480 -2.636147 -0.277655 -0.820310 0.000000 0.000000
    23 0.010599 -1.261177 0.000001 -0.584663 0.000000 0.000000
    24 -0.000001 -0.943232 0.000001 -0.532326 0.000000 0.000000
    25 -0.827563 -2.508973 -0.277656 -0.942498 0.000000 0.000000
    26 0.000000 -1.292970 0.000000 -0.287990 0.000000 0.000000
    27 0.000000 -0.752466 0.000001 -0.445059 0.000000 0.000000
    28 0.444212 -2.561960 -0.277654 -1.081537 -0.046226 -0.024599
    29 0.021022 -1.208186 -0.000001 -0.427606 0.000000 0.000000
    30 0.010597 -0.741867 -0.000002 -0.453786 0.000000 0.000000
    31 1.047444 -2.222821 -0.277654 -1.019678 -0.066950 -0.041090
    32 0.000000 -0.996222 -0.000001 -0.584686 0.000000 0.000000
    33 -0.000001 -0.614690 0.000000 -0.523599 0.000000 0.000000
    34 -0.308254 -0.007814 0.307167 -0.318048 -0.539825 -2.424633
    35 1.978377 0.019543 0.000001 -0.000002 -0.000010 0.549774
    36 0.982426 0.003186 0.000000 0.000000 0.000000 0.593405
  time 7
    0 6.739336 2.700799 -4.834580 -1.319353 -0.661666 -4.224799
    1 0.000000 -8.563282 0.000001 0.864745 0.045153 -0.172443
    2 2.356389 -3.246029 1.423717 -1.205412 1.106299 -1.376893
    3 -0.003480 -0.404830 0.000000 0.000000 0.000000 0.000000
    4 -0.519309 -2.501153 -0.278956 -0.237558 0.037668 -0.005934
    5 -0.010598 -1.208185 0.000000 -0.661779 0.000000 0.000000
    6 0.000000 -0.763066 -0.000001 -0.272717 0.000000 0.000000
    7 0.105981 -2.607132 -0.278957 -0.402005 0.054194 -0.010195
    8 0.000000 -1.250579 0.000000 -0.270764 0.000000 0.000000
    9 -0.000001 -0.932634 0.000000 -0.624515 0.000000 0.000000
    10 0.763064 -2.490553 -0.278957 -0.349065 0.000000 0.130900
    11 -0.012322 -1.280917 0.000000 -0.338685 0.000000 0.000000
    12 -0.001697 -0.749371 -0.000001 -0.554604 0.000000 0.000000
    13 0.354567 0.016268 0.318133 0.832300 -0.924820 -1.229708
    14 1.887164 0.012878 0.000000 -0.105158 -0.197374 -0.271193
    15 1.001874 -0.000270 0.000000 0.000000 0.000000 -0.149943
    16 -1.123359 -2.195091 -0.278957 -0.156516 0.013626 -0.001073
    17 0.010771 -0.963790 0.000000 -0.362811 0.000000 0.000000
    18 -0.010411 -0.631916 0.000000 -0.689905 0.000000 0.000000
    19 -4.902005 4.842183 -9.193934 0.790237 1.318993 0.567375
    20 0.089928 -8.543162 0.000000 0.079760 -0.284688 0.455199
    21 0.000000 -0.359714 0.000001 0.000000 0.000000 0.000000
    22 -0.170480 -2.636147 -0.277655 -0.820310 0.000000 0.000000
    23 0.010599 -1.261177 0.000001 -0.584663 0.000000 0.000000
    24 -0.000001 -0.943232 0.000001 -0.532326 0.000000 0.000000
    25 -0.827563 -2.508973 -0.277656 -0.942498 0.000000 0.000000
    26 0.000000 -1.292970 0.000000 -0.287990 0.000000 0.000000
    27 0.000000 -0.752466 0.000001 -0.445059 0.000000 0.000000
    28 0.444212 -2.561960 -0.277654 -1.081537 -0.046226 -0.024599
    29 0.021022 -1.208186 -0.000001 -0.427606 0.000000 0.000000
    30 0.010597 -0.741867 -0.000002 -0.453786 0.000000 0.000000
    31 1.047444 -2.222821 -0.277654 -1.019678 -0.066950 -0.041090
    32 0.000000 -0.996222 -0.000001 -0.584686 0.000000 0.000000
    33 -0.000001 -0.614690 0.000000 -0.523599 0.000000 0.000000
    34 -0.308254 -0.007814 0.307167 -0.318048 -0.539825 -2.424633
    35 1.978377 0.019543 0.000001 -0.000002 -0.000010 0.549774
    36 0.982426 0.003186 0.000000 0.000000 0.000000 0.593405
  time 8
    0 6.586988 2.302350 -4.877550 -1.496751 -0.718899 -4.219917
    1 0.000000 -8.563282 0.000001 0.872551 0.045153 -0.172443
    2 2.356389 -3.246029 1.423717 -1.205412 1.106299 -1.376893
    3 -0.003480 -0.404830 0.000000 0.000000 0.000000 0.000000
    4 -0.519309 -2.501153 -0.278956 -0.217400 0.037668 -0.005934
    5 -0.010598 -1.208185 0.000000 -0.609837 0.000000 0.000000
    6 0.000000 -0.763066 -0.000001 -0.229305 0.000000 0.000000
    7 0.105981 -2.607132 -0.278957 -0.384172 0.054194 -0.010195
    8 0.000000 -1.250579 0.000000 -0.204070 0.000000 0.000000
    9 -0.000001 -0.932634 0.000000 -0.544661 0.000000 0.000000
    10 0.763064 -2.490553 -0.278957 -0.349065 0.000000 0.130900
    11 -0.012322 -1.280917 0.000000 -0.284437 0.000000 0.000000
    12 -0.001697 -0.749371 -0.000001 -0.508090 0.000000 0.000000
    13 0.354567 0.016268 0.318133 0.847557 -0.945613 -1.247373
    14 1.887164 0.012878 0.000000 -0.113080 -0.192987 -0.230360
    15 1.001874 -0.000270 0.000000 0.000000 0.000000 -0.099552
    16 -1.123359 -2.195091 -0.278957 -0.156516 0.013626 -0.001073
    17 0.010771 -0.963790 0.000000 -0.318622 0.000000 0.000000
    18 -0.010411 -0.631916 0.000000 -0.661226 0.000000 0.000000
    19 -4.902005 4.842183 -9.193934 0.790237 1.318993 0.567375
    20 0.089928 -8.543162 0.000000 0.079760 -0.284688 0.455199
    21 0.000000 -0.359714 0.000001 0.000000 0.000000 0.000000
    22 -0.170480 -2.636147 -0.277655 -0.820310 0.000000 0.000000
    23 0.010599 -1.261177 0.000001 -0.584663 0.000000 0.000000
    24 -0.000001 -0.943232 0.000001 -0.532326 0.000000 0.000000
    25 -0.827563 -2.508973 -0.277656 -0.942498 0.000000 0.000000
    26 0.000000 -1.292970 0.000000 -0.287990 0.000000 0.000000
    27 0.000000 -0.752466 0.000001 -0.445059 0.000000 0.000000
    28 0.444212 -2.561960 -0.277654 -1.081537 -0.046226 -0.024599
    29 0.021022 -1.208186 -0.000001 -0.427606 0.000000 0.000000
    30 0.010597 -0.741867 -0.000002 -0.453786 0.000000 0.000000
    31 1.047444 -2.222821 -0.277654 -1.019678 -0.066950 -0.041090
    32 0.000000 -0.996222 -0.000001 -0.584686 0.000000 0.000000
    33 -0.000001 -0.614690 0.000000 -0.523599 0.000000 0.000000
    34 -0.308254 -0.007814 0.307167 -0.318048 -0.539825 -2.424633
    35 1.978377 0.019543 0.000001 -0.000002 -0.000010 0.549774
    36 0.982426 0.003186 0.000000 0.000000 0.000000 0.593405
  time 9
    0 6.446359 1.966402 -4.932240 1.440500 -2.363721 -1.050667
    1 0.000000 -8.563282 0.000001 0.813992 0.045153 -0.172443
    2 2.356389 -3.246029 1.423717 -1.205412 1.106299 -1.376893
    3 -0.003480 -0.404830 0.000000 0.000000 0.000000 0.000000
    4 -0.519309 -2.501153 -0.278956 -0.199567 0.037668 -0.005934
    5 -0.010598 -1.208185 0.000000 -0.563836 0.000000 0.000000
    6 0.000000 -0.763066 -0.000001 -0.190859 0.000000 0.000000
    7 0.105981 -2.607132 -0.278957 -0.368376 0.054194 -0.010195
    8 0.000000 -1.250579 0.000000 -0.145048 0.000000 0.000000
    9 -0.000001 -0.932634 0.000000 -0.473941 0.000000 0.000000
    10 0.763064 -2.490553 -0.278957 -0.349065 0.000000 0.130900
    11 -0.012322 -1.280917 0.000000 -0.236359 0.000000 0.000000
    12 -0.001697 -0.749371 -0.000001 -0.466880 0.000000 0.000000
    13 0.354567 0.016268 0.318133 0.861998 -0.963890 -1.263912
    14 1.887164 0.012878 0.000000 -0.119935 -0.188841 -0.194230
    15 1.001874 -0.000270 0.000000 0.000000 0.000000 -0.054908
    16 -1.123359 -2.195091 -0.278957 -0.156516 0.013626 -0.001073
    17 0.010771 -0.963790 0.000000 -0.279488 0.000000 0.000000
    18 -0.010411 -0.631916 0.000000 -0.635818 0.000000 0.000000
    19 -4.902005 4.842183 -9.193934 0.790237 1.318993 0.567375
    20 0.089928 -8.543162 0.000000 0.079760 -0.284688 0.455199
    21 0.000000 -0.359714 0.000001 0.000000 0.000000 0.000000
    22 -0.170480 -2.636147 -0.277655 -0.820310 0.000000 0.000000
    23 0.010599 -1.261177 0.000001 -0.584663 0.000000 0.000000
    24 -0.000001 -0.943232 0.000001 -0.532326 0.000000 0.000000
    25 -0.827563 -2.508973 -0.277656 -0.942498 0.000000 0.000000
    26 0.000000 -1.292970 0.000000 -0.287990 0.000000 0.000000
    27 0.000000 -0.752466 0.000001 -0.445059 0.000000 0.000000
    28 0.444212 -2.561960 -0.277654 -1.081537 -0.046226 -0.024599
    29 0.021022 -1.208186 -0.000001 -0.427606 0.000000 0.000000
    30 0.010597 -0.741867 -0.000002 -0.453786 0.000000 0.000000
    31 1.047444 -2.222821 -0.277654 -1.019678 -0.066950 -0.041090
    32 0.000000 -0.996222 -0.000001 -0.584686 0.000000 0.000000
    33 -0.000001 -0.614690 0.000000 -0.523599 0.000000 0.000000
    34 -0.308254 -0.007814 0.307167 -0.318048 -0.539825 -2.424633
    35 1.978377 0.019543 0.000001 -0.000002 -0.000010 0.549774
    36 0.982426 0.003186 0.000000 0.000000 0.000000 0.593405
  time 10
    0 6.286198 1.677331 -5.053337 1.207060 -2.309653 -0.994027
    1 0.000000 -8.563282 0.000001 0.701027 0.045153 -0.172443
    2 8.274538 20.020306 -7.861722 -1.205412 1.106299 -1.376893
    3 -0.003480 -0.404830 0.000000 0.000000 0.000000 0.000000
    4 -0.519309 -2.501153 -0.278956 -0.184622 0.037668 -0.005934
    5 -0.010598 -1.208185 0.000000 -0.525348 0.000000 0.000000
    6 0.000000 -0.763066 -0.000001 -0.158677 0.000000 0.000000
    7 0.105981 -2.607132 -0.278957 -0.355181 0.054194 -0.010195
    8 0.000000 -1.250579 0.000000 -0.095622 0.000000 0.000000
    9 -0.000001 -0.932634 0.000000 -0.414825 0.000000 0.000000
    10 0.763064 -2.490553 -0.278957 -0.349065 0.000000 0.130900
    11 -0.012322 -1.280917 0.000000 -0.196166 0.000000 0.000000
    12 -0.001697 -0.749371 -0.000001 -0.432429 0.000000 0.000000
    13 0.354567 0.016268 0.318133 0.874774 -0.979062 -1.278461
    14 1.887164 0.012878 0.000000 -0.125544 -0.185185 -0.164084
    15 1.001874 -0.000270 0.000000 0.000000 0.000000 -0.017604
    16 -1.123359 -2.195091 -0.278957 -0.156516 0.013626 -0.001073
    17 0.010771 -0.963790 0.000000 -0.246745 0.000000 0.000000
    18 -0.010411 -0.631916 0.000000 -0.614570 0.000000 0.000000
    19 -4.902005 4.842183 -9.193934 0.790237 1.318993 0.567375
    20 0.089928 -8.543162 0.000000 0.079760 -0.284688 0.455199
    21 0.000000 -0.359714 0.000001 0.000000 0.000000 0.000000
    22 -0.170480 -2.636147 -0.277655 -0.820310 0.000000 0.000000
    23 0.010599 -1.261177 0.000001 -0.584663 0.000000 0.000000
    24 -0.000001 -0.943232 0.000001 -0.532326 0.000000 0.000000
    25 -0.827563 -2.508973 -0.277656 -0.942498 0.000000 0.000000
    26 0.000000 -1.292970 0.000000 -0.287990 0.000000 0.000000
    27 0.000000 -0.752466 0.000001 -0.445059 0.000000 0.000000
    28 0.444212 -2.561960 -0.277654 -1.081537 -0.046226 -0.024599
    29 0.021022 -1.208186 -0.000001 -0.427606 0.000000 0.000000
    30 0.010597 -0.741867 -0.000002 -0.453786 0.000000 0.000000
    31 1.047444 -2.222821 -0.277654 -1.019678 -0.066950 -0.041090
    32 0.000000 -0.996222 -0.000001 -0.584686 0.000000 0.000000
    33 -0.000001 -0.614690 0.000000 -0.523599 0.000000 0.000000
    34 -0.308254 -0.007814 0.307167 -0.318048 -0.539825 -2.424633
    35 1.978377 0.019543 0.000001 -0.000002 -0.000010 0.549774
    36 0.982426 0.003186 0.000000 0.000000 0.000000 0.593405
  time 11
    0 6.051816 1.392166 -5.358034 0.944388 -2.268589 -0.905613
    1 0.000000 -8.563282 0.000001 0.554105 0.045153 -0.172443
    2 8.356572 22.782109 -7.494524 -1.205412 1.106299 -1.376893
    3 -0.003480 -0.404830 0.000000 0.000000 0.000000 0.000000
    4 -0.519309 -2.501153 -0.278956 -0.173236 0.037668 -0.005934
    5 -0.010598 -1.208185 0.000000 -0.496031 0.000000 0.000000
    6 0.000000 -0.763066 -0.000001 -0.134189 0.000000 0.000000
    7 0.105981 -2.607132 -0.278957 -0.345114 0.054194 -0.010195
    8 0.000000 -1.250579 0.000000 -0.057992 0.000000 0.000000
    9 -0.000001 -0.932634 0.000000 -0.369755 0.000000 0.000000
    10 0.763064 -2.490553 -0.278957 -0.349065 0.000000 0.130900
    11 -0.012322 -1.280917 0.000000 -0.165518 0.000000 0.000000
    12 -0.001697 -0.749371 -0.000001 -0.406176 0.000000 0.000000
    13 0.354567 0.016268 0.318133 0.884985 -0.990567 -1.290003
    14 1.887164 0.012878 0.000000 -0.129751 -0.182285 -0.141119
    15 1.001874 -0.000270 0.000000 0.000000 0.000000 0.010855
    16 -1.123359 -2.195091 -0.278957 -0.156516 0.013626 -0.001073
    17 0.010771 -0.963790 0.000000 -0.221804 0.000000 0.000000
    18 -0.010411 -0.631916 0.000000 -0.598391 0.000000 0.000000
    19 -4.902005 4.842183 -9.193934 0.790237 1.318993 0.567375
    20 0.089928 -8.543162 0.000000 0.079760 -0.284688 0.455199
    21 0.000000 -0.359714 0.000001 0.000000 0.000000 0.000000
    22 -0.170480 -2.636147 -0.277655 -0.820310 0.000000 0.000000
    23 0.010599 -1.261177 0.000001 -0.584663 0.000000 0.000000
    24 -0.000001 -0.943232 0.000001 -0.532326 0.000000 0.000000
    25 -0.827563 -2.508973 -0.277656 -0.942498 0.000000 0.000000
    26 0.000000 -1.292970 0.000000 -0.287990 0.000000 0.000000
    27 0.000000 -0.752466 0.000001 -0.445059 0.000000 0.000000
    28 0.444212 -2.561960 -0.277654 -1.081537 -0.046226 -0.024599
    29 0.021022 -1.208186 -0.000001 -0.427606 0.000000 0.000000
    30 0.010597 -0.741867 -0.000002 -0.453786 0.000000 0.000000
    31 1.047444 -2.222821 -0.277654 -1.019678 -0.066950 -0.041090
    32 0.000000 -0.996222 -0.000001 -0.584686 0.000000 0.000000
    33 -0.000001 -0.614690 0.000000 -0.523599 0.000000 0.000000
    34 -0.308254 -0.007814 0.307167 -0.318048 -0.539825 -2.424633
    35 1.978377 0.019543 0.000001 -0.000002 -0.000010 0.549774
    36 0.982426 0.003186 0.000000 0.000000 0.000000 0.593405
  time 12
    0 5.747119 1.122626 -5.815079 0.659917 -2.248742 -0.790952
    1 0.000000 -8.563282 0.000001 0.389074 0.045153 -0.172443
    2 6.461983 23.282124 -2.888914 -1.205412 1.106299 -1.376893
    3 -0.003480 -0.404830 0.000000 0.000000 0.000000 0.000000
    4 -0.519309 -2.501153 -0.278956 -0.166034 0.037668 -0.005934
    5 -0.010598 -1.208185 0.000000 -0.477456 0.000000 0.000000
    6 0.000000 -0.763066 -0.000001 -0.118680 0.000000 0.000000
    7 0.105981 -2.607132 -0.278957 -0.338726 0.054194 -0.010195
    8 0.000000 -1.250579 0.000000 -0.034172 0.000000 0.000000
    9 -0.000001 -0.932634 0.000000 -0.341198 0.000000 0.000000
    10 0.763064 -2.490553 -0.278957 -0.349065 0.000000 0.130900
    11 -0.012322 -1.280917 0.000000 -0.146130 0.000000 0.000000
    12 -0.001697 -0.749371 -0.000001 -0.389558 0.000000 0.000000
    13 0.354567 0.016268 0.318133 0.891672 -0.997818 -1.297529
    14 1.887164 0.012878 0.000000 -0.132375 -0.180404 -0.126588
    15 1.001874 -0.000270 0.000000 0.000000 0.000000 0.028875
    16 -1.123359 -2.195091 -0.278957 -0.156516 0.013626 -0.001073
    17 0.010771 -0.963790 0.000000 -0.206002 0.000000 0.000000
    18 -0.010411 -0.631916 0.000000 -0.588132 0.000000 0.000000
    19 -4.902005 4.842183 -9.193934 0.790237 1.318993 0.567375
    20 0.089928 -8.543162 0.000000 0.079760 -0.284688 0.455199
    21 0.000000 -0.359714 0.000001 0.000000 0.000000 0.000000
    22 -0.170480 -2.636147 -0.277655 -0.820310 0.000000 0.000000
    23 0.010599 -1.261177 0.000001 -0.584663 0.000000 0.000000
    24 -0.000001 -0.943232 0.000001 -0.532326 0.000000 0.000000
    25 -0.827563 -2.508973 -0.277656 -0.942498 0.000000 0.000000
    26 0.000000 -1.292970 0.000000 -0.287990 0.000000 0.000000
    27 0.000000 -0.752466 0.000001 -0.445059 0.000000 0.000000
    28 0.444212 -2.561960 -0.277654 -1.081537 -0.046226 -0.024599
    29 0.021022 -1.208186 -0.000001 -0.427606 0.000000 0.000000
    30 0.010597 -0.741867 -0.000002 -0.453786 0.000000 0.000000
    31 1.047444 -2.222821 -0.277654 -1.019678 -0.066950 -0.041090
    32 0.000000 -0.996222 -0.000001 -0.584686 0.000000 0.000000
    33 -0.000001 -0.614690 0.000000 -0.523599 0.000000 0.000000
    34 -0.308254 -0.007814 0.307167 -0.318048 -0.539825 -2.424633
    35 1.978377 0.019543 0.000001 -0.000002 -0.000010 0.549774
    36 0.982426 0.003186 0.000000 0.000000 0.000000 0.593405
  time 13
    0 5.403358 0.880431 -6.381503 0.370518 -2.255843 -0.665516
    1 0.000000 -8.563282 0.000001 0.221493 0.045153 -0.172443
    2 3.907217 23.805578 3.345651 -1.205412 1.106299 -1.376893
    3 -0.003480 -0.404830 0.000000 0.000000 0.000000 0.000000
    4 -0.519309 -2.501153 -0.278956 -0.163649 0.037668 -0.005934
    5 -0.010598 -1.208185 0.000000 -0.471246 0.000000 0.000000
    6 0.000000 -0.763066 -0.000001 -0.113505 0.000000 0.000000
    7 0.105981 -2.607132 -0.278957 -0.336593 0.054194 -0.010195
    8 0.000000 -1.250579 0.000000 -0.026248 0.000000 0.000000
    9 -0.000001 -0.932634 0.000000 -0.331624 0.000000 0.000000
    10 0.763064 -2.490553 -0.278957 -0.349065 0.000000 0.130900
    11 -0.012322 -1.280917 0.000000 -0.139643 0.000000 0.000000
    12 -0.001697 -0.749371 -0.000001 -0.383981 0.000000 0.000000
    13 0.354567 0.016268 0.318133 0.893949 -1.000215 -1.300082
    14 1.887164 0.012878 0.000000 -0.133226 -0.179756 -0.121730
    15 1.001874 -0.000270 0.000000 0.000000 0.000000 0.034899
    16 -1.123359 -2.195091 -0.278957 -0.156516 0.013626 -0.001073
    17 0.010771 -0.963790 0.000000 -0.200719 0.000000 0.000000
    18 -0.010411 -0.631916 0.000000 -0.584716 0.000000 0.000000
    19 -4.902005 4.842183 -9.193934 0.790237 1.318993 0.567375
    20 0.089928 -8.543162 0.000000 0.079760 -0.284688 0.455199
    21 0.000000 -0.359714 0.000001 0.000000 0.000000 0.000000
    22 -0.170480 -2.636147 -0.277655 -0.820310 0.000000 0.000000
    23 0.010599 -1.261177 0.000001 -0.584663 0.000000 0.000000
    24 -0.000001 -0.943232 0.000001 -0.532326 0.000000 0.000000
    25 -0.827563 -2.508973 -0.277656 -0.942498 0.000000 0.000000
    26 0.000000 -1.292970 0.000000 -0.287990 0.000000 0.000000
    27 0.000000 -0.752466 0.000001 -0.445059 0.000000 0.000000
    28 0.444212 -2.561960 -0.277654 -1.081537 -0.046226 -0.024599
    29 0.021022 -1.208186 -0.000001 -0.427606 0.000000 0.000000
    30 0.010597 -0.741867 -0.000002 -0.453786 0.000000 0.000000
    31 1.047444 -2.222821 -0.277654 -1.019678 -0.066950 -0.041090
    32 0.000000 -0.996222 -0.000001 -0.584686 0.000000 0.000000
    33 -0.000001 -0.614690 0.000000 -0.523599 0.000000 0.000000
    34 -0.308254 -0.007814 0.307167 -0.318048 -0.539825 -2.424633
    35 1.978377 0.019543 0.000001 -0.000002 -0.000010 0.549774
    36 0.982426 0.003186 0.000000 0.000000 0.000000 0.593405
  time 14
    0 5.032253 0.677300 -7.037773 0.097072 -2.290234 -0.549105
    1 0.000000 -8.563282 0.000001 0.066817 0.045153 -0.172443
    2 1.379796 24.032147 9.580216 -1.205412 1.106299 -1.376893
    3 -0.003480 -0.404830 0.000000 0.000000 0.000000 0.000000
    4 -0.519309 -2.501153 -0.278956 -0.165722 0.037668 -0.005934
    5 -0.010598 -1.208185 0.000000 -0.476617 0.000000 0.000000
    6 0.000000 -0.763066 -0.000001 -0.117964 0.000000 0.000000
    7 0.105981 -2.607132 -0.278957 -0.338451 0.054194 -0.010195
    8 0.000000 -1.250579 0.000000 -0.033119 0.000000 0.000000
    9 -0.000001 -0.932634 0.000000 -0.339909 0.000000 0.000000
    10 0.763064 -2.490553 -0.278957 -0.349065 0.000000 0.130900
    11 -0.012322 -1.280917 0.000000 -0.145254 0.000000 0.000000
    12 -0.001697 -0.749371 -0.000001 -0.388791 0.000000 0.000000
    13 0.354567 0.016268 0.318133 0.891972 -0.998142 -1.297876
    14 1.887164 0.012878 0.000000 -0.132483 -0.180308 -0.125926
    15 1.001874 -0.000270 0.000000 0.000000 0.000000 0.029689
    16 -1.123359 -2.195091 -0.278957 -0.156516 0.013626 -0.001073
    17 0.010771 -0.963790 0.000000 -0.205288 0.000000 0.000000
    18 -0.010411 -0.631916 0.000000 -0.587664 0.000000 0.000000
    19 -4.902005 4.842183 -9.193934 0.790237 1.318993 0.567375
    20 0.089928 -8.543162 0.000000 0.079760 -0.284688 0.455199
    21 0.000000 -0.359714 0.000001 0.000000 0.000000 0.000000
    22 -0.170480 -2.636147 -0.277655 -0.820310 0.000000 0.000000
    23 0.010599 -1.261177 0.000001 -0.584663 0.000000 0.000000
    24 -0.000001 -0.943232 0.000001 -0.532326 0.000000 0.000000
    25 -0.827563 -2.508973 -0.277656 -0.942498 0.000000 0.000000
    26 0.000000 -1.292970 0.000000 -0.287990 0.000000 0.000000
    27 0.000000 -0.752466 0.000001 -0.445059 0.000000 0.000000
    28 0.444212 -2.561960 -0.277654 -1.081537 -0.046226 -0.024599
    29 0.021022 -1.208186 -0.000001 -0.427606 0.000000 0.000000
    30 0.010597 -0.741867 -0.000002 -0.453786 0.000000 0.000000
    31 1.047444 -2.222821 -0.277654 -1.019678 -0.066950 -0.041090
    32 0.000000 -0.996222 -0.000001 -0.584686 0.000000 0.000000
    33 -0.000001 -0.614690 0.000000 -0.523599 0.000000 0.000000
    34 -0.308254 -0.007814 0.307167 -0.318048 -0.539825 -2.424633
    35 1.978377 0.019543 0.000001 -0.000002 -0.000010 0.549774
    36 0.982426 0.003186 0.000000 0.000000 0.000000 0.593405
  time 15
    0 4.657242 0.532764 -7.737013 -0.144553 -2.347295 -0.456547
    1 0.000000 -8.563282 0.000001 -0.059368 0.045153 -0.172443
    2 -0.467916 23.633697 14.224889 -1.205412 1.106299 -1.376893
    3 -0.003480 -0.404830 0.000000 0.000000 0.000000 0.000000
    4 -0.519309 -2.501153 -0.278956 -0.171391 0.037668 -0.005934
    5 -0.010598 -1.208185 0.000000 -0.491284 0.000000 0.000000
    6 0.000000 -0.763066 -0.000001 -0.130208 0.000000 0.000000
    7 0.105981 -2.607132 -0.278957 -0.343472 0.054194 -0.010195
    8 0.000000 -1.250579 0.000000 -0.051923 0.000000 0.000000
    9 -0.000001 -0.932634 0.000000 -0.362403 0.000000 0.000000
    10 0.763064 -2.490553 -0.278957 -0.349065 0.000000 0.130900
    11 -0.012322 -1.280917 0.000000 -0.160560 0.000000 0.000000
    12 -0.001697 -0.749371 -0.000001 -0.401909 0.000000 0.000000
    13 0.354567 0.016268 0.318133 0.886687 -0.992437 -1.291920
    14 1.887164 0.012878 0.000000 -0.130434 -0.181806 -0.137387
    15 1.001874 -0.000270 0.000000 0.000000 0.000000 0.015477
    16 -1.123359 -2.195091 -0.278957 -0.156516 0.013626 -0.001073
    17 0.010771 -0.963790 0.000000 -0.217751 0.000000 0.000000
    18 -0.010411 -0.631916 0.000000 -0.595754 0.000000 0.000000
    19 -4.902005 4.842183 -9.193934 0.790237 1.318993 0.567375
    20 0.089928 -8.543162 0.000000 0.079760 -0.284688 0.455199
    21 0.000000 -0.359714 0.000001 0.000000 0.000000 0.000000
    22 -0.170480 -2.636147 -0.277655 -0.820310 0.000000 0.000000
    23 0.010599 -1.261177 0.000001 -0.584663 0.000000 0.000000
    24 -0.000001 -0.943232 0.000001 -0.532326 0.000000 0.000000
    25 -0.827563 -2.508973 -0.277656 -0.942498 0.000000 0.000000
    26 0.000000 -1.292970 0.000000 -0.287990 0.000000 0.000000
    27 0.000000 -0.752466 0.000001 -0.445059 0.000000 0.000000
    28 0.444212 -2.561960 -0.277654 -1.081537 -0.046226 -0.024599
    29 0.021022 -1.208186 -0.000001 -0.427606 0.000000 0.000000
    30 0.010597 -0.741867 -0.000002 -0.453786 0.000000 0.000000
    31 1.047444 -2.222821 -0.277654 -1.019678 -0.066950 -0.041090
    32 0.000000 -0.996222 -0.000001 -0.584686 0.000000 0.000000
    33 -0.000001 -0.614690 0.000000 -0.523599 0.000000 0.000000
    34 -0.308254 -0.007814 0.307167 -0.318048 -0.539825 -2.424633
    35 1.978377 0.019543 0.000001 -0.000002 -0.000010 0.549774
    36 0.982426 0.003186 0.000000 0.000000 0.000000 0.593405
  time 16
    0 4.293949 0.454637 -8.440159 -0.348093 -2.419499 -0.392539
    1 0.000000 -8.563282 0.000001 -0.143158 0.045153 -0.172443
    2 -1.956243 22.457880 17.869532 -1.205412 1.106299 -1.376893
    3 -0.003480 -0.404830 0.000000 0.000000 0.000000 0.000000
    4 -0.519309 -2.501153 -0.278956 -0.180283 0.037668 -0.005934
    5 -0.010598 -1.208185 0.000000 -0.514160 0.000000 0.000000
    6 0.000000 -0.763066 -0.000001 -0.149326 0.000000 0.000000
    7 0.105981 -2.607132 -0.278957 -0.351322 0.054194 -0.010195
    8 0.000000 -1.250579 0.000000 -0.081262 0.000000 0.000000
    9 -0.000001 -0.932634 0.000000 -0.397598 0.000000 0.000000
    10 0.763064 -2.490553 -0.278957 -0.349065 0.000000 0.130900
    11 -0.012322 -1.280917 0.000000 -0.184459 0.000000 0.000000
    12 -0.001697 -0.749371 -0.000001 -0.422394 0.000000 0.000000
    13 0.354567 0.016268 0.318133 0.878621 -0.983484 -1.282824
    14 1.887164 0.012878 0.000000 -0.127162 -0.184083 -0.155298
    15 1.001874 -0.000270 0.000000 0.000000 0.000000 -0.006716
    16 -1.123359 -2.195091 -0.278957 -0.156516 0.013626 -0.001073
    17 0.010771 -0.963790 0.000000 -0.237212 0.000000 0.000000
    18 -0.010411 -0.631916 0.000000 -0.608398 0.000000 0.000000
    19 -4.902005 4.842183 -9.193934 0.790237 1.318993 0.567375
    20 0.089928 -8.543162 0.000000 0.079760 -0.284688 0.455199
    21 0.000000 -0.359714 0.000001 0.000000 0.000000 0.000000
    22 -0.170480 -2.636147 -0.277655 -0.820310 0.000000 0.000000
    23 0.010599 -1.261177 0.000001 -0.584663 0.000000 0.000000
    24 -0.000001 -0.943232 0.000001 -0.532326 0.000000 0.000000
    25 -0.827563 -2.508973 -0.277656 -0.942498 0.000000 0.000000
    26 0.000000 -1.292970 0.000000 -0.287990 0.000000 0.000000
    27 0.000000 -0.752466 0.000001 -0.445059 0.000000 0.000000
    28 0.444212 -2.561960 -0.277654 -1.081537 -0.046226 -0.024599
    29 0.021022 -1.208186 -0.000001 -0.427606 0.000000 0.000000
    30 0.010597 -0.741867 -0.000002 -0.453786 0.000000 0.000000
    31 1.047444 -2.222821 -0.277654 -1.019678 -0.066950 -0.041090
    32 0.000000 -0.996222 -0.000001 -0.584686 0.000000 0.000000
    33 -0.000001 -0.614690 0.000000 -0.523599 0.000000 0.000000
    34 -0.308254 -0.007814 0.307167 -0.318048 -0.539825 -2.424633
    35 1.978377 0.019543 0.000001 -0.000002 -0.000010 0.549774
    36 0.982426 0.003186 0.000000 0.000000 0.000000 0.593405
  time 17
    0 3.961908 0.454637 -9.112055 -0.513964 -2.499018 -0.354503
    1 0.000000 -8.563282 0.000001 -0.205528 0.045153 -0.172443
    2 -3.249251 20.871894 21.084473 -1.205412 1.106299 -1.376893
    3 -0.003480 -0.404830 0.000000 0.000000 0.000000 0.000000
    4 -0.519309 -2.501153 -0.278956 -0.191944 0.037668 -0.005934
    5 -0.010598 -1.208185 0.000000 -0.544244 0.000000 0.000000
    6 0.000000 -0.763066 -0.000001 -0.174485 0.000000 0.000000
    7 0.105981 -2.607132 -0.278957 -0.361653 0.054194 -0.010195
    8 0.000000 -1.250579 0.000000 -0.119900 0.000000 0.000000
    9 -0.000001 -0.932634 0.000000 -0.443848 0.000000 0.000000
    10 0.763064 -2.490553 -0.278957 -0.349065 0.000000 0.130900
    11 -0.012322 -1.280917 0.000000 -0.215889 0.000000 0.000000
    12 -0.001697 -0.749371 -0.000001 -0.449335 0.000000 0.000000
    13 0.354567 0.016268 0.318133 0.868410 -0.971644 -1.271235
    14 1.887164 0.012878 0.000000 -0.122824 -0.186995 -0.178868
    15 1.001874 -0.000270 0.000000 0.000000 0.000000 -0.035918
    16 -1.123359 -2.195091 -0.278957 -0.156516 0.013626 -0.001073
    17 0.010771 -0.963790 0.000000 -0.262805 0.000000 0.000000
    18 -0.010411 -0.631916 0.000000 -0.624996 0.000000 0.000000
    19 -4.902005 4.842183 -9.193934 0.790237 1.318993 0.567375
    20 0.089928 -8.543162 0.000000 0.079760 -0.284688 0.455199
    21 0.000000 -0.359714 0.000001 0.000000 0.000000 0.000000
    22 -0.170480 -2.636147 -0.277655 -0.820310 0.000000 0.000000
    23 0.010599 -1.261177 0.000001 -0.584663 0.000000 0.000000
    24 -0.000001 -0.943232 0.000001 -0.532326 0.000000 0.000000
    25 -0.827563 -2.508973 -0.277656 -0.942498 0.000000 0.000000
    26 0.000000 -1.292970 0.000000 -0.287990 0.000000 0.000000
    27 0.000000 -0.752466 0.000001 -0.445059 0.000000 0.000000
    28 0.444212 -2.561960 -0.277654 -1.081537 -0.046226 -0.024599
    29 0.021022 -1.208186 -0.000001 -0.427606 0.000000 0.000000
    30 0.010597 -0.741867 -0.000002 -0.453786 0.000000 0.000000
    31 1.047444 -2.222821 -0.277654 -1.019678 -0.066950 -0.041090
    32 0.000000 -0.996222 -0.000001 -0.584686 0.000000 0.000000
    33 -0.000001 -0.614690 0.000000 -0.523599 0.000000 0.000000
    34 -0.308254 -0.007814 0.307167 -0.318048 -0.539825 -2.424633
    35 1.978377 0.019543 0.000001 -0.000002 -0.000010 0.549774
    36 0.982426 0.003186 0.000000 0.000000 0.000000 0.593405
  time 18
    0 3.684556 0.548390 -9.709729 -0.645509 -2.579007 -0.337005
    1 0.000000 -8.563282 0.000001 -0.258094 0.045153 -0.172443
    2 -4.104746 19.360129 23.607988 -1.205412 1.106299 -1.376893
    3 -0.003480 -0.404830 0.000000 0.000000 0.000000 0.000000
    4 -0.519309 -2.501153 -0.278956 -0.206026 0.037668 -0.005934
    5 -0.010598 -1.208185 0.000000 -0.580502 0.000000 0.000000
    6 0.000000 -0.763066 -0.000001 -0.204788 0.000000 0.000000
    7 0.105981 -2.607132 -0.278957 -0.374105 0.054194 -0.010195
    8 0.000000 -1.250579 0.000000 -0.166439 0.000000 0.000000
    9 -0.000001 -0.932634 0.000000 -0.499618 0.000000 0.000000
    10 0.763064 -2.490553 -0.278957 -0.349065 0.000000 0.130900
    11 -0.012322 -1.280917 0.000000 -0.253770 0.000000 0.000000
    12 -0.001697 -0.749371 -0.000001 -0.481820 0.000000 0.000000
    13 0.354567 0.016268 0.318133 0.856653 -0.957286 -1.257812
    14 1.887164 0.012878 0.000000 -0.117490 -0.190375 -0.207324
    15 1.001874 -0.000270 0.000000 0.000000 0.000000 -0.071093
    16 -1.123359 -2.195091 -0.278957 -0.156516 0.013626 -0.001073
    17 0.010771 -0.963790 0.000000 -0.293666 0.000000 0.000000
    18 -0.010411 -0.631916 0.000000 -0.645035 0.000000 0.000000
    19 -4.902005 4.842183 -9.193934 0.790237 1.318993 0.567375
    20 0.089928 -8.543162 0.000000 0.079760 -0.284688 0.455199
    21 0.000000 -0.359714 0.000001 0.000000 0.000000 0.000000
    22 -0.170480 -2.636147 -0.277655 -0.820310 0.000000 0.000000
    23 0.010599 -1.261177 0.000001 -0.584663 0.000000 0.000000
    24 -0.000001 -0.943232 0.000001 -0.532326 0.000000 0.000000
    25 -0.827563 -2.508973 -0.277656 -0.942498 0.000000 0.000000
    26 0.000000 -1.292970 0.000000 -0.287990 0.000000 0.000000
    27 0.000000 -0.752466 0.000001 -0.445059 0.000000 0.000000
    28 0.444212 -2.561960 -0.277654 -1.081537 -0.046226 -0.024599
    29 0.021022 -1.208186 -0.000001 -0.427606 0.000000 0.000000
    30 0.010597 -0.741867 -0.000002 -0.453786 0.000000 0.000000
    31 1.047444 -2.222821 -0.277654 -1.019678 -0.066950 -0.041090
    32 0.000000 -0.996222 -0.000001 -0.584686 0.000000 0.000000
    33 -0.000001 -0.614690 0.000000 -0.523599 0.000000 0.000000
    34 -0.308254 -0.007814 0.307167 -0.318048 -0.539825 -2.424633
    35 1.978377 0.019543 0.000001 -0.000002 -0.000010 0.549774
    36 0.982426 0.003186 0.000000 0.000000 0.000000 0.593405
  time 19
    0 3.473612 0.751521 -10.205838 -0.745650 -2.653649 -0.333689
    1 0.000000 -8.563282 0.000001 -0.301408 0.045153 -0.172443
    2 -4.210218 18.336661 25.111940 -1.205412 1.106299 -1.376893
    3 -0.003480 -0.404830 0.000000 0.000000 0.000000 0.000000
    4 -0.519309 -2.501153 -0.278956 -0.222098 0.037668 -0.005934
    5 -0.010598 -1.208185 0.000000 -0.621917 0.000000 0.000000
    6 0.000000 -0.763066 -0.000001 -0.239401 0.000000 0.000000
    7 0.105981 -2.607132 -0.278957 -0.388319 0.054194 -0.010195
    8 0.000000 -1.250579 0.000000 -0.219575 0.000000 0.000000
    9 -0.000001 -0.932634 0.000000 -0.563260 0.000000 0.000000
    10 0.763064 -2.490553 -0.278957 -0.349065 0.000000 0.130900
    11 -0.012322 -1.280917 0.000000 -0.297039 0.000000 0.000000
    12 -0.001697 -0.749371 -0.000001 -0.518907 0.000000 0.000000
    13 0.354567 0.016268 0.318133 0.843926 -0.940783 -1.243167
    14 1.887164 0.012878 0.000000 -0.111270 -0.194042 -0.239850
    15 1.001874 -0.000270 0.000000 0.000000 0.000000 -0.111271
    16 -1.123359 -2.195091 -0.278957 -0.156516 0.013626 -0.001073
    17 0.010771 -0.963790 0.000000 -0.328899 0.000000 0.000000
    18 -0.010411 -0.631916 0.000000 -0.667901 0.000000 0.000000
    19 -4.902005 4.842183 -9.193934 0.790237 1.318993 0.567375
    20 0.089928 -8.543162 0.000000 0.079760 -0.284688 0.455199
    21 0.000000 -0.359714 0.000001 0.000000 0.000000 0.000000
    22 -0.170480 -2.636147 -0.277655 -0.820310 0.000000 0.000000
    23 0.010599 -1.261177 0.000001 -0.584663 0.000000 0.000000
    24 -0.000001 -0.943232 0.000001 -0.532326 0.000000 0.000000
    25 -0.827563 -2.508973 -0.277656 -0.942498 0.000000 0.000000
    26 0.000000 -1.292970 0.000000 -0.287990 0.000000 0.000000
    27 0.000000 -0.752466 0.000001 -0.445059 0.000000 0.000000
    28 0.444212 -2.561960 -0.277654 -1.081537 -0.046226 -0.024599
    29 0.021022 -1.208186 -0.000001 -0.427606 0.000000 0.000000
    30 0.010597 -0.741867 -0.000002 -0.453786 0.000000 0.000000
    31 1.047444 -2.222821 -0.277654 -1.019678 -0.066950 -0.041090
    32 0.000000 -0.996222 -0.000001 -0.584686 0.000000 0.000000
    33 -0.000001 -0.614690 0.000000 -0.523599 0.000000 0.000000
    34 -0.308254 -0.007814 0.307167 -0.318048 -0.539825 -2.424633
    35 1.978377 0.019543 0.000001 -0.000002 -0.000010 0.549774
    36 0.982426 0.003186 0.000000 0.000000 0.000000 0.593405
  time 20
    0 3.348608 1.071843 -10.553505 -0.816058 -2.718068 -0.338847
    1 0.000000 -8.563282 0.000001 -0.335892 0.045153 -0.172443
    2 -3.132060 17.688203 25.088502 -1.205412 1.106299 -1.376893
    3 -0.003480 -0.404830 0.000000 0.000000 0.000000 0.000000
    4 -0.519309 -2.501153 -0.278956 -0.239763 0.037668 -0.005934
    5 -0.010598 -1.208185 0.000000 -0.667453 0.000000 0.000000
    6 0.000000 -0.763066 -0.000001 -0.277445 0.000000 0.000000
    7 0.105981 -2.607132 -0.278957 -0.403946 0.054194 -0.010195
    8 0.000000 -1.250579 0.000000 -0.278048 0.000000 0.000000
    9 -0.000001 -0.932634 0.000000 -0.633239 0.000000 0.000000
    10 0.763064 -2.490553 -0.278957 -0.349065 0.000000 0.130900
    11 -0.012322 -1.280917 0.000000 -0.344614 0.000000 0.000000
    12 -0.001697 -0.749371 -0.000001 -0.559670 0.000000 0.000000
    13 0.354567 0.016268 0.318133 0.830707 -0.922543 -1.227839
    14 1.887164 0.012878 0.000000 -0.104295 -0.197841 -0.275670
    15 1.001874 -0.000270 0.000000 0.000000 0.000000 -0.155430
    16 -1.123359 -2.195091 -0.278957 -0.156516 0.013626 -0.001073
    17 0.010771 -0.963790 0.000000 -0.367623 0.000000 0.000000
    18 -0.010411 -0.631916 0.000000 -0.693033 0.000000 0.000000
    19 -4.902005 4.842183 -9.193934 0.790237 1.318993 0.567375
    20 0.089928 -8.543162 0.000000 0.079760 -0.284688 0.455199
    21 0.000000 -0.359714 0.000001 0.000000 0.000000 0.000000
    22 -0.170480 -2.636147 -0.277655 -0.820310 0.000000 0.000000
    23 0.010599 -1.261177 0.000001 -0.584663 0.000000 0.000000
    24 -0.000001 -0.943232 0.000001 -0.532326 0.000000 0.000000
    25 -0.827563 -2.508973 -0.277656 -0.942498 0.000000 0.000000
    26 0.000000 -1.292970 0.000000 -0.287990 0.000000 0.000000
    27 0.000000 -0.752466 0.000001 -0.445059 0.000000 0.000000
    28 0.444212 -2.561960 -0.277654 -1.081537 -0.046226 -0.024599
    29 0.021022 -1.208186 -0.000001 -0.427606 0.000000 0.000000
    30 0.010597 -0.741867 -0.000002 -0.453786 0.000000 0.000000
    31 1.047444 -2.222821 -0.277654 -1.019678 -0.066950 -0.041090
    32 0.000000 -0.996222 -0.000001 -0.584686 0.000000 0.000000
    33 -0.000001 -0.614690 0.000000 -0.523599 0.000000 0.000000
    34 -0.308254 -0.007814 0.307167 -0.318048 -0.539825 -2.424633
    35 1.978377 0.019543 0.000001 -0.000002 -0.000010 0.549774
    36 0.982426 0.003186 0.000000 0.000000 0.000000 0.593405
  time 21
    0 3.336889 1.524982 -10.721479 -0.857401 -2.767900 -0.347780
    1 0.000000 -8.563282 0.000001 -0.362043 0.045153 -0.172443
    2 -1.151531 17.305379 23.861902 -1.205412 1.106299 -1.376893
    3 -0.003480 -0.404830 0.000000 0.000000 0.000000 0.000000
    4 -0.519309 -2.501153 -0.278956 -0.258627 0.037668 -0.005934
    5 -0.010598 -1.208185 0.000000 -0.716041 0.000000 0.000000
    6 0.000000 -0.763066 -0.000001 -0.318083 0.000000 0.000000
    7 0.105981 -2.607132 -0.278957 -0.420641 0.054194 -0.010195
    8 0.000000 -1.250579 0.000000 -0.340414 0.000000 0.000000
    9 -0.000001 -0.932634 0.000000 -0.707963 0.000000 0.000000
    10 0.763064 -2.490553 -0.278957 -0.349065 0.000000 0.130900
    11 -0.012322 -1.280917 0.000000 -0.395376 0.000000 0.000000
    12 -0.001697 -0.749371 -0.000001 -0.603181 0.000000 0.000000
    13 0.354567 0.016268 0.318133 0.817428 -0.902912 -1.212295
    14 1.887164 0.012878 0.000000 -0.096685 -0.201628 -0.313955
    15 1.001874 -0.000270 0.000000 0.000000 0.000000 -0.202584
    16 -1.123359 -2.195091 -0.278957 -0.156516 0.013626 -0.001073
    17 0.010771 -0.963790 0.000000 -0.408988 0.000000 0.000000
    18 -0.010411 -0.631916 0.000000 -0.719878 0.000000 0.000000
    19 -4.902005 4.842183 -9.193934 0.790237 1.318993 0.567375
    20 0.089928 -8.543162 0.000000 0.079760 -0.284688 0.455199
    21 0.000000 -0.359714 0.000001 0.000000 0.000000 0.000000
    22 -0.170480 -2.636147 -0.277655 -0.820310 0.000000 0.000000
    23 0.010599 -1.261177 0.000001 -0.584663 0.000000 0.000000
    24 -0.000001 -0.943232 0.000001 -0.532326 0.000000 0.000000
    25 -0.827563 -2.508973 -0.277656 -0.942498 0.000000 0.000000
    26 0.000000 -1.292970 0.000000 -0.287990 0.000000 0.000000
    27 0.000000 -0.752466 0.000001 -0.445059 0.000000 0.000000
    28 0.444212 -2.561960 -0.277654 -1.081537 -0.046226 -0.024599
    29 0.021022 -1.208186 -0.000001 -0.427606 0.000000 0.000000
    30 0.010597 -0.741867 -0.000002 -0.453786 0.000000 0.000000
    31 1.047444 -2.222821 -0.277654 -1.019678 -0.066950 -0.041090
    32 0.000000 -0.996222 -0.000001 -0.584686 0.000000 0.000000
    33 -0.000001 -0.614690 0.000000 -0.523599 0.000000 0.000000
    34 -0.308254 -0.007814 0.307167 -0.318048 -0.539825 -2.424633
    35 1.978377 0.019543 0.000001 -0.000002 -0.000010 0.549774
    36 0.982426 0.003186 0.000000 0.000000 0.000000 0.593405
  time 22
    0 3.446267 2.122657 -10.670696 -0.828753 -2.801350 -0.355885
    1 0.000000 -8.563282 0.000001 -0.380363 0.045153 -0.172443
    2 1.332920 17.129593 21.873560 -1.205412 1.106299 -1.376893
    3 -0.003480 -0.404830 0.000000 0.000000 0.000000 0.000000
    4 -0.519309 -2.501153 -0.278956 -0.278281 0.037668 -0.005934
    5 -0.010598 -1.208185 0.000000 -0.766699 0.000000 0.000000
    6 0.000000 -0.763066 -0.000001 -0.360436 0.000000 0.000000
    7 0.105981 -2.607132 -0.278957 -0.438019 0.054194 -0.010195
    8 0.000000 -1.250579 0.000000 -0.405459 0.000000 0.000000
    9 -0.000001 -0.932634 0.000000 -0.785843 0.000000 0.000000
    10 0.763064 -2.490553 -0.278957 -0.349065 0.000000 0.130900
    11 -0.012322 -1.280917 0.000000 -0.448301 0.000000 0.000000
    12 -0.001697 -0.749371 -0.000001 -0.648561 0.000000 0.000000
    13 0.354567 0.016268 0.318133 0.804460 -0.882358 -1.196942
    14 1.887164 0.012878 0.000000 -0.088620 -0.205260 -0.353929
    15 1.001874 -0.000270 0.000000 0.000000 0.000000 -0.251746
    16 -1.123359 -2.195091 -0.278957 -0.156516 0.013626 -0.001073
    17 0.010771 -0.963790 0.000000 -0.452084 0.000000 0.000000
    18 -0.010411 -0.631916 0.000000 -0.747862 0.000000 0.000000
    19 -4.902005 4.842183 -9.193934 0.790237 1.318993 0.567375
    20 0.089928 -8.543162 0.000000 0.079760 -0.284688 0.455199
    21 0.000000 -0.359714 0.000001 0.000000 0.000000 0.000000
    22 -0.170480 -2.636147 -0.277655 -0.820310 0.000000 0.000000
    23 0.010599 -1.261177 0.000001 -0.584663 0.000000 0.000000
    24 -0.000001 -0.943232 0.000001 -0.532326 0.000000 0.000000
    25 -0.827563 -2.508973 -0.277656 -0.942498 0.000000 0.000000
    26 0.000000 -1.292970 0.000000 -0.287990 0.000000 0.000000
    27 0.000000 -0.752466 0.000001 -0.445059 0.000000 0.000000
    28 0.444212 -2.561960 -0.277654 -1.081537 -0.046226 -0.024599
    29 0.021022 -1.208186 -0.000001 -0.427606 0.000000 0.000000
    30 0.010597 -0.741867 -0.000002 -0.453786 0.000000 0.000000
    31 1.047444 -2.222821 -0.277654 -1.019678 -0.066950 -0.041090
    32 0.000000 -0.996222 -0.000001 -0.584686 0.000000 0.000000
    33 -0.000001 -0.614690 0.000000 -0.523599 0.000000 0.000000
    34 -0.308254 -0.007814 0.307167 -0.318048 -0.539825 -2.424633
    35 1.978377 0.019543 0.000001 -0.000002 -0.000010 0.549774
    36 0.982426 0.003186 0.000000 0.000000 0.000000 0.593405
  time 23
    0 3.704088 2.884399 -10.365999 -0.637825 -2.821583 -0.356253
    1 0.000000 -8.563282 0.000001 -0.391270 0.045153 -0.172443
    2 3.942375 17.098342 19.560989 -1.205412 1.106299 -1.376893
    3 -0.003480 -0.404830 0.000000 0.000000 0.000000 0.000000
    4 -0.519309 -2.501153 -0.278956 -0.298332 0.037668 -0.005934
    5 -0.010598 -1.208185 0.000000 -0.818374 0.000000 0.000000
    6 0.000000 -0.763066 -0.000001 -0.403625 0.000000 0.000000
    7 0.105981 -2.607132 -0.278957 -0.455756 0.054194 -0.010195
    8 0.000000 -1.250579 0.000000 -0.471787 0.000000 0.000000
    9 -0.000001 -0.932634 0.000000 -0.865286 0.000000 0.000000
    10 0.763064 -2.490553 -0.278957 -0.349065 0.000000 0.130900
    11 -0.012322 -1.280917 0.000000 -0.502308 0.000000 0.000000
    12 -0.001697 -0.749371 -0.000001 -0.694836 0.000000 0.000000
    13 0.354567 0.016268 0.318133 0.792044 -0.861242 -1.182081
    14 1.887164 0.012878 0.000000 -0.080230 -0.208639 -0.394776
    15 1.001874 -0.000270 0.000000 0.000000 0.000000 -0.301877
    16 -1.123359 -2.195091 -0.278957 -0.156516 0.013626 -0.001073
    17 0.010771 -0.963790 0.000000 -0.496045 0.000000 0.000000
    18 -0.010411 -0.631916 0.000000 -0.776386 0.000000 0.000000
    19 -4.902005 4.842183 -9.193934 0.790237 1.318993 0.567375
    20 0.089928 -8.543162 0.000000 0.079760 -0.284688 0.455199
    21 0.000000 -0.359714 0.000001 0.000000 0.000000 0.000000
    22 -0.170480 -2.636147 -0.277655 -0.820310 0.000000 0.000000
    23 0.010599 -1.261177 0.000001 -0.584663 0.000000 0.000000
    24 -0.000001 -0.943232 0.000001 -0.532326 0.000000 0.000000
    25 -0.827563 -2.508973 -0.277656 -0.942498 0.000000 0.000000
    26 0.000000 -1.292970 0.000000 -0.287990 0.000000 0.000000
    27 0.000000 -0.752466 0.000001 -0.445059 0.000000 0.000000
    28 0.444212 -2.561960 -0.277654 -1.081537 -0.046226 -0.024599
    29 0.021022 -1.208186 -0.000001 -0.427606 0.000000 0.000000
    30 0.010597 -0.741867 -0.000002 -0.453786 0.000000 0.000000
    31 1.047444 -2.222821 -0.277654 -1.019678 -0.066950 -0.041090
    32 0.000000 -0.996222 -0.000001 -0.584686 0.000000 0.000000
    33 -0.000001 -0.614690 0.000000 -0.523599 0.000000 0.000000
    34 -0.308254 -0.007814 0.307167 -0.318048 -0.539825 -2.424633
    35 1.978377 0.019543 0.000001 -0.000002 -0.000010 0.549774
    36 0.982426 0.003186 0.000000 0.000000 0.000000 0.593405
end
