version 1
nodes
  0 "root" -1
  1 "Bone01" 0
  2 "Bone_Lefthand" 1
  3 "Bone02" 2
  4 "Dummy01" 3
  5 "Bone08" 4
  6 "Dummy02" 3
  7 "Bone26" 6
  8 "Bone16" 3
  9 "Bone34" 3
  10 "Bone24" 3
  11 "Bone_L_Upper" 1
  12 "Bone13" 2
  13 "Bone14" 12
  14 "Bone15" 13
  15 "Bone17" 2
  16 "Bone18" 15
  17 "Bone19" 16
  18 "Bone21" 2
  19 "Bone22" 18
  20 "Bone23" 19
  21 "Bone09" 2
  22 "Bone10" 21
  23 "Bone11" 22
  24 "Bone05" 2
  25 "Bone06" 24
  26 "Bone07" 25
  27 "Bone_Se_Hand-L" 2
  28 "Bone04" 0
  29 "Bone_Righthand" 28
  30 "Bone39" 29
  31 "Bone40" 30
  32 "Bone41" 31
  33 "Bone35" 29
  34 "Bone36" 33
  35 "Bone37" 34
  36 "Bone31" 29
  37 "Bone32" 36
  38 "Bone33" 37
  39 "Bone43" 29
  40 "Bone44" 39
  41 "Bone45" 40
  42 "Bone27" 29
  43 "Bone28" 42
  44 "Bone29" 43
  45 "Bone_Se_Hand-R" 29
  46 "Bone_R_Upper" 28
end
skeleton
  time 0
    0 -0.349399 1.166145 0.203512 0.000000 0.000000 0.000000
    1 12.944705 1.108842 -7.696368 -0.258333 -1.983247 -0.472888
    2 -0.071918 -8.498730 -0.104136 -0.100108 -0.022934 -0.447140
    3 2.672261 -3.383448 0.696208 0.083503 0.128137 -1.585662
    4 8.674173 -0.128572 0.000000 0.000000 0.000000 0.000000
    5 0.000000 0.000000 0.000000 0.000000 0.000000 0.000000
    6 4.045845 -0.586976 0.000000 0.000000 0.000000 0.000000
    7 -33.579150 -30.231391 0.000000 0.000000 0.000000 0.000000
    8 1.039971 -0.940679 0.000000 0.000000 0.000000 -1.570796
    9 4.782106 0.485510 0.407405 0.000000 0.000000 -1.570796
    10 5.548040 -0.183522 0.000000 1.570796 -1.570796 0.000000
    11 1.257180 8.762585 -0.153713 -1.570562 0.002683 -1.566807
    12 -0.488518 -2.755602 -0.228260 -0.518305 -0.074854 -0.310571
    13 0.039887 -1.479790 0.029854 -2.289231 0.000000 0.000001
    14 0.028786 -1.075731 -0.023109 -0.271941 0.000000 0.000000
    15 0.250027 -2.820665 -0.238396 -0.350825 -0.052441 -0.187301
    16 -0.049759 -1.680544 0.100479 -2.246572 0.000000 -0.000002
    17 -0.034142 -1.148312 0.084782 -0.535851 0.000000 0.000000
    18 0.957766 -2.746780 -0.090302 0.329289 -0.172344 0.119866
    19 -0.033420 -1.397129 -0.011257 -1.115580 0.000000 -0.000001
    20 -0.022360 -0.957436 0.018784 -1.148807 0.000000 0.000000
    21 -1.180681 -2.507217 -0.193859 -0.309305 0.033033 -0.314313
    22 -0.024967 -1.123934 0.017597 -2.040737 0.000000 0.000001
    23 -0.020057 -0.890968 0.010090 -0.646720 0.000000 0.000000
    24 0.583510 -1.197277 0.185379 0.371183 -0.693166 -0.903076
    25 1.535927 0.010246 0.005009 -0.002964 -0.012979 -0.682269
    26 1.100771 0.004527 -0.010679 -0.016147 -0.001453 -1.484153
    27 0.120153 -0.050270 -0.054489 0.287569 3.110905 1.561085
    28 4.037956 -4.309357 -18.427627 -0.731601 -5.547745 -0.834789
    29 0.096944 -8.450418 -0.009365 0.075476 -1.267968 0.356845
    30 0.447953 -2.798986 -0.200443 -0.761407 0.042804 0.170619
    31 -0.032909 -1.480204 0.004940 -1.480139 0.000000 0.000002
    32 -0.027022 -1.076920 -0.020210 -0.375135 0.000000 0.000000
    33 -0.249534 -2.846964 -0.174213 -0.318562 0.002631 0.073866
    34 0.043235 -1.683941 0.096012 -1.876275 0.002823 -0.000167
    35 0.031729 -1.160830 0.058838 -0.099745 0.000642 0.008372
    36 -0.963866 -2.785145 -0.085350 0.076866 0.070929 0.053157
    37 0.028479 -1.403067 0.006271 -1.337909 0.000000 0.000000
    38 0.021413 -0.957781 0.020046 -1.052173 0.000000 0.000000
    39 1.164475 -2.543940 -0.170330 -1.221927 -0.015463 0.162804
    40 0.024032 -1.129042 0.017807 -0.900877 0.000000 0.000001
    41 0.014898 -0.883989 -0.019848 -0.928571 0.000000 0.000000
    42 -0.586770 -1.264477 0.200161 0.142840 0.047853 -2.845550
    43 1.522835 0.058681 0.016848 0.001410 0.008985 0.389915
    44 1.117947 0.048424 -0.005766 -0.002568 -0.011344 -0.376757
    45 -0.139399 -0.111698 0.014397 0.774181 0.191172 1.472862
    46 -6.260806 6.983652 -0.294122 1.580804 -0.005023 -0.912799
  time 1
    0 -0.349399 1.166145 0.203512 0.000000 0.000000 0.000000
    1 13.362687 1.288535 -7.231510 -0.206927 -1.966449 -0.508880
    2 -0.071918 -8.498730 -0.104136 -0.098865 -0.022575 -0.445318
    3 2.672261 -3.383448 0.696208 0.083503 0.128137 -1.585662
    4 8.674173 -0.128572 0.000000 0.000000 0.000000 0.000000
    5 0.000000 0.000000 0.000000 0.000000 0.000000 0.000000
    6 4.045845 -0.586976 0.000000 0.000000 0.000000 0.000000
    7 -33.579150 -30.231391 0.000000 0.000000 0.000000 0.000000
    8 1.039971 -0.940679 0.000000 0.000000 0.000000 -1.570796
    9 4.782106 0.485510 0.407405 0.000000 0.000000 -1.570796
    10 5.548040 -0.183522 0.000000 1.570796 -1.570796 0.000000
    11 1.257180 8.762585 -0.153713 -1.570562 0.002683 -1.566807
    12 -0.488518 -2.755602 -0.228260 -0.518305 -0.074854 -0.310571
    13 0.039887 -1.479790 0.029854 -2.289231 0.000000 0.000001
    14 0.028786 -1.075731 -0.023109 -0.271941 0.000000 0.000000
    15 0.250027 -2.820665 -0.238396 -0.350825 -0.052441 -0.187301
    16 -0.049759 -1.680544 0.100479 -2.246572 0.000000 -0.000002
    17 -0.034142 -1.148312 0.084782 -0.535851 0.000000 0.000000
    18 0.957766 -2.746780 -0.090302 0.329289 -0.172344 0.119866
    19 -0.033420 -1.397129 -0.011257 -1.115580 0.000000 -0.000001
    20 -0.022360 -0.957436 0.018784 -1.148807 0.000000 0.000000
    21 -1.180681 -2.507217 -0.193859 -0.309305 0.033033 -0.314313
    22 -0.024967 -1.123934 0.017597 -2.040737 0.000000 0.000001
    23 -0.020057 -0.890968 0.010090 -0.646720 0.000000 0.000000
    24 0.583510 -1.197277 0.185379 0.371183 -0.693166 -0.903076
    25 1.535927 0.010246 0.005009 -0.002964 -0.012979 -0.682290
    26 1.100771 0.004527 -0.010679 -0.016147 -0.001453 -1.484153
    27 0.120153 -0.050270 -0.054489 0.287569 3.110905 1.561085
    28 4.248900 -4.352327 -17.685417 -0.767965 -5.539486 -0.847565
    29 0.096944 -8.450418 -0.009365 0.075476 -1.267968 0.356845
    30 0.447953 -2.798986 -0.200443 -0.761407 0.042804 0.170619
    31 -0.032909 -1.480204 0.004940 -1.480139 0.000000 0.000002
    32 -0.027022 -1.076920 -0.020210 -0.375135 0.000000 0.000000
    33 -0.249534 -2.846964 -0.174213 -0.318562 0.002631 0.073866
    34 0.043235 -1.683941 0.096012 -1.876275 0.002823 -0.000167
    35 0.031729 -1.160830 0.058838 -0.099745 0.000642 0.008372
    36 -0.963866 -2.785145 -0.085350 0.076866 0.070929 0.053157
    37 0.028479 -1.403067 0.006271 -1.337909 0.000000 0.000000
    38 0.021413 -0.957781 0.020046 -1.052173 0.000000 0.000000
    39 1.164475 -2.543940 -0.170330 -1.221927 -0.015463 0.162804
    40 0.024032 -1.129042 0.017807 -0.900877 0.000000 0.000001
    41 0.014898 -0.883989 -0.019848 -0.928571 0.000000 0.000000
    42 -0.586770 -1.264477 0.200161 0.143053 0.046894 -2.839051
    43 1.522835 0.058681 0.016848 0.001410 0.008985 0.396507
    44 1.117947 0.048424 -0.005766 -0.002568 -0.011344 -0.370188
    45 -0.139399 -0.111698 0.014397 0.774181 0.191172 1.472862
    46 -6.260806 6.983652 -0.294122 1.580804 -0.005023 -0.912799
  time 2
    0 -0.349399 1.166145 0.203512 0.000000 0.000000 0.000000
    1 13.761136 1.464321 -6.786184 -0.151355 -1.949938 -0.549976
    2 -0.071918 -8.498730 -0.104136 -0.095303 -0.021556 -0.440165
    3 2.672261 -3.383448 0.696208 0.083503 0.128137 -1.585662
    4 8.674173 -0.128572 0.000000 0.000000 0.000000 0.000000
    5 0.000000 0.000000 0.000000 0.000000 0.000000 0.000000
    6 4.045845 -0.586976 0.000000 0.000000 0.000000 0.000000
    7 -33.579150 -30.231391 0.000000 0.000000 0.000000 0.000000
    8 1.039971 -0.940679 0.000000 0.000000 0.000000 -1.570796
    9 4.782106 0.485510 0.407405 0.000000 0.000000 -1.570796
    10 5.548040 -0.183522 0.000000 1.570796 -1.570796 0.000000
    11 1.257180 8.762585 -0.153713 -1.570562 0.002683 -1.566807
    12 -0.488518 -2.755602 -0.228260 -0.518305 -0.074854 -0.310571
    13 0.039887 -1.479790 0.029854 -2.289231 0.000000 0.000001
    14 0.028786 -1.075731 -0.023109 -0.271941 0.000000 0.000000
    15 0.250027 -2.820665 -0.238396 -0.350825 -0.052441 -0.187301
    16 -0.049759 -1.680544 0.100479 -2.246572 0.000000 -0.000002
    17 -0.034142 -1.148312 0.084782 -0.535851 0.000000 0.000000
    18 0.957766 -2.746780 -0.090302 0.329289 -0.172344 0.119866
    19 -0.033420 -1.397129 -0.011257 -1.115580 0.000000 -0.000001
    20 -0.022360 -0.957436 0.018784 -1.148807 0.000000 0.000000
    21 -1.180681 -2.507217 -0.193859 -0.309305 0.033033 -0.314313
    22 -0.024967 -1.123934 0.017597 -2.040737 0.000000 0.000001
    23 -0.020057 -0.890968 0.010090 -0.646720 0.000000 0.000000
    24 0.583510 -1.197277 0.185379 0.371183 -0.693166 -0.903076
    25 1.535927 0.010246 0.005009 -0.002964 -0.012979 -0.682290
    26 1.100771 0.004527 -0.010679 -0.016147 -0.001453 -1.484153
    27 0.120153 -0.050270 -0.054489 0.287569 3.110905 1.561085
    28 4.416874 -4.426548 -16.947113 -0.810557 -5.532237 -0.864822
    29 0.096944 -8.450418 -0.009365 0.075476 -1.267968 0.356845
    30 0.447953 -2.798986 -0.200443 -0.761407 0.042804 0.170619
    31 -0.032909 -1.480204 0.004940 -1.480139 0.000000 0.000002
    32 -0.027022 -1.076920 -0.020210 -0.375135 0.000000 0.000000
    33 -0.249534 -2.846964 -0.174213 -0.318562 0.002631 0.073866
    34 0.043235 -1.683941 0.096012 -1.876275 0.002823 -0.000167
    35 0.031729 -1.160830 0.058838 -0.099745 0.000642 0.008372
    36 -0.963866 -2.785145 -0.085350 0.076866 0.070929 0.053157
    37 0.028479 -1.403067 0.006271 -1.337909 0.000000 0.000000
    38 0.021413 -0.957781 0.020046 -1.052173 0.000000 0.000000
    39 1.164475 -2.543940 -0.170330 -1.221927 -0.015463 0.162804
    40 0.024032 -1.129042 0.017807 -0.900877 0.000000 0.000001
    41 0.014898 -0.883989 -0.019848 -0.928571 0.000000 0.000000
    42 -0.586770 -1.264477 0.200161 0.143587 0.044272 -2.821389
    43 1.522835 0.058681 0.016848 0.001410 0.008985 0.414333
    44 1.117947 0.048424 -0.005766 -0.002568 -0.011344 -0.352332
    45 -0.139399 -0.111698 0.014397 0.774181 0.191172 1.472862
    46 -6.260806 6.983652 -0.294122 1.580804 -0.005023 -0.912799
  time 3
    0 -0.349399 1.166145 0.203512 0.000000 0.000000 0.000000
    1 14.120522 1.636202 -6.379921 -0.091450 -1.934183 -0.595837
    2 -0.071918 -8.498730 -0.104136 -0.089614 -0.019938 -0.432099
    3 2.672261 -3.383448 0.696208 0.083503 0.128137 -1.585662
    4 8.674173 -0.128572 0.000000 0.000000 0.000000 0.000000
    5 0.000000 0.000000 0.000000 0.000000 0.000000 0.000000
    6 4.045845 -0.586976 0.000000 0.000000 0.000000 0.000000
    7 -33.579150 -30.231391 0.000000 0.000000 0.000000 0.000000
    8 1.039971 -0.940679 0.000000 0.000000 0.000000 -1.570796
    9 4.782106 0.485510 0.407405 0.000000 0.000000 -1.570796
    10 5.548040 -0.183522 0.000000 1.570796 -1.570796 0.000000
    11 1.257180 8.762585 -0.153713 -1.570562 0.002683 -1.566807
    12 -0.488518 -2.755602 -0.228260 -0.518305 -0.074854 -0.310571
    13 0.039887 -1.479790 0.029854 -2.289231 0.000000 0.000001
    14 0.028786 -1.075731 -0.023109 -0.271941 0.000000 0.000000
    15 0.250027 -2.820665 -0.238396 -0.350825 -0.052441 -0.187301
    16 -0.049759 -1.680544 0.100479 -2.246572 0.000000 -0.000002
    17 -0.034142 -1.148312 0.084782 -0.535851 0.000000 0.000000
    18 0.957766 -2.746780 -0.090302 0.329289 -0.172344 0.119866
    19 -0.033420 -1.397129 -0.011257 -1.115580 0.000000 -0.000001
    20 -0.022360 -0.957436 0.018784 -1.148807 0.000000 0.000000
    21 -1.180681 -2.507217 -0.193859 -0.309305 0.033033 -0.314313
    22 -0.024967 -1.123934 0.017597 -2.040737 0.000000 0.000001
    23 -0.020057 -0.890968 0.010090 -0.646720 0.000000 0.000000
    24 0.583510 -1.197277 0.185379 0.371183 -0.693166 -0.903076
    25 1.535927 0.010246 0.005009 -0.002964 -0.012979 -0.682290
    26 1.100771 0.004527 -0.010679 -0.016147 -0.001453 -1.484153
    27 0.120153 -0.050270 -0.054489 0.287569 3.110905 1.561085
    28 4.534065 -4.539832 -16.228341 -0.858305 -5.526548 -0.885035
    29 0.096944 -8.450418 -0.009365 0.075476 -1.267968 0.356845
    30 0.447953 -2.798986 -0.200443 -0.761407 0.042804 0.170619
    31 -0.032909 -1.480204 0.004940 -1.480139 0.000000 0.000002
    32 -0.027022 -1.076920 -0.020210 -0.375135 0.000000 0.000000
    33 -0.249534 -2.846964 -0.174213 -0.318562 0.002631 0.073866
    34 0.043235 -1.683941 0.096012 -1.876275 0.002823 -0.000167
    35 0.031729 -1.160830 0.058838 -0.099745 0.000642 0.008372
    36 -0.963866 -2.785145 -0.085350 0.076866 0.070929 0.053157
    37 0.028479 -1.403067 0.006271 -1.337909 0.000000 0.000000
    38 0.021413 -0.957781 0.020046 -1.052173 0.000000 0.000000
    39 1.164475 -2.543940 -0.170330 -1.221927 -0.015463 0.162804
    40 0.024032 -1.129042 0.017807 -0.900877 0.000000 0.000001
    41 0.014898 -0.883989 -0.019848 -0.928571 0.000000 0.000000
    42 -0.586770 -1.264477 0.200161 0.144398 0.040424 -2.795380
    43 1.522835 0.058681 0.016848 0.001410 0.008985 0.440638
    44 1.117947 0.048424 -0.005766 -0.002568 -0.011344 -0.326054
    45 -0.139399 -0.111698 0.014397 0.774181 0.191172 1.472862
    46 -6.260806 6.983652 -0.294122 1.580804 -0.005023 -0.912799
  time 4
    0 -0.349399 1.166145 0.203512 0.000000 0.000000 0.000000
    1 14.421313 1.788550 -6.040067 -0.027379 -1.919759 -0.645357
    2 -0.071918 -8.498730 -0.104136 -0.082060 -0.017769 -0.421565
    3 2.672261 -3.383448 0.696208 0.083503 0.128137 -1.585662
    4 8.674173 -0.128572 0.000000 0.000000 0.000000 0.000000
    5 0.000000 0.000000 0.000000 0.000000 0.000000 0.000000
    6 4.045845 -0.586976 0.000000 0.000000 0.000000 0.000000
    7 -33.579150 -30.231391 0.000000 0.000000 0.000000 0.000000
    8 1.039971 -0.940679 0.000000 0.000000 0.000000 -1.570796
    9 4.782106 0.485510 0.407405 0.000000 0.000000 -1.570796
    10 5.548040 -0.183522 0.000000 1.570796 -1.570796 0.000000
    11 1.257180 8.762585 -0.153713 -1.570562 0.002683 -1.566807
    12 -0.488518 -2.755602 -0.228260 -0.518305 -0.074854 -0.310571
    13 0.039887 -1.479790 0.029854 -2.289231 0.000000 0.000001
    14 0.028786 -1.075731 -0.023109 -0.271941 0.000000 0.000000
    15 0.250027 -2.820665 -0.238396 -0.350825 -0.052441 -0.187301
    16 -0.049759 -1.680544 0.100479 -2.246572 0.000000 -0.000002
    17 -0.034142 -1.148312 0.084782 -0.535851 0.000000 0.000000
    18 0.957766 -2.746780 -0.090302 0.329289 -0.172344 0.119866
    19 -0.033420 -1.397129 -0.011257 -1.115580 0.000000 -0.000001
    20 -0.022360 -0.957436 0.018784 -1.148807 0.000000 0.000000
    21 -1.180681 -2.507217 -0.193859 -0.309305 0.033033 -0.314313
    22 -0.024967 -1.123934 0.017597 -2.040737 0.000000 0.000001
    23 -0.020057 -0.890968 0.010090 -0.646720 0.000000 0.000000
    24 0.583510 -1.197277 0.185379 0.371183 -0.693166 -0.903076
    25 1.535927 0.010246 0.005009 -0.002964 -0.012979 -0.682290
    26 1.100771 0.004527 -0.010679 -0.016147 -0.001453 -1.484153
    27 0.120153 -0.050270 -0.054489 0.287569 3.110905 1.561085
    28 4.592661 -4.696087 -15.556445 -0.910072 -5.522693 -0.906488
    29 0.096944 -8.450418 -0.009365 0.075476 -1.267968 0.356845
    30 0.447953 -2.798986 -0.200443 -0.761407 0.042804 0.170619
    31 -0.032909 -1.480204 0.004940 -1.480139 0.000000 0.000002
    32 -0.027022 -1.076920 -0.020210 -0.375135 0.000000 0.000000
    33 -0.249534 -2.846964 -0.174213 -0.318562 0.002631 0.073866
    34 0.043235 -1.683941 0.096012 -1.876275 0.002823 -0.000167
    35 0.031729 -1.160830 0.058838 -0.099745 0.000642 0.008372
    36 -0.963866 -2.785145 -0.085350 0.076866 0.070929 0.053157
    37 0.028479 -1.403067 0.006271 -1.337909 0.000000 0.000000
    38 0.021413 -0.957781 0.020046 -1.052173 0.000000 0.000000
    39 1.164475 -2.543940 -0.170330 -1.221927 -0.015463 0.162804
    40 0.024032 -1.129042 0.017807 -0.900877 0.000000 0.000001
    41 0.014898 -0.883989 -0.019848 -0.928571 0.000000 0.000000
    42 -0.586770 -1.264477 0.200161 0.145358 0.035744 -2.763782
    43 1.522835 0.058681 0.016848 0.001410 0.008985 0.472545
    44 1.117947 0.048424 -0.005766 -0.002568 -0.011344 -0.294121
    45 -0.139399 -0.111698 0.014397 0.774181 0.191172 1.472862
    46 -6.260806 6.983652 -0.294122 1.580804 -0.005023 -0.912799
  time 5
    0 -0.349399 1.166145 0.203512 0.000000 0.000000 0.000000
    1 14.640069 1.925273 -5.778340 0.040274 -1.907061 -0.697345
    2 -0.071918 -8.498730 -0.104136 -0.072880 -0.015108 -0.408993
    3 2.672261 -3.383448 0.696208 0.083503 0.128137 -1.585662
    4 8.674173 -0.128572 0.000000 0.000000 0.000000 0.000000
    5 0.000000 0.000000 0.000000 0.000000 0.000000 0.000000
    6 4.045845 -0.586976 0.000000 0.000000 0.000000 0.000000
    7 -33.579150 -30.231391 0.000000 0.000000 0.000000 0.000000
    8 1.039971 -0.940679 0.000000 0.000000 0.000000 -1.570796
    9 4.782106 0.485510 0.407405 0.000000 0.000000 -1.570796
    10 5.548040 -0.183522 0.000000 1.570796 -1.570796 0.000000
    11 1.257180 8.762585 -0.153713 -1.570562 0.002683 -1.566807
    12 -0.488518 -2.755602 -0.228260 -0.518305 -0.074854 -0.310571
    13 0.039887 -1.479790 0.029854 -2.289231 0.000000 0.000001
    14 0.028786 -1.075731 -0.023109 -0.271941 0.000000 0.000000
    15 0.250027 -2.820665 -0.238396 -0.350825 -0.052441 -0.187301
    16 -0.049759 -1.680544 0.100479 -2.246572 0.000000 -0.000002
    17 -0.034142 -1.148312 0.084782 -0.535851 0.000000 0.000000
    18 0.957766 -2.746780 -0.090302 0.329289 -0.172344 0.119866
    19 -0.033420 -1.397129 -0.011257 -1.115580 0.000000 -0.000001
    20 -0.022360 -0.957436 0.018784 -1.148807 0.000000 0.000000
    21 -1.180681 -2.507217 -0.193859 -0.309305 0.033033 -0.314313
    22 -0.024967 -1.123934 0.017597 -2.040737 0.000000 0.000001
    23 -0.020057 -0.890968 0.010090 -0.646720 0.000000 0.000000
    24 0.583510 -1.197277 0.185379 0.371183 -0.693166 -0.903076
    25 1.535927 0.010246 0.005009 -0.002964 -0.012979 -0.682290
    26 1.100771 0.004527 -0.010679 -0.016147 -0.001453 -1.484153
    27 0.120153 -0.050270 -0.054489 0.287569 3.110905 1.561085
    28 4.588754 -4.910938 -14.954865 -0.964584 -5.520858 -0.927750
    29 0.096944 -8.450418 -0.009365 0.075476 -1.267968 0.356845
    30 0.447953 -2.798986 -0.200443 -0.761407 0.042804 0.170619
    31 -0.032909 -1.480204 0.004940 -1.480139 0.000000 0.000002
    32 -0.027022 -1.076920 -0.020210 -0.375135 0.000000 0.000000
    33 -0.249534 -2.846964 -0.174213 -0.318562 0.002631 0.073866
    34 0.043235 -1.683941 0.096012 -1.876275 0.002823 -0.000167
    35 0.031729 -1.160830 0.058838 -0.099745 0.000642 0.008372
    36 -0.963866 -2.785145 -0.085350 0.076866 0.070929 0.053157
    37 0.028479 -1.403067 0.006271 -1.337909 0.000000 0.000000
    38 0.021413 -0.957781 0.020046 -1.052173 0.000000 0.000000
    39 1.164475 -2.543940 -0.170330 -1.221927 -0.015463 0.162804
    40 0.024032 -1.129042 0.017807 -0.900877 0.000000 0.000001
    41 0.014898 -0.883989 -0.019848 -0.928571 0.000000 0.000000
    42 -0.586770 -1.264477 0.200161 0.146425 0.030655 -2.729396
    43 1.522835 0.058681 0.016848 0.001410 0.008985 0.507299
    44 1.117947 0.048424 -0.005766 -0.002568 -0.011344 -0.259372
    45 -0.139399 -0.111698 0.014397 0.774181 0.191172 1.472862
    46 -6.260806 6.983652 -0.294122 1.580804 -0.005023 -0.912799
  time 6
    0 -0.349399 1.166145 0.203512 0.000000 0.000000 0.000000
    1 14.757261 2.038558 -5.625992 0.110343 -1.896486 -0.749843
    2 -0.071918 -8.498730 -0.104136 -0.062242 -0.012016 -0.394815
    3 2.672261 -3.383448 0.696208 0.083503 0.128137 -1.585662
    4 8.674173 -0.128572 0.000000 0.000000 0.000000 0.000000
    5 0.000000 0.000000 0.000000 0.000000 0.000000 0.000000
    6 4.045845 -0.586976 0.000000 0.000000 0.000000 0.000000
    7 -33.579150 -30.231391 0.000000 0.000000 0.000000 0.000000
    8 1.039971 -0.940679 0.000000 0.000000 0.000000 -1.570796
    9 4.782106 0.485510 0.407405 0.000000 0.000000 -1.570796
    10 5.548040 -0.183522 0.000000 1.570796 -1.570796 0.000000
    11 1.257180 8.762585 -0.153713 -1.570562 0.002683 -1.566807
    12 -0.488518 -2.755602 -0.228260 -0.518305 -0.074854 -0.310571
    13 0.039887 -1.479790 0.029854 -2.289231 0.000000 0.000001
    14 0.028786 -1.075731 -0.023109 -0.271941 0.000000 0.000000
    15 0.250027 -2.820665 -0.238396 -0.350825 -0.052441 -0.187301
    16 -0.049759 -1.680544 0.100479 -2.246572 0.000000 -0.000002
    17 -0.034142 -1.148312 0.084782 -0.535851 0.000000 0.000000
    18 0.957766 -2.746780 -0.090302 0.329289 -0.172344 0.119866
    19 -0.033420 -1.397129 -0.011257 -1.115580 0.000000 -0.000001
    20 -0.022360 -0.957436 0.018784 -1.148807 0.000000 0.000000
    21 -1.180681 -2.507217 -0.193859 -0.309305 0.033033 -0.314313
    22 -0.024967 -1.123934 0.017597 -2.040737 0.000000 0.000001
    23 -0.020057 -0.890968 0.010090 -0.646720 0.000000 0.000000
    24 0.583510 -1.197277 0.185379 0.371183 -0.693166 -0.903076
    25 1.535927 0.010246 0.005009 -0.002964 -0.012979 -0.682290
    26 1.100771 0.004527 -0.010679 -0.016147 -0.001453 -1.484153
    27 0.120153 -0.050270 -0.054489 0.287569 3.110905 1.561085
    28 4.510627 -5.188290 -14.443130 -1.020704 -5.521317 -0.947010
    29 0.096944 -8.450418 -0.009365 0.075476 -1.267968 0.356845
    30 0.447953 -2.798986 -0.200443 -0.761407 0.042804 0.170619
    31 -0.032909 -1.480204 0.004940 -1.480139 0.000000 0.000002
    32 -0.027022 -1.076920 -0.020210 -0.375135 0.000000 0.000000
    33 -0.249534 -2.846964 -0.174213 -0.318562 0.002631 0.073866
    34 0.043235 -1.683941 0.096012 -1.876275 0.002823 -0.000167
    35 0.031729 -1.160830 0.058838 -0.099745 0.000642 0.008372
    36 -0.963866 -2.785145 -0.085350 0.076866 0.070929 0.053157
    37 0.028479 -1.403067 0.006271 -1.337909 0.000000 0.000000
    38 0.021413 -0.957781 0.020046 -1.052173 0.000000 0.000000
    39 1.164475 -2.543940 -0.170330 -1.221927 -0.015463 0.162804
    40 0.024032 -1.129042 0.017807 -0.900877 0.000000 0.000001
    41 0.014898 -0.883989 -0.019848 -0.928571 0.000000 0.000000
    42 -0.586770 -1.264477 0.200161 0.147492 0.025552 -2.695010
    43 1.522835 0.058681 0.016848 0.001410 0.008985 0.542053
    44 1.117947 0.048424 -0.005766 -0.002568 -0.011344 -0.224624
    45 -0.139399 -0.111698 0.014397 0.774181 0.191172 1.472862
    46 -6.260806 6.983652 -0.294122 1.580804 -0.005023 -0.912799
  time 7
    0 -0.349399 1.166145 0.203512 0.000000 0.000000 0.000000
    1 14.757261 2.124498 -5.594741 0.181163 -1.888212 -0.800639
    2 -0.071918 -8.498730 -0.104136 -0.050457 -0.008565 -0.379475
    3 2.672261 -3.383448 0.696208 0.083503 0.128137 -1.585662
    4 8.674173 -0.128572 0.000000 0.000000 0.000000 0.000000
    5 0.000000 0.000000 0.000000 0.000000 0.000000 0.000000
    6 4.045845 -0.586976 0.000000 0.000000 0.000000 0.000000
    7 -33.579150 -30.231391 0.000000 0.000000 0.000000 0.000000
    8 1.039971 -0.940679 0.000000 0.000000 0.000000 -1.570796
    9 4.782106 0.485510 0.407405 0.000000 0.000000 -1.570796
    10 5.548040 -0.183522 0.000000 1.570796 -1.570796 0.000000
    11 1.257180 8.762585 -0.153713 -1.570562 0.002683 -1.566807
    12 -0.488518 -2.755602 -0.228260 -0.518305 -0.074854 -0.310571
    13 0.039887 -1.479790 0.029854 -2.289231 0.000000 0.000001
    14 0.028786 -1.075731 -0.023109 -0.271941 0.000000 0.000000
    15 0.250027 -2.820665 -0.238396 -0.350825 -0.052441 -0.187301
    16 -0.049759 -1.680544 0.100479 -2.246572 0.000000 -0.000002
    17 -0.034142 -1.148312 0.084782 -0.535851 0.000000 0.000000
    18 0.957766 -2.746780 -0.090302 0.329289 -0.172344 0.119866
    19 -0.033420 -1.397129 -0.011257 -1.115580 0.000000 -0.000001
    20 -0.022360 -0.957436 0.018784 -1.148807 0.000000 0.000000
    21 -1.180681 -2.507217 -0.193859 -0.309305 0.033033 -0.314313
    22 -0.024967 -1.123934 0.017597 -2.040737 0.000000 0.000001
    23 -0.020057 -0.890968 0.010090 -0.646720 0.000000 0.000000
    24 0.583510 -1.197277 0.185379 0.371183 -0.693166 -0.903076
    25 1.535927 0.010246 0.005009 -0.002964 -0.012979 -0.682290
    26 1.100771 0.004527 -0.010679 -0.016147 -0.001453 -1.484153
    27 0.120153 -0.050270 -0.054489 0.287569 3.110905 1.561085
    28 4.354372 -5.532050 -14.048587 -1.077024 -5.523886 -0.962551
    29 0.096944 -8.450418 -0.009365 0.075476 -1.267968 0.356845
    30 0.447953 -2.798986 -0.200443 -0.761407 0.042804 0.170619
    31 -0.032909 -1.480204 0.004940 -1.480139 0.000000 0.000002
    32 -0.027022 -1.076920 -0.020210 -0.375135 0.000000 0.000000
    33 -0.249534 -2.846964 -0.174213 -0.318562 0.002631 0.073866
    34 0.043235 -1.683941 0.096012 -1.876275 0.002823 -0.000167
    35 0.031729 -1.160830 0.058838 -0.099745 0.000642 0.008372
    36 -0.963866 -2.785145 -0.085350 0.076866 0.070929 0.053157
    37 0.028479 -1.403067 0.006271 -1.337909 0.000000 0.000000
    38 0.021413 -0.957781 0.020046 -1.052173 0.000000 0.000000
    39 1.164475 -2.543940 -0.170330 -1.221927 -0.015463 0.162804
    40 0.024032 -1.129042 0.017807 -0.900877 0.000000 0.000001
    41 0.014898 -0.883989 -0.019848 -0.928571 0.000000 0.000000
    42 -0.586770 -1.264477 0.200161 0.148452 0.020872 -2.663412
    43 1.522835 0.058681 0.016848 0.001410 0.008985 0.573960
    44 1.117947 0.048424 -0.005766 -0.002568 -0.011344 -0.192714
    45 -0.139399 -0.111698 0.014397 0.774181 0.191172 1.472862
    46 -6.260806 6.983652 -0.294122 1.580804 -0.005023 -0.912799
  time 8
    0 -0.349399 1.166145 0.203512 0.000000 0.000000 0.000000
    1 14.628350 2.183093 -5.696307 0.253398 -1.882709 -0.849563
    2 -0.071918 -8.498730 -0.104136 -0.037692 -0.004813 -0.363391
    3 2.672261 -3.383448 0.696208 0.083503 0.128137 -1.585662
    4 8.674173 -0.128572 0.000000 0.000000 0.000000 0.000000
    5 0.000000 0.000000 0.000000 0.000000 0.000000 0.000000
    6 4.045845 -0.586976 0.000000 0.000000 0.000000 0.000000
    7 -33.579150 -30.231391 0.000000 0.000000 0.000000 0.000000
    8 1.039971 -0.940679 0.000000 0.000000 0.000000 -1.570796
    9 4.782106 0.485510 0.407405 0.000000 0.000000 -1.570796
    10 5.548040 -0.183522 0.000000 1.570796 -1.570796 0.000000
    11 1.257180 8.762585 -0.153713 -1.570562 0.002683 -1.566807
    12 -0.488518 -2.755602 -0.228260 -0.518305 -0.074854 -0.310571
    13 0.039887 -1.479790 0.029854 -2.289231 0.000000 0.000001
    14 0.028786 -1.075731 -0.023109 -0.271941 0.000000 0.000000
    15 0.250027 -2.820665 -0.238396 -0.350825 -0.052441 -0.187301
    16 -0.049759 -1.680544 0.100479 -2.246572 0.000000 -0.000002
    17 -0.034142 -1.148312 0.084782 -0.535851 0.000000 0.000000
    18 0.957766 -2.746780 -0.090302 0.329289 -0.172344 0.119866
    19 -0.033420 -1.397129 -0.011257 -1.115580 0.000000 -0.000001
    20 -0.022360 -0.957436 0.018784 -1.148807 0.000000 0.000000
    21 -1.180681 -2.507217 -0.193859 -0.309305 0.033033 -0.314313
    22 -0.024967 -1.123934 0.017597 -2.040737 0.000000 0.000001
    23 -0.020057 -0.890968 0.010090 -0.646720 0.000000 0.000000
    24 0.583510 -1.197277 0.185379 0.371183 -0.693166 -0.903076
    25 1.535927 0.010246 0.005009 -0.002964 -0.012979 -0.682290
    26 1.100771 0.004527 -0.010679 -0.016147 -0.001453 -1.484153
    27 0.120153 -0.050270 -0.054489 0.287569 3.110905 1.561085
    28 4.131709 -5.957844 -13.779047 -1.133345 -5.528842 -0.973611
    29 0.096944 -8.450418 -0.009365 0.075476 -1.267968 0.356845
    30 0.447953 -2.798986 -0.200443 -0.761407 0.042804 0.170619
    31 -0.032909 -1.480204 0.004940 -1.480139 0.000000 0.000002
    32 -0.027022 -1.076920 -0.020210 -0.375135 0.000000 0.000000
    33 -0.249534 -2.846964 -0.174213 -0.318562 0.002631 0.073866
    34 0.043235 -1.683941 0.096012 -1.876275 0.002823 -0.000167
    35 0.031729 -1.160830 0.058838 -0.099745 0.000642 0.008372
    36 -0.963866 -2.785145 -0.085350 0.076866 0.070929 0.053157
    37 0.028479 -1.403067 0.006271 -1.337909 0.000000 0.000000
    38 0.021413 -0.957781 0.020046 -1.052173 0.000000 0.000000
    39 1.164475 -2.543940 -0.170330 -1.221927 -0.015463 0.162804
    40 0.024032 -1.129042 0.017807 -0.900877 0.000000 0.000001
    41 0.014898 -0.883989 -0.019848 -0.928571 0.000000 0.000000
    42 -0.586770 -1.264477 0.200161 0.149263 0.017023 -2.637388
    43 1.522835 0.058681 0.016848 0.001410 0.008985 0.600266
    44 1.117947 0.048424 -0.005766 -0.002568 -0.011344 -0.166412
    45 -0.139399 -0.111698 0.014397 0.774181 0.191172 1.472862
    46 -6.260806 6.983652 -0.294122 1.580804 -0.005023 -0.912799
  time 9
    0 -0.349399 1.166145 0.203512 0.000000 0.000000 0.000000
    1 14.397875 2.226063 -5.911157 0.327550 -1.879903 -0.897296
    2 -0.071918 -8.498730 -0.104136 -0.024185 -0.000799 -0.347020
    3 2.672261 -3.383448 0.696208 0.083503 0.128137 -1.585662
    4 8.674173 -0.128572 0.000000 0.000000 0.000000 0.000000
    5 0.000000 0.000000 0.000000 0.000000 0.000000 0.000000
    6 4.045845 -0.586976 0.000000 0.000000 0.000000 0.000000
    7 -33.579150 -30.231391 0.000000 0.000000 0.000000 0.000000
    8 1.039971 -0.940679 0.000000 0.000000 0.000000 -1.570796
    9 4.782106 0.485510 0.407405 0.000000 0.000000 -1.570796
    10 5.548040 -0.183522 0.000000 1.570796 -1.570796 0.000000
    11 1.257180 8.762585 -0.153713 -1.570562 0.002683 -1.566807
    12 -0.488518 -2.755602 -0.228260 -0.518305 -0.074854 -0.310571
    13 0.039887 -1.479790 0.029854 -2.289231 0.000000 0.000001
    14 0.028786 -1.075731 -0.023109 -0.271941 0.000000 0.000000
    15 0.250027 -2.820665 -0.238396 -0.350825 -0.052441 -0.187301
    16 -0.049759 -1.680544 0.100479 -2.246572 0.000000 -0.000002
    17 -0.034142 -1.148312 0.084782 -0.535851 0.000000 0.000000
    18 0.957766 -2.746780 -0.090302 0.329289 -0.172344 0.119866
    19 -0.033420 -1.397129 -0.011257 -1.115580 0.000000 -0.000001
    20 -0.022360 -0.957436 0.018784 -1.148807 0.000000 0.000000
    21 -1.180681 -2.507217 -0.193859 -0.309305 0.033033 -0.314313
    22 -0.024967 -1.123934 0.017597 -2.040737 0.000000 0.000001
    23 -0.020057 -0.890968 0.010090 -0.646720 0.000000 0.000000
    24 0.583510 -1.197277 0.185379 0.371183 -0.693166 -0.903076
    25 1.535927 0.010246 0.005009 -0.002964 -0.012979 -0.682290
    26 1.100771 0.004527 -0.010679 -0.016147 -0.001453 -1.484153
    27 0.120153 -0.050270 -0.054489 0.287569 3.110905 1.561085
    28 3.858263 -6.446141 -13.603261 -1.189598 -5.535908 -0.980476
    29 0.096944 -8.450418 -0.009365 0.075476 -1.267968 0.356845
    30 0.447953 -2.798986 -0.200443 -0.761407 0.042804 0.170619
    31 -0.032909 -1.480204 0.004940 -1.480139 0.000000 0.000002
    32 -0.027022 -1.076920 -0.020210 -0.375135 0.000000 0.000000
    33 -0.249534 -2.846964 -0.174213 -0.318562 0.002631 0.073866
    34 0.043235 -1.683941 0.096012 -1.876275 0.002823 -0.000167
    35 0.031729 -1.160830 0.058838 -0.099745 0.000642 0.008372
    36 -0.963866 -2.785145 -0.085350 0.076866 0.070929 0.053157
    37 0.028479 -1.403067 0.006271 -1.337909 0.000000 0.000000
    38 0.021413 -0.957781 0.020046 -1.052173 0.000000 0.000000
    39 1.164475 -2.543940 -0.170330 -1.221927 -0.015463 0.162804
    40 0.024032 -1.129042 0.017807 -0.900877 0.000000 0.000001
    41 0.014898 -0.883989 -0.019848 -0.928571 0.000000 0.000000
    42 -0.586770 -1.264477 0.200161 0.149796 0.014401 -2.619726
    43 1.522835 0.058681 0.016848 0.001410 0.008985 0.618123
    44 1.117947 0.048424 -0.005766 -0.002568 -0.011344 -0.148581
    45 -0.139399 -0.111698 0.014397 0.774181 0.191172 1.472862
    46 -6.260806 6.983652 -0.294122 1.580804 -0.005023 -0.912799
  time 10
    0 -0.349399 1.166145 0.203512 0.000000 0.000000 0.000000
    1 14.089271 2.257314 -6.211947 0.401785 -1.879112 -0.943073
    2 -0.071918 -8.498730 -0.104136 -0.010201 0.003396 -0.330769
    3 2.672261 -3.383448 0.696208 0.083503 0.128137 -1.585662
    4 8.674173 -0.128572 0.000000 0.000000 0.000000 0.000000
    5 0.000000 0.000000 0.000000 0.000000 0.000000 0.000000
    6 4.045845 -0.586976 0.000000 0.000000 0.000000 0.000000
    7 -33.579150 -30.231391 0.000000 0.000000 0.000000 0.000000
    8 1.039971 -0.940679 0.000000 0.000000 0.000000 -1.570796
    9 4.782106 0.485510 0.407405 0.000000 0.000000 -1.570796
    10 5.548040 -0.183522 0.000000 1.570796 -1.570796 0.000000
    11 1.257180 8.762585 -0.153713 -1.570562 0.002683 -1.566807
    12 -0.488518 -2.755602 -0.228260 -0.518305 -0.074854 -0.310571
    13 0.039887 -1.479790 0.029854 -2.289231 0.000000 0.000001
    14 0.028786 -1.075731 -0.023109 -0.271941 0.000000 0.000000
    15 0.250027 -2.820665 -0.238396 -0.350825 -0.052441 -0.187301
    16 -0.049759 -1.680544 0.100479 -2.246572 0.000000 -0.000002
    17 -0.034142 -1.148312 0.084782 -0.535851 0.000000 0.000000
    18 0.957766 -2.746780 -0.090302 0.329289 -0.172344 0.119866
    19 -0.033420 -1.397129 -0.011257 -1.115580 0.000000 -0.000001
    20 -0.022360 -0.957436 0.018784 -1.148807 0.000000 0.000000
    21 -1.180681 -2.507217 -0.193859 -0.309305 0.033033 -0.314313
    22 -0.024967 -1.123934 0.017597 -2.040737 0.000000 0.000001
    23 -0.020057 -0.890968 0.010090 -0.646720 0.000000 0.000000
    24 0.583510 -1.197277 0.185379 0.371183 -0.693166 -0.903076
    25 1.535927 0.010246 0.005009 -0.002964 -0.012979 -0.682290
    26 1.100771 0.004527 -0.010679 -0.016147 -0.001453 -1.484153
    27 0.120153 -0.050270 -0.054489 0.287569 3.110905 1.561085
    28 3.557473 -6.973500 -13.497789 -1.244914 -5.544075 -0.983622
    29 0.096944 -8.450418 -0.009365 0.075476 -1.267968 0.356845
    30 0.447953 -2.798986 -0.200443 -0.761407 0.042804 0.170619
    31 -0.032909 -1.480204 0.004940 -1.480139 0.000000 0.000002
    32 -0.027022 -1.076920 -0.020210 -0.375135 0.000000 0.000000
    33 -0.249534 -2.846964 -0.174213 -0.318562 0.002631 0.073866
    34 0.043235 -1.683941 0.096012 -1.876275 0.002823 -0.000167
    35 0.031729 -1.160830 0.058838 -0.099745 0.000642 0.008372
    36 -0.963866 -2.785145 -0.085350 0.076866 0.070929 0.053157
    37 0.028479 -1.403067 0.006271 -1.337909 0.000000 0.000000
    38 0.021413 -0.957781 0.020046 -1.052173 0.000000 0.000000
    39 1.164475 -2.543940 -0.170330 -1.221927 -0.015463 0.162804
    40 0.024032 -1.129042 0.017807 -0.900877 0.000000 0.000001
    41 0.014898 -0.883989 -0.019848 -0.928571 0.000000 0.000000
    42 -0.586770 -1.264477 0.200161 0.150010 0.013443 -2.613227
    43 1.522835 0.058681 0.016848 0.001410 0.008985 0.624684
    44 1.117947 0.048424 -0.005766 -0.002568 -0.011344 -0.141987
    45 -0.139399 -0.111698 0.014397 0.774181 0.191172 1.472862
    46 -6.260806 6.983652 -0.294122 1.580804 -0.005023 -0.912799
  time 11
    0 -0.349399 1.166145 0.203512 0.000000 0.000000 0.000000
    1 13.722073 2.272940 -6.571333 0.474521 -1.879615 -0.986381
    2 -0.071918 -8.498730 -0.104136 0.004071 0.007722 -0.315093
    3 2.672261 -3.383448 0.696208 0.083503 0.128137 -1.585662
    4 8.674173 -0.128572 0.000000 0.000000 0.000000 0.000000
    5 0.000000 0.000000 0.000000 0.000000 0.000000 0.000000
    6 4.045845 -0.586976 0.000000 0.000000 0.000000 0.000000
    7 -33.579150 -30.231391 0.000000 0.000000 0.000000 0.000000
    8 1.039971 -0.940679 0.000000 0.000000 0.000000 -1.570796
    9 4.782106 0.485510 0.407405 0.000000 0.000000 -1.570796
    10 5.548040 -0.183522 0.000000 1.570796 -1.570796 0.000000
    11 1.257180 8.762585 -0.153713 -1.570562 0.002683 -1.566807
    12 -0.488518 -2.755602 -0.228260 -0.518305 -0.074854 -0.310571
    13 0.039887 -1.479790 0.029854 -2.289231 0.000000 0.000001
    14 0.028786 -1.075731 -0.023109 -0.271941 0.000000 0.000000
    15 0.250027 -2.820665 -0.238396 -0.350825 -0.052441 -0.187301
    16 -0.049759 -1.680544 0.100479 -2.246572 0.000000 -0.000002
    17 -0.034142 -1.148312 0.084782 -0.535851 0.000000 0.000000
    18 0.957766 -2.746780 -0.090302 0.329289 -0.172344 0.119866
    19 -0.033420 -1.397129 -0.011257 -1.115580 0.000000 -0.000001
    20 -0.022360 -0.957436 0.018784 -1.148807 0.000000 0.000000
    21 -1.180681 -2.507217 -0.193859 -0.309305 0.033033 -0.314313
    22 -0.024967 -1.123934 0.017597 -2.040737 0.000000 0.000001
    23 -0.020057 -0.890968 0.010090 -0.646720 0.000000 0.000000
    24 0.583510 -1.197277 0.185379 0.371183 -0.693166 -0.903076
    25 1.535927 0.010246 0.005009 -0.002964 -0.012979 -0.682290
    26 1.100771 0.004527 -0.010679 -0.016147 -0.001453 -1.484153
    27 0.120153 -0.050270 -0.054489 0.287569 3.110905 1.561085
    28 3.248870 -7.512579 -13.443100 -1.298556 -5.552425 -0.983622
    29 0.096944 -8.450418 -0.009365 0.075476 -1.267968 0.356845
    30 0.447953 -2.798986 -0.200443 -0.761407 0.042804 0.170619
    31 -0.032909 -1.480204 0.004940 -1.480139 0.000000 0.000002
    32 -0.027022 -1.076920 -0.020210 -0.375135 0.000000 0.000000
    33 -0.249534 -2.846964 -0.174213 -0.318562 0.002631 0.073866
    34 0.043235 -1.683941 0.096012 -1.876275 0.002823 -0.000167
    35 0.031729 -1.160830 0.058838 -0.099745 0.000642 0.008372
    36 -0.963866 -2.785145 -0.085350 0.076866 0.070929 0.053157
    37 0.028479 -1.403067 0.006271 -1.337909 0.000000 0.000000
    38 0.021413 -0.957781 0.020046 -1.052173 0.000000 0.000000
    39 1.164475 -2.543940 -0.170330 -1.221927 -0.015463 0.162804
    40 0.024032 -1.129042 0.017807 -0.900877 0.000000 0.000001
    41 0.014898 -0.883989 -0.019848 -0.928571 0.000000 0.000000
    42 -0.586770 -1.264477 0.200161 0.150010 0.013443 -2.613227
    43 1.522835 0.058681 0.016848 0.001410 0.008985 0.624684
    44 1.117947 0.048424 -0.005766 -0.002568 -0.011344 -0.141987
    45 -0.139399 -0.111698 0.014397 0.774181 0.191172 1.472862
    46 -6.260806 6.983652 -0.294122 1.580804 -0.005023 -0.912799
  time 12
    0 -0.349399 1.166145 0.203512 0.000000 0.000000 0.000000
    1 13.323623 2.276846 -6.961970 0.545090 -1.880731 -1.027648
    2 -0.071918 -8.498730 -0.104136 0.018366 0.012121 -0.300424
    3 2.672261 -3.383448 0.696208 0.083503 0.128137 -1.585662
    4 8.674173 -0.128572 0.000000 0.000000 0.000000 0.000000
    5 0.000000 0.000000 0.000000 0.000000 0.000000 0.000000
    6 4.045845 -0.586976 0.000000 0.000000 0.000000 0.000000
    7 -33.579150 -30.231391 0.000000 0.000000 0.000000 0.000000
    8 1.039971 -0.940679 0.000000 0.000000 0.000000 -1.570796
    9 4.782106 0.485510 0.407405 0.000000 0.000000 -1.570796
    10 5.548040 -0.183522 0.000000 1.570796 -1.570796 0.000000
    11 1.257180 8.762585 -0.153713 -1.570562 0.002683 -1.566807
    12 -0.488518 -2.755602 -0.228260 -0.518305 -0.074854 -0.310571
    13 0.039887 -1.479790 0.029854 -2.289231 0.000000 0.000001
    14 0.028786 -1.075731 -0.023109 -0.271941 0.000000 0.000000
    15 0.250027 -2.820665 -0.238396 -0.350825 -0.052441 -0.187301
    16 -0.049759 -1.680544 0.100479 -2.246572 0.000000 -0.000002
    17 -0.034142 -1.148312 0.084782 -0.535851 0.000000 0.000000
    18 0.957766 -2.746780 -0.090302 0.329289 -0.172344 0.119866
    19 -0.033420 -1.397129 -0.011257 -1.115580 0.000000 -0.000001
    20 -0.022360 -0.957436 0.018784 -1.148807 0.000000 0.000000
    21 -1.180681 -2.507217 -0.193859 -0.309305 0.033033 -0.314313
    22 -0.024967 -1.123934 0.017597 -2.040737 0.000000 0.000001
    23 -0.020057 -0.890968 0.010090 -0.646720 0.000000 0.000000
    24 0.583510 -1.197277 0.185379 0.371183 -0.693166 -0.903076
    25 1.535927 0.010246 0.005009 -0.002964 -0.012979 -0.682290
    26 1.100771 0.004527 -0.010679 -0.016147 -0.001453 -1.484153
    27 0.120153 -0.050270 -0.054489 0.287569 3.110905 1.561085
    28 2.940267 -8.047752 -13.419662 -1.349719 -5.559767 -0.981238
    29 0.096944 -8.450418 -0.009365 0.075476 -1.267968 0.356845
    30 0.447953 -2.798986 -0.200443 -0.761407 0.042804 0.170619
    31 -0.032909 -1.480204 0.004940 -1.480139 0.000000 0.000002
    32 -0.027022 -1.076920 -0.020210 -0.375135 0.000000 0.000000
    33 -0.249534 -2.846964 -0.174213 -0.318562 0.002631 0.073866
    34 0.043235 -1.683941 0.096012 -1.876275 0.002823 -0.000167
    35 0.031729 -1.160830 0.058838 -0.099745 0.000642 0.008372
    36 -0.963866 -2.785145 -0.085350 0.076866 0.070929 0.053157
    37 0.028479 -1.403067 0.006271 -1.337909 0.000000 0.000000
    38 0.021413 -0.957781 0.020046 -1.052173 0.000000 0.000000
    39 1.164475 -2.543940 -0.170330 -1.221927 -0.015463 0.162804
    40 0.024032 -1.129042 0.017807 -0.900877 0.000000 0.000001
    41 0.014898 -0.883989 -0.019848 -0.928571 0.000000 0.000000
    42 -0.586770 -1.264477 0.200161 0.150010 0.013443 -2.613227
    43 1.522835 0.058681 0.016848 0.001410 0.008985 0.624684
    44 1.117947 0.048424 -0.005766 -0.002568 -0.011344 -0.141987
    45 -0.139399 -0.111698 0.014397 0.774181 0.191172 1.472862
    46 -6.260806 6.983652 -0.294122 1.580804 -0.005023 -0.912799
  time 13
    0 -0.349399 1.166145 0.203512 0.000000 0.000000 0.000000
    1 12.913454 2.269034 -7.360420 0.613160 -1.881702 -1.067383
    2 -0.071918 -8.498730 -0.104136 0.032494 0.016519 -0.287193
    3 2.672261 -3.383448 0.696208 0.083503 0.128137 -1.585662
    4 8.674173 -0.128572 0.000000 0.000000 0.000000 0.000000
    5 0.000000 0.000000 0.000000 0.000000 0.000000 0.000000
    6 4.045845 -0.586976 0.000000 0.000000 0.000000 0.000000
    7 -33.579150 -30.231391 0.000000 0.000000 0.000000 0.000000
    8 1.039971 -0.940679 0.000000 0.000000 0.000000 -1.570796
    9 4.782106 0.485510 0.407405 0.000000 0.000000 -1.570796
    10 5.548040 -0.183522 0.000000 1.570796 -1.570796 0.000000
    11 1.257180 8.762585 -0.153713 -1.570562 0.002683 -1.566807
    12 -0.488518 -2.755602 -0.228260 -0.518305 -0.074854 -0.310571
    13 0.039887 -1.479790 0.029854 -2.289231 0.000000 0.000001
    14 0.028786 -1.075731 -0.023109 -0.271941 0.000000 0.000000
    15 0.250027 -2.820665 -0.238396 -0.350825 -0.052441 -0.187301
    16 -0.049759 -1.680544 0.100479 -2.246572 0.000000 -0.000002
    17 -0.034142 -1.148312 0.084782 -0.535851 0.000000 0.000000
    18 0.957766 -2.746780 -0.090302 0.329289 -0.172344 0.119866
    19 -0.033420 -1.397129 -0.011257 -1.115580 0.000000 -0.000001
    20 -0.022360 -0.957436 0.018784 -1.148807 0.000000 0.000000
    21 -1.180681 -2.507217 -0.193859 -0.309305 0.033033 -0.314313
    22 -0.024967 -1.123934 0.017597 -2.040737 0.000000 0.000001
    23 -0.020057 -0.890968 0.010090 -0.646720 0.000000 0.000000
    24 0.583510 -1.197277 0.185379 0.371183 -0.693166 -0.903076
    25 1.535927 0.010246 0.005009 -0.002964 -0.012979 -0.682290
    26 1.100771 0.004527 -0.010679 -0.016147 -0.001453 -1.484153
    27 0.120153 -0.050270 -0.054489 0.287569 3.110905 1.561085
    28 2.647289 -8.555580 -13.415755 -1.397937 -5.565364 -0.977329
    29 0.096944 -8.450418 -0.009365 0.075476 -1.267968 0.356845
    30 0.447953 -2.798986 -0.200443 -0.761407 0.042804 0.170619
    31 -0.032909 -1.480204 0.004940 -1.480139 0.000000 0.000002
    32 -0.027022 -1.076920 -0.020210 -0.375135 0.000000 0.000000
    33 -0.249534 -2.846964 -0.174213 -0.318562 0.002631 0.073866
    34 0.043235 -1.683941 0.096012 -1.876275 0.002823 -0.000167
    35 0.031729 -1.160830 0.058838 -0.099745 0.000642 0.008372
    36 -0.963866 -2.785145 -0.085350 0.076866 0.070929 0.053157
    37 0.028479 -1.403067 0.006271 -1.337909 0.000000 0.000000
    38 0.021413 -0.957781 0.020046 -1.052173 0.000000 0.000000
    39 1.164475 -2.543940 -0.170330 -1.221927 -0.015463 0.162804
    40 0.024032 -1.129042 0.017807 -0.900877 0.000000 0.000001
    41 0.014898 -0.883989 -0.019848 -0.928571 0.000000 0.000000
    42 -0.586770 -1.264477 0.200161 0.150010 0.013443 -2.613227
    43 1.522835 0.058681 0.016848 0.001410 0.008985 0.624684
    44 1.117947 0.048424 -0.005766 -0.002568 -0.011344 -0.141987
    45 -0.139399 -0.111698 0.014397 0.774181 0.191172 1.472862
    46 -6.260806 6.983652 -0.294122 1.580804 -0.005023 -0.912799
  time 14
    0 -0.349399 1.166145 0.203512 0.000000 0.000000 0.000000
    1 12.511098 2.257314 -7.735431 0.678730 -1.881918 -1.106778
    2 -0.071918 -8.498730 -0.104136 0.046192 0.020881 -0.275832
    3 2.672261 -3.383448 0.696208 0.083503 0.128137 -1.585662
    4 8.674173 -0.128572 0.000000 0.000000 0.000000 0.000000
    5 0.000000 0.000000 0.000000 0.000000 0.000000 0.000000
    6 4.045845 -0.586976 0.000000 0.000000 0.000000 0.000000
    7 -33.579150 -30.231391 0.000000 0.000000 0.000000 0.000000
    8 1.039971 -0.940679 0.000000 0.000000 0.000000 -1.570796
    9 4.782106 0.485510 0.407405 0.000000 0.000000 -1.570796
    10 5.548040 -0.183522 0.000000 1.570796 -1.570796 0.000000
    11 1.257180 8.762585 -0.153713 -1.570562 0.002683 -1.566807
    12 -0.488518 -2.755602 -0.228260 -0.518305 -0.074854 -0.310571
    13 0.039887 -1.479790 0.029854 -2.289231 0.000000 0.000001
    14 0.028786 -1.075731 -0.023109 -0.271941 0.000000 0.000000
    15 0.250027 -2.820665 -0.238396 -0.350825 -0.052441 -0.187301
    16 -0.049759 -1.680544 0.100479 -2.246572 0.000000 -0.000002
    17 -0.034142 -1.148312 0.084782 -0.535851 0.000000 0.000000
    18 0.957766 -2.746780 -0.090302 0.329289 -0.172344 0.119866
    19 -0.033420 -1.397129 -0.011257 -1.115580 0.000000 -0.000001
    20 -0.022360 -0.957436 0.018784 -1.148807 0.000000 0.000000
    21 -1.180681 -2.507217 -0.193859 -0.309305 0.033033 -0.314313
    22 -0.024967 -1.123934 0.017597 -2.040737 0.000000 0.000001
    23 -0.020057 -0.890968 0.010090 -0.646720 0.000000 0.000000
    24 0.583510 -1.197277 0.185379 0.371183 -0.693166 -0.903076
    25 1.535927 0.010246 0.005009 -0.002964 -0.012979 -0.682290
    26 1.100771 0.004527 -0.010679 -0.016147 -0.001453 -1.484153
    27 0.120153 -0.050270 -0.054489 0.287569 3.110905 1.561085
    28 2.373843 -9.016532 -13.407942 -1.442538 -5.568117 -0.972657
    29 0.096944 -8.450418 -0.009365 0.075476 -1.267968 0.356845
    30 0.447953 -2.798986 -0.200443 -0.761407 0.042804 0.170619
    31 -0.032909 -1.480204 0.004940 -1.480139 0.000000 0.000002
    32 -0.027022 -1.076920 -0.020210 -0.375135 0.000000 0.000000
    33 -0.249534 -2.846964 -0.174213 -0.318562 0.002631 0.073866
    34 0.043235 -1.683941 0.096012 -1.876275 0.002823 -0.000167
    35 0.031729 -1.160830 0.058838 -0.099745 0.000642 0.008372
    36 -0.963866 -2.785145 -0.085350 0.076866 0.070929 0.053157
    37 0.028479 -1.403067 0.006271 -1.337909 0.000000 0.000000
    38 0.021413 -0.957781 0.020046 -1.052173 0.000000 0.000000
    39 1.164475 -2.543940 -0.170330 -1.221927 -0.015463 0.162804
    40 0.024032 -1.129042 0.017807 -0.900877 0.000000 0.000001
    41 0.014898 -0.883989 -0.019848 -0.928571 0.000000 0.000000
    42 -0.586770 -1.264477 0.200161 0.150010 0.013443 -2.613227
    43 1.522835 0.058681 0.016848 0.001410 0.008985 0.624684
    44 1.117947 0.048424 -0.005766 -0.002568 -0.011344 -0.141987
    45 -0.139399 -0.111698 0.014397 0.774181 0.191172 1.472862
    46 -6.260806 6.983652 -0.294122 1.580804 -0.005023 -0.912799
  time 15
    0 -0.349399 1.166145 0.203512 0.000000 0.000000 0.000000
    1 12.147806 2.237783 -8.063566 0.742384 -1.880695 -1.147449
    2 -0.071918 -8.498730 -0.104136 0.061993 0.026035 -0.265381
    3 2.672261 -3.383448 0.696208 0.083503 0.128137 -1.585662
    4 8.674173 -0.128572 0.000000 0.000000 0.000000 0.000000
    5 0.000000 0.000000 0.000000 0.000000 0.000000 0.000000
    6 4.045845 -0.586976 0.000000 0.000000 0.000000 0.000000
    7 -33.579150 -30.231391 0.000000 0.000000 0.000000 0.000000
    8 1.039971 -0.940679 0.000000 0.000000 0.000000 -1.570796
    9 4.782106 0.485510 0.407405 0.000000 0.000000 -1.570796
    10 5.548040 -0.183522 0.000000 1.570796 -1.570796 0.000000
    11 1.257180 8.762585 -0.153713 -1.570562 0.002683 -1.566807
    12 -0.488518 -2.755602 -0.228260 -0.518305 -0.074854 -0.310571
    13 0.039887 -1.479790 0.029854 -2.289231 0.000000 0.000001
    14 0.028786 -1.075731 -0.023109 -0.271941 0.000000 0.000000
    15 0.250027 -2.820665 -0.238396 -0.350825 -0.052441 -0.187301
    16 -0.049759 -1.680544 0.100479 -2.246572 0.000000 -0.000002
    17 -0.034142 -1.148312 0.084782 -0.535851 0.000000 0.000000
    18 0.957766 -2.746780 -0.090302 0.329289 -0.172344 0.119866
    19 -0.033420 -1.397129 -0.011257 -1.115580 0.000000 -0.000001
    20 -0.022360 -0.957436 0.018784 -1.148807 0.000000 0.000000
    21 -1.180681 -2.507217 -0.193859 -0.309305 0.033033 -0.314313
    22 -0.024967 -1.123934 0.017597 -2.040737 0.000000 0.000001
    23 -0.020057 -0.890968 0.010090 -0.646720 0.000000 0.000000
    24 0.583510 -1.197277 0.185379 0.371183 -0.693166 -0.903076
    25 1.535927 0.010246 0.005009 -0.002964 -0.012979 -0.682290
    26 1.100771 0.004527 -0.010679 -0.016147 -0.001453 -1.484153
    27 0.120153 -0.050270 -0.054489 0.287569 3.110905 1.561085
    28 2.127742 -9.442326 -13.364972 -1.485732 -5.567842 -0.967699
    29 0.096944 -8.450418 -0.009365 0.075476 -1.267968 0.356845
    30 0.447953 -2.798986 -0.200443 -0.761407 0.042804 0.170619
    31 -0.032909 -1.480204 0.004940 -1.480139 0.000000 0.000002
    32 -0.027022 -1.076920 -0.020210 -0.375135 0.000000 0.000000
    33 -0.249534 -2.846964 -0.174213 -0.318562 0.002631 0.073866
    34 0.043235 -1.683941 0.096012 -1.876275 0.002823 -0.000167
    35 0.031729 -1.160830 0.058838 -0.099745 0.000642 0.008372
    36 -0.963866 -2.785145 -0.085350 0.076866 0.070929 0.053157
    37 0.028479 -1.403067 0.006271 -1.337909 0.000000 0.000000
    38 0.021413 -0.957781 0.020046 -1.052173 0.000000 0.000000
    39 1.164475 -2.543940 -0.170330 -1.221927 -0.015463 0.162804
    40 0.024032 -1.129042 0.017807 -0.900877 0.000000 0.000001
    41 0.014898 -0.883989 -0.019848 -0.928571 0.000000 0.000000
    42 -0.586770 -1.264477 0.200161 0.150010 0.013443 -2.613227
    43 1.522835 0.058681 0.016848 0.001410 0.008985 0.624684
    44 1.117947 0.048424 -0.005766 -0.002568 -0.011344 -0.141987
    45 -0.139399 -0.111698 0.014397 0.774181 0.191172 1.472862
    46 -6.260806 6.983652 -0.294122 1.580804 -0.005023 -0.912799
  time 16
    0 -0.349399 1.166145 0.203512 0.000000 0.000000 0.000000
    1 11.843109 2.214344 -8.317480 0.804955 -1.877529 -1.191268
    2 -0.071918 -8.498730 -0.104136 0.081643 0.032590 -0.254823
    3 2.672261 -3.383448 0.696208 0.083503 0.128137 -1.585662
    4 8.674173 -0.128572 0.000000 0.000000 0.000000 0.000000
    5 0.000000 0.000000 0.000000 0.000000 0.000000 0.000000
    6 4.045845 -0.586976 0.000000 0.000000 0.000000 0.000000
    7 -33.579150 -30.231391 0.000000 0.000000 0.000000 0.000000
    8 1.039971 -0.940679 0.000000 0.000000 0.000000 -1.570796
    9 4.782106 0.485510 0.407405 0.000000 0.000000 -1.570796
    10 5.548040 -0.183522 0.000000 1.570796 -1.570796 0.000000
    11 1.257180 8.762585 -0.153713 -1.570562 0.002683 -1.566807
    12 -0.488518 -2.755602 -0.228260 -0.518305 -0.074854 -0.310571
    13 0.039887 -1.479790 0.029854 -2.289231 0.000000 0.000001
    14 0.028786 -1.075731 -0.023109 -0.271941 0.000000 0.000000
    15 0.250027 -2.820665 -0.238396 -0.350825 -0.052441 -0.187301
    16 -0.049759 -1.680544 0.100479 -2.246572 0.000000 -0.000002
    17 -0.034142 -1.148312 0.084782 -0.535851 0.000000 0.000000
    18 0.957766 -2.746780 -0.090302 0.329289 -0.172344 0.119866
    19 -0.033420 -1.397129 -0.011257 -1.115580 0.000000 -0.000001
    20 -0.022360 -0.957436 0.018784 -1.148807 0.000000 0.000000
    21 -1.180681 -2.507217 -0.193859 -0.309305 0.033033 -0.314313
    22 -0.024967 -1.123934 0.017597 -2.040737 0.000000 0.000001
    23 -0.020057 -0.890968 0.010090 -0.646720 0.000000 0.000000
    24 0.583510 -1.197277 0.185379 0.371183 -0.693166 -0.903076
    25 1.535927 0.010246 0.005009 -0.002964 -0.012979 -0.682290
    26 1.100771 0.004527 -0.010679 -0.016147 -0.001453 -1.484153
    27 0.120153 -0.050270 -0.054489 0.287569 3.110905 1.561085
    28 1.912892 -9.840775 -13.263407 -1.529329 -5.563988 -0.963218
    29 0.096944 -8.450418 -0.009365 0.075476 -1.267968 0.356845
    30 0.447953 -2.798986 -0.200443 -0.761407 0.042804 0.170619
    31 -0.032909 -1.480204 0.004940 -1.480139 0.000000 0.000002
    32 -0.027022 -1.076920 -0.020210 -0.375135 0.000000 0.000000
    33 -0.249534 -2.846964 -0.174213 -0.318562 0.002631 0.073866
    34 0.043235 -1.683941 0.096012 -1.876275 0.002823 -0.000167
    35 0.031729 -1.160830 0.058838 -0.099745 0.000642 0.008372
    36 -0.963866 -2.785145 -0.085350 0.076866 0.070929 0.053157
    37 0.028479 -1.403067 0.006271 -1.337909 0.000000 0.000000
    38 0.021413 -0.957781 0.020046 -1.052173 0.000000 0.000000
    39 1.164475 -2.543940 -0.170330 -1.221927 -0.015463 0.162804
    40 0.024032 -1.129042 0.017807 -0.900877 0.000000 0.000001
    41 0.014898 -0.883989 -0.019848 -0.928571 0.000000 0.000000
    42 -0.586770 -1.264477 0.200161 0.150010 0.013443 -2.613227
    43 1.522835 0.058681 0.016848 0.001410 0.008985 0.624684
    44 1.117947 0.048424 -0.005766 -0.002568 -0.011344 -0.141987
    45 -0.139399 -0.111698 0.014397 0.774181 0.191172 1.472862
    46 -6.260806 6.983652 -0.294122 1.580804 -0.005023 -0.912799
  time 17
    0 -0.349399 1.166145 0.203512 0.000000 0.000000 0.000000
    1 11.581382 2.179187 -8.504986 0.868692 -1.871414 -1.240873
    2 -0.071918 -8.498730 -0.104136 0.103899 0.040093 -0.244408
    3 2.672261 -3.383448 0.696208 0.083503 0.128137 -1.585662
    4 8.674173 -0.128572 0.000000 0.000000 0.000000 0.000000
    5 0.000000 0.000000 0.000000 0.000000 0.000000 0.000000
    6 4.045845 -0.586976 0.000000 0.000000 0.000000 0.000000
    7 -33.579150 -30.231391 0.000000 0.000000 0.000000 0.000000
    8 1.039971 -0.940679 0.000000 0.000000 0.000000 -1.570796
    9 4.782106 0.485510 0.407405 0.000000 0.000000 -1.570796
    10 5.548040 -0.183522 0.000000 1.570796 -1.570796 0.000000
    11 1.257180 8.762585 -0.153713 -1.570562 0.002683 -1.566807
    12 -0.488518 -2.755602 -0.228260 -0.518305 -0.074854 -0.310571
    13 0.039887 -1.479790 0.029854 -2.289231 0.000000 0.000001
    14 0.028786 -1.075731 -0.023109 -0.271941 0.000000 0.000000
    15 0.250027 -2.820665 -0.238396 -0.350825 -0.052441 -0.187301
    16 -0.049759 -1.680544 0.100479 -2.246572 0.000000 -0.000002
    17 -0.034142 -1.148312 0.084782 -0.535851 0.000000 0.000000
    18 0.957766 -2.746780 -0.090302 0.329289 -0.172344 0.119866
    19 -0.033420 -1.397129 -0.011257 -1.115580 0.000000 -0.000001
    20 -0.022360 -0.957436 0.018784 -1.148807 0.000000 0.000000
    21 -1.180681 -2.507217 -0.193859 -0.309305 0.033033 -0.314313
    22 -0.024967 -1.123934 0.017597 -2.040737 0.000000 0.000001
    23 -0.020057 -0.890968 0.010090 -0.646720 0.000000 0.000000
    24 0.583510 -1.197277 0.185379 0.371183 -0.693166 -0.903076
    25 1.535927 0.010246 0.005009 -0.002964 -0.012979 -0.682290
    26 1.100771 0.004527 -0.010679 -0.016147 -0.001453 -1.484153
    27 0.120153 -0.050270 -0.054489 0.287569 3.110905 1.561085
    28 1.709760 -10.196255 -13.118871 -1.572389 -5.555454 -0.960644
    29 0.096944 -8.450418 -0.009365 0.075476 -1.267968 0.356845
    30 0.447953 -2.798986 -0.200443 -0.761407 0.042804 0.170619
    31 -0.032909 -1.480204 0.004940 -1.480139 0.000000 0.000002
    32 -0.027022 -1.076920 -0.020210 -0.375135 0.000000 0.000000
    33 -0.249534 -2.846964 -0.174213 -0.318562 0.002631 0.073866
    34 0.043235 -1.683941 0.096012 -1.876275 0.002823 -0.000167
    35 0.031729 -1.160830 0.058838 -0.099745 0.000642 0.008372
    36 -0.963866 -2.785145 -0.085350 0.076866 0.070929 0.053157
    37 0.028479 -1.403067 0.006271 -1.337909 0.000000 0.000000
    38 0.021413 -0.957781 0.020046 -1.052173 0.000000 0.000000
    39 1.164475 -2.543940 -0.170330 -1.221927 -0.015463 0.162804
    40 0.024032 -1.129042 0.017807 -0.900877 0.000000 0.000001
    41 0.014898 -0.883989 -0.019848 -0.928571 0.000000 0.000000
    42 -0.586770 -1.264477 0.200161 0.150010 0.013443 -2.613227
    43 1.522835 0.058681 0.016848 0.001410 0.008985 0.624684
    44 1.117947 0.048424 -0.005766 -0.002568 -0.011344 -0.141987
    45 -0.139399 -0.111698 0.014397 0.774181 0.191172 1.472862
    46 -6.260806 6.983652 -0.294122 1.580804 -0.005023 -0.912799
  time 18
    0 -0.349399 1.166145 0.203512 0.000000 0.000000 0.000000
    1 11.331375 2.124498 -8.661241 0.935679 -1.862529 -1.297710
    2 -0.071918 -8.498730 -0.104136 0.127398 0.048063 -0.234461
    3 2.672261 -3.383448 0.696208 0.083503 0.128137 -1.585662
    4 8.674173 -0.128572 0.000000 0.000000 0.000000 0.000000
    5 0.000000 0.000000 0.000000 0.000000 0.000000 0.000000
    6 4.045845 -0.586976 0.000000 0.000000 0.000000 0.000000
    7 -33.579150 -30.231391 0.000000 0.000000 0.000000 0.000000
    8 1.039971 -0.940679 0.000000 0.000000 0.000000 -1.570796
    9 4.782106 0.485510 0.407405 0.000000 0.000000 -1.570796
    10 5.548040 -0.183522 0.000000 1.570796 -1.570796 0.000000
    11 1.257180 8.762585 -0.153713 -1.570562 0.002683 -1.566807
    12 -0.488518 -2.755602 -0.228260 -0.518305 -0.074854 -0.310571
    13 0.039887 -1.479790 0.029854 -2.289231 0.000000 0.000001
    14 0.028786 -1.075731 -0.023109 -0.271941 0.000000 0.000000
    15 0.250027 -2.820665 -0.238396 -0.350825 -0.052441 -0.187301
    16 -0.049759 -1.680544 0.100479 -2.246572 0.000000 -0.000002
    17 -0.034142 -1.148312 0.084782 -0.535851 0.000000 0.000000
    18 0.957766 -2.746780 -0.090302 0.329289 -0.172344 0.119866
    19 -0.033420 -1.397129 -0.011257 -1.115580 0.000000 -0.000001
    20 -0.022360 -0.957436 0.018784 -1.148807 0.000000 0.000000
    21 -1.180681 -2.507217 -0.193859 -0.309305 0.033033 -0.314313
    22 -0.024967 -1.123934 0.017597 -2.040737 0.000000 0.000001
    23 -0.020057 -0.890968 0.010090 -0.646720 0.000000 0.000000
    24 0.583510 -1.197277 0.185379 0.371183 -0.693166 -0.903076
    25 1.535927 0.010246 0.005009 -0.002964 -0.012979 -0.682290
    26 1.100771 0.004527 -0.010679 -0.016147 -0.001453 -1.484153
    27 0.120153 -0.050270 -0.054489 0.287569 3.110905 1.561085
    28 1.483191 -10.516577 -12.970429 -1.614311 -5.542056 -0.959881
    29 0.096944 -8.450418 -0.009365 0.075476 -1.267968 0.356845
    30 0.447953 -2.798986 -0.200443 -0.761407 0.042804 0.170619
    31 -0.032909 -1.480204 0.004940 -1.480139 0.000000 0.000002
    32 -0.027022 -1.076920 -0.020210 -0.375135 0.000000 0.000000
    33 -0.249534 -2.846964 -0.174213 -0.318562 0.002631 0.073866
    34 0.043235 -1.683941 0.096012 -1.876275 0.002823 -0.000167
    35 0.031729 -1.160830 0.058838 -0.099745 0.000642 0.008372
    36 -0.963866 -2.785145 -0.085350 0.076866 0.070929 0.053157
    37 0.028479 -1.403067 0.006271 -1.337909 0.000000 0.000000
    38 0.021413 -0.957781 0.020046 -1.052173 0.000000 0.000000
    39 1.164475 -2.543940 -0.170330 -1.221927 -0.015463 0.162804
    40 0.024032 -1.129042 0.017807 -0.900877 0.000000 0.000001
    41 0.014898 -0.883989 -0.019848 -0.928571 0.000000 0.000000
    42 -0.586770 -1.264477 0.200161 0.150010 0.013443 -2.613227
    43 1.522835 0.058681 0.016848 0.001410 0.008985 0.624684
    44 1.117947 0.048424 -0.005766 -0.002568 -0.011344 -0.141987
    45 -0.139399 -0.111698 0.014397 0.774181 0.191172 1.472862
    46 -6.260806 6.983652 -0.294122 1.580804 -0.005023 -0.912799
  time 19
    0 -0.349399 1.166145 0.203512 0.000000 0.000000 0.000000
    1 11.100899 2.054183 -8.790151 1.006748 -1.852098 -1.361780
    2 -0.071918 -8.498730 -0.104136 0.150873 0.056068 -0.225245
    3 2.672261 -3.383448 0.696208 0.083503 0.128137 -1.585662
    4 8.674173 -0.128572 0.000000 0.000000 0.000000 0.000000
    5 0.000000 0.000000 0.000000 0.000000 0.000000 0.000000
    6 4.045845 -0.586976 0.000000 0.000000 0.000000 0.000000
    7 -33.579150 -30.231391 0.000000 0.000000 0.000000 0.000000
    8 1.039971 -0.940679 0.000000 0.000000 0.000000 -1.570796
    9 4.782106 0.485510 0.407405 0.000000 0.000000 -1.570796
    10 5.548040 -0.183522 0.000000 1.570796 -1.570796 0.000000
    11 1.257180 8.762585 -0.153713 -1.570562 0.002683 -1.566807
    12 -0.488518 -2.755602 -0.228260 -0.518305 -0.074854 -0.310571
    13 0.039887 -1.479790 0.029854 -2.289231 0.000000 0.000001
    14 0.028786 -1.075731 -0.023109 -0.271941 0.000000 0.000000
    15 0.250027 -2.820665 -0.238396 -0.350825 -0.052441 -0.187301
    16 -0.049759 -1.680544 0.100479 -2.246572 0.000000 -0.000002
    17 -0.034142 -1.148312 0.084782 -0.535851 0.000000 0.000000
    18 0.957766 -2.746780 -0.090302 0.329289 -0.172344 0.119866
    19 -0.033420 -1.397129 -0.011257 -1.115580 0.000000 -0.000001
    20 -0.022360 -0.957436 0.018784 -1.148807 0.000000 0.000000
    21 -1.180681 -2.507217 -0.193859 -0.309305 0.033033 -0.314313
    22 -0.024967 -1.123934 0.017597 -2.040737 0.000000 0.000001
    23 -0.020057 -0.890968 0.010090 -0.646720 0.000000 0.000000
    24 0.583510 -1.197277 0.185379 0.371183 -0.693166 -0.903076
    25 1.535927 0.010246 0.005009 -0.002964 -0.012979 -0.682290
    26 1.100771 0.004527 -0.010679 -0.016147 -0.001453 -1.484153
    27 0.120153 -0.050270 -0.054489 0.287569 3.110905 1.561085
    28 1.248809 -10.805649 -12.825893 -1.654158 -5.525263 -0.961216
    29 0.096944 -8.450418 -0.009365 0.075476 -1.267968 0.356845
    30 0.447953 -2.798986 -0.200443 -0.761407 0.042804 0.170619
    31 -0.032909 -1.480204 0.004940 -1.480139 0.000000 0.000002
    32 -0.027022 -1.076920 -0.020210 -0.375135 0.000000 0.000000
    33 -0.249534 -2.846964 -0.174213 -0.318562 0.002631 0.073866
    34 0.043235 -1.683941 0.096012 -1.876275 0.002823 -0.000167
    35 0.031729 -1.160830 0.058838 -0.099745 0.000642 0.008372
    36 -0.963866 -2.785145 -0.085350 0.076866 0.070929 0.053157
    37 0.028479 -1.403067 0.006271 -1.337909 0.000000 0.000000
    38 0.021413 -0.957781 0.020046 -1.052173 0.000000 0.000000
    39 1.164475 -2.543940 -0.170330 -1.221927 -0.015463 0.162804
    40 0.024032 -1.129042 0.017807 -0.900877 0.000000 0.000001
    41 0.014898 -0.883989 -0.019848 -0.928571 0.000000 0.000000
    42 -0.586770 -1.264477 0.200161 0.150010 0.013443 -2.613227
    43 1.522835 0.058681 0.016848 0.001410 0.008985 0.624684
    44 1.117947 0.048424 -0.005766 -0.002568 -0.011344 -0.141987
    45 -0.139399 -0.111698 0.014397 0.774181 0.191172 1.472862
    46 -6.260806 6.983652 -0.294122 1.580804 -0.005023 -0.912799
  time 20
    0 -0.349399 1.166145 0.203512 0.000000 0.000000 0.000000
    1 10.882142 1.976056 -8.891717 1.081983 -1.841343 -1.432571
    2 -0.071918 -8.498730 -0.104136 0.172985 0.063642 -0.217047
    3 2.672261 -3.383448 0.696208 0.083503 0.128137 -1.585662
    4 8.674173 -0.128572 0.000000 0.000000 0.000000 0.000000
    5 0.000000 0.000000 0.000000 0.000000 0.000000 0.000000
    6 4.045845 -0.586976 0.000000 0.000000 0.000000 0.000000
    7 -33.579150 -30.231391 0.000000 0.000000 0.000000 0.000000
    8 1.039971 -0.940679 0.000000 0.000000 0.000000 -1.570796
    9 4.782106 0.485510 0.407405 0.000000 0.000000 -1.570796
    10 5.548040 -0.183522 0.000000 1.570796 -1.570796 0.000000
    11 1.257180 8.762585 -0.153713 -1.570562 0.002683 -1.566807
    12 -0.488518 -2.755602 -0.228260 -0.518305 -0.074854 -0.310571
    13 0.039887 -1.479790 0.029854 -2.289231 0.000000 0.000001
    14 0.028786 -1.075731 -0.023109 -0.271941 0.000000 0.000000
    15 0.250027 -2.820665 -0.238396 -0.350825 -0.052441 -0.187301
    16 -0.049759 -1.680544 0.100479 -2.246572 0.000000 -0.000002
    17 -0.034142 -1.148312 0.084782 -0.535851 0.000000 0.000000
    18 0.957766 -2.746780 -0.090302 0.329289 -0.172344 0.119866
    19 -0.033420 -1.397129 -0.011257 -1.115580 0.000000 -0.000001
    20 -0.022360 -0.957436 0.018784 -1.148807 0.000000 0.000000
    21 -1.180681 -2.507217 -0.193859 -0.309305 0.033033 -0.314313
    22 -0.024967 -1.123934 0.017597 -2.040737 0.000000 0.000001
    23 -0.020057 -0.890968 0.010090 -0.646720 0.000000 0.000000
    24 0.583510 -1.197277 0.185379 0.371183 -0.693166 -0.903076
    25 1.535927 0.010246 0.005009 -0.002964 -0.012979 -0.682290
    26 1.100771 0.004527 -0.010679 -0.016147 -0.001453 -1.484153
    27 0.120153 -0.050270 -0.054489 0.287569 3.110905 1.561085
    28 1.010520 -11.055656 -12.693077 -1.691258 -5.506176 -0.964553
    29 0.096944 -8.450418 -0.009365 0.075476 -1.267968 0.356845
    30 0.447953 -2.798986 -0.200443 -0.761407 0.042804 0.170619
    31 -0.032909 -1.480204 0.004940 -1.480139 0.000000 0.000002
    32 -0.027022 -1.076920 -0.020210 -0.375135 0.000000 0.000000
    33 -0.249534 -2.846964 -0.174213 -0.318562 0.002631 0.073866
    34 0.043235 -1.683941 0.096012 -1.876275 0.002823 -0.000167
    35 0.031729 -1.160830 0.058838 -0.099745 0.000642 0.008372
    36 -0.963866 -2.785145 -0.085350 0.076866 0.070929 0.053157
    37 0.028479 -1.403067 0.006271 -1.337909 0.000000 0.000000
    38 0.021413 -0.957781 0.020046 -1.052173 0.000000 0.000000
    39 1.164475 -2.543940 -0.170330 -1.221927 -0.015463 0.162804
    40 0.024032 -1.129042 0.017807 -0.900877 0.000000 0.000001
    41 0.014898 -0.883989 -0.019848 -0.928571 0.000000 0.000000
    42 -0.586770 -1.264477 0.200161 0.150010 0.013443 -2.613227
    43 1.522835 0.058681 0.016848 0.001410 0.008985 0.624684
    44 1.117947 0.048424 -0.005766 -0.002568 -0.011344 -0.141987
    45 -0.139399 -0.111698 0.014397 0.774181 0.191172 1.472862
    46 -6.260806 6.983652 -0.294122 1.580804 -0.005023 -0.912799
  time 21
    0 -0.349399 1.166145 0.203512 0.000000 0.000000 0.000000
    1 10.679011 1.897928 -8.969844 1.160468 -1.831343 -1.508298
    2 -0.071918 -8.498730 -0.104136 0.192468 0.070330 -0.210180
    3 2.672261 -3.383448 0.696208 0.083503 0.128137 -1.585662
    4 8.674173 -0.128572 0.000000 0.000000 0.000000 0.000000
    5 0.000000 0.000000 0.000000 0.000000 0.000000 0.000000
    6 4.045845 -0.586976 0.000000 0.000000 0.000000 0.000000
    7 -33.579150 -30.231391 0.000000 0.000000 0.000000 0.000000
    8 1.039971 -0.940679 0.000000 0.000000 0.000000 -1.570796
    9 4.782106 0.485510 0.407405 0.000000 0.000000 -1.570796
    10 5.548040 -0.183522 0.000000 1.570796 -1.570796 0.000000
    11 1.257180 8.762585 -0.153713 -1.570562 0.002683 -1.566807
    12 -0.488518 -2.755602 -0.228260 -0.518305 -0.074854 -0.310571
    13 0.039887 -1.479790 0.029854 -2.289231 0.000000 0.000001
    14 0.028786 -1.075731 -0.023109 -0.271941 0.000000 0.000000
    15 0.250027 -2.820665 -0.238396 -0.350825 -0.052441 -0.187301
    16 -0.049759 -1.680544 0.100479 -2.246572 0.000000 -0.000002
    17 -0.034142 -1.148312 0.084782 -0.535851 0.000000 0.000000
    18 0.957766 -2.746780 -0.090302 0.329289 -0.172344 0.119866
    19 -0.033420 -1.397129 -0.011257 -1.115580 0.000000 -0.000001
    20 -0.022360 -0.957436 0.018784 -1.148807 0.000000 0.000000
    21 -1.180681 -2.507217 -0.193859 -0.309305 0.033033 -0.314313
    22 -0.024967 -1.123934 0.017597 -2.040737 0.000000 0.000001
    23 -0.020057 -0.890968 0.010090 -0.646720 0.000000 0.000000
    24 0.583510 -1.197277 0.185379 0.371183 -0.693166 -0.903076
    25 1.535927 0.010246 0.005009 -0.002964 -0.012979 -0.682290
    26 1.100771 0.004527 -0.010679 -0.016147 -0.001453 -1.484153
    27 0.120153 -0.050270 -0.054489 0.287569 3.110905 1.561085
    28 0.776138 -11.262694 -12.571979 -1.724876 -5.486171 -0.969797
    29 0.096944 -8.450418 -0.009365 0.075476 -1.267968 0.356845
    30 0.447953 -2.798986 -0.200443 -0.761407 0.042804 0.170619
    31 -0.032909 -1.480204 0.004940 -1.480139 0.000000 0.000002
    32 -0.027022 -1.076920 -0.020210 -0.375135 0.000000 0.000000
    33 -0.249534 -2.846964 -0.174213 -0.318562 0.002631 0.073866
    34 0.043235 -1.683941 0.096012 -1.876275 0.002823 -0.000167
    35 0.031729 -1.160830 0.058838 -0.099745 0.000642 0.008372
    36 -0.963866 -2.785145 -0.085350 0.076866 0.070929 0.053157
    37 0.028479 -1.403067 0.006271 -1.337909 0.000000 0.000000
    38 0.021413 -0.957781 0.020046 -1.052173 0.000000 0.000000
    39 1.164475 -2.543940 -0.170330 -1.221927 -0.015463 0.162804
    40 0.024032 -1.129042 0.017807 -0.900877 0.000000 0.000001
    41 0.014898 -0.883989 -0.019848 -0.928571 0.000000 0.000000
    42 -0.586770 -1.264477 0.200161 0.150010 0.013443 -2.613227
    43 1.522835 0.058681 0.016848 0.001410 0.008985 0.624684
    44 1.117947 0.048424 -0.005766 -0.002568 -0.011344 -0.141987
    45 -0.139399 -0.111698 0.014397 0.774181 0.191172 1.472862
    46 -6.260806 6.983652 -0.294122 1.580804 -0.005023 -0.912799
  time 22
    0 -0.349399 1.166145 0.203512 0.000000 0.000000 0.000000
    1 10.495412 1.823707 -9.032346 -1.901673 -1.318651 1.555643
    2 -0.071918 -8.498730 -0.104136 0.208006 0.075663 -0.204919
    3 2.672261 -3.383448 0.696208 0.083503 0.128137 -1.585662
    4 8.674173 -0.128572 0.000000 0.000000 0.000000 0.000000
    5 0.000000 0.000000 0.000000 0.000000 0.000000 0.000000
    6 4.045845 -0.586976 0.000000 0.000000 0.000000 0.000000
    7 -33.579150 -30.231391 0.000000 0.000000 0.000000 0.000000
    8 1.039971 -0.940679 0.000000 0.000000 0.000000 -1.570796
    9 4.782106 0.485510 0.407405 0.000000 0.000000 -1.570796
    10 5.548040 -0.183522 0.000000 1.570796 -1.570796 0.000000
    11 1.257180 8.762585 -0.153713 -1.570562 0.002683 -1.566807
    12 -0.488518 -2.755602 -0.228260 -0.518305 -0.074854 -0.310571
    13 0.039887 -1.479790 0.029854 -2.289231 0.000000 0.000001
    14 0.028786 -1.075731 -0.023109 -0.271941 0.000000 0.000000
    15 0.250027 -2.820665 -0.238396 -0.350825 -0.052441 -0.187301
    16 -0.049759 -1.680544 0.100479 -2.246572 0.000000 -0.000002
    17 -0.034142 -1.148312 0.084782 -0.535851 0.000000 0.000000
    18 0.957766 -2.746780 -0.090302 0.329289 -0.172344 0.119866
    19 -0.033420 -1.397129 -0.011257 -1.115580 0.000000 -0.000001
    20 -0.022360 -0.957436 0.018784 -1.148807 0.000000 0.000000
    21 -1.180681 -2.507217 -0.193859 -0.309305 0.033033 -0.314313
    22 -0.024967 -1.123934 0.017597 -2.040737 0.000000 0.000001
    23 -0.020057 -0.890968 0.010090 -0.646720 0.000000 0.000000
    24 0.583510 -1.197277 0.185379 0.371183 -0.693166 -0.903076
    25 1.535927 0.010246 0.005009 -0.002964 -0.012979 -0.682290
    26 1.100771 0.004527 -0.010679 -0.016147 -0.001453 -1.484153
    27 0.120153 -0.050270 -0.054489 0.287569 3.110905 1.561085
    28 0.549569 -11.426761 -12.470414 -1.754141 -5.466808 -0.976853
    29 0.096944 -8.450418 -0.009365 0.075476 -1.267968 0.356845
    30 0.447953 -2.798986 -0.200443 -0.761407 0.042804 0.170619
    31 -0.032909 -1.480204 0.004940 -1.480139 0.000000 0.000002
    32 -0.027022 -1.076920 -0.020210 -0.375135 0.000000 0.000000
    33 -0.249534 -2.846964 -0.174213 -0.318562 0.002631 0.073866
    34 0.043235 -1.683941 0.096012 -1.876275 0.002823 -0.000167
    35 0.031729 -1.160830 0.058838 -0.099745 0.000642 0.008372
    36 -0.963866 -2.785145 -0.085350 0.076866 0.070929 0.053157
    37 0.028479 -1.403067 0.006271 -1.337909 0.000000 0.000000
    38 0.021413 -0.957781 0.020046 -1.052173 0.000000 0.000000
    39 1.164475 -2.543940 -0.170330 -1.221927 -0.015463 0.162804
    40 0.024032 -1.129042 0.017807 -0.900877 0.000000 0.000001
    41 0.014898 -0.883989 -0.019848 -0.928571 0.000000 0.000000
    42 -0.586770 -1.264477 0.200161 0.150010 0.013443 -2.613227
    43 1.522835 0.058681 0.016848 0.001410 0.008985 0.624684
    44 1.117947 0.048424 -0.005766 -0.002568 -0.011344 -0.141987
    45 -0.139399 -0.111698 0.014397 0.774181 0.191172 1.472862
    46 -6.260806 6.983652 -0.294122 1.580804 -0.005023 -0.912799
  time 23
    0 -0.349399 1.166145 0.203512 0.000000 0.000000 0.000000
    1 10.327438 1.761206 -9.079222 -1.825355 -1.324694 1.481022
    2 -0.071918 -8.498730 -0.104136 0.218261 0.079198 -0.201539
    3 2.672261 -3.383448 0.696208 0.083503 0.128137 -1.585662
    4 8.674173 -0.128572 0.000000 0.000000 0.000000 0.000000
    5 0.000000 0.000000 0.000000 0.000000 0.000000 0.000000
    6 4.045845 -0.586976 0.000000 0.000000 0.000000 0.000000
    7 -33.579150 -30.231391 0.000000 0.000000 0.000000 0.000000
    8 1.039971 -0.940679 0.000000 0.000000 0.000000 -1.570796
    9 4.782106 0.485510 0.407405 0.000000 0.000000 -1.570796
    10 5.548040 -0.183522 0.000000 1.570796 -1.570796 0.000000
    11 1.257180 8.762585 -0.153713 -1.570562 0.002683 -1.566807
    12 -0.488518 -2.755602 -0.228260 -0.518305 -0.074854 -0.310571
    13 0.039887 -1.479790 0.029854 -2.289231 0.000000 0.000001
    14 0.028786 -1.075731 -0.023109 -0.271941 0.000000 0.000000
    15 0.250027 -2.820665 -0.238396 -0.350825 -0.052441 -0.187301
    16 -0.049759 -1.680544 0.100479 -2.246572 0.000000 -0.000002
    17 -0.034142 -1.148312 0.084782 -0.535851 0.000000 0.000000
    18 0.957766 -2.746780 -0.090302 0.329289 -0.172344 0.119866
    19 -0.033420 -1.397129 -0.011257 -1.115580 0.000000 -0.000001
    20 -0.022360 -0.957436 0.018784 -1.148807 0.000000 0.000000
    21 -1.180681 -2.507217 -0.193859 -0.309305 0.033033 -0.314313
    22 -0.024967 -1.123934 0.017597 -2.040737 0.000000 0.000001
    23 -0.020057 -0.890968 0.010090 -0.646720 0.000000 0.000000
    24 0.583510 -1.197277 0.185379 0.371183 -0.693166 -0.903076
    25 1.535927 0.010246 0.005009 -0.002964 -0.012979 -0.682290
    26 1.100771 0.004527 -0.010679 -0.016147 -0.001453 -1.484153
    27 0.120153 -0.050270 -0.054489 0.287569 3.110905 1.561085
    28 0.338625 -11.540046 -12.384474 -1.778317 -5.449556 -0.985434
    29 0.096944 -8.450418 -0.009365 0.075476 -1.267968 0.356845
    30 0.447953 -2.798986 -0.200443 -0.761407 0.042804 0.170619
    31 -0.032909 -1.480204 0.004940 -1.480139 0.000000 0.000002
    32 -0.027022 -1.076920 -0.020210 -0.375135 0.000000 0.000000
    33 -0.249534 -2.846964 -0.174213 -0.318562 0.002631 0.073866
    34 0.043235 -1.683941 0.096012 -1.876275 0.002823 -0.000167
    35 0.031729 -1.160830 0.058838 -0.099745 0.000642 0.008372
    36 -0.963866 -2.785145 -0.085350 0.076866 0.070929 0.053157
    37 0.028479 -1.403067 0.006271 -1.337909 0.000000 0.000000
    38 0.021413 -0.957781 0.020046 -1.052173 0.000000 0.000000
    39 1.164475 -2.543940 -0.170330 -1.221927 -0.015463 0.162804
    40 0.024032 -1.129042 0.017807 -0.900877 0.000000 0.000001
    41 0.014898 -0.883989 -0.019848 -0.928571 0.000000 0.000000
    42 -0.586770 -1.264477 0.200161 0.150010 0.013443 -2.613227
    43 1.522835 0.058681 0.016848 0.001410 0.008985 0.624684
    44 1.117947 0.048424 -0.005766 -0.002568 -0.011344 -0.141987
    45 -0.139399 -0.111698 0.014397 0.774181 0.191172 1.472862
    46 -6.260806 6.983652 -0.294122 1.580804 -0.005023 -0.912799
  time 24
    0 -0.349399 1.166145 0.203512 0.000000 0.000000 0.000000
    1 10.178996 1.714329 -9.114380 -1.757035 -1.328040 1.414911
    2 -0.071918 -8.498730 -0.104136 0.221967 0.080481 -0.200353
    3 2.672261 -3.383448 0.696208 0.083503 0.128137 -1.585662
    4 8.674173 -0.128572 0.000000 0.000000 0.000000 0.000000
    5 0.000000 0.000000 0.000000 0.000000 0.000000 0.000000
    6 4.045845 -0.586976 0.000000 0.000000 0.000000 0.000000
    7 -33.579150 -30.231391 0.000000 0.000000 0.000000 0.000000
    8 1.039971 -0.940679 0.000000 0.000000 0.000000 -1.570796
    9 4.782106 0.485510 0.407405 0.000000 0.000000 -1.570796
    10 5.548040 -0.183522 0.000000 1.570796 -1.570796 0.000000
    11 1.257180 8.762585 -0.153713 -1.570562 0.002683 -1.566807
    12 -0.488518 -2.755602 -0.228260 -0.518305 -0.074854 -0.310571
    13 0.039887 -1.479790 0.029854 -2.289231 0.000000 0.000001
    14 0.028786 -1.075731 -0.023109 -0.271941 0.000000 0.000000
    15 0.250027 -2.820665 -0.238396 -0.350825 -0.052441 -0.187301
    16 -0.049759 -1.680544 0.100479 -2.246572 0.000000 -0.000002
    17 -0.034142 -1.148312 0.084782 -0.535851 0.000000 0.000000
    18 0.957766 -2.746780 -0.090302 0.329289 -0.172344 0.119866
    19 -0.033420 -1.397129 -0.011257 -1.115580 0.000000 -0.000001
    20 -0.022360 -0.957436 0.018784 -1.148807 0.000000 0.000000
    21 -1.180681 -2.507217 -0.193859 -0.309305 0.033033 -0.314313
    22 -0.024967 -1.123934 0.017597 -2.040737 0.000000 0.000001
    23 -0.020057 -0.890968 0.010090 -0.646720 0.000000 0.000000
    24 0.583510 -1.197277 0.185379 0.371183 -0.693166 -0.903076
    25 1.535927 0.010246 0.005009 -0.002964 -0.012979 -0.682290
    26 1.100771 0.004527 -0.010679 -0.016147 -0.001453 -1.484153
    27 0.120153 -0.050270 -0.054489 0.287569 3.110905 1.561085
    28 0.151119 -11.598642 -12.314159 -1.796599 -5.435883 -0.995254
    29 0.096944 -8.450418 -0.009365 0.075476 -1.267968 0.356845
    30 0.447953 -2.798986 -0.200443 -0.761407 0.042804 0.170619
    31 -0.032909 -1.480204 0.004940 -1.480139 0.000000 0.000002
    32 -0.027022 -1.076920 -0.020210 -0.375135 0.000000 0.000000
    33 -0.249534 -2.846964 -0.174213 -0.318562 0.002631 0.073866
    34 0.043235 -1.683941 0.096012 -1.876275 0.002823 -0.000167
    35 0.031729 -1.160830 0.058838 -0.099745 0.000642 0.008372
    36 -0.963866 -2.785145 -0.085350 0.076866 0.070929 0.053157
    37 0.028479 -1.403067 0.006271 -1.337909 0.000000 0.000000
    38 0.021413 -0.957781 0.020046 -1.052173 0.000000 0.000000
    39 1.164475 -2.543940 -0.170330 -1.221927 -0.015463 0.162804
    40 0.024032 -1.129042 0.017807 -0.900877 0.000000 0.000001
    41 0.014898 -0.883989 -0.019848 -0.928571 0.000000 0.000000
    42 -0.586770 -1.264477 0.200161 0.150010 0.013443 -2.613227
    43 1.522835 0.058681 0.016848 0.001410 0.008985 0.624684
    44 1.117947 0.048424 -0.005766 -0.002568 -0.011344 -0.141987
    45 -0.139399 -0.111698 0.014397 0.774181 0.191172 1.472862
    46 -6.260806 6.983652 -0.294122 1.580804 -0.005023 -0.912799
  time 25
    0 -0.349399 1.166145 0.203512 0.000000 0.000000 0.000000
    1 10.057898 1.686985 -9.130005 -1.703879 -1.329479 1.363434
    2 -0.071918 -8.498730 -0.104136 0.221967 0.080481 -0.200353
    3 2.672261 -3.383448 0.696208 0.083503 0.128137 -1.585662
    4 8.674173 -0.128572 0.000000 0.000000 0.000000 0.000000
    5 0.000000 0.000000 0.000000 0.000000 0.000000 0.000000
    6 4.045845 -0.586976 0.000000 0.000000 0.000000 0.000000
    7 -33.579150 -30.231391 0.000000 0.000000 0.000000 0.000000
    8 1.039971 -0.940679 0.000000 0.000000 0.000000 -1.570796
    9 4.782106 0.485510 0.407405 0.000000 0.000000 -1.570796
    10 5.548040 -0.183522 0.000000 1.570796 -1.570796 0.000000
    11 1.257180 8.762585 -0.153713 -1.570562 0.002683 -1.566807
    12 -0.488518 -2.755602 -0.228260 -0.518305 -0.074854 -0.310571
    13 0.039887 -1.479790 0.029854 -2.289231 0.000000 0.000001
    14 0.028786 -1.075731 -0.023109 -0.271941 0.000000 0.000000
    15 0.250027 -2.820665 -0.238396 -0.350825 -0.052441 -0.187301
    16 -0.049759 -1.680544 0.100479 -2.246572 0.000000 -0.000002
    17 -0.034142 -1.148312 0.084782 -0.535851 0.000000 0.000000
    18 0.957766 -2.746780 -0.090302 0.329289 -0.172344 0.119866
    19 -0.033420 -1.397129 -0.011257 -1.115580 0.000000 -0.000001
    20 -0.022360 -0.957436 0.018784 -1.148807 0.000000 0.000000
    21 -1.180681 -2.507217 -0.193859 -0.309305 0.033033 -0.314313
    22 -0.024967 -1.123934 0.017597 -2.040737 0.000000 0.000001
    23 -0.020057 -0.890968 0.010090 -0.646720 0.000000 0.000000
    24 0.583510 -1.197277 0.185379 0.371183 -0.693166 -0.903076
    25 1.535927 0.010246 0.005009 -0.002964 -0.012979 -0.682290
    26 1.100771 0.004527 -0.010679 -0.016147 -0.001453 -1.484153
    27 0.120153 -0.050270 -0.054489 0.287569 3.110905 1.561085
    28 -0.005136 -11.614267 -12.251657 -1.809189 -5.426156 -1.004693
    29 0.096944 -8.450418 -0.009365 0.075476 -1.267968 0.356845
    30 0.447953 -2.798986 -0.200443 -0.761407 0.042804 0.170619
    31 -0.032909 -1.480204 0.004940 -1.480139 0.000000 0.000002
    32 -0.027022 -1.076920 -0.020210 -0.375135 0.000000 0.000000
    33 -0.249534 -2.846964 -0.174213 -0.318562 0.002631 0.073866
    34 0.043235 -1.683941 0.096012 -1.876275 0.002823 -0.000167
    35 0.031729 -1.160830 0.058838 -0.099745 0.000642 0.008372
    36 -0.963866 -2.785145 -0.085350 0.076866 0.070929 0.053157
    37 0.028479 -1.403067 0.006271 -1.337909 0.000000 0.000000
    38 0.021413 -0.957781 0.020046 -1.052173 0.000000 0.000000
    39 1.164475 -2.543940 -0.170330 -1.221927 -0.015463 0.162804
    40 0.024032 -1.129042 0.017807 -0.900877 0.000000 0.000001
    41 0.014898 -0.883989 -0.019848 -0.928571 0.000000 0.000000
    42 -0.586770 -1.264477 0.200161 0.150010 0.013443 -2.613227
    43 1.522835 0.058681 0.016848 0.001410 0.008985 0.624684
    44 1.117947 0.048424 -0.005766 -0.002568 -0.011344 -0.141987
    45 -0.139399 -0.111698 0.014397 0.774181 0.191172 1.472862
    46 -6.260806 6.983652 -0.294122 1.580804 -0.005023 -0.912799
  time 26
    0 -0.349399 1.166145 0.203512 0.000000 0.000000 0.000000
    1 9.975865 1.675265 -9.102661 -1.666303 -1.330342 1.325656
    2 -0.071918 -8.498730 -0.104136 0.221967 0.080481 -0.200353
    3 2.672261 -3.383448 0.696208 0.083503 0.128137 -1.585662
    4 8.674173 -0.128572 0.000000 0.000000 0.000000 0.000000
    5 0.000000 0.000000 0.000000 0.000000 0.000000 0.000000
    6 4.045845 -0.586976 0.000000 0.000000 0.000000 0.000000
    7 -33.579150 -30.231391 0.000000 0.000000 0.000000 0.000000
    8 1.039971 -0.940679 0.000000 0.000000 0.000000 -1.570796
    9 4.782106 0.485510 0.407405 0.000000 0.000000 -1.570796
    10 5.548040 -0.183522 0.000000 1.570796 -1.570796 0.000000
    11 1.257180 8.762585 -0.153713 -1.570562 0.002683 -1.566807
    12 -0.488518 -2.755602 -0.228260 -0.518305 -0.074854 -0.310571
    13 0.039887 -1.479790 0.029854 -2.289231 0.000000 0.000001
    14 0.028786 -1.075731 -0.023109 -0.271941 0.000000 0.000000
    15 0.250027 -2.820665 -0.238396 -0.350825 -0.052441 -0.187301
    16 -0.049759 -1.680544 0.100479 -2.246572 0.000000 -0.000002
    17 -0.034142 -1.148312 0.084782 -0.535851 0.000000 0.000000
    18 0.957766 -2.746780 -0.090302 0.329289 -0.172344 0.119866
    19 -0.033420 -1.397129 -0.011257 -1.115580 0.000000 -0.000001
    20 -0.022360 -0.957436 0.018784 -1.148807 0.000000 0.000000
    21 -1.180681 -2.507217 -0.193859 -0.309305 0.033033 -0.314313
    22 -0.024967 -1.123934 0.017597 -2.040737 0.000000 0.000001
    23 -0.020057 -0.890968 0.010090 -0.646720 0.000000 0.000000
    24 0.583510 -1.197277 0.185379 0.371183 -0.693166 -0.903076
    25 1.535927 0.010246 0.005009 -0.002964 -0.012979 -0.682290
    26 1.100771 0.004527 -0.010679 -0.016147 -0.001453 -1.484153
    27 0.120153 -0.050270 -0.054489 0.287569 3.110905 1.561085
    28 -0.130140 -11.606454 -12.181342 -1.817895 -5.419182 -1.012512
    29 0.096944 -8.450418 -0.009365 0.075476 -1.267968 0.356845
    30 0.447953 -2.798986 -0.200443 -0.761407 0.042804 0.170619
    31 -0.032909 -1.480204 0.004940 -1.480139 0.000000 0.000002
    32 -0.027022 -1.076920 -0.020210 -0.375135 0.000000 0.000000
    33 -0.249534 -2.846964 -0.174213 -0.318562 0.002631 0.073866
    34 0.043235 -1.683941 0.096012 -1.876275 0.002823 -0.000167
    35 0.031729 -1.160830 0.058838 -0.099745 0.000642 0.008372
    36 -0.963866 -2.785145 -0.085350 0.076866 0.070929 0.053157
    37 0.028479 -1.403067 0.006271 -1.337909 0.000000 0.000000
    38 0.021413 -0.957781 0.020046 -1.052173 0.000000 0.000000
    39 1.164475 -2.543940 -0.170330 -1.221927 -0.015463 0.162804
    40 0.024032 -1.129042 0.017807 -0.900877 0.000000 0.000001
    41 0.014898 -0.883989 -0.019848 -0.928571 0.000000 0.000000
    42 -0.586770 -1.264477 0.200161 0.150010 0.013443 -2.613227
    43 1.522835 0.058681 0.016848 0.001410 0.008985 0.624684
    44 1.117947 0.048424 -0.005766 -0.002568 -0.011344 -0.141987
    45 -0.139399 -0.111698 0.014397 0.774181 0.191172 1.472862
    46 -6.260806 6.983652 -0.294122 1.580804 -0.005023 -0.912799
  time 27
    0 -0.349399 1.166145 0.203512 0.000000 0.000000 0.000000
    1 9.925082 1.675265 -9.047971 -1.639225 -1.331025 1.297067
    2 -0.071918 -8.498730 -0.104136 0.221967 0.080481 -0.200353
    3 2.672261 -3.383448 0.696208 0.083503 0.128137 -1.585662
    4 8.674173 -0.128572 0.000000 0.000000 0.000000 0.000000
    5 0.000000 0.000000 0.000000 0.000000 0.000000 0.000000
    6 4.045845 -0.586976 0.000000 0.000000 0.000000 0.000000
    7 -33.579150 -30.231391 0.000000 0.000000 0.000000 0.000000
    8 1.039971 -0.940679 0.000000 0.000000 0.000000 -1.570796
    9 4.782106 0.485510 0.407405 0.000000 0.000000 -1.570796
    10 5.548040 -0.183522 0.000000 1.570796 -1.570796 0.000000
    11 1.257180 8.762585 -0.153713 -1.570562 0.002683 -1.566807
    12 -0.488518 -2.755602 -0.228260 -0.518305 -0.074854 -0.310571
    13 0.039887 -1.479790 0.029854 -2.289231 0.000000 0.000001
    14 0.028786 -1.075731 -0.023109 -0.271941 0.000000 0.000000
    15 0.250027 -2.820665 -0.238396 -0.350825 -0.052441 -0.187301
    16 -0.049759 -1.680544 0.100479 -2.246572 0.000000 -0.000002
    17 -0.034142 -1.148312 0.084782 -0.535851 0.000000 0.000000
    18 0.957766 -2.746780 -0.090302 0.329289 -0.172344 0.119866
    19 -0.033420 -1.397129 -0.011257 -1.115580 0.000000 -0.000001
    20 -0.022360 -0.957436 0.018784 -1.148807 0.000000 0.000000
    21 -1.180681 -2.507217 -0.193859 -0.309305 0.033033 -0.314313
    22 -0.024967 -1.123934 0.017597 -2.040737 0.000000 0.000001
    23 -0.020057 -0.890968 0.010090 -0.646720 0.000000 0.000000
    24 0.583510 -1.197277 0.185379 0.371183 -0.693166 -0.903076
    25 1.535927 0.010246 0.005009 -0.002964 -0.012979 -0.682290
    26 1.100771 0.004527 -0.010679 -0.016147 -0.001453 -1.484153
    27 0.120153 -0.050270 -0.054489 0.287569 3.110905 1.561085
    28 -0.231705 -11.575203 -12.095402 -1.823989 -5.413951 -1.019376
    29 0.096944 -8.450418 -0.009365 0.075476 -1.267968 0.356845
    30 0.447953 -2.798986 -0.200443 -0.761407 0.042804 0.170619
    31 -0.032909 -1.480204 0.004940 -1.480139 0.000000 0.000002
    32 -0.027022 -1.076920 -0.020210 -0.375135 0.000000 0.000000
    33 -0.249534 -2.846964 -0.174213 -0.318562 0.002631 0.073866
    34 0.043235 -1.683941 0.096012 -1.876275 0.002823 -0.000167
    35 0.031729 -1.160830 0.058838 -0.099745 0.000642 0.008372
    36 -0.963866 -2.785145 -0.085350 0.076866 0.070929 0.053157
    37 0.028479 -1.403067 0.006271 -1.337909 0.000000 0.000000
    38 0.021413 -0.957781 0.020046 -1.052173 0.000000 0.000000
    39 1.164475 -2.543940 -0.170330 -1.221927 -0.015463 0.162804
    40 0.024032 -1.129042 0.017807 -0.900877 0.000000 0.000001
    41 0.014898 -0.883989 -0.019848 -0.928571 0.000000 0.000000
    42 -0.586770 -1.264477 0.200161 0.150010 0.013443 -2.613227
    43 1.522835 0.058681 0.016848 0.001410 0.008985 0.624684
    44 1.117947 0.048424 -0.005766 -0.002568 -0.011344 -0.141987
    45 -0.139399 -0.111698 0.014397 0.774181 0.191172 1.472862
    46 -6.260806 6.983652 -0.294122 1.580804 -0.005023 -0.912799
  time 28
    0 -0.349399 1.166145 0.203512 0.000000 0.000000 0.000000
    1 9.893831 1.683078 -8.969844 -1.617313 -1.331601 1.273158
    2 -0.071918 -8.498730 -0.104136 0.221967 0.080481 -0.200353
    3 2.672261 -3.383448 0.696208 0.083503 0.128137 -1.585662
    4 8.674173 -0.128572 0.000000 0.000000 0.000000 0.000000
    5 0.000000 0.000000 0.000000 0.000000 0.000000 0.000000
    6 4.045845 -0.586976 0.000000 0.000000 0.000000 0.000000
    7 -33.579150 -30.231391 0.000000 0.000000 0.000000 0.000000
    8 1.039971 -0.940679 0.000000 0.000000 0.000000 -1.570796
    9 4.782106 0.485510 0.407405 0.000000 0.000000 -1.570796
    10 5.548040 -0.183522 0.000000 1.570796 -1.570796 0.000000
    11 1.257180 8.762585 -0.153713 -1.570562 0.002683 -1.566807
    12 -0.488518 -2.755602 -0.228260 -0.518305 -0.074854 -0.310571
    13 0.039887 -1.479790 0.029854 -2.289231 0.000000 0.000001
    14 0.028786 -1.075731 -0.023109 -0.271941 0.000000 0.000000
    15 0.250027 -2.820665 -0.238396 -0.350825 -0.052441 -0.187301
    16 -0.049759 -1.680544 0.100479 -2.246572 0.000000 -0.000002
    17 -0.034142 -1.148312 0.084782 -0.535851 0.000000 0.000000
    18 0.957766 -2.746780 -0.090302 0.329289 -0.172344 0.119866
    19 -0.033420 -1.397129 -0.011257 -1.115580 0.000000 -0.000001
    20 -0.022360 -0.957436 0.018784 -1.148807 0.000000 0.000000
    21 -1.180681 -2.507217 -0.193859 -0.309305 0.033033 -0.314313
    22 -0.024967 -1.123934 0.017597 -2.040737 0.000000 0.000001
    23 -0.020057 -0.890968 0.010090 -0.646720 0.000000 0.000000
    24 0.583510 -1.197277 0.185379 0.371183 -0.693166 -0.903076
    25 1.535927 0.010246 0.005009 -0.002964 -0.012979 -0.682290
    26 1.100771 0.004527 -0.010679 -0.016147 -0.001453 -1.484153
    27 0.120153 -0.050270 -0.054489 0.287569 3.110905 1.561085
    28 -0.309833 -11.536140 -11.993837 -1.828744 -5.409730 -1.025669
    29 0.096944 -8.450418 -0.009365 0.075476 -1.267968 0.356845
    30 0.447953 -2.798986 -0.200443 -0.761407 0.042804 0.170619
    31 -0.032909 -1.480204 0.004940 -1.480139 0.000000 0.000002
    32 -0.027022 -1.076920 -0.020210 -0.375135 0.000000 0.000000
    33 -0.249534 -2.846964 -0.174213 -0.318562 0.002631 0.073866
    34 0.043235 -1.683941 0.096012 -1.876275 0.002823 -0.000167
    35 0.031729 -1.160830 0.058838 -0.099745 0.000642 0.008372
    36 -0.963866 -2.785145 -0.085350 0.076866 0.070929 0.053157
    37 0.028479 -1.403067 0.006271 -1.337909 0.000000 0.000000
    38 0.021413 -0.957781 0.020046 -1.052173 0.000000 0.000000
    39 1.164475 -2.543940 -0.170330 -1.221927 -0.015463 0.162804
    40 0.024032 -1.129042 0.017807 -0.900877 0.000000 0.000001
    41 0.014898 -0.883989 -0.019848 -0.928571 0.000000 0.000000
    42 -0.586770 -1.264477 0.200161 0.150010 0.013443 -2.613227
    43 1.522835 0.058681 0.016848 0.001410 0.008985 0.624684
    44 1.117947 0.048424 -0.005766 -0.002568 -0.011344 -0.141987
    45 -0.139399 -0.111698 0.014397 0.774181 0.191172 1.472862
    46 -6.260806 6.983652 -0.294122 1.580804 -0.005023 -0.912799
  time 29
    0 -0.349399 1.166145 0.203512 0.000000 0.000000 0.000000
    1 9.878205 1.698704 -8.879998 -1.595317 -1.332068 1.249079
    2 -0.071918 -8.498730 -0.104136 0.221967 0.080481 -0.200353
    3 2.672261 -3.383448 0.696208 0.083503 0.128137 -1.585662
    4 8.674173 -0.128572 0.000000 0.000000 0.000000 0.000000
    5 0.000000 0.000000 0.000000 0.000000 0.000000 0.000000
    6 4.045845 -0.586976 0.000000 0.000000 0.000000 0.000000
    7 -33.579150 -30.231391 0.000000 0.000000 0.000000 0.000000
    8 1.039971 -0.940679 0.000000 0.000000 0.000000 -1.570796
    9 4.782106 0.485510 0.407405 0.000000 0.000000 -1.570796
    10 5.548040 -0.183522 0.000000 1.570796 -1.570796 0.000000
    11 1.257180 8.762585 -0.153713 -1.570562 0.002683 -1.566807
    12 -0.488518 -2.755602 -0.228260 -0.518305 -0.074854 -0.310571
    13 0.039887 -1.479790 0.029854 -2.289231 0.000000 0.000001
    14 0.028786 -1.075731 -0.023109 -0.271941 0.000000 0.000000
    15 0.250027 -2.820665 -0.238396 -0.350825 -0.052441 -0.187301
    16 -0.049759 -1.680544 0.100479 -2.246572 0.000000 -0.000002
    17 -0.034142 -1.148312 0.084782 -0.535851 0.000000 0.000000
    18 0.957766 -2.746780 -0.090302 0.329289 -0.172344 0.119866
    19 -0.033420 -1.397129 -0.011257 -1.115580 0.000000 -0.000001
    20 -0.022360 -0.957436 0.018784 -1.148807 0.000000 0.000000
    21 -1.180681 -2.507217 -0.193859 -0.309305 0.033033 -0.314313
    22 -0.024967 -1.123934 0.017597 -2.040737 0.000000 0.000001
    23 -0.020057 -0.890968 0.010090 -0.646720 0.000000 0.000000
    24 0.583510 -1.197277 0.185379 0.371183 -0.693166 -0.903076
    25 1.535927 0.010246 0.005009 -0.002964 -0.012979 -0.682290
    26 1.100771 0.004527 -0.010679 -0.016147 -0.001453 -1.484153
    27 0.120153 -0.050270 -0.054489 0.287569 3.110905 1.561085
    28 -0.376241 -11.485357 -11.880552 -1.833499 -5.405509 -1.032057
    29 0.096944 -8.450418 -0.009365 0.075476 -1.267968 0.356845
    30 0.447953 -2.798986 -0.200443 -0.761407 0.042804 0.170619
    31 -0.032909 -1.480204 0.004940 -1.480139 0.000000 0.000002
    32 -0.027022 -1.076920 -0.020210 -0.375135 0.000000 0.000000
    33 -0.249534 -2.846964 -0.174213 -0.318562 0.002631 0.073866
    34 0.043235 -1.683941 0.096012 -1.876275 0.002823 -0.000167
    35 0.031729 -1.160830 0.058838 -0.099745 0.000642 0.008372
    36 -0.963866 -2.785145 -0.085350 0.076866 0.070929 0.053157
    37 0.028479 -1.403067 0.006271 -1.337909 0.000000 0.000000
    38 0.021413 -0.957781 0.020046 -1.052173 0.000000 0.000000
    39 1.164475 -2.543940 -0.170330 -1.221927 -0.015463 0.162804
    40 0.024032 -1.129042 0.017807 -0.900877 0.000000 0.000001
    41 0.014898 -0.883989 -0.019848 -0.928571 0.000000 0.000000
    42 -0.586770 -1.264477 0.200161 0.150010 0.013443 -2.613227
    43 1.522835 0.058681 0.016848 0.001410 0.008985 0.624684
    44 1.117947 0.048424 -0.005766 -0.002568 -0.011344 -0.141987
    45 -0.139399 -0.111698 0.014397 0.774181 0.191172 1.472862
    46 -6.260806 6.983652 -0.294122 1.580804 -0.005023 -0.912799
  time 30
    0 -0.349399 1.166145 0.203512 0.000000 0.000000 0.000000
    1 9.874299 1.714329 -8.778432 -1.567989 -1.332284 1.220320
    2 -0.071918 -8.498730 -0.104136 0.221967 0.080481 -0.200353
    3 2.672261 -3.383448 0.696208 0.083503 0.128137 -1.585662
    4 8.674173 -0.128572 0.000000 0.000000 0.000000 0.000000
    5 0.000000 0.000000 0.000000 0.000000 0.000000 0.000000
    6 4.045845 -0.586976 0.000000 0.000000 0.000000 0.000000
    7 -33.579150 -30.231391 0.000000 0.000000 0.000000 0.000000
    8 1.039971 -0.940679 0.000000 0.000000 0.000000 -1.570796
    9 4.782106 0.485510 0.407405 0.000000 0.000000 -1.570796
    10 5.548040 -0.183522 0.000000 1.570796 -1.570796 0.000000
    11 1.257180 8.762585 -0.153713 -1.570562 0.002683 -1.566807
    12 -0.488518 -2.755602 -0.228260 -0.518305 -0.074854 -0.310571
    13 0.039887 -1.479790 0.029854 -2.289231 0.000000 0.000001
    14 0.028786 -1.075731 -0.023109 -0.271941 0.000000 0.000000
    15 0.250027 -2.820665 -0.238396 -0.350825 -0.052441 -0.187301
    16 -0.049759 -1.680544 0.100479 -2.246572 0.000000 -0.000002
    17 -0.034142 -1.148312 0.084782 -0.535851 0.000000 0.000000
    18 0.957766 -2.746780 -0.090302 0.329289 -0.172344 0.119866
    19 -0.033420 -1.397129 -0.011257 -1.115580 0.000000 -0.000001
    20 -0.022360 -0.957436 0.018784 -1.148807 0.000000 0.000000
    21 -1.180681 -2.507217 -0.193859 -0.309305 0.033033 -0.314313
    22 -0.024967 -1.123934 0.017597 -2.040737 0.000000 0.000001
    23 -0.020057 -0.890968 0.010090 -0.646720 0.000000 0.000000
    24 0.583510 -1.197277 0.185379 0.371183 -0.693166 -0.903076
    25 1.535927 0.010246 0.005009 -0.002964 -0.012979 -0.682290
    26 1.100771 0.004527 -0.010679 -0.016147 -0.001453 -1.484153
    27 0.120153 -0.050270 -0.054489 0.287569 3.110905 1.561085
    28 -0.430930 -11.438480 -11.747736 -1.839794 -5.400462 -1.039113
    29 0.096944 -8.450418 -0.009365 0.075476 -1.267968 0.356845
    30 0.447953 -2.798986 -0.200443 -0.761407 0.042804 0.170619
    31 -0.032909 -1.480204 0.004940 -1.480139 0.000000 0.000002
    32 -0.027022 -1.076920 -0.020210 -0.375135 0.000000 0.000000
    33 -0.249534 -2.846964 -0.174213 -0.318562 0.002631 0.073866
    34 0.043235 -1.683941 0.096012 -1.876275 0.002823 -0.000167
    35 0.031729 -1.160830 0.058838 -0.099745 0.000642 0.008372
    36 -0.963866 -2.785145 -0.085350 0.076866 0.070929 0.053157
    37 0.028479 -1.403067 0.006271 -1.337909 0.000000 0.000000
    38 0.021413 -0.957781 0.020046 -1.052173 0.000000 0.000000
    39 1.164475 -2.543940 -0.170330 -1.221927 -0.015463 0.162804
    40 0.024032 -1.129042 0.017807 -0.900877 0.000000 0.000001
    41 0.014898 -0.883989 -0.019848 -0.928571 0.000000 0.000000
    42 -0.586770 -1.264477 0.200161 0.150010 0.013443 -2.613227
    43 1.522835 0.058681 0.016848 0.001410 0.008985 0.624684
    44 1.117947 0.048424 -0.005766 -0.002568 -0.011344 -0.141987
    45 -0.139399 -0.111698 0.014397 0.774181 0.191172 1.472862
    46 -6.260806 6.983652 -0.294122 1.580804 -0.005023 -0.912799
end
