version 1
nodes
  0 "root" -1
  1 "Bone01" 0
  2 "Bone_Lefthand" 1
  3 "Bone02" 2
  4 "Dummy01" 3
  5 "Bone08" 4
  6 "Bone16" 3
  7 "Bone_L_Upper" 1
  8 "Bone13" 2
  9 "Bone14" 8
  10 "Bone15" 9
  11 "Bone17" 2
  12 "Bone18" 11
  13 "Bone19" 12
  14 "Bone21" 2
  15 "Bone22" 14
  16 "Bone23" 15
  17 "Bone09" 2
  18 "Bone10" 17
  19 "Bone11" 18
  20 "Bone05" 2
  21 "Bone06" 20
  22 "Bone07" 21
  23 "Bone_Se_Hand-L" 2
  24 "Bone04" 0
  25 "Bone_Righthand" 24
  26 "Bone39" 25
  27 "Bone40" 26
  28 "Bone41" 27
  29 "Bone35" 25
  30 "Bone36" 29
  31 "Bone37" 30
  32 "Bone31" 25
  33 "Bone32" 32
  34 "Bone33" 33
  35 "Bone43" 25
  36 "Bone44" 35
  37 "Bone45" 36
  38 "Bone27" 25
  39 "Bone28" 38
  40 "Bone29" 39
  41 "Bone_Se_Hand-R" 25
  42 "Bone_R_Upper" 24
end
skeleton
  time 0
    0 -0.368931 1.166145 1.199636 0.000000 0.000000 0.000000
    1 13.386598 -5.672577 -11.893362 -0.379014 -1.897772 -0.743346
    2 -0.071918 -8.498730 -0.104136 0.124298 0.126764 -0.408699
    3 5.233845 1.354622 1.688628 -0.065772 2.858007 1.272336
    4 19.997025 0.102143 0.000001 0.000000 0.000000 0.000000
    5 0.000000 0.000000 0.000000 0.000000 0.000000 0.000000
    6 6.506417 1.675302 0.000001 0.000000 0.000000 1.570796
    7 1.257180 8.762585 -0.153713 -1.570562 0.002683 -1.566807
    8 -0.488518 -2.755602 -0.228260 -0.636863 -0.077551 -0.298478
    9 0.039887 -1.479790 0.029854 -2.230118 0.000000 0.000001
    10 0.028786 -1.075731 -0.023109 -0.271941 0.000000 0.000000
    11 0.250027 -2.820665 -0.238396 -0.437192 -0.061406 -0.314674
    12 -0.049759 -1.680544 0.100479 -2.308624 0.000000 -0.000002
    13 -0.034142 -1.148312 0.084782 -0.535851 0.000000 0.000000
    14 0.957766 -2.746780 -0.090302 0.398790 -0.132819 0.006168
    15 -0.033420 -1.397129 -0.011257 -0.767419 0.000000 -0.000001
    16 -0.022360 -0.957436 0.018784 -0.380385 0.000000 0.000000
    17 -1.180681 -2.507217 -0.193859 -0.535961 0.112898 -0.284556
    18 -0.024967 -1.123934 0.017597 -1.884509 0.000000 0.000001
    19 -0.020057 -0.890968 0.010090 -0.772262 0.000000 0.000000
    20 0.583510 -1.197277 0.185379 0.385373 -0.553917 -0.837084
    21 1.535927 0.010246 0.005009 -0.002964 -0.012979 -0.319498
    22 1.100771 0.004527 -0.010679 -0.011713 0.010472 -0.708000
    23 0.120153 -0.050270 -0.054489 0.287569 3.110905 1.561085
    24 6.706007 3.733858 -11.556323 0.202405 -3.917138 0.037773
    25 0.096944 -8.450418 -0.009365 -0.763037 -1.346425 1.363381
    26 0.447953 -2.798986 -0.200443 -1.456960 0.099071 0.252834
    27 -0.032909 -1.480204 0.004940 -1.601340 0.000000 0.000002
    28 -0.027022 -1.076920 -0.020210 -0.353735 0.000000 0.000000
    29 -0.249534 -2.846964 -0.174213 -1.241183 0.075210 0.132159
    30 0.043235 -1.683941 0.096012 -1.813709 0.002823 -0.000167
    31 0.031729 -1.160830 0.058838 -0.456154 0.000642 0.008372
    32 -0.963866 -2.785145 -0.085350 -1.148608 0.139589 0.121877
    33 0.028479 -1.403067 0.006271 -1.391232 0.000000 0.000000
    34 0.021413 -0.957781 0.020046 -0.471322 0.000000 0.000000
    35 1.164475 -2.543940 -0.170330 -1.423710 -0.066254 0.446863
    36 0.024032 -1.129042 0.017807 -1.462551 0.000000 0.000001
    37 0.014898 -0.883989 -0.019848 -0.549408 0.000000 0.000000
    38 -0.586770 -1.264477 0.200161 0.313906 -0.927915 -2.922977
    39 1.522835 0.058681 0.016848 0.001410 0.008985 1.029593
    40 1.117947 0.048424 -0.005766 -0.023469 -0.009175 1.254246
    41 -0.139399 -0.111698 0.014397 0.407653 0.171241 1.393752
    42 -6.260806 6.983652 -0.294122 1.580804 -0.005023 -0.912799
  time 1
    0 -0.368931 1.166145 1.199636 0.000000 0.000000 0.000000
    1 13.589730 -5.492884 -11.510538 -0.371292 -1.886777 -0.727727
    2 -0.071918 -8.498730 -0.104136 0.125125 0.128083 -0.400669
    3 5.233845 1.354622 1.688628 -0.065772 2.858007 1.272336
    4 19.997025 0.102143 0.000001 0.000000 0.000000 0.000000
    5 0.000000 0.000000 0.000000 0.000000 0.000000 0.000000
    6 6.506417 1.675302 0.000001 0.000000 0.000000 1.570796
    7 1.257180 8.762585 -0.153713 -1.570562 0.002683 -1.566807
    8 -0.488518 -2.755602 -0.228260 -0.636863 -0.077551 -0.298478
    9 0.039887 -1.479790 0.029854 -2.230118 0.000000 0.000001
    10 0.028786 -1.075731 -0.023109 -0.271941 0.000000 0.000000
    11 0.250027 -2.820665 -0.238396 -0.437192 -0.061406 -0.314674
    12 -0.049759 -1.680544 0.100479 -2.308624 0.000000 -0.000002
    13 -0.034142 -1.148312 0.084782 -0.535851 0.000000 0.000000
    14 0.957766 -2.746780 -0.090302 0.398790 -0.132819 0.006168
    15 -0.033420 -1.397129 -0.011257 -0.765984 0.000000 -0.000001
    16 -0.022360 -0.957436 0.018784 -0.378946 0.000000 0.000000
    17 -1.180681 -2.507217 -0.193859 -0.535961 0.112898 -0.284556
    18 -0.024967 -1.123934 0.017597 -1.884509 0.000000 0.000001
    19 -0.020057 -0.890968 0.010090 -0.772262 0.000000 0.000000
    20 0.583510 -1.197277 0.185379 0.385373 -0.553917 -0.837084
    21 1.535927 0.010246 0.005009 -0.002964 -0.012979 -0.319498
    22 1.100771 0.004527 -0.010679 -0.011713 0.010472 -0.708000
    23 0.120153 -0.050270 -0.054489 0.287569 3.110905 1.561085
    24 6.721632 3.757296 -11.095372 0.197390 -3.899960 0.056216
    25 0.096944 -8.450418 -0.009365 -0.763037 -1.346425 1.363381
    26 0.447953 -2.798986 -0.200443 -1.456960 0.099071 0.252834
    27 -0.032909 -1.480204 0.004940 -1.601340 0.000000 0.000002
    28 -0.027022 -1.076920 -0.020210 -0.353735 0.000000 0.000000
    29 -0.249534 -2.846964 -0.174213 -1.241183 0.075210 0.132159
    30 0.043235 -1.683941 0.096012 -1.813709 0.002823 -0.000167
    31 0.031729 -1.160830 0.058838 -0.456154 0.000642 0.008372
    32 -0.963866 -2.785145 -0.085350 -1.148608 0.139589 0.121877
    33 0.028479 -1.403067 0.006271 -1.391232 0.000000 0.000000
    34 0.021413 -0.957781 0.020046 -0.471322 0.000000 0.000000
    35 1.164475 -2.543940 -0.170330 -1.423710 -0.066254 0.446863
    36 0.024032 -1.129042 0.017807 -1.462507 0.000000 0.000001
    37 0.014898 -0.883989 -0.019848 -0.549408 0.000000 0.000000
    38 -0.586770 -1.264477 0.200161 0.313906 -0.927915 -2.922977
    39 1.522835 0.058681 0.016848 0.001410 0.008985 1.029593
    40 1.117947 0.048424 -0.005766 -0.023469 -0.009175 1.254246
    41 -0.139399 -0.111698 0.014397 0.407653 0.171241 1.393752
    42 -6.260806 6.983652 -0.294122 1.580804 -0.005023 -0.912799
  time 2
    0 -0.368931 1.166145 1.199636 0.000000 0.000000 0.000000
    1 13.785048 -5.313191 -11.127714 -0.368509 -1.876088 -0.707456
    2 -0.071918 -8.498730 -0.104136 0.125976 0.129533 -0.392448
    3 5.233845 1.354622 1.688628 -0.065772 2.858007 1.272336
    4 19.997025 0.102143 0.000001 0.000000 0.000000 0.000000
    5 0.000000 0.000000 0.000000 0.000000 0.000000 0.000000
    6 6.506417 1.675302 0.000001 0.000000 0.000000 1.570796
    7 1.257180 8.762585 -0.153713 -1.570562 0.002683 -1.566807
    8 -0.488518 -2.755602 -0.228260 -0.636863 -0.077551 -0.298478
    9 0.039887 -1.479790 0.029854 -2.230118 0.000000 0.000001
    10 0.028786 -1.075731 -0.023109 -0.271941 0.000000 0.000000
    11 0.250027 -2.820665 -0.238396 -0.437192 -0.061406 -0.314674
    12 -0.049759 -1.680544 0.100479 -2.308624 0.000000 -0.000002
    13 -0.034142 -1.148312 0.084782 -0.535851 0.000000 0.000000
    14 0.957766 -2.746780 -0.090302 0.398790 -0.132819 0.006168
    15 -0.033420 -1.397129 -0.011257 -0.761859 0.000000 -0.000001
    16 -0.022360 -0.957436 0.018784 -0.374856 0.000000 0.000000
    17 -1.180681 -2.507217 -0.193859 -0.535961 0.112898 -0.284556
    18 -0.024967 -1.123934 0.017597 -1.884509 0.000000 0.000001
    19 -0.020057 -0.890968 0.010090 -0.772262 0.000000 0.000000
    20 0.583510 -1.197277 0.185379 0.385373 -0.553917 -0.837084
    21 1.535927 0.010246 0.005009 -0.002964 -0.012979 -0.319498
    22 1.100771 0.004527 -0.010679 -0.011713 0.010472 -0.708000
    23 0.120153 -0.050270 -0.054489 0.287569 3.110905 1.561085
    24 6.733351 3.780734 -10.638327 0.191237 -3.883915 0.073993
    25 0.096944 -8.450418 -0.009365 -0.763037 -1.346425 1.363381
    26 0.447953 -2.798986 -0.200443 -1.456960 0.099071 0.252834
    27 -0.032909 -1.480204 0.004940 -1.601340 0.000000 0.000002
    28 -0.027022 -1.076920 -0.020210 -0.353735 0.000000 0.000000
    29 -0.249534 -2.846964 -0.174213 -1.241183 0.075210 0.132159
    30 0.043235 -1.683941 0.096012 -1.813709 0.002823 -0.000167
    31 0.031729 -1.160830 0.058838 -0.456154 0.000642 0.008372
    32 -0.963866 -2.785145 -0.085350 -1.148608 0.139589 0.121877
    33 0.028479 -1.403067 0.006271 -1.391232 0.000000 0.000000
    34 0.021413 -0.957781 0.020046 -0.471322 0.000000 0.000000
    35 1.164475 -2.543940 -0.170330 -1.423710 -0.066254 0.446863
    36 0.024032 -1.129042 0.017807 -1.462507 0.000000 0.000001
    37 0.014898 -0.883989 -0.019848 -0.549408 0.000000 0.000000
    38 -0.586770 -1.264477 0.200161 0.313906 -0.927915 -2.922977
    39 1.522835 0.058681 0.016848 0.001410 0.008985 1.029593
    40 1.117947 0.048424 -0.005766 -0.023469 -0.009175 1.254246
    41 -0.139399 -0.111698 0.014397 0.407653 0.171241 1.393752
    42 -6.260806 6.983652 -0.294122 1.580804 -0.005023 -0.912799
  time 3
    0 -0.368931 1.166145 1.199636 0.000000 0.000000 0.000000
    1 13.976460 -5.129591 -10.760515 -0.368958 -1.865582 -0.684114
    2 -0.071918 -8.498730 -0.104136 0.126851 0.131115 -0.384070
    3 5.233845 1.354622 1.688628 -0.065772 2.858007 1.272336
    4 19.997025 0.102143 0.000001 0.000000 0.000000 0.000000
    5 0.000000 0.000000 0.000000 0.000000 0.000000 0.000000
    6 6.506417 1.675302 0.000001 0.000000 0.000000 1.570796
    7 1.257180 8.762585 -0.153713 -1.570562 0.002683 -1.566807
    8 -0.488518 -2.755602 -0.228260 -0.636863 -0.077551 -0.298478
    9 0.039887 -1.479790 0.029854 -2.230118 0.000000 0.000001
    10 0.028786 -1.075731 -0.023109 -0.271941 0.000000 0.000000
    11 0.250027 -2.820665 -0.238396 -0.437192 -0.061406 -0.314674
    12 -0.049759 -1.680544 0.100479 -2.308624 0.000000 -0.000002
    13 -0.034142 -1.148312 0.084782 -0.535851 0.000000 0.000000
    14 0.957766 -2.746780 -0.090302 0.398790 -0.132819 0.006168
    15 -0.033420 -1.397129 -0.011257 -0.755313 0.000000 -0.000001
    16 -0.022360 -0.957436 0.018784 -0.368345 0.000000 0.000000
    17 -1.180681 -2.507217 -0.193859 -0.535961 0.112898 -0.284556
    18 -0.024967 -1.123934 0.017597 -1.884509 0.000000 0.000001
    19 -0.020057 -0.890968 0.010090 -0.772262 0.000000 0.000000
    20 0.583510 -1.197277 0.185379 0.385373 -0.553917 -0.837084
    21 1.535927 0.010246 0.005009 -0.002964 -0.012979 -0.319498
    22 1.100771 0.004527 -0.010679 -0.011713 0.010472 -0.708000
    23 0.120153 -0.050270 -0.054489 0.287569 3.110905 1.561085
    24 6.745070 3.800266 -10.189094 0.184348 -3.868481 0.091485
    25 0.096944 -8.450418 -0.009365 -0.763037 -1.346425 1.363381
    26 0.447953 -2.798986 -0.200443 -1.456960 0.099071 0.252834
    27 -0.032909 -1.480204 0.004940 -1.601340 0.000000 0.000002
    28 -0.027022 -1.076920 -0.020210 -0.353735 0.000000 0.000000
    29 -0.249534 -2.846964 -0.174213 -1.241183 0.075210 0.132159
    30 0.043235 -1.683941 0.096012 -1.813709 0.002823 -0.000167
    31 0.031729 -1.160830 0.058838 -0.456154 0.000642 0.008372
    32 -0.963866 -2.785145 -0.085350 -1.148608 0.139589 0.121877
    33 0.028479 -1.403067 0.006271 -1.391232 0.000000 0.000000
    34 0.021413 -0.957781 0.020046 -0.471322 0.000000 0.000000
    35 1.164475 -2.543940 -0.170330 -1.423710 -0.066254 0.446863
    36 0.024032 -1.129042 0.017807 -1.462507 0.000000 0.000001
    37 0.014898 -0.883989 -0.019848 -0.549408 0.000000 0.000000
    38 -0.586770 -1.264477 0.200161 0.313906 -0.927915 -2.922977
    39 1.522835 0.058681 0.016848 0.001410 0.008985 1.029593
    40 1.117947 0.048424 -0.005766 -0.023469 -0.009175 1.254246
    41 -0.139399 -0.111698 0.014397 0.407653 0.171241 1.393752
    42 -6.260806 6.983652 -0.294122 1.580804 -0.005023 -0.912799
  time 4
    0 -0.368931 1.166145 1.199636 0.000000 0.000000 0.000000
    1 14.152247 -4.949898 -10.405036 -0.371023 -1.855106 -0.659192
    2 -0.071918 -8.498730 -0.104136 0.127738 0.132793 -0.375573
    3 5.233845 1.354622 1.688628 -0.065772 2.858007 1.272336
    4 19.997025 0.102143 0.000001 0.000000 0.000000 0.000000
    5 0.000000 0.000000 0.000000 0.000000 0.000000 0.000000
    6 6.506417 1.675302 0.000001 0.000000 0.000000 1.570796
    7 1.257180 8.762585 -0.153713 -1.570562 0.002683 -1.566807
    8 -0.488518 -2.755602 -0.228260 -0.636863 -0.077551 -0.298478
    9 0.039887 -1.479790 0.029854 -2.230118 0.000000 0.000001
    10 0.028786 -1.075731 -0.023109 -0.271941 0.000000 0.000000
    11 0.250027 -2.820665 -0.238396 -0.437192 -0.061406 -0.314674
    12 -0.049759 -1.680544 0.100479 -2.308624 0.000000 -0.000002
    13 -0.034142 -1.148312 0.084782 -0.535851 0.000000 0.000000
    14 0.957766 -2.746780 -0.090302 0.398790 -0.132819 0.006168
    15 -0.033420 -1.397129 -0.011257 -0.746704 0.000000 -0.000001
    16 -0.022360 -0.957436 0.018784 -0.359708 0.000000 0.000000
    17 -1.180681 -2.507217 -0.193859 -0.535961 0.112898 -0.284556
    18 -0.024967 -1.123934 0.017597 -1.884509 0.000000 0.000001
    19 -0.020057 -0.890968 0.010090 -0.772262 0.000000 0.000000
    20 0.583510 -1.197277 0.185379 0.385373 -0.553917 -0.837084
    21 1.535927 0.010246 0.005009 -0.002964 -0.012979 -0.319498
    22 1.100771 0.004527 -0.010679 -0.011713 0.010472 -0.708000
    23 0.120153 -0.050270 -0.054489 0.287569 3.110905 1.561085
    24 6.745070 3.815891 -9.755487 0.177326 -3.853134 0.109072
    25 0.096944 -8.450418 -0.009365 -0.763037 -1.346425 1.363381
    26 0.447953 -2.798986 -0.200443 -1.456960 0.099071 0.252834
    27 -0.032909 -1.480204 0.004940 -1.601340 0.000000 0.000002
    28 -0.027022 -1.076920 -0.020210 -0.353735 0.000000 0.000000
    29 -0.249534 -2.846964 -0.174213 -1.241183 0.075210 0.132159
    30 0.043235 -1.683941 0.096012 -1.813709 0.002823 -0.000167
    31 0.031729 -1.160830 0.058838 -0.456154 0.000642 0.008372
    32 -0.963866 -2.785145 -0.085350 -1.148608 0.139589 0.121877
    33 0.028479 -1.403067 0.006271 -1.391232 0.000000 0.000000
    34 0.021413 -0.957781 0.020046 -0.471322 0.000000 0.000000
    35 1.164475 -2.543940 -0.170330 -1.423710 -0.066254 0.446863
    36 0.024032 -1.129042 0.017807 -1.462507 0.000000 0.000001
    37 0.014898 -0.883989 -0.019848 -0.549408 0.000000 0.000000
    38 -0.586770 -1.264477 0.200161 0.313906 -0.927915 -2.922977
    39 1.522835 0.058681 0.016848 0.001410 0.008985 1.029593
    40 1.117947 0.048424 -0.005766 -0.023469 -0.009175 1.254246
    41 -0.139399 -0.111698 0.014397 0.407653 0.171241 1.393752
    42 -6.260806 6.983652 -0.294122 1.580804 -0.005023 -0.912799
  time 5
    0 -0.368931 1.166145 1.199636 0.000000 0.000000 0.000000
    1 14.312408 -4.766299 -10.065182 -0.372729 -1.844569 -0.634621
    2 -0.071918 -8.498730 -0.104136 0.128649 0.134530 -0.366968
    3 5.233845 1.354622 1.688628 -0.065772 2.858007 1.272336
    4 19.997025 0.102143 0.000001 0.000000 0.000000 0.000000
    5 0.000000 0.000000 0.000000 0.000000 0.000000 0.000000
    6 6.506417 1.675302 0.000001 0.000000 0.000000 1.570796
    7 1.257180 8.762585 -0.153713 -1.570562 0.002683 -1.566807
    8 -0.488518 -2.755602 -0.228260 -0.636863 -0.077551 -0.298478
    9 0.039887 -1.479790 0.029854 -2.230118 0.000000 0.000001
    10 0.028786 -1.075731 -0.023109 -0.271941 0.000000 0.000000
    11 0.250027 -2.820665 -0.238396 -0.437192 -0.061406 -0.314674
    12 -0.049759 -1.680544 0.100479 -2.308695 0.000000 -0.000002
    13 -0.034142 -1.148312 0.084782 -0.535851 0.000000 0.000000
    14 0.957766 -2.746780 -0.090302 0.398790 -0.132819 0.006168
    15 -0.033420 -1.397129 -0.011257 -0.736213 0.000000 -0.000001
    16 -0.022360 -0.957436 0.018784 -0.349239 0.000000 0.000000
    17 -1.180681 -2.507217 -0.193859 -0.535961 0.112898 -0.284556
    18 -0.024967 -1.123934 0.017597 -1.884509 0.000000 0.000001
    19 -0.020057 -0.890968 0.010090 -0.772262 0.000000 0.000000
    20 0.583510 -1.197277 0.185379 0.385373 -0.553917 -0.837084
    21 1.535927 0.010246 0.005009 -0.002964 -0.012979 -0.319498
    22 1.100771 0.004527 -0.010679 -0.011713 0.010472 -0.708000
    23 0.120153 -0.050270 -0.054489 0.287569 3.110905 1.561085
    24 6.733351 3.827610 -9.337506 0.170572 -3.837526 0.126945
    25 0.096944 -8.450418 -0.009365 -0.763037 -1.346425 1.363381
    26 0.447953 -2.798986 -0.200443 -1.456960 0.099071 0.252834
    27 -0.032909 -1.480204 0.004940 -1.601340 0.000000 0.000002
    28 -0.027022 -1.076920 -0.020210 -0.353735 0.000000 0.000000
    29 -0.249534 -2.846964 -0.174213 -1.241183 0.075210 0.132159
    30 0.043235 -1.683941 0.096012 -1.813709 0.002823 -0.000167
    31 0.031729 -1.160830 0.058838 -0.456154 0.000642 0.008372
    32 -0.963866 -2.785145 -0.085350 -1.148608 0.139589 0.121877
    33 0.028479 -1.403067 0.006271 -1.391232 0.000000 0.000000
    34 0.021413 -0.957781 0.020046 -0.471322 0.000000 0.000000
    35 1.164475 -2.543940 -0.170330 -1.423710 -0.066254 0.446863
    36 0.024032 -1.129042 0.017807 -1.462507 0.000000 0.000001
    37 0.014898 -0.883989 -0.019848 -0.549408 0.000000 0.000000
    38 -0.586770 -1.264477 0.200161 0.313906 -0.927915 -2.922977
    39 1.522835 0.058681 0.016848 0.001410 0.008985 1.029593
    40 1.117947 0.048424 -0.005766 -0.023469 -0.009175 1.254246
    41 -0.139399 -0.111698 0.014397 0.407653 0.171241 1.393752
    42 -6.260806 6.983652 -0.294122 1.580804 -0.005023 -0.912799
  time 6
    0 -0.368931 1.166145 1.199636 0.000000 0.000000 0.000000
    1 14.456944 -4.578793 -9.748766 -0.371831 -1.833727 -0.612508
    2 -0.071918 -8.498730 -0.104136 0.129583 0.136328 -0.358291
    3 5.233845 1.354622 1.688628 -0.065772 2.858007 1.272336
    4 19.997025 0.102143 0.000001 0.000000 0.000000 0.000000
    5 0.000000 0.000000 0.000000 0.000000 0.000000 0.000000
    6 6.506417 1.675302 0.000001 0.000000 0.000000 1.570796
    7 1.257180 8.762585 -0.153713 -1.570562 0.002683 -1.566807
    8 -0.488518 -2.755602 -0.228260 -0.636863 -0.077551 -0.298478
    9 0.039887 -1.479790 0.029854 -2.230118 0.000000 0.000001
    10 0.028786 -1.075731 -0.023109 -0.271941 0.000000 0.000000
    11 0.250027 -2.820665 -0.238396 -0.437192 -0.061406 -0.314674
    12 -0.049759 -1.680544 0.100479 -2.308624 0.000000 -0.000002
    13 -0.034142 -1.148312 0.084782 -0.535851 0.000000 0.000000
    14 0.957766 -2.746780 -0.090302 0.398790 -0.132819 0.006168
    15 -0.033420 -1.397129 -0.011257 -0.724197 0.000000 -0.000001
    16 -0.022360 -0.957436 0.018784 -0.337199 0.000000 0.000000
    17 -1.180681 -2.507217 -0.193859 -0.535961 0.112898 -0.284556
    18 -0.024967 -1.123934 0.017597 -1.884509 0.000000 0.000001
    19 -0.020057 -0.890968 0.010090 -0.772262 0.000000 0.000000
    20 0.583510 -1.197277 0.185379 0.385373 -0.553917 -0.837084
    21 1.535927 0.010246 0.005009 -0.002964 -0.012979 -0.319498
    22 1.100771 0.004527 -0.010679 -0.011713 0.010472 -0.708000
    23 0.120153 -0.050270 -0.054489 0.287569 3.110905 1.561085
    24 6.706007 3.839329 -8.946869 0.164419 -3.821132 0.145483
    25 0.096944 -8.450418 -0.009365 -0.763037 -1.346425 1.363381
    26 0.447953 -2.798986 -0.200443 -1.456960 0.099071 0.252834
    27 -0.032909 -1.480204 0.004940 -1.601340 0.000000 0.000002
    28 -0.027022 -1.076920 -0.020210 -0.353735 0.000000 0.000000
    29 -0.249534 -2.846964 -0.174213 -1.241183 0.075210 0.132159
    30 0.043235 -1.683941 0.096012 -1.813709 0.002823 -0.000167
    31 0.031729 -1.160830 0.058838 -0.456154 0.000642 0.008372
    32 -0.963866 -2.785145 -0.085350 -1.148608 0.139589 0.121877
    33 0.028479 -1.403067 0.006271 -1.391232 0.000000 0.000000
    34 0.021413 -0.957781 0.020046 -0.471322 0.000000 0.000000
    35 1.164475 -2.543940 -0.170330 -1.423710 -0.066254 0.446863
    36 0.024032 -1.129042 0.017807 -1.462507 0.000000 0.000001
    37 0.014898 -0.883989 -0.019848 -0.549408 0.000000 0.000000
    38 -0.586770 -1.264477 0.200161 0.313906 -0.927915 -2.922977
    39 1.522835 0.058681 0.016848 0.001410 0.008985 1.029593
    40 1.117947 0.048424 -0.005766 -0.023469 -0.009175 1.254246
    41 -0.139399 -0.111698 0.014397 0.407653 0.171241 1.393752
    42 -6.260806 6.983652 -0.294122 1.580804 -0.005023 -0.912799
  time 7
    0 -0.368931 1.166145 1.199636 0.000000 0.000000 0.000000
    1 14.574135 -4.391288 -9.463601 -0.365635 -1.822458 -0.595484
    2 -0.071918 -8.498730 -0.104136 0.130530 0.138150 -0.349579
    3 5.233845 1.354622 1.688628 -0.065772 2.858007 1.272336
    4 19.997025 0.102143 0.000001 0.000000 0.000000 0.000000
    5 0.000000 0.000000 0.000000 0.000000 0.000000 0.000000
    6 6.506417 1.675302 0.000001 0.000000 0.000000 1.570796
    7 1.257180 8.762585 -0.153713 -1.570562 0.002683 -1.566807
    8 -0.488518 -2.755602 -0.228260 -0.636863 -0.077551 -0.298478
    9 0.039887 -1.479790 0.029854 -2.230118 0.000000 0.000001
    10 0.028786 -1.075731 -0.023109 -0.271941 0.000000 0.000000
    11 0.250027 -2.820665 -0.238396 -0.437192 -0.061406 -0.314674
    12 -0.049759 -1.680544 0.100479 -2.308624 0.000000 -0.000002
    13 -0.034142 -1.148312 0.084782 -0.535851 0.000000 0.000000
    14 0.957766 -2.746780 -0.090302 0.398790 -0.132819 0.006168
    15 -0.033420 -1.397129 -0.011257 -0.710926 0.000000 -0.000001
    16 -0.022360 -0.957436 0.018784 -0.323916 0.000000 0.000000
    17 -1.180681 -2.507217 -0.193859 -0.535961 0.112898 -0.284556
    18 -0.024967 -1.123934 0.017597 -1.884509 0.000000 0.000001
    19 -0.020057 -0.890968 0.010090 -0.772262 0.000000 0.000000
    20 0.583510 -1.197277 0.185379 0.385373 -0.553917 -0.837084
    21 1.535927 0.010246 0.005009 -0.002964 -0.012979 -0.319498
    22 1.100771 0.004527 -0.010679 -0.011713 0.010472 -0.708000
    23 0.120153 -0.050270 -0.054489 0.287569 3.110905 1.561085
    24 6.663036 3.847142 -8.579670 0.159203 -3.803431 0.164781
    25 0.096944 -8.450418 -0.009365 -0.763037 -1.346425 1.363381
    26 0.447953 -2.798986 -0.200443 -1.456960 0.099071 0.252834
    27 -0.032909 -1.480204 0.004940 -1.601340 0.000000 0.000002
    28 -0.027022 -1.076920 -0.020210 -0.353735 0.000000 0.000000
    29 -0.249534 -2.846964 -0.174213 -1.241183 0.075210 0.132159
    30 0.043235 -1.683941 0.096012 -1.813709 0.002823 -0.000167
    31 0.031729 -1.160830 0.058838 -0.456154 0.000642 0.008372
    32 -0.963866 -2.785145 -0.085350 -1.148608 0.139589 0.121877
    33 0.028479 -1.403067 0.006271 -1.391232 0.000000 0.000000
    34 0.021413 -0.957781 0.020046 -0.471322 0.000000 0.000000
    35 1.164475 -2.543940 -0.170330 -1.423710 -0.066254 0.446863
    36 0.024032 -1.129042 0.017807 -1.462507 0.000000 0.000001
    37 0.014898 -0.883989 -0.019848 -0.549408 0.000000 0.000000
    38 -0.586770 -1.264477 0.200161 0.313906 -0.927915 -2.922977
    39 1.522835 0.058681 0.016848 0.001410 0.008985 1.029593
    40 1.117947 0.048424 -0.005766 -0.023469 -0.009175 1.254246
    41 -0.139399 -0.111698 0.014397 0.407653 0.171241 1.393752
    42 -6.260806 6.983652 -0.294122 1.580804 -0.005023 -0.912799
  time 8
    0 -0.368931 1.166145 1.199636 0.000000 0.000000 0.000000
    1 14.667887 -4.203782 -9.213593 -0.351179 -1.810546 -0.586445
    2 -0.071918 -8.498730 -0.104136 0.131501 0.139959 -0.340854
    3 5.233845 1.354622 1.688628 -0.065772 2.858007 1.272336
    4 19.997025 0.102143 0.000001 0.000000 0.000000 0.000000
    5 0.000000 0.000000 0.000000 0.000000 0.000000 0.000000
    6 6.506417 1.675302 0.000001 0.000000 0.000000 1.570796
    7 1.257180 8.762585 -0.153713 -1.570562 0.002683 -1.566807
    8 -0.488518 -2.755602 -0.228260 -0.636863 -0.077551 -0.298478
    9 0.039887 -1.479790 0.029854 -2.230118 0.000000 0.000001
    10 0.028786 -1.075731 -0.023109 -0.271941 0.000000 0.000000
    11 0.250027 -2.820665 -0.238396 -0.437192 -0.061406 -0.314674
    12 -0.049759 -1.680544 0.100479 -2.308624 0.000000 -0.000002
    13 -0.034142 -1.148312 0.084782 -0.535851 0.000000 0.000000
    14 0.957766 -2.746780 -0.090302 0.398790 -0.132819 0.006168
    15 -0.033420 -1.397129 -0.011257 -0.696623 0.000000 -0.000001
    16 -0.022360 -0.957436 0.018784 -0.309651 0.000000 0.000000
    17 -1.180681 -2.507217 -0.193859 -0.535961 0.112898 -0.284556
    18 -0.024967 -1.123934 0.017597 -1.884509 0.000000 0.000001
    19 -0.020057 -0.890968 0.010090 -0.772262 0.000000 0.000000
    20 0.583510 -1.197277 0.185379 0.385373 -0.553917 -0.837084
    21 1.535927 0.010246 0.005009 -0.002964 -0.012979 -0.319498
    22 1.100771 0.004527 -0.010679 -0.011713 0.010472 -0.708000
    23 0.120153 -0.050270 -0.054489 0.287569 3.110905 1.561085
    24 6.592722 3.854955 -8.247629 0.155190 -3.783986 0.185125
    25 0.096944 -8.450418 -0.009365 -0.763037 -1.346425 1.363381
    26 0.447953 -2.798986 -0.200443 -1.456960 0.099071 0.252834
    27 -0.032909 -1.480204 0.004940 -1.601340 0.000000 0.000002
    28 -0.027022 -1.076920 -0.020210 -0.353735 0.000000 0.000000
    29 -0.249534 -2.846964 -0.174213 -1.241183 0.075210 0.132159
    30 0.043235 -1.683941 0.096012 -1.813709 0.002823 -0.000167
    31 0.031729 -1.160830 0.058838 -0.456154 0.000642 0.008372
    32 -0.963866 -2.785145 -0.085350 -1.148608 0.139589 0.121877
    33 0.028479 -1.403067 0.006271 -1.391232 0.000000 0.000000
    34 0.021413 -0.957781 0.020046 -0.471322 0.000000 0.000000
    35 1.164475 -2.543940 -0.170330 -1.423710 -0.066254 0.446863
    36 0.024032 -1.129042 0.017807 -1.462507 0.000000 0.000001
    37 0.014898 -0.883989 -0.019848 -0.549408 0.000000 0.000000
    38 -0.586770 -1.264477 0.200161 0.313906 -0.927915 -2.922977
    39 1.522835 0.058681 0.016848 0.001410 0.008985 1.029593
    40 1.117947 0.048424 -0.005766 -0.023469 -0.009175 1.254246
    41 -0.139399 -0.111698 0.014397 0.407653 0.171241 1.393752
    42 -6.260806 6.983652 -0.294122 1.580804 -0.005023 -0.912799
  time 9
    0 -0.368931 1.166145 1.199636 0.000000 0.000000 0.000000
    1 14.726483 -4.012370 -8.998743 -0.324422 -1.797841 -0.589166
    2 -0.071918 -8.498730 -0.104136 0.132484 0.141757 -0.332129
    3 5.233845 1.354622 1.688628 -0.065772 2.858007 1.272336
    4 19.997025 0.102143 0.000001 0.000000 0.000000 0.000000
    5 0.000000 0.000000 0.000000 0.000000 0.000000 0.000000
    6 6.506417 1.675302 0.000001 0.000000 0.000000 1.570796
    7 1.257180 8.762585 -0.153713 -1.570562 0.002683 -1.566807
    8 -0.488518 -2.755602 -0.228260 -0.636863 -0.077551 -0.298478
    9 0.039887 -1.479790 0.029854 -2.230118 0.000000 0.000001
    10 0.028786 -1.075731 -0.023109 -0.271941 0.000000 0.000000
    11 0.250027 -2.820665 -0.238396 -0.437192 -0.061406 -0.314674
    12 -0.049759 -1.680544 0.100479 -2.308695 0.000000 -0.000002
    13 -0.034142 -1.148312 0.084782 -0.535851 0.000000 0.000000
    14 0.957766 -2.746780 -0.090302 0.398790 -0.132819 0.006168
    15 -0.033420 -1.397129 -0.011257 -0.681648 0.000000 -0.000001
    16 -0.022360 -0.957436 0.018784 -0.294666 0.000000 0.000000
    17 -1.180681 -2.507217 -0.193859 -0.535961 0.112898 -0.284556
    18 -0.024967 -1.123934 0.017597 -1.884509 0.000000 0.000001
    19 -0.020057 -0.890968 0.010090 -0.772262 0.000000 0.000000
    20 0.583510 -1.197277 0.185379 0.385373 -0.553917 -0.837084
    21 1.535927 0.010246 0.005009 -0.002964 -0.012979 -0.319498
    22 1.100771 0.004527 -0.010679 -0.011713 0.010472 -0.708000
    23 0.120153 -0.050270 -0.054489 0.287569 3.110905 1.561085
    24 6.498969 3.862768 -7.946838 0.152716 -3.762186 0.206610
    25 0.096944 -8.450418 -0.009365 -0.763037 -1.346425 1.363381
    26 0.447953 -2.798986 -0.200443 -1.456960 0.099071 0.252834
    27 -0.032909 -1.480204 0.004940 -1.601340 0.000000 0.000002
    28 -0.027022 -1.076920 -0.020210 -0.353735 0.000000 0.000000
    29 -0.249534 -2.846964 -0.174213 -1.241183 0.075210 0.132159
    30 0.043235 -1.683941 0.096012 -1.813709 0.002823 -0.000167
    31 0.031729 -1.160830 0.058838 -0.456154 0.000642 0.008372
    32 -0.963866 -2.785145 -0.085350 -1.148608 0.139589 0.121877
    33 0.028479 -1.403067 0.006271 -1.391232 0.000000 0.000000
    34 0.021413 -0.957781 0.020046 -0.471322 0.000000 0.000000
    35 1.164475 -2.543940 -0.170330 -1.423710 -0.066254 0.446863
    36 0.024032 -1.129042 0.017807 -1.462507 0.000000 0.000001
    37 0.014898 -0.883989 -0.019848 -0.549408 0.000000 0.000000
    38 -0.586770 -1.264477 0.200161 0.313906 -0.927915 -2.922977
    39 1.522835 0.058681 0.016848 0.001410 0.008985 1.029593
    40 1.117947 0.048424 -0.005766 -0.023469 -0.009175 1.254246
    41 -0.139399 -0.111698 0.014397 0.407653 0.171241 1.393752
    42 -6.260806 6.983652 -0.294122 1.580804 -0.005023 -0.912799
  time 10
    0 -0.368931 1.166145 1.199636 0.000000 0.000000 0.000000
    1 14.749921 -3.817051 -8.826863 -0.280604 -1.784373 -0.608559
    2 -0.071918 -8.498730 -0.104136 0.133478 0.143495 -0.323464
    3 5.233845 1.354622 1.688628 -0.065772 2.858007 1.272336
    4 19.997025 0.102143 0.000001 0.000000 0.000000 0.000000
    5 0.000000 0.000000 0.000000 0.000000 0.000000 0.000000
    6 6.506417 1.675302 0.000001 0.000000 0.000000 1.570796
    7 1.257180 8.762585 -0.153713 -1.570562 0.002683 -1.566807
    8 -0.488518 -2.755602 -0.228260 -0.636863 -0.077551 -0.298478
    9 0.039887 -1.479790 0.029854 -2.230118 0.000000 0.000001
    10 0.028786 -1.075731 -0.023109 -0.271941 0.000000 0.000000
    11 0.250027 -2.820665 -0.238396 -0.437192 -0.061406 -0.314674
    12 -0.049759 -1.680544 0.100479 -2.308695 0.000000 -0.000002
    13 -0.034142 -1.148312 0.084782 -0.535851 0.000000 0.000000
    14 0.957766 -2.746780 -0.090302 0.398790 -0.132819 0.006168
    15 -0.033420 -1.397129 -0.011257 -0.666269 0.000000 -0.000001
    16 -0.022360 -0.957436 0.018784 -0.279257 0.000000 0.000000
    17 -1.180681 -2.507217 -0.193859 -0.535961 0.112898 -0.284556
    18 -0.024967 -1.123934 0.017597 -1.884509 0.000000 0.000001
    19 -0.020057 -0.890968 0.010090 -0.772262 0.000000 0.000000
    20 0.583510 -1.197277 0.185379 0.385373 -0.553917 -0.837084
    21 1.535927 0.010246 0.005009 -0.002964 -0.012979 -0.319498
    22 1.100771 0.004527 -0.010679 -0.011713 0.010472 -0.708000
    23 0.120153 -0.050270 -0.054489 0.287569 3.110905 1.561085
    24 6.377872 3.870580 -7.685112 0.151913 -3.737596 0.229331
    25 0.096944 -8.450418 -0.009365 -0.763037 -1.346425 1.363381
    26 0.447953 -2.798986 -0.200443 -1.456960 0.099071 0.252834
    27 -0.032909 -1.480204 0.004940 -1.601340 0.000000 0.000002
    28 -0.027022 -1.076920 -0.020210 -0.353735 0.000000 0.000000
    29 -0.249534 -2.846964 -0.174213 -1.241183 0.075210 0.132159
    30 0.043235 -1.683941 0.096012 -1.813709 0.002823 -0.000167
    31 0.031729 -1.160830 0.058838 -0.456154 0.000642 0.008372
    32 -0.963866 -2.785145 -0.085350 -1.148608 0.139589 0.121877
    33 0.028479 -1.403067 0.006271 -1.391232 0.000000 0.000000
    34 0.021413 -0.957781 0.020046 -0.471322 0.000000 0.000000
    35 1.164475 -2.543940 -0.170330 -1.423710 -0.066254 0.446863
    36 0.024032 -1.129042 0.017807 -1.462507 0.000000 0.000001
    37 0.014898 -0.883989 -0.019848 -0.549408 0.000000 0.000000
    38 -0.586770 -1.264477 0.200161 0.313906 -0.927915 -2.922977
    39 1.522835 0.058681 0.016848 0.001410 0.008985 1.029593
    40 1.117947 0.048424 -0.005766 -0.023469 -0.009175 1.254246
    41 -0.139399 -0.111698 0.014397 0.407653 0.171241 1.393752
    42 -6.260806 6.983652 -0.294122 1.580804 -0.005023 -0.912799
  time 11
    0 -0.368931 1.166145 1.199636 0.000000 0.000000 0.000000
    1 14.687419 -3.606107 -8.748735 -0.193867 -1.768338 -0.668669
    2 -0.071918 -8.498730 -0.104136 0.134473 0.145173 -0.314871
    3 5.233845 1.354622 1.688628 -0.065772 2.858007 1.272336
    4 19.997025 0.102143 0.000001 0.000000 0.000000 0.000000
    5 0.000000 0.000000 0.000000 0.000000 0.000000 0.000000
    6 6.506417 1.675302 0.000001 0.000000 0.000000 1.570796
    7 1.257180 8.762585 -0.153713 -1.570562 0.002683 -1.566807
    8 -0.488518 -2.755602 -0.228260 -0.636863 -0.077551 -0.298478
    9 0.039887 -1.479790 0.029854 -2.230118 0.000000 0.000001
    10 0.028786 -1.075731 -0.023109 -0.271941 0.000000 0.000000
    11 0.250027 -2.820665 -0.238396 -0.437192 -0.061406 -0.314674
    12 -0.049759 -1.680544 0.100479 -2.308624 0.000000 -0.000002
    13 -0.034142 -1.148312 0.084782 -0.535851 0.000000 0.000000
    14 0.957766 -2.746780 -0.090302 0.398790 -0.132819 0.006168
    15 -0.033420 -1.397129 -0.011257 -0.650712 0.000000 -0.000001
    16 -0.022360 -0.957436 0.018784 -0.263716 0.000000 0.000000
    17 -1.180681 -2.507217 -0.193859 -0.535961 0.112898 -0.284556
    18 -0.024967 -1.123934 0.017597 -1.884509 0.000000 0.000001
    19 -0.020057 -0.890968 0.010090 -0.772262 0.000000 0.000000
    20 0.583510 -1.197277 0.185379 0.385373 -0.553917 -0.837084
    21 1.535927 0.010246 0.005009 -0.002964 -0.012979 -0.319498
    22 1.100771 0.004527 -0.010679 -0.011713 0.010472 -0.708000
    23 0.120153 -0.050270 -0.054489 0.287569 3.110905 1.561085
    24 6.166928 3.890112 -7.493699 0.153786 -3.705507 0.254999
    25 0.096944 -8.450418 -0.009365 -0.763037 -1.346425 1.363381
    26 0.447953 -2.798986 -0.200443 -1.456960 0.099071 0.252834
    27 -0.032909 -1.480204 0.004940 -1.601340 0.000000 0.000002
    28 -0.027022 -1.076920 -0.020210 -0.353735 0.000000 0.000000
    29 -0.249534 -2.846964 -0.174213 -1.241183 0.075210 0.132159
    30 0.043235 -1.683941 0.096012 -1.813709 0.002823 -0.000167
    31 0.031729 -1.160830 0.058838 -0.456154 0.000642 0.008372
    32 -0.963866 -2.785145 -0.085350 -1.148608 0.139589 0.121877
    33 0.028479 -1.403067 0.006271 -1.391232 0.000000 0.000000
    34 0.021413 -0.957781 0.020046 -0.471322 0.000000 0.000000
    35 1.164475 -2.543940 -0.170330 -1.423710 -0.066254 0.446863
    36 0.024032 -1.129042 0.017807 -1.462507 0.000000 0.000001
    37 0.014898 -0.883989 -0.019848 -0.549408 0.000000 0.000000
    38 -0.586770 -1.264477 0.200161 0.313906 -0.927915 -2.922977
    39 1.522835 0.058681 0.016848 0.001410 0.008985 1.029593
    40 1.117947 0.048424 -0.005766 -0.023469 -0.009175 1.254246
    41 -0.139399 -0.111698 0.014397 0.407653 0.171241 1.393752
    42 -6.260806 6.983652 -0.294122 1.580804 -0.005023 -0.912799
  time 12
    0 -0.368931 1.166145 1.199636 0.000000 0.000000 0.000000
    1 14.511633 -3.371725 -8.799518 -0.042571 -1.751480 -0.790908
    2 -0.071918 -8.498730 -0.104136 0.135480 0.146755 -0.306374
    3 5.233845 1.354622 1.688628 -0.065772 2.858007 1.272336
    4 19.997025 0.102143 0.000001 0.000000 0.000000 0.000000
    5 0.000000 0.000000 0.000000 0.000000 0.000000 0.000000
    6 6.506417 1.675302 0.000001 0.000000 0.000000 1.570796
    7 1.257180 8.762585 -0.153713 -1.570562 0.002683 -1.566807
    8 -0.488518 -2.755602 -0.228260 -0.636863 -0.077551 -0.298478
    9 0.039887 -1.479790 0.029854 -2.230118 0.000000 0.000001
    10 0.028786 -1.075731 -0.023109 -0.271941 0.000000 0.000000
    11 0.250027 -2.820665 -0.238396 -0.437192 -0.061406 -0.314674
    12 -0.049759 -1.680544 0.100479 -2.308624 0.000000 -0.000002
    13 -0.034142 -1.148312 0.084782 -0.535851 0.000000 0.000000
    14 0.957766 -2.746780 -0.090302 0.398790 -0.132819 0.006168
    15 -0.033420 -1.397129 -0.011257 -0.635288 0.000000 -0.000001
    16 -0.022360 -0.957436 0.018784 -0.248306 0.000000 0.000000
    17 -1.180681 -2.507217 -0.193859 -0.535961 0.112898 -0.284556
    18 -0.024967 -1.123934 0.017597 -1.884509 0.000000 0.000001
    19 -0.020057 -0.890968 0.010090 -0.772262 0.000000 0.000000
    20 0.583510 -1.197277 0.185379 0.385373 -0.553917 -0.837084
    21 1.535927 0.010246 0.005009 -0.002964 -0.012979 -0.319498
    22 1.100771 0.004527 -0.010679 -0.011713 0.010472 -0.708000
    23 0.120153 -0.050270 -0.054489 0.287569 3.110905 1.561085
    24 5.854418 3.917457 -7.388227 0.158333 -3.664349 0.283613
    25 0.096944 -8.450418 -0.009365 -0.763037 -1.346425 1.363381
    26 0.447953 -2.798986 -0.200443 -1.456960 0.099071 0.252834
    27 -0.032909 -1.480204 0.004940 -1.601340 0.000000 0.000002
    28 -0.027022 -1.076920 -0.020210 -0.353735 0.000000 0.000000
    29 -0.249534 -2.846964 -0.174213 -1.241183 0.075210 0.132159
    30 0.043235 -1.683941 0.096012 -1.813709 0.002823 -0.000167
    31 0.031729 -1.160830 0.058838 -0.456154 0.000642 0.008372
    32 -0.963866 -2.785145 -0.085350 -1.148608 0.139589 0.121877
    33 0.028479 -1.403067 0.006271 -1.391232 0.000000 0.000000
    34 0.021413 -0.957781 0.020046 -0.471322 0.000000 0.000000
    35 1.164475 -2.543940 -0.170330 -1.423710 -0.066254 0.446863
    36 0.024032 -1.129042 0.017807 -1.462507 0.000000 0.000001
    37 0.014898 -0.883989 -0.019848 -0.549408 0.000000 0.000000
    38 -0.586770 -1.264477 0.200161 0.313906 -0.927915 -2.922977
    39 1.522835 0.058681 0.016848 0.001410 0.008985 1.029593
    40 1.117947 0.048424 -0.005766 -0.023469 -0.009175 1.254246
    41 -0.139399 -0.111698 0.014397 0.407653 0.171241 1.393752
    42 -6.260806 6.983652 -0.294122 1.580804 -0.005023 -0.912799
  time 13
    0 -0.368931 1.166145 1.199636 0.000000 0.000000 0.000000
    1 14.265531 -3.129530 -8.936241 0.165921 -1.739355 -0.969396
    2 -0.071918 -8.498730 -0.104136 0.136487 0.148205 -0.298009
    3 5.233845 1.354622 1.688628 -0.065772 2.858007 1.272336
    4 19.997025 0.102143 0.000001 0.000000 0.000000 0.000000
    5 0.000000 0.000000 0.000000 0.000000 0.000000 0.000000
    6 6.506417 1.675302 0.000001 0.000000 0.000000 1.570796
    7 1.257180 8.762585 -0.153713 -1.570562 0.002683 -1.566807
    8 -0.488518 -2.755602 -0.228260 -0.636863 -0.077551 -0.298478
    9 0.039887 -1.479790 0.029854 -2.230118 0.000000 0.000001
    10 0.028786 -1.075731 -0.023109 -0.271941 0.000000 0.000000
    11 0.250027 -2.820665 -0.238396 -0.437192 -0.061406 -0.314674
    12 -0.049759 -1.680544 0.100479 -2.308624 0.000000 -0.000002
    13 -0.034142 -1.148312 0.084782 -0.535851 0.000000 0.000000
    14 0.957766 -2.746780 -0.090302 0.398790 -0.132819 0.006168
    15 -0.033420 -1.397129 -0.011257 -0.620313 0.000000 -0.000001
    16 -0.022360 -0.957436 0.018784 -0.233322 0.000000 0.000000
    17 -1.180681 -2.507217 -0.193859 -0.535961 0.112898 -0.284556
    18 -0.024967 -1.123934 0.017597 -1.884509 0.000000 0.000001
    19 -0.020057 -0.890968 0.010090 -0.772262 0.000000 0.000000
    20 0.583510 -1.197277 0.185379 0.385373 -0.553917 -0.837084
    21 1.535927 0.010246 0.005009 -0.002964 -0.012979 -0.319498
    22 1.100771 0.004527 -0.010679 -0.011713 0.010472 -0.708000
    23 0.120153 -0.050270 -0.054489 0.287569 3.110905 1.561085
    24 5.475500 3.952614 -7.360883 0.164352 -3.618395 0.313274
    25 0.096944 -8.450418 -0.009365 -0.763037 -1.346425 1.363381
    26 0.447953 -2.798986 -0.200443 -1.456960 0.099071 0.252834
    27 -0.032909 -1.480204 0.004940 -1.601340 0.000000 0.000002
    28 -0.027022 -1.076920 -0.020210 -0.353735 0.000000 0.000000
    29 -0.249534 -2.846964 -0.174213 -1.241183 0.075210 0.132159
    30 0.043235 -1.683941 0.096012 -1.813709 0.002823 -0.000167
    31 0.031729 -1.160830 0.058838 -0.456154 0.000642 0.008372
    32 -0.963866 -2.785145 -0.085350 -1.148608 0.139589 0.121877
    33 0.028479 -1.403067 0.006271 -1.391232 0.000000 0.000000
    34 0.021413 -0.957781 0.020046 -0.471322 0.000000 0.000000
    35 1.164475 -2.543940 -0.170330 -1.423710 -0.066254 0.446863
    36 0.024032 -1.129042 0.017807 -1.462507 0.000000 0.000001
    37 0.014898 -0.883989 -0.019848 -0.549408 0.000000 0.000000
    38 -0.586770 -1.264477 0.200161 0.313906 -0.927915 -2.922977
    39 1.522835 0.058681 0.016848 0.001410 0.008985 1.029593
    40 1.117947 0.048424 -0.005766 -0.023469 -0.009175 1.254246
    41 -0.139399 -0.111698 0.014397 0.407653 0.171241 1.393752
    42 -6.260806 6.983652 -0.294122 1.580804 -0.005023 -0.912799
  time 14
    0 -0.368931 1.166145 1.199636 0.000000 0.000000 0.000000
    1 13.984273 -2.899055 -9.127653 0.400183 -1.736270 -1.174474
    2 -0.071918 -8.498730 -0.104136 0.137493 0.149523 -0.289812
    3 5.233845 1.354622 1.688628 -0.065772 2.858007 1.272336
    4 19.997025 0.102143 0.000001 0.000000 0.000000 0.000000
    5 0.000000 0.000000 0.000000 0.000000 0.000000 0.000000
    6 6.506417 1.675302 0.000001 0.000000 0.000000 1.570796
    7 1.257180 8.762585 -0.153713 -1.570562 0.002683 -1.566807
    8 -0.488518 -2.755602 -0.228260 -0.636863 -0.077551 -0.298478
    9 0.039887 -1.479790 0.029854 -2.230118 0.000000 0.000001
    10 0.028786 -1.075731 -0.023109 -0.271941 0.000000 0.000000
    11 0.250027 -2.820665 -0.238396 -0.437192 -0.061406 -0.314674
    12 -0.049759 -1.680544 0.100479 -2.308624 0.000000 -0.000002
    13 -0.034142 -1.148312 0.084782 -0.535851 0.000000 0.000000
    14 0.957766 -2.746780 -0.090302 0.398790 -0.132819 0.006168
    15 -0.033420 -1.397129 -0.011257 -0.606055 0.000000 -0.000001
    16 -0.022360 -0.957436 0.018784 -0.219024 0.000000 0.000000
    17 -1.180681 -2.507217 -0.193859 -0.535961 0.112898 -0.284556
    18 -0.024967 -1.123934 0.017597 -1.884509 0.000000 0.000001
    19 -0.020057 -0.890968 0.010090 -0.772262 0.000000 0.000000
    20 0.583510 -1.197277 0.185379 0.385373 -0.553917 -0.837084
    21 1.535927 0.010246 0.005009 -0.002964 -0.012979 -0.319498
    22 1.100771 0.004527 -0.010679 -0.011713 0.010472 -0.708000
    23 0.120153 -0.050270 -0.054489 0.287569 3.110905 1.561085
    24 5.080957 3.983865 -7.392134 0.171374 -3.571831 0.342269
    25 0.096944 -8.450418 -0.009365 -0.763037 -1.346425 1.363381
    26 0.447953 -2.798986 -0.200443 -1.456960 0.099071 0.252834
    27 -0.032909 -1.480204 0.004940 -1.601340 0.000000 0.000002
    28 -0.027022 -1.076920 -0.020210 -0.353735 0.000000 0.000000
    29 -0.249534 -2.846964 -0.174213 -1.241183 0.075210 0.132159
    30 0.043235 -1.683941 0.096012 -1.813709 0.002823 -0.000167
    31 0.031729 -1.160830 0.058838 -0.456154 0.000642 0.008372
    32 -0.963866 -2.785145 -0.085350 -1.148608 0.139589 0.121877
    33 0.028479 -1.403067 0.006271 -1.391232 0.000000 0.000000
    34 0.021413 -0.957781 0.020046 -0.471322 0.000000 0.000000
    35 1.164475 -2.543940 -0.170330 -1.423710 -0.066254 0.446863
    36 0.024032 -1.129042 0.017807 -1.462507 0.000000 0.000001
    37 0.014898 -0.883989 -0.019848 -0.549408 0.000000 0.000000
    38 -0.586770 -1.264477 0.200161 0.313906 -0.927915 -2.922977
    39 1.522835 0.058681 0.016848 0.001410 0.008985 1.029593
    40 1.117947 0.048424 -0.005766 -0.023469 -0.009175 1.254246
    41 -0.139399 -0.111698 0.014397 0.407653 0.171241 1.393752
    42 -6.260806 6.983652 -0.294122 1.580804 -0.005023 -0.912799
  time 15
    0 -0.368931 1.166145 1.199636 0.000000 0.000000 0.000000
    1 13.710827 -2.699830 -9.330784 0.609573 -1.742562 -1.357086
    2 -0.071918 -8.498730 -0.104136 0.138476 0.150674 -0.281806
    3 5.233845 1.354622 1.688628 -0.065772 2.858007 1.272336
    4 19.997025 0.102143 0.000001 0.000000 0.000000 0.000000
    5 0.000000 0.000000 0.000000 0.000000 0.000000 0.000000
    6 6.506417 1.675302 0.000001 0.000000 0.000000 1.570796
    7 1.257180 8.762585 -0.153713 -1.570562 0.002683 -1.566807
    8 -0.488518 -2.755602 -0.228260 -0.636863 -0.077551 -0.298478
    9 0.039887 -1.479790 0.029854 -2.230118 0.000000 0.000001
    10 0.028786 -1.075731 -0.023109 -0.271941 0.000000 0.000000
    11 0.250027 -2.820665 -0.238396 -0.437192 -0.061406 -0.314674
    12 -0.049759 -1.680544 0.100479 -2.308624 0.000000 -0.000002
    13 -0.034142 -1.148312 0.084782 -0.535851 0.000000 0.000000
    14 0.957766 -2.746780 -0.090302 0.398790 -0.132819 0.006168
    15 -0.033420 -1.397129 -0.011257 -0.592739 0.000000 -0.000001
    16 -0.022360 -0.957436 0.018784 -0.205741 0.000000 0.000000
    17 -1.180681 -2.507217 -0.193859 -0.535961 0.112898 -0.284556
    18 -0.024967 -1.123934 0.017597 -1.884509 0.000000 0.000001
    19 -0.020057 -0.890968 0.010090 -0.772262 0.000000 0.000000
    20 0.583510 -1.197277 0.185379 0.385373 -0.553917 -0.837084
    21 1.535927 0.010246 0.005009 -0.002964 -0.012979 -0.319498
    22 1.100771 0.004527 -0.010679 -0.011713 0.010472 -0.708000
    23 0.120153 -0.050270 -0.054489 0.287569 3.110905 1.561085
    24 4.709852 4.007303 -7.478074 0.179132 -3.528929 0.369268
    25 0.096944 -8.450418 -0.009365 -0.763037 -1.346425 1.363381
    26 0.447953 -2.798986 -0.200443 -1.456960 0.099071 0.252834
    27 -0.032909 -1.480204 0.004940 -1.601340 0.000000 0.000002
    28 -0.027022 -1.076920 -0.020210 -0.353735 0.000000 0.000000
    29 -0.249534 -2.846964 -0.174213 -1.241183 0.075210 0.132159
    30 0.043235 -1.683941 0.096012 -1.813709 0.002823 -0.000167
    31 0.031729 -1.160830 0.058838 -0.456154 0.000642 0.008372
    32 -0.963866 -2.785145 -0.085350 -1.148608 0.139589 0.121877
    33 0.028479 -1.403067 0.006271 -1.391232 0.000000 0.000000
    34 0.021413 -0.957781 0.020046 -0.471322 0.000000 0.000000
    35 1.164475 -2.543940 -0.170330 -1.423710 -0.066254 0.446863
    36 0.024032 -1.129042 0.017807 -1.462507 0.000000 0.000001
    37 0.014898 -0.883989 -0.019848 -0.549408 0.000000 0.000000
    38 -0.586770 -1.264477 0.200161 0.313906 -0.927915 -2.922977
    39 1.522835 0.058681 0.016848 0.001410 0.008985 1.029593
    40 1.117947 0.048424 -0.005766 -0.023469 -0.009175 1.254246
    41 -0.139399 -0.111698 0.014397 0.407653 0.171241 1.393752
    42 -6.260806 6.983652 -0.294122 1.580804 -0.005023 -0.912799
  time 16
    0 -0.368931 1.166145 1.199636 0.000000 0.000000 0.000000
    1 13.480351 -2.547481 -9.518290 0.755123 -1.754137 -1.480027
    2 -0.071918 -8.498730 -0.104136 0.139459 0.151632 -0.274016
    3 5.233845 1.354622 1.688628 -0.065772 2.858007 1.272336
    4 19.997025 0.102143 0.000001 0.000000 0.000000 0.000000
    5 0.000000 0.000000 0.000000 0.000000 0.000000 0.000000
    6 6.506417 1.675302 0.000001 0.000000 0.000000 1.570796
    7 1.257180 8.762585 -0.153713 -1.570562 0.002683 -1.566807
    8 -0.488518 -2.755602 -0.228260 -0.636863 -0.077551 -0.298478
    9 0.039887 -1.479790 0.029854 -2.230118 0.000000 0.000001
    10 0.028786 -1.075731 -0.023109 -0.271941 0.000000 0.000000
    11 0.250027 -2.820665 -0.238396 -0.437192 -0.061406 -0.314674
    12 -0.049759 -1.680544 0.100479 -2.308624 0.000000 -0.000002
    13 -0.034142 -1.148312 0.084782 -0.535851 0.000000 0.000000
    14 0.957766 -2.746780 -0.090302 0.398790 -0.132819 0.006168
    15 -0.033420 -1.397129 -0.011257 -0.580723 0.000000 -0.000001
    16 -0.022360 -0.957436 0.018784 -0.193734 0.000000 0.000000
    17 -1.180681 -2.507217 -0.193859 -0.535961 0.112898 -0.284556
    18 -0.024967 -1.123934 0.017597 -1.884509 0.000000 0.000001
    19 -0.020057 -0.890968 0.010090 -0.772262 0.000000 0.000000
    20 0.583510 -1.197277 0.185379 0.385373 -0.553917 -0.837084
    21 1.535927 0.010246 0.005009 -0.002964 -0.012979 -0.335072
    22 1.100771 0.004527 -0.010679 -0.011904 0.009969 -0.741369
    23 0.120153 -0.050270 -0.054489 0.287569 3.110905 1.561085
    24 4.393436 4.007303 -7.599171 0.187893 -3.493963 0.392844
    25 0.096944 -8.450418 -0.009365 -0.763037 -1.346425 1.363381
    26 0.447953 -2.798986 -0.200443 -1.456960 0.099071 0.252834
    27 -0.032909 -1.480204 0.004940 -1.601340 0.000000 0.000002
    28 -0.027022 -1.076920 -0.020210 -0.353735 0.000000 0.000000
    29 -0.249534 -2.846964 -0.174213 -1.241183 0.075210 0.132159
    30 0.043235 -1.683941 0.096012 -1.813709 0.002823 -0.000167
    31 0.031729 -1.160830 0.058838 -0.456154 0.000642 0.008372
    32 -0.963866 -2.785145 -0.085350 -1.148608 0.139589 0.121877
    33 0.028479 -1.403067 0.006271 -1.391232 0.000000 0.000000
    34 0.021413 -0.957781 0.020046 -0.471322 0.000000 0.000000
    35 1.164475 -2.543940 -0.170330 -1.423710 -0.066254 0.446863
    36 0.024032 -1.129042 0.017807 -1.462507 0.000000 0.000001
    37 0.014898 -0.883989 -0.019848 -0.549408 0.000000 0.000000
    38 -0.586770 -1.264477 0.200161 0.313906 -0.927915 -2.922977
    39 1.522835 0.058681 0.016848 0.001410 0.008985 1.029593
    40 1.117947 0.048424 -0.005766 -0.023469 -0.009175 1.254246
    41 -0.139399 -0.111698 0.014397 0.407653 0.171241 1.393752
    42 -6.260806 6.983652 -0.294122 1.580804 -0.005023 -0.912799
  time 17
    0 -0.368931 1.166145 1.199636 0.000000 0.000000 0.000000
    1 13.273314 -2.445916 -9.729234 0.843476 -1.769591 -1.549527
    2 -0.071918 -8.498730 -0.104136 0.140405 0.152387 -0.266478
    3 5.233845 1.354622 1.688628 -0.065772 2.858007 1.272336
    4 19.997025 0.102143 0.000001 0.000000 0.000000 0.000000
    5 0.000000 0.000000 0.000000 0.000000 0.000000 0.000000
    6 6.506417 1.675302 0.000001 0.000000 0.000000 1.570796
    7 1.257180 8.762585 -0.153713 -1.570562 0.002683 -1.566807
    8 -0.488518 -2.755602 -0.228260 -0.636863 -0.077551 -0.298478
    9 0.039887 -1.479790 0.029854 -2.230118 0.000000 0.000001
    10 0.028786 -1.075731 -0.023109 -0.271941 0.000000 0.000000
    11 0.250027 -2.820665 -0.238396 -0.437192 -0.061406 -0.314674
    12 -0.049759 -1.680544 0.100479 -2.308624 0.000000 -0.000002
    13 -0.034142 -1.148312 0.084782 -0.535851 0.000000 0.000000
    14 0.957766 -2.746780 -0.090302 0.398790 -0.132819 0.006168
    15 -0.033420 -1.397129 -0.011257 -0.570276 0.000000 -0.000001
    16 -0.022360 -0.957436 0.018784 -0.183264 0.000000 0.000000
    17 -1.180681 -2.507217 -0.193859 -0.535961 0.112898 -0.284556
    18 -0.024967 -1.123934 0.017597 -1.884509 0.000000 0.000001
    19 -0.020057 -0.890968 0.010090 -0.772262 0.000000 0.000000
    20 0.583510 -1.197277 0.185379 0.385373 -0.553917 -0.837084
    21 1.535927 0.010246 0.005009 -0.002964 -0.012979 -0.376186
    22 1.100771 0.004527 -0.010679 -0.012408 0.008614 -0.829263
    23 0.120153 -0.050270 -0.054489 0.287569 3.110905 1.561085
    24 4.108271 3.987772 -7.817928 0.200198 -3.466059 0.414139
    25 0.096944 -8.450418 -0.009365 -0.763037 -1.346425 1.363381
    26 0.447953 -2.798986 -0.200443 -1.456960 0.099071 0.252834
    27 -0.032909 -1.480204 0.004940 -1.601340 0.000000 0.000002
    28 -0.027022 -1.076920 -0.020210 -0.353735 0.000000 0.000000
    29 -0.249534 -2.846964 -0.174213 -1.241183 0.075210 0.132159
    30 0.043235 -1.683941 0.096012 -1.813709 0.002823 -0.000167
    31 0.031729 -1.160830 0.058838 -0.456154 0.000642 0.008372
    32 -0.963866 -2.785145 -0.085350 -1.148608 0.139589 0.121877
    33 0.028479 -1.403067 0.006271 -1.391232 0.000000 0.000000
    34 0.021413 -0.957781 0.020046 -0.471322 0.000000 0.000000
    35 1.164475 -2.543940 -0.170330 -1.423710 -0.066254 0.446863
    36 0.024032 -1.129042 0.017807 -1.462507 0.000000 0.000001
    37 0.014898 -0.883989 -0.019848 -0.549408 0.000000 0.000000
    38 -0.586770 -1.264477 0.200161 0.313906 -0.927915 -2.922977
    39 1.522835 0.058681 0.016848 0.001410 0.008985 1.029593
    40 1.117947 0.048424 -0.005766 -0.023469 -0.009175 1.254246
    41 -0.139399 -0.111698 0.014397 0.407653 0.171241 1.393752
    42 -6.260806 6.983652 -0.294122 1.580804 -0.005023 -0.912799
  time 18
    0 -0.368931 1.166145 1.199636 0.000000 0.000000 0.000000
    1 13.054557 -2.387320 -9.994867 -2.243323 -1.352795 1.553571
    2 -0.071918 -8.498730 -0.104136 0.141328 0.152903 -0.259227
    3 5.233845 1.354622 1.688628 -0.065772 2.858007 1.272336
    4 19.997025 0.102143 0.000001 0.000000 0.000000 0.000000
    5 0.000000 0.000000 0.000000 0.000000 0.000000 0.000000
    6 6.506417 1.675302 0.000001 0.000000 0.000000 1.570796
    7 1.257180 8.762585 -0.153713 -1.570562 0.002683 -1.566807
    8 -0.488518 -2.755602 -0.228260 -0.636863 -0.077551 -0.298478
    9 0.039887 -1.479790 0.029854 -2.230118 0.000000 0.000001
    10 0.028786 -1.075731 -0.023109 -0.271941 0.000000 0.000000
    11 0.250027 -2.820665 -0.238396 -0.437192 -0.061406 -0.314674
    12 -0.049759 -1.680544 0.100479 -2.308624 0.000000 -0.000002
    13 -0.034142 -1.148312 0.084782 -0.535851 0.000000 0.000000
    14 0.957766 -2.746780 -0.090302 0.398790 -0.132819 0.006168
    15 -0.033420 -1.397129 -0.011257 -0.561623 0.000000 -0.000001
    16 -0.022360 -0.957436 0.018784 -0.174627 0.000000 0.000000
    17 -1.180681 -2.507217 -0.193859 -0.535961 0.112898 -0.284556
    18 -0.024967 -1.123934 0.017597 -1.884509 0.000000 0.000001
    19 -0.020057 -0.890968 0.010090 -0.772262 0.000000 0.000000
    20 0.583510 -1.197277 0.185379 0.385373 -0.553917 -0.837084
    21 1.535927 0.010246 0.005009 -0.002964 -0.012979 -0.434271
    22 1.100771 0.004527 -0.010679 -0.013115 0.006697 -0.953567
    23 0.120153 -0.050270 -0.054489 0.287569 3.110905 1.561085
    24 3.815293 3.948708 -8.153876 0.216583 -3.441208 0.434293
    25 0.096944 -8.450418 -0.009365 -0.763037 -1.346425 1.363381
    26 0.447953 -2.798986 -0.200443 -1.456960 0.099071 0.252834
    27 -0.032909 -1.480204 0.004940 -1.601340 0.000000 0.000002
    28 -0.027022 -1.076920 -0.020210 -0.353735 0.000000 0.000000
    29 -0.249534 -2.846964 -0.174213 -1.241183 0.075210 0.132159
    30 0.043235 -1.683941 0.096012 -1.813709 0.002823 -0.000167
    31 0.031729 -1.160830 0.058838 -0.456154 0.000642 0.008372
    32 -0.963866 -2.785145 -0.085350 -1.148608 0.139589 0.121877
    33 0.028479 -1.403067 0.006271 -1.391232 0.000000 0.000000
    34 0.021413 -0.957781 0.020046 -0.471322 0.000000 0.000000
    35 1.164475 -2.543940 -0.170330 -1.423710 -0.066254 0.446863
    36 0.024032 -1.129042 0.017807 -1.462507 0.000000 0.000001
    37 0.014898 -0.883989 -0.019848 -0.549408 0.000000 0.000000
    38 -0.586770 -1.264477 0.200161 0.313906 -0.927915 -2.922977
    39 1.522835 0.058681 0.016848 0.001410 0.008985 1.029593
    40 1.117947 0.048424 -0.005766 -0.023469 -0.009175 1.254246
    41 -0.139399 -0.111698 0.014397 0.407653 0.171241 1.393752
    42 -6.260806 6.983652 -0.294122 1.580804 -0.005023 -0.912799
  time 19
    0 -0.368931 1.166145 1.199636 0.000000 0.000000 0.000000
    1 12.839707 -2.356069 -10.280032 -2.213602 -1.332943 1.537687
    2 -0.071918 -8.498730 -0.104136 0.142215 0.153166 -0.252276
    3 5.233845 1.354622 1.688628 -0.065772 2.858007 1.272336
    4 19.997025 0.102143 0.000001 0.000000 0.000000 0.000000
    5 0.000000 0.000000 0.000000 0.000000 0.000000 0.000000
    6 6.506417 1.675302 0.000001 0.000000 0.000000 1.570796
    7 1.257180 8.762585 -0.153713 -1.570562 0.002683 -1.566807
    8 -0.488518 -2.755602 -0.228260 -0.636863 -0.077551 -0.298478
    9 0.039887 -1.479790 0.029854 -2.230118 0.000000 0.000001
    10 0.028786 -1.075731 -0.023109 -0.271941 0.000000 0.000000
    11 0.250027 -2.820665 -0.238396 -0.437192 -0.061406 -0.314674
    12 -0.049759 -1.680544 0.100479 -2.308695 0.000000 -0.000002
    13 -0.034142 -1.148312 0.084782 -0.535851 0.000000 0.000000
    14 0.957766 -2.746780 -0.090302 0.398790 -0.132819 0.006168
    15 -0.033420 -1.397129 -0.011257 -0.555122 0.000000 -0.000001
    16 -0.022360 -0.957436 0.018784 -0.168116 0.000000 0.000000
    17 -1.180681 -2.507217 -0.193859 -0.535961 0.112898 -0.284556
    18 -0.024967 -1.123934 0.017597 -1.884509 0.000000 0.000001
    19 -0.020057 -0.890968 0.010090 -0.772262 0.000000 0.000000
    20 0.583510 -1.197277 0.185379 0.385373 -0.553917 -0.837084
    21 1.535927 0.010246 0.005009 -0.002964 -0.012979 -0.500884
    22 1.100771 0.004527 -0.010679 -0.013930 0.004516 -1.096076
    23 0.120153 -0.050270 -0.054489 0.287569 3.110905 1.561085
    24 3.534035 3.894019 -8.544513 0.234908 -3.420018 0.452641
    25 0.096944 -8.450418 -0.009365 -0.763037 -1.346425 1.363381
    26 0.447953 -2.798986 -0.200443 -1.456960 0.099071 0.252834
    27 -0.032909 -1.480204 0.004940 -1.601340 0.000000 0.000002
    28 -0.027022 -1.076920 -0.020210 -0.353735 0.000000 0.000000
    29 -0.249534 -2.846964 -0.174213 -1.241183 0.075210 0.132159
    30 0.043235 -1.683941 0.096012 -1.813709 0.002823 -0.000167
    31 0.031729 -1.160830 0.058838 -0.456154 0.000642 0.008372
    32 -0.963866 -2.785145 -0.085350 -1.148608 0.139589 0.121877
    33 0.028479 -1.403067 0.006271 -1.391232 0.000000 0.000000
    34 0.021413 -0.957781 0.020046 -0.471322 0.000000 0.000000
    35 1.164475 -2.543940 -0.170330 -1.423710 -0.066254 0.446863
    36 0.024032 -1.129042 0.017807 -1.462507 0.000000 0.000001
    37 0.014898 -0.883989 -0.019848 -0.549408 0.000000 0.000000
    38 -0.586770 -1.264477 0.200161 0.313906 -0.927915 -2.922977
    39 1.522835 0.058681 0.016848 0.001410 0.008985 1.029593
    40 1.117947 0.048424 -0.005766 -0.023469 -0.009175 1.254246
    41 -0.139399 -0.111698 0.014397 0.407653 0.171241 1.393752
    42 -6.260806 6.983652 -0.294122 1.580804 -0.005023 -0.912799
  time 20
    0 -0.368931 1.166145 1.199636 0.000000 0.000000 0.000000
    1 12.648295 -2.344350 -10.537852 -2.200852 -1.315046 1.536547
    2 -0.071918 -8.498730 -0.104136 0.143066 0.153154 -0.245672
    3 5.233845 1.354622 1.688628 -0.065772 2.858007 1.272336
    4 19.997025 0.102143 0.000001 0.000000 0.000000 0.000000
    5 0.000000 0.000000 0.000000 0.000000 0.000000 0.000000
    6 6.506417 1.675302 0.000001 0.000000 0.000000 1.570796
    7 1.257180 8.762585 -0.153713 -1.570562 0.002683 -1.566807
    8 -0.488518 -2.755602 -0.228260 -0.636863 -0.077551 -0.298478
    9 0.039887 -1.479790 0.029854 -2.230118 0.000000 0.000001
    10 0.028786 -1.075731 -0.023109 -0.271941 0.000000 0.000000
    11 0.250027 -2.820665 -0.238396 -0.437192 -0.061406 -0.314674
    12 -0.049759 -1.680544 0.100479 -2.308624 0.000000 -0.000002
    13 -0.034142 -1.148312 0.084782 -0.535851 0.000000 0.000000
    14 0.957766 -2.746780 -0.090302 0.398790 -0.132819 0.006168
    15 -0.033420 -1.397129 -0.011257 -0.550997 0.000000 -0.000001
    16 -0.022360 -0.957436 0.018784 -0.163994 0.000000 0.000000
    17 -1.180681 -2.507217 -0.193859 -0.535961 0.112898 -0.284556
    18 -0.024967 -1.123934 0.017597 -1.884509 0.000000 0.000001
    19 -0.020057 -0.890968 0.010090 -0.772262 0.000000 0.000000
    20 0.583510 -1.197277 0.185379 0.385373 -0.553917 -0.837084
    21 1.535927 0.010246 0.005009 -0.002964 -0.012979 -0.567496
    22 1.100771 0.004527 -0.010679 -0.014745 0.002323 -1.238586
    23 0.120153 -0.050270 -0.054489 0.287569 3.110905 1.561085
    24 3.280121 3.831517 -8.931243 0.252764 -3.402927 0.468422
    25 0.096944 -8.450418 -0.009365 -0.763037 -1.346425 1.363381
    26 0.447953 -2.798986 -0.200443 -1.456960 0.099071 0.252834
    27 -0.032909 -1.480204 0.004940 -1.601340 0.000000 0.000002
    28 -0.027022 -1.076920 -0.020210 -0.353735 0.000000 0.000000
    29 -0.249534 -2.846964 -0.174213 -1.241183 0.075210 0.132159
    30 0.043235 -1.683941 0.096012 -1.813709 0.002823 -0.000167
    31 0.031729 -1.160830 0.058838 -0.456154 0.000642 0.008372
    32 -0.963866 -2.785145 -0.085350 -1.148608 0.139589 0.121877
    33 0.028479 -1.403067 0.006271 -1.391232 0.000000 0.000000
    34 0.021413 -0.957781 0.020046 -0.471322 0.000000 0.000000
    35 1.164475 -2.543940 -0.170330 -1.423710 -0.066254 0.446863
    36 0.024032 -1.129042 0.017807 -1.462507 0.000000 0.000001
    37 0.014898 -0.883989 -0.019848 -0.549408 0.000000 0.000000
    38 -0.586770 -1.264477 0.200161 0.313906 -0.927915 -2.922977
    39 1.522835 0.058681 0.016848 0.001410 0.008985 1.029593
    40 1.117947 0.048424 -0.005766 -0.023469 -0.009175 1.254246
    41 -0.139399 -0.111698 0.014397 0.407653 0.171241 1.393752
    42 -6.260806 6.983652 -0.294122 1.580804 -0.005023 -0.912799
  time 21
    0 -0.368931 1.166145 1.199636 0.000000 0.000000 0.000000
    1 12.495946 -2.340444 -10.733171 -2.199236 -1.301424 1.544357
    2 -0.071918 -8.498730 -0.104136 0.143869 0.152831 -0.239440
    3 5.233845 1.354622 1.688628 -0.065772 2.858007 1.272336
    4 19.997025 0.102143 0.000001 0.000000 0.000000 0.000000
    5 0.000000 0.000000 0.000000 0.000000 0.000000 0.000000
    6 6.506417 1.675302 0.000001 0.000000 0.000000 1.570796
    7 1.257180 8.762585 -0.153713 -1.570562 0.002683 -1.566807
    8 -0.488518 -2.755602 -0.228260 -0.636863 -0.077551 -0.298478
    9 0.039887 -1.479790 0.029854 -2.230118 0.000000 0.000001
    10 0.028786 -1.075731 -0.023109 -0.271941 0.000000 0.000000
    11 0.250027 -2.820665 -0.238396 -0.437192 -0.061406 -0.314674
    12 -0.049759 -1.680544 0.100479 -2.308624 0.000000 -0.000002
    13 -0.034142 -1.148312 0.084782 -0.535851 0.000000 0.000000
    14 0.957766 -2.746780 -0.090302 0.398790 -0.132819 0.006168
    15 -0.033420 -1.397129 -0.011257 -0.549562 0.000000 -0.000001
    16 -0.022360 -0.957436 0.018784 -0.162554 0.000000 0.000000
    17 -1.180681 -2.507217 -0.193859 -0.535961 0.112898 -0.284556
    18 -0.024967 -1.123934 0.017597 -1.884509 0.000000 0.000001
    19 -0.020057 -0.890968 0.010090 -0.772262 0.000000 0.000000
    20 0.583510 -1.197277 0.185379 0.385373 -0.553917 -0.837084
    21 1.535927 0.010246 0.005009 -0.002964 -0.012979 -0.625602
    22 1.100771 0.004527 -0.010679 -0.015452 0.000405 -1.362890
    23 0.120153 -0.050270 -0.054489 0.287569 3.110905 1.561085
    24 3.073083 3.769015 -9.247659 0.267945 -3.390632 0.481541
    25 0.096944 -8.450418 -0.009365 -0.763037 -1.346425 1.363381
    26 0.447953 -2.798986 -0.200443 -1.456960 0.099071 0.252834
    27 -0.032909 -1.480204 0.004940 -1.601340 0.000000 0.000002
    28 -0.027022 -1.076920 -0.020210 -0.353735 0.000000 0.000000
    29 -0.249534 -2.846964 -0.174213 -1.241183 0.075210 0.132159
    30 0.043235 -1.683941 0.096012 -1.813709 0.002823 -0.000167
    31 0.031729 -1.160830 0.058838 -0.456154 0.000642 0.008372
    32 -0.963866 -2.785145 -0.085350 -1.148608 0.139589 0.121877
    33 0.028479 -1.403067 0.006271 -1.391232 0.000000 0.000000
    34 0.021413 -0.957781 0.020046 -0.471322 0.000000 0.000000
    35 1.164475 -2.543940 -0.170330 -1.423710 -0.066254 0.446863
    36 0.024032 -1.129042 0.017807 -1.462507 0.000000 0.000001
    37 0.014898 -0.883989 -0.019848 -0.549408 0.000000 0.000000
    38 -0.586770 -1.264477 0.200161 0.313906 -0.927915 -2.922977
    39 1.522835 0.058681 0.016848 0.001410 0.008985 1.029593
    40 1.117947 0.048424 -0.005766 -0.023469 -0.009175 1.254246
    41 -0.139399 -0.111698 0.014397 0.407653 0.171241 1.393752
    42 -6.260806 6.983652 -0.294122 1.580804 -0.005023 -0.912799
  time 22
    0 -0.368931 1.166145 1.199636 0.000000 0.000000 0.000000
    1 12.402193 -2.328725 -10.815205 -2.205162 -1.294430 1.557607
    2 -0.071918 -8.498730 -0.104136 0.144612 0.152184 -0.233616
    3 5.233845 1.354622 1.688628 -0.065772 2.858007 1.272336
    4 19.997025 0.102143 0.000001 0.000000 0.000000 0.000000
    5 0.000000 0.000000 0.000000 0.000000 0.000000 0.000000
    6 6.506417 1.675302 0.000001 0.000000 0.000000 1.570796
    7 1.257180 8.762585 -0.153713 -1.570562 0.002683 -1.566807
    8 -0.488518 -2.755602 -0.228260 -0.636863 -0.077551 -0.298478
    9 0.039887 -1.479790 0.029854 -2.230118 0.000000 0.000001
    10 0.028786 -1.075731 -0.023109 -0.271941 0.000000 0.000000
    11 0.250027 -2.820665 -0.238396 -0.437192 -0.061406 -0.314674
    12 -0.049759 -1.680544 0.100479 -2.308624 0.000000 -0.000002
    13 -0.034142 -1.148312 0.084782 -0.535851 0.000000 0.000000
    14 0.957766 -2.746780 -0.090302 0.398790 -0.132819 0.006168
    15 -0.033420 -1.397129 -0.011257 -0.557050 0.000000 -0.000001
    16 -0.022360 -0.957436 0.018784 -0.170014 0.000000 0.000000
    17 -1.180681 -2.507217 -0.193859 -0.535961 0.112898 -0.284556
    18 -0.024967 -1.123934 0.017597 -1.884509 0.000000 0.000001
    19 -0.020057 -0.890968 0.010090 -0.772262 0.000000 0.000000
    20 0.583510 -1.197277 0.185379 0.385373 -0.553917 -0.837084
    21 1.535927 0.010246 0.005009 -0.002964 -0.012979 -0.666695
    22 1.100771 0.004527 -0.010679 -0.015955 -0.000937 -1.450829
    23 0.120153 -0.050270 -0.054489 0.287569 3.110905 1.561085
    24 2.932454 3.718232 -9.442978 0.278244 -3.383656 0.491428
    25 0.096944 -8.450418 -0.009365 -0.763037 -1.346425 1.363381
    26 0.447953 -2.798986 -0.200443 -1.456960 0.099071 0.252834
    27 -0.032909 -1.480204 0.004940 -1.601340 0.000000 0.000002
    28 -0.027022 -1.076920 -0.020210 -0.353735 0.000000 0.000000
    29 -0.249534 -2.846964 -0.174213 -1.241183 0.075210 0.132159
    30 0.043235 -1.683941 0.096012 -1.813709 0.002823 -0.000167
    31 0.031729 -1.160830 0.058838 -0.456154 0.000642 0.008372
    32 -0.963866 -2.785145 -0.085350 -1.148608 0.139589 0.121877
    33 0.028479 -1.403067 0.006271 -1.391232 0.000000 0.000000
    34 0.021413 -0.957781 0.020046 -0.471322 0.000000 0.000000
    35 1.164475 -2.543940 -0.170330 -1.423710 -0.066254 0.446863
    36 0.024032 -1.129042 0.017807 -1.462507 0.000000 0.000001
    37 0.014898 -0.883989 -0.019848 -0.549408 0.000000 0.000000
    38 -0.586770 -1.264477 0.200161 0.313906 -0.927915 -2.922977
    39 1.522835 0.058681 0.016848 0.001410 0.008985 1.029593
    40 1.117947 0.048424 -0.005766 -0.023469 -0.009175 1.254246
    41 -0.139399 -0.111698 0.014397 0.407653 0.171241 1.393752
    42 -6.260806 6.983652 -0.294122 1.580804 -0.005023 -0.912799
  time 23
    0 -0.368931 1.166145 1.199636 0.000000 0.000000 0.000000
    1 12.355317 -2.317006 -10.807392 0.922132 -1.847868 -1.564445
    2 -0.071918 -8.498730 -0.104136 0.145127 0.150158 -0.229517
    3 5.233845 1.354622 1.688628 -0.065772 2.858007 1.272336
    4 19.997025 0.102143 0.000001 0.000000 0.000000 0.000000
    5 0.000000 0.000000 0.000000 0.000000 0.000000 0.000000
    6 6.506417 1.675302 0.000001 0.000000 0.000000 1.570796
    7 1.257180 8.762585 -0.153713 -1.570562 0.002683 -1.566807
    8 -0.488518 -2.755602 -0.228260 -0.636863 -0.077551 -0.298478
    9 0.039887 -1.479790 0.029854 -2.230118 0.000000 0.000001
    10 0.028786 -1.075731 -0.023109 -0.271941 0.000000 0.000000
    11 0.250027 -2.820665 -0.238396 -0.437192 -0.061406 -0.314674
    12 -0.049759 -1.680544 0.100479 -2.308624 0.000000 -0.000002
    13 -0.034142 -1.148312 0.084782 -0.535851 0.000000 0.000000
    14 0.957766 -2.746780 -0.090302 0.398790 -0.132819 0.006168
    15 -0.033420 -1.397129 -0.011257 -0.577047 0.000000 -0.000001
    16 -0.022360 -0.957436 0.018784 -0.190037 0.000000 0.000000
    17 -1.180681 -2.507217 -0.193859 -0.535961 0.112898 -0.284556
    18 -0.024967 -1.123934 0.017597 -1.884509 0.000000 0.000001
    19 -0.020057 -0.890968 0.010090 -0.772262 0.000000 0.000000
    20 0.583510 -1.197277 0.185379 0.385373 -0.553917 -0.837084
    21 1.535927 0.010246 0.005009 -0.002964 -0.012979 -0.682290
    22 1.100771 0.004527 -0.010679 -0.016147 -0.001453 -1.484153
    23 0.120153 -0.050270 -0.054489 0.287569 3.110905 1.561085
    24 2.846514 3.675262 -9.525011 0.284530 -3.384005 0.498463
    25 0.096944 -8.450418 -0.009365 -0.763037 -1.346425 1.363381
    26 0.447953 -2.798986 -0.200443 -1.456960 0.099071 0.252834
    27 -0.032909 -1.480204 0.004940 -1.601340 0.000000 0.000002
    28 -0.027022 -1.076920 -0.020210 -0.353735 0.000000 0.000000
    29 -0.249534 -2.846964 -0.174213 -1.241183 0.075210 0.132159
    30 0.043235 -1.683941 0.096012 -1.813709 0.002823 -0.000167
    31 0.031729 -1.160830 0.058838 -0.456154 0.000642 0.008372
    32 -0.963866 -2.785145 -0.085350 -1.148608 0.139589 0.121877
    33 0.028479 -1.403067 0.006271 -1.391232 0.000000 0.000000
    34 0.021413 -0.957781 0.020046 -0.471322 0.000000 0.000000
    35 1.164475 -2.543940 -0.170330 -1.423710 -0.066254 0.446863
    36 0.024032 -1.129042 0.017807 -1.462507 0.000000 0.000001
    37 0.014898 -0.883989 -0.019848 -0.549408 0.000000 0.000000
    38 -0.586770 -1.264477 0.200161 0.313906 -0.927915 -2.922977
    39 1.522835 0.058681 0.016848 0.001410 0.008985 1.029593
    40 1.117947 0.048424 -0.005766 -0.023469 -0.009175 1.254246
    41 -0.139399 -0.111698 0.014397 0.407653 0.171241 1.393752
    42 -6.260806 6.983652 -0.294122 1.580804 -0.005023 -0.912799
  time 24
    0 -0.368931 1.166145 1.199636 0.000000 0.000000 0.000000
    1 12.335785 -2.309193 -10.744890 0.897978 -1.844844 -1.537154
    2 -0.071918 -8.498730 -0.104136 0.145283 0.146024 -0.228067
    3 5.233845 1.354622 1.688628 -0.065772 2.858007 1.272336
    4 19.997025 0.102143 0.000001 0.000000 0.000000 0.000000
    5 0.000000 0.000000 0.000000 0.000000 0.000000 0.000000
    6 6.506417 1.675302 0.000001 0.000000 0.000000 1.570796
    7 1.257180 8.762585 -0.153713 -1.570562 0.002683 -1.566807
    8 -0.488518 -2.755602 -0.228260 -0.636863 -0.077551 -0.298478
    9 0.039887 -1.479790 0.029854 -2.230118 0.000000 0.000001
    10 0.028786 -1.075731 -0.023109 -0.271941 0.000000 0.000000
    11 0.250027 -2.820665 -0.238396 -0.437192 -0.061406 -0.314674
    12 -0.049759 -1.680544 0.100479 -2.308695 0.000000 -0.000002
    13 -0.034142 -1.148312 0.084782 -0.535851 0.000000 0.000000
    14 0.957766 -2.746780 -0.090302 0.398790 -0.132819 0.006168
    15 -0.033420 -1.397129 -0.011257 -0.606055 0.000000 -0.000001
    16 -0.022360 -0.957436 0.018784 -0.219024 0.000000 0.000000
    17 -1.180681 -2.507217 -0.193859 -0.535961 0.112898 -0.284556
    18 -0.024967 -1.123934 0.017597 -1.884509 0.000000 0.000001
    19 -0.020057 -0.890968 0.010090 -0.772262 0.000000 0.000000
    20 0.583510 -1.197277 0.185379 0.385373 -0.553917 -0.837084
    21 1.535927 0.010246 0.005009 -0.002964 -0.012979 -0.682290
    22 1.100771 0.004527 -0.010679 -0.016147 -0.001453 -1.484153
    23 0.120153 -0.050270 -0.054489 0.287569 3.110905 1.561085
    24 2.799637 3.640105 -9.564075 0.289412 -3.391679 0.503691
    25 0.096944 -8.450418 -0.009365 -0.763037 -1.346425 1.363381
    26 0.447953 -2.798986 -0.200443 -1.456960 0.099071 0.252834
    27 -0.032909 -1.480204 0.004940 -1.601340 0.000000 0.000002
    28 -0.027022 -1.076920 -0.020210 -0.353735 0.000000 0.000000
    29 -0.249534 -2.846964 -0.174213 -1.241183 0.075210 0.132159
    30 0.043235 -1.683941 0.096012 -1.813709 0.002823 -0.000167
    31 0.031729 -1.160830 0.058838 -0.456154 0.000642 0.008372
    32 -0.963866 -2.785145 -0.085350 -1.148608 0.139589 0.121877
    33 0.028479 -1.403067 0.006271 -1.391232 0.000000 0.000000
    34 0.021413 -0.957781 0.020046 -0.471322 0.000000 0.000000
    35 1.164475 -2.543940 -0.170330 -1.423710 -0.066254 0.446863
    36 0.024032 -1.129042 0.017807 -1.462507 0.000000 0.000001
    37 0.014898 -0.883989 -0.019848 -0.549408 0.000000 0.000000
    38 -0.586770 -1.264477 0.200161 0.313906 -0.927915 -2.922977
    39 1.522835 0.058681 0.016848 0.001410 0.008985 1.029593
    40 1.117947 0.048424 -0.005766 -0.023469 -0.009175 1.254246
    41 -0.139399 -0.111698 0.014397 0.407653 0.171241 1.393752
    42 -6.260806 6.983652 -0.294122 1.580804 -0.005023 -0.912799
  time 25
    0 -0.368931 1.166145 1.199636 0.000000 0.000000 0.000000
    1 12.343598 -2.305286 -10.643324 0.865115 -1.839133 -1.502579
    2 -0.071918 -8.498730 -0.104136 0.145175 0.140271 -0.228654
    3 5.233845 1.354622 1.688628 -0.065772 2.858007 1.272336
    4 19.997025 0.102143 0.000001 0.000000 0.000000 0.000000
    5 0.000000 0.000000 0.000000 0.000000 0.000000 0.000000
    6 6.506417 1.675302 0.000001 0.000000 0.000000 1.570796
    7 1.257180 8.762585 -0.153713 -1.570562 0.002683 -1.566807
    8 -0.488518 -2.755602 -0.228260 -0.636863 -0.077551 -0.298478
    9 0.039887 -1.479790 0.029854 -2.230118 0.000000 0.000001
    10 0.028786 -1.075731 -0.023109 -0.271941 0.000000 0.000000
    11 0.250027 -2.820665 -0.238396 -0.437192 -0.061406 -0.314674
    12 -0.049759 -1.680544 0.100479 -2.308695 0.000000 -0.000002
    13 -0.034142 -1.148312 0.084782 -0.535851 0.000000 0.000000
    14 0.957766 -2.746780 -0.090302 0.398790 -0.132819 0.006168
    15 -0.033420 -1.397129 -0.011257 -0.640399 0.000000 -0.000001
    16 -0.022360 -0.957436 0.018784 -0.253410 0.000000 0.000000
    17 -1.180681 -2.507217 -0.193859 -0.535961 0.112898 -0.284556
    18 -0.024967 -1.123934 0.017597 -1.884509 0.000000 0.000001
    19 -0.020057 -0.890968 0.010090 -0.772262 0.000000 0.000000
    20 0.583510 -1.197277 0.185379 0.385373 -0.553917 -0.837084
    21 1.535927 0.010246 0.005009 -0.002964 -0.012979 -0.682290
    22 1.100771 0.004527 -0.010679 -0.016147 -0.001453 -1.484153
    23 0.120153 -0.050270 -0.054489 0.287569 3.110905 1.561085
    24 2.787918 3.604947 -9.567981 0.293224 -3.405107 0.507399
    25 0.096944 -8.450418 -0.009365 -0.763037 -1.346425 1.363381
    26 0.447953 -2.798986 -0.200443 -1.456960 0.099071 0.252834
    27 -0.032909 -1.480204 0.004940 -1.601340 0.000000 0.000002
    28 -0.027022 -1.076920 -0.020210 -0.353735 0.000000 0.000000
    29 -0.249534 -2.846964 -0.174213 -1.241183 0.075210 0.132159
    30 0.043235 -1.683941 0.096012 -1.813709 0.002823 -0.000167
    31 0.031729 -1.160830 0.058838 -0.456154 0.000642 0.008372
    32 -0.963866 -2.785145 -0.085350 -1.148608 0.139589 0.121877
    33 0.028479 -1.403067 0.006271 -1.391232 0.000000 0.000000
    34 0.021413 -0.957781 0.020046 -0.471322 0.000000 0.000000
    35 1.164475 -2.543940 -0.170330 -1.423710 -0.066254 0.446863
    36 0.024032 -1.129042 0.017807 -1.462507 0.000000 0.000001
    37 0.014898 -0.883989 -0.019848 -0.549408 0.000000 0.000000
    38 -0.586770 -1.264477 0.200161 0.313906 -0.927915 -2.922977
    39 1.522835 0.058681 0.016848 0.001410 0.008985 1.029593
    40 1.117947 0.048424 -0.005766 -0.023469 -0.009175 1.254246
    41 -0.139399 -0.111698 0.014397 0.407653 0.171241 1.393752
    42 -6.260806 6.983652 -0.294122 1.580804 -0.005023 -0.912799
  time 26
    0 -0.368931 1.166145 1.199636 0.000000 0.000000 0.000000
    1 12.374849 -2.305286 -10.506601 0.824620 -1.831803 -1.461511
    2 -0.071918 -8.498730 -0.104136 0.144900 0.133380 -0.230644
    3 5.233845 1.354622 1.688628 -0.065772 2.858007 1.272336
    4 19.997025 0.102143 0.000001 0.000000 0.000000 0.000000
    5 0.000000 0.000000 0.000000 0.000000 0.000000 0.000000
    6 6.506417 1.675302 0.000001 0.000000 0.000000 1.570796
    7 1.257180 8.762585 -0.153713 -1.570562 0.002683 -1.566807
    8 -0.488518 -2.755602 -0.228260 -0.636863 -0.077551 -0.298478
    9 0.039887 -1.479790 0.029854 -2.230118 0.000000 0.000001
    10 0.028786 -1.075731 -0.023109 -0.271941 0.000000 0.000000
    11 0.250027 -2.820665 -0.238396 -0.437192 -0.061406 -0.314674
    12 -0.049759 -1.680544 0.100479 -2.308695 0.000000 -0.000002
    13 -0.034142 -1.148312 0.084782 -0.535851 0.000000 0.000000
    14 0.957766 -2.746780 -0.090302 0.398790 -0.132819 0.006168
    15 -0.033420 -1.397129 -0.011257 -0.676537 0.000000 -0.000001
    16 -0.022360 -0.957436 0.018784 -0.289563 0.000000 0.000000
    17 -1.180681 -2.507217 -0.193859 -0.535961 0.112898 -0.284556
    18 -0.024967 -1.123934 0.017597 -1.884509 0.000000 0.000001
    19 -0.020057 -0.890968 0.010090 -0.772262 0.000000 0.000000
    20 0.583510 -1.197277 0.185379 0.385373 -0.553917 -0.837084
    21 1.535927 0.010246 0.005009 -0.002964 -0.012979 -0.682290
    22 1.100771 0.004527 -0.010679 -0.016147 -0.001453 -1.484153
    23 0.120153 -0.050270 -0.054489 0.287569 3.110905 1.561085
    24 2.799637 3.577603 -9.536731 0.296301 -3.422547 0.510061
    25 0.096944 -8.450418 -0.009365 -0.763037 -1.346425 1.363381
    26 0.447953 -2.798986 -0.200443 -1.456960 0.099071 0.252834
    27 -0.032909 -1.480204 0.004940 -1.601340 0.000000 0.000002
    28 -0.027022 -1.076920 -0.020210 -0.353735 0.000000 0.000000
    29 -0.249534 -2.846964 -0.174213 -1.241183 0.075210 0.132159
    30 0.043235 -1.683941 0.096012 -1.813709 0.002823 -0.000167
    31 0.031729 -1.160830 0.058838 -0.456154 0.000642 0.008372
    32 -0.963866 -2.785145 -0.085350 -1.148608 0.139589 0.121877
    33 0.028479 -1.403067 0.006271 -1.391232 0.000000 0.000000
    34 0.021413 -0.957781 0.020046 -0.471322 0.000000 0.000000
    35 1.164475 -2.543940 -0.170330 -1.423710 -0.066254 0.446863
    36 0.024032 -1.129042 0.017807 -1.462507 0.000000 0.000001
    37 0.014898 -0.883989 -0.019848 -0.549408 0.000000 0.000000
    38 -0.586770 -1.264477 0.200161 0.313906 -0.927915 -2.922977
    39 1.522835 0.058681 0.016848 0.001410 0.008985 1.029593
    40 1.117947 0.048424 -0.005766 -0.023469 -0.009175 1.254246
    41 -0.139399 -0.111698 0.014397 0.407653 0.171241 1.393752
    42 -6.260806 6.983652 -0.294122 1.580804 -0.005023 -0.912799
  time 27
    0 -0.368931 1.166145 1.199636 0.000000 0.000000 0.000000
    1 12.417819 -2.309193 -10.342534 0.777929 -1.823862 -1.414827
    2 -0.071918 -8.498730 -0.104136 0.144540 0.125842 -0.233460
    3 5.233845 1.354622 1.688628 -0.065772 2.858007 1.272336
    4 19.997025 0.102143 0.000001 0.000000 0.000000 0.000000
    5 0.000000 0.000000 0.000000 0.000000 0.000000 0.000000
    6 6.506417 1.675302 0.000001 0.000000 0.000000 1.570796
    7 1.257180 8.762585 -0.153713 -1.570562 0.002683 -1.566807
    8 -0.488518 -2.755602 -0.228260 -0.636863 -0.077551 -0.298478
    9 0.039887 -1.479790 0.029854 -2.230118 0.000000 0.000001
    10 0.028786 -1.075731 -0.023109 -0.271941 0.000000 0.000000
    11 0.250027 -2.820665 -0.238396 -0.437192 -0.061406 -0.314674
    12 -0.049759 -1.680544 0.100479 -2.308695 0.000000 -0.000002
    13 -0.034142 -1.148312 0.084782 -0.535851 0.000000 0.000000
    14 0.957766 -2.746780 -0.090302 0.398790 -0.132819 0.006168
    15 -0.033420 -1.397129 -0.011257 -0.710926 0.000000 -0.000001
    16 -0.022360 -0.957436 0.018784 -0.323916 0.000000 0.000000
    17 -1.180681 -2.507217 -0.193859 -0.535961 0.112898 -0.284556
    18 -0.024967 -1.123934 0.017597 -1.884509 0.000000 0.000001
    19 -0.020057 -0.890968 0.010090 -0.772262 0.000000 0.000000
    20 0.583510 -1.197277 0.185379 0.385373 -0.553917 -0.837084
    21 1.535927 0.010246 0.005009 -0.002964 -0.012979 -0.682290
    22 1.100771 0.004527 -0.010679 -0.016147 -0.001453 -1.484153
    23 0.120153 -0.050270 -0.054489 0.287569 3.110905 1.561085
    24 2.830888 3.550258 -9.482041 0.298976 -3.442341 0.512057
    25 0.096944 -8.450418 -0.009365 -0.763037 -1.346425 1.363381
    26 0.447953 -2.798986 -0.200443 -1.456960 0.099071 0.252834
    27 -0.032909 -1.480204 0.004940 -1.601340 0.000000 0.000002
    28 -0.027022 -1.076920 -0.020210 -0.353735 0.000000 0.000000
    29 -0.249534 -2.846964 -0.174213 -1.241183 0.075210 0.132159
    30 0.043235 -1.683941 0.096012 -1.813709 0.002823 -0.000167
    31 0.031729 -1.160830 0.058838 -0.456154 0.000642 0.008372
    32 -0.963866 -2.785145 -0.085350 -1.148608 0.139589 0.121877
    33 0.028479 -1.403067 0.006271 -1.391232 0.000000 0.000000
    34 0.021413 -0.957781 0.020046 -0.471322 0.000000 0.000000
    35 1.164475 -2.543940 -0.170330 -1.423710 -0.066254 0.446863
    36 0.024032 -1.129042 0.017807 -1.462507 0.000000 0.000001
    37 0.014898 -0.883989 -0.019848 -0.549408 0.000000 0.000000
    38 -0.586770 -1.264477 0.200161 0.313906 -0.927915 -2.922977
    39 1.522835 0.058681 0.016848 0.001410 0.008985 1.029593
    40 1.117947 0.048424 -0.005766 -0.023469 -0.009175 1.254246
    41 -0.139399 -0.111698 0.014397 0.407653 0.171241 1.393752
    42 -6.260806 6.983652 -0.294122 1.580804 -0.005023 -0.912799
  time 28
    0 -0.368931 1.166145 1.199636 0.000000 0.000000 0.000000
    1 12.476414 -2.313099 -10.158934 0.727288 -1.816227 -1.364457
    2 -0.071918 -8.498730 -0.104136 0.144181 0.118147 -0.236456
    3 5.233845 1.354622 1.688628 -0.065772 2.858007 1.272336
    4 19.997025 0.102143 0.000001 0.000000 0.000000 0.000000
    5 0.000000 0.000000 0.000000 0.000000 0.000000 0.000000
    6 6.506417 1.675302 0.000001 0.000000 0.000000 1.570796
    7 1.257180 8.762585 -0.153713 -1.570562 0.002683 -1.566807
    8 -0.488518 -2.755602 -0.228260 -0.636863 -0.077551 -0.298478
    9 0.039887 -1.479790 0.029854 -2.230118 0.000000 0.000001
    10 0.028786 -1.075731 -0.023109 -0.271941 0.000000 0.000000
    11 0.250027 -2.820665 -0.238396 -0.437192 -0.061406 -0.314674
    12 -0.049759 -1.680544 0.100479 -2.308624 0.000000 -0.000002
    13 -0.034142 -1.148312 0.084782 -0.535851 0.000000 0.000000
    14 0.957766 -2.746780 -0.090302 0.398790 -0.132819 0.006168
    15 -0.033420 -1.397129 -0.011257 -0.739889 0.000000 -0.000001
    16 -0.022360 -0.957436 0.018784 -0.352903 0.000000 0.000000
    17 -1.180681 -2.507217 -0.193859 -0.535961 0.112898 -0.284556
    18 -0.024967 -1.123934 0.017597 -1.884509 0.000000 0.000001
    19 -0.020057 -0.890968 0.010090 -0.772262 0.000000 0.000000
    20 0.583510 -1.197277 0.185379 0.385373 -0.553917 -0.837084
    21 1.535927 0.010246 0.005009 -0.002964 -0.012979 -0.682290
    22 1.100771 0.004527 -0.010679 -0.016147 -0.001453 -1.484153
    23 0.120153 -0.050270 -0.054489 0.287569 3.110905 1.561085
    24 2.881671 3.526820 -9.403914 0.301651 -3.462571 0.513959
    25 0.096944 -8.450418 -0.009365 -0.763037 -1.346425 1.363381
    26 0.447953 -2.798986 -0.200443 -1.456960 0.099071 0.252834
    27 -0.032909 -1.480204 0.004940 -1.601340 0.000000 0.000002
    28 -0.027022 -1.076920 -0.020210 -0.353735 0.000000 0.000000
    29 -0.249534 -2.846964 -0.174213 -1.241183 0.075210 0.132159
    30 0.043235 -1.683941 0.096012 -1.813709 0.002823 -0.000167
    31 0.031729 -1.160830 0.058838 -0.456154 0.000642 0.008372
    32 -0.963866 -2.785145 -0.085350 -1.148608 0.139589 0.121877
    33 0.028479 -1.403067 0.006271 -1.391232 0.000000 0.000000
    34 0.021413 -0.957781 0.020046 -0.471322 0.000000 0.000000
    35 1.164475 -2.543940 -0.170330 -1.423710 -0.066254 0.446863
    36 0.024032 -1.129042 0.017807 -1.462507 0.000000 0.000001
    37 0.014898 -0.883989 -0.019848 -0.549408 0.000000 0.000000
    38 -0.586770 -1.264477 0.200161 0.313906 -0.927915 -2.922977
    39 1.522835 0.058681 0.016848 0.001410 0.008985 1.029593
    40 1.117947 0.048424 -0.005766 -0.023469 -0.009175 1.254246
    41 -0.139399 -0.111698 0.014397 0.407653 0.171241 1.393752
    42 -6.260806 6.983652 -0.294122 1.580804 -0.005023 -0.912799
  time 29
    0 -0.368931 1.166145 1.199636 0.000000 0.000000 0.000000
    1 12.538916 -2.320912 -9.955803 0.675928 -1.809752 -1.312947
    2 -0.071918 -8.498730 -0.104136 0.143881 0.110777 -0.239057
    3 5.233845 1.354622 1.688628 -0.065772 2.858007 1.272336
    4 19.997025 0.102143 0.000001 0.000000 0.000000 0.000000
    5 0.000000 0.000000 0.000000 0.000000 0.000000 0.000000
    6 6.506417 1.675302 0.000001 0.000000 0.000000 1.570796
    7 1.257180 8.762585 -0.153713 -1.570562 0.002683 -1.566807
    8 -0.488518 -2.755602 -0.228260 -0.636863 -0.077551 -0.298478
    9 0.039887 -1.479790 0.029854 -2.230118 0.000000 0.000001
    10 0.028786 -1.075731 -0.023109 -0.271941 0.000000 0.000000
    11 0.250027 -2.820665 -0.238396 -0.437192 -0.061406 -0.314674
    12 -0.049759 -1.680544 0.100479 -2.308624 0.000000 -0.000002
    13 -0.034142 -1.148312 0.084782 -0.535851 0.000000 0.000000
    14 0.957766 -2.746780 -0.090302 0.398790 -0.132819 0.006168
    15 -0.033420 -1.397129 -0.011257 -0.759931 0.000000 -0.000001
    16 -0.022360 -0.957436 0.018784 -0.372926 0.000000 0.000000
    17 -1.180681 -2.507217 -0.193859 -0.535961 0.112898 -0.284556
    18 -0.024967 -1.123934 0.017597 -1.884509 0.000000 0.000001
    19 -0.020057 -0.890968 0.010090 -0.772262 0.000000 0.000000
    20 0.583510 -1.197277 0.185379 0.385373 -0.553917 -0.837084
    21 1.535927 0.010246 0.005009 -0.002964 -0.012979 -0.682290
    22 1.100771 0.004527 -0.010679 -0.016147 -0.001453 -1.484153
    23 0.120153 -0.050270 -0.054489 0.287569 3.110905 1.561085
    24 2.940267 3.499475 -9.314067 0.304527 -3.481755 0.516145
    25 0.096944 -8.450418 -0.009365 -0.763037 -1.346425 1.363381
    26 0.447953 -2.798986 -0.200443 -1.456960 0.099071 0.252834
    27 -0.032909 -1.480204 0.004940 -1.601340 0.000000 0.000002
    28 -0.027022 -1.076920 -0.020210 -0.353735 0.000000 0.000000
    29 -0.249534 -2.846964 -0.174213 -1.241183 0.075210 0.132159
    30 0.043235 -1.683941 0.096012 -1.813709 0.002823 -0.000167
    31 0.031729 -1.160830 0.058838 -0.456154 0.000642 0.008372
    32 -0.963866 -2.785145 -0.085350 -1.148608 0.139589 0.121877
    33 0.028479 -1.403067 0.006271 -1.391232 0.000000 0.000000
    34 0.021413 -0.957781 0.020046 -0.471322 0.000000 0.000000
    35 1.164475 -2.543940 -0.170330 -1.423710 -0.066254 0.446863
    36 0.024032 -1.129042 0.017807 -1.462507 0.000000 0.000001
    37 0.014898 -0.883989 -0.019848 -0.549408 0.000000 0.000000
    38 -0.586770 -1.264477 0.200161 0.313906 -0.927915 -2.922977
    39 1.522835 0.058681 0.016848 0.001410 0.008985 1.029593
    40 1.117947 0.048424 -0.005766 -0.023469 -0.009175 1.254246
    41 -0.139399 -0.111698 0.014397 0.407653 0.171241 1.393752
    42 -6.260806 6.983652 -0.294122 1.580804 -0.005023 -0.912799
  time 30
    0 -0.368931 1.166145 1.199636 0.000000 0.000000 0.000000
    1 12.609231 -2.328725 -9.752672 0.627801 -1.805080 -1.263981
    2 -0.071918 -8.498730 -0.104136 0.143713 0.104209 -0.240639
    3 5.233845 1.354622 1.688628 -0.065772 2.858007 1.272336
    4 19.997025 0.102143 0.000001 0.000000 0.000000 0.000000
    5 0.000000 0.000000 0.000000 0.000000 0.000000 0.000000
    6 6.506417 1.675302 0.000001 0.000000 0.000000 1.570796
    7 1.257180 8.762585 -0.153713 -1.570562 0.002683 -1.566807
    8 -0.488518 -2.755602 -0.228260 -0.636863 -0.077551 -0.298478
    9 0.039887 -1.479790 0.029854 -2.230118 0.000000 0.000001
    10 0.028786 -1.075731 -0.023109 -0.271941 0.000000 0.000000
    11 0.250027 -2.820665 -0.238396 -0.437192 -0.061406 -0.314674
    12 -0.049759 -1.680544 0.100479 -2.308695 0.000000 -0.000002
    13 -0.034142 -1.148312 0.084782 -0.535851 0.000000 0.000000
    14 0.957766 -2.746780 -0.090302 0.398790 -0.132819 0.006168
    15 -0.033420 -1.397129 -0.011257 -0.767419 0.000000 -0.000001
    16 -0.022360 -0.957436 0.018784 -0.380385 0.000000 0.000000
    17 -1.180681 -2.507217 -0.193859 -0.535961 0.112898 -0.284556
    18 -0.024967 -1.123934 0.017597 -1.884509 0.000000 0.000001
    19 -0.020057 -0.890968 0.010090 -0.772262 0.000000 0.000000
    20 0.583510 -1.197277 0.185379 0.385373 -0.553917 -0.837084
    21 1.535927 0.010246 0.005009 -0.002964 -0.012979 -0.682290
    22 1.100771 0.004527 -0.010679 -0.016147 -0.001453 -1.484153
    23 0.120153 -0.050270 -0.054489 0.287569 3.110905 1.561085
    24 2.998862 3.464318 -9.212502 0.308071 -3.498061 0.518997
    25 0.096944 -8.450418 -0.009365 -0.763037 -1.346425 1.363381
    26 0.447953 -2.798986 -0.200443 -1.456960 0.099071 0.252834
    27 -0.032909 -1.480204 0.004940 -1.601340 0.000000 0.000002
    28 -0.027022 -1.076920 -0.020210 -0.353735 0.000000 0.000000
    29 -0.249534 -2.846964 -0.174213 -1.241183 0.075210 0.132159
    30 0.043235 -1.683941 0.096012 -1.813709 0.002823 -0.000167
    31 0.031729 -1.160830 0.058838 -0.456154 0.000642 0.008372
    32 -0.963866 -2.785145 -0.085350 -1.148608 0.139589 0.121877
    33 0.028479 -1.403067 0.006271 -1.391232 0.000000 0.000000
    34 0.021413 -0.957781 0.020046 -0.471322 0.000000 0.000000
    35 1.164475 -2.543940 -0.170330 -1.423710 -0.066254 0.446863
    36 0.024032 -1.129042 0.017807 -1.462507 0.000000 0.000001
    37 0.014898 -0.883989 -0.019848 -0.549408 0.000000 0.000000
    38 -0.586770 -1.264477 0.200161 0.313906 -0.927915 -2.922977
    39 1.522835 0.058681 0.016848 0.001410 0.008985 1.029593
    40 1.117947 0.048424 -0.005766 -0.023469 -0.009175 1.254246
    41 -0.139399 -0.111698 0.014397 0.407653 0.171241 1.393752
    42 -6.260806 6.983652 -0.294122 1.580804 -0.005023 -0.912799
end
