version 1
nodes
  0 "Bone01" -1
  1 "Bone_Lefthand" 0
  2 "Bone02" 1
  3 "Bone03" 2
  4 "Bone50" 3
  5 "Bone48" 3
  6 "Bone25" 3
  7 "Bone 04" 1
  8 "Bone13" 7
  9 "Bone14" 8
  10 "Bone15" 9
  11 "Bone17" 7
  12 "Bone18" 11
  13 "Bone19" 12
  14 "Bone21" 7
  15 "Bone22" 14
  16 "Bone23" 15
  17 "Bone05" 7
  18 "Bone06" 17
  19 "Bone07" 18
  20 "Bone09" 7
  21 "Bone10" 20
  22 "Bone11" 21
  23 "Bone04" -1
  24 "Bone_Righthand" 23
  25 "Bone26" 24
  26 "Bone35" 25
  27 "Bone36" 26
  28 "Bone37" 27
  29 "Bone31" 25
  30 "Bone32" 29
  31 "Bone33" 30
  32 "Bone39" 25
  33 "Bone40" 32
  34 "Bone41" 33
  35 "Bone43" 25
  36 "Bone44" 35
  37 "Bone45" 36
  38 "Bone27" 25
  39 "Bone28" 38
  40 "Bone29" 39
end
skeleton
  time 0
    0 6.356513 2.009370 -6.654950 -0.774305 -1.331392 0.567276
    1 0.000000 -8.563283 0.000000 0.345532 -0.130829 -0.153906
    2 -1.049844 -2.321231 0.654214 -1.247037 1.437608 -1.233844
    3 0.000000 0.743004 1.588492 0.000000 0.000000 0.000000
    4 0.000000 3.192658 2.044578 0.000000 0.000000 0.000000
    5 0.000000 1.878595 2.044578 0.000000 0.000000 0.000000
    6 0.000000 -1.088269 0.407971 0.000000 0.000000 0.000000
    7 -0.003480 -0.404829 0.000000 0.000000 0.000000 0.000000
    8 -0.519309 -2.501156 -0.278957 -1.490008 -0.039729 -0.147496
    9 -0.010598 -1.208185 -0.000001 -0.928524 0.000000 0.000000
    10 0.000000 -0.763066 0.000001 -0.956441 0.000000 0.000000
    11 0.105981 -2.607135 -0.278958 -1.202940 -0.083077 -0.180316
    12 -0.000001 -1.250581 -0.000002 -1.029748 0.000000 0.000000
    13 0.000000 -0.932634 0.000000 -1.190315 0.000000 0.000000
    14 0.763064 -2.490556 -0.278958 -0.491777 -0.010738 0.101382
    15 -0.012323 -1.280918 0.000000 -1.132194 0.000000 0.000000
    16 -0.001697 -0.749372 -0.000001 -0.760422 0.000000 0.000000
    17 0.354567 0.016267 0.318132 0.476365 -0.569605 -1.011074
    18 1.887165 0.012877 0.000000 -0.301682 -0.048430 -0.555739
    19 1.001875 -0.000270 0.000000 0.000000 0.000000 -1.024756
    20 -1.123360 -2.195094 -0.278958 -1.567306 0.000000 -0.087266
    21 0.010771 -0.963791 0.000000 -1.213004 0.000000 0.000000
    22 -0.010412 -0.631916 0.000000 -1.197304 0.000000 0.000000
    23 -0.741723 -3.845582 -9.393159 0.845554 2.214544 1.236077
    24 0.089929 -8.543166 0.000000 0.111138 -0.164353 0.353696
    25 0.000000 -0.359714 0.000000 0.000000 0.000000 0.000000
    26 -0.170479 -2.636146 -0.277655 -1.750535 0.000000 0.000000
    27 0.010599 -1.261177 0.000001 -0.342077 0.000000 0.000000
    28 -0.000001 -0.943233 0.000001 -0.961659 0.000000 0.000000
    29 -0.827563 -2.508972 -0.277656 -1.480020 0.000000 0.000000
    30 0.000000 -1.292971 0.000001 -0.979101 0.000000 0.000000
    31 0.000000 -0.752466 0.000001 -0.502647 0.000000 0.000000
    32 0.444213 -2.561960 -0.277655 -1.748213 -0.046885 -0.024335
    33 0.021022 -1.208185 -0.000001 -0.322909 0.000000 0.000000
    34 0.010597 -0.741867 0.000000 -0.877897 0.000000 0.000000
    35 1.047444 -2.222821 -0.277655 -1.581386 -0.083393 -0.037063
    36 0.000000 -0.996223 0.000001 -1.199038 0.000000 0.000000
    37 -0.000001 -0.614689 0.000001 -1.062893 0.000000 0.000000
    38 -0.308254 -0.007814 0.307165 -0.181399 -0.369377 -2.311048
    39 1.978378 0.019545 -0.000001 0.042951 -0.179887 0.769158
    40 0.982425 0.003186 0.000000 0.000000 0.000000 1.090793
  time 1
    0 6.356513 2.165625 -6.694014 -0.809165 -1.322649 0.603182
    1 0.000000 -8.563283 0.000000 0.344297 -0.134089 -0.144750
    2 -1.049844 -2.321231 0.654214 -1.247037 1.437608 -1.233844
    3 0.000000 0.743004 1.588492 0.000000 0.000000 0.000000
    4 0.000000 3.192658 2.044578 0.000000 0.000000 0.000000
    5 0.000000 1.878595 2.044578 0.000000 0.000000 0.000000
    6 0.000000 -1.072644 0.407971 0.000000 0.000000 0.000000
    7 -0.003480 -0.404829 0.000000 0.000000 0.000000 0.000000
    8 -0.519309 -2.501156 -0.278957 -1.490008 -0.039729 -0.147496
    9 -0.010598 -1.208185 -0.000001 -0.928524 0.000000 0.000000
    10 0.000000 -0.763066 0.000001 -0.956441 0.000000 0.000000
    11 0.105981 -2.607135 -0.278958 -1.202940 -0.083077 -0.180316
    12 -0.000001 -1.250581 -0.000002 -1.029748 0.000000 0.000000
    13 0.000000 -0.932634 0.000000 -1.190315 0.000000 0.000000
    14 0.763064 -2.490556 -0.278958 -0.494797 -0.010738 0.101382
    15 -0.012323 -1.280918 0.000000 -1.139167 0.000000 0.000000
    16 -0.001697 -0.749372 -0.000001 -0.759039 0.000000 0.000000
    17 0.354567 0.016267 0.318132 0.476029 -0.569869 -1.010438
    18 1.887165 0.012877 0.000000 -0.301754 -0.047951 -0.554229
    19 1.001875 -0.000270 0.000000 0.000000 0.000000 -1.029745
    20 -1.123360 -2.195094 -0.278958 -1.567306 0.000000 -0.087266
    21 0.010771 -0.963791 0.000000 -1.213004 0.000000 0.000000
    22 -0.010412 -0.631916 0.000000 -1.197304 0.000000 0.000000
    23 -0.741723 -3.829957 -9.354096 0.873889 2.239828 1.271716
    24 0.089929 -8.543166 0.000000 0.100913 -0.170786 0.414931
    25 0.000000 -0.359714 0.000000 0.000000 0.000000 0.000000
    26 -0.170479 -2.636146 -0.277655 -1.750535 0.000000 0.000000
    27 0.010599 -1.261177 0.000001 -0.342077 0.000000 0.000000
    28 -0.000001 -0.943233 0.000001 -0.961659 0.000000 0.000000
    29 -0.827563 -2.508972 -0.277656 -1.480020 0.000000 0.000000
    30 0.000000 -1.292971 0.000001 -0.979101 0.000000 0.000000
    31 0.000000 -0.752466 0.000001 -0.502647 0.000000 0.000000
    32 0.444213 -2.561960 -0.277655 -1.748213 -0.046885 -0.024335
    33 0.021022 -1.208185 -0.000001 -0.322909 0.000000 0.000000
    34 0.010597 -0.741867 0.000000 -0.877897 0.000000 0.000000
    35 1.047444 -2.222821 -0.277655 -1.581386 -0.083393 -0.037063
    36 0.000000 -0.996223 0.000001 -1.199038 0.000000 0.000000
    37 -0.000001 -0.614689 0.000001 -1.062893 0.000000 0.000000
    38 -0.308254 -0.007814 0.307165 -0.181399 -0.369377 -2.311048
    39 1.978378 0.019545 -0.000001 0.042951 -0.179887 0.769158
    40 0.982425 0.003186 0.000000 0.000000 0.000000 1.090793
  time 2
    0 6.356513 2.415633 -6.756516 -0.832044 -1.316357 0.626815
    1 0.000000 -8.563283 0.000000 0.344633 -0.133250 -0.147123
    2 -1.049844 -2.321231 0.654214 -1.247037 1.437608 -1.233844
    3 0.000000 0.743004 1.588492 0.000000 0.000000 0.000000
    4 0.000000 3.192658 2.044578 0.000000 0.000000 0.000000
    5 0.000000 1.878595 2.044578 0.000000 0.000000 0.000000
    6 0.000000 -1.068737 0.407971 0.000000 0.000000 0.000000
    7 -0.003480 -0.404829 0.000000 0.000000 0.000000 0.000000
    8 -0.519309 -2.501156 -0.278957 -1.490008 -0.039729 -0.147496
    9 -0.010598 -1.208185 -0.000001 -0.928524 0.000000 0.000000
    10 0.000000 -0.763066 0.000001 -0.956441 0.000000 0.000000
    11 0.105981 -2.607135 -0.278958 -1.202940 -0.083077 -0.180316
    12 -0.000001 -1.250581 -0.000002 -1.029748 0.000000 0.000000
    13 0.000000 -0.932634 0.000000 -1.190315 0.000000 0.000000
    14 0.763064 -2.490556 -0.278958 -0.497063 -0.010738 0.101382
    15 -0.012323 -1.280918 0.000000 -1.147157 0.000000 0.000000
    16 -0.001697 -0.749372 -0.000001 -0.757236 0.000000 0.000000
    17 0.354567 0.016267 0.318132 0.475634 -0.570180 -1.009719
    18 1.887165 0.012877 0.000000 -0.301862 -0.047363 -0.552372
    19 1.001875 -0.000270 0.000000 0.000000 0.000000 -1.036244
    20 -1.123360 -2.195094 -0.278958 -1.567306 0.000000 -0.087266
    21 0.010771 -0.963791 0.000000 -1.213004 0.000000 0.000000
    22 -0.010412 -0.631916 0.000000 -1.197304 0.000000 0.000000
    23 -0.741723 -3.556511 -9.283781 0.873219 2.239254 1.270928
    24 0.089929 -8.543166 0.000000 0.098903 -0.171960 0.426819
    25 0.000000 -0.359714 0.000000 0.000000 0.000000 0.000000
    26 -0.170479 -2.636146 -0.277655 -1.750535 0.000000 0.000000
    27 0.010599 -1.261177 0.000001 -0.342077 0.000000 0.000000
    28 -0.000001 -0.943233 0.000001 -0.961659 0.000000 0.000000
    29 -0.827563 -2.508972 -0.277656 -1.480020 0.000000 0.000000
    30 0.000000 -1.292971 0.000001 -0.979101 0.000000 0.000000
    31 0.000000 -0.752466 0.000001 -0.502647 0.000000 0.000000
    32 0.444213 -2.561960 -0.277655 -1.748213 -0.046885 -0.024335
    33 0.021022 -1.208185 -0.000001 -0.322909 0.000000 0.000000
    34 0.010597 -0.741867 0.000000 -0.877897 0.000000 0.000000
    35 1.047444 -2.222821 -0.277655 -1.581386 -0.083393 -0.037063
    36 0.000000 -0.996223 0.000001 -1.199038 0.000000 0.000000
    37 -0.000001 -0.614689 0.000001 -1.062893 0.000000 0.000000
    38 -0.308254 -0.007814 0.307165 -0.181399 -0.369377 -2.311048
    39 1.978378 0.019545 -0.000001 0.042951 -0.179887 0.769158
    40 0.982425 0.003186 0.000000 0.000000 0.000000 1.090793
  time 3
    0 6.356513 2.665640 -6.822924 -0.830297 -1.316837 0.624994
    1 0.000000 -8.563283 0.000000 0.345304 -0.131452 -0.152168
    2 -1.049844 -2.321231 0.654214 -1.247037 1.437608 -1.233844
    3 0.000000 0.743004 1.588492 0.000000 0.000000 0.000000
    4 0.000000 3.192658 2.044578 0.000000 0.000000 0.000000
    5 0.000000 1.878595 2.044578 0.000000 0.000000 0.000000
    6 0.000000 -1.068737 0.407971 0.000000 0.000000 0.000000
    7 -0.003480 -0.404829 0.000000 0.000000 0.000000 0.000000
    8 -0.519309 -2.501156 -0.278957 -1.490008 -0.039729 -0.147496
    9 -0.010598 -1.208185 -0.000001 -0.928524 0.000000 0.000000
    10 0.000000 -0.763066 0.000001 -0.956441 0.000000 0.000000
    11 0.105981 -2.607135 -0.278958 -1.202940 -0.083077 -0.180316
    12 -0.000001 -1.250581 -0.000002 -1.029748 0.000000 0.000000
    13 0.000000 -0.932634 0.000000 -1.190315 0.000000 0.000000
    14 0.763064 -2.490556 -0.278958 -0.496307 -0.010738 0.101382
    15 -0.012323 -1.280918 0.000000 -1.153146 0.000000 0.000000
    16 -0.001697 -0.749372 -0.000001 -0.755450 0.000000 0.000000
    17 0.354567 0.016267 0.318132 0.475358 -0.570420 -1.009168
    18 1.887165 0.012877 0.000000 -0.301922 -0.046860 -0.550682
    19 1.001875 -0.000270 0.000000 0.000000 0.000000 -1.042743
    20 -1.123360 -2.195094 -0.278958 -1.567306 0.000000 -0.087266
    21 0.010771 -0.963791 0.000000 -1.213004 0.000000 0.000000
    22 -0.010412 -0.631916 0.000000 -1.197304 0.000000 0.000000
    23 -0.741723 -3.247908 -9.256436 0.865178 2.231687 1.260685
    24 0.089929 -8.543166 0.000000 0.097432 -0.172775 0.435236
    25 0.000000 -0.359714 0.000000 0.000000 0.000000 0.000000
    26 -0.170479 -2.636146 -0.277655 -1.750535 0.000000 0.000000
    27 0.010599 -1.261177 0.000001 -0.342077 0.000000 0.000000
    28 -0.000001 -0.943233 0.000001 -0.961659 0.000000 0.000000
    29 -0.827563 -2.508972 -0.277656 -1.480020 0.000000 0.000000
    30 0.000000 -1.292971 0.000001 -0.979101 0.000000 0.000000
    31 0.000000 -0.752466 0.000001 -0.502647 0.000000 0.000000
    32 0.444213 -2.561960 -0.277655 -1.748213 -0.046885 -0.024335
    33 0.021022 -1.208185 -0.000001 -0.322909 0.000000 0.000000
    34 0.010597 -0.741867 0.000000 -0.877897 0.000000 0.000000
    35 1.047444 -2.222821 -0.277655 -1.581386 -0.083393 -0.037063
    36 0.000000 -0.996223 0.000001 -1.199038 0.000000 0.000000
    37 -0.000001 -0.614689 0.000001 -1.062893 0.000000 0.000000
    38 -0.308254 -0.007814 0.307165 -0.181399 -0.369377 -2.311048
    39 1.978378 0.019545 -0.000001 0.042951 -0.179887 0.769158
    40 0.982425 0.003186 0.000000 0.000000 0.000000 1.090793
  time 4
    0 6.356513 2.642202 -6.815112 -0.823974 -1.318597 0.618570
    1 0.000000 -8.563283 0.000000 0.346143 -0.129127 -0.158676
    2 -1.049844 -2.321231 0.654214 -1.247037 1.437608 -1.233844
    3 0.000000 0.743004 1.588492 0.000000 0.000000 0.000000
    4 0.000000 3.192658 2.044578 0.000000 0.000000 0.000000
    5 0.000000 1.878595 2.044578 0.000000 0.000000 0.000000
    6 0.000000 -1.072644 0.407971 0.000000 0.000000 0.000000
    7 -0.003480 -0.404829 0.000000 0.000000 0.000000 0.000000
    8 -0.519309 -2.501156 -0.278957 -1.490008 -0.039729 -0.147496
    9 -0.010598 -1.208185 -0.000001 -0.928524 0.000000 0.000000
    10 0.000000 -0.763066 0.000001 -0.956441 0.000000 0.000000
    11 0.105981 -2.607135 -0.278958 -1.202940 -0.083077 -0.180316
    12 -0.000001 -1.250581 -0.000002 -1.029748 0.000000 0.000000
    13 0.000000 -0.932634 0.000000 -1.190315 0.000000 0.000000
    14 0.763064 -2.490556 -0.278958 -0.490267 -0.010738 0.101382
    15 -0.012323 -1.280918 0.000000 -1.154147 0.000000 0.000000
    16 -0.001697 -0.749372 -0.000001 -0.754067 0.000000 0.000000
    17 0.354567 0.016267 0.318132 0.475298 -0.570456 -1.009072
    18 1.887165 0.012877 0.000000 -0.301970 -0.046536 -0.549699
    19 1.001875 -0.000270 0.000000 0.000000 0.000000 -1.047755
    20 -1.123360 -2.195094 -0.278958 -1.567306 0.000000 -0.087266
    21 0.010771 -0.963791 0.000000 -1.213004 0.000000 0.000000
    22 -0.010412 -0.631916 0.000000 -1.197304 0.000000 0.000000
    23 -0.741723 -3.185406 -9.260343 0.851968 2.220003 1.243956
    24 0.089929 -8.543166 0.000000 0.097407 -0.172812 0.435526
    25 0.000000 -0.359714 0.000000 0.000000 0.000000 0.000000
    26 -0.170479 -2.636146 -0.277655 -1.750535 0.000000 0.000000
    27 0.010599 -1.261177 0.000001 -0.342077 0.000000 0.000000
    28 -0.000001 -0.943233 0.000001 -0.961659 0.000000 0.000000
    29 -0.827563 -2.508972 -0.277656 -1.480020 0.000000 0.000000
    30 0.000000 -1.292971 0.000001 -0.979101 0.000000 0.000000
    31 0.000000 -0.752466 0.000001 -0.502647 0.000000 0.000000
    32 0.444213 -2.561960 -0.277655 -1.748213 -0.046885 -0.024335
    33 0.021022 -1.208185 -0.000001 -0.322909 0.000000 0.000000
    34 0.010597 -0.741867 0.000000 -0.877897 0.000000 0.000000
    35 1.047444 -2.222821 -0.277655 -1.581386 -0.083393 -0.037063
    36 0.000000 -0.996223 0.000001 -1.199038 0.000000 0.000000
    37 -0.000001 -0.614689 0.000001 -1.062893 0.000000 0.000000
    38 -0.308254 -0.007814 0.307165 -0.181399 -0.369377 -2.311048
    39 1.978378 0.019545 -0.000001 0.042951 -0.179887 0.769158
    40 0.982425 0.003186 0.000000 0.000000 0.000000 1.090793
  time 5
    0 6.356513 2.579700 -6.791673 -0.814406 -1.321262 0.608695
    1 0.000000 -8.563283 0.000000 0.347006 -0.126706 -0.165387
    2 -1.049844 -2.321231 0.654214 -1.247037 1.437608 -1.233844
    3 0.000000 0.743004 1.588492 0.000000 0.000000 0.000000
    4 0.000000 3.192658 2.044578 0.000000 0.000000 0.000000
    5 0.000000 1.878595 2.044578 0.000000 0.000000 0.000000
    6 0.000000 -1.088269 0.407971 0.000000 0.000000 0.000000
    7 -0.003480 -0.404829 0.000000 0.000000 0.000000 0.000000
    8 -0.519309 -2.501156 -0.278957 -1.490008 -0.039729 -0.147496
    9 -0.010598 -1.208185 -0.000001 -0.928524 0.000000 0.000000
    10 0.000000 -0.763066 0.000001 -0.956441 0.000000 0.000000
    11 0.105981 -2.607135 -0.278958 -1.202940 -0.083077 -0.180316
    12 -0.000001 -1.250581 -0.000002 -1.029748 0.000000 0.000000
    13 0.000000 -0.932634 0.000000 -1.190315 0.000000 0.000000
    14 0.763064 -2.490556 -0.278958 -0.479949 -0.010738 0.101382
    15 -0.012323 -1.280918 0.000000 -1.147157 0.000000 0.000000
    16 -0.001697 -0.749372 -0.000001 -0.753525 0.000000 0.000000
    17 0.354567 0.016267 0.318132 0.475634 -0.570180 -1.009719
    18 1.887165 0.012877 0.000000 -0.301958 -0.046620 -0.549975
    19 1.001875 -0.000270 0.000000 0.000000 0.000000 -1.049746
    20 -1.123360 -2.195094 -0.278958 -1.567306 0.000000 -0.087266
    21 0.010771 -0.963791 0.000000 -1.213004 0.000000 0.000000
    22 -0.010412 -0.631916 0.000000 -1.197304 0.000000 0.000000
    23 -0.741723 -3.185406 -9.264249 0.837896 2.208223 1.226561
    24 0.089929 -8.543166 0.000000 0.098388 -0.172256 0.429799
    25 0.000000 -0.359714 0.000000 0.000000 0.000000 0.000000
    26 -0.170479 -2.636146 -0.277655 -1.750535 0.000000 0.000000
    27 0.010599 -1.261177 0.000001 -0.342077 0.000000 0.000000
    28 -0.000001 -0.943233 0.000001 -0.961659 0.000000 0.000000
    29 -0.827563 -2.508972 -0.277656 -1.480020 0.000000 0.000000
    30 0.000000 -1.292971 0.000001 -0.979101 0.000000 0.000000
    31 0.000000 -0.752466 0.000001 -0.502647 0.000000 0.000000
    32 0.444213 -2.561960 -0.277655 -1.748213 -0.046885 -0.024335
    33 0.021022 -1.208185 -0.000001 -0.322909 0.000000 0.000000
    34 0.010597 -0.741867 0.000000 -0.877897 0.000000 0.000000
    35 1.047444 -2.222821 -0.277655 -1.581386 -0.083393 -0.037063
    36 0.000000 -0.996223 0.000001 -1.199038 0.000000 0.000000
    37 -0.000001 -0.614689 0.000001 -1.062893 0.000000 0.000000
    38 -0.308254 -0.007814 0.307165 -0.181399 -0.369377 -2.311048
    39 1.978378 0.019545 -0.000001 0.042951 -0.179887 0.769158
    40 0.982425 0.003186 0.000000 0.000000 0.000000 1.090793
  time 6
    0 6.356513 2.497666 -6.760422 -0.802675 -1.324355 0.596518
    1 0.000000 -8.563283 0.000000 0.347689 -0.124693 -0.171056
    2 -1.049844 -2.321231 0.654214 -1.247037 1.437608 -1.233844
    3 0.000000 0.743004 1.588492 0.000000 0.000000 0.000000
    4 0.000000 3.192658 2.044578 0.000000 0.000000 0.000000
    5 0.000000 1.878595 2.044578 0.000000 0.000000 0.000000
    6 0.000000 -1.103894 0.407971 0.000000 0.000000 0.000000
    7 -0.003480 -0.404829 0.000000 0.000000 0.000000 0.000000
    8 -0.519309 -2.501156 -0.278957 -1.490008 -0.039729 -0.147496
    9 -0.010598 -1.208185 -0.000001 -0.928524 0.000000 0.000000
    10 0.000000 -0.763066 0.000001 -0.956441 0.000000 0.000000
    11 0.105981 -2.607135 -0.278958 -1.202940 -0.083077 -0.180316
    12 -0.000001 -1.250581 -0.000002 -1.029748 0.000000 0.000000
    13 0.000000 -0.932634 0.000000 -1.190315 0.000000 0.000000
    14 0.763064 -2.490556 -0.278958 -0.468036 -0.010738 0.101382
    15 -0.012323 -1.280918 0.000000 -1.129225 0.000000 0.000000
    16 -0.001697 -0.749372 -0.000001 -0.754207 0.000000 0.000000
    17 0.354567 0.016267 0.318132 0.476509 -0.569473 -1.011337
    18 1.887165 0.012877 0.000000 -0.301874 -0.047255 -0.552000
    19 1.001875 -0.000270 0.000000 0.000000 0.000000 -1.047240
    20 -1.123360 -2.195094 -0.278958 -1.567306 0.000000 -0.087266
    21 0.010771 -0.963791 0.000000 -1.213004 0.000000 0.000000
    22 -0.010412 -0.631916 0.000000 -1.197304 0.000000 0.000000
    23 -0.741723 -3.224470 -9.287687 0.828324 2.200465 1.214681
    24 0.089929 -8.543166 0.000000 0.100031 -0.171317 0.420224
    25 0.000000 -0.359714 0.000000 0.000000 0.000000 0.000000
    26 -0.170479 -2.636146 -0.277655 -1.750535 0.000000 0.000000
    27 0.010599 -1.261177 0.000001 -0.342077 0.000000 0.000000
    28 -0.000001 -0.943233 0.000001 -0.961659 0.000000 0.000000
    29 -0.827563 -2.508972 -0.277656 -1.480020 0.000000 0.000000
    30 0.000000 -1.292971 0.000001 -0.979101 0.000000 0.000000
    31 0.000000 -0.752466 0.000001 -0.502647 0.000000 0.000000
    32 0.444213 -2.561960 -0.277655 -1.748213 -0.046885 -0.024335
    33 0.021022 -1.208185 -0.000001 -0.322909 0.000000 0.000000
    34 0.010597 -0.741867 0.000000 -0.877897 0.000000 0.000000
    35 1.047444 -2.222821 -0.277655 -1.581386 -0.083393 -0.037063
    36 0.000000 -0.996223 0.000001 -1.199038 0.000000 0.000000
    37 -0.000001 -0.614689 0.000001 -1.062893 0.000000 0.000000
    38 -0.308254 -0.007814 0.307165 -0.181399 -0.369377 -2.311048
    39 1.978378 0.019545 -0.000001 0.042951 -0.179887 0.769158
    40 0.982425 0.003186 0.000000 0.000000 0.000000 1.090793
  time 7
    0 6.356513 2.415633 -6.729171 -0.789863 -1.327607 0.583287
    1 0.000000 -8.563283 0.000000 0.348108 -0.123446 -0.174520
    2 -1.049844 -2.321231 0.654214 -1.247037 1.437608 -1.233844
    3 0.000000 0.743004 1.588492 0.000000 0.000000 0.000000
    4 0.000000 3.192658 2.044578 0.000000 0.000000 0.000000
    5 0.000000 1.878595 2.044578 0.000000 0.000000 0.000000
    6 0.000000 -1.131239 0.407971 0.000000 0.000000 0.000000
    7 -0.003480 -0.404829 0.000000 0.000000 0.000000 0.000000
    8 -0.519309 -2.501156 -0.278957 -1.490008 -0.039729 -0.147496
    9 -0.010598 -1.208185 -0.000001 -0.928524 0.000000 0.000000
    10 0.000000 -0.763066 0.000001 -0.956441 0.000000 0.000000
    11 0.105981 -2.607135 -0.278958 -1.202940 -0.083077 -0.180316
    12 -0.000001 -1.250581 -0.000002 -1.029748 0.000000 0.000000
    13 0.000000 -0.932634 0.000000 -1.190315 0.000000 0.000000
    14 0.763064 -2.490556 -0.278958 -0.454793 -0.010738 0.101382
    15 -0.012323 -1.280918 0.000000 -1.099749 0.000000 0.000000
    16 -0.001697 -0.749372 -0.000001 -0.756553 0.000000 0.000000
    17 0.354567 0.016267 0.318132 0.477947 -0.568323 -1.014010
    18 1.887165 0.012877 0.000000 -0.301658 -0.048610 -0.556363
    19 1.001875 -0.000270 0.000000 0.000000 0.000000 -1.038738
    20 -1.123360 -2.195094 -0.278958 -1.567306 0.000000 -0.087266
    21 0.010771 -0.963791 0.000000 -1.213004 0.000000 0.000000
    22 -0.010412 -0.631916 0.000000 -1.197304 0.000000 0.000000
    23 -0.741723 -3.294784 -9.361908 0.825261 2.197975 1.210863
    24 0.089929 -8.543166 0.000000 0.101379 -0.170515 0.412183
    25 0.000000 -0.359714 0.000000 0.000000 0.000000 0.000000
    26 -0.170479 -2.636146 -0.277655 -1.750535 0.000000 0.000000
    27 0.010599 -1.261177 0.000001 -0.342077 0.000000 0.000000
    28 -0.000001 -0.943233 0.000001 -0.961659 0.000000 0.000000
    29 -0.827563 -2.508972 -0.277656 -1.480020 0.000000 0.000000
    30 0.000000 -1.292971 0.000001 -0.979101 0.000000 0.000000
    31 0.000000 -0.752466 0.000001 -0.502647 0.000000 0.000000
    32 0.444213 -2.561960 -0.277655 -1.748213 -0.046885 -0.024335
    33 0.021022 -1.208185 -0.000001 -0.322909 0.000000 0.000000
    34 0.010597 -0.741867 0.000000 -0.877897 0.000000 0.000000
    35 1.047444 -2.222821 -0.277655 -1.581386 -0.083393 -0.037063
    36 0.000000 -0.996223 0.000001 -1.199038 0.000000 0.000000
    37 -0.000001 -0.614689 0.000001 -1.062893 0.000000 0.000000
    38 -0.308254 -0.007814 0.307165 -0.181399 -0.369377 -2.311048
    39 1.978378 0.019545 -0.000001 0.042951 -0.179887 0.769158
    40 0.982425 0.003186 0.000000 0.000000 0.000000 1.090793
  time 8
    0 6.356513 2.349224 -6.709640 -0.777217 -1.330699 0.570296
    1 0.000000 -8.563283 0.000000 0.348252 -0.123015 -0.175718
    2 -1.049844 -2.321231 0.654214 -1.247037 1.437608 -1.233844
    3 0.000000 0.743004 1.588492 0.000000 0.000000 0.000000
    4 0.000000 3.192658 2.044578 0.000000 0.000000 0.000000
    5 0.000000 1.878595 2.044578 0.000000 0.000000 0.000000
    6 0.000000 -1.162490 0.407971 0.000000 0.000000 0.000000
    7 -0.003480 -0.404829 0.000000 0.000000 0.000000 0.000000
    8 -0.519309 -2.501156 -0.278957 -1.490008 -0.039729 -0.147496
    9 -0.010598 -1.208185 -0.000001 -0.928524 0.000000 0.000000
    10 0.000000 -0.763066 0.000001 -0.956441 0.000000 0.000000
    11 0.105981 -2.607135 -0.278958 -1.202940 -0.083077 -0.180316
    12 -0.000001 -1.250581 -0.000002 -1.029748 0.000000 0.000000
    13 0.000000 -0.932634 0.000000 -1.190315 0.000000 0.000000
    14 0.763064 -2.490556 -0.278958 -0.440507 -0.010738 0.101382
    15 -0.012323 -1.280918 0.000000 -1.061632 0.000000 0.000000
    16 -0.001697 -0.749372 -0.000001 -0.760965 0.000000 0.000000
    17 0.354567 0.016267 0.318132 0.479792 -0.566813 -1.017449
    18 1.887165 0.012877 0.000000 -0.301287 -0.050923 -0.563733
    19 1.001875 -0.000270 0.000000 0.000000 0.000000 -1.022754
    20 -1.123360 -2.195094 -0.278958 -1.567306 0.000000 -0.087266
    21 0.010771 -0.963791 0.000000 -1.213004 0.000000 0.000000
    22 -0.010412 -0.631916 0.000000 -1.197304 0.000000 0.000000
    23 -0.741723 -3.372912 -9.440036 0.821240 2.194910 1.205953
    24 0.089929 -8.543166 0.000000 0.103856 -0.169033 0.397634
    25 0.000000 -0.359714 0.000000 0.000000 0.000000 0.000000
    26 -0.170479 -2.636146 -0.277655 -1.750535 0.000000 0.000000
    27 0.010599 -1.261177 0.000001 -0.342077 0.000000 0.000000
    28 -0.000001 -0.943233 0.000001 -0.961659 0.000000 0.000000
    29 -0.827563 -2.508972 -0.277656 -1.480020 0.000000 0.000000
    30 0.000000 -1.292971 0.000001 -0.979101 0.000000 0.000000
    31 0.000000 -0.752466 0.000001 -0.502647 0.000000 0.000000
    32 0.444213 -2.561960 -0.277655 -1.748213 -0.046885 -0.024335
    33 0.021022 -1.208185 -0.000001 -0.322909 0.000000 0.000000
    34 0.010597 -0.741867 0.000000 -0.877897 0.000000 0.000000
    35 1.047444 -2.222821 -0.277655 -1.581386 -0.083393 -0.037063
    36 0.000000 -0.996223 0.000001 -1.199038 0.000000 0.000000
    37 -0.000001 -0.614689 0.000001 -1.062893 0.000000 0.000000
    38 -0.308254 -0.007814 0.307165 -0.181399 -0.369377 -2.311048
    39 1.978378 0.019545 -0.000001 0.042951 -0.179887 0.769158
    40 0.982425 0.003186 0.000000 0.000000 0.000000 1.090793
  time 9
    0 6.356513 2.302348 -6.697920 -0.766401 -1.333312 0.559078
    1 0.000000 -8.563283 0.000000 0.348264 -0.123003 -0.175754
    2 -1.049844 -2.321231 0.654214 -1.247037 1.437608 -1.233844
    3 0.000000 0.743004 1.588492 0.000000 0.000000 0.000000
    4 0.000000 3.192658 2.044578 0.000000 0.000000 0.000000
    5 0.000000 1.878595 2.044578 0.000000 0.000000 0.000000
    6 0.000000 -1.201554 0.407971 0.000000 0.000000 0.000000
    7 -0.003480 -0.404829 0.000000 0.000000 0.000000 0.000000
    8 -0.519309 -2.501156 -0.278957 -1.490008 -0.039729 -0.147496
    9 -0.010598 -1.208185 -0.000001 -0.928524 0.000000 0.000000
    10 0.000000 -0.763066 0.000001 -0.956441 0.000000 0.000000
    11 0.105981 -2.607135 -0.278958 -1.202940 -0.083077 -0.180316
    12 -0.000001 -1.250581 -0.000002 -1.029748 0.000000 0.000000
    13 0.000000 -0.932634 0.000000 -1.190315 0.000000 0.000000
    14 0.763064 -2.490556 -0.278958 -0.425479 -0.010738 0.101382
    15 -0.012323 -1.280918 0.000000 -1.016825 0.000000 0.000000
    16 -0.001697 -0.749372 -0.000001 -0.769122 0.000000 0.000000
    17 0.354567 0.016267 0.318132 0.481961 -0.565039 -1.021464
    18 1.887165 0.012877 0.000000 -0.300747 -0.054099 -0.574064
    19 1.001875 -0.000270 0.000000 0.000000 0.000000 -0.993220
    20 -1.123360 -2.195094 -0.278958 -1.567306 0.000000 -0.087266
    21 0.010771 -0.963791 0.000000 -1.213004 0.000000 0.000000
    22 -0.010412 -0.631916 0.000000 -1.197304 0.000000 0.000000
    23 -0.741723 -3.435414 -9.483006 0.818177 2.192516 1.202195
    24 0.089929 -8.543166 0.000000 0.106700 -0.167267 0.380539
    25 0.000000 -0.359714 0.000000 0.000000 0.000000 0.000000
    26 -0.170479 -2.636146 -0.277655 -1.750535 0.000000 0.000000
    27 0.010599 -1.261177 0.000001 -0.342077 0.000000 0.000000
    28 -0.000001 -0.943233 0.000001 -0.961659 0.000000 0.000000
    29 -0.827563 -2.508972 -0.277656 -1.480020 0.000000 0.000000
    30 0.000000 -1.292971 0.000001 -0.979101 0.000000 0.000000
    31 0.000000 -0.752466 0.000001 -0.502647 0.000000 0.000000
    32 0.444213 -2.561960 -0.277655 -1.748213 -0.046885 -0.024335
    33 0.021022 -1.208185 -0.000001 -0.322909 0.000000 0.000000
    34 0.010597 -0.741867 0.000000 -0.877897 0.000000 0.000000
    35 1.047444 -2.222821 -0.277655 -1.581386 -0.083393 -0.037063
    36 0.000000 -0.996223 0.000001 -1.199038 0.000000 0.000000
    37 -0.000001 -0.614689 0.000001 -1.062893 0.000000 0.000000
    38 -0.308254 -0.007814 0.307165 -0.181399 -0.369377 -2.311048
    39 1.978378 0.019545 -0.000001 0.042951 -0.179887 0.769158
    40 0.982425 0.003186 0.000000 0.000000 0.000000 1.090793
  time 10
    0 6.356513 2.263284 -6.694014 -0.758747 -1.335071 0.551168
    1 0.000000 -8.563283 0.000000 0.348156 -0.123290 -0.174951
    2 -1.049844 -2.321231 0.654214 -1.247037 1.437608 -1.233844
    3 0.000000 0.743004 1.588492 0.000000 0.000000 0.000000
    4 0.000000 3.192658 2.044578 0.000000 0.000000 0.000000
    5 0.000000 1.878595 2.044578 0.000000 0.000000 0.000000
    6 0.000000 -1.248430 0.407971 0.000000 0.000000 0.000000
    7 -0.003480 -0.404829 0.000000 0.000000 0.000000 0.000000
    8 -0.519309 -2.501156 -0.278957 -1.490008 -0.039729 -0.147496
    9 -0.010598 -1.208185 -0.000001 -0.928524 0.000000 0.000000
    10 0.000000 -0.763066 0.000001 -0.956441 0.000000 0.000000
    11 0.105981 -2.607135 -0.278958 -1.202940 -0.083077 -0.180316
    12 -0.000001 -1.250581 -0.000002 -1.029748 0.000000 0.000000
    13 0.000000 -0.932634 0.000000 -1.190315 0.000000 0.000000
    14 0.763064 -2.490556 -0.278958 -0.409970 -0.010738 0.101382
    15 -0.012323 -1.280918 0.000000 -0.967331 0.000000 0.000000
    16 -0.001697 -0.749372 -0.000001 -0.781446 0.000000 0.000000
    17 0.354567 0.016267 0.318132 0.484334 -0.563061 -1.025922
    18 1.887165 0.012877 0.000000 -0.300052 -0.057946 -0.586492
    19 1.001875 -0.000270 0.000000 0.000000 0.000000 -0.948517
    20 -1.123360 -2.195094 -0.278958 -1.567306 0.000000 -0.087266
    21 0.010771 -0.963791 0.000000 -1.213004 0.000000 0.000000
    22 -0.010412 -0.631916 0.000000 -1.197304 0.000000 0.000000
    23 -0.741723 -3.490103 -9.506444 0.815975 2.190888 1.199407
    24 0.089929 -8.543166 0.000000 0.109838 -0.165242 0.361680
    25 0.000000 -0.359714 0.000000 0.000000 0.000000 0.000000
    26 -0.170479 -2.636146 -0.277655 -1.750535 0.000000 0.000000
    27 0.010599 -1.261177 0.000001 -0.342077 0.000000 0.000000
    28 -0.000001 -0.943233 0.000001 -0.961659 0.000000 0.000000
    29 -0.827563 -2.508972 -0.277656 -1.480020 0.000000 0.000000
    30 0.000000 -1.292971 0.000001 -0.979101 0.000000 0.000000
    31 0.000000 -0.752466 0.000001 -0.502647 0.000000 0.000000
    32 0.444213 -2.561960 -0.277655 -1.748213 -0.046885 -0.024335
    33 0.021022 -1.208185 -0.000001 -0.322909 0.000000 0.000000
    34 0.010597 -0.741867 0.000000 -0.877897 0.000000 0.000000
    35 1.047444 -2.222821 -0.277655 -1.581386 -0.083393 -0.037063
    36 0.000000 -0.996223 0.000001 -1.199038 0.000000 0.000000
    37 -0.000001 -0.614689 0.000001 -1.062893 0.000000 0.000000
    38 -0.308254 -0.007814 0.307165 -0.181399 -0.369377 -2.311048
    39 1.978378 0.019545 -0.000001 0.042951 -0.179887 0.769158
    40 0.982425 0.003186 0.000000 0.000000 0.000000 1.090793
  time 11
    0 6.356513 2.232033 -6.686201 -0.757499 -1.335338 0.549874
    1 0.000000 -8.563283 0.000000 0.347988 -0.123782 -0.173621
    2 -1.049844 -2.321231 0.654214 -1.247037 1.437608 -1.233844
    3 0.000000 0.743004 1.588492 0.000000 0.000000 0.000000
    4 0.000000 3.192658 2.044578 0.000000 0.000000 0.000000
    5 0.000000 1.878595 2.044578 0.000000 0.000000 0.000000
    6 0.000000 -1.299213 0.407971 0.000000 0.000000 0.000000
    7 -0.003480 -0.404829 0.000000 0.000000 0.000000 0.000000
    8 -0.519309 -2.501156 -0.278957 -1.490008 -0.039729 -0.147496
    9 -0.010598 -1.208185 -0.000001 -0.928524 0.000000 0.000000
    10 0.000000 -0.763066 0.000001 -0.956441 0.000000 0.000000
    11 0.105981 -2.607135 -0.278958 -1.202940 -0.083077 -0.180316
    12 -0.000001 -1.250581 -0.000002 -1.029748 0.000000 0.000000
    13 0.000000 -0.932634 0.000000 -1.190315 0.000000 0.000000
    14 0.763064 -2.490556 -0.278958 -0.394283 -0.010738 0.101382
    15 -0.012323 -1.280918 0.000000 -0.915168 0.000000 0.000000
    16 -0.001697 -0.749372 -0.000001 -0.796571 0.000000 0.000000
    17 0.354567 0.016267 0.318132 0.486827 -0.560976 -1.030596
    18 1.887165 0.012877 0.000000 -0.299225 -0.062188 -0.600238
    19 1.001875 -0.000270 0.000000 0.000000 0.000000 -0.893681
    20 -1.123360 -2.195094 -0.278958 -1.567306 0.000000 -0.087266
    21 0.010771 -0.963791 0.000000 -1.213004 0.000000 0.000000
    22 -0.010412 -0.631916 0.000000 -1.197304 0.000000 0.000000
    23 -0.741723 -3.533073 -9.510350 0.814252 2.189451 1.197165
    24 0.089929 -8.543166 0.000000 0.113075 -0.163032 0.341779
    25 0.000000 -0.359714 0.000000 0.000000 0.000000 0.000000
    26 -0.170479 -2.636146 -0.277655 -1.750535 0.000000 0.000000
    27 0.010599 -1.261177 0.000001 -0.342077 0.000000 0.000000
    28 -0.000001 -0.943233 0.000001 -0.961659 0.000000 0.000000
    29 -0.827563 -2.508972 -0.277656 -1.480020 0.000000 0.000000
    30 0.000000 -1.292971 0.000001 -0.979101 0.000000 0.000000
    31 0.000000 -0.752466 0.000001 -0.502647 0.000000 0.000000
    32 0.444213 -2.561960 -0.277655 -1.748213 -0.046885 -0.024335
    33 0.021022 -1.208185 -0.000001 -0.322909 0.000000 0.000000
    34 0.010597 -0.741867 0.000000 -0.877897 0.000000 0.000000
    35 1.047444 -2.222821 -0.277655 -1.581386 -0.083393 -0.037063
    36 0.000000 -0.996223 0.000001 -1.199038 0.000000 0.000000
    37 -0.000001 -0.614689 0.000001 -1.062893 0.000000 0.000000
    38 -0.308254 -0.007814 0.307165 -0.181399 -0.369377 -2.311048
    39 1.978378 0.019545 -0.000001 0.042951 -0.179887 0.769158
    40 0.982425 0.003186 0.000000 0.000000 0.000000 1.090793
  time 12
    0 6.356513 2.204689 -6.686201 -0.761992 -1.334271 0.554572
    1 0.000000 -8.563283 0.000000 0.347809 -0.124333 -0.172051
    2 -1.049844 -2.321231 0.654214 -1.247037 1.437608 -1.233844
    3 0.000000 0.743004 1.588492 0.000000 0.000000 0.000000
    4 0.000000 3.192658 2.044578 0.000000 0.000000 0.000000
    5 0.000000 1.878595 2.044578 0.000000 0.000000 0.000000
    6 0.000000 -1.357808 0.407971 0.000000 0.000000 0.000000
    7 -0.003480 -0.404829 0.000000 0.000000 0.000000 0.000000
    8 -0.519309 -2.501156 -0.278957 -1.490008 -0.039729 -0.147496
    9 -0.010598 -1.208185 -0.000001 -0.928524 0.000000 0.000000
    10 0.000000 -0.763066 0.000001 -0.956441 0.000000 0.000000
    11 0.105981 -2.607135 -0.278958 -1.202940 -0.083077 -0.180316
    12 -0.000001 -1.250581 -0.000002 -1.029748 0.000000 0.000000
    13 0.000000 -0.932634 0.000000 -1.190315 0.000000 0.000000
    14 0.763064 -2.490556 -0.278958 -0.378679 -0.010738 0.101382
    15 -0.012323 -1.280918 0.000000 -0.862322 0.000000 0.000000
    16 -0.001697 -0.749372 -0.000001 -0.813096 0.000000 0.000000
    17 0.354567 0.016267 0.318132 0.489332 -0.558855 -1.035318
    18 1.887165 0.012877 0.000000 -0.298303 -0.066587 -0.614548
    19 1.001875 -0.000270 0.000000 0.000000 0.000000 -0.833785
    20 -1.123360 -2.195094 -0.278958 -1.567306 0.000000 -0.087266
    21 0.010771 -0.963791 0.000000 -1.213004 0.000000 0.000000
    22 -0.010412 -0.631916 0.000000 -1.197304 0.000000 0.000000
    23 -0.741723 -3.568230 -9.498631 0.812529 2.188206 1.195225
    24 0.089929 -8.543166 0.000000 0.116360 -0.160735 0.321532
    25 0.000000 -0.359714 0.000000 0.000000 0.000000 0.000000
    26 -0.170479 -2.636146 -0.277655 -1.750535 0.000000 0.000000
    27 0.010599 -1.261177 0.000001 -0.342077 0.000000 0.000000
    28 -0.000001 -0.943233 0.000001 -0.961659 0.000000 0.000000
    29 -0.827563 -2.508972 -0.277656 -1.480020 0.000000 0.000000
    30 0.000000 -1.292971 0.000001 -0.979101 0.000000 0.000000
    31 0.000000 -0.752466 0.000001 -0.502647 0.000000 0.000000
    32 0.444213 -2.561960 -0.277655 -1.748213 -0.046885 -0.024335
    33 0.021022 -1.208185 -0.000001 -0.322909 0.000000 0.000000
    34 0.010597 -0.741867 0.000000 -0.877897 0.000000 0.000000
    35 1.047444 -2.222821 -0.277655 -1.581386 -0.083393 -0.037063
    36 0.000000 -0.996223 0.000001 -1.199038 0.000000 0.000000
    37 -0.000001 -0.614689 0.000001 -1.062893 0.000000 0.000000
    38 -0.308254 -0.007814 0.307165 -0.181399 -0.369377 -2.311048
    39 1.978378 0.019545 -0.000001 0.042951 -0.179887 0.769158
    40 0.982425 0.003186 0.000000 0.000000 0.000000 1.090793
  time 13
    0 6.356513 2.181250 -6.690108 -0.768814 -1.332725 0.561571
    1 0.000000 -8.563283 0.000000 0.347629 -0.124848 -0.170601
    2 -1.049844 -2.321231 0.654214 -1.247037 1.437608 -1.233844
    3 0.000000 0.743004 1.588492 0.000000 0.000000 0.000000
    4 0.000000 3.192658 2.044578 0.000000 0.000000 0.000000
    5 0.000000 1.878595 2.044578 0.000000 0.000000 0.000000
    6 0.000000 -1.420310 0.407971 0.000000 0.000000 0.000000
    7 -0.003480 -0.404829 0.000000 0.000000 0.000000 0.000000
    8 -0.519309 -2.501156 -0.278957 -1.490008 -0.039729 -0.147496
    9 -0.010598 -1.208185 -0.000001 -0.928524 0.000000 0.000000
    10 0.000000 -0.763066 0.000001 -0.956441 0.000000 0.000000
    11 0.105981 -2.607135 -0.278958 -1.202940 -0.083077 -0.180316
    12 -0.000001 -1.250581 -0.000002 -1.029748 0.000000 0.000000
    13 0.000000 -0.932634 0.000000 -1.190315 0.000000 0.000000
    14 0.763064 -2.490556 -0.278958 -0.363458 -0.010738 0.101382
    15 -0.012323 -1.280918 0.000000 -0.810826 0.000000 0.000000
    16 -0.001697 -0.749372 -0.000001 -0.829604 0.000000 0.000000
    17 0.354567 0.016267 0.318132 0.491777 -0.556769 -1.039909
    18 1.887165 0.012877 0.000000 -0.297332 -0.070889 -0.628594
    19 1.001875 -0.000270 0.000000 0.000000 0.000000 -0.773890
    20 -1.123360 -2.195094 -0.278958 -1.567306 0.000000 -0.087266
    21 0.010771 -0.963791 0.000000 -1.213004 0.000000 0.000000
    22 -0.010412 -0.631916 0.000000 -1.197304 0.000000 0.000000
    23 -0.741723 -3.591668 -9.463474 0.810710 2.186865 1.192922
    24 0.089929 -8.543166 0.000000 0.119499 -0.158426 0.301718
    25 0.000000 -0.359714 0.000000 0.000000 0.000000 0.000000
    26 -0.170479 -2.636146 -0.277655 -1.750535 0.000000 0.000000
    27 0.010599 -1.261177 0.000001 -0.342077 0.000000 0.000000
    28 -0.000001 -0.943233 0.000001 -0.961659 0.000000 0.000000
    29 -0.827563 -2.508972 -0.277656 -1.480020 0.000000 0.000000
    30 0.000000 -1.292971 0.000001 -0.979101 0.000000 0.000000
    31 0.000000 -0.752466 0.000001 -0.502647 0.000000 0.000000
    32 0.444213 -2.561960 -0.277655 -1.748213 -0.046885 -0.024335
    33 0.021022 -1.208185 -0.000001 -0.322909 0.000000 0.000000
    34 0.010597 -0.741867 0.000000 -0.877897 0.000000 0.000000
    35 1.047444 -2.222821 -0.277655 -1.581386 -0.083393 -0.037063
    36 0.000000 -0.996223 0.000001 -1.199038 0.000000 0.000000
    37 -0.000001 -0.614689 0.000001 -1.062893 0.000000 0.000000
    38 -0.308254 -0.007814 0.307165 -0.181399 -0.369377 -2.311048
    39 1.978378 0.019545 -0.000001 0.042951 -0.179887 0.769158
    40 0.982425 0.003186 0.000000 0.000000 0.000000 1.090793
  time 14
    0 6.356513 2.165625 -6.694014 -0.774305 -1.331392 0.567276
    1 0.000000 -8.563283 0.000000 0.347509 -0.125220 -0.169582
    2 -1.049844 -2.321231 0.654214 -1.247037 1.437608 -1.233844
    3 0.000000 0.743004 1.588492 0.000000 0.000000 0.000000
    4 0.000000 3.192658 2.044578 0.000000 0.000000 0.000000
    5 0.000000 1.878595 2.044578 0.000000 0.000000 0.000000
    6 0.000000 -1.490625 0.407971 0.000000 0.000000 0.000000
    7 -0.003480 -0.404829 0.000000 0.000000 0.000000 0.000000
    8 -0.519309 -2.501156 -0.278957 -1.490008 -0.039729 -0.147496
    9 -0.010598 -1.208185 -0.000001 -0.928524 0.000000 0.000000
    10 0.000000 -0.763066 0.000001 -0.956441 0.000000 0.000000
    11 0.105981 -2.607135 -0.278958 -1.202940 -0.083077 -0.180316
    12 -0.000001 -1.250581 -0.000002 -1.029748 0.000000 0.000000
    13 0.000000 -0.932634 0.000000 -1.190315 0.000000 0.000000
    14 0.763064 -2.490556 -0.278958 -0.348897 -0.010738 0.101382
    15 -0.012323 -1.280918 0.000000 -0.762700 0.000000 0.000000
    16 -0.001697 -0.749372 -0.000001 -0.844729 0.000000 0.000000
    17 0.354567 0.016267 0.318132 0.494018 -0.554828 -1.044175
    18 1.887165 0.012877 0.000000 -0.296409 -0.074844 -0.641561
    19 1.001875 -0.000270 0.000000 0.000000 0.000000 -0.719066
    20 -1.123360 -2.195094 -0.278958 -1.567306 0.000000 -0.087266
    21 0.010771 -0.963791 0.000000 -1.213004 0.000000 0.000000
    22 -0.010412 -0.631916 0.000000 -1.197304 0.000000 0.000000
    23 -0.741723 -3.611200 -9.404878 0.808413 2.185141 1.190134
    24 0.089929 -8.543166 0.000000 0.122392 -0.156191 0.283119
    25 0.000000 -0.359714 0.000000 0.000000 0.000000 0.000000
    26 -0.170479 -2.636146 -0.277655 -1.750535 0.000000 0.000000
    27 0.010599 -1.261177 0.000001 -0.342077 0.000000 0.000000
    28 -0.000001 -0.943233 0.000001 -0.961659 0.000000 0.000000
    29 -0.827563 -2.508972 -0.277656 -1.480020 0.000000 0.000000
    30 0.000000 -1.292971 0.000001 -0.979101 0.000000 0.000000
    31 0.000000 -0.752466 0.000001 -0.502647 0.000000 0.000000
    32 0.444213 -2.561960 -0.277655 -1.748213 -0.046885 -0.024335
    33 0.021022 -1.208185 -0.000001 -0.322909 0.000000 0.000000
    34 0.010597 -0.741867 0.000000 -0.877897 0.000000 0.000000
    35 1.047444 -2.222821 -0.277655 -1.581386 -0.083393 -0.037063
    36 0.000000 -0.996223 0.000001 -1.199038 0.000000 0.000000
    37 -0.000001 -0.614689 0.000001 -1.062893 0.000000 0.000000
    38 -0.308254 -0.007814 0.307165 -0.181399 -0.369377 -2.311048
    39 1.978378 0.019545 -0.000001 0.042951 -0.179887 0.769158
    40 0.982425 0.003186 0.000000 0.000000 0.000000 1.090793
end
