version 1
nodes
  0 "root" -1
  1 "Bone01" 0
  2 "Bone_Lefthand" 1
  3 "root_gilboa" 2
  4 "trigger" 3
  5 "magazine" 3
  6 "reload" 3
  7 "Bone_L_Upper" 1
  8 "Bone13" 2
  9 "Bone14" 8
  10 "Bone15" 9
  11 "Bone17" 2
  12 "Bone18" 11
  13 "Bone19" 12
  14 "Bone21" 2
  15 "Bone22" 14
  16 "Bone23" 15
  17 "Bone09" 2
  18 "Bone10" 17
  19 "Bone11" 18
  20 "Bone05" 2
  21 "Bone06" 20
  22 "Bone07" 21
  23 "Bone_Se_Hand-L" 2
  24 "Bone04" 0
  25 "Bone_Righthand" 24
  26 "Bone39" 25
  27 "Bone40" 26
  28 "Bone41" 27
  29 "Bone35" 25
  30 "Bone36" 29
  31 "Bone37" 30
  32 "Bone31" 25
  33 "Bone32" 32
  34 "Bone33" 33
  35 "Bone43" 25
  36 "Bone44" 35
  37 "Bone45" 36
  38 "Bone27" 25
  39 "Bone28" 38
  40 "Bone29" 39
  41 "Bone_Se_Hand-R" 25
  42 "Bone_R_Upper" 24
end
skeleton
  time 0
    0 0.000000 0.000000 -16.250496 -0.174532 0.000000 -0.000029
    1 8.213061 3.988003 -6.016337 -0.149965 -1.612726 -0.045697
    2 -0.071918 -8.498688 -0.104136 0.151251 0.282508 0.057557
    3 -2.047026 -2.271449 0.012398 0.054749 -0.245819 -0.015179
    4 3.423495 -1.665627 0.000000 -0.000005 0.000000 -3.141592
    5 4.039898 -4.447696 0.000000 0.000002 0.000000 3.141592
    6 4.734380 -3.434518 0.622250 -3.141592 0.000000 -1.570796
    7 1.257180 8.762585 -0.153713 -1.570562 0.002683 -1.566807
    8 -0.488518 -2.755602 -0.228260 -0.871614 -0.202562 -0.209541
    9 0.039887 -1.479790 0.029854 -2.058952 0.000000 0.000001
    10 0.028786 -1.075731 -0.023109 -0.606336 0.000000 0.000000
    11 0.250027 -2.820665 -0.238396 -0.797118 -0.167517 -0.114938
    12 -0.049759 -1.680544 0.100479 -1.934764 0.000000 -0.000002
    13 -0.034142 -1.148312 0.084782 -0.925898 0.000000 0.000000
    14 0.957766 -2.746780 -0.090302 0.005849 -0.162684 0.097910
    15 -0.033420 -1.397129 -0.011257 -0.520997 0.000000 -0.000001
    16 -0.022360 -0.957436 0.018784 -0.975515 0.000000 0.000000
    17 -1.180681 -2.507217 -0.193859 -0.671429 -0.081516 -0.261329
    18 -0.024967 -1.123934 0.017597 -2.056303 0.000000 0.000001
    19 -0.020057 -0.890968 0.010090 -0.677834 0.000000 0.000000
    20 0.583510 -1.197277 0.185379 0.180209 -0.812077 -1.291294
    21 1.535927 0.010246 0.005009 -0.002964 -0.012979 -0.506650
    22 1.100771 0.004527 -0.010679 -0.015488 -0.004784 -1.694062
    23 0.120153 -0.050270 -0.054489 0.287569 3.110905 1.561085
    24 0.178464 -8.153224 -10.036746 -1.766634 -5.321370 -1.065164
    25 0.096944 -8.450418 -0.009365 0.404834 -1.145406 -0.075759
    26 0.447953 -2.798986 -0.200443 -0.101140 -0.329378 -0.008428
    27 -0.032909 -1.480204 0.004940 -0.118334 0.000000 0.000002
    28 -0.027022 -1.076920 -0.020210 -0.581967 0.000000 0.000000
    29 -0.249534 -2.846964 -0.174213 0.201311 -0.198350 -0.196566
    30 0.043235 -1.683941 0.096012 -0.000111 0.002823 -0.000167
    31 0.031729 -1.160830 0.058838 -1.181279 0.000642 0.008372
    32 -0.963866 -2.785145 -0.085350 0.544644 0.311173 -0.322488
    33 0.028479 -1.403067 0.006271 -0.175176 -0.305236 0.172051
    34 0.021413 -0.957781 0.020046 -0.738192 0.000000 0.000000
    35 1.164475 -2.543940 -0.170330 -0.927423 -0.422062 -0.157700
    36 0.024032 -1.129042 0.017807 -0.709851 0.000000 0.000001
    37 0.014898 -0.883989 -0.019848 -0.845482 0.000000 0.000000
    38 -0.586770 -1.264477 0.200161 0.013123 0.268933 -2.491297
    39 1.522835 0.058681 0.016848 0.001410 0.008985 0.062469
    40 1.117947 0.048424 -0.005766 -0.007410 -0.024095 0.354258
    41 -0.139399 -0.111698 0.014397 0.653645 -0.030687 1.580508
    42 -1.393470 8.839177 -0.239433 1.580804 -0.005023 -1.566847
  time 1
    0 0.000000 0.000000 -15.934080 -0.174532 0.000000 -0.002476
    1 8.213061 3.995816 -6.078839 -0.149965 -1.612726 -0.045697
    2 -0.071918 -8.498688 -0.104136 0.152567 0.281679 0.062524
    3 -2.047026 -2.271449 0.012398 0.054749 -0.245819 -0.015179
    4 3.423495 -1.665627 0.000000 -0.000005 0.000000 -3.141592
    5 4.039898 -4.447696 0.000000 0.000002 0.000000 3.141592
    6 4.734380 -3.434518 0.622250 -3.141592 0.000000 -1.570796
    7 1.257180 8.762585 -0.153713 -1.570562 0.002683 -1.566807
    8 -0.488518 -2.755602 -0.228260 -0.871614 -0.202562 -0.209541
    9 0.039887 -1.479790 0.029854 -2.058952 0.000000 0.000001
    10 0.028786 -1.075731 -0.023109 -0.606336 0.000000 0.000000
    11 0.250027 -2.820665 -0.238396 -0.797118 -0.167517 -0.114938
    12 -0.049759 -1.680544 0.100479 -1.934764 0.000000 -0.000002
    13 -0.034142 -1.148312 0.084782 -0.925898 0.000000 0.000000
    14 0.957766 -2.746780 -0.090302 0.005849 -0.162684 0.097910
    15 -0.033420 -1.397129 -0.011257 -0.524809 0.000000 -0.000001
    16 -0.022360 -0.957436 0.018784 -0.975515 0.000000 0.000000
    17 -1.180681 -2.507217 -0.193859 -0.671429 -0.081516 -0.261329
    18 -0.024967 -1.123934 0.017597 -2.056303 0.000000 0.000001
    19 -0.020057 -0.890968 0.010090 -0.677834 0.000000 0.000000
    20 0.583510 -1.197277 0.185379 0.180209 -0.812077 -1.291294
    21 1.535927 0.010246 0.005009 -0.002964 -0.012979 -0.506650
    22 1.100771 0.004527 -0.010679 -0.015488 -0.004784 -1.694062
    23 0.120153 -0.050270 -0.054489 0.287569 3.110905 1.561085
    24 0.178464 -8.125879 -10.052371 -1.766634 -5.321370 -1.065164
    25 0.096944 -8.450418 -0.009365 0.397496 -1.145406 -0.075759
    26 0.447953 -2.798986 -0.200443 -0.082396 -0.329378 -0.008428
    27 -0.032909 -1.480204 0.004940 -0.118334 0.000000 0.000002
    28 -0.027022 -1.076920 -0.020210 -0.581967 0.000000 0.000000
    29 -0.249534 -2.846964 -0.174213 0.216316 -0.198350 -0.196566
    30 0.043235 -1.683941 0.096012 -0.000111 0.002823 -0.000167
    31 0.031729 -1.160830 0.058838 -1.181279 0.000642 0.008372
    32 -0.963866 -2.785145 -0.085350 0.552127 0.311173 -0.322488
    33 0.028479 -1.403067 0.006271 -0.175176 -0.305236 0.172051
    34 0.021413 -0.957781 0.020046 -0.738192 0.000000 0.000000
    35 1.164475 -2.543940 -0.170330 -0.874939 -0.422062 -0.157700
    36 0.024032 -1.129042 0.017807 -0.709851 0.000000 0.000001
    37 0.014898 -0.883989 -0.019848 -0.845482 0.000000 0.000000
    38 -0.586770 -1.264477 0.200161 0.013123 0.266403 -2.491297
    39 1.522835 0.058681 0.016848 0.001410 0.008985 0.065010
    40 1.117947 0.048424 -0.005766 -0.007470 -0.024047 0.357436
    41 -0.139399 -0.111698 0.014397 0.653645 -0.030687 1.580508
    42 -1.393470 8.839177 -0.239433 1.580804 -0.005023 -1.566847
  time 2
    0 0.000000 0.000000 -15.070772 -0.174532 0.000000 -0.009109
    1 8.213061 4.030973 -6.258532 -0.149965 -1.612726 -0.045697
    2 -0.071918 -8.498688 -0.104136 0.156148 0.279366 0.076085
    3 -2.047026 -2.271449 0.012398 0.054749 -0.245819 -0.015179
    4 3.423495 -1.665627 0.000000 -0.000005 0.000000 -3.141592
    5 4.039898 -4.447696 0.000000 0.000002 0.000000 3.141592
    6 4.734380 -3.434518 0.622250 -3.141592 0.000000 -1.570796
    7 1.257180 8.762585 -0.153713 -1.570562 0.002683 -1.566807
    8 -0.488518 -2.755602 -0.228260 -0.871614 -0.202562 -0.209541
    9 0.039887 -1.479790 0.029854 -2.058952 0.000000 0.000001
    10 0.028786 -1.075731 -0.023109 -0.606336 0.000000 0.000000
    11 0.250027 -2.820665 -0.238396 -0.797118 -0.167517 -0.114938
    12 -0.049759 -1.680544 0.100479 -1.934764 0.000000 -0.000002
    13 -0.034142 -1.148312 0.084782 -0.925898 0.000000 0.000000
    14 0.957766 -2.746780 -0.090302 0.005849 -0.162684 0.097910
    15 -0.033420 -1.397129 -0.011257 -0.535663 0.000000 -0.000001
    16 -0.022360 -0.957436 0.018784 -0.975515 0.000000 0.000000
    17 -1.180681 -2.507217 -0.193859 -0.671429 -0.081516 -0.261329
    18 -0.024967 -1.123934 0.017597 -2.056303 0.000000 0.000001
    19 -0.020057 -0.890968 0.010090 -0.677834 0.000000 0.000000
    20 0.583510 -1.197277 0.185379 0.180209 -0.812077 -1.291294
    21 1.535927 0.010246 0.005009 -0.002964 -0.012979 -0.506650
    22 1.100771 0.004527 -0.010679 -0.015488 -0.004784 -1.694062
    23 0.120153 -0.050270 -0.054489 0.287569 3.110905 1.561085
    24 0.178464 -8.059471 -10.087529 -1.766634 -5.321370 -1.065164
    25 0.096944 -8.450418 -0.009365 0.377591 -1.145406 -0.075759
    26 0.447953 -2.798986 -0.200443 -0.032959 -0.329378 -0.008428
    27 -0.032909 -1.480204 0.004940 -0.118334 0.000000 0.000002
    28 -0.027022 -1.076920 -0.020210 -0.581967 0.000000 0.000000
    29 -0.249534 -2.846964 -0.174213 0.255852 -0.198350 -0.196566
    30 0.043235 -1.683941 0.096012 -0.000111 0.002823 -0.000167
    31 0.031729 -1.160830 0.058838 -1.181279 0.000642 0.008372
    32 -0.963866 -2.785145 -0.085350 0.571904 0.311173 -0.322488
    33 0.028479 -1.403067 0.006271 -0.175176 -0.305236 0.172051
    34 0.021413 -0.957781 0.020046 -0.738192 0.000000 0.000000
    35 1.164475 -2.543940 -0.170330 -0.736544 -0.422062 -0.157700
    36 0.024032 -1.129042 0.017807 -0.709851 0.000000 0.000001
    37 0.014898 -0.883989 -0.019848 -0.845482 0.000000 0.000000
    38 -0.586770 -1.264477 0.200161 0.013123 0.259166 -2.491297
    39 1.522835 0.058681 0.016848 0.001410 0.008985 0.072246
    40 1.117947 0.048424 -0.005766 -0.007673 -0.023940 0.366480
    41 -0.139399 -0.111698 0.014397 0.653645 -0.030687 1.580508
    42 -1.393470 8.839177 -0.239433 1.580804 -0.005023 -1.566847
  time 3
    0 0.000000 0.000000 -13.777764 -0.174532 0.000000 -0.018898
    1 8.213061 4.073943 -6.520259 -0.149965 -1.612726 -0.045697
    2 -0.071918 -8.498688 -0.104136 0.161429 0.275948 0.096028
    3 -2.047026 -2.271449 0.012398 0.054749 -0.245819 -0.015179
    4 3.423495 -1.665627 0.000000 -0.000005 0.000000 -3.141592
    5 4.039898 -4.447696 0.000000 0.000002 0.000000 3.141592
    6 4.734380 -3.434518 0.622250 -3.141592 0.000000 -1.570796
    7 1.257180 8.762585 -0.153713 -1.570562 0.002683 -1.566807
    8 -0.488518 -2.755602 -0.228260 -0.871614 -0.202562 -0.209541
    9 0.039887 -1.479790 0.029854 -2.058952 0.000000 0.000001
    10 0.028786 -1.075731 -0.023109 -0.606336 0.000000 0.000000
    11 0.250027 -2.820665 -0.238396 -0.797118 -0.167517 -0.114938
    12 -0.049759 -1.680544 0.100479 -1.934764 0.000000 -0.000002
    13 -0.034142 -1.148312 0.084782 -0.925898 0.000000 0.000000
    14 0.957766 -2.746780 -0.090302 0.005849 -0.162684 0.097910
    15 -0.033420 -1.397129 -0.011257 -0.552817 0.000000 -0.000001
    16 -0.022360 -0.957436 0.018784 -0.975515 0.000000 0.000000
    17 -1.180681 -2.507217 -0.193859 -0.671429 -0.081516 -0.261329
    18 -0.024967 -1.123934 0.017597 -2.056303 0.000000 0.000001
    19 -0.020057 -0.890968 0.010090 -0.677834 0.000000 0.000000
    20 0.583510 -1.197277 0.185379 0.180209 -0.812077 -1.291294
    21 1.535927 0.010246 0.005009 -0.002964 -0.012979 -0.506650
    22 1.100771 0.004527 -0.010679 -0.015488 -0.004784 -1.694062
    23 0.120153 -0.050270 -0.054489 0.287569 3.110905 1.561085
    24 0.178464 -7.961812 -10.146124 -1.766634 -5.321370 -1.065164
    25 0.096944 -8.450418 -0.009365 0.348287 -1.145406 -0.075759
    26 0.447953 -2.798986 -0.200443 0.036921 -0.329378 -0.008428
    27 -0.032909 -1.480204 0.004940 -0.118334 0.000000 0.000002
    28 -0.027022 -1.076920 -0.020210 -0.581967 0.000000 0.000000
    29 -0.249534 -2.846964 -0.174213 0.311767 -0.198350 -0.196566
    30 0.043235 -1.683941 0.096012 -0.000111 0.002823 -0.000167
    31 0.031729 -1.160830 0.058838 -1.181279 0.000642 0.008372
    32 -0.963866 -2.785145 -0.085350 0.599862 0.311173 -0.322488
    33 0.028479 -1.403067 0.006271 -0.175176 -0.305236 0.172051
    34 0.021413 -0.957781 0.020046 -0.738192 0.000000 0.000000
    35 1.164475 -2.543940 -0.170330 -0.540885 -0.422062 -0.157700
    36 0.024032 -1.129042 0.017807 -0.709851 0.000000 0.000001
    37 0.014898 -0.883989 -0.019848 -0.845482 0.000000 0.000000
    38 -0.586770 -1.264477 0.200161 0.013123 0.247741 -2.491297
    39 1.522835 0.058681 0.016848 0.001410 0.008985 0.083682
    40 1.117947 0.048424 -0.005766 -0.007985 -0.023760 0.380769
    41 -0.139399 -0.111698 0.014397 0.653645 -0.030687 1.580508
    42 -1.393470 8.839177 -0.239433 1.580804 -0.005023 -1.566847
  time 4
    0 0.000000 0.000000 -12.183966 -0.174532 0.000000 -0.030748
    1 8.213061 4.132539 -6.840581 -0.149965 -1.612726 -0.045697
    2 -0.071918 -8.498688 -0.104136 0.167851 0.271801 0.120268
    3 -2.047026 -2.271449 0.012398 0.054749 -0.245819 -0.015179
    4 3.423495 -1.665627 0.000000 -0.000005 0.000000 -3.141592
    5 4.039898 -4.447696 0.000000 0.000002 0.000000 3.141592
    6 4.734380 -3.434518 0.622250 -3.141592 0.000000 -1.570796
    7 1.257180 8.762585 -0.153713 -1.570562 0.002683 -1.566807
    8 -0.488518 -2.755602 -0.228260 -0.871614 -0.202562 -0.209541
    9 0.039887 -1.479790 0.029854 -2.058952 0.000000 0.000001
    10 0.028786 -1.075731 -0.023109 -0.606336 0.000000 0.000000
    11 0.250027 -2.820665 -0.238396 -0.797118 -0.167517 -0.114938
    12 -0.049759 -1.680544 0.100479 -1.934764 0.000000 -0.000002
    13 -0.034142 -1.148312 0.084782 -0.925898 0.000000 0.000000
    14 0.957766 -2.746780 -0.090302 0.005849 -0.162684 0.097910
    15 -0.033420 -1.397129 -0.011257 -0.575462 0.000000 -0.000001
    16 -0.022360 -0.957436 0.018784 -0.975515 0.000000 0.000000
    17 -1.180681 -2.507217 -0.193859 -0.671429 -0.081516 -0.261329
    18 -0.024967 -1.123934 0.017597 -2.056303 0.000000 0.000001
    19 -0.020057 -0.890968 0.010090 -0.677834 0.000000 0.000000
    20 0.583510 -1.197277 0.185379 0.180209 -0.812077 -1.291294
    21 1.535927 0.010246 0.005009 -0.002964 -0.012979 -0.506650
    22 1.100771 0.004527 -0.010679 -0.015488 -0.004784 -1.694062
    23 0.120153 -0.050270 -0.054489 0.287569 3.110905 1.561085
    24 0.178464 -7.840714 -10.216439 -1.766634 -5.321370 -1.065164
    25 0.096944 -8.450418 -0.009365 0.312700 -1.145406 -0.075759
    26 0.447953 -2.798986 -0.200443 0.116994 -0.329378 -0.008428
    27 -0.032909 -1.480204 0.004940 -0.118334 0.000000 0.000002
    28 -0.027022 -1.076920 -0.020210 -0.581967 0.000000 0.000000
    29 -0.249534 -2.846964 -0.174213 0.375852 -0.198350 -0.196566
    30 0.043235 -1.683941 0.096012 -0.000111 0.002823 -0.000167
    31 0.031729 -1.160830 0.058838 -1.181279 0.000642 0.008372
    32 -0.963866 -2.785145 -0.085350 0.631910 0.311173 -0.322488
    33 0.028479 -1.403067 0.006271 -0.175176 -0.305236 0.172051
    34 0.021413 -0.957781 0.020046 -0.738192 0.000000 0.000000
    35 1.164475 -2.543940 -0.170330 -0.316579 -0.422062 -0.157700
    36 0.024032 -1.129042 0.017807 -0.709851 0.000000 0.000001
    37 0.014898 -0.883989 -0.019848 -0.845482 0.000000 0.000000
    38 -0.586770 -1.264477 0.200161 0.013123 0.232645 -2.491297
    39 1.522835 0.058681 0.016848 0.001410 0.008985 0.098789
    40 1.117947 0.048424 -0.005766 -0.008393 -0.023532 0.399658
    41 -0.139399 -0.111698 0.014397 0.653645 -0.030687 1.580508
    42 -1.393470 8.839177 -0.239433 1.580804 -0.005023 -1.566847
  time 5
    0 0.000000 0.000000 -10.402661 -0.174532 0.000000 -0.043693
    1 8.213061 4.191134 -7.188248 -0.149965 -1.612726 -0.045697
    2 -0.071918 -8.498688 -0.104136 0.174835 0.267301 0.146644
    3 -2.047026 -2.271449 0.012398 0.054749 -0.245819 -0.015179
    4 3.423495 -1.665627 0.000000 -0.000005 0.000000 -3.141592
    5 4.039898 -4.447696 0.000000 0.000002 0.000000 3.141592
    6 4.734380 -3.434518 0.622250 -3.141592 0.000000 -1.570796
    7 1.257180 8.762585 -0.153713 -1.570562 0.002683 -1.566807
    8 -0.488518 -2.755602 -0.228260 -0.871614 -0.202562 -0.209541
    9 0.039887 -1.479790 0.029854 -2.058952 0.000000 0.000001
    10 0.028786 -1.075731 -0.023109 -0.606336 0.000000 0.000000
    11 0.250027 -2.820665 -0.238396 -0.797118 -0.167517 -0.114938
    12 -0.049759 -1.680544 0.100479 -1.934764 0.000000 -0.000002
    13 -0.034142 -1.148312 0.084782 -0.925898 0.000000 0.000000
    14 0.957766 -2.746780 -0.090302 0.005849 -0.162684 0.097910
    15 -0.033420 -1.397129 -0.011257 -0.602824 0.000000 -0.000001
    16 -0.022360 -0.957436 0.018784 -0.975515 0.000000 0.000000
    17 -1.180681 -2.507217 -0.193859 -0.671429 -0.081516 -0.261329
    18 -0.024967 -1.123934 0.017597 -2.056303 0.000000 0.000001
    19 -0.020057 -0.890968 0.010090 -0.677834 0.000000 0.000000
    20 0.583510 -1.197277 0.185379 0.180209 -0.812077 -1.291294
    21 1.535927 0.010246 0.005009 -0.002964 -0.012979 -0.506650
    22 1.100771 0.004527 -0.010679 -0.015488 -0.004784 -1.694062
    23 0.120153 -0.050270 -0.054489 0.287569 3.110905 1.561085
    24 0.178464 -7.711804 -10.298473 -1.766634 -5.321370 -1.065164
    25 0.096944 -8.450418 -0.009365 0.273947 -1.145406 -0.075759
    26 0.447953 -2.798986 -0.200443 0.197096 -0.329378 -0.008428
    27 -0.032909 -1.480204 0.004940 -0.118334 0.000000 0.000002
    28 -0.027022 -1.076920 -0.020210 -0.581967 0.000000 0.000000
    29 -0.249534 -2.846964 -0.174213 0.439938 -0.198350 -0.196566
    30 0.043235 -1.683941 0.096012 -0.000111 0.002823 -0.000167
    31 0.031729 -1.160830 0.058838 -1.181279 0.000642 0.008372
    32 -0.963866 -2.785145 -0.085350 0.663935 0.311173 -0.322488
    33 0.028479 -1.403067 0.006271 -0.175176 -0.305236 0.172051
    34 0.021413 -0.957781 0.020046 -0.738192 0.000000 0.000000
    35 1.164475 -2.543940 -0.170330 -0.092273 -0.422062 -0.157700
    36 0.024032 -1.129042 0.017807 -0.709851 0.000000 0.000001
    37 0.014898 -0.883989 -0.019848 -0.845482 0.000000 0.000000
    38 -0.586770 -1.264477 0.200161 0.013123 0.214397 -2.491297
    39 1.522835 0.058681 0.016848 0.001410 0.008985 0.117002
    40 1.117947 0.048424 -0.005766 -0.008884 -0.023245 0.422449
    41 -0.139399 -0.111698 0.014397 0.653645 -0.030687 1.580508
    42 -1.393470 8.839177 -0.239433 1.580804 -0.005023 -1.566847
  time 6
    0 0.000000 0.000000 -8.562761 -0.174532 0.000000 -0.056574
    1 8.213061 4.253636 -7.535915 -0.149965 -1.612726 -0.045697
    2 -0.071918 -8.498688 -0.104136 0.181818 0.262802 0.173020
    3 -2.047026 -2.271449 0.012398 0.054749 -0.245819 -0.015179
    4 3.423495 -1.665627 0.000000 -0.000005 0.000000 -3.141592
    5 4.039898 -4.447696 0.000000 0.000002 0.000000 3.141592
    6 4.734380 -3.434518 0.622250 -3.141592 0.000000 -1.570796
    7 1.257180 8.762585 -0.153713 -1.570562 0.002683 -1.566807
    8 -0.488518 -2.755602 -0.228260 -0.871614 -0.202562 -0.209541
    9 0.039887 -1.479790 0.029854 -2.058952 0.000000 0.000001
    10 0.028786 -1.075731 -0.023109 -0.606336 0.000000 0.000000
    11 0.250027 -2.820665 -0.238396 -0.797118 -0.167517 -0.114938
    12 -0.049759 -1.680544 0.100479 -1.934764 0.000000 -0.000002
    13 -0.034142 -1.148312 0.084782 -0.925898 0.000000 0.000000
    14 0.957766 -2.746780 -0.090302 0.005849 -0.162684 0.097910
    15 -0.033420 -1.397129 -0.011257 -0.634094 0.000000 -0.000001
    16 -0.022360 -0.957436 0.018784 -0.975515 0.000000 0.000000
    17 -1.180681 -2.507217 -0.193859 -0.671429 -0.081516 -0.261329
    18 -0.024967 -1.123934 0.017597 -2.056303 0.000000 0.000001
    19 -0.020057 -0.890968 0.010090 -0.677834 0.000000 0.000000
    20 0.583510 -1.197277 0.185379 0.180209 -0.812077 -1.291294
    21 1.535927 0.010246 0.005009 -0.002964 -0.012979 -0.506650
    22 1.100771 0.004527 -0.010679 -0.015488 -0.004784 -1.694062
    23 0.120153 -0.050270 -0.054489 0.287569 3.110905 1.561085
    24 0.178464 -7.582894 -10.388319 -1.766634 -5.321370 -1.065164
    25 0.096944 -8.450418 -0.009365 0.235193 -1.145406 -0.075759
    26 0.447953 -2.798986 -0.200443 0.266976 -0.329378 -0.008428
    27 -0.032909 -1.480204 0.004940 -0.118334 0.000000 0.000002
    28 -0.027022 -1.076920 -0.020210 -0.581967 0.000000 0.000000
    29 -0.249534 -2.846964 -0.174213 0.495834 -0.198350 -0.196566
    30 0.043235 -1.683941 0.096012 -0.000111 0.002823 -0.000167
    31 0.031729 -1.160830 0.058838 -1.181279 0.000642 0.008372
    32 -0.963866 -2.785145 -0.085350 0.691893 0.311173 -0.322488
    33 0.028479 -1.403067 0.006271 -0.175176 -0.305236 0.172051
    34 0.021413 -0.957781 0.020046 -0.738192 0.000000 0.000000
    35 1.164475 -2.543940 -0.170330 0.103355 -0.422062 -0.157700
    36 0.024032 -1.129042 0.017807 -0.709851 0.000000 0.000001
    37 0.014898 -0.883989 -0.019848 -0.845482 0.000000 0.000000
    38 -0.586770 -1.264477 0.200161 0.013123 0.193536 -2.491297
    39 1.522835 0.058681 0.016848 0.001410 0.008985 0.137863
    40 1.117947 0.048424 -0.005766 -0.009447 -0.022933 0.448521
    41 -0.139399 -0.111698 0.014397 0.653645 -0.030687 1.580508
    42 -1.393470 8.839177 -0.239433 1.580804 -0.005023 -1.566847
  time 7
    0 0.000000 0.000000 -6.785363 -0.174532 0.000000 -0.068424
    1 8.213061 4.312232 -7.856237 -0.149965 -1.612726 -0.045697
    2 -0.071918 -8.498688 -0.104136 0.188240 0.258655 0.197260
    3 -2.047026 -2.271449 0.012398 0.054749 -0.245819 -0.015179
    4 3.423495 -1.665627 0.000000 -0.000005 0.000000 -3.141592
    5 4.039898 -4.447696 0.000000 0.000002 0.000000 3.141592
    6 4.734380 -3.434518 0.622250 -3.141592 0.000000 -1.570796
    7 1.257180 8.762585 -0.153713 -1.570562 0.002683 -1.566807
    8 -0.488518 -2.755602 -0.228260 -0.871614 -0.202562 -0.209541
    9 0.039887 -1.479790 0.029854 -2.058952 0.000000 0.000001
    10 0.028786 -1.075731 -0.023109 -0.606336 0.000000 0.000000
    11 0.250027 -2.820665 -0.238396 -0.797118 -0.167517 -0.114938
    12 -0.049759 -1.680544 0.100479 -1.934764 0.000000 -0.000002
    13 -0.034142 -1.148312 0.084782 -0.925898 0.000000 0.000000
    14 0.957766 -2.746780 -0.090302 0.005849 -0.162684 0.097910
    15 -0.033420 -1.397129 -0.011257 -0.668531 0.000000 -0.000001
    16 -0.022360 -0.957436 0.018784 -0.975515 0.000000 0.000000
    17 -1.180681 -2.507217 -0.193859 -0.671429 -0.081516 -0.261329
    18 -0.024967 -1.123934 0.017597 -2.056303 0.000000 0.000001
    19 -0.020057 -0.890968 0.010090 -0.677834 0.000000 0.000000
    20 0.583510 -1.197277 0.185379 0.180209 -0.812077 -1.291294
    21 1.535927 0.010246 0.005009 -0.002964 -0.012979 -0.506650
    22 1.100771 0.004527 -0.010679 -0.015488 -0.004784 -1.694062
    23 0.120153 -0.050270 -0.054489 0.287569 3.110905 1.561085
    24 0.178464 -7.461797 -10.478166 -1.766634 -5.321370 -1.065164
    25 0.096944 -8.450418 -0.009365 0.199606 -1.145406 -0.075759
    26 0.447953 -2.798986 -0.200443 0.316413 -0.329378 -0.008428
    27 -0.032909 -1.480204 0.004940 -0.118334 0.000000 0.000002
    28 -0.027022 -1.076920 -0.020210 -0.581967 0.000000 0.000000
    29 -0.249534 -2.846964 -0.174213 0.535389 -0.198350 -0.196566
    30 0.043235 -1.683941 0.096012 -0.000111 0.002823 -0.000167
    31 0.031729 -1.160830 0.058838 -1.181279 0.000642 0.008372
    32 -0.963866 -2.785145 -0.085350 0.711670 0.311173 -0.322488
    33 0.028479 -1.403067 0.006271 -0.175176 -0.305236 0.172051
    34 0.021413 -0.957781 0.020046 -0.738192 0.000000 0.000000
    35 1.164475 -2.543940 -0.170330 0.241750 -0.422062 -0.157700
    36 0.024032 -1.129042 0.017807 -0.709851 0.000000 0.000001
    37 0.014898 -0.883989 -0.019848 -0.845482 0.000000 0.000000
    38 -0.586770 -1.264477 0.200161 0.013123 0.170602 -2.491297
    39 1.522835 0.058681 0.016848 0.001410 0.008985 0.160806
    40 1.117947 0.048424 -0.005766 -0.010082 -0.022573 0.477229
    41 -0.139399 -0.111698 0.014397 0.653645 -0.030687 1.580508
    42 -1.393470 8.839177 -0.239433 1.580804 -0.005023 -1.566847
  time 8
    0 0.000000 0.000000 -5.191565 -0.174532 0.000000 -0.078213
    1 8.213061 4.355202 -8.117964 -0.149965 -1.612726 -0.045697
    2 -0.071918 -8.498688 -0.104136 0.193522 0.255237 0.217228
    3 -2.047026 -2.271449 0.012398 0.054749 -0.245819 -0.015179
    4 3.423495 -1.665627 0.000000 -0.000005 0.000000 -3.141592
    5 4.039898 -4.447696 0.000000 0.000002 0.000000 3.141592
    6 4.734380 -3.434518 0.622250 -3.141592 0.000000 -1.570796
    7 1.257180 8.762585 -0.153713 -1.570562 0.002683 -1.566807
    8 -0.488518 -2.755602 -0.228260 -0.871614 -0.202562 -0.209541
    9 0.039887 -1.479790 0.029854 -2.058952 0.000000 0.000001
    10 0.028786 -1.075731 -0.023109 -0.606336 0.000000 0.000000
    11 0.250027 -2.820665 -0.238396 -0.797118 -0.167517 -0.114938
    12 -0.049759 -1.680544 0.100479 -1.934764 0.000000 -0.000002
    13 -0.034142 -1.148312 0.084782 -0.925898 0.000000 0.000000
    14 0.957766 -2.746780 -0.090302 0.005849 -0.162684 0.097910
    15 -0.033420 -1.397129 -0.011257 -0.705293 0.000000 -0.000001
    16 -0.022360 -0.957436 0.018784 -0.975515 0.000000 0.000000
    17 -1.180681 -2.507217 -0.193859 -0.671429 -0.081516 -0.261329
    18 -0.024967 -1.123934 0.017597 -2.056303 0.000000 0.000001
    19 -0.020057 -0.890968 0.010090 -0.677834 0.000000 0.000000
    20 0.583510 -1.197277 0.185379 0.180209 -0.812077 -1.291294
    21 1.535927 0.010246 0.005009 -0.002964 -0.012979 -0.506650
    22 1.100771 0.004527 -0.010679 -0.015488 -0.004784 -1.694062
    23 0.120153 -0.050270 -0.054489 0.287569 3.110905 1.561085
    24 0.178464 -7.364137 -10.560199 -1.766634 -5.321370 -1.065164
    25 0.096944 -8.450418 -0.009365 0.170252 -1.145406 -0.075759
    26 0.447953 -2.798986 -0.200443 0.335157 -0.329378 -0.008428
    27 -0.032909 -1.480204 0.004940 -0.118334 0.000000 0.000002
    28 -0.027022 -1.076920 -0.020210 -0.581967 0.000000 0.000000
    29 -0.249534 -2.846964 -0.174213 0.550375 -0.198350 -0.196566
    30 0.043235 -1.683941 0.096012 -0.000111 0.002823 -0.000167
    31 0.031729 -1.160830 0.058838 -1.181279 0.000642 0.008372
    32 -0.963866 -2.785145 -0.085350 0.719176 0.311173 -0.322488
    33 0.028479 -1.403067 0.006271 -0.175176 -0.305236 0.172051
    34 0.021413 -0.957781 0.020046 -0.738192 0.000000 0.000000
    35 1.164475 -2.543940 -0.170330 0.294265 -0.422062 -0.157700
    36 0.024032 -1.129042 0.017807 -0.709851 0.000000 0.000001
    37 0.014898 -0.883989 -0.019848 -0.845482 0.000000 0.000000
    38 -0.586770 -1.264477 0.200161 0.013123 0.146071 -2.491297
    39 1.522835 0.058681 0.016848 0.001410 0.008985 0.185337
    40 1.117947 0.048424 -0.005766 -0.010742 -0.022190 0.507874
    41 -0.139399 -0.111698 0.014397 0.653645 -0.030687 1.580508
    42 -1.393470 8.839177 -0.239433 1.580804 -0.005023 -1.566847
  time 9
    0 0.000000 0.000000 -3.898556 -0.174532 0.000000 -0.084846
    1 8.213061 4.390359 -8.297657 -0.149965 -1.612726 -0.045697
    2 -0.071918 -8.498688 -0.104136 0.197118 0.252924 0.230763
    3 -2.047026 -2.271449 0.012398 0.054749 -0.245819 -0.015179
    4 3.423495 -1.665627 0.000000 -0.000005 0.000000 -3.141592
    5 4.039898 -4.447696 0.000000 0.000002 0.000000 3.141592
    6 4.734380 -3.434518 0.622250 -3.141592 0.000000 -1.570796
    7 1.257180 8.762585 -0.153713 -1.570562 0.002683 -1.566807
    8 -0.488518 -2.755602 -0.228260 -0.871614 -0.202562 -0.209541
    9 0.039887 -1.479790 0.029854 -2.058952 0.000000 0.000001
    10 0.028786 -1.075731 -0.023109 -0.606336 0.000000 0.000000
    11 0.250027 -2.820665 -0.238396 -0.797118 -0.167517 -0.114938
    12 -0.049759 -1.680544 0.100479 -1.934764 0.000000 -0.000002
    13 -0.034142 -1.148312 0.084782 -0.925898 0.000000 0.000000
    14 0.957766 -2.746780 -0.090302 0.005849 -0.162684 0.097910
    15 -0.033420 -1.397129 -0.011257 -0.743671 0.000000 -0.000001
    16 -0.022360 -0.957436 0.018784 -0.975515 0.000000 0.000000
    17 -1.180681 -2.507217 -0.193859 -0.671429 -0.081516 -0.261329
    18 -0.024967 -1.123934 0.017597 -2.056303 0.000000 0.000001
    19 -0.020057 -0.890968 0.010090 -0.677834 0.000000 0.000000
    20 0.583510 -1.197277 0.185379 0.180209 -0.812077 -1.291294
    21 1.535927 0.010246 0.005009 -0.002964 -0.012979 -0.506650
    22 1.100771 0.004527 -0.010679 -0.015488 -0.004784 -1.694062
    23 0.120153 -0.050270 -0.054489 0.287569 3.110905 1.561085
    24 0.178464 -7.297729 -10.638327 -1.766634 -5.321370 -1.065164
    25 0.096944 -8.450418 -0.009365 0.150348 -1.145406 -0.075759
    26 0.447953 -2.798986 -0.200443 0.327786 -0.329618 -0.012061
    27 -0.032909 -1.480204 0.004940 -0.118334 0.000000 0.000002
    28 -0.027022 -1.076920 -0.020210 -0.581967 0.000000 0.000000
    29 -0.249534 -2.846964 -0.174213 0.543835 -0.197991 -0.198280
    30 0.043235 -1.683941 0.096012 -0.000111 0.002823 -0.000167
    31 0.031729 -1.160830 0.058838 -1.181279 0.000642 0.008372
    32 -0.963866 -2.785145 -0.085350 0.711153 0.312323 -0.325927
    33 0.028479 -1.403067 0.006271 -0.175176 -0.305236 0.172051
    34 0.021413 -0.957781 0.020046 -0.738192 0.000000 0.000000
    35 1.164475 -2.543940 -0.170330 0.270213 -0.422062 -0.157700
    36 0.024032 -1.129042 0.017807 -0.709851 0.000000 0.000001
    37 0.014898 -0.883989 -0.019848 -0.845482 0.000000 0.000000
    38 -0.586770 -1.264477 0.200161 0.013123 0.120503 -2.491297
    39 1.522835 0.058681 0.016848 0.001410 0.008985 0.210927
    40 1.117947 0.048424 -0.005766 -0.011437 -0.021806 0.539838
    41 -0.139399 -0.111698 0.014397 0.653645 -0.030687 1.580508
    42 -1.393470 8.839177 -0.239433 1.580804 -0.005023 -1.566847
  time 10
    0 0.000000 0.000000 -3.035249 -0.174532 0.000000 -0.087293
    1 8.213061 4.398172 -8.364065 -0.149965 -1.612726 -0.045697
    2 -0.071918 -8.498688 -0.104136 0.198434 0.252070 0.235756
    3 -2.047026 -2.271449 0.012398 0.054749 -0.245819 -0.015179
    4 3.423495 -1.665627 0.000000 -0.000005 0.000000 -3.141592
    5 4.039898 -4.447696 0.000000 0.000002 0.000000 3.141592
    6 4.734380 -3.434518 0.622250 -3.141592 0.000000 -1.570796
    7 1.257180 8.762585 -0.153713 -1.570562 0.002683 -1.566807
    8 -0.488518 -2.755602 -0.228260 -0.871614 -0.202562 -0.209541
    9 0.039887 -1.479790 0.029854 -2.058952 0.000000 0.000001
    10 0.028786 -1.075731 -0.023109 -0.606336 0.000000 0.000000
    11 0.250027 -2.820665 -0.238396 -0.797118 -0.167517 -0.114938
    12 -0.049759 -1.680544 0.100479 -1.934764 0.000000 -0.000002
    13 -0.034142 -1.148312 0.084782 -0.925898 0.000000 0.000000
    14 0.957766 -2.746780 -0.090302 0.005849 -0.162684 0.097910
    15 -0.033420 -1.397129 -0.011257 -0.782791 0.000000 -0.000001
    16 -0.022360 -0.957436 0.018784 -0.975515 0.000000 0.000000
    17 -1.180681 -2.507217 -0.193859 -0.671429 -0.081516 -0.261329
    18 -0.024967 -1.123934 0.017597 -2.056303 0.000000 0.000001
    19 -0.020057 -0.890968 0.010090 -0.677834 0.000000 0.000000
    20 0.583510 -1.197277 0.185379 0.180209 -0.812077 -1.291294
    21 1.535927 0.010246 0.005009 -0.002964 -0.012979 -0.506650
    22 1.100771 0.004527 -0.010679 -0.015488 -0.004784 -1.694062
    23 0.120153 -0.050270 -0.054489 0.287569 3.110905 1.561085
    24 0.178464 -7.270385 -10.700829 -1.766634 -5.321370 -1.065164
    25 0.096944 -8.450418 -0.009365 0.143059 -1.145406 -0.075759
    26 0.447953 -2.798986 -0.200443 0.307343 -0.330289 -0.022096
    27 -0.032909 -1.480204 0.004940 -0.118334 0.000000 0.000002
    28 -0.027022 -1.076920 -0.020210 -0.581967 0.000000 0.000000
    29 -0.249534 -2.846964 -0.174213 0.525734 -0.197008 -0.203014
    30 0.043235 -1.683941 0.096012 -0.000111 0.002823 -0.000167
    31 0.031729 -1.160830 0.058838 -1.181244 0.000642 0.008372
    32 -0.963866 -2.785145 -0.085350 0.688971 0.315511 -0.335419
    33 0.028479 -1.403067 0.006271 -0.175176 -0.305236 0.172051
    34 0.021413 -0.957781 0.020046 -0.738192 0.000000 0.000000
    35 1.164475 -2.543940 -0.170330 0.203760 -0.422062 -0.157700
    36 0.024032 -1.129042 0.017807 -0.709851 0.000000 0.000001
    37 0.014898 -0.883989 -0.019848 -0.845482 0.000000 0.000000
    38 -0.586770 -1.264477 0.200161 0.013123 0.094416 -2.491297
    39 1.522835 0.058681 0.016848 0.001410 0.008985 0.237011
    40 1.117947 0.048424 -0.005766 -0.012144 -0.021399 0.572474
    41 -0.139399 -0.111698 0.014397 0.653645 -0.030687 1.580508
    42 -1.393470 8.839177 -0.239433 1.580804 -0.005023 -1.566847
  time 11
    0 0.000000 0.000000 -2.500076 -0.169643 0.000000 -0.084846
    1 8.213061 4.390359 -8.297657 -0.149965 -1.612726 -0.045697
    2 -0.071918 -8.498688 -0.104136 0.194694 0.254558 0.221524
    3 -2.047026 -2.271449 0.012398 0.054749 -0.245819 -0.015179
    4 3.423495 -1.665627 0.000000 -0.000005 0.000000 -3.141592
    5 4.039898 -4.447696 0.000000 0.000002 0.000000 3.141592
    6 4.734380 -3.434518 0.622250 -3.141592 0.000000 -1.570796
    7 1.257180 8.762585 -0.153713 -1.570562 0.002683 -1.566807
    8 -0.488518 -2.755602 -0.228260 -0.871614 -0.202562 -0.209541
    9 0.039887 -1.479790 0.029854 -2.058952 0.000000 0.000001
    10 0.028786 -1.075731 -0.023109 -0.606336 0.000000 0.000000
    11 0.250027 -2.820665 -0.238396 -0.797118 -0.167517 -0.114938
    12 -0.049759 -1.680544 0.100479 -1.934764 0.000000 -0.000002
    13 -0.034142 -1.148312 0.084782 -0.925898 0.000000 0.000000
    14 0.957766 -2.746780 -0.090302 0.005849 -0.162684 0.097910
    15 -0.033420 -1.397129 -0.011257 -0.821944 0.000000 -0.000001
    16 -0.022360 -0.957436 0.018784 -0.975515 0.000000 0.000000
    17 -1.180681 -2.507217 -0.193859 -0.671429 -0.081516 -0.261329
    18 -0.024967 -1.123934 0.017597 -2.056303 0.000000 0.000001
    19 -0.020057 -0.890968 0.010090 -0.677834 0.000000 0.000000
    20 0.583510 -1.197277 0.185379 0.180209 -0.812077 -1.291294
    21 1.535927 0.010246 0.005009 -0.002964 -0.012979 -0.506650
    22 1.100771 0.004527 -0.010679 -0.015488 -0.004784 -1.694062
    23 0.120153 -0.050270 -0.054489 0.287569 3.110905 1.561085
    24 0.178464 -7.348512 -10.755518 -1.766634 -5.321370 -1.065164
    25 0.096944 -8.450418 -0.009365 0.183874 -1.145406 -0.075759
    26 0.447953 -2.798986 -0.200443 0.276506 -0.331307 -0.037245
    27 -0.032909 -1.480204 0.004940 -0.118334 0.000000 0.000002
    28 -0.027022 -1.076920 -0.020210 -0.581967 0.000000 0.000000
    29 -0.249534 -2.846964 -0.174213 0.498399 -0.195510 -0.210157
    30 0.043235 -1.683941 0.096012 -0.000111 0.002823 -0.000167
    31 0.031729 -1.160830 0.058838 -1.181279 0.000642 0.008372
    32 -0.963866 -2.785145 -0.085350 0.655485 0.320317 -0.349753
    33 0.028479 -1.403067 0.006271 -0.175176 -0.305236 0.172051
    34 0.021413 -0.957781 0.020046 -0.738192 0.000000 0.000000
    35 1.164475 -2.543940 -0.170330 0.103355 -0.422062 -0.157700
    36 0.024032 -1.129042 0.017807 -0.709851 0.000000 0.000001
    37 0.014898 -0.883989 -0.019848 -0.845482 0.000000 0.000000
    38 -0.586770 -1.264477 0.200161 0.013123 0.068309 -2.491297
    39 1.522835 0.058681 0.016848 0.001410 0.008985 0.263095
    40 1.117947 0.048424 -0.005766 -0.012851 -0.020991 0.605083
    41 -0.139399 -0.111698 0.014397 0.653645 -0.030687 1.580508
    42 -1.393470 8.839177 -0.239433 1.580804 -0.005023 -1.566847
  time 12
    0 0.000000 0.000000 -2.101627 -0.156375 0.000000 -0.078213
    1 8.213061 4.355202 -8.117964 -0.149965 -1.612726 -0.045697
    2 -0.071918 -8.498688 -0.104136 0.185318 0.260741 0.185910
    3 -2.047026 -2.271449 0.012398 0.054749 -0.245819 -0.015179
    4 3.423495 -1.665627 0.000000 -0.000005 0.000000 -3.141592
    5 4.039898 -4.447696 0.000000 0.000002 0.000000 3.141592
    6 4.734380 -3.434518 0.622250 -3.141592 0.000000 -1.570796
    7 1.257180 8.762585 -0.153713 -1.570562 0.002683 -1.566807
    8 -0.488518 -2.755602 -0.228260 -0.871614 -0.202562 -0.209541
    9 0.039887 -1.479790 0.029854 -2.058952 0.000000 0.000001
    10 0.028786 -1.075731 -0.023109 -0.606336 0.000000 0.000000
    11 0.250027 -2.820665 -0.238396 -0.797118 -0.167517 -0.114938
    12 -0.049759 -1.680544 0.100479 -1.934764 0.000000 -0.000002
    13 -0.034142 -1.148312 0.084782 -0.925898 0.000000 0.000000
    14 0.957766 -2.746780 -0.090302 0.005849 -0.162684 0.097910
    15 -0.033420 -1.397129 -0.011257 -0.860289 0.000000 -0.000001
    16 -0.022360 -0.957436 0.018784 -0.975515 0.000000 0.000000
    17 -1.180681 -2.507217 -0.193859 -0.671429 -0.081516 -0.261329
    18 -0.024967 -1.123934 0.017597 -2.056303 0.000000 0.000001
    19 -0.020057 -0.890968 0.010090 -0.677834 0.000000 0.000000
    20 0.583510 -1.197277 0.185379 0.180209 -0.812077 -1.291294
    21 1.535927 0.010246 0.005009 -0.002964 -0.012979 -0.506650
    22 1.100771 0.004527 -0.010679 -0.015488 -0.004784 -1.694062
    23 0.120153 -0.050270 -0.054489 0.287569 3.110905 1.561085
    24 0.178464 -7.536018 -10.802394 -1.766634 -5.321370 -1.065164
    25 0.096944 -8.450418 -0.009365 0.281285 -1.145406 -0.075759
    26 0.447953 -2.798986 -0.200443 0.237809 -0.332590 -0.056237
    27 -0.032909 -1.480204 0.004940 -0.118334 0.000000 0.000002
    28 -0.027022 -1.076920 -0.020210 -0.581967 0.000000 0.000000
    29 -0.249534 -2.846964 -0.174213 0.464121 -0.193640 -0.219109
    30 0.043235 -1.683941 0.096012 -0.000111 0.002823 -0.000167
    31 0.031729 -1.160830 0.058838 -1.181244 0.000642 0.008372
    32 -0.963866 -2.785145 -0.085350 0.613526 0.326345 -0.367729
    33 0.028479 -1.403067 0.006271 -0.175176 -0.305236 0.172051
    34 0.021413 -0.957781 0.020046 -0.738192 0.000000 0.000000
    35 1.164475 -2.543940 -0.170330 -0.022459 -0.422062 -0.157700
    36 0.024032 -1.129042 0.017807 -0.709851 0.000000 0.000001
    37 0.014898 -0.883989 -0.019848 -0.845482 0.000000 0.000000
    38 -0.586770 -1.264477 0.200161 0.013123 0.042741 -2.491297
    39 1.522835 0.058681 0.016848 0.001410 0.008985 0.288650
    40 1.117947 0.048424 -0.005766 -0.013546 -0.020596 0.637047
    41 -0.139399 -0.111698 0.014397 0.653645 -0.030687 1.580508
    42 -1.393470 8.839177 -0.239433 1.580804 -0.005023 -1.566847
  time 13
    0 0.000000 0.000000 -1.808649 -0.136821 0.000000 -0.068424
    1 8.213061 4.312232 -7.856237 -0.149965 -1.612726 -0.045697
    2 -0.071918 -8.498688 -0.104136 0.173101 0.268734 0.139590
    3 -2.047026 -2.271449 0.012398 0.054749 -0.245819 -0.015179
    4 3.423495 -1.665627 0.000000 -0.000005 0.000000 -3.141592
    5 4.039898 -4.447696 0.000000 0.000002 0.000000 3.141592
    6 4.734380 -3.434518 0.622250 -3.141592 0.000000 -1.570796
    7 1.257180 8.762585 -0.153713 -1.570562 0.002683 -1.566807
    8 -0.488518 -2.755602 -0.228260 -0.871614 -0.202562 -0.209541
    9 0.039887 -1.479790 0.029854 -2.058952 0.000000 0.000001
    10 0.028786 -1.075731 -0.023109 -0.606336 0.000000 0.000000
    11 0.250027 -2.820665 -0.238396 -0.797118 -0.167517 -0.114938
    12 -0.049759 -1.680544 0.100479 -1.934764 0.000000 -0.000002
    13 -0.034142 -1.148312 0.084782 -0.925898 0.000000 0.000000
    14 0.957766 -2.746780 -0.090302 0.005849 -0.162684 0.097910
    15 -0.033420 -1.397129 -0.011257 -0.897084 0.000000 -0.000001
    16 -0.022360 -0.957436 0.018784 -0.975515 0.000000 0.000000
    17 -1.180681 -2.507217 -0.193859 -0.671429 -0.081516 -0.261329
    18 -0.024967 -1.123934 0.017597 -2.056303 0.000000 0.000001
    19 -0.020057 -0.890968 0.010090 -0.677834 0.000000 0.000000
    20 0.583510 -1.197277 0.185379 0.180209 -0.812077 -1.291294
    21 1.535927 0.010246 0.005009 -0.002964 -0.012979 -0.506650
    22 1.100771 0.004527 -0.010679 -0.015488 -0.004784 -1.694062
    23 0.120153 -0.050270 -0.054489 0.287569 3.110905 1.561085
    24 0.178464 -7.766493 -10.837551 -1.766634 -5.321370 -1.065164
    25 0.096944 -8.450418 -0.009365 0.397496 -1.145406 -0.075759
    26 0.447953 -2.798986 -0.200443 0.193928 -0.334028 -0.077800
    27 -0.032909 -1.480204 0.004940 -0.118334 0.000000 0.000002
    28 -0.027022 -1.076920 -0.020210 -0.581967 0.000000 0.000000
    29 -0.249534 -2.846964 -0.174213 0.425227 -0.191519 -0.229260
    30 0.043235 -1.683941 0.096012 -0.000111 0.002823 -0.000167
    31 0.031729 -1.160830 0.058838 -1.181279 0.000642 0.008372
    32 -0.963866 -2.785145 -0.085350 0.565881 0.333188 -0.388127
    33 0.028479 -1.403067 0.006271 -0.175176 -0.305236 0.172051
    34 0.021413 -0.957781 0.020046 -0.738192 0.000000 0.000000
    35 1.164475 -2.543940 -0.170330 -0.165263 -0.422062 -0.157700
    36 0.024032 -1.129042 0.017807 -0.709851 0.000000 0.000001
    37 0.014898 -0.883989 -0.019848 -0.845482 0.000000 0.000000
    38 -0.586770 -1.264477 0.200161 0.013123 0.018231 -2.491297
    39 1.522835 0.058681 0.016848 0.001410 0.008985 0.313181
    40 1.117947 0.048424 -0.005766 -0.014217 -0.020224 0.667719
    41 -0.139399 -0.111698 0.014397 0.653645 -0.030687 1.580508
    42 -1.393470 8.839177 -0.239433 1.580804 -0.005023 -1.566847
  time 14
    0 0.000000 0.000000 -1.609424 -0.113091 0.000000 -0.056574
    1 8.213061 4.253636 -7.535915 -0.149965 -1.612726 -0.045697
    2 -0.071918 -8.498688 -0.104136 0.160819 0.276626 0.093246
    3 -2.047026 -2.271449 0.012398 0.054749 -0.245819 -0.015179
    4 3.423495 -1.665627 0.000000 -0.000005 0.000000 -3.141592
    5 4.039898 -4.447696 0.000000 0.000002 0.000000 3.141592
    6 4.734380 -3.434518 0.622250 -3.141592 0.000000 -1.570796
    7 1.257180 8.762585 -0.153713 -1.570562 0.002683 -1.566807
    8 -0.488518 -2.755602 -0.228260 -0.871614 -0.202562 -0.209541
    9 0.039887 -1.479790 0.029854 -2.058952 0.000000 0.000001
    10 0.028786 -1.075731 -0.023109 -0.606336 0.000000 0.000000
    11 0.250027 -2.820665 -0.238396 -0.797118 -0.167517 -0.114938
    12 -0.049759 -1.680544 0.100479 -1.934764 0.000000 -0.000002
    13 -0.034142 -1.148312 0.084782 -0.925898 0.000000 0.000000
    14 0.957766 -2.746780 -0.090302 0.005849 -0.162684 0.097910
    15 -0.033420 -1.397129 -0.011257 -0.931488 0.000000 -0.000001
    16 -0.022360 -0.957436 0.018784 -0.975515 0.000000 0.000000
    17 -1.180681 -2.507217 -0.193859 -0.671429 -0.081516 -0.261329
    18 -0.024967 -1.123934 0.017597 -2.056303 0.000000 0.000001
    19 -0.020057 -0.890968 0.010090 -0.677834 0.000000 0.000000
    20 0.583510 -1.197277 0.185379 0.180209 -0.812077 -1.291294
    21 1.535927 0.010246 0.005009 -0.002964 -0.012979 -0.506650
    22 1.100771 0.004527 -0.010679 -0.015488 -0.004784 -1.694062
    23 0.120153 -0.050270 -0.054489 0.287569 3.110905 1.561085
    24 0.178464 -7.969625 -10.860990 -1.766634 -5.321370 -1.065164
    25 0.096944 -8.450418 -0.009365 0.494907 -1.145406 -0.075759
    26 0.447953 -2.798986 -0.200443 0.147428 -0.335562 -0.100636
    27 -0.032909 -1.480204 0.004940 -0.118334 0.000000 0.000002
    28 -0.027022 -1.076920 -0.020210 -0.581967 0.000000 0.000000
    29 -0.249534 -2.846964 -0.174213 0.384023 -0.189278 -0.240022
    30 0.043235 -1.683941 0.096012 -0.000111 0.002823 -0.000167
    31 0.031729 -1.160830 0.058838 -1.181279 0.000642 0.008372
    32 -0.963866 -2.785145 -0.085350 0.515427 0.340427 -0.409735
    33 0.028479 -1.403067 0.006271 -0.175176 -0.305236 0.172051
    34 0.021413 -0.957781 0.020046 -0.738192 0.000000 0.000000
    35 1.164475 -2.543940 -0.170330 -0.316579 -0.422062 -0.157700
    36 0.024032 -1.129042 0.017807 -0.709851 0.000000 0.000001
    37 0.014898 -0.883989 -0.019848 -0.845482 0.000000 0.000000
    38 -0.586770 -1.264477 0.200161 0.013123 -0.004724 -2.491297
    39 1.522835 0.058681 0.016848 0.001410 0.008985 0.336124
    40 1.117947 0.048424 -0.005766 -0.014840 -0.019865 0.696401
    41 -0.139399 -0.111698 0.014397 0.653645 -0.030687 1.580508
    42 -1.393470 8.839177 -0.239433 1.580804 -0.005023 -1.566847
  time 15
    0 0.000000 0.000000 -1.472701 -0.087266 0.000000 -0.043693
    1 8.213061 4.191134 -7.188248 -0.149965 -1.612726 -0.045697
    2 -0.071918 -8.498688 -0.104136 0.151251 0.282508 0.057557
    3 -2.047026 -2.271449 0.012398 0.054749 -0.245819 -0.015179
    4 3.423495 -1.665627 0.000000 -0.000005 0.000000 -3.141592
    5 4.039898 -4.447696 0.000000 0.000002 0.000000 3.141592
    6 4.734380 -3.434518 0.622250 -3.141592 0.000000 -1.570796
    7 1.257180 8.762585 -0.153713 -1.570562 0.002683 -1.566807
    8 -0.488518 -2.755602 -0.228260 -0.871614 -0.202562 -0.209541
    9 0.039887 -1.479790 0.029854 -2.058952 0.000000 0.000001
    10 0.028786 -1.075731 -0.023109 -0.606336 0.000000 0.000000
    11 0.250027 -2.820665 -0.238396 -0.797118 -0.167517 -0.114938
    12 -0.049759 -1.680544 0.100479 -1.934764 0.000000 -0.000002
    13 -0.034142 -1.148312 0.084782 -0.925898 0.000000 0.000000
    14 0.957766 -2.746780 -0.090302 0.005849 -0.162684 0.097910
    15 -0.033420 -1.397129 -0.011257 -0.962791 0.000000 -0.000001
    16 -0.022360 -0.957436 0.018784 -0.975515 0.000000 0.000000
    17 -1.180681 -2.507217 -0.193859 -0.671429 -0.081516 -0.261329
    18 -0.024967 -1.123934 0.017597 -2.056303 0.000000 0.000001
    19 -0.020057 -0.890968 0.010090 -0.677834 0.000000 0.000000
    20 0.583510 -1.197277 0.185379 0.180209 -0.812077 -1.291294
    21 1.535927 0.010246 0.005009 -0.002964 -0.012979 -0.506650
    22 1.100771 0.004527 -0.010679 -0.015488 -0.004784 -1.694062
    23 0.120153 -0.050270 -0.054489 0.287569 3.110905 1.561085
    24 0.178464 -8.079003 -10.872709 -1.766634 -5.321370 -1.065164
    25 0.096944 -8.450418 -0.009365 0.535722 -1.145406 -0.075759
    26 0.447953 -2.798986 -0.200443 0.100957 -0.337096 -0.123471
    27 -0.032909 -1.480204 0.004940 -0.118334 0.000000 0.000002
    28 -0.027022 -1.076920 -0.020210 -0.581967 0.000000 0.000000
    29 -0.249534 -2.846964 -0.174213 0.342820 -0.187025 -0.250784
    30 0.043235 -1.683941 0.096012 -0.000111 0.002823 -0.000167
    31 0.031729 -1.160830 0.058838 -1.181279 0.000642 0.008372
    32 -0.963866 -2.785145 -0.085350 0.464951 0.347678 -0.431356
    33 0.028479 -1.403067 0.006271 -0.175176 -0.305236 0.172051
    34 0.021413 -0.957781 0.020046 -0.738192 0.000000 0.000000
    35 1.164475 -2.543940 -0.170330 -0.467864 -0.422062 -0.157700
    36 0.024032 -1.129042 0.017807 -0.709851 0.000000 0.000001
    37 0.014898 -0.883989 -0.019848 -0.845482 0.000000 0.000000
    38 -0.586770 -1.264477 0.200161 0.013123 -0.025585 -2.491297
    39 1.522835 0.058681 0.016848 0.001410 0.008985 0.356985
    40 1.117947 0.048424 -0.005766 -0.015404 -0.019541 0.722473
    41 -0.139399 -0.111698 0.014397 0.653645 -0.030687 1.580508
    42 -1.393470 8.839177 -0.239433 1.580804 -0.005023 -1.566847
  time 16
    0 0.000000 0.000000 -1.375042 -0.061427 0.000000 -0.030748
    1 8.213061 4.132539 -6.840581 -0.149965 -1.612726 -0.045697
    2 -0.071918 -8.498688 -0.104136 0.143930 0.286479 0.031007
    3 -2.047026 -2.271449 0.012398 0.054749 -0.245819 -0.015179
    4 3.423495 -1.665627 0.000000 -0.000005 0.000000 -3.141592
    5 4.039898 -4.447696 0.000000 0.000002 0.000000 3.141592
    6 4.734380 -3.434518 0.622250 -3.141592 0.000000 -1.570796
    7 1.257180 8.762585 -0.153713 -1.570562 0.002683 -1.566807
    8 -0.488518 -2.755602 -0.228260 -0.871614 -0.202562 -0.209541
    9 0.039887 -1.479790 0.029854 -2.058952 0.000000 0.000001
    10 0.028786 -1.075731 -0.023109 -0.606336 0.000000 0.000000
    11 0.250027 -2.820665 -0.238396 -0.797118 -0.167517 -0.114938
    12 -0.049759 -1.680544 0.100479 -1.934764 0.000000 -0.000002
    13 -0.034142 -1.148312 0.084782 -0.925898 0.000000 0.000000
    14 0.957766 -2.746780 -0.090302 0.005849 -0.162684 0.097910
    15 -0.033420 -1.397129 -0.011257 -0.990153 0.000000 -0.000001
    16 -0.022360 -0.957436 0.018784 -0.975515 0.000000 0.000000
    17 -1.180681 -2.507217 -0.193859 -0.671429 -0.081516 -0.261329
    18 -0.024967 -1.123934 0.017597 -2.056303 0.000000 0.000001
    19 -0.020057 -0.890968 0.010090 -0.677834 0.000000 0.000000
    20 0.583510 -1.197277 0.185379 0.180209 -0.812077 -1.291294
    21 1.535927 0.010246 0.005009 -0.002964 -0.012979 -0.506650
    22 1.100771 0.004527 -0.010679 -0.015488 -0.004784 -1.694062
    23 0.120153 -0.050270 -0.054489 0.287569 3.110905 1.561085
    24 0.178464 -8.114160 -10.857083 -1.766634 -5.321370 -1.065164
    25 0.096944 -8.450418 -0.009365 0.531198 -1.145406 -0.075759
    26 0.447953 -2.798986 -0.200443 0.057076 -0.338534 -0.145021
    27 -0.032909 -1.480204 0.004940 -0.118334 0.000000 0.000002
    28 -0.027022 -1.076920 -0.020210 -0.581967 0.000000 0.000000
    29 -0.249534 -2.846964 -0.174213 0.303925 -0.184903 -0.260947
    30 0.043235 -1.683941 0.096012 -0.000111 0.002823 -0.000167
    31 0.031729 -1.160830 0.058838 -1.181279 0.000642 0.008372
    32 -0.963866 -2.785145 -0.085350 0.417329 0.354521 -0.451753
    33 0.028479 -1.403067 0.006271 -0.175176 -0.305236 0.172051
    34 0.021413 -0.957781 0.020046 -0.738192 0.000000 0.000000
    35 1.164475 -2.543940 -0.170330 -0.610699 -0.422062 -0.157700
    36 0.024032 -1.129042 0.017807 -0.709851 0.000000 0.000001
    37 0.014898 -0.883989 -0.019848 -0.845482 0.000000 0.000000
    38 -0.586770 -1.264477 0.200161 0.013123 -0.043812 -2.491297
    39 1.522835 0.058681 0.016848 0.001410 0.008985 0.375233
    40 1.117947 0.048424 -0.005766 -0.015907 -0.019266 0.745289
    41 -0.139399 -0.111698 0.014397 0.653645 -0.030687 1.580508
    42 -1.393470 8.839177 -0.239433 1.580804 -0.005023 -1.566847
  time 17
    0 0.000000 0.000000 -1.300821 -0.037697 0.000000 -0.018898
    1 8.213061 4.073943 -6.520259 -0.149965 -1.612726 -0.045697
    2 -0.071918 -8.498688 -0.104136 0.136979 0.289797 0.006519
    3 -2.047026 -2.271449 0.012398 0.054749 -0.245819 -0.015179
    4 3.423495 -1.665627 0.000000 -0.000005 0.000000 -3.141592
    5 4.039898 -4.447696 0.000000 0.000002 0.000000 3.141592
    6 4.734380 -3.434518 0.622250 -3.141592 0.000000 -1.570796
    7 1.257180 8.762585 -0.153713 -1.570562 0.002683 -1.566807
    8 -0.488518 -2.755602 -0.228260 -0.871614 -0.202562 -0.209541
    9 0.039887 -1.479790 0.029854 -2.058952 0.000000 0.000001
    10 0.028786 -1.075731 -0.023109 -0.606336 0.000000 0.000000
    11 0.250027 -2.820665 -0.238396 -0.797118 -0.167517 -0.114938
    12 -0.049759 -1.680544 0.100479 -1.934764 0.000000 -0.000002
    13 -0.034142 -1.148312 0.084782 -0.925898 0.000000 0.000000
    14 0.957766 -2.746780 -0.090302 0.005849 -0.162684 0.097910
    15 -0.033420 -1.397129 -0.011257 -1.012798 0.000000 -0.000001
    16 -0.022360 -0.957436 0.018784 -0.975515 0.000000 0.000000
    17 -1.180681 -2.507217 -0.193859 -0.671429 -0.081516 -0.261329
    18 -0.024967 -1.123934 0.017597 -2.056303 0.000000 0.000001
    19 -0.020057 -0.890968 0.010090 -0.677834 0.000000 0.000000
    20 0.583510 -1.197277 0.185379 0.180209 -0.812077 -1.291294
    21 1.535927 0.010246 0.005009 -0.002964 -0.012979 -0.506650
    22 1.100771 0.004527 -0.010679 -0.015488 -0.004784 -1.694062
    23 0.120153 -0.050270 -0.054489 0.287569 3.110905 1.561085
    24 0.178464 -8.133692 -10.818020 -1.766634 -5.321370 -1.065164
    25 0.096944 -8.450418 -0.009365 0.520391 -1.145406 -0.075759
    26 0.447953 -2.798986 -0.200443 0.018408 -0.339816 -0.164027
    27 -0.032909 -1.480204 0.004940 -0.118334 0.000000 0.000002
    28 -0.027022 -1.076920 -0.020210 -0.581967 0.000000 0.000000
    29 -0.249534 -2.846964 -0.174213 0.269666 -0.183034 -0.269900
    30 0.043235 -1.683941 0.096012 -0.000111 0.002823 -0.000167
    31 0.031729 -1.160830 0.058838 -1.181279 0.000642 0.008372
    32 -0.963866 -2.785145 -0.085350 0.375347 0.360537 -0.469730
    33 0.028479 -1.403067 0.006271 -0.175176 -0.305236 0.172051
    34 0.021413 -0.957781 0.020046 -0.738192 0.000000 0.000000
    35 1.164475 -2.543940 -0.170330 -0.736544 -0.422062 -0.157700
    36 0.024032 -1.129042 0.017807 -0.709851 0.000000 0.000001
    37 0.014898 -0.883989 -0.019848 -0.845482 0.000000 0.000000
    38 -0.586770 -1.264477 0.200161 0.013123 -0.058908 -2.491297
    39 1.522835 0.058681 0.016848 0.001410 0.008985 0.390340
    40 1.117947 0.048424 -0.005766 -0.016314 -0.019026 0.764152
    41 -0.139399 -0.111698 0.014397 0.653645 -0.030687 1.580508
    42 -1.393470 8.839177 -0.239433 1.580804 -0.005023 -1.566847
  time 18
    0 0.000000 0.000000 -1.218787 -0.018144 0.000000 -0.009109
    1 8.213061 4.030973 -6.258532 -0.149965 -1.612726 -0.045697
    2 -0.071918 -8.498688 -0.104136 0.131119 0.292336 -0.013747
    3 -2.047026 -2.271449 0.012398 0.054749 -0.245819 -0.015179
    4 3.423495 -1.665627 0.000000 -0.000005 0.000000 -3.141592
    5 4.039898 -4.447696 0.000000 0.000002 0.000000 3.141592
    6 4.734380 -3.434518 0.622250 -3.141592 0.000000 -1.570796
    7 1.257180 8.762585 -0.153713 -1.570562 0.002683 -1.566807
    8 -0.488518 -2.755602 -0.228260 -0.871614 -0.202562 -0.209541
    9 0.039887 -1.479790 0.029854 -2.058952 0.000000 0.000001
    10 0.028786 -1.075731 -0.023109 -0.606336 0.000000 0.000000
    11 0.250027 -2.820665 -0.238396 -0.797118 -0.167517 -0.114938
    12 -0.049759 -1.680544 0.100479 -1.934764 0.000000 -0.000002
    13 -0.034142 -1.148312 0.084782 -0.925898 0.000000 0.000000
    14 0.957766 -2.746780 -0.090302 0.005849 -0.162684 0.097910
    15 -0.033420 -1.397129 -0.011257 -1.029952 0.000000 -0.000001
    16 -0.022360 -0.957436 0.018784 -0.975515 0.000000 0.000000
    17 -1.180681 -2.507217 -0.193859 -0.671429 -0.081516 -0.261329
    18 -0.024967 -1.123934 0.017597 -2.056303 0.000000 0.000001
    19 -0.020057 -0.890968 0.010090 -0.677834 0.000000 0.000000
    20 0.583510 -1.197277 0.185379 0.180209 -0.812077 -1.291294
    21 1.535927 0.010246 0.005009 -0.002964 -0.012979 -0.506650
    22 1.100771 0.004527 -0.010679 -0.015488 -0.004784 -1.694062
    23 0.120153 -0.050270 -0.054489 0.287569 3.110905 1.561085
    24 0.178464 -8.145411 -10.763330 -1.766634 -5.321370 -1.065164
    25 0.096944 -8.450418 -0.009365 0.507473 -1.145406 -0.075759
    26 0.447953 -2.798986 -0.200443 -0.012458 -0.340835 -0.179176
    27 -0.032909 -1.480204 0.004940 -0.118334 0.000000 0.000002
    28 -0.027022 -1.076920 -0.020210 -0.581967 0.000000 0.000000
    29 -0.249534 -2.846964 -0.174213 0.242313 -0.181536 -0.277043
    30 0.043235 -1.683941 0.096012 -0.000111 0.002823 -0.000167
    31 0.031729 -1.160830 0.058838 -1.181279 0.000642 0.008372
    32 -0.963866 -2.785145 -0.085350 0.341861 0.365355 -0.484064
    33 0.028479 -1.403067 0.006271 -0.175176 -0.305236 0.172051
    34 0.021413 -0.957781 0.020046 -0.738192 0.000000 0.000000
    35 1.164475 -2.543940 -0.170330 -0.836948 -0.422062 -0.157700
    36 0.024032 -1.129042 0.017807 -0.709851 0.000000 0.000001
    37 0.014898 -0.883989 -0.019848 -0.845482 0.000000 0.000000
    38 -0.586770 -1.264477 0.200161 0.013123 -0.070354 -2.491297
    39 1.522835 0.058681 0.016848 0.001410 0.008985 0.401776
    40 1.117947 0.048424 -0.005766 -0.016626 -0.018858 0.778441
    41 -0.139399 -0.111698 0.014397 0.653645 -0.030687 1.580508
    42 -1.393470 8.839177 -0.239433 1.580804 -0.005023 -1.566847
  time 19
    0 0.000000 0.000000 -1.113315 -0.004875 0.000000 -0.002476
    1 8.213061 3.995816 -6.078839 -0.149965 -1.612726 -0.045697
    2 -0.071918 -8.498688 -0.104136 0.127089 0.293969 -0.027506
    3 -2.047026 -2.271449 0.012398 0.054749 -0.245819 -0.015179
    4 3.423495 -1.665627 0.000000 -0.000005 0.000000 -3.141592
    5 4.039898 -4.447696 0.000000 0.000002 0.000000 3.141592
    6 4.734380 -3.434518 0.622250 -3.141592 0.000000 -1.570796
    7 1.257180 8.762585 -0.153713 -1.570562 0.002683 -1.566807
    8 -0.488518 -2.755602 -0.228260 -0.871614 -0.202562 -0.209541
    9 0.039887 -1.479790 0.029854 -2.058952 0.000000 0.000001
    10 0.028786 -1.075731 -0.023109 -0.606336 0.000000 0.000000
    11 0.250027 -2.820665 -0.238396 -0.797118 -0.167517 -0.114938
    12 -0.049759 -1.680544 0.100479 -1.934764 0.000000 -0.000002
    13 -0.034142 -1.148312 0.084782 -0.925898 0.000000 0.000000
    14 0.957766 -2.746780 -0.090302 0.005849 -0.162684 0.097910
    15 -0.033420 -1.397129 -0.011257 -1.040806 0.000000 -0.000001
    16 -0.022360 -0.957436 0.018784 -0.975515 0.000000 0.000000
    17 -1.180681 -2.507217 -0.193859 -0.671429 -0.081516 -0.261329
    18 -0.024967 -1.123934 0.017597 -2.056303 0.000000 0.000001
    19 -0.020057 -0.890968 0.010090 -0.677834 0.000000 0.000000
    20 0.583510 -1.197277 0.185379 0.180209 -0.812077 -1.291294
    21 1.535927 0.010246 0.005009 -0.002964 -0.012979 -0.506650
    22 1.100771 0.004527 -0.010679 -0.015488 -0.004784 -1.694062
    23 0.120153 -0.050270 -0.054489 0.287569 3.110905 1.561085
    24 0.178464 -8.153224 -10.700829 -1.766634 -5.321370 -1.065164
    25 0.096944 -8.450418 -0.009365 0.496616 -1.145406 -0.075759
    26 0.447953 -2.798986 -0.200443 -0.032872 -0.341506 -0.189210
    27 -0.032909 -1.480204 0.004940 -0.118334 0.000000 0.000002
    28 -0.027022 -1.076920 -0.020210 -0.581967 0.000000 0.000000
    29 -0.249534 -2.846964 -0.174213 0.224230 -0.180553 -0.281777
    30 0.043235 -1.683941 0.096012 -0.000111 0.002823 -0.000167
    31 0.031729 -1.160830 0.058838 -1.181279 0.000642 0.008372
    32 -0.963866 -2.785145 -0.085350 0.319702 0.368531 -0.493556
    33 0.028479 -1.403067 0.006271 -0.175176 -0.305236 0.172051
    34 0.021413 -0.957781 0.020046 -0.738192 0.000000 0.000000
    35 1.164475 -2.543940 -0.170330 -0.903401 -0.422062 -0.157700
    36 0.024032 -1.129042 0.017807 -0.709851 0.000000 0.000001
    37 0.014898 -0.883989 -0.019848 -0.845482 0.000000 0.000000
    38 -0.586770 -1.264477 0.200161 0.013123 -0.077591 -2.491297
    39 1.522835 0.058681 0.016848 0.001410 0.008985 0.409012
    40 1.117947 0.048424 -0.005766 -0.016818 -0.018738 0.787511
    41 -0.139399 -0.111698 0.014397 0.653645 -0.030687 1.580508
    42 -1.393470 8.839177 -0.239433 1.580804 -0.005023 -1.566847
  time 20
    0 0.000000 0.000000 -0.957060 0.000000 0.000000 -0.000029
    1 8.213061 3.988003 -6.016337 -0.149965 -1.612726 -0.045697
    2 -0.071918 -8.498688 -0.104136 0.125580 0.294548 -0.032598
    3 -2.047026 -2.271449 0.012398 0.054749 -0.245819 -0.015179
    4 3.423495 -1.665627 0.000000 -0.000005 0.000000 -3.141592
    5 4.039898 -4.447696 0.000000 0.000002 0.000000 3.141592
    6 4.734380 -3.434518 0.622250 -3.141592 0.000000 -1.570796
    7 1.257180 8.762585 -0.153713 -1.570562 0.002683 -1.566807
    8 -0.488518 -2.755602 -0.228260 -0.871614 -0.202562 -0.209541
    9 0.039887 -1.479790 0.029854 -2.058952 0.000000 0.000001
    10 0.028786 -1.075731 -0.023109 -0.606336 0.000000 0.000000
    11 0.250027 -2.820665 -0.238396 -0.797118 -0.167517 -0.114938
    12 -0.049759 -1.680544 0.100479 -1.934764 0.000000 -0.000002
    13 -0.034142 -1.148312 0.084782 -0.925898 0.000000 0.000000
    14 0.957766 -2.746780 -0.090302 0.005849 -0.162684 0.097910
    15 -0.033420 -1.397129 -0.011257 -1.044586 0.000000 -0.000001
    16 -0.022360 -0.957436 0.018784 -0.975515 0.000000 0.000000
    17 -1.180681 -2.507217 -0.193859 -0.671429 -0.081516 -0.261329
    18 -0.024967 -1.123934 0.017597 -2.056303 0.000000 0.000001
    19 -0.020057 -0.890968 0.010090 -0.677834 0.000000 0.000000
    20 0.583510 -1.197277 0.185379 0.180209 -0.812077 -1.291294
    21 1.535927 0.010246 0.005009 -0.002964 -0.012979 -0.506650
    22 1.100771 0.004527 -0.010679 -0.015488 -0.004784 -1.694062
    23 0.120153 -0.050270 -0.054489 0.287569 3.110905 1.561085
    24 0.178464 -8.153224 -10.642233 -1.766634 -5.321370 -1.065164
    25 0.096944 -8.450418 -0.009365 0.492093 -1.145406 -0.075759
    26 0.447953 -2.798986 -0.200443 -0.040272 -0.341746 -0.192844
    27 -0.032909 -1.480204 0.004940 -0.118334 0.000000 0.000002
    28 -0.027022 -1.076920 -0.020210 -0.581967 0.000000 0.000000
    29 -0.249534 -2.846964 -0.174213 0.217672 -0.180193 -0.283478
    30 0.043235 -1.683941 0.096012 -0.000111 0.002823 -0.000167
    31 0.031729 -1.160830 0.058838 -1.181279 0.000642 0.008372
    32 -0.963866 -2.785145 -0.085350 0.311679 0.369681 -0.496995
    33 0.028479 -1.403067 0.006271 -0.175176 -0.305236 0.172051
    34 0.021413 -0.957781 0.020046 -0.738192 0.000000 0.000000
    35 1.164475 -2.543940 -0.170330 -0.927423 -0.422062 -0.157700
    36 0.024032 -1.129042 0.017807 -0.709851 0.000000 0.000001
    37 0.014898 -0.883989 -0.019848 -0.845482 0.000000 0.000000
    38 -0.586770 -1.264477 0.200161 0.013123 -0.080121 -2.491297
    39 1.522835 0.058681 0.016848 0.001410 0.008985 0.411553
    40 1.117947 0.048424 -0.005766 -0.016890 -0.018702 0.790664
    41 -0.139399 -0.111698 0.014397 0.653645 -0.030687 1.580508
    42 -1.393470 8.839177 -0.239433 1.580804 -0.005023 -1.566847
  time 21
    0 0.000000 0.000000 -0.753929 0.000000 0.000000 -0.000029
    1 8.213061 3.988003 -6.016337 -0.149965 -1.612726 -0.045697
    2 -0.071918 -8.498688 -0.104136 0.126303 0.294196 -0.030065
    3 -2.047026 -2.271449 0.012398 0.054749 -0.245819 -0.015179
    4 3.423495 -1.665627 0.000000 -0.000005 0.000000 -3.141592
    5 4.039898 -4.447696 0.000000 0.000002 0.000000 3.141592
    6 4.734380 -3.434518 0.622250 -3.141592 0.000000 -1.570796
    7 1.257180 8.762585 -0.153713 -1.570562 0.002683 -1.566807
    8 -0.488518 -2.755602 -0.228260 -0.871614 -0.202562 -0.209541
    9 0.039887 -1.479790 0.029854 -2.058952 0.000000 0.000001
    10 0.028786 -1.075731 -0.023109 -0.606336 0.000000 0.000000
    11 0.250027 -2.820665 -0.238396 -0.797118 -0.167517 -0.114938
    12 -0.049759 -1.680544 0.100479 -1.934764 0.000000 -0.000002
    13 -0.034142 -1.148312 0.084782 -0.925898 0.000000 0.000000
    14 0.957766 -2.746780 -0.090302 0.005849 -0.162684 0.097910
    15 -0.033420 -1.397129 -0.011257 -1.029952 0.000000 -0.000001
    16 -0.022360 -0.957436 0.018784 -0.975515 0.000000 0.000000
    17 -1.180681 -2.507217 -0.193859 -0.671429 -0.081516 -0.261329
    18 -0.024967 -1.123934 0.017597 -2.056303 0.000000 0.000001
    19 -0.020057 -0.890968 0.010090 -0.677834 0.000000 0.000000
    20 0.583510 -1.197277 0.185379 0.180209 -0.812077 -1.291294
    21 1.535927 0.010246 0.005009 -0.002964 -0.012979 -0.506650
    22 1.100771 0.004527 -0.010679 -0.015488 -0.004784 -1.694062
    23 0.120153 -0.050270 -0.054489 0.287569 3.110905 1.561085
    24 0.178464 -8.153224 -10.579731 -1.766634 -5.321370 -1.065164
    25 0.096944 -8.450418 -0.009365 0.498979 -1.145406 -0.075759
    26 0.447953 -2.798986 -0.200443 -0.040272 -0.341746 -0.192844
    27 -0.032909 -1.480204 0.004940 -0.118334 0.000000 0.000002
    28 -0.027022 -1.076920 -0.020210 -0.581967 0.000000 0.000000
    29 -0.249534 -2.846964 -0.174213 0.217672 -0.180193 -0.283478
    30 0.043235 -1.683941 0.096012 -0.000111 0.002823 -0.000167
    31 0.031729 -1.160830 0.058838 -1.181279 0.000642 0.008372
    32 -0.963866 -2.785145 -0.085350 0.311679 0.369681 -0.496995
    33 0.028479 -1.403067 0.006271 -0.175176 -0.305236 0.172051
    34 0.021413 -0.957781 0.020046 -0.738192 0.000000 0.000000
    35 1.164475 -2.543940 -0.170330 -0.927423 -0.422062 -0.157700
    36 0.024032 -1.129042 0.017807 -0.709851 0.000000 0.000001
    37 0.014898 -0.883989 -0.019848 -0.845482 0.000000 0.000000
    38 -0.586770 -1.264477 0.200161 0.013123 -0.080121 -2.491297
    39 1.522835 0.058681 0.016848 0.001410 0.008985 0.411553
    40 1.117947 0.048424 -0.005766 -0.016890 -0.018702 0.790664
    41 -0.139399 -0.111698 0.014397 0.653645 -0.030687 1.580508
    42 -1.393470 8.839177 -0.239433 1.580804 -0.005023 -1.566847
  time 22
    0 0.000000 0.000000 -0.539079 0.000000 0.000000 -0.000029
    1 8.213061 3.988003 -6.016337 -0.149965 -1.612726 -0.045697
    2 -0.071918 -8.498688 -0.104136 0.128261 0.293291 -0.023210
    3 -2.047026 -2.271449 0.012398 0.054749 -0.245819 -0.015179
    4 3.423495 -1.665627 0.000000 -0.000005 0.000000 -3.141592
    5 4.039898 -4.447696 0.000000 0.000002 0.000000 3.141592
    6 4.734380 -3.434518 0.622250 -3.141592 0.000000 -1.570796
    7 1.257180 8.762585 -0.153713 -1.570562 0.002683 -1.566807
    8 -0.488518 -2.755602 -0.228260 -0.871614 -0.202562 -0.209541
    9 0.039887 -1.479790 0.029854 -2.058952 0.000000 0.000001
    10 0.028786 -1.075731 -0.023109 -0.606336 0.000000 0.000000
    11 0.250027 -2.820665 -0.238396 -0.797118 -0.167517 -0.114938
    12 -0.049759 -1.680544 0.100479 -1.934764 0.000000 -0.000002
    13 -0.034142 -1.148312 0.084782 -0.925898 0.000000 0.000000
    14 0.957766 -2.746780 -0.090302 0.005849 -0.162684 0.097910
    15 -0.033420 -1.397129 -0.011257 -0.990153 0.000000 -0.000001
    16 -0.022360 -0.957436 0.018784 -0.975515 0.000000 0.000000
    17 -1.180681 -2.507217 -0.193859 -0.671429 -0.081516 -0.261329
    18 -0.024967 -1.123934 0.017597 -2.056303 0.000000 0.000001
    19 -0.020057 -0.890968 0.010090 -0.677834 0.000000 0.000000
    20 0.583510 -1.197277 0.185379 0.180209 -0.812077 -1.291294
    21 1.535927 0.010246 0.005009 -0.002964 -0.012979 -0.506650
    22 1.100771 0.004527 -0.010679 -0.015488 -0.004784 -1.694062
    23 0.120153 -0.050270 -0.054489 0.287569 3.110905 1.561085
    24 0.178464 -8.153224 -10.509416 -1.766634 -5.321370 -1.065164
    25 0.096944 -8.450418 -0.009365 0.514108 -1.145406 -0.075759
    26 0.447953 -2.798986 -0.200443 -0.040272 -0.341746 -0.192844
    27 -0.032909 -1.480204 0.004940 -0.118334 0.000000 0.000002
    28 -0.027022 -1.076920 -0.020210 -0.581967 0.000000 0.000000
    29 -0.249534 -2.846964 -0.174213 0.217672 -0.180193 -0.283478
    30 0.043235 -1.683941 0.096012 -0.000111 0.002823 -0.000167
    31 0.031729 -1.160830 0.058838 -1.181244 0.000642 0.008372
    32 -0.963866 -2.785145 -0.085350 0.311679 0.369681 -0.496995
    33 0.028479 -1.403067 0.006271 -0.175176 -0.305236 0.172051
    34 0.021413 -0.957781 0.020046 -0.738192 0.000000 0.000000
    35 1.164475 -2.543940 -0.170330 -0.927423 -0.422062 -0.157700
    36 0.024032 -1.129042 0.017807 -0.709851 0.000000 0.000001
    37 0.014898 -0.883989 -0.019848 -0.845482 0.000000 0.000000
    38 -0.586770 -1.264477 0.200161 0.013123 -0.080121 -2.491297
    39 1.522835 0.058681 0.016848 0.001410 0.008985 0.411553
    40 1.117947 0.048424 -0.005766 -0.016890 -0.018702 0.790664
    41 -0.139399 -0.111698 0.014397 0.653645 -0.030687 1.580508
    42 -1.393470 8.839177 -0.239433 1.580804 -0.005023 -1.566847
  time 23
    0 0.000000 0.000000 -0.335948 0.000000 0.000000 -0.000029
    1 8.213061 3.988003 -6.016337 -0.149965 -1.612726 -0.045697
    2 -0.071918 -8.498688 -0.104136 0.131135 0.291934 -0.013126
    3 -2.047026 -2.271449 0.012398 0.054749 -0.245819 -0.015179
    4 3.423495 -1.665627 0.000000 -0.000005 0.000000 -3.141592
    5 4.039898 -4.447696 0.000000 0.000002 0.000000 3.141592
    6 4.734380 -3.434518 0.622250 -3.141592 0.000000 -1.570796
    7 1.257180 8.762585 -0.153713 -1.570562 0.002683 -1.566807
    8 -0.488518 -2.755602 -0.228260 -0.871614 -0.202562 -0.209541
    9 0.039887 -1.479790 0.029854 -2.058952 0.000000 0.000001
    10 0.028786 -1.075731 -0.023109 -0.606336 0.000000 0.000000
    11 0.250027 -2.820665 -0.238396 -0.797118 -0.167517 -0.114938
    12 -0.049759 -1.680544 0.100479 -1.934764 0.000000 -0.000002
    13 -0.034142 -1.148312 0.084782 -0.925898 0.000000 0.000000
    14 0.957766 -2.746780 -0.090302 0.005849 -0.162684 0.097910
    15 -0.033420 -1.397129 -0.011257 -0.931488 0.000000 -0.000001
    16 -0.022360 -0.957436 0.018784 -0.975515 0.000000 0.000000
    17 -1.180681 -2.507217 -0.193859 -0.671429 -0.081516 -0.261329
    18 -0.024967 -1.123934 0.017597 -2.056303 0.000000 0.000001
    19 -0.020057 -0.890968 0.010090 -0.677834 0.000000 0.000000
    20 0.583510 -1.197277 0.185379 0.180209 -0.812077 -1.291294
    21 1.535927 0.010246 0.005009 -0.002964 -0.012979 -0.506650
    22 1.100771 0.004527 -0.010679 -0.015488 -0.004784 -1.694062
    23 0.120153 -0.050270 -0.054489 0.287569 3.110905 1.561085
    24 0.178464 -8.153224 -10.431289 -1.766634 -5.321370 -1.065164
    25 0.096944 -8.450418 -0.009365 0.529187 -1.145406 -0.075759
    26 0.447953 -2.798986 -0.200443 -0.040272 -0.341746 -0.192844
    27 -0.032909 -1.480204 0.004940 -0.118334 0.000000 0.000002
    28 -0.027022 -1.076920 -0.020210 -0.581967 0.000000 0.000000
    29 -0.249534 -2.846964 -0.174213 0.217672 -0.180193 -0.283478
    30 0.043235 -1.683941 0.096012 -0.000111 0.002823 -0.000167
    31 0.031729 -1.160830 0.058838 -1.181279 0.000642 0.008372
    32 -0.963866 -2.785145 -0.085350 0.311679 0.369681 -0.496995
    33 0.028479 -1.403067 0.006271 -0.175176 -0.305236 0.172051
    34 0.021413 -0.957781 0.020046 -0.738192 0.000000 0.000000
    35 1.164475 -2.543940 -0.170330 -0.927423 -0.422062 -0.157700
    36 0.024032 -1.129042 0.017807 -0.709851 0.000000 0.000001
    37 0.014898 -0.883989 -0.019848 -0.845482 0.000000 0.000000
    38 -0.586770 -1.264477 0.200161 0.013123 -0.080121 -2.491297
    39 1.522835 0.058681 0.016848 0.001410 0.008985 0.411553
    40 1.117947 0.048424 -0.005766 -0.016890 -0.018702 0.790664
    41 -0.139399 -0.111698 0.014397 0.653645 -0.030687 1.580508
    42 -1.393470 8.839177 -0.239433 1.580804 -0.005023 -1.566847
  time 24
    0 0.000000 0.000000 -0.160161 0.000000 0.000000 -0.000029
    1 8.213061 3.988003 -6.016337 -0.149965 -1.612726 -0.045697
    2 -0.071918 -8.498688 -0.104136 0.134619 0.290300 -0.000857
    3 -2.047026 -2.271449 0.012398 0.054749 -0.245819 -0.015179
    4 3.423495 -1.665627 0.000000 -0.000005 0.000000 -3.141592
    5 4.039898 -4.447696 0.000000 0.000002 0.000000 3.141592
    6 4.734380 -3.434518 0.622250 -3.141592 0.000000 -1.570796
    7 1.257180 8.762585 -0.153713 -1.570562 0.002683 -1.566807
    8 -0.488518 -2.755602 -0.228260 -0.871614 -0.202562 -0.209541
    9 0.039887 -1.479790 0.029854 -2.058952 0.000000 0.000001
    10 0.028786 -1.075731 -0.023109 -0.606336 0.000000 0.000000
    11 0.250027 -2.820665 -0.238396 -0.797118 -0.167517 -0.114938
    12 -0.049759 -1.680544 0.100479 -1.934764 0.000000 -0.000002
    13 -0.034142 -1.148312 0.084782 -0.925898 0.000000 0.000000
    14 0.957766 -2.746780 -0.090302 0.005849 -0.162684 0.097910
    15 -0.033420 -1.397129 -0.011257 -0.860289 0.000000 -0.000001
    16 -0.022360 -0.957436 0.018784 -0.975515 0.000000 0.000000
    17 -1.180681 -2.507217 -0.193859 -0.671429 -0.081516 -0.261329
    18 -0.024967 -1.123934 0.017597 -2.056303 0.000000 0.000001
    19 -0.020057 -0.890968 0.010090 -0.677834 0.000000 0.000000
    20 0.583510 -1.197277 0.185379 0.180209 -0.812077 -1.291294
    21 1.535927 0.010246 0.005009 -0.002964 -0.012979 -0.506650
    22 1.100771 0.004527 -0.010679 -0.015488 -0.004784 -1.694062
    23 0.120153 -0.050270 -0.054489 0.287569 3.110905 1.561085
    24 0.178464 -8.153224 -10.349255 -1.766634 -5.321370 -1.065164
    25 0.096944 -8.450418 -0.009365 0.536074 -1.145406 -0.075759
    26 0.447953 -2.798986 -0.200443 -0.040272 -0.341746 -0.192844
    27 -0.032909 -1.480204 0.004940 -0.118334 0.000000 0.000002
    28 -0.027022 -1.076920 -0.020210 -0.581967 0.000000 0.000000
    29 -0.249534 -2.846964 -0.174213 0.217672 -0.180193 -0.283478
    30 0.043235 -1.683941 0.096012 -0.000111 0.002823 -0.000167
    31 0.031729 -1.160830 0.058838 -1.181279 0.000642 0.008372
    32 -0.963866 -2.785145 -0.085350 0.311679 0.369681 -0.496995
    33 0.028479 -1.403067 0.006271 -0.175176 -0.305236 0.172051
    34 0.021413 -0.957781 0.020046 -0.738192 0.000000 0.000000
    35 1.164475 -2.543940 -0.170330 -0.927423 -0.422062 -0.157700
    36 0.024032 -1.129042 0.017807 -0.709851 0.000000 0.000001
    37 0.014898 -0.883989 -0.019848 -0.845482 0.000000 0.000000
    38 -0.586770 -1.264477 0.200161 0.013123 -0.080121 -2.491297
    39 1.522835 0.058681 0.016848 0.001410 0.008985 0.411553
    40 1.117947 0.048424 -0.005766 -0.016890 -0.018702 0.790664
    41 -0.139399 -0.111698 0.014397 0.653645 -0.030687 1.580508
    42 -1.393470 8.839177 -0.239433 1.580804 -0.005023 -1.566847
  time 25
    0 0.000000 0.000000 -0.042970 0.000000 0.000000 -0.000029
    1 8.213061 3.988003 -6.016337 -0.149965 -1.612726 -0.045697
    2 -0.071918 -8.498688 -0.104136 0.138424 0.288515 0.012480
    3 -2.047026 -2.271449 0.012398 0.054749 -0.245819 -0.015179
    4 3.423495 -1.665627 0.000000 -0.000005 0.000000 -3.141592
    5 4.039898 -4.447696 0.000000 0.000002 0.000000 3.141592
    6 4.734380 -3.434518 0.622250 -3.141592 0.000000 -1.570796
    7 1.257180 8.762585 -0.153713 -1.570562 0.002683 -1.566807
    8 -0.488518 -2.755602 -0.228260 -0.871614 -0.202562 -0.209541
    9 0.039887 -1.479790 0.029854 -2.058952 0.000000 0.000001
    10 0.028786 -1.075731 -0.023109 -0.606336 0.000000 0.000000
    11 0.250027 -2.820665 -0.238396 -0.797118 -0.167517 -0.114938
    12 -0.049759 -1.680544 0.100479 -1.934764 0.000000 -0.000002
    13 -0.034142 -1.148312 0.084782 -0.925898 0.000000 0.000000
    14 0.957766 -2.746780 -0.090302 0.005849 -0.162684 0.097910
    15 -0.033420 -1.397129 -0.011257 -0.782791 0.000000 -0.000001
    16 -0.022360 -0.957436 0.018784 -0.975515 0.000000 0.000000
    17 -1.180681 -2.507217 -0.193859 -0.671429 -0.081516 -0.261329
    18 -0.024967 -1.123934 0.017597 -2.056303 0.000000 0.000001
    19 -0.020057 -0.890968 0.010090 -0.677834 0.000000 0.000000
    20 0.583510 -1.197277 0.185379 0.180209 -0.812077 -1.291294
    21 1.535927 0.010246 0.005009 -0.002964 -0.012979 -0.506650
    22 1.100771 0.004527 -0.010679 -0.015488 -0.004784 -1.694062
    23 0.120153 -0.050270 -0.054489 0.287569 3.110905 1.561085
    24 0.178464 -8.153224 -10.271128 -1.766634 -5.321370 -1.065164
    25 0.096944 -8.450418 -0.009365 0.526373 -1.145406 -0.075759
    26 0.447953 -2.798986 -0.200443 -0.040272 -0.341746 -0.192844
    27 -0.032909 -1.480204 0.004940 -0.118334 0.000000 0.000002
    28 -0.027022 -1.076920 -0.020210 -0.581967 0.000000 0.000000
    29 -0.249534 -2.846964 -0.174213 0.217672 -0.180193 -0.283478
    30 0.043235 -1.683941 0.096012 -0.000111 0.002823 -0.000167
    31 0.031729 -1.160830 0.058838 -1.181279 0.000642 0.008372
    32 -0.963866 -2.785145 -0.085350 0.311679 0.369681 -0.496995
    33 0.028479 -1.403067 0.006271 -0.175176 -0.305236 0.172051
    34 0.021413 -0.957781 0.020046 -0.738192 0.000000 0.000000
    35 1.164475 -2.543940 -0.170330 -0.927423 -0.422062 -0.157700
    36 0.024032 -1.129042 0.017807 -0.709851 0.000000 0.000001
    37 0.014898 -0.883989 -0.019848 -0.845482 0.000000 0.000000
    38 -0.586770 -1.264477 0.200161 0.013123 -0.080121 -2.491297
    39 1.522835 0.058681 0.016848 0.001410 0.008985 0.411553
    40 1.117947 0.048424 -0.005766 -0.016890 -0.018702 0.790664
    41 -0.139399 -0.111698 0.014397 0.653645 -0.030687 1.580508
    42 -1.393470 8.839177 -0.239433 1.580804 -0.005023 -1.566847
  time 26
    0 0.000000 0.000000 0.000000 0.000000 0.000000 -0.000029
    1 8.213061 3.988003 -6.016337 -0.149965 -1.612726 -0.045697
    2 -0.071918 -8.498688 -0.104136 0.142229 0.286731 0.025841
    3 -2.047026 -2.271449 0.012398 0.054749 -0.245819 -0.015179
    4 3.423495 -1.665627 0.000000 -0.000005 0.000000 -3.141592
    5 4.039898 -4.447696 0.000000 0.000002 0.000000 3.141592
    6 4.734380 -3.434518 0.622250 -3.141592 0.000000 -1.570796
    7 1.257180 8.762585 -0.153713 -1.570562 0.002683 -1.566807
    8 -0.488518 -2.755602 -0.228260 -0.871614 -0.202562 -0.209541
    9 0.039887 -1.479790 0.029854 -2.058952 0.000000 0.000001
    10 0.028786 -1.075731 -0.023109 -0.606336 0.000000 0.000000
    11 0.250027 -2.820665 -0.238396 -0.797118 -0.167517 -0.114938
    12 -0.049759 -1.680544 0.100479 -1.934764 0.000000 -0.000002
    13 -0.034142 -1.148312 0.084782 -0.925898 0.000000 0.000000
    14 0.957766 -2.746780 -0.090302 0.005849 -0.162684 0.097910
    15 -0.033420 -1.397129 -0.011257 -0.705293 0.000000 -0.000001
    16 -0.022360 -0.957436 0.018784 -0.975515 0.000000 0.000000
    17 -1.180681 -2.507217 -0.193859 -0.671429 -0.081516 -0.261329
    18 -0.024967 -1.123934 0.017597 -2.056303 0.000000 0.000001
    19 -0.020057 -0.890968 0.010090 -0.677834 0.000000 0.000000
    20 0.583510 -1.197277 0.185379 0.180209 -0.812077 -1.291294
    21 1.535927 0.010246 0.005009 -0.002964 -0.012979 -0.506650
    22 1.100771 0.004527 -0.010679 -0.015488 -0.004784 -1.694062
    23 0.120153 -0.050270 -0.054489 0.287569 3.110905 1.561085
    24 0.178464 -8.153224 -10.196907 -1.766634 -5.321370 -1.065164
    25 0.096944 -8.450418 -0.009365 0.502045 -1.145406 -0.075759
    26 0.447953 -2.798986 -0.200443 -0.040272 -0.341746 -0.192844
    27 -0.032909 -1.480204 0.004940 -0.118334 0.000000 0.000002
    28 -0.027022 -1.076920 -0.020210 -0.581967 0.000000 0.000000
    29 -0.249534 -2.846964 -0.174213 0.217672 -0.180193 -0.283478
    30 0.043235 -1.683941 0.096012 -0.000111 0.002823 -0.000167
    31 0.031729 -1.160830 0.058838 -1.181279 0.000642 0.008372
    32 -0.963866 -2.785145 -0.085350 0.311679 0.369681 -0.496995
    33 0.028479 -1.403067 0.006271 -0.175176 -0.305236 0.172051
    34 0.021413 -0.957781 0.020046 -0.738192 0.000000 0.000000
    35 1.164475 -2.543940 -0.170330 -0.927423 -0.422062 -0.157700
    36 0.024032 -1.129042 0.017807 -0.709851 0.000000 0.000001
    37 0.014898 -0.883989 -0.019848 -0.845482 0.000000 0.000000
    38 -0.586770 -1.264477 0.200161 0.013123 -0.080121 -2.491297
    39 1.522835 0.058681 0.016848 0.001410 0.008985 0.411553
    40 1.117947 0.048424 -0.005766 -0.016890 -0.018702 0.790664
    41 -0.139399 -0.111698 0.014397 0.653645 -0.030687 1.580508
    42 -1.393470 8.839177 -0.239433 1.580804 -0.005023 -1.566847
  time 27
    0 0.000000 0.000000 0.000000 0.000000 0.000000 -0.000029
    1 8.213061 3.988003 -6.016337 -0.149965 -1.612726 -0.045697
    2 -0.071918 -8.498688 -0.104136 0.145712 0.285097 0.038086
    3 -2.047026 -2.271449 0.012398 0.054749 -0.245819 -0.015179
    4 3.423495 -1.665627 0.000000 -0.000005 0.000000 -3.141592
    5 4.039898 -4.447696 0.000000 0.000002 0.000000 3.141592
    6 4.734380 -3.434518 0.622250 -3.141592 0.000000 -1.570796
    7 1.257180 8.762585 -0.153713 -1.570562 0.002683 -1.566807
    8 -0.488518 -2.755602 -0.228260 -0.871614 -0.202562 -0.209541
    9 0.039887 -1.479790 0.029854 -2.058952 0.000000 0.000001
    10 0.028786 -1.075731 -0.023109 -0.606336 0.000000 0.000000
    11 0.250027 -2.820665 -0.238396 -0.797118 -0.167517 -0.114938
    12 -0.049759 -1.680544 0.100479 -1.934764 0.000000 -0.000002
    13 -0.034142 -1.148312 0.084782 -0.925898 0.000000 0.000000
    14 0.957766 -2.746780 -0.090302 0.005849 -0.162684 0.097910
    15 -0.033420 -1.397129 -0.011257 -0.634094 0.000000 -0.000001
    16 -0.022360 -0.957436 0.018784 -0.975515 0.000000 0.000000
    17 -1.180681 -2.507217 -0.193859 -0.671429 -0.081516 -0.261329
    18 -0.024967 -1.123934 0.017597 -2.056303 0.000000 0.000001
    19 -0.020057 -0.890968 0.010090 -0.677834 0.000000 0.000000
    20 0.583510 -1.197277 0.185379 0.180209 -0.812077 -1.291294
    21 1.535927 0.010246 0.005009 -0.002964 -0.012979 -0.506650
    22 1.100771 0.004527 -0.010679 -0.015488 -0.004784 -1.694062
    23 0.120153 -0.050270 -0.054489 0.287569 3.110905 1.561085
    24 0.178464 -8.153224 -10.134405 -1.766634 -5.321370 -1.065164
    25 0.096944 -8.450418 -0.009365 0.470479 -1.145406 -0.075759
    26 0.447953 -2.798986 -0.200443 -0.040272 -0.341746 -0.192844
    27 -0.032909 -1.480204 0.004940 -0.118334 0.000000 0.000002
    28 -0.027022 -1.076920 -0.020210 -0.581967 0.000000 0.000000
    29 -0.249534 -2.846964 -0.174213 0.217672 -0.180193 -0.283478
    30 0.043235 -1.683941 0.096012 -0.000111 0.002823 -0.000167
    31 0.031729 -1.160830 0.058838 -1.181279 0.000642 0.008372
    32 -0.963866 -2.785145 -0.085350 0.311679 0.369681 -0.496995
    33 0.028479 -1.403067 0.006271 -0.175176 -0.305236 0.172051
    34 0.021413 -0.957781 0.020046 -0.738192 0.000000 0.000000
    35 1.164475 -2.543940 -0.170330 -0.927423 -0.422062 -0.157700
    36 0.024032 -1.129042 0.017807 -0.709851 0.000000 0.000001
    37 0.014898 -0.883989 -0.019848 -0.845482 0.000000 0.000000
    38 -0.586770 -1.264477 0.200161 0.013123 -0.080121 -2.491297
    39 1.522835 0.058681 0.016848 0.001410 0.008985 0.411553
    40 1.117947 0.048424 -0.005766 -0.016890 -0.018702 0.790664
    41 -0.139399 -0.111698 0.014397 0.653645 -0.030687 1.580508
    42 -1.393470 8.839177 -0.239433 1.580804 -0.005023 -1.566847
  time 28
    0 0.000000 0.000000 0.000000 0.000000 0.000000 -0.000029
    1 8.213061 3.988003 -6.016337 -0.149965 -1.612726 -0.045697
    2 -0.071918 -8.498688 -0.104136 0.148586 0.283740 0.048194
    3 -2.047026 -2.271449 0.012398 0.054749 -0.245819 -0.015179
    4 3.423495 -1.665627 0.000000 -0.000005 0.000000 -3.141592
    5 4.039898 -4.447696 0.000000 0.000002 0.000000 3.141592
    6 4.734380 -3.434518 0.622250 -3.141592 0.000000 -1.570796
    7 1.257180 8.762585 -0.153713 -1.570562 0.002683 -1.566807
    8 -0.488518 -2.755602 -0.228260 -0.871614 -0.202562 -0.209541
    9 0.039887 -1.479790 0.029854 -2.058952 0.000000 0.000001
    10 0.028786 -1.075731 -0.023109 -0.606336 0.000000 0.000000
    11 0.250027 -2.820665 -0.238396 -0.797118 -0.167517 -0.114938
    12 -0.049759 -1.680544 0.100479 -1.934764 0.000000 -0.000002
    13 -0.034142 -1.148312 0.084782 -0.925898 0.000000 0.000000
    14 0.957766 -2.746780 -0.090302 0.005849 -0.162684 0.097910
    15 -0.033420 -1.397129 -0.011257 -0.575462 0.000000 -0.000001
    16 -0.022360 -0.957436 0.018784 -0.975515 0.000000 0.000000
    17 -1.180681 -2.507217 -0.193859 -0.671429 -0.081516 -0.261329
    18 -0.024967 -1.123934 0.017597 -2.056303 0.000000 0.000001
    19 -0.020057 -0.890968 0.010090 -0.677834 0.000000 0.000000
    20 0.583510 -1.197277 0.185379 0.180209 -0.812077 -1.291294
    21 1.535927 0.010246 0.005009 -0.002964 -0.012979 -0.506650
    22 1.100771 0.004527 -0.010679 -0.015488 -0.004784 -1.694062
    23 0.120153 -0.050270 -0.054489 0.287569 3.110905 1.561085
    24 0.178464 -8.153224 -10.083622 -1.766634 -5.321370 -1.065164
    25 0.096944 -8.450418 -0.009365 0.438863 -1.145406 -0.075759
    26 0.447953 -2.798986 -0.200443 -0.040272 -0.341746 -0.192844
    27 -0.032909 -1.480204 0.004940 -0.118334 0.000000 0.000002
    28 -0.027022 -1.076920 -0.020210 -0.581967 0.000000 0.000000
    29 -0.249534 -2.846964 -0.174213 0.217672 -0.180193 -0.283478
    30 0.043235 -1.683941 0.096012 -0.000111 0.002823 -0.000167
    31 0.031729 -1.160830 0.058838 -1.181279 0.000642 0.008372
    32 -0.963866 -2.785145 -0.085350 0.311679 0.369681 -0.496995
    33 0.028479 -1.403067 0.006271 -0.175176 -0.305236 0.172051
    34 0.021413 -0.957781 0.020046 -0.738192 0.000000 0.000000
    35 1.164475 -2.543940 -0.170330 -0.927423 -0.422062 -0.157700
    36 0.024032 -1.129042 0.017807 -0.709851 0.000000 0.000001
    37 0.014898 -0.883989 -0.019848 -0.845482 0.000000 0.000000
    38 -0.586770 -1.264477 0.200161 0.013123 -0.080121 -2.491297
    39 1.522835 0.058681 0.016848 0.001410 0.008985 0.411553
    40 1.117947 0.048424 -0.005766 -0.016890 -0.018702 0.790664
    41 -0.139399 -0.111698 0.014397 0.653645 -0.030687 1.580508
    42 -1.393470 8.839177 -0.239433 1.580804 -0.005023 -1.566847
  time 29
    0 0.000000 0.000000 0.000000 0.000000 0.000000 -0.000029
    1 8.213061 3.988003 -6.016337 -0.149965 -1.612726 -0.045697
    2 -0.071918 -8.498688 -0.104136 0.150545 0.282835 0.055049
    3 -2.047026 -2.271449 0.012398 0.054749 -0.245819 -0.015179
    4 3.423495 -1.665627 0.000000 -0.000005 0.000000 -3.141592
    5 4.039898 -4.447696 0.000000 0.000002 0.000000 3.141592
    6 4.734380 -3.434518 0.622250 -3.141592 0.000000 -1.570796
    7 1.257180 8.762585 -0.153713 -1.570562 0.002683 -1.566807
    8 -0.488518 -2.755602 -0.228260 -0.871614 -0.202562 -0.209541
    9 0.039887 -1.479790 0.029854 -2.058952 0.000000 0.000001
    10 0.028786 -1.075731 -0.023109 -0.606336 0.000000 0.000000
    11 0.250027 -2.820665 -0.238396 -0.797118 -0.167517 -0.114938
    12 -0.049759 -1.680544 0.100479 -1.934764 0.000000 -0.000002
    13 -0.034142 -1.148312 0.084782 -0.925898 0.000000 0.000000
    14 0.957766 -2.746780 -0.090302 0.005849 -0.162684 0.097910
    15 -0.033420 -1.397129 -0.011257 -0.535663 0.000000 -0.000001
    16 -0.022360 -0.957436 0.018784 -0.975515 0.000000 0.000000
    17 -1.180681 -2.507217 -0.193859 -0.671429 -0.081516 -0.261329
    18 -0.024967 -1.123934 0.017597 -2.056303 0.000000 0.000001
    19 -0.020057 -0.890968 0.010090 -0.677834 0.000000 0.000000
    20 0.583510 -1.197277 0.185379 0.180209 -0.812077 -1.291294
    21 1.535927 0.010246 0.005009 -0.002964 -0.012979 -0.506650
    22 1.100771 0.004527 -0.010679 -0.015488 -0.004784 -1.694062
    23 0.120153 -0.050270 -0.054489 0.287569 3.110905 1.561085
    24 0.178464 -8.153224 -10.048465 -1.766634 -5.321370 -1.065164
    25 0.096944 -8.450418 -0.009365 0.414535 -1.145406 -0.075759
    26 0.447953 -2.798986 -0.200443 -0.040272 -0.341746 -0.192844
    27 -0.032909 -1.480204 0.004940 -0.118334 0.000000 0.000002
    28 -0.027022 -1.076920 -0.020210 -0.581967 0.000000 0.000000
    29 -0.249534 -2.846964 -0.174213 0.217672 -0.180193 -0.283478
    30 0.043235 -1.683941 0.096012 -0.000111 0.002823 -0.000167
    31 0.031729 -1.160830 0.058838 -1.181279 0.000642 0.008372
    32 -0.963866 -2.785145 -0.085350 0.311679 0.369681 -0.496995
    33 0.028479 -1.403067 0.006271 -0.175176 -0.305236 0.172051
    34 0.021413 -0.957781 0.020046 -0.738192 0.000000 0.000000
    35 1.164475 -2.543940 -0.170330 -0.927423 -0.422062 -0.157700
    36 0.024032 -1.129042 0.017807 -0.709851 0.000000 0.000001
    37 0.014898 -0.883989 -0.019848 -0.845482 0.000000 0.000000
    38 -0.586770 -1.264477 0.200161 0.013123 -0.080121 -2.491297
    39 1.522835 0.058681 0.016848 0.001410 0.008985 0.411553
    40 1.117947 0.048424 -0.005766 -0.016890 -0.018702 0.790664
    41 -0.139399 -0.111698 0.014397 0.653645 -0.030687 1.580508
    42 -1.393470 8.839177 -0.239433 1.580804 -0.005023 -1.566847
  time 30
    0 0.000000 0.000000 0.000000 0.000000 0.000000 -0.000029
    1 8.213061 3.988003 -6.016337 -0.149965 -1.612726 -0.045697
    2 -0.071918 -8.498688 -0.104136 0.151251 0.282508 0.057557
    3 -2.047026 -2.271449 0.012398 0.054749 -0.245819 -0.015179
    4 3.423495 -1.665627 0.000000 -0.000005 0.000000 -3.141592
    5 4.039898 -4.447696 0.000000 0.000002 0.000000 3.141592
    6 4.734380 -3.434518 0.622250 -3.141592 0.000000 -1.570796
    7 1.257180 8.762585 -0.153713 -1.570562 0.002683 -1.566807
    8 -0.488518 -2.755602 -0.228260 -0.871614 -0.202562 -0.209541
    9 0.039887 -1.479790 0.029854 -2.058952 0.000000 0.000001
    10 0.028786 -1.075731 -0.023109 -0.606336 0.000000 0.000000
    11 0.250027 -2.820665 -0.238396 -0.797118 -0.167517 -0.114938
    12 -0.049759 -1.680544 0.100479 -1.934764 0.000000 -0.000002
    13 -0.034142 -1.148312 0.084782 -0.925898 0.000000 0.000000
    14 0.957766 -2.746780 -0.090302 0.005849 -0.162684 0.097910
    15 -0.033420 -1.397129 -0.011257 -0.520997 0.000000 -0.000001
    16 -0.022360 -0.957436 0.018784 -0.975515 0.000000 0.000000
    17 -1.180681 -2.507217 -0.193859 -0.671429 -0.081516 -0.261329
    18 -0.024967 -1.123934 0.017597 -2.056303 0.000000 0.000001
    19 -0.020057 -0.890968 0.010090 -0.677834 0.000000 0.000000
    20 0.583510 -1.197277 0.185379 0.180209 -0.812077 -1.291294
    21 1.535927 0.010246 0.005009 -0.002964 -0.012979 -0.506650
    22 1.100771 0.004527 -0.010679 -0.015488 -0.004784 -1.694062
    23 0.120153 -0.050270 -0.054489 0.287569 3.110905 1.561085
    24 0.178464 -8.153224 -10.036746 -1.766634 -5.321370 -1.065164
    25 0.096944 -8.450418 -0.009365 0.404834 -1.145406 -0.075759
    26 0.447953 -2.798986 -0.200443 -0.040272 -0.341746 -0.192844
    27 -0.032909 -1.480204 0.004940 -0.118334 0.000000 0.000002
    28 -0.027022 -1.076920 -0.020210 -0.581967 0.000000 0.000000
    29 -0.249534 -2.846964 -0.174213 0.217672 -0.180193 -0.283478
    30 0.043235 -1.683941 0.096012 -0.000111 0.002823 -0.000167
    31 0.031729 -1.160830 0.058838 -1.181279 0.000642 0.008372
    32 -0.963866 -2.785145 -0.085350 0.311679 0.369681 -0.496995
    33 0.028479 -1.403067 0.006271 -0.175176 -0.305236 0.172051
    34 0.021413 -0.957781 0.020046 -0.738192 0.000000 0.000000
    35 1.164475 -2.543940 -0.170330 -0.927423 -0.422062 -0.157700
    36 0.024032 -1.129042 0.017807 -0.709851 0.000000 0.000001
    37 0.014898 -0.883989 -0.019848 -0.845482 0.000000 0.000000
    38 -0.586770 -1.264477 0.200161 0.013123 -0.080121 -2.491297
    39 1.522835 0.058681 0.016848 0.001410 0.008985 0.411553
    40 1.117947 0.048424 -0.005766 -0.016890 -0.018702 0.790664
    41 -0.139399 -0.111698 0.014397 0.653645 -0.030687 1.580508
    42 -1.393470 8.839177 -0.239433 1.580804 -0.005023 -1.566847
end
