version 1
nodes
  0 "Bip01 L Forearm" -1
  1 "Bip01 L Hand" 0
  2 "Bone_QBB95" 1
  3 "Bone_Magazine" 2
  4 "Bone_Magazine_Clip" 2
  5 "Bone_Trigger" 2
  6 "Bone_Bullet_Case" 2
  7 "Bone_Bullet_Clip" 2
  8 "Bip01 L Finger0" 1
  9 "Bip01 L Finger01" 8
  10 "Bip01 L Finger02" 9
  11 "Bip01 L Finger1" 1
  12 "Bip01 L Finger11" 11
  13 "Bip01 L Finger12" 12
  14 "Bip01 L Finger2" 1
  15 "Bip01 L Finger21" 14
  16 "Bip01 L Finger22" 15
  17 "Bip01 L Finger3" 1
  18 "Bip01 L Finger31" 17
  19 "Bip01 L Finger32" 18
  20 "Bip01 L Finger4" 1
  21 "Bip01 L Finger41" 20
  22 "Bip01 L Finger42" 21
  23 "Bone_Se_Hand-L" 1
  24 "Bip01 L ForeTwist2" 0
  25 "Bip01 R Forearm" -1
  26 "Bip01 R Hand" 25
  27 "Bip01 R Finger0" 26
  28 "Bip01 R Finger01" 27
  29 "Bip01 R Finger02" 28
  30 "Bip01 R Finger1" 26
  31 "Bip01 R Finger11" 30
  32 "Bip01 R Finger12" 31
  33 "Bip01 R Finger2" 26
  34 "Bip01 R Finger21" 33
  35 "Bip01 R Finger22" 34
  36 "Bip01 R Finger3" 26
  37 "Bip01 R Finger31" 36
  38 "Bip01 R Finger32" 37
  39 "Bip01 R Finger4" 26
  40 "Bip01 R Finger41" 39
  41 "Bip01 R Finger42" 40
  42 "Bone_Se_Hand-R" 26
  43 "Bip01 R ForeTwist2" 25
end
skeleton
  time 0
    0 13.173165 0.034845 -7.997090 -0.701448 -0.103078 -2.518491
    1 8.499673 0.000000 0.000000 -2.358931 -0.557301 0.621946
    2 2.590253 0.798589 -0.347197 0.168992 -3.019792 1.443836
    3 1.276065 4.913687 -1.756443 0.000000 0.000000 0.000000
    4 0.000001 6.776258 1.709932 0.000000 0.000000 0.000000
    5 0.000000 -2.155090 2.277096 0.000000 0.000000 0.000000
    6 -0.531231 4.631601 3.001893 0.000000 0.000000 0.000000
    7 0.000000 -2.782812 4.273781 0.000000 0.000000 0.000000
    8 1.066141 0.161471 -0.665475 2.484768 0.749569 0.986721
    9 1.535968 -0.000001 0.000001 0.000000 0.000000 1.180468
    10 1.100831 0.000000 0.000000 0.000000 0.000000 0.433641
    11 2.725985 -0.106123 -1.020465 -0.052019 0.107536 -0.014378
    12 1.397574 0.000001 0.000001 0.000000 0.000000 0.193561
    13 0.957879 0.000000 0.000000 0.000000 0.000000 0.641297
    14 2.818702 -0.176450 -0.444443 -0.118789 0.036080 0.644560
    15 1.684281 0.000000 0.000000 0.000000 0.000000 1.861645
    16 1.151941 0.000000 0.000001 0.000000 0.000000 1.141487
    17 2.804605 -0.069563 0.290472 -0.211325 0.071354 0.840695
    18 1.480629 0.000000 0.000000 0.000000 0.000000 1.698687
    19 1.076366 0.000000 0.000000 0.000000 0.000000 0.748916
    20 2.637186 0.041571 0.929335 -0.346527 0.088471 0.924980
    21 1.124349 -0.000002 0.000000 0.000000 0.000000 1.346295
    22 0.891247 0.000001 0.000000 0.000000 0.000000 0.984495
    23 0.050302 -0.068010 -0.113033 1.724535 0.010837 0.011384
    24 2.428478 0.000000 0.000000 -0.243739 0.000000 0.000000
    25 -0.995296 -8.307009 -11.563448 -1.205026 -0.767058 -6.945535
    26 8.499673 0.000001 0.000000 2.417315 0.359180 0.501180
    27 1.066141 0.161471 0.665475 -2.170798 -0.946985 0.854373
    28 1.535968 -0.000001 0.000000 0.000000 0.000000 0.676951
    29 1.100830 -0.000001 0.000000 0.000000 0.000000 0.413347
    30 2.725985 -0.106123 1.020465 -0.033425 -0.053085 0.395659
    31 1.397574 0.000001 -0.000001 0.000000 0.000000 1.132799
    32 0.957878 0.000000 0.000000 0.000000 0.000000 0.541011
    33 2.818702 -0.176451 0.444443 0.119850 0.134871 0.640665
    34 1.684282 -0.000002 0.000000 0.000000 0.000000 1.240576
    35 1.151941 0.000000 -0.000001 0.000000 0.000000 1.239975
    36 2.804606 -0.069564 -0.290472 0.214145 0.097683 1.016406
    37 1.480629 0.000001 -0.000001 0.000000 0.000000 1.179371
    38 1.076367 0.000000 0.000000 0.000000 0.000000 1.048828
    39 2.637187 0.041571 -0.929335 0.296629 0.280618 0.784672
    40 1.124349 0.000001 0.000000 0.000000 0.000000 1.636871
    41 0.891247 0.000001 0.000000 0.000000 0.000000 1.427882
    42 0.128431 -0.294579 0.144269 -1.544453 3.090453 0.394401
    43 2.428478 0.000000 0.000000 0.292814 0.000000 0.000000
  time 1
    0 13.173165 0.034845 -7.997090 -0.701448 -0.103078 -2.518491
    1 8.499673 0.000000 0.000000 -2.358931 -0.557301 0.621946
    2 2.590253 0.798589 -0.347197 0.168992 -3.019792 1.443836
    3 1.276065 4.913687 -1.756443 0.000000 0.000000 0.000000
    4 0.000001 6.776258 1.709932 0.000000 0.000000 0.000000
    5 0.000000 -2.155090 2.277096 0.000000 0.000000 0.000000
    6 -0.531231 4.631601 3.001893 0.000000 0.000000 0.000000
    7 0.000000 -2.782812 4.273781 0.000000 0.000000 0.000000
    8 1.066141 0.161471 -0.665475 2.484768 0.749569 0.986721
    9 1.535968 -0.000001 0.000001 0.000000 0.000000 1.180468
    10 1.100831 0.000000 0.000000 0.000000 0.000000 0.433641
    11 2.725985 -0.106123 -1.020465 -0.052019 0.107536 -0.014378
    12 1.397574 0.000001 0.000001 0.000000 0.000000 0.193561
    13 0.957879 0.000000 0.000000 0.000000 0.000000 0.641297
    14 2.818702 -0.176450 -0.444443 -0.118789 0.036080 0.644560
    15 1.684281 0.000000 0.000000 0.000000 0.000000 1.861645
    16 1.151941 0.000000 0.000001 0.000000 0.000000 1.141487
    17 2.804605 -0.069563 0.290472 -0.211325 0.071354 0.840695
    18 1.480629 0.000000 0.000000 0.000000 0.000000 1.698687
    19 1.076366 0.000000 0.000000 0.000000 0.000000 0.748916
    20 2.637186 0.041571 0.929335 -0.346527 0.088471 0.924980
    21 1.124349 -0.000002 0.000000 0.000000 0.000000 1.346295
    22 0.891247 0.000001 0.000000 0.000000 0.000000 0.984495
    23 0.050302 -0.068010 -0.113033 1.724535 0.010837 0.011384
    24 2.428478 0.000000 0.000000 -0.243739 0.000000 0.000000
    25 -0.995296 -8.307009 -11.563448 -1.205026 -0.767058 -6.945535
    26 8.499673 0.000001 0.000000 2.417315 0.359180 0.501180
    27 1.066141 0.161471 0.665475 -2.170798 -0.946985 0.854373
    28 1.535968 -0.000001 0.000000 0.000000 0.000000 0.676951
    29 1.100830 -0.000001 0.000000 0.000000 0.000000 0.413347
    30 2.725985 -0.106123 1.020465 -0.033425 -0.053085 0.395659
    31 1.397574 0.000001 -0.000001 0.000000 0.000000 1.132799
    32 0.957878 0.000000 0.000000 0.000000 0.000000 0.541011
    33 2.818702 -0.176451 0.444443 0.119850 0.134871 0.640665
    34 1.684282 -0.000002 0.000000 0.000000 0.000000 1.240576
    35 1.151941 0.000000 -0.000001 0.000000 0.000000 1.239975
    36 2.804606 -0.069564 -0.290472 0.214145 0.097683 1.016406
    37 1.480629 0.000001 -0.000001 0.000000 0.000000 1.179371
    38 1.076367 0.000000 0.000000 0.000000 0.000000 1.048828
    39 2.637187 0.041571 -0.929335 0.296629 0.280618 0.784672
    40 1.124349 0.000001 0.000000 0.000000 0.000000 1.636871
    41 0.891247 0.000001 0.000000 0.000000 0.000000 1.427882
    42 0.128431 -0.294579 0.144269 -1.544453 3.090453 0.394401
    43 2.428478 0.000000 0.000000 0.292814 0.000000 0.000000
end
