// Created by Crowbar 0.34.0.0

$ModelName "weapons/tfa_cso/w_mp5g.mdl"

$BodyGroup "studio"
{
	studio "v_mp5g_f_mp5_gold_template"
}

$collisionmodel "v_mp5g_f_mp5_gold_template.smd"
{
	$mass 9
}

$CDMaterials "models\weapons\tfa_cso\mp5g"

$attachment "0" "root" 0.00 -9.00 0.30 rotate -0 0 0

$Sequence "idle" {
	"anims\idle.smd"
	fps 30
}