version 1
nodes
  0 "Bone01" -1
  1 "Bone_Lefthand" 0
  2 "NEXON_CSO_FNC_Root" 1
  3 "NEXON_CSO_FNC_Magazine" 2
  4 "NEXON_CSO_FNC_Spring_02" 2
  5 "NEXON_CSO_FNC_Spring_01" 2
  6 "NEXON_CSO_FNC_Trigger" 2
  7 "NEXON_CSO_FNC_Bullet" 2
  8 "NEXON_CSO_FNC_Plane" 2
  9 "NEXON_CSO_FNC_SP_door" 2
  10 "NEXON_CSO_FNC_Clip" 2
  11 "Bone04" -1
  12 "Bone_Righthand" 11
  13 "Bone27" 12
  14 "Bone28" 13
  15 "Bone29" 14
  16 "Bone31" 12
  17 "Bone32" 16
  18 "Bone33" 17
  19 "Bone35" 12
  20 "Bone36" 19
  21 "Bone37" 20
  22 "Bone39" 12
  23 "Bone40" 22
  24 "Bone41" 23
  25 "Bone43" 12
  26 "Bone44" 25
  27 "Bone45" 26
  28 "Bone_Se_Hand-R" 12
  29 "Bone05" 1
  30 "Bone06" 29
  31 "Bone07" 30
  32 "Bone21" 1
  33 "Bone22" 32
  34 "Bone23" 33
  35 "Bone17" 1
  36 "Bone18" 35
  37 "Bone19" 36
  38 "Bone13" 1
  39 "Bone14" 38
  40 "Bone15" 39
  41 "Bone09" 1
  42 "Bone10" 41
  43 "Bone11" 42
  44 "Bone_Se_Hand-L" 1
end
skeleton
  time 0
    0 8.529719 -0.692082 -4.812349 0.177229 -0.398720 -0.868447
    1 -0.071916 -8.498730 -0.104136 0.277019 -0.527038 -0.431516
    2 0.129975 -2.388487 0.824890 -1.502018 1.440634 -1.487710
    3 -0.008696 -4.578129 1.124703 0.000000 0.000000 0.000000
    4 -0.247827 -1.150955 4.199792 1.267838 0.042996 -1.585885
    5 -0.247888 -3.268787 4.200336 1.267395 -0.041456 -1.556630
    6 -0.000002 -1.794749 1.912829 0.000000 0.000000 0.000000
    7 -0.000005 -4.708170 3.700294 0.000000 0.000000 0.000000
    8 -0.296295 -3.818912 3.376961 0.000000 0.000000 0.000000
    9 -0.289972 -2.211739 4.013276 0.000000 0.306848 0.000000
    10 -0.000004 -18.231224 3.081039 0.000000 0.000000 0.000000
    11 0.992705 -2.578866 -5.950212 0.078938 2.605227 -1.150411
    12 0.096946 -8.450419 -0.009363 -0.314107 0.163976 0.132107
    13 -0.586769 -1.264477 0.200164 -0.117072 -0.380366 -2.521809
    14 1.522835 0.058680 0.016850 0.284474 0.059778 0.981952
    15 1.117947 0.048424 -0.005765 0.315938 -0.000348 0.456361
    16 -0.963867 -2.785143 -0.085346 -0.062154 0.014155 -0.048515
    17 0.028478 -1.403067 0.006272 -1.983656 0.039122 -0.060784
    18 0.021412 -0.957782 0.020047 -0.935101 -0.000003 -0.000008
    19 -0.249534 -2.846963 -0.174215 -0.386948 -0.074824 0.040458
    20 0.043235 -1.683940 0.096015 -2.370160 0.139945 -0.061888
    21 0.031729 -1.160830 0.058836 -0.480623 0.000000 0.000000
    22 0.447951 -2.798983 -0.200441 -0.573367 -0.001319 0.067349
    23 -0.032909 -1.480207 0.004935 -2.165302 0.000000 0.000000
    24 -0.027023 -1.076921 -0.020212 -0.547360 0.000000 0.000000
    25 1.164474 -2.543939 -0.170327 -0.760503 -0.097052 0.109088
    26 0.024033 -1.129040 0.017807 -1.479009 0.090496 -0.010104
    27 0.014896 -0.883992 -0.019846 -1.331652 0.000000 0.000000
    28 -0.127121 -0.120879 0.126943 0.062625 -0.123024 1.563852
    29 0.583509 -1.197274 0.185379 0.310502 -0.934076 -0.996676
    30 1.535926 0.010247 0.005009 -0.303061 0.037452 -0.923896
    31 1.100770 0.004528 -0.010675 -0.009995 -0.094546 -0.796770
    32 0.957766 -2.746777 -0.090301 -0.279592 -0.023091 0.102297
    33 -0.033419 -1.397128 -0.011255 -0.592000 -0.031987 -0.047195
    34 -0.022361 -0.957433 0.018783 -0.581830 0.000000 0.000000
    35 0.250029 -2.820664 -0.238396 -0.848862 -0.049350 -0.226558
    36 -0.049759 -1.680544 0.100479 -1.864034 0.000000 0.000000
    37 -0.034141 -1.148311 0.084779 -0.994530 0.000000 0.000000
    38 -0.488517 -2.755600 -0.228261 -1.058608 -0.055696 -0.251816
    39 0.039889 -1.479791 0.029854 -1.719486 0.000000 0.000000
    40 0.028785 -1.075733 -0.023110 -0.869091 0.000000 0.000000
    41 -1.180679 -2.507216 -0.193861 -0.771938 0.121797 -0.246379
    42 -0.024967 -1.123934 0.017595 -1.614968 0.000000 0.000000
    43 -0.020058 -0.890965 0.010091 -0.746271 0.011865 0.013351
    44 0.120180 -0.051600 -0.063059 0.012085 -2.987703 1.512552
  time 1
    0 8.392997 -0.656924 -4.921727 0.119800 -0.423929 -0.791430
    1 -0.071916 -8.498730 -0.104136 0.270823 -0.557208 -0.421252
    2 0.129975 -2.388487 0.824890 -1.502018 1.440634 -1.487710
    3 -0.008696 -4.578129 1.124703 0.000000 0.000000 0.000000
    4 -0.247827 -1.150955 4.199792 1.269420 0.060657 -1.592033
    5 -0.247888 -3.268787 4.200336 1.268797 -0.058207 -1.550854
    6 -0.000002 -1.794749 1.912829 0.000000 0.000000 0.000000
    7 -0.000005 -4.708170 3.700294 0.000000 0.000000 0.000000
    8 -0.296295 -3.818912 3.376961 0.000000 0.000000 0.000000
    9 -0.289972 -2.211739 4.005463 0.000000 0.304079 0.000000
    10 -0.000004 -18.231224 3.081039 0.000000 0.369773 0.000000
    11 0.836451 -2.688245 -6.040058 0.149024 2.462907 -0.986249
    12 0.096946 -8.450419 -0.009363 -0.308249 0.149485 0.127082
    13 -0.586769 -1.264477 0.200164 -0.110253 -0.402858 -2.542484
    14 1.522835 0.058680 0.016850 0.283007 0.032884 0.879496
    15 1.117947 0.048424 -0.005765 0.309969 0.002816 0.350186
    16 -0.963867 -2.785143 -0.085346 -0.025208 0.032587 -0.082215
    17 0.028478 -1.403067 0.006272 -1.807630 0.038883 -0.060832
    18 0.021412 -0.957782 0.020047 -0.935101 -0.000003 -0.000008
    19 -0.249534 -2.846963 -0.174215 -0.387574 -0.074800 0.040494
    20 0.043235 -1.683940 0.096015 -2.370160 0.139945 -0.061888
    21 0.031729 -1.160830 0.058836 -0.480623 0.000000 0.000000
    22 0.447951 -2.798983 -0.200441 -0.573367 -0.001319 0.067349
    23 -0.032909 -1.480207 0.004935 -2.165302 0.000000 0.000000
    24 -0.027023 -1.076921 -0.020212 -0.547360 0.000000 0.000000
    25 1.164474 -2.543939 -0.170327 -0.760503 -0.097052 0.109088
    26 0.024033 -1.129040 0.017807 -1.479009 0.090496 -0.010104
    27 0.014896 -0.883992 -0.019846 -1.331652 0.000000 0.000000
    28 -0.131028 -0.120879 0.126943 0.063140 -0.126379 1.568214
    29 0.583509 -1.197274 0.185379 0.310502 -0.934076 -0.996676
    30 1.535926 0.010247 0.005009 -0.303061 0.037452 -0.923896
    31 1.100770 0.004528 -0.010675 -0.009995 -0.094546 -0.796770
    32 0.957766 -2.746777 -0.090301 -0.279592 -0.023091 0.102297
    33 -0.033419 -1.397128 -0.011255 -0.592000 -0.031987 -0.047195
    34 -0.022361 -0.957433 0.018783 -0.581830 0.000000 0.000000
    35 0.250029 -2.820664 -0.238396 -0.848862 -0.049350 -0.226558
    36 -0.049759 -1.680544 0.100479 -1.864034 0.000000 0.000000
    37 -0.034141 -1.148311 0.084779 -0.994530 0.000000 0.000000
    38 -0.488517 -2.755600 -0.228261 -1.058608 -0.055696 -0.251816
    39 0.039889 -1.479791 0.029854 -1.719486 0.000000 0.000000
    40 0.028785 -1.075733 -0.023110 -0.869091 0.000000 0.000000
    41 -1.180679 -2.507216 -0.193861 -0.771938 0.121797 -0.246379
    42 -0.024967 -1.123934 0.017595 -1.614968 0.000000 0.000000
    43 -0.020058 -0.890965 0.010091 -0.746271 0.011865 0.013351
    44 0.120180 -0.051600 -0.063059 0.012085 -2.987703 1.512552
  time 2
    0 8.029704 -0.555359 -5.226424 0.058274 -0.445525 -0.709397
    1 -0.071916 -8.498730 -0.104136 0.253649 -0.636447 -0.394142
    2 0.129975 -2.388487 0.824890 -1.502018 1.440634 -1.487710
    3 -0.008696 -4.578129 1.124703 0.000000 0.000000 0.000000
    4 -0.247827 -1.150955 4.199792 1.273447 0.105619 -1.607697
    5 -0.247888 -3.268787 4.200336 1.272368 -0.100835 -1.536173
    6 -0.000002 -1.794749 1.912829 0.000000 0.000000 0.000000
    7 -0.000005 -4.708170 3.700294 0.000000 0.000000 0.000000
    8 -0.296295 -3.818912 3.376961 0.000000 0.000000 0.000000
    9 -0.297785 -2.211739 3.989838 0.000000 0.297044 0.000000
    10 -0.000004 -18.231224 3.081039 0.000000 0.677388 0.000000
    11 0.445814 -2.961691 -6.266627 0.264100 2.329093 -0.781066
    12 0.096946 -8.450419 -0.009363 -0.293499 0.113239 0.114540
    13 -0.586769 -1.264477 0.200164 -0.101684 -0.428505 -2.566697
    14 1.522835 0.058680 0.016850 0.284768 0.002060 0.762242
    15 1.117947 0.048424 -0.005765 0.303162 0.005765 0.228624
    16 -0.963867 -2.785143 -0.085346 0.016340 0.055214 -0.119955
    17 0.028478 -1.403067 0.006272 -1.605934 0.038607 -0.060952
    18 0.021412 -0.957782 0.020047 -0.935101 -0.000003 -0.000008
    19 -0.249534 -2.846963 -0.174215 -0.389685 -0.074716 0.040662
    20 0.043235 -1.683940 0.096015 -2.370160 0.139945 -0.061888
    21 0.031729 -1.160830 0.058836 -0.480623 0.000000 0.000000
    22 0.447951 -2.798983 -0.200441 -0.573367 -0.001319 0.067349
    23 -0.032909 -1.480207 0.004935 -2.165302 0.000000 0.000000
    24 -0.027023 -1.076921 -0.020212 -0.547360 0.000000 0.000000
    25 1.164474 -2.543939 -0.170327 -0.760503 -0.097052 0.109088
    26 0.024033 -1.129040 0.017807 -1.479009 0.090496 -0.010104
    27 0.014896 -0.883992 -0.019846 -1.331652 0.000000 0.000000
    28 -0.134934 -0.120879 0.126943 0.064399 -0.134685 1.579024
    29 0.583509 -1.197274 0.185379 0.310502 -0.934076 -0.996676
    30 1.535926 0.010247 0.005009 -0.303061 0.037452 -0.923896
    31 1.100770 0.004528 -0.010675 -0.009995 -0.094546 -0.796770
    32 0.957766 -2.746777 -0.090301 -0.279592 -0.023091 0.102297
    33 -0.033419 -1.397128 -0.011255 -0.592000 -0.031987 -0.047195
    34 -0.022361 -0.957433 0.018783 -0.581830 0.000000 0.000000
    35 0.250029 -2.820664 -0.238396 -0.848862 -0.049350 -0.226558
    36 -0.049759 -1.680544 0.100479 -1.864034 0.000000 0.000000
    37 -0.034141 -1.148311 0.084779 -0.994530 0.000000 0.000000
    38 -0.488517 -2.755600 -0.228261 -1.058608 -0.055696 -0.251816
    39 0.039889 -1.479791 0.029854 -1.719486 0.000000 0.000000
    40 0.028785 -1.075733 -0.023110 -0.869091 0.000000 0.000000
    41 -1.180679 -2.507216 -0.193861 -0.771938 0.121797 -0.246379
    42 -0.024967 -1.123934 0.017595 -1.614968 0.000000 0.000000
    43 -0.020058 -0.890965 0.010091 -0.746271 0.011865 0.013351
    44 0.120180 -0.051600 -0.063059 0.012085 -2.987703 1.512552
  time 3
    0 7.506251 -0.414729 -5.679563 -0.006358 -0.462659 -0.623945
    1 -0.071916 -8.498730 -0.104136 0.227702 -0.747818 -0.355771
    2 0.129975 -2.388487 0.824890 -1.502018 1.440634 -1.487710
    3 -0.008696 -4.578129 1.124703 0.000000 0.000000 0.000000
    4 -0.247827 -1.150955 4.199792 1.278840 0.165769 -1.628646
    5 -0.247888 -3.268787 4.200336 1.277138 -0.157909 -1.516506
    6 -0.000002 -1.794749 1.912829 0.000000 0.000000 0.000000
    7 -0.000005 -4.708170 3.700294 0.000000 0.000000 0.000000
    8 -0.296295 -3.818912 3.376961 0.000000 0.000000 0.000000
    9 -0.301691 -2.211739 3.970306 0.000000 0.287624 0.000000
    10 -0.000004 -18.231224 3.081039 0.000000 0.922805 0.000000
    11 -0.062014 -3.317170 -6.583043 0.439140 2.218219 -0.520218
    12 0.096946 -8.450419 -0.009363 -0.274345 0.066117 0.098229
    13 -0.586769 -1.264477 0.200164 -0.092336 -0.453957 -2.591461
    14 1.522835 0.058680 0.016850 0.290119 -0.028345 0.644930
    15 1.117947 0.048424 -0.005765 0.296067 0.007874 0.107062
    16 -0.963867 -2.785143 -0.085346 0.057054 0.079363 -0.156771
    17 0.028478 -1.403067 0.006272 -1.404237 0.038379 -0.061108
    18 0.021412 -0.957782 0.020047 -0.935101 -0.000003 -0.000008
    19 -0.249534 -2.846963 -0.174215 -0.392579 -0.074596 0.040877
    20 0.043235 -1.683940 0.096015 -2.370160 0.139945 -0.061888
    21 0.031729 -1.160830 0.058836 -0.480623 0.000000 0.000000
    22 0.447951 -2.798983 -0.200441 -0.573367 -0.001319 0.067349
    23 -0.032909 -1.480207 0.004935 -2.165302 0.000000 0.000000
    24 -0.027023 -1.076921 -0.020212 -0.547360 0.000000 0.000000
    25 1.164474 -2.543939 -0.170327 -0.760503 -0.097052 0.109088
    26 0.024033 -1.129040 0.017807 -1.479009 0.090496 -0.010104
    27 0.014896 -0.883992 -0.019846 -1.331652 0.000000 0.000000
    28 -0.142747 -0.116973 0.130849 0.065957 -0.145303 1.592866
    29 0.583509 -1.197274 0.185379 0.310502 -0.934076 -0.996676
    30 1.535926 0.010247 0.005009 -0.303061 0.037452 -0.923896
    31 1.100770 0.004528 -0.010675 -0.009995 -0.094546 -0.796770
    32 0.957766 -2.746777 -0.090301 -0.279592 -0.023091 0.102297
    33 -0.033419 -1.397128 -0.011255 -0.592000 -0.031987 -0.047195
    34 -0.022361 -0.957433 0.018783 -0.581830 0.000000 0.000000
    35 0.250029 -2.820664 -0.238396 -0.848862 -0.049350 -0.226558
    36 -0.049759 -1.680544 0.100479 -1.864034 0.000000 0.000000
    37 -0.034141 -1.148311 0.084779 -0.994530 0.000000 0.000000
    38 -0.488517 -2.755600 -0.228261 -1.058608 -0.055696 -0.251816
    39 0.039889 -1.479791 0.029854 -1.719486 0.000000 0.000000
    40 0.028785 -1.075733 -0.023110 -0.869091 0.000000 0.000000
    41 -1.180679 -2.507216 -0.193861 -0.771938 0.121797 -0.246379
    42 -0.024967 -1.123934 0.017595 -1.614968 0.000000 0.000000
    43 -0.020058 -0.890965 0.010091 -0.746271 0.011865 0.013351
    44 0.120180 -0.051600 -0.063059 0.012085 -2.987703 1.512552
  time 4
    0 6.881232 -0.246756 -6.230361 -0.072890 -0.474692 -0.536785
    1 -0.071916 -8.498730 -0.104136 0.195128 -0.874386 -0.311695
    2 0.129975 -2.388487 0.824890 -1.502018 1.440634 -1.487710
    3 -0.008696 -4.578129 1.124703 0.000000 0.000000 0.000000
    4 -0.247827 -1.150955 4.199792 1.284509 0.229098 -1.650697
    5 -0.247888 -3.268787 4.200336 1.282160 -0.217979 -1.495808
    6 -0.000002 -1.794749 1.912829 0.000000 0.000000 0.000000
    7 -0.000005 -4.708170 3.700294 0.000000 0.000000 0.000000
    8 -0.296295 -3.818912 3.376961 0.000000 0.000000 0.000000
    9 -0.309504 -2.211739 3.946867 0.000000 0.277713 0.000000
    10 -0.000004 -18.231224 3.081039 0.000000 1.106024 0.000000
    11 -0.569842 -3.672650 -6.934617 0.677025 2.147202 -0.201116
    12 0.096946 -8.450419 -0.009363 -0.255233 0.018995 0.081898
    13 -0.586769 -1.264477 0.200164 -0.083539 -0.475962 -2.613471
    14 1.522835 0.058680 0.016850 0.297629 -0.054208 0.542207
    15 1.117947 0.048424 -0.005765 0.289332 0.008857 0.000853
    16 -0.963867 -2.785143 -0.085346 0.091966 0.101642 -0.188183
    17 0.028478 -1.403067 0.006272 -1.228211 0.038200 -0.061288
    18 0.021412 -0.957782 0.020047 -0.935101 -0.000003 -0.000008
    19 -0.249534 -2.846963 -0.174215 -0.395472 -0.074477 0.041093
    20 0.043235 -1.683940 0.096015 -2.370160 0.139945 -0.061888
    21 0.031729 -1.160830 0.058836 -0.480623 0.000000 0.000000
    22 0.447951 -2.798983 -0.200441 -0.573367 -0.001319 0.067349
    23 -0.032909 -1.480207 0.004935 -2.165302 0.000000 0.000000
    24 -0.027023 -1.076921 -0.020212 -0.547360 0.000000 0.000000
    25 1.164474 -2.543939 -0.170327 -0.760503 -0.097052 0.109088
    26 0.024033 -1.129040 0.017807 -1.479009 0.090496 -0.010104
    27 0.014896 -0.883992 -0.019846 -1.331652 0.000000 0.000000
    28 -0.150560 -0.116973 0.130849 0.067443 -0.155586 1.606289
    29 0.583509 -1.197274 0.185379 0.310502 -0.934076 -0.996676
    30 1.535926 0.010247 0.005009 -0.303061 0.037452 -0.923896
    31 1.100770 0.004528 -0.010675 -0.009995 -0.094546 -0.796770
    32 0.957766 -2.746777 -0.090301 -0.279592 -0.023091 0.102297
    33 -0.033419 -1.397128 -0.011255 -0.592000 -0.031987 -0.047195
    34 -0.022361 -0.957433 0.018783 -0.581830 0.000000 0.000000
    35 0.250029 -2.820664 -0.238396 -0.848862 -0.049350 -0.226558
    36 -0.049759 -1.680544 0.100479 -1.864034 0.000000 0.000000
    37 -0.034141 -1.148311 0.084779 -0.994530 0.000000 0.000000
    38 -0.488517 -2.755600 -0.228261 -1.058608 -0.055696 -0.251816
    39 0.039889 -1.479791 0.029854 -1.719486 0.000000 0.000000
    40 0.028785 -1.075733 -0.023110 -0.869091 0.000000 0.000000
    41 -1.180679 -2.507216 -0.193861 -0.771938 0.121797 -0.246379
    42 -0.024967 -1.123934 0.017595 -1.614968 0.000000 0.000000
    43 -0.020058 -0.890965 0.010091 -0.746271 0.011865 0.013351
    44 0.120180 -0.051600 -0.063059 0.012085 -2.987703 1.512552
  time 5
    0 6.228868 -0.074875 -6.831942 -0.139851 -0.481413 -0.449900
    1 -0.071916 -8.498730 -0.104136 0.158120 -0.999212 -0.267437
    2 0.129975 -2.388487 0.824890 -1.502018 1.440634 -1.487710
    3 -0.008696 -4.578129 1.124703 0.000000 0.000000 0.000000
    4 -0.247827 -1.150955 4.199792 1.289386 0.283513 -1.669645
    5 -0.247888 -3.268787 4.200336 1.286474 -0.269574 -1.478023
    6 -0.000002 -1.794749 1.912829 0.000000 0.000000 0.000000
    7 -0.000005 -4.708170 3.700294 0.000000 0.000000 0.000000
    8 -0.296295 -3.818912 3.376961 0.000000 0.000000 0.000000
    9 -0.317317 -2.211739 3.927336 0.000000 0.269192 0.000000
    10 -0.000004 -18.231224 3.081039 0.000000 1.227006 0.000000
    11 -0.960479 -3.946096 -7.270564 0.945067 2.127894 0.143391
    12 0.096946 -8.450419 -0.009363 -0.240483 -0.017250 0.069356
    13 -0.586769 -1.264477 0.200164 -0.076995 -0.491386 -2.629147
    14 1.522835 0.058680 0.016850 0.304465 -0.071969 0.469138
    15 1.117947 0.048424 -0.005765 0.283735 0.008785 -0.074685
    16 -0.963867 -2.785143 -0.085346 0.116404 0.118085 -0.210067
    17 0.028478 -1.403067 0.006272 -1.103570 0.038104 -0.061407
    18 0.021412 -0.957782 0.020047 -0.935101 -0.000003 -0.000008
    19 -0.249534 -2.846963 -0.174215 -0.397623 -0.074393 0.041249
    20 0.043235 -1.683940 0.096015 -2.370160 0.139945 -0.061888
    21 0.031729 -1.160830 0.058836 -0.480623 0.000000 0.000000
    22 0.447951 -2.798983 -0.200441 -0.573367 -0.001319 0.067349
    23 -0.032909 -1.480207 0.004935 -2.165302 0.000000 0.000000
    24 -0.027023 -1.076921 -0.020212 -0.547360 0.000000 0.000000
    25 1.164474 -2.543939 -0.170327 -0.760503 -0.097052 0.109088
    26 0.024033 -1.129040 0.017807 -1.479009 0.090496 -0.010104
    27 0.014896 -0.883992 -0.019846 -1.331652 0.000000 0.000000
    28 -0.154466 -0.116973 0.130849 0.068461 -0.162896 1.615865
    29 0.583509 -1.197274 0.185379 0.310502 -0.934076 -0.996676
    30 1.535926 0.010247 0.005009 -0.303061 0.037452 -0.923896
    31 1.100770 0.004528 -0.010675 -0.009995 -0.094546 -0.796770
    32 0.957766 -2.746777 -0.090301 -0.279592 -0.023091 0.102297
    33 -0.033419 -1.397128 -0.011255 -0.592000 -0.031987 -0.047195
    34 -0.022361 -0.957433 0.018783 -0.581830 0.000000 0.000000
    35 0.250029 -2.820664 -0.238396 -0.848862 -0.049350 -0.226558
    36 -0.049759 -1.680544 0.100479 -1.864034 0.000000 0.000000
    37 -0.034141 -1.148311 0.084779 -0.994530 0.000000 0.000000
    38 -0.488517 -2.755600 -0.228261 -1.058608 -0.055696 -0.251816
    39 0.039889 -1.479791 0.029854 -1.719486 0.000000 0.000000
    40 0.028785 -1.075733 -0.023110 -0.869091 0.000000 0.000000
    41 -1.180679 -2.507216 -0.193861 -0.771938 0.121797 -0.246379
    42 -0.024967 -1.123934 0.017595 -1.614968 0.000000 0.000000
    43 -0.020058 -0.890965 0.010091 -0.746271 0.011865 0.013351
    44 0.120180 -0.051600 -0.063059 0.012085 -2.987703 1.512552
  time 6
    0 5.607755 0.089192 -7.445242 -0.205714 -0.482954 -0.365331
    1 -0.071916 -8.498730 -0.104136 0.118822 -1.105423 -0.228644
    2 0.129975 -2.388487 0.824890 -1.502018 1.440634 -1.487710
    3 -0.008696 -4.578129 1.124703 0.000000 0.000000 0.000000
    4 -0.247827 -1.150955 4.199792 1.292383 0.316944 -1.681282
    5 -0.247888 -3.268787 4.200336 1.289135 -0.301304 -1.467093
    6 -0.000002 -1.794749 1.912829 0.000000 0.000000 0.000000
    7 -0.000005 -4.708170 3.700294 0.000000 0.000000 0.000000
    8 -0.296295 -3.818912 3.376961 0.000000 0.000000 0.000000
    9 -0.321223 -2.211739 3.915617 0.000000 0.263967 0.000000
    10 -0.000004 -18.231224 3.081039 0.000000 1.285829 0.000000
    11 -1.120640 -4.055474 -7.532291 1.183585 2.156664 0.453188
    12 0.096946 -8.450419 -0.009363 -0.234583 -0.031741 0.064331
    13 -0.586769 -1.264477 0.200164 -0.074586 -0.497130 -2.634782
    14 1.522835 0.058680 0.016850 0.307227 -0.078561 0.440932
    15 1.117947 0.048424 -0.005765 0.279960 0.007934 -0.104164
    16 -0.963867 -2.785143 -0.085346 0.125883 0.124521 -0.218504
    17 0.028478 -1.403067 0.006272 -1.055896 0.038080 -0.061443
    18 0.021412 -0.957782 0.020047 -0.935101 -0.000003 -0.000008
    19 -0.249534 -2.846963 -0.174215 -0.398209 -0.074369 0.041297
    20 0.043235 -1.683940 0.096015 -2.370160 0.139945 -0.061888
    21 0.031729 -1.160830 0.058836 -0.480623 0.000000 0.000000
    22 0.447951 -2.798983 -0.200441 -0.573367 -0.001319 0.067349
    23 -0.032909 -1.480207 0.004935 -2.165302 0.000000 0.000000
    24 -0.027023 -1.076921 -0.020212 -0.547360 0.000000 0.000000
    25 1.164474 -2.543939 -0.170327 -0.760503 -0.097052 0.109088
    26 0.024033 -1.129040 0.017807 -1.479009 0.090496 -0.010104
    27 0.014896 -0.883992 -0.019846 -1.331652 0.000000 0.000000
    28 -0.154466 -0.113067 0.130849 0.068701 -0.164622 1.618118
    29 0.583509 -1.197274 0.185379 0.310502 -0.934076 -0.996676
    30 1.535926 0.010247 0.005009 -0.303061 0.037452 -0.923896
    31 1.100770 0.004528 -0.010675 -0.009995 -0.094546 -0.796770
    32 0.957766 -2.746777 -0.090301 -0.279592 -0.023091 0.102297
    33 -0.033419 -1.397128 -0.011255 -0.592000 -0.031987 -0.047195
    34 -0.022361 -0.957433 0.018783 -0.581830 0.000000 0.000000
    35 0.250029 -2.820664 -0.238396 -0.848862 -0.049350 -0.226558
    36 -0.049759 -1.680544 0.100479 -1.864034 0.000000 0.000000
    37 -0.034141 -1.148311 0.084779 -0.994530 0.000000 0.000000
    38 -0.488517 -2.755600 -0.228261 -1.058608 -0.055696 -0.251816
    39 0.039889 -1.479791 0.029854 -1.719486 0.000000 0.000000
    40 0.028785 -1.075733 -0.023110 -0.869091 0.000000 0.000000
    41 -1.180679 -2.507216 -0.193861 -0.771938 0.121797 -0.246379
    42 -0.024967 -1.123934 0.017595 -1.614968 0.000000 0.000000
    43 -0.020058 -0.890965 0.010091 -0.746271 0.011865 0.013351
    44 0.120180 -0.051600 -0.063059 0.012085 -2.987703 1.512552
  time 7
    0 5.088208 0.222009 -8.023384 -0.268981 -0.479766 -0.285061
    1 -0.071916 -8.498730 -0.104136 0.079441 -1.176020 -0.200809
    2 0.129975 -2.388487 0.824890 -1.502018 1.440634 -1.487710
    3 -0.008696 -4.578129 1.124703 0.000000 0.000000 0.000000
    4 -0.247827 -1.150955 4.199792 1.292418 0.317339 -1.681426
    5 -0.247888 -3.268787 4.200336 1.289159 -0.301678 -1.466962
    6 -0.000002 -1.794749 1.912829 0.000000 0.000000 0.000000
    7 -0.000005 -4.708170 3.700294 0.000000 0.000000 0.000000
    8 -0.296295 -3.818912 3.376961 0.000000 0.000000 0.000000
    9 -0.321223 -2.211739 3.915617 0.000000 0.263895 0.000000
    10 -0.000004 -18.231224 3.081039 0.000000 1.229400 0.000000
    11 -1.050326 -3.918751 -7.575261 1.344144 2.199102 0.666786
    12 0.096946 -8.450419 -0.009363 -0.257767 0.014296 0.074138
    13 -0.586769 -1.264477 0.200164 -0.083215 -0.472632 -2.613958
    14 1.522835 0.058680 0.016850 0.298423 -0.049450 0.568346
    15 1.117947 0.048424 -0.005765 0.294797 0.006903 0.016138
    16 -0.963867 -2.785143 -0.085346 0.081331 0.096477 -0.179003
    17 0.028478 -1.403067 0.006272 -1.267515 0.037984 -0.061575
    18 0.021412 -0.957782 0.020047 -0.935101 -0.000003 -0.000008
    19 -0.249534 -2.846963 -0.174215 -0.396567 -0.074441 0.041165
    20 0.043235 -1.683940 0.096015 -2.370160 0.139945 -0.061888
    21 0.031729 -1.160830 0.058836 -0.480623 0.000000 0.000000
    22 0.447951 -2.798983 -0.200441 -0.573367 -0.001319 0.067349
    23 -0.032909 -1.480207 0.004935 -2.165302 0.000000 0.000000
    24 -0.027023 -1.076921 -0.020212 -0.547360 0.000000 0.000000
    25 1.164474 -2.543939 -0.170327 -0.760503 -0.097052 0.109088
    26 0.024033 -1.129040 0.017807 -1.479009 0.090496 -0.010104
    27 0.014896 -0.883992 -0.019846 -1.331652 0.000000 0.000000
    28 -0.150560 -0.116973 0.130849 0.067790 -0.158114 1.609609
    29 0.583509 -1.197274 0.185379 0.310502 -0.934076 -0.996676
    30 1.535926 0.010247 0.005009 -0.303061 0.037452 -0.923896
    31 1.100770 0.004528 -0.010675 -0.009995 -0.094546 -0.796770
    32 0.957766 -2.746777 -0.090301 -0.279592 -0.023091 0.102297
    33 -0.033419 -1.397128 -0.011255 -0.592000 -0.031987 -0.047195
    34 -0.022361 -0.957433 0.018783 -0.581830 0.000000 0.000000
    35 0.250029 -2.820664 -0.238396 -0.848862 -0.049350 -0.226558
    36 -0.049759 -1.680544 0.100479 -1.864034 0.000000 0.000000
    37 -0.034141 -1.148311 0.084779 -0.994530 0.000000 0.000000
    38 -0.488517 -2.755600 -0.228261 -1.058608 -0.055696 -0.251816
    39 0.039889 -1.479791 0.029854 -1.719486 0.000000 0.000000
    40 0.028785 -1.075733 -0.023110 -0.869091 0.000000 0.000000
    41 -1.180679 -2.507216 -0.193861 -0.771938 0.121797 -0.246379
    42 -0.024967 -1.123934 0.017595 -1.614968 0.000000 0.000000
    43 -0.020058 -0.890965 0.010091 -0.746271 0.011865 0.013351
    44 0.120180 -0.051600 -0.063059 0.012085 -2.987703 1.512552
  time 8
    0 4.732729 0.307949 -8.515587 -0.328311 -0.472647 -0.210967
    1 -0.071916 -8.498730 -0.104136 0.042109 -1.194096 -0.189518
    2 0.129975 -2.388487 0.824890 -1.502018 1.440634 -1.487710
    3 -0.008696 -4.578129 1.124703 0.000000 0.000000 0.000000
    4 -0.247827 -1.150955 4.199792 1.288404 0.272626 -1.665858
    5 -0.247888 -3.268787 4.200336 1.285611 -0.259267 -1.481571
    6 -0.000002 -1.794749 1.912829 0.000000 0.000000 0.000000
    7 -0.000005 -4.708170 3.700294 0.000000 0.000000 0.000000
    8 -0.296295 -3.818912 3.376961 0.000000 0.000000 0.000000
    9 -0.313411 -2.211739 3.931242 0.000000 0.270894 0.000000
    10 -0.000004 -18.231224 3.081039 0.000000 1.031347 0.000000
    11 -0.882352 -3.559365 -7.547917 1.427867 2.243548 0.789523
    12 0.096946 -8.450419 -0.009363 -0.292668 0.101081 0.104673
    13 -0.586769 -1.264477 0.200164 -0.100893 -0.421884 -2.567778
    14 1.522835 0.058680 0.016850 0.288894 0.011600 0.814460
    15 1.117947 0.048424 -0.005765 0.313277 0.000395 0.259194
    16 -0.963867 -2.785143 -0.085346 -0.005648 0.046405 -0.100755
    17 0.028478 -1.403067 0.006272 -1.684498 0.038116 -0.061407
    18 0.021412 -0.957782 0.020047 -0.935101 -0.000003 -0.000008
    19 -0.249534 -2.846963 -0.174215 -0.391875 -0.074632 0.040817
    20 0.043235 -1.683940 0.096015 -2.370160 0.139945 -0.061888
    21 0.031729 -1.160830 0.058836 -0.480623 0.000000 0.000000
    22 0.447951 -2.798983 -0.200441 -0.573367 -0.001319 0.067349
    23 -0.032909 -1.480207 0.004935 -2.165302 0.000000 0.000000
    24 -0.027023 -1.076921 -0.020212 -0.547360 0.000000 0.000000
    25 1.164474 -2.543939 -0.170327 -0.760503 -0.097052 0.109088
    26 0.024033 -1.129040 0.017807 -1.479009 0.090496 -0.010104
    27 0.014896 -0.883992 -0.019846 -1.331652 0.000000 0.000000
    28 -0.138841 -0.116973 0.130849 0.065297 -0.140737 1.586910
    29 0.583509 -1.197274 0.185379 0.310502 -0.934076 -0.996676
    30 1.535926 0.010247 0.005009 -0.303061 0.037452 -0.923896
    31 1.100770 0.004528 -0.010675 -0.009995 -0.094546 -0.796770
    32 0.957766 -2.746777 -0.090301 -0.279592 -0.023091 0.102297
    33 -0.033419 -1.397128 -0.011255 -0.592000 -0.031987 -0.047195
    34 -0.022361 -0.957433 0.018783 -0.581830 0.000000 0.000000
    35 0.250029 -2.820664 -0.238396 -0.848862 -0.049350 -0.226558
    36 -0.049759 -1.680544 0.100479 -1.864034 0.000000 0.000000
    37 -0.034141 -1.148311 0.084779 -0.994530 0.000000 0.000000
    38 -0.488517 -2.755600 -0.228261 -1.058608 -0.055696 -0.251816
    39 0.039889 -1.479791 0.029854 -1.719486 0.000000 0.000000
    40 0.028785 -1.075733 -0.023110 -0.869091 0.000000 0.000000
    41 -1.180679 -2.507216 -0.193861 -0.771938 0.121797 -0.246379
    42 -0.024967 -1.123934 0.017595 -1.614968 0.000000 0.000000
    43 -0.020058 -0.890965 0.010091 -0.746271 0.011865 0.013351
    44 0.120180 -0.051600 -0.063059 0.012085 -2.987703 1.512552
  time 9
    0 4.607725 0.327481 -8.878879 -0.382661 -0.462659 -0.144700
    1 -0.071916 -8.498730 -0.104136 0.009031 -1.142748 -0.200326
    2 0.129975 -2.388487 0.824890 -1.502018 1.440634 -1.487710
    3 -0.008696 -4.578129 1.124703 0.000000 0.000000 0.000000
    4 -0.247827 -1.150955 4.199792 1.279283 0.170755 -1.630371
    5 -0.247888 -3.268787 4.200336 1.277534 -0.162639 -1.514876
    6 -0.000002 -1.794749 1.912829 0.000000 0.000000 0.000000
    7 -0.000005 -4.708170 3.700294 0.000000 0.000000 0.000000
    8 -0.296295 -3.818912 3.376961 0.000000 0.000000 0.000000
    9 -0.301691 -2.211739 3.966399 0.000000 0.286845 0.000000
    10 -0.000004 -18.231224 3.081039 0.000000 0.731306 0.000000
    11 -0.663595 -3.059350 -7.825269 1.440380 2.317432 0.853198
    12 0.096946 -8.450419 -0.009363 -0.287558 0.151621 0.157536
    13 -0.586769 -1.264477 0.200164 -0.118965 -0.379139 -2.516830
    14 1.522835 0.058680 0.016850 0.281643 0.060449 0.975218
    15 1.117947 0.048424 -0.005765 0.290435 -0.003619 0.444345
    16 -0.963867 -2.785143 -0.085346 -0.057784 0.014442 -0.052098
    17 0.028478 -1.403067 0.006272 -1.978306 0.039446 -0.060581
    18 0.021412 -0.957782 0.020047 -0.935101 -0.000003 -0.000008
    19 -0.249534 -2.846963 -0.174215 -0.383390 -0.074968 0.040182
    20 0.043235 -1.683940 0.096015 -2.370160 0.139945 -0.061888
    21 0.031729 -1.160830 0.058836 -0.480623 0.000000 0.000000
    22 0.447951 -2.798983 -0.200441 -0.573367 -0.001319 0.067349
    23 -0.032909 -1.480207 0.004935 -2.165302 0.000000 0.000000
    24 -0.027023 -1.076921 -0.020212 -0.547360 0.000000 0.000000
    25 1.164474 -2.543939 -0.170327 -0.760503 -0.097052 0.109088
    26 0.024033 -1.129040 0.017807 -1.479009 0.090496 -0.010104
    27 0.014896 -0.883992 -0.019846 -1.331652 0.000000 0.000000
    28 -0.119309 -0.124786 0.126943 0.060551 -0.109804 1.546690
    29 0.583509 -1.197274 0.185379 0.310502 -0.934076 -0.996676
    30 1.535926 0.010247 0.005009 -0.303061 0.037452 -0.923896
    31 1.100770 0.004528 -0.010675 -0.009995 -0.094546 -0.796770
    32 0.957766 -2.746777 -0.090301 -0.279592 -0.023091 0.102297
    33 -0.033419 -1.397128 -0.011255 -0.592000 -0.031987 -0.047195
    34 -0.022361 -0.957433 0.018783 -0.581830 0.000000 0.000000
    35 0.250029 -2.820664 -0.238396 -0.848862 -0.049350 -0.226558
    36 -0.049759 -1.680544 0.100479 -1.864034 0.000000 0.000000
    37 -0.034141 -1.148311 0.084779 -0.994530 0.000000 0.000000
    38 -0.488517 -2.755600 -0.228261 -1.058608 -0.055696 -0.251816
    39 0.039889 -1.479791 0.029854 -1.719486 0.000000 0.000000
    40 0.028785 -1.075733 -0.023110 -0.869091 0.000000 0.000000
    41 -1.180679 -2.507216 -0.193861 -0.771938 0.121797 -0.246379
    42 -0.024967 -1.123934 0.017595 -1.614968 0.000000 0.000000
    43 -0.020058 -0.890965 0.010091 -0.746271 0.011865 0.013351
    44 0.120180 -0.051600 -0.063059 0.012085 -2.987703 1.512552
  time 10
    0 4.721009 0.272792 -9.144512 -0.419743 -0.446561 -0.114103
    1 -0.071916 -8.498730 -0.104136 -0.021266 -1.033244 -0.229519
    2 0.129975 -2.388487 0.824890 -1.502018 1.440634 -1.487710
    3 -0.008696 -4.578129 1.124703 0.000000 0.000000 0.000000
    4 -0.247827 -1.150955 4.199792 1.263967 -0.000345 -1.570796
    5 -0.247888 -3.268787 4.200336 1.263967 -0.000345 -1.570796
    6 -0.000002 -1.794749 1.912829 0.000000 0.000000 0.000000
    7 -0.000005 -4.708170 3.700294 0.000000 0.000000 0.000000
    8 -0.296295 -3.123578 3.376961 0.000000 0.000000 0.000000
    9 -0.286066 -2.211739 4.024995 0.000000 0.313631 0.000000
    10 -0.000004 -18.231224 3.081039 0.000000 0.369067 0.000000
    11 -0.347179 -2.309327 -8.700295 1.360031 2.455452 0.867033
    12 0.096946 -8.450419 -0.009363 -0.194946 0.124905 0.257447
    13 -0.586769 -1.264477 0.200164 -0.142216 -0.347124 -2.451330
    14 1.522835 0.058680 0.016850 0.247652 0.077527 0.949611
    15 1.117947 0.048424 -0.005765 0.179565 0.008689 0.497790
    16 -0.963867 -2.785143 -0.085346 -0.023265 0.011326 -0.080573
    17 0.028478 -1.403067 0.006272 -2.010923 0.042634 -0.058148
    18 0.021412 -0.957782 0.020047 -0.948432 -0.000003 -0.000008
    19 -0.249534 -2.846963 -0.174215 -0.352032 -0.076358 0.037797
    20 0.043235 -1.683940 0.096015 -2.390242 0.139550 -0.061876
    21 0.031729 -1.160830 0.058836 -0.480623 0.000000 0.000000
    22 0.447951 -2.798983 -0.200441 -0.578349 -0.000960 0.067037
    23 -0.032909 -1.480207 0.004935 -2.169712 0.000000 0.000000
    24 -0.027023 -1.076921 -0.020212 -0.547360 0.000000 0.000000
    25 1.164474 -2.543939 -0.170327 -0.768462 -0.097052 0.109088
    26 0.024033 -1.129040 0.017807 -1.479009 0.090496 -0.010104
    27 0.014896 -0.883992 -0.019846 -1.331652 0.000000 0.000000
    28 -0.091964 -0.128692 0.123037 0.051635 -0.061830 1.483555
    29 0.583509 -1.197274 0.185379 0.310502 -0.934076 -0.996676
    30 1.535926 0.010247 0.005009 -0.303061 0.037452 -0.923896
    31 1.100770 0.004528 -0.010675 -0.009995 -0.094546 -0.796770
    32 0.957766 -2.746777 -0.090301 -0.279592 -0.023091 0.102297
    33 -0.033419 -1.397128 -0.011255 -0.592000 -0.031987 -0.047195
    34 -0.022361 -0.957433 0.018783 -0.581830 0.000000 0.000000
    35 0.250029 -2.820664 -0.238396 -0.848862 -0.049350 -0.226558
    36 -0.049759 -1.680544 0.100479 -1.864034 0.000000 0.000000
    37 -0.034141 -1.148311 0.084779 -0.994530 0.000000 0.000000
    38 -0.488517 -2.755600 -0.228261 -1.058608 -0.055696 -0.251816
    39 0.039889 -1.479791 0.029854 -1.719486 0.000000 0.000000
    40 0.028785 -1.075733 -0.023110 -0.869091 0.000000 0.000000
    41 -1.180679 -2.507216 -0.193861 -0.771938 0.121797 -0.246379
    42 -0.024967 -1.123934 0.017595 -1.614968 0.000000 0.000000
    43 -0.020058 -0.890965 0.010091 -0.746271 0.011865 0.013351
    44 0.120180 -0.051600 -0.063059 0.012085 -2.987703 1.512552
  time 11
    0 4.931953 0.186851 -9.371082 -0.435486 -0.436095 -0.120719
    1 -0.071916 -8.498730 -0.104136 -0.034940 -0.979837 -0.180522
    2 0.129975 -2.388487 0.824890 -1.502018 1.440634 -1.487710
    3 -0.008696 -4.578129 1.124703 0.000000 0.000000 0.000000
    4 -0.247827 -1.150955 4.199792 1.240825 -0.258814 -1.480792
    5 -0.247888 -3.268787 4.200336 1.243473 0.244821 -1.655275
    6 -0.000002 -1.794749 1.912829 0.000000 0.000000 0.000000
    7 -0.000005 -4.708170 3.700294 0.000000 0.000000 0.000000
    8 -0.296295 -1.568843 3.376961 0.000000 0.000000 0.000000
    9 -0.258721 -2.211739 4.114841 0.000000 0.354558 0.000000
    10 -0.000004 -18.231224 3.081039 0.000000 -0.015579 0.000000
    11 0.020019 -1.414768 -9.887832 1.242564 2.618991 0.863716
    12 0.096946 -8.450419 -0.009363 -0.062281 0.061911 0.379666
    13 -0.586769 -1.264477 0.200164 -0.166712 -0.322081 -2.380406
    14 1.522835 0.058680 0.016850 0.200696 0.076640 0.838472
    15 1.117947 0.048424 -0.005765 0.029626 0.026810 0.490471
    16 -0.963867 -2.785143 -0.085346 0.049032 0.023695 -0.141887
    17 0.028478 -1.403067 0.006272 -1.920235 0.046637 -0.054624
    18 0.021412 -0.957782 0.020047 -0.961764 -0.000003 -0.000008
    19 -0.249534 -2.846963 -0.174215 -0.300146 -0.078372 0.033782
    20 0.043235 -1.683940 0.096015 -2.410323 0.139154 -0.061852
    21 0.031729 -1.160830 0.058836 -0.480623 0.000000 0.000000
    22 0.447951 -2.798983 -0.200441 -0.583330 -0.000600 0.066725
    23 -0.032909 -1.480207 0.004935 -2.174122 0.000000 0.000000
    24 -0.027023 -1.076921 -0.020212 -0.547360 0.000000 0.000000
    25 1.164474 -2.543939 -0.170327 -0.776400 -0.097052 0.109088
    26 0.024033 -1.129040 0.017807 -1.479009 0.090496 -0.010104
    27 0.014896 -0.883992 -0.019846 -1.331652 0.000000 0.000000
    28 -0.056807 -0.136505 0.115224 0.040130 -0.005527 1.409885
    29 0.583509 -1.197274 0.185379 0.310502 -0.934076 -0.996676
    30 1.535926 0.010247 0.005009 -0.303061 0.037452 -0.923896
    31 1.100770 0.004528 -0.010675 -0.009995 -0.094546 -0.796770
    32 0.957766 -2.746777 -0.090301 -0.279592 -0.023091 0.102297
    33 -0.033419 -1.397128 -0.011255 -0.592000 -0.031987 -0.047195
    34 -0.022361 -0.957433 0.018783 -0.581830 0.000000 0.000000
    35 0.250029 -2.820664 -0.238396 -0.848862 -0.049350 -0.226558
    36 -0.049759 -1.680544 0.100479 -1.864034 0.000000 0.000000
    37 -0.034141 -1.148311 0.084779 -0.994530 0.000000 0.000000
    38 -0.488517 -2.755600 -0.228261 -1.058608 -0.055696 -0.251816
    39 0.039889 -1.479791 0.029854 -1.719486 0.000000 0.000000
    40 0.028785 -1.075733 -0.023110 -0.869091 0.000000 0.000000
    41 -1.180679 -2.507216 -0.193861 -0.771938 0.121797 -0.246379
    42 -0.024967 -1.123934 0.017595 -1.614968 0.000000 0.000000
    43 -0.020058 -0.890965 0.010091 -0.746271 0.011865 0.013351
    44 0.120180 -0.051600 -0.063059 0.012085 -2.987703 1.512552
  time 12
    0 5.099927 0.139975 -9.554681 -0.440573 -0.452352 -0.126397
    1 -0.071916 -8.498730 -0.104136 -0.039302 -0.925006 -0.112233
    2 0.129975 -2.388487 0.824890 -1.502018 1.440634 -1.487710
    3 -0.008696 -4.578129 1.124703 0.000000 0.000000 0.000000
    4 -0.247827 -1.150955 4.199792 1.219049 -0.501990 -1.396109
    5 -0.247888 -3.268787 4.200336 1.224178 0.475482 -1.734769
    6 -0.000002 -1.794749 1.912829 0.000000 0.000000 0.000000
    7 -0.000005 -4.708170 3.700294 0.000000 0.000000 0.000000
    8 -0.296295 0.032768 3.376961 0.000000 0.000000 0.000000
    9 -0.231377 -2.211739 4.200781 0.000000 0.392166 0.000000
    10 -0.000004 -18.231224 3.081039 0.000000 -0.382998 0.000000
    11 0.215338 -0.774124 -10.872237 1.170510 2.729961 0.860399
    12 0.096946 -8.450419 -0.009363 0.019694 0.008513 0.451738
    13 -0.586769 -1.264477 0.200164 -0.180075 -0.331799 -2.347126
    14 1.522835 0.058680 0.016850 0.181603 0.071846 0.740593
    15 1.117947 0.048424 -0.005765 -0.054674 0.036086 0.464395
    16 -0.963867 -2.785143 -0.085346 0.092868 0.034253 -0.175204
    17 0.028478 -1.403067 0.006272 -1.791581 0.050004 -0.052203
    18 0.021412 -0.957782 0.020047 -0.935101 -0.000003 -0.000008
    19 -0.249534 -2.846963 -0.174215 -0.259169 -0.079366 0.030595
    20 0.043235 -1.683940 0.096015 -2.370160 0.139945 -0.061888
    21 0.031729 -1.160830 0.058836 -0.480623 0.000000 0.000000
    22 0.447951 -2.798983 -0.200441 -0.573367 -0.001319 0.067349
    23 -0.032909 -1.480207 0.004935 -2.165302 0.000000 0.000000
    24 -0.027023 -1.076921 -0.020212 -0.547360 0.000000 0.000000
    25 1.164474 -2.543939 -0.170327 -0.760503 -0.097052 0.109088
    26 0.024033 -1.129040 0.017807 -1.479009 0.090496 -0.010104
    27 0.014896 -0.883992 -0.019846 -1.331652 0.000000 0.000000
    28 -0.029462 -0.140411 0.107411 0.031537 0.043454 1.348800
    29 0.583509 -1.197274 0.185379 0.310502 -0.934076 -0.996676
    30 1.535926 0.010247 0.005009 -0.303061 0.037452 -0.923896
    31 1.100770 0.004528 -0.010675 -0.009995 -0.094546 -0.796770
    32 0.957766 -2.746777 -0.090301 -0.279592 -0.023091 0.102297
    33 -0.033419 -1.397128 -0.011255 -0.592000 -0.031987 -0.047195
    34 -0.022361 -0.957433 0.018783 -0.581830 0.000000 0.000000
    35 0.250029 -2.820664 -0.238396 -0.848862 -0.049350 -0.226558
    36 -0.049759 -1.680544 0.100479 -1.864034 0.000000 0.000000
    37 -0.034141 -1.148311 0.084779 -0.994530 0.000000 0.000000
    38 -0.488517 -2.755600 -0.228261 -1.058608 -0.055696 -0.251816
    39 0.039889 -1.479791 0.029854 -1.719486 0.000000 0.000000
    40 0.028785 -1.075733 -0.023110 -0.869091 0.000000 0.000000
    41 -1.180679 -2.507216 -0.193861 -0.771938 0.121797 -0.246379
    42 -0.024967 -1.123934 0.017595 -1.614968 0.000000 0.000000
    43 -0.020058 -0.890965 0.010091 -0.746271 0.011865 0.013351
    44 0.120180 -0.051600 -0.063059 0.012085 -2.987703 1.512552
  time 13
    0 5.135085 0.159507 -9.679685 -0.442688 -0.492384 -0.120223
    1 -0.071916 -8.498730 -0.104136 -0.029331 -0.828102 -0.091402
    2 0.129975 -2.388487 0.824890 -1.502018 1.440634 -1.487710
    3 -0.008696 -4.578129 1.124703 0.000000 0.000000 0.000000
    4 -0.247827 -1.150955 4.199792 1.207280 -0.633385 -1.350351
    5 -0.247888 -3.268787 4.200336 1.213764 0.600095 -1.777710
    6 -0.000002 -1.794749 1.912829 0.000000 0.000000 0.000000
    7 -0.000005 -4.708170 3.700294 0.000000 0.000000 0.000000
    8 -0.296295 0.864825 3.376961 0.000000 0.000000 0.000000
    9 -0.215751 -2.211739 4.235939 -0.001330 0.403683 -0.000096
    10 -0.000004 -18.231224 3.081039 0.000000 -0.693360 0.000000
    11 0.031739 -0.676465 -11.426941 1.156802 2.782053 0.844622
    12 0.096946 -8.450419 -0.009363 -0.013378 -0.020405 0.420089
    13 -0.586769 -1.264477 0.200164 -0.182052 -0.378419 -2.352592
    14 1.522835 0.058680 0.016850 0.192582 0.074866 0.679899
    15 1.117947 0.048424 -0.005765 -0.062500 0.038890 0.442438
    16 -0.963867 -2.785143 -0.085346 0.101307 0.035068 -0.174137
    17 0.028478 -1.403067 0.006272 -1.660165 0.052821 -0.051257
    18 0.021412 -0.957782 0.020047 -0.862510 -0.000003 -0.000008
    19 -0.249534 -2.846963 -0.174215 -0.228945 -0.079282 0.028809
    20 0.043235 -1.683940 0.096015 -2.262667 0.141899 -0.061912
    21 0.031729 -1.160830 0.058836 -0.480623 0.000000 0.000000
    22 0.447951 -2.798983 -0.200441 -0.542310 -0.003141 0.068895
    23 -0.032909 -1.480207 0.004935 -2.144966 0.000000 0.000000
    24 -0.027023 -1.076921 -0.020212 -0.547360 0.000000 0.000000
    25 1.164474 -2.543939 -0.170327 -0.716265 -0.097052 0.109088
    26 0.024033 -1.129040 0.017807 -1.479009 0.090496 -0.010104
    27 0.014896 -0.883992 -0.019846 -1.331652 0.000000 0.000000
    28 -0.009930 -0.148224 0.087879 0.029523 0.077970 1.313889
    29 0.583509 -1.197274 0.185379 0.310502 -0.934076 -0.996676
    30 1.535926 0.010247 0.005009 -0.303061 0.037452 -0.923896
    31 1.100770 0.004528 -0.010675 -0.009995 -0.094546 -0.796770
    32 0.957766 -2.746777 -0.090301 -0.279592 -0.023091 0.102297
    33 -0.033419 -1.397128 -0.011255 -0.592000 -0.031987 -0.047195
    34 -0.022361 -0.957433 0.018783 -0.581830 0.000000 0.000000
    35 0.250029 -2.820664 -0.238396 -0.848862 -0.049350 -0.226558
    36 -0.049759 -1.680544 0.100479 -1.864034 0.000000 0.000000
    37 -0.034141 -1.148311 0.084779 -0.994530 0.000000 0.000000
    38 -0.488517 -2.755600 -0.228261 -1.058608 -0.055696 -0.251816
    39 0.039889 -1.479791 0.029854 -1.719486 0.000000 0.000000
    40 0.028785 -1.075733 -0.023110 -0.869091 0.000000 0.000000
    41 -1.180679 -2.507216 -0.193861 -0.771938 0.121797 -0.246379
    42 -0.024967 -1.123934 0.017595 -1.614968 0.000000 0.000000
    43 -0.020058 -0.890965 0.010091 -0.746271 0.011865 0.013351
    44 0.120180 -0.051600 -0.063059 0.012085 -2.987703 1.512552
  time 14
    0 5.072583 0.229821 -9.742187 -0.443009 -0.538658 -0.115647
    1 -0.071916 -8.498730 -0.104136 -0.006692 -0.702706 -0.095810
    2 0.129975 -2.388487 0.824890 -1.502018 1.440634 -1.487710
    3 -0.008696 -4.578129 1.124703 0.000000 0.000000 0.000000
    4 -0.247827 -1.150955 4.199792 1.203001 -0.681152 -1.333717
    5 -0.247888 -3.268787 4.200336 1.209964 0.645403 -1.793326
    6 -0.000002 -1.794749 1.912829 0.000000 0.000000 0.000000
    7 -0.000005 -4.708170 3.700294 0.000000 0.000000 0.000000
    8 -0.296295 0.665600 3.376961 0.000000 0.000000 0.000000
    9 -0.207939 -2.211739 4.239845 -0.003571 0.396708 -0.000276
    10 -0.000004 -18.231224 3.081039 0.000000 -0.906951 0.000000
    11 -0.483902 -1.012412 -11.708200 1.163410 2.821528 0.815899
    12 0.096946 -8.450419 -0.009363 -0.119826 -0.040022 0.318678
    13 -0.586769 -1.264477 0.200164 -0.179811 -0.440365 -2.368353
    14 1.522835 0.058680 0.016850 0.209483 0.080643 0.616931
    15 1.117947 0.048424 -0.005765 -0.055704 0.040304 0.417078
    16 -0.963867 -2.785143 -0.085346 0.110069 0.035595 -0.171249
    17 0.028478 -1.403067 0.006272 -1.509853 0.055493 -0.050226
    18 0.021412 -0.957782 0.020047 -0.770282 -0.000003 -0.000008
    19 -0.249534 -2.846963 -0.174215 -0.191800 -0.079019 0.027203
    20 0.043235 -1.683940 0.096015 -2.128383 0.144164 -0.061757
    21 0.031729 -1.160830 0.058836 -0.480623 0.000000 0.000000
    22 0.447951 -2.798983 -0.200441 -0.498322 -0.005346 0.070644
    23 -0.032909 -1.480207 0.004935 -2.123503 0.000000 0.000000
    24 -0.027023 -1.076921 -0.020212 -0.547360 0.000000 0.000000
    25 1.164474 -2.543939 -0.170327 -0.658877 -0.097052 0.109088
    26 0.024033 -1.129040 0.017807 -1.479009 0.090496 -0.010104
    27 0.014896 -0.883992 -0.019846 -1.331652 0.000000 0.000000
    28 0.001789 -0.152130 0.064441 0.033167 0.102431 1.299975
    29 0.583509 -1.197274 0.185379 0.310502 -0.934076 -0.996676
    30 1.535926 0.010247 0.005009 -0.303061 0.037452 -0.923896
    31 1.100770 0.004528 -0.010675 -0.009995 -0.094546 -0.796770
    32 0.957766 -2.746777 -0.090301 -0.279592 -0.023091 0.102297
    33 -0.033419 -1.397128 -0.011255 -0.592000 -0.031987 -0.047195
    34 -0.022361 -0.957433 0.018783 -0.581830 0.000000 0.000000
    35 0.250029 -2.820664 -0.238396 -0.848862 -0.049350 -0.226558
    36 -0.049759 -1.680544 0.100479 -1.864034 0.000000 0.000000
    37 -0.034141 -1.148311 0.084779 -0.994530 0.000000 0.000000
    38 -0.488517 -2.755600 -0.228261 -1.058608 -0.055696 -0.251816
    39 0.039889 -1.479791 0.029854 -1.719486 0.000000 0.000000
    40 0.028785 -1.075733 -0.023110 -0.869091 0.000000 0.000000
    41 -1.180679 -2.507216 -0.193861 -0.771938 0.121797 -0.246379
    42 -0.024967 -1.123934 0.017595 -1.614968 0.000000 0.000000
    43 -0.020058 -0.890965 0.010091 -0.746271 0.011865 0.013351
    44 0.120180 -0.051600 -0.063059 0.012085 -2.987703 1.512552
  time 15
    0 4.947579 0.343106 -9.753906 -0.441778 -0.589714 -0.111678
    1 -0.071916 -8.498730 -0.104136 0.025223 -0.570504 -0.109908
    2 0.129975 -2.388487 0.824890 -1.502018 1.440634 -1.487710
    3 -0.008696 -4.578129 1.124703 0.000000 0.000000 0.000000
    4 -0.247827 -1.150955 4.199792 1.204607 -0.663242 -1.339961
    5 -0.247888 -3.268787 4.200336 1.211391 0.628415 -1.787477
    6 -0.000002 -1.794749 1.912829 0.000000 0.000000 0.000000
    7 -0.000005 -4.708170 3.700294 0.000000 0.000000 0.000000
    8 -0.296295 -0.033640 3.376961 0.000000 0.000000 0.000000
    9 -0.215751 -2.211739 4.224220 -0.004015 0.387468 -0.000312
    10 -0.000004 -18.231224 3.081039 0.000000 -0.984022 0.000000
    11 -1.171423 -1.602274 -11.794140 1.179649 2.847335 0.781756
    12 0.096946 -8.450419 -0.009363 -0.231675 -0.049420 0.206306
    13 -0.586769 -1.264477 0.200164 -0.173232 -0.511385 -2.392481
    14 1.522835 0.058680 0.016850 0.230734 0.088660 0.554287
    15 1.117947 0.048424 -0.005765 -0.037488 0.041119 0.389062
    16 -0.963867 -2.785143 -0.085346 0.118832 0.035847 -0.166743
    17 0.028478 -1.403067 0.006272 -1.348755 0.057998 -0.049027
    18 0.021412 -0.957782 0.020047 -0.666844 -0.000003 -0.000008
    19 -0.249534 -2.846963 -0.174215 -0.152778 -0.078563 0.025753
    20 0.043235 -1.683940 0.096015 -1.978240 0.146620 -0.061241
    21 0.031729 -1.160830 0.058836 -0.480623 0.000000 0.000000
    22 0.447951 -2.798983 -0.200441 -0.447939 -0.007875 0.072454
    23 -0.032909 -1.480207 0.004935 -2.101060 0.000000 0.000000
    24 -0.027023 -1.076921 -0.020212 -0.547360 0.000000 0.000000
    25 1.164474 -2.543939 -0.170327 -0.594237 -0.097052 0.109088
    26 0.024033 -1.129040 0.017807 -1.479009 0.090496 -0.010104
    27 0.014896 -0.883992 -0.019846 -1.331652 0.000000 0.000000
    28 0.009601 -0.152130 0.033190 0.041772 0.118502 1.302096
    29 0.583509 -1.197274 0.185379 0.310502 -0.934076 -0.996676
    30 1.535926 0.010247 0.005009 -0.303061 0.037452 -0.923896
    31 1.100770 0.004528 -0.010675 -0.009995 -0.094546 -0.796770
    32 0.957766 -2.746777 -0.090301 -0.279592 -0.023091 0.102297
    33 -0.033419 -1.397128 -0.011255 -0.592000 -0.031987 -0.047195
    34 -0.022361 -0.957433 0.018783 -0.581830 0.000000 0.000000
    35 0.250029 -2.820664 -0.238396 -0.848862 -0.049350 -0.226558
    36 -0.049759 -1.680544 0.100479 -1.864034 0.000000 0.000000
    37 -0.034141 -1.148311 0.084779 -0.994530 0.000000 0.000000
    38 -0.488517 -2.755600 -0.228261 -1.058608 -0.055696 -0.251816
    39 0.039889 -1.479791 0.029854 -1.719486 0.000000 0.000000
    40 0.028785 -1.075733 -0.023110 -0.869091 0.000000 0.000000
    41 -1.180679 -2.507216 -0.193861 -0.771938 0.121797 -0.246379
    42 -0.024967 -1.123934 0.017595 -1.614968 0.000000 0.000000
    43 -0.020058 -0.890965 0.010091 -0.746271 0.011865 0.013351
    44 0.120180 -0.051600 -0.063059 0.012085 -2.987703 1.512552
  time 16
    0 4.783511 0.491548 -9.722655 -0.439368 -0.644011 -0.107267
    1 -0.071916 -8.498730 -0.104136 0.062998 -0.453149 -0.118060
    2 0.129975 -2.388487 0.824890 -1.502018 1.440634 -1.487710
    3 -0.008696 -4.578129 1.124703 0.000000 0.000000 0.000000
    4 -0.247827 -1.150955 4.199792 1.210492 -0.597545 -1.362827
    5 -0.247888 -3.268787 4.200336 1.216604 0.566099 -1.766001
    6 -0.000002 -1.794749 1.912829 0.000000 0.000000 0.000000
    7 -0.000005 -4.708170 3.700294 0.000000 0.000000 0.000000
    8 -0.296295 -0.830540 3.376961 0.000000 0.000000 0.000000
    9 -0.231377 -2.211739 4.200781 0.000000 0.392166 0.000000
    10 -0.000004 -18.231224 3.081039 0.000000 -0.901144 0.000000
    11 -1.866757 -2.270263 -11.758983 1.194622 2.859187 0.750526
    12 0.096946 -8.450419 -0.009363 -0.280785 -0.047613 0.141752
    13 -0.586769 -1.264477 0.200164 -0.162434 -0.585171 -2.423071
    14 1.522835 0.058680 0.016850 0.254885 0.098164 0.494538
    15 1.117947 0.048424 -0.005765 -0.011086 0.042042 0.359003
    16 -0.963867 -2.785143 -0.085346 0.127294 0.035799 -0.160822
    17 0.028478 -1.403067 0.006272 -1.184982 0.060275 -0.047613
    18 0.021412 -0.957782 0.020047 -0.560564 -0.000003 -0.000008
    19 -0.249534 -2.846963 -0.174215 -0.116963 -0.077964 0.024446
    20 0.043235 -1.683940 0.096015 -1.823217 0.149077 -0.060294
    21 0.031729 -1.160830 0.058836 -0.480623 0.000000 0.000000
    22 0.447951 -2.798983 -0.200441 -0.397627 -0.010620 0.074228
    23 -0.032909 -1.480207 0.004935 -2.077833 0.000000 0.000000
    24 -0.027023 -1.076921 -0.020212 -0.547360 0.000000 0.000000
    25 1.164474 -2.543939 -0.170327 -0.528181 -0.097052 0.109088
    26 0.024033 -1.129040 0.017807 -1.479009 0.090496 -0.010104
    27 0.014896 -0.883992 -0.019846 -1.331652 0.000000 0.000000
    28 0.009601 -0.156037 -0.001967 0.054415 0.127898 1.315255
    29 0.583509 -1.197274 0.185379 0.310502 -0.934076 -0.996676
    30 1.535926 0.010247 0.005009 -0.303061 0.037452 -0.923896
    31 1.100770 0.004528 -0.010675 -0.009995 -0.094546 -0.796770
    32 0.957766 -2.746777 -0.090301 -0.279592 -0.023091 0.102297
    33 -0.033419 -1.397128 -0.011255 -0.592000 -0.031987 -0.047195
    34 -0.022361 -0.957433 0.018783 -0.581830 0.000000 0.000000
    35 0.250029 -2.820664 -0.238396 -0.848862 -0.049350 -0.226558
    36 -0.049759 -1.680544 0.100479 -1.864034 0.000000 0.000000
    37 -0.034141 -1.148311 0.084779 -0.994530 0.000000 0.000000
    38 -0.488517 -2.755600 -0.228261 -1.058608 -0.055696 -0.251816
    39 0.039889 -1.479791 0.029854 -1.719486 0.000000 0.000000
    40 0.028785 -1.075733 -0.023110 -0.869091 0.000000 0.000000
    41 -1.180679 -2.507216 -0.193861 -0.771938 0.121797 -0.246379
    42 -0.024967 -1.123934 0.017595 -1.614968 0.000000 0.000000
    43 -0.020058 -0.890965 0.010091 -0.746271 0.011865 0.013351
    44 0.120180 -0.051600 -0.063059 0.012085 -2.987703 1.512552
  time 17
    0 4.607725 0.663428 -9.656247 -0.436262 -0.700088 -0.101148
    1 -0.071916 -8.498730 -0.104136 0.109043 -0.347254 -0.109697
    2 0.129975 -2.388487 0.824890 -1.502018 1.440634 -1.487710
    3 -0.008696 -4.578129 1.124703 0.000000 0.000000 0.000000
    4 -0.247827 -1.150955 4.199792 1.219049 -0.501990 -1.396109
    5 -0.247888 -3.268787 4.200336 1.224178 0.475482 -1.734769
    6 -0.000002 -1.794749 1.912829 0.000000 0.000000 0.000000
    7 -0.000005 -4.708170 3.700294 0.000000 0.000000 0.000000
    8 -0.296295 -1.830570 3.376961 0.000000 0.000000 0.000000
    9 -0.270441 -2.211739 4.165624 0.012512 0.422056 0.000983
    10 -0.000004 -18.231224 3.081039 0.000000 -0.694733 0.000000
    11 -2.405836 -2.828874 -11.680855 1.197223 2.857849 0.730946
    12 0.096946 -8.450419 -0.009363 -0.228683 -0.021949 0.149917
    13 -0.586769 -1.264477 0.200164 -0.148292 -0.655491 -2.457749
    14 1.522835 0.058680 0.016850 0.280642 0.108075 0.440105
    15 1.117947 0.048424 -0.005765 0.020230 0.043600 0.327617
    16 -0.963867 -2.785143 -0.085346 0.135178 0.035463 -0.153691
    17 0.028478 -1.403067 0.006272 -1.026688 0.062313 -0.045983
    18 0.021412 -0.957782 0.020047 -0.459867 -0.000003 -0.000008
    19 -0.249534 -2.846963 -0.174215 -0.089514 -0.077257 0.023272
    20 0.043235 -1.683940 0.096015 -1.674294 0.151402 -0.058892
    21 0.031729 -1.160830 0.058836 -0.480623 0.000000 0.000000
    22 0.447951 -2.798983 -0.200441 -0.353851 -0.013448 0.075894
    23 -0.032909 -1.480207 0.004935 -2.053969 0.000000 0.000000
    24 -0.027023 -1.076921 -0.020212 -0.547360 0.000000 0.000000
    25 1.164474 -2.543939 -0.170327 -0.466609 -0.097052 0.109088
    26 0.024033 -1.129040 0.017807 -1.479009 0.090496 -0.010104
    27 0.014896 -0.883992 -0.019846 -1.331652 0.000000 0.000000
    28 0.005695 -0.156037 -0.037125 0.070103 0.132236 1.334419
    29 0.583509 -1.197274 0.185379 0.310502 -0.934076 -0.996676
    30 1.535926 0.010247 0.005009 -0.303061 0.037452 -0.923896
    31 1.100770 0.004528 -0.010675 -0.009995 -0.094546 -0.796770
    32 0.957766 -2.746777 -0.090301 -0.279592 -0.023091 0.102297
    33 -0.033419 -1.397128 -0.011255 -0.592000 -0.031987 -0.047195
    34 -0.022361 -0.957433 0.018783 -0.581830 0.000000 0.000000
    35 0.250029 -2.820664 -0.238396 -0.848862 -0.049350 -0.226558
    36 -0.049759 -1.680544 0.100479 -1.864034 0.000000 0.000000
    37 -0.034141 -1.148311 0.084779 -0.994530 0.000000 0.000000
    38 -0.488517 -2.755600 -0.228261 -1.058608 -0.055696 -0.251816
    39 0.039889 -1.479791 0.029854 -1.719486 0.000000 0.000000
    40 0.028785 -1.075733 -0.023110 -0.869091 0.000000 0.000000
    41 -1.180679 -2.507216 -0.193861 -0.771938 0.121797 -0.246379
    42 -0.024967 -1.123934 0.017595 -1.614968 0.000000 0.000000
    43 -0.020058 -0.890965 0.010091 -0.746271 0.011865 0.013351
    44 0.120180 -0.051600 -0.063059 0.012085 -2.987703 1.512552
  time 18
    0 4.451470 0.850934 -9.562494 -0.433237 -0.756430 -0.092051
    1 -0.071916 -8.498730 -0.104136 0.163776 -0.240568 -0.089561
    2 0.129975 -2.388487 0.824890 -1.502018 1.440634 -1.487710
    3 -0.008696 -4.578129 1.124703 0.000000 0.000000 0.000000
    4 -0.247827 -1.150955 4.199792 1.233466 -0.341258 -1.452089
    5 -0.247888 -3.268787 4.200336 1.236954 0.322450 -1.682037
    6 -0.000002 -1.794749 1.912829 0.000000 0.000000 0.000000
    7 -0.000005 -4.708170 3.700294 0.000000 0.000000 0.000000
    8 -0.296295 -2.932166 3.376961 0.000000 0.000000 0.000000
    9 -0.297785 -2.211739 4.122654 0.021452 0.443400 0.001690
    10 -0.000004 -18.231224 3.081039 0.000000 -0.414627 0.000000
    11 -2.620686 -3.102320 -11.637885 1.176626 2.844085 0.731512
    12 0.096946 -8.450419 -0.009363 -0.109439 0.027112 0.201362
    13 -0.586769 -1.264477 0.200164 -0.132915 -0.716287 -2.493062
    14 1.522835 0.058680 0.016850 0.306847 0.117040 0.393470
    15 1.117947 0.048424 -0.005765 0.053176 0.046129 0.295550
    16 -0.963867 -2.785143 -0.085346 0.142160 0.034852 -0.145554
    17 0.028478 -1.403067 0.006272 -0.882027 0.064086 -0.044198
    18 0.021412 -0.957782 0.020047 -0.373141 -0.000003 -0.000008
    19 -0.249534 -2.846963 -0.174215 -0.075438 -0.076490 0.022181
    20 0.043235 -1.683940 0.096015 -1.542450 0.153464 -0.057143
    21 0.031729 -1.160830 0.058836 -0.480623 0.000000 0.000000
    22 0.447951 -2.798983 -0.200441 -0.323077 -0.016216 0.077440
    23 -0.032909 -1.480207 0.004935 -2.029566 0.000000 0.000000
    24 -0.027023 -1.076921 -0.020212 -0.547360 0.000000 0.000000
    25 1.164474 -2.543939 -0.170327 -0.415357 -0.097052 0.109088
    26 0.024033 -1.129040 0.017807 -1.479009 0.090496 -0.010104
    27 0.014896 -0.883992 -0.019846 -1.331652 0.000000 0.000000
    28 0.001789 -0.156037 -0.060563 0.087912 0.133183 1.354529
    29 0.583509 -1.197274 0.185379 0.310502 -0.934076 -0.996676
    30 1.535926 0.010247 0.005009 -0.303061 0.037452 -0.923896
    31 1.100770 0.004528 -0.010675 -0.009995 -0.094546 -0.796770
    32 0.957766 -2.746777 -0.090301 -0.279592 -0.023091 0.102297
    33 -0.033419 -1.397128 -0.011255 -0.592000 -0.031987 -0.047195
    34 -0.022361 -0.957433 0.018783 -0.581830 0.000000 0.000000
    35 0.250029 -2.820664 -0.238396 -0.848862 -0.049350 -0.226558
    36 -0.049759 -1.680544 0.100479 -1.864034 0.000000 0.000000
    37 -0.034141 -1.148311 0.084779 -0.994530 0.000000 0.000000
    38 -0.488517 -2.755600 -0.228261 -1.058608 -0.055696 -0.251816
    39 0.039889 -1.479791 0.029854 -1.719486 0.000000 0.000000
    40 0.028785 -1.075733 -0.023110 -0.869091 0.000000 0.000000
    41 -1.180679 -2.507216 -0.193861 -0.771938 0.121797 -0.246379
    42 -0.024967 -1.123934 0.017595 -1.614968 0.000000 0.000000
    43 -0.020058 -0.890965 0.010091 -0.746271 0.011865 0.013351
    44 0.120180 -0.051600 -0.063059 0.012085 -2.987703 1.512552
  time 19
    0 4.342092 1.046253 -9.449209 -0.431309 -0.811550 -0.078214
    1 -0.071916 -8.498730 -0.104136 0.220883 -0.141669 -0.065077
    2 0.129975 -2.388487 0.824890 -1.502018 1.440634 -1.487710
    3 -0.008696 -4.578129 1.124703 0.000000 0.000000 0.000000
    4 -0.247827 -1.150955 4.199792 1.251635 -0.138721 -1.522630
    5 -0.247888 -3.268787 4.200336 1.253037 0.129766 -1.615654
    6 -0.000002 -1.794749 1.912829 0.000000 0.000000 0.000000
    7 -0.000005 -4.708170 3.700294 0.000000 0.000000 0.000000
    8 -0.296295 -3.447807 3.376961 0.000000 0.000000 0.000000
    9 -0.293879 -2.211739 4.071871 0.012967 0.392034 0.001019
    10 -0.000004 -18.231224 3.081039 0.000000 -0.110779 0.000000
    11 -2.694907 -3.176541 -11.540226 1.135080 2.819234 0.748179
    12 0.096946 -8.450419 -0.009363 0.036231 0.080773 0.273515
    13 -0.586769 -1.264477 0.200164 -0.120032 -0.761739 -2.524118
    14 1.522835 0.058680 0.016850 0.332466 0.123476 0.356965
    15 1.117947 0.048424 -0.005765 0.084443 0.049688 0.263517
    16 -0.963867 -2.785143 -0.085346 0.147986 0.033977 -0.136601
    17 0.028478 -1.403067 0.006272 -0.759111 0.065632 -0.042280
    18 0.021412 -0.957782 0.020047 -0.308791 -0.000003 -0.000008
    19 -0.249534 -2.846963 -0.174215 -0.079935 -0.075723 0.021127
    20 0.043235 -1.683940 0.096015 -1.438710 0.155177 -0.055189
    21 0.031729 -1.160830 0.058836 -0.480623 0.000000 0.000000
    22 0.447951 -2.798983 -0.200441 -0.311877 -0.018745 0.078890
    23 -0.032909 -1.480207 0.004935 -2.004771 0.000000 0.000000
    24 -0.027023 -1.076921 -0.020212 -0.547360 0.000000 0.000000
    25 1.164474 -2.543939 -0.170327 -0.380301 -0.097052 0.109088
    26 0.024033 -1.129040 0.017807 -1.479009 0.090496 -0.010104
    27 0.014896 -0.883992 -0.019846 -1.331652 0.000000 0.000000
    28 -0.002118 -0.156037 -0.080095 0.107040 0.132440 1.370576
    29 0.583509 -1.197274 0.185379 0.310502 -0.934076 -0.996676
    30 1.535926 0.010247 0.005009 -0.303061 0.037452 -0.923896
    31 1.100770 0.004528 -0.010675 -0.009995 -0.094546 -0.796770
    32 0.957766 -2.746777 -0.090301 -0.279592 -0.023091 0.102297
    33 -0.033419 -1.397128 -0.011255 -0.592000 -0.031987 -0.047195
    34 -0.022361 -0.957433 0.018783 -0.581830 0.000000 0.000000
    35 0.250029 -2.820664 -0.238396 -0.848862 -0.049350 -0.226558
    36 -0.049759 -1.680544 0.100479 -1.864034 0.000000 0.000000
    37 -0.034141 -1.148311 0.084779 -0.994530 0.000000 0.000000
    38 -0.488517 -2.755600 -0.228261 -1.058608 -0.055696 -0.251816
    39 0.039889 -1.479791 0.029854 -1.719486 0.000000 0.000000
    40 0.028785 -1.075733 -0.023110 -0.869091 0.000000 0.000000
    41 -1.180679 -2.507216 -0.193861 -0.771938 0.121797 -0.246379
    42 -0.024967 -1.123934 0.017595 -1.614968 0.000000 0.000000
    43 -0.020058 -0.890965 0.010091 -0.746271 0.011865 0.013351
    44 0.120180 -0.051600 -0.063059 0.012085 -2.987703 1.512552
  time 20
    0 4.310841 1.241571 -9.324205 -0.431845 -0.863907 -0.057760
    1 -0.071916 -8.498730 -0.104136 0.274047 -0.059011 -0.043673
    2 0.129975 -2.388487 0.824890 -1.502018 1.440634 -1.487710
    3 -0.008696 -4.578129 1.124703 0.000000 0.000000 0.000000
    4 -0.247827 -1.150955 4.199792 1.263967 -0.000345 -1.570796
    5 -0.247888 -3.268787 4.200336 1.263967 -0.000345 -1.570796
    6 -0.000002 -1.794749 1.912829 0.000000 0.000000 0.000000
    7 -0.000005 -4.708170 3.700294 0.000000 0.000000 0.000000
    8 -0.296295 -3.322803 3.376961 0.000000 0.056747 0.000000
    9 -0.286066 -2.211739 4.024995 0.000000 0.313631 0.000000
    10 -0.000004 -18.231224 3.081039 0.000000 0.166934 0.000000
    11 -2.890226 -3.266387 -11.270686 1.083553 2.785112 0.770186
    12 0.096946 -8.450419 -0.009363 0.167649 0.120239 0.343803
    13 -0.586769 -1.264477 0.200164 -0.114819 -0.786218 -2.544624
    14 1.522835 0.058680 0.016850 0.356496 0.125561 0.332776
    15 1.117947 0.048424 -0.005765 0.110738 0.054122 0.232131
    16 -0.963867 -2.785143 -0.085346 0.152310 0.032899 -0.127050
    17 0.028478 -1.403067 0.006272 -0.666093 0.066999 -0.040327
    18 0.021412 -0.957782 0.020047 -0.275205 -0.000003 -0.000008
    19 -0.249534 -2.846963 -0.174215 -0.108009 -0.075028 0.020060
    20 0.043235 -1.683940 0.096015 -1.374149 0.156580 -0.053248
    21 0.031729 -1.160830 0.058836 -0.480623 0.000000 0.000000
    22 0.447951 -2.798983 -0.200441 -0.326646 -0.020842 0.080292
    23 -0.032909 -1.480207 0.004935 -1.979780 0.000000 0.000000
    24 -0.027023 -1.076921 -0.020212 -0.547360 0.000000 0.000000
    25 1.164474 -2.543939 -0.170327 -0.367322 -0.097052 0.109088
    26 0.024033 -1.129040 0.017807 -1.479009 0.090496 -0.010104
    27 0.014896 -0.883992 -0.019846 -1.331652 0.000000 0.000000
    28 -0.006024 -0.156037 -0.084001 0.126754 0.131673 1.377539
    29 0.583509 -1.197274 0.185379 0.310502 -0.934076 -0.996676
    30 1.535926 0.010247 0.005009 -0.303061 0.037452 -0.923896
    31 1.100770 0.004528 -0.010675 -0.009995 -0.094546 -0.796770
    32 0.957766 -2.746777 -0.090301 -0.279592 -0.023091 0.102297
    33 -0.033419 -1.397128 -0.011255 -0.592000 -0.031987 -0.047195
    34 -0.022361 -0.957433 0.018783 -0.581830 0.000000 0.000000
    35 0.250029 -2.820664 -0.238396 -0.848862 -0.049350 -0.226558
    36 -0.049759 -1.680544 0.100479 -1.864034 0.000000 0.000000
    37 -0.034141 -1.148311 0.084779 -0.994530 0.000000 0.000000
    38 -0.488517 -2.755600 -0.228261 -1.058608 -0.055696 -0.251816
    39 0.039889 -1.479791 0.029854 -1.719486 0.000000 0.000000
    40 0.028785 -1.075733 -0.023110 -0.869091 0.000000 0.000000
    41 -1.180679 -2.507216 -0.193861 -0.771938 0.121797 -0.246379
    42 -0.024967 -1.123934 0.017595 -1.614968 0.000000 0.000000
    43 -0.020058 -0.890965 0.010091 -0.746271 0.011865 0.013351
    44 0.120180 -0.051600 -0.063059 0.012085 -2.987703 1.512552
  time 21
    0 4.291309 1.425170 -9.171857 -0.435566 -0.914273 -0.028045
    1 -0.071916 -8.498730 -0.104136 0.316940 -0.001141 -0.032805
    2 0.129975 -2.388487 0.824890 -1.502002 1.440634 -1.487695
    3 -0.008696 -4.578129 1.124703 0.000000 0.000000 0.000000
    4 -0.247827 -1.150955 4.199792 1.267263 0.038550 -1.584279
    5 -0.247888 -3.268787 4.200336 1.266927 -0.033829 -1.559207
    6 -0.000002 -1.794749 1.912829 0.000000 0.000000 0.000000
    7 -0.000005 -4.708170 3.700294 0.000000 0.000000 0.000000
    8 -0.296295 -3.385305 3.376961 0.000000 0.028368 0.000000
    9 -0.282160 -2.211739 3.993744 -0.007239 0.269839 -0.000563
    10 -0.000004 -18.231224 3.081039 0.000000 0.368635 0.000000
    11 -3.151952 -3.364047 -10.883956 1.024573 2.742769 0.795672
    12 0.096946 -8.450419 -0.009363 0.244098 0.126712 0.389615
    13 -0.586769 -1.264477 0.200164 -0.137122 -0.762148 -2.535620
    14 1.522835 0.058680 0.016850 0.381269 0.122301 0.324978
    15 1.117947 0.048424 -0.005765 0.134491 0.059360 0.200200
    16 -0.963867 -2.785143 -0.085346 0.154876 0.031628 -0.117078
    17 0.028478 -1.403067 0.006272 -0.593440 0.068125 -0.038157
    18 0.021412 -0.957782 0.020047 -0.276668 -0.000003 -0.000008
    19 -0.249534 -2.846963 -0.174215 -0.165955 -0.074417 0.018969
    20 0.043235 -1.683940 0.096015 -1.353176 0.157826 -0.051354
    21 0.031729 -1.160830 0.058836 -0.480623 0.000000 0.000000
    22 0.447951 -2.798983 -0.200441 -0.372824 -0.022448 0.081790
    23 -0.032909 -1.480207 0.004935 -1.954740 0.000000 0.000000
    24 -0.027023 -1.076921 -0.020212 -0.547360 0.000000 0.000000
    25 1.164474 -2.543939 -0.170327 -0.379915 -0.097052 0.109088
    26 0.024033 -1.129040 0.017807 -1.479009 0.090496 -0.010104
    27 0.014896 -0.883992 -0.019846 -1.331652 0.000000 0.000000
    28 -0.006024 -0.156037 -0.084001 0.150496 0.119652 1.377707
    29 0.583509 -1.197274 0.185379 0.310502 -0.934076 -0.996676
    30 1.535926 0.010247 0.005009 -0.303061 0.037452 -0.923896
    31 1.100770 0.004528 -0.010675 -0.009995 -0.094546 -0.796770
    32 0.957766 -2.746777 -0.090301 -0.279592 -0.023091 0.102297
    33 -0.033419 -1.397128 -0.011255 -0.592000 -0.031987 -0.047195
    34 -0.022361 -0.957433 0.018783 -0.581830 0.000000 0.000000
    35 0.250029 -2.820664 -0.238396 -0.848862 -0.049350 -0.226558
    36 -0.049759 -1.680544 0.100479 -1.864034 0.000000 0.000000
    37 -0.034141 -1.148311 0.084779 -0.994530 0.000000 0.000000
    38 -0.488517 -2.755600 -0.228261 -1.058608 -0.055696 -0.251816
    39 0.039889 -1.479791 0.029854 -1.719486 0.000000 0.000000
    40 0.028785 -1.075733 -0.023110 -0.869091 0.000000 0.000000
    41 -1.180679 -2.507216 -0.193861 -0.771938 0.121797 -0.246379
    42 -0.024967 -1.123934 0.017595 -1.614968 0.000000 0.000000
    43 -0.020058 -0.890965 0.010091 -0.746271 0.011865 0.013351
    44 0.120180 -0.051600 -0.063059 0.012085 -2.987703 1.512552
  time 22
    0 4.232713 1.604863 -8.972632 -0.443063 -0.964319 0.011483
    1 -0.071916 -8.498730 -0.104136 0.351455 0.020734 -0.034797
    2 0.129975 -2.388487 0.824890 -1.502002 1.440634 -1.487695
    3 -0.008696 -4.578129 1.124703 0.000000 0.000000 0.000000
    4 -0.247827 -1.150955 4.199792 1.265933 0.022884 -1.578850
    5 -0.247888 -3.268787 4.200336 1.265729 -0.020348 -1.563881
    6 -0.000002 -1.794749 1.912829 0.000000 0.000000 0.000000
    7 -0.000005 -4.708170 3.700294 0.000000 0.000000 0.000000
    8 -0.296295 -3.447807 3.376961 0.000000 0.000000 0.000000
    9 -0.282160 -2.211739 3.974212 -0.011445 0.244420 -0.000899
    10 -0.000004 -18.231224 3.081039 0.000000 0.444411 0.000000
    11 -3.429305 -3.453893 -10.415192 0.960533 2.693258 0.822453
    12 0.096946 -8.450419 -0.009363 0.238323 0.091683 0.404183
    13 -0.586769 -1.264477 0.200164 -0.180998 -0.683922 -2.504459
    14 1.522835 0.058680 0.016850 0.408787 0.114212 0.332776
    15 1.117947 0.048424 -0.005765 0.159815 0.065628 0.166669
    16 -0.963867 -2.785143 -0.085346 0.155408 0.030226 -0.106904
    17 0.028478 -1.403067 0.006272 -0.529156 0.068928 -0.035748
    18 0.021412 -0.957782 0.020047 -0.306999 -0.000003 -0.000008
    19 -0.249534 -2.846963 -0.174215 -0.251662 -0.073877 0.017879
    20 0.043235 -1.683940 0.096015 -1.367393 0.159096 -0.049484
    21 0.031729 -1.160830 0.058836 -0.480623 0.000000 0.000000
    22 0.447951 -2.798983 -0.200441 -0.446526 -0.023647 0.083480
    23 -0.032909 -1.480207 0.004935 -1.929749 0.000000 0.000000
    24 -0.027023 -1.076921 -0.020212 -0.547360 0.000000 0.000000
    25 1.164474 -2.543939 -0.170327 -0.414027 -0.097052 0.109088
    26 0.024033 -1.129040 0.017807 -1.479009 0.090496 -0.010104
    27 0.014896 -0.883992 -0.019846 -1.331652 0.000000 0.000000
    28 -0.009930 -0.152130 -0.076188 0.180601 0.089331 1.377168
    29 0.583509 -1.197274 0.185379 0.310502 -0.934076 -0.996676
    30 1.535926 0.010247 0.005009 -0.303061 0.037452 -0.923896
    31 1.100770 0.004528 -0.010675 -0.009995 -0.094546 -0.796770
    32 0.957766 -2.746777 -0.090301 -0.279592 -0.023091 0.102297
    33 -0.033419 -1.397128 -0.011255 -0.592000 -0.031987 -0.047195
    34 -0.022361 -0.957433 0.018783 -0.581830 0.000000 0.000000
    35 0.250029 -2.820664 -0.238396 -0.848862 -0.049350 -0.226558
    36 -0.049759 -1.680544 0.100479 -1.864034 0.000000 0.000000
    37 -0.034141 -1.148311 0.084779 -0.994530 0.000000 0.000000
    38 -0.488517 -2.755600 -0.228261 -1.058608 -0.055696 -0.251816
    39 0.039889 -1.479791 0.029854 -1.719486 0.000000 0.000000
    40 0.028785 -1.075733 -0.023110 -0.869091 0.000000 0.000000
    41 -1.180679 -2.507216 -0.193861 -0.771938 0.121797 -0.246379
    42 -0.024967 -1.123934 0.017595 -1.614968 0.000000 0.000000
    43 -0.020058 -0.890965 0.010091 -0.746271 0.011865 0.013351
    44 0.120180 -0.051600 -0.063059 0.012085 -2.987703 1.512552
  time 23
    0 4.178024 1.788463 -8.742156 -0.455834 -1.013834 0.060383
    1 -0.071916 -8.498730 -0.104136 0.382435 0.008546 -0.045484
    2 0.129975 -2.388487 0.824890 -1.502018 1.440634 -1.487710
    3 -0.008696 -4.578129 1.124703 0.000000 0.000000 0.000000
    4 -0.247827 -1.150955 4.199792 1.263967 -0.000345 -1.570796
    5 -0.247888 -3.268787 4.200336 1.263967 -0.000345 -1.570796
    6 -0.000002 -1.794749 1.912829 0.000000 0.000000 0.000000
    7 -0.000005 -4.708170 3.700294 0.000000 0.000000 0.000000
    8 -0.296295 -3.447807 3.376961 0.000000 0.000000 0.000000
    9 -0.278253 -2.211739 3.966399 -0.013135 0.234149 -0.001031
    10 -0.000004 -18.231224 3.081039 0.000000 0.361297 0.000000
    11 -3.667593 -3.528114 -9.911270 0.893680 2.638107 0.848991
    12 0.096946 -8.450419 -0.009363 0.168522 0.024812 0.400273
    13 -0.586769 -1.264477 0.200164 -0.217814 -0.580108 -2.479377
    14 1.522835 0.058680 0.016850 0.437547 0.101820 0.351501
    15 1.117947 0.048424 -0.005765 0.185965 0.072902 0.132287
    16 -0.963867 -2.785143 -0.085346 0.153558 0.028764 -0.096705
    17 0.028478 -1.403067 0.006272 -0.478073 0.069611 -0.033316
    18 0.021412 -0.957782 0.020047 -0.358944 -0.000003 -0.000008
    19 -0.249534 -2.846963 -0.174215 -0.357545 -0.073446 0.016764
    20 0.043235 -1.683940 0.096015 -1.408213 0.160439 -0.047723
    21 0.031729 -1.160830 0.058836 -0.480623 0.000000 0.000000
    22 0.447951 -2.798983 -0.200441 -0.540367 -0.024426 0.085314
    23 -0.032909 -1.480207 0.004935 -1.905003 0.000000 0.000000
    24 -0.027023 -1.076921 -0.020212 -0.547360 0.000000 0.000000
    25 1.164474 -2.543939 -0.170327 -0.464099 -0.097052 0.109088
    26 0.024033 -1.129040 0.017807 -1.479009 0.090496 -0.010104
    27 0.014896 -0.883992 -0.019846 -1.331652 0.000000 0.000000
    28 -0.013837 -0.148224 -0.068376 0.214793 0.048644 1.376592
    29 0.583509 -1.197274 0.185379 0.310502 -0.934076 -0.996676
    30 1.535926 0.010247 0.005009 -0.303061 0.037452 -0.923896
    31 1.100770 0.004528 -0.010675 -0.009995 -0.094546 -0.796770
    32 0.957766 -2.746777 -0.090301 -0.279592 -0.023091 0.102297
    33 -0.033419 -1.397128 -0.011255 -0.592000 -0.031987 -0.047195
    34 -0.022361 -0.957433 0.018783 -0.581830 0.000000 0.000000
    35 0.250029 -2.820664 -0.238396 -0.848862 -0.049350 -0.226558
    36 -0.049759 -1.680544 0.100479 -1.864034 0.000000 0.000000
    37 -0.034141 -1.148311 0.084779 -0.994530 0.000000 0.000000
    38 -0.488517 -2.755600 -0.228261 -1.058608 -0.055696 -0.251816
    39 0.039889 -1.479791 0.029854 -1.719486 0.000000 0.000000
    40 0.028785 -1.075733 -0.023110 -0.869091 0.000000 0.000000
    41 -1.180679 -2.507216 -0.193861 -0.771938 0.121797 -0.246379
    42 -0.024967 -1.123934 0.017595 -1.614968 0.000000 0.000000
    43 -0.020058 -0.890965 0.010091 -0.746271 0.011865 0.013351
    44 0.120180 -0.051600 -0.063059 0.012085 -2.987703 1.512552
  time 24
    0 4.166305 1.987688 -8.492149 -0.475486 -1.062606 0.118270
    1 -0.071916 -8.498730 -0.104136 0.407998 -0.026467 -0.062541
    2 0.129975 -2.388487 0.824890 -1.502018 1.440634 -1.487710
    3 -0.008696 -4.578129 1.124703 0.000000 0.000000 0.000000
    4 -0.247827 -1.150955 4.199792 1.263032 -0.011461 -1.566949
    5 -0.247888 -3.268787 4.200336 1.263128 0.009213 -1.574104
    6 -0.000002 -1.794749 1.912829 0.000000 0.000000 0.000000
    7 -0.000005 -4.708170 3.700294 0.000000 0.000000 0.000000
    8 -0.296295 -3.447807 3.376961 0.000000 0.000000 0.000000
    9 -0.278253 -2.211739 3.966399 -0.012871 0.235767 -0.001007
    10 -0.000004 -18.231224 3.081039 0.000000 0.169288 0.000000
    11 -3.816035 -3.578897 -9.415161 0.826055 2.578943 0.873830
    12 0.096946 -8.450419 -0.009363 0.061742 -0.065358 0.384691
    13 -0.586769 -1.264477 0.200164 -0.230794 -0.481240 -2.476369
    14 1.522835 0.058680 0.016850 0.466049 0.085952 0.376458
    15 1.117947 0.048424 -0.005765 0.212211 0.081112 0.097837
    16 -0.963867 -2.785143 -0.085346 0.149050 0.027302 -0.086674
    17 0.028478 -1.403067 0.006272 -0.444939 0.070390 -0.031074
    18 0.021412 -0.957782 0.020047 -0.425251 -0.000003 -0.000008
    19 -0.249534 -2.846963 -0.174215 -0.476018 -0.073170 0.015662
    20 0.043235 -1.683940 0.096015 -1.466956 0.161877 -0.046117
    21 0.031729 -1.160830 0.058836 -0.480623 0.000000 0.000000
    22 0.447951 -2.798983 -0.200441 -0.646963 -0.024785 0.087207
    23 -0.032909 -1.480207 0.004935 -1.880649 0.000000 0.000000
    24 -0.027023 -1.076921 -0.020212 -0.547360 0.000000 0.000000
    25 1.164474 -2.543939 -0.170327 -0.524599 -0.097052 0.109088
    26 0.024033 -1.129040 0.017807 -1.479009 0.090496 -0.010104
    27 0.014896 -0.883992 -0.019846 -1.331652 0.000000 0.000000
    28 -0.021650 -0.144317 -0.056656 0.250555 0.005571 1.376592
    29 0.583509 -1.197274 0.185379 0.310502 -0.934076 -0.996676
    30 1.535926 0.010247 0.005009 -0.303061 0.037452 -0.923896
    31 1.100770 0.004528 -0.010675 -0.009995 -0.094546 -0.796770
    32 0.957766 -2.746777 -0.090301 -0.279592 -0.023091 0.102297
    33 -0.033419 -1.397128 -0.011255 -0.592000 -0.031987 -0.047195
    34 -0.022361 -0.957433 0.018783 -0.581830 0.000000 0.000000
    35 0.250029 -2.820664 -0.238396 -0.848862 -0.049350 -0.226558
    36 -0.049759 -1.680544 0.100479 -1.864034 0.000000 0.000000
    37 -0.034141 -1.148311 0.084779 -0.994530 0.000000 0.000000
    38 -0.488517 -2.755600 -0.228261 -1.058608 -0.055696 -0.251816
    39 0.039889 -1.479791 0.029854 -1.719486 0.000000 0.000000
    40 0.028785 -1.075733 -0.023110 -0.869091 0.000000 0.000000
    41 -1.180679 -2.507216 -0.193861 -0.771938 0.121797 -0.246379
    42 -0.024967 -1.123934 0.017595 -1.614968 0.000000 0.000000
    43 -0.020058 -0.890965 0.010091 -0.746271 0.011865 0.013351
    44 0.120180 -0.051600 -0.063059 0.012085 -2.987703 1.512552
  time 25
    0 4.232713 2.218163 -8.230422 -0.503732 -1.110341 0.184977
    1 -0.071916 -8.498730 -0.104136 0.426263 -0.073162 -0.083553
    2 0.129975 -2.388487 0.824890 -1.502002 1.440634 -1.487695
    3 -0.008696 -4.578129 1.124703 0.000000 0.000000 0.000000
    4 -0.247827 -1.150955 4.199792 1.262661 -0.015782 -1.565451
    5 -0.247888 -3.268787 4.200336 1.262793 0.012938 -1.575398
    6 -0.000002 -1.794749 1.912829 0.000000 0.000000 0.000000
    7 -0.000005 -4.708170 3.700294 0.000000 0.000000 0.000000
    8 -0.296295 -3.447807 3.376961 0.000000 0.000000 0.000000
    9 -0.282160 -2.211739 3.974212 -0.011170 0.246038 -0.000875
    10 -0.000004 -18.231224 3.081039 0.000000 -0.057332 0.000000
    11 -3.819942 -3.598429 -8.973741 0.759624 2.517675 0.895837
    12 0.096946 -8.450419 -0.009363 -0.054719 -0.170282 0.364247
    13 -0.586769 -1.264477 0.200164 -0.213752 -0.384047 -2.507848
    14 1.522835 0.058680 0.016850 0.492927 0.067699 0.403069
    15 1.117947 0.048424 -0.005765 0.237882 0.090076 0.064034
    16 -0.963867 -2.785143 -0.085346 0.141651 0.025912 -0.077014
    17 0.028478 -1.403067 0.006272 -0.434455 0.071505 -0.029217
    18 0.021412 -0.957782 0.020047 -0.498646 -0.000003 -0.000008
    19 -0.249534 -2.846963 -0.174215 -0.599496 -0.073050 0.014571
    20 0.043235 -1.683940 0.096015 -1.535084 0.163387 -0.044703
    21 0.031729 -1.160830 0.058836 -0.480623 0.000000 0.000000
    22 0.447951 -2.798983 -0.200441 -0.758858 -0.024785 0.089077
    23 -0.032909 -1.480207 0.004935 -1.856785 0.000000 0.000000
    24 -0.027023 -1.076921 -0.020212 -0.547360 0.000000 0.000000
    25 1.164474 -2.543939 -0.170327 -0.590032 -0.097052 0.109088
    26 0.024033 -1.129040 0.017807 -1.479009 0.090496 -0.010104
    27 0.014896 -0.883992 -0.019846 -1.331652 0.000000 0.000000
    28 -0.029462 -0.140411 -0.044937 0.285035 -0.031941 1.377743
    29 0.583509 -1.197274 0.185379 0.310502 -0.934076 -0.996676
    30 1.535926 0.010247 0.005009 -0.303061 0.037452 -0.923896
    31 1.100770 0.004528 -0.010675 -0.009995 -0.094546 -0.796770
    32 0.957766 -2.746777 -0.090301 -0.279592 -0.023091 0.102297
    33 -0.033419 -1.397128 -0.011255 -0.592000 -0.031987 -0.047195
    34 -0.022361 -0.957433 0.018783 -0.581830 0.000000 0.000000
    35 0.250029 -2.820664 -0.238396 -0.848862 -0.049350 -0.226558
    36 -0.049759 -1.680544 0.100479 -1.864034 0.000000 0.000000
    37 -0.034141 -1.148311 0.084779 -0.994530 0.000000 0.000000
    38 -0.488517 -2.755600 -0.228261 -1.058608 -0.055696 -0.251816
    39 0.039889 -1.479791 0.029854 -1.719486 0.000000 0.000000
    40 0.028785 -1.075733 -0.023110 -0.869091 0.000000 0.000000
    41 -1.180679 -2.507216 -0.193861 -0.771938 0.121797 -0.246379
    42 -0.024967 -1.123934 0.017595 -1.614968 0.000000 0.000000
    43 -0.020058 -0.890965 0.010091 -0.746271 0.011865 0.013351
    44 0.120180 -0.051600 -0.063059 0.012085 -2.987703 1.512552
  time 26
    0 4.420219 2.487703 -7.972601 -0.542473 -1.156775 0.260615
    1 -0.071916 -8.498730 -0.104136 0.435311 -0.120300 -0.106256
    2 0.129975 -2.388487 0.824890 -1.502018 1.440634 -1.487710
    3 -0.008696 -4.578129 1.124703 0.000000 0.000000 0.000000
    4 -0.247827 -1.150955 4.199792 1.262709 -0.015159 -1.565667
    5 -0.247888 -3.268787 4.200336 1.262840 0.012406 -1.575206
    6 -0.000002 -1.794749 1.912829 0.000000 0.000000 0.000000
    7 -0.000005 -4.708170 3.700294 0.000000 0.000000 0.000000
    8 -0.296295 -3.447807 3.376961 0.000000 0.000000 0.000000
    9 -0.282160 -2.211739 3.985931 -0.008581 0.261726 -0.000671
    10 -0.000004 -18.231224 3.081039 0.000000 -0.244240 0.000000
    11 -3.632436 -3.574991 -8.629981 0.696568 2.456503 0.914446
    12 0.096946 -8.450419 -0.009363 -0.153688 -0.281515 0.345728
    13 -0.586769 -1.264477 0.200164 -0.184114 -0.275208 -2.555258
    14 1.522835 0.058680 0.016850 0.517009 0.048500 0.426844
    15 1.117947 0.048424 -0.005765 0.262259 0.099520 0.031661
    16 -0.963867 -2.785143 -0.085346 0.130993 0.024641 -0.067918
    17 0.028478 -1.403067 0.006272 -0.451411 0.073207 -0.027982
    18 0.021412 -0.957782 0.020047 -0.571876 -0.000003 -0.000008
    19 -0.249534 -2.846963 -0.174215 -0.720394 -0.073062 0.013540
    20 0.043235 -1.683940 0.096015 -1.604009 0.164921 -0.043480
    21 0.031729 -1.160830 0.058836 -0.480623 0.000000 0.000000
    22 0.447951 -2.798983 -0.200441 -0.868669 -0.024546 0.090850
    23 -0.032909 -1.480207 0.004935 -1.833607 0.000000 0.000000
    24 -0.027023 -1.076921 -0.020212 -0.547360 0.000000 0.000000
    25 1.164474 -2.543939 -0.170327 -0.654865 -0.097052 0.109088
    26 0.024033 -1.129040 0.017807 -1.479009 0.090496 -0.010104
    27 0.014896 -0.883992 -0.019846 -1.331652 0.000000 0.000000
    28 -0.033369 -0.132598 -0.037125 0.315056 -0.055922 1.380631
    29 0.583509 -1.197274 0.185379 0.310502 -0.934076 -0.996676
    30 1.535926 0.010247 0.005009 -0.303061 0.037452 -0.923896
    31 1.100770 0.004528 -0.010675 -0.009995 -0.094546 -0.796770
    32 0.957766 -2.746777 -0.090301 -0.279592 -0.023091 0.102297
    33 -0.033419 -1.397128 -0.011255 -0.592000 -0.031987 -0.047195
    34 -0.022361 -0.957433 0.018783 -0.581830 0.000000 0.000000
    35 0.250029 -2.820664 -0.238396 -0.848862 -0.049350 -0.226558
    36 -0.049759 -1.680544 0.100479 -1.864034 0.000000 0.000000
    37 -0.034141 -1.148311 0.084779 -0.994530 0.000000 0.000000
    38 -0.488517 -2.755600 -0.228261 -1.058608 -0.055696 -0.251816
    39 0.039889 -1.479791 0.029854 -1.719486 0.000000 0.000000
    40 0.028785 -1.075733 -0.023110 -0.869091 0.000000 0.000000
    41 -1.180679 -2.507216 -0.193861 -0.771938 0.121797 -0.246379
    42 -0.024967 -1.123934 0.017595 -1.614968 0.000000 0.000000
    43 -0.020058 -0.890965 0.010091 -0.746271 0.011865 0.013351
    44 0.120180 -0.051600 -0.063059 0.012085 -2.987703 1.512552
  time 27
    0 4.767886 2.808025 -7.730407 -0.593905 -1.201535 0.345571
    1 -0.071916 -8.498730 -0.104136 0.433286 -0.156707 -0.128203
    2 0.129975 -2.388487 0.824890 -1.502018 1.440634 -1.487710
    3 -0.008696 -4.578129 1.124703 0.000000 0.000000 0.000000
    4 -0.247827 -1.150955 4.199792 1.263032 -0.011461 -1.566949
    5 -0.247888 -3.268787 4.200336 1.263128 0.009213 -1.574104
    6 -0.000002 -1.794749 1.912829 0.000000 0.000000 0.000000
    7 -0.000005 -4.708170 3.700294 0.000000 0.000000 0.000000
    8 -0.296295 -3.447807 3.376961 0.000000 0.000000 0.000000
    9 -0.286066 -2.211739 4.001557 -0.005633 0.279571 -0.000443
    10 -0.000004 -18.231224 3.081039 0.000000 -0.317111 0.000000
    11 -3.194922 -3.504676 -8.430756 0.638994 2.397625 0.929656
    12 0.096946 -8.450419 -0.009363 -0.208034 -0.390448 0.335921
    13 -0.586769 -1.264477 0.200164 -0.158562 -0.172328 -2.588284
    14 1.522835 0.058680 0.016850 0.537415 0.030032 0.443502
    15 1.117947 0.048424 -0.005765 0.284718 0.109108 0.001398
    16 -0.963867 -2.785143 -0.085346 0.116866 0.023587 -0.059588
    17 0.028478 -1.403067 0.006272 -0.500508 0.075699 -0.027683
    18 0.021412 -0.957782 0.020047 -0.637688 -0.000003 -0.000008
    19 -0.249534 -2.846963 -0.174215 -0.831125 -0.073182 0.012570
    20 0.043235 -1.683940 0.096015 -1.665098 0.166431 -0.042401
    21 0.031729 -1.160830 0.058836 -0.480623 0.000000 0.000000
    22 0.447951 -2.798983 -0.200441 -0.969046 -0.024186 0.092492
    23 -0.032909 -1.480207 0.004935 -1.811262 0.000000 0.000000
    24 -0.027023 -1.076921 -0.020212 -0.547360 0.000000 0.000000
    25 1.164474 -2.543939 -0.170327 -0.713541 -0.097052 0.109088
    26 0.024033 -1.129040 0.017807 -1.479009 0.090496 -0.010104
    27 0.014896 -0.883992 -0.019846 -1.331652 0.000000 0.000000
    28 -0.037275 -0.128692 -0.029312 0.337372 -0.058427 1.385928
    29 0.583509 -1.197274 0.185379 0.310502 -0.934076 -0.996676
    30 1.535926 0.010247 0.005009 -0.303061 0.037452 -0.923896
    31 1.100770 0.004528 -0.010675 -0.009995 -0.094546 -0.796770
    32 0.957766 -2.746777 -0.090301 -0.279592 -0.023091 0.102297
    33 -0.033419 -1.397128 -0.011255 -0.592000 -0.031987 -0.047195
    34 -0.022361 -0.957433 0.018783 -0.581830 0.000000 0.000000
    35 0.250029 -2.820664 -0.238396 -0.848862 -0.049350 -0.226558
    36 -0.049759 -1.680544 0.100479 -1.864034 0.000000 0.000000
    37 -0.034141 -1.148311 0.084779 -0.994530 0.000000 0.000000
    38 -0.488517 -2.755600 -0.228261 -1.058608 -0.055696 -0.251816
    39 0.039889 -1.479791 0.029854 -1.719486 0.000000 0.000000
    40 0.028785 -1.075733 -0.023110 -0.869091 0.000000 0.000000
    41 -1.180679 -2.507216 -0.193861 -0.771938 0.121797 -0.246379
    42 -0.024967 -1.123934 0.017595 -1.614968 0.000000 0.000000
    43 -0.020058 -0.890965 0.010091 -0.746271 0.011865 0.013351
    44 0.120180 -0.051600 -0.063059 0.012085 -2.987703 1.512552
  time 28
    0 5.314778 3.190849 -7.515556 -0.660518 -1.244436 0.440615
    1 -0.071916 -8.498730 -0.104136 0.418269 -0.171174 -0.147132
    2 0.129975 -2.388487 0.824890 -1.502018 1.440634 -1.487710
    3 -0.008696 -4.578129 1.124703 0.000000 0.000000 0.000000
    4 -0.247827 -1.150955 4.199792 1.263452 -0.006516 -1.568663
    5 -0.247888 -3.268787 4.200336 1.263500 0.004956 -1.572630
    6 -0.000002 -1.794749 1.912829 0.000000 0.000000 0.000000
    7 -0.000005 -4.708170 3.700294 0.000000 0.000000 0.000000
    8 -0.296295 -3.447807 3.376961 0.000000 0.000000 0.000000
    9 -0.286066 -2.211739 4.013276 -0.002852 0.296337 -0.000216
    10 -0.000004 -18.231224 3.081039 0.000000 -0.275908 0.000000
    11 -2.460525 -3.371859 -8.415130 0.589646 2.343335 0.941954
    12 0.096946 -8.450419 -0.009363 -0.190500 -0.488602 0.341635
    13 -0.586769 -1.264477 0.200164 -0.146087 -0.095193 -2.582077
    14 1.522835 0.058680 0.016850 0.553435 0.014152 0.448818
    15 1.117947 0.048424 -0.005765 0.304636 0.118468 -0.026108
    16 -0.963867 -2.785143 -0.085346 0.098948 0.022784 -0.052206
    17 0.028478 -1.403067 0.006272 -0.586580 0.079079 -0.028702
    18 0.021412 -0.957782 0.020047 -0.688809 -0.000003 -0.000008
    19 -0.249534 -2.846963 -0.174215 -0.924144 -0.073350 0.011671
    20 0.043235 -1.683940 0.096015 -1.709765 0.167821 -0.041407
    21 0.031729 -1.160830 0.058836 -0.480623 0.000000 0.000000
    22 0.447951 -2.798983 -0.200441 -1.052535 -0.023898 0.093978
    23 -0.032909 -1.480207 0.004935 -1.789897 0.000000 0.000000
    24 -0.027023 -1.076921 -0.020212 -0.547360 0.000000 0.000000
    25 1.164474 -2.543939 -0.170327 -0.760503 -0.097052 0.109088
    26 0.024033 -1.129040 0.017807 -1.479009 0.090496 -0.010104
    27 0.014896 -0.883992 -0.019846 -1.331652 0.000000 0.000000
    28 -0.041181 -0.128692 -0.025406 0.349033 -0.031485 1.394258
    29 0.583509 -1.197274 0.185379 0.310502 -0.934076 -0.996676
    30 1.535926 0.010247 0.005009 -0.303061 0.037452 -0.923896
    31 1.100770 0.004528 -0.010675 -0.009995 -0.094546 -0.796770
    32 0.957766 -2.746777 -0.090301 -0.279592 -0.023091 0.102297
    33 -0.033419 -1.397128 -0.011255 -0.592000 -0.031987 -0.047195
    34 -0.022361 -0.957433 0.018783 -0.581830 0.000000 0.000000
    35 0.250029 -2.820664 -0.238396 -0.848862 -0.049350 -0.226558
    36 -0.049759 -1.680544 0.100479 -1.864034 0.000000 0.000000
    37 -0.034141 -1.148311 0.084779 -0.994530 0.000000 0.000000
    38 -0.488517 -2.755600 -0.228261 -1.058608 -0.055696 -0.251816
    39 0.039889 -1.479791 0.029854 -1.719486 0.000000 0.000000
    40 0.028785 -1.075733 -0.023110 -0.869091 0.000000 0.000000
    41 -1.180679 -2.507216 -0.193861 -0.771938 0.121797 -0.246379
    42 -0.024967 -1.123934 0.017595 -1.614968 0.000000 0.000000
    43 -0.020058 -0.890965 0.010091 -0.746271 0.011865 0.013351
    44 0.120180 -0.051600 -0.063059 0.012085 -2.987703 1.512552
  time 29
    0 6.271838 3.761179 -7.269455 -0.731388 -1.283591 0.515481
    1 -0.071916 -8.498730 -0.104136 0.380158 -0.163893 -0.167933
    2 0.129975 -2.388487 0.824890 -1.502018 1.440634 -1.487710
    3 -0.008696 -4.578129 1.124703 0.000000 0.000000 0.000000
    4 -0.247827 -1.150955 4.199792 1.263811 -0.002194 -1.570161
    5 -0.247888 -3.268787 4.200336 1.263835 0.001232 -1.571347
    6 -0.000002 -1.794749 1.912829 0.000000 0.000000 0.000000
    7 -0.000005 -4.708170 3.700294 0.000000 0.000000 0.000000
    8 -0.296295 -3.447807 3.376961 0.000000 0.000000 0.000000
    9 -0.286066 -2.211739 4.024995 -0.000803 0.308765 -0.000060
    10 -0.000004 -18.231224 3.081039 0.000000 -0.170191 0.000000
    11 -1.155798 -3.125758 -8.618262 0.626200 2.302713 0.980548
    12 0.096946 -8.450419 -0.009363 -0.076781 -0.601577 0.367752
    13 -0.586769 -1.264477 0.200164 -0.159977 -0.096634 -2.465862
    14 1.522835 0.058680 0.016850 0.536983 0.003714 0.402744
    15 1.117947 0.048424 -0.005765 0.308927 0.121560 -0.034992
    16 -0.963867 -2.785143 -0.085346 -0.042432 0.022736 -0.050480
    17 0.028478 -1.403067 0.006272 -1.041141 0.086941 -0.042724
    18 0.021412 -0.957782 0.020047 -0.699153 -0.000003 -0.000008
    19 -0.249534 -2.846963 -0.174215 -0.944476 -0.073398 0.011455
    20 0.043235 -1.683940 0.096015 -1.718164 0.168145 -0.041167
    21 0.031729 -1.160830 0.058836 -0.480623 0.000000 0.000000
    22 0.447951 -2.798983 -0.200441 -1.070660 -0.023839 0.094338
    23 -0.032909 -1.480207 0.004935 -1.784654 0.000000 0.000000
    24 -0.027023 -1.076921 -0.020212 -0.547360 0.000000 0.000000
    25 1.164474 -2.543939 -0.170327 -0.770350 -0.097052 0.109088
    26 0.024033 -1.129040 0.017807 -1.479009 0.090496 -0.010104
    27 0.014896 -0.883992 -0.019846 -1.331652 0.000000 0.000000
    28 -0.041181 -0.128692 -0.025406 0.351010 0.040087 1.408759
    29 0.583509 -1.197274 0.185379 0.310502 -0.934076 -0.996676
    30 1.535926 0.010247 0.005009 -0.303061 0.037452 -0.923896
    31 1.100770 0.004528 -0.010675 -0.009995 -0.094546 -0.796770
    32 0.957766 -2.746777 -0.090301 -0.279592 -0.023091 0.102297
    33 -0.033419 -1.397128 -0.011255 -0.592000 -0.031987 -0.047195
    34 -0.022361 -0.957433 0.018783 -0.581830 0.000000 0.000000
    35 0.250029 -2.820664 -0.238396 -0.848862 -0.049350 -0.226558
    36 -0.049759 -1.680544 0.100479 -1.864034 0.000000 0.000000
    37 -0.034141 -1.148311 0.084779 -0.994530 0.000000 0.000000
    38 -0.488517 -2.755600 -0.228261 -1.058608 -0.055696 -0.251816
    39 0.039889 -1.479791 0.029854 -1.719486 0.000000 0.000000
    40 0.028785 -1.075733 -0.023110 -0.869091 0.000000 0.000000
    41 -1.180679 -2.507216 -0.193861 -0.771938 0.121797 -0.246379
    42 -0.024967 -1.123934 0.017595 -1.614968 0.000000 0.000000
    43 -0.020058 -0.890965 0.010091 -0.746271 0.011865 0.013351
    44 0.120180 -0.051600 -0.063059 0.012085 -2.987703 1.512552
  time 30
    0 6.896857 4.116659 -7.128826 -0.810477 -1.320356 0.584504
    1 -0.071916 -8.498730 -0.104136 0.353109 -0.156770 -0.180431
    2 0.129975 -2.388487 0.824890 -1.502018 1.440634 -1.487710
    3 -0.008696 -4.578129 1.124703 0.000000 0.000000 0.000000
    4 -0.247827 -1.150955 4.199792 1.263967 -0.000345 -1.570796
    5 -0.247888 -3.268787 4.200336 1.263967 -0.000345 -1.570796
    6 -0.000002 -1.794749 1.912829 0.000000 0.000000 0.000000
    7 -0.000005 -4.708170 3.700294 0.000000 0.000000 0.000000
    8 -0.296295 -3.447807 3.376961 0.000000 0.000000 0.000000
    9 -0.286066 -2.211739 4.024995 0.000000 0.313631 0.000000
    10 -0.000004 -18.231224 3.081039 0.000000 0.000000 0.000000
    11 -0.300303 -2.961691 -8.774516 0.721804 2.272222 1.043170
    12 0.096946 -8.450419 -0.009363 0.005734 -0.669566 0.386008
    13 -0.586769 -1.264477 0.200164 -0.191304 -0.133537 -2.293171
    14 1.522835 0.058680 0.016850 0.501041 -0.006533 0.327430
    15 1.117947 0.048424 -0.005765 0.303821 0.120601 -0.032609
    16 -0.963867 -2.785143 -0.085346 -0.264803 0.022784 -0.052206
    17 0.028478 -1.403067 0.006272 -1.728289 0.084472 -0.066801
    18 0.021412 -0.957782 0.020047 -0.688809 -0.000003 -0.000008
    19 -0.249534 -2.846963 -0.174215 -0.924144 -0.073350 0.011671
    20 0.043235 -1.683940 0.096015 -1.709765 0.167821 -0.041407
    21 0.031729 -1.160830 0.058836 -0.480623 0.000000 0.000000
    22 0.447951 -2.798983 -0.200441 -1.052535 -0.023898 0.093978
    23 -0.032909 -1.480207 0.004935 -1.789897 0.000000 0.000000
    24 -0.027023 -1.076921 -0.020212 -0.547360 0.000000 0.000000
    25 1.164474 -2.543939 -0.170327 -0.760503 -0.097052 0.109088
    26 0.024033 -1.129040 0.017807 -1.479009 0.090496 -0.010104
    27 0.014896 -0.883992 -0.019846 -1.331652 0.000000 0.000000
    28 -0.041181 -0.128692 -0.025406 0.350878 0.089487 1.418299
    29 0.583509 -1.197274 0.185379 0.310502 -0.934076 -0.996676
    30 1.535926 0.010247 0.005009 -0.303061 0.037452 -0.923896
    31 1.100770 0.004528 -0.010675 -0.009995 -0.094546 -0.796770
    32 0.957766 -2.746777 -0.090301 -0.279592 -0.023091 0.102297
    33 -0.033419 -1.397128 -0.011255 -0.592000 -0.031987 -0.047195
    34 -0.022361 -0.957433 0.018783 -0.581830 0.000000 0.000000
    35 0.250029 -2.820664 -0.238396 -0.848862 -0.049350 -0.226558
    36 -0.049759 -1.680544 0.100479 -1.864034 0.000000 0.000000
    37 -0.034141 -1.148311 0.084779 -0.994530 0.000000 0.000000
    38 -0.488517 -2.755600 -0.228261 -1.058608 -0.055696 -0.251816
    39 0.039889 -1.479791 0.029854 -1.719486 0.000000 0.000000
    40 0.028785 -1.075733 -0.023110 -0.869091 0.000000 0.000000
    41 -1.180679 -2.507216 -0.193861 -0.771938 0.121797 -0.246379
    42 -0.024967 -1.123934 0.017595 -1.614968 0.000000 0.000000
    43 -0.020058 -0.890965 0.010091 -0.746271 0.011865 0.013351
    44 0.120180 -0.051600 -0.063059 0.012085 -2.987703 1.512552
end
