// Created by Crowbar 0.56
version 1
nodes
  0 "root" -1
  1 "Bone01" 0
  2 "Bone_Lefthand" 1
  3 "Bone13" 2
  4 "Bone14" 3
  5 "Bone15" 4
  6 "ValveBiped.Bip01_L_Finger32" 5
  7 "ValveBiped.Bip01_L_Finger31" 4
  8 "ValveBiped.Bip01_L_Finger3" 3
  9 "Bone17" 2
  10 "Bone18" 9
  11 "Bone19" 10
  12 "ValveBiped.Bip01_L_Finger22" 11
  13 "ValveBiped.Bip01_L_Finger21" 10
  14 "ValveBiped.Bip01_L_Finger2" 9
  15 "Bone21" 2
  16 "Bone22" 15
  17 "Bone23" 16
  18 "ValveBiped.Bip01_L_Finger12" 17
  19 "ValveBiped.Bip01_L_Finger11" 16
  20 "ValveBiped.Bip01_L_Finger1" 15
  21 "Bone09" 2
  22 "Bone10" 21
  23 "Bone11" 22
  24 "ValveBiped.Bip01_L_Finger42" 23
  25 "ValveBiped.Bip01_L_Finger41" 22
  26 "ValveBiped.Bip01_L_Finger4" 21
  27 "Bone05" 2
  28 "Bone06" 27
  29 "Bone07" 28
  30 "ValveBiped.Bip01_L_Finger02" 29
  31 "ValveBiped.Bip01_L_Finger01" 28
  32 "ValveBiped.Bip01_L_Finger0" 27
  33 "ValveBiped.Bip01_L_Hand" 2
  34 "Bone_L_Upper" 1
  35 "ValveBiped.Bip01_L_UpperArm" 34
  36 "ValveBiped.Bip01_L_Forearm" 1
  37 "Bone04" 0
  38 "Bone_Righthand" 37
  39 "Bone39" 38
  40 "Bone40" 39
  41 "Bone41" 40
  42 "ValveBiped.Bip01_R_Finger32" 41
  43 "ValveBiped.Bip01_R_Finger31" 40
  44 "ValveBiped.Bip01_R_Finger3" 39
  45 "Bone35" 38
  46 "Bone36" 45
  47 "Bone37" 46
  48 "ValveBiped.Bip01_R_Finger22" 47
  49 "ValveBiped.Bip01_R_Finger21" 46
  50 "ValveBiped.Bip01_R_Finger2" 45
  51 "Bone31" 38
  52 "Bone32" 51
  53 "Bone33" 52
  54 "ValveBiped.Bip01_R_Finger12" 53
  55 "ValveBiped.Bip01_R_Finger11" 52
  56 "ValveBiped.Bip01_R_Finger1" 51
  57 "Bone43" 38
  58 "Bone44" 57
  59 "Bone45" 58
  60 "ValveBiped.Bip01_R_Finger42" 59
  61 "ValveBiped.Bip01_R_Finger41" 58
  62 "ValveBiped.Bip01_R_Finger4" 57
  63 "Bone27" 38
  64 "Bone28" 63
  65 "Bone29" 64
  66 "ValveBiped.Bip01_R_Finger02" 65
  67 "ValveBiped.Bip01_R_Finger01" 64
  68 "ValveBiped.Bip01_R_Finger0" 63
  69 "ValveBiped.Bip01_R_Hand" 38
  70 "Bone_R_Upper" 37
  71 "ValveBiped.Bip01_R_UpperArm" 70
  72 "ValveBiped.Bip01_R_Forearm" 37
  73 "Bone_Se_Hand-L" 2
  74 "Bone_Se_Hand-R" 38
  75 "phantom_2" -1
  76 "phantom_1" -1
  77 "phantom_11" -1
  78 "phantfx" 76
  79 "phantom_22" -1
  80 "phantfx02" 75
  81 "stab_fx_bone" -1
  82 "ligh_root" -1
  83 "fxlightning_3" 82
  84 "fxlightning_1" 82
  85 "fxlightning_2" 82
  86 "fxlightning_4" 82
  87 "line_root" -1
  88 "line03" 87
  89 "line04" 87
  90 "line01" 87
  91 "line02" 87
  92 "exefx01" 76
  93 "exefx02" 76
  94 "eyephentom02fx01" 75
  95 "eyephentom02fx" 75
end
skeleton
  time 0
    0 -3.029297 -0.003439 -4.378906 0.000000 0.000000 1.567413
    1 12.903963 -17.617539 -6.931336 3.331177 -0.239027 -4.330000
    2 -0.087545 -10.619892 -0.127575 -0.095126 0.097193 -0.047012
    3 -0.609615 -3.443129 -0.282949 -0.093275 0.051931 -0.186027
    4 0.047700 -1.846990 0.033759 -0.426801 -0.000001 -0.000002
    5 0.032695 -1.341370 -0.027015 0.007193 0.000000 0.000000
    6 0.007988 0.172182 -0.118553 -1.598091 -0.216549 -1.570593
    7 0.080660 0.135929 -0.203919 -1.506824 -0.066185 -1.662786
    8 0.117288 -0.155554 -0.604544 -1.412988 -0.374558 -1.569222
    9 0.312529 -3.523814 -0.296991 0.132796 -0.002921 0.008443
    10 -0.061479 -2.098525 0.123917 -0.327357 0.000000 -0.000003
    11 -0.041955 -1.433482 0.104314 0.125746 0.000000 0.000000
    12 -0.018589 0.129955 -0.123721 -1.294580 0.001302 -1.635383
    13 -0.006160 0.170065 -0.110169 -1.280084 -0.068681 -1.597215
    14 0.047100 -0.104074 -0.352264 -1.243368 -0.257298 -1.694346
    15 1.196054 -3.430397 -0.109834 0.433775 -0.082543 0.013538
    16 -0.041232 -1.744798 -0.011256 -0.333251 0.000000 0.000000
    17 -0.026267 -1.195726 0.022690 0.169694 0.000000 -0.000001
    18 -0.022325 0.045420 -0.038284 -1.125544 -0.129230 -1.681412
    19 -0.042900 -0.061274 -0.071212 -1.124462 -0.060454 -1.586099
    20 0.063741 -0.109104 -0.248158 -1.142813 -0.125805 -1.693583
    21 -1.473660 -3.132240 -0.240735 -0.221222 0.117585 -0.331528
    22 -0.028877 -1.401284 0.021503 -0.501195 -0.000003 -0.000007
    23 -0.023958 -1.113633 0.010091 -0.129115 0.000001 0.000004
    24 -0.011721 0.093266 0.017949 -1.687855 -0.079155 -1.575164
    25 0.048862 -0.085539 0.028626 -1.715605 -0.034569 -1.653190
    26 0.173919 -0.198418 -0.336163 -1.668104 -0.422317 -1.710956
    27 0.728045 -1.494163 0.228349 0.391267 -0.590805 -0.762984
    28 1.918752 0.010252 0.005009 -0.002964 -0.012980 -0.281476
    29 1.374216 0.004524 -0.010680 -0.006823 0.014727 -0.257712
    30 -0.267709 0.037512 -0.093907 2.913812 -0.143386 0.078467
    31 -0.029266 0.205408 -0.329287 2.788574 -0.255486 -0.188917
    32 0.204373 0.521055 -0.268577 2.886669 0.042206 -0.230367
    33 0.195697 -0.010059 -0.293538 -1.333586 0.150863 -1.672749
    34 9.031250 8.617188 -0.714355 -1.717460 -0.038379 -2.291096
    35 -0.093500 -0.114213 -0.738866 -1.570842 0.061811 0.002096
    36 0.010843 0.093625 -0.081439 -3.141463 0.041719 -1.568236
    37 -12.618802 -1.789748 -5.630361 -3.504168 0.546004 2.913158
    38 0.120373 -10.559858 -0.009359 0.007527 0.221679 -0.146827
    39 0.557334 -3.498228 -0.247313 -0.432922 0.007042 0.102407
    40 -0.040724 -1.847400 0.004945 -0.721695 0.000001 -0.000004
    41 -0.030925 -1.342555 -0.024115 -0.205919 -0.000002 -0.000001
    42 0.006928 0.005329 -0.181358 -1.528500 -0.248579 -1.611362
    43 -0.052313 0.038591 -0.230756 -1.592493 -0.043415 -1.528515
    44 -0.232601 -0.209654 -0.420669 -1.713790 -0.167173 -1.438930
    45 -0.308126 -3.557925 -0.217173 -0.146031 -0.000125 -0.008397
    46 0.051052 -2.101920 0.119456 -0.729670 0.002824 -0.000165
    47 0.039542 -1.449899 0.070563 -0.456175 0.000644 0.008371
    48 -0.038065 0.069168 -0.159885 -1.816986 0.066178 -1.575392
    49 -0.025151 0.088764 -0.068836 -1.817843 0.044510 -1.568287
    50 -0.102916 -0.186983 -0.272247 -1.833683 -0.232962 -1.472375
    51 -1.202152 -3.480479 -0.104871 -0.240860 0.163153 -0.073061
    52 0.032383 -1.750735 0.006275 -0.381700 0.000003 -0.000002
    53 0.025319 -1.196069 0.023951 0.071781 0.000001 0.000001
    54 -0.004241 0.043707 -0.080204 -2.014997 -0.186996 -1.460723
    55 0.015383 -0.089136 -0.030010 -2.006083 0.036346 -1.568629
    56 -0.022610 -0.212355 -0.177906 -1.933161 -0.118801 -1.518895
    57 1.453549 -3.176768 -0.209390 -0.677863 0.010009 0.200253
    58 0.027940 -1.410300 0.021711 -0.663763 0.000004 0.000009
    59 0.014894 -1.102744 -0.023754 -0.319898 -0.000006 -0.000004
    60 -0.067138 0.063251 -0.010962 -0.899214 -0.014515 -1.600326
    61 -0.151180 -0.007393 -0.070065 -0.913061 -0.118819 -1.408558
    62 -0.178164 -0.244682 -0.357068 -1.159916 -0.384260 -1.556110
    63 -0.731305 -1.576982 0.247043 -0.800275 -0.844940 -2.026371
    64 1.903320 0.073303 0.021057 0.001409 0.008984 0.139420
    65 1.395299 0.060141 -0.005766 -0.013390 -0.021351 0.616684
    66 -0.263409 -0.117640 -0.015660 0.000036 -0.082210 -0.026800
    67 0.007707 -0.334358 -0.191575 0.070788 -0.181563 0.282364
    68 0.225562 -0.567923 -0.420715 0.119895 -0.183798 0.223460
    69 -0.203683 -0.095655 -0.328306 -1.745077 0.075142 -1.515382
    70 -9.010880 8.554017 -0.239438 1.605696 -0.001309 -0.796384
    71 0.036020 0.082816 -0.692656 -1.570769 0.065989 0.001276
    72 -0.088586 0.054021 -0.088593 0.010231 0.033800 -1.560851
    73 0.150146 -0.062805 -0.068054 -2.854024 0.030688 -1.580508
    74 -0.174194 -0.139526 0.017990 0.358630 0.302123 1.681020
    75 28.124646 19.309184 -43.940209 1.296814 -0.177140 3.517519
    76 27.407084 -8.304941 -9.954797 2.174300 0.099402 3.618210
    77 15.178755 -15.019990 -11.863973 2.174322 0.099393 3.618246
    78 -8.429688 1.859375 0.000182 0.000000 1.570796 3.141592
    79 15.177912 14.242623 -41.595349 1.296801 -0.177140 3.517521
    80 -8.601563 0.056671 -0.000684 0.000000 1.570796 -3.141591
    81 -41.406250 49.500000 4.898438 0.000000 0.000000 -0.000001
    82 -20.390625 15.500000 14.820313 1.504634 -0.696389 0.409599
    83 0.000000 0.000000 0.000000 0.000000 0.000000 0.000000
    84 0.000000 0.000000 0.000000 0.000000 0.000000 0.000000
    85 0.000000 0.000000 -0.000002 0.000000 0.000000 0.000000
    86 0.000000 -0.000002 -0.000004 0.000000 0.000000 0.000000
    87 -74.437500 12.773438 0.000000 0.000000 0.000000 -0.000001
    88 -12.500000 12.500000 0.000000 0.000000 0.000000 0.000000
    89 12.500000 12.500000 0.000000 0.000000 0.000000 0.000000
    90 12.492188 -12.492188 0.000000 0.000000 0.000000 0.000000
    91 -12.492188 -12.500000 0.000000 0.000000 0.000000 0.000000
    92 10.367188 2.341797 -1.041016 1.566653 -0.564520 -2.759211
    93 10.445313 2.634766 1.163086 0.921809 -0.364005 0.384206
    94 10.156250 2.791016 1.077148 1.552574 -0.417441 0.661589
    95 10.320313 2.958984 -1.132813 0.679593 -0.758166 -2.316103
  time 1
    0 -3.029297 -0.003439 -4.378906 0.000000 0.000000 1.567413
    1 13.017248 -17.617539 -9.708764 3.238371 -0.130146 -4.400561
    2 -0.087545 -10.619892 -0.127575 -0.088067 0.102329 -0.043837
    3 -0.609615 -3.443129 -0.282949 -0.057558 0.050756 -0.188220
    4 0.047700 -1.846990 0.033759 -0.384032 -0.000001 -0.000002
    5 0.032695 -1.341370 -0.027015 0.007017 0.000000 0.000000
    6 0.007988 0.172182 -0.118553 -1.598091 -0.216549 -1.570593
    7 0.080660 0.135929 -0.203919 -1.506824 -0.066185 -1.662786
    8 0.117288 -0.155554 -0.604544 -1.412988 -0.374558 -1.569222
    9 0.312529 -3.523814 -0.296991 0.130241 -0.002921 0.008443
    10 -0.061479 -2.098525 0.123917 -0.285234 0.000000 -0.000003
    11 -0.041955 -1.433482 0.104314 0.121087 0.000000 0.000000
    12 -0.018589 0.129955 -0.123721 -1.294580 0.001302 -1.635383
    13 -0.006160 0.170065 -0.110169 -1.280084 -0.068681 -1.597215
    14 0.047100 -0.104074 -0.352264 -1.243368 -0.257298 -1.694346
    15 1.196054 -3.430397 -0.109834 0.421150 -0.084773 0.018523
    16 -0.041232 -1.744798 -0.011256 -0.291167 0.000000 0.000000
    17 -0.026267 -1.195726 0.022690 0.165055 0.000000 -0.000001
    18 -0.022325 0.045420 -0.038284 -1.125544 -0.129230 -1.681412
    19 -0.042900 -0.061274 -0.071212 -1.124462 -0.060454 -1.586099
    20 0.063741 -0.109104 -0.248158 -1.142813 -0.125805 -1.693583
    21 -1.473660 -3.132240 -0.240735 -0.176943 0.114661 -0.335626
    22 -0.028877 -1.401284 0.021503 -0.455295 -0.000003 -0.000007
    23 -0.023958 -1.113633 0.010091 -0.114453 0.000001 0.000004
    24 -0.011721 0.093266 0.017949 -1.687855 -0.079155 -1.575164
    25 0.048862 -0.085539 0.028626 -1.715605 -0.034569 -1.653190
    26 0.173919 -0.198418 -0.336163 -1.668104 -0.422317 -1.710956
    27 0.728045 -1.494163 0.228349 0.384732 -0.574316 -0.751818
    28 1.918752 0.010252 0.005009 -0.002964 -0.012980 -0.244168
    29 1.374216 0.004524 -0.010680 -0.006427 0.014846 -0.232666
    30 -0.267709 0.037512 -0.093907 2.913812 -0.143386 0.078467
    31 -0.029266 0.205408 -0.329287 2.788574 -0.255486 -0.188917
    32 0.204373 0.521055 -0.268577 2.886669 0.042206 -0.230367
    33 0.195697 -0.010059 -0.293538 -1.333586 0.150863 -1.672749
    34 9.031250 8.617188 -0.714355 -1.717460 -0.038379 -2.291096
    35 -0.093500 -0.114213 -0.738866 -1.570842 0.061811 0.002096
    36 0.010843 0.093625 -0.081439 -3.141463 0.041719 -1.568236
    37 -13.056315 -4.266386 -6.126470 -3.478166 0.357107 3.127235
    38 0.120373 -10.559858 -0.009359 -0.011141 0.221679 -0.146827
    39 0.557334 -3.498228 -0.247313 -0.443366 0.007042 0.102407
    40 -0.040724 -1.847400 0.004945 -0.743753 0.000001 -0.000004
    41 -0.030925 -1.342555 -0.024115 -0.222973 -0.000002 -0.000001
    42 0.006928 0.005329 -0.181358 -1.528500 -0.248579 -1.611362
    43 -0.052313 0.038591 -0.230756 -1.592493 -0.043415 -1.528515
    44 -0.232601 -0.209654 -0.420669 -1.713790 -0.167173 -1.438930
    45 -0.308126 -3.557925 -0.217173 -0.146031 -0.000125 -0.008397
    46 0.051052 -2.101920 0.119456 -0.729670 0.002824 -0.000165
    47 0.039542 -1.449899 0.070563 -0.456175 0.000644 0.008371
    48 -0.038065 0.069168 -0.159885 -1.816986 0.066178 -1.575392
    49 -0.025151 0.088764 -0.068836 -1.817843 0.044510 -1.568287
    50 -0.102916 -0.186983 -0.272247 -1.833683 -0.232962 -1.472375
    51 -1.202152 -3.480479 -0.104871 -0.240860 0.163153 -0.073061
    52 0.032383 -1.750735 0.006275 -0.381700 0.000003 -0.000002
    53 0.025319 -1.196069 0.023951 0.071781 0.000001 0.000001
    54 -0.004241 0.043707 -0.080204 -2.014997 -0.186996 -1.460723
    55 0.015383 -0.089136 -0.030010 -2.006083 0.036346 -1.568629
    56 -0.022610 -0.212355 -0.177906 -1.933161 -0.118801 -1.518895
    57 1.453549 -3.176768 -0.209390 -0.688298 0.010009 0.200253
    58 0.027940 -1.410300 0.021711 -0.685841 0.000004 0.000009
    59 0.014894 -1.102744 -0.023754 -0.336985 -0.000006 -0.000004
    60 -0.067138 0.063251 -0.010962 -0.899214 -0.014515 -1.600326
    61 -0.151180 -0.007393 -0.070065 -0.913061 -0.118819 -1.408558
    62 -0.178164 -0.244682 -0.357068 -1.159916 -0.384260 -1.556110
    63 -0.731305 -1.576982 0.247043 -0.793668 -0.847171 -2.025956
    64 1.903320 0.073303 0.021057 0.001409 0.008984 0.139420
    65 1.395299 0.060141 -0.005766 -0.012959 -0.021495 0.598357
    66 -0.263409 -0.117640 -0.015660 0.000036 -0.082210 -0.026800
    67 0.007707 -0.334358 -0.191575 0.070788 -0.181563 0.282364
    68 0.225562 -0.567923 -0.420715 0.119895 -0.183798 0.223460
    69 -0.203683 -0.095655 -0.328306 -1.745077 0.075142 -1.515382
    70 -9.010880 8.554017 -0.239438 1.605696 -0.001309 -0.796384
    71 0.036020 0.082816 -0.692656 -1.570769 0.065989 0.001276
    72 -0.088586 0.054021 -0.088593 0.010231 0.033800 -1.560851
    73 0.150146 -0.062805 -0.068054 -2.854024 0.030688 -1.580508
    74 -0.174194 -0.139526 0.017990 0.358630 0.302123 1.681020
    75 28.124646 19.309184 -43.940209 1.296814 -0.177140 3.517519
    76 28.438366 -10.301096 -20.834035 2.048665 -0.069054 3.463127
    77 15.178755 -15.019990 -20.418921 2.048621 -0.069060 3.463065
    78 -8.429688 1.859375 0.000182 0.000000 1.570796 3.141592
    79 15.177912 14.242623 -41.595349 1.296801 -0.177140 3.517521
    80 -8.601563 0.056671 -0.000684 0.000000 1.570796 -3.141591
    81 -41.406250 49.500000 4.898438 0.000000 0.000000 -0.000001
    82 -20.390625 15.500000 14.820313 1.504634 -0.696389 0.409599
    83 0.000000 0.000000 0.000000 0.000000 0.000000 0.000000
    84 0.000000 0.000000 0.000000 0.000000 0.000000 0.000000
    85 0.000000 0.000000 -0.000002 0.000000 0.000000 0.000000
    86 0.000000 -0.000002 -0.000004 0.000000 0.000000 0.000000
    87 -74.437500 12.773438 0.000000 0.000000 0.000000 -0.000001
    88 -12.500000 12.500000 0.000000 0.000000 0.000000 0.000000
    89 12.500000 12.500000 0.000000 0.000000 0.000000 0.000000
    90 12.492188 -12.492188 0.000000 0.000000 0.000000 0.000000
    91 -12.492188 -12.500000 0.000000 0.000000 0.000000 0.000000
    92 10.367188 2.341797 -1.041016 1.566653 -0.564520 -2.759211
    93 10.445313 2.634766 1.163086 0.921809 -0.364005 0.384206
    94 10.156250 2.791016 1.077148 1.552574 -0.417441 0.661589
    95 10.320313 2.958984 -1.132813 0.679593 -0.758166 -2.316103
  time 2
    0 -3.029297 -0.003439 -4.378906 0.000000 0.000000 1.567413
    1 13.263349 -17.617539 -13.767482 3.034292 0.109516 -4.462494
    2 -0.087545 -10.619892 -0.127575 -0.068981 0.116326 -0.035234
    3 -0.609615 -3.443129 -0.282949 -0.024901 0.047604 -0.194176
    4 0.047700 -1.846990 0.033759 -0.337047 -0.000001 -0.000002
    5 0.032695 -1.341370 -0.027015 0.006666 0.000000 0.000000
    6 0.007988 0.172182 -0.118553 -1.598091 -0.216549 -1.570593
    7 0.080660 0.135929 -0.203919 -1.506824 -0.066185 -1.662786
    8 0.117288 -0.155554 -0.604544 -1.412988 -0.374558 -1.569222
    9 0.312529 -3.523814 -0.296991 0.123309 -0.002921 0.008443
    10 -0.061479 -2.098525 0.123917 -0.240098 0.000000 -0.000003
    11 -0.041955 -1.433482 0.104314 0.108476 0.000000 0.000000
    12 -0.018589 0.129955 -0.123721 -1.294580 0.001302 -1.635383
    13 -0.006160 0.170065 -0.110169 -1.280084 -0.068681 -1.597215
    14 0.047100 -0.104074 -0.352264 -1.243368 -0.257298 -1.694346
    15 1.196054 -3.430397 -0.109834 0.386872 -0.090837 0.032054
    16 -0.041232 -1.744798 -0.011256 -0.245959 0.000000 0.000000
    17 -0.026267 -1.195726 0.022690 0.152463 0.000000 -0.000001
    18 -0.022325 0.045420 -0.038284 -1.125544 -0.129230 -1.681412
    19 -0.042900 -0.061274 -0.071212 -1.124462 -0.060454 -1.586099
    20 0.063741 -0.109104 -0.248158 -1.142813 -0.125805 -1.693583
    21 -1.473660 -3.132240 -0.240735 -0.133049 0.106739 -0.346744
    22 -0.028877 -1.401284 0.021503 -0.399772 -0.000003 -0.000007
    23 -0.023958 -1.113633 0.010091 -0.101890 0.000001 0.000004
    24 -0.011721 0.093266 0.017949 -1.687855 -0.079155 -1.575164
    25 0.048862 -0.085539 0.028626 -1.715605 -0.034569 -1.653190
    26 0.173919 -0.198418 -0.336163 -1.668104 -0.422317 -1.710956
    27 0.728045 -1.494163 0.228349 0.367000 -0.553694 -0.721503
    28 1.918752 0.010252 0.005009 -0.002964 -0.012980 -0.205635
    29 1.374216 0.004524 -0.010680 -0.005972 0.015002 -0.202546
    30 -0.267709 0.037512 -0.093907 2.913812 -0.143386 0.078467
    31 -0.029266 0.205408 -0.329287 2.788574 -0.255486 -0.188917
    32 0.204373 0.521055 -0.268577 2.886669 0.042206 -0.230367
    33 0.195697 -0.010059 -0.293538 -1.333586 0.150863 -1.672749
    34 9.031250 8.617188 -0.714355 -1.717460 -0.038379 -2.291096
    35 -0.093500 -0.114213 -0.738866 -1.570842 0.061811 0.002096
    36 0.010843 0.093625 -0.081439 -3.141463 0.041719 -1.568236
    37 -14.017282 -7.489140 -7.220254 -3.454868 0.081114 3.413341
    38 0.120373 -10.559858 -0.009359 -0.057772 0.221679 -0.146827
    39 0.557334 -3.498228 -0.247313 -0.471455 0.007042 0.102407
    40 -0.040724 -1.847400 0.004945 -0.803196 0.000001 -0.000004
    41 -0.030925 -1.342555 -0.024115 -0.268930 -0.000002 -0.000001
    42 0.006928 0.005329 -0.181358 -1.528500 -0.248579 -1.611362
    43 -0.052313 0.038591 -0.230756 -1.592493 -0.043415 -1.528515
    44 -0.232601 -0.209654 -0.420669 -1.713790 -0.167173 -1.438930
    45 -0.308126 -3.557925 -0.217173 -0.146031 -0.000125 -0.008397
    46 0.051052 -2.101920 0.119456 -0.729670 0.002824 -0.000165
    47 0.039542 -1.449899 0.070563 -0.456175 0.000644 0.008371
    48 -0.038065 0.069168 -0.159885 -1.816986 0.066178 -1.575392
    49 -0.025151 0.088764 -0.068836 -1.817843 0.044510 -1.568287
    50 -0.102916 -0.186983 -0.272247 -1.833683 -0.232962 -1.472375
    51 -1.202152 -3.480479 -0.104871 -0.240860 0.163153 -0.073061
    52 0.032383 -1.750735 0.006275 -0.381700 0.000003 -0.000002
    53 0.025319 -1.196069 0.023951 0.071781 0.000001 0.000001
    54 -0.004241 0.043707 -0.080204 -2.014997 -0.186996 -1.460723
    55 0.015383 -0.089136 -0.030010 -2.006083 0.036346 -1.568629
    56 -0.022610 -0.212355 -0.177906 -1.933161 -0.118801 -1.518895
    57 1.453549 -3.176768 -0.209390 -0.716368 0.010009 0.200253
    58 0.027940 -1.410300 0.021711 -0.745240 0.000004 0.000009
    59 0.014894 -1.102744 -0.023754 -0.382929 -0.000006 -0.000004
    60 -0.067138 0.063251 -0.010962 -0.899214 -0.014515 -1.600326
    61 -0.151180 -0.007393 -0.070065 -0.913061 -0.118819 -1.408558
    62 -0.178164 -0.244682 -0.357068 -1.159916 -0.384260 -1.556110
    63 -0.731305 -1.576982 0.247043 -0.775865 -0.853147 -2.024834
    64 1.903320 0.073303 0.021057 0.001409 0.008984 0.139420
    65 1.395299 0.060141 -0.005766 -0.011784 -0.021878 0.548999
    66 -0.263409 -0.117640 -0.015660 0.000036 -0.082210 -0.026800
    67 0.007707 -0.334358 -0.191575 0.070788 -0.181563 0.282364
    68 0.225562 -0.567923 -0.420715 0.119895 -0.183798 0.223460
    69 -0.203683 -0.095655 -0.328306 -1.745077 0.075142 -1.515382
    70 -9.010880 8.554017 -0.239438 1.605696 -0.001309 -0.796384
    71 0.036020 0.082816 -0.692656 -1.570769 0.065989 0.001276
    72 -0.088586 0.054021 -0.088593 0.010231 0.033800 -1.560851
    73 0.150146 -0.062805 -0.068054 -2.854024 0.030688 -1.580508
    74 -0.174194 -0.139526 0.017990 0.358630 0.302123 1.681020
    75 28.124646 19.309184 -43.940209 1.296814 -0.177140 3.517519
    76 28.700093 -14.344188 -39.596326 1.846039 -0.321250 3.178666
    77 15.178755 -15.019990 -35.727982 1.846007 -0.321246 3.178615
    78 -8.429688 1.859375 0.000182 0.000000 1.570796 3.141592
    79 15.177912 14.242623 -41.595349 1.296801 -0.177140 3.517521
    80 -8.601563 0.056671 -0.000684 0.000000 1.570796 -3.141591
    81 -41.406250 49.500000 4.898438 0.000000 0.000000 -0.000001
    82 -20.390625 15.500000 14.820313 1.504634 -0.696389 0.409599
    83 0.000000 0.000000 0.000000 0.000000 0.000000 0.000000
    84 0.000000 0.000000 0.000000 0.000000 0.000000 0.000000
    85 0.000000 0.000000 -0.000002 0.000000 0.000000 0.000000
    86 0.000000 -0.000002 -0.000004 0.000000 0.000000 0.000000
    87 -74.437500 12.773438 0.000000 0.000000 0.000000 -0.000001
    88 -12.500000 12.500000 0.000000 0.000000 0.000000 0.000000
    89 12.500000 12.500000 0.000000 0.000000 0.000000 0.000000
    90 12.492188 -12.492188 0.000000 0.000000 0.000000 0.000000
    91 -12.492188 -12.500000 0.000000 0.000000 0.000000 0.000000
    92 10.367188 2.341797 -1.041016 1.566653 -0.564520 -2.759211
    93 10.445313 2.634766 1.163086 0.921809 -0.364005 0.384206
    94 10.156250 2.791016 1.077148 1.552574 -0.417441 0.661589
    95 10.320313 2.958984 -1.132813 0.679593 -0.758166 -2.316103
  time 3
    0 -3.029297 -0.003439 -4.378906 0.000000 0.000000 1.567413
    1 13.505544 -17.617539 -17.427750 2.830026 0.349034 -4.506403
    2 -0.087545 -10.619892 -0.127575 -0.040747 0.136941 -0.022535
    3 -0.609615 -3.443129 -0.282949 0.004534 0.042942 -0.202973
    4 0.047700 -1.846990 0.033759 -0.287828 -0.000001 -0.000002
    5 0.032695 -1.341370 -0.027015 0.006051 0.000000 0.000000
    6 0.007988 0.172182 -0.118553 -1.598091 -0.216549 -1.570593
    7 0.080660 0.135929 -0.203919 -1.506824 -0.066185 -1.662786
    8 0.117288 -0.155554 -0.604544 -1.412988 -0.374558 -1.569222
    9 0.312529 -3.523814 -0.296991 0.113145 -0.002921 0.008443
    10 -0.061479 -2.098525 0.123917 -0.193571 0.000000 -0.000003
    11 -0.041955 -1.433482 0.104314 0.089871 0.000000 0.000000
    12 -0.018589 0.129955 -0.123721 -1.294580 0.001302 -1.635383
    13 -0.006160 0.170065 -0.110169 -1.280084 -0.068681 -1.597215
    14 0.047100 -0.104074 -0.352264 -1.243368 -0.257298 -1.694346
    15 1.196054 -3.430397 -0.109834 0.336349 -0.099753 0.051996
    16 -0.041232 -1.744798 -0.011256 -0.199520 0.000000 0.000000
    17 -0.026267 -1.195726 0.022690 0.133840 0.000000 -0.000001
    18 -0.022325 0.045420 -0.038284 -1.125544 -0.129230 -1.681412
    19 -0.042900 -0.061274 -0.071212 -1.124462 -0.060454 -1.586099
    20 0.063741 -0.109104 -0.248158 -1.142813 -0.125805 -1.693583
    21 -1.473660 -3.132240 -0.240735 -0.090578 0.095054 -0.363149
    22 -0.028877 -1.401284 0.021503 -0.338078 -0.000003 -0.000007
    23 -0.023958 -1.113633 0.010091 -0.091246 0.000001 0.000004
    24 -0.011721 0.093266 0.017949 -1.687855 -0.079155 -1.575164
    25 0.048862 -0.085539 0.028626 -1.715605 -0.034569 -1.653190
    26 0.173919 -0.198418 -0.336163 -1.668104 -0.422317 -1.710956
    27 0.728045 -1.494163 0.228349 0.340882 -0.530217 -0.676859
    28 1.918752 0.010252 0.005009 -0.002964 -0.012980 -0.167103
    29 1.374216 0.004524 -0.010680 -0.005457 0.015182 -0.169136
    30 -0.267709 0.037512 -0.093907 2.913812 -0.143386 0.078467
    31 -0.029266 0.205408 -0.329287 2.788574 -0.255486 -0.188917
    32 0.204373 0.521055 -0.268577 2.886669 0.042206 -0.230367
    33 0.195697 -0.010059 -0.293538 -1.333586 0.150863 -1.672749
    34 9.031250 8.617188 -0.714355 -1.717460 -0.038379 -2.291096
    35 -0.093500 -0.114213 -0.738866 -1.570842 0.061811 0.002096
    36 0.010843 0.093625 -0.081439 -3.141463 0.041719 -1.568236
    37 -14.986062 -10.793929 -8.317943 -3.438093 -0.167911 3.706142
    38 0.120373 -10.559858 -0.009359 -0.118479 0.221679 -0.146827
    39 0.557334 -3.498228 -0.247313 -0.512324 0.007042 0.102407
    40 -0.040724 -1.847400 0.004945 -0.889759 0.000001 -0.000004
    41 -0.030925 -1.342555 -0.024115 -0.335880 -0.000002 -0.000001
    42 0.006928 0.005329 -0.181358 -1.528500 -0.248579 -1.611362
    43 -0.052313 0.038591 -0.230756 -1.592493 -0.043415 -1.528515
    44 -0.232601 -0.209654 -0.420669 -1.713790 -0.167173 -1.438930
    45 -0.308126 -3.557925 -0.217173 -0.146031 -0.000125 -0.008397
    46 0.051052 -2.101920 0.119456 -0.729670 0.002824 -0.000165
    47 0.039542 -1.449899 0.070563 -0.456175 0.000644 0.008371
    48 -0.038065 0.069168 -0.159885 -1.816986 0.066178 -1.575392
    49 -0.025151 0.088764 -0.068836 -1.817843 0.044510 -1.568287
    50 -0.102916 -0.186983 -0.272247 -1.833683 -0.232962 -1.472375
    51 -1.202152 -3.480479 -0.104871 -0.240860 0.163153 -0.073061
    52 0.032383 -1.750735 0.006275 -0.381700 0.000003 -0.000002
    53 0.025319 -1.196069 0.023951 0.071781 0.000001 0.000001
    54 -0.004241 0.043707 -0.080204 -2.014997 -0.186996 -1.460723
    55 0.015383 -0.089136 -0.030010 -2.006083 0.036346 -1.568629
    56 -0.022610 -0.212355 -0.177906 -1.933161 -0.118801 -1.518895
    57 1.453549 -3.176768 -0.209390 -0.757283 0.010009 0.200253
    58 0.027940 -1.410300 0.021711 -0.831854 0.000004 0.000009
    59 0.014894 -1.102744 -0.023754 -0.449871 -0.000006 -0.000004
    60 -0.067138 0.063251 -0.010962 -0.899214 -0.014515 -1.600326
    61 -0.151180 -0.007393 -0.070065 -0.913061 -0.118819 -1.408558
    62 -0.178164 -0.244682 -0.357068 -1.159916 -0.384260 -1.556110
    63 -0.731305 -1.576982 0.247043 -0.749911 -0.861865 -2.023224
    64 1.903320 0.073303 0.021057 0.001409 0.008984 0.139420
    65 1.395299 0.060141 -0.005766 -0.010082 -0.022454 0.477090
    66 -0.263409 -0.117640 -0.015660 0.000036 -0.082210 -0.026800
    67 0.007707 -0.334358 -0.191575 0.070788 -0.181563 0.282364
    68 0.225562 -0.567923 -0.420715 0.119895 -0.183798 0.223460
    69 -0.203683 -0.095655 -0.328306 -1.745077 0.075142 -1.515382
    70 -9.010880 8.554017 -0.239438 1.605696 -0.001309 -0.796384
    71 0.036020 0.082816 -0.692656 -1.570769 0.065989 0.001276
    72 -0.088586 0.054021 -0.088593 0.010231 0.033800 -1.560851
    73 0.150146 -0.062805 -0.068054 -2.854024 0.030688 -1.580508
    74 -0.174194 -0.139526 0.017990 0.358630 0.302123 1.681020
    75 28.124646 19.309184 -43.940209 1.296814 -0.177140 3.517519
    76 28.032103 -16.406751 -49.495066 1.740034 -0.451021 3.025877
    77 15.178755 -15.019990 -43.915732 1.740012 -0.451134 3.025911
    78 -8.429688 1.859375 0.000182 0.000000 1.570796 3.141592
    79 15.177912 14.242623 -41.595349 1.296801 -0.177140 3.517521
    80 -8.601563 0.056671 -0.000684 0.000000 1.570796 -3.141591
    81 -41.406250 49.500000 4.898438 0.000000 0.000000 -0.000001
    82 -20.390625 15.500000 14.820313 1.504634 -0.696389 0.409599
    83 0.000000 0.000000 0.000000 0.000000 0.000000 0.000000
    84 0.000000 0.000000 0.000000 0.000000 0.000000 0.000000
    85 0.000000 0.000000 -0.000002 0.000000 0.000000 0.000000
    86 0.000000 -0.000002 -0.000004 0.000000 0.000000 0.000000
    87 -74.437500 12.773438 0.000000 0.000000 0.000000 -0.000001
    88 -12.500000 12.500000 0.000000 0.000000 0.000000 0.000000
    89 12.500000 12.500000 0.000000 0.000000 0.000000 0.000000
    90 12.492188 -12.492188 0.000000 0.000000 0.000000 0.000000
    91 -12.492188 -12.500000 0.000000 0.000000 0.000000 0.000000
    92 10.367188 2.341797 -1.041016 1.566653 -0.564520 -2.759211
    93 10.445313 2.634766 1.163086 0.921809 -0.364005 0.384206
    94 10.156250 2.791016 1.077148 1.552574 -0.417441 0.661589
    95 10.320313 2.958984 -1.132813 0.679593 -0.758166 -2.316103
  time 4
    0 -3.029297 -0.003439 -4.378906 0.000000 0.000000 1.567413
    1 13.614922 -17.617539 -19.025455 2.737220 0.457915 -4.523084
    2 -0.087545 -10.619892 -0.127575 -0.006608 0.161969 -0.007224
    3 -0.609615 -3.443129 -0.282949 0.030614 0.037273 -0.213639
    4 0.047700 -1.846990 0.033759 -0.238507 -0.000001 -0.000002
    5 0.032695 -1.341370 -0.027015 0.005378 0.000000 0.000000
    6 0.007988 0.172182 -0.118553 -1.598091 -0.216549 -1.570593
    7 0.080660 0.135929 -0.203919 -1.506824 -0.066185 -1.662786
    8 0.117288 -0.155554 -0.604544 -1.412988 -0.374558 -1.569222
    9 0.312529 -3.523814 -0.296991 0.100750 -0.002921 0.008443
    10 -0.061479 -2.098525 0.123917 -0.147566 0.000000 -0.000003
    11 -0.041955 -1.433482 0.104314 0.067353 0.000000 0.000000
    12 -0.018589 0.129955 -0.123721 -1.294580 0.001302 -1.635383
    13 -0.006160 0.170065 -0.110169 -1.280084 -0.068681 -1.597215
    14 0.047100 -0.104074 -0.352264 -1.243368 -0.257298 -1.694346
    15 1.196054 -3.430397 -0.109834 0.275011 -0.110599 0.076205
    16 -0.041232 -1.744798 -0.011256 -0.153459 0.000000 0.000000
    17 -0.026267 -1.195726 0.022690 0.111274 0.000000 -0.000001
    18 -0.022325 0.045420 -0.038284 -1.125544 -0.129230 -1.681412
    19 -0.042900 -0.061274 -0.071212 -1.124462 -0.060454 -1.586099
    20 0.063741 -0.109104 -0.248158 -1.142813 -0.125805 -1.693583
    21 -1.473660 -3.132240 -0.240735 -0.050493 0.080864 -0.383059
    22 -0.028877 -1.401284 0.021503 -0.273572 -0.000003 -0.000007
    23 -0.023958 -1.113633 0.010091 -0.082412 0.000001 0.000004
    24 -0.011721 0.093266 0.017949 -1.687855 -0.079155 -1.575164
    25 0.048862 -0.085539 0.028626 -1.715605 -0.034569 -1.653190
    26 0.173919 -0.198418 -0.336163 -1.668104 -0.422317 -1.710956
    27 0.728045 -1.494163 0.228349 0.309164 -0.505356 -0.622630
    28 1.918752 0.010252 0.005009 -0.002964 -0.012980 -0.129794
    29 1.374216 0.004524 -0.010680 -0.004917 0.015350 -0.134269
    30 -0.267709 0.037512 -0.093907 2.913812 -0.143386 0.078467
    31 -0.029266 0.205408 -0.329287 2.788574 -0.255486 -0.188917
    32 0.204373 0.521055 -0.268577 2.886669 0.042206 -0.230367
    33 0.195697 -0.010059 -0.293538 -1.333586 0.150863 -1.672749
    34 9.031250 8.617188 -0.714355 -1.717460 -0.038379 -2.291096
    35 -0.093500 -0.114213 -0.738866 -1.570842 0.061811 0.002096
    36 0.010843 0.093625 -0.081439 -3.141463 0.041719 -1.568236
    37 -15.419669 -13.501042 -8.814052 -3.431569 -0.276370 3.939925
    38 0.120373 -10.559858 -0.009359 -0.179160 0.221679 -0.146827
    39 0.557334 -3.498228 -0.247313 -0.561301 0.007042 0.102407
    40 -0.040724 -1.847400 0.004945 -0.993319 0.000001 -0.000004
    41 -0.030925 -1.342555 -0.024115 -0.415974 -0.000002 -0.000001
    42 0.006928 0.005329 -0.181358 -1.528500 -0.248579 -1.611362
    43 -0.052313 0.038591 -0.230756 -1.592493 -0.043415 -1.528515
    44 -0.232601 -0.209654 -0.420669 -1.713790 -0.167173 -1.438930
    45 -0.308126 -3.557925 -0.217173 -0.146031 -0.000125 -0.008397
    46 0.051052 -2.101920 0.119456 -0.729670 0.002824 -0.000165
    47 0.039542 -1.449899 0.070563 -0.456175 0.000644 0.008371
    48 -0.038065 0.069168 -0.159885 -1.816986 0.066178 -1.575392
    49 -0.025151 0.088764 -0.068836 -1.817843 0.044510 -1.568287
    50 -0.102916 -0.186983 -0.272247 -1.833683 -0.232962 -1.472375
    51 -1.202152 -3.480479 -0.104871 -0.240860 0.163153 -0.073061
    52 0.032383 -1.750735 0.006275 -0.381700 0.000003 -0.000002
    53 0.025319 -1.196069 0.023951 0.071781 0.000001 0.000001
    54 -0.004241 0.043707 -0.080204 -2.014997 -0.186996 -1.460723
    55 0.015383 -0.089136 -0.030010 -2.006083 0.036346 -1.568629
    56 -0.022610 -0.212355 -0.177906 -1.933161 -0.118801 -1.518895
    57 1.453549 -3.176768 -0.209390 -0.806223 0.010009 0.200253
    58 0.027940 -1.410300 0.021711 -0.935368 0.000004 0.000009
    59 0.014894 -1.102744 -0.023754 -0.529954 -0.000006 -0.000004
    60 -0.067138 0.063251 -0.010962 -0.899214 -0.014515 -1.600326
    61 -0.151180 -0.007393 -0.070065 -0.913061 -0.118819 -1.408558
    62 -0.178164 -0.244682 -0.357068 -1.159916 -0.384260 -1.556110
    63 -0.731305 -1.576982 0.247043 -0.718854 -0.872302 -2.021272
    64 1.903320 0.073303 0.021057 0.001409 0.008984 0.139420
    65 1.395299 0.060141 -0.005766 -0.008045 -0.023125 0.391078
    66 -0.263409 -0.117640 -0.015660 0.000036 -0.082210 -0.026800
    67 0.007707 -0.334358 -0.191575 0.070788 -0.181563 0.282364
    68 0.225562 -0.567923 -0.420715 0.119895 -0.183798 0.223460
    69 -0.203683 -0.095655 -0.328306 -1.745077 0.075142 -1.515382
    70 -9.010880 8.554017 -0.239438 1.605696 -0.001309 -0.796361
    71 0.036020 0.082816 -0.692656 -1.570769 0.065989 0.001276
    72 -0.088586 0.054021 -0.088593 0.010231 0.033800 -1.560851
    73 0.150146 -0.062805 -0.068054 -2.854024 0.030688 -1.580508
    74 -0.174194 -0.139526 0.017990 0.358630 0.302123 1.681020
    75 28.124646 19.309184 -43.940209 1.296814 -0.177140 3.517519
    76 28.032103 -16.406751 -49.495066 1.740034 -0.451021 3.025877
    77 15.178755 -15.019990 -43.915732 1.740012 -0.451134 3.025911
    78 -8.429688 1.859375 0.000182 0.000000 1.570796 3.141592
    79 15.177912 14.242623 -41.595349 1.296801 -0.177140 3.517521
    80 -8.601563 0.056671 -0.000684 0.000000 1.570796 -3.141591
    81 -41.406250 49.500000 4.898438 0.000000 0.000000 -0.000001
    82 -20.390625 15.500000 14.820313 1.504634 -0.696389 0.409599
    83 0.000000 0.000000 0.000000 0.000000 0.000000 0.000000
    84 0.000000 0.000000 0.000000 0.000000 0.000000 0.000000
    85 0.000000 0.000000 -0.000002 0.000000 0.000000 0.000000
    86 0.000000 -0.000002 -0.000004 0.000000 0.000000 0.000000
    87 -74.437500 12.773438 0.000000 0.000000 0.000000 -0.000001
    88 -12.500000 12.500000 0.000000 0.000000 0.000000 0.000000
    89 12.500000 12.500000 0.000000 0.000000 0.000000 0.000000
    90 12.492188 -12.492188 0.000000 0.000000 0.000000 0.000000
    91 -12.492188 -12.500000 0.000000 0.000000 0.000000 0.000000
    92 10.367188 2.341797 -1.041016 1.566653 -0.564520 -2.759211
    93 10.445313 2.634766 1.163086 0.921809 -0.364005 0.384206
    94 10.156250 2.791016 1.077148 1.552574 -0.417441 0.661589
    95 10.320313 2.958984 -1.132813 0.679593 -0.758166 -2.316103
  time 5
    0 -3.029297 -0.003439 -4.378906 0.000000 0.000000 1.567413
    1 13.614922 -17.617539 -19.025455 2.737220 0.457915 -4.523084
    2 -0.087545 -10.619892 -0.127575 0.030701 0.189203 0.009572
    3 -0.609615 -3.443129 -0.282949 0.053109 0.031125 -0.225252
    4 0.047700 -1.846990 0.033759 -0.191167 -0.000001 -0.000002
    5 0.032695 -1.341370 -0.027015 0.004646 0.000000 0.000000
    6 0.007988 0.172182 -0.118553 -1.598091 -0.216549 -1.570593
    7 0.080660 0.135929 -0.203919 -1.506824 -0.066185 -1.662786
    8 0.117288 -0.155554 -0.604544 -1.412988 -0.374558 -1.569222
    9 0.312529 -3.523814 -0.296991 0.087297 -0.002921 0.008443
    10 -0.061479 -2.098525 0.123917 -0.103762 0.000000 -0.000003
    11 -0.041955 -1.433482 0.104314 0.042784 0.000000 0.000000
    12 -0.018589 0.129955 -0.123721 -1.294580 0.001302 -1.635383
    13 -0.006160 0.170065 -0.110169 -1.280084 -0.068681 -1.597215
    14 0.047100 -0.104074 -0.352264 -1.243368 -0.257298 -1.694346
    15 1.196054 -3.430397 -0.109834 0.208265 -0.122404 0.102559
    16 -0.041232 -1.744798 -0.011256 -0.109671 0.000000 0.000000
    17 -0.026267 -1.195726 0.022690 0.086753 0.000000 -0.000001
    18 -0.022325 0.045420 -0.038284 -1.125544 -0.129230 -1.681412
    19 -0.042900 -0.061274 -0.071212 -1.124462 -0.060454 -1.586099
    20 0.063741 -0.109104 -0.248158 -1.142813 -0.125805 -1.693583
    21 -1.473660 -3.132240 -0.240735 -0.013869 0.065428 -0.404738
    22 -0.028877 -1.401284 0.021503 -0.209658 -0.000003 -0.000007
    23 -0.023958 -1.113633 0.010091 -0.075244 0.000001 0.000004
    24 -0.011721 0.093266 0.017949 -1.687855 -0.079155 -1.575164
    25 0.048862 -0.085539 0.028626 -1.715605 -0.034569 -1.653190
    26 0.173919 -0.198418 -0.336163 -1.668104 -0.422317 -1.710956
    27 0.728045 -1.494163 0.228349 0.274638 -0.480516 -0.563620
    28 1.918752 0.010252 0.005009 -0.002964 -0.012980 -0.094904
    29 1.374216 0.004524 -0.010680 -0.004390 0.015506 -0.099778
    30 -0.267709 0.037512 -0.093907 2.913812 -0.143386 0.078467
    31 -0.029266 0.205408 -0.329287 2.788574 -0.255486 -0.188917
    32 0.204373 0.521055 -0.268577 2.886669 0.042206 -0.230367
    33 0.195697 -0.010059 -0.293538 -1.333586 0.150863 -1.672749
    34 9.031250 8.617188 -0.714355 -1.717460 -0.038379 -2.291096
    35 -0.093500 -0.114213 -0.738866 -1.570842 0.061811 0.002096
    36 0.010843 0.093625 -0.081439 -3.141463 0.041719 -1.568236
    37 -15.372792 -15.380006 -7.771052 -3.433247 -0.232001 4.085895
    38 0.120373 -10.559858 -0.009359 -0.225845 0.221679 -0.146827
    39 0.557334 -3.498228 -0.247313 -0.613411 0.007042 0.102407
    40 -0.040724 -1.847400 0.004945 -1.103659 0.000001 -0.000004
    41 -0.030925 -1.342555 -0.024115 -0.501302 -0.000002 -0.000001
    42 0.006928 0.005329 -0.181358 -1.528500 -0.248579 -1.611362
    43 -0.052313 0.038591 -0.230756 -1.592493 -0.043415 -1.528515
    44 -0.232601 -0.209654 -0.420669 -1.713790 -0.167173 -1.438930
    45 -0.308126 -3.557925 -0.217173 -0.146031 -0.000125 -0.008397
    46 0.051052 -2.101920 0.119456 -0.729670 0.002824 -0.000165
    47 0.039542 -1.449899 0.070563 -0.456175 0.000644 0.008371
    48 -0.038065 0.069168 -0.159885 -1.816986 0.066178 -1.575392
    49 -0.025151 0.088764 -0.068836 -1.817843 0.044510 -1.568287
    50 -0.102916 -0.186983 -0.272247 -1.833683 -0.232962 -1.472375
    51 -1.202152 -3.480479 -0.104871 -0.240860 0.163153 -0.073061
    52 0.032383 -1.750735 0.006275 -0.381700 0.000003 -0.000002
    53 0.025319 -1.196069 0.023951 0.071781 0.000001 0.000001
    54 -0.004241 0.043707 -0.080204 -2.014997 -0.186996 -1.460723
    55 0.015383 -0.089136 -0.030010 -2.006083 0.036346 -1.568629
    56 -0.022610 -0.212355 -0.177906 -1.933161 -0.118801 -1.518895
    57 1.453549 -3.176768 -0.209390 -0.858334 0.010009 0.200253
    58 0.027940 -1.410300 0.021711 -1.045758 0.000004 0.000009
    59 0.014894 -1.102744 -0.023754 -0.615288 -0.000006 -0.000004
    60 -0.067138 0.063251 -0.010962 -0.899214 -0.014515 -1.600326
    61 -0.151180 -0.007393 -0.070065 -0.913061 -0.118819 -1.408558
    62 -0.178164 -0.244682 -0.357068 -1.159916 -0.384260 -1.556110
    63 -0.731305 -1.576982 0.247043 -0.685779 -0.883414 -2.019223
    64 1.903320 0.073303 0.021057 0.001409 0.008984 0.139420
    65 1.395299 0.060141 -0.005766 -0.005888 -0.023844 0.299443
    66 -0.263409 -0.117640 -0.015660 0.000036 -0.082210 -0.026800
    67 0.007707 -0.334358 -0.191575 0.070788 -0.181563 0.282364
    68 0.225562 -0.567923 -0.420715 0.119895 -0.183798 0.223460
    69 -0.203683 -0.095655 -0.328306 -1.745077 0.075142 -1.515382
    70 -9.010880 8.554017 -0.239438 1.605696 -0.001309 -0.796384
    71 0.036020 0.082816 -0.692656 -1.570769 0.065989 0.001276
    72 -0.088586 0.054021 -0.088593 0.010231 0.033800 -1.560851
    73 0.150146 -0.062805 -0.068054 -2.854024 0.030688 -1.580508
    74 -0.174194 -0.139526 0.017990 0.358630 0.302123 1.681020
    75 28.730133 17.781794 -38.443947 1.264778 -0.123497 3.400219
    76 28.032103 -16.406751 -49.495066 1.740034 -0.451021 3.025877
    77 15.178755 -15.019990 -43.915732 1.740012 -0.451134 3.025911
    78 -8.429688 1.859375 0.000182 0.000000 1.570796 3.141592
    79 15.177912 14.242623 -36.845204 1.264855 -0.123497 3.400243
    80 -8.601563 0.056671 -0.000684 0.000000 1.570796 -3.141591
    81 -41.406250 49.500000 4.898438 0.000000 0.000000 -0.000001
    82 -20.390625 15.500000 14.820313 1.504634 -0.696389 0.409599
    83 0.000000 0.000000 0.000000 0.000000 0.000000 0.000000
    84 0.000000 0.000000 0.000000 0.000000 0.000000 0.000000
    85 0.000000 0.000000 -0.000002 0.000000 0.000000 0.000000
    86 0.000000 -0.000002 -0.000004 0.000000 0.000000 0.000000
    87 -74.437500 12.773438 0.000000 0.000000 0.000000 -0.000001
    88 -12.500000 12.500000 0.000000 0.000000 0.000000 0.000000
    89 12.500000 12.500000 0.000000 0.000000 0.000000 0.000000
    90 12.492188 -12.492188 0.000000 0.000000 0.000000 0.000000
    91 -12.492188 -12.500000 0.000000 0.000000 0.000000 0.000000
    92 10.367188 2.341797 -1.041016 1.566653 -0.564520 -2.759211
    93 10.445313 2.634766 1.163086 0.921809 -0.364005 0.384206
    94 10.156250 2.791016 1.077148 1.552574 -0.417441 0.661589
    95 10.320313 2.958984 -1.132813 0.679593 -0.758166 -2.316103
  time 6
    0 -3.029297 -0.003439 -4.378906 0.000000 0.000000 1.567413
    1 13.614922 -17.617539 -19.025455 2.737220 0.457915 -4.523084
    2 -0.087545 -10.619892 -0.127575 0.067937 0.216472 0.026215
    3 -0.609615 -3.443129 -0.282949 0.071888 0.024965 -0.236877
    4 0.047700 -1.846990 0.033759 -0.147738 -0.000001 -0.000002
    5 0.032695 -1.341370 -0.027015 0.003885 0.000000 0.000000
    6 0.007988 0.172182 -0.118553 -1.598091 -0.216549 -1.570593
    7 0.080660 0.135929 -0.203919 -1.506824 -0.066185 -1.662786
    8 0.117288 -0.155554 -0.604544 -1.412988 -0.374558 -1.569222
    9 0.312529 -3.523814 -0.296991 0.073843 -0.002921 0.008443
    10 -0.061479 -2.098525 0.123917 -0.064015 0.000000 -0.000003
    11 -0.041955 -1.433482 0.104314 0.018247 0.000000 0.000000
    12 -0.018589 0.129955 -0.123721 -1.294580 0.001302 -1.635383
    13 -0.006160 0.170065 -0.110169 -1.280084 -0.068681 -1.597215
    14 0.047100 -0.104074 -0.352264 -1.243368 -0.257298 -1.694346
    15 1.196054 -3.430397 -0.109834 0.141520 -0.134209 0.128902
    16 -0.041232 -1.744798 -0.011256 -0.069907 0.000000 0.000000
    17 -0.026267 -1.195726 0.022690 0.062232 0.000000 -0.000001
    18 -0.022325 0.045420 -0.038284 -1.125544 -0.129230 -1.681412
    19 -0.042900 -0.061274 -0.071212 -1.124462 -0.060454 -1.586099
    20 0.063741 -0.109104 -0.248158 -1.142813 -0.125805 -1.693583
    21 -1.473660 -3.132240 -0.240735 0.018368 0.049992 -0.426405
    22 -0.028877 -1.401284 0.021503 -0.149742 -0.000003 -0.000007
    23 -0.023958 -1.113633 0.010091 -0.069704 0.000001 0.000004
    24 -0.011721 0.093266 0.017949 -1.687855 -0.079155 -1.575164
    25 0.048862 -0.085539 0.028626 -1.715605 -0.034569 -1.653190
    26 0.173919 -0.198418 -0.336163 -1.668104 -0.422317 -1.710956
    27 0.728045 -1.494163 0.228349 0.240111 -0.457018 -0.504609
    28 1.918752 0.010252 0.005009 -0.002964 -0.012980 -0.063625
    29 1.374216 0.004524 -0.010680 -0.003887 0.015649 -0.067449
    30 -0.267709 0.037512 -0.093907 2.913812 -0.143386 0.078467
    31 -0.029266 0.205408 -0.329287 2.788574 -0.255486 -0.188917
    32 0.204373 0.521055 -0.268577 2.886669 0.042206 -0.230367
    33 0.195697 -0.010059 -0.293538 -1.333586 0.150863 -1.672749
    34 9.031250 8.617188 -0.714355 -1.717460 -0.038379 -2.291096
    35 -0.093500 -0.114213 -0.738866 -1.570842 0.061811 0.002096
    36 0.010843 0.093625 -0.081439 -3.141463 0.041719 -1.568236
    37 -15.169661 -16.594887 -5.708489 -3.436229 -0.140649 4.165959
    38 0.120373 -10.559858 -0.009359 -0.244514 0.221679 -0.146827
    39 0.557334 -3.498228 -0.247313 -0.663927 0.007042 0.102407
    40 -0.040724 -1.847400 0.004945 -1.210562 0.000001 -0.000004
    41 -0.030925 -1.342555 -0.024115 -0.584013 -0.000002 -0.000001
    42 0.006928 0.005329 -0.181358 -1.528500 -0.248579 -1.611362
    43 -0.052313 0.038591 -0.230756 -1.592493 -0.043415 -1.528515
    44 -0.232601 -0.209654 -0.420669 -1.713790 -0.167173 -1.438930
    45 -0.308126 -3.557925 -0.217173 -0.146031 -0.000125 -0.008397
    46 0.051052 -2.101920 0.119456 -0.729670 0.002824 -0.000165
    47 0.039542 -1.449899 0.070563 -0.456175 0.000644 0.008371
    48 -0.038065 0.069168 -0.159885 -1.816986 0.066178 -1.575392
    49 -0.025151 0.088764 -0.068836 -1.817843 0.044510 -1.568287
    50 -0.102916 -0.186983 -0.272247 -1.833683 -0.232962 -1.472375
    51 -1.202152 -3.480479 -0.104871 -0.240860 0.163153 -0.073061
    52 0.032383 -1.750735 0.006275 -0.381700 0.000003 -0.000002
    53 0.025319 -1.196069 0.023951 0.071781 0.000001 0.000001
    54 -0.004241 0.043707 -0.080204 -2.014997 -0.186996 -1.460723
    55 0.015383 -0.089136 -0.030010 -2.006083 0.036346 -1.568629
    56 -0.022610 -0.212355 -0.177906 -1.933161 -0.118801 -1.518895
    57 1.453549 -3.176768 -0.209390 -0.908892 0.010009 0.200253
    58 0.027940 -1.410300 0.021711 -1.152710 0.000004 0.000009
    59 0.014894 -1.102744 -0.023754 -0.698014 -0.000006 -0.000004
    60 -0.067138 0.063251 -0.010962 -0.899214 -0.014515 -1.600326
    61 -0.151180 -0.007393 -0.070065 -0.913061 -0.118819 -1.408558
    62 -0.178164 -0.244682 -0.357068 -1.159916 -0.384260 -1.556110
    63 -0.731305 -1.576982 0.247043 -0.653713 -0.894178 -2.017198
    64 1.903320 0.073303 0.021057 0.001409 0.008984 0.139420
    65 1.395299 0.060141 -0.005766 -0.003766 -0.024539 0.210605
    66 -0.263409 -0.117640 -0.015660 0.000036 -0.082210 -0.026800
    67 0.007707 -0.334358 -0.191575 0.070788 -0.181563 0.282364
    68 0.225562 -0.567923 -0.420715 0.119895 -0.183798 0.223460
    69 -0.203683 -0.095655 -0.328306 -1.745077 0.075142 -1.515382
    70 -9.010880 8.554017 -0.239438 1.605696 -0.001309 -0.796384
    71 0.036020 0.082816 -0.692656 -1.570769 0.065989 0.001276
    72 -0.088586 0.054021 -0.088593 0.010231 0.033800 -1.560851
    73 0.150146 -0.062805 -0.068054 -2.854024 0.030688 -1.580508
    74 -0.174194 -0.139526 0.017990 0.358630 0.302123 1.681020
    75 29.273118 14.121526 -26.330297 1.189041 -0.005522 3.136867
    76 28.032103 -16.406751 -49.495066 1.740034 -0.451021 3.025877
    77 15.178755 -15.019990 -43.915732 1.740012 -0.451134 3.025911
    78 -8.429688 1.859375 0.000182 0.000000 1.570796 3.141592
    79 15.177912 14.242623 -26.391760 1.189085 -0.005522 3.136933
    80 -8.601563 0.056671 -0.000684 0.000000 1.570796 -3.141591
    81 -41.406250 49.500000 4.898438 0.000000 0.000000 -0.000001
    82 -20.390625 15.500000 14.820313 1.504634 -0.696389 0.409599
    83 0.000000 0.000000 0.000000 0.000000 0.000000 0.000000
    84 0.000000 0.000000 0.000000 0.000000 0.000000 0.000000
    85 0.000000 0.000000 -0.000002 0.000000 0.000000 0.000000
    86 0.000000 -0.000002 -0.000004 0.000000 0.000000 0.000000
    87 -74.437500 12.773438 0.000000 0.000000 0.000000 -0.000001
    88 -12.500000 12.500000 0.000000 0.000000 0.000000 0.000000
    89 12.500000 12.500000 0.000000 0.000000 0.000000 0.000000
    90 12.492188 -12.492188 0.000000 0.000000 0.000000 0.000000
    91 -12.492188 -12.500000 0.000000 0.000000 0.000000 0.000000
    92 10.367188 2.341797 -1.041016 1.566653 -0.564520 -2.759211
    93 10.445313 2.634766 1.163086 0.921809 -0.364005 0.384206
    94 10.156250 2.791016 1.077148 1.552574 -0.417441 0.661589
    95 10.320313 2.958984 -1.132813 0.679593 -0.758166 -2.316103
  time 7
    0 -3.029297 -0.003439 -4.378906 0.000000 0.000000 1.567413
    1 13.614922 -17.617539 -19.025455 2.737220 0.457915 -4.523084
    2 -0.087545 -10.619892 -0.127575 0.102221 0.241500 0.041577
    3 -0.609615 -3.443129 -0.282949 0.086786 0.019297 -0.247556
    4 0.047700 -1.846990 0.033759 -0.110404 -0.000001 -0.000002
    5 0.032695 -1.341370 -0.027015 0.003153 0.000000 0.000000
    6 0.007988 0.172182 -0.118553 -1.598091 -0.216549 -1.570593
    7 0.080660 0.135929 -0.203919 -1.506824 -0.066185 -1.662786
    8 0.117288 -0.155554 -0.604544 -1.412988 -0.374558 -1.569222
    9 0.312529 -3.523814 -0.296991 0.061448 -0.002921 0.008443
    10 -0.061479 -2.098525 0.123917 -0.029945 0.000000 -0.000003
    11 -0.041955 -1.433482 0.104314 -0.004334 0.000000 0.000000
    12 -0.018589 0.129955 -0.123721 -1.294580 0.001302 -1.635383
    13 -0.006160 0.170065 -0.110169 -1.280084 -0.068681 -1.597215
    14 0.047100 -0.104074 -0.352264 -1.243368 -0.257298 -1.694346
    15 1.196054 -3.430397 -0.109834 0.080182 -0.145055 0.153122
    16 -0.041232 -1.744798 -0.011256 -0.035870 0.000000 0.000000
    17 -0.026267 -1.195726 0.022690 0.039666 0.000000 -0.000001
    18 -0.022325 0.045420 -0.038284 -1.125544 -0.129230 -1.681412
    19 -0.042900 -0.061274 -0.071212 -1.124462 -0.060454 -1.586099
    20 0.063741 -0.109104 -0.248158 -1.142813 -0.125805 -1.693583
    21 -1.473660 -3.132240 -0.240735 0.045144 0.035802 -0.446314
    22 -0.028877 -1.401284 0.021503 -0.097229 -0.000003 -0.000007
    23 -0.023958 -1.113633 0.010091 -0.065613 0.000001 0.000004
    24 -0.011721 0.093266 0.017949 -1.687855 -0.079155 -1.575164
    25 0.048862 -0.085539 0.028626 -1.715605 -0.034569 -1.653190
    26 0.173919 -0.198418 -0.336163 -1.668104 -0.422317 -1.710956
    27 0.728045 -1.494163 0.228349 0.208394 -0.436332 -0.450380
    28 1.918752 0.010252 0.005009 -0.002964 -0.012980 -0.037212
    29 1.374216 0.004524 -0.010680 -0.003443 0.015781 -0.039161
    30 -0.267709 0.037512 -0.093907 2.913812 -0.143386 0.078467
    31 -0.029266 0.205408 -0.329287 2.788574 -0.255486 -0.188917
    32 0.204373 0.521055 -0.268577 2.886669 0.042206 -0.230367
    33 0.195697 -0.010059 -0.293538 -1.333586 0.150863 -1.672749
    34 9.031250 8.617188 -0.714355 -1.717460 -0.038379 -2.291096
    35 -0.093500 -0.114213 -0.738866 -1.570842 0.061811 0.002096
    36 0.010843 0.093625 -0.081439 -3.141463 0.041719 -1.568236
    37 -14.771211 -17.024588 -4.188911 -3.437906 -0.065014 4.190255
    38 0.120373 -10.559858 -0.009359 -0.075749 0.221679 -0.146827
    39 0.557334 -3.498228 -0.247313 -0.708039 0.007042 0.102407
    40 -0.040724 -1.847400 0.004945 -1.303952 0.000001 -0.000004
    41 -0.030925 -1.342555 -0.024115 -0.656227 -0.000002 -0.000001
    42 0.006928 0.005329 -0.181358 -1.528500 -0.248579 -1.611362
    43 -0.052313 0.038591 -0.230756 -1.592493 -0.043415 -1.528515
    44 -0.232601 -0.209654 -0.420669 -1.713790 -0.167173 -1.438930
    45 -0.308126 -3.557925 -0.217173 -0.374127 -0.000125 -0.008397
    46 0.051052 -2.101920 0.119456 -1.264936 0.002824 -0.000165
    47 0.039542 -1.449899 0.070563 -0.859466 0.000644 0.008371
    48 -0.038065 0.069168 -0.159885 -1.816986 0.066178 -1.575392
    49 -0.025151 0.088764 -0.068836 -1.817843 0.044510 -1.568287
    50 -0.102916 -0.186983 -0.272247 -1.833683 -0.232962 -1.472375
    51 -1.202152 -3.480479 -0.104871 -0.468977 0.163153 -0.073061
    52 0.032383 -1.750735 0.006275 -0.916887 0.000003 -0.000002
    53 0.025319 -1.196069 0.023951 -0.331459 0.000001 0.000001
    54 -0.004241 0.043707 -0.080204 -2.014997 -0.186996 -1.460723
    55 0.015383 -0.089136 -0.030010 -2.006083 0.036346 -1.568629
    56 -0.022610 -0.212355 -0.177906 -1.933161 -0.118801 -1.518895
    57 1.453549 -3.176768 -0.209390 -0.953010 0.010009 0.200253
    58 0.027940 -1.410300 0.021711 -1.246034 0.000004 0.000009
    59 0.014894 -1.102744 -0.023754 -0.770205 -0.000006 -0.000004
    60 -0.067138 0.063251 -0.010962 -0.899214 -0.014515 -1.600326
    61 -0.151180 -0.007393 -0.070065 -0.913061 -0.118819 -1.408558
    62 -0.178164 -0.244682 -0.357068 -1.159916 -0.384260 -1.556110
    63 -0.731305 -1.576982 0.247043 -0.625722 -0.903572 -2.015417
    64 1.903320 0.073303 0.021057 0.001409 0.008984 0.139420
    65 1.395299 0.060141 -0.005766 -0.001945 -0.025126 0.133043
    66 -0.263409 -0.117640 -0.015660 0.000036 -0.082210 -0.026800
    67 0.007707 -0.334358 -0.191575 0.070788 -0.181563 0.282364
    68 0.225562 -0.567923 -0.420715 0.119895 -0.183798 0.223460
    69 -0.203683 -0.095655 -0.328306 -1.745077 0.075142 -1.515382
    70 -9.010880 8.554017 -0.239438 1.605696 -0.001309 -0.796384
    71 0.036020 0.082816 -0.692656 -1.570769 0.065989 0.001276
    72 -0.088586 0.054021 -0.088593 0.010231 0.033800 -1.560851
    73 0.150146 -0.062805 -0.068054 -2.854024 0.030688 -1.580508
    74 -0.174194 -0.139526 0.017990 0.358630 0.302123 1.681020
    75 28.601223 10.301097 -14.220552 1.099533 0.112454 2.860619
    76 28.032103 -16.406751 -49.495066 1.740034 -0.451021 3.025877
    77 15.178755 -15.019990 -43.915732 1.740012 -0.451134 3.025911
    78 -8.429688 1.859375 0.000182 0.000000 1.570796 3.141592
    79 15.177912 14.242623 -15.930503 1.099496 0.112454 2.860612
    80 -8.601563 0.056671 -0.000684 0.000000 1.570796 -3.141591
    81 -41.406250 49.500000 4.898438 0.000000 0.000000 -0.000001
    82 -20.390625 15.500000 14.820313 1.504634 -0.696389 0.409599
    83 0.000000 0.000000 0.000000 0.000000 0.000000 0.000000
    84 0.000000 0.000000 0.000000 0.000000 0.000000 0.000000
    85 0.000000 0.000000 -0.000002 0.000000 0.000000 0.000000
    86 0.000000 -0.000002 -0.000004 0.000000 0.000000 0.000000
    87 -74.437500 12.773438 0.000000 0.000000 0.000000 -0.000001
    88 -12.500000 12.500000 0.000000 0.000000 0.000000 0.000000
    89 12.500000 12.500000 0.000000 0.000000 0.000000 0.000000
    90 12.492188 -12.492188 0.000000 0.000000 0.000000 0.000000
    91 -12.492188 -12.500000 0.000000 0.000000 0.000000 0.000000
    92 10.367188 2.341797 -1.041016 1.566653 -0.564520 -2.759211
    93 10.445313 2.634766 1.163086 0.921809 -0.364005 0.384206
    94 10.156250 2.791016 1.077148 1.552574 -0.417441 0.661589
    95 10.320313 2.958984 -1.132813 0.679593 -0.758166 -2.316103
  time 8
    0 -3.029297 -0.003439 -4.378906 0.000000 0.000000 1.567413
    1 13.614922 -17.617539 -19.025455 2.737220 0.457915 -4.523084
    2 -0.087545 -10.619892 -0.127575 0.130382 0.262115 0.054225
    3 -0.609615 -3.443129 -0.282949 0.097639 0.014647 -0.256340
    4 0.047700 -1.846990 0.033759 -0.081197 -0.000001 -0.000002
    5 0.032695 -1.341370 -0.027015 0.002626 0.000000 0.000000
    6 0.007988 0.172182 -0.118553 -1.598091 -0.216549 -1.570593
    7 0.080660 0.135929 -0.203919 -1.506824 -0.066185 -1.662786
    8 0.117288 -0.155554 -0.604544 -1.412988 -0.374558 -1.569222
    9 0.312529 -3.523814 -0.296991 0.051284 -0.002921 0.008443
    10 -0.061479 -2.098525 0.123917 -0.003466 0.000000 -0.000003
    11 -0.041955 -1.433482 0.104314 -0.022908 0.000000 0.000000
    12 -0.018589 0.129955 -0.123721 -1.294580 0.001302 -1.635383
    13 -0.006160 0.170065 -0.110169 -1.280084 -0.068681 -1.597215
    14 0.047100 -0.104074 -0.352264 -1.243368 -0.257298 -1.694346
    15 1.196054 -3.430397 -0.109834 0.029683 -0.153996 0.173065
    16 -0.041232 -1.744798 -0.011256 -0.009313 0.000000 0.000000
    17 -0.026267 -1.195726 0.022690 0.021043 0.000000 -0.000001
    18 -0.022325 0.045420 -0.038284 -1.125544 -0.129230 -1.681412
    19 -0.042900 -0.061274 -0.071212 -1.124462 -0.060454 -1.586099
    20 0.063741 -0.109104 -0.248158 -1.142813 -0.125805 -1.693583
    21 -1.473660 -3.132240 -0.240735 0.065533 0.024129 -0.462707
    22 -0.028877 -1.401284 0.021503 -0.055475 -0.000003 -0.000007
    23 -0.023958 -1.113633 0.010091 -0.062826 0.000001 0.000004
    24 -0.011721 0.093266 0.017949 -1.687855 -0.079155 -1.575164
    25 0.048862 -0.085539 0.028626 -1.715605 -0.034569 -1.653190
    26 0.173919 -0.198418 -0.336163 -1.668104 -0.422317 -1.710956
    27 0.728045 -1.494163 0.228349 0.182275 -0.419822 -0.405736
    28 1.918752 0.010252 0.005009 -0.002964 -0.012980 -0.016829
    29 1.374216 0.004524 -0.010680 -0.003108 0.015889 -0.016700
    30 -0.267709 0.037512 -0.093907 2.913812 -0.143386 0.078467
    31 -0.029266 0.205408 -0.329287 2.788574 -0.255486 -0.188917
    32 0.204373 0.521055 -0.268577 2.886669 0.042206 -0.230367
    33 0.195697 -0.010059 -0.293538 -1.333586 0.150863 -1.672749
    34 9.031250 8.617188 -0.714355 -1.717460 -0.038379 -2.291096
    35 -0.093500 -0.114213 -0.738866 -1.570842 0.061811 0.002096
    36 0.010843 0.093625 -0.081439 -3.141463 0.041719 -1.568236
    37 -13.876653 -17.024588 -3.681083 -3.349372 -0.025786 4.159072
    38 0.120373 -10.559858 -0.009359 0.092961 0.221679 -0.146827
    39 0.557334 -3.498228 -0.247313 -0.595986 0.007042 0.102407
    40 -0.040724 -1.847400 0.004945 -1.066752 0.000001 -0.000004
    41 -0.030925 -1.342555 -0.024115 -0.472773 -0.000002 -0.000001
    42 0.006928 0.005329 -0.181358 -1.528500 -0.248579 -1.611362
    43 -0.052313 0.038591 -0.230756 -1.592493 -0.043415 -1.528515
    44 -0.232601 -0.209654 -0.420669 -1.713790 -0.167173 -1.438930
    45 -0.308126 -3.557925 -0.217173 -0.051977 -0.000125 -0.008397
    46 0.051052 -2.101920 0.119456 -0.635652 0.002824 -0.000165
    47 0.039542 -1.449899 0.070563 -0.362141 0.000644 0.008371
    48 -0.038065 0.069168 -0.159885 -1.816986 0.066178 -1.575392
    49 -0.025151 0.088764 -0.068836 -1.817843 0.044510 -1.568287
    50 -0.102916 -0.186983 -0.272247 -1.833683 -0.232962 -1.472375
    51 -1.202152 -3.480479 -0.104871 -0.146818 0.163153 -0.073061
    52 0.032383 -1.750735 0.006275 -0.287616 0.000003 -0.000002
    53 0.025319 -1.196069 0.023951 0.165826 0.000001 0.000001
    54 -0.004241 0.043707 -0.080204 -2.014997 -0.186996 -1.460723
    55 0.015383 -0.089136 -0.030010 -2.006083 0.036346 -1.568629
    56 -0.022610 -0.212355 -0.177906 -1.933161 -0.118801 -1.518895
    57 1.453549 -3.176768 -0.209390 -0.840922 0.010009 0.200253
    58 0.027940 -1.410300 0.021711 -1.008809 0.000004 0.000009
    59 0.014894 -1.102744 -0.023754 -0.586749 -0.000006 -0.000004
    60 -0.067138 0.063251 -0.010962 -0.899214 -0.014515 -1.600326
    61 -0.151180 -0.007393 -0.070065 -0.913061 -0.118819 -1.408558
    62 -0.178164 -0.244682 -0.357068 -1.159916 -0.384260 -1.556110
    63 -0.731305 -1.576982 0.247043 -0.696837 -0.879689 -2.019906
    64 1.903320 0.073303 0.021057 0.001409 0.008984 0.139420
    65 1.395299 0.060141 -0.005766 -0.006607 -0.023592 0.330087
    66 -0.263409 -0.117640 -0.015660 0.000036 -0.082210 -0.026800
    67 0.007707 -0.334358 -0.191575 0.070788 -0.181563 0.282364
    68 0.225562 -0.567923 -0.420715 0.119895 -0.183798 0.223460
    69 -0.203683 -0.095655 -0.328306 -1.745077 0.075142 -1.515382
    70 -9.010880 8.554017 -0.239438 1.605696 -0.001309 -0.796361
    71 0.036020 0.082816 -0.692656 -1.570769 0.065989 0.001276
    72 -0.088586 0.054021 -0.088593 0.010231 0.033800 -1.560851
    73 0.150146 -0.062805 -0.068054 -2.854024 0.030688 -1.580508
    74 -0.174194 -0.139526 0.017990 0.358630 0.302123 1.681020
    75 27.718384 8.289316 -8.724290 1.026377 0.166096 2.703869
    76 28.032103 -16.406751 -49.495066 1.740034 -0.451021 3.025877
    77 15.178755 -15.019990 -43.915732 1.740012 -0.451134 3.025911
    78 -8.429688 1.859375 0.000182 0.000000 1.570796 3.141592
    79 15.177912 14.242623 -11.180358 1.026376 0.166096 2.703885
    80 -8.601563 0.056671 -0.000684 0.000000 1.570796 -3.141591
    81 -41.406250 49.500000 4.898438 0.000000 0.000000 -0.000001
    82 -20.390625 15.500000 14.820313 1.504634 -0.696389 0.409599
    83 0.000000 0.000000 0.000000 0.000000 0.000000 0.000000
    84 0.000000 0.000000 0.000000 0.000000 0.000000 0.000000
    85 0.000000 0.000000 -0.000002 0.000000 0.000000 0.000000
    86 0.000000 -0.000002 -0.000004 0.000000 0.000000 0.000000
    87 -74.437500 12.773438 0.000000 0.000000 0.000000 -0.000001
    88 -12.500000 12.500000 0.000000 0.000000 0.000000 0.000000
    89 12.500000 12.500000 0.000000 0.000000 0.000000 0.000000
    90 12.492188 -12.492188 0.000000 0.000000 0.000000 0.000000
    91 -12.492188 -12.500000 0.000000 0.000000 0.000000 0.000000
    92 10.367188 2.341797 -1.041016 1.566653 -0.564520 -2.759211
    93 10.445313 2.634766 1.163086 0.921809 -0.364005 0.384206
    94 10.156250 2.791016 1.077148 1.552574 -0.417441 0.661589
    95 10.320313 2.958984 -1.132813 0.679593 -0.758166 -2.316103
  time 9
    0 -3.029297 -0.003439 -4.378906 0.000000 0.000000 1.567413
    1 13.614922 -17.617539 -19.025455 2.737220 0.457915 -4.523084
    2 -0.087545 -10.619892 -0.127575 0.149613 0.276111 0.062828
    3 -0.609615 -3.443129 -0.282949 0.104249 0.011495 -0.262309
    4 0.047700 -1.846990 0.033759 -0.062150 -0.000001 -0.000002
    5 0.032695 -1.341370 -0.027015 0.002187 0.000000 0.000000
    6 0.007988 0.172182 -0.118553 -1.598091 -0.216549 -1.570593
    7 0.080660 0.135929 -0.203919 -1.506824 -0.066185 -1.662786
    8 0.117288 -0.155554 -0.604544 -1.412988 -0.374558 -1.569222
    9 0.312529 -3.523814 -0.296991 0.044323 -0.002921 0.008443
    10 -0.061479 -2.098525 0.123917 0.013742 0.000000 -0.000003
    11 -0.041955 -1.433482 0.104314 -0.035487 0.000000 0.000000
    12 -0.018589 0.129955 -0.123721 -1.294580 0.001302 -1.635383
    13 -0.006160 0.170065 -0.110169 -1.280084 -0.068681 -1.597215
    14 0.047100 -0.104074 -0.352264 -1.243368 -0.257298 -1.694346
    15 1.196054 -3.430397 -0.109834 -0.004619 -0.160060 0.186595
    16 -0.041232 -1.744798 -0.011256 0.007871 0.000000 0.000000
    17 -0.026267 -1.195726 0.022690 0.008451 0.000000 -0.000001
    18 -0.022325 0.045420 -0.038284 -1.125544 -0.129230 -1.681412
    19 -0.042900 -0.061274 -0.071212 -1.124462 -0.060454 -1.586099
    20 0.063741 -0.109104 -0.248158 -1.142813 -0.125805 -1.693583
    21 -1.473660 -3.132240 -0.240735 0.078497 0.016195 -0.473826
    22 -0.028877 -1.401284 0.021503 -0.027984 -0.000003 -0.000007
    23 -0.023958 -1.113633 0.010091 -0.061233 0.000001 0.000004
    24 -0.011721 0.093266 0.017949 -1.687855 -0.079155 -1.575164
    25 0.048862 -0.085539 0.028626 -1.715605 -0.034569 -1.653190
    26 0.173919 -0.198418 -0.336163 -1.668104 -0.422317 -1.710956
    27 0.728045 -1.494163 0.228349 0.164544 -0.408893 -0.375421
    28 1.918752 0.010252 0.005009 -0.002964 -0.012980 -0.003729
    29 1.374216 0.004524 -0.010680 -0.002868 0.015961 -0.001851
    30 -0.267709 0.037512 -0.093907 2.913812 -0.143386 0.078467
    31 -0.029266 0.205408 -0.329287 2.788574 -0.255486 -0.188917
    32 0.204373 0.521055 -0.268577 2.886669 0.042206 -0.230367
    33 0.195697 -0.010059 -0.293538 -1.333586 0.150863 -1.672749
    34 9.031250 8.617188 -0.714355 -1.717460 -0.038379 -2.291096
    35 -0.093500 -0.114213 -0.738866 -1.570842 0.061811 0.002096
    36 0.010843 0.093625 -0.081439 -3.141463 0.041719 -1.568236
    37 -12.778963 -17.024588 -3.485765 -3.184977 -0.002400 4.100913
    38 0.120373 -10.559858 -0.009359 0.050230 0.221679 -0.146827
    39 0.557334 -3.498228 -0.247313 -0.483905 0.007042 0.102407
    40 -0.040724 -1.847400 0.004945 -0.829504 0.000001 -0.000004
    41 -0.030925 -1.342555 -0.024115 -0.289320 -0.000002 -0.000001
    42 0.006928 0.005329 -0.181358 -1.528500 -0.248579 -1.611362
    43 -0.052313 0.038591 -0.230756 -1.592493 -0.043415 -1.528515
    44 -0.232601 -0.209654 -0.420669 -1.713790 -0.167173 -1.438930
    45 -0.308126 -3.557925 -0.217173 -0.099015 -0.000125 -0.008397
    46 0.051052 -2.101920 0.119456 -0.682688 0.002824 -0.000165
    47 0.039542 -1.449899 0.070563 -0.409170 0.000644 0.008371
    48 -0.038065 0.069168 -0.159885 -1.816986 0.066178 -1.575392
    49 -0.025151 0.088764 -0.068836 -1.817843 0.044510 -1.568287
    50 -0.102916 -0.186983 -0.272247 -1.833683 -0.232962 -1.472375
    51 -1.202152 -3.480479 -0.104871 -0.193846 0.163153 -0.073061
    52 0.032383 -1.750735 0.006275 -0.334678 0.000003 -0.000002
    53 0.025319 -1.196069 0.023951 0.118814 0.000001 0.000001
    54 -0.004241 0.043707 -0.080204 -2.014997 -0.186996 -1.460723
    55 0.015383 -0.089136 -0.030010 -2.006083 0.036346 -1.568629
    56 -0.022610 -0.212355 -0.177906 -1.933161 -0.118801 -1.518895
    57 1.453549 -3.176768 -0.209390 -0.728833 0.010009 0.200253
    58 0.027940 -1.410300 0.021711 -0.771626 0.000004 0.000009
    59 0.014894 -1.102744 -0.023754 -0.403293 -0.000006 -0.000004
    60 -0.067138 0.063251 -0.010962 -0.899214 -0.014515 -1.600326
    61 -0.151180 -0.007393 -0.070065 -0.913061 -0.118819 -1.408558
    62 -0.178164 -0.244682 -0.357068 -1.159916 -0.384260 -1.556110
    63 -0.731305 -1.576982 0.247043 -0.767952 -0.855807 -2.024346
    64 1.903320 0.073303 0.021057 0.001409 0.008984 0.139420
    65 1.395299 0.060141 -0.005766 -0.011281 -0.022046 0.527132
    66 -0.263409 -0.117640 -0.015660 0.000036 -0.082210 -0.026800
    67 0.007707 -0.334358 -0.191575 0.070788 -0.181563 0.282364
    68 0.225562 -0.567923 -0.420715 0.119895 -0.183798 0.223460
    69 -0.203683 -0.095655 -0.328306 -1.745077 0.075142 -1.515382
    70 -9.010880 8.554017 -0.239438 1.605696 -0.001309 -0.796384
    71 0.036020 0.082816 -0.692656 -1.570769 0.065989 0.001276
    72 -0.088586 0.054021 -0.088593 0.010231 0.033800 -1.560851
    73 0.150146 -0.062805 -0.068054 -2.854024 0.030688 -1.580508
    74 -0.174194 -0.139526 0.017990 0.358630 0.302123 1.681020
    75 27.581661 7.843990 -9.536815 0.983058 0.132760 2.671105
    76 28.032103 -16.406751 -49.495066 1.740034 -0.451021 3.025877
    77 15.178755 -15.019990 -43.915732 1.740012 -0.451134 3.025911
    78 -8.429688 1.859375 0.000182 0.000000 1.570796 3.141592
    79 15.177912 14.242623 -11.524119 0.983072 0.132760 2.671150
    80 -8.601563 0.056671 -0.000684 0.000000 1.570796 -3.141591
    81 -41.406250 49.500000 4.898438 0.000000 0.000000 -0.000001
    82 -20.390625 15.500000 14.820313 1.504634 -0.696389 0.409599
    83 0.000000 0.000000 0.000000 0.000000 0.000000 0.000000
    84 0.000000 0.000000 0.000000 0.000000 0.000000 0.000000
    85 0.000000 0.000000 -0.000002 0.000000 0.000000 0.000000
    86 0.000000 -0.000002 -0.000004 0.000000 0.000000 0.000000
    87 -74.437500 12.773438 0.000000 0.000000 0.000000 -0.000001
    88 -12.500000 12.500000 0.000000 0.000000 0.000000 0.000000
    89 12.500000 12.500000 0.000000 0.000000 0.000000 0.000000
    90 12.492188 -12.492188 0.000000 0.000000 0.000000 0.000000
    91 -12.492188 -12.500000 0.000000 0.000000 0.000000 0.000000
    92 10.367188 2.341797 -1.041016 1.566653 -0.564520 -2.759211
    93 10.445313 2.634766 1.163086 0.921809 -0.364005 0.384206
    94 10.156250 2.791016 1.077148 1.552574 -0.417441 0.661589
    95 10.320313 2.958984 -1.132813 0.679593 -0.758166 -2.316103
  time 10
    0 -3.029297 -0.003439 -4.378906 0.000000 0.000000 1.567413
    1 13.614922 -17.617539 -19.025455 2.737220 0.457915 -4.523084
    2 -0.087545 -10.619892 -0.127575 0.156599 0.281248 0.066003
    3 -0.609615 -3.443129 -0.282949 0.106453 0.010332 -0.264490
    4 0.047700 -1.846990 0.033759 -0.055394 -0.000001 -0.000002
    5 0.032695 -1.341370 -0.027015 0.002099 0.000000 0.000000
    6 0.007988 0.172182 -0.118553 -1.598091 -0.216549 -1.570593
    7 0.080660 0.135929 -0.203919 -1.506824 -0.066185 -1.662786
    8 0.117288 -0.155554 -0.604544 -1.412988 -0.374558 -1.569222
    9 0.312529 -3.523814 -0.296991 0.041826 -0.002921 0.008443
    10 -0.061479 -2.098525 0.123917 0.019826 0.000000 -0.000003
    11 -0.041955 -1.433482 0.104314 -0.040115 0.000000 0.000000
    12 -0.018589 0.129955 -0.123721 -1.294580 0.001302 -1.635383
    13 -0.006160 0.170065 -0.110169 -1.280084 -0.068681 -1.597215
    14 0.047100 -0.104074 -0.352264 -1.243368 -0.257298 -1.694346
    15 1.196054 -3.430397 -0.109834 -0.017220 -0.162277 0.191557
    16 -0.041232 -1.744798 -0.011256 0.013930 0.000000 0.000000
    17 -0.026267 -1.195726 0.022690 0.003845 0.000000 -0.000001
    18 -0.022325 0.045420 -0.038284 -1.125544 -0.129230 -1.681412
    19 -0.042900 -0.061274 -0.071212 -1.124462 -0.060454 -1.586099
    20 0.063741 -0.109104 -0.248158 -1.142813 -0.125805 -1.693583
    21 -1.473660 -3.132240 -0.240735 0.082998 0.013295 -0.477912
    22 -0.028877 -1.401284 0.021503 -0.018064 -0.000003 -0.000007
    23 -0.023958 -1.113633 0.010091 -0.060798 0.000001 0.000004
    24 -0.011721 0.093266 0.017949 -1.687855 -0.079155 -1.575164
    25 0.048862 -0.085539 0.028626 -1.715605 -0.034569 -1.653190
    26 0.173919 -0.198418 -0.336163 -1.668104 -0.422317 -1.710956
    27 0.728045 -1.494163 0.228349 0.158050 -0.404973 -0.364292
    28 1.918752 0.010252 0.005009 -0.002964 -0.012980 0.000892
    29 1.374216 0.004524 -0.010680 -0.002796 0.015973 0.003459
    30 -0.267709 0.037512 -0.093907 2.913812 -0.143386 0.078467
    31 -0.029266 0.205408 -0.329287 2.788574 -0.255486 -0.188917
    32 0.204373 0.521055 -0.268577 2.886669 0.042206 -0.230367
    33 0.195697 -0.010059 -0.293538 -1.333586 0.150863 -1.672749
    34 9.031250 8.617188 -0.714355 -1.717460 -0.038379 -2.291096
    35 -0.093500 -0.114213 -0.738866 -1.570842 0.061811 0.002096
    36 0.010843 0.093625 -0.081439 -3.141463 0.041719 -1.568236
    37 -12.239884 -17.024588 -3.454514 -3.096628 0.005522 4.069634
    38 0.120373 -10.559858 -0.009359 0.007527 0.221679 -0.146827
    39 0.557334 -3.498228 -0.247313 -0.432949 0.007042 0.102407
    40 -0.040724 -1.847400 0.004945 -0.721695 0.000001 -0.000004
    41 -0.030925 -1.342555 -0.024115 -0.205919 -0.000002 -0.000001
    42 0.006928 0.005329 -0.181358 -1.528500 -0.248579 -1.611362
    43 -0.052313 0.038591 -0.230756 -1.592493 -0.043415 -1.528515
    44 -0.232601 -0.209654 -0.420669 -1.713790 -0.167173 -1.438930
    45 -0.308126 -3.557925 -0.217173 -0.146031 -0.000125 -0.008397
    46 0.051052 -2.101920 0.119456 -0.729670 0.002824 -0.000165
    47 0.039542 -1.449899 0.070563 -0.456175 0.000644 0.008371
    48 -0.038065 0.069168 -0.159885 -1.816986 0.066178 -1.575392
    49 -0.025151 0.088764 -0.068836 -1.817843 0.044510 -1.568287
    50 -0.102916 -0.186983 -0.272247 -1.833683 -0.232962 -1.472375
    51 -1.202152 -3.480479 -0.104871 -0.240860 0.163153 -0.073061
    52 0.032383 -1.750735 0.006275 -0.381700 0.000003 -0.000002
    53 0.025319 -1.196069 0.023951 0.071781 0.000001 0.000001
    54 -0.004241 0.043707 -0.080204 -2.014997 -0.186996 -1.460723
    55 0.015383 -0.089136 -0.030010 -2.006083 0.036346 -1.568629
    56 -0.022610 -0.212355 -0.177906 -1.933161 -0.118801 -1.518895
    57 1.453549 -3.176768 -0.209390 -0.677863 0.010009 0.200253
    58 0.027940 -1.410300 0.021711 -0.663763 0.000004 0.000009
    59 0.014894 -1.102744 -0.023754 -0.319898 -0.000006 -0.000004
    60 -0.067138 0.063251 -0.010962 -0.899214 -0.014515 -1.600326
    61 -0.151180 -0.007393 -0.070065 -0.913061 -0.118819 -1.408558
    62 -0.178164 -0.244682 -0.357068 -1.159916 -0.384260 -1.556110
    63 -0.731305 -1.576982 0.247043 -0.800275 -0.844940 -2.026371
    64 1.903320 0.073303 0.021057 0.001409 0.008984 0.139420
    65 1.395299 0.060141 -0.005766 -0.013390 -0.021363 0.616684
    66 -0.263409 -0.117640 -0.015660 0.000036 -0.082210 -0.026800
    67 0.007707 -0.334358 -0.191575 0.070788 -0.181563 0.282364
    68 0.225562 -0.567923 -0.420715 0.119895 -0.183798 0.223460
    69 -0.203683 -0.095655 -0.328306 -1.745077 0.075142 -1.515382
    70 -9.010880 8.554017 -0.239438 1.605696 -0.001309 -0.796384
    71 0.036020 0.082816 -0.692656 -1.570769 0.065989 0.001276
    72 -0.088586 0.054021 -0.088593 0.010231 0.033800 -1.560851
    73 0.150146 -0.062805 -0.068054 -2.854024 0.030688 -1.580508
    74 -0.174194 -0.139526 0.017990 0.358630 0.302123 1.681020
    75 27.593380 7.734612 -10.345434 0.967279 0.099360 2.664705
    76 28.032103 -16.406751 -49.495066 1.740034 -0.451021 3.025877
    77 15.178755 -15.019990 -43.915732 1.740012 -0.451134 3.025911
    78 -8.429688 1.859375 0.000182 0.000000 1.570796 3.141592
    79 15.177912 14.242623 -11.863973 0.967217 0.099360 2.664733
    80 -8.601563 0.056671 -0.000684 0.000000 1.570796 -3.141591
    81 -41.406250 49.500000 4.898438 0.000000 0.000000 -0.000001
    82 -20.390625 15.500000 14.820313 1.504634 -0.696389 0.409599
    83 0.000000 0.000000 0.000000 0.000000 0.000000 0.000000
    84 0.000000 0.000000 0.000000 0.000000 0.000000 0.000000
    85 0.000000 0.000000 -0.000002 0.000000 0.000000 0.000000
    86 0.000000 -0.000002 -0.000004 0.000000 0.000000 0.000000
    87 -74.437500 12.773438 0.000000 0.000000 0.000000 -0.000001
    88 -12.500000 12.500000 0.000000 0.000000 0.000000 0.000000
    89 12.500000 12.500000 0.000000 0.000000 0.000000 0.000000
    90 12.492188 -12.492188 0.000000 0.000000 0.000000 0.000000
    91 -12.492188 -12.500000 0.000000 0.000000 0.000000 0.000000
    92 10.367188 2.341797 -1.041016 1.566653 -0.564520 -2.759211
    93 10.445313 2.634766 1.163086 0.921809 -0.364005 0.384206
    94 10.156250 2.791016 1.077148 1.552574 -0.417441 0.661589
    95 10.320313 2.958984 -1.132813 0.679593 -0.758166 -2.316103
end
