// Created by Crowbar 0.49.0.0

$modelname "weapons/tfa_cso/c_trg42gs.mdl"

$Include "csonline_gmod.qci"

$bodygroup "studio"
{
	studio "v_trg42gs_TRG42g_Alone"
}

$CDMaterials "models\weapons\tfa_cso\trg42gs"

$attachment 0 "Bone50" 0 -22 0
//$attachment 1 "Bone50" 0 -4.5 0

$definebone "Bone01" "" 4.608667 -4.829769 1.302325 -76.282511 32.505731 -44.363380 0.000000 0.000000 0.000000 -0.000000 0.000000 -0.000003
$definebone "Bone_Lefthand" "Bone01" -0.071917 -8.498732 -0.104136 -2.975715 -21.004061 20.913360 0.000000 0.000000 0.000000 -0.000001 -0.000000 -0.000002
$definebone "Bone02" "Bone_Lefthand" -0.365361 -3.150734 0.772147 82.368872 -58.694029 -71.449961 -0.000000 0.000000 0.000000 0.000001 0.000003 0.000000
$definebone "Bone03" "Bone02" -0.000000 2.038369 1.408873 0.000001 0.000003 0.000000 0.000000 0.000000 -0.000000 0.000001 0.000003 0.000000
$definebone "Bone50" "Bone03" 0.000000 -2.240710 2.058079 0.000001 0.000003 0.000000 0.000000 0.000000 0.000000 0.000001 0.000003 0.000000
$definebone "Bone48" "Bone03" -0.000000 -5.238311 0.651979 0.000001 0.000003 0.000000 0.000000 0.000000 -0.000000 0.000001 0.000003 0.000000
$definebone "Bone_FoldingStock" "Bone03" 0.839505 -1.616281 -2.380198 0.000001 -0.000054 0.000000 0.000000 0.000000 0.000000 0.000001 0.000003 0.000000
$definebone "Bone25" "Bone03" -0.000000 -2.855218 0.622003 0.000001 0.000003 0.000000 0.000000 0.000000 -0.000000 0.000001 0.000003 0.000000

$sequence "idle1" {
	"v_trg42gs_anims\idle1"
	fps 16
	activity "ACT_VM_IDLE" 1
	snap
}
$sequence "shoot1" {
	"v_trg42gs_anims\shoot1"
	{ event 5001 0 "31" }
	{ event 5004 15 "TRG42.Foley2" }
	{ event 5004 27 "TRG42.Foley3" }
	fps 35
	activity "ACT_VM_PRIMARYATTACK" 1
	snap
}
$sequence "shoot2" {
	"v_trg42gs_anims\shoot2"
	{ event 5001 0 "31" }
	{ event 5004 15 "TRG42.Foley2" }
	{ event 5004 27 "TRG42.Foley3" }
	fps 35
	activity "ACT_VM_PRIMARYATTACK" 1
	snap
}
$sequence "shoot3" {
	"v_trg42gs_anims\shoot3"
	{ event 5001 0 "31" }
	{ event 5004 15 "TRG42.Foley2" }
	{ event 5004 27 "TRG42.Foley3" }
	fps 35
	activity "ACT_VM_PRIMARYATTACK" 1
	snap
}
$sequence "reload" {
	"v_trg42gs_anims\reload"
	{ event 5004 26 "TRG42.ClipOut" }
	{ event 5004 53 "TRG42.ClipIn" }
	fps 30
	activity "ACT_VM_RELOAD" 1
	snap
}
$sequence "draw" {
	"v_trg42gs_anims\draw"
	{ event 5004 0 "TRG42.Foley1" }
	fps 30
	activity "ACT_VM_DRAW" 1
	snap
}
