// Created by Crowbar 0.49.0.0

$modelname "weapons/tfa_cso/c_qbarrel.mdl"

$Include "csonline_gmod.qci"

$bodygroup "weapon"
{
	studio "v_qbarrel_v_ref"
}

$CDMaterials "models\weapons\tfa_cso\qbarrel"

$attachment 0 "quadB_Root" 23.200001 2.033 0

$definebone "Bone_Root" "" 0.000000 0.000000 0.000000 0.000000 0.000000 0.000000 0.000000 0.000000 0.000000 -0.000000 0.000000 0.000000
$definebone "Bone01" "Bone_Root" 6.677123 4.910084 -7.365393 -80.763368 100.119025 -103.387407 0.000000 0.000000 0.000000 -0.000000 0.000000 -0.000000
$definebone "Bone_Lefthand" "Bone01" -0.071918 -8.498729 -0.104136 14.095220 -26.363275 -8.740358 0.000000 0.000000 0.000000 -0.000001 0.000000 -0.000001
$definebone "quadB_Root" "Bone_Lefthand" -0.049820 -0.646076 1.221340 7.204887 -72.369270 13.956625 0.000000 0.000000 -0.000000 -0.000000 -0.000000 -0.000002
$definebone "quadB_Rotation" "quadB_Root" 4.542921 -0.382887 0.022987 -0.000058 -0.000057 -0.000002 0.000000 0.000000 0.000000 -0.000000 -0.000000 -0.000002
$definebone "quadB_Barrel" "quadB_Rotation" 3.200648 0.867596 0.043289 -0.000000 -0.000000 -0.000002 0.000000 0.000000 0.000000 -0.000000 -0.000000 -0.000002
$definebone "quadB_BulletBone" "quadB_Barrel" -4.550374 2.418058 -0.045042 -0.000000 -0.009053 179.999966 0.000000 -0.000000 -0.000000 0.000000 0.000000 -0.000002
$definebone "quadB_Bullet02" "quadB_BulletBone" 1.579717 1.561072 0.579184 0.000000 -0.225860 -0.000002 0.000000 0.000000 0.000000 0.000000 -0.000000 -0.000002
$definebone "quadB_Bullet01" "quadB_BulletBone" 1.579718 1.561070 -0.583713 0.000000 -0.225860 -0.000002 0.000000 0.000000 0.000000 0.000000 -0.000000 -0.000002
$definebone "quadB_Bullet03" "quadB_BulletBone" 1.574904 0.337993 -0.579384 0.000115 -0.225860 179.999789 0.000000 0.000000 0.000000 -0.000000 0.000000 -0.000002
$definebone "quadB_Bullet04" "quadB_BulletBone" 1.574906 0.337994 0.613902 0.000115 -0.225860 179.999789 0.000000 0.000000 0.000000 -0.000000 0.000000 -0.000002
$definebone "quadB_Lock" "quadB_Rotation" 0.118239 3.285424 -0.001752 0.009110 179.990909 -0.020453 0.000000 0.000000 0.000000 0.000000 -0.000000 0.000002
$definebone "quadB_Trigger" "quadB_Rotation" -0.469977 0.641240 -0.011208 -0.000002 -78.448016 0.000057 0.000000 -0.000000 0.000000 -0.000002 -0.000002 -0.000000

$sequence "idle" {
	"v_qbarrel_anims\idle"
	fps 10
	loop
	activity "ACT_VM_IDLE" 1
	snap
}
$sequence "shoot1" {
	"v_qbarrel_anims\shoot1"
	{ event 5001 0 "31" }
	fps 30
	activity "ACT_VM_PRIMARYATTACK" 1
	snap
}
$sequence "shoot2" {
	"v_qbarrel_anims\shoot2"
	{ event 5001 0 "31" }
	fps 30
	activity "ACT_VM_PRIMARYATTACK" 2
	snap
}
$sequence "reload" {
	"v_qbarrel_anims\reload"
	{ event 5004 5 "Tbarrel.ClipOut" }
	{ event 5004 33 "Tbarrel.ClipIn1" }
	{ event 5004 81 "Tbarrel.ClipIn2" }
	fps 30
	activity "ACT_VM_RELOAD" 1
	snap
}
$sequence "draw" {
	"v_qbarrel_anims\draw"
	{ event 5004 9 "Tbarrel.Draw" }
	fps 30
	activity "ACT_VM_DRAW" 1
	snap
}
