version 1
nodes
  0 "Bone02" -1
  1 "Bone03" 0
  2 "Bone04" 1
  3 "Bone_Righthand" 2
  4 "Bone26" 3
  5 "Bone25" 4
  6 "Bone35" 4
  7 "Bone36" 6
  8 "Bone37" 7
  9 "Bone31" 4
  10 "Bone32" 9
  11 "Bone33" 10
  12 "Bone39" 4
  13 "Bone40" 12
  14 "Bone41" 13
  15 "Bone43" 4
  16 "Bone44" 15
  17 "Bone45" 16
  18 "Bone27" 4
  19 "Bone28" 18
  20 "Bone29" 19
  21 "Bone01" 1
  22 "Bone_Lefthand" 21
  23 "Bone 04" 22
  24 "Bone13" 23
  25 "Bone14" 24
  26 "Bone15" 25
  27 "Bone17" 23
  28 "Bone18" 27
  29 "Bone19" 28
  30 "Bone21" 23
  31 "Bone22" 30
  32 "Bone23" 31
  33 "Bone05" 23
  34 "Bone06" 33
  35 "Bone07" 34
  36 "Bone09" 23
  37 "Bone10" 36
  38 "Bone11" 37
end
skeleton
  time 0
    0 -0.052671 3.088875 -6.996307 0.000000 0.000000 0.000000
    1 0.000000 -4.940806 3.043062 0.000000 0.000000 -3.141592
    2 9.054357 0.743673 -3.278617 -1.991377 1.307821 1.475935
    3 0.089929 -8.543163 -0.000001 -0.190041 -0.345556 0.298431
    4 0.000000 -0.359713 0.000000 0.000000 0.000000 0.000000
    5 1.147549 -1.883268 0.486775 -0.392434 -1.557042 0.473252
    6 -0.170959 -2.634465 -0.292892 -1.243280 0.064298 0.057954
    7 0.010598 -1.261176 0.000000 -1.352592 0.000000 0.000000
    8 0.000000 -0.943235 0.000000 -0.872643 0.000000 0.000000
    9 -0.827638 -2.506106 -0.277786 -1.161613 0.090555 -0.001707
    10 0.000000 -1.292969 -0.000001 -1.308993 0.000000 0.000000
    11 0.000000 -0.752466 0.000000 -1.167612 0.000000 0.000000
    12 0.443960 -2.562444 -0.286848 -1.247932 0.122205 0.126513
    13 0.021023 -1.208188 0.000000 -1.319453 0.000000 0.000000
    14 0.010598 -0.741866 0.000000 -0.715578 0.000000 0.000000
    15 1.048252 -2.226887 -0.253097 -1.083372 0.064812 0.198269
    16 0.000000 -0.996223 -0.000001 -0.902329 0.000000 0.000000
    17 0.000000 -0.614691 0.000000 -1.162362 0.000000 0.000000
    18 -0.308254 -0.007814 0.307166 -0.236681 -0.327526 -2.416337
    19 1.978378 0.019543 -0.000001 -0.218066 -0.051521 0.474154
    20 0.982424 0.003186 -0.000001 0.046296 0.052280 0.955881
    21 -8.019675 -0.328641 -4.756454 -2.739201 0.096112 -0.300029
    22 0.000001 -8.563282 -0.000001 -0.018791 0.475643 -0.008085
    23 -0.003480 -0.404829 0.000000 0.000000 0.000000 0.000000
    24 -0.518929 -2.502575 -0.288782 -0.400923 0.009012 -0.143408
    25 -0.010599 -1.208183 0.000000 -0.630084 0.002158 0.007926
    26 -0.000932 -0.762914 0.019715 -0.216665 -0.001513 0.012599
    27 0.107095 -2.602363 -0.307633 -0.457754 -0.052936 -0.040904
    28 0.000001 -1.250577 0.000000 -0.638903 -0.001604 -0.008275
    29 0.000891 -0.929964 0.060522 -0.354427 -0.008151 -0.003604
    30 0.763337 -2.483094 -0.285933 -0.232301 -0.017187 0.039677
    31 -0.012321 -1.280916 0.000000 -0.233233 -0.011655 0.000436
    32 -0.001862 -0.747993 0.039557 -0.350100 -0.022283 -0.001050
    33 0.354566 0.016268 0.318133 0.144108 -0.321908 -0.859464
    34 1.887165 0.012877 -0.000001 -0.291473 0.097147 -0.298489
    35 1.001873 -0.000270 0.000000 0.000000 0.000000 -0.132645
    36 -1.125128 -2.205905 -0.233482 -0.315258 0.016388 -0.205719
    37 0.010772 -0.963792 0.000000 -0.401488 -0.000879 -0.033140
    38 -0.009119 -0.631531 -0.021164 -0.406928 0.006608 0.008744
  time 1
    0 -0.052671 3.088875 -6.996307 0.000000 0.000000 0.000000
    1 0.000000 -4.878304 2.941496 0.000000 0.000000 -3.246385
    2 8.679345 0.630388 -3.216115 -1.521169 1.398478 1.863188
    3 0.089929 -8.543163 -0.000001 -0.182366 -0.335742 0.286569
    4 0.000000 -0.359713 0.000000 0.000000 0.000000 0.000000
    5 1.147549 -1.883268 0.486775 -0.392434 -1.557042 0.473252
    6 -0.170959 -2.634465 -0.292892 -1.201138 0.064298 0.057954
    7 0.010598 -1.261176 0.000000 -1.307510 0.000000 0.000000
    8 0.000000 -0.943235 0.000000 -0.844443 0.000000 0.000000
    9 -0.827638 -2.506106 -0.277786 -1.122058 0.088793 -0.004619
    10 0.000000 -1.292969 -0.000001 -1.265372 0.000000 0.000000
    11 0.000000 -0.752466 0.000000 -1.129783 0.000000 0.000000
    12 0.443960 -2.562444 -0.286848 -1.205383 0.121953 0.130528
    13 0.021023 -1.208188 0.000000 -1.274967 0.000000 0.000000
    14 0.010598 -0.741866 0.000000 -0.692008 0.000000 0.000000
    15 1.048252 -2.226887 -0.253097 -1.044180 0.067221 0.202931
    16 0.000000 -0.996223 -0.000001 -0.872957 0.000000 0.000000
    17 0.000000 -0.614691 0.000000 -1.125143 0.000000 0.000000
    18 -0.308254 -0.007814 0.307166 -0.228436 -0.318184 -2.418410
    19 1.978378 0.019543 -0.000001 -0.214027 -0.051557 0.464850
    20 0.982424 0.003186 -0.000001 0.045038 0.053359 0.931734
    21 -7.703259 -0.398956 -4.545510 -2.689053 0.070816 -0.138939
    22 0.000001 -8.563282 -0.000001 -0.018468 0.461159 -0.007797
    23 -0.003480 -0.404829 0.000000 0.000000 0.000000 0.000000
    24 -0.518929 -2.502575 -0.288782 -0.386413 0.008712 -0.145146
    25 -0.010599 -1.208183 0.000000 -0.609459 0.002050 0.007794
    26 -0.000932 -0.762914 0.019715 -0.210610 -0.001513 0.012599
    27 0.107095 -2.602363 -0.307633 -0.443221 -0.052936 -0.040904
    28 0.000001 -1.250577 0.000000 -0.615067 -0.001508 -0.008143
    29 0.000891 -0.929964 0.060522 -0.343401 -0.008151 -0.003604
    30 0.763337 -2.483094 -0.285933 -0.225086 -0.016851 0.042553
    31 -0.012321 -1.280916 0.000000 -0.223663 -0.011907 0.000532
    32 -0.001862 -0.747993 0.039557 -0.340224 -0.022283 -0.001050
    33 0.354566 0.016268 0.318133 0.142804 -0.315340 -0.856000
    34 1.887165 0.012877 -0.000001 -0.290886 0.098981 -0.292335
    35 1.001873 -0.000270 0.000000 0.000000 0.000000 -0.132645
    36 -1.125128 -2.205905 -0.233482 -0.301955 0.015981 -0.209482
    37 0.010772 -0.963792 0.000000 -0.390734 -0.000879 -0.033140
    38 -0.009119 -0.631531 -0.021164 -0.391835 0.006608 0.008744
end
