"VertexLitGeneric"
{
	$basetexture	"models\weapons\tfa_cso\aw50\aw50_01_512"
	$bumpmap "models\weapons\tfa_cso\aw50\aw50_01_512_n"
	$phongexponenttexture "models\weapons\v_models\Request CSO\Dragon TMP S"
	
	$phong "1"
	$phongexponent "20"
	$phongfresnelranges "[0.15 0.65 1.00]"
	$phongalbedotint "1"
	$phongboost "32"
}