// Created by Crowbar 0.58

$modelname "weapons/tfa_cso/c_kujang.mdl"

$Include "csonline_gmod.qci"

$bodygroup "weapon"
{
	studio "v_axe_CSO_NEXON_Korea_axe_REF"
}

$CDMaterials "models\weapons\tfa_cso\kujang\"

$definebone "Bone04" "" -11.328125 -1.097951 -6.226684 -21.209278 -134.519471 -153.365766 -0.000000 0.000001 0.000000 0.000002 0.000003 0.000001
$definebone "Bone_Righthand" "Bone04" 0.096944 -8.450418 -0.009365 -14.423010 9.806688 -18.433658 -0.000000 -0.000000 0.000000 0.000002 0.000002 -0.000002
$definebone "CSO_NEXON_BONE_Wedung" "Bone_Righthand" 0.091136 -2.391503 0.909996 -0.000002 -172.889889 -87.261644 0.000000 0.000000 0.000000 -0.000003 -0.000002 -0.000000
$definebone "CSO_NEXON_BONE_Center" "CSO_NEXON_BONE_Wedung" 5.025685 -0.000000 1.227451 -0.000003 -0.000002 -0.000000 0.000000 0.000000 0.000000 -0.000003 -0.000002 -0.000000
$definebone "CSO_Wedung" "CSO_NEXON_BONE_Center" -0.543917 0.000000 -0.600359 -0.000003 -0.000002 -0.000000 0.000000 0.000000 0.000000 -0.000003 -0.000002 -0.000000

$sequence "idle" {
	"v_axe_anims\idle"
	fps 30
	activity "ACT_VM_IDLE" 1
	snap
}
$sequence "slash1" {
	"v_axe_anims\slash1"
	{ event 5004 1 "Kujang.Slash" }
	fps 35
	activity "ACT_VM_HITLEFT" 1
	snap
}
$sequence "slash2" {
	"v_axe_anims\slash2"
	{ event 5004 1 "Kujang.Slash" }
	fps 35
	activity "ACT_VM_HITRIGHT" 1
	snap
}
$sequence "draw" {
	"v_axe_anims\draw"
	{ event 5004 1 "Kujang.Draw" }
	fps 30
	activity "ACT_VM_DRAW" 1
	snap
}
$sequence "stab" {
	"v_axe_anims\stab"
	{ event 5004 1 "Kujang.Slash" }
	fps 30
	activity "ACT_VM_MISSLEFT" 1
	snap
}
$sequence "stab_miss" {
	"v_axe_anims\stab_miss"
	fps 40
}
$sequence "midslash1" {
	"v_axe_anims\midslash1"
	fps 35
}
$sequence "midslash2" {
	"v_axe_anims\midslash2"
	fps 35
}
