// Created by Crowbar 0.34.0.0

$ModelName "weapons/tfa_cso/w_bendita.mdl"

$BodyGroup "studio"
{
	studio "v_bendita"
}

$collisionmodel "v_bendita.smd"
{
	$mass 9
}

$CDMaterials "models\weapons\tfa_cso\bendita"

$attachment "0" "root" 0.30 -28.20 -0.70 rotate -0 0 0

$Sequence "idle" {
	"anims\idle.smd"
	fps 30
}