// Created by Crowbar 0.49.0.0

$modelname "weapons/tfa_cso/w_m200.mdl"

$bodygroup "studio"
{
	studio "w_m400_w_reference_m400"
}

$collisionmodel "w_m400_w_reference_m400.smd"
{
	$mass 9
}

$CDMaterials "models\weapons\tfa_cso\m200"

$attachment "0" "m400_pw" 38.50 -0.00 -2.30 rotate -0 0 0

$sequence "idle" {
	"w_m400_anims\idle"
	fps 30
}
