// Created by Crowbar 0.58

$modelname "weapons/tfa_cso/c_laserfist.mdl"

$bodygroup "weapon"
{
	studio "v_laserfist_L"
}
$bodygroup "weapon"
{
	studio "v_laserfist_hand_L01"
}
$bodygroup "weapon"
{
	studio "v_laserfist_hand_L02"
}
$bodygroup "weapon"
{
	studio "v_laserfist_R"
}
$bodygroup "weapon"
{
	studio "v_laserfist_hand_R01"
}
$bodygroup "weapon"
{
	studio "v_laserfist_hand_R02"
}
$bodygroup "weapon"
{
	studio "v_laserfist_ef"
}

$CDMaterials "models\weapons\tfa_cso\laserfist\"


//$attachment 0 "r_dualsmg_ro" 0 8 0
//$attachment 1 "l_dualsmg_ro" 0 -8 0
//$attachment 2 "muzzle_boneL" 0 0 0
//$attachment 3 "muzzle_boneR" 0 0 0
//$attachment 4 "Bone01" -1.7 -7 -2.2
//$attachment 5 "Bone04" 1.7 -7 -2.2
$attachment 6 "l_ro009" 3 0 0
$attachment 7 "l_ro010" 3 0 0
$attachment 8 "l_ro011" 3 0 0
$attachment 9 "l_ro012" 3 0 0
$attachment 10 "l_ro015" -3 0 0
$attachment 11 "l_ro018" -3 0 0
$attachment 12 "l_ro021" -3 0 0
$attachment 13 "l_ro024" -3 0 0
//$attachment 14 "Bone01" 4 -14 -8
//$attachment 15 "Bone04" -4 -14 -8

$sequence "idle" {
	"v_laserfist_anims\idle"
	{ event 5004 0 "Laserfist.Idle" }
	fps 30
	loop
	activity "ACT_VM_IDLE" 1
	snap
}
$sequence "shootA_empty_loop" {
	"v_laserfist_anims\shootA_empty_loop"
	{ event 5004 0 "Laserfist.Empty_Loop" }
	fps 60
	loop
	snap
}
$sequence "shootA_empty_end" {
	"v_laserfist_anims\shootA_empty_end"
	{ event 5004 0 "Laserfist.Empty_End" }
	fps 30
	snap
}
$sequence "shootA_loop" {
	"v_laserfist_anims\shootA_loop"
	{ event 5001 0 "#I85 S0.05 R0 F15 P30 T0.05 A1 L0 O0 X0" }
	{ event 5001 5 "#I85 S0.05 R0 F15 P30 T0.05 A1 L0 O0 X0" }
	{ event 5001 10 "#I85 S0.05 R0 F15 P30 T0.05 A1 L0 O0 X0" }
	{ event 5001 15 "#I85 S0.05 R0 F15 P30 T0.05 A1 L0 O0 X0" }
	{ event 5011 0 "#I85 S0.05 R0 F15 P30 T0.05 A1 L0 O0 X1" }
	{ event 5011 5 "#I85 S0.05 R0 F15 P30 T0.05 A1 L0 O0 X1" }
	{ event 5011 10 "#I85 S0.05 R0 F15 P30 T0.05 A1 L0 O0 X1" }
	{ event 5011 15 "#I85 S0.05 R0 F15 P30 T0.05 A1 L0 O0 X1" }
	{ event 5001 1 "#I89 S0.06 R0 F15 P30 T0.1 A1 L0 O0 X14" }
	{ event 5011 1 "#I90 S0.06 R0 F15 P30 T0.1 A1 L0 O0 X15" }
	{ event 5004 0 "Laserfist.Empty_Loop" }
	fps 60
	loop
	snap
}
$sequence "shootA_end" {
	"v_laserfist_anims\shootA_end"
	{ event 5004 0 "Laserfist.Empty_End" }
	fps 30
	snap
}
$sequence "shootB_ready" {
	"v_laserfist_anims\shootB_ready"
	{ event 5001 32 "#I86 S0.13 R0 F0 P30 T999 A1 L0 O0 X2" }
	{ event 5011 32 "#I86 S0.13 R0 F0 P30 T999 A1 L0 O0 X3" }
	{ event 5004 0 "Laserfist.Ready" }
	{ event 5004 25 "Laserfist.Charge" }
	fps 30
	snap
}
$sequence "shootB_loop" {
	"v_laserfist_anims\shootB_loop"
	{ event 5001 0 "#I91 S0.13 R0 F0 P30 T999 A1 L0 O0 X2" }
	{ event 5011 0 "#I91 S0.13 R0 F0 P30 T999 A1 L0 O0 X3" }
	{ event 5004 0 "Laserfist.ShootB_Loop" }
	fps 30
	loop
	snap
}
$sequence "shootB_shoot" {
	"v_laserfist_anims\shootB_shoot"
	{ event 5001 0 "#I86 S0.13 R0 F15 P30 T999 A1 L0 O0 X2" }
	{ event 5011 0 "#I86 S0.13 R0 F15 P30 T999 A1 L0 O0 X3" }
	{ event 5001 1 "#I87 S0.07 R0 F0 P30 T999 A1 L0 O0 X2" }
	{ event 5011 1 "#I87 S0.07 R0 F0 P30 T999 A1 L0 O0 X3" }
	{ event 5004 20 "Laserfist.ShootB_Shoot" }
	fps 30
	snap
}
$sequence "reload" {
	"v_laserfist_anims\reload"
	{ event 5004 5 "Laserfist.ClipOut" }
	{ event 5004 31 "Laserfist.ClipIn1" }
	{ event 5004 60 "Laserfist.ClipIn2" }
	fps 30
	activity "ACT_VM_RELOAD" 1
	snap
}
$sequence "draw" {
	"v_laserfist_anims\draw"
	{ event 5004 17 "Laserfist.Draw" }
	fps 30
	activity "ACT_VM_DRAW" 1
	snap
}
