version 1
nodes
  0 "Bone01" -1
  1 "Bone_Lefthand" 0
  2 "USP" 1
  3 "Bone02" 2
  4 "USP_Slide-handle" 3
  5 "USP_Magazine-handle" 3
  6 "USP_Trigger-Handle" 3
  7 "Bone 04" 1
  8 "Bone13" 7
  9 "Bone14" 8
  10 "Bone15" 9
  11 "Bone17" 7
  12 "Bone18" 11
  13 "Bone19" 12
  14 "Bone21" 7
  15 "Bone22" 14
  16 "Bone23" 15
  17 "Bone05" 7
  18 "Bone06" 17
  19 "Bone07" 18
  20 "Bone09" 7
  21 "Bone10" 20
  22 "Bone11" 21
  23 "Bone04" -1
  24 "Bone_Righthand" 23
  25 "Bone26" 24
  26 "Bone35" 25
  27 "Bone36" 26
  28 "Bone37" 27
  29 "Bone31" 25
  30 "Bone32" 29
  31 "Bone33" 30
  32 "Bone39" 25
  33 "Bone40" 32
  34 "Bone41" 33
  35 "Bone43" 25
  36 "Bone44" 35
  37 "Bone45" 36
  38 "Bone27" 25
  39 "Bone28" 38
  40 "Bone29" 39
end
skeleton
  time 0
    0 6.606519 0.165564 -6.694014 -0.774287 -1.331382 0.567261
    1 0.000000 -8.563282 -0.000001 0.338691 -0.138691 -0.176032
    2 0.022535 -3.459973 0.747360 -1.452338 1.442011 -1.446092
    3 0.000001 2.373980 0.699476 0.000000 0.000000 0.000000
    4 -0.000001 -0.959135 1.722198 0.000000 0.000000 0.000000
    5 0.000000 -1.759288 0.975027 0.000000 0.000000 0.000000
    6 -0.000967 -2.992971 0.968137 -0.270338 -0.001806 -0.009717
    7 -0.003480 -0.404829 0.000000 0.000000 0.000000 0.000000
    8 -0.519308 -2.501155 -0.278957 -1.003564 0.000000 -0.122173
    9 -0.010598 -1.208184 0.000001 -1.090831 0.000000 0.000000
    10 0.000000 -0.763066 0.000000 -1.343903 0.000000 0.000000
    11 0.105982 -2.607134 -0.278957 -0.890118 0.000000 -0.148353
    12 0.000000 -1.250580 0.000000 -1.213004 0.000000 0.000000
    13 0.000000 -0.932634 0.000001 -1.483530 0.000000 0.000000
    14 0.763064 -2.490556 -0.278957 -0.349065 0.000000 0.130900
    15 -0.012321 -1.280916 0.000000 -0.322887 0.000000 0.000000
    16 -0.001697 -0.749371 0.000001 -0.593412 0.000000 0.000000
    17 0.354567 0.016268 0.318133 0.342077 -0.443527 -1.083976
    18 1.887166 0.012877 0.000000 -0.305433 0.000000 -0.401426
    19 1.001874 -0.000270 0.000000 0.000000 0.000000 -0.488692
    20 -1.123358 -2.195092 -0.278957 -0.933751 0.000000 -0.087266
    21 0.010773 -0.963791 0.000000 -0.610865 0.000000 0.000000
    22 -0.010412 -0.631916 0.000000 -1.213004 0.000000 0.000000
    23 -1.144078 -2.642420 -10.889298 -0.380997 0.087299 0.521055
    24 0.089929 -8.543163 -0.000001 0.079777 -0.284686 0.455196
    25 0.000000 -0.359713 0.000000 0.000000 0.000000 0.000000
    26 -0.170480 -2.636147 -0.277655 -0.820345 0.000000 0.000000
    27 0.010599 -1.261177 0.000000 -0.584683 0.000000 0.000000
    28 -0.000001 -0.943233 0.000000 -0.532326 0.000000 0.000000
    29 -0.827563 -2.508973 -0.277656 -0.942486 0.000000 0.000000
    30 0.000001 -1.292971 0.000000 -0.287992 0.000000 0.000000
    31 0.000000 -0.752466 0.000000 -0.445059 0.000000 0.000000
    32 0.444212 -2.561960 -0.277655 -1.081578 -0.046226 -0.024599
    33 0.021022 -1.208186 0.000000 -0.427606 0.000000 0.000000
    34 0.010597 -0.741867 0.000000 -0.453786 0.000000 0.000000
    35 1.047444 -2.222821 -0.277655 -1.019692 -0.066950 -0.041090
    36 0.000000 -0.996223 -0.000001 -0.584716 0.000000 0.000000
    37 -0.000002 -0.614690 0.000000 -0.523599 0.000000 0.000000
    38 -0.308254 -0.007814 0.307166 -0.318048 -0.539821 -2.424630
    39 1.978378 0.019543 0.000000 -0.000002 -0.000010 0.497421
    40 0.982427 0.003186 0.000000 0.000000 0.000000 0.767923
  time 1
    0 6.606519 0.165564 -6.694014 -0.774287 -1.331382 0.567261
    1 0.000000 -8.563282 -0.000001 0.338691 -0.138691 -0.176032
    2 0.022535 -3.459973 0.747360 -1.452338 1.442011 -1.446092
    3 0.000001 2.373980 0.699476 0.000000 0.000000 0.000000
    4 -0.000001 -0.959135 1.722198 0.000000 0.000000 0.000000
    5 0.000000 -1.759288 0.975027 0.000000 0.000000 0.000000
    6 -0.000967 -2.992971 0.968137 -0.270338 -0.001806 -0.009717
    7 -0.003480 -0.404829 0.000000 0.000000 0.000000 0.000000
    8 -0.519308 -2.501155 -0.278957 -1.003564 0.000000 -0.122173
    9 -0.010598 -1.208184 0.000001 -1.090831 0.000000 0.000000
    10 0.000000 -0.763066 0.000000 -1.343903 0.000000 0.000000
    11 0.105982 -2.607134 -0.278957 -0.890118 0.000000 -0.148353
    12 0.000000 -1.250580 0.000000 -1.213004 0.000000 0.000000
    13 0.000000 -0.932634 0.000001 -1.483530 0.000000 0.000000
    14 0.763064 -2.490556 -0.278957 -0.349065 0.000000 0.130900
    15 -0.012321 -1.280916 0.000000 -0.322887 0.000000 0.000000
    16 -0.001697 -0.749371 0.000001 -0.593412 0.000000 0.000000
    17 0.354567 0.016268 0.318133 0.342077 -0.443527 -1.083976
    18 1.887166 0.012877 0.000000 -0.305433 0.000000 -0.401426
    19 1.001874 -0.000270 0.000000 0.000000 0.000000 -0.488692
    20 -1.123358 -2.195092 -0.278957 -0.933751 0.000000 -0.087266
    21 0.010773 -0.963791 0.000000 -0.610865 0.000000 0.000000
    22 -0.010412 -0.631916 0.000000 -1.213004 0.000000 0.000000
    23 -1.144078 -2.642420 -10.889298 -0.380997 0.087299 0.521055
    24 0.089929 -8.543163 -0.000001 0.079777 -0.284686 0.455196
    25 0.000000 -0.359713 0.000000 0.000000 0.000000 0.000000
    26 -0.170480 -2.636147 -0.277655 -0.820345 0.000000 0.000000
    27 0.010599 -1.261177 0.000000 -0.584683 0.000000 0.000000
    28 -0.000001 -0.943233 0.000000 -0.532326 0.000000 0.000000
    29 -0.827563 -2.508973 -0.277656 -0.942486 0.000000 0.000000
    30 0.000001 -1.292971 0.000000 -0.287992 0.000000 0.000000
    31 0.000000 -0.752466 0.000000 -0.445059 0.000000 0.000000
    32 0.444212 -2.561960 -0.277655 -1.081578 -0.046226 -0.024599
    33 0.021022 -1.208186 0.000000 -0.427606 0.000000 0.000000
    34 0.010597 -0.741867 0.000000 -0.453786 0.000000 0.000000
    35 1.047444 -2.222821 -0.277655 -1.019692 -0.066950 -0.041090
    36 0.000000 -0.996223 -0.000001 -0.584716 0.000000 0.000000
    37 -0.000002 -0.614690 0.000000 -0.523599 0.000000 0.000000
    38 -0.308254 -0.007814 0.307166 -0.318048 -0.539821 -2.424630
    39 1.978378 0.019543 0.000000 -0.000002 -0.000010 0.497421
    40 0.982427 0.003186 0.000000 0.000000 0.000000 0.767923
  time 2
    0 6.606519 0.165564 -6.694014 -0.774287 -1.331382 0.567261
    1 0.000000 -8.563282 -0.000001 0.338691 -0.138691 -0.176032
    2 0.022535 -3.459973 0.747360 -1.452338 1.442011 -1.446092
    3 0.000001 2.373980 0.699476 0.000000 0.000000 0.000000
    4 -0.000001 -0.959135 1.722198 0.000000 0.000000 0.000000
    5 0.000000 -1.759288 0.975027 0.000000 0.000000 0.000000
    6 -0.000967 -2.992971 0.968137 -0.270338 -0.001806 -0.009717
    7 -0.003480 -0.404829 0.000000 0.000000 0.000000 0.000000
    8 -0.519308 -2.501155 -0.278957 -1.003564 0.000000 -0.122173
    9 -0.010598 -1.208184 0.000001 -1.090831 0.000000 0.000000
    10 0.000000 -0.763066 0.000000 -1.343903 0.000000 0.000000
    11 0.105982 -2.607134 -0.278957 -0.890118 0.000000 -0.148353
    12 0.000000 -1.250580 0.000000 -1.213004 0.000000 0.000000
    13 0.000000 -0.932634 0.000001 -1.483530 0.000000 0.000000
    14 0.763064 -2.490556 -0.278957 -0.349065 0.000000 0.130900
    15 -0.012321 -1.280916 0.000000 -0.322887 0.000000 0.000000
    16 -0.001697 -0.749371 0.000001 -0.593412 0.000000 0.000000
    17 0.354567 0.016268 0.318133 0.342077 -0.443527 -1.083976
    18 1.887166 0.012877 0.000000 -0.305433 0.000000 -0.401426
    19 1.001874 -0.000270 0.000000 0.000000 0.000000 -0.488692
    20 -1.123358 -2.195092 -0.278957 -0.933751 0.000000 -0.087266
    21 0.010773 -0.963791 0.000000 -0.610865 0.000000 0.000000
    22 -0.010412 -0.631916 0.000000 -1.213004 0.000000 0.000000
    23 -1.144078 -2.642420 -10.889298 -0.380997 0.087299 0.521055
    24 0.089929 -8.543163 -0.000001 0.079777 -0.284686 0.455196
    25 0.000000 -0.359713 0.000000 0.000000 0.000000 0.000000
    26 -0.170480 -2.636147 -0.277655 -0.820345 0.000000 0.000000
    27 0.010599 -1.261177 0.000000 -0.584683 0.000000 0.000000
    28 -0.000001 -0.943233 0.000000 -0.532326 0.000000 0.000000
    29 -0.827563 -2.508973 -0.277656 -0.942486 0.000000 0.000000
    30 0.000001 -1.292971 0.000000 -0.287992 0.000000 0.000000
    31 0.000000 -0.752466 0.000000 -0.445059 0.000000 0.000000
    32 0.444212 -2.561960 -0.277655 -1.081578 -0.046226 -0.024599
    33 0.021022 -1.208186 0.000000 -0.427606 0.000000 0.000000
    34 0.010597 -0.741867 0.000000 -0.453786 0.000000 0.000000
    35 1.047444 -2.222821 -0.277655 -1.019692 -0.066950 -0.041090
    36 0.000000 -0.996223 -0.000001 -0.584716 0.000000 0.000000
    37 -0.000002 -0.614690 0.000000 -0.523599 0.000000 0.000000
    38 -0.308254 -0.007814 0.307166 -0.318048 -0.539821 -2.424630
    39 1.978378 0.019543 0.000000 -0.000002 -0.000010 0.497421
    40 0.982427 0.003186 0.000000 0.000000 0.000000 0.767923
  time 3
    0 6.606519 0.165564 -6.694014 -0.774287 -1.331382 0.567261
    1 0.000000 -8.563282 -0.000001 0.338691 -0.138691 -0.176032
    2 0.022535 -3.459973 0.747360 -1.452338 1.442011 -1.446092
    3 0.000001 2.373980 0.699476 0.000000 0.000000 0.000000
    4 -0.000001 -0.959135 1.722198 0.000000 0.000000 0.000000
    5 0.000000 -1.759288 0.975027 0.000000 0.000000 0.000000
    6 -0.000967 -2.992971 0.968137 -0.270338 -0.001806 -0.009717
    7 -0.003480 -0.404829 0.000000 0.000000 0.000000 0.000000
    8 -0.519308 -2.501155 -0.278957 -1.003564 0.000000 -0.122173
    9 -0.010598 -1.208184 0.000001 -1.090831 0.000000 0.000000
    10 0.000000 -0.763066 0.000000 -1.343903 0.000000 0.000000
    11 0.105982 -2.607134 -0.278957 -0.890118 0.000000 -0.148353
    12 0.000000 -1.250580 0.000000 -1.213004 0.000000 0.000000
    13 0.000000 -0.932634 0.000001 -1.483530 0.000000 0.000000
    14 0.763064 -2.490556 -0.278957 -0.349065 0.000000 0.130900
    15 -0.012321 -1.280916 0.000000 -0.322887 0.000000 0.000000
    16 -0.001697 -0.749371 0.000001 -0.593412 0.000000 0.000000
    17 0.354567 0.016268 0.318133 0.342077 -0.443527 -1.083976
    18 1.887166 0.012877 0.000000 -0.305433 0.000000 -0.401426
    19 1.001874 -0.000270 0.000000 0.000000 0.000000 -0.488692
    20 -1.123358 -2.195092 -0.278957 -0.933751 0.000000 -0.087266
    21 0.010773 -0.963791 0.000000 -0.610865 0.000000 0.000000
    22 -0.010412 -0.631916 0.000000 -1.213004 0.000000 0.000000
    23 -1.144078 -2.642420 -10.889298 -0.380997 0.087299 0.521055
    24 0.089929 -8.543163 -0.000001 0.079777 -0.284686 0.455196
    25 0.000000 -0.359713 0.000000 0.000000 0.000000 0.000000
    26 -0.170480 -2.636147 -0.277655 -0.820345 0.000000 0.000000
    27 0.010599 -1.261177 0.000000 -0.584683 0.000000 0.000000
    28 -0.000001 -0.943233 0.000000 -0.532326 0.000000 0.000000
    29 -0.827563 -2.508973 -0.277656 -0.942486 0.000000 0.000000
    30 0.000001 -1.292971 0.000000 -0.287992 0.000000 0.000000
    31 0.000000 -0.752466 0.000000 -0.445059 0.000000 0.000000
    32 0.444212 -2.561960 -0.277655 -1.081578 -0.046226 -0.024599
    33 0.021022 -1.208186 0.000000 -0.427606 0.000000 0.000000
    34 0.010597 -0.741867 0.000000 -0.453786 0.000000 0.000000
    35 1.047444 -2.222821 -0.277655 -1.019692 -0.066950 -0.041090
    36 0.000000 -0.996223 -0.000001 -0.584716 0.000000 0.000000
    37 -0.000002 -0.614690 0.000000 -0.523599 0.000000 0.000000
    38 -0.308254 -0.007814 0.307166 -0.318048 -0.539821 -2.424630
    39 1.978378 0.019543 0.000000 -0.000002 -0.000010 0.497421
    40 0.982427 0.003186 0.000000 0.000000 0.000000 0.767923
  time 4
    0 6.606519 0.165564 -6.694014 -0.774287 -1.331382 0.567261
    1 0.000000 -8.563282 -0.000001 0.338691 -0.138691 -0.176032
    2 0.022535 -3.459973 0.747360 -1.452338 1.442011 -1.446092
    3 0.000001 2.373980 0.699476 0.000000 0.000000 0.000000
    4 -0.000001 -0.959135 1.722198 0.000000 0.000000 0.000000
    5 0.000000 -1.759288 0.975027 0.000000 0.000000 0.000000
    6 -0.000967 -2.992971 0.968137 -0.270338 -0.001806 -0.009717
    7 -0.003480 -0.404829 0.000000 0.000000 0.000000 0.000000
    8 -0.519308 -2.501155 -0.278957 -1.003564 0.000000 -0.122173
    9 -0.010598 -1.208184 0.000001 -1.090831 0.000000 0.000000
    10 0.000000 -0.763066 0.000000 -1.343903 0.000000 0.000000
    11 0.105982 -2.607134 -0.278957 -0.890118 0.000000 -0.148353
    12 0.000000 -1.250580 0.000000 -1.213004 0.000000 0.000000
    13 0.000000 -0.932634 0.000001 -1.483530 0.000000 0.000000
    14 0.763064 -2.490556 -0.278957 -0.349065 0.000000 0.130900
    15 -0.012321 -1.280916 0.000000 -0.322887 0.000000 0.000000
    16 -0.001697 -0.749371 0.000001 -0.593412 0.000000 0.000000
    17 0.354567 0.016268 0.318133 0.342077 -0.443527 -1.083976
    18 1.887166 0.012877 0.000000 -0.305433 0.000000 -0.401426
    19 1.001874 -0.000270 0.000000 0.000000 0.000000 -0.488692
    20 -1.123358 -2.195092 -0.278957 -0.933751 0.000000 -0.087266
    21 0.010773 -0.963791 0.000000 -0.610865 0.000000 0.000000
    22 -0.010412 -0.631916 0.000000 -1.213004 0.000000 0.000000
    23 -1.144078 -2.642420 -10.889298 -0.380997 0.087299 0.521055
    24 0.089929 -8.543163 -0.000001 0.079777 -0.284686 0.455196
    25 0.000000 -0.359713 0.000000 0.000000 0.000000 0.000000
    26 -0.170480 -2.636147 -0.277655 -0.820345 0.000000 0.000000
    27 0.010599 -1.261177 0.000000 -0.584683 0.000000 0.000000
    28 -0.000001 -0.943233 0.000000 -0.532326 0.000000 0.000000
    29 -0.827563 -2.508973 -0.277656 -0.942486 0.000000 0.000000
    30 0.000001 -1.292971 0.000000 -0.287992 0.000000 0.000000
    31 0.000000 -0.752466 0.000000 -0.445059 0.000000 0.000000
    32 0.444212 -2.561960 -0.277655 -1.081578 -0.046226 -0.024599
    33 0.021022 -1.208186 0.000000 -0.427606 0.000000 0.000000
    34 0.010597 -0.741867 0.000000 -0.453786 0.000000 0.000000
    35 1.047444 -2.222821 -0.277655 -1.019692 -0.066950 -0.041090
    36 0.000000 -0.996223 -0.000001 -0.584716 0.000000 0.000000
    37 -0.000002 -0.614690 0.000000 -0.523599 0.000000 0.000000
    38 -0.308254 -0.007814 0.307166 -0.318048 -0.539821 -2.424630
    39 1.978378 0.019543 0.000000 -0.000002 -0.000010 0.497421
    40 0.982427 0.003186 0.000000 0.000000 0.000000 0.767923
  time 5
    0 6.606519 0.165564 -6.694014 -0.774287 -1.331382 0.567261
    1 0.000000 -8.563282 -0.000001 0.338691 -0.138691 -0.176032
    2 0.022535 -3.459973 0.747360 -1.452338 1.442011 -1.446092
    3 0.000001 2.373980 0.699476 0.000000 0.000000 0.000000
    4 -0.000001 -0.959135 1.722198 0.000000 0.000000 0.000000
    5 0.000000 -1.759288 0.975027 0.000000 0.000000 0.000000
    6 -0.000967 -2.992971 0.968137 -0.270338 -0.001806 -0.009717
    7 -0.003480 -0.404829 0.000000 0.000000 0.000000 0.000000
    8 -0.519308 -2.501155 -0.278957 -1.003564 0.000000 -0.122173
    9 -0.010598 -1.208184 0.000001 -1.090831 0.000000 0.000000
    10 0.000000 -0.763066 0.000000 -1.343903 0.000000 0.000000
    11 0.105982 -2.607134 -0.278957 -0.890118 0.000000 -0.148353
    12 0.000000 -1.250580 0.000000 -1.213004 0.000000 0.000000
    13 0.000000 -0.932634 0.000001 -1.483530 0.000000 0.000000
    14 0.763064 -2.490556 -0.278957 -0.349065 0.000000 0.130900
    15 -0.012321 -1.280916 0.000000 -0.322887 0.000000 0.000000
    16 -0.001697 -0.749371 0.000001 -0.593412 0.000000 0.000000
    17 0.354567 0.016268 0.318133 0.342077 -0.443527 -1.083976
    18 1.887166 0.012877 0.000000 -0.305433 0.000000 -0.401426
    19 1.001874 -0.000270 0.000000 0.000000 0.000000 -0.488692
    20 -1.123358 -2.195092 -0.278957 -0.933751 0.000000 -0.087266
    21 0.010773 -0.963791 0.000000 -0.610865 0.000000 0.000000
    22 -0.010412 -0.631916 0.000000 -1.213004 0.000000 0.000000
    23 -1.144078 -2.642420 -10.889298 -0.380997 0.087299 0.521055
    24 0.089929 -8.543163 -0.000001 0.079777 -0.284686 0.455196
    25 0.000000 -0.359713 0.000000 0.000000 0.000000 0.000000
    26 -0.170480 -2.636147 -0.277655 -0.820345 0.000000 0.000000
    27 0.010599 -1.261177 0.000000 -0.584683 0.000000 0.000000
    28 -0.000001 -0.943233 0.000000 -0.532326 0.000000 0.000000
    29 -0.827563 -2.508973 -0.277656 -0.942486 0.000000 0.000000
    30 0.000001 -1.292971 0.000000 -0.287992 0.000000 0.000000
    31 0.000000 -0.752466 0.000000 -0.445059 0.000000 0.000000
    32 0.444212 -2.561960 -0.277655 -1.081578 -0.046226 -0.024599
    33 0.021022 -1.208186 0.000000 -0.427606 0.000000 0.000000
    34 0.010597 -0.741867 0.000000 -0.453786 0.000000 0.000000
    35 1.047444 -2.222821 -0.277655 -1.019692 -0.066950 -0.041090
    36 0.000000 -0.996223 -0.000001 -0.584716 0.000000 0.000000
    37 -0.000002 -0.614690 0.000000 -0.523599 0.000000 0.000000
    38 -0.308254 -0.007814 0.307166 -0.318048 -0.539821 -2.424630
    39 1.978378 0.019543 0.000000 -0.000002 -0.000010 0.497421
    40 0.982427 0.003186 0.000000 0.000000 0.000000 0.767923
  time 6
    0 6.606519 0.165564 -6.694014 -0.774287 -1.331382 0.567261
    1 0.000000 -8.563282 -0.000001 0.338691 -0.138691 -0.176032
    2 0.022535 -3.459973 0.747360 -1.452338 1.442011 -1.446092
    3 0.000001 2.373980 0.699476 0.000000 0.000000 0.000000
    4 -0.000001 -0.959135 1.722198 0.000000 0.000000 0.000000
    5 0.000000 -1.759288 0.975027 0.000000 0.000000 0.000000
    6 -0.000967 -2.992971 0.968137 -0.270338 -0.001806 -0.009717
    7 -0.003480 -0.404829 0.000000 0.000000 0.000000 0.000000
    8 -0.519308 -2.501155 -0.278957 -1.003564 0.000000 -0.122173
    9 -0.010598 -1.208184 0.000001 -1.090831 0.000000 0.000000
    10 0.000000 -0.763066 0.000000 -1.343903 0.000000 0.000000
    11 0.105982 -2.607134 -0.278957 -0.890118 0.000000 -0.148353
    12 0.000000 -1.250580 0.000000 -1.213004 0.000000 0.000000
    13 0.000000 -0.932634 0.000001 -1.483530 0.000000 0.000000
    14 0.763064 -2.490556 -0.278957 -0.349065 0.000000 0.130900
    15 -0.012321 -1.280916 0.000000 -0.322887 0.000000 0.000000
    16 -0.001697 -0.749371 0.000001 -0.593412 0.000000 0.000000
    17 0.354567 0.016268 0.318133 0.342077 -0.443527 -1.083976
    18 1.887166 0.012877 0.000000 -0.305433 0.000000 -0.401426
    19 1.001874 -0.000270 0.000000 0.000000 0.000000 -0.488692
    20 -1.123358 -2.195092 -0.278957 -0.933751 0.000000 -0.087266
    21 0.010773 -0.963791 0.000000 -0.610865 0.000000 0.000000
    22 -0.010412 -0.631916 0.000000 -1.213004 0.000000 0.000000
    23 -1.144078 -2.642420 -10.889298 -0.380997 0.087299 0.521055
    24 0.089929 -8.543163 -0.000001 0.079777 -0.284686 0.455196
    25 0.000000 -0.359713 0.000000 0.000000 0.000000 0.000000
    26 -0.170480 -2.636147 -0.277655 -0.820345 0.000000 0.000000
    27 0.010599 -1.261177 0.000000 -0.584683 0.000000 0.000000
    28 -0.000001 -0.943233 0.000000 -0.532326 0.000000 0.000000
    29 -0.827563 -2.508973 -0.277656 -0.942486 0.000000 0.000000
    30 0.000001 -1.292971 0.000000 -0.287992 0.000000 0.000000
    31 0.000000 -0.752466 0.000000 -0.445059 0.000000 0.000000
    32 0.444212 -2.561960 -0.277655 -1.081578 -0.046226 -0.024599
    33 0.021022 -1.208186 0.000000 -0.427606 0.000000 0.000000
    34 0.010597 -0.741867 0.000000 -0.453786 0.000000 0.000000
    35 1.047444 -2.222821 -0.277655 -1.019692 -0.066950 -0.041090
    36 0.000000 -0.996223 -0.000001 -0.584716 0.000000 0.000000
    37 -0.000002 -0.614690 0.000000 -0.523599 0.000000 0.000000
    38 -0.308254 -0.007814 0.307166 -0.318048 -0.539821 -2.424630
    39 1.978378 0.019543 0.000000 -0.000002 -0.000010 0.497421
    40 0.982427 0.003186 0.000000 0.000000 0.000000 0.767923
  time 7
    0 6.606519 0.165564 -6.694014 -0.774287 -1.331382 0.567261
    1 0.000000 -8.563282 -0.000001 0.338691 -0.138691 -0.176032
    2 0.022535 -3.459973 0.747360 -1.452338 1.442011 -1.446092
    3 0.000001 2.373980 0.699476 0.000000 0.000000 0.000000
    4 -0.000001 -0.959135 1.722198 0.000000 0.000000 0.000000
    5 0.000000 -1.759288 0.975027 0.000000 0.000000 0.000000
    6 -0.000967 -2.992971 0.968137 -0.270338 -0.001806 -0.009717
    7 -0.003480 -0.404829 0.000000 0.000000 0.000000 0.000000
    8 -0.519308 -2.501155 -0.278957 -1.003564 0.000000 -0.122173
    9 -0.010598 -1.208184 0.000001 -1.090831 0.000000 0.000000
    10 0.000000 -0.763066 0.000000 -1.343903 0.000000 0.000000
    11 0.105982 -2.607134 -0.278957 -0.890118 0.000000 -0.148353
    12 0.000000 -1.250580 0.000000 -1.213004 0.000000 0.000000
    13 0.000000 -0.932634 0.000001 -1.483530 0.000000 0.000000
    14 0.763064 -2.490556 -0.278957 -0.349065 0.000000 0.130900
    15 -0.012321 -1.280916 0.000000 -0.322887 0.000000 0.000000
    16 -0.001697 -0.749371 0.000001 -0.593412 0.000000 0.000000
    17 0.354567 0.016268 0.318133 0.342077 -0.443527 -1.083976
    18 1.887166 0.012877 0.000000 -0.305433 0.000000 -0.401426
    19 1.001874 -0.000270 0.000000 0.000000 0.000000 -0.488692
    20 -1.123358 -2.195092 -0.278957 -0.933751 0.000000 -0.087266
    21 0.010773 -0.963791 0.000000 -0.610865 0.000000 0.000000
    22 -0.010412 -0.631916 0.000000 -1.213004 0.000000 0.000000
    23 -1.144078 -2.642420 -10.889298 -0.380997 0.087299 0.521055
    24 0.089929 -8.543163 -0.000001 0.079777 -0.284686 0.455196
    25 0.000000 -0.359713 0.000000 0.000000 0.000000 0.000000
    26 -0.170480 -2.636147 -0.277655 -0.820345 0.000000 0.000000
    27 0.010599 -1.261177 0.000000 -0.584683 0.000000 0.000000
    28 -0.000001 -0.943233 0.000000 -0.532326 0.000000 0.000000
    29 -0.827563 -2.508973 -0.277656 -0.942486 0.000000 0.000000
    30 0.000001 -1.292971 0.000000 -0.287992 0.000000 0.000000
    31 0.000000 -0.752466 0.000000 -0.445059 0.000000 0.000000
    32 0.444212 -2.561960 -0.277655 -1.081578 -0.046226 -0.024599
    33 0.021022 -1.208186 0.000000 -0.427606 0.000000 0.000000
    34 0.010597 -0.741867 0.000000 -0.453786 0.000000 0.000000
    35 1.047444 -2.222821 -0.277655 -1.019692 -0.066950 -0.041090
    36 0.000000 -0.996223 -0.000001 -0.584716 0.000000 0.000000
    37 -0.000002 -0.614690 0.000000 -0.523599 0.000000 0.000000
    38 -0.308254 -0.007814 0.307166 -0.318048 -0.539821 -2.424630
    39 1.978378 0.019543 0.000000 -0.000002 -0.000010 0.497421
    40 0.982427 0.003186 0.000000 0.000000 0.000000 0.767923
  time 8
    0 6.606519 0.165564 -6.694014 -0.774287 -1.331382 0.567261
    1 0.000000 -8.563282 -0.000001 0.338691 -0.138691 -0.176032
    2 0.022535 -3.459973 0.747360 -1.452338 1.442011 -1.446092
    3 0.000001 2.373980 0.699476 0.000000 0.000000 0.000000
    4 -0.000001 -0.959135 1.722198 0.000000 0.000000 0.000000
    5 0.000000 -1.759288 0.975027 0.000000 0.000000 0.000000
    6 -0.000967 -2.992971 0.968137 -0.270338 -0.001806 -0.009717
    7 -0.003480 -0.404829 0.000000 0.000000 0.000000 0.000000
    8 -0.519308 -2.501155 -0.278957 -1.003564 0.000000 -0.122173
    9 -0.010598 -1.208184 0.000001 -1.090831 0.000000 0.000000
    10 0.000000 -0.763066 0.000000 -1.343903 0.000000 0.000000
    11 0.105982 -2.607134 -0.278957 -0.890118 0.000000 -0.148353
    12 0.000000 -1.250580 0.000000 -1.213004 0.000000 0.000000
    13 0.000000 -0.932634 0.000001 -1.483530 0.000000 0.000000
    14 0.763064 -2.490556 -0.278957 -0.349065 0.000000 0.130900
    15 -0.012321 -1.280916 0.000000 -0.322887 0.000000 0.000000
    16 -0.001697 -0.749371 0.000001 -0.593412 0.000000 0.000000
    17 0.354567 0.016268 0.318133 0.342077 -0.443527 -1.083976
    18 1.887166 0.012877 0.000000 -0.305433 0.000000 -0.401426
    19 1.001874 -0.000270 0.000000 0.000000 0.000000 -0.488692
    20 -1.123358 -2.195092 -0.278957 -0.933751 0.000000 -0.087266
    21 0.010773 -0.963791 0.000000 -0.610865 0.000000 0.000000
    22 -0.010412 -0.631916 0.000000 -1.213004 0.000000 0.000000
    23 -1.144078 -2.642420 -10.889298 -0.380997 0.087299 0.521055
    24 0.089929 -8.543163 -0.000001 0.079777 -0.284686 0.455196
    25 0.000000 -0.359713 0.000000 0.000000 0.000000 0.000000
    26 -0.170480 -2.636147 -0.277655 -0.820345 0.000000 0.000000
    27 0.010599 -1.261177 0.000000 -0.584683 0.000000 0.000000
    28 -0.000001 -0.943233 0.000000 -0.532326 0.000000 0.000000
    29 -0.827563 -2.508973 -0.277656 -0.942486 0.000000 0.000000
    30 0.000001 -1.292971 0.000000 -0.287992 0.000000 0.000000
    31 0.000000 -0.752466 0.000000 -0.445059 0.000000 0.000000
    32 0.444212 -2.561960 -0.277655 -1.081578 -0.046226 -0.024599
    33 0.021022 -1.208186 0.000000 -0.427606 0.000000 0.000000
    34 0.010597 -0.741867 0.000000 -0.453786 0.000000 0.000000
    35 1.047444 -2.222821 -0.277655 -1.019692 -0.066950 -0.041090
    36 0.000000 -0.996223 -0.000001 -0.584716 0.000000 0.000000
    37 -0.000002 -0.614690 0.000000 -0.523599 0.000000 0.000000
    38 -0.308254 -0.007814 0.307166 -0.318048 -0.539821 -2.424630
    39 1.978378 0.019543 0.000000 -0.000002 -0.000010 0.497421
    40 0.982427 0.003186 0.000000 0.000000 0.000000 0.767923
  time 9
    0 6.606519 0.165564 -6.694014 -0.774287 -1.331382 0.567261
    1 0.000000 -8.563282 -0.000001 0.338691 -0.138691 -0.176032
    2 0.022535 -3.459973 0.747360 -1.452338 1.442011 -1.446092
    3 0.000001 2.373980 0.699476 0.000000 0.000000 0.000000
    4 -0.000001 -0.959135 1.722198 0.000000 0.000000 0.000000
    5 0.000000 -1.759288 0.975027 0.000000 0.000000 0.000000
    6 -0.000967 -2.992971 0.968137 -0.270338 -0.001806 -0.009717
    7 -0.003480 -0.404829 0.000000 0.000000 0.000000 0.000000
    8 -0.519308 -2.501155 -0.278957 -1.003564 0.000000 -0.122173
    9 -0.010598 -1.208184 0.000001 -1.090831 0.000000 0.000000
    10 0.000000 -0.763066 0.000000 -1.343903 0.000000 0.000000
    11 0.105982 -2.607134 -0.278957 -0.890118 0.000000 -0.148353
    12 0.000000 -1.250580 0.000000 -1.213004 0.000000 0.000000
    13 0.000000 -0.932634 0.000001 -1.483530 0.000000 0.000000
    14 0.763064 -2.490556 -0.278957 -0.349065 0.000000 0.130900
    15 -0.012321 -1.280916 0.000000 -0.322887 0.000000 0.000000
    16 -0.001697 -0.749371 0.000001 -0.593412 0.000000 0.000000
    17 0.354567 0.016268 0.318133 0.342077 -0.443527 -1.083976
    18 1.887166 0.012877 0.000000 -0.305433 0.000000 -0.401426
    19 1.001874 -0.000270 0.000000 0.000000 0.000000 -0.488692
    20 -1.123358 -2.195092 -0.278957 -0.933751 0.000000 -0.087266
    21 0.010773 -0.963791 0.000000 -0.610865 0.000000 0.000000
    22 -0.010412 -0.631916 0.000000 -1.213004 0.000000 0.000000
    23 -1.144078 -2.642420 -10.889298 -0.380997 0.087299 0.521055
    24 0.089929 -8.543163 -0.000001 0.079777 -0.284686 0.455196
    25 0.000000 -0.359713 0.000000 0.000000 0.000000 0.000000
    26 -0.170480 -2.636147 -0.277655 -0.820345 0.000000 0.000000
    27 0.010599 -1.261177 0.000000 -0.584683 0.000000 0.000000
    28 -0.000001 -0.943233 0.000000 -0.532326 0.000000 0.000000
    29 -0.827563 -2.508973 -0.277656 -0.942486 0.000000 0.000000
    30 0.000001 -1.292971 0.000000 -0.287992 0.000000 0.000000
    31 0.000000 -0.752466 0.000000 -0.445059 0.000000 0.000000
    32 0.444212 -2.561960 -0.277655 -1.081578 -0.046226 -0.024599
    33 0.021022 -1.208186 0.000000 -0.427606 0.000000 0.000000
    34 0.010597 -0.741867 0.000000 -0.453786 0.000000 0.000000
    35 1.047444 -2.222821 -0.277655 -1.019692 -0.066950 -0.041090
    36 0.000000 -0.996223 -0.000001 -0.584716 0.000000 0.000000
    37 -0.000002 -0.614690 0.000000 -0.523599 0.000000 0.000000
    38 -0.308254 -0.007814 0.307166 -0.318048 -0.539821 -2.424630
    39 1.978378 0.019543 0.000000 -0.000002 -0.000010 0.497421
    40 0.982427 0.003186 0.000000 0.000000 0.000000 0.767923
  time 10
    0 6.606519 0.165564 -6.694014 -0.774287 -1.331382 0.567261
    1 0.000000 -8.563282 -0.000001 0.338691 -0.138691 -0.176032
    2 0.022535 -3.459973 0.747360 -1.452338 1.442011 -1.446092
    3 0.000001 2.373980 0.699476 0.000000 0.000000 0.000000
    4 -0.000001 -0.959135 1.722198 0.000000 0.000000 0.000000
    5 0.000000 -1.759288 0.975027 0.000000 0.000000 0.000000
    6 -0.000967 -2.992971 0.968137 -0.270338 -0.001806 -0.009717
    7 -0.003480 -0.404829 0.000000 0.000000 0.000000 0.000000
    8 -0.519308 -2.501155 -0.278957 -1.003564 0.000000 -0.122173
    9 -0.010598 -1.208184 0.000001 -1.090831 0.000000 0.000000
    10 0.000000 -0.763066 0.000000 -1.343903 0.000000 0.000000
    11 0.105982 -2.607134 -0.278957 -0.890118 0.000000 -0.148353
    12 0.000000 -1.250580 0.000000 -1.213004 0.000000 0.000000
    13 0.000000 -0.932634 0.000001 -1.483530 0.000000 0.000000
    14 0.763064 -2.490556 -0.278957 -0.349065 0.000000 0.130900
    15 -0.012321 -1.280916 0.000000 -0.322887 0.000000 0.000000
    16 -0.001697 -0.749371 0.000001 -0.593412 0.000000 0.000000
    17 0.354567 0.016268 0.318133 0.342077 -0.443527 -1.083976
    18 1.887166 0.012877 0.000000 -0.305433 0.000000 -0.401426
    19 1.001874 -0.000270 0.000000 0.000000 0.000000 -0.488692
    20 -1.123358 -2.195092 -0.278957 -0.933751 0.000000 -0.087266
    21 0.010773 -0.963791 0.000000 -0.610865 0.000000 0.000000
    22 -0.010412 -0.631916 0.000000 -1.213004 0.000000 0.000000
    23 -1.144078 -2.642420 -10.889298 -0.380997 0.087299 0.521055
    24 0.089929 -8.543163 -0.000001 0.079777 -0.284686 0.455196
    25 0.000000 -0.359713 0.000000 0.000000 0.000000 0.000000
    26 -0.170480 -2.636147 -0.277655 -0.820345 0.000000 0.000000
    27 0.010599 -1.261177 0.000000 -0.584683 0.000000 0.000000
    28 -0.000001 -0.943233 0.000000 -0.532326 0.000000 0.000000
    29 -0.827563 -2.508973 -0.277656 -0.942486 0.000000 0.000000
    30 0.000001 -1.292971 0.000000 -0.287992 0.000000 0.000000
    31 0.000000 -0.752466 0.000000 -0.445059 0.000000 0.000000
    32 0.444212 -2.561960 -0.277655 -1.081578 -0.046226 -0.024599
    33 0.021022 -1.208186 0.000000 -0.427606 0.000000 0.000000
    34 0.010597 -0.741867 0.000000 -0.453786 0.000000 0.000000
    35 1.047444 -2.222821 -0.277655 -1.019692 -0.066950 -0.041090
    36 0.000000 -0.996223 -0.000001 -0.584716 0.000000 0.000000
    37 -0.000002 -0.614690 0.000000 -0.523599 0.000000 0.000000
    38 -0.308254 -0.007814 0.307166 -0.318048 -0.539821 -2.424630
    39 1.978378 0.019543 0.000000 -0.000002 -0.000010 0.497421
    40 0.982427 0.003186 0.000000 0.000000 0.000000 0.767923
end
