// Created by Crowbar 0.34.0.0

$ModelName "weapons/tfa_cso/w_crow11.mdl"

$BodyGroup "studio"
{
	studio "v_crow11_v_ref"
}

$collisionmodel "v_crow11_v_ref.smd"
{
	$mass 9
}

$CDMaterials "models\weapons\tfa_cso\crow11"

$attachment "0" "root" 0.00 -15.00 -0.20 rotate -0 0 -0

$Sequence "idle" {
	"anims\idle.smd"
	fps 30
}