version 1
nodes
  0 "buff_m249" -1
  1 "Dummy001" 0
  2 "lever" 1
  3 "Dummy003" 0
  4 "trigger" 3
  5 "wing1" 1
  6 "wing2" 1
  7 "wing003" 1
  8 "wing004" 1
  9 "wing005" 1
  10 "wing006" 1
  11 "wing007" 1
  12 "wing008" 1
  13 "wing009" 1
  14 "wing010" 1
  15 "wing011" 1
  16 "wing012" 1
  17 "wing013" 1
  18 "wing014" 1
  19 "cover" 0
  20 "Object028" 19
  21 "Point006" 19
  22 "????????" 21
  23 "magazine" 1
  24 "Dummy002" 23
  25 "bullet1" 24
  26 "bullet2" 25
  27 "bullet3" 26
  28 "bullet4" 27
  29 "bullet5" 28
  30 "bullet6" 29
  31 "bullet7" 30
  32 "bullet8" 31
  33 "Point001" 19
  34 "orange" 33
  35 "Point002" 2
  36 "leverlight1" 35
  37 "Point003" 2
  38 "leverlight2" 37
  39 "Point004" 1
  40 "GeoSphere001" 39
  41 "Point005" 1
  42 "GeoSphere002" 41
  43 "black1" 1
  44 "black2" 1
  45 "black3" 1
  46 "black4" 1
  47 "black5" 1
  48 "black6" 1
  49 "root" -1
  50 "Bone01" 49
  51 "Bone_L_Upper" 50
  52 "Bone_Lefthand" 50
  53 "Bone13" 52
  54 "Bone14" 53
  55 "Bone15" 54
  56 "Bone17" 52
  57 "Bone18" 56
  58 "Bone19" 57
  59 "Bone21" 52
  60 "Bone22" 59
  61 "Bone23" 60
  62 "Bone09" 52
  63 "Bone10" 62
  64 "Bone11" 63
  65 "Bone05" 52
  66 "Bone06" 65
  67 "Bone07" 66
  68 "Bone_Se_Hand-L" 52
  69 "Bone04" 49
  70 "Bone_Righthand" 69
  71 "Bone39" 70
  72 "Bone40" 71
  73 "Bone41" 72
  74 "Bone35" 70
  75 "Bone36" 74
  76 "Bone37" 75
  77 "Bone31" 70
  78 "Bone32" 77
  79 "Bone33" 78
  80 "Bone43" 70
  81 "Bone44" 80
  82 "Bone45" 81
  83 "Bone27" 70
  84 "Bone28" 83
  85 "Bone29" 84
  86 "Bone_Se_Hand-R" 70
  87 "Bone_R_Upper" 69
end
skeleton
  time 0
    0 7.216372 -8.312578 -3.381669 -1.521021 -3.131799 1.467669
    1 6.185434 0.379124 -0.000001 0.000000 0.000000 0.000000
    2 -3.563981 1.256647 -1.087708 0.000000 0.000000 0.021642
    3 -1.464251 -1.398945 0.000000 0.000000 0.000000 0.000000
    4 0.103153 0.068699 0.000000 0.000000 0.000000 -1.424330
    5 -1.646002 -1.588399 1.593848 -0.278216 -0.494126 -2.868259
    6 -0.998352 -1.580052 1.698083 -0.507848 -0.678035 -2.570251
    7 -0.165947 -1.834276 1.705774 -0.771421 -0.937955 -2.095339
    8 0.720433 -1.619241 1.641268 -1.057063 -1.015006 -1.580642
    9 1.291739 -1.362477 1.639532 -1.256646 -0.974371 -1.192860
    10 1.881563 -1.154258 1.658113 -1.556168 -0.918465 -0.701604
    11 2.533382 -0.880921 1.417083 -1.844576 -0.648490 -0.583211
    12 -0.114986 -1.811761 -2.226530 -0.927015 -0.513583 1.249772
    13 0.774039 -1.595395 -2.187590 -1.128328 -0.637551 1.565415
    14 1.346209 -1.338449 -2.194060 -1.305643 -0.661252 1.905686
    15 1.910635 -1.038882 -1.951995 1.514354 -2.466979 -0.724089
    16 2.590990 -0.855057 -2.002131 1.297019 -2.493108 -0.583215
    17 -0.949288 -1.766195 -2.232661 -0.891381 -0.346632 0.997588
    18 -1.589159 -1.561627 -2.172420 -0.758947 -0.143850 0.619577
    19 1.343212 0.759871 -0.659468 -1.570801 -1.547537 0.000008
    20 0.616271 -0.042046 0.018120 0.000000 0.000000 0.000000
    21 0.616272 -0.042044 0.191434 0.000000 0.000000 0.000000
    22 -0.000007 10.649727 -2.184227 0.000000 0.000000 0.000000
    23 -4.723832 -1.475883 0.721802 0.000001 0.000000 -1.570796
    24 0.579225 -0.112310 0.643977 -3.141592 1.570796 0.000000
    25 -0.183390 0.009382 0.270586 -1.570794 -0.677250 -0.000001
    26 0.298495 0.000000 -0.000001 0.000000 0.000000 -0.214661
    27 0.271157 0.000001 -0.000001 0.000000 0.000000 -0.272137
    28 0.339450 0.000000 -0.000001 -0.000297 0.000312 -0.185631
    29 0.339187 0.000000 -0.000001 0.000254 -0.000187 0.128251
    30 0.385388 0.000000 -0.000001 -0.000063 -0.000261 0.401172
    31 0.341048 0.000000 -0.000001 -0.000161 -0.000026 0.590021
    32 0.315277 0.000000 -0.000001 0.000247 -0.000021 0.243588
    33 0.617627 -0.042344 -0.213050 0.000008 0.000032 0.000001
    34 0.000054 0.000001 0.000000 -0.000002 0.000000 -0.000001
    35 -0.027699 2.056633 0.190775 0.141025 1.159637 3.136647
    36 0.000000 0.000000 0.000002 0.000000 0.000000 0.000000
    37 -0.108783 -0.003680 0.135396 0.141025 1.159637 3.136647
    38 0.000000 0.000000 0.000000 0.000000 0.000000 0.000000
    39 -1.639297 -0.733058 1.473499 -0.210880 2.081601 1.371256
    40 0.000000 0.000000 0.000000 0.000000 0.000000 0.000000
    41 -0.512197 -1.035055 1.997663 -0.210879 2.081601 1.371256
    42 0.000000 0.000000 0.000000 0.000000 0.000000 0.000000
    43 -8.459149 -0.575940 0.000001 0.000000 0.000000 1.562439
    44 -7.376782 -0.561701 -0.000804 0.000000 0.000000 1.562440
    45 -6.265542 -0.528891 -0.002659 0.000000 0.000000 1.562440
    46 -2.220867 -0.492363 -0.004725 0.000000 0.000000 1.562440
    47 -1.138244 -0.466984 -0.006159 0.000000 0.000000 1.562439
    48 -0.027756 -0.466983 -0.006160 0.000000 0.000000 1.562439
    49 0.001265 -0.569176 -20.601572 0.000000 0.000000 0.000000
    50 9.310103 -5.299614 -12.557959 3.138909 -0.000224 -1.566807
    51 1.257180 8.762585 -0.153713 -1.570562 0.002683 -1.566807
    52 -0.071921 -8.498736 -0.104134 -0.025046 0.287591 0.014898
    53 -0.488518 -2.755602 -0.228260 0.106454 0.010332 -0.264490
    54 0.039887 -1.479790 0.029854 -0.055395 0.000000 0.000001
    55 0.028786 -1.075731 -0.023109 0.002099 0.000000 0.000000
    56 0.250027 -2.820665 -0.238396 0.041826 -0.002921 0.008443
    57 -0.049759 -1.680544 0.100479 0.019826 0.000000 -0.000002
    58 -0.034142 -1.148312 0.084782 -0.040115 0.000000 0.000000
    59 0.957766 -2.746780 -0.090302 -0.017221 -0.162277 0.191558
    60 -0.033420 -1.397129 -0.011257 0.013931 0.000000 -0.000001
    61 -0.022360 -0.957436 0.018784 0.003845 0.000000 0.000000
    62 -1.180681 -2.507217 -0.193859 0.082999 0.013294 -0.477915
    63 -0.024967 -1.123934 0.017597 -0.018065 0.000000 0.000001
    64 -0.020057 -0.890968 0.010090 -0.060797 0.000000 0.000000
    65 0.583510 -1.197277 0.185379 0.158049 -0.404973 -0.364290
    66 1.535927 0.010246 0.005009 -0.002964 -0.012979 0.000887
    67 1.100771 0.004527 -0.010679 -0.002796 0.015973 0.003458
    68 0.120153 -0.050270 -0.054489 0.287569 3.110905 1.561085
    69 -9.310107 -5.231260 -12.513384 0.004984 -3.131565 -1.566847
    70 0.096944 -8.450418 -0.009365 -0.032965 -0.297907 -0.004663
    71 0.447953 -2.798986 -0.200443 0.106456 -0.010396 0.265094
    72 -0.032909 -1.480204 0.004940 -0.055403 0.000000 0.000002
    73 -0.027022 -1.076920 -0.020210 0.002094 0.000000 0.000000
    74 -0.249534 -2.846964 -0.174213 0.041903 -0.000125 -0.008396
    75 0.043235 -1.683941 0.096012 0.019757 0.002823 -0.000167
    76 0.031729 -1.160830 0.058838 -0.040181 0.000642 0.008372
    77 -0.963866 -2.785145 -0.085350 -0.017227 0.162276 -0.191556
    78 0.028479 -1.403067 0.006271 0.013941 0.000000 0.000000
    79 0.021413 -0.957781 0.020046 0.003851 0.000000 0.000000
    80 1.164475 -2.543940 -0.170330 0.083003 -0.013294 0.477915
    81 0.024032 -1.129042 0.017807 -0.018074 0.000000 0.000001
    82 0.014898 -0.883989 -0.019848 -0.060801 0.000000 0.000000
    83 -0.586770 -1.264477 0.200161 -0.152092 -0.410513 -2.814816
    84 1.522835 0.058681 0.016848 0.001410 0.008985 -0.046880
    85 1.117947 0.048424 -0.005766 -0.000243 -0.025198 0.065422
    86 -0.139399 -0.111698 0.014397 0.285382 -0.030687 1.580508
    87 -1.393470 8.839177 -0.239433 1.580804 -0.005023 -1.566847
end
triangles
buff_m249_2_v.bmp
  45 6.589269 -7.936450 -2.694651 -0.870399 0.003823 0.492332 0.823875 0.810176
  45 6.534505 -8.755132 -2.681984 -0.799463 0.070772 0.596532 0.962818 0.810176
  45 6.744195 -8.776468 -2.491261 -0.522844 -0.013155 0.852327 0.964775 0.851272
buff_m249_2_v.bmp
  45 6.589269 -7.936450 -2.694651 -0.870399 0.003823 0.492332 0.823875 0.810176
  45 6.419214 -7.929569 -3.103594 -0.914937 0.072437 0.397044 0.825832 0.735812
  45 6.534505 -8.755132 -2.681984 -0.799463 0.070772 0.596532 0.962818 0.810176
buff_m249_2_v.bmp
  45 6.589269 -7.936450 -2.694651 -0.870399 0.003823 0.492332 0.823875 0.810176
  45 6.507095 -7.496090 -2.961917 -0.914937 0.072437 0.397044 0.751468 0.761252
  45 6.419214 -7.929569 -3.103594 -0.914937 0.072437 0.397044 0.825832 0.735812
buff_m249_2_v.bmp
  45 6.589269 -7.936450 -2.694651 -0.870399 0.003823 0.492332 0.823875 0.810176
  45 6.570758 -7.492390 -2.818622 -0.988868 0.135132 -0.062290 0.751468 0.784736
  45 6.507095 -7.496090 -2.961917 -0.914937 0.072437 0.397044 0.751468 0.761252
buff_m249_2_v.bmp
  45 6.589269 -7.936450 -2.694651 -0.870399 0.003823 0.492332 0.823875 0.810176
  45 6.491837 -7.483985 -2.632340 -0.913453 0.131665 0.385055 0.751468 0.814090
  45 6.570758 -7.492390 -2.818622 -0.988868 0.135132 -0.062290 0.751468 0.784736
buff_m249_2_v.bmp
  45 6.589269 -7.936450 -2.694651 -0.870399 0.003823 0.492332 0.823875 0.810176
  45 6.697513 -7.505082 -2.561966 -0.526352 0.031934 0.849667 0.751468 0.841487
  45 6.491837 -7.483985 -2.632340 -0.913453 0.131665 0.385055 0.751468 0.814090
buff_m249_2_v.bmp
  45 6.589269 -7.936450 -2.694651 -0.870399 0.003823 0.492332 0.823875 0.810176
  45 6.838655 -7.680131 -2.323562 -0.778214 -0.016694 0.627777 0.780822 0.880626
  45 6.697513 -7.505082 -2.561966 -0.526352 0.031934 0.849667 0.751468 0.841487
buff_m249_2_v.bmp
  45 6.589269 -7.936450 -2.694651 -0.870399 0.003823 0.492332 0.823875 0.810176
  45 6.792993 -8.278776 -2.442047 -0.663224 -0.056406 0.746293 0.882583 0.863014
  45 6.838655 -7.680131 -2.323562 -0.778214 -0.016694 0.627777 0.780822 0.880626
buff_m249_2_v.bmp
  45 6.589269 -7.936450 -2.694651 -0.870399 0.003823 0.492332 0.823875 0.810176
  45 6.744195 -8.776468 -2.491261 -0.522844 -0.013155 0.852327 0.964775 0.851272
  45 6.792993 -8.278776 -2.442047 -0.663224 -0.056406 0.746293 0.882583 0.863014
buff_m249_2_v.bmp
  45 7.841085 -8.065388 -2.631963 0.799966 -0.168226 0.575981 0.823875 0.810176
  45 7.548057 -8.356549 -2.404235 0.560804 -0.182482 0.807589 0.882583 0.863014
  45 7.499259 -8.854240 -2.453449 0.422370 -0.110512 0.899662 0.964775 0.851272
buff_m249_2_v.bmp
  45 7.841085 -8.065388 -2.631963 0.799966 -0.168226 0.575981 0.823875 0.810176
  45 7.613589 -7.759950 -2.284755 0.692609 -0.168190 0.701431 0.780822 0.880626
  45 7.548057 -8.356549 -2.404235 0.560804 -0.182482 0.807589 0.882583 0.863014
buff_m249_2_v.bmp
  45 7.841085 -8.065388 -2.631963 0.799966 -0.168226 0.575981 0.823875 0.810176
  45 7.810239 -7.619694 -2.506244 0.435214 -0.067108 0.897822 0.751468 0.841487
  45 7.613589 -7.759950 -2.284755 0.692609 -0.168190 0.701431 0.780822 0.880626
buff_m249_2_v.bmp
  45 7.841085 -8.065388 -2.631963 0.799966 -0.168226 0.575981 0.823875 0.810176
  45 8.021836 -7.641576 -2.555721 0.878506 -0.052906 0.474793 0.751468 0.814090
  45 7.810239 -7.619694 -2.506244 0.435214 -0.067108 0.897822 0.751468 0.841487
buff_m249_2_v.bmp
  45 7.841085 -8.065388 -2.631963 0.799966 -0.168226 0.575981 0.823875 0.810176
  45 7.961665 -7.635656 -2.748969 0.996897 -0.069406 0.037147 0.751468 0.784736
  45 8.021836 -7.641576 -2.555721 0.878506 -0.052906 0.474793 0.751468 0.814090
buff_m249_2_v.bmp
  45 7.841085 -8.065388 -2.631963 0.799966 -0.168226 0.575981 0.823875 0.810176
  45 8.037093 -7.653682 -2.885298 0.866723 -0.111075 0.486266 0.751468 0.761252
  45 7.961665 -7.635656 -2.748969 0.996897 -0.069406 0.037147 0.751468 0.784736
buff_m249_2_v.bmp
  45 7.841085 -8.065388 -2.631963 0.799966 -0.168226 0.575981 0.823875 0.810176
  45 8.048563 -8.097395 -3.022000 0.866723 -0.111075 0.486266 0.825832 0.735812
  45 8.037093 -7.653682 -2.885298 0.866723 -0.111075 0.486266 0.751468 0.761252
buff_m249_2_v.bmp
  45 7.841085 -8.065388 -2.631963 0.799966 -0.168226 0.575981 0.823875 0.810176
  45 7.726711 -8.877931 -2.622281 0.734179 -0.087194 0.673334 0.962818 0.810176
  45 8.048563 -8.097395 -3.022000 0.866723 -0.111075 0.486266 0.825832 0.735812
buff_m249_2_v.bmp
  45 7.841085 -8.065388 -2.631963 0.799966 -0.168226 0.575981 0.823875 0.810176
  45 7.499259 -8.854240 -2.453449 0.422370 -0.110512 0.899662 0.964775 0.851272
  45 7.726711 -8.877931 -2.622281 0.734179 -0.087194 0.673334 0.962818 0.810176
buff_m249_2_v.bmp
  45 7.178431 -8.832953 -3.640891 -0.102945 -0.994639 0.009790 0.741683 0.293542
  45 6.335671 -8.735234 -3.092433 -0.102945 -0.994639 0.009790 0.702544 0.326810
  45 6.363757 -8.749040 -3.681688 -0.102945 -0.994639 0.009790 0.702544 0.293542
buff_m249_2_v.bmp
  45 7.178431 -8.832953 -3.640891 -0.102945 -0.994639 0.009790 0.741683 0.293542
  45 6.534505 -8.755132 -2.681984 -0.102945 -0.994639 0.009790 0.714286 0.350294
  45 6.335671 -8.735234 -3.092433 -0.102945 -0.994639 0.009790 0.702544 0.326810
buff_m249_2_v.bmp
  45 7.178431 -8.832953 -3.640891 -0.102945 -0.994639 0.009790 0.741683 0.293542
  45 6.744195 -8.776468 -2.491261 -0.102945 -0.994639 0.009790 0.724070 0.360078
  45 6.534505 -8.755132 -2.681984 -0.102945 -0.994639 0.009790 0.714286 0.350294
buff_m249_2_v.bmp
  45 7.178431 -8.832953 -3.640891 -0.102945 -0.994639 0.009790 0.741683 0.293542
  45 7.116792 -8.814700 -2.372479 -0.102945 -0.994639 0.009790 0.741683 0.365949
  45 6.744195 -8.776468 -2.491261 -0.102945 -0.994639 0.009790 0.724070 0.360078
buff_m249_2_v.bmp
  45 7.178431 -8.832953 -3.640891 -0.102945 -0.994639 0.009790 0.741683 0.293542
  45 7.499259 -8.854240 -2.453449 -0.102945 -0.994639 0.009790 0.724070 0.360078
  45 7.116792 -8.814700 -2.372479 -0.102945 -0.994639 0.009790 0.741683 0.365949
buff_m249_2_v.bmp
  45 7.178431 -8.832953 -3.640891 -0.102945 -0.994639 0.009790 0.741683 0.293542
  45 7.726711 -8.877931 -2.622281 -0.102945 -0.994639 0.009790 0.714286 0.350294
  45 7.499259 -8.854240 -2.453449 -0.102945 -0.994639 0.009790 0.724070 0.360078
buff_m249_2_v.bmp
  45 7.178431 -8.832953 -3.640891 -0.102945 -0.994639 0.009790 0.741683 0.293542
  45 7.965019 -8.903060 -3.010839 -0.102945 -0.994639 0.009790 0.702544 0.326810
  45 7.726711 -8.877931 -2.622281 -0.102945 -0.994639 0.009790 0.714286 0.350294
buff_m249_2_v.bmp
  45 7.178431 -8.832953 -3.640891 -0.102945 -0.994639 0.009790 0.741683 0.293542
  45 7.993106 -8.916865 -3.600094 -0.102945 -0.994639 0.009790 0.702544 0.293542
  45 7.965019 -8.903060 -3.010839 -0.102945 -0.994639 0.009790 0.702544 0.326810
buff_m249_2_v.bmp
  45 6.838655 -7.680131 -2.323562 -0.878580 -0.223803 0.421911 0.780822 0.880626
  45 7.035049 -8.132401 -2.150700 -0.786518 -0.370902 0.493782 0.851272 0.923679
  45 6.980154 -7.744606 -2.065839 -0.792274 -0.243529 0.559461 0.784736 0.929550
buff_m249_2_v.bmp
  45 6.980154 -7.744606 -2.065839 -0.792274 -0.243529 0.559461 0.784736 0.929550
  45 7.035049 -8.132401 -2.150700 -0.786518 -0.370902 0.493782 0.851272 0.923679
  45 7.164572 -8.195876 -2.053773 -0.098879 -0.560100 0.822503 0.857143 0.939335
buff_m249_2_v.bmp
  45 7.035049 -8.132401 -2.150700 -0.786518 -0.370902 0.493782 0.851272 0.923679
  45 7.154960 -8.386182 -2.253251 -0.111494 -0.788191 0.605248 0.900196 0.919765
  45 7.164572 -8.195876 -2.053773 -0.098879 -0.560100 0.822503 0.857143 0.939335
buff_m249_2_v.bmp
  45 7.164572 -8.195876 -2.053773 -0.098879 -0.560100 0.822503 0.857143 0.939335
  45 7.154960 -8.386182 -2.253251 -0.111494 -0.788191 0.605248 0.900196 0.919765
  45 7.313230 -8.161054 -2.136769 0.641921 -0.518033 0.565313 0.851272 0.923679
buff_m249_2_v.bmp
  45 7.154960 -8.386182 -2.253251 -0.111494 -0.788191 0.605248 0.900196 0.919765
  45 7.450560 -8.084986 -2.310706 0.768192 -0.483166 0.420038 0.839530 0.890411
  45 7.313230 -8.161054 -2.136769 0.641921 -0.518033 0.565313 0.851272 0.923679
buff_m249_2_v.bmp
  45 7.313230 -8.161054 -2.136769 0.641921 -0.518033 0.565313 0.851272 0.923679
  45 7.450560 -8.084986 -2.310706 0.768192 -0.483166 0.420038 0.839530 0.890411
  45 7.613589 -7.759950 -2.284755 0.768615 -0.393466 0.504397 0.780822 0.880626
buff_m249_2_v.bmp
  45 7.298886 -7.669185 -3.652572 0.044447 -0.015282 -0.998895 0.772994 0.281800
  45 6.448326 -7.933428 -3.692862 0.044447 -0.015282 -0.998895 0.780822 0.301370
  45 6.493439 -7.495747 -3.693499 0.044447 -0.015282 -0.998895 0.769080 0.301370
buff_m249_2_v.bmp
  45 7.298886 -7.669185 -3.652572 0.044447 -0.015282 -0.998895 0.772994 0.281800
  45 6.363757 -8.749040 -3.681688 0.044447 -0.015282 -0.998895 0.806262 0.303327
  45 6.448326 -7.933428 -3.692862 0.044447 -0.015282 -0.998895 0.780822 0.301370
buff_m249_2_v.bmp
  45 7.298886 -7.669185 -3.652572 0.044447 -0.015282 -0.998895 0.772994 0.281800
  45 7.178431 -8.832953 -3.640891 0.044447 -0.015282 -0.998895 0.806262 0.283757
  45 6.363757 -8.749040 -3.681688 0.044447 -0.015282 -0.998895 0.806262 0.303327
buff_m249_2_v.bmp
  45 7.298886 -7.669185 -3.652572 0.044447 -0.015282 -0.998895 0.772994 0.281800
  45 7.993106 -8.916865 -3.600094 0.044447 -0.015282 -0.998895 0.806262 0.303327
  45 7.178431 -8.832953 -3.640891 0.044447 -0.015282 -0.998895 0.806262 0.283757
buff_m249_2_v.bmp
  45 7.298886 -7.669185 -3.652572 0.044447 -0.015282 -0.998895 0.772994 0.281800
  45 8.077674 -8.101253 -3.611268 0.044447 -0.015282 -0.998895 0.780822 0.301370
  45 7.993106 -8.916865 -3.600094 0.044447 -0.015282 -0.998895 0.806262 0.303327
buff_m249_2_v.bmp
  45 7.298886 -7.669185 -3.652572 0.044447 -0.015282 -0.998895 0.772994 0.281800
  45 8.122788 -7.663572 -3.611905 0.044447 -0.015282 -0.998895 0.769080 0.301370
  45 8.077674 -8.101253 -3.611268 0.044447 -0.015282 -0.998895 0.780822 0.301370
buff_m249_2_v.bmp
  45 6.335671 -8.735234 -3.092433 -0.993505 0.102332 -0.049752 0.962818 0.737769
  45 6.419214 -7.929569 -3.103594 -0.993505 0.102332 -0.049752 0.825832 0.735812
  45 6.363757 -8.749040 -3.681688 -0.993505 0.102332 -0.049752 0.966732 0.637965
buff_m249_2_v.bmp
  45 6.363757 -8.749040 -3.681688 -0.993505 0.102332 -0.049752 0.966732 0.637965
  45 6.419214 -7.929569 -3.103594 -0.993505 0.102332 -0.049752 0.825832 0.735812
  45 6.448326 -7.933428 -3.692862 -0.993505 0.102332 -0.049752 0.827789 0.636008
buff_m249_2_v.bmp
  45 6.419214 -7.929569 -3.103594 -0.993505 0.102332 -0.049752 0.825832 0.735812
  45 6.471729 -7.492870 -3.254045 -0.993505 0.102332 -0.049752 0.751468 0.706458
  45 6.448326 -7.933428 -3.692862 -0.993505 0.102332 -0.049752 0.827789 0.636008
buff_m249_2_v.bmp
  45 6.448326 -7.933428 -3.692862 -0.993505 0.102332 -0.049752 0.827789 0.636008
  45 6.471729 -7.492870 -3.254045 -0.993505 0.102332 -0.049752 0.751468 0.706458
  45 6.487025 -7.494897 -3.563660 -0.993505 0.102332 -0.049752 0.755382 0.655577
buff_m249_2_v.bmp
  45 7.116792 -8.814700 -2.372479 -0.066384 -0.166162 0.983861 0.970646 0.904110
  45 6.792993 -8.278776 -2.442047 -0.663224 -0.056406 0.746293 0.882583 0.863014
  45 6.744195 -8.776468 -2.491261 -0.522844 -0.013155 0.852327 0.964775 0.851272
buff_m249_2_v.bmp
  45 7.116792 -8.814700 -2.372479 -0.066384 -0.166162 0.983861 0.970646 0.904110
  45 7.154960 -8.386182 -2.253251 -0.074570 -0.255303 0.963981 0.900196 0.919765
  45 6.792993 -8.278776 -2.442047 -0.663224 -0.056406 0.746293 0.882583 0.863014
buff_m249_2_v.bmp
  45 7.116792 -8.814700 -2.372479 -0.066384 -0.166162 0.983861 0.970646 0.904110
  45 7.548057 -8.356549 -2.404235 0.560804 -0.182482 0.807589 0.882583 0.863014
  45 7.154960 -8.386182 -2.253251 -0.074570 -0.255303 0.963981 0.900196 0.919765
buff_m249_2_v.bmp
  45 7.116792 -8.814700 -2.372479 -0.066384 -0.166162 0.983861 0.970646 0.904110
  45 7.499259 -8.854240 -2.453449 0.422370 -0.110512 0.899662 0.964775 0.851272
  45 7.548057 -8.356549 -2.404235 0.560804 -0.182482 0.807589 0.882583 0.863014
buff_m249_2_v.bmp
  45 6.980154 -7.744606 -2.065839 -0.792274 -0.243529 0.559461 0.784736 0.929550
  45 7.164572 -8.195876 -2.053773 -0.098879 -0.560100 0.822503 0.857143 0.939335
  45 7.204034 -7.686864 -1.794834 -0.090832 -0.449889 0.888453 0.772994 0.976517
buff_m249_2_v.bmp
  45 7.204034 -7.686864 -1.794834 -0.090832 -0.449889 0.888453 0.772994 0.976517
  45 7.164572 -8.195876 -2.053773 -0.098879 -0.560100 0.822503 0.857143 0.939335
  45 7.437167 -7.791679 -2.042953 0.666934 -0.393828 0.632533 0.784736 0.929550
buff_m249_2_v.bmp
  45 7.164572 -8.195876 -2.053773 -0.098879 -0.560100 0.822503 0.857143 0.939335
  45 7.313230 -8.161054 -2.136769 0.641921 -0.518033 0.565313 0.851272 0.923679
  45 7.437167 -7.791679 -2.042953 0.666934 -0.393828 0.632533 0.784736 0.929550
buff_m249_2_v.bmp
  45 7.437167 -7.791679 -2.042953 0.666934 -0.393828 0.632533 0.784736 0.929550
  45 7.313230 -8.161054 -2.136769 0.641921 -0.518033 0.565313 0.851272 0.923679
  45 7.613589 -7.759950 -2.284755 0.768615 -0.393466 0.504397 0.780822 0.880626
buff_m249_2_v.bmp
  45 6.471729 -7.492870 -3.254045 0.208417 0.978030 -0.004421 0.637965 0.174168
  45 7.272241 -7.665654 -3.113241 0.208417 0.978030 -0.004421 0.514677 0.191781
  45 6.487025 -7.494897 -3.563660 0.208417 0.978030 -0.004421 0.637965 0.142857
buff_m249_2_v.bmp
  45 6.487025 -7.494897 -3.563660 0.208417 0.978030 -0.004421 0.637965 0.142857
  45 7.272241 -7.665654 -3.113241 0.208417 0.978030 -0.004421 0.514677 0.191781
  45 6.493439 -7.495747 -3.693499 0.208417 0.978030 -0.004421 0.637965 0.129159
buff_m249_2_v.bmp
  45 7.272241 -7.665654 -3.113241 0.208417 0.978030 -0.004421 0.514677 0.191781
  45 7.298886 -7.669185 -3.652572 0.208417 0.978030 -0.004421 0.514677 0.129159
  45 6.493439 -7.495747 -3.693499 0.208417 0.978030 -0.004421 0.637965 0.129159
buff_m249_2_v.bmp
  45 7.993106 -8.916865 -3.600094 0.993505 -0.102332 0.049753 0.966732 0.637965
  45 8.077674 -8.101253 -3.611268 0.993505 -0.102332 0.049753 0.827789 0.636008
  45 8.048563 -8.097395 -3.022000 0.993505 -0.102332 0.049753 0.825832 0.735812
buff_m249_2_v.bmp
  45 8.048563 -8.097395 -3.022000 0.993505 -0.102332 0.049753 0.825832 0.735812
  45 8.077674 -8.101253 -3.611268 0.993505 -0.102332 0.049753 0.827789 0.636008
  45 8.101078 -7.660695 -3.172451 0.993505 -0.102332 0.049753 0.751468 0.706458
buff_m249_2_v.bmp
  45 8.077674 -8.101253 -3.611268 0.993505 -0.102332 0.049753 0.827789 0.636008
  45 8.116374 -7.662722 -3.482067 0.993505 -0.102332 0.049753 0.755382 0.655577
  45 8.101078 -7.660695 -3.172451 0.993505 -0.102332 0.049753 0.751468 0.706458
buff_m249_2_v.bmp
  45 7.298886 -7.669185 -3.652572 -0.003716 0.999880 -0.015050 0.514677 0.129159
  45 7.272241 -7.665654 -3.113241 -0.003716 0.999880 -0.015050 0.514677 0.191781
  45 8.122788 -7.663572 -3.611905 -0.003716 0.999880 -0.015050 0.391389 0.129159
buff_m249_2_v.bmp
  45 8.122788 -7.663572 -3.611905 -0.003716 0.999880 -0.015050 0.391389 0.129159
  45 7.272241 -7.665654 -3.113241 -0.003716 0.999880 -0.015050 0.514677 0.191781
  45 8.116374 -7.662722 -3.482067 -0.003716 0.999880 -0.015050 0.391389 0.142857
buff_m249_2_v.bmp
  45 7.272241 -7.665654 -3.113241 -0.003716 0.999880 -0.015050 0.514677 0.191781
  45 8.101078 -7.660695 -3.172451 -0.003716 0.999880 -0.015050 0.391389 0.174168
  45 8.116374 -7.662722 -3.482067 -0.003716 0.999880 -0.015050 0.391389 0.142857
buff_m249_2_v.bmp
  45 6.697513 -7.505082 -2.561966 -0.526352 0.031934 0.849667 0.751468 0.841487
  45 6.724653 -7.085772 -2.643470 -0.758494 0.470452 0.450957 0.681018 0.821918
  45 6.491837 -7.483985 -2.632340 -0.913453 0.131665 0.385055 0.751468 0.814090
buff_m249_2_v.bmp
  45 6.491837 -7.483985 -2.632340 -0.913453 0.131665 0.385055 0.751468 0.814090
  45 6.724653 -7.085772 -2.643470 -0.758494 0.470452 0.450957 0.681018 0.821918
  45 6.570758 -7.492390 -2.818622 -0.988868 0.135132 -0.062290 0.751468 0.784736
buff_m249_2_v.bmp
  45 7.154960 -8.386182 -2.253251 -0.111494 -0.788191 0.605248 0.900196 0.919765
  45 7.035049 -8.132401 -2.150700 -0.786518 -0.370902 0.493782 0.851272 0.923679
  45 6.933937 -8.031773 -2.336577 -0.888068 -0.312569 0.337099 0.839530 0.890411
buff_m249_2_v.bmp
  45 6.933937 -8.031773 -2.336577 -0.888068 -0.312569 0.337099 0.839530 0.890411
  45 7.035049 -8.132401 -2.150700 -0.786518 -0.370902 0.493782 0.851272 0.923679
  45 6.838655 -7.680131 -2.323562 -0.878580 -0.223803 0.421911 0.780822 0.880626
buff_m249_2_v.bmp
  45 6.448326 -7.933428 -3.692862 0.044447 -0.015282 -0.998895 0.780822 0.301370
  45 6.394089 -7.485514 -3.698475 0.044447 -0.015282 -0.998895 0.769080 0.303327
  45 6.493439 -7.495747 -3.693499 0.044447 -0.015282 -0.998895 0.769080 0.301370
buff_m249_2_v.bmp
  45 6.493439 -7.495747 -3.693499 0.044447 -0.015282 -0.998895 0.769080 0.301370
  45 6.394089 -7.485514 -3.698475 0.044447 -0.015282 -0.998895 0.769080 0.303327
  45 6.576736 -7.082120 -3.702105 0.044447 -0.015282 -0.998895 0.757339 0.299413
buff_m249_2_v.bmp
  45 6.570758 -7.492390 -2.818622 0.206174 0.977029 -0.053909 0.620352 0.248532
  45 7.272241 -7.665654 -3.113241 0.206174 0.977029 -0.053909 0.514677 0.191781
  45 6.507095 -7.496090 -2.961917 0.206174 0.977029 -0.053909 0.630137 0.223092
buff_m249_2_v.bmp
  45 6.507095 -7.496090 -2.961917 0.206174 0.977029 -0.053909 0.630137 0.223092
  45 7.272241 -7.665654 -3.113241 0.206174 0.977029 -0.053909 0.514677 0.191781
  45 6.471729 -7.492870 -3.254045 0.206174 0.977029 -0.053909 0.637965 0.174168
buff_m249_2_v.bmp
  45 7.810239 -7.619694 -2.506244 0.435214 -0.067108 0.897822 0.751468 0.841487
  45 8.021836 -7.641576 -2.555721 0.878506 -0.052906 0.474793 0.751468 0.814090
  45 7.877119 -7.204478 -2.585758 0.789930 0.310966 0.528499 0.681018 0.821918
buff_m249_2_v.bmp
  45 7.877119 -7.204478 -2.585758 0.789930 0.310966 0.528499 0.681018 0.821918
  45 8.021836 -7.641576 -2.555721 0.878506 -0.052906 0.474793 0.751468 0.814090
  45 7.961665 -7.635656 -2.748969 0.996897 -0.069406 0.037147 0.751468 0.784736
buff_m249_2_v.bmp
  45 8.077674 -8.101253 -3.611268 0.044447 -0.015282 -0.998895 0.780822 0.301370
  45 8.122788 -7.663572 -3.611905 0.044447 -0.015282 -0.998895 0.769080 0.301370
  45 8.222139 -7.673805 -3.606930 0.044447 -0.015282 -0.998895 0.769080 0.303327
buff_m249_2_v.bmp
  45 8.222139 -7.673805 -3.606930 0.044447 -0.015282 -0.998895 0.769080 0.303327
  45 8.122788 -7.663572 -3.611905 0.044447 -0.015282 -0.998895 0.769080 0.301370
  45 8.126604 -7.241758 -3.624491 0.044447 -0.015282 -0.998895 0.757339 0.299413
buff_m249_2_v.bmp
  45 7.961665 -7.635656 -2.748969 0.003157 0.997940 -0.064072 0.409002 0.248532
  45 8.037093 -7.653682 -2.885298 0.003157 0.997940 -0.064072 0.399217 0.223092
  45 7.272241 -7.665654 -3.113241 0.003157 0.997940 -0.064072 0.514677 0.191781
buff_m249_2_v.bmp
  45 7.272241 -7.665654 -3.113241 0.003157 0.997940 -0.064072 0.514677 0.191781
  45 8.037093 -7.653682 -2.885298 0.003157 0.997940 -0.064072 0.399217 0.223092
  45 8.101078 -7.660695 -3.172451 0.003157 0.997940 -0.064072 0.391389 0.174168
buff_m249_2_v.bmp
  45 6.534505 -8.755132 -2.681984 -0.799463 0.070772 0.596532 0.962818 0.810176
  45 6.419214 -7.929569 -3.103594 -0.914937 0.072437 0.397044 0.825832 0.735812
  45 6.335671 -8.735234 -3.092433 -0.891496 0.096623 0.442604 0.962818 0.737769
buff_m249_2_v.bmp
  45 6.448326 -7.933428 -3.692862 -0.865346 -0.082090 0.494407 0.827789 0.636008
  45 6.487025 -7.494897 -3.563660 -0.865346 -0.082090 0.494407 0.755382 0.655577
  45 6.394089 -7.485514 -3.698475 -0.865346 -0.082090 0.494407 0.755382 0.628180
buff_m249_2_v.bmp
  45 6.507095 -7.496090 -2.961917 -0.654383 0.319248 0.685466 0.751468 0.761252
  45 6.557559 -7.079285 -3.112339 -0.654383 0.319248 0.685466 0.681018 0.733855
  45 6.355042 -7.480632 -3.109703 -0.654383 0.319248 0.685466 0.751468 0.731898
buff_m249_2_v.bmp
  45 6.355042 -7.480632 -3.109703 -0.721592 0.364525 -0.588580 0.751468 0.731898
  45 6.557559 -7.079285 -3.112339 -0.721592 0.364525 -0.588580 0.681018 0.733855
  45 6.471729 -7.492870 -3.254045 -0.721592 0.364525 -0.588580 0.751468 0.706458
buff_m249_2_v.bmp
  45 6.507095 -7.496090 -2.961917 -0.708015 -0.075291 0.702172 0.751468 0.761252
  45 6.355042 -7.480632 -3.109703 -0.708015 -0.075291 0.702172 0.751468 0.731898
  45 6.419214 -7.929569 -3.103594 -0.708015 -0.075291 0.702172 0.825832 0.735812
buff_m249_2_v.bmp
  45 6.355042 -7.480632 -3.109703 -0.791949 -0.113375 -0.599969 0.751468 0.731898
  45 6.471729 -7.492870 -3.254045 -0.791949 -0.113375 -0.599969 0.751468 0.706458
  45 6.419214 -7.929569 -3.103594 -0.791949 -0.113375 -0.599969 0.825832 0.735812
buff_m249_2_v.bmp
  45 7.212793 -7.849355 -2.303970 0.131879 0.943520 -0.303937 0.514677 0.338552
  45 6.980154 -7.744606 -2.065839 0.131879 0.943520 -0.303937 0.551859 0.381605
  45 7.204034 -7.686864 -1.794834 0.131879 0.943520 -0.303937 0.514677 0.424658
buff_m249_2_v.bmp
  45 7.212793 -7.849355 -2.303970 0.407940 0.912861 -0.016414 0.514677 0.338552
  45 6.838655 -7.680131 -2.323562 0.407940 0.912861 -0.016414 0.575342 0.338552
  45 6.980154 -7.744606 -2.065839 0.407940 0.912861 -0.016414 0.551859 0.381605
buff_m249_2_v.bmp
  45 6.933937 -8.031773 -2.336577 -0.466302 -0.105130 0.878356 0.839530 0.890411
  45 6.792993 -8.278776 -2.442047 -0.466302 -0.105130 0.878356 0.882583 0.863014
  45 7.154960 -8.386182 -2.253251 -0.466302 -0.105130 0.878356 0.900196 0.919765
buff_m249_2_v.bmp
  45 6.838655 -7.680131 -2.323562 -0.778214 -0.016694 0.627777 0.780822 0.880626
  45 6.792993 -8.278776 -2.442047 -0.663224 -0.056406 0.746293 0.882583 0.863014
  45 6.933937 -8.031773 -2.336577 -0.433949 -0.128530 0.891722 0.839530 0.890411
buff_m249_2_v.bmp
  45 6.576736 -7.082120 -3.702105 -0.800742 0.359458 0.479168 0.684932 0.634051
  45 6.394089 -7.485514 -3.698475 -0.800742 0.359458 0.479168 0.755382 0.628180
  45 6.487025 -7.494897 -3.563660 -0.800742 0.359458 0.479168 0.755382 0.655577
buff_m249_2_v.bmp
  45 6.570758 -7.492390 -2.818622 0.880194 -0.161970 -0.446122 0.620352 0.248532
  45 6.724653 -7.085772 -2.643470 0.880194 -0.161970 -0.446122 0.673190 0.307241
  45 6.697513 -7.505082 -2.561966 0.880194 -0.161970 -0.446122 0.600783 0.293542
buff_m249_2_v.bmp
  45 6.471729 -7.492870 -3.254045 0.977146 -0.168422 -0.129693 0.637965 0.174168
  45 6.557559 -7.079285 -3.112339 0.977146 -0.168422 -0.129693 0.706458 0.209393
  45 6.507095 -7.496090 -2.961917 0.977146 -0.168422 -0.129693 0.630137 0.223092
buff_m249_2_v.bmp
  45 6.493439 -7.495747 -3.693499 0.975633 -0.213509 0.050539 0.637965 0.129159
  45 6.576736 -7.082120 -3.702105 0.975633 -0.213509 0.050539 0.710372 0.129159
  45 6.487025 -7.494897 -3.563660 0.975633 -0.213509 0.050539 0.637965 0.142857
buff_m249_2_v.bmp
  45 7.212793 -7.849355 -2.303970 0.350079 0.837136 0.420296 0.514677 0.338552
  45 6.697513 -7.505082 -2.561966 0.350079 0.837136 0.420296 0.600783 0.293542
  45 6.838655 -7.680131 -2.323562 0.350079 0.837136 0.420296 0.575342 0.338552
buff_m249_2_v.bmp
  45 6.697513 -7.505082 -2.561966 0.157711 0.726825 0.668470 0.600783 0.293542
  45 7.212793 -7.849355 -2.303970 0.157711 0.726825 0.668470 0.514677 0.338552
  45 7.244648 -7.651914 -2.533975 0.157711 0.726825 0.668470 0.514677 0.291585
buff_m249_2_v.bmp
  45 7.272241 -7.665654 -3.113241 0.208417 0.978030 -0.004421 0.514677 0.191781
  45 6.570758 -7.492390 -2.818622 0.208417 0.978030 -0.004421 0.620352 0.248532
  45 7.244648 -7.651914 -2.533975 0.208417 0.978030 -0.004421 0.514677 0.291585
buff_m249_2_v.bmp
  45 7.993106 -8.916865 -3.600094 0.993505 -0.102332 0.049753 0.966732 0.637965
  45 8.048563 -8.097395 -3.022000 0.993505 -0.102332 0.049753 0.825832 0.735812
  45 7.965019 -8.903060 -3.010839 0.993505 -0.102332 0.049753 0.962818 0.737769
buff_m249_2_v.bmp
  45 8.048563 -8.097395 -3.022000 0.866723 -0.111075 0.486266 0.825832 0.735812
  45 7.726711 -8.877931 -2.622281 0.734179 -0.087194 0.673334 0.962818 0.810176
  45 7.965019 -8.903060 -3.010839 0.844305 -0.082167 0.529526 0.962818 0.737769
buff_m249_2_v.bmp
  45 8.222139 -7.673805 -3.606930 0.777369 -0.251288 0.576673 0.755382 0.628180
  45 8.116374 -7.662722 -3.482067 0.777369 -0.251288 0.576673 0.755382 0.655577
  45 8.077674 -8.101253 -3.611268 0.777369 -0.251288 0.576673 0.827789 0.636008
buff_m249_2_v.bmp
  45 8.202962 -7.670971 -3.017164 0.634588 0.186483 0.750015 0.751468 0.731898
  45 8.087557 -7.236877 -3.035720 0.634588 0.186483 0.750015 0.681018 0.733855
  45 8.037093 -7.653682 -2.885298 0.634588 0.186483 0.750015 0.751468 0.761252
buff_m249_2_v.bmp
  45 8.101078 -7.660695 -3.172451 0.835216 0.204171 -0.510616 0.751468 0.706458
  45 8.087557 -7.236877 -3.035720 0.835216 0.204171 -0.510616 0.681018 0.733855
  45 8.202962 -7.670971 -3.017164 0.835216 0.204171 -0.510616 0.751468 0.731898
buff_m249_2_v.bmp
  45 8.048563 -8.097395 -3.022000 0.604956 -0.210528 0.767923 0.825832 0.735812
  45 8.202962 -7.670971 -3.017164 0.604956 -0.210528 0.767923 0.751468 0.731898
  45 8.037093 -7.653682 -2.885298 0.604956 -0.210528 0.767923 0.751468 0.761252
buff_m249_2_v.bmp
  45 8.048563 -8.097395 -3.022000 0.807702 -0.278140 -0.519862 0.825832 0.735812
  45 8.101078 -7.660695 -3.172451 0.807702 -0.278140 -0.519862 0.751468 0.706458
  45 8.202962 -7.670971 -3.017164 0.807702 -0.278140 -0.519862 0.751468 0.731898
buff_m249_2_v.bmp
  45 7.204034 -7.686864 -1.794834 0.093438 0.947480 -0.305862 0.514677 0.424658
  45 7.437167 -7.791679 -2.042953 0.093438 0.947480 -0.305862 0.477495 0.381605
  45 7.212793 -7.849355 -2.303970 0.093438 0.947480 -0.305862 0.514677 0.338552
buff_m249_2_v.bmp
  45 7.437167 -7.791679 -2.042953 -0.210140 0.976524 -0.047359 0.477495 0.381605
  45 7.613589 -7.759950 -2.284755 -0.210140 0.976524 -0.047359 0.454012 0.338552
  45 7.212793 -7.849355 -2.303970 -0.210140 0.976524 -0.047359 0.514677 0.338552
buff_m249_2_v.bmp
  45 7.154960 -8.386182 -2.253251 0.346019 -0.188802 0.919035 0.900196 0.919765
  45 7.548057 -8.356549 -2.404235 0.346019 -0.188802 0.919035 0.882583 0.863014
  45 7.450560 -8.084986 -2.310706 0.346019 -0.188802 0.919035 0.839530 0.890411
buff_m249_2_v.bmp
  45 7.450560 -8.084986 -2.310706 0.308426 -0.204995 0.928897 0.839530 0.890411
  45 7.548057 -8.356549 -2.404235 0.560804 -0.182482 0.807589 0.882583 0.863014
  45 7.613589 -7.759950 -2.284755 0.692609 -0.168190 0.701431 0.780822 0.880626
buff_m249_2_v.bmp
  45 8.116374 -7.662722 -3.482067 0.805724 0.193989 0.559623 0.755382 0.655577
  45 8.222139 -7.673805 -3.606930 0.805724 0.193989 0.559623 0.755382 0.628180
  45 8.126604 -7.241758 -3.624491 0.805724 0.193989 0.559623 0.684932 0.634051
buff_m249_2_v.bmp
  45 7.810239 -7.619694 -2.506244 -0.846231 0.015854 -0.532580 0.589041 0.176125
  45 7.877119 -7.204478 -2.585758 -0.846231 0.015854 -0.532580 0.514677 0.189824
  45 7.961665 -7.635656 -2.748969 -0.846231 0.015854 -0.532580 0.569472 0.131115
buff_m249_2_v.bmp
  45 8.037093 -7.653682 -2.885298 -0.973268 0.032473 -0.227366 0.559687 0.105675
  45 8.087557 -7.236877 -3.035720 -0.973268 0.032473 -0.227366 0.483366 0.091977
  45 8.101078 -7.660695 -3.172451 -0.973268 0.032473 -0.227366 0.551859 0.056751
buff_m249_2_v.bmp
  45 8.116374 -7.662722 -3.482067 -0.998779 -0.010142 -0.048339 0.551859 0.025440
  45 8.126604 -7.241758 -3.624491 -0.998779 -0.010142 -0.048339 0.479452 0.011742
  45 8.122788 -7.663572 -3.611905 -0.998779 -0.010142 -0.048339 0.551859 0.011742
buff_m249_2_v.bmp
  45 7.212793 -7.849355 -2.303970 -0.071922 0.750477 0.656971 0.514677 0.338552
  45 7.810239 -7.619694 -2.506244 -0.071922 0.750477 0.656971 0.428571 0.293542
  45 7.244648 -7.651914 -2.533975 -0.071922 0.750477 0.656971 0.514677 0.291585
buff_m249_2_v.bmp
  45 7.810239 -7.619694 -2.506244 -0.212346 0.895066 0.392130 0.428571 0.293542
  45 7.212793 -7.849355 -2.303970 -0.212346 0.895066 0.392130 0.514677 0.338552
  45 7.613589 -7.759950 -2.284755 -0.212346 0.895066 0.392130 0.454012 0.338552
buff_m249_2_v.bmp
  45 7.810239 -7.619694 -2.506244 -0.048672 0.993291 -0.104902 0.428571 0.293542
  45 7.961665 -7.635656 -2.748969 -0.048672 0.993291 -0.104902 0.409002 0.248532
  45 7.244648 -7.651914 -2.533975 -0.048672 0.993291 -0.104902 0.514677 0.291585
buff_m249_2_v.bmp
  45 7.244648 -7.651914 -2.533975 0.259751 0.961524 -0.089452 0.514677 0.291585
  45 6.570758 -7.492390 -2.818622 0.259751 0.961524 -0.089452 0.620352 0.248532
  45 6.697513 -7.505082 -2.561966 0.259751 0.961524 -0.089452 0.600783 0.293542
buff_m249_2_v.bmp
  45 7.244648 -7.651914 -2.533975 -0.003716 0.999880 -0.015050 0.514677 0.291585
  45 7.961665 -7.635656 -2.748969 -0.003716 0.999880 -0.015050 0.409002 0.248532
  45 7.272241 -7.665654 -3.113241 -0.003716 0.999880 -0.015050 0.514677 0.191781
end
