version 1
nodes
  0 "Bone01" -1
  1 "Bone_Lefthand" 0
  2 "Bone02" 1
  3 "Bone03" 2
  4 "Bone25" 3
  5 "Bone48" 3
  6 "Bone50" 3
  7 "Bone_MagazineButton" 3
  8 "Bone04" -1
  9 "Bone_Righthand" 8
  10 "Bone27" 9
  11 "Bone28" 10
  12 "Bone29" 11
  13 "Bone31" 9
  14 "Bone32" 13
  15 "Bone33" 14
  16 "Bone35" 9
  17 "Bone36" 16
  18 "Bone37" 17
  19 "Bone39" 9
  20 "Bone40" 19
  21 "Bone41" 20
  22 "Bone43" 9
  23 "Bone44" 22
  24 "Bone45" 23
  25 "Bone_Se_Hand-R" 9
  26 "Bone05" 1
  27 "Bone06" 26
  28 "Bone07" 27
  29 "Bone21" 1
  30 "Bone22" 29
  31 "Bone23" 30
  32 "Bone17" 1
  33 "Bone18" 32
  34 "Bone19" 33
  35 "Bone13" 1
  36 "Bone14" 35
  37 "Bone15" 36
  38 "Bone09" 1
  39 "Bone10" 38
  40 "Bone11" 39
  41 "Bone_Se_Hand-L" 1
end
skeleton
  time 0
    0 9.536741 -1.938081 -5.302227 0.141521 -1.130664 -0.906640
    1 -0.071918 -8.498731 -0.104136 -0.100126 0.411602 -0.750537
    2 -0.184853 -4.148879 0.716350 1.057733 1.480152 1.220148
    3 0.000000 2.034682 1.408873 0.000000 0.000000 0.000000
    4 0.000000 -2.857524 0.622003 0.114405 0.000000 0.000000
    5 0.000000 -5.238310 0.651979 0.000000 0.000000 0.000000
    6 0.000000 -4.975600 2.058081 0.000000 0.000000 0.000000
    7 -0.862312 -6.414341 -0.674453 0.000000 0.000000 0.000000
    8 -9.238076 -1.633525 -10.176903 -0.031658 0.542768 0.403823
    9 0.096946 -8.450419 -0.009363 0.647742 -0.779046 -0.179509
    10 -0.586769 -1.264477 0.200164 -0.073558 -0.305017 -2.594000
    11 1.522835 0.058680 0.016850 0.000037 0.000014 0.138103
    12 1.117947 0.048424 -0.005765 0.000036 0.000000 0.308055
    13 -0.963867 -2.785143 -0.085346 0.108034 0.000001 -0.000001
    14 0.028478 -1.403067 0.006272 -1.446151 -0.000007 -0.000010
    15 0.021412 -0.957782 0.020047 -0.635167 -0.000003 -0.000008
    16 -0.249534 -2.846963 -0.174215 -0.264426 0.016091 0.048523
    17 0.043235 -1.683940 0.096015 -1.322589 -0.002684 -0.000611
    18 0.031729 -1.160830 0.058836 -0.786098 0.000000 0.000000
    19 0.447951 -2.798983 -0.200441 -0.584203 0.073345 0.082665
    20 -0.032909 -1.480207 0.004935 -1.055614 0.000000 0.000000
    21 -0.027023 -1.076921 -0.020212 -0.750426 0.000000 0.000000
    22 1.164474 -2.543939 -0.170327 -0.483579 0.035007 0.072044
    23 0.024033 -1.129040 0.017807 -1.229949 -0.020326 0.095001
    24 0.014896 -0.883992 -0.019846 -0.775384 0.101857 0.002205
    25 -0.111496 -0.128692 -0.041031 0.323074 0.160376 1.330907
    26 0.583509 -1.197274 0.185379 0.062828 -0.796157 -0.812748
    27 1.535926 0.010247 0.005009 -0.062626 0.078894 -0.842377
    28 1.100770 0.004528 -0.010675 0.000000 0.000000 -0.891053
    29 0.957766 -2.746777 -0.090301 -0.017405 -0.044759 0.223929
    30 -0.033419 -1.397128 -0.011255 -0.349220 0.000000 0.000000
    31 -0.022361 -0.957433 0.018783 -0.811576 0.000000 0.000000
    32 0.250029 -2.820664 -0.238396 -0.763388 0.057277 -0.106688
    33 -0.049759 -1.680544 0.100479 -1.613606 0.000000 0.000000
    34 -0.034141 -1.148311 0.084779 -1.193267 0.000000 0.000000
    35 -0.488517 -2.755600 -0.228261 -0.639567 0.054586 -0.144146
    36 0.039889 -1.479791 0.029854 -1.617533 0.000000 0.000000
    37 0.028785 -1.075733 -0.023110 -0.841832 0.000000 0.000000
    38 -1.180679 -2.507216 -0.193861 -0.260565 0.123427 -0.000527
    39 -0.024967 -1.123934 0.017595 -1.253816 0.000000 0.000000
    40 -0.020058 -0.890965 0.010091 -0.839140 0.000000 0.000000
    41 0.120180 -0.051600 -0.063059 0.012085 -2.987703 1.512552
  time 1
    0 9.513302 -2.473254 -5.677239 -0.062669 -1.131164 -0.661423
    1 -0.071918 -8.498731 -0.104136 -0.120578 0.427985 -0.798396
    2 -0.184853 -4.148879 0.716350 1.057708 1.480152 1.220148
    3 0.000000 2.034682 1.408873 0.000000 0.000000 0.000000
    4 0.000000 -2.857524 0.622003 0.114405 0.000000 0.000000
    5 0.000000 -5.238310 0.651979 0.000000 0.000000 0.000000
    6 0.000000 -4.975600 2.058081 0.000000 0.000000 0.000000
    7 -0.862312 -6.414341 -0.674453 0.000000 0.000000 0.000000
    8 -8.538836 -2.340578 -9.782360 -0.089138 0.509606 0.305619
    9 0.096946 -8.450419 -0.009363 0.563337 -0.733041 -0.053350
    10 -0.586769 -1.264477 0.200164 -0.076123 -0.304724 -2.585624
    11 1.522835 0.058680 0.016850 0.000037 0.000014 0.142263
    12 1.117947 0.048424 -0.005765 0.000036 0.000000 0.299456
    13 -0.963867 -2.785143 -0.085346 0.108034 0.000001 -0.000001
    14 0.028478 -1.403067 0.006272 -1.446151 -0.000007 -0.000010
    15 0.021412 -0.957782 0.020047 -0.635167 -0.000003 -0.000008
    16 -0.249534 -2.846963 -0.174215 -0.264426 0.016091 0.048523
    17 0.043235 -1.683940 0.096015 -1.322589 -0.002684 -0.000611
    18 0.031729 -1.160830 0.058836 -0.786098 0.000000 0.000000
    19 0.447951 -2.798983 -0.200441 -0.584203 0.073345 0.082665
    20 -0.032909 -1.480207 0.004935 -1.055614 0.000000 0.000000
    21 -0.027023 -1.076921 -0.020212 -0.750426 0.000000 0.000000
    22 1.164474 -2.543939 -0.170327 -0.483579 0.035007 0.072044
    23 0.024033 -1.129040 0.017807 -1.229949 -0.020326 0.095001
    24 0.014896 -0.883992 -0.019846 -0.775384 0.101857 0.002205
    25 -0.111496 -0.128692 -0.041031 0.323278 0.159933 1.332237
    26 0.583509 -1.197274 0.185379 0.062828 -0.796157 -0.812748
    27 1.535926 0.010247 0.005009 -0.062626 0.078894 -0.842377
    28 1.100770 0.004528 -0.010675 0.000000 0.000000 -0.891053
    29 0.957766 -2.746777 -0.090301 -0.017405 -0.044759 0.223929
    30 -0.033419 -1.397128 -0.011255 -0.349220 0.000000 0.000000
    31 -0.022361 -0.957433 0.018783 -0.811576 0.000000 0.000000
    32 0.250029 -2.820664 -0.238396 -0.763388 0.057277 -0.106688
    33 -0.049759 -1.680544 0.100479 -1.613606 0.000000 0.000000
    34 -0.034141 -1.148311 0.084779 -1.193267 0.000000 0.000000
    35 -0.488517 -2.755600 -0.228261 -0.639567 0.054586 -0.144146
    36 0.039889 -1.479791 0.029854 -1.617533 0.000000 0.000000
    37 0.028785 -1.075733 -0.023110 -0.841832 0.000000 0.000000
    38 -1.180679 -2.507216 -0.193861 -0.260565 0.123427 -0.000527
    39 -0.024967 -1.123934 0.017595 -1.253816 0.000000 0.000000
    40 -0.020058 -0.890965 0.010091 -0.839140 0.000000 0.000000
    41 0.120180 -0.051600 -0.063059 0.012085 -2.987703 1.512552
  time 2
    0 9.462520 -2.961550 -6.024906 -0.220074 -1.128063 -0.462226
    1 -0.071918 -8.498731 -0.104136 -0.139174 0.441775 -0.838030
    2 -0.184853 -4.148879 0.716350 1.057708 1.480152 1.220148
    3 0.000000 2.034682 1.408873 0.000000 0.000000 0.000000
    4 0.000000 -2.857524 0.622003 0.114405 0.000000 0.000000
    5 0.000000 -5.238310 0.651979 0.000000 0.000000 0.000000
    6 0.000000 -4.975600 2.058081 0.000000 0.000000 0.000000
    7 -0.862312 -6.414341 -0.674453 0.000000 0.000000 0.000000
    8 -7.695060 -3.211698 -9.313595 -0.102411 0.489841 0.241778
    9 0.096946 -8.450419 -0.009363 0.477258 -0.677149 0.075427
    10 -0.586769 -1.264477 0.200164 -0.078824 -0.304399 -2.576761
    11 1.522835 0.058680 0.016850 0.000037 0.000014 0.146711
    12 1.117947 0.048424 -0.005765 0.000036 0.000000 0.290246
    13 -0.963867 -2.785143 -0.085346 0.108034 0.000001 -0.000001
    14 0.028478 -1.403067 0.006272 -1.446151 -0.000007 -0.000010
    15 0.021412 -0.957782 0.020047 -0.635167 -0.000003 -0.000008
    16 -0.249534 -2.846963 -0.174215 -0.264426 0.016091 0.048523
    17 0.043235 -1.683940 0.096015 -1.322589 -0.002684 -0.000611
    18 0.031729 -1.160830 0.058836 -0.786098 0.000000 0.000000
    19 0.447951 -2.798983 -0.200441 -0.584203 0.073345 0.082665
    20 -0.032909 -1.480207 0.004935 -1.055614 0.000000 0.000000
    21 -0.027023 -1.076921 -0.020212 -0.750426 0.000000 0.000000
    22 1.164474 -2.543939 -0.170327 -0.483579 0.035007 0.072044
    23 0.024033 -1.129040 0.017807 -1.229949 -0.020326 0.095001
    24 0.014896 -0.883992 -0.019846 -0.775384 0.101857 0.002205
    25 -0.111496 -0.128692 -0.041031 0.323565 0.159321 1.334047
    26 0.583509 -1.197274 0.185379 0.062828 -0.796157 -0.812748
    27 1.535926 0.010247 0.005009 -0.062626 0.078894 -0.842377
    28 1.100770 0.004528 -0.010675 0.000000 0.000000 -0.891053
    29 0.957766 -2.746777 -0.090301 -0.017405 -0.044759 0.223929
    30 -0.033419 -1.397128 -0.011255 -0.349220 0.000000 0.000000
    31 -0.022361 -0.957433 0.018783 -0.811576 0.000000 0.000000
    32 0.250029 -2.820664 -0.238396 -0.763388 0.057277 -0.106688
    33 -0.049759 -1.680544 0.100479 -1.613606 0.000000 0.000000
    34 -0.034141 -1.148311 0.084779 -1.193267 0.000000 0.000000
    35 -0.488517 -2.755600 -0.228261 -0.639567 0.054586 -0.144146
    36 0.039889 -1.479791 0.029854 -1.617533 0.000000 0.000000
    37 0.028785 -1.075733 -0.023110 -0.841832 0.000000 0.000000
    38 -1.180679 -2.507216 -0.193861 -0.260565 0.123427 -0.000527
    39 -0.024967 -1.123934 0.017595 -1.253816 0.000000 0.000000
    40 -0.020058 -0.890965 0.010091 -0.839140 0.000000 0.000000
    41 0.120180 -0.051600 -0.063059 0.012085 -2.987703 1.512552
  time 3
    0 9.380486 -3.250621 -6.247569 -0.312186 -1.142917 -0.328567
    1 -0.071918 -8.498731 -0.104136 -0.153454 0.451540 -0.864149
    2 -0.184853 -4.148879 0.716350 1.057733 1.480152 1.220148
    3 0.000000 2.034682 1.408873 0.000000 0.000000 0.000000
    4 0.000000 -2.857524 0.622003 0.114405 0.000000 0.000000
    5 0.000000 -5.238310 0.651979 0.000000 0.000000 0.000000
    6 0.000000 -4.975600 2.058081 0.000000 0.000000 0.000000
    7 -0.862312 -6.414341 -0.674453 0.000000 0.000000 0.000000
    8 -6.796595 -4.176571 -8.821393 -0.065496 0.490411 0.210591
    9 0.096946 -8.450419 -0.009363 0.397294 -0.614065 0.197037
    10 -0.586769 -1.264477 0.200164 -0.081467 -0.304044 -2.568123
    11 1.522835 0.058680 0.016850 0.000037 0.000014 0.151380
    12 1.117947 0.048424 -0.005765 0.000036 0.000000 0.280545
    13 -0.963867 -2.785143 -0.085346 0.108034 0.000001 -0.000001
    14 0.028478 -1.403067 0.006272 -1.446151 -0.000007 -0.000010
    15 0.021412 -0.957782 0.020047 -0.635167 -0.000003 -0.000008
    16 -0.249534 -2.846963 -0.174215 -0.264426 0.016091 0.048523
    17 0.043235 -1.683940 0.096015 -1.322589 -0.002684 -0.000611
    18 0.031729 -1.160830 0.058836 -0.786098 0.000000 0.000000
    19 0.447951 -2.798983 -0.200441 -0.584203 0.073345 0.082665
    20 -0.032909 -1.480207 0.004935 -1.055614 0.000000 0.000000
    21 -0.027023 -1.076921 -0.020212 -0.750426 0.000000 0.000000
    22 1.164474 -2.543939 -0.170327 -0.483579 0.035007 0.072044
    23 0.024033 -1.129040 0.017807 -1.229949 -0.020326 0.095001
    24 0.014896 -0.883992 -0.019846 -0.775384 0.101857 0.002205
    25 -0.111496 -0.128692 -0.041031 0.323913 0.158566 1.336276
    26 0.583509 -1.197274 0.185379 0.062828 -0.796157 -0.812748
    27 1.535926 0.010247 0.005009 -0.062626 0.078894 -0.842377
    28 1.100770 0.004528 -0.010675 0.000000 0.000000 -0.891053
    29 0.957766 -2.746777 -0.090301 -0.017405 -0.044759 0.223929
    30 -0.033419 -1.397128 -0.011255 -0.349220 0.000000 0.000000
    31 -0.022361 -0.957433 0.018783 -0.811576 0.000000 0.000000
    32 0.250029 -2.820664 -0.238396 -0.763388 0.057277 -0.106688
    33 -0.049759 -1.680544 0.100479 -1.613606 0.000000 0.000000
    34 -0.034141 -1.148311 0.084779 -1.193267 0.000000 0.000000
    35 -0.488517 -2.755600 -0.228261 -0.639567 0.054586 -0.144146
    36 0.039889 -1.479791 0.029854 -1.617533 0.000000 0.000000
    37 0.028785 -1.075733 -0.023110 -0.841832 0.000000 0.000000
    38 -1.180679 -2.507216 -0.193861 -0.260565 0.123427 -0.000527
    39 -0.024967 -1.123934 0.017595 -1.253816 0.000000 0.000000
    40 -0.020058 -0.890965 0.010091 -0.839140 0.000000 0.000000
    41 0.120180 -0.051600 -0.063059 0.012085 -2.987703 1.512552
  time 4
    0 9.255482 -3.320936 -6.298352 -0.370119 -1.177675 -0.228204
    1 -0.071918 -8.498731 -0.104136 -0.161455 0.456154 -0.875397
    2 -0.184853 -4.148879 0.716350 1.057733 1.480152 1.220148
    3 0.000000 2.034682 1.408873 0.000000 0.000000 0.000000
    4 0.000000 -2.857524 0.622003 0.114405 0.000000 0.000000
    5 0.000000 -5.238310 0.651979 0.000000 0.000000 0.000000
    6 0.000000 -4.975600 2.058081 0.000000 0.000000 0.000000
    7 -0.862312 -6.414341 -0.674453 0.000000 0.000000 0.000000
    8 -5.921568 -5.172696 -8.356535 -0.001864 0.503714 0.201552
    9 0.096946 -8.450419 -0.009363 0.327806 -0.548775 0.304981
    10 -0.586769 -1.264477 0.200164 -0.083835 -0.303720 -2.560308
    11 1.522835 0.058680 0.016850 0.000037 0.000014 0.156249
    12 1.117947 0.048424 -0.005765 0.000036 0.000000 0.270508
    13 -0.963867 -2.785143 -0.085346 0.108034 0.000001 -0.000001
    14 0.028478 -1.403067 0.006272 -1.446151 -0.000007 -0.000010
    15 0.021412 -0.957782 0.020047 -0.635167 -0.000003 -0.000008
    16 -0.249534 -2.846963 -0.174215 -0.264426 0.016091 0.048523
    17 0.043235 -1.683940 0.096015 -1.322589 -0.002684 -0.000611
    18 0.031729 -1.160830 0.058836 -0.786098 0.000000 0.000000
    19 0.447951 -2.798983 -0.200441 -0.584203 0.073345 0.082665
    20 -0.032909 -1.480207 0.004935 -1.055614 0.000000 0.000000
    21 -0.027023 -1.076921 -0.020212 -0.750426 0.000000 0.000000
    22 1.164474 -2.543939 -0.170327 -0.483579 0.035007 0.072044
    23 0.024033 -1.129040 0.017807 -1.229949 -0.020326 0.095001
    24 0.014896 -0.883992 -0.019846 -0.775384 0.101857 0.002205
    25 -0.111496 -0.128692 -0.041031 0.324320 0.157680 1.338913
    26 0.583509 -1.197274 0.185379 0.062828 -0.796157 -0.812748
    27 1.535926 0.010247 0.005009 -0.062626 0.078894 -0.842377
    28 1.100770 0.004528 -0.010675 0.000000 0.000000 -0.891053
    29 0.957766 -2.746777 -0.090301 -0.017405 -0.044759 0.223929
    30 -0.033419 -1.397128 -0.011255 -0.349220 0.000000 0.000000
    31 -0.022361 -0.957433 0.018783 -0.811576 0.000000 0.000000
    32 0.250029 -2.820664 -0.238396 -0.763388 0.057277 -0.106688
    33 -0.049759 -1.680544 0.100479 -1.613606 0.000000 0.000000
    34 -0.034141 -1.148311 0.084779 -1.193267 0.000000 0.000000
    35 -0.488517 -2.755600 -0.228261 -0.639567 0.054586 -0.144146
    36 0.039889 -1.479791 0.029854 -1.617533 0.000000 0.000000
    37 0.028785 -1.075733 -0.023110 -0.841832 0.000000 0.000000
    38 -1.180679 -2.507216 -0.193861 -0.260565 0.123427 -0.000527
    39 -0.024967 -1.123934 0.017595 -1.253816 0.000000 0.000000
    40 -0.020058 -0.890965 0.010091 -0.839140 0.000000 0.000000
    41 0.120180 -0.051600 -0.063059 0.012085 -2.987703 1.512552
  time 5
    0 9.103134 -3.266247 -6.228037 -0.436579 -1.218634 -0.116550
    1 -0.071918 -8.498731 -0.104136 -0.164267 0.457102 -0.874908
    2 -0.184853 -4.148879 0.716350 1.057733 1.480152 1.220148
    3 0.000000 2.034682 1.408873 0.000000 0.000000 0.000000
    4 0.000000 -2.857524 0.622003 0.114405 0.000000 0.000000
    5 0.000000 -5.238310 0.651979 0.000000 0.000000 0.000000
    6 0.000000 -4.975600 2.058081 0.000000 0.000000 0.000000
    7 -0.862312 -6.414341 -0.674453 0.000000 0.000000 0.000000
    8 -5.155920 -6.129756 -7.961992 0.050431 0.516637 0.203344
    9 0.096946 -8.450419 -0.009363 0.270168 -0.487489 0.395341
    10 -0.586769 -1.264477 0.200164 -0.085773 -0.303426 -2.553914
    11 1.522835 0.058680 0.016850 0.000037 0.000014 0.161205
    12 1.117947 0.048424 -0.005765 0.000036 0.000000 0.260226
    13 -0.963867 -2.785143 -0.085346 0.108034 0.000001 -0.000001
    14 0.028478 -1.403067 0.006272 -1.446151 -0.000007 -0.000010
    15 0.021412 -0.957782 0.020047 -0.635167 -0.000003 -0.000008
    16 -0.249534 -2.846963 -0.174215 -0.264426 0.016091 0.048523
    17 0.043235 -1.683940 0.096015 -1.322589 -0.002684 -0.000611
    18 0.031729 -1.160830 0.058836 -0.786098 0.000000 0.000000
    19 0.447951 -2.798983 -0.200441 -0.584203 0.073345 0.082665
    20 -0.032909 -1.480207 0.004935 -1.055614 0.000000 0.000000
    21 -0.027023 -1.076921 -0.020212 -0.750426 0.000000 0.000000
    22 1.164474 -2.543939 -0.170327 -0.483579 0.035007 0.072044
    23 0.024033 -1.129040 0.017807 -1.229949 -0.020326 0.095001
    24 0.014896 -0.883992 -0.019846 -0.775384 0.101857 0.002205
    25 -0.111496 -0.128692 -0.041031 0.324788 0.156673 1.341909
    26 0.583509 -1.197274 0.185379 0.062828 -0.796157 -0.812748
    27 1.535926 0.010247 0.005009 -0.062626 0.078894 -0.842377
    28 1.100770 0.004528 -0.010675 0.000000 0.000000 -0.891053
    29 0.957766 -2.746777 -0.090301 -0.017405 -0.044759 0.223929
    30 -0.033419 -1.397128 -0.011255 -0.349220 0.000000 0.000000
    31 -0.022361 -0.957433 0.018783 -0.811576 0.000000 0.000000
    32 0.250029 -2.820664 -0.238396 -0.763388 0.057277 -0.106688
    33 -0.049759 -1.680544 0.100479 -1.613606 0.000000 0.000000
    34 -0.034141 -1.148311 0.084779 -1.193267 0.000000 0.000000
    35 -0.488517 -2.755600 -0.228261 -0.639567 0.054586 -0.144146
    36 0.039889 -1.479791 0.029854 -1.617533 0.000000 0.000000
    37 0.028785 -1.075733 -0.023110 -0.841832 0.000000 0.000000
    38 -1.180679 -2.507216 -0.193861 -0.260565 0.123427 -0.000527
    39 -0.024967 -1.123934 0.017595 -1.253816 0.000000 0.000000
    40 -0.020058 -0.890965 0.010091 -0.839140 0.000000 0.000000
    41 0.120180 -0.051600 -0.063059 0.012085 -2.987703 1.512552
  time 6
    0 8.919534 -3.109992 -6.103033 -0.521331 -1.263845 0.015100
    1 -0.071918 -8.498731 -0.104136 -0.164213 0.456673 -0.864216
    2 -0.184853 -4.148879 0.716350 1.057733 1.480152 1.220148
    3 0.000000 2.034682 1.408873 0.000000 0.000000 0.000000
    4 0.000000 -2.857524 0.622003 0.114405 0.000000 0.000000
    5 0.000000 -5.238310 0.651979 0.000000 0.000000 0.000000
    6 0.000000 -4.975600 2.058081 0.000000 0.000000 0.000000
    7 -0.862312 -6.414341 -0.674453 0.000000 0.000000 0.000000
    8 -4.573871 -6.977438 -7.688546 0.083017 0.527375 0.220851
    9 0.096946 -8.450419 -0.009363 0.224161 -0.437153 0.465558
    10 -0.586769 -1.264477 0.200164 -0.087085 -0.303226 -2.549651
    11 1.522835 0.058680 0.016850 0.000037 0.000014 0.166207
    12 1.117947 0.048424 -0.005765 0.000036 0.000000 0.249853
    13 -0.963867 -2.785143 -0.085346 0.108034 0.000001 -0.000001
    14 0.028478 -1.403067 0.006272 -1.446151 -0.000007 -0.000010
    15 0.021412 -0.957782 0.020047 -0.635167 -0.000003 -0.000008
    16 -0.249534 -2.846963 -0.174215 -0.264426 0.016091 0.048523
    17 0.043235 -1.683940 0.096015 -1.322589 -0.002684 -0.000611
    18 0.031729 -1.160830 0.058836 -0.786098 0.000000 0.000000
    19 0.447951 -2.798983 -0.200441 -0.584203 0.073345 0.082665
    20 -0.032909 -1.480207 0.004935 -1.055614 0.000000 0.000000
    21 -0.027023 -1.076921 -0.020212 -0.750426 0.000000 0.000000
    22 1.164474 -2.543939 -0.170327 -0.483579 0.035007 0.072044
    23 0.024033 -1.129040 0.017807 -1.229949 -0.020326 0.095001
    24 0.014896 -0.883992 -0.019846 -0.775384 0.101857 0.002205
    25 -0.111496 -0.128692 -0.037125 0.325303 0.155546 1.345229
    26 0.583509 -1.197274 0.185379 0.062828 -0.796157 -0.812748
    27 1.535926 0.010247 0.005009 -0.062626 0.078894 -0.842377
    28 1.100770 0.004528 -0.010675 0.000000 0.000000 -0.891053
    29 0.957766 -2.746777 -0.090301 -0.017405 -0.044759 0.223929
    30 -0.033419 -1.397128 -0.011255 -0.349220 0.000000 0.000000
    31 -0.022361 -0.957433 0.018783 -0.811576 0.000000 0.000000
    32 0.250029 -2.820664 -0.238396 -0.763388 0.057277 -0.106688
    33 -0.049759 -1.680544 0.100479 -1.613606 0.000000 0.000000
    34 -0.034141 -1.148311 0.084779 -1.193267 0.000000 0.000000
    35 -0.488517 -2.755600 -0.228261 -0.639567 0.054586 -0.144146
    36 0.039889 -1.479791 0.029854 -1.617533 0.000000 0.000000
    37 0.028785 -1.075733 -0.023110 -0.841832 0.000000 0.000000
    38 -1.180679 -2.507216 -0.193861 -0.260565 0.123427 -0.000527
    39 -0.024967 -1.123934 0.017595 -1.253816 0.000000 0.000000
    40 -0.020058 -0.890965 0.010091 -0.839140 0.000000 0.000000
    41 0.120180 -0.051600 -0.063059 0.012085 -2.987703 1.512552
  time 7
    0 8.716403 -2.887329 -5.974123 -0.638947 -1.310706 0.180619
    1 -0.071918 -8.498731 -0.104136 -0.163612 0.457138 -0.844899
    2 -0.184853 -4.148879 0.716350 1.057733 1.480152 1.220148
    3 0.000000 2.034682 1.408873 0.000000 0.000000 0.000000
    4 0.000000 -2.857524 0.622003 0.114405 0.000000 0.000000
    5 0.000000 -5.238310 0.651979 0.000000 0.000000 0.000000
    6 0.000000 -4.975600 2.058081 0.000000 0.000000 0.000000
    7 -0.862312 -6.414341 -0.674453 0.000000 0.000000 0.000000
    8 -4.261361 -7.649334 -7.586980 0.086947 0.534596 0.257087
    9 0.096946 -8.450419 -0.009363 0.188969 -0.404794 0.513357
    10 -0.586769 -1.264477 0.200164 -0.087555 -0.303148 -2.548080
    11 1.522835 0.058680 0.016850 0.000037 0.000014 0.171186
    12 1.117947 0.048424 -0.005765 0.000036 0.000000 0.239540
    13 -0.963867 -2.785143 -0.085346 0.108034 0.000001 -0.000001
    14 0.028478 -1.403067 0.006272 -1.446151 -0.000007 -0.000010
    15 0.021412 -0.957782 0.020047 -0.635167 -0.000003 -0.000008
    16 -0.249534 -2.846963 -0.174215 -0.264426 0.016091 0.048523
    17 0.043235 -1.683940 0.096015 -1.322589 -0.002684 -0.000611
    18 0.031729 -1.160830 0.058836 -0.786098 0.000000 0.000000
    19 0.447951 -2.798983 -0.200441 -0.584203 0.073345 0.082665
    20 -0.032909 -1.480207 0.004935 -1.055614 0.000000 0.000000
    21 -0.027023 -1.076921 -0.020212 -0.750426 0.000000 0.000000
    22 1.164474 -2.543939 -0.170327 -0.483579 0.035007 0.072044
    23 0.024033 -1.129040 0.017807 -1.229949 -0.020326 0.095001
    24 0.014896 -0.883992 -0.019846 -0.775384 0.101857 0.002205
    25 -0.111496 -0.128692 -0.037125 0.325854 0.154324 1.348836
    26 0.583509 -1.197274 0.185379 0.062828 -0.796157 -0.812748
    27 1.535926 0.010247 0.005009 -0.062626 0.078894 -0.842377
    28 1.100770 0.004528 -0.010675 0.000000 0.000000 -0.891053
    29 0.957766 -2.746777 -0.090301 -0.017405 -0.044759 0.223929
    30 -0.033419 -1.397128 -0.011255 -0.349220 0.000000 0.000000
    31 -0.022361 -0.957433 0.018783 -0.811576 0.000000 0.000000
    32 0.250029 -2.820664 -0.238396 -0.763388 0.057277 -0.106688
    33 -0.049759 -1.680544 0.100479 -1.613606 0.000000 0.000000
    34 -0.034141 -1.148311 0.084779 -1.193267 0.000000 0.000000
    35 -0.488517 -2.755600 -0.228261 -0.639567 0.054586 -0.144146
    36 0.039889 -1.479791 0.029854 -1.617533 0.000000 0.000000
    37 0.028785 -1.075733 -0.023110 -0.841832 0.000000 0.000000
    38 -1.180679 -2.507216 -0.193861 -0.260565 0.123427 -0.000527
    39 -0.024967 -1.123934 0.017595 -1.253816 0.000000 0.000000
    40 -0.020058 -0.890965 0.010091 -0.839140 0.000000 0.000000
    41 0.120180 -0.051600 -0.063059 0.012085 -2.987703 1.512552
  time 8
    0 8.497646 -2.621696 -5.895995 -0.812822 -1.355067 0.402491
    1 -0.071918 -8.498731 -0.104136 -0.164732 0.460822 -0.818446
    2 -0.184853 -4.148879 0.716350 1.057733 1.480152 1.220148
    3 0.000000 2.034682 1.408873 0.000000 0.000000 0.000000
    4 0.000000 -2.857524 0.622003 0.114405 0.000000 0.000000
    5 0.000000 -5.238310 0.651979 0.000000 0.000000 0.000000
    6 0.000000 -4.975600 2.058081 0.000000 0.000000 0.000000
    7 -0.862312 -6.414341 -0.674453 0.000000 0.000000 0.000000
    8 -4.128545 -8.204038 -7.696359 0.058521 0.536212 0.297802
    9 0.096946 -8.450419 -0.009363 0.156008 -0.397903 0.541115
    10 -0.586769 -1.264477 0.200164 -0.086811 -0.303164 -2.550586
    11 1.522835 0.058680 0.016850 0.000037 0.000014 0.176076
    12 1.117947 0.048424 -0.005765 0.000036 0.000000 0.229442
    13 -0.963867 -2.785143 -0.085346 0.108034 0.000001 -0.000001
    14 0.028478 -1.403067 0.006272 -1.446151 -0.000007 -0.000010
    15 0.021412 -0.957782 0.020047 -0.635167 -0.000003 -0.000008
    16 -0.249534 -2.846963 -0.174215 -0.264426 0.016091 0.048523
    17 0.043235 -1.683940 0.096015 -1.322589 -0.002684 -0.000611
    18 0.031729 -1.160830 0.058836 -0.786098 0.000000 0.000000
    19 0.447951 -2.798983 -0.200441 -0.584203 0.073345 0.082665
    20 -0.032909 -1.480207 0.004935 -1.055614 0.000000 0.000000
    21 -0.027023 -1.076921 -0.020212 -0.750426 0.000000 0.000000
    22 1.164474 -2.543939 -0.170327 -0.483579 0.035007 0.072044
    23 0.024033 -1.129040 0.017807 -1.229949 -0.020326 0.095001
    24 0.014896 -0.883992 -0.019846 -0.775384 0.101857 0.002205
    25 -0.111496 -0.128692 -0.037125 0.326442 0.153018 1.352683
    26 0.583509 -1.197274 0.185379 0.062828 -0.796157 -0.812748
    27 1.535926 0.010247 0.005009 -0.062626 0.078894 -0.842377
    28 1.100770 0.004528 -0.010675 0.000000 0.000000 -0.891053
    29 0.957766 -2.746777 -0.090301 -0.017405 -0.044759 0.223929
    30 -0.033419 -1.397128 -0.011255 -0.349220 0.000000 0.000000
    31 -0.022361 -0.957433 0.018783 -0.811576 0.000000 0.000000
    32 0.250029 -2.820664 -0.238396 -0.763388 0.057277 -0.106688
    33 -0.049759 -1.680544 0.100479 -1.613606 0.000000 0.000000
    34 -0.034141 -1.148311 0.084779 -1.193267 0.000000 0.000000
    35 -0.488517 -2.755600 -0.228261 -0.639567 0.054586 -0.144146
    36 0.039889 -1.479791 0.029854 -1.617533 0.000000 0.000000
    37 0.028785 -1.075733 -0.023110 -0.841832 0.000000 0.000000
    38 -1.180679 -2.507216 -0.193861 -0.260565 0.123427 -0.000527
    39 -0.024967 -1.123934 0.017595 -1.253816 0.000000 0.000000
    40 -0.020058 -0.890965 0.010091 -0.839140 0.000000 0.000000
    41 0.120180 -0.051600 -0.063059 0.012085 -2.987703 1.512552
  time 9
    0 8.267171 -2.340437 -5.927246 -1.072905 -1.390675 0.710088
    1 -0.071918 -8.498731 -0.104136 -0.168664 0.468102 -0.786525
    2 -0.184853 -4.148879 0.716350 1.057733 1.480152 1.220148
    3 0.000000 2.034682 1.408873 0.000000 0.000000 0.000000
    4 0.000000 -2.857524 0.622003 0.114405 0.000000 0.000000
    5 0.000000 -5.238310 0.651979 0.000000 0.000000 0.000000
    6 0.000000 -4.975600 2.058081 0.000000 0.000000 0.000000
    7 -0.862312 -6.414341 -0.674453 0.000000 0.000000 0.000000
    8 -4.026979 -8.731398 -7.985430 0.008846 0.533836 0.331839
    9 0.096946 -8.450419 -0.009363 0.117788 -0.414873 0.555796
    10 -0.586769 -1.264477 0.200164 -0.084814 -0.303210 -2.557279
    11 1.522835 0.058680 0.016850 0.000037 0.000014 0.180812
    12 1.117947 0.048424 -0.005765 0.000036 0.000000 0.219619
    13 -0.963867 -2.785143 -0.085346 0.108034 0.000001 -0.000001
    14 0.028478 -1.403067 0.006272 -1.446151 -0.000007 -0.000010
    15 0.021412 -0.957782 0.020047 -0.635167 -0.000003 -0.000008
    16 -0.249534 -2.846963 -0.174215 -0.264426 0.016091 0.048523
    17 0.043235 -1.683940 0.096015 -1.322589 -0.002684 -0.000611
    18 0.031729 -1.160830 0.058836 -0.786098 0.000000 0.000000
    19 0.447951 -2.798983 -0.200441 -0.584203 0.073345 0.082665
    20 -0.032909 -1.480207 0.004935 -1.055614 0.000000 0.000000
    21 -0.027023 -1.076921 -0.020212 -0.750426 0.000000 0.000000
    22 1.164474 -2.543939 -0.170327 -0.483579 0.035007 0.072044
    23 0.024033 -1.129040 0.017807 -1.229949 -0.020326 0.095001
    24 0.014896 -0.883992 -0.019846 -0.775384 0.101857 0.002205
    25 -0.111496 -0.128692 -0.033218 0.327053 0.151639 1.356758
    26 0.583509 -1.197274 0.185379 0.062828 -0.796157 -0.812748
    27 1.535926 0.010247 0.005009 -0.062626 0.078894 -0.842377
    28 1.100770 0.004528 -0.010675 0.000000 0.000000 -0.891053
    29 0.957766 -2.746777 -0.090301 -0.017405 -0.044759 0.223929
    30 -0.033419 -1.397128 -0.011255 -0.349220 0.000000 0.000000
    31 -0.022361 -0.957433 0.018783 -0.811576 0.000000 0.000000
    32 0.250029 -2.820664 -0.238396 -0.763388 0.057277 -0.106688
    33 -0.049759 -1.680544 0.100479 -1.613606 0.000000 0.000000
    34 -0.034141 -1.148311 0.084779 -1.193267 0.000000 0.000000
    35 -0.488517 -2.755600 -0.228261 -0.639567 0.054586 -0.144146
    36 0.039889 -1.479791 0.029854 -1.617533 0.000000 0.000000
    37 0.028785 -1.075733 -0.023110 -0.841832 0.000000 0.000000
    38 -1.180679 -2.507216 -0.193861 -0.260565 0.123427 -0.000527
    39 -0.024967 -1.123934 0.017595 -1.253816 0.000000 0.000000
    40 -0.020058 -0.890965 0.010091 -0.839140 0.000000 0.000000
    41 0.120180 -0.051600 -0.063059 0.012085 -2.987703 1.512552
  time 10
    0 8.005444 -2.016209 -6.095220 -1.426484 -1.408679 -5.173202
    1 -0.071918 -8.498731 -0.104136 -0.174480 0.477420 -0.750359
    2 -0.184853 -4.148879 0.716350 1.057733 1.480152 1.220148
    3 0.000000 2.034682 1.408873 0.000000 0.000000 0.000000
    4 0.000000 -2.857524 0.622003 0.114405 0.000000 0.000000
    5 0.000000 -5.238310 0.651979 0.000000 0.000000 0.000000
    6 0.000000 -4.975600 2.058081 0.000000 0.000000 0.000000
    7 -0.862312 -6.414341 -0.674453 0.000000 0.000000 0.000000
    8 -3.948852 -9.215788 -8.395599 -0.048805 0.530795 0.362701
    9 0.096946 -8.450419 -0.009363 0.076482 -0.449056 0.561319
    10 -0.586769 -1.264477 0.200164 -0.081976 -0.303334 -2.566815
    11 1.522835 0.058680 0.016850 0.000037 0.000014 0.185326
    12 1.117947 0.048424 -0.005765 0.000036 0.000000 0.210286
    13 -0.963867 -2.785143 -0.085346 0.108034 0.000001 -0.000001
    14 0.028478 -1.403067 0.006272 -1.446151 -0.000007 -0.000010
    15 0.021412 -0.957782 0.020047 -0.635167 -0.000003 -0.000008
    16 -0.249534 -2.846963 -0.174215 -0.264426 0.016091 0.048523
    17 0.043235 -1.683940 0.096015 -1.322589 -0.002684 -0.000611
    18 0.031729 -1.160830 0.058836 -0.786098 0.000000 0.000000
    19 0.447951 -2.798983 -0.200441 -0.584203 0.073345 0.082665
    20 -0.032909 -1.480207 0.004935 -1.055614 0.000000 0.000000
    21 -0.027023 -1.076921 -0.020212 -0.750426 0.000000 0.000000
    22 1.164474 -2.543939 -0.170327 -0.483579 0.035007 0.072044
    23 0.024033 -1.129040 0.017807 -1.229949 -0.020326 0.095001
    24 0.014896 -0.883992 -0.019846 -0.775384 0.101857 0.002205
    25 -0.111496 -0.128692 -0.033218 0.327688 0.150201 1.361012
    26 0.583509 -1.197274 0.185379 0.062828 -0.796157 -0.812748
    27 1.535926 0.010247 0.005009 -0.062626 0.078894 -0.842377
    28 1.100770 0.004528 -0.010675 0.000000 0.000000 -0.891053
    29 0.957766 -2.746777 -0.090301 -0.017405 -0.044759 0.223929
    30 -0.033419 -1.397128 -0.011255 -0.349220 0.000000 0.000000
    31 -0.022361 -0.957433 0.018783 -0.811576 0.000000 0.000000
    32 0.250029 -2.820664 -0.238396 -0.763388 0.057277 -0.106688
    33 -0.049759 -1.680544 0.100479 -1.613606 0.000000 0.000000
    34 -0.034141 -1.148311 0.084779 -1.193267 0.000000 0.000000
    35 -0.488517 -2.755600 -0.228261 -0.639567 0.054586 -0.144146
    36 0.039889 -1.479791 0.029854 -1.617533 0.000000 0.000000
    37 0.028785 -1.075733 -0.023110 -0.841832 0.000000 0.000000
    38 -1.180679 -2.507216 -0.193861 -0.260565 0.123427 -0.000527
    39 -0.024967 -1.123934 0.017595 -1.253816 0.000000 0.000000
    40 -0.020058 -0.890965 0.010091 -0.839140 0.000000 0.000000
    41 0.120180 -0.051600 -0.063059 0.012085 -2.987703 1.512552
  time 11
    0 7.700747 -1.613853 -6.376479 -1.801050 -1.402728 -4.754142
    1 -0.071918 -8.498731 -0.104136 -0.181306 0.488384 -0.710858
    2 -0.184853 -4.148879 0.716350 1.057733 1.480152 1.220148
    3 0.000000 2.034682 1.408873 0.000000 0.000000 0.000000
    4 0.000000 -2.857524 0.622003 0.114405 0.000000 0.000000
    5 0.000000 -5.238310 0.651979 0.000000 0.000000 0.000000
    6 0.000000 -4.975600 2.058081 0.000000 0.000000 0.000000
    7 -0.862312 -6.414341 -0.674453 0.000000 0.000000 0.000000
    8 -3.894163 -9.645488 -8.868269 -0.110785 0.527850 0.390387
    9 0.096946 -8.450419 -0.009363 0.034876 -0.493754 0.560892
    10 -0.586769 -1.264477 0.200164 -0.078648 -0.303550 -2.577846
    11 1.522835 0.058680 0.016850 0.000037 0.000014 0.189530
    12 1.117947 0.048424 -0.005765 0.000036 0.000000 0.201534
    13 -0.963867 -2.785143 -0.085346 0.108034 0.000001 -0.000001
    14 0.028478 -1.403067 0.006272 -1.446151 -0.000007 -0.000010
    15 0.021412 -0.957782 0.020047 -0.635167 -0.000003 -0.000008
    16 -0.249534 -2.846963 -0.174215 -0.264426 0.016091 0.048523
    17 0.043235 -1.683940 0.096015 -1.322589 -0.002684 -0.000611
    18 0.031729 -1.160830 0.058836 -0.786098 0.000000 0.000000
    19 0.447951 -2.798983 -0.200441 -0.584203 0.073345 0.082665
    20 -0.032909 -1.480207 0.004935 -1.055614 0.000000 0.000000
    21 -0.027023 -1.076921 -0.020212 -0.750426 0.000000 0.000000
    22 1.164474 -2.543939 -0.170327 -0.483579 0.035007 0.072044
    23 0.024033 -1.129040 0.017807 -1.229949 -0.020326 0.095001
    24 0.014896 -0.883992 -0.019846 -0.775384 0.101857 0.002205
    25 -0.107590 -0.128692 -0.033218 0.328335 0.148715 1.365411
    26 0.583509 -1.197274 0.185379 0.062828 -0.796157 -0.812748
    27 1.535926 0.010247 0.005009 -0.062626 0.078894 -0.842377
    28 1.100770 0.004528 -0.010675 0.000000 0.000000 -0.891053
    29 0.957766 -2.746777 -0.090301 -0.017405 -0.044759 0.223929
    30 -0.033419 -1.397128 -0.011255 -0.349220 0.000000 0.000000
    31 -0.022361 -0.957433 0.018783 -0.811576 0.000000 0.000000
    32 0.250029 -2.820664 -0.238396 -0.763388 0.057277 -0.106688
    33 -0.049759 -1.680544 0.100479 -1.613606 0.000000 0.000000
    34 -0.034141 -1.148311 0.084779 -1.193267 0.000000 0.000000
    35 -0.488517 -2.755600 -0.228261 -0.639567 0.054586 -0.144146
    36 0.039889 -1.479791 0.029854 -1.617533 0.000000 0.000000
    37 0.028785 -1.075733 -0.023110 -0.841832 0.000000 0.000000
    38 -1.180679 -2.507216 -0.193861 -0.260565 0.123427 -0.000527
    39 -0.024967 -1.123934 0.017595 -1.253816 0.000000 0.000000
    40 -0.020058 -0.890965 0.010091 -0.839140 0.000000 0.000000
    41 0.120180 -0.051600 -0.063059 0.012085 -2.987703 1.512552
  time 12
    0 7.368706 -1.152901 -6.728052 1.044707 -1.765063 -1.274991
    1 -0.071918 -8.498731 -0.104136 -0.188351 0.500438 -0.668845
    2 -0.184853 -4.148879 0.716350 1.057733 1.480152 1.220148
    3 0.000000 2.034682 1.408873 0.000000 0.000000 0.000000
    4 0.000000 -2.857524 0.622003 0.114405 0.000000 0.000000
    5 0.000000 -5.238310 0.651979 0.000000 0.000000 0.000000
    6 0.000000 -4.975600 2.058081 0.000000 0.000000 0.000000
    7 -0.862312 -6.414341 -0.674453 0.000000 0.000000 0.000000
    8 -3.859005 -10.008781 -9.337034 -0.173506 0.525569 0.415793
    9 0.096946 -8.450419 -0.009363 -0.003941 -0.542075 0.556933
    10 -0.586769 -1.264477 0.200164 -0.075242 -0.303936 -2.589101
    11 1.522835 0.058680 0.016850 0.000037 0.000014 0.193403
    12 1.117947 0.048424 -0.005765 0.000036 0.000000 0.193517
    13 -0.963867 -2.785143 -0.085346 0.108034 0.000001 -0.000001
    14 0.028478 -1.403067 0.006272 -1.446151 -0.000007 -0.000010
    15 0.021412 -0.957782 0.020047 -0.635167 -0.000003 -0.000008
    16 -0.249534 -2.846963 -0.174215 -0.264426 0.016091 0.048523
    17 0.043235 -1.683940 0.096015 -1.322589 -0.002684 -0.000611
    18 0.031729 -1.160830 0.058836 -0.786098 0.000000 0.000000
    19 0.447951 -2.798983 -0.200441 -0.584203 0.073345 0.082665
    20 -0.032909 -1.480207 0.004935 -1.055614 0.000000 0.000000
    21 -0.027023 -1.076921 -0.020212 -0.750426 0.000000 0.000000
    22 1.164474 -2.543939 -0.170327 -0.483579 0.035007 0.072044
    23 0.024033 -1.129040 0.017807 -1.229949 -0.020326 0.095001
    24 0.014896 -0.883992 -0.019846 -0.775384 0.101857 0.002205
    25 -0.107590 -0.128692 -0.029312 0.329006 0.147181 1.369917
    26 0.583509 -1.197274 0.185379 0.062828 -0.796157 -0.812748
    27 1.535926 0.010247 0.005009 -0.062626 0.078894 -0.842377
    28 1.100770 0.004528 -0.010675 0.000000 0.000000 -0.891053
    29 0.957766 -2.746777 -0.090301 -0.017405 -0.044759 0.223929
    30 -0.033419 -1.397128 -0.011255 -0.349220 0.000000 0.000000
    31 -0.022361 -0.957433 0.018783 -0.811576 0.000000 0.000000
    32 0.250029 -2.820664 -0.238396 -0.763388 0.057277 -0.106688
    33 -0.049759 -1.680544 0.100479 -1.613606 0.000000 0.000000
    34 -0.034141 -1.148311 0.084779 -1.193267 0.000000 0.000000
    35 -0.488517 -2.755600 -0.228261 -0.639567 0.054586 -0.144146
    36 0.039889 -1.479791 0.029854 -1.617533 0.000000 0.000000
    37 0.028785 -1.075733 -0.023110 -0.841832 0.000000 0.000000
    38 -1.180679 -2.507216 -0.193861 -0.260565 0.123427 -0.000527
    39 -0.024967 -1.123934 0.017595 -1.253816 0.000000 0.000000
    40 -0.020058 -0.890965 0.010091 -0.839140 0.000000 0.000000
    41 0.120180 -0.051600 -0.063059 0.012085 -2.987703 1.512552
  time 13
    0 7.024945 -0.660698 -7.122595 0.848970 -1.801972 -1.040490
    1 -0.071918 -8.498731 -0.104136 -0.194768 0.513065 -0.625187
    2 -0.184853 -4.148879 0.716350 1.057733 1.480152 1.220148
    3 0.000000 2.034682 1.408873 0.000000 0.000000 0.000000
    4 0.000000 -2.857524 0.622003 0.114405 0.000000 0.000000
    5 0.000000 -5.238310 0.651979 0.000000 0.000000 0.000000
    6 0.000000 -4.975600 2.058081 0.000000 0.000000 0.000000
    7 -0.862312 -6.414341 -0.674453 0.000000 0.000000 0.000000
    8 -3.839473 -10.282227 -9.747202 -0.232524 0.524619 0.439489
    9 0.096946 -8.450419 -0.009363 -0.036544 -0.586909 0.550902
    10 -0.586769 -1.264477 0.200164 -0.072090 -0.304538 -2.599235
    11 1.522835 0.058680 0.016850 0.000037 0.000014 0.196877
    12 1.117947 0.048424 -0.005765 0.000036 0.000000 0.186356
    13 -0.963867 -2.785143 -0.085346 0.108034 0.000001 -0.000001
    14 0.028478 -1.403067 0.006272 -1.446151 -0.000007 -0.000010
    15 0.021412 -0.957782 0.020047 -0.635167 -0.000003 -0.000008
    16 -0.249534 -2.846963 -0.174215 -0.264426 0.016091 0.048523
    17 0.043235 -1.683940 0.096015 -1.322589 -0.002684 -0.000611
    18 0.031729 -1.160830 0.058836 -0.786098 0.000000 0.000000
    19 0.447951 -2.798983 -0.200441 -0.584203 0.073345 0.082665
    20 -0.032909 -1.480207 0.004935 -1.055614 0.000000 0.000000
    21 -0.027023 -1.076921 -0.020212 -0.750426 0.000000 0.000000
    22 1.164474 -2.543939 -0.170327 -0.483579 0.035007 0.072044
    23 0.024033 -1.129040 0.017807 -1.229949 -0.020326 0.095001
    24 0.014896 -0.883992 -0.019846 -0.775384 0.101857 0.002205
    25 -0.107590 -0.128692 -0.029312 0.329665 0.145635 1.374495
    26 0.583509 -1.197274 0.185379 0.062828 -0.796157 -0.812748
    27 1.535926 0.010247 0.005009 -0.062626 0.078894 -0.842377
    28 1.100770 0.004528 -0.010675 0.000000 0.000000 -0.891053
    29 0.957766 -2.746777 -0.090301 -0.017405 -0.044759 0.223929
    30 -0.033419 -1.397128 -0.011255 -0.349220 0.000000 0.000000
    31 -0.022361 -0.957433 0.018783 -0.811576 0.000000 0.000000
    32 0.250029 -2.820664 -0.238396 -0.763388 0.057277 -0.106688
    33 -0.049759 -1.680544 0.100479 -1.613606 0.000000 0.000000
    34 -0.034141 -1.148311 0.084779 -1.193267 0.000000 0.000000
    35 -0.488517 -2.755600 -0.228261 -0.639567 0.054586 -0.144146
    36 0.039889 -1.479791 0.029854 -1.617533 0.000000 0.000000
    37 0.028785 -1.075733 -0.023110 -0.841832 0.000000 0.000000
    38 -1.180679 -2.507216 -0.193861 -0.260565 0.123427 -0.000527
    39 -0.024967 -1.123934 0.017595 -1.253816 0.000000 0.000000
    40 -0.020058 -0.890965 0.010091 -0.839140 0.000000 0.000000
    41 0.120180 -0.051600 -0.063059 0.012085 -2.987703 1.512552
  time 14
    0 6.688998 -0.148964 -7.528858 0.727054 -1.841782 -0.883678
    1 -0.071918 -8.498731 -0.104136 -0.199929 0.525638 -0.580774
    2 -0.184853 -4.148879 0.716350 1.057733 1.480152 1.220148
    3 0.000000 2.034682 1.408873 0.000000 0.000000 0.000000
    4 0.000000 -2.857524 0.622003 0.114405 0.000000 0.000000
    5 0.000000 -5.238310 0.651979 0.000000 0.000000 0.000000
    6 0.000000 -4.975600 2.058081 0.000000 0.000000 0.000000
    7 -0.862312 -6.414341 -0.674453 0.000000 0.000000 0.000000
    8 -3.831661 -10.461919 -10.040180 -0.282256 0.525474 0.461801
    9 0.096946 -8.450419 -0.009363 -0.059368 -0.620956 0.543572
    10 -0.586769 -1.264477 0.200164 -0.069624 -0.305434 -2.606901
    11 1.522835 0.058680 0.016850 0.000037 0.000014 0.199842
    12 1.117947 0.048424 -0.005765 0.000036 0.000000 0.180206
    13 -0.963867 -2.785143 -0.085346 0.108034 0.000001 -0.000001
    14 0.028478 -1.403067 0.006272 -1.446151 -0.000007 -0.000010
    15 0.021412 -0.957782 0.020047 -0.635167 -0.000003 -0.000008
    16 -0.249534 -2.846963 -0.174215 -0.264426 0.016091 0.048523
    17 0.043235 -1.683940 0.096015 -1.322589 -0.002684 -0.000611
    18 0.031729 -1.160830 0.058836 -0.786098 0.000000 0.000000
    19 0.447951 -2.798983 -0.200441 -0.584203 0.073345 0.082665
    20 -0.032909 -1.480207 0.004935 -1.055614 0.000000 0.000000
    21 -0.027023 -1.076921 -0.020212 -0.750426 0.000000 0.000000
    22 1.164474 -2.543939 -0.170327 -0.483579 0.035007 0.072044
    23 0.024033 -1.129040 0.017807 -1.229949 -0.020326 0.095001
    24 0.014896 -0.883992 -0.019846 -0.775384 0.101857 0.002205
    25 -0.107590 -0.128692 -0.025406 0.330337 0.144065 1.379109
    26 0.583509 -1.197274 0.185379 0.062828 -0.796157 -0.812748
    27 1.535926 0.010247 0.005009 -0.062626 0.078894 -0.842377
    28 1.100770 0.004528 -0.010675 0.000000 0.000000 -0.891053
    29 0.957766 -2.746777 -0.090301 -0.017405 -0.044759 0.223929
    30 -0.033419 -1.397128 -0.011255 -0.349220 0.000000 0.000000
    31 -0.022361 -0.957433 0.018783 -0.811576 0.000000 0.000000
    32 0.250029 -2.820664 -0.238396 -0.763388 0.057277 -0.106688
    33 -0.049759 -1.680544 0.100479 -1.613606 0.000000 0.000000
    34 -0.034141 -1.148311 0.084779 -1.193267 0.000000 0.000000
    35 -0.488517 -2.755600 -0.228261 -0.639567 0.054586 -0.144146
    36 0.039889 -1.479791 0.029854 -1.617533 0.000000 0.000000
    37 0.028785 -1.075733 -0.023110 -0.841832 0.000000 0.000000
    38 -1.180679 -2.507216 -0.193861 -0.260565 0.123427 -0.000527
    39 -0.024967 -1.123934 0.017595 -1.253816 0.000000 0.000000
    40 -0.020058 -0.890965 0.010091 -0.839140 0.000000 0.000000
    41 0.120180 -0.051600 -0.063059 0.012085 -2.987703 1.512552
  time 15
    0 6.380394 0.354958 -7.903869 0.652869 -1.879541 -0.779296
    1 -0.071918 -8.498731 -0.104136 -0.203151 0.537425 -0.536471
    2 -0.184853 -4.148879 0.716350 1.057733 1.480152 1.220148
    3 0.000000 2.034682 1.408873 0.000000 0.000000 0.000000
    4 0.000000 -2.857524 0.622003 0.114405 0.000000 0.000000
    5 0.000000 -5.238310 0.651979 0.000000 0.000000 0.000000
    6 0.000000 -4.975600 2.058081 0.000000 0.000000 0.000000
    7 -0.862312 -6.414341 -0.674453 0.000000 0.000000 0.000000
    8 -3.827754 -10.520515 -10.149558 -0.316436 0.528990 0.483380
    9 0.096946 -8.450419 -0.009363 -0.068768 -0.636863 0.535409
    10 -0.586769 -1.264477 0.200164 -0.067588 -0.306963 -2.612697
    11 1.522835 0.058680 0.016850 0.000037 0.000014 0.202277
    12 1.117947 0.048424 -0.005765 0.000036 0.000000 0.175187
    13 -0.963867 -2.785143 -0.085346 0.108034 0.000001 -0.000001
    14 0.028478 -1.403067 0.006272 -1.446151 -0.000007 -0.000010
    15 0.021412 -0.957782 0.020047 -0.635167 -0.000003 -0.000008
    16 -0.249534 -2.846963 -0.174215 -0.264426 0.016091 0.048523
    17 0.043235 -1.683940 0.096015 -1.322589 -0.002684 -0.000611
    18 0.031729 -1.160830 0.058836 -0.786098 0.000000 0.000000
    19 0.447951 -2.798983 -0.200441 -0.584203 0.073345 0.082665
    20 -0.032909 -1.480207 0.004935 -1.055614 0.000000 0.000000
    21 -0.027023 -1.076921 -0.020212 -0.750426 0.000000 0.000000
    22 1.164474 -2.543939 -0.170327 -0.483579 0.035007 0.072044
    23 0.024033 -1.129040 0.017807 -1.229949 -0.020326 0.095001
    24 0.014896 -0.883992 -0.019846 -0.775384 0.101857 0.002205
    25 -0.107590 -0.128692 -0.025406 0.330996 0.142507 1.383711
    26 0.583509 -1.197274 0.185379 0.062828 -0.796157 -0.812748
    27 1.535926 0.010247 0.005009 -0.062626 0.078894 -0.842377
    28 1.100770 0.004528 -0.010675 0.000000 0.000000 -0.891053
    29 0.957766 -2.746777 -0.090301 -0.017405 -0.044759 0.223929
    30 -0.033419 -1.397128 -0.011255 -0.349220 0.000000 0.000000
    31 -0.022361 -0.957433 0.018783 -0.811576 0.000000 0.000000
    32 0.250029 -2.820664 -0.238396 -0.763388 0.057277 -0.106688
    33 -0.049759 -1.680544 0.100479 -1.613606 0.000000 0.000000
    34 -0.034141 -1.148311 0.084779 -1.193267 0.000000 0.000000
    35 -0.488517 -2.755600 -0.228261 -0.639567 0.054586 -0.144146
    36 0.039889 -1.479791 0.029854 -1.617533 0.000000 0.000000
    37 0.028785 -1.075733 -0.023110 -0.841832 0.000000 0.000000
    38 -1.180679 -2.507216 -0.193861 -0.260565 0.123427 -0.000527
    39 -0.024967 -1.123934 0.017595 -1.253816 0.000000 0.000000
    40 -0.020058 -0.890965 0.010091 -0.839140 0.000000 0.000000
    41 0.120180 -0.051600 -0.063059 0.012085 -2.987703 1.512552
  time 16
    0 6.118668 0.831535 -8.216379 0.610239 -1.911948 -0.711940
    1 -0.071918 -8.498731 -0.104136 -0.203888 0.547745 -0.493236
    2 -0.184853 -4.148879 0.716350 1.057733 1.480152 1.220148
    3 0.000000 2.034682 1.408873 0.000000 0.000000 0.000000
    4 0.000000 -2.857524 0.622003 0.114405 0.000000 0.000000
    5 0.000000 -5.238310 0.651979 0.000000 0.000000 0.000000
    6 0.000000 -4.975600 2.058081 0.000000 0.000000 0.000000
    7 -0.862312 -6.414341 -0.674453 0.000000 0.000000 0.000000
    8 -3.835567 -10.465826 -10.149558 -0.344521 0.531175 0.498200
    9 0.096946 -8.450419 -0.009363 -0.065383 -0.637735 0.525439
    10 -0.586769 -1.264477 0.200164 -0.065572 -0.309141 -2.618007
    11 1.522835 0.058680 0.016850 0.000037 0.000014 0.204091
    12 1.117947 0.048424 -0.005765 0.000036 0.000000 0.171423
    13 -0.963867 -2.785143 -0.085346 0.108034 0.000001 -0.000001
    14 0.028478 -1.403067 0.006272 -1.446151 -0.000007 -0.000010
    15 0.021412 -0.957782 0.020047 -0.635167 -0.000003 -0.000008
    16 -0.249534 -2.846963 -0.174215 -0.264426 0.016091 0.048523
    17 0.043235 -1.683940 0.096015 -1.322589 -0.002684 -0.000611
    18 0.031729 -1.160830 0.058836 -0.786098 0.000000 0.000000
    19 0.447951 -2.798983 -0.200441 -0.584203 0.073345 0.082665
    20 -0.032909 -1.480207 0.004935 -1.055614 0.000000 0.000000
    21 -0.027023 -1.076921 -0.020212 -0.750426 0.000000 0.000000
    22 1.164474 -2.543939 -0.170327 -0.483579 0.035007 0.072044
    23 0.024033 -1.129040 0.017807 -1.229949 -0.020326 0.095001
    24 0.014896 -0.883992 -0.019846 -0.775384 0.101857 0.002205
    25 -0.107590 -0.128692 -0.025406 0.331643 0.140949 1.388289
    26 0.583509 -1.197274 0.185379 0.062828 -0.796157 -0.812748
    27 1.535926 0.010247 0.005009 -0.062626 0.078894 -0.842377
    28 1.100770 0.004528 -0.010675 0.000000 0.000000 -0.891053
    29 0.957766 -2.746777 -0.090301 -0.017405 -0.044759 0.223929
    30 -0.033419 -1.397128 -0.011255 -0.349220 0.000000 0.000000
    31 -0.022361 -0.957433 0.018783 -0.811576 0.000000 0.000000
    32 0.250029 -2.820664 -0.238396 -0.763388 0.057277 -0.106688
    33 -0.049759 -1.680544 0.100479 -1.613606 0.000000 0.000000
    34 -0.034141 -1.148311 0.084779 -1.193267 0.000000 0.000000
    35 -0.488517 -2.755600 -0.228261 -0.639567 0.054586 -0.144146
    36 0.039889 -1.479791 0.029854 -1.617533 0.000000 0.000000
    37 0.028785 -1.075733 -0.023110 -0.841832 0.000000 0.000000
    38 -1.180679 -2.507216 -0.193861 -0.260565 0.123427 -0.000527
    39 -0.024967 -1.123934 0.017595 -1.253816 0.000000 0.000000
    40 -0.020058 -0.890965 0.010091 -0.839140 0.000000 0.000000
    41 0.120180 -0.051600 -0.063059 0.012085 -2.987703 1.512552
  time 17
    0 5.915536 1.261235 -8.435135 0.590272 -1.936854 -0.673383
    1 -0.071918 -8.498731 -0.104136 -0.201731 0.555793 -0.452001
    2 -0.184853 -4.148879 0.716350 1.057733 1.480152 1.220148
    3 0.000000 2.034682 1.408873 0.000000 0.000000 0.000000
    4 0.000000 -2.857524 0.622003 0.114405 0.000000 0.000000
    5 0.000000 -5.238310 0.651979 0.000000 0.000000 0.000000
    6 0.000000 -4.975600 2.058081 0.000000 0.000000 0.000000
    7 -0.862312 -6.414341 -0.674453 0.000000 0.000000 0.000000
    8 -3.851192 -10.309571 -10.145652 -0.381777 0.527565 0.499503
    9 0.096946 -8.450419 -0.009363 -0.053273 -0.632287 0.512443
    10 -0.586769 -1.264477 0.200164 -0.063692 -0.311659 -2.622719
    11 1.522835 0.058680 0.016850 0.000037 0.000014 0.205220
    12 1.117947 0.048424 -0.005765 0.000036 0.000000 0.169067
    13 -0.963867 -2.785143 -0.085346 0.108034 0.000001 -0.000001
    14 0.028478 -1.403067 0.006272 -1.446151 -0.000007 -0.000010
    15 0.021412 -0.957782 0.020047 -0.635167 -0.000003 -0.000008
    16 -0.249534 -2.846963 -0.174215 -0.264426 0.016091 0.048523
    17 0.043235 -1.683940 0.096015 -1.322589 -0.002684 -0.000611
    18 0.031729 -1.160830 0.058836 -0.786098 0.000000 0.000000
    19 0.447951 -2.798983 -0.200441 -0.584203 0.073345 0.082665
    20 -0.032909 -1.480207 0.004935 -1.055614 0.000000 0.000000
    21 -0.027023 -1.076921 -0.020212 -0.750426 0.000000 0.000000
    22 1.164474 -2.543939 -0.170327 -0.483579 0.035007 0.072044
    23 0.024033 -1.129040 0.017807 -1.229949 -0.020326 0.095001
    24 0.014896 -0.883992 -0.019846 -0.775384 0.101857 0.002205
    25 -0.107590 -0.128692 -0.021499 0.332278 0.139427 1.392783
    26 0.583509 -1.197274 0.185379 0.062828 -0.796157 -0.812748
    27 1.535926 0.010247 0.005009 -0.062626 0.078894 -0.842377
    28 1.100770 0.004528 -0.010675 0.000000 0.000000 -0.891053
    29 0.957766 -2.746777 -0.090301 -0.017405 -0.044759 0.223929
    30 -0.033419 -1.397128 -0.011255 -0.349220 0.000000 0.000000
    31 -0.022361 -0.957433 0.018783 -0.811576 0.000000 0.000000
    32 0.250029 -2.820664 -0.238396 -0.763388 0.057277 -0.106688
    33 -0.049759 -1.680544 0.100479 -1.613606 0.000000 0.000000
    34 -0.034141 -1.148311 0.084779 -1.193267 0.000000 0.000000
    35 -0.488517 -2.755600 -0.228261 -0.639567 0.054586 -0.144146
    36 0.039889 -1.479791 0.029854 -1.617533 0.000000 0.000000
    37 0.028785 -1.075733 -0.023110 -0.841832 0.000000 0.000000
    38 -1.180679 -2.507216 -0.193861 -0.260565 0.123427 -0.000527
    39 -0.024967 -1.123934 0.017595 -1.253816 0.000000 0.000000
    40 -0.020058 -0.890965 0.010091 -0.839140 0.000000 0.000000
    41 0.120180 -0.051600 -0.063059 0.012085 -2.987703 1.512552
  time 18
    0 5.786626 1.675310 -8.548420 0.583276 -1.953158 -0.654630
    1 -0.071918 -8.498731 -0.104136 -0.196270 0.560783 -0.413834
    2 -0.184853 -4.148879 0.716350 1.057733 1.480152 1.220148
    3 0.000000 2.034682 1.408873 0.000000 0.000000 0.000000
    4 0.000000 -2.857524 0.622003 0.114405 0.000000 0.000000
    5 0.000000 -5.238310 0.651979 0.000000 0.000000 0.000000
    6 0.000000 -4.975600 2.058081 0.000000 0.000000 0.000000
    7 -0.862312 -6.414341 -0.674453 0.000000 0.000000 0.000000
    8 -3.874631 -10.075189 -10.137839 -0.423990 0.520153 0.493151
    9 0.096946 -8.450419 -0.009363 -0.034333 -0.621474 0.497092
    10 -0.586769 -1.264477 0.200164 -0.062009 -0.314192 -2.626608
    11 1.522835 0.058680 0.016850 0.000037 0.000014 0.205618
    12 1.117947 0.048424 -0.005765 0.000036 0.000000 0.168241
    13 -0.963867 -2.785143 -0.085346 0.108034 0.000001 -0.000001
    14 0.028478 -1.403067 0.006272 -1.446151 -0.000007 -0.000010
    15 0.021412 -0.957782 0.020047 -0.635167 -0.000003 -0.000008
    16 -0.249534 -2.846963 -0.174215 -0.264426 0.016091 0.048523
    17 0.043235 -1.683940 0.096015 -1.322589 -0.002684 -0.000611
    18 0.031729 -1.160830 0.058836 -0.786098 0.000000 0.000000
    19 0.447951 -2.798983 -0.200441 -0.584203 0.073345 0.082665
    20 -0.032909 -1.480207 0.004935 -1.055614 0.000000 0.000000
    21 -0.027023 -1.076921 -0.020212 -0.750426 0.000000 0.000000
    22 1.164474 -2.543939 -0.170327 -0.483579 0.035007 0.072044
    23 0.024033 -1.129040 0.017807 -1.229949 -0.020326 0.095001
    24 0.014896 -0.883992 -0.019846 -0.775384 0.101857 0.002205
    25 -0.103683 -0.128692 -0.021499 0.332889 0.137929 1.397182
    26 0.583509 -1.197274 0.185379 0.062828 -0.796157 -0.812748
    27 1.535926 0.010247 0.005009 -0.062626 0.078894 -0.842377
    28 1.100770 0.004528 -0.010675 0.000000 0.000000 -0.891053
    29 0.957766 -2.746777 -0.090301 -0.017405 -0.044759 0.223929
    30 -0.033419 -1.397128 -0.011255 -0.349220 0.000000 0.000000
    31 -0.022361 -0.957433 0.018783 -0.811576 0.000000 0.000000
    32 0.250029 -2.820664 -0.238396 -0.763388 0.057277 -0.106688
    33 -0.049759 -1.680544 0.100479 -1.613606 0.000000 0.000000
    34 -0.034141 -1.148311 0.084779 -1.193267 0.000000 0.000000
    35 -0.488517 -2.755600 -0.228261 -0.639567 0.054586 -0.144146
    36 0.039889 -1.479791 0.029854 -1.617533 0.000000 0.000000
    37 0.028785 -1.075733 -0.023110 -0.841832 0.000000 0.000000
    38 -1.180679 -2.507216 -0.193861 -0.260565 0.123427 -0.000527
    39 -0.024967 -1.123934 0.017595 -1.253816 0.000000 0.000000
    40 -0.020058 -0.890965 0.010091 -0.839140 0.000000 0.000000
    41 0.120180 -0.051600 -0.063059 0.012085 -2.987703 1.512552
  time 19
    0 5.716312 2.105011 -8.579671 0.581308 -1.961560 -0.647550
    1 -0.071918 -8.498731 -0.104136 -0.187259 0.561981 -0.379801
    2 -0.184853 -4.148879 0.716350 1.057733 1.480152 1.220148
    3 0.000000 2.034682 1.408873 0.000000 0.000000 0.000000
    4 0.000000 -2.857524 0.622003 0.114405 0.000000 0.000000
    5 0.000000 -5.238310 0.651979 0.000000 0.000000 0.000000
    6 0.000000 -4.975600 2.058081 0.000000 0.000000 0.000000
    7 -0.862312 -6.414341 -0.674453 0.000000 0.000000 0.000000
    8 -3.909788 -9.786118 -10.130027 -0.463752 0.512551 0.486637
    9 0.096946 -8.450419 -0.009363 -0.010493 -0.606329 0.480076
    10 -0.586769 -1.264477 0.200164 -0.060639 -0.316416 -2.629599
    11 1.522835 0.058680 0.016850 0.000037 0.000014 0.204910
    12 1.117947 0.048424 -0.005765 0.000036 0.000000 0.169710
    13 -0.963867 -2.785143 -0.085346 0.108034 0.000001 -0.000001
    14 0.028478 -1.403067 0.006272 -1.446151 -0.000007 -0.000010
    15 0.021412 -0.957782 0.020047 -0.635167 -0.000003 -0.000008
    16 -0.249534 -2.846963 -0.174215 -0.264426 0.016091 0.048523
    17 0.043235 -1.683940 0.096015 -1.322589 -0.002684 -0.000611
    18 0.031729 -1.160830 0.058836 -0.786098 0.000000 0.000000
    19 0.447951 -2.798983 -0.200441 -0.584203 0.073345 0.082665
    20 -0.032909 -1.480207 0.004935 -1.055614 0.000000 0.000000
    21 -0.027023 -1.076921 -0.020212 -0.750426 0.000000 0.000000
    22 1.164474 -2.543939 -0.170327 -0.483579 0.035007 0.072044
    23 0.024033 -1.129040 0.017807 -1.229949 -0.020326 0.095001
    24 0.014896 -0.883992 -0.019846 -0.775384 0.101857 0.002205
    25 -0.103683 -0.128692 -0.021499 0.333465 0.136491 1.401424
    26 0.583509 -1.197274 0.185379 0.062828 -0.796157 -0.812748
    27 1.535926 0.010247 0.005009 -0.062626 0.078894 -0.842377
    28 1.100770 0.004528 -0.010675 0.000000 0.000000 -0.891053
    29 0.957766 -2.746777 -0.090301 -0.017405 -0.044759 0.223929
    30 -0.033419 -1.397128 -0.011255 -0.349220 0.000000 0.000000
    31 -0.022361 -0.957433 0.018783 -0.811576 0.000000 0.000000
    32 0.250029 -2.820664 -0.238396 -0.763388 0.057277 -0.106688
    33 -0.049759 -1.680544 0.100479 -1.613606 0.000000 0.000000
    34 -0.034141 -1.148311 0.084779 -1.193267 0.000000 0.000000
    35 -0.488517 -2.755600 -0.228261 -0.639567 0.054586 -0.144146
    36 0.039889 -1.479791 0.029854 -1.617533 0.000000 0.000000
    37 0.028785 -1.075733 -0.023110 -0.841832 0.000000 0.000000
    38 -1.180679 -2.507216 -0.193861 -0.260565 0.123427 -0.000527
    39 -0.024967 -1.123934 0.017595 -1.253816 0.000000 0.000000
    40 -0.020058 -0.890965 0.010091 -0.839140 0.000000 0.000000
    41 0.120180 -0.051600 -0.063059 0.012085 -2.987703 1.512552
  time 20
    0 5.704592 2.542524 -8.544514 0.583203 -1.962810 -0.650133
    1 -0.071918 -8.498731 -0.104136 -0.174453 0.558619 -0.351126
    2 -0.184853 -4.148879 0.716350 1.057733 1.480152 1.220148
    3 0.000000 2.034682 1.408873 0.000000 0.000000 0.000000
    4 0.000000 -2.857524 0.622003 0.114405 0.000000 0.000000
    5 0.000000 -5.238310 0.651979 0.000000 0.000000 0.000000
    6 0.000000 -4.975600 2.058081 0.000000 0.000000 0.000000
    7 -0.862312 -6.414341 -0.674453 0.000000 0.000000 0.000000
    8 -3.952758 -9.457983 -10.118307 -0.497876 0.506280 0.482402
    9 0.096946 -8.450419 -0.009363 0.016334 -0.587862 0.462085
    10 -0.586769 -1.264477 0.200164 -0.059660 -0.318022 -2.631544
    11 1.522835 0.058680 0.016850 0.000037 0.000014 0.202852
    12 1.117947 0.048424 -0.005765 0.000036 0.000000 0.173963
    13 -0.963867 -2.785143 -0.085346 0.108034 0.000001 -0.000001
    14 0.028478 -1.403067 0.006272 -1.446151 -0.000007 -0.000010
    15 0.021412 -0.957782 0.020047 -0.635167 -0.000003 -0.000008
    16 -0.249534 -2.846963 -0.174215 -0.264426 0.016091 0.048523
    17 0.043235 -1.683940 0.096015 -1.322589 -0.002684 -0.000611
    18 0.031729 -1.160830 0.058836 -0.786098 0.000000 0.000000
    19 0.447951 -2.798983 -0.200441 -0.584203 0.073345 0.082665
    20 -0.032909 -1.480207 0.004935 -1.055614 0.000000 0.000000
    21 -0.027023 -1.076921 -0.020212 -0.750426 0.000000 0.000000
    22 1.164474 -2.543939 -0.170327 -0.483579 0.035007 0.072044
    23 0.024033 -1.129040 0.017807 -1.229949 -0.020326 0.095001
    24 0.014896 -0.883992 -0.019846 -0.775384 0.101857 0.002205
    25 -0.103683 -0.128692 -0.017593 0.334028 0.135101 1.405487
    26 0.583509 -1.197274 0.185379 0.062828 -0.796157 -0.812748
    27 1.535926 0.010247 0.005009 -0.062626 0.078894 -0.842377
    28 1.100770 0.004528 -0.010675 0.000000 0.000000 -0.891053
    29 0.957766 -2.746777 -0.090301 -0.017405 -0.044759 0.223929
    30 -0.033419 -1.397128 -0.011255 -0.349220 0.000000 0.000000
    31 -0.022361 -0.957433 0.018783 -0.811576 0.000000 0.000000
    32 0.250029 -2.820664 -0.238396 -0.763388 0.057277 -0.106688
    33 -0.049759 -1.680544 0.100479 -1.613606 0.000000 0.000000
    34 -0.034141 -1.148311 0.084779 -1.193267 0.000000 0.000000
    35 -0.488517 -2.755600 -0.228261 -0.639567 0.054586 -0.144146
    36 0.039889 -1.479791 0.029854 -1.617533 0.000000 0.000000
    37 0.028785 -1.075733 -0.023110 -0.841832 0.000000 0.000000
    38 -1.180679 -2.507216 -0.193861 -0.260565 0.123427 -0.000527
    39 -0.024967 -1.123934 0.017595 -1.253816 0.000000 0.000000
    40 -0.020058 -0.890965 0.010091 -0.839140 0.000000 0.000000
    41 0.120180 -0.051600 -0.063059 0.012085 -2.987703 1.512552
  time 21
    0 5.735843 2.980038 -8.450761 0.588523 -1.957909 -0.661327
    1 -0.071918 -8.498731 -0.104136 -0.158424 0.550606 -0.329364
    2 -0.184853 -4.148879 0.716350 1.057733 1.480152 1.220148
    3 0.000000 2.034682 1.408873 0.000000 0.000000 0.000000
    4 0.000000 -2.857524 0.622003 0.114405 0.000000 0.000000
    5 0.000000 -5.238310 0.651979 0.000000 0.000000 0.000000
    6 0.000000 -4.975600 2.058081 0.000000 0.000000 0.000000
    7 -0.862312 -6.414341 -0.674453 0.000000 0.000000 0.000000
    8 -4.007447 -9.118128 -10.102682 -0.524137 0.502669 0.481914
    9 0.096946 -8.450419 -0.009363 0.044416 -0.567188 0.443587
    10 -0.586769 -1.264477 0.200164 -0.059171 -0.318671 -2.632291
    11 1.522835 0.058680 0.016850 0.000037 0.000014 0.199555
    12 1.117947 0.048424 -0.005765 0.000036 0.000000 0.180818
    13 -0.963867 -2.785143 -0.085346 0.108034 0.000001 -0.000001
    14 0.028478 -1.403067 0.006272 -1.446151 -0.000007 -0.000010
    15 0.021412 -0.957782 0.020047 -0.635167 -0.000003 -0.000008
    16 -0.249534 -2.846963 -0.174215 -0.264426 0.016091 0.048523
    17 0.043235 -1.683940 0.096015 -1.322589 -0.002684 -0.000611
    18 0.031729 -1.160830 0.058836 -0.786098 0.000000 0.000000
    19 0.447951 -2.798983 -0.200441 -0.584203 0.073345 0.082665
    20 -0.032909 -1.480207 0.004935 -1.055614 0.000000 0.000000
    21 -0.027023 -1.076921 -0.020212 -0.750426 0.000000 0.000000
    22 1.164474 -2.543939 -0.170327 -0.483579 0.035007 0.072044
    23 0.024033 -1.129040 0.017807 -1.229949 -0.020326 0.095001
    24 0.014896 -0.883992 -0.019846 -0.775384 0.101857 0.002205
    25 -0.103683 -0.128692 -0.017593 0.334543 0.133794 1.409334
    26 0.583509 -1.197274 0.185379 0.062828 -0.796157 -0.812748
    27 1.535926 0.010247 0.005009 -0.062626 0.078894 -0.842377
    28 1.100770 0.004528 -0.010675 0.000000 0.000000 -0.891053
    29 0.957766 -2.746777 -0.090301 -0.017405 -0.044759 0.223929
    30 -0.033419 -1.397128 -0.011255 -0.349220 0.000000 0.000000
    31 -0.022361 -0.957433 0.018783 -0.811576 0.000000 0.000000
    32 0.250029 -2.820664 -0.238396 -0.763388 0.057277 -0.106688
    33 -0.049759 -1.680544 0.100479 -1.613606 0.000000 0.000000
    34 -0.034141 -1.148311 0.084779 -1.193267 0.000000 0.000000
    35 -0.488517 -2.755600 -0.228261 -0.639567 0.054586 -0.144146
    36 0.039889 -1.479791 0.029854 -1.617533 0.000000 0.000000
    37 0.028785 -1.075733 -0.023110 -0.841832 0.000000 0.000000
    38 -1.180679 -2.507216 -0.193861 -0.260565 0.123427 -0.000527
    39 -0.024967 -1.123934 0.017595 -1.253816 0.000000 0.000000
    40 -0.020058 -0.890965 0.010091 -0.839140 0.000000 0.000000
    41 0.120180 -0.051600 -0.063059 0.012085 -2.987703 1.512552
  time 22
    0 5.798345 3.405832 -8.314038 0.597413 -1.947807 -0.680463
    1 -0.071918 -8.498731 -0.104136 -0.139856 0.538552 -0.314559
    2 -0.184853 -4.148879 0.716350 1.057733 1.480152 1.220148
    3 0.000000 2.034682 1.408873 0.000000 0.000000 0.000000
    4 0.000000 -2.857524 0.622003 0.114405 0.000000 0.000000
    5 0.000000 -5.238310 0.651979 0.000000 0.000000 0.000000
    6 0.000000 -4.975600 2.058081 0.000000 0.000000 0.000000
    7 -0.862312 -6.414341 -0.674453 0.000000 0.000000 0.000000
    8 -4.066043 -8.782181 -10.087057 -0.542994 0.501719 0.485171
    9 0.096946 -8.450419 -0.009363 0.072140 -0.545398 0.424947
    10 -0.586769 -1.264477 0.200164 -0.060560 -0.317265 -2.627729
    11 1.522835 0.058680 0.016850 0.000037 0.000014 0.195107
    12 1.117947 0.048424 -0.005765 0.000036 0.000000 0.189998
    13 -0.963867 -2.785143 -0.085346 0.108034 0.000001 -0.000001
    14 0.028478 -1.403067 0.006272 -1.446151 -0.000007 -0.000010
    15 0.021412 -0.957782 0.020047 -0.635167 -0.000003 -0.000008
    16 -0.249534 -2.846963 -0.174215 -0.264426 0.016091 0.048523
    17 0.043235 -1.683940 0.096015 -1.322589 -0.002684 -0.000611
    18 0.031729 -1.160830 0.058836 -0.786098 0.000000 0.000000
    19 0.447951 -2.798983 -0.200441 -0.584203 0.073345 0.082665
    20 -0.032909 -1.480207 0.004935 -1.055614 0.000000 0.000000
    21 -0.027023 -1.076921 -0.020212 -0.750426 0.000000 0.000000
    22 1.164474 -2.543939 -0.170327 -0.483579 0.035007 0.072044
    23 0.024033 -1.129040 0.017807 -1.229949 -0.020326 0.095001
    24 0.014896 -0.883992 -0.019846 -0.775384 0.101857 0.002205
    25 -0.103683 -0.128692 -0.017593 0.335035 0.132572 1.412930
    26 0.583509 -1.197274 0.185379 0.062828 -0.796157 -0.812748
    27 1.535926 0.010247 0.005009 -0.062626 0.078894 -0.842377
    28 1.100770 0.004528 -0.010675 0.000000 0.000000 -0.891053
    29 0.957766 -2.746777 -0.090301 -0.017405 -0.044759 0.223929
    30 -0.033419 -1.397128 -0.011255 -0.349220 0.000000 0.000000
    31 -0.022361 -0.957433 0.018783 -0.811576 0.000000 0.000000
    32 0.250029 -2.820664 -0.238396 -0.763388 0.057277 -0.106688
    33 -0.049759 -1.680544 0.100479 -1.613606 0.000000 0.000000
    34 -0.034141 -1.148311 0.084779 -1.193267 0.000000 0.000000
    35 -0.488517 -2.755600 -0.228261 -0.639567 0.054586 -0.144146
    36 0.039889 -1.479791 0.029854 -1.617533 0.000000 0.000000
    37 0.028785 -1.075733 -0.023110 -0.841832 0.000000 0.000000
    38 -1.180679 -2.507216 -0.193861 -0.260565 0.123427 -0.000527
    39 -0.024967 -1.123934 0.017595 -1.253816 0.000000 0.000000
    40 -0.020058 -0.890965 0.010091 -0.839140 0.000000 0.000000
    41 0.120180 -0.051600 -0.063059 0.012085 -2.987703 1.512552
  time 23
    0 5.892098 3.816001 -8.149971 0.610239 -1.933453 -0.707347
    1 -0.071918 -8.498731 -0.104136 -0.118749 0.522687 -0.305534
    2 -0.184853 -4.148879 0.716350 1.057733 1.480152 1.220148
    3 0.000000 2.034682 1.408873 0.000000 0.000000 0.000000
    4 0.000000 -2.857524 0.622003 0.114405 0.000000 0.000000
    5 0.000000 -5.238310 0.651979 0.000000 0.000000 0.000000
    6 0.000000 -4.975600 2.058081 0.000000 0.000000 0.000000
    7 -0.862312 -6.414341 -0.674453 0.000000 0.000000 0.000000
    8 -4.132451 -8.477484 -10.063618 -0.555754 0.503619 0.492337
    9 0.096946 -8.450419 -0.009363 0.098051 -0.523771 0.406286
    10 -0.586769 -1.264477 0.200164 -0.063732 -0.313774 -2.618044
    11 1.522835 0.058680 0.016850 0.000037 0.000014 0.189641
    12 1.117947 0.048424 -0.005765 0.000036 0.000000 0.201351
    13 -0.963867 -2.785143 -0.085346 0.108034 0.000001 -0.000001
    14 0.028478 -1.403067 0.006272 -1.446151 -0.000007 -0.000010
    15 0.021412 -0.957782 0.020047 -0.635167 -0.000003 -0.000008
    16 -0.249534 -2.846963 -0.174215 -0.264426 0.016091 0.048523
    17 0.043235 -1.683940 0.096015 -1.322589 -0.002684 -0.000611
    18 0.031729 -1.160830 0.058836 -0.786098 0.000000 0.000000
    19 0.447951 -2.798983 -0.200441 -0.584203 0.073345 0.082665
    20 -0.032909 -1.480207 0.004935 -1.055614 0.000000 0.000000
    21 -0.027023 -1.076921 -0.020212 -0.750426 0.000000 0.000000
    22 1.164474 -2.543939 -0.170327 -0.483579 0.035007 0.072044
    23 0.024033 -1.129040 0.017807 -1.229949 -0.020326 0.095001
    24 0.014896 -0.883992 -0.019846 -0.775384 0.101857 0.002205
    25 -0.103683 -0.128692 -0.013686 0.335466 0.131445 1.416237
    26 0.583509 -1.197274 0.185379 0.062828 -0.796157 -0.812748
    27 1.535926 0.010247 0.005009 -0.062626 0.078894 -0.842377
    28 1.100770 0.004528 -0.010675 0.000000 0.000000 -0.891053
    29 0.957766 -2.746777 -0.090301 -0.017405 -0.044759 0.223929
    30 -0.033419 -1.397128 -0.011255 -0.349220 0.000000 0.000000
    31 -0.022361 -0.957433 0.018783 -0.811576 0.000000 0.000000
    32 0.250029 -2.820664 -0.238396 -0.763388 0.057277 -0.106688
    33 -0.049759 -1.680544 0.100479 -1.613606 0.000000 0.000000
    34 -0.034141 -1.148311 0.084779 -1.193267 0.000000 0.000000
    35 -0.488517 -2.755600 -0.228261 -0.639567 0.054586 -0.144146
    36 0.039889 -1.479791 0.029854 -1.617533 0.000000 0.000000
    37 0.028785 -1.075733 -0.023110 -0.841832 0.000000 0.000000
    38 -1.180679 -2.507216 -0.193861 -0.260565 0.123427 -0.000527
    39 -0.024967 -1.123934 0.017595 -1.253816 0.000000 0.000000
    40 -0.020058 -0.890965 0.010091 -0.839140 0.000000 0.000000
    41 0.120180 -0.051600 -0.063059 0.012085 -2.987703 1.512552
  time 24
    0 6.001477 4.198825 -7.966371 0.627874 -1.915799 -0.741982
    1 -0.071918 -8.498731 -0.104136 -0.094938 0.503300 -0.301155
    2 -0.184853 -4.148879 0.716350 1.057733 1.480152 1.220148
    3 0.000000 2.034682 1.408873 0.000000 0.000000 0.000000
    4 0.000000 -2.857524 0.622003 0.114405 0.000000 0.000000
    5 0.000000 -5.238310 0.651979 0.000000 0.000000 0.000000
    6 0.000000 -4.975600 2.058081 0.000000 0.000000 0.000000
    7 -0.862312 -6.414341 -0.674453 0.000000 0.000000 0.000000
    8 -4.202766 -8.219664 -10.040180 -0.563730 0.508370 0.503818
    9 0.096946 -8.450419 -0.009363 0.120795 -0.503560 0.387584
    10 -0.586769 -1.264477 0.200164 -0.066687 -0.309620 -2.609369
    11 1.522835 0.058680 0.016850 0.000037 0.000014 0.183224
    12 1.117947 0.048424 -0.005765 0.000036 0.000000 0.214631
    13 -0.963867 -2.785143 -0.085346 0.108034 0.000001 -0.000001
    14 0.028478 -1.403067 0.006272 -1.446151 -0.000007 -0.000010
    15 0.021412 -0.957782 0.020047 -0.635167 -0.000003 -0.000008
    16 -0.249534 -2.846963 -0.174215 -0.264426 0.016091 0.048523
    17 0.043235 -1.683940 0.096015 -1.322589 -0.002684 -0.000611
    18 0.031729 -1.160830 0.058836 -0.786098 0.000000 0.000000
    19 0.447951 -2.798983 -0.200441 -0.584203 0.073345 0.082665
    20 -0.032909 -1.480207 0.004935 -1.055614 0.000000 0.000000
    21 -0.027023 -1.076921 -0.020212 -0.750426 0.000000 0.000000
    22 1.164474 -2.543939 -0.170327 -0.483579 0.035007 0.072044
    23 0.024033 -1.129040 0.017807 -1.229949 -0.020326 0.095001
    24 0.014896 -0.883992 -0.019846 -0.775384 0.101857 0.002205
    25 -0.103683 -0.128692 -0.013686 0.335862 0.130427 1.419221
    26 0.583509 -1.197274 0.185379 0.062828 -0.796157 -0.812748
    27 1.535926 0.010247 0.005009 -0.062626 0.078894 -0.842377
    28 1.100770 0.004528 -0.010675 0.000000 0.000000 -0.891053
    29 0.957766 -2.746777 -0.090301 -0.017405 -0.044759 0.223929
    30 -0.033419 -1.397128 -0.011255 -0.349220 0.000000 0.000000
    31 -0.022361 -0.957433 0.018783 -0.811576 0.000000 0.000000
    32 0.250029 -2.820664 -0.238396 -0.763388 0.057277 -0.106688
    33 -0.049759 -1.680544 0.100479 -1.613606 0.000000 0.000000
    34 -0.034141 -1.148311 0.084779 -1.193267 0.000000 0.000000
    35 -0.488517 -2.755600 -0.228261 -0.639567 0.054586 -0.144146
    36 0.039889 -1.479791 0.029854 -1.617533 0.000000 0.000000
    37 0.028785 -1.075733 -0.023110 -0.841832 0.000000 0.000000
    38 -1.180679 -2.507216 -0.193861 -0.260565 0.123427 -0.000527
    39 -0.024967 -1.123934 0.017595 -1.253816 0.000000 0.000000
    40 -0.020058 -0.890965 0.010091 -0.839140 0.000000 0.000000
    41 0.120180 -0.051600 -0.063059 0.012085 -2.987703 1.512552
  time 25
    0 6.118668 4.546492 -7.774959 0.651266 -1.895944 -0.784462
    1 -0.071918 -8.498731 -0.104136 -0.068315 0.480639 -0.300244
    2 -0.184853 -4.148879 0.716350 1.057733 1.480152 1.220148
    3 0.000000 2.034682 1.408873 0.000000 0.000000 0.000000
    4 0.000000 -2.857524 0.622003 0.114405 0.000000 0.000000
    5 0.000000 -5.238310 0.651979 0.000000 0.000000 0.000000
    6 0.000000 -4.975600 2.058081 0.000000 0.000000 0.000000
    7 -0.862312 -6.414341 -0.674453 0.000000 0.000000 0.000000
    8 -4.280893 -8.032158 -10.012836 -0.568002 0.516067 0.520186
    9 0.096946 -8.450419 -0.009363 0.139178 -0.486019 0.368680
    10 -0.586769 -1.264477 0.200164 -0.067431 -0.306237 -2.607836
    11 1.522835 0.058680 0.016850 0.000037 0.000014 0.175988
    12 1.117947 0.048424 -0.005765 0.000036 0.000000 0.229626
    13 -0.963867 -2.785143 -0.085346 0.108034 0.000001 -0.000001
    14 0.028478 -1.403067 0.006272 -1.446151 -0.000007 -0.000010
    15 0.021412 -0.957782 0.020047 -0.635167 -0.000003 -0.000008
    16 -0.249534 -2.846963 -0.174215 -0.264426 0.016091 0.048523
    17 0.043235 -1.683940 0.096015 -1.322589 -0.002684 -0.000611
    18 0.031729 -1.160830 0.058836 -0.786098 0.000000 0.000000
    19 0.447951 -2.798983 -0.200441 -0.584203 0.073345 0.082665
    20 -0.032909 -1.480207 0.004935 -1.055614 0.000000 0.000000
    21 -0.027023 -1.076921 -0.020212 -0.750426 0.000000 0.000000
    22 1.164474 -2.543939 -0.170327 -0.483579 0.035007 0.072044
    23 0.024033 -1.129040 0.017807 -1.229949 -0.020326 0.095001
    24 0.014896 -0.883992 -0.019846 -0.775384 0.101857 0.002205
    25 -0.103683 -0.128692 -0.013686 0.336209 0.129540 1.421834
    26 0.583509 -1.197274 0.185379 0.062828 -0.796157 -0.812748
    27 1.535926 0.010247 0.005009 -0.062626 0.078894 -0.842377
    28 1.100770 0.004528 -0.010675 0.000000 0.000000 -0.891053
    29 0.957766 -2.746777 -0.090301 -0.017405 -0.044759 0.223929
    30 -0.033419 -1.397128 -0.011255 -0.349220 0.000000 0.000000
    31 -0.022361 -0.957433 0.018783 -0.811576 0.000000 0.000000
    32 0.250029 -2.820664 -0.238396 -0.763388 0.057277 -0.106688
    33 -0.049759 -1.680544 0.100479 -1.613606 0.000000 0.000000
    34 -0.034141 -1.148311 0.084779 -1.193267 0.000000 0.000000
    35 -0.488517 -2.755600 -0.228261 -0.639567 0.054586 -0.144146
    36 0.039889 -1.479791 0.029854 -1.617533 0.000000 0.000000
    37 0.028785 -1.075733 -0.023110 -0.841832 0.000000 0.000000
    38 -1.180679 -2.507216 -0.193861 -0.260565 0.123427 -0.000527
    39 -0.024967 -1.123934 0.017595 -1.253816 0.000000 0.000000
    40 -0.020058 -0.890965 0.010091 -0.839140 0.000000 0.000000
    41 0.120180 -0.051600 -0.063059 0.012085 -2.987703 1.512552
  time 26
    0 6.235859 4.847282 -7.591360 0.681363 -1.874889 -0.835266
    1 -0.071918 -8.498731 -0.104136 -0.038770 0.454938 -0.301689
    2 -0.184853 -4.148879 0.716350 1.057733 1.480152 1.220148
    3 0.000000 2.034682 1.408873 0.000000 0.000000 0.000000
    4 0.000000 -2.857524 0.622003 0.114405 0.000000 0.000000
    5 0.000000 -5.238310 0.651979 0.000000 0.000000 0.000000
    6 0.000000 -4.975600 2.058081 0.000000 0.000000 0.000000
    7 -0.862312 -6.414341 -0.674453 0.000000 0.000000 0.000000
    8 -4.366833 -7.934499 -9.977678 -0.569711 0.526804 0.542253
    9 0.096946 -8.450419 -0.009363 0.152004 -0.472563 0.349288
    10 -0.586769 -1.264477 0.200164 -0.063046 -0.303782 -2.623429
    11 1.522835 0.058680 0.016850 0.000037 0.000014 0.168021
    12 1.117947 0.048424 -0.005765 0.000036 0.000000 0.246120
    13 -0.963867 -2.785143 -0.085346 0.108034 0.000001 -0.000001
    14 0.028478 -1.403067 0.006272 -1.446151 -0.000007 -0.000010
    15 0.021412 -0.957782 0.020047 -0.635167 -0.000003 -0.000008
    16 -0.249534 -2.846963 -0.174215 -0.264426 0.016091 0.048523
    17 0.043235 -1.683940 0.096015 -1.322589 -0.002684 -0.000611
    18 0.031729 -1.160830 0.058836 -0.786098 0.000000 0.000000
    19 0.447951 -2.798983 -0.200441 -0.584203 0.073345 0.082665
    20 -0.032909 -1.480207 0.004935 -1.055614 0.000000 0.000000
    21 -0.027023 -1.076921 -0.020212 -0.750426 0.000000 0.000000
    22 1.164474 -2.543939 -0.170327 -0.483579 0.035007 0.072044
    23 0.024033 -1.129040 0.017807 -1.229949 -0.020326 0.095001
    24 0.014896 -0.883992 -0.019846 -0.775384 0.101857 0.002205
    25 -0.103683 -0.128692 -0.013686 0.336497 0.128785 1.424063
    26 0.583509 -1.197274 0.185379 0.062828 -0.796157 -0.812748
    27 1.535926 0.010247 0.005009 -0.062626 0.078894 -0.842377
    28 1.100770 0.004528 -0.010675 0.000000 0.000000 -0.891053
    29 0.957766 -2.746777 -0.090301 -0.017405 -0.044759 0.223929
    30 -0.033419 -1.397128 -0.011255 -0.349220 0.000000 0.000000
    31 -0.022361 -0.957433 0.018783 -0.811576 0.000000 0.000000
    32 0.250029 -2.820664 -0.238396 -0.763388 0.057277 -0.106688
    33 -0.049759 -1.680544 0.100479 -1.613606 0.000000 0.000000
    34 -0.034141 -1.148311 0.084779 -1.193267 0.000000 0.000000
    35 -0.488517 -2.755600 -0.228261 -0.639567 0.054586 -0.144146
    36 0.039889 -1.479791 0.029854 -1.617533 0.000000 0.000000
    37 0.028785 -1.075733 -0.023110 -0.841832 0.000000 0.000000
    38 -1.180679 -2.507216 -0.193861 -0.260565 0.123427 -0.000527
    39 -0.024967 -1.123934 0.017595 -1.253816 0.000000 0.000000
    40 -0.020058 -0.890965 0.010091 -0.839140 0.000000 0.000000
    41 0.120180 -0.051600 -0.063059 0.012085 -2.987703 1.512552
  time 27
    0 6.341331 5.101196 -7.427292 0.719038 -1.853634 -0.894489
    1 -0.071918 -8.498731 -0.104136 -0.006276 0.426375 -0.304423
    2 -0.184853 -4.148879 0.716350 1.057733 1.480152 1.220148
    3 0.000000 2.034682 1.408873 0.000000 0.000000 0.000000
    4 0.000000 -2.857524 0.622003 0.114405 0.000000 0.000000
    5 0.000000 -5.238310 0.651979 0.000000 0.000000 0.000000
    6 0.000000 -4.975600 2.058081 0.000000 0.000000 0.000000
    7 -0.862312 -6.414341 -0.674453 0.000000 0.000000 0.000000
    8 -4.487931 -7.891529 -9.926895 -0.563388 0.541818 0.571731
    9 0.096946 -8.450419 -0.009363 0.153578 -0.467687 0.326932
    10 -0.586769 -1.264477 0.200164 -0.056058 -0.301727 -2.647997
    11 1.522835 0.058680 0.016850 0.000037 0.000014 0.159435
    12 1.117947 0.048424 -0.005765 0.000036 0.000000 0.263899
    13 -0.963867 -2.785143 -0.085346 0.108034 0.000001 -0.000001
    14 0.028478 -1.403067 0.006272 -1.446151 -0.000007 -0.000010
    15 0.021412 -0.957782 0.020047 -0.635167 -0.000003 -0.000008
    16 -0.249534 -2.846963 -0.174215 -0.264426 0.016091 0.048523
    17 0.043235 -1.683940 0.096015 -1.322589 -0.002684 -0.000611
    18 0.031729 -1.160830 0.058836 -0.786098 0.000000 0.000000
    19 0.447951 -2.798983 -0.200441 -0.584203 0.073345 0.082665
    20 -0.032909 -1.480207 0.004935 -1.055614 0.000000 0.000000
    21 -0.027023 -1.076921 -0.020212 -0.750426 0.000000 0.000000
    22 1.164474 -2.543939 -0.170327 -0.483579 0.035007 0.072044
    23 0.024033 -1.129040 0.017807 -1.229949 -0.020326 0.095001
    24 0.014896 -0.883992 -0.019846 -0.775384 0.101857 0.002205
    25 -0.103683 -0.128692 -0.013686 0.336736 0.128174 1.425861
    26 0.583509 -1.197274 0.185379 0.062828 -0.796157 -0.812748
    27 1.535926 0.010247 0.005009 -0.062626 0.078894 -0.842377
    28 1.100770 0.004528 -0.010675 0.000000 0.000000 -0.891053
    29 0.957766 -2.746777 -0.090301 -0.017405 -0.044759 0.223929
    30 -0.033419 -1.397128 -0.011255 -0.349220 0.000000 0.000000
    31 -0.022361 -0.957433 0.018783 -0.811576 0.000000 0.000000
    32 0.250029 -2.820664 -0.238396 -0.763388 0.057277 -0.106688
    33 -0.049759 -1.680544 0.100479 -1.613606 0.000000 0.000000
    34 -0.034141 -1.148311 0.084779 -1.193267 0.000000 0.000000
    35 -0.488517 -2.755600 -0.228261 -0.639567 0.054586 -0.144146
    36 0.039889 -1.479791 0.029854 -1.617533 0.000000 0.000000
    37 0.028785 -1.075733 -0.023110 -0.841832 0.000000 0.000000
    38 -1.180679 -2.507216 -0.193861 -0.260565 0.123427 -0.000527
    39 -0.024967 -1.123934 0.017595 -1.253816 0.000000 0.000000
    40 -0.020058 -0.890965 0.010091 -0.839140 0.000000 0.000000
    41 0.120180 -0.051600 -0.063059 0.012085 -2.987703 1.512552
  time 28
    0 6.427271 5.288702 -7.294476 0.764802 -1.833280 -0.961845
    1 -0.071918 -8.498731 -0.104136 0.029166 0.395094 -0.307424
    2 -0.184853 -4.148879 0.716350 1.057733 1.480152 1.220148
    3 0.000000 2.034682 1.408873 0.000000 0.000000 0.000000
    4 0.000000 -2.857524 0.622003 0.114405 0.000000 0.000000
    5 0.000000 -5.238310 0.651979 0.000000 0.000000 0.000000
    6 0.000000 -4.975600 2.058081 0.000000 0.000000 0.000000
    7 -0.862312 -6.414341 -0.674453 0.000000 0.000000 0.000000
    8 -4.671530 -7.856371 -9.840955 -0.544304 0.560347 0.607804
    9 0.096946 -8.450419 -0.009363 0.142684 -0.472073 0.297692
    10 -0.586769 -1.264477 0.200164 -0.052671 -0.300723 -2.660711
    11 1.522835 0.058680 0.016850 0.000037 0.000014 0.150340
    12 1.117947 0.048424 -0.005765 0.000036 0.000000 0.282749
    13 -0.963867 -2.785143 -0.085346 0.108034 0.000001 -0.000001
    14 0.028478 -1.403067 0.006272 -1.446151 -0.000007 -0.000010
    15 0.021412 -0.957782 0.020047 -0.635167 -0.000003 -0.000008
    16 -0.249534 -2.846963 -0.174215 -0.264426 0.016091 0.048523
    17 0.043235 -1.683940 0.096015 -1.322589 -0.002684 -0.000611
    18 0.031729 -1.160830 0.058836 -0.786098 0.000000 0.000000
    19 0.447951 -2.798983 -0.200441 -0.584203 0.073345 0.082665
    20 -0.032909 -1.480207 0.004935 -1.055614 0.000000 0.000000
    21 -0.027023 -1.076921 -0.020212 -0.750426 0.000000 0.000000
    22 1.164474 -2.543939 -0.170327 -0.483579 0.035007 0.072044
    23 0.024033 -1.129040 0.017807 -1.229949 -0.020326 0.095001
    24 0.014896 -0.883992 -0.019846 -0.775384 0.101857 0.002205
    25 -0.103683 -0.128692 -0.009780 0.336904 0.127718 1.427179
    26 0.583509 -1.197274 0.185379 0.062828 -0.796157 -0.812748
    27 1.535926 0.010247 0.005009 -0.062626 0.078894 -0.842377
    28 1.100770 0.004528 -0.010675 0.000000 0.000000 -0.891053
    29 0.957766 -2.746777 -0.090301 -0.017405 -0.044759 0.223929
    30 -0.033419 -1.397128 -0.011255 -0.349220 0.000000 0.000000
    31 -0.022361 -0.957433 0.018783 -0.811576 0.000000 0.000000
    32 0.250029 -2.820664 -0.238396 -0.763388 0.057277 -0.106688
    33 -0.049759 -1.680544 0.100479 -1.613606 0.000000 0.000000
    34 -0.034141 -1.148311 0.084779 -1.193267 0.000000 0.000000
    35 -0.488517 -2.755600 -0.228261 -0.639567 0.054586 -0.144146
    36 0.039889 -1.479791 0.029854 -1.617533 0.000000 0.000000
    37 0.028785 -1.075733 -0.023110 -0.841832 0.000000 0.000000
    38 -1.180679 -2.507216 -0.193861 -0.260565 0.123427 -0.000527
    39 -0.024967 -1.123934 0.017595 -1.253816 0.000000 0.000000
    40 -0.020058 -0.890965 0.010091 -0.839140 0.000000 0.000000
    41 0.120180 -0.051600 -0.063059 0.012085 -2.987703 1.512552
  time 29
    0 6.485866 5.409799 -7.204629 0.818218 -1.814725 -1.036280
    1 -0.071918 -8.498731 -0.104136 0.067558 0.361130 -0.309647
    2 -0.184853 -4.148879 0.716350 1.057733 1.480152 1.220148
    3 0.000000 2.034682 1.408873 0.000000 0.000000 0.000000
    4 0.000000 -2.857524 0.622003 0.114405 0.000000 0.000000
    5 0.000000 -5.238310 0.651979 0.000000 0.000000 0.000000
    6 0.000000 -4.975600 2.058081 0.000000 0.000000 0.000000
    7 -0.862312 -6.414341 -0.674453 0.000000 0.000000 0.000000
    8 -4.886380 -7.844652 -9.743296 -0.515023 0.579922 0.647623
    9 0.096946 -8.450419 -0.009363 0.124958 -0.481415 0.259456
    10 -0.586769 -1.264477 0.200164 -0.057820 -0.302191 -2.644557
    11 1.522835 0.058680 0.016850 0.000037 0.000014 0.140803
    12 1.117947 0.048424 -0.005765 0.000036 0.000000 0.302455
    13 -0.963867 -2.785143 -0.085346 0.108034 0.000001 -0.000001
    14 0.028478 -1.403067 0.006272 -1.446151 -0.000007 -0.000010
    15 0.021412 -0.957782 0.020047 -0.635167 -0.000003 -0.000008
    16 -0.249534 -2.846963 -0.174215 -0.264426 0.016091 0.048523
    17 0.043235 -1.683940 0.096015 -1.322589 -0.002684 -0.000611
    18 0.031729 -1.160830 0.058836 -0.786098 0.000000 0.000000
    19 0.447951 -2.798983 -0.200441 -0.584203 0.073345 0.082665
    20 -0.032909 -1.480207 0.004935 -1.055614 0.000000 0.000000
    21 -0.027023 -1.076921 -0.020212 -0.750426 0.000000 0.000000
    22 1.164474 -2.543939 -0.170327 -0.483579 0.035007 0.072044
    23 0.024033 -1.129040 0.017807 -1.229949 -0.020326 0.095001
    24 0.014896 -0.883992 -0.019846 -0.775384 0.101857 0.002205
    25 -0.103683 -0.128692 -0.009780 0.337012 0.127442 1.428006
    26 0.583509 -1.197274 0.185379 0.062828 -0.796157 -0.812748
    27 1.535926 0.010247 0.005009 -0.062626 0.078894 -0.842377
    28 1.100770 0.004528 -0.010675 0.000000 0.000000 -0.891053
    29 0.957766 -2.746777 -0.090301 -0.017405 -0.044759 0.223929
    30 -0.033419 -1.397128 -0.011255 -0.349220 0.000000 0.000000
    31 -0.022361 -0.957433 0.018783 -0.811576 0.000000 0.000000
    32 0.250029 -2.820664 -0.238396 -0.763388 0.057277 -0.106688
    33 -0.049759 -1.680544 0.100479 -1.613606 0.000000 0.000000
    34 -0.034141 -1.148311 0.084779 -1.193267 0.000000 0.000000
    35 -0.488517 -2.755600 -0.228261 -0.639567 0.054586 -0.144146
    36 0.039889 -1.479791 0.029854 -1.617533 0.000000 0.000000
    37 0.028785 -1.075733 -0.023110 -0.841832 0.000000 0.000000
    38 -1.180679 -2.507216 -0.193861 -0.260565 0.123427 -0.000527
    39 -0.024967 -1.123934 0.017595 -1.253816 0.000000 0.000000
    40 -0.020058 -0.890965 0.010091 -0.839140 0.000000 0.000000
    41 0.120180 -0.051600 -0.063059 0.012085 -2.987703 1.512552
  time 30
    0 6.509305 5.452769 -7.173378 0.877391 -1.798971 -1.115117
    1 -0.071918 -8.498731 -0.104136 0.108708 0.324465 -0.310180
    2 -0.184853 -4.148879 0.716350 1.057733 1.480152 1.220148
    3 0.000000 2.034682 1.408873 0.000000 0.000000 0.000000
    4 0.000000 -2.857524 0.622003 0.114405 0.000000 0.000000
    5 0.000000 -5.238310 0.651979 0.000000 0.000000 0.000000
    6 0.000000 -4.975600 2.058081 0.000000 0.000000 0.000000
    7 -0.862312 -6.414341 -0.674453 0.000000 0.000000 0.000000
    8 -5.116856 -7.864184 -9.637824 -0.478621 0.598261 0.688093
    9 0.096946 -8.450419 -0.009363 0.105918 -0.491330 0.210012
    10 -0.586769 -1.264477 0.200164 -0.069624 -0.305434 -2.606901
    11 1.522835 0.058680 0.016850 0.000037 0.000014 0.130977
    12 1.117947 0.048424 -0.005765 0.000036 0.000000 0.322835
    13 -0.963867 -2.785143 -0.085346 0.108034 0.000001 -0.000001
    14 0.028478 -1.403067 0.006272 -1.446151 -0.000007 -0.000010
    15 0.021412 -0.957782 0.020047 -0.635167 -0.000003 -0.000008
    16 -0.249534 -2.846963 -0.174215 -0.264426 0.016091 0.048523
    17 0.043235 -1.683940 0.096015 -1.322589 -0.002684 -0.000611
    18 0.031729 -1.160830 0.058836 -0.786098 0.000000 0.000000
    19 0.447951 -2.798983 -0.200441 -0.584203 0.073345 0.082665
    20 -0.032909 -1.480207 0.004935 -1.055614 0.000000 0.000000
    21 -0.027023 -1.076921 -0.020212 -0.750426 0.000000 0.000000
    22 1.164474 -2.543939 -0.170327 -0.483579 0.035007 0.072044
    23 0.024033 -1.129040 0.017807 -1.229949 -0.020326 0.095001
    24 0.014896 -0.883992 -0.019846 -0.775384 0.101857 0.002205
    25 -0.103683 -0.128692 -0.009780 0.337048 0.127347 1.428282
    26 0.583509 -1.197274 0.185379 0.062828 -0.796157 -0.812748
    27 1.535926 0.010247 0.005009 -0.062626 0.078894 -0.842377
    28 1.100770 0.004528 -0.010675 0.000000 0.000000 -0.891053
    29 0.957766 -2.746777 -0.090301 -0.017405 -0.044759 0.223929
    30 -0.033419 -1.397128 -0.011255 -0.349220 0.000000 0.000000
    31 -0.022361 -0.957433 0.018783 -0.811576 0.000000 0.000000
    32 0.250029 -2.820664 -0.238396 -0.763388 0.057277 -0.106688
    33 -0.049759 -1.680544 0.100479 -1.613606 0.000000 0.000000
    34 -0.034141 -1.148311 0.084779 -1.193267 0.000000 0.000000
    35 -0.488517 -2.755600 -0.228261 -0.639567 0.054586 -0.144146
    36 0.039889 -1.479791 0.029854 -1.617533 0.000000 0.000000
    37 0.028785 -1.075733 -0.023110 -0.841832 0.000000 0.000000
    38 -1.180679 -2.507216 -0.193861 -0.260565 0.123427 -0.000527
    39 -0.024967 -1.123934 0.017595 -1.253816 0.000000 0.000000
    40 -0.020058 -0.890965 0.010091 -0.839140 0.000000 0.000000
    41 0.120180 -0.051600 -0.063059 0.012085 -2.987703 1.512552
end
