// Created by Crowbar 0.58

$modelname "weapons/tfa_cso/ef_gunkata_man.mdl"

$bodygroup "studio"
{
	studio "ef_gunkata_man_ref_gunkata_man"
}

$CDMaterials "models\weapons\tfa_cso\gunkata\"

$attachment 0 "rflash" 0 0 0
$attachment 1 "lflash" 0 0 0

$sequence "skill0" {
	"ef_gunkata_man_anims\skill0"
	{ event 5011 0 "10" }
	{ event 5001 0 "10" }
	fps 30
	loop
}
$sequence "skill1" {
	"ef_gunkata_man_anims\skill1"
	{ event 5011 0 "10" }
	{ event 5001 0 "10" }
	fps 30
	loop
}
$sequence "skill2" {
	"ef_gunkata_man_anims\skill2"
	{ event 5011 0 "10" }
	{ event 5001 0 "10" }
	fps 30
	loop
}
$sequence "skill3" {
	"ef_gunkata_man_anims\skill3"
	{ event 5011 0 "10" }
	{ event 5001 0 "10" }
	fps 30
	loop
}
$sequence "skill4" {
	"ef_gunkata_man_anims\skill4"
	{ event 5011 0 "10" }
	{ event 5001 0 "10" }
	fps 30
	loop
}
$sequence "skill5" {
	"ef_gunkata_man_anims\skill5"
	{ event 5011 0 "10" }
	{ event 5001 0 "10" }
	fps 30
	loop
}
$sequence "crouch_skill0" {
	"ef_gunkata_man_anims\crouch_skill0"
	{ event 5011 0 "10" }
	{ event 5001 0 "10" }
	fps 30
	loop
}
$sequence "crouch_skill1" {
	"ef_gunkata_man_anims\crouch_skill1"
	{ event 5011 0 "10" }
	{ event 5001 0 "10" }
	fps 30
	loop
}
$sequence "crouch_skill2" {
	"ef_gunkata_man_anims\crouch_skill2"
	{ event 5011 0 "10" }
	{ event 5001 0 "10" }
	fps 30
	loop
}
$sequence "crouch_skill3" {
	"ef_gunkata_man_anims\crouch_skill3"
	{ event 5011 0 "10" }
	{ event 5001 0 "10" }
	fps 30
	loop
}
$sequence "crouch_skill4" {
	"ef_gunkata_man_anims\crouch_skill4"
	{ event 5011 0 "10" }
	{ event 5001 0 "10" }
	fps 30
	loop
}
$sequence "crouch_skill5" {
	"ef_gunkata_man_anims\crouch_skill5"
	{ event 5011 0 "10" }
	{ event 5001 0 "10" }
	fps 30
	loop
}
