version 1
nodes
  0 "Bone01" -1
  1 "Bone_Lefthand" 0
  2 "NEXON_CSO_infi_Root_L" 1
  3 "NEXON_CSO_infi_Dummy_L" 2
  4 "NEXON_CSO_infi_Slide_L" 3
  5 "NEXON_CSO_infi_Nori_L" 3
  6 "NEXON_CSO_infi_Triigger_L" 3
  7 "NEXON_CSO_infi_Magazine_L" 3
  8 "NEXON_CSO_infi_Bullet_L" 7
  9 "Bone05" 1
  10 "Bone06" 9
  11 "Bone07" 10
  12 "Bone21" 1
  13 "Bone22" 12
  14 "Bone23" 13
  15 "Bone17" 1
  16 "Bone18" 15
  17 "Bone19" 16
  18 "Bone13" 1
  19 "Bone14" 18
  20 "Bone15" 19
  21 "Bone09" 1
  22 "Bone10" 21
  23 "Bone11" 22
  24 "Bone_Se_Hand-L" 1
  25 "Bone_L_Upper" 0
  26 "Bone04" -1
  27 "Bone_Righthand" 26
  28 "Bone27" 27
  29 "Bone28" 28
  30 "Bone29" 29
  31 "Bone31" 27
  32 "Bone32" 31
  33 "Bone33" 32
  34 "Bone35" 27
  35 "Bone36" 34
  36 "Bone37" 35
  37 "Bone39" 27
  38 "Bone40" 37
  39 "Bone41" 38
  40 "Bone43" 27
  41 "Bone44" 40
  42 "Bone45" 41
  43 "Bone_Se_Hand-R" 27
  44 "Bone_R_Upper" 26
end
skeleton
  time 0
    0 7.113683 -10.208568 -14.689385 1.555483 -2.959300 -1.529497
    1 -0.071919 -8.498734 -0.104136 -0.113186 0.423791 -0.372385
    2 0.270743 -2.981032 0.317115 0.554697 1.379928 0.480550
    3 -0.000001 -1.808652 1.012938 0.000000 0.000000 0.000000
    4 -0.115836 1.063685 1.652800 0.000000 0.000000 0.000000
    5 0.000000 2.290612 1.335354 0.000000 0.000000 0.000000
    6 0.000000 0.956672 0.002903 0.000000 0.000000 0.000000
    7 -0.194965 1.732989 -0.758107 0.000000 0.000000 0.000000
    8 -0.000001 -0.273071 1.043217 0.000000 0.000000 0.000000
    9 0.583509 -1.197273 0.185379 -0.077883 -0.765982 -0.796225
    10 1.535925 0.010247 0.005009 -0.076524 0.315739 -1.052216
    11 1.100770 0.004527 -0.010675 -0.000003 0.000010 -0.670681
    12 0.957766 -2.746777 -0.090301 0.180503 -0.032999 0.150451
    13 -0.033419 -1.397129 -0.011256 -1.293119 -0.046740 -0.095039
    14 -0.022362 -0.957434 0.018782 -0.467088 0.000000 0.000000
    15 0.250028 -2.820664 -0.238397 -0.282644 0.057278 -0.106682
    16 -0.049759 -1.680546 0.100479 -2.012741 0.000000 -0.000002
    17 -0.034141 -1.148309 0.084778 -1.037448 0.000000 0.000000
    18 -0.488517 -2.755600 -0.228262 -0.195772 0.054591 -0.144142
    19 0.039889 -1.479791 0.029853 -2.042721 0.000000 0.000001
    20 0.028786 -1.075733 -0.023111 -0.841807 0.000000 0.000000
    21 -1.180679 -2.507216 -0.193861 0.008684 0.244081 -0.056771
    22 -0.024966 -1.123935 0.017594 -1.466568 0.000000 0.000001
    23 -0.020058 -0.890966 0.010091 -1.308722 0.000000 0.000000
    24 0.120152 -0.050267 -0.054488 0.287569 3.110905 1.561085
    25 1.304080 8.804363 -0.126173 1.605129 -1.493046 -0.161010
    26 -0.048652 -7.334933 -12.117388 -1.433223 -5.447522 -0.627023
    27 0.096946 -8.450419 -0.009364 0.111815 -0.268816 0.244946
    28 -0.587378 -1.261647 0.201457 0.105388 -0.619417 -2.838878
    29 1.522835 0.058680 0.016851 -0.008552 0.057547 0.424999
    30 1.117948 0.048425 -0.005765 -0.000015 -0.000006 0.429058
    31 -0.963867 -2.785143 -0.085346 0.230931 0.199968 -0.171434
    32 0.028478 -1.403069 0.006271 -1.008232 0.000000 0.000000
    33 0.021414 -0.957782 0.020047 -0.332300 0.000000 0.000000
    34 -0.249534 -2.846964 -0.174215 -0.001189 0.000966 -0.025450
    35 0.043234 -1.683941 0.096014 -2.021618 -0.002966 -0.000335
    36 0.031729 -1.160830 0.058836 -1.017627 0.000007 0.000007
    37 0.447951 -2.798983 -0.200442 -0.016203 0.053277 0.116304
    38 -0.032910 -1.480207 0.004936 -1.783733 0.000000 0.000002
    39 -0.027022 -1.076920 -0.020212 -0.898894 0.000000 0.000000
    40 1.164474 -2.543939 -0.170327 -0.365253 -0.001010 -0.002103
    41 0.024033 -1.129040 0.017806 -1.210698 -0.100239 0.187008
    42 0.014896 -0.883991 -0.019845 -0.909602 0.074161 0.017318
    43 -0.139399 -0.111701 0.014397 0.285534 -0.040597 1.576226
    44 -1.441116 8.792395 -0.163593 -1.643144 1.483711 0.062639
  time 1
    0 7.113683 -10.196849 -14.693292 1.555629 -2.963603 -1.529497
    1 -0.071919 -8.498734 -0.104136 -0.116697 0.426913 -0.381149
    2 0.270743 -2.981032 0.317115 0.554697 1.379928 0.480550
    3 -0.000001 -1.808652 1.012938 0.000000 0.000000 0.000000
    4 -0.115836 1.063685 1.652800 0.000000 0.000000 0.000000
    5 0.000000 2.290612 1.335354 0.000000 0.000000 0.000000
    6 0.000000 0.956672 0.002903 0.000000 0.000000 0.000000
    7 -0.194965 1.732989 -0.758107 0.000000 0.000000 0.000000
    8 -0.000001 -0.273071 1.043217 0.000000 0.000000 0.000000
    9 0.583509 -1.197273 0.185379 -0.077883 -0.765982 -0.796225
    10 1.535925 0.010247 0.005009 -0.076524 0.315739 -1.052216
    11 1.100770 0.004527 -0.010675 -0.000003 0.000010 -0.670681
    12 0.957766 -2.746777 -0.090301 0.180643 -0.032676 0.151014
    13 -0.033419 -1.397129 -0.011256 -1.300955 -0.047063 -0.094835
    14 -0.022362 -0.957434 0.018782 -0.456324 0.000000 0.000000
    15 0.250028 -2.820664 -0.238397 -0.282644 0.057278 -0.106682
    16 -0.049759 -1.680546 0.100479 -2.012741 0.000000 -0.000002
    17 -0.034141 -1.148309 0.084778 -1.037448 0.000000 0.000000
    18 -0.488517 -2.755600 -0.228262 -0.195772 0.054591 -0.144142
    19 0.039889 -1.479791 0.029853 -2.042721 0.000000 0.000001
    20 0.028786 -1.075733 -0.023111 -0.841807 0.000000 0.000000
    21 -1.180679 -2.507216 -0.193861 0.008684 0.244081 -0.056771
    22 -0.024966 -1.123935 0.017594 -1.466568 0.000000 0.000001
    23 -0.020058 -0.890966 0.010091 -1.308722 0.000000 0.000000
    24 0.120152 -0.050267 -0.054488 0.287569 3.110905 1.561085
    25 1.304080 8.804363 -0.126173 1.605129 -1.493046 -0.161010
    26 -0.048652 -7.323214 -12.121295 -1.437917 -5.450179 -0.627499
    27 0.096946 -8.450419 -0.009364 0.121549 -0.270291 0.246030
    28 -0.587378 -1.261647 0.201457 0.105722 -0.619369 -2.839450
    29 1.522835 0.058680 0.016851 -0.009300 0.057427 0.411801
    30 1.117948 0.048425 -0.005765 -0.000015 -0.000006 0.474008
    31 -0.963867 -2.785143 -0.085346 0.230931 0.199968 -0.171434
    32 0.028478 -1.403069 0.006271 -1.008232 0.000000 0.000000
    33 0.021414 -0.957782 0.020047 -0.332300 0.000000 0.000000
    34 -0.249534 -2.846964 -0.174215 -0.001189 0.000966 -0.025450
    35 0.043234 -1.683941 0.096014 -2.021618 -0.002966 -0.000335
    36 0.031729 -1.160830 0.058836 -1.017627 0.000007 0.000007
    37 0.447951 -2.798983 -0.200442 -0.016203 0.053277 0.116304
    38 -0.032910 -1.480207 0.004936 -1.783733 0.000000 0.000002
    39 -0.027022 -1.076920 -0.020212 -0.898894 0.000000 0.000000
    40 1.164474 -2.543939 -0.170327 -0.365253 -0.001010 -0.002103
    41 0.024033 -1.129040 0.017806 -1.210698 -0.100239 0.187008
    42 0.014896 -0.883991 -0.019845 -0.909602 0.074161 0.017318
    43 -0.139399 -0.111701 0.014397 0.285534 -0.040597 1.576226
    44 -1.441116 8.792395 -0.163593 -1.643144 1.483711 0.062639
  time 2
    0 7.113683 -10.173411 -14.708917 1.555848 -2.968577 -1.529497
    1 -0.071919 -8.498734 -0.104136 -0.120751 0.430422 -0.391118
    2 0.270743 -2.981032 0.317115 0.554697 1.379928 0.480550
    3 -0.000001 -1.808652 1.012938 0.000000 0.000000 0.000000
    4 -0.115836 1.063685 1.652800 0.000000 0.000000 0.000000
    5 0.000000 2.290612 1.335354 0.000000 0.000000 0.000000
    6 0.000000 0.956672 0.002903 0.000000 0.000000 0.000000
    7 -0.194965 1.732989 -0.758107 0.000000 0.000000 0.000000
    8 -0.000001 -0.273071 1.043217 0.000000 0.000000 0.000000
    9 0.583509 -1.197273 0.185379 -0.077883 -0.765982 -0.796225
    10 1.535925 0.010247 0.005009 -0.076524 0.315739 -1.052216
    11 1.100770 0.004527 -0.010675 -0.000003 0.000010 -0.670681
    12 0.957766 -2.746777 -0.090301 0.180877 -0.032136 0.151961
    13 -0.033419 -1.397129 -0.011256 -1.313949 -0.047591 -0.094499
    14 -0.022362 -0.957434 0.018782 -0.438395 0.000000 0.000000
    15 0.250028 -2.820664 -0.238397 -0.282644 0.057278 -0.106682
    16 -0.049759 -1.680546 0.100479 -2.012741 0.000000 -0.000002
    17 -0.034141 -1.148309 0.084778 -1.037448 0.000000 0.000000
    18 -0.488517 -2.755600 -0.228262 -0.195772 0.054591 -0.144142
    19 0.039889 -1.479791 0.029853 -2.042721 0.000000 0.000001
    20 0.028786 -1.075733 -0.023111 -0.841807 0.000000 0.000000
    21 -1.180679 -2.507216 -0.193861 0.008684 0.244081 -0.056771
    22 -0.024966 -1.123935 0.017594 -1.466568 0.000000 0.000001
    23 -0.020058 -0.890966 0.010091 -1.308722 0.000000 0.000000
    24 0.120152 -0.050267 -0.054488 0.287569 3.110905 1.561085
    25 1.304080 8.804363 -0.126173 1.605129 -1.493046 -0.161010
    26 -0.048652 -7.299776 -12.136920 -1.443245 -5.453102 -0.627976
    27 0.096946 -8.450419 -0.009364 0.132620 -0.271986 0.247256
    28 -0.587378 -1.261647 0.201457 0.106100 -0.619321 -2.840086
    29 1.522835 0.058680 0.016851 -0.010155 0.057295 0.397054
    30 1.117948 0.048425 -0.005765 -0.000015 0.000006 0.524308
    31 -0.963867 -2.785143 -0.085346 0.230931 0.199968 -0.171434
    32 0.028478 -1.403069 0.006271 -1.008232 0.000000 0.000000
    33 0.021414 -0.957782 0.020047 -0.332300 0.000000 0.000000
    34 -0.249534 -2.846964 -0.174215 -0.001189 0.000966 -0.025450
    35 0.043234 -1.683941 0.096014 -2.021618 -0.002966 -0.000335
    36 0.031729 -1.160830 0.058836 -1.017627 0.000007 0.000007
    37 0.447951 -2.798983 -0.200442 -0.016203 0.053277 0.116304
    38 -0.032910 -1.480207 0.004936 -1.783733 0.000000 0.000002
    39 -0.027022 -1.076920 -0.020212 -0.898894 0.000000 0.000000
    40 1.164474 -2.543939 -0.170327 -0.365253 -0.001010 -0.002103
    41 0.024033 -1.129040 0.017806 -1.210698 -0.100239 0.187008
    42 0.014896 -0.883991 -0.019845 -0.909602 0.074161 0.017318
    43 -0.139399 -0.111701 0.014397 0.285534 -0.040597 1.576226
    44 -1.441116 8.792395 -0.163593 -1.643144 1.483711 0.062639
  time 3
    0 7.113683 -10.146066 -14.724543 1.556067 -2.973167 -1.529497
    1 -0.071919 -8.498734 -0.104136 -0.124588 0.433687 -0.400534
    2 0.270743 -2.981032 0.317115 0.554697 1.379928 0.480550
    3 -0.000001 -1.808652 1.012938 0.000000 0.000000 0.000000
    4 -0.115836 1.063685 1.652800 0.000000 0.000000 0.000000
    5 0.000000 2.290612 1.335354 0.000000 0.000000 0.000000
    6 0.000000 0.956672 0.002903 0.000000 0.000000 0.000000
    7 -0.194965 1.732989 -0.758107 0.000000 0.000000 0.000000
    8 -0.000001 -0.273071 1.043217 0.000000 0.000000 0.000000
    9 0.583509 -1.197273 0.185379 -0.077883 -0.765982 -0.796225
    10 1.535925 0.010247 0.005009 -0.076524 0.315739 -1.052216
    11 1.100770 0.004527 -0.010675 -0.000003 0.000010 -0.670681
    12 0.957766 -2.746777 -0.090301 0.180924 -0.032028 0.152153
    13 -0.033419 -1.397129 -0.011256 -1.316547 -0.047687 -0.094428
    14 -0.022362 -0.957434 0.018782 -0.434828 0.000000 0.000000
    15 0.250028 -2.820664 -0.238397 -0.282644 0.057278 -0.106682
    16 -0.049759 -1.680546 0.100479 -2.012741 0.000000 -0.000002
    17 -0.034141 -1.148309 0.084778 -1.037448 0.000000 0.000000
    18 -0.488517 -2.755600 -0.228262 -0.195772 0.054591 -0.144142
    19 0.039889 -1.479791 0.029853 -2.042721 0.000000 0.000001
    20 0.028786 -1.075733 -0.023111 -0.841807 0.000000 0.000000
    21 -1.180679 -2.507216 -0.193861 0.008684 0.244081 -0.056771
    22 -0.024966 -1.123935 0.017594 -1.466568 0.000000 0.000001
    23 -0.020058 -0.890966 0.010091 -1.308722 0.000000 0.000000
    24 0.120152 -0.050267 -0.054488 0.287569 3.110905 1.561085
    25 1.304080 8.804363 -0.126173 1.605129 -1.493046 -0.161010
    26 -0.048652 -7.272431 -12.156452 -1.448256 -5.455936 -0.628452
    27 0.096946 -8.450419 -0.009364 0.143023 -0.273601 0.248369
    28 -0.587378 -1.261647 0.201457 0.106492 -0.619261 -2.840772
    29 1.522835 0.058680 0.016851 -0.010946 0.057139 0.383113
    30 1.117948 0.048425 -0.005765 -0.000015 0.000006 0.571917
    31 -0.963867 -2.785143 -0.085346 0.230931 0.199968 -0.171434
    32 0.028478 -1.403069 0.006271 -1.008232 0.000000 0.000000
    33 0.021414 -0.957782 0.020047 -0.332300 0.000000 0.000000
    34 -0.249534 -2.846964 -0.174215 -0.001189 0.000966 -0.025450
    35 0.043234 -1.683941 0.096014 -2.021618 -0.002966 -0.000335
    36 0.031729 -1.160830 0.058836 -1.017627 0.000007 0.000007
    37 0.447951 -2.798983 -0.200442 -0.016203 0.053277 0.116304
    38 -0.032910 -1.480207 0.004936 -1.783733 0.000000 0.000002
    39 -0.027022 -1.076920 -0.020212 -0.898894 0.000000 0.000000
    40 1.164474 -2.543939 -0.170327 -0.365253 -0.001010 -0.002103
    41 0.024033 -1.129040 0.017806 -1.210698 -0.100239 0.187008
    42 0.014896 -0.883991 -0.019845 -0.909602 0.074161 0.017318
    43 -0.139399 -0.111701 0.014397 0.285534 -0.040597 1.576226
    44 -1.441116 8.792395 -0.163593 -1.643144 1.483711 0.062639
  time 4
    0 7.113683 -10.118722 -14.740168 1.556214 -2.976610 -1.529497
    1 -0.071919 -8.498734 -0.104136 -0.127462 0.436095 -0.407537
    2 0.270743 -2.981032 0.317115 0.554697 1.379928 0.480550
    3 -0.000001 -1.808652 1.012938 0.000000 0.000000 0.000000
    4 -0.115836 1.063685 1.652800 0.000000 0.000000 0.000000
    5 0.000000 2.290612 1.335354 0.000000 0.000000 0.000000
    6 0.000000 0.956672 0.002903 0.000000 0.000000 0.000000
    7 -0.194965 1.732989 -0.758107 0.000000 0.000000 0.000000
    8 -0.000001 -0.273071 1.043217 0.000000 0.000000 0.000000
    9 0.583509 -1.197273 0.185379 -0.077883 -0.765982 -0.796225
    10 1.535925 0.010247 0.005009 -0.076524 0.315739 -1.052216
    11 1.100770 0.004527 -0.010675 -0.000003 0.000010 -0.670681
    12 0.957766 -2.746777 -0.090301 0.180503 -0.032999 0.150451
    13 -0.033419 -1.397129 -0.011256 -1.293119 -0.046740 -0.095039
    14 -0.022362 -0.957434 0.018782 -0.467088 0.000000 0.000000
    15 0.250028 -2.820664 -0.238397 -0.282644 0.057278 -0.106682
    16 -0.049759 -1.680546 0.100479 -2.012741 0.000000 -0.000002
    17 -0.034141 -1.148309 0.084778 -1.037448 0.000000 0.000000
    18 -0.488517 -2.755600 -0.228262 -0.195772 0.054591 -0.144142
    19 0.039889 -1.479791 0.029853 -2.042721 0.000000 0.000001
    20 0.028786 -1.075733 -0.023111 -0.841807 0.000000 0.000000
    21 -1.180679 -2.507216 -0.193861 0.008684 0.244081 -0.056771
    22 -0.024966 -1.123935 0.017594 -1.466568 0.000000 0.000001
    23 -0.020058 -0.890966 0.010091 -1.308722 0.000000 0.000000
    24 0.120152 -0.050267 -0.054488 0.287569 3.110905 1.561085
    25 1.304080 8.804363 -0.126173 1.605129 -1.493046 -0.161010
    26 -0.048652 -7.245086 -12.168171 -1.451935 -5.457973 -0.628738
    27 0.096946 -8.450419 -0.009364 0.150751 -0.274797 0.249197
    28 -0.587378 -1.261647 0.201457 0.106899 -0.619189 -2.841490
    29 1.522835 0.058680 0.016851 -0.011566 0.057019 0.372270
    30 1.117948 0.048425 -0.005765 -0.000015 0.000006 0.608857
    31 -0.963867 -2.785143 -0.085346 0.230931 0.199968 -0.171434
    32 0.028478 -1.403069 0.006271 -1.008232 0.000000 0.000000
    33 0.021414 -0.957782 0.020047 -0.332300 0.000000 0.000000
    34 -0.249534 -2.846964 -0.174215 -0.001189 0.000966 -0.025450
    35 0.043234 -1.683941 0.096014 -2.021618 -0.002966 -0.000335
    36 0.031729 -1.160830 0.058836 -1.017627 0.000007 0.000007
    37 0.447951 -2.798983 -0.200442 -0.016203 0.053277 0.116304
    38 -0.032910 -1.480207 0.004936 -1.783733 0.000000 0.000002
    39 -0.027022 -1.076920 -0.020212 -0.898894 0.000000 0.000000
    40 1.164474 -2.543939 -0.170327 -0.365253 -0.001010 -0.002103
    41 0.024033 -1.129040 0.017806 -1.210698 -0.100239 0.187008
    42 0.014896 -0.883991 -0.019845 -0.909602 0.074161 0.017318
    43 -0.139399 -0.111701 0.014397 0.285534 -0.040597 1.576226
    44 -1.441116 8.792395 -0.163593 -1.643144 1.483711 0.062639
  time 5
    0 7.113683 -10.110909 -14.747981 1.556214 -2.977949 -1.529497
    1 -0.071919 -8.498734 -0.104136 -0.128588 0.437034 -0.410287
    2 0.270743 -2.981032 0.317115 0.554697 1.379928 0.480550
    3 -0.000001 -1.808652 1.012938 0.000000 0.000000 0.000000
    4 -0.115836 1.063685 1.652800 0.000000 0.000000 0.000000
    5 0.000000 2.290612 1.335354 0.000000 0.000000 0.000000
    6 0.000000 0.956672 0.002903 0.000000 0.000000 0.000000
    7 -0.194965 1.732989 -0.758107 0.000000 0.000000 0.000000
    8 -0.000001 -0.273071 1.043217 0.000000 0.000000 0.000000
    9 0.583509 -1.197273 0.185379 -0.077883 -0.765982 -0.796225
    10 1.535925 0.010247 0.005009 -0.076524 0.315739 -1.052216
    11 1.100770 0.004527 -0.010675 -0.000003 0.000010 -0.670681
    12 0.957766 -2.746777 -0.090301 0.179458 -0.035156 0.146664
    13 -0.033419 -1.397129 -0.011256 -1.216336 -0.043720 -0.096813
    14 -0.022362 -0.957434 0.018782 -0.567211 0.000000 0.000000
    15 0.250028 -2.820664 -0.238397 -0.282644 0.057278 -0.106682
    16 -0.049759 -1.680546 0.100479 -2.012741 0.000000 -0.000002
    17 -0.034141 -1.148309 0.084778 -1.037448 0.000000 0.000000
    18 -0.488517 -2.755600 -0.228262 -0.195772 0.054591 -0.144142
    19 0.039889 -1.479791 0.029853 -2.042721 0.000000 0.000001
    20 0.028786 -1.075733 -0.023111 -0.841807 0.000000 0.000000
    21 -1.180679 -2.507216 -0.193861 0.008684 0.244081 -0.056771
    22 -0.024966 -1.123935 0.017594 -1.466568 0.000000 0.000001
    23 -0.020058 -0.890966 0.010091 -1.308722 0.000000 0.000000
    24 0.120152 -0.050267 -0.054488 0.287569 3.110905 1.561085
    25 1.304080 8.804363 -0.126173 1.605129 -1.493046 -0.161010
    26 -0.048652 -7.237274 -12.175984 -1.453394 -5.458859 -0.628833
    27 0.096946 -8.450419 -0.009364 0.153773 -0.275256 0.249539
    28 -0.587378 -1.261647 0.201457 0.107320 -0.619129 -2.842209
    29 1.522835 0.058680 0.016851 -0.011866 0.056959 0.366914
    30 1.117948 0.048425 -0.005765 -0.000015 0.000006 0.627119
    31 -0.963867 -2.785143 -0.085346 0.230931 0.199968 -0.171434
    32 0.028478 -1.403069 0.006271 -1.008232 0.000000 0.000000
    33 0.021414 -0.957782 0.020047 -0.332300 0.000000 0.000000
    34 -0.249534 -2.846964 -0.174215 -0.001189 0.000966 -0.025450
    35 0.043234 -1.683941 0.096014 -2.021618 -0.002966 -0.000335
    36 0.031729 -1.160830 0.058836 -1.017627 0.000007 0.000007
    37 0.447951 -2.798983 -0.200442 -0.016203 0.053277 0.116304
    38 -0.032910 -1.480207 0.004936 -1.783733 0.000000 0.000002
    39 -0.027022 -1.076920 -0.020212 -0.898894 0.000000 0.000000
    40 1.164474 -2.543939 -0.170327 -0.365253 -0.001010 -0.002103
    41 0.024033 -1.129040 0.017806 -1.210698 -0.100239 0.187008
    42 0.014896 -0.883991 -0.019845 -0.909602 0.074161 0.017318
    43 -0.139399 -0.111701 0.014397 0.285534 -0.040597 1.576226
    44 -1.441116 8.792395 -0.163593 -1.643144 1.483711 0.062639
  time 6
    0 7.113683 -10.114815 -14.744074 1.556214 -2.977184 -1.529497
    1 -0.071919 -8.498734 -0.104136 -0.128059 0.436727 -0.408961
    2 0.270743 -2.981032 0.317115 0.554697 1.379928 0.480550
    3 -0.000001 -1.808652 1.012938 0.000000 0.000000 0.000000
    4 -0.115836 1.063685 1.652800 0.000000 0.000000 0.000000
    5 0.000000 2.290612 1.335354 0.000000 0.000000 0.000000
    6 0.000000 0.956672 0.002903 0.000000 0.000000 0.000000
    7 -0.194965 1.732989 -0.758107 0.000000 0.000000 0.000000
    8 -0.000001 -0.273071 1.043217 0.000000 0.000000 0.000000
    9 0.583509 -1.197273 0.185379 -0.077883 -0.765982 -0.796225
    10 1.535925 0.010247 0.005009 -0.076524 0.315739 -1.052216
    11 1.100770 0.004527 -0.010675 -0.000003 0.000010 -0.670681
    12 0.957766 -2.746777 -0.090301 0.178039 -0.037973 0.141702
    13 -0.033419 -1.397129 -0.011256 -1.102523 -0.038914 -0.099030
    14 -0.022362 -0.957434 0.018782 -0.714974 0.000000 0.000000
    15 0.250028 -2.820664 -0.238397 -0.282644 0.057278 -0.106682
    16 -0.049759 -1.680546 0.100479 -2.012741 0.000000 -0.000002
    17 -0.034141 -1.148309 0.084778 -1.037448 0.000000 0.000000
    18 -0.488517 -2.755600 -0.228262 -0.195772 0.054591 -0.144142
    19 0.039889 -1.479791 0.029853 -2.042721 0.000000 0.000001
    20 0.028786 -1.075733 -0.023111 -0.841807 0.000000 0.000000
    21 -1.180679 -2.507216 -0.193861 0.008684 0.244081 -0.056771
    22 -0.024966 -1.123935 0.017594 -1.466568 0.000000 0.000001
    23 -0.020058 -0.890966 0.010091 -1.308722 0.000000 0.000000
    24 0.120152 -0.050267 -0.054488 0.287569 3.110905 1.561085
    25 1.304080 8.804363 -0.126173 1.605129 -1.493046 -0.161010
    26 -0.048652 -7.241180 -12.172077 -1.452633 -5.458593 -0.628833
    27 0.096946 -8.450419 -0.009364 0.152409 -0.274977 0.249425
    28 -0.587378 -1.261647 0.201457 0.107727 -0.619069 -2.842911
    29 1.522835 0.058680 0.016851 -0.011887 0.056959 0.366656
    30 1.117948 0.048425 -0.005765 -0.000015 0.000006 0.628080
    31 -0.963867 -2.785143 -0.085346 0.230931 0.199968 -0.171434
    32 0.028478 -1.403069 0.006271 -1.008232 0.000000 0.000000
    33 0.021414 -0.957782 0.020047 -0.332300 0.000000 0.000000
    34 -0.249534 -2.846964 -0.174215 -0.001189 0.000966 -0.025450
    35 0.043234 -1.683941 0.096014 -2.021618 -0.002966 -0.000335
    36 0.031729 -1.160830 0.058836 -1.017627 0.000007 0.000007
    37 0.447951 -2.798983 -0.200442 -0.016203 0.053277 0.116304
    38 -0.032910 -1.480207 0.004936 -1.783733 0.000000 0.000002
    39 -0.027022 -1.076920 -0.020212 -0.898894 0.000000 0.000000
    40 1.164474 -2.543939 -0.170327 -0.365253 -0.001010 -0.002103
    41 0.024033 -1.129040 0.017806 -1.210698 -0.100239 0.187008
    42 0.014896 -0.883991 -0.019845 -0.909602 0.074161 0.017318
    43 -0.139399 -0.111701 0.014397 0.285534 -0.040597 1.576226
    44 -1.441116 8.792395 -0.163593 -1.643144 1.483711 0.062639
  time 7
    0 7.113683 -10.126535 -14.736262 1.556141 -2.975271 -1.529497
    1 -0.071919 -8.498734 -0.104136 -0.126595 0.435850 -0.405420
    2 0.270743 -2.981032 0.317115 0.554697 1.379928 0.480550
    3 -0.000001 -1.808652 1.012938 0.000000 0.000000 0.000000
    4 -0.115836 1.063685 1.652800 0.000000 0.000000 0.000000
    5 0.000000 2.290612 1.335354 0.000000 0.000000 0.000000
    6 0.000000 0.956672 0.002903 0.000000 0.000000 0.000000
    7 -0.194965 1.732989 -0.758107 0.000000 0.000000 0.000000
    8 -0.000001 -0.273071 1.043217 0.000000 0.000000 0.000000
    9 0.583509 -1.197273 0.185379 -0.077883 -0.765982 -0.796225
    10 1.535925 0.010247 0.005009 -0.076524 0.315739 -1.052216
    11 1.100770 0.004527 -0.010675 -0.000003 0.000010 -0.670681
    12 0.957766 -2.746777 -0.090301 0.176433 -0.041185 0.136093
    13 -0.033419 -1.397129 -0.011256 -1.001621 -0.033952 -0.100672
    14 -0.022362 -0.957434 0.018782 -0.853534 0.000000 0.000000
    15 0.250028 -2.820664 -0.238397 -0.282644 0.057278 -0.106682
    16 -0.049759 -1.680546 0.100479 -2.012741 0.000000 -0.000002
    17 -0.034141 -1.148309 0.084778 -1.037448 0.000000 0.000000
    18 -0.488517 -2.755600 -0.228262 -0.195772 0.054591 -0.144142
    19 0.039889 -1.479791 0.029853 -2.042721 0.000000 0.000001
    20 0.028786 -1.075733 -0.023111 -0.841807 0.000000 0.000000
    21 -1.180679 -2.507216 -0.193861 0.008684 0.244081 -0.056771
    22 -0.024966 -1.123935 0.017594 -1.466568 0.000000 0.000001
    23 -0.020058 -0.890966 0.010091 -1.308722 0.000000 0.000000
    24 0.120152 -0.050267 -0.054488 0.287569 3.110905 1.561085
    25 1.304080 8.804363 -0.126173 1.605129 -1.493046 -0.161010
    26 -0.048652 -7.252899 -12.164265 -1.450666 -5.457619 -0.628643
    27 0.096946 -8.450419 -0.009364 0.148692 -0.274219 0.249168
    28 -0.587378 -1.261647 0.201457 0.108119 -0.619009 -2.843596
    29 1.522835 0.058680 0.016851 -0.011759 0.056983 0.369011
    30 1.117948 0.048425 -0.005765 -0.000015 0.000006 0.619975
    31 -0.963867 -2.785143 -0.085346 0.230931 0.199968 -0.171434
    32 0.028478 -1.403069 0.006271 -1.008232 0.000000 0.000000
    33 0.021414 -0.957782 0.020047 -0.332300 0.000000 0.000000
    34 -0.249534 -2.846964 -0.174215 -0.001189 0.000966 -0.025450
    35 0.043234 -1.683941 0.096014 -2.021618 -0.002966 -0.000335
    36 0.031729 -1.160830 0.058836 -1.017627 0.000007 0.000007
    37 0.447951 -2.798983 -0.200442 -0.016203 0.053277 0.116304
    38 -0.032910 -1.480207 0.004936 -1.783733 0.000000 0.000002
    39 -0.027022 -1.076920 -0.020212 -0.898894 0.000000 0.000000
    40 1.164474 -2.543939 -0.170327 -0.365253 -0.001010 -0.002103
    41 0.024033 -1.129040 0.017806 -1.210698 -0.100239 0.187008
    42 0.014896 -0.883991 -0.019845 -0.909602 0.074161 0.017318
    43 -0.139399 -0.111701 0.014397 0.285534 -0.040597 1.576226
    44 -1.441116 8.792395 -0.163593 -1.643144 1.483711 0.062639
  time 8
    0 7.113683 -10.142160 -14.728449 1.555994 -2.972498 -1.529497
    1 -0.071919 -8.498734 -0.104136 -0.124493 0.434524 -0.400277
    2 0.270743 -2.981032 0.317115 0.554697 1.379928 0.480550
    3 -0.000001 -1.808652 1.012938 0.000000 0.000000 0.000000
    4 -0.115836 1.063685 1.652800 0.000000 0.000000 0.000000
    5 0.000000 2.290612 1.335354 0.000000 0.000000 0.000000
    6 0.000000 0.956672 0.002903 0.000000 0.000000 0.000000
    7 -0.194965 1.732989 -0.758107 0.000000 0.000000 0.000000
    8 -0.000001 -0.273071 1.043217 0.000000 0.000000 0.000000
    9 0.583509 -1.197273 0.185379 -0.077883 -0.765982 -0.796225
    10 1.535925 0.010247 0.005009 -0.076524 0.315739 -1.052216
    11 1.100770 0.004527 -0.010675 -0.000003 0.000010 -0.670681
    12 0.957766 -2.746777 -0.090301 0.174873 -0.044492 0.130317
    13 -0.033419 -1.397129 -0.011256 -0.921550 -0.028943 -0.101834
    14 -0.022362 -0.957434 0.018782 -0.926079 0.000000 0.000000
    15 0.250028 -2.820664 -0.238397 -0.282644 0.057278 -0.106682
    16 -0.049759 -1.680546 0.100479 -2.012741 0.000000 -0.000002
    17 -0.034141 -1.148309 0.084778 -1.037448 0.000000 0.000000
    18 -0.488517 -2.755600 -0.228262 -0.195772 0.054591 -0.144142
    19 0.039889 -1.479791 0.029853 -2.042721 0.000000 0.000001
    20 0.028786 -1.075733 -0.023111 -0.841807 0.000000 0.000000
    21 -1.180679 -2.507216 -0.193861 0.008684 0.244081 -0.056771
    22 -0.024966 -1.123935 0.017594 -1.466568 0.000000 0.000001
    23 -0.020058 -0.890966 0.010091 -1.308722 0.000000 0.000000
    24 0.120152 -0.050267 -0.054488 0.287569 3.110905 1.561085
    25 1.304080 8.804363 -0.126173 1.605129 -1.493046 -0.161010
    26 -0.044746 -7.268525 -12.152546 -1.447812 -5.456202 -0.628452
    27 0.096946 -8.450419 -0.009364 0.143237 -0.273163 0.248712
    28 -0.587378 -1.261647 0.201457 0.108482 -0.618961 -2.844217
    29 1.522835 0.058680 0.016851 -0.011502 0.057031 0.373368
    30 1.117948 0.048425 -0.005765 -0.000015 0.000006 0.605141
    31 -0.963867 -2.785143 -0.085346 0.230931 0.199968 -0.171434
    32 0.028478 -1.403069 0.006271 -1.008232 0.000000 0.000000
    33 0.021414 -0.957782 0.020047 -0.332300 0.000000 0.000000
    34 -0.249534 -2.846964 -0.174215 -0.001189 0.000966 -0.025450
    35 0.043234 -1.683941 0.096014 -2.021618 -0.002966 -0.000335
    36 0.031729 -1.160830 0.058836 -1.017627 0.000007 0.000007
    37 0.447951 -2.798983 -0.200442 -0.016203 0.053277 0.116304
    38 -0.032910 -1.480207 0.004936 -1.783733 0.000000 0.000002
    39 -0.027022 -1.076920 -0.020212 -0.898894 0.000000 0.000000
    40 1.164474 -2.543939 -0.170327 -0.365253 -0.001010 -0.002103
    41 0.024033 -1.129040 0.017806 -1.210698 -0.100239 0.187008
    42 0.014896 -0.883991 -0.019845 -0.909602 0.074161 0.017318
    43 -0.139399 -0.111701 0.014397 0.285534 -0.040597 1.576226
    44 -1.441116 8.792395 -0.163593 -1.643144 1.483711 0.062639
  time 9
    0 7.113683 -10.157786 -14.716730 1.555848 -2.969246 -1.529497
    1 -0.071919 -8.498734 -0.104136 -0.121998 0.432789 -0.394145
    2 0.270743 -2.981032 0.317115 0.554697 1.379928 0.480550
    3 -0.000001 -1.808652 1.012938 0.000000 0.000000 0.000000
    4 -0.115836 1.063685 1.652800 0.000000 0.000000 0.000000
    5 0.000000 2.290612 1.335354 0.000000 0.000000 0.000000
    6 0.000000 0.843387 0.002903 0.000000 0.000000 0.000000
    7 -0.194965 1.732989 -0.758107 0.000000 0.000000 0.000000
    8 -0.000001 -0.273071 1.043217 0.000000 0.000000 0.000000
    9 0.583509 -1.197273 0.185379 -0.077883 -0.765982 -0.796225
    10 1.535925 0.010247 0.005009 -0.076524 0.315739 -1.052216
    11 1.100770 0.004527 -0.010675 -0.000003 0.000010 -0.670681
    12 0.957766 -2.746777 -0.090301 0.173563 -0.047608 0.124900
    13 -0.033419 -1.397129 -0.011256 -0.844848 -0.023526 -0.102685
    14 -0.022362 -0.957434 0.018782 -0.893501 0.000000 0.000000
    15 0.250028 -2.820664 -0.238397 -0.282644 0.057278 -0.106682
    16 -0.049759 -1.680546 0.100479 -2.012741 0.000000 -0.000002
    17 -0.034141 -1.148309 0.084778 -1.037448 0.000000 0.000000
    18 -0.488517 -2.755600 -0.228262 -0.195772 0.054591 -0.144142
    19 0.039889 -1.479791 0.029853 -2.042721 0.000000 0.000001
    20 0.028786 -1.075733 -0.023111 -0.841807 0.000000 0.000000
    21 -1.180679 -2.507216 -0.193861 0.008684 0.244081 -0.056771
    22 -0.024966 -1.123935 0.017594 -1.466568 0.000000 0.000001
    23 -0.020058 -0.890966 0.010091 -1.308722 0.000000 0.000000
    24 0.120152 -0.050267 -0.054488 0.287569 3.110905 1.561085
    25 1.304080 8.804363 -0.126173 1.605129 -1.493046 -0.161010
    26 -0.040839 -7.284150 -12.140827 -1.444387 -5.454430 -0.628262
    27 0.096946 -8.450419 -0.009364 0.136685 -0.271966 0.248141
    28 -0.587378 -1.261647 0.201457 0.108801 -0.618901 -2.844772
    29 1.522835 0.058680 0.016851 -0.011182 0.057091 0.379015
    30 1.117948 0.048425 -0.005765 -0.000015 0.000006 0.585854
    31 -0.963867 -2.785143 -0.085346 0.230931 0.199968 -0.171434
    32 0.028478 -1.403069 0.006271 -1.008232 0.000000 0.000000
    33 0.021414 -0.957782 0.020047 -0.332300 0.000000 0.000000
    34 -0.249534 -2.846964 -0.174215 -0.001189 0.000966 -0.025450
    35 0.043234 -1.683941 0.096014 -2.021618 -0.002966 -0.000335
    36 0.031729 -1.160830 0.058836 -1.017627 0.000007 0.000007
    37 0.447951 -2.798983 -0.200442 -0.016203 0.053277 0.116304
    38 -0.032910 -1.480207 0.004936 -1.783733 0.000000 0.000002
    39 -0.027022 -1.076920 -0.020212 -0.898894 0.000000 0.000000
    40 1.164474 -2.543939 -0.170327 -0.365253 -0.001010 -0.002103
    41 0.024033 -1.129040 0.017806 -1.210698 -0.100239 0.187008
    42 0.014896 -0.883991 -0.019845 -0.909602 0.074161 0.017318
    43 -0.139399 -0.111701 0.014397 0.285534 -0.040597 1.576226
    44 -1.441116 8.792395 -0.163593 -1.643144 1.483711 0.062639
  time 10
    0 7.113683 -10.177317 -14.705011 1.555775 -2.965899 -1.529497
    1 -0.071919 -8.498734 -0.104136 -0.119368 0.430749 -0.387676
    2 0.270743 -2.981032 0.317115 0.554697 1.379928 0.480550
    3 -0.000001 -1.808652 1.012938 0.000000 0.000000 0.000000
    4 -0.115836 1.063685 1.652800 0.000000 0.000000 0.000000
    5 0.000000 2.290612 1.335354 0.000000 0.000000 0.000000
    6 0.000000 0.706664 0.002903 0.000000 0.000000 0.000000
    7 -0.194965 1.732989 -0.758107 0.000000 0.000000 0.000000
    8 -0.000001 -0.273071 1.043217 0.000000 0.000000 0.000000
    9 0.583509 -1.197273 0.185379 -0.077883 -0.765982 -0.796225
    10 1.535925 0.010247 0.005009 -0.076524 0.315739 -1.052216
    11 1.100770 0.004527 -0.010675 -0.000003 0.000010 -0.670681
    12 0.957766 -2.746777 -0.090301 0.172674 -0.050245 0.120334
    13 -0.033419 -1.397129 -0.011256 -0.783089 -0.018864 -0.103104
    14 -0.022362 -0.957434 0.018782 -0.794079 0.000000 0.000000
    15 0.250028 -2.820664 -0.238397 -0.282644 0.057278 -0.106682
    16 -0.049759 -1.680546 0.100479 -2.012741 0.000000 -0.000002
    17 -0.034141 -1.148309 0.084778 -1.037448 0.000000 0.000000
    18 -0.488517 -2.755600 -0.228262 -0.195772 0.054591 -0.144142
    19 0.039889 -1.479791 0.029853 -2.042721 0.000000 0.000001
    20 0.028786 -1.075733 -0.023111 -0.841807 0.000000 0.000000
    21 -1.180679 -2.507216 -0.193861 0.008684 0.244081 -0.056771
    22 -0.024966 -1.123935 0.017594 -1.466568 0.000000 0.000001
    23 -0.020058 -0.890966 0.010091 -1.308722 0.000000 0.000000
    24 0.120152 -0.050267 -0.054488 0.287569 3.110905 1.561085
    25 1.304080 8.804363 -0.126173 1.605129 -1.493046 -0.161010
    26 -0.036933 -7.307588 -12.129107 -1.440898 -5.452659 -0.627976
    27 0.096946 -8.450419 -0.009364 0.129652 -0.270770 0.247456
    28 -0.587378 -1.261647 0.201457 0.109077 -0.618865 -2.845229
    29 1.522835 0.058680 0.016851 -0.010818 0.057163 0.385275
    30 1.117948 0.048425 -0.005765 -0.000015 0.000006 0.564420
    31 -0.963867 -2.785143 -0.085346 0.230931 0.199968 -0.171434
    32 0.028478 -1.403069 0.006271 -1.008232 0.000000 0.000000
    33 0.021414 -0.957782 0.020047 -0.332300 0.000000 0.000000
    34 -0.249534 -2.846964 -0.174215 -0.001189 0.000966 -0.025450
    35 0.043234 -1.683941 0.096014 -2.021618 -0.002966 -0.000335
    36 0.031729 -1.160830 0.058836 -1.017627 0.000007 0.000007
    37 0.447951 -2.798983 -0.200442 -0.016203 0.053277 0.116304
    38 -0.032910 -1.480207 0.004936 -1.783733 0.000000 0.000002
    39 -0.027022 -1.076920 -0.020212 -0.898894 0.000000 0.000000
    40 1.164474 -2.543939 -0.170327 -0.365253 -0.001010 -0.002103
    41 0.024033 -1.129040 0.017806 -1.210698 -0.100239 0.187008
    42 0.014896 -0.883991 -0.019845 -0.909602 0.074161 0.017318
    43 -0.139399 -0.111701 0.014397 0.285534 -0.040597 1.576226
    44 -1.441116 8.792395 -0.163593 -1.643144 1.483711 0.062639
  time 11
    0 7.113683 -10.192943 -14.697198 1.555629 -2.962838 -1.529497
    1 -0.071919 -8.498734 -0.104136 -0.116860 0.428504 -0.381485
    2 0.270743 -2.981032 0.317115 0.554697 1.379928 0.480550
    3 -0.000001 -1.808652 1.012938 0.000000 0.000000 0.000000
    4 -0.115836 1.063685 1.652800 0.000000 0.000000 0.000000
    5 0.000000 2.290612 1.335354 0.000000 0.000000 0.000000
    6 0.000000 0.683226 0.002903 0.000000 0.000000 0.000000
    7 -0.194965 1.732989 -0.758107 0.000000 0.000000 0.000000
    8 -0.000001 -0.273071 1.043217 0.000000 0.000000 0.000000
    9 0.583509 -1.197273 0.185379 -0.077883 -0.765982 -0.796225
    10 1.535925 0.010247 0.005009 -0.076524 0.315739 -1.052216
    11 1.100770 0.004527 -0.010675 -0.000003 0.000010 -0.670681
    12 0.957766 -2.746777 -0.090301 0.172440 -0.052115 0.117110
    13 -0.033419 -1.397129 -0.011256 -0.747885 -0.016119 -0.103224
    14 -0.022362 -0.957434 0.018782 -0.687109 0.000000 0.000000
    15 0.250028 -2.820664 -0.238397 -0.282644 0.057278 -0.106682
    16 -0.049759 -1.680546 0.100479 -2.012741 0.000000 -0.000002
    17 -0.034141 -1.148309 0.084778 -1.037448 0.000000 0.000000
    18 -0.488517 -2.755600 -0.228262 -0.195772 0.054591 -0.144142
    19 0.039889 -1.479791 0.029853 -2.042721 0.000000 0.000001
    20 0.028786 -1.075733 -0.023111 -0.841807 0.000000 0.000000
    21 -1.180679 -2.507216 -0.193861 0.008684 0.244081 -0.056771
    22 -0.024966 -1.123935 0.017594 -1.466568 0.000000 0.000001
    23 -0.020058 -0.890966 0.010091 -1.308722 0.000000 0.000000
    24 0.120152 -0.050267 -0.054488 0.287569 3.110905 1.561085
    25 1.304080 8.804363 -0.126173 1.605129 -1.493046 -0.161010
    26 -0.033026 -7.323214 -12.117388 -1.437600 -5.450976 -0.627690
    27 0.096946 -8.450419 -0.009364 0.122753 -0.269753 0.246657
    28 -0.587378 -1.261647 0.201457 0.109281 -0.618830 -2.845588
    29 1.522835 0.058680 0.016851 -0.010476 0.057235 0.391535
    30 1.117948 0.048425 -0.005765 -0.000015 0.000006 0.543114
    31 -0.963867 -2.785143 -0.085346 0.230931 0.199968 -0.171434
    32 0.028478 -1.403069 0.006271 -1.008232 0.000000 0.000000
    33 0.021414 -0.957782 0.020047 -0.332300 0.000000 0.000000
    34 -0.249534 -2.846964 -0.174215 -0.001189 0.000966 -0.025450
    35 0.043234 -1.683941 0.096014 -2.021618 -0.002966 -0.000335
    36 0.031729 -1.160830 0.058836 -1.017627 0.000007 0.000007
    37 0.447951 -2.798983 -0.200442 -0.016203 0.053277 0.116304
    38 -0.032910 -1.480207 0.004936 -1.783733 0.000000 0.000002
    39 -0.027022 -1.076920 -0.020212 -0.898894 0.000000 0.000000
    40 1.164474 -2.543939 -0.170327 -0.365253 -0.001010 -0.002103
    41 0.024033 -1.129040 0.017806 -1.210698 -0.100239 0.187008
    42 0.014896 -0.883991 -0.019845 -0.909602 0.074161 0.017318
    43 -0.139399 -0.111701 0.014397 0.285534 -0.040597 1.576226
    44 -1.441116 8.792395 -0.163593 -1.643144 1.483711 0.062639
  time 12
    0 7.113683 -10.204662 -14.689385 1.555483 -2.960543 -1.529497
    1 -0.071919 -8.498734 -0.104136 -0.114718 0.426158 -0.376183
    2 0.270743 -2.981032 0.317115 0.554697 1.379928 0.480550
    3 -0.000001 -1.808652 1.012938 0.000000 0.000000 0.000000
    4 -0.115836 1.063685 1.652800 0.000000 0.000000 0.000000
    5 0.000000 2.290612 1.335354 0.000000 0.000000 0.000000
    6 0.000000 0.679319 0.002903 0.000000 0.000000 0.000000
    7 -0.194965 1.732989 -0.758107 0.000000 0.000000 0.000000
    8 -0.000001 -0.273071 1.043217 0.000000 0.000000 0.000000
    9 0.583509 -1.197273 0.185379 -0.077883 -0.765982 -0.796225
    10 1.535925 0.010247 0.005009 -0.076524 0.315739 -1.052216
    11 1.100770 0.004527 -0.010675 -0.000003 0.000010 -0.670681
    12 0.957766 -2.746777 -0.090301 0.173033 -0.053121 0.115372
    13 -0.033419 -1.397129 -0.011256 -0.734161 -0.015029 -0.103248
    14 -0.022362 -0.957434 0.018782 -0.631921 0.000000 0.000000
    15 0.250028 -2.820664 -0.238397 -0.282644 0.057278 -0.106682
    16 -0.049759 -1.680546 0.100479 -2.012741 0.000000 -0.000002
    17 -0.034141 -1.148309 0.084778 -1.037448 0.000000 0.000000
    18 -0.488517 -2.755600 -0.228262 -0.195772 0.054591 -0.144142
    19 0.039889 -1.479791 0.029853 -2.042721 0.000000 0.000001
    20 0.028786 -1.075733 -0.023111 -0.841807 0.000000 0.000000
    21 -1.180679 -2.507216 -0.193861 0.008684 0.244081 -0.056771
    22 -0.024966 -1.123935 0.017594 -1.466568 0.000000 0.000001
    23 -0.020058 -0.890966 0.010091 -1.308722 0.000000 0.000000
    24 0.120152 -0.050267 -0.054488 0.287569 3.110905 1.561085
    25 1.304080 8.804363 -0.126173 1.605129 -1.493046 -0.161010
    26 -0.029120 -7.342746 -12.109576 -1.434936 -5.449559 -0.627404
    27 0.096946 -8.450419 -0.009364 0.116602 -0.269035 0.245830
    28 -0.587378 -1.261647 0.201457 0.109411 -0.618818 -2.845817
    29 1.522835 0.058680 0.016851 -0.010155 0.057295 0.397054
    30 1.117948 0.048425 -0.005765 -0.000015 0.000006 0.524276
    31 -0.963867 -2.785143 -0.085346 0.230931 0.199968 -0.171434
    32 0.028478 -1.403069 0.006271 -1.008232 0.000000 0.000000
    33 0.021414 -0.957782 0.020047 -0.332300 0.000000 0.000000
    34 -0.249534 -2.846964 -0.174215 -0.001189 0.000966 -0.025450
    35 0.043234 -1.683941 0.096014 -2.021618 -0.002966 -0.000335
    36 0.031729 -1.160830 0.058836 -1.017627 0.000007 0.000007
    37 0.447951 -2.798983 -0.200442 -0.016203 0.053277 0.116304
    38 -0.032910 -1.480207 0.004936 -1.783733 0.000000 0.000002
    39 -0.027022 -1.076920 -0.020212 -0.898894 0.000000 0.000000
    40 1.164474 -2.543939 -0.170327 -0.365253 -0.001010 -0.002103
    41 0.024033 -1.129040 0.017806 -1.210698 -0.100239 0.187008
    42 0.014896 -0.883991 -0.019845 -0.909602 0.074161 0.017318
    43 -0.139399 -0.111701 0.014397 0.285534 -0.040597 1.576226
    44 -1.441116 8.792395 -0.163593 -1.643144 1.483711 0.062639
  time 13
    0 7.113683 -10.208568 -14.689385 1.555483 -2.959300 -1.529497
    1 -0.071919 -8.498734 -0.104136 -0.113186 0.423791 -0.372385
    2 0.270743 -2.981032 0.317115 0.554697 1.379928 0.480550
    3 -0.000001 -1.808652 1.012938 0.000000 0.000000 0.000000
    4 -0.115836 1.063685 1.652800 0.000000 0.000000 0.000000
    5 0.000000 2.290612 1.335354 0.000000 0.000000 0.000000
    6 0.000000 0.706664 0.002903 0.000000 0.000000 0.000000
    7 -0.194965 1.732989 -0.758107 0.000000 0.000000 0.000000
    8 -0.000001 -0.273071 1.043217 0.000000 0.000000 0.000000
    9 0.583509 -1.197273 0.185379 -0.077883 -0.765982 -0.796225
    10 1.535925 0.010247 0.005009 -0.076524 0.315739 -1.052216
    11 1.100770 0.004527 -0.010675 -0.000003 0.000010 -0.670681
    12 0.957766 -2.746777 -0.090301 0.174343 -0.053517 0.114689
    13 -0.033419 -1.397129 -0.011256 -0.728030 -0.014441 -0.103260
    14 -0.022362 -0.957434 0.018782 -0.631252 0.000000 0.000000
    15 0.250028 -2.820664 -0.238397 -0.282644 0.057278 -0.106682
    16 -0.049759 -1.680546 0.100479 -2.012741 0.000000 -0.000002
    17 -0.034141 -1.148309 0.084778 -1.037448 0.000000 0.000000
    18 -0.488517 -2.755600 -0.228262 -0.195772 0.054591 -0.144142
    19 0.039889 -1.479791 0.029853 -2.042721 0.000000 0.000001
    20 0.028786 -1.075733 -0.023111 -0.841807 0.000000 0.000000
    21 -1.180679 -2.507216 -0.193861 0.008684 0.244081 -0.056771
    22 -0.024966 -1.123935 0.017594 -1.466568 0.000000 0.000001
    23 -0.020058 -0.890966 0.010091 -1.308722 0.000000 0.000000
    24 0.120152 -0.050267 -0.054488 0.287569 3.110905 1.561085
    25 1.304080 8.804363 -0.126173 1.605129 -1.493046 -0.161010
    26 -0.029120 -7.354465 -12.105669 -1.433287 -5.448673 -0.627214
    27 0.096946 -8.450419 -0.009364 0.111815 -0.268816 0.244946
    28 -0.587378 -1.261647 0.201457 0.109455 -0.618806 -2.845882
    29 1.522835 0.058680 0.016851 -0.009920 0.057331 0.401216
    30 1.117948 0.048425 -0.005765 -0.000015 0.000006 0.510147
    31 -0.963867 -2.785143 -0.085346 0.230931 0.199968 -0.171434
    32 0.028478 -1.403069 0.006271 -1.008232 0.000000 0.000000
    33 0.021414 -0.957782 0.020047 -0.332300 0.000000 0.000000
    34 -0.249534 -2.846964 -0.174215 -0.001189 0.000966 -0.025450
    35 0.043234 -1.683941 0.096014 -2.021618 -0.002966 -0.000335
    36 0.031729 -1.160830 0.058836 -1.017627 0.000007 0.000007
    37 0.447951 -2.798983 -0.200442 -0.016203 0.053277 0.116304
    38 -0.032910 -1.480207 0.004936 -1.783733 0.000000 0.000002
    39 -0.027022 -1.076920 -0.020212 -0.898894 0.000000 0.000000
    40 1.164474 -2.543939 -0.170327 -0.365253 -0.001010 -0.002103
    41 0.024033 -1.129040 0.017806 -1.210698 -0.100239 0.187008
    42 0.014896 -0.883991 -0.019845 -0.909602 0.074161 0.017318
    43 -0.139399 -0.111701 0.014397 0.285534 -0.040597 1.576226
    44 -1.441116 8.792395 -0.163593 -1.643144 1.483711 0.062639
  time 14
    0 7.113683 -10.208568 -14.689385 1.555483 -2.959204 -1.529497
    1 -0.071919 -8.498734 -0.104136 -0.112169 0.420975 -0.369873
    2 0.270743 -2.981032 0.317115 0.554697 1.379928 0.480550
    3 -0.000001 -1.808652 1.012938 0.000000 0.000000 0.000000
    4 -0.115836 1.063685 1.652800 0.000000 0.000000 0.000000
    5 0.000000 2.290612 1.335354 0.000000 0.000000 0.000000
    6 0.000000 0.706664 0.002903 0.000000 0.000000 0.000000
    7 -0.194965 1.732989 -0.758107 0.000000 0.000000 0.000000
    8 -0.000001 -0.273071 1.043217 0.000000 0.000000 0.000000
    9 0.583509 -1.197273 0.185379 -0.077883 -0.765982 -0.796225
    10 1.535925 0.010247 0.005009 -0.076524 0.315739 -1.052216
    11 1.100770 0.004527 -0.010675 -0.000003 0.000010 -0.670681
    12 0.957766 -2.746777 -0.090301 0.176089 -0.053457 0.114785
    13 -0.033419 -1.397129 -0.011256 -0.727949 -0.014274 -0.103284
    14 -0.022362 -0.957434 0.018782 -0.645519 0.000000 0.000000
    15 0.250028 -2.820664 -0.238397 -0.282644 0.057278 -0.106682
    16 -0.049759 -1.680546 0.100479 -2.012741 0.000000 -0.000002
    17 -0.034141 -1.148309 0.084778 -1.037448 0.000000 0.000000
    18 -0.488517 -2.755600 -0.228262 -0.195772 0.054591 -0.144142
    19 0.039889 -1.479791 0.029853 -2.042721 0.000000 0.000001
    20 0.028786 -1.075733 -0.023111 -0.841807 0.000000 0.000000
    21 -1.180679 -2.507216 -0.193861 0.008684 0.244081 -0.056771
    22 -0.024966 -1.123935 0.017594 -1.466568 0.000000 0.000001
    23 -0.020058 -0.890966 0.010091 -1.308722 0.000000 0.000000
    24 0.120152 -0.050267 -0.054488 0.287569 3.110905 1.561085
    25 1.304080 8.804363 -0.126173 1.605129 -1.493046 -0.161010
    26 -0.029120 -7.362278 -12.101763 -1.432589 -5.448142 -0.627118
    27 0.096946 -8.450419 -0.009364 0.107938 -0.269195 0.243861
    28 -0.587378 -1.261647 0.201457 0.109382 -0.618818 -2.845751
    29 1.522835 0.058680 0.016851 -0.009749 0.057367 0.404282
    30 1.117948 0.048425 -0.005765 -0.000015 0.000006 0.499670
    31 -0.963867 -2.785143 -0.085346 0.230931 0.199968 -0.171434
    32 0.028478 -1.403069 0.006271 -1.008232 0.000000 0.000000
    33 0.021414 -0.957782 0.020047 -0.332300 0.000000 0.000000
    34 -0.249534 -2.846964 -0.174215 -0.001189 0.000966 -0.025450
    35 0.043234 -1.683941 0.096014 -2.021618 -0.002966 -0.000335
    36 0.031729 -1.160830 0.058836 -1.017627 0.000007 0.000007
    37 0.447951 -2.798983 -0.200442 -0.016203 0.053277 0.116304
    38 -0.032910 -1.480207 0.004936 -1.783733 0.000000 0.000002
    39 -0.027022 -1.076920 -0.020212 -0.898894 0.000000 0.000000
    40 1.164474 -2.543939 -0.170327 -0.365253 -0.001010 -0.002103
    41 0.024033 -1.129040 0.017806 -1.210698 -0.100239 0.187008
    42 0.014896 -0.883991 -0.019845 -0.909602 0.074161 0.017318
    43 -0.139399 -0.111701 0.014397 0.285534 -0.040597 1.576226
    44 -1.441116 8.792395 -0.163593 -1.643144 1.483711 0.062639
  time 15
    0 7.113683 -10.208568 -14.689385 1.555483 -2.960065 -1.529497
    1 -0.071919 -8.498734 -0.104136 -0.111396 0.417425 -0.367994
    2 0.270743 -2.981032 0.317115 0.554697 1.379928 0.480550
    3 -0.000001 -1.808652 1.012938 0.000000 0.000000 0.000000
    4 -0.115836 1.063685 1.652800 0.000000 0.000000 0.000000
    5 0.000000 2.290612 1.335354 0.000000 0.000000 0.000000
    6 0.000000 0.706664 0.002903 0.000000 0.000000 0.000000
    7 -0.194965 1.732989 -0.758107 0.000000 0.000000 0.000000
    8 -0.000001 -0.273071 1.043217 0.000000 0.000000 0.000000
    9 0.583509 -1.197273 0.185379 -0.077883 -0.765982 -0.796225
    10 1.535925 0.010247 0.005009 -0.076524 0.315739 -1.052216
    11 1.100770 0.004527 -0.010675 -0.000003 0.000010 -0.670681
    12 0.957766 -2.746777 -0.090301 0.178008 -0.053121 0.115360
    13 -0.033419 -1.397129 -0.011256 -0.732375 -0.014405 -0.103308
    14 -0.022362 -0.957434 0.018782 -0.670550 0.000000 0.000000
    15 0.250028 -2.820664 -0.238397 -0.282644 0.057278 -0.106682
    16 -0.049759 -1.680546 0.100479 -2.012741 0.000000 -0.000002
    17 -0.034141 -1.148309 0.084778 -1.037448 0.000000 0.000000
    18 -0.488517 -2.755600 -0.228262 -0.195772 0.054591 -0.144142
    19 0.039889 -1.479791 0.029853 -2.042721 0.000000 0.000001
    20 0.028786 -1.075733 -0.023111 -0.841807 0.000000 0.000000
    21 -1.180679 -2.507216 -0.193861 0.008684 0.244081 -0.056771
    22 -0.024966 -1.123935 0.017594 -1.466568 0.000000 0.000001
    23 -0.020058 -0.890966 0.010091 -1.308722 0.000000 0.000000
    24 0.120152 -0.050267 -0.054488 0.287569 3.110905 1.561085
    25 1.304080 8.804363 -0.126173 1.605129 -1.493046 -0.161010
    26 -0.029120 -7.366184 -12.101763 -1.432589 -5.447965 -0.627118
    27 0.096946 -8.450419 -0.009364 0.104194 -0.270052 0.242463
    28 -0.587378 -1.261647 0.201457 0.109164 -0.618853 -2.845392
    29 1.522835 0.058680 0.016851 -0.009578 0.057391 0.407057
    30 1.117948 0.048425 -0.005765 -0.000015 0.000006 0.490219
    31 -0.963867 -2.785143 -0.085346 0.230931 0.199968 -0.171434
    32 0.028478 -1.403069 0.006271 -1.008232 0.000000 0.000000
    33 0.021414 -0.957782 0.020047 -0.332300 0.000000 0.000000
    34 -0.249534 -2.846964 -0.174215 -0.001189 0.000966 -0.025450
    35 0.043234 -1.683941 0.096014 -2.021618 -0.002966 -0.000335
    36 0.031729 -1.160830 0.058836 -1.017627 0.000007 0.000007
    37 0.447951 -2.798983 -0.200442 -0.016203 0.053277 0.116304
    38 -0.032910 -1.480207 0.004936 -1.783733 0.000000 0.000002
    39 -0.027022 -1.076920 -0.020212 -0.898894 0.000000 0.000000
    40 1.164474 -2.543939 -0.170327 -0.365253 -0.001010 -0.002103
    41 0.024033 -1.129040 0.017806 -1.210698 -0.100239 0.187008
    42 0.014896 -0.883991 -0.019845 -0.909602 0.074161 0.017318
    43 -0.139399 -0.111701 0.014397 0.285534 -0.040597 1.576226
    44 -1.441116 8.792395 -0.163593 -1.643144 1.483711 0.062639
  time 16
    0 7.113683 -10.208568 -14.689385 1.555556 -2.961499 -1.529497
    1 -0.071919 -8.498734 -0.104136 -0.110827 0.413487 -0.366609
    2 0.270743 -2.981032 0.317115 0.554697 1.379928 0.480550
    3 -0.000001 -1.808652 1.012938 0.000000 0.000000 0.000000
    4 -0.115836 1.063685 1.652800 0.000000 0.000000 0.000000
    5 0.000000 2.290612 1.335354 0.000000 0.000000 0.000000
    6 0.000000 0.706664 0.002903 0.000000 0.000000 0.000000
    7 -0.194965 1.732989 -0.758107 0.000000 0.000000 0.000000
    8 -0.000001 -0.273071 1.043217 0.000000 0.000000 0.000000
    9 0.583509 -1.197273 0.185379 -0.077883 -0.765982 -0.796225
    10 1.535925 0.010247 0.005009 -0.076524 0.315739 -1.052216
    11 1.100770 0.004527 -0.010675 -0.000003 0.000010 -0.670681
    12 0.957766 -2.746777 -0.090301 0.179864 -0.052666 0.116139
    13 -0.033419 -1.397129 -0.011256 -0.739643 -0.014741 -0.103344
    14 -0.022362 -0.957434 0.018782 -0.702236 0.000000 0.000000
    15 0.250028 -2.820664 -0.238397 -0.282644 0.057278 -0.106682
    16 -0.049759 -1.680546 0.100479 -2.012741 0.000000 -0.000002
    17 -0.034141 -1.148309 0.084778 -1.037448 0.000000 0.000000
    18 -0.488517 -2.755600 -0.228262 -0.195772 0.054591 -0.144142
    19 0.039889 -1.479791 0.029853 -2.042721 0.000000 0.000001
    20 0.028786 -1.075733 -0.023111 -0.841807 0.000000 0.000000
    21 -1.180679 -2.507216 -0.193861 0.008684 0.244081 -0.056771
    22 -0.024966 -1.123935 0.017594 -1.466568 0.000000 0.000001
    23 -0.020058 -0.890966 0.010091 -1.308722 0.000000 0.000000
    24 0.120152 -0.050267 -0.054488 0.287569 3.110905 1.561085
    25 1.304080 8.804363 -0.126173 1.605129 -1.493046 -0.161010
    26 -0.029120 -7.370090 -12.101763 -1.433096 -5.447876 -0.627118
    27 0.096946 -8.450419 -0.009364 0.100717 -0.271248 0.240923
    28 -0.587378 -1.261647 0.201457 0.108830 -0.618901 -2.844821
    29 1.522835 0.058680 0.016851 -0.009428 0.057415 0.409574
    30 1.117948 0.048425 -0.005765 -0.000015 0.000006 0.481537
    31 -0.963867 -2.785143 -0.085346 0.230931 0.199968 -0.171434
    32 0.028478 -1.403069 0.006271 -1.008232 0.000000 0.000000
    33 0.021414 -0.957782 0.020047 -0.332300 0.000000 0.000000
    34 -0.249534 -2.846964 -0.174215 -0.001189 0.000966 -0.025450
    35 0.043234 -1.683941 0.096014 -2.021618 -0.002966 -0.000335
    36 0.031729 -1.160830 0.058836 -1.017627 0.000007 0.000007
    37 0.447951 -2.798983 -0.200442 -0.016203 0.053277 0.116304
    38 -0.032910 -1.480207 0.004936 -1.783733 0.000000 0.000002
    39 -0.027022 -1.076920 -0.020212 -0.898894 0.000000 0.000000
    40 1.164474 -2.543939 -0.170327 -0.365253 -0.001010 -0.002103
    41 0.024033 -1.129040 0.017806 -1.210698 -0.100239 0.187008
    42 0.014896 -0.883991 -0.019845 -0.909602 0.074161 0.017318
    43 -0.139399 -0.111701 0.014397 0.285534 -0.040597 1.576226
    44 -1.441116 8.792395 -0.163593 -1.643144 1.483711 0.062639
  time 17
    0 7.113683 -10.208568 -14.689385 1.555629 -2.963316 -1.529497
    1 -0.071919 -8.498734 -0.104136 -0.110447 0.409487 -0.365679
    2 0.270743 -2.981032 0.317115 0.554697 1.379928 0.480550
    3 -0.000001 -1.808652 1.012938 0.000000 0.000000 0.000000
    4 -0.115836 1.063685 1.652800 0.000000 0.000000 0.000000
    5 0.000000 2.290612 1.335354 0.000000 0.000000 0.000000
    6 0.000000 0.706664 0.002903 0.000000 0.000000 0.000000
    7 -0.194965 1.732989 -0.758107 0.000000 0.000000 0.000000
    8 -0.000001 -0.273071 1.043217 0.000000 0.000000 0.000000
    9 0.583509 -1.197273 0.185379 -0.077883 -0.765982 -0.796225
    10 1.535925 0.010247 0.005009 -0.076524 0.315739 -1.052216
    11 1.100770 0.004527 -0.010675 -0.000003 0.000010 -0.670681
    12 0.957766 -2.746777 -0.090301 0.181376 -0.052282 0.116822
    13 -0.033419 -1.397129 -0.011256 -0.748291 -0.015196 -0.103356
    14 -0.022362 -0.957434 0.018782 -0.736311 0.000000 0.000000
    15 0.250028 -2.820664 -0.238397 -0.282644 0.057278 -0.106682
    16 -0.049759 -1.680546 0.100479 -2.012741 0.000000 -0.000002
    17 -0.034141 -1.148309 0.084778 -1.037448 0.000000 0.000000
    18 -0.488517 -2.755600 -0.228262 -0.195772 0.054591 -0.144142
    19 0.039889 -1.479791 0.029853 -2.042721 0.000000 0.000001
    20 0.028786 -1.075733 -0.023111 -0.841807 0.000000 0.000000
    21 -1.180679 -2.507216 -0.193861 0.008684 0.244081 -0.056771
    22 -0.024966 -1.123935 0.017594 -1.466568 0.000000 0.000001
    23 -0.020058 -0.890966 0.010091 -1.308722 0.000000 0.000000
    24 0.120152 -0.050267 -0.054488 0.287569 3.110905 1.561085
    25 1.304080 8.804363 -0.126173 1.605129 -1.493046 -0.161010
    26 -0.029120 -7.373997 -12.101763 -1.433858 -5.448053 -0.627118
    27 0.096946 -8.450419 -0.009364 0.097615 -0.272604 0.239354
    28 -0.587378 -1.261647 0.201457 0.108409 -0.618961 -2.844086
    29 1.522835 0.058680 0.016851 -0.009300 0.057439 0.411930
    30 1.117948 0.048425 -0.005765 -0.000015 -0.000006 0.473527
    31 -0.963867 -2.785143 -0.085346 0.230931 0.199968 -0.171434
    32 0.028478 -1.403069 0.006271 -1.008232 0.000000 0.000000
    33 0.021414 -0.957782 0.020047 -0.332300 0.000000 0.000000
    34 -0.249534 -2.846964 -0.174215 -0.001189 0.000966 -0.025450
    35 0.043234 -1.683941 0.096014 -2.021618 -0.002966 -0.000335
    36 0.031729 -1.160830 0.058836 -1.017627 0.000007 0.000007
    37 0.447951 -2.798983 -0.200442 -0.016203 0.053277 0.116304
    38 -0.032910 -1.480207 0.004936 -1.783733 0.000000 0.000002
    39 -0.027022 -1.076920 -0.020212 -0.898894 0.000000 0.000000
    40 1.164474 -2.543939 -0.170327 -0.365253 -0.001010 -0.002103
    41 0.024033 -1.129040 0.017806 -1.210698 -0.100239 0.187008
    42 0.014896 -0.883991 -0.019845 -0.909602 0.074161 0.017318
    43 -0.139399 -0.111701 0.014397 0.285534 -0.040597 1.576226
    44 -1.441116 8.792395 -0.163593 -1.643144 1.483711 0.062639
  time 18
    0 7.113683 -10.208568 -14.689385 1.555702 -2.965134 -1.529497
    1 -0.071919 -8.498734 -0.104136 -0.110203 0.405794 -0.365106
    2 0.270743 -2.981032 0.317115 0.554697 1.379928 0.480550
    3 -0.000001 -1.808652 1.012938 0.000000 0.000000 0.000000
    4 -0.115836 1.063685 1.652800 0.000000 0.000000 0.000000
    5 0.000000 2.290612 1.335354 0.000000 0.000000 0.000000
    6 0.000000 0.706664 0.002903 0.000000 0.000000 0.000000
    7 -0.194965 1.732989 -0.758107 0.000000 0.000000 0.000000
    8 -0.000001 -0.273071 1.043217 0.000000 0.000000 0.000000
    9 0.583509 -1.197273 0.185379 -0.077883 -0.765982 -0.796225
    10 1.535925 0.010247 0.005009 -0.076524 0.315739 -1.052216
    11 1.100770 0.004527 -0.010675 -0.000003 0.000010 -0.670681
    12 0.957766 -2.746777 -0.090301 0.182281 -0.052115 0.117110
    13 -0.033419 -1.397129 -0.011256 -0.756696 -0.015640 -0.103380
    14 -0.022362 -0.957434 0.018782 -0.768698 0.000000 0.000000
    15 0.250028 -2.820664 -0.238397 -0.282644 0.057278 -0.106682
    16 -0.049759 -1.680546 0.100479 -2.012741 0.000000 -0.000002
    17 -0.034141 -1.148309 0.084778 -1.037448 0.000000 0.000000
    18 -0.488517 -2.755600 -0.228262 -0.195772 0.054591 -0.144142
    19 0.039889 -1.479791 0.029853 -2.042721 0.000000 0.000001
    20 0.028786 -1.075733 -0.023111 -0.841807 0.000000 0.000000
    21 -1.180679 -2.507216 -0.193861 0.008684 0.244081 -0.056771
    22 -0.024966 -1.123935 0.017594 -1.466568 0.000000 0.000001
    23 -0.020058 -0.890966 0.010091 -1.308722 0.000000 0.000000
    24 0.120152 -0.050267 -0.054488 0.287569 3.110905 1.561085
    25 1.304080 8.804363 -0.126173 1.605129 -1.493046 -0.161010
    26 -0.029120 -7.373997 -12.101763 -1.434809 -5.448230 -0.627118
    27 0.096946 -8.450419 -0.009364 0.095021 -0.273960 0.237899
    28 -0.587378 -1.261647 0.201457 0.107930 -0.619045 -2.843254
    29 1.522835 0.058680 0.016851 -0.009172 0.057451 0.414157
    30 1.117948 0.048425 -0.005765 -0.000015 -0.000006 0.465966
    31 -0.963867 -2.785143 -0.085346 0.230931 0.199968 -0.171434
    32 0.028478 -1.403069 0.006271 -1.008232 0.000000 0.000000
    33 0.021414 -0.957782 0.020047 -0.332300 0.000000 0.000000
    34 -0.249534 -2.846964 -0.174215 -0.001189 0.000966 -0.025450
    35 0.043234 -1.683941 0.096014 -2.021618 -0.002966 -0.000335
    36 0.031729 -1.160830 0.058836 -1.017627 0.000007 0.000007
    37 0.447951 -2.798983 -0.200442 -0.016203 0.053277 0.116304
    38 -0.032910 -1.480207 0.004936 -1.783733 0.000000 0.000002
    39 -0.027022 -1.076920 -0.020212 -0.898894 0.000000 0.000000
    40 1.164474 -2.543939 -0.170327 -0.365253 -0.001010 -0.002103
    41 0.024033 -1.129040 0.017806 -1.210698 -0.100239 0.187008
    42 0.014896 -0.883991 -0.019845 -0.909602 0.074161 0.017318
    43 -0.139399 -0.111701 0.014397 0.285534 -0.040597 1.576226
    44 -1.441116 8.792395 -0.163593 -1.643144 1.483711 0.062639
  time 19
    0 7.113683 -10.208568 -14.689385 1.555775 -2.966855 -1.529497
    1 -0.071919 -8.498734 -0.104136 -0.110068 0.402734 -0.364789
    2 0.270743 -2.981032 0.317115 0.554697 1.379928 0.480517
    3 -0.000001 -1.808652 1.012938 0.000000 0.000000 0.000000
    4 -0.115836 1.063685 1.652800 0.000000 0.000000 0.000000
    5 0.000000 2.290612 1.335354 0.000000 0.000000 0.000000
    6 0.000000 0.706664 0.002903 0.000000 0.000000 0.000000
    7 -0.194965 1.732989 -0.758107 0.000000 0.000000 0.000000
    8 -0.000001 -0.273071 1.043217 0.000000 0.000000 0.000000
    9 0.583509 -1.197273 0.185379 -0.077883 -0.765982 -0.796225
    10 1.535925 0.010247 0.005009 -0.076524 0.315739 -1.052216
    11 1.100770 0.004527 -0.010675 -0.000003 0.000010 -0.670681
    12 0.957766 -2.746777 -0.090301 0.182718 -0.052115 0.117110
    13 -0.033419 -1.397129 -0.011256 -0.763274 -0.015975 -0.103392
    14 -0.022362 -0.957434 0.018782 -0.795161 0.000000 0.000000
    15 0.250028 -2.820664 -0.238397 -0.282644 0.057278 -0.106682
    16 -0.049759 -1.680546 0.100479 -2.012741 0.000000 -0.000002
    17 -0.034141 -1.148309 0.084778 -1.037448 0.000000 0.000000
    18 -0.488517 -2.755600 -0.228262 -0.195772 0.054591 -0.144142
    19 0.039889 -1.479791 0.029853 -2.042721 0.000000 0.000001
    20 0.028786 -1.075733 -0.023111 -0.841807 0.000000 0.000000
    21 -1.180679 -2.507216 -0.193861 0.008684 0.244081 -0.056771
    22 -0.024966 -1.123935 0.017594 -1.466568 0.000000 0.000001
    23 -0.020058 -0.890966 0.010091 -1.308722 0.000000 0.000000
    24 0.120152 -0.050267 -0.054488 0.287569 3.110905 1.561085
    25 1.304080 8.804363 -0.126173 1.605129 -1.493046 -0.161010
    26 -0.029120 -7.377903 -12.097856 -1.435697 -5.448407 -0.627214
    27 0.096946 -8.450419 -0.009364 0.093016 -0.275156 0.236700
    28 -0.587378 -1.261647 0.201457 0.107407 -0.619117 -2.842356
    29 1.522835 0.058680 0.016851 -0.009044 0.057475 0.416286
    30 1.117948 0.048425 -0.005765 -0.000015 -0.000006 0.458693
    31 -0.963867 -2.785143 -0.085346 0.230931 0.199968 -0.171434
    32 0.028478 -1.403069 0.006271 -1.008232 0.000000 0.000000
    33 0.021414 -0.957782 0.020047 -0.332300 0.000000 0.000000
    34 -0.249534 -2.846964 -0.174215 -0.001189 0.000966 -0.025450
    35 0.043234 -1.683941 0.096014 -2.021618 -0.002966 -0.000335
    36 0.031729 -1.160830 0.058836 -1.017627 0.000007 0.000007
    37 0.447951 -2.798983 -0.200442 -0.016203 0.053277 0.116304
    38 -0.032910 -1.480207 0.004936 -1.783733 0.000000 0.000002
    39 -0.027022 -1.076920 -0.020212 -0.898894 0.000000 0.000000
    40 1.164474 -2.543939 -0.170327 -0.365253 -0.001010 -0.002103
    41 0.024033 -1.129040 0.017806 -1.210698 -0.100239 0.187008
    42 0.014896 -0.883991 -0.019845 -0.909602 0.074161 0.017318
    43 -0.139399 -0.111701 0.014397 0.285534 -0.040597 1.576226
    44 -1.441116 8.792395 -0.163593 -1.643144 1.483711 0.062639
  time 20
    0 7.113683 -10.208568 -14.689385 1.555848 -2.968003 -1.529497
    1 -0.071919 -8.498734 -0.104136 -0.110013 0.400652 -0.364670
    2 0.270743 -2.981032 0.317115 0.554697 1.379928 0.480550
    3 -0.000001 -1.808652 1.012938 0.000000 0.000000 0.000000
    4 -0.115836 1.063685 1.652800 0.000000 0.000000 0.000000
    5 0.000000 2.290612 1.335354 0.000000 0.000000 0.000000
    6 0.000000 0.706664 0.002903 0.000000 0.000000 0.000000
    7 -0.194965 1.732989 -0.758107 0.000000 0.000000 0.000000
    8 -0.000001 -0.273071 1.043217 0.000000 0.000000 0.000000
    9 0.583509 -1.197273 0.185379 -0.077883 -0.765982 -0.796225
    10 1.535925 0.010247 0.005009 -0.076524 0.315739 -1.052216
    11 1.100770 0.004527 -0.010675 -0.000003 0.000010 -0.670681
    12 0.957766 -2.746777 -0.090301 0.182998 -0.052115 0.117110
    13 -0.033419 -1.397129 -0.011256 -0.766482 -0.016119 -0.103392
    14 -0.022362 -0.957434 0.018782 -0.811562 0.000000 0.000000
    15 0.250028 -2.820664 -0.238397 -0.282644 0.057278 -0.106682
    16 -0.049759 -1.680546 0.100479 -2.012741 0.000000 -0.000002
    17 -0.034141 -1.148309 0.084778 -1.037448 0.000000 0.000000
    18 -0.488517 -2.755600 -0.228262 -0.195772 0.054591 -0.144142
    19 0.039889 -1.479791 0.029853 -2.042721 0.000000 0.000001
    20 0.028786 -1.075733 -0.023111 -0.841807 0.000000 0.000000
    21 -1.180679 -2.507216 -0.193861 0.008684 0.244081 -0.056771
    22 -0.024966 -1.123935 0.017594 -1.466568 0.000000 0.000001
    23 -0.020058 -0.890966 0.010091 -1.308722 0.000000 0.000000
    24 0.120152 -0.050267 -0.054488 0.287569 3.110905 1.561085
    25 1.304080 8.804363 -0.126173 1.605129 -1.493046 -0.161010
    26 -0.029120 -7.377903 -12.097856 -1.436331 -5.448585 -0.627214
    27 0.096946 -8.450419 -0.009364 0.091705 -0.275974 0.235873
    28 -0.587378 -1.261647 0.201457 0.106870 -0.619201 -2.841425
    29 1.522835 0.058680 0.016851 -0.008937 0.057487 0.418384
    30 1.117948 0.048425 -0.005765 -0.000015 -0.000006 0.451549
    31 -0.963867 -2.785143 -0.085346 0.230931 0.199968 -0.171434
    32 0.028478 -1.403069 0.006271 -1.008232 0.000000 0.000000
    33 0.021414 -0.957782 0.020047 -0.332300 0.000000 0.000000
    34 -0.249534 -2.846964 -0.174215 -0.001189 0.000966 -0.025450
    35 0.043234 -1.683941 0.096014 -2.021618 -0.002966 -0.000335
    36 0.031729 -1.160830 0.058836 -1.017627 0.000007 0.000007
    37 0.447951 -2.798983 -0.200442 -0.016203 0.053277 0.116304
    38 -0.032910 -1.480207 0.004936 -1.783733 0.000000 0.000002
    39 -0.027022 -1.076920 -0.020212 -0.898894 0.000000 0.000000
    40 1.164474 -2.543939 -0.170327 -0.365253 -0.001010 -0.002103
    41 0.024033 -1.129040 0.017806 -1.210698 -0.100239 0.187008
    42 0.014896 -0.883991 -0.019845 -0.909602 0.074161 0.017318
    43 -0.139399 -0.111701 0.014397 0.285534 -0.040597 1.576226
    44 -1.441116 8.792395 -0.163593 -1.643144 1.483711 0.062639
  time 21
    0 7.113683 -10.208568 -14.689385 1.555848 -2.968481 -1.529497
    1 -0.071919 -8.498734 -0.104136 -0.110000 0.399877 -0.364651
    2 0.270743 -2.981032 0.317115 0.554697 1.379928 0.480550
    3 -0.000001 -1.808652 1.012938 0.000000 0.000000 0.000000
    4 -0.115836 1.063685 1.652800 0.000000 0.000000 0.000000
    5 0.000000 2.290612 1.335354 0.000000 0.000000 0.000000
    6 0.000000 0.706664 0.002903 0.000000 0.000000 0.000000
    7 -0.194965 1.732989 -0.758107 0.000000 0.000000 0.000000
    8 -0.000001 -0.273071 1.043217 0.000000 0.000000 0.000000
    9 0.583509 -1.197273 0.185379 -0.077883 -0.765982 -0.796225
    10 1.535925 0.010247 0.005009 -0.076524 0.315739 -1.052216
    11 1.100770 0.004527 -0.010675 -0.000003 0.000010 -0.670681
    12 0.957766 -2.746777 -0.090301 0.183154 -0.052115 0.117110
    13 -0.033419 -1.397129 -0.011256 -0.767254 -0.016119 -0.103404
    14 -0.022362 -0.957434 0.018782 -0.819651 0.000000 0.000000
    15 0.250028 -2.820664 -0.238397 -0.282644 0.057278 -0.106682
    16 -0.049759 -1.680546 0.100479 -2.012741 0.000000 -0.000002
    17 -0.034141 -1.148309 0.084778 -1.037448 0.000000 0.000000
    18 -0.488517 -2.755600 -0.228262 -0.195772 0.054591 -0.144142
    19 0.039889 -1.479791 0.029853 -2.042721 0.000000 0.000001
    20 0.028786 -1.075733 -0.023111 -0.841807 0.000000 0.000000
    21 -1.180679 -2.507216 -0.193861 0.008684 0.244081 -0.056771
    22 -0.024966 -1.123935 0.017594 -1.466568 0.000000 0.000001
    23 -0.020058 -0.890966 0.010091 -1.308722 0.000000 0.000000
    24 0.120152 -0.050267 -0.054488 0.287569 3.110905 1.561085
    25 1.304080 8.804363 -0.126173 1.605129 -1.493046 -0.161010
    26 -0.029120 -7.377903 -12.097856 -1.436585 -5.448585 -0.627214
    27 0.096946 -8.450419 -0.009364 0.091251 -0.276293 0.235588
    28 -0.587378 -1.261647 0.201457 0.106332 -0.619285 -2.840495
    29 1.522835 0.058680 0.016851 -0.008808 0.057511 0.420514
    30 1.117948 0.048425 -0.005765 -0.000015 -0.000006 0.444340
    31 -0.963867 -2.785143 -0.085346 0.230931 0.199968 -0.171434
    32 0.028478 -1.403069 0.006271 -1.008232 0.000000 0.000000
    33 0.021414 -0.957782 0.020047 -0.332300 0.000000 0.000000
    34 -0.249534 -2.846964 -0.174215 -0.001189 0.000966 -0.025450
    35 0.043234 -1.683941 0.096014 -2.021618 -0.002966 -0.000335
    36 0.031729 -1.160830 0.058836 -1.017627 0.000007 0.000007
    37 0.447951 -2.798983 -0.200442 -0.016203 0.053277 0.116304
    38 -0.032910 -1.480207 0.004936 -1.783733 0.000000 0.000002
    39 -0.027022 -1.076920 -0.020212 -0.898894 0.000000 0.000000
    40 1.164474 -2.543939 -0.170327 -0.365253 -0.001010 -0.002103
    41 0.024033 -1.129040 0.017806 -1.210698 -0.100239 0.187008
    42 0.014896 -0.883991 -0.019845 -0.909602 0.074161 0.017318
    43 -0.139399 -0.111701 0.014397 0.285534 -0.040597 1.576226
    44 -1.441116 8.792395 -0.163593 -1.643144 1.483711 0.062639
  time 22
    0 7.113683 -10.208568 -14.689385 1.555848 -2.968290 -1.529497
    1 -0.071919 -8.498734 -0.104136 -0.110068 0.400448 -0.364829
    2 0.270743 -2.981032 0.317115 0.554697 1.379928 0.480550
    3 -0.000001 -1.808652 1.012938 0.000000 0.000000 0.000000
    4 -0.115836 1.063685 1.652800 0.000000 0.000000 0.000000
    5 0.000000 2.290612 1.335354 0.000000 0.000000 0.000000
    6 0.000000 0.706664 0.002903 0.000000 0.000000 0.000000
    7 -0.194965 1.732989 -0.758107 0.000000 0.000000 0.000000
    8 -0.000001 -0.273071 1.043217 0.000000 0.000000 0.000000
    9 0.583509 -1.197273 0.185379 -0.077883 -0.765982 -0.796225
    10 1.535925 0.010247 0.005009 -0.076524 0.315739 -1.052216
    11 1.100770 0.004527 -0.010675 -0.000003 0.000010 -0.670681
    12 0.957766 -2.746777 -0.090301 0.183201 -0.052115 0.117110
    13 -0.033419 -1.397129 -0.011256 -0.767741 -0.016119 -0.103404
    14 -0.022362 -0.957434 0.018782 -0.824332 0.000000 0.000000
    15 0.250028 -2.820664 -0.238397 -0.282644 0.057278 -0.106682
    16 -0.049759 -1.680546 0.100479 -2.012741 0.000000 -0.000002
    17 -0.034141 -1.148309 0.084778 -1.037448 0.000000 0.000000
    18 -0.488517 -2.755600 -0.228262 -0.195772 0.054591 -0.144142
    19 0.039889 -1.479791 0.029853 -2.042721 0.000000 0.000001
    20 0.028786 -1.075733 -0.023111 -0.841807 0.000000 0.000000
    21 -1.180679 -2.507216 -0.193861 0.008684 0.244081 -0.056771
    22 -0.024966 -1.123935 0.017594 -1.466568 0.000000 0.000001
    23 -0.020058 -0.890966 0.010091 -1.308722 0.000000 0.000000
    24 0.120152 -0.050267 -0.054488 0.287569 3.110905 1.561085
    25 1.304080 8.804363 -0.126173 1.605129 -1.493046 -0.161010
    26 -0.029120 -7.377903 -12.101763 -1.436522 -5.448496 -0.627214
    27 0.096946 -8.450419 -0.009364 0.091732 -0.276113 0.235787
    28 -0.587378 -1.261647 0.201457 0.105824 -0.619357 -2.839646
    29 1.522835 0.058680 0.016851 -0.008680 0.057535 0.422676
    30 1.117948 0.048425 -0.005765 -0.000015 -0.000006 0.436907
    31 -0.963867 -2.785143 -0.085346 0.230931 0.199968 -0.171434
    32 0.028478 -1.403069 0.006271 -1.008232 0.000000 0.000000
    33 0.021414 -0.957782 0.020047 -0.332300 0.000000 0.000000
    34 -0.249534 -2.846964 -0.174215 -0.001189 0.000966 -0.025450
    35 0.043234 -1.683941 0.096014 -2.021618 -0.002966 -0.000335
    36 0.031729 -1.160830 0.058836 -1.017627 0.000007 0.000007
    37 0.447951 -2.798983 -0.200442 -0.016203 0.053277 0.116304
    38 -0.032910 -1.480207 0.004936 -1.783733 0.000000 0.000002
    39 -0.027022 -1.076920 -0.020212 -0.898894 0.000000 0.000000
    40 1.164474 -2.543939 -0.170327 -0.365253 -0.001010 -0.002103
    41 0.024033 -1.129040 0.017806 -1.210698 -0.100239 0.187008
    42 0.014896 -0.883991 -0.019845 -0.909602 0.074161 0.017318
    43 -0.139399 -0.111701 0.014397 0.285534 -0.040597 1.576226
    44 -1.441116 8.792395 -0.163593 -1.643144 1.483711 0.062639
  time 23
    0 7.113683 -10.208568 -14.689385 1.555848 -2.967716 -1.529497
    1 -0.071919 -8.498734 -0.104136 -0.110271 0.401979 -0.365323
    2 0.270743 -2.981032 0.317115 0.554697 1.379928 0.480550
    3 -0.000001 -1.808652 1.012938 0.000000 0.000000 0.000000
    4 -0.115836 1.063685 1.652800 0.000000 0.000000 0.000000
    5 0.000000 2.290612 1.335354 0.000000 0.000000 0.000000
    6 0.000000 0.706664 0.002903 0.000000 0.000000 0.000000
    7 -0.194965 1.732989 -0.758107 0.000000 0.000000 0.000000
    8 -0.000001 -0.273071 1.043217 0.000000 0.000000 0.000000
    9 0.583509 -1.197273 0.185379 -0.077883 -0.765982 -0.796225
    10 1.535925 0.010247 0.005009 -0.076524 0.315739 -1.052216
    11 1.100770 0.004527 -0.010675 -0.000003 0.000010 -0.670681
    12 0.957766 -2.746777 -0.090301 0.183154 -0.052115 0.117110
    13 -0.033419 -1.397129 -0.011256 -0.767903 -0.016119 -0.103404
    14 -0.022362 -0.957434 0.018782 -0.826243 0.000000 0.000000
    15 0.250028 -2.820664 -0.238397 -0.282644 0.057278 -0.106682
    16 -0.049759 -1.680546 0.100479 -2.012741 0.000000 -0.000002
    17 -0.034141 -1.148309 0.084778 -1.037448 0.000000 0.000000
    18 -0.488517 -2.755600 -0.228262 -0.195772 0.054591 -0.144142
    19 0.039889 -1.479791 0.029853 -2.042721 0.000000 0.000001
    20 0.028786 -1.075733 -0.023111 -0.841807 0.000000 0.000000
    21 -1.180679 -2.507216 -0.193861 0.008684 0.244081 -0.056771
    22 -0.024966 -1.123935 0.017594 -1.466568 0.000000 0.000001
    23 -0.020058 -0.890966 0.010091 -1.308722 0.000000 0.000000
    24 0.120152 -0.050267 -0.054488 0.287569 3.110905 1.561085
    25 1.304080 8.804363 -0.126173 1.605129 -1.493046 -0.161010
    26 -0.029120 -7.370090 -12.101763 -1.436331 -5.448407 -0.627118
    27 0.096946 -8.450419 -0.009364 0.093069 -0.275635 0.236387
    28 -0.587378 -1.261647 0.201457 0.105388 -0.619417 -2.838878
    29 1.522835 0.058680 0.016851 -0.008552 0.057547 0.424999
    30 1.117948 0.048425 -0.005765 -0.000015 -0.000006 0.429058
    31 -0.963867 -2.785143 -0.085346 0.230931 0.199968 -0.171434
    32 0.028478 -1.403069 0.006271 -1.008232 0.000000 0.000000
    33 0.021414 -0.957782 0.020047 -0.332300 0.000000 0.000000
    34 -0.249534 -2.846964 -0.174215 -0.001189 0.000966 -0.025450
    35 0.043234 -1.683941 0.096014 -2.021618 -0.002966 -0.000335
    36 0.031729 -1.160830 0.058836 -1.017627 0.000007 0.000007
    37 0.447951 -2.798983 -0.200442 -0.016203 0.053277 0.116304
    38 -0.032910 -1.480207 0.004936 -1.783733 0.000000 0.000002
    39 -0.027022 -1.076920 -0.020212 -0.898894 0.000000 0.000000
    40 1.164474 -2.543939 -0.170327 -0.365253 -0.001010 -0.002103
    41 0.024033 -1.129040 0.017806 -1.210698 -0.100239 0.187008
    42 0.014896 -0.883991 -0.019845 -0.909602 0.074161 0.017318
    43 -0.139399 -0.111701 0.014397 0.285534 -0.040597 1.576226
    44 -1.441116 8.792395 -0.163593 -1.643144 1.483711 0.062639
  time 24
    0 7.113683 -10.208568 -14.689385 1.555775 -2.966759 -1.529497
    1 -0.071919 -8.498734 -0.104136 -0.110569 0.404305 -0.366075
    2 0.270743 -2.981032 0.317115 0.554697 1.379928 0.480550
    3 -0.000001 -1.808652 1.012938 0.000000 0.000000 0.000000
    4 -0.115836 1.063685 1.652800 0.000000 0.000000 0.000000
    5 0.000000 2.290612 1.335354 0.000000 0.000000 0.000000
    6 0.000000 0.706664 0.002903 0.000000 0.000000 0.000000
    7 -0.194965 1.732989 -0.758107 0.000000 0.000000 0.000000
    8 -0.000001 -0.273071 1.043217 0.000000 0.000000 0.000000
    9 0.583509 -1.197273 0.185379 -0.077883 -0.765982 -0.796225
    10 1.535925 0.010247 0.005009 -0.076524 0.315739 -1.052216
    11 1.100770 0.004527 -0.010675 -0.000003 0.000010 -0.670681
    12 0.957766 -2.746777 -0.090301 0.183061 -0.052115 0.117110
    13 -0.033419 -1.397129 -0.011256 -0.767863 -0.016119 -0.103404
    14 -0.022362 -0.957434 0.018782 -0.825924 0.000000 0.000000
    15 0.250028 -2.820664 -0.238397 -0.282644 0.057278 -0.106682
    16 -0.049759 -1.680546 0.100479 -2.012741 0.000000 -0.000002
    17 -0.034141 -1.148309 0.084778 -1.037448 0.000000 0.000000
    18 -0.488517 -2.755600 -0.228262 -0.195772 0.054591 -0.144142
    19 0.039889 -1.479791 0.029853 -2.042721 0.000000 0.000001
    20 0.028786 -1.075733 -0.023111 -0.841807 0.000000 0.000000
    21 -1.180679 -2.507216 -0.193861 0.008684 0.244081 -0.056771
    22 -0.024966 -1.123935 0.017594 -1.466568 0.000000 0.000001
    23 -0.020058 -0.890966 0.010091 -1.308722 0.000000 0.000000
    24 0.120152 -0.050267 -0.054488 0.287569 3.110905 1.561085
    25 1.304080 8.804363 -0.126173 1.605129 -1.493046 -0.161010
    26 -0.033026 -7.366184 -12.105669 -1.436014 -5.448319 -0.627118
    27 0.096946 -8.450419 -0.009364 0.095075 -0.274897 0.237300
    28 -0.587378 -1.261647 0.201457 0.105388 -0.619417 -2.838878
    29 1.522835 0.058680 0.016851 -0.008552 0.057547 0.424999
    30 1.117948 0.048425 -0.005765 -0.000015 -0.000006 0.429058
    31 -0.963867 -2.785143 -0.085346 0.230931 0.199968 -0.171434
    32 0.028478 -1.403069 0.006271 -1.008232 0.000000 0.000000
    33 0.021414 -0.957782 0.020047 -0.332300 0.000000 0.000000
    34 -0.249534 -2.846964 -0.174215 -0.001189 0.000966 -0.025450
    35 0.043234 -1.683941 0.096014 -2.021618 -0.002966 -0.000335
    36 0.031729 -1.160830 0.058836 -1.017627 0.000007 0.000007
    37 0.447951 -2.798983 -0.200442 -0.016203 0.053277 0.116304
    38 -0.032910 -1.480207 0.004936 -1.783733 0.000000 0.000002
    39 -0.027022 -1.076920 -0.020212 -0.898894 0.000000 0.000000
    40 1.164474 -2.543939 -0.170327 -0.365253 -0.001010 -0.002103
    41 0.024033 -1.129040 0.017806 -1.210698 -0.100239 0.187008
    42 0.014896 -0.883991 -0.019845 -0.909602 0.074161 0.017318
    43 -0.139399 -0.111701 0.014397 0.285534 -0.040597 1.576226
    44 -1.441116 8.792395 -0.163593 -1.643144 1.483711 0.062639
  time 25
    0 7.113683 -10.208568 -14.689385 1.555702 -2.965612 -1.529497
    1 -0.071919 -8.498734 -0.104136 -0.110949 0.407223 -0.367005
    2 0.270743 -2.981032 0.317115 0.554697 1.379928 0.480550
    3 -0.000001 -1.808652 1.012938 0.000000 0.000000 0.000000
    4 -0.115836 1.063685 1.652800 0.000000 0.000000 0.000000
    5 0.000000 2.290612 1.335354 0.000000 0.000000 0.000000
    6 0.000000 0.706664 0.002903 0.000000 0.000000 0.000000
    7 -0.194965 1.732989 -0.758107 0.000000 0.000000 0.000000
    8 -0.000001 -0.273071 1.043217 0.000000 0.000000 0.000000
    9 0.583509 -1.197273 0.185379 -0.077883 -0.765982 -0.796225
    10 1.535925 0.010247 0.005009 -0.076524 0.315739 -1.052216
    11 1.100770 0.004527 -0.010675 -0.000003 0.000010 -0.670681
    12 0.957766 -2.746777 -0.090301 0.182905 -0.052115 0.117110
    13 -0.033419 -1.397129 -0.011256 -0.767700 -0.016119 -0.103404
    14 -0.022362 -0.957434 0.018782 -0.824045 0.000000 0.000000
    15 0.250028 -2.820664 -0.238397 -0.282644 0.057278 -0.106682
    16 -0.049759 -1.680546 0.100479 -2.012741 0.000000 -0.000002
    17 -0.034141 -1.148309 0.084778 -1.037448 0.000000 0.000000
    18 -0.488517 -2.755600 -0.228262 -0.195772 0.054591 -0.144142
    19 0.039889 -1.479791 0.029853 -2.042721 0.000000 0.000001
    20 0.028786 -1.075733 -0.023111 -0.841807 0.000000 0.000000
    21 -1.180679 -2.507216 -0.193861 0.008684 0.244081 -0.056771
    22 -0.024966 -1.123935 0.017594 -1.466568 0.000000 0.000001
    23 -0.020058 -0.890966 0.010091 -1.308722 0.000000 0.000000
    24 0.120152 -0.050267 -0.054488 0.287569 3.110905 1.561085
    25 1.304080 8.804363 -0.126173 1.605129 -1.493046 -0.161010
    26 -0.036933 -7.358371 -12.105669 -1.435570 -5.448142 -0.627118
    27 0.096946 -8.450419 -0.009364 0.097562 -0.273980 0.238441
    28 -0.587378 -1.261647 0.201457 0.105388 -0.619417 -2.838878
    29 1.522835 0.058680 0.016851 -0.008552 0.057547 0.424999
    30 1.117948 0.048425 -0.005765 -0.000015 -0.000006 0.429058
    31 -0.963867 -2.785143 -0.085346 0.230931 0.199968 -0.171434
    32 0.028478 -1.403069 0.006271 -1.008232 0.000000 0.000000
    33 0.021414 -0.957782 0.020047 -0.332300 0.000000 0.000000
    34 -0.249534 -2.846964 -0.174215 -0.001189 0.000966 -0.025450
    35 0.043234 -1.683941 0.096014 -2.021618 -0.002966 -0.000335
    36 0.031729 -1.160830 0.058836 -1.017627 0.000007 0.000007
    37 0.447951 -2.798983 -0.200442 -0.016203 0.053277 0.116304
    38 -0.032910 -1.480207 0.004936 -1.783733 0.000000 0.000002
    39 -0.027022 -1.076920 -0.020212 -0.898894 0.000000 0.000000
    40 1.164474 -2.543939 -0.170327 -0.365253 -0.001010 -0.002103
    41 0.024033 -1.129040 0.017806 -1.210698 -0.100239 0.187008
    42 0.014896 -0.883991 -0.019845 -0.909602 0.074161 0.017318
    43 -0.139399 -0.111701 0.014397 0.285534 -0.040597 1.576226
    44 -1.441116 8.792395 -0.163593 -1.643144 1.483711 0.062639
  time 26
    0 7.113683 -10.208568 -14.689385 1.555702 -2.964368 -1.529497
    1 -0.071919 -8.498734 -0.104136 -0.111383 0.410548 -0.368073
    2 0.270743 -2.981032 0.317115 0.554697 1.379928 0.480550
    3 -0.000001 -1.808652 1.012938 0.000000 0.000000 0.000000
    4 -0.115836 1.063685 1.652800 0.000000 0.000000 0.000000
    5 0.000000 2.290612 1.335354 0.000000 0.000000 0.000000
    6 0.000000 0.706664 0.002903 0.000000 0.000000 0.000000
    7 -0.194965 1.732989 -0.758107 0.000000 0.000000 0.000000
    8 -0.000001 -0.273071 1.043217 0.000000 0.000000 0.000000
    9 0.583509 -1.197273 0.185379 -0.077883 -0.765982 -0.796225
    10 1.535925 0.010247 0.005009 -0.076524 0.315739 -1.052216
    11 1.100770 0.004527 -0.010675 -0.000003 0.000010 -0.670681
    12 0.957766 -2.746777 -0.090301 0.182733 -0.052115 0.117110
    13 -0.033419 -1.397129 -0.011256 -0.767416 -0.016119 -0.103404
    14 -0.022362 -0.957434 0.018782 -0.821147 0.000000 0.000000
    15 0.250028 -2.820664 -0.238397 -0.282644 0.057278 -0.106682
    16 -0.049759 -1.680546 0.100479 -2.012741 0.000000 -0.000002
    17 -0.034141 -1.148309 0.084778 -1.037448 0.000000 0.000000
    18 -0.488517 -2.755600 -0.228262 -0.195772 0.054591 -0.144142
    19 0.039889 -1.479791 0.029853 -2.042721 0.000000 0.000001
    20 0.028786 -1.075733 -0.023111 -0.841807 0.000000 0.000000
    21 -1.180679 -2.507216 -0.193861 0.008684 0.244081 -0.056771
    22 -0.024966 -1.123935 0.017594 -1.466568 0.000000 0.000001
    23 -0.020058 -0.890966 0.010091 -1.308722 0.000000 0.000000
    24 0.120152 -0.050267 -0.054488 0.287569 3.110905 1.561085
    25 1.304080 8.804363 -0.126173 1.605129 -1.493046 -0.161010
    26 -0.040839 -7.350558 -12.109576 -1.435126 -5.448053 -0.627118
    27 0.096946 -8.450419 -0.009364 0.100423 -0.272943 0.239725
    28 -0.587378 -1.261647 0.201457 0.105388 -0.619417 -2.838878
    29 1.522835 0.058680 0.016851 -0.008552 0.057547 0.424999
    30 1.117948 0.048425 -0.005765 -0.000015 -0.000006 0.429058
    31 -0.963867 -2.785143 -0.085346 0.230931 0.199968 -0.171434
    32 0.028478 -1.403069 0.006271 -1.008232 0.000000 0.000000
    33 0.021414 -0.957782 0.020047 -0.332300 0.000000 0.000000
    34 -0.249534 -2.846964 -0.174215 -0.001189 0.000966 -0.025450
    35 0.043234 -1.683941 0.096014 -2.021618 -0.002966 -0.000335
    36 0.031729 -1.160830 0.058836 -1.017627 0.000007 0.000007
    37 0.447951 -2.798983 -0.200442 -0.016203 0.053277 0.116304
    38 -0.032910 -1.480207 0.004936 -1.783733 0.000000 0.000002
    39 -0.027022 -1.076920 -0.020212 -0.898894 0.000000 0.000000
    40 1.164474 -2.543939 -0.170327 -0.365253 -0.001010 -0.002103
    41 0.024033 -1.129040 0.017806 -1.210698 -0.100239 0.187008
    42 0.014896 -0.883991 -0.019845 -0.909602 0.074161 0.017318
    43 -0.139399 -0.111701 0.014397 0.285534 -0.040597 1.576226
    44 -1.441116 8.792395 -0.163593 -1.643144 1.483711 0.062639
  time 27
    0 7.113683 -10.208568 -14.689385 1.555629 -2.963030 -1.529497
    1 -0.071919 -8.498734 -0.104136 -0.111857 0.414058 -0.369220
    2 0.270743 -2.981032 0.317115 0.554697 1.379928 0.480550
    3 -0.000001 -1.808652 1.012938 0.000000 0.000000 0.000000
    4 -0.115836 1.063685 1.652800 0.000000 0.000000 0.000000
    5 0.000000 2.290612 1.335354 0.000000 0.000000 0.000000
    6 0.000000 0.706664 0.002903 0.000000 0.000000 0.000000
    7 -0.194965 1.732989 -0.758107 0.000000 0.000000 0.000000
    8 -0.000001 -0.273071 1.043217 0.000000 0.000000 0.000000
    9 0.583509 -1.197273 0.185379 -0.077883 -0.765982 -0.796225
    10 1.535925 0.010247 0.005009 -0.076524 0.315739 -1.052216
    11 1.100770 0.004527 -0.010675 -0.000003 0.000010 -0.670681
    12 0.957766 -2.746777 -0.090301 0.182562 -0.052115 0.117110
    13 -0.033419 -1.397129 -0.011256 -0.767091 -0.016119 -0.103404
    14 -0.022362 -0.957434 0.018782 -0.817835 0.000000 0.000000
    15 0.250028 -2.820664 -0.238397 -0.282644 0.057278 -0.106682
    16 -0.049759 -1.680546 0.100479 -2.012741 0.000000 -0.000002
    17 -0.034141 -1.148309 0.084778 -1.037448 0.000000 0.000000
    18 -0.488517 -2.755600 -0.228262 -0.195772 0.054591 -0.144142
    19 0.039889 -1.479791 0.029853 -2.042721 0.000000 0.000001
    20 0.028786 -1.075733 -0.023111 -0.841807 0.000000 0.000000
    21 -1.180679 -2.507216 -0.193861 0.008684 0.244081 -0.056771
    22 -0.024966 -1.123935 0.017594 -1.466568 0.000000 0.000001
    23 -0.020058 -0.890966 0.010091 -1.308722 0.000000 0.000000
    24 0.120152 -0.050267 -0.054488 0.287569 3.110905 1.561085
    25 1.304080 8.804363 -0.126173 1.605129 -1.493046 -0.161010
    26 -0.044746 -7.346652 -12.113482 -1.434619 -5.447965 -0.627118
    27 0.096946 -8.450419 -0.009364 0.103445 -0.271847 0.241094
    28 -0.587378 -1.261647 0.201457 0.105388 -0.619417 -2.838878
    29 1.522835 0.058680 0.016851 -0.008552 0.057547 0.424999
    30 1.117948 0.048425 -0.005765 -0.000015 -0.000006 0.429058
    31 -0.963867 -2.785143 -0.085346 0.230931 0.199968 -0.171434
    32 0.028478 -1.403069 0.006271 -1.008232 0.000000 0.000000
    33 0.021414 -0.957782 0.020047 -0.332300 0.000000 0.000000
    34 -0.249534 -2.846964 -0.174215 -0.001189 0.000966 -0.025450
    35 0.043234 -1.683941 0.096014 -2.021618 -0.002966 -0.000335
    36 0.031729 -1.160830 0.058836 -1.017627 0.000007 0.000007
    37 0.447951 -2.798983 -0.200442 -0.016203 0.053277 0.116304
    38 -0.032910 -1.480207 0.004936 -1.783733 0.000000 0.000002
    39 -0.027022 -1.076920 -0.020212 -0.898894 0.000000 0.000000
    40 1.164474 -2.543939 -0.170327 -0.365253 -0.001010 -0.002103
    41 0.024033 -1.129040 0.017806 -1.210698 -0.100239 0.187008
    42 0.014896 -0.883991 -0.019845 -0.909602 0.074161 0.017318
    43 -0.139399 -0.111701 0.014397 0.285534 -0.040597 1.576226
    44 -1.441116 8.792395 -0.163593 -1.643144 1.483711 0.062639
  time 28
    0 7.113683 -10.208568 -14.689385 1.555556 -2.961691 -1.529497
    1 -0.071919 -8.498734 -0.104136 -0.112332 0.417568 -0.370368
    2 0.270743 -2.981032 0.317115 0.554697 1.379928 0.480550
    3 -0.000001 -1.808652 1.012938 0.000000 0.000000 0.000000
    4 -0.115836 1.063685 1.652800 0.000000 0.000000 0.000000
    5 0.000000 2.290612 1.335354 0.000000 0.000000 0.000000
    6 0.000000 0.706664 0.002903 0.000000 0.000000 0.000000
    7 -0.194965 1.732989 -0.758107 0.000000 0.000000 0.000000
    8 -0.000001 -0.273071 1.043217 0.000000 0.000000 0.000000
    9 0.583509 -1.197273 0.185379 -0.077883 -0.765982 -0.796225
    10 1.535925 0.010247 0.005009 -0.076524 0.315739 -1.052216
    11 1.100770 0.004527 -0.010675 -0.000003 0.000010 -0.670681
    12 0.957766 -2.746777 -0.090301 0.182421 -0.052115 0.117110
    13 -0.033419 -1.397129 -0.011256 -0.766766 -0.016119 -0.103404
    14 -0.022362 -0.957434 0.018782 -0.814746 0.000000 0.000000
    15 0.250028 -2.820664 -0.238397 -0.282644 0.057278 -0.106682
    16 -0.049759 -1.680546 0.100479 -2.012741 0.000000 -0.000002
    17 -0.034141 -1.148309 0.084778 -1.037448 0.000000 0.000000
    18 -0.488517 -2.755600 -0.228262 -0.195772 0.054591 -0.144142
    19 0.039889 -1.479791 0.029853 -2.042721 0.000000 0.000001
    20 0.028786 -1.075733 -0.023111 -0.841807 0.000000 0.000000
    21 -1.180679 -2.507216 -0.193861 0.008684 0.244081 -0.056771
    22 -0.024966 -1.123935 0.017594 -1.466568 0.000000 0.000001
    23 -0.020058 -0.890966 0.010091 -1.308722 0.000000 0.000000
    24 0.120152 -0.050267 -0.054488 0.287569 3.110905 1.561085
    25 1.304080 8.804363 -0.126173 1.605129 -1.493046 -0.161010
    26 -0.048652 -7.338839 -12.113482 -1.434111 -5.447787 -0.627023
    27 0.096946 -8.450419 -0.009364 0.106440 -0.270750 0.242492
    28 -0.587378 -1.261647 0.201457 0.105388 -0.619417 -2.838878
    29 1.522835 0.058680 0.016851 -0.008552 0.057547 0.424999
    30 1.117948 0.048425 -0.005765 -0.000015 -0.000006 0.429058
    31 -0.963867 -2.785143 -0.085346 0.230931 0.199968 -0.171434
    32 0.028478 -1.403069 0.006271 -1.008232 0.000000 0.000000
    33 0.021414 -0.957782 0.020047 -0.332300 0.000000 0.000000
    34 -0.249534 -2.846964 -0.174215 -0.001189 0.000966 -0.025450
    35 0.043234 -1.683941 0.096014 -2.021618 -0.002966 -0.000335
    36 0.031729 -1.160830 0.058836 -1.017627 0.000007 0.000007
    37 0.447951 -2.798983 -0.200442 -0.016203 0.053277 0.116304
    38 -0.032910 -1.480207 0.004936 -1.783733 0.000000 0.000002
    39 -0.027022 -1.076920 -0.020212 -0.898894 0.000000 0.000000
    40 1.164474 -2.543939 -0.170327 -0.365253 -0.001010 -0.002103
    41 0.024033 -1.129040 0.017806 -1.210698 -0.100239 0.187008
    42 0.014896 -0.883991 -0.019845 -0.909602 0.074161 0.017318
    43 -0.139399 -0.111701 0.014397 0.285534 -0.040597 1.576226
    44 -1.441116 8.792395 -0.163593 -1.643144 1.483711 0.062639
  time 29
    0 7.113683 -10.208568 -14.689385 1.555483 -2.960352 -1.529497
    1 -0.071919 -8.498734 -0.104136 -0.112779 0.420873 -0.371436
    2 0.270743 -2.981032 0.317115 0.554697 1.379928 0.480550
    3 -0.000001 -1.808652 1.012938 0.000000 0.000000 0.000000
    4 -0.115836 1.063685 1.652800 0.000000 0.000000 0.000000
    5 0.000000 2.290612 1.335354 0.000000 0.000000 0.000000
    6 0.000000 0.706664 0.002903 0.000000 0.000000 0.000000
    7 -0.194965 1.732989 -0.758107 0.000000 0.000000 0.000000
    8 -0.000001 -0.273071 1.043217 0.000000 0.000000 0.000000
    9 0.583509 -1.197273 0.185379 -0.077883 -0.765982 -0.796225
    10 1.535925 0.010247 0.005009 -0.076524 0.315739 -1.052216
    11 1.100770 0.004527 -0.010675 -0.000003 0.000010 -0.670681
    12 0.957766 -2.746777 -0.090301 0.182312 -0.052115 0.117110
    13 -0.033419 -1.397129 -0.011256 -0.766563 -0.016119 -0.103392
    14 -0.022362 -0.957434 0.018782 -0.812454 0.000000 0.000000
    15 0.250028 -2.820664 -0.238397 -0.282644 0.057278 -0.106682
    16 -0.049759 -1.680546 0.100479 -2.012741 0.000000 -0.000002
    17 -0.034141 -1.148309 0.084778 -1.037448 0.000000 0.000000
    18 -0.488517 -2.755600 -0.228262 -0.195772 0.054591 -0.144142
    19 0.039889 -1.479791 0.029853 -2.042721 0.000000 0.000001
    20 0.028786 -1.075733 -0.023111 -0.841807 0.000000 0.000000
    21 -1.180679 -2.507216 -0.193861 0.008684 0.244081 -0.056771
    22 -0.024966 -1.123935 0.017594 -1.466568 0.000000 0.000001
    23 -0.020058 -0.890966 0.010091 -1.308722 0.000000 0.000000
    24 0.120152 -0.050267 -0.054488 0.287569 3.110905 1.561085
    25 1.304080 8.804363 -0.126173 1.605129 -1.493046 -0.161010
    26 -0.048652 -7.334933 -12.117388 -1.433604 -5.447699 -0.627023
    27 0.096946 -8.450419 -0.009364 0.109301 -0.269713 0.243776
    28 -0.587378 -1.261647 0.201457 0.105388 -0.619417 -2.838878
    29 1.522835 0.058680 0.016851 -0.008552 0.057547 0.424999
    30 1.117948 0.048425 -0.005765 -0.000015 -0.000006 0.429058
    31 -0.963867 -2.785143 -0.085346 0.230931 0.199968 -0.171434
    32 0.028478 -1.403069 0.006271 -1.008232 0.000000 0.000000
    33 0.021414 -0.957782 0.020047 -0.332300 0.000000 0.000000
    34 -0.249534 -2.846964 -0.174215 -0.001189 0.000966 -0.025450
    35 0.043234 -1.683941 0.096014 -2.021618 -0.002966 -0.000335
    36 0.031729 -1.160830 0.058836 -1.017627 0.000007 0.000007
    37 0.447951 -2.798983 -0.200442 -0.016203 0.053277 0.116304
    38 -0.032910 -1.480207 0.004936 -1.783733 0.000000 0.000002
    39 -0.027022 -1.076920 -0.020212 -0.898894 0.000000 0.000000
    40 1.164474 -2.543939 -0.170327 -0.365253 -0.001010 -0.002103
    41 0.024033 -1.129040 0.017806 -1.210698 -0.100239 0.187008
    42 0.014896 -0.883991 -0.019845 -0.909602 0.074161 0.017318
    43 -0.139399 -0.111701 0.014397 0.285534 -0.040597 1.576226
    44 -1.441116 8.792395 -0.163593 -1.643144 1.483711 0.062639
  time 30
    0 7.113683 -10.208568 -14.689385 1.555483 -2.959300 -1.529497
    1 -0.071919 -8.498734 -0.104136 -0.113186 0.423791 -0.372385
    2 0.270743 -2.981032 0.317115 0.554697 1.379928 0.480550
    3 -0.000001 -1.808652 1.012938 0.000000 0.000000 0.000000
    4 -0.115836 1.063685 1.652800 0.000000 0.000000 0.000000
    5 0.000000 2.290612 1.335354 0.000000 0.000000 0.000000
    6 0.000000 0.706664 0.002903 0.000000 0.000000 0.000000
    7 -0.194965 1.732989 -0.758107 0.000000 0.000000 0.000000
    8 -0.000001 -0.273071 1.043217 0.000000 0.000000 0.000000
    9 0.583509 -1.197273 0.185379 -0.077883 -0.765982 -0.796225
    10 1.535925 0.010247 0.005009 -0.076524 0.315739 -1.052216
    11 1.100770 0.004527 -0.010675 -0.000003 0.000010 -0.670681
    12 0.957766 -2.746777 -0.090301 0.182281 -0.052115 0.117110
    13 -0.033419 -1.397129 -0.011256 -0.766482 -0.016119 -0.103392
    14 -0.022362 -0.957434 0.018782 -0.811562 0.000000 0.000000
    15 0.250028 -2.820664 -0.238397 -0.282644 0.057278 -0.106682
    16 -0.049759 -1.680546 0.100479 -2.012741 0.000000 -0.000002
    17 -0.034141 -1.148309 0.084778 -1.037448 0.000000 0.000000
    18 -0.488517 -2.755600 -0.228262 -0.195772 0.054591 -0.144142
    19 0.039889 -1.479791 0.029853 -2.042721 0.000000 0.000001
    20 0.028786 -1.075733 -0.023111 -0.841807 0.000000 0.000000
    21 -1.180679 -2.507216 -0.193861 0.008684 0.244081 -0.056771
    22 -0.024966 -1.123935 0.017594 -1.466568 0.000000 0.000001
    23 -0.020058 -0.890966 0.010091 -1.308722 0.000000 0.000000
    24 0.120152 -0.050267 -0.054488 0.287569 3.110905 1.561085
    25 1.304080 8.804363 -0.126173 1.605129 -1.493046 -0.161010
    26 -0.048652 -7.334933 -12.117388 -1.433223 -5.447522 -0.627023
    27 0.096946 -8.450419 -0.009364 0.111815 -0.268816 0.244946
    28 -0.587378 -1.261647 0.201457 0.105388 -0.619417 -2.838878
    29 1.522835 0.058680 0.016851 -0.008552 0.057547 0.424999
    30 1.117948 0.048425 -0.005765 -0.000015 -0.000006 0.429058
    31 -0.963867 -2.785143 -0.085346 0.230931 0.199968 -0.171434
    32 0.028478 -1.403069 0.006271 -1.008232 0.000000 0.000000
    33 0.021414 -0.957782 0.020047 -0.332300 0.000000 0.000000
    34 -0.249534 -2.846964 -0.174215 -0.001189 0.000966 -0.025450
    35 0.043234 -1.683941 0.096014 -2.021618 -0.002966 -0.000335
    36 0.031729 -1.160830 0.058836 -1.017627 0.000007 0.000007
    37 0.447951 -2.798983 -0.200442 -0.016203 0.053277 0.116304
    38 -0.032910 -1.480207 0.004936 -1.783733 0.000000 0.000002
    39 -0.027022 -1.076920 -0.020212 -0.898894 0.000000 0.000000
    40 1.164474 -2.543939 -0.170327 -0.365253 -0.001010 -0.002103
    41 0.024033 -1.129040 0.017806 -1.210698 -0.100239 0.187008
    42 0.014896 -0.883991 -0.019845 -0.909602 0.074161 0.017318
    43 -0.139399 -0.111701 0.014397 0.285534 -0.040597 1.576226
    44 -1.441116 8.792395 -0.163593 -1.643144 1.483711 0.062639
end
