// Created by Crowbar 0.34.0.0

$ModelName "weapons/tfa_cso/w_groza_v8.mdl"

$BodyGroup "studio"
{
	studio "v_groza"
}

$collisionmodel "v_groza.smd"
{
	$mass 9
}

$CDMaterials "models\weapons\tfa_cso\groza_v8"

$attachment "0" "root" 0.00 -9.80 -0.70 rotate -0 0 0

$Sequence "idle" {
	"anims\idle.smd"
	fps 30
}