version 1
nodes
  0 "Bone01" -1
  1 "Bone_Lefthand" 0
  2 "Bone02" 1
  3 "Bone03" 2
  4 "Bone48" 3
  5 "Bone49" 4
  6 "Bone25" 3
  7 "Bone51" 3
  8 "Bone 04" 1
  9 "Bone13" 8
  10 "Bone14" 9
  11 "Bone15" 10
  12 "Bone17" 8
  13 "Bone18" 12
  14 "Bone19" 13
  15 "Bone21" 8
  16 "Bone22" 15
  17 "Bone23" 16
  18 "Bone05" 8
  19 "Bone06" 18
  20 "Bone07" 19
  21 "Bone09" 8
  22 "Bone10" 21
  23 "Bone11" 22
  24 "Bone04" -1
  25 "Bone_Righthand" 24
  26 "Bone26" 25
  27 "Bone35" 26
  28 "Bone36" 27
  29 "Bone37" 28
  30 "Bone31" 26
  31 "Bone32" 30
  32 "Bone33" 31
  33 "Bone39" 26
  34 "Bone40" 33
  35 "Bone41" 34
  36 "Bone43" 26
  37 "Bone44" 36
  38 "Bone45" 37
  39 "Bone27" 26
  40 "Bone28" 39
  41 "Bone29" 40
end
skeleton
  time 0
    0 9.958185 4.962586 -4.869739 0.682407 -1.782305 -1.215281
    1 0.000000 -8.563282 -0.000003 0.509253 0.326798 -0.593936
    2 -0.109710 -3.119558 0.832132 0.656026 1.697471 1.123747
    3 0.000000 1.322671 2.154066 0.000000 0.000000 0.000000
    4 0.000000 -2.226188 0.667243 0.000000 0.000000 0.000000
    5 0.000000 -0.744802 -0.000001 0.000000 -0.267036 0.000000
    6 0.000001 -2.694760 -0.628573 0.000000 0.000000 0.000000
    7 0.000002 -5.701931 -1.088361 0.000000 0.000000 0.000000
    8 -0.003480 -0.404829 0.000000 0.000000 0.000000 0.000000
    9 -0.519309 -2.501155 -0.278958 -1.448623 0.000000 -0.122173
    10 -0.010598 -1.208185 -0.000001 -0.609135 0.000000 0.000000
    11 0.000000 -0.763066 0.000000 -1.192070 0.000000 0.000000
    12 0.105981 -2.607134 -0.278958 -1.476549 0.000000 -0.148353
    13 0.000000 -1.250579 0.000000 -0.684195 0.000000 0.000000
    14 0.000000 -0.932634 0.000000 -1.488764 0.000000 0.000000
    15 0.763064 -2.490556 -0.278958 -0.344835 0.055297 0.283572
    16 -0.012322 -1.280916 -0.000001 -0.322907 0.000000 0.000000
    17 -0.001697 -0.749371 0.000000 -0.593412 0.000000 0.000000
    18 0.354567 0.016267 0.318133 0.376749 -0.507429 -0.712448
    19 1.887165 0.012878 -0.000001 -0.292705 -0.088530 -0.686815
    20 1.001873 -0.000270 0.000001 0.000000 0.000000 -0.708597
    21 -1.123359 -2.195093 -0.278957 -1.337000 -0.006064 -0.061811
    22 0.010772 -0.963791 0.000001 -0.485233 0.000000 0.000000
    23 -0.010412 -0.631915 0.000000 -0.977401 0.000000 0.000000
    24 -1.640186 -6.029243 -7.475132 -0.380480 0.255020 0.648676
    25 0.089928 -8.543166 -0.000001 0.386094 0.122644 0.292059
    26 0.000000 -0.359714 0.000000 0.000000 0.000000 0.000000
    27 -0.170480 -2.636148 -0.277655 -1.787196 0.000000 0.000000
    28 0.010599 -1.261178 0.000001 -0.253073 0.000000 0.000000
    29 -0.000001 -0.943233 -0.000001 -0.532326 0.000000 0.000000
    30 -0.827564 -2.508974 -0.277656 -1.432907 0.000000 0.000000
    31 0.000000 -1.292971 0.000000 -0.554988 0.000000 0.000000
    32 0.000000 -0.752466 0.000000 -0.633551 0.000000 0.000000
    33 0.444213 -2.561961 -0.277656 -1.837245 -0.049654 -0.023029
    34 0.021021 -1.208186 0.000000 -0.427606 0.000000 0.000000
    35 0.010597 -0.741867 -0.000001 -0.453786 0.000000 0.000000
    36 1.047444 -2.222822 -0.277656 -1.801437 -0.095845 -0.030507
    37 0.000000 -0.996223 -0.000001 -0.549786 0.000000 0.000000
    38 -0.000001 -0.614690 0.000000 -0.523599 0.000000 0.000000
    39 -0.308254 -0.007814 0.307166 -0.129374 -0.297499 -2.570662
    40 1.978378 0.019543 0.000000 -0.093458 -0.047313 0.082472
    41 0.982426 0.003186 0.000000 0.000000 0.000000 0.425839
  time 1
    0 9.958185 4.962586 -4.869739 0.682407 -1.782305 -1.215281
    1 0.000000 -8.563282 -0.000003 0.509253 0.326798 -0.593936
    2 -0.109710 -3.119558 0.832132 0.656026 1.697471 1.123747
    3 0.000000 1.322671 2.154066 0.000000 0.000000 0.000000
    4 0.000000 -2.226188 0.667243 0.000000 0.000000 0.000000
    5 0.000000 -0.744802 -0.000001 0.000000 -0.267036 0.000000
    6 0.000001 -2.694760 -0.628573 0.000000 0.000000 0.000000
    7 0.000002 -5.701931 -1.088361 0.000000 0.000000 0.000000
    8 -0.003480 -0.404829 0.000000 0.000000 0.000000 0.000000
    9 -0.519309 -2.501155 -0.278958 -1.448623 0.000000 -0.122173
    10 -0.010598 -1.208185 -0.000001 -0.609135 0.000000 0.000000
    11 0.000000 -0.763066 0.000000 -1.192070 0.000000 0.000000
    12 0.105981 -2.607134 -0.278958 -1.476549 0.000000 -0.148353
    13 0.000000 -1.250579 0.000000 -0.684195 0.000000 0.000000
    14 0.000000 -0.932634 0.000000 -1.488764 0.000000 0.000000
    15 0.763064 -2.490556 -0.278958 -0.344835 0.055297 0.283572
    16 -0.012322 -1.280916 -0.000001 -0.322907 0.000000 0.000000
    17 -0.001697 -0.749371 0.000000 -0.593412 0.000000 0.000000
    18 0.354567 0.016267 0.318133 0.376749 -0.507429 -0.712448
    19 1.887165 0.012878 -0.000001 -0.292705 -0.088530 -0.686815
    20 1.001873 -0.000270 0.000001 0.000000 0.000000 -0.708597
    21 -1.123359 -2.195093 -0.278957 -1.337000 -0.006064 -0.061811
    22 0.010772 -0.963791 0.000001 -0.485233 0.000000 0.000000
    23 -0.010412 -0.631915 0.000000 -0.977401 0.000000 0.000000
    24 -1.640186 -6.029243 -7.475132 -0.380480 0.255020 0.648676
    25 0.089928 -8.543166 -0.000001 0.386094 0.122644 0.292059
    26 0.000000 -0.359714 0.000000 0.000000 0.000000 0.000000
    27 -0.170480 -2.636148 -0.277655 -1.787196 0.000000 0.000000
    28 0.010599 -1.261178 0.000001 -0.253073 0.000000 0.000000
    29 -0.000001 -0.943233 -0.000001 -0.532326 0.000000 0.000000
    30 -0.827564 -2.508974 -0.277656 -1.432907 0.000000 0.000000
    31 0.000000 -1.292971 0.000000 -0.554988 0.000000 0.000000
    32 0.000000 -0.752466 0.000000 -0.633551 0.000000 0.000000
    33 0.444213 -2.561961 -0.277656 -1.837245 -0.049654 -0.023029
    34 0.021021 -1.208186 0.000000 -0.427606 0.000000 0.000000
    35 0.010597 -0.741867 -0.000001 -0.453786 0.000000 0.000000
    36 1.047444 -2.222822 -0.277656 -1.801437 -0.095845 -0.030507
    37 0.000000 -0.996223 -0.000001 -0.549786 0.000000 0.000000
    38 -0.000001 -0.614690 0.000000 -0.523599 0.000000 0.000000
    39 -0.308254 -0.007814 0.307166 -0.129374 -0.297499 -2.570662
    40 1.978378 0.019543 0.000000 -0.093458 -0.047313 0.082472
    41 0.982426 0.003186 0.000000 0.000000 0.000000 0.425839
  time 2
    0 9.958185 4.962586 -4.869739 0.682407 -1.782305 -1.215281
    1 0.000000 -8.563282 -0.000003 0.509253 0.326798 -0.593936
    2 -0.109710 -3.119558 0.832132 0.656026 1.697471 1.123747
    3 0.000000 1.322671 2.154066 0.000000 0.000000 0.000000
    4 0.000000 -2.226188 0.667243 0.000000 0.000000 0.000000
    5 0.000000 -0.744802 -0.000001 0.000000 -0.267036 0.000000
    6 0.000001 -2.694760 -0.628573 0.000000 0.000000 0.000000
    7 0.000002 -5.701931 -1.088361 0.000000 0.000000 0.000000
    8 -0.003480 -0.404829 0.000000 0.000000 0.000000 0.000000
    9 -0.519309 -2.501155 -0.278958 -1.448623 0.000000 -0.122173
    10 -0.010598 -1.208185 -0.000001 -0.609135 0.000000 0.000000
    11 0.000000 -0.763066 0.000000 -1.192070 0.000000 0.000000
    12 0.105981 -2.607134 -0.278958 -1.476549 0.000000 -0.148353
    13 0.000000 -1.250579 0.000000 -0.684195 0.000000 0.000000
    14 0.000000 -0.932634 0.000000 -1.488764 0.000000 0.000000
    15 0.763064 -2.490556 -0.278958 -0.344835 0.055297 0.283572
    16 -0.012322 -1.280916 -0.000001 -0.322907 0.000000 0.000000
    17 -0.001697 -0.749371 0.000000 -0.593412 0.000000 0.000000
    18 0.354567 0.016267 0.318133 0.376749 -0.507429 -0.712448
    19 1.887165 0.012878 -0.000001 -0.292705 -0.088530 -0.686815
    20 1.001873 -0.000270 0.000001 0.000000 0.000000 -0.708597
    21 -1.123359 -2.195093 -0.278957 -1.337000 -0.006064 -0.061811
    22 0.010772 -0.963791 0.000001 -0.485233 0.000000 0.000000
    23 -0.010412 -0.631915 0.000000 -0.977401 0.000000 0.000000
    24 -1.640186 -6.029243 -7.475132 -0.380480 0.255020 0.648676
    25 0.089928 -8.543166 -0.000001 0.386094 0.122644 0.292059
    26 0.000000 -0.359714 0.000000 0.000000 0.000000 0.000000
    27 -0.170480 -2.636148 -0.277655 -1.787196 0.000000 0.000000
    28 0.010599 -1.261178 0.000001 -0.253073 0.000000 0.000000
    29 -0.000001 -0.943233 -0.000001 -0.532326 0.000000 0.000000
    30 -0.827564 -2.508974 -0.277656 -1.432907 0.000000 0.000000
    31 0.000000 -1.292971 0.000000 -0.554988 0.000000 0.000000
    32 0.000000 -0.752466 0.000000 -0.633551 0.000000 0.000000
    33 0.444213 -2.561961 -0.277656 -1.837245 -0.049654 -0.023029
    34 0.021021 -1.208186 0.000000 -0.427606 0.000000 0.000000
    35 0.010597 -0.741867 -0.000001 -0.453786 0.000000 0.000000
    36 1.047444 -2.222822 -0.277656 -1.801437 -0.095845 -0.030507
    37 0.000000 -0.996223 -0.000001 -0.549786 0.000000 0.000000
    38 -0.000001 -0.614690 0.000000 -0.523599 0.000000 0.000000
    39 -0.308254 -0.007814 0.307166 -0.129374 -0.297499 -2.570662
    40 1.978378 0.019543 0.000000 -0.093458 -0.047313 0.082472
    41 0.982426 0.003186 0.000000 0.000000 0.000000 0.425839
  time 3
    0 9.958185 4.962586 -4.869739 0.682407 -1.782305 -1.215281
    1 0.000000 -8.563282 -0.000003 0.509253 0.326798 -0.593936
    2 -0.109710 -3.119558 0.832132 0.656026 1.697471 1.123747
    3 0.000000 1.322671 2.154066 0.000000 0.000000 0.000000
    4 0.000000 -2.226188 0.667243 0.000000 0.000000 0.000000
    5 0.000000 -0.744802 -0.000001 0.000000 -0.267036 0.000000
    6 0.000001 -2.694760 -0.628573 0.000000 0.000000 0.000000
    7 0.000002 -5.701931 -1.088361 0.000000 0.000000 0.000000
    8 -0.003480 -0.404829 0.000000 0.000000 0.000000 0.000000
    9 -0.519309 -2.501155 -0.278958 -1.448623 0.000000 -0.122173
    10 -0.010598 -1.208185 -0.000001 -0.609135 0.000000 0.000000
    11 0.000000 -0.763066 0.000000 -1.192070 0.000000 0.000000
    12 0.105981 -2.607134 -0.278958 -1.476549 0.000000 -0.148353
    13 0.000000 -1.250579 0.000000 -0.684195 0.000000 0.000000
    14 0.000000 -0.932634 0.000000 -1.488764 0.000000 0.000000
    15 0.763064 -2.490556 -0.278958 -0.344835 0.055297 0.283572
    16 -0.012322 -1.280916 -0.000001 -0.322907 0.000000 0.000000
    17 -0.001697 -0.749371 0.000000 -0.593412 0.000000 0.000000
    18 0.354567 0.016267 0.318133 0.376749 -0.507429 -0.712448
    19 1.887165 0.012878 -0.000001 -0.292705 -0.088530 -0.686815
    20 1.001873 -0.000270 0.000001 0.000000 0.000000 -0.708597
    21 -1.123359 -2.195093 -0.278957 -1.337000 -0.006064 -0.061811
    22 0.010772 -0.963791 0.000001 -0.485233 0.000000 0.000000
    23 -0.010412 -0.631915 0.000000 -0.977401 0.000000 0.000000
    24 -1.640186 -6.029243 -7.475132 -0.380480 0.255020 0.648676
    25 0.089928 -8.543166 -0.000001 0.386094 0.122644 0.292059
    26 0.000000 -0.359714 0.000000 0.000000 0.000000 0.000000
    27 -0.170480 -2.636148 -0.277655 -1.787196 0.000000 0.000000
    28 0.010599 -1.261178 0.000001 -0.253073 0.000000 0.000000
    29 -0.000001 -0.943233 -0.000001 -0.532326 0.000000 0.000000
    30 -0.827564 -2.508974 -0.277656 -1.432907 0.000000 0.000000
    31 0.000000 -1.292971 0.000000 -0.554988 0.000000 0.000000
    32 0.000000 -0.752466 0.000000 -0.633551 0.000000 0.000000
    33 0.444213 -2.561961 -0.277656 -1.837245 -0.049654 -0.023029
    34 0.021021 -1.208186 0.000000 -0.427606 0.000000 0.000000
    35 0.010597 -0.741867 -0.000001 -0.453786 0.000000 0.000000
    36 1.047444 -2.222822 -0.277656 -1.801437 -0.095845 -0.030507
    37 0.000000 -0.996223 -0.000001 -0.549786 0.000000 0.000000
    38 -0.000001 -0.614690 0.000000 -0.523599 0.000000 0.000000
    39 -0.308254 -0.007814 0.307166 -0.129374 -0.297499 -2.570662
    40 1.978378 0.019543 0.000000 -0.093458 -0.047313 0.082472
    41 0.982426 0.003186 0.000000 0.000000 0.000000 0.425839
  time 4
    0 9.958185 4.962586 -4.869739 0.682407 -1.782305 -1.215281
    1 0.000000 -8.563282 -0.000003 0.509253 0.326798 -0.593936
    2 -0.109710 -3.119558 0.832132 0.656026 1.697471 1.123747
    3 0.000000 1.322671 2.154066 0.000000 0.000000 0.000000
    4 0.000000 -2.226188 0.667243 0.000000 0.000000 0.000000
    5 0.000000 -0.744802 -0.000001 0.000000 -0.267036 0.000000
    6 0.000001 -2.694760 -0.628573 0.000000 0.000000 0.000000
    7 0.000002 -5.701931 -1.088361 0.000000 0.000000 0.000000
    8 -0.003480 -0.404829 0.000000 0.000000 0.000000 0.000000
    9 -0.519309 -2.501155 -0.278958 -1.448623 0.000000 -0.122173
    10 -0.010598 -1.208185 -0.000001 -0.609135 0.000000 0.000000
    11 0.000000 -0.763066 0.000000 -1.192070 0.000000 0.000000
    12 0.105981 -2.607134 -0.278958 -1.476549 0.000000 -0.148353
    13 0.000000 -1.250579 0.000000 -0.684195 0.000000 0.000000
    14 0.000000 -0.932634 0.000000 -1.488764 0.000000 0.000000
    15 0.763064 -2.490556 -0.278958 -0.344835 0.055297 0.283572
    16 -0.012322 -1.280916 -0.000001 -0.322907 0.000000 0.000000
    17 -0.001697 -0.749371 0.000000 -0.593412 0.000000 0.000000
    18 0.354567 0.016267 0.318133 0.376749 -0.507429 -0.712448
    19 1.887165 0.012878 -0.000001 -0.292705 -0.088530 -0.686815
    20 1.001873 -0.000270 0.000001 0.000000 0.000000 -0.708597
    21 -1.123359 -2.195093 -0.278957 -1.337000 -0.006064 -0.061811
    22 0.010772 -0.963791 0.000001 -0.485233 0.000000 0.000000
    23 -0.010412 -0.631915 0.000000 -0.977401 0.000000 0.000000
    24 -1.640186 -6.029243 -7.475132 -0.380480 0.255020 0.648676
    25 0.089928 -8.543166 -0.000001 0.386094 0.122644 0.292059
    26 0.000000 -0.359714 0.000000 0.000000 0.000000 0.000000
    27 -0.170480 -2.636148 -0.277655 -1.787196 0.000000 0.000000
    28 0.010599 -1.261178 0.000001 -0.253073 0.000000 0.000000
    29 -0.000001 -0.943233 -0.000001 -0.532326 0.000000 0.000000
    30 -0.827564 -2.508974 -0.277656 -1.432907 0.000000 0.000000
    31 0.000000 -1.292971 0.000000 -0.554988 0.000000 0.000000
    32 0.000000 -0.752466 0.000000 -0.633551 0.000000 0.000000
    33 0.444213 -2.561961 -0.277656 -1.837245 -0.049654 -0.023029
    34 0.021021 -1.208186 0.000000 -0.427606 0.000000 0.000000
    35 0.010597 -0.741867 -0.000001 -0.453786 0.000000 0.000000
    36 1.047444 -2.222822 -0.277656 -1.801437 -0.095845 -0.030507
    37 0.000000 -0.996223 -0.000001 -0.549786 0.000000 0.000000
    38 -0.000001 -0.614690 0.000000 -0.523599 0.000000 0.000000
    39 -0.308254 -0.007814 0.307166 -0.129374 -0.297499 -2.570662
    40 1.978378 0.019543 0.000000 -0.093458 -0.047313 0.082472
    41 0.982426 0.003186 0.000000 0.000000 0.000000 0.425839
  time 5
    0 9.958185 4.962586 -4.869739 0.682407 -1.782305 -1.215281
    1 0.000000 -8.563282 -0.000003 0.509253 0.326798 -0.593936
    2 -0.109710 -3.119558 0.832132 0.656026 1.697471 1.123747
    3 0.000000 1.322671 2.154066 0.000000 0.000000 0.000000
    4 0.000000 -2.226188 0.667243 0.000000 0.000000 0.000000
    5 0.000000 -0.744802 -0.000001 0.000000 -0.267036 0.000000
    6 0.000001 -2.694760 -0.628573 0.000000 0.000000 0.000000
    7 0.000002 -5.701931 -1.088361 0.000000 0.000000 0.000000
    8 -0.003480 -0.404829 0.000000 0.000000 0.000000 0.000000
    9 -0.519309 -2.501155 -0.278958 -1.448623 0.000000 -0.122173
    10 -0.010598 -1.208185 -0.000001 -0.609135 0.000000 0.000000
    11 0.000000 -0.763066 0.000000 -1.192070 0.000000 0.000000
    12 0.105981 -2.607134 -0.278958 -1.476549 0.000000 -0.148353
    13 0.000000 -1.250579 0.000000 -0.684195 0.000000 0.000000
    14 0.000000 -0.932634 0.000000 -1.488764 0.000000 0.000000
    15 0.763064 -2.490556 -0.278958 -0.344835 0.055297 0.283572
    16 -0.012322 -1.280916 -0.000001 -0.322907 0.000000 0.000000
    17 -0.001697 -0.749371 0.000000 -0.593412 0.000000 0.000000
    18 0.354567 0.016267 0.318133 0.376749 -0.507429 -0.712448
    19 1.887165 0.012878 -0.000001 -0.292705 -0.088530 -0.686815
    20 1.001873 -0.000270 0.000001 0.000000 0.000000 -0.708597
    21 -1.123359 -2.195093 -0.278957 -1.337000 -0.006064 -0.061811
    22 0.010772 -0.963791 0.000001 -0.485233 0.000000 0.000000
    23 -0.010412 -0.631915 0.000000 -0.977401 0.000000 0.000000
    24 -1.640186 -6.029243 -7.475132 -0.380480 0.255020 0.648676
    25 0.089928 -8.543166 -0.000001 0.386094 0.122644 0.292059
    26 0.000000 -0.359714 0.000000 0.000000 0.000000 0.000000
    27 -0.170480 -2.636148 -0.277655 -1.787196 0.000000 0.000000
    28 0.010599 -1.261178 0.000001 -0.253073 0.000000 0.000000
    29 -0.000001 -0.943233 -0.000001 -0.532326 0.000000 0.000000
    30 -0.827564 -2.508974 -0.277656 -1.432907 0.000000 0.000000
    31 0.000000 -1.292971 0.000000 -0.554988 0.000000 0.000000
    32 0.000000 -0.752466 0.000000 -0.633551 0.000000 0.000000
    33 0.444213 -2.561961 -0.277656 -1.837245 -0.049654 -0.023029
    34 0.021021 -1.208186 0.000000 -0.427606 0.000000 0.000000
    35 0.010597 -0.741867 -0.000001 -0.453786 0.000000 0.000000
    36 1.047444 -2.222822 -0.277656 -1.801437 -0.095845 -0.030507
    37 0.000000 -0.996223 -0.000001 -0.549786 0.000000 0.000000
    38 -0.000001 -0.614690 0.000000 -0.523599 0.000000 0.000000
    39 -0.308254 -0.007814 0.307166 -0.129374 -0.297499 -2.570662
    40 1.978378 0.019543 0.000000 -0.093458 -0.047313 0.082472
    41 0.982426 0.003186 0.000000 0.000000 0.000000 0.425839
  time 6
    0 9.958185 4.962586 -4.869739 0.682407 -1.782305 -1.215281
    1 0.000000 -8.563282 -0.000003 0.509253 0.326798 -0.593936
    2 -0.109710 -3.119558 0.832132 0.656026 1.697471 1.123747
    3 0.000000 1.322671 2.154066 0.000000 0.000000 0.000000
    4 0.000000 -2.226188 0.667243 0.000000 0.000000 0.000000
    5 0.000000 -0.744802 -0.000001 0.000000 -0.267036 0.000000
    6 0.000001 -2.694760 -0.628573 0.000000 0.000000 0.000000
    7 0.000002 -5.701931 -1.088361 0.000000 0.000000 0.000000
    8 -0.003480 -0.404829 0.000000 0.000000 0.000000 0.000000
    9 -0.519309 -2.501155 -0.278958 -1.448623 0.000000 -0.122173
    10 -0.010598 -1.208185 -0.000001 -0.609135 0.000000 0.000000
    11 0.000000 -0.763066 0.000000 -1.192070 0.000000 0.000000
    12 0.105981 -2.607134 -0.278958 -1.476549 0.000000 -0.148353
    13 0.000000 -1.250579 0.000000 -0.684195 0.000000 0.000000
    14 0.000000 -0.932634 0.000000 -1.488764 0.000000 0.000000
    15 0.763064 -2.490556 -0.278958 -0.344835 0.055297 0.283572
    16 -0.012322 -1.280916 -0.000001 -0.322907 0.000000 0.000000
    17 -0.001697 -0.749371 0.000000 -0.593412 0.000000 0.000000
    18 0.354567 0.016267 0.318133 0.376749 -0.507429 -0.712448
    19 1.887165 0.012878 -0.000001 -0.292705 -0.088530 -0.686815
    20 1.001873 -0.000270 0.000001 0.000000 0.000000 -0.708597
    21 -1.123359 -2.195093 -0.278957 -1.337000 -0.006064 -0.061811
    22 0.010772 -0.963791 0.000001 -0.485233 0.000000 0.000000
    23 -0.010412 -0.631915 0.000000 -0.977401 0.000000 0.000000
    24 -1.640186 -6.029243 -7.475132 -0.380480 0.255020 0.648676
    25 0.089928 -8.543166 -0.000001 0.386094 0.122644 0.292059
    26 0.000000 -0.359714 0.000000 0.000000 0.000000 0.000000
    27 -0.170480 -2.636148 -0.277655 -1.787196 0.000000 0.000000
    28 0.010599 -1.261178 0.000001 -0.253073 0.000000 0.000000
    29 -0.000001 -0.943233 -0.000001 -0.532326 0.000000 0.000000
    30 -0.827564 -2.508974 -0.277656 -1.432907 0.000000 0.000000
    31 0.000000 -1.292971 0.000000 -0.554988 0.000000 0.000000
    32 0.000000 -0.752466 0.000000 -0.633551 0.000000 0.000000
    33 0.444213 -2.561961 -0.277656 -1.837245 -0.049654 -0.023029
    34 0.021021 -1.208186 0.000000 -0.427606 0.000000 0.000000
    35 0.010597 -0.741867 -0.000001 -0.453786 0.000000 0.000000
    36 1.047444 -2.222822 -0.277656 -1.801437 -0.095845 -0.030507
    37 0.000000 -0.996223 -0.000001 -0.549786 0.000000 0.000000
    38 -0.000001 -0.614690 0.000000 -0.523599 0.000000 0.000000
    39 -0.308254 -0.007814 0.307166 -0.129374 -0.297499 -2.570662
    40 1.978378 0.019543 0.000000 -0.093458 -0.047313 0.082472
    41 0.982426 0.003186 0.000000 0.000000 0.000000 0.425839
  time 7
    0 9.958185 4.962586 -4.869739 0.682407 -1.782305 -1.215281
    1 0.000000 -8.563282 -0.000003 0.509253 0.326798 -0.593936
    2 -0.109710 -3.119558 0.832132 0.656026 1.697471 1.123747
    3 0.000000 1.322671 2.154066 0.000000 0.000000 0.000000
    4 0.000000 -2.226188 0.667243 0.000000 0.000000 0.000000
    5 0.000000 -0.744802 -0.000001 0.000000 -0.267036 0.000000
    6 0.000001 -2.694760 -0.628573 0.000000 0.000000 0.000000
    7 0.000002 -5.701931 -1.088361 0.000000 0.000000 0.000000
    8 -0.003480 -0.404829 0.000000 0.000000 0.000000 0.000000
    9 -0.519309 -2.501155 -0.278958 -1.448623 0.000000 -0.122173
    10 -0.010598 -1.208185 -0.000001 -0.609135 0.000000 0.000000
    11 0.000000 -0.763066 0.000000 -1.192070 0.000000 0.000000
    12 0.105981 -2.607134 -0.278958 -1.476549 0.000000 -0.148353
    13 0.000000 -1.250579 0.000000 -0.684195 0.000000 0.000000
    14 0.000000 -0.932634 0.000000 -1.488764 0.000000 0.000000
    15 0.763064 -2.490556 -0.278958 -0.344835 0.055297 0.283572
    16 -0.012322 -1.280916 -0.000001 -0.322907 0.000000 0.000000
    17 -0.001697 -0.749371 0.000000 -0.593412 0.000000 0.000000
    18 0.354567 0.016267 0.318133 0.376749 -0.507429 -0.712448
    19 1.887165 0.012878 -0.000001 -0.292705 -0.088530 -0.686815
    20 1.001873 -0.000270 0.000001 0.000000 0.000000 -0.708597
    21 -1.123359 -2.195093 -0.278957 -1.337000 -0.006064 -0.061811
    22 0.010772 -0.963791 0.000001 -0.485233 0.000000 0.000000
    23 -0.010412 -0.631915 0.000000 -0.977401 0.000000 0.000000
    24 -1.640186 -6.029243 -7.475132 -0.380480 0.255020 0.648676
    25 0.089928 -8.543166 -0.000001 0.386094 0.122644 0.292059
    26 0.000000 -0.359714 0.000000 0.000000 0.000000 0.000000
    27 -0.170480 -2.636148 -0.277655 -1.787196 0.000000 0.000000
    28 0.010599 -1.261178 0.000001 -0.253073 0.000000 0.000000
    29 -0.000001 -0.943233 -0.000001 -0.532326 0.000000 0.000000
    30 -0.827564 -2.508974 -0.277656 -1.432907 0.000000 0.000000
    31 0.000000 -1.292971 0.000000 -0.554988 0.000000 0.000000
    32 0.000000 -0.752466 0.000000 -0.633551 0.000000 0.000000
    33 0.444213 -2.561961 -0.277656 -1.837245 -0.049654 -0.023029
    34 0.021021 -1.208186 0.000000 -0.427606 0.000000 0.000000
    35 0.010597 -0.741867 -0.000001 -0.453786 0.000000 0.000000
    36 1.047444 -2.222822 -0.277656 -1.801437 -0.095845 -0.030507
    37 0.000000 -0.996223 -0.000001 -0.549786 0.000000 0.000000
    38 -0.000001 -0.614690 0.000000 -0.523599 0.000000 0.000000
    39 -0.308254 -0.007814 0.307166 -0.129374 -0.297499 -2.570662
    40 1.978378 0.019543 0.000000 -0.093458 -0.047313 0.082472
    41 0.982426 0.003186 0.000000 0.000000 0.000000 0.425839
  time 8
    0 9.958185 4.962586 -4.869739 0.682407 -1.782305 -1.215281
    1 0.000000 -8.563282 -0.000003 0.509253 0.326798 -0.593936
    2 -0.109710 -3.119558 0.832132 0.656026 1.697471 1.123747
    3 0.000000 1.322671 2.154066 0.000000 0.000000 0.000000
    4 0.000000 -2.226188 0.667243 0.000000 0.000000 0.000000
    5 0.000000 -0.744802 -0.000001 0.000000 -0.267036 0.000000
    6 0.000001 -2.694760 -0.628573 0.000000 0.000000 0.000000
    7 0.000002 -5.701931 -1.088361 0.000000 0.000000 0.000000
    8 -0.003480 -0.404829 0.000000 0.000000 0.000000 0.000000
    9 -0.519309 -2.501155 -0.278958 -1.448623 0.000000 -0.122173
    10 -0.010598 -1.208185 -0.000001 -0.609135 0.000000 0.000000
    11 0.000000 -0.763066 0.000000 -1.192070 0.000000 0.000000
    12 0.105981 -2.607134 -0.278958 -1.476549 0.000000 -0.148353
    13 0.000000 -1.250579 0.000000 -0.684195 0.000000 0.000000
    14 0.000000 -0.932634 0.000000 -1.488764 0.000000 0.000000
    15 0.763064 -2.490556 -0.278958 -0.344835 0.055297 0.283572
    16 -0.012322 -1.280916 -0.000001 -0.322907 0.000000 0.000000
    17 -0.001697 -0.749371 0.000000 -0.593412 0.000000 0.000000
    18 0.354567 0.016267 0.318133 0.376749 -0.507429 -0.712448
    19 1.887165 0.012878 -0.000001 -0.292705 -0.088530 -0.686815
    20 1.001873 -0.000270 0.000001 0.000000 0.000000 -0.708597
    21 -1.123359 -2.195093 -0.278957 -1.337000 -0.006064 -0.061811
    22 0.010772 -0.963791 0.000001 -0.485233 0.000000 0.000000
    23 -0.010412 -0.631915 0.000000 -0.977401 0.000000 0.000000
    24 -1.640186 -6.029243 -7.475132 -0.380480 0.255020 0.648676
    25 0.089928 -8.543166 -0.000001 0.386094 0.122644 0.292059
    26 0.000000 -0.359714 0.000000 0.000000 0.000000 0.000000
    27 -0.170480 -2.636148 -0.277655 -1.787196 0.000000 0.000000
    28 0.010599 -1.261178 0.000001 -0.253073 0.000000 0.000000
    29 -0.000001 -0.943233 -0.000001 -0.532326 0.000000 0.000000
    30 -0.827564 -2.508974 -0.277656 -1.432907 0.000000 0.000000
    31 0.000000 -1.292971 0.000000 -0.554988 0.000000 0.000000
    32 0.000000 -0.752466 0.000000 -0.633551 0.000000 0.000000
    33 0.444213 -2.561961 -0.277656 -1.837245 -0.049654 -0.023029
    34 0.021021 -1.208186 0.000000 -0.427606 0.000000 0.000000
    35 0.010597 -0.741867 -0.000001 -0.453786 0.000000 0.000000
    36 1.047444 -2.222822 -0.277656 -1.801437 -0.095845 -0.030507
    37 0.000000 -0.996223 -0.000001 -0.549786 0.000000 0.000000
    38 -0.000001 -0.614690 0.000000 -0.523599 0.000000 0.000000
    39 -0.308254 -0.007814 0.307166 -0.129374 -0.297499 -2.570662
    40 1.978378 0.019543 0.000000 -0.093458 -0.047313 0.082472
    41 0.982426 0.003186 0.000000 0.000000 0.000000 0.425839
  time 9
    0 9.958185 4.962586 -4.869739 0.682407 -1.782305 -1.215281
    1 0.000000 -8.563282 -0.000003 0.509253 0.326798 -0.593936
    2 -0.109710 -3.119558 0.832132 0.656026 1.697471 1.123747
    3 0.000000 1.322671 2.154066 0.000000 0.000000 0.000000
    4 0.000000 -2.226188 0.667243 0.000000 0.000000 0.000000
    5 0.000000 -0.744802 -0.000001 0.000000 -0.267036 0.000000
    6 0.000001 -2.694760 -0.628573 0.000000 0.000000 0.000000
    7 0.000002 -5.701931 -1.088361 0.000000 0.000000 0.000000
    8 -0.003480 -0.404829 0.000000 0.000000 0.000000 0.000000
    9 -0.519309 -2.501155 -0.278958 -1.448623 0.000000 -0.122173
    10 -0.010598 -1.208185 -0.000001 -0.609135 0.000000 0.000000
    11 0.000000 -0.763066 0.000000 -1.192070 0.000000 0.000000
    12 0.105981 -2.607134 -0.278958 -1.476549 0.000000 -0.148353
    13 0.000000 -1.250579 0.000000 -0.684195 0.000000 0.000000
    14 0.000000 -0.932634 0.000000 -1.488764 0.000000 0.000000
    15 0.763064 -2.490556 -0.278958 -0.344835 0.055297 0.283572
    16 -0.012322 -1.280916 -0.000001 -0.322907 0.000000 0.000000
    17 -0.001697 -0.749371 0.000000 -0.593412 0.000000 0.000000
    18 0.354567 0.016267 0.318133 0.376749 -0.507429 -0.712448
    19 1.887165 0.012878 -0.000001 -0.292705 -0.088530 -0.686815
    20 1.001873 -0.000270 0.000001 0.000000 0.000000 -0.708597
    21 -1.123359 -2.195093 -0.278957 -1.337000 -0.006064 -0.061811
    22 0.010772 -0.963791 0.000001 -0.485233 0.000000 0.000000
    23 -0.010412 -0.631915 0.000000 -0.977401 0.000000 0.000000
    24 -1.640186 -6.029243 -7.475132 -0.380480 0.255020 0.648676
    25 0.089928 -8.543166 -0.000001 0.386094 0.122644 0.292059
    26 0.000000 -0.359714 0.000000 0.000000 0.000000 0.000000
    27 -0.170480 -2.636148 -0.277655 -1.787196 0.000000 0.000000
    28 0.010599 -1.261178 0.000001 -0.253073 0.000000 0.000000
    29 -0.000001 -0.943233 -0.000001 -0.532326 0.000000 0.000000
    30 -0.827564 -2.508974 -0.277656 -1.432907 0.000000 0.000000
    31 0.000000 -1.292971 0.000000 -0.554988 0.000000 0.000000
    32 0.000000 -0.752466 0.000000 -0.633551 0.000000 0.000000
    33 0.444213 -2.561961 -0.277656 -1.837245 -0.049654 -0.023029
    34 0.021021 -1.208186 0.000000 -0.427606 0.000000 0.000000
    35 0.010597 -0.741867 -0.000001 -0.453786 0.000000 0.000000
    36 1.047444 -2.222822 -0.277656 -1.801437 -0.095845 -0.030507
    37 0.000000 -0.996223 -0.000001 -0.549786 0.000000 0.000000
    38 -0.000001 -0.614690 0.000000 -0.523599 0.000000 0.000000
    39 -0.308254 -0.007814 0.307166 -0.129374 -0.297499 -2.570662
    40 1.978378 0.019543 0.000000 -0.093458 -0.047313 0.082472
    41 0.982426 0.003186 0.000000 0.000000 0.000000 0.425839
  time 10
    0 9.958185 4.962586 -4.869739 0.682407 -1.782305 -1.215281
    1 0.000000 -8.563282 -0.000003 0.509253 0.326798 -0.593936
    2 -0.109710 -3.119558 0.832132 0.656026 1.697471 1.123747
    3 0.000000 1.322671 2.154066 0.000000 0.000000 0.000000
    4 0.000000 -2.226188 0.667243 0.000000 0.000000 0.000000
    5 0.000000 -0.744802 -0.000001 0.000000 -0.267036 0.000000
    6 0.000001 -2.694760 -0.628573 0.000000 0.000000 0.000000
    7 0.000002 -5.701931 -1.088361 0.000000 0.000000 0.000000
    8 -0.003480 -0.404829 0.000000 0.000000 0.000000 0.000000
    9 -0.519309 -2.501155 -0.278958 -1.448623 0.000000 -0.122173
    10 -0.010598 -1.208185 -0.000001 -0.609135 0.000000 0.000000
    11 0.000000 -0.763066 0.000000 -1.192070 0.000000 0.000000
    12 0.105981 -2.607134 -0.278958 -1.476549 0.000000 -0.148353
    13 0.000000 -1.250579 0.000000 -0.684195 0.000000 0.000000
    14 0.000000 -0.932634 0.000000 -1.488764 0.000000 0.000000
    15 0.763064 -2.490556 -0.278958 -0.344835 0.055297 0.283572
    16 -0.012322 -1.280916 -0.000001 -0.322907 0.000000 0.000000
    17 -0.001697 -0.749371 0.000000 -0.593412 0.000000 0.000000
    18 0.354567 0.016267 0.318133 0.376749 -0.507429 -0.712448
    19 1.887165 0.012878 -0.000001 -0.292705 -0.088530 -0.686815
    20 1.001873 -0.000270 0.000001 0.000000 0.000000 -0.708597
    21 -1.123359 -2.195093 -0.278957 -1.337000 -0.006064 -0.061811
    22 0.010772 -0.963791 0.000001 -0.485233 0.000000 0.000000
    23 -0.010412 -0.631915 0.000000 -0.977401 0.000000 0.000000
    24 -1.640186 -6.029243 -7.475132 -0.380480 0.255020 0.648676
    25 0.089928 -8.543166 -0.000001 0.386094 0.122644 0.292059
    26 0.000000 -0.359714 0.000000 0.000000 0.000000 0.000000
    27 -0.170480 -2.636148 -0.277655 -1.787196 0.000000 0.000000
    28 0.010599 -1.261178 0.000001 -0.253073 0.000000 0.000000
    29 -0.000001 -0.943233 -0.000001 -0.532326 0.000000 0.000000
    30 -0.827564 -2.508974 -0.277656 -1.432907 0.000000 0.000000
    31 0.000000 -1.292971 0.000000 -0.554988 0.000000 0.000000
    32 0.000000 -0.752466 0.000000 -0.633551 0.000000 0.000000
    33 0.444213 -2.561961 -0.277656 -1.837245 -0.049654 -0.023029
    34 0.021021 -1.208186 0.000000 -0.427606 0.000000 0.000000
    35 0.010597 -0.741867 -0.000001 -0.453786 0.000000 0.000000
    36 1.047444 -2.222822 -0.277656 -1.801437 -0.095845 -0.030507
    37 0.000000 -0.996223 -0.000001 -0.549786 0.000000 0.000000
    38 -0.000001 -0.614690 0.000000 -0.523599 0.000000 0.000000
    39 -0.308254 -0.007814 0.307166 -0.129374 -0.297499 -2.570662
    40 1.978378 0.019543 0.000000 -0.093458 -0.047313 0.082472
    41 0.982426 0.003186 0.000000 0.000000 0.000000 0.425839
end
