version 1
nodes
  0 "Bone01" -1
  1 "Bone_Lefthand" 0
  2 "Bone02" 1
  3 "Bone03" 2
  4 "Bone52" 3
  5 "Bone48" 3
  6 "Bone25" 3
  7 "Bone50" 3
  8 "Bone54" 3
  9 "Bone04" -1
  10 "Bone_Righthand" 9
  11 "Bone27" 10
  12 "Bone28" 11
  13 "Bone29" 12
  14 "Bone31" 10
  15 "Bone32" 14
  16 "Bone33" 15
  17 "Bone35" 10
  18 "Bone36" 17
  19 "Bone37" 18
  20 "Bone39" 10
  21 "Bone40" 20
  22 "Bone41" 21
  23 "Bone43" 10
  24 "Bone44" 23
  25 "Bone45" 24
  26 "Bone_Se_Hand-R" 10
  27 "Bone05" 1
  28 "Bone06" 27
  29 "Bone07" 28
  30 "Bone21" 1
  31 "Bone22" 30
  32 "Bone23" 31
  33 "Bone17" 1
  34 "Bone18" 33
  35 "Bone19" 34
  36 "Bone13" 1
  37 "Bone14" 36
  38 "Bone15" 37
  39 "Bone09" 1
  40 "Bone10" 39
  41 "Bone11" 40
  42 "Bone_Se_Hand-L" 1
end
skeleton
  time 0
    0 6.653340 3.726546 -5.927479 -0.910884 -1.306429 0.699564
    1 -0.071917 -8.498732 -0.104136 0.314522 -0.138803 -0.176415
    2 -0.252194 -4.514323 0.852150 -1.061842 1.466010 -1.048336
    3 -0.000001 2.617617 0.665015 0.000000 0.000000 0.000000
    4 0.000000 -1.655466 2.278033 0.000000 0.000000 0.000000
    5 0.000000 -1.796959 1.330032 0.000000 0.000000 0.000000
    6 0.000001 -2.886454 1.471525 0.183256 0.000000 0.000000
    7 0.000000 -0.778211 1.774024 -0.000021 0.000000 0.000000
    8 0.000000 -1.598869 0.580120 0.000000 0.000000 0.000000
    9 -1.809088 0.230605 -9.993073 -0.427228 -0.041350 0.629321
    10 0.096946 -8.450418 -0.009364 0.072740 -0.329122 0.475302
    11 -0.586769 -1.264477 0.200165 -0.282470 -0.582878 -2.509428
    12 1.522835 0.058679 0.016851 0.000000 0.000000 0.446604
    13 1.117948 0.048425 -0.005765 0.015939 -0.000477 0.859148
    14 -0.963866 -2.785144 -0.085346 -0.342483 0.185746 -0.010101
    15 0.028479 -1.403067 0.006271 -0.815979 0.000000 0.000000
    16 0.021412 -0.957781 0.020047 -0.445059 0.000000 0.000000
    17 -0.249534 -2.846964 -0.174215 -0.012978 0.031261 0.129804
    18 0.043234 -1.683940 0.096014 -1.668295 0.000000 0.000000
    19 0.031730 -1.160831 0.058835 0.119114 0.000000 0.000000
    20 0.447951 -2.798983 -0.200442 -0.148382 0.067808 0.126894
    21 -0.032910 -1.480207 0.004935 -1.409715 0.000000 0.000000
    22 -0.027023 -1.076920 -0.020211 0.112912 0.000000 0.000000
    23 1.164474 -2.543938 -0.170326 -0.222289 -0.030232 0.124244
    24 0.024032 -1.129040 0.017806 -1.058217 0.000000 0.000000
    25 0.014897 -0.883992 -0.019845 -0.305455 0.000000 0.000000
    26 -0.026406 -0.138455 -0.019867 0.287061 0.027381 1.346366
    27 0.583509 -1.197273 0.185379 0.339227 -0.969650 -0.814052
    28 1.535926 0.010247 0.005008 -0.326444 -0.010942 -1.015318
    29 1.100770 0.004528 -0.010676 -0.002280 -0.012860 -0.483518
    30 0.957766 -2.746777 -0.090301 -0.233911 -0.030190 0.091702
    31 -0.033419 -1.397128 -0.011256 -0.541191 0.000000 0.000000
    32 -0.022361 -0.957433 0.018782 -1.062696 0.000000 0.000000
    33 0.250028 -2.820664 -0.238397 -0.470596 0.001394 -0.072461
    34 -0.049759 -1.680544 0.100479 -1.606138 0.000000 0.000000
    35 -0.034141 -1.148311 0.084779 -1.613141 0.000000 0.000000
    36 -0.488517 -2.755600 -0.228261 -0.436149 -0.021506 -0.150745
    37 0.039888 -1.479791 0.029853 -1.503030 0.000000 0.000000
    38 0.028785 -1.075732 -0.023110 -1.633152 0.000000 0.000000
    39 -1.180679 -2.507216 -0.193861 -0.170864 0.143009 -0.128851
    40 -0.024967 -1.123935 0.017594 -0.768586 0.000000 0.000000
    41 -0.020058 -0.890964 0.010091 -1.080190 0.000000 0.000000
    42 0.080903 -0.068755 -0.180384 0.307743 -2.879452 1.540137
  time 1
    0 6.653340 3.644512 -5.947011 -0.861093 -1.322436 0.648036
    1 -0.071917 -8.498732 -0.104136 0.308694 -0.168031 0.022926
    2 -0.252194 -4.514323 0.852150 -1.061842 1.466010 -1.048336
    3 -0.000001 2.617617 0.665015 0.000000 0.000000 0.000000
    4 0.000000 -1.096855 2.278033 0.000000 0.000000 0.000000
    5 0.000000 -1.796959 1.330032 0.000000 0.000000 0.000000
    6 0.000001 -2.886454 1.471525 0.188985 0.000000 0.000000
    7 0.000000 -0.778211 1.774024 -0.212449 0.000000 0.000000
    8 0.000000 -1.598869 0.580120 0.000000 0.000000 0.000000
    9 -1.535642 -0.331912 -9.821193 -0.438312 -0.041350 0.629321
    10 0.096946 -8.450418 -0.009364 0.010363 -0.221152 0.476120
    11 -0.586769 -1.264477 0.200165 -0.282470 -0.582878 -2.509428
    12 1.522835 0.058679 0.016851 0.000000 0.000000 0.446604
    13 1.117948 0.048425 -0.005765 0.015939 -0.000477 0.859148
    14 -0.963866 -2.785144 -0.085346 -0.342483 0.185746 -0.010101
    15 0.028479 -1.403067 0.006271 -0.815979 0.000000 0.000000
    16 0.021412 -0.957781 0.020047 -0.445059 0.000000 0.000000
    17 -0.249534 -2.846964 -0.174215 -0.012978 0.031261 0.129804
    18 0.043234 -1.683940 0.096014 -1.668295 0.000000 0.000000
    19 0.031730 -1.160831 0.058835 0.119114 0.000000 0.000000
    20 0.447951 -2.798983 -0.200442 -0.148382 0.067808 0.126894
    21 -0.032910 -1.480207 0.004935 -1.409715 0.000000 0.000000
    22 -0.027023 -1.076920 -0.020211 0.112912 0.000000 0.000000
    23 1.164474 -2.543938 -0.170326 -0.222289 -0.030232 0.124244
    24 0.024032 -1.129040 0.017806 -1.058217 0.000000 0.000000
    25 0.014897 -0.883992 -0.019845 -0.305455 0.000000 0.000000
    26 -0.026406 -0.138455 -0.019867 0.287061 0.027381 1.346366
    27 0.583509 -1.197273 0.185379 0.339227 -0.969650 -0.814052
    28 1.535926 0.010247 0.005008 -0.326444 -0.010942 -1.015318
    29 1.100770 0.004528 -0.010676 -0.002280 -0.012860 -0.483518
    30 0.957766 -2.746777 -0.090301 -0.233911 -0.030190 0.091702
    31 -0.033419 -1.397128 -0.011256 -0.555429 0.000000 0.000000
    32 -0.022361 -0.957433 0.018782 -1.067365 0.000000 0.000000
    33 0.250028 -2.820664 -0.238397 -0.470596 0.001394 -0.072461
    34 -0.049759 -1.680544 0.100479 -1.606138 0.000000 0.000000
    35 -0.034141 -1.148311 0.084779 -1.613141 0.000000 0.000000
    36 -0.488517 -2.755600 -0.228261 -0.436149 -0.021506 -0.150745
    37 0.039888 -1.479791 0.029853 -1.503030 0.000000 0.000000
    38 0.028785 -1.075732 -0.023110 -1.633152 0.000000 0.000000
    39 -1.180679 -2.507216 -0.193861 -0.170864 0.143009 -0.128851
    40 -0.024967 -1.123935 0.017594 -0.768586 0.000000 0.000000
    41 -0.020058 -0.890964 0.010091 -1.080190 0.000000 0.000000
    42 0.080903 -0.068755 -0.180384 0.307743 -2.879452 1.540137
  time 2
    0 6.653340 3.624980 -5.974355 -0.910956 -1.296842 0.726748
    1 -0.071917 -8.498732 -0.104136 0.295568 -0.199009 0.245461
    2 -0.252194 -4.514323 0.852150 -1.061842 1.466010 -1.048336
    3 -0.000001 2.617617 0.665015 0.000000 0.000000 0.000000
    4 0.000000 -0.053855 2.278033 0.000000 0.000000 0.000000
    5 0.000000 -1.796959 1.330032 0.000000 0.000000 0.000000
    6 0.000001 -2.886454 1.471525 0.198525 0.000000 0.000000
    7 0.000000 -0.778211 1.774024 -0.733360 0.000000 0.000000
    8 0.000000 -1.598869 0.580120 0.000000 0.000000 0.000000
    9 -1.301260 -0.663953 -9.672751 -0.458594 -0.041350 0.629321
    10 0.096946 -8.450418 -0.009364 -0.015566 -0.145898 0.472320
    11 -0.586769 -1.264477 0.200165 -0.282470 -0.582878 -2.509428
    12 1.522835 0.058679 0.016851 0.000000 0.000000 0.446604
    13 1.117948 0.048425 -0.005765 0.015939 -0.000477 0.859148
    14 -0.963866 -2.785144 -0.085346 -0.342483 0.185746 -0.010101
    15 0.028479 -1.403067 0.006271 -0.815979 0.000000 0.000000
    16 0.021412 -0.957781 0.020047 -0.445059 0.000000 0.000000
    17 -0.249534 -2.846964 -0.174215 -0.012978 0.031261 0.129804
    18 0.043234 -1.683940 0.096014 -1.668295 0.000000 0.000000
    19 0.031730 -1.160831 0.058835 0.119114 0.000000 0.000000
    20 0.447951 -2.798983 -0.200442 -0.148382 0.067808 0.126894
    21 -0.032910 -1.480207 0.004935 -1.409715 0.000000 0.000000
    22 -0.027023 -1.076920 -0.020211 0.112912 0.000000 0.000000
    23 1.164474 -2.543938 -0.170326 -0.222289 -0.030232 0.124244
    24 0.024032 -1.129040 0.017806 -1.058217 0.000000 0.000000
    25 0.014897 -0.883992 -0.019845 -0.305455 0.000000 0.000000
    26 -0.026406 -0.138455 -0.019867 0.287061 0.027381 1.346366
    27 0.583509 -1.197273 0.185379 0.339227 -0.969650 -0.814052
    28 1.535926 0.010247 0.005008 -0.326444 -0.010942 -1.015318
    29 1.100770 0.004528 -0.010676 -0.002280 -0.012860 -0.483518
    30 0.957766 -2.746777 -0.090301 -0.233911 -0.030190 0.091702
    31 -0.033419 -1.397128 -0.011256 -0.579158 0.000000 0.000000
    32 -0.022361 -0.957433 0.018782 -1.075128 0.000000 0.000000
    33 0.250028 -2.820664 -0.238397 -0.470596 0.001394 -0.072461
    34 -0.049759 -1.680544 0.100479 -1.606138 0.000000 0.000000
    35 -0.034141 -1.148311 0.084779 -1.613141 0.000000 0.000000
    36 -0.488517 -2.755600 -0.228261 -0.436149 -0.021506 -0.150745
    37 0.039888 -1.479791 0.029853 -1.503030 0.000000 0.000000
    38 0.028785 -1.075732 -0.023110 -1.633152 0.000000 0.000000
    39 -1.180679 -2.507216 -0.193861 -0.170864 0.143009 -0.128851
    40 -0.024967 -1.123935 0.017594 -0.768586 0.000000 0.000000
    41 -0.020058 -0.890964 0.010091 -1.080190 0.000000 0.000000
    42 0.080903 -0.068755 -0.180384 0.307743 -2.879452 1.540137
  time 3
    0 6.657246 3.695295 -6.017326 -1.006032 -1.256267 0.822223
    1 -0.071917 -8.498732 -0.104136 0.292860 -0.209509 0.289434
    2 -0.252194 -4.514323 0.852150 -1.061842 1.466010 -1.048336
    3 -0.000001 2.617617 0.665015 0.000000 0.000000 0.000000
    4 0.000000 0.508663 2.278033 0.000000 0.000000 0.000000
    5 0.000000 -1.796959 1.330032 0.000000 0.000000 0.000000
    6 0.000001 -2.886454 1.471525 0.200430 0.000000 0.000000
    7 0.000000 -0.778211 1.774024 -0.792439 0.000000 0.000000
    8 0.000000 -1.598869 0.580120 0.000000 0.000000 0.000000
    9 -1.086409 -0.691298 -9.543841 -0.510928 -0.040540 0.629015
    10 0.096946 -8.450418 -0.009364 0.047997 -0.147138 0.471673
    11 -0.586769 -1.264477 0.200165 -0.282470 -0.582878 -2.509428
    12 1.522835 0.058679 0.016851 0.000000 0.000000 0.446604
    13 1.117948 0.048425 -0.005765 0.015939 -0.000477 0.859148
    14 -0.963866 -2.785144 -0.085346 -0.342483 0.185746 -0.010101
    15 0.028479 -1.403067 0.006271 -0.815979 0.000000 0.000000
    16 0.021412 -0.957781 0.020047 -0.445059 0.000000 0.000000
    17 -0.249534 -2.846964 -0.174215 -0.012978 0.031261 0.129804
    18 0.043234 -1.683940 0.096014 -1.668295 0.000000 0.000000
    19 0.031730 -1.160831 0.058835 0.119114 0.000000 0.000000
    20 0.447951 -2.798983 -0.200442 -0.148382 0.067808 0.126894
    21 -0.032910 -1.480207 0.004935 -1.409715 0.000000 0.000000
    22 -0.027023 -1.076920 -0.020211 0.112912 0.000000 0.000000
    23 1.164474 -2.543938 -0.170326 -0.222289 -0.030232 0.124244
    24 0.024032 -1.129040 0.017806 -1.058217 0.000000 0.000000
    25 0.014897 -0.883992 -0.019845 -0.305455 0.000000 0.000000
    26 -0.026406 -0.138455 -0.019867 0.287061 0.027381 1.346366
    27 0.583509 -1.197273 0.185379 0.339227 -0.969650 -0.814052
    28 1.535926 0.010247 0.005008 -0.326444 -0.010942 -1.015318
    29 1.100770 0.004528 -0.010676 -0.002280 -0.012860 -0.483518
    30 0.957766 -2.746777 -0.090301 -0.233911 -0.030190 0.091702
    31 -0.033419 -1.397128 -0.011256 -0.583904 0.000000 0.000000
    32 -0.022361 -0.957433 0.018782 -1.076704 0.000000 0.000000
    33 0.250028 -2.820664 -0.238397 -0.470596 0.001394 -0.072461
    34 -0.049759 -1.680544 0.100479 -1.606138 0.000000 0.000000
    35 -0.034141 -1.148311 0.084779 -1.613141 0.000000 0.000000
    36 -0.488517 -2.755600 -0.228261 -0.436149 -0.021506 -0.150745
    37 0.039888 -1.479791 0.029853 -1.503030 0.000000 0.000000
    38 0.028785 -1.075732 -0.023110 -1.633152 0.000000 0.000000
    39 -1.180679 -2.507216 -0.193861 -0.170864 0.143009 -0.128851
    40 -0.024967 -1.123935 0.017594 -0.768586 0.000000 0.000000
    41 -0.020058 -0.890964 0.010091 -1.080190 0.000000 0.000000
    42 0.080903 -0.068755 -0.180384 0.307743 -2.879452 1.540137
  time 4
    0 6.665059 3.847643 -6.068108 -1.090663 -1.207904 0.903049
    1 -0.071917 -8.498732 -0.104136 0.298886 -0.214456 0.236248
    2 -0.252194 -4.514323 0.852150 -1.061842 1.466010 -1.048336
    3 -0.000001 2.617617 0.665015 0.000000 0.000000 0.000000
    4 0.000000 -0.573402 2.278033 0.000000 0.000000 0.000000
    5 0.000000 -1.796959 1.330032 0.000000 0.000000 0.000000
    6 0.000001 -2.886454 1.471525 0.183256 0.000000 0.000000
    7 0.000000 -0.778211 1.774024 -0.786706 0.000000 0.000000
    8 0.000000 -1.598869 0.580120 0.000000 0.000000 0.000000
    9 -0.910623 -0.488166 -9.442275 -0.571432 -0.039804 0.628555
    10 0.096946 -8.450418 -0.009364 0.143297 -0.177351 0.469986
    11 -0.586769 -1.264477 0.200165 -0.282470 -0.582878 -2.509428
    12 1.522835 0.058679 0.016851 0.000000 0.000000 0.446604
    13 1.117948 0.048425 -0.005765 0.015939 -0.000477 0.859148
    14 -0.963866 -2.785144 -0.085346 -0.342483 0.185746 -0.010101
    15 0.028479 -1.403067 0.006271 -0.815979 0.000000 0.000000
    16 0.021412 -0.957781 0.020047 -0.445059 0.000000 0.000000
    17 -0.249534 -2.846964 -0.174215 -0.012978 0.031261 0.129804
    18 0.043234 -1.683940 0.096014 -1.668295 0.000000 0.000000
    19 0.031730 -1.160831 0.058835 0.119114 0.000000 0.000000
    20 0.447951 -2.798983 -0.200442 -0.148382 0.067808 0.126894
    21 -0.032910 -1.480207 0.004935 -1.409715 0.000000 0.000000
    22 -0.027023 -1.076920 -0.020211 0.112912 0.000000 0.000000
    23 1.164474 -2.543938 -0.170326 -0.222289 -0.030232 0.124244
    24 0.024032 -1.129040 0.017806 -1.058217 0.000000 0.000000
    25 0.014897 -0.883992 -0.019845 -0.305455 0.000000 0.000000
    26 -0.026406 -0.138455 -0.019867 0.287061 0.027381 1.346366
    27 0.583509 -1.197273 0.185379 0.339227 -0.969650 -0.814052
    28 1.535926 0.010247 0.005008 -0.326444 -0.010942 -1.015318
    29 1.100770 0.004528 -0.010676 -0.002280 -0.012860 -0.483518
    30 0.957766 -2.746777 -0.090301 -0.233911 -0.030190 0.091702
    31 -0.033419 -1.397128 -0.011256 -0.541191 0.000000 0.000000
    32 -0.022361 -0.957433 0.018782 -1.062696 0.000000 0.000000
    33 0.250028 -2.820664 -0.238397 -0.470596 0.001394 -0.072461
    34 -0.049759 -1.680544 0.100479 -1.606138 0.000000 0.000000
    35 -0.034141 -1.148311 0.084779 -1.613141 0.000000 0.000000
    36 -0.488517 -2.755600 -0.228261 -0.436149 -0.021506 -0.150745
    37 0.039888 -1.479791 0.029853 -1.503030 0.000000 0.000000
    38 0.028785 -1.075732 -0.023110 -1.633152 0.000000 0.000000
    39 -1.180679 -2.507216 -0.193861 -0.170864 0.143009 -0.128851
    40 -0.024967 -1.123935 0.017594 -0.768586 0.000000 0.000000
    41 -0.020058 -0.890964 0.010091 -1.080190 0.000000 0.000000
    42 0.080903 -0.068755 -0.180384 0.307743 -2.879452 1.540137
  time 5
    0 6.676778 4.019524 -6.118891 -1.147322 -1.166345 0.954649
    1 -0.071917 -8.498732 -0.104136 0.312293 -0.215848 0.106339
    2 -0.252194 -4.514323 0.852150 -1.061842 1.466010 -1.048336
    3 -0.000001 2.617617 0.665015 0.000000 0.000000 0.000000
    4 0.000000 -1.655466 2.278033 0.000000 0.000000 0.000000
    5 0.000000 -1.796959 1.330032 0.000000 0.000000 0.000000
    6 0.000001 -2.886454 1.471525 0.086397 0.000000 0.000000
    7 0.000000 -0.778211 1.774024 -0.754300 0.000000 0.000000
    8 0.000000 -1.598869 0.580120 0.000000 0.000000 0.000000
    9 -0.828589 -0.257691 -9.407118 -0.597370 -0.041350 0.629321
    10 0.096946 -8.450418 -0.009364 0.207665 -0.196902 0.465522
    11 -0.586769 -1.264477 0.200165 -0.282470 -0.582878 -2.509428
    12 1.522835 0.058679 0.016851 0.000000 0.000000 0.446604
    13 1.117948 0.048425 -0.005765 0.015939 -0.000477 0.859148
    14 -0.963866 -2.785144 -0.085346 -0.342483 0.185746 -0.010101
    15 0.028479 -1.403067 0.006271 -0.815979 0.000000 0.000000
    16 0.021412 -0.957781 0.020047 -0.445059 0.000000 0.000000
    17 -0.249534 -2.846964 -0.174215 -0.012978 0.031261 0.129804
    18 0.043234 -1.683940 0.096014 -1.668295 0.000000 0.000000
    19 0.031730 -1.160831 0.058835 0.119114 0.000000 0.000000
    20 0.447951 -2.798983 -0.200442 -0.148382 0.067808 0.126894
    21 -0.032910 -1.480207 0.004935 -1.409715 0.000000 0.000000
    22 -0.027023 -1.076920 -0.020211 0.112912 0.000000 0.000000
    23 1.164474 -2.543938 -0.170326 -0.222289 -0.030232 0.124244
    24 0.024032 -1.129040 0.017806 -1.058217 0.000000 0.000000
    25 0.014897 -0.883992 -0.019845 -0.305455 0.000000 0.000000
    26 -0.026406 -0.138455 -0.019867 0.287061 0.027381 1.346366
    27 0.583509 -1.197273 0.185379 0.339227 -0.969650 -0.814052
    28 1.535926 0.010247 0.005008 -0.326444 -0.010942 -1.015318
    29 1.100770 0.004528 -0.010676 -0.002280 -0.012860 -0.483518
    30 0.957766 -2.746777 -0.090301 -0.233911 -0.030190 0.091702
    31 -0.033419 -1.397128 -0.011256 -0.300448 0.000000 0.000000
    32 -0.022361 -0.957433 0.018782 -1.019592 0.000000 0.000000
    33 0.250028 -2.820664 -0.238397 -0.470596 0.001394 -0.072461
    34 -0.049759 -1.680544 0.100479 -1.606138 0.000000 0.000000
    35 -0.034141 -1.148311 0.084779 -1.613141 0.000000 0.000000
    36 -0.488517 -2.755600 -0.228261 -0.436149 -0.021506 -0.150745
    37 0.039888 -1.479791 0.029853 -1.503030 0.000000 0.000000
    38 0.028785 -1.075732 -0.023110 -1.633152 0.000000 0.000000
    39 -1.180679 -2.507216 -0.193861 -0.170864 0.143009 -0.128851
    40 -0.024967 -1.123935 0.017594 -0.768586 0.000000 0.000000
    41 -0.020058 -0.890964 0.010091 -1.080190 0.000000 0.000000
    42 0.080903 -0.068755 -0.180384 0.307743 -2.879452 1.540137
  time 6
    0 6.680684 4.148434 -6.165768 -1.170429 -1.147235 0.974108
    1 -0.071917 -8.498732 -0.104136 0.328474 -0.211425 -0.059782
    2 -0.252194 -4.514323 0.852150 -1.061842 1.466010 -1.048336
    3 -0.000001 2.617617 0.665015 0.000000 0.000000 0.000000
    4 0.000000 -1.655466 2.278033 0.000000 0.000000 0.000000
    5 0.000000 -1.796959 1.330032 0.000000 0.000000 0.000000
    6 0.000001 -2.886454 1.471525 0.000000 0.000000 0.000000
    7 0.000000 -0.778211 1.774024 -0.733360 0.000000 0.000000
    8 0.000000 -1.598869 0.580120 0.000000 0.000000 0.000000
    9 -0.887185 -0.070185 -9.481339 -0.587886 -0.045546 0.631390
    10 0.096946 -8.450418 -0.009364 0.234361 -0.196106 0.460956
    11 -0.586769 -1.264477 0.200165 -0.282470 -0.582878 -2.509428
    12 1.522835 0.058679 0.016851 0.000000 0.000000 0.446604
    13 1.117948 0.048425 -0.005765 0.015939 -0.000477 0.859148
    14 -0.963866 -2.785144 -0.085346 -0.342483 0.185746 -0.010101
    15 0.028479 -1.403067 0.006271 -0.815979 0.000000 0.000000
    16 0.021412 -0.957781 0.020047 -0.445059 0.000000 0.000000
    17 -0.249534 -2.846964 -0.174215 -0.012978 0.031261 0.129804
    18 0.043234 -1.683940 0.096014 -1.668295 0.000000 0.000000
    19 0.031730 -1.160831 0.058835 0.119114 0.000000 0.000000
    20 0.447951 -2.798983 -0.200442 -0.148382 0.067808 0.126894
    21 -0.032910 -1.480207 0.004935 -1.409715 0.000000 0.000000
    22 -0.027023 -1.076920 -0.020211 0.112912 0.000000 0.000000
    23 1.164474 -2.543938 -0.170326 -0.222289 -0.030232 0.124244
    24 0.024032 -1.129040 0.017806 -1.058217 0.000000 0.000000
    25 0.014897 -0.883992 -0.019845 -0.305455 0.000000 0.000000
    26 -0.026406 -0.138455 -0.019867 0.287061 0.027381 1.346366
    27 0.583509 -1.197273 0.185379 0.339227 -0.969650 -0.814052
    28 1.535926 0.010247 0.005008 -0.326444 -0.010942 -1.015318
    29 1.100770 0.004528 -0.010676 -0.002280 -0.012860 -0.483518
    30 0.957766 -2.746777 -0.090301 -0.233911 -0.030190 0.091702
    31 -0.033419 -1.397128 -0.011256 -0.085680 0.000000 0.000000
    32 -0.022361 -0.957433 0.018782 -0.956030 0.000000 0.000000
    33 0.250028 -2.820664 -0.238397 -0.470596 0.001394 -0.072461
    34 -0.049759 -1.680544 0.100479 -1.606138 0.000000 0.000000
    35 -0.034141 -1.148311 0.084779 -1.613141 0.000000 0.000000
    36 -0.488517 -2.755600 -0.228261 -0.436149 -0.021506 -0.150745
    37 0.039888 -1.479791 0.029853 -1.503030 0.000000 0.000000
    38 0.028785 -1.075732 -0.023110 -1.633152 0.000000 0.000000
    39 -1.180679 -2.507216 -0.193861 -0.170864 0.143009 -0.128851
    40 -0.024967 -1.123935 0.017594 -0.768586 0.000000 0.000000
    41 -0.020058 -0.890964 0.010091 -1.080190 0.000000 0.000000
    42 0.080903 -0.068755 -0.180384 0.307743 -2.879452 1.540137
  time 7
    0 6.680684 4.207029 -6.197019 -1.170572 -1.148412 0.972578
    1 -0.071917 -8.498732 -0.104136 0.343152 -0.202164 -0.224492
    2 -0.252194 -4.514323 0.852150 -1.061842 1.466010 -1.048336
    3 -0.000001 2.617617 0.665015 0.000000 0.000000 0.000000
    4 0.000000 -1.655466 2.278033 0.000000 0.000000 0.000000
    5 0.000000 -1.796959 1.330032 0.000000 0.000000 0.000000
    6 0.000001 -2.886454 1.471525 -0.008533 0.000000 0.000000
    7 0.000000 -0.778211 1.774024 -0.730784 0.000000 0.000000
    8 0.000000 -1.598869 0.580120 0.000000 0.000000 0.000000
    9 -1.008282 0.140759 -9.578998 -0.571489 -0.050920 0.633843
    10 0.096946 -8.450418 -0.009364 0.259104 -0.192084 0.455913
    11 -0.586769 -1.264477 0.200165 -0.282470 -0.582878 -2.509428
    12 1.522835 0.058679 0.016851 0.000000 0.000000 0.446604
    13 1.117948 0.048425 -0.005765 0.015939 -0.000477 0.859148
    14 -0.963866 -2.785144 -0.085346 -0.342483 0.185746 -0.010101
    15 0.028479 -1.403067 0.006271 -0.815979 0.000000 0.000000
    16 0.021412 -0.957781 0.020047 -0.445059 0.000000 0.000000
    17 -0.249534 -2.846964 -0.174215 -0.012978 0.031261 0.129804
    18 0.043234 -1.683940 0.096014 -1.668295 0.000000 0.000000
    19 0.031730 -1.160831 0.058835 0.119114 0.000000 0.000000
    20 0.447951 -2.798983 -0.200442 -0.148382 0.067808 0.126894
    21 -0.032910 -1.480207 0.004935 -1.409715 0.000000 0.000000
    22 -0.027023 -1.076920 -0.020211 0.112912 0.000000 0.000000
    23 1.164474 -2.543938 -0.170326 -0.222289 -0.030232 0.124244
    24 0.024032 -1.129040 0.017806 -1.058217 0.000000 0.000000
    25 0.014897 -0.883992 -0.019845 -0.305455 0.000000 0.000000
    26 -0.026406 -0.138455 -0.019867 0.287061 0.027381 1.346366
    27 0.583509 -1.197273 0.185379 0.339227 -0.969650 -0.814052
    28 1.535926 0.010247 0.005008 -0.326444 -0.010942 -1.015318
    29 1.100770 0.004528 -0.010676 -0.002280 -0.012860 -0.483518
    30 0.957766 -2.746777 -0.090301 -0.233911 -0.030190 0.091702
    31 -0.033419 -1.397128 -0.011256 -0.064450 0.000000 0.000000
    32 -0.022361 -0.957433 0.018782 -0.896058 0.000000 0.000000
    33 0.250028 -2.820664 -0.238397 -0.470596 0.001394 -0.072461
    34 -0.049759 -1.680544 0.100479 -1.606138 0.000000 0.000000
    35 -0.034141 -1.148311 0.084779 -1.613141 0.000000 0.000000
    36 -0.488517 -2.755600 -0.228261 -0.436149 -0.021506 -0.150745
    37 0.039888 -1.479791 0.029853 -1.503030 0.000000 0.000000
    38 0.028785 -1.075732 -0.023110 -1.633152 0.000000 0.000000
    39 -1.180679 -2.507216 -0.193861 -0.170864 0.143009 -0.128851
    40 -0.024967 -1.123935 0.017594 -0.768586 0.000000 0.000000
    41 -0.020058 -0.890964 0.010091 -1.080190 0.000000 0.000000
    42 0.080903 -0.068755 -0.180384 0.307743 -2.879452 1.540137
  time 8
    0 6.680684 4.214842 -6.228269 -1.163776 -1.156202 0.964196
    1 -0.071917 -8.498732 -0.104136 0.353174 -0.191319 -0.350553
    2 -0.252194 -4.514323 0.852150 -1.061842 1.466010 -1.048336
    3 -0.000001 2.617617 0.665015 0.000000 0.000000 0.000000
    4 0.000000 -1.655466 2.278033 0.000000 0.000000 0.000000
    5 0.000000 -1.796959 1.330032 0.000000 0.000000 0.000000
    6 0.000001 -2.886454 1.471525 -0.015017 0.000000 0.000000
    7 0.000000 -0.778211 1.774024 -0.728084 0.000000 0.000000
    8 0.000000 -1.598869 0.580120 0.000000 0.000000 0.000000
    9 -1.137192 0.422018 -9.641500 -0.549836 -0.056957 0.636525
    10 0.096946 -8.450418 -0.009364 0.281436 -0.185770 0.450716
    11 -0.586769 -1.264477 0.200165 -0.282470 -0.582878 -2.509428
    12 1.522835 0.058679 0.016851 0.000000 0.000000 0.446604
    13 1.117948 0.048425 -0.005765 0.015939 -0.000477 0.859148
    14 -0.963866 -2.785144 -0.085346 -0.342483 0.185746 -0.010101
    15 0.028479 -1.403067 0.006271 -0.815979 0.000000 0.000000
    16 0.021412 -0.957781 0.020047 -0.445059 0.000000 0.000000
    17 -0.249534 -2.846964 -0.174215 -0.012978 0.031261 0.129804
    18 0.043234 -1.683940 0.096014 -1.668295 0.000000 0.000000
    19 0.031730 -1.160831 0.058835 0.119114 0.000000 0.000000
    20 0.447951 -2.798983 -0.200442 -0.148382 0.067808 0.126894
    21 -0.032910 -1.480207 0.004935 -1.409715 0.000000 0.000000
    22 -0.027023 -1.076920 -0.020211 0.112912 0.000000 0.000000
    23 1.164474 -2.543938 -0.170326 -0.222289 -0.030232 0.124244
    24 0.024032 -1.129040 0.017806 -1.058217 0.000000 0.000000
    25 0.014897 -0.883992 -0.019845 -0.305455 0.000000 0.000000
    26 -0.026406 -0.138455 -0.019867 0.287061 0.027381 1.346366
    27 0.583509 -1.197273 0.185379 0.339227 -0.969650 -0.814052
    28 1.535926 0.010247 0.005008 -0.326444 -0.010942 -1.015318
    29 1.100770 0.004528 -0.010676 -0.002280 -0.012860 -0.483518
    30 0.957766 -2.746777 -0.090301 -0.233911 -0.030190 0.091702
    31 -0.033419 -1.397128 -0.011256 -0.048377 0.000000 0.000000
    32 -0.022361 -0.957433 0.018782 -0.863752 0.000000 0.000000
    33 0.250028 -2.820664 -0.238397 -0.470596 0.001394 -0.072461
    34 -0.049759 -1.680544 0.100479 -1.606138 0.000000 0.000000
    35 -0.034141 -1.148311 0.084779 -1.613141 0.000000 0.000000
    36 -0.488517 -2.755600 -0.228261 -0.436149 -0.021506 -0.150745
    37 0.039888 -1.479791 0.029853 -1.503030 0.000000 0.000000
    38 0.028785 -1.075732 -0.023110 -1.633152 0.000000 0.000000
    39 -1.180679 -2.507216 -0.193861 -0.170864 0.143009 -0.128851
    40 -0.024967 -1.123935 0.017594 -0.768586 0.000000 0.000000
    41 -0.020058 -0.890964 0.010091 -1.080190 0.000000 0.000000
    42 0.080903 -0.068755 -0.180384 0.307743 -2.879452 1.540137
  time 9
    0 6.672871 4.179685 -6.251708 -1.150899 -1.169063 0.949839
    1 -0.071917 -8.498732 -0.104136 0.356278 -0.186028 -0.391426
    2 -0.252194 -4.514323 0.852150 -1.061842 1.466010 -1.048336
    3 -0.000001 2.617617 0.665015 0.000000 0.000000 0.000000
    4 0.000000 -1.655466 2.278033 0.000000 0.000000 0.000000
    5 0.000000 -1.796959 1.330032 0.000000 0.000000 0.000000
    6 0.000001 -2.886454 1.471525 -0.019619 0.000000 0.000000
    7 0.000000 -0.778211 1.774024 -0.725259 0.000000 0.000000
    8 0.000000 -1.598869 0.580120 0.000000 0.000000 0.000000
    9 -1.281728 0.656400 -9.680564 -0.524526 -0.063509 0.639208
    10 0.096946 -8.450418 -0.009364 0.300993 -0.178123 0.445604
    11 -0.586769 -1.264477 0.200165 -0.282470 -0.582878 -2.509428
    12 1.522835 0.058679 0.016851 0.000000 0.000000 0.446604
    13 1.117948 0.048425 -0.005765 0.015939 -0.000477 0.859148
    14 -0.963866 -2.785144 -0.085346 -0.342483 0.185746 -0.010101
    15 0.028479 -1.403067 0.006271 -0.815979 0.000000 0.000000
    16 0.021412 -0.957781 0.020047 -0.445059 0.000000 0.000000
    17 -0.249534 -2.846964 -0.174215 -0.012978 0.031261 0.129804
    18 0.043234 -1.683940 0.096014 -1.668295 0.000000 0.000000
    19 0.031730 -1.160831 0.058835 0.119114 0.000000 0.000000
    20 0.447951 -2.798983 -0.200442 -0.148382 0.067808 0.126894
    21 -0.032910 -1.480207 0.004935 -1.409715 0.000000 0.000000
    22 -0.027023 -1.076920 -0.020211 0.112912 0.000000 0.000000
    23 1.164474 -2.543938 -0.170326 -0.222289 -0.030232 0.124244
    24 0.024032 -1.129040 0.017806 -1.058217 0.000000 0.000000
    25 0.014897 -0.883992 -0.019845 -0.305455 0.000000 0.000000
    26 -0.026406 -0.138455 -0.019867 0.287061 0.027381 1.346366
    27 0.583509 -1.197273 0.185379 0.339227 -0.969650 -0.814052
    28 1.535926 0.010247 0.005008 -0.326444 -0.010942 -1.015318
    29 1.100770 0.004528 -0.010676 -0.002280 -0.012860 -0.483518
    30 0.957766 -2.746777 -0.090301 -0.233911 -0.030190 0.091702
    31 -0.033419 -1.397128 -0.011256 -0.036924 0.000000 0.000000
    32 -0.022361 -0.957433 0.018782 -0.854647 0.000000 0.000000
    33 0.250028 -2.820664 -0.238397 -0.470596 0.001394 -0.072461
    34 -0.049759 -1.680544 0.100479 -1.606138 0.000000 0.000000
    35 -0.034141 -1.148311 0.084779 -1.613141 0.000000 0.000000
    36 -0.488517 -2.755600 -0.228261 -0.436149 -0.021506 -0.150745
    37 0.039888 -1.479791 0.029853 -1.503030 0.000000 0.000000
    38 0.028785 -1.075732 -0.023110 -1.633152 0.000000 0.000000
    39 -1.180679 -2.507216 -0.193861 -0.170864 0.143009 -0.128851
    40 -0.024967 -1.123935 0.017594 -0.768586 0.000000 0.000000
    41 -0.020058 -0.890964 0.010091 -1.080190 0.000000 0.000000
    42 0.080903 -0.068755 -0.180384 0.307743 -2.879452 1.540137
  time 10
    0 6.665059 4.117183 -6.271240 -1.132585 -1.185434 0.930306
    1 -0.071917 -8.498732 -0.104136 0.357005 -0.178462 -0.394953
    2 -0.252194 -4.514323 0.852150 -1.061842 1.466010 -1.048336
    3 -0.000001 2.617617 0.665015 0.000000 0.000000 0.000000
    4 0.000000 -1.655466 2.278033 0.000000 0.000000 0.000000
    5 0.000000 -1.796959 1.330032 0.000000 0.000000 0.000000
    6 0.000001 -2.886454 1.471525 -0.022555 0.000000 0.000000
    7 0.000000 -0.778211 1.774024 -0.722350 0.000000 0.000000
    8 0.000000 -1.598869 0.580120 0.000000 0.000000 0.000000
    9 -1.430170 0.707183 -9.688377 -0.497216 -0.070060 0.641660
    10 0.096946 -8.450418 -0.009364 0.317390 -0.170125 0.440817
    11 -0.586769 -1.264477 0.200165 -0.282470 -0.582878 -2.509428
    12 1.522835 0.058679 0.016851 0.000000 0.000000 0.446604
    13 1.117948 0.048425 -0.005765 0.015939 -0.000477 0.859148
    14 -0.963866 -2.785144 -0.085346 -0.342483 0.185746 -0.010101
    15 0.028479 -1.403067 0.006271 -0.815979 0.000000 0.000000
    16 0.021412 -0.957781 0.020047 -0.445059 0.000000 0.000000
    17 -0.249534 -2.846964 -0.174215 -0.012978 0.031261 0.129804
    18 0.043234 -1.683940 0.096014 -1.668295 0.000000 0.000000
    19 0.031730 -1.160831 0.058835 0.119114 0.000000 0.000000
    20 0.447951 -2.798983 -0.200442 -0.148382 0.067808 0.126894
    21 -0.032910 -1.480207 0.004935 -1.409715 0.000000 0.000000
    22 -0.027023 -1.076920 -0.020211 0.112912 0.000000 0.000000
    23 1.164474 -2.543938 -0.170326 -0.222289 -0.030232 0.124244
    24 0.024032 -1.129040 0.017806 -1.058217 0.000000 0.000000
    25 0.014897 -0.883992 -0.019845 -0.305455 0.000000 0.000000
    26 -0.026406 -0.138455 -0.019867 0.287061 0.027381 1.346366
    27 0.583509 -1.197273 0.185379 0.339227 -0.969650 -0.814052
    28 1.535926 0.010247 0.005008 -0.326444 -0.010942 -1.015318
    29 1.100770 0.004528 -0.010676 -0.002280 -0.012860 -0.483518
    30 0.957766 -2.746777 -0.090301 -0.233911 -0.030190 0.091702
    31 -0.033419 -1.397128 -0.011256 -0.029615 0.000000 0.000000
    32 -0.022361 -0.957433 0.018782 -0.848022 0.000000 0.000000
    33 0.250028 -2.820664 -0.238397 -0.470596 0.001394 -0.072461
    34 -0.049759 -1.680544 0.100479 -1.606138 0.000000 0.000000
    35 -0.034141 -1.148311 0.084779 -1.613141 0.000000 0.000000
    36 -0.488517 -2.755600 -0.228261 -0.436149 -0.021506 -0.150745
    37 0.039888 -1.479791 0.029853 -1.503030 0.000000 0.000000
    38 0.028785 -1.075732 -0.023110 -1.633152 0.000000 0.000000
    39 -1.180679 -2.507216 -0.193861 -0.170864 0.143009 -0.128851
    40 -0.024967 -1.123935 0.017594 -0.768586 0.000000 0.000000
    41 -0.020058 -0.890964 0.010091 -1.080190 0.000000 0.000000
    42 0.080903 -0.068755 -0.180384 0.307743 -2.879452 1.540137
  time 11
    0 6.653340 4.027336 -6.286865 -1.109764 -1.203731 0.906328
    1 -0.071917 -8.498732 -0.104136 0.354363 -0.170428 -0.344525
    2 -0.252194 -4.514323 0.852150 -1.061842 1.466010 -1.048336
    3 -0.000001 2.617617 0.665015 0.000000 0.000000 0.000000
    4 0.000000 -1.655466 2.278033 0.000000 0.000000 0.000000
    5 0.000000 -1.796959 1.330032 0.000000 0.000000 0.000000
    6 0.000001 -2.886454 1.471525 -0.024029 0.000000 0.000000
    7 0.000000 -0.778211 1.774024 -0.719338 0.000000 0.000000
    8 0.000000 -1.598869 0.580120 0.000000 0.000000 0.000000
    9 -1.562986 0.683744 -9.668845 -0.469449 -0.076318 0.643730
    10 0.096946 -8.450418 -0.009364 0.330264 -0.162736 0.436472
    11 -0.586769 -1.264477 0.200165 -0.282470 -0.582878 -2.509428
    12 1.522835 0.058679 0.016851 0.000000 0.000000 0.446604
    13 1.117948 0.048425 -0.005765 0.015939 -0.000477 0.859148
    14 -0.963866 -2.785144 -0.085346 -0.342483 0.185746 -0.010101
    15 0.028479 -1.403067 0.006271 -0.815979 0.000000 0.000000
    16 0.021412 -0.957781 0.020047 -0.445059 0.000000 0.000000
    17 -0.249534 -2.846964 -0.174215 -0.012978 0.031261 0.129804
    18 0.043234 -1.683940 0.096014 -1.668295 0.000000 0.000000
    19 0.031730 -1.160831 0.058835 0.119114 0.000000 0.000000
    20 0.447951 -2.798983 -0.200442 -0.148382 0.067808 0.126894
    21 -0.032910 -1.480207 0.004935 -1.409715 0.000000 0.000000
    22 -0.027023 -1.076920 -0.020211 0.112912 0.000000 0.000000
    23 1.164474 -2.543938 -0.170326 -0.222289 -0.030232 0.124244
    24 0.024032 -1.129040 0.017806 -1.058217 0.000000 0.000000
    25 0.014897 -0.883992 -0.019845 -0.305455 0.000000 0.000000
    26 -0.026406 -0.138455 -0.019867 0.287061 0.027381 1.346366
    27 0.583509 -1.197273 0.185379 0.339227 -0.969650 -0.814052
    28 1.535926 0.010247 0.005008 -0.326444 -0.010942 -1.015318
    29 1.100770 0.004528 -0.010676 -0.002280 -0.012860 -0.483518
    30 0.957766 -2.746777 -0.090301 -0.233911 -0.030190 0.091702
    31 -0.033419 -1.397128 -0.011256 -0.025977 0.000000 0.000000
    32 -0.022361 -0.957433 0.018782 -0.843674 0.000000 0.000000
    33 0.250028 -2.820664 -0.238397 -0.470596 0.001394 -0.072461
    34 -0.049759 -1.680544 0.100479 -1.606138 0.000000 0.000000
    35 -0.034141 -1.148311 0.084779 -1.613141 0.000000 0.000000
    36 -0.488517 -2.755600 -0.228261 -0.436149 -0.021506 -0.150745
    37 0.039888 -1.479791 0.029853 -1.503030 0.000000 0.000000
    38 0.028785 -1.075732 -0.023110 -1.633152 0.000000 0.000000
    39 -1.180679 -2.507216 -0.193861 -0.170864 0.143009 -0.128851
    40 -0.024967 -1.123935 0.017594 -0.768586 0.000000 0.000000
    41 -0.020058 -0.890964 0.010091 -1.080190 0.000000 0.000000
    42 0.080903 -0.068755 -0.180384 0.307743 -2.879452 1.540137
  time 12
    0 6.641621 3.925771 -6.294678 -1.083509 -1.222434 0.878925
    1 -0.071917 -8.498732 -0.104136 0.350268 -0.162518 -0.268807
    2 -0.252194 -4.514323 0.852150 -1.061842 1.466010 -1.048336
    3 -0.000001 2.617617 0.665015 0.000000 0.000000 0.000000
    4 0.000000 -1.655466 2.278033 0.000000 0.000000 0.000000
    5 0.000000 -1.796959 1.330032 0.000000 0.000000 0.000000
    6 0.000001 -2.886454 1.471525 -0.024221 0.000000 0.000000
    7 0.000000 -0.778211 1.774024 -0.716243 0.000000 0.000000
    8 0.000000 -1.598869 0.580120 0.000000 0.000000 0.000000
    9 -1.613769 0.660306 -9.614156 -0.442997 -0.081839 0.645416
    10 0.096946 -8.450418 -0.009364 0.339284 -0.156959 0.432707
    11 -0.586769 -1.264477 0.200165 -0.282470 -0.582878 -2.509428
    12 1.522835 0.058679 0.016851 0.000000 0.000000 0.446604
    13 1.117948 0.048425 -0.005765 0.015939 -0.000477 0.859148
    14 -0.963866 -2.785144 -0.085346 -0.342483 0.185746 -0.010101
    15 0.028479 -1.403067 0.006271 -0.815979 0.000000 0.000000
    16 0.021412 -0.957781 0.020047 -0.445059 0.000000 0.000000
    17 -0.249534 -2.846964 -0.174215 -0.012978 0.031261 0.129804
    18 0.043234 -1.683940 0.096014 -1.668295 0.000000 0.000000
    19 0.031730 -1.160831 0.058835 0.119114 0.000000 0.000000
    20 0.447951 -2.798983 -0.200442 -0.148382 0.067808 0.126894
    21 -0.032910 -1.480207 0.004935 -1.409715 0.000000 0.000000
    22 -0.027023 -1.076920 -0.020211 0.112912 0.000000 0.000000
    23 1.164474 -2.543938 -0.170326 -0.222289 -0.030232 0.124244
    24 0.024032 -1.129040 0.017806 -1.058217 0.000000 0.000000
    25 0.014897 -0.883992 -0.019845 -0.305455 0.000000 0.000000
    26 -0.026406 -0.138455 -0.019867 0.287061 0.027381 1.346366
    27 0.583509 -1.197273 0.185379 0.339227 -0.969650 -0.814052
    28 1.535926 0.010247 0.005008 -0.326444 -0.010942 -1.015318
    29 1.100770 0.004528 -0.010676 -0.002280 -0.012860 -0.483518
    30 0.957766 -2.746777 -0.090301 -0.233911 -0.030190 0.091702
    31 -0.033419 -1.397128 -0.011256 -0.025470 0.000000 0.000000
    32 -0.022361 -0.957433 0.018782 -0.841252 0.000000 0.000000
    33 0.250028 -2.820664 -0.238397 -0.470596 0.001394 -0.072461
    34 -0.049759 -1.680544 0.100479 -1.606138 0.000000 0.000000
    35 -0.034141 -1.148311 0.084779 -1.613141 0.000000 0.000000
    36 -0.488517 -2.755600 -0.228261 -0.436149 -0.021506 -0.150745
    37 0.039888 -1.479791 0.029853 -1.503030 0.000000 0.000000
    38 0.028785 -1.075732 -0.023110 -1.633152 0.000000 0.000000
    39 -1.180679 -2.507216 -0.193861 -0.170864 0.143009 -0.128851
    40 -0.024967 -1.123935 0.017594 -0.768586 0.000000 0.000000
    41 -0.020058 -0.890964 0.010091 -1.080190 0.000000 0.000000
    42 0.080903 -0.068755 -0.180384 0.307743 -2.879452 1.540137
  time 13
    0 6.633808 3.820299 -6.298584 -1.055537 -1.240068 0.849991
    1 -0.071917 -8.498732 -0.104136 0.346157 -0.155504 -0.196382
    2 -0.252194 -4.514323 0.852150 -1.061842 1.466010 -1.048336
    3 -0.000001 2.617617 0.665015 0.000000 0.000000 0.000000
    4 0.000000 -1.655466 2.278033 0.000000 0.000000 0.000000
    5 0.000000 -1.796959 1.330032 0.000000 0.000000 0.000000
    6 0.000001 -2.886454 1.471525 -0.023358 0.000000 0.000000
    7 0.000000 -0.778211 1.774024 -0.713085 0.000000 0.000000
    8 0.000000 -1.598869 0.580120 0.000000 0.000000 0.000000
    9 -1.621582 0.605617 -9.536028 -0.419401 -0.086330 0.646565
    10 0.096946 -8.450418 -0.009364 0.344123 -0.153756 0.429640
    11 -0.586769 -1.264477 0.200165 -0.282470 -0.582878 -2.509428
    12 1.522835 0.058679 0.016851 0.000000 0.000000 0.446604
    13 1.117948 0.048425 -0.005765 0.015939 -0.000477 0.859148
    14 -0.963866 -2.785144 -0.085346 -0.342483 0.185746 -0.010101
    15 0.028479 -1.403067 0.006271 -0.815979 0.000000 0.000000
    16 0.021412 -0.957781 0.020047 -0.445059 0.000000 0.000000
    17 -0.249534 -2.846964 -0.174215 -0.012978 0.031261 0.129804
    18 0.043234 -1.683940 0.096014 -1.668295 0.000000 0.000000
    19 0.031730 -1.160831 0.058835 0.119114 0.000000 0.000000
    20 0.447951 -2.798983 -0.200442 -0.148382 0.067808 0.126894
    21 -0.032910 -1.480207 0.004935 -1.409715 0.000000 0.000000
    22 -0.027023 -1.076920 -0.020211 0.112912 0.000000 0.000000
    23 1.164474 -2.543938 -0.170326 -0.222289 -0.030232 0.124244
    24 0.024032 -1.129040 0.017806 -1.058217 0.000000 0.000000
    25 0.014897 -0.883992 -0.019845 -0.305455 0.000000 0.000000
    26 -0.026406 -0.138455 -0.019867 0.287061 0.027381 1.346366
    27 0.583509 -1.197273 0.185379 0.339227 -0.969650 -0.814052
    28 1.535926 0.010247 0.005008 -0.326444 -0.010942 -1.015318
    29 1.100770 0.004528 -0.010676 -0.002280 -0.012860 -0.483518
    30 0.957766 -2.746777 -0.090301 -0.233911 -0.030190 0.091702
    31 -0.033419 -1.397128 -0.011256 -0.027622 0.000000 0.000000
    32 -0.022361 -0.957433 0.018782 -0.840493 0.000000 0.000000
    33 0.250028 -2.820664 -0.238397 -0.470596 0.001394 -0.072461
    34 -0.049759 -1.680544 0.100479 -1.606138 0.000000 0.000000
    35 -0.034141 -1.148311 0.084779 -1.613141 0.000000 0.000000
    36 -0.488517 -2.755600 -0.228261 -0.436149 -0.021506 -0.150745
    37 0.039888 -1.479791 0.029853 -1.503030 0.000000 0.000000
    38 0.028785 -1.075732 -0.023110 -1.633152 0.000000 0.000000
    39 -1.180679 -2.507216 -0.193861 -0.170864 0.143009 -0.128851
    40 -0.024967 -1.123935 0.017594 -0.768586 0.000000 0.000000
    41 -0.020058 -0.890964 0.010091 -1.080190 0.000000 0.000000
    42 0.080903 -0.068755 -0.180384 0.307743 -2.879452 1.540137
  time 14
    0 6.622089 3.714827 -6.294678 -1.028638 -1.255219 0.822150
    1 -0.071917 -8.498732 -0.104136 0.342872 -0.150530 -0.155722
    2 -0.252194 -4.514323 0.852150 -1.061842 1.466010 -1.048336
    3 -0.000001 2.617617 0.665015 0.000000 0.000000 0.000000
    4 0.000000 -1.655466 2.278033 0.000000 0.000000 0.000000
    5 0.000000 -1.796959 1.330032 0.000000 0.000000 0.000000
    6 0.000001 -2.886454 1.471525 -0.021620 0.000000 0.000000
    7 0.000000 -0.778211 1.774024 -0.709886 0.000000 0.000000
    8 0.000000 -1.598869 0.580120 0.000000 0.000000 0.000000
    9 -1.656739 0.504051 -9.457901 -0.400204 -0.089348 0.647255
    10 0.096946 -8.450418 -0.009364 0.344452 -0.154130 0.427408
    11 -0.586769 -1.264477 0.200165 -0.282470 -0.582878 -2.509428
    12 1.522835 0.058679 0.016851 0.000000 0.000000 0.446604
    13 1.117948 0.048425 -0.005765 0.015939 -0.000477 0.859148
    14 -0.963866 -2.785144 -0.085346 -0.342483 0.185746 -0.010101
    15 0.028479 -1.403067 0.006271 -0.815979 0.000000 0.000000
    16 0.021412 -0.957781 0.020047 -0.445059 0.000000 0.000000
    17 -0.249534 -2.846964 -0.174215 -0.012978 0.031261 0.129804
    18 0.043234 -1.683940 0.096014 -1.668295 0.000000 0.000000
    19 0.031730 -1.160831 0.058835 0.119114 0.000000 0.000000
    20 0.447951 -2.798983 -0.200442 -0.148382 0.067808 0.126894
    21 -0.032910 -1.480207 0.004935 -1.409715 0.000000 0.000000
    22 -0.027023 -1.076920 -0.020211 0.112912 0.000000 0.000000
    23 1.164474 -2.543938 -0.170326 -0.222289 -0.030232 0.124244
    24 0.024032 -1.129040 0.017806 -1.058217 0.000000 0.000000
    25 0.014897 -0.883992 -0.019845 -0.305455 0.000000 0.000000
    26 -0.026406 -0.138455 -0.019867 0.287061 0.027381 1.346366
    27 0.583509 -1.197273 0.185379 0.339227 -0.969650 -0.814052
    28 1.535926 0.010247 0.005008 -0.326444 -0.010942 -1.015318
    29 1.100770 0.004528 -0.010676 -0.002280 -0.012860 -0.483518
    30 0.957766 -2.746777 -0.090301 -0.233911 -0.030190 0.091702
    31 -0.033419 -1.397128 -0.011256 -0.031925 0.000000 0.000000
    32 -0.022361 -0.957433 0.018782 -0.841135 0.000000 0.000000
    33 0.250028 -2.820664 -0.238397 -0.470596 0.001394 -0.072461
    34 -0.049759 -1.680544 0.100479 -1.606138 0.000000 0.000000
    35 -0.034141 -1.148311 0.084779 -1.613141 0.000000 0.000000
    36 -0.488517 -2.755600 -0.228261 -0.436149 -0.021506 -0.150745
    37 0.039888 -1.479791 0.029853 -1.503030 0.000000 0.000000
    38 0.028785 -1.075732 -0.023110 -1.633152 0.000000 0.000000
    39 -1.180679 -2.507216 -0.193861 -0.170864 0.143009 -0.128851
    40 -0.024967 -1.123935 0.017594 -0.768586 0.000000 0.000000
    41 -0.020058 -0.890964 0.010091 -1.080190 0.000000 0.000000
    42 0.080903 -0.068755 -0.180384 0.307743 -2.879452 1.540137
  time 15
    0 6.614276 3.621074 -6.282959 -1.006532 -1.266582 0.799193
    1 -0.071917 -8.498732 -0.104136 0.340131 -0.147470 -0.144115
    2 -0.252194 -4.514323 0.852150 -1.061842 1.466010 -1.048336
    3 -0.000001 2.617617 0.665015 0.000000 0.000000 0.000000
    4 0.000000 -1.655466 2.278033 0.000000 0.000000 0.000000
    5 0.000000 -1.796959 1.330032 0.000000 0.000000 0.000000
    6 0.000001 -2.886454 1.471525 -0.019223 0.000000 0.000000
    7 0.000000 -0.778211 1.774024 -0.706646 0.000000 0.000000
    8 0.000000 -1.598869 0.580120 0.000000 0.000000 0.000000
    9 -1.738773 0.347797 -9.387586 -0.387178 -0.090452 0.647255
    10 0.096946 -8.450418 -0.009364 0.339905 -0.159041 0.426181
    11 -0.586769 -1.264477 0.200165 -0.282470 -0.582878 -2.509428
    12 1.522835 0.058679 0.016851 0.000000 0.000000 0.446604
    13 1.117948 0.048425 -0.005765 0.015939 -0.000477 0.859148
    14 -0.963866 -2.785144 -0.085346 -0.342483 0.185746 -0.010101
    15 0.028479 -1.403067 0.006271 -0.815979 0.000000 0.000000
    16 0.021412 -0.957781 0.020047 -0.445059 0.000000 0.000000
    17 -0.249534 -2.846964 -0.174215 -0.012978 0.031261 0.129804
    18 0.043234 -1.683940 0.096014 -1.668295 0.000000 0.000000
    19 0.031730 -1.160831 0.058835 0.119114 0.000000 0.000000
    20 0.447951 -2.798983 -0.200442 -0.148382 0.067808 0.126894
    21 -0.032910 -1.480207 0.004935 -1.409715 0.000000 0.000000
    22 -0.027023 -1.076920 -0.020211 0.112912 0.000000 0.000000
    23 1.164474 -2.543938 -0.170326 -0.222289 -0.030232 0.124244
    24 0.024032 -1.129040 0.017806 -1.058217 0.000000 0.000000
    25 0.014897 -0.883992 -0.019845 -0.305455 0.000000 0.000000
    26 -0.026406 -0.138455 -0.019867 0.287061 0.027381 1.346366
    27 0.583509 -1.197273 0.185379 0.339227 -0.969650 -0.814052
    28 1.535926 0.010247 0.005008 -0.326444 -0.010942 -1.015318
    29 1.100770 0.004528 -0.010676 -0.002280 -0.012860 -0.483518
    30 0.957766 -2.746777 -0.090301 -0.233911 -0.030190 0.091702
    31 -0.033419 -1.397128 -0.011256 -0.037905 0.000000 0.000000
    32 -0.022361 -0.957433 0.018782 -0.842915 0.000000 0.000000
    33 0.250028 -2.820664 -0.238397 -0.470596 0.001394 -0.072461
    34 -0.049759 -1.680544 0.100479 -1.606138 0.000000 0.000000
    35 -0.034141 -1.148311 0.084779 -1.613141 0.000000 0.000000
    36 -0.488517 -2.755600 -0.228261 -0.436149 -0.021506 -0.150745
    37 0.039888 -1.479791 0.029853 -1.503030 0.000000 0.000000
    38 0.028785 -1.075732 -0.023110 -1.633152 0.000000 0.000000
    39 -1.180679 -2.507216 -0.193861 -0.170864 0.143009 -0.128851
    40 -0.024967 -1.123935 0.017594 -0.768586 0.000000 0.000000
    41 -0.020058 -0.890964 0.010091 -1.080190 0.000000 0.000000
    42 0.080903 -0.068755 -0.180384 0.307743 -2.879452 1.540137
  time 16
    0 6.610370 3.550759 -6.263427 -0.989721 -1.274671 0.781482
    1 -0.071917 -8.498732 -0.104136 0.337225 -0.145211 -0.139027
    2 -0.252194 -4.514323 0.852150 -1.061842 1.466010 -1.048336
    3 -0.000001 2.617617 0.665015 0.000000 0.000000 0.000000
    4 0.000000 -1.655466 2.278033 0.000000 0.000000 0.000000
    5 0.000000 -1.796959 1.330032 0.000000 0.000000 0.000000
    6 0.000001 -2.886454 1.471525 -0.016347 0.000000 0.000000
    7 0.000000 -0.778211 1.774024 -0.703363 0.000000 0.000000
    8 0.000000 -1.598869 0.580120 0.000000 0.000000 0.000000
    9 -1.785650 0.285295 -9.352429 -0.381064 -0.089054 0.646565
    10 0.096946 -8.450418 -0.009364 0.326904 -0.169938 0.426505
    11 -0.586769 -1.264477 0.200165 -0.282470 -0.582878 -2.509428
    12 1.522835 0.058679 0.016851 0.000000 0.000000 0.446604
    13 1.117948 0.048425 -0.005765 0.015939 -0.000477 0.859148
    14 -0.963866 -2.785144 -0.085346 -0.342483 0.185746 -0.010101
    15 0.028479 -1.403067 0.006271 -0.815979 0.000000 0.000000
    16 0.021412 -0.957781 0.020047 -0.445059 0.000000 0.000000
    17 -0.249534 -2.846964 -0.174215 -0.012978 0.031261 0.129804
    18 0.043234 -1.683940 0.096014 -1.668295 0.000000 0.000000
    19 0.031730 -1.160831 0.058835 0.119114 0.000000 0.000000
    20 0.447951 -2.798983 -0.200442 -0.148382 0.067808 0.126894
    21 -0.032910 -1.480207 0.004935 -1.409715 0.000000 0.000000
    22 -0.027023 -1.076920 -0.020211 0.112912 0.000000 0.000000
    23 1.164474 -2.543938 -0.170326 -0.222289 -0.030232 0.124244
    24 0.024032 -1.129040 0.017806 -1.058217 0.000000 0.000000
    25 0.014897 -0.883992 -0.019845 -0.305455 0.000000 0.000000
    26 -0.026406 -0.138455 -0.019867 0.287061 0.027381 1.346366
    27 0.583509 -1.197273 0.185379 0.339227 -0.969650 -0.814052
    28 1.535926 0.010247 0.005008 -0.326444 -0.010942 -1.015318
    29 1.100770 0.004528 -0.010676 -0.002280 -0.012860 -0.483518
    30 0.957766 -2.746777 -0.090301 -0.233911 -0.030190 0.091702
    31 -0.033419 -1.397128 -0.011256 -0.045055 0.000000 0.000000
    32 -0.022361 -0.957433 0.018782 -0.845512 0.000000 0.000000
    33 0.250028 -2.820664 -0.238397 -0.470596 0.001394 -0.072461
    34 -0.049759 -1.680544 0.100479 -1.606138 0.000000 0.000000
    35 -0.034141 -1.148311 0.084779 -1.613141 0.000000 0.000000
    36 -0.488517 -2.755600 -0.228261 -0.436149 -0.021506 -0.150745
    37 0.039888 -1.479791 0.029853 -1.503030 0.000000 0.000000
    38 0.028785 -1.075732 -0.023110 -1.633152 0.000000 0.000000
    39 -1.180679 -2.507216 -0.193861 -0.170864 0.143009 -0.128851
    40 -0.024967 -1.123935 0.017594 -0.768586 0.000000 0.000000
    41 -0.020058 -0.890964 0.010091 -1.080190 0.000000 0.000000
    42 0.080903 -0.068755 -0.180384 0.307743 -2.879452 1.540137
  time 17
    0 6.606463 3.507789 -6.239989 -0.975484 -1.281113 0.766687
    1 -0.071917 -8.498732 -0.104136 0.334154 -0.143571 -0.139155
    2 -0.252194 -4.514323 0.852150 -1.061842 1.466010 -1.048336
    3 -0.000001 2.617617 0.665015 0.000000 0.000000 0.000000
    4 0.000000 -1.655466 2.278033 0.000000 0.000000 0.000000
    5 0.000000 -1.796959 1.330032 0.000000 0.000000 0.000000
    6 0.000001 -2.886454 1.471525 -0.013207 0.000000 0.000000
    7 0.000000 -0.778211 1.774024 -0.700081 0.000000 0.000000
    8 0.000000 -1.598869 0.580120 0.000000 0.000000 0.000000
    9 -1.805181 0.297014 -9.348523 -0.380836 -0.085078 0.645186
    10 0.096946 -8.450418 -0.009364 0.303549 -0.186635 0.428703
    11 -0.586769 -1.264477 0.200165 -0.282470 -0.582878 -2.509428
    12 1.522835 0.058679 0.016851 0.000000 0.000000 0.446604
    13 1.117948 0.048425 -0.005765 0.015939 -0.000477 0.859148
    14 -0.963866 -2.785144 -0.085346 -0.342483 0.185746 -0.010101
    15 0.028479 -1.403067 0.006271 -0.815979 0.000000 0.000000
    16 0.021412 -0.957781 0.020047 -0.445059 0.000000 0.000000
    17 -0.249534 -2.846964 -0.174215 -0.012978 0.031261 0.129804
    18 0.043234 -1.683940 0.096014 -1.668295 0.000000 0.000000
    19 0.031730 -1.160831 0.058835 0.119114 0.000000 0.000000
    20 0.447951 -2.798983 -0.200442 -0.148382 0.067808 0.126894
    21 -0.032910 -1.480207 0.004935 -1.409715 0.000000 0.000000
    22 -0.027023 -1.076920 -0.020211 0.112912 0.000000 0.000000
    23 1.164474 -2.543938 -0.170326 -0.222289 -0.030232 0.124244
    24 0.024032 -1.129040 0.017806 -1.058217 0.000000 0.000000
    25 0.014897 -0.883992 -0.019845 -0.305455 0.000000 0.000000
    26 -0.026406 -0.138455 -0.019867 0.287061 0.027381 1.346366
    27 0.583509 -1.197273 0.185379 0.339227 -0.969650 -0.814052
    28 1.535926 0.010247 0.005008 -0.326444 -0.010942 -1.015318
    29 1.100770 0.004528 -0.010676 -0.002280 -0.012860 -0.483518
    30 0.957766 -2.746777 -0.090301 -0.233911 -0.030190 0.091702
    31 -0.033419 -1.397128 -0.011256 -0.052838 0.000000 0.000000
    32 -0.022361 -0.957433 0.018782 -0.848693 0.000000 0.000000
    33 0.250028 -2.820664 -0.238397 -0.470596 0.001394 -0.072461
    34 -0.049759 -1.680544 0.100479 -1.606138 0.000000 0.000000
    35 -0.034141 -1.148311 0.084779 -1.613141 0.000000 0.000000
    36 -0.488517 -2.755600 -0.228261 -0.436149 -0.021506 -0.150745
    37 0.039888 -1.479791 0.029853 -1.503030 0.000000 0.000000
    38 0.028785 -1.075732 -0.023110 -1.633152 0.000000 0.000000
    39 -1.180679 -2.507216 -0.193861 -0.170864 0.143009 -0.128851
    40 -0.024967 -1.123935 0.017594 -0.768586 0.000000 0.000000
    41 -0.020058 -0.890964 0.010091 -1.080190 0.000000 0.000000
    42 0.080903 -0.068755 -0.180384 0.307743 -2.879452 1.540137
  time 18
    0 6.610370 3.499976 -6.204831 -0.963466 -1.286270 0.754152
    1 -0.071917 -8.498732 -0.104136 0.330967 -0.142454 -0.143195
    2 -0.252194 -4.514323 0.852150 -1.061842 1.466010 -1.048336
    3 -0.000001 2.617617 0.665015 0.000000 0.000000 0.000000
    4 0.000000 -1.655466 2.278033 0.000000 0.000000 0.000000
    5 0.000000 -1.796959 1.330032 0.000000 0.000000 0.000000
    6 0.000001 -2.886454 1.471525 -0.010007 0.000000 0.000000
    7 0.000000 -0.778211 1.774024 -0.696778 0.000000 0.000000
    8 0.000000 -1.598869 0.580120 0.000000 0.000000 0.000000
    9 -1.828620 0.324358 -9.399305 -0.385178 -0.079189 0.643116
    10 0.096946 -8.450418 -0.009364 0.272087 -0.207729 0.432843
    11 -0.586769 -1.264477 0.200165 -0.282470 -0.582878 -2.509428
    12 1.522835 0.058679 0.016851 0.000000 0.000000 0.446604
    13 1.117948 0.048425 -0.005765 0.015939 -0.000477 0.859148
    14 -0.963866 -2.785144 -0.085346 -0.342483 0.185746 -0.010101
    15 0.028479 -1.403067 0.006271 -0.815979 0.000000 0.000000
    16 0.021412 -0.957781 0.020047 -0.445059 0.000000 0.000000
    17 -0.249534 -2.846964 -0.174215 -0.012978 0.031261 0.129804
    18 0.043234 -1.683940 0.096014 -1.668295 0.000000 0.000000
    19 0.031730 -1.160831 0.058835 0.119114 0.000000 0.000000
    20 0.447951 -2.798983 -0.200442 -0.148382 0.067808 0.126894
    21 -0.032910 -1.480207 0.004935 -1.409715 0.000000 0.000000
    22 -0.027023 -1.076920 -0.020211 0.112912 0.000000 0.000000
    23 1.164474 -2.543938 -0.170326 -0.222289 -0.030232 0.124244
    24 0.024032 -1.129040 0.017806 -1.058217 0.000000 0.000000
    25 0.014897 -0.883992 -0.019845 -0.305455 0.000000 0.000000
    26 -0.026406 -0.138455 -0.019867 0.287061 0.027381 1.346366
    27 0.583509 -1.197273 0.185379 0.339227 -0.969650 -0.814052
    28 1.535926 0.010247 0.005008 -0.326444 -0.010942 -1.015318
    29 1.100770 0.004528 -0.010676 -0.002280 -0.012860 -0.483518
    30 0.957766 -2.746777 -0.090301 -0.233911 -0.030190 0.091702
    31 -0.033419 -1.397128 -0.011256 -0.060812 0.000000 0.000000
    32 -0.022361 -0.957433 0.018782 -0.852137 0.000000 0.000000
    33 0.250028 -2.820664 -0.238397 -0.470596 0.001394 -0.072461
    34 -0.049759 -1.680544 0.100479 -1.606138 0.000000 0.000000
    35 -0.034141 -1.148311 0.084779 -1.613141 0.000000 0.000000
    36 -0.488517 -2.755600 -0.228261 -0.436149 -0.021506 -0.150745
    37 0.039888 -1.479791 0.029853 -1.503030 0.000000 0.000000
    38 0.028785 -1.075732 -0.023110 -1.633152 0.000000 0.000000
    39 -1.180679 -2.507216 -0.193861 -0.170864 0.143009 -0.128851
    40 -0.024967 -1.123935 0.017594 -0.768586 0.000000 0.000000
    41 -0.020058 -0.890964 0.010091 -1.080190 0.000000 0.000000
    42 0.080903 -0.068755 -0.180384 0.307743 -2.879452 1.540137
  time 19
    0 6.618182 3.535134 -6.150142 -0.953093 -1.290550 0.743365
    1 -0.071917 -8.498732 -0.104136 0.327681 -0.141683 -0.149844
    2 -0.252194 -4.514323 0.852150 -1.061842 1.466010 -1.048336
    3 -0.000001 2.617617 0.665015 0.000000 0.000000 0.000000
    4 0.000000 -1.655466 2.278033 0.000000 0.000000 0.000000
    5 0.000000 -1.796959 1.330032 0.000000 0.000000 0.000000
    6 0.000001 -2.886454 1.471525 -0.006939 0.000000 0.000000
    7 0.000000 -0.778211 1.774024 -0.693496 0.000000 0.000000
    8 0.000000 -1.598869 0.580120 0.000000 0.000000 0.000000
    9 -1.875496 0.351703 -9.516496 -0.392663 -0.071975 0.640587
    10 0.096946 -8.450418 -0.009364 0.234744 -0.231746 0.438891
    11 -0.586769 -1.264477 0.200165 -0.282470 -0.582878 -2.509428
    12 1.522835 0.058679 0.016851 0.000000 0.000000 0.446604
    13 1.117948 0.048425 -0.005765 0.015939 -0.000477 0.859148
    14 -0.963866 -2.785144 -0.085346 -0.342483 0.185746 -0.010101
    15 0.028479 -1.403067 0.006271 -0.815979 0.000000 0.000000
    16 0.021412 -0.957781 0.020047 -0.445059 0.000000 0.000000
    17 -0.249534 -2.846964 -0.174215 -0.012978 0.031261 0.129804
    18 0.043234 -1.683940 0.096014 -1.668295 0.000000 0.000000
    19 0.031730 -1.160831 0.058835 0.119114 0.000000 0.000000
    20 0.447951 -2.798983 -0.200442 -0.148382 0.067808 0.126894
    21 -0.032910 -1.480207 0.004935 -1.409715 0.000000 0.000000
    22 -0.027023 -1.076920 -0.020211 0.112912 0.000000 0.000000
    23 1.164474 -2.543938 -0.170326 -0.222289 -0.030232 0.124244
    24 0.024032 -1.129040 0.017806 -1.058217 0.000000 0.000000
    25 0.014897 -0.883992 -0.019845 -0.305455 0.000000 0.000000
    26 -0.026406 -0.138455 -0.019867 0.287061 0.027381 1.346366
    27 0.583509 -1.197273 0.185379 0.339227 -0.969650 -0.814052
    28 1.535926 0.010247 0.005008 -0.326444 -0.010942 -1.015318
    29 1.100770 0.004528 -0.010676 -0.002280 -0.012860 -0.483518
    30 0.957766 -2.746777 -0.090301 -0.233911 -0.030190 0.091702
    31 -0.033419 -1.397128 -0.011256 -0.068437 0.000000 0.000000
    32 -0.022361 -0.957433 0.018782 -0.855581 0.000000 0.000000
    33 0.250028 -2.820664 -0.238397 -0.470596 0.001394 -0.072461
    34 -0.049759 -1.680544 0.100479 -1.606138 0.000000 0.000000
    35 -0.034141 -1.148311 0.084779 -1.613141 0.000000 0.000000
    36 -0.488517 -2.755600 -0.228261 -0.436149 -0.021506 -0.150745
    37 0.039888 -1.479791 0.029853 -1.503030 0.000000 0.000000
    38 0.028785 -1.075732 -0.023110 -1.633152 0.000000 0.000000
    39 -1.180679 -2.507216 -0.193861 -0.170864 0.143009 -0.128851
    40 -0.024967 -1.123935 0.017594 -0.768586 0.000000 0.000000
    41 -0.020058 -0.890964 0.010091 -1.080190 0.000000 0.000000
    42 0.080903 -0.068755 -0.180384 0.307743 -2.879452 1.540137
  time 20
    0 6.629901 3.593729 -6.079827 -0.943649 -1.294316 0.733526
    1 -0.071917 -8.498732 -0.104136 0.324363 -0.141090 -0.157796
    2 -0.252194 -4.514323 0.852150 -1.061842 1.466010 -1.048336
    3 -0.000001 2.617617 0.665015 0.000000 0.000000 0.000000
    4 0.000000 -1.655466 2.278033 0.000000 0.000000 0.000000
    5 0.000000 -1.796959 1.330032 0.000000 0.000000 0.000000
    6 0.000001 -2.886454 1.471525 -0.004195 0.000000 0.000000
    7 0.000000 -0.778211 1.774024 -0.690235 0.000000 0.000000
    8 0.000000 -1.598869 0.580120 0.000000 0.000000 0.000000
    9 -1.906747 0.375141 -9.661032 -0.401918 -0.064024 0.637828
    10 0.096946 -8.450418 -0.009364 0.193769 -0.257236 0.446661
    11 -0.586769 -1.264477 0.200165 -0.282470 -0.582878 -2.509428
    12 1.522835 0.058679 0.016851 0.000000 0.000000 0.446604
    13 1.117948 0.048425 -0.005765 0.015939 -0.000477 0.859148
    14 -0.963866 -2.785144 -0.085346 -0.342483 0.185746 -0.010101
    15 0.028479 -1.403067 0.006271 -0.815979 0.000000 0.000000
    16 0.021412 -0.957781 0.020047 -0.445059 0.000000 0.000000
    17 -0.249534 -2.846964 -0.174215 -0.012978 0.031261 0.129804
    18 0.043234 -1.683940 0.096014 -1.668295 0.000000 0.000000
    19 0.031730 -1.160831 0.058835 0.119114 0.000000 0.000000
    20 0.447951 -2.798983 -0.200442 -0.148382 0.067808 0.126894
    21 -0.032910 -1.480207 0.004935 -1.409715 0.000000 0.000000
    22 -0.027023 -1.076920 -0.020211 0.112912 0.000000 0.000000
    23 1.164474 -2.543938 -0.170326 -0.222289 -0.030232 0.124244
    24 0.024032 -1.129040 0.017806 -1.058217 0.000000 0.000000
    25 0.014897 -0.883992 -0.019845 -0.305455 0.000000 0.000000
    26 -0.026406 -0.138455 -0.019867 0.287061 0.027381 1.346366
    27 0.583509 -1.197273 0.185379 0.339227 -0.969650 -0.814052
    28 1.535926 0.010247 0.005008 -0.326444 -0.010942 -1.015318
    29 1.100770 0.004528 -0.010676 -0.002280 -0.012860 -0.483518
    30 0.957766 -2.746777 -0.090301 -0.233911 -0.030190 0.091702
    31 -0.033419 -1.397128 -0.011256 -0.075239 0.000000 0.000000
    32 -0.022361 -0.957433 0.018782 -0.858732 0.000000 0.000000
    33 0.250028 -2.820664 -0.238397 -0.470596 0.001394 -0.072461
    34 -0.049759 -1.680544 0.100479 -1.606138 0.000000 0.000000
    35 -0.034141 -1.148311 0.084779 -1.613141 0.000000 0.000000
    36 -0.488517 -2.755600 -0.228261 -0.436149 -0.021506 -0.150745
    37 0.039888 -1.479791 0.029853 -1.503030 0.000000 0.000000
    38 0.028785 -1.075732 -0.023110 -1.633152 0.000000 0.000000
    39 -1.180679 -2.507216 -0.193861 -0.170864 0.143009 -0.128851
    40 -0.024967 -1.123935 0.017594 -0.768586 0.000000 0.000000
    41 -0.020058 -0.890964 0.010091 -1.080190 0.000000 0.000000
    42 0.080903 -0.068755 -0.180384 0.307743 -2.879452 1.540137
  time 21
    0 6.641621 3.656231 -6.005606 -0.934206 -1.297954 0.723760
    1 -0.071917 -8.498732 -0.104136 0.321028 -0.140539 -0.165727
    2 -0.252194 -4.514323 0.852150 -1.061842 1.466010 -1.048336
    3 -0.000001 2.617617 0.665015 0.000000 0.000000 0.000000
    4 0.000000 -1.655466 2.278033 0.000000 0.000000 0.000000
    5 0.000000 -1.796959 1.330032 0.000000 0.000000 0.000000
    6 0.000001 -2.886454 1.471525 -0.002001 0.000000 0.000000
    7 0.000000 -0.778211 1.774024 -0.686994 0.000000 0.000000
    8 0.000000 -1.598869 0.580120 0.000000 0.000000 0.000000
    9 -1.902841 0.355609 -9.778223 -0.411745 -0.055852 0.634839
    10 0.096946 -8.450418 -0.009364 0.151460 -0.282843 0.455776
    11 -0.586769 -1.264477 0.200165 -0.282470 -0.582878 -2.509428
    12 1.522835 0.058679 0.016851 0.000000 0.000000 0.446604
    13 1.117948 0.048425 -0.005765 0.015939 -0.000477 0.859148
    14 -0.963866 -2.785144 -0.085346 -0.342483 0.185746 -0.010101
    15 0.028479 -1.403067 0.006271 -0.815979 0.000000 0.000000
    16 0.021412 -0.957781 0.020047 -0.445059 0.000000 0.000000
    17 -0.249534 -2.846964 -0.174215 -0.012978 0.031261 0.129804
    18 0.043234 -1.683940 0.096014 -1.668295 0.000000 0.000000
    19 0.031730 -1.160831 0.058835 0.119114 0.000000 0.000000
    20 0.447951 -2.798983 -0.200442 -0.148382 0.067808 0.126894
    21 -0.032910 -1.480207 0.004935 -1.409715 0.000000 0.000000
    22 -0.027023 -1.076920 -0.020211 0.112912 0.000000 0.000000
    23 1.164474 -2.543938 -0.170326 -0.222289 -0.030232 0.124244
    24 0.024032 -1.129040 0.017806 -1.058217 0.000000 0.000000
    25 0.014897 -0.883992 -0.019845 -0.305455 0.000000 0.000000
    26 -0.026406 -0.138455 -0.019867 0.287061 0.027381 1.346366
    27 0.583509 -1.197273 0.185379 0.339227 -0.969650 -0.814052
    28 1.535926 0.010247 0.005008 -0.326444 -0.010942 -1.015318
    29 1.100770 0.004528 -0.010676 -0.002280 -0.012860 -0.483518
    30 0.957766 -2.746777 -0.090301 -0.233911 -0.030190 0.091702
    31 -0.033419 -1.397128 -0.011256 -0.080713 0.000000 0.000000
    32 -0.022361 -0.957433 0.018782 -0.861359 0.000000 0.000000
    33 0.250028 -2.820664 -0.238397 -0.470596 0.001394 -0.072461
    34 -0.049759 -1.680544 0.100479 -1.606138 0.000000 0.000000
    35 -0.034141 -1.148311 0.084779 -1.613141 0.000000 0.000000
    36 -0.488517 -2.755600 -0.228261 -0.436149 -0.021506 -0.150745
    37 0.039888 -1.479791 0.029853 -1.503030 0.000000 0.000000
    38 0.028785 -1.075732 -0.023110 -1.633152 0.000000 0.000000
    39 -1.180679 -2.507216 -0.193861 -0.170864 0.143009 -0.128851
    40 -0.024967 -1.123935 0.017594 -0.768586 0.000000 0.000000
    41 -0.020058 -0.890964 0.010091 -1.080190 0.000000 0.000000
    42 0.080903 -0.068755 -0.180384 0.307743 -2.879452 1.540137
  time 22
    0 6.649433 3.707014 -5.950917 -0.923905 -1.301785 0.713047
    1 -0.071917 -8.498732 -0.104136 0.317742 -0.139836 -0.172375
    2 -0.252194 -4.514323 0.852150 -1.061842 1.466010 -1.048336
    3 -0.000001 2.617617 0.665015 0.000000 0.000000 0.000000
    4 0.000000 -1.655466 2.278033 0.000000 0.000000 0.000000
    5 0.000000 -1.796959 1.330032 0.000000 0.000000 0.000000
    6 0.000001 -2.886454 1.471525 -0.000527 0.000000 0.000000
    7 0.000000 -0.778211 1.774024 -0.683795 0.000000 0.000000
    8 0.000000 -1.598869 0.580120 0.000000 0.000000 0.000000
    9 -1.871590 0.308733 -9.891508 -0.420601 -0.048049 0.631927
    10 0.096946 -8.450418 -0.009364 0.110265 -0.307210 0.465624
    11 -0.586769 -1.264477 0.200165 -0.282470 -0.582878 -2.509428
    12 1.522835 0.058679 0.016851 0.000000 0.000000 0.446604
    13 1.117948 0.048425 -0.005765 0.015939 -0.000477 0.859148
    14 -0.963866 -2.785144 -0.085346 -0.342483 0.185746 -0.010101
    15 0.028479 -1.403067 0.006271 -0.815979 0.000000 0.000000
    16 0.021412 -0.957781 0.020047 -0.445059 0.000000 0.000000
    17 -0.249534 -2.846964 -0.174215 -0.012978 0.031261 0.129804
    18 0.043234 -1.683940 0.096014 -1.668295 0.000000 0.000000
    19 0.031730 -1.160831 0.058835 0.119114 0.000000 0.000000
    20 0.447951 -2.798983 -0.200442 -0.148382 0.067808 0.126894
    21 -0.032910 -1.480207 0.004935 -1.409715 0.000000 0.000000
    22 -0.027023 -1.076920 -0.020211 0.112912 0.000000 0.000000
    23 1.164474 -2.543938 -0.170326 -0.222289 -0.030232 0.124244
    24 0.024032 -1.129040 0.017806 -1.058217 0.000000 0.000000
    25 0.014897 -0.883992 -0.019845 -0.305455 0.000000 0.000000
    26 -0.026406 -0.138455 -0.019867 0.287061 0.027381 1.346366
    27 0.583509 -1.197273 0.185379 0.339227 -0.969650 -0.814052
    28 1.535926 0.010247 0.005008 -0.326444 -0.010942 -1.015318
    29 1.100770 0.004528 -0.010676 -0.002280 -0.012860 -0.483518
    30 0.957766 -2.746777 -0.090301 -0.233911 -0.030190 0.091702
    31 -0.033419 -1.397128 -0.011256 -0.084383 0.000000 0.000000
    32 -0.022361 -0.957433 0.018782 -0.863110 0.000000 0.000000
    33 0.250028 -2.820664 -0.238397 -0.470596 0.001394 -0.072461
    34 -0.049759 -1.680544 0.100479 -1.606138 0.000000 0.000000
    35 -0.034141 -1.148311 0.084779 -1.613141 0.000000 0.000000
    36 -0.488517 -2.755600 -0.228261 -0.436149 -0.021506 -0.150745
    37 0.039888 -1.479791 0.029853 -1.503030 0.000000 0.000000
    38 0.028785 -1.075732 -0.023110 -1.633152 0.000000 0.000000
    39 -1.180679 -2.507216 -0.193861 -0.170864 0.143009 -0.128851
    40 -0.024967 -1.123935 0.017594 -0.768586 0.000000 0.000000
    41 -0.020058 -0.890964 0.010091 -1.080190 0.000000 0.000000
    42 0.080903 -0.068755 -0.180384 0.307743 -2.879452 1.540137
  time 23
    0 6.653340 3.726546 -5.927479 -0.911600 -1.306172 0.700292
    1 -0.071917 -8.498732 -0.104136 0.314522 -0.138803 -0.176437
    2 -0.252194 -4.514323 0.852150 -1.061842 1.466010 -1.048336
    3 -0.000001 2.617617 0.665015 0.000000 0.000000 0.000000
    4 0.000000 -1.655466 2.278033 0.000000 0.000000 0.000000
    5 0.000000 -1.796959 1.330032 0.000000 0.000000 0.000000
    6 0.000001 -2.886454 1.471525 0.000000 0.000000 0.000000
    7 0.000000 -0.778211 1.774024 -0.680679 0.000000 0.000000
    8 0.000000 -1.598869 0.580120 0.000000 0.000000 0.000000
    9 -1.809088 0.230605 -9.993073 -0.427228 -0.041350 0.629321
    10 0.096946 -8.450418 -0.009364 0.072740 -0.329122 0.475302
    11 -0.586769 -1.264477 0.200165 -0.282470 -0.582878 -2.509428
    12 1.522835 0.058679 0.016851 0.000000 0.000000 0.446604
    13 1.117948 0.048425 -0.005765 0.015939 -0.000477 0.859148
    14 -0.963866 -2.785144 -0.085346 -0.342483 0.185746 -0.010101
    15 0.028479 -1.403067 0.006271 -0.815979 0.000000 0.000000
    16 0.021412 -0.957781 0.020047 -0.445059 0.000000 0.000000
    17 -0.249534 -2.846964 -0.174215 -0.012978 0.031261 0.129804
    18 0.043234 -1.683940 0.096014 -1.668295 0.000000 0.000000
    19 0.031730 -1.160831 0.058835 0.119114 0.000000 0.000000
    20 0.447951 -2.798983 -0.200442 -0.148382 0.067808 0.126894
    21 -0.032910 -1.480207 0.004935 -1.409715 0.000000 0.000000
    22 -0.027023 -1.076920 -0.020211 0.112912 0.000000 0.000000
    23 1.164474 -2.543938 -0.170326 -0.222289 -0.030232 0.124244
    24 0.024032 -1.129040 0.017806 -1.058217 0.000000 0.000000
    25 0.014897 -0.883992 -0.019845 -0.305455 0.000000 0.000000
    26 -0.026406 -0.138455 -0.019867 0.287061 0.027381 1.346366
    27 0.583509 -1.197273 0.185379 0.339227 -0.969650 -0.814052
    28 1.535926 0.010247 0.005008 -0.326444 -0.010942 -1.015318
    29 1.100770 0.004528 -0.010676 -0.002280 -0.012860 -0.483518
    30 0.957766 -2.746777 -0.090301 -0.233911 -0.030190 0.091702
    31 -0.033419 -1.397128 -0.011256 -0.085680 0.000000 0.000000
    32 -0.022361 -0.957433 0.018782 -0.863752 0.000000 0.000000
    33 0.250028 -2.820664 -0.238397 -0.470596 0.001394 -0.072461
    34 -0.049759 -1.680544 0.100479 -1.606138 0.000000 0.000000
    35 -0.034141 -1.148311 0.084779 -1.613141 0.000000 0.000000
    36 -0.488517 -2.755600 -0.228261 -0.436149 -0.021506 -0.150745
    37 0.039888 -1.479791 0.029853 -1.503030 0.000000 0.000000
    38 0.028785 -1.075732 -0.023110 -1.633152 0.000000 0.000000
    39 -1.180679 -2.507216 -0.193861 -0.170864 0.143009 -0.128851
    40 -0.024967 -1.123935 0.017594 -0.768586 0.000000 0.000000
    41 -0.020058 -0.890964 0.010091 -1.080190 0.000000 0.000000
    42 0.080903 -0.068755 -0.180384 0.307743 -2.879452 1.540137
end
