"VertexLitGeneric"
{
	$basetexture	"models\weapons\tfa_cso\galil\#256252hand"
	$bumpmap "models\weapons\tfa_cso\galil\#256252hand_n"
	$phongexponenttexture "models\weapons\v_models\Request CSO\Dragon TMP S"
	
	$phong "0"
	$phongexponent "20"
	$phongfresnelranges "[0.15 0.65 1.00]"
	$phongalbedotint "1"
	$phongboost "16"
}