version 1
nodes
  0 "gunkata_root" -1
  1 "slide" 0
  2 "gunkata_knife" 0
  3 "kata_triger" 0
  4 "kata_2" 0
  5 "gunkata_megazine" 0
  6 "gunkata_root001" -1
  7 "slide001" 6
  8 "gunkata_knife001" 6
  9 "kata_triger001" 6
  10 "kata_005" 6
  11 "gunkata_megazine001" 6
  12 "fx01" -1
  13 "fx02" -1
  14 "trail01" -1
  15 "trail02" 14
  16 "root" -1
  17 "Bone01" 16
  18 "Bone_L_Upper" 17
  19 "Bone_Lefthand" 17
  20 "Bone13" 19
  21 "Bone14" 20
  22 "Bone15" 21
  23 "Bone17" 19
  24 "Bone18" 23
  25 "Bone19" 24
  26 "Bone21" 19
  27 "Bone22" 26
  28 "Bone23" 27
  29 "Bone09" 19
  30 "Bone10" 29
  31 "Bone11" 30
  32 "Bone05" 19
  33 "Bone06" 32
  34 "Bone07" 33
  35 "Bone_Se_Hand-L" 19
  36 "Bone04" 16
  37 "Bone_Righthand" 36
  38 "Bone39" 37
  39 "Bone40" 38
  40 "Bone41" 39
  41 "Bone35" 37
  42 "Bone36" 41
  43 "Bone37" 42
  44 "Bone31" 37
  45 "Bone32" 44
  46 "Bone33" 45
  47 "Bone43" 37
  48 "Bone44" 47
  49 "Bone45" 48
  50 "Bone27" 37
  51 "Bone28" 50
  52 "Bone29" 51
  53 "Bone_Se_Hand-R" 37
  54 "Bone_R_Upper" 36
end
skeleton
  time 0
    0 15.762200 0.773461 8.344005 0.810724 -3.871016 -0.869088
    1 3.096915 -0.000001 -3.559005 -3.141592 -1.570451 0.000000
    2 -3.157606 0.000000 -1.771385 0.000000 3.141592 0.000000
    3 1.347458 0.000000 -0.036606 0.000001 -3.141592 0.000000
    4 2.980681 -0.000001 -3.026972 0.000000 0.000000 0.000000
    5 -2.772562 0.000000 -3.715392 0.000000 -0.478942 0.000000
    6 -20.418592 1.175512 -11.316752 2.035845 -0.193433 -1.351511
    7 3.096915 -0.000002 -3.559005 -3.141592 -1.570451 0.000000
    8 -3.157606 0.000001 -1.771385 0.000000 0.000000 0.000000
    9 1.347458 0.000000 -0.036606 0.000001 -3.141592 0.000000
    10 2.980681 -0.000001 -3.026972 0.000000 0.000000 0.000000
    11 -2.772562 -0.000001 -3.715392 0.000000 -0.478942 0.000000
    12 15.724051 3.994857 6.547075 0.712476 0.544755 0.274441
    13 15.724051 3.994857 6.547075 0.712408 0.544755 0.274441
    14 11.444071 -6.608147 8.307275 0.986223 -1.014512 -1.333130
    15 0.000002 40.432781 -0.000010 0.000000 0.000000 0.000000
    16 1.403540 2.483186 -4.890155 0.000000 0.000000 0.171145
    17 6.692836 -3.686283 -0.795881 5.055669 -0.529499 -4.519747
    18 8.394117 2.485049 -0.360751 1.567140 -3.120088 0.362408
    19 -0.032857 -8.506549 -0.080696 0.111932 0.489282 0.270097
    20 -0.488518 -2.755602 -0.228260 -0.745702 0.051427 -0.428080
    21 0.039887 -1.530573 0.014229 -1.474794 -0.012200 0.032767
    22 0.028786 -1.196828 -0.132487 -1.283934 -0.014813 0.028559
    23 0.250027 -2.820665 -0.238396 -0.302853 -0.007559 -0.332962
    24 -0.049759 -1.598510 0.041883 -1.454618 0.002265 -0.039503
    25 -0.034142 -1.171750 0.045718 -1.169340 0.006568 -0.030800
    26 0.957766 -2.746780 -0.090302 -0.073520 -0.105003 -0.287442
    27 -0.033420 -1.397129 -0.026882 -0.889360 0.005872 -0.043709
    28 -0.022360 -0.961342 -0.004654 -0.897111 0.005309 -0.043672
    29 -1.180681 -2.507217 -0.193859 -0.651909 0.216385 -0.377089
    30 -0.024967 -1.127840 0.017597 -0.989873 0.004123 -0.042424
    31 -0.020057 -0.902687 0.025715 -0.812415 0.007466 -0.032646
    32 0.618667 -1.208996 0.197098 -0.022295 -1.054623 -0.110245
    33 1.457800 -0.239762 0.075324 0.067182 -0.236384 -0.871640
    34 0.987486 -0.194698 0.047917 0.110698 -0.260056 -1.143119
    35 0.120153 -0.050270 -0.054489 0.287569 3.110905 1.561085
    36 -9.321826 3.792453 -1.774775 2.940195 -6.109475 1.503248
    37 0.136008 -8.438699 -0.060148 -0.336658 -0.151469 -0.125256
    38 0.447953 -2.798986 -0.200443 -0.735873 0.010098 0.254020
    39 -0.032909 -1.499736 0.028378 -1.435653 0.023358 -0.027754
    40 -0.027022 -1.135516 -0.020210 -1.403578 0.024892 -0.027133
    41 -0.249534 -2.846964 -0.174213 -0.314880 0.133839 0.144563
    42 0.043235 -1.656596 0.068667 -1.454198 -0.022453 0.008066
    43 0.031729 -1.137392 0.051025 -1.500061 -0.016580 0.008779
    44 -0.963866 -2.785145 -0.085350 0.178507 0.162851 -0.182687
    45 0.028479 -1.403067 -0.017167 -0.866992 -0.021392 -0.032095
    46 0.021413 -0.961687 0.020046 0.204098 0.000551 0.009024
    47 1.164475 -2.543940 -0.170330 -0.641109 -0.235285 0.274225
    48 0.024032 -1.148574 -0.009538 -1.265292 0.022124 0.061853
    49 0.014898 -0.903521 -0.012035 -1.137822 0.013722 0.056028
    50 -0.586770 -1.264477 0.200161 -0.316722 -1.034155 -2.553877
    51 1.561899 0.035243 0.016848 -0.016099 -0.006259 0.794269
    52 1.114041 0.044518 -0.005766 -0.025854 -0.034738 0.943911
    53 -0.139399 -0.111698 0.014397 0.285382 -0.030687 1.580508
    54 -7.858511 4.635924 -0.442564 1.575915 -0.028920 -0.617591
  time 1
    0 15.687979 -9.363567 6.504105 0.537944 -3.437887 -1.357308
    1 3.096915 -0.000001 -3.559005 -3.141592 -1.570451 0.000000
    2 -3.157606 0.000000 -1.771385 0.000000 3.141592 0.000000
    3 1.347458 0.000000 -0.036606 0.000001 -3.141592 0.000000
    4 2.980681 -0.000001 -3.026972 0.000000 0.000000 0.000000
    5 -2.772562 0.000000 -3.715392 0.000000 -0.478942 0.000000
    6 -20.934233 1.339579 -10.601886 1.988430 -0.194481 -1.332002
    7 3.096915 -0.000002 -3.559005 -3.141592 -1.570451 0.000000
    8 -3.157606 0.000001 -1.771385 0.000000 0.000000 0.000000
    9 1.347458 0.000000 -0.036606 0.000001 -3.141592 0.000000
    10 2.980681 -0.000001 -3.026972 0.000000 0.000000 0.000000
    11 -2.772562 -0.000001 -3.715392 0.000000 -0.478942 0.000000
    12 16.864711 -5.868726 6.433790 1.874773 0.407751 0.173999
    13 16.864711 -5.868726 6.433790 1.560571 0.407751 0.173999
    14 9.111968 -11.593671 5.367261 0.986223 -1.014512 -1.333130
    15 0.000002 33.694294 -0.000010 0.000000 0.000000 0.000000
    16 1.165252 2.897261 -4.862810 0.000000 0.000000 0.174241
    17 7.067847 -6.244955 -1.389649 5.043418 -0.892771 1.478909
    18 7.327678 5.196070 -0.306061 1.565127 -3.126991 0.701073
    19 -0.044576 -8.471392 -0.092415 -0.047219 0.445009 0.104573
    20 -0.488518 -2.755602 -0.228260 -0.745552 0.051295 -0.426426
    21 0.039887 -1.530573 0.014229 -1.478346 -0.012164 0.032851
    22 0.028786 -1.196828 -0.132487 -1.281653 -0.014825 0.028499
    23 0.250027 -2.820665 -0.238396 -0.302376 -0.008506 -0.331332
    24 -0.049759 -1.598510 0.037977 -1.457743 0.002205 -0.039575
    25 -0.034142 -1.171750 0.045718 -1.169340 0.006568 -0.030800
    26 0.957766 -2.746780 -0.090302 -0.068933 -0.105698 -0.274374
    27 -0.033420 -1.397129 -0.026882 -0.869667 0.006172 -0.042762
    28 -0.022360 -0.961342 -0.004654 -0.885178 0.005501 -0.043097
    29 -1.180681 -2.507217 -0.193859 -0.657300 0.217631 -0.377244
    30 -0.024967 -1.127840 0.017597 -0.992993 0.004063 -0.042556
    31 -0.020057 -0.902687 0.025715 -0.819075 0.007418 -0.032946
    32 0.618667 -1.208996 0.197098 -0.003767 -1.051078 -0.131194
    33 1.457800 -0.239762 0.075324 0.066451 -0.235593 -0.867646
    34 0.987486 -0.190791 0.047917 0.110386 -0.259840 -1.141730
    35 0.120153 -0.050270 -0.054489 0.287569 3.110905 1.561085
    36 -9.439017 3.769015 -1.673209 2.986993 -6.103105 1.518741
    37 0.136008 -8.438699 -0.060148 -0.336658 -0.151469 -0.125256
    38 0.447953 -2.798986 -0.200443 -0.735873 0.010098 0.254020
    39 -0.032909 -1.499736 0.028378 -1.435653 0.023358 -0.027754
    40 -0.027022 -1.135516 -0.020210 -1.403578 0.024892 -0.027133
    41 -0.249534 -2.846964 -0.174213 -0.314880 0.133839 0.144563
    42 0.043235 -1.656596 0.068667 -1.454198 -0.022453 0.008066
    43 0.031729 -1.137392 0.051025 -1.500061 -0.016580 0.008779
    44 -0.963866 -2.785145 -0.085350 0.178507 0.162851 -0.182687
    45 0.028479 -1.403067 -0.017167 -0.866992 -0.021392 -0.032095
    46 0.021413 -0.961687 0.020046 0.204098 0.000551 0.009024
    47 1.164475 -2.543940 -0.170330 -0.641109 -0.235285 0.274225
    48 0.024032 -1.148574 -0.009538 -1.265292 0.022124 0.061853
    49 0.014898 -0.903521 -0.012035 -1.137822 0.013722 0.056028
    50 -0.586770 -1.264477 0.200161 -0.316722 -1.034155 -2.553877
    51 1.561899 0.035243 0.016848 -0.016099 -0.006259 0.794269
    52 1.114041 0.044518 -0.005766 -0.025854 -0.034738 0.943911
    53 -0.139399 -0.111698 0.014397 0.285382 -0.030687 1.580508
    54 -7.858511 4.635924 -0.442564 1.575915 -0.028920 -0.617591
  time 2
    0 10.918302 -18.215400 1.375042 3.582516 -0.189792 1.412874
    1 3.096915 -0.000001 -3.559005 -3.141592 -1.570451 0.000000
    2 -3.157606 0.000000 -1.771385 0.000000 3.141592 0.000000
    3 1.347458 0.000000 -0.036606 0.000001 -3.141592 0.000000
    4 2.980681 -0.000001 -3.026972 0.000000 0.000000 0.000000
    5 -2.772562 0.000000 -3.715392 0.000000 -0.478942 0.000000
    6 -21.367840 1.441145 -9.879208 1.941111 -0.194743 -1.313067
    7 3.096915 -0.000002 -3.559005 -3.141592 -1.570451 0.000000
    8 -3.157606 0.000001 -1.771385 0.000000 0.000000 0.000000
    9 1.347458 0.000000 -0.036606 0.000001 -3.141592 0.000000
    10 2.980681 -0.000001 -3.026972 0.000000 0.000000 0.000000
    11 -2.772562 -0.000001 -3.715392 0.000000 -0.478942 0.000000
    12 13.134129 -15.736214 2.968841 3.013506 0.282348 -0.015767
    13 13.134129 -15.736214 2.968841 2.385261 0.282348 -0.015767
    14 6.775959 -16.579196 2.427246 0.986223 -1.014512 -1.333130
    15 0.000002 26.955807 -0.000010 0.000000 0.000000 0.000000
    16 0.973840 3.229302 -4.839372 0.000000 0.000000 0.176728
    17 5.688899 -8.889567 -2.135766 5.155110 -1.274021 1.114252
    18 5.425276 7.399262 -0.243559 1.565606 -3.134277 1.039642
    19 -0.056296 -8.432328 -0.104134 -0.192727 0.378775 -0.047468
    20 -0.488518 -2.755602 -0.228260 -0.745402 0.051175 -0.424772
    21 0.039887 -1.530573 0.014229 -1.481949 -0.012140 0.032947
    22 0.028786 -1.196828 -0.132487 -1.279330 -0.014837 0.028439
    23 0.250027 -2.820665 -0.238396 -0.301926 -0.009441 -0.329690
    24 -0.049759 -1.598510 0.037977 -1.460869 0.002157 -0.039647
    25 -0.034142 -1.171750 0.045718 -1.169340 0.006568 -0.030800
    26 0.957766 -2.746780 -0.090302 -0.064371 -0.106453 -0.261320
    27 -0.033420 -1.397129 -0.026882 -0.849973 0.006460 -0.041803
    28 -0.022360 -0.961342 -0.004654 -0.873273 0.005681 -0.042521
    29 -1.180681 -2.507217 -0.193859 -0.662736 0.218890 -0.377400
    30 -0.024967 -1.127840 0.017597 -0.996157 0.004015 -0.042688
    31 -0.020057 -0.902687 0.025715 -0.825734 0.007371 -0.033245
    32 0.618667 -1.208996 0.197098 0.014486 -1.047312 -0.151894
    33 1.457800 -0.239762 0.075324 0.065720 -0.234790 -0.863678
    34 0.987486 -0.190791 0.047917 0.110063 -0.259637 -1.140303
    35 0.120153 -0.050270 -0.054489 0.287569 3.110905 1.561085
    36 -9.548396 3.741670 -1.563831 3.033886 -6.097381 1.534522
    37 0.136008 -8.438699 -0.060148 -0.336658 -0.151469 -0.125256
    38 0.447953 -2.798986 -0.200443 -0.735873 0.010098 0.254020
    39 -0.032909 -1.499736 0.028378 -1.435653 0.023358 -0.027754
    40 -0.027022 -1.135516 -0.020210 -1.403578 0.024892 -0.027133
    41 -0.249534 -2.846964 -0.174213 -0.314880 0.133839 0.144563
    42 0.043235 -1.656596 0.068667 -1.454198 -0.022453 0.008066
    43 0.031729 -1.137392 0.051025 -1.500061 -0.016580 0.008779
    44 -0.963866 -2.785145 -0.085350 0.178507 0.162851 -0.182687
    45 0.028479 -1.403067 -0.017167 -0.866992 -0.021392 -0.032095
    46 0.021413 -0.961687 0.020046 0.204098 0.000551 0.009024
    47 1.164475 -2.543940 -0.170330 -0.641109 -0.235285 0.274225
    48 0.024032 -1.148574 -0.009538 -1.265292 0.022124 0.061853
    49 0.014898 -0.903521 -0.012035 -1.137822 0.013722 0.056028
    50 -0.586770 -1.264477 0.200161 -0.316722 -1.034155 -2.553877
    51 1.561899 0.035243 0.016848 -0.016099 -0.006259 0.794269
    52 1.114041 0.044518 -0.005766 -0.025854 -0.034738 0.943911
    53 -0.139399 -0.111698 0.014397 0.285382 -0.030687 1.580508
    54 -7.858511 4.635924 -0.442564 1.575915 -0.028920 -0.617591
  time 3
    0 4.574358 -22.235054 -4.800928 3.617173 -0.622457 1.089436
    1 3.096915 -0.000001 -3.559005 -3.141592 -1.570451 0.000000
    2 -3.157606 0.000000 -1.771385 0.000000 3.141592 0.000000
    3 1.347458 0.000000 -0.036606 0.000001 -3.141592 0.000000
    4 2.980681 -0.000001 -3.026972 0.000000 0.000000 0.000000
    5 -2.772562 0.000000 -3.715392 0.000000 -0.478942 0.000000
    6 -21.727226 1.484115 -9.148717 1.893792 -0.194219 -1.294706
    7 3.096915 -0.000002 -3.559005 -3.141592 -1.570451 0.000000
    8 -3.157606 0.000001 -1.771385 0.000000 0.000000 0.000000
    9 1.347458 0.000000 -0.036606 0.000001 -3.141592 0.000000
    10 2.980681 -0.000001 -3.026972 0.000000 0.000000 0.000000
    11 -2.772562 -0.000001 -3.715392 0.000000 -0.478942 0.000000
    12 7.087069 -21.388731 -2.234443 -2.196812 0.224345 -0.212050
    13 7.087069 -21.388731 -2.234443 -3.139341 0.224345 -0.212050
    14 4.439951 -21.538201 -0.536671 0.986223 -1.014512 -1.333130
    15 0.000002 20.217321 -0.000010 0.000000 0.000000 0.000000
    16 0.825398 3.487123 -4.823747 0.000000 0.000000 0.178662
    17 3.372422 -10.389613 -2.694376 0.733556 -1.481619 -0.928495
    18 3.112705 8.758678 -0.184964 1.568099 3.142711 1.351172
    19 -0.056296 -8.401077 -0.119759 -0.304135 0.303688 -0.181441
    20 -0.488518 -2.755602 -0.228260 -0.745251 0.051068 -0.423382
    21 0.039887 -1.530573 0.014229 -1.485001 -0.012104 0.033019
    22 0.028786 -1.196828 -0.132487 -1.277422 -0.014849 0.028380
    23 0.250027 -2.820665 -0.238396 -0.301529 -0.010232 -0.328312
    24 -0.049759 -1.598510 0.037977 -1.463482 0.002109 -0.039707
    25 -0.034142 -1.171750 0.045718 -1.169340 0.006568 -0.030800
    26 0.957766 -2.746780 -0.090302 -0.060511 -0.107136 -0.250327
    27 -0.033420 -1.397129 -0.026882 -0.833373 0.006687 -0.041000
    28 -0.022360 -0.961342 -0.004654 -0.863237 0.005836 -0.042042
    29 -1.180681 -2.507217 -0.193859 -0.667273 0.219944 -0.377532
    30 -0.024967 -1.127840 0.017597 -0.998794 0.003967 -0.042796
    31 -0.020057 -0.902687 0.025715 -0.831369 0.007335 -0.033509
    32 0.614761 -1.208996 0.197098 0.029646 -1.044020 -0.169091
    33 1.457800 -0.239762 0.075324 0.065096 -0.234119 -0.860323
    34 0.987486 -0.190791 0.047917 0.109811 -0.259457 -1.139139
    35 0.120153 -0.050270 -0.054489 0.287569 3.110905 1.561085
    36 -9.653868 3.718232 -1.450546 3.080875 -6.092488 1.550589
    37 0.136008 -8.438699 -0.060148 -0.336658 -0.151469 -0.125256
    38 0.447953 -2.798986 -0.200443 -0.735873 0.010098 0.254020
    39 -0.032909 -1.499736 0.028378 -1.435653 0.023358 -0.027754
    40 -0.027022 -1.135516 -0.020210 -1.403578 0.024892 -0.027133
    41 -0.249534 -2.846964 -0.174213 -0.314880 0.133839 0.144563
    42 0.043235 -1.656596 0.068667 -1.454198 -0.022453 0.008066
    43 0.031729 -1.137392 0.051025 -1.500061 -0.016580 0.008779
    44 -0.963866 -2.785145 -0.085350 0.178507 0.162851 -0.182687
    45 0.028479 -1.403067 -0.017167 -0.866992 -0.021392 -0.032095
    46 0.021413 -0.961687 0.020046 0.204098 0.000551 0.009024
    47 1.164475 -2.543940 -0.170330 -0.641109 -0.235285 0.274225
    48 0.024032 -1.148574 -0.009538 -1.265292 0.022124 0.061853
    49 0.014898 -0.903521 -0.012035 -1.137822 0.013722 0.056028
    50 -0.586770 -1.264477 0.200161 -0.316722 -1.034155 -2.553877
    51 1.561899 0.035243 0.016848 -0.016099 -0.006259 0.794269
    52 1.114041 0.044518 -0.005766 -0.025854 -0.034738 0.943911
    53 -0.139399 -0.111698 0.014397 0.285382 -0.030687 1.580508
    54 -7.858511 4.635924 -0.442564 1.575915 -0.028920 -0.617591
  time 4
    0 5.386883 -22.727256 -4.226691 3.625266 -0.713164 1.112689
    1 3.096915 -0.000001 -3.559005 -3.141592 -1.570451 0.000000
    2 -3.157606 0.000000 -1.771385 0.000000 3.141496 0.000000
    3 1.347458 0.000000 -0.036606 0.000001 -3.141592 0.000000
    4 2.980681 -0.000001 -3.026972 0.000000 0.000000 0.000000
    5 -2.772562 0.000000 -3.715392 0.000000 -0.478942 0.000000
    6 -22.016297 1.480209 -8.410413 1.846473 -0.192909 -1.276918
    7 3.096915 -0.000002 -3.559005 -3.141592 -1.570451 0.000000
    8 -3.157606 0.000001 -1.771385 0.000000 0.000000 0.000000
    9 1.347458 0.000000 -0.036606 0.000001 -3.141592 0.000000
    10 2.980681 -0.000001 -3.026972 0.000000 0.000000 0.000000
    11 -2.772562 -0.000001 -3.715392 0.000000 -0.478942 0.000000
    12 7.782403 -22.033281 -1.503952 -1.477536 0.205170 -0.164321
    13 7.782403 -22.033281 -1.503952 -2.734181 0.205170 -0.164321
    14 2.103942 -26.497206 -3.476686 0.986223 -1.014512 -1.333130
    15 0.000002 13.478834 -0.000010 0.000000 0.000000 0.000000
    16 0.712113 3.682441 -4.812028 0.000000 0.000000 0.180155
    17 3.665400 -10.874003 -1.655282 0.516297 -1.503613 -0.664743
    18 1.733757 9.172753 -0.157619 1.570207 3.139739 1.517952
    19 -0.052389 -8.381545 -0.127572 -0.309268 0.272697 -0.293866
    20 -0.488518 -2.755602 -0.228260 -0.745251 0.051068 -0.423382
    21 0.039887 -1.530573 0.014229 -1.485001 -0.012104 0.033019
    22 0.028786 -1.196828 -0.132487 -1.277422 -0.014849 0.028380
    23 0.250027 -2.820665 -0.238396 -0.301529 -0.010232 -0.328312
    24 -0.049759 -1.598510 0.037977 -1.463482 0.002109 -0.039707
    25 -0.034142 -1.171750 0.045718 -1.169340 0.006568 -0.030800
    26 0.957766 -2.746780 -0.090302 -0.060511 -0.107136 -0.250327
    27 -0.033420 -1.397129 -0.026882 -0.833373 0.006687 -0.041000
    28 -0.022360 -0.961342 -0.004654 -0.863237 0.005836 -0.042042
    29 -1.180681 -2.507217 -0.193859 -0.667273 0.219944 -0.377532
    30 -0.024967 -1.127840 0.017597 -0.998794 0.003967 -0.042796
    31 -0.020057 -0.902687 0.025715 -0.831369 0.007335 -0.033509
    32 0.614761 -1.208996 0.197098 0.029646 -1.044020 -0.169091
    33 1.457800 -0.239762 0.075324 0.065096 -0.234119 -0.860323
    34 0.987486 -0.190791 0.047917 0.109811 -0.259457 -1.139139
    35 0.120153 -0.050270 -0.054489 0.287569 3.110905 1.561085
    36 -9.755433 3.690887 -1.333355 3.127959 -6.088241 1.566943
    37 0.136008 -8.438699 -0.060148 -0.336658 -0.151469 -0.125256
    38 0.447953 -2.798986 -0.200443 -0.735873 0.010098 0.254020
    39 -0.032909 -1.499736 0.028378 -1.435653 0.023358 -0.027754
    40 -0.027022 -1.135516 -0.020210 -1.403578 0.024892 -0.027133
    41 -0.249534 -2.846964 -0.174213 -0.314880 0.133839 0.144563
    42 0.043235 -1.656596 0.068667 -1.454198 -0.022453 0.008066
    43 0.031729 -1.137392 0.051025 -1.500061 -0.016580 0.008779
    44 -0.963866 -2.785145 -0.085350 0.178507 0.162851 -0.182687
    45 0.028479 -1.403067 -0.017167 -0.866992 -0.021392 -0.032095
    46 0.021413 -0.961687 0.020046 0.204098 0.000551 0.009024
    47 1.164475 -2.543940 -0.170330 -0.641109 -0.235285 0.274225
    48 0.024032 -1.148574 -0.009538 -1.265292 0.022124 0.061853
    49 0.014898 -0.903521 -0.012035 -1.137822 0.013722 0.056028
    50 -0.586770 -1.264477 0.200161 -0.316722 -1.034155 -2.553877
    51 1.561899 0.035243 0.016848 -0.016099 -0.006259 0.794269
    52 1.114041 0.044518 -0.005766 -0.025854 -0.034738 0.943911
    53 -0.139399 -0.111698 0.014397 0.285382 -0.030687 1.580508
    54 -7.858511 4.635924 -0.442564 1.575915 -0.028920 -0.617591
  time 5
    0 5.125156 -22.555376 -4.257942 3.613745 -0.718914 1.102833
    1 3.096915 -0.000001 -3.559005 -3.141592 -1.570451 0.000000
    2 -3.157606 0.000000 -1.771385 0.000000 3.141592 0.000000
    3 1.347458 0.000000 -0.036606 0.000001 -3.141592 0.000000
    4 2.980681 -0.000001 -3.026972 0.000000 0.000000 0.000000
    5 -2.772562 0.000000 -3.715392 0.000000 -0.478942 0.000000
    6 -22.238960 1.437239 -7.668203 1.799154 -0.190901 -1.259513
    7 3.096915 -0.000002 -3.559005 -3.141592 -1.570451 0.000000
    8 -3.157606 0.000001 -1.771385 0.000000 0.000000 0.000000
    9 1.347458 0.000000 -0.036606 0.000001 -3.141592 0.000000
    10 2.980681 -0.000001 -3.026972 0.000000 0.000000 0.000000
    11 -2.772562 -0.000001 -3.715392 0.000000 -0.478942 0.000000
    12 7.505051 -21.908278 -1.511765 -0.846099 0.195199 -0.181094
    13 7.505051 -21.908278 -1.511765 -2.416875 0.195199 -0.181094
    14 -0.232067 -31.482730 -6.392798 0.986223 -1.014512 -1.333130
    15 0.000002 6.740347 -0.000010 0.000000 0.000000 0.000000
    16 0.633986 3.823070 -4.800309 0.000000 0.000000 0.181149
    17 3.665400 -10.870096 -1.659189 0.673260 -1.514418 -0.826470
    18 1.706412 9.180566 -0.157619 1.570207 3.139739 1.521639
    19 -0.048483 -8.381545 -0.127572 -0.323857 0.272081 -0.297469
    20 -0.488518 -2.755602 -0.228260 -0.745289 0.051092 -0.423777
    21 0.039887 -1.530573 0.014229 -1.484100 -0.012116 0.032995
    22 0.028786 -1.196828 -0.132487 -1.277961 -0.014837 0.028391
    23 0.250027 -2.820665 -0.238396 -0.301661 -0.010016 -0.328708
    24 -0.049759 -1.598510 0.037977 -1.462764 0.002121 -0.039683
    25 -0.034142 -1.171750 0.045718 -1.169340 0.006568 -0.030800
    26 0.957766 -2.746780 -0.090302 -0.061614 -0.106932 -0.253470
    27 -0.033420 -1.397129 -0.026882 -0.838116 0.006627 -0.041228
    28 -0.022360 -0.961342 -0.004654 -0.866097 0.005789 -0.042186
    29 -1.180681 -2.507217 -0.193859 -0.665971 0.219645 -0.377496
    30 -0.024967 -1.127840 0.017597 -0.998047 0.003979 -0.042760
    31 -0.020057 -0.902687 0.025715 -0.829768 0.007347 -0.033437
    32 0.614761 -1.208996 0.197098 0.025332 -1.044970 -0.164194
    33 1.457800 -0.239762 0.075324 0.065276 -0.234310 -0.861282
    34 0.987486 -0.190791 0.047917 0.109883 -0.259505 -1.139477
    35 0.120153 -0.050270 -0.054489 0.287569 3.110905 1.561085
    36 -9.849186 3.663543 -1.212258 0.033673 -3.339842 -1.558239
    37 0.136008 -8.438699 -0.060148 -0.336658 -0.151469 -0.125256
    38 0.447953 -2.798986 -0.200443 -0.735873 0.010098 0.254020
    39 -0.032909 -1.499736 0.028378 -1.435653 0.023358 -0.027754
    40 -0.027022 -1.135516 -0.020210 -1.403578 0.024892 -0.027133
    41 -0.249534 -2.846964 -0.174213 -0.314880 0.133839 0.144563
    42 0.043235 -1.656596 0.068667 -1.454198 -0.022453 0.008066
    43 0.031729 -1.137392 0.051025 -1.500061 -0.016580 0.008779
    44 -0.963866 -2.785145 -0.085350 0.178507 0.162851 -0.182687
    45 0.028479 -1.403067 -0.017167 -0.866992 -0.021392 -0.032095
    46 0.021413 -0.961687 0.020046 0.204098 0.000551 0.009024
    47 1.164475 -2.543940 -0.170330 -0.641109 -0.235285 0.274225
    48 0.024032 -1.148574 -0.009538 -1.265292 0.022124 0.061853
    49 0.014898 -0.903521 -0.012035 -1.137822 0.013722 0.056028
    50 -0.586770 -1.264477 0.200161 -0.316722 -1.034155 -2.553877
    51 1.561899 0.035243 0.016848 -0.016099 -0.006259 0.794269
    52 1.114041 0.044518 -0.005766 -0.025854 -0.034738 0.943911
    53 -0.139399 -0.111698 0.014397 0.285382 -0.030687 1.580508
    54 -7.858511 4.635924 -0.442564 1.575915 -0.028920 -0.617591
  time 6
    0 4.898587 -22.438185 -4.297006 3.602034 -0.725221 1.094986
    1 3.096915 -0.000001 -3.559005 -3.141592 -1.570451 0.000000
    2 -3.157606 0.000000 -1.771385 0.000000 -3.141592 0.000000
    3 1.347458 0.000000 -0.036606 0.000001 -3.141592 0.000000
    4 2.980681 -0.000001 -3.026972 0.000000 0.000000 0.000000
    5 -2.772562 0.000000 -3.715392 0.000000 -0.478942 0.000000
    6 -22.403027 1.366924 -6.922086 1.751930 -0.188195 -1.242682
    7 3.096915 -0.000002 -3.559005 -3.141592 -1.570451 0.000000
    8 -3.157606 0.000001 -1.771385 0.000000 0.000000 0.000000
    9 1.347458 0.000000 -0.036606 0.000001 -3.141592 0.000000
    10 2.980681 -0.000001 -3.026972 0.000000 0.000000 0.000000
    11 -2.772562 -0.000001 -3.715392 0.000000 -0.478942 0.000000
    12 7.258949 -21.834057 -1.527390 -0.214182 0.185036 -0.196045
    13 7.258949 -21.834057 -1.527390 -2.099089 0.185036 -0.196045
    14 -4.740017 -882.283637 -788.197658 1.457761 -1.417492 -1.448618
    15 0.000002 0.001860 -0.000010 0.000000 0.000000 0.000000
    16 0.579297 3.912917 -4.796402 0.000000 0.000000 0.181868
    17 3.661494 -10.870096 -1.659189 0.883245 -1.522355 -1.040517
    18 1.675161 9.184473 -0.157619 1.570303 3.139643 1.525326
    19 -0.048483 -8.377639 -0.127572 -0.336382 0.270615 -0.300313
    20 -0.488518 -2.755602 -0.228260 -0.745326 0.051116 -0.424125
    21 0.039887 -1.530573 0.014229 -1.483350 -0.012116 0.032983
    22 0.028786 -1.196828 -0.132487 -1.278459 -0.014837 0.028415
    23 0.250027 -2.820665 -0.238396 -0.301741 -0.009812 -0.329043
    24 -0.049759 -1.598510 0.037977 -1.462098 0.002133 -0.039671
    25 -0.034142 -1.171750 0.045718 -1.169340 0.006568 -0.030800
    26 0.957766 -2.746780 -0.090302 -0.062566 -0.106764 -0.256204
    27 -0.033420 -1.397129 -0.026882 -0.842240 0.006568 -0.041432
    28 -0.022360 -0.961342 -0.004654 -0.868599 0.005753 -0.042306
    29 -1.180681 -2.507217 -0.193859 -0.664847 0.219381 -0.377460
    30 -0.024967 -1.127840 0.017597 -0.997388 0.003991 -0.042736
    31 -0.020057 -0.902687 0.025715 -0.828359 0.007359 -0.033365
    32 0.618667 -1.208996 0.197098 0.021580 -1.045793 -0.159928
    33 1.457800 -0.239762 0.075324 0.065420 -0.234478 -0.862107
    34 0.987486 -0.190791 0.047917 0.109943 -0.259553 -1.139777
    35 0.120153 -0.050270 -0.054489 0.287569 3.110905 1.561085
    36 -9.939033 3.636198 -1.087254 0.080947 -3.342519 -1.541598
    37 0.136008 -8.438699 -0.060148 -0.336658 -0.151469 -0.125256
    38 0.447953 -2.798986 -0.200443 -0.735873 0.010098 0.254020
    39 -0.032909 -1.499736 0.028378 -1.435653 0.023358 -0.027754
    40 -0.027022 -1.135516 -0.020210 -1.403578 0.024892 -0.027133
    41 -0.249534 -2.846964 -0.174213 -0.314880 0.133839 0.144563
    42 0.043235 -1.656596 0.068667 -1.454198 -0.022453 0.008066
    43 0.031729 -1.137392 0.051025 -1.500061 -0.016580 0.008779
    44 -0.963866 -2.785145 -0.085350 0.178507 0.162851 -0.182687
    45 0.028479 -1.403067 -0.017167 -0.866992 -0.021392 -0.032095
    46 0.021413 -0.961687 0.020046 0.204098 0.000551 0.009024
    47 1.164475 -2.543940 -0.170330 -0.641109 -0.235285 0.274225
    48 0.024032 -1.148574 -0.009538 -1.265292 0.022124 0.061853
    49 0.014898 -0.903521 -0.012035 -1.137822 0.013722 0.056028
    50 -0.586770 -1.264477 0.200161 -0.316722 -1.034155 -2.553877
    51 1.561899 0.035243 0.016848 -0.016099 -0.006259 0.794269
    52 1.114041 0.044518 -0.005766 -0.025854 -0.034738 0.943911
    53 -0.139399 -0.111698 0.014397 0.285382 -0.030687 1.580508
    54 -7.858511 4.635924 -0.442564 1.575915 -0.028920 -0.617591
  time 7
    0 4.726707 -22.363964 -4.336070 3.593084 -0.730229 1.088670
    1 3.096915 -0.000001 -3.559005 -3.141592 -1.570451 0.000000
    2 -3.157606 0.000000 -1.771385 0.000000 -3.141496 0.000000
    3 1.347458 0.000000 -0.036606 0.000001 -3.141592 0.000000
    4 2.980681 -0.000001 -3.026972 0.000000 0.000000 0.000000
    5 -2.772562 0.000000 -3.715392 0.000000 -0.478942 0.000000
    6 -22.512406 1.273171 -6.172063 1.704803 -0.184616 -1.226233
    7 3.096915 -0.000002 -3.559005 -3.141592 -1.570451 0.000000
    8 -3.157606 0.000001 -1.771385 0.000000 0.000000 0.000000
    9 1.347458 0.000000 -0.036606 0.000001 -3.141592 0.000000
    10 2.980681 -0.000001 -3.026972 0.000000 0.000000 0.000000
    11 -2.772562 -0.000001 -3.715392 0.000000 -0.478942 0.000000
    12 7.071444 -21.787180 -1.543016 0.417160 0.177175 -0.207833
    13 7.071444 -21.787180 -1.543016 -1.781878 0.177175 -0.207833
    14 -4.740017 -882.283637 -788.197658 1.457761 -1.417492 -1.448618
    15 0.000002 0.001860 -0.000010 0.000000 0.000000 0.000000
    16 0.548046 3.971512 -4.792496 0.000000 0.000000 0.182310
    17 3.657587 -10.870096 -1.663095 1.093038 -1.526562 -1.253537
    18 1.647817 9.188379 -0.157619 1.570303 3.139643 1.528163
    19 -0.048483 -8.377639 -0.131479 -0.346243 0.269501 -0.302568
    20 -0.488518 -2.755602 -0.228260 -0.745364 0.051140 -0.424400
    21 0.039887 -1.530573 0.014229 -1.482799 -0.012128 0.032959
    22 0.028786 -1.196828 -0.132487 -1.278832 -0.014837 0.028415
    23 0.250027 -2.820665 -0.238396 -0.301820 -0.009656 -0.329319
    24 -0.049759 -1.598510 0.037977 -1.461586 0.002145 -0.039659
    25 -0.034142 -1.171750 0.045718 -1.169340 0.006568 -0.030800
    26 0.957766 -2.746780 -0.090302 -0.063318 -0.106633 -0.258338
    27 -0.033420 -1.397129 -0.026882 -0.845471 0.006520 -0.041588
    28 -0.022360 -0.961342 -0.004654 -0.870551 0.005729 -0.042389
    29 -1.180681 -2.507217 -0.193859 -0.663949 0.219177 -0.377436
    30 -0.024967 -1.127840 0.017597 -0.996861 0.003991 -0.042712
    31 -0.020057 -0.902687 0.025715 -0.827271 0.007359 -0.033317
    32 0.618667 -1.208996 0.197098 0.018620 -1.046426 -0.156571
    33 1.457800 -0.239762 0.075324 0.065552 -0.234610 -0.862773
    34 0.987486 -0.190791 0.047917 0.110003 -0.259589 -1.140002
    35 0.120153 -0.050270 -0.054489 0.287569 3.110905 1.561085
    36 -10.021066 3.608854 -0.954437 0.128317 -3.344365 -1.524766
    37 0.136008 -8.438699 -0.060148 -0.336658 -0.151469 -0.125256
    38 0.447953 -2.798986 -0.200443 -0.735873 0.010098 0.254020
    39 -0.032909 -1.499736 0.028378 -1.435653 0.023358 -0.027754
    40 -0.027022 -1.135516 -0.020210 -1.403578 0.024892 -0.027133
    41 -0.249534 -2.846964 -0.174213 -0.314880 0.133839 0.144563
    42 0.043235 -1.656596 0.068667 -1.454198 -0.022453 0.008066
    43 0.031729 -1.137392 0.051025 -1.500061 -0.016580 0.008779
    44 -0.963866 -2.785145 -0.085350 0.178507 0.162851 -0.182687
    45 0.028479 -1.403067 -0.017167 -0.866992 -0.021392 -0.032095
    46 0.021413 -0.961687 0.020046 0.204098 0.000551 0.009024
    47 1.164475 -2.543940 -0.170330 -0.641109 -0.235285 0.274225
    48 0.024032 -1.148574 -0.009538 -1.265292 0.022124 0.061853
    49 0.014898 -0.903521 -0.012035 -1.137822 0.013722 0.056028
    50 -0.586770 -1.264477 0.200161 -0.316722 -1.034155 -2.553877
    51 1.561899 0.035243 0.016848 -0.016099 -0.006259 0.794269
    52 1.114041 0.044518 -0.005766 -0.025854 -0.034738 0.943911
    53 -0.139399 -0.111698 0.014397 0.285382 -0.030687 1.580508
    54 -7.858511 4.635924 -0.442564 1.575915 -0.028920 -0.617591
  time 8
    0 4.632954 -22.313181 -4.347789 3.589657 -0.732177 1.083216
    1 3.096915 -0.000001 -3.559005 -3.141592 -1.570451 0.000000
    2 -3.157606 0.000000 -1.771385 0.000000 3.141592 0.000000
    3 1.347458 0.000000 -0.036606 0.000001 -3.141592 0.000000
    4 2.980681 -0.000001 -3.026972 0.000000 0.000000 0.000000
    5 -2.772562 0.000000 -3.715392 0.000000 -0.478942 0.000000
    6 -22.571001 1.163793 -5.418134 1.657771 -0.180338 -1.210263
    7 3.096915 -0.000002 -3.559005 -3.141592 -1.570451 0.000000
    8 -3.157606 0.000001 -1.771385 0.000000 0.000000 0.000000
    9 1.347458 0.000000 -0.036606 0.000001 -3.141592 0.000000
    10 2.980681 -0.000001 -3.026972 0.000000 0.000000 0.000000
    11 -2.772562 -0.000001 -3.715392 0.000000 -0.478942 0.000000
    12 6.973784 -21.759836 -1.546922 1.046682 0.174299 -0.215213
    13 6.973784 -21.759836 -1.546922 -1.466488 0.174299 -0.215213
    14 -4.740017 -882.283637 -788.197658 1.457761 -1.417492 -1.448618
    15 0.000002 0.001860 -0.000010 0.000000 0.000000 0.000000
    16 0.528514 3.998857 -4.788589 0.000000 0.000000 0.182531
    17 3.665400 -10.862284 -1.663095 1.217364 -1.528379 -1.379854
    18 1.640004 9.192285 -0.157619 1.570303 3.139547 1.529392
    19 -0.048483 -8.377639 -0.131479 -0.352785 0.269882 -0.304383
    20 -0.488518 -2.755602 -0.228260 -0.745364 0.051152 -0.424568
    21 0.039887 -1.530573 0.014229 -1.482399 -0.012128 0.032959
    22 0.028786 -1.196828 -0.132487 -1.279081 -0.014837 0.028427
    23 0.250027 -2.820665 -0.238396 -0.301873 -0.009560 -0.329487
    24 -0.049759 -1.598510 0.037977 -1.461227 0.002145 -0.039647
    25 -0.034142 -1.171750 0.045718 -1.169340 0.006568 -0.030800
    26 0.957766 -2.746780 -0.090302 -0.063820 -0.106549 -0.259741
    27 -0.033420 -1.397129 -0.026882 -0.847602 0.006496 -0.041683
    28 -0.022360 -0.961342 -0.004654 -0.871816 0.005705 -0.042461
    29 -1.180681 -2.507217 -0.193859 -0.663365 0.219045 -0.377412
    30 -0.024967 -1.127840 0.017597 -0.996553 0.004003 -0.042700
    31 -0.020057 -0.902687 0.025715 -0.826566 0.007371 -0.033293
    32 0.618667 -1.208996 0.197098 0.016679 -1.046837 -0.154372
    33 1.457800 -0.239762 0.075324 0.065624 -0.234694 -0.863199
    34 0.987486 -0.190791 0.047917 0.110027 -0.259613 -1.140153
    35 0.120153 -0.050270 -0.054489 0.287569 3.110905 1.561085
    36 -10.095287 3.581509 -0.821621 0.175782 -3.345473 -1.507934
    37 0.136008 -8.438699 -0.060148 -0.336658 -0.151469 -0.125256
    38 0.447953 -2.798986 -0.200443 -0.735873 0.010098 0.254020
    39 -0.032909 -1.499736 0.028378 -1.435653 0.023358 -0.027754
    40 -0.027022 -1.135516 -0.020210 -1.403578 0.024892 -0.027133
    41 -0.249534 -2.846964 -0.174213 -0.314880 0.133839 0.144563
    42 0.043235 -1.656596 0.068667 -1.454198 -0.022453 0.008066
    43 0.031729 -1.137392 0.051025 -1.500061 -0.016580 0.008779
    44 -0.963866 -2.785145 -0.085350 0.178507 0.162851 -0.182687
    45 0.028479 -1.403067 -0.017167 -0.866992 -0.021392 -0.032095
    46 0.021413 -0.961687 0.020046 0.204098 0.000551 0.009024
    47 1.164475 -2.543940 -0.170330 -0.641109 -0.235285 0.274225
    48 0.024032 -1.148574 -0.009538 -1.265292 0.022124 0.061853
    49 0.014898 -0.903521 -0.012035 -1.137822 0.013722 0.056028
    50 -0.586770 -1.264477 0.200161 -0.316722 -1.034155 -2.553877
    51 1.561899 0.035243 0.016848 -0.016099 -0.006259 0.794269
    52 1.114041 0.044518 -0.005766 -0.025854 -0.034738 0.943911
    53 -0.139399 -0.111698 0.014397 0.285382 -0.030687 1.580508
    54 -7.858511 4.635924 -0.442564 1.575915 -0.028920 -0.617591
  time 9
    0 4.640767 -22.281930 -4.316538 3.594798 -0.729395 1.078240
    1 3.096915 -0.000001 -3.559005 -3.141592 -1.570451 0.000000
    2 -3.157606 0.000000 -1.771385 0.000000 3.141592 0.000000
    3 1.347458 0.000000 -0.036606 0.000001 -3.141592 0.000000
    4 2.980681 -0.000001 -3.026972 0.000000 0.000000 0.000000
    5 -2.772562 0.000000 -3.715392 0.000000 -0.478942 0.000000
    6 -22.586627 1.046602 -4.664205 1.610835 -0.175362 -1.194579
    7 3.096915 -0.000002 -3.559005 -3.141592 -1.570451 0.000000
    8 -3.157606 0.000001 -1.771385 0.000000 0.000000 0.000000
    9 1.347458 0.000000 -0.036606 0.000001 -3.141592 0.000000
    10 2.980681 -0.000001 -3.026972 0.000000 0.000000 0.000000
    11 -2.772562 -0.000001 -3.715392 0.000000 -0.478942 0.000000
    12 6.997223 -21.728585 -1.527390 1.673234 0.178709 -0.217130
    13 6.997223 -21.728585 -1.527390 -1.154067 0.178709 -0.217130
    14 -4.740017 -882.283637 -788.197658 1.457761 -1.417492 -1.448618
    15 0.000002 0.001860 -0.000010 0.000000 0.000000 0.000000
    16 0.524607 4.010576 -4.788589 0.000000 0.000000 0.182587
    17 3.681025 -10.850565 -1.659189 1.181665 -1.529431 -1.344444
    18 1.647817 9.188379 -0.157619 1.570303 3.139643 1.528163
    19 -0.048483 -8.377639 -0.131479 -0.355410 0.272931 -0.306001
    20 -0.488518 -2.755602 -0.228260 -0.745364 0.051164 -0.424640
    21 0.039887 -1.530573 0.014229 -1.482249 -0.012128 0.032947
    22 0.028786 -1.196828 -0.132487 -1.279164 -0.014837 0.028427
    23 0.250027 -2.820665 -0.238396 -0.301900 -0.009525 -0.329558
    24 -0.049759 -1.598510 0.037977 -1.461125 0.002145 -0.039647
    25 -0.034142 -1.171750 0.045718 -1.169340 0.006568 -0.030800
    26 0.957766 -2.746780 -0.090302 -0.063995 -0.106513 -0.260238
    27 -0.033420 -1.397129 -0.026882 -0.848358 0.006484 -0.041719
    28 -0.022360 -0.961342 -0.004654 -0.872283 0.005693 -0.042473
    29 -1.180681 -2.507217 -0.193859 -0.663185 0.218998 -0.377412
    30 -0.024967 -1.127840 0.017597 -0.996421 0.004003 -0.042700
    31 -0.020057 -0.902687 0.025715 -0.826310 0.007371 -0.033281
    32 0.618667 -1.208996 0.197098 0.015984 -1.046995 -0.153580
    33 1.457800 -0.239762 0.075324 0.065648 -0.234730 -0.863359
    34 0.987486 -0.190791 0.047917 0.110039 -0.259613 -1.140190
    35 0.120153 -0.050270 -0.054489 0.287569 3.110905 1.561085
    36 -10.165602 3.554165 -0.680992 0.223152 -3.345842 -1.491006
    37 0.136008 -8.438699 -0.060148 -0.336658 -0.151469 -0.125256
    38 0.447953 -2.798986 -0.200443 -0.735873 0.010098 0.254020
    39 -0.032909 -1.499736 0.028378 -1.435653 0.023358 -0.027754
    40 -0.027022 -1.135516 -0.020210 -1.403578 0.024892 -0.027133
    41 -0.249534 -2.846964 -0.174213 -0.314880 0.133839 0.144563
    42 0.043235 -1.656596 0.068667 -1.454198 -0.022453 0.008066
    43 0.031729 -1.137392 0.051025 -1.500061 -0.016580 0.008779
    44 -0.963866 -2.785145 -0.085350 0.178507 0.162851 -0.182687
    45 0.028479 -1.403067 -0.017167 -0.866992 -0.021392 -0.032095
    46 0.021413 -0.961687 0.020046 0.204098 0.000551 0.009024
    47 1.164475 -2.543940 -0.170330 -0.641109 -0.235285 0.274225
    48 0.024032 -1.148574 -0.009538 -1.265292 0.022124 0.061853
    49 0.014898 -0.903521 -0.012035 -1.137822 0.013722 0.056028
    50 -0.586770 -1.264477 0.200161 -0.316722 -1.034155 -2.553877
    51 1.561899 0.035243 0.016848 -0.016099 -0.006259 0.794269
    52 1.114041 0.044518 -0.005766 -0.025854 -0.034738 0.943911
    53 -0.139399 -0.111698 0.014397 0.285382 -0.030687 1.580508
    54 -7.858511 4.635924 -0.442564 1.575915 -0.028920 -0.617591
  time 10
    0 4.589984 -22.274117 -4.308725 3.601558 -0.726983 1.072403
    1 3.096915 -0.000001 -3.559005 -3.141592 -1.570451 0.000000
    2 -3.157606 0.000000 -1.771385 0.000000 3.141592 0.000000
    3 1.347458 0.000000 -0.036606 0.000001 -3.141592 0.000000
    4 2.980681 -0.000001 -3.026972 0.000000 0.000000 0.000000
    5 -2.772562 0.000000 -3.715392 0.000000 -0.478942 0.000000
    6 -22.559282 0.933317 -3.910276 1.564187 -0.169687 -1.179278
    7 3.096915 -0.000002 -3.559005 -3.141592 -1.570451 0.000000
    8 -3.157606 0.000001 -1.771385 0.000000 0.000000 0.000000
    9 1.347458 0.000000 -0.036606 0.000001 -3.141592 0.000000
    10 2.980681 -0.000001 -3.026972 0.000000 0.000000 0.000000
    11 -2.772562 -0.000001 -3.715392 0.000000 -0.478942 0.000000
    12 6.962065 -21.724678 -1.531297 2.300649 0.184174 -0.218664
    13 6.962065 -21.724678 -1.531297 -0.840881 0.184174 -0.218664
    14 -4.740017 -882.283637 -788.197658 1.457761 -1.417492 -1.448618
    15 0.000002 0.001860 -0.000010 0.000000 0.000000 0.000000
    16 0.524607 4.010576 -4.788589 0.000000 0.000000 0.182587
    17 3.661494 -10.838845 -1.663095 1.073131 -1.527519 -1.239523
    18 1.651723 9.188379 -0.157619 1.570303 3.139643 1.527879
    19 -0.048483 -8.377639 -0.131479 -0.353518 0.274192 -0.306050
    20 -0.488518 -2.755602 -0.228260 -0.745402 0.051175 -0.424796
    21 0.039887 -1.530573 0.014229 -1.481899 -0.012140 0.032947
    22 0.028786 -1.196828 -0.132487 -1.279371 -0.014837 0.028439
    23 0.250027 -2.820665 -0.238396 -0.301926 -0.009429 -0.329714
    24 -0.049759 -1.598510 0.037977 -1.460817 0.002157 -0.039647
    25 -0.034142 -1.171750 0.045718 -1.169340 0.006568 -0.030800
    26 0.957766 -2.746780 -0.090302 -0.064421 -0.106441 -0.261481
    27 -0.033420 -1.397129 -0.026882 -0.850214 0.006460 -0.041815
    28 -0.022360 -0.961342 -0.004654 -0.873410 0.005681 -0.042533
    29 -1.180681 -2.507217 -0.193859 -0.662646 0.218878 -0.377400
    30 -0.024967 -1.127840 0.017597 -0.996113 0.004015 -0.042688
    31 -0.020057 -0.902687 0.025715 -0.825670 0.007371 -0.033245
    32 0.618667 -1.208996 0.197098 0.014258 -1.047375 -0.151630
    33 1.457800 -0.239762 0.075324 0.065720 -0.234802 -0.863732
    34 0.987486 -0.190791 0.047917 0.110075 -0.259637 -1.140340
    35 0.120153 -0.050270 -0.054489 0.287569 3.110905 1.561085
    36 -10.228104 3.526820 -0.540362 0.270617 -3.345381 -1.474173
    37 0.136008 -8.438699 -0.060148 -0.336658 -0.151469 -0.125256
    38 0.447953 -2.798986 -0.200443 -0.735873 0.010098 0.254020
    39 -0.032909 -1.499736 0.028378 -1.435653 0.023358 -0.027754
    40 -0.027022 -1.135516 -0.020210 -1.403578 0.024892 -0.027133
    41 -0.249534 -2.846964 -0.174213 -0.314880 0.133839 0.144563
    42 0.043235 -1.656596 0.068667 -1.454198 -0.022453 0.008066
    43 0.031729 -1.137392 0.051025 -1.500061 -0.016580 0.008779
    44 -0.963866 -2.785145 -0.085350 0.178507 0.162851 -0.182687
    45 0.028479 -1.403067 -0.017167 -0.866992 -0.021392 -0.032095
    46 0.021413 -0.961687 0.020046 0.204098 0.000551 0.009024
    47 1.164475 -2.543940 -0.170330 -0.641109 -0.235285 0.274225
    48 0.024032 -1.148574 -0.009538 -1.265292 0.022124 0.061853
    49 0.014898 -0.903521 -0.012035 -1.137822 0.013722 0.056028
    50 -0.586770 -1.264477 0.200161 -0.316722 -1.034155 -2.553877
    51 1.561899 0.035243 0.016848 -0.016099 -0.006259 0.794269
    52 1.114041 0.044518 -0.005766 -0.025854 -0.034738 0.943911
    53 -0.139399 -0.111698 0.014397 0.285382 -0.030687 1.580508
    54 -7.858511 4.635924 -0.442564 1.575915 -0.028920 -0.617591
  time 11
    0 4.422010 -22.281930 -4.351695 3.605747 -0.727725 1.065704
    1 3.096915 -0.000001 -3.559005 -3.141592 -1.570451 0.000000
    2 -3.157606 0.000000 -1.771385 0.000000 3.141592 0.000000
    3 1.347458 0.000000 -0.036606 0.000001 -3.141592 0.000000
    4 2.980681 -0.000001 -3.026972 0.000000 0.000000 0.000000
    5 -2.772562 0.000000 -3.715392 0.000000 -0.478942 0.000000
    6 -22.500687 0.827845 -3.156346 1.517538 -0.163314 -1.164263
    7 3.096915 -0.000002 -3.559005 -3.141592 -1.570451 0.000000
    8 -3.157606 0.000001 -1.771385 0.000000 0.000000 0.000000
    9 1.347458 0.000000 -0.036606 0.000001 -3.141592 0.000000
    10 2.980681 -0.000001 -3.026972 0.000000 0.000000 0.000000
    11 -2.772562 -0.000001 -3.715392 0.000000 -0.478942 0.000000
    12 6.801904 -21.748116 -1.582080 2.930554 0.187050 -0.222210
    13 6.801904 -21.748116 -1.582080 -0.525011 0.187050 -0.222210
    14 -4.740017 -882.283637 -788.197658 1.457761 -1.417492 -1.448618
    15 0.000002 0.001860 -0.000010 0.000000 0.000000 0.000000
    16 0.520701 4.014483 -4.788589 0.000000 0.000000 0.182642
    17 3.587273 -10.834939 -1.670908 0.979815 -1.521972 -1.154502
    18 1.632191 9.192285 -0.157619 1.570303 3.139547 1.530148
    19 -0.048483 -8.377639 -0.131479 -0.347883 0.271758 -0.304162
    20 -0.488518 -2.755602 -0.228260 -0.745439 0.051199 -0.425119
    21 0.039887 -1.530573 0.014229 -1.481198 -0.012140 0.032923
    22 0.028786 -1.196828 -0.132487 -1.279828 -0.014837 0.028451
    23 0.250027 -2.820665 -0.238396 -0.302032 -0.009249 -0.330026
    24 -0.049759 -1.598510 0.037977 -1.460254 0.002169 -0.039635
    25 -0.034142 -1.171750 0.045718 -1.169340 0.006568 -0.030800
    26 0.957766 -2.746780 -0.090302 -0.065298 -0.106285 -0.263995
    27 -0.033420 -1.397129 -0.026882 -0.854029 0.006400 -0.041995
    28 -0.022360 -0.961342 -0.004654 -0.875720 0.005645 -0.042641
    29 -1.180681 -2.507217 -0.193859 -0.661613 0.218638 -0.377364
    30 -0.024967 -1.127840 0.017597 -0.995498 0.004015 -0.042664
    31 -0.020057 -0.902687 0.025715 -0.824389 0.007383 -0.033185
    32 0.618667 -1.208996 0.197098 0.010770 -1.048103 -0.147672
    33 1.457800 -0.239762 0.075324 0.065864 -0.234958 -0.864477
    34 0.987486 -0.190791 0.047917 0.110135 -0.259673 -1.140603
    35 0.120153 -0.050270 -0.054489 0.287569 3.110905 1.561085
    36 -10.282793 3.503382 -0.395827 0.318082 -3.344181 -1.457341
    37 0.136008 -8.438699 -0.060148 -0.336658 -0.151469 -0.125256
    38 0.447953 -2.798986 -0.200443 -0.735873 0.010098 0.254020
    39 -0.032909 -1.499736 0.028378 -1.435653 0.023358 -0.027754
    40 -0.027022 -1.135516 -0.020210 -1.403578 0.024892 -0.027133
    41 -0.249534 -2.846964 -0.174213 -0.314880 0.133839 0.144563
    42 0.043235 -1.656596 0.068667 -1.454198 -0.022453 0.008066
    43 0.031729 -1.137392 0.051025 -1.500061 -0.016580 0.008779
    44 -0.963866 -2.785145 -0.085350 0.178507 0.162851 -0.182687
    45 0.028479 -1.403067 -0.017167 -0.866992 -0.021392 -0.032095
    46 0.021413 -0.961687 0.020046 0.204098 0.000551 0.009024
    47 1.164475 -2.543940 -0.170330 -0.641109 -0.235285 0.274225
    48 0.024032 -1.148574 -0.009538 -1.265292 0.022124 0.061853
    49 0.014898 -0.903521 -0.012035 -1.137822 0.013722 0.056028
    50 -0.586770 -1.264477 0.200161 -0.316722 -1.034155 -2.553877
    51 1.561899 0.035243 0.016848 -0.016099 -0.006259 0.794269
    52 1.114041 0.044518 -0.005766 -0.025854 -0.034738 0.943911
    53 -0.139399 -0.111698 0.014397 0.285382 -0.030687 1.580508
    54 -7.858511 4.635924 -0.442564 1.575915 -0.028920 -0.617591
  time 12
    0 4.300912 -22.278024 -4.371227 3.614507 -0.725963 1.059771
    1 3.096915 -0.000001 -3.559005 -3.141592 -1.570451 0.000000
    2 -3.157606 0.000000 -1.771385 0.000000 3.141592 0.000000
    3 1.347458 0.000000 -0.036606 0.000001 -3.141592 0.000000
    4 2.980681 -0.000001 -3.026972 0.000000 0.000000 0.000000
    5 -2.772562 0.000000 -3.715392 0.000000 -0.478942 0.000000
    6 -22.406934 0.741905 -2.402417 1.470985 -0.156243 -1.149536
    7 3.096915 -0.000002 -3.559005 -3.141592 -1.570451 0.000000
    8 -3.157606 0.000001 -1.771385 0.000000 0.000000 0.000000
    9 1.347458 0.000000 -0.036606 0.000001 -3.141592 0.000000
    10 2.980681 -0.000001 -3.026972 0.000000 0.000000 0.000000
    11 -2.772562 -0.000001 -3.715392 0.000000 -0.478942 0.000000
    12 6.700338 -21.752023 -1.613330 -2.724127 0.193761 -0.222306
    13 6.700338 -21.752023 -1.613330 -0.210770 0.193761 -0.222306
    14 -4.740017 -882.283637 -788.197658 1.457761 -1.417492 -1.448618
    15 0.000002 0.001860 -0.000010 0.000000 0.000000 0.000000
    16 0.516795 4.026202 -4.788589 0.000000 0.000000 0.182697
    17 3.520864 -10.827126 -1.674814 0.840463 -1.514609 -1.022485
    18 1.624379 9.196192 -0.157619 1.570303 3.139547 1.531094
    19 -0.048483 -8.377639 -0.127572 -0.339778 0.270615 -0.302054
    20 -0.488518 -2.755602 -0.228260 -0.745439 0.051211 -0.425359
    21 0.039887 -1.530573 0.014229 -1.480698 -0.012152 0.032911
    22 0.028786 -1.196828 -0.132487 -1.280159 -0.014837 0.028451
    23 0.250027 -2.820665 -0.238396 -0.302085 -0.009105 -0.330266
    24 -0.049759 -1.598510 0.037977 -1.459742 0.002169 -0.039623
    25 -0.034142 -1.171750 0.045718 -1.169340 0.006568 -0.030800
    26 0.957766 -2.746780 -0.090302 -0.066000 -0.106177 -0.265968
    27 -0.033420 -1.397129 -0.026882 -0.856985 0.006364 -0.042139
    28 -0.022360 -0.961342 -0.004654 -0.877507 0.005621 -0.042725
    29 -1.180681 -2.507217 -0.193859 -0.660804 0.218446 -0.377340
    30 -0.024967 -1.127840 0.017597 -0.995059 0.004027 -0.042640
    31 -0.020057 -0.902687 0.025715 -0.823365 0.007394 -0.033149
    32 0.618667 -1.208996 0.197098 0.008026 -1.048673 -0.144564
    33 1.457800 -0.239762 0.075324 0.065971 -0.235077 -0.865090
    34 0.987486 -0.190791 0.047917 0.110183 -0.259709 -1.140829
    35 0.120153 -0.050270 -0.054489 0.287569 3.110905 1.561085
    36 -10.333576 3.476037 -0.251291 0.365452 -3.342150 -1.440604
    37 0.136008 -8.438699 -0.060148 -0.336658 -0.151469 -0.125256
    38 0.447953 -2.798986 -0.200443 -0.735873 0.010098 0.254020
    39 -0.032909 -1.499736 0.028378 -1.435653 0.023358 -0.027754
    40 -0.027022 -1.135516 -0.020210 -1.403578 0.024892 -0.027133
    41 -0.249534 -2.846964 -0.174213 -0.314880 0.133839 0.144563
    42 0.043235 -1.656596 0.068667 -1.454198 -0.022453 0.008066
    43 0.031729 -1.137392 0.051025 -1.500061 -0.016580 0.008779
    44 -0.963866 -2.785145 -0.085350 0.178507 0.162851 -0.182687
    45 0.028479 -1.403067 -0.017167 -0.866992 -0.021392 -0.032095
    46 0.021413 -0.961687 0.020046 0.204098 0.000551 0.009024
    47 1.164475 -2.543940 -0.170330 -0.641109 -0.235285 0.274225
    48 0.024032 -1.148574 -0.009538 -1.265292 0.022124 0.061853
    49 0.014898 -0.903521 -0.012035 -1.137822 0.013722 0.056028
    50 -0.586770 -1.264477 0.200161 -0.316722 -1.034155 -2.553877
    51 1.561899 0.035243 0.016848 -0.016099 -0.006259 0.794269
    52 1.114041 0.044518 -0.005766 -0.025854 -0.034738 0.943911
    53 -0.139399 -0.111698 0.014397 0.285382 -0.030687 1.580508
    54 -7.858511 4.635924 -0.442564 1.575915 -0.028920 -0.617591
  time 13
    0 4.398572 -22.242866 -4.293100 3.634596 -0.715761 1.056422
    1 3.096915 -0.000001 -3.559005 -3.141592 -1.570451 0.000000
    2 -3.157606 0.000000 -1.771385 0.000000 3.141592 0.000000
    3 1.347458 0.000000 -0.036606 0.000001 -3.141592 0.000000
    4 2.980681 -0.000001 -3.026972 0.000000 0.000000 0.000000
    5 -2.772562 0.000000 -3.715392 0.000000 -0.478942 0.000000
    6 -22.293649 0.679403 -1.652394 1.424624 -0.148473 -1.135000
    7 3.096915 -0.000002 -3.559005 -3.141592 -1.570451 0.000000
    8 -3.157606 0.000001 -1.771385 0.000000 0.000000 0.000000
    9 1.347458 0.000000 -0.036606 0.000001 -3.141592 0.000000
    10 2.980681 -0.000001 -3.026972 0.000000 0.000000 0.000000
    11 -2.772562 -0.000001 -3.715392 0.000000 -0.478942 0.000000
    12 6.840968 -21.685615 -1.582080 -2.101215 0.211210 -0.213488
    13 6.840968 -21.685615 -1.582080 0.097818 0.211210 -0.213488
    14 -4.740017 -882.283637 -788.197658 1.457761 -1.417492 -1.448618
    15 0.000002 0.001860 -0.000010 0.000000 0.000000 0.000000
    16 0.497263 4.053546 -4.784683 0.000000 0.000000 0.182918
    17 3.524771 -10.803688 -1.670908 0.618419 -1.504856 -0.801150
    18 1.659536 9.188379 -0.157619 1.570303 3.139643 1.526934
    19 -0.048483 -8.381545 -0.127572 -0.330554 0.275804 -0.301318
    20 -0.488518 -2.755602 -0.228260 -0.745439 0.051211 -0.425311
    21 0.039887 -1.530573 0.014229 -1.480798 -0.012140 0.032911
    22 0.028786 -1.196828 -0.132487 -1.280076 -0.014837 0.028451
    23 0.250027 -2.820665 -0.238396 -0.302085 -0.009141 -0.330218
    24 -0.049759 -1.598510 0.037977 -1.459844 0.002169 -0.039623
    25 -0.034142 -1.171750 0.045718 -1.169340 0.006568 -0.030800
    26 0.957766 -2.746780 -0.090302 -0.065850 -0.106201 -0.265559
    27 -0.033420 -1.397129 -0.026882 -0.856366 0.006376 -0.042115
    28 -0.022360 -0.961342 -0.004654 -0.877122 0.005621 -0.042713
    29 -1.180681 -2.507217 -0.193859 -0.660984 0.218482 -0.377340
    30 -0.024967 -1.127840 0.017597 -0.995147 0.004027 -0.042640
    31 -0.020057 -0.902687 0.025715 -0.823589 0.007394 -0.033149
    32 0.618667 -1.208996 0.197098 0.008601 -1.048546 -0.145209
    33 1.457800 -0.239762 0.075324 0.065947 -0.235053 -0.864957
    34 0.987486 -0.190791 0.047917 0.110171 -0.259709 -1.140753
    35 0.120153 -0.050270 -0.054489 0.287569 3.110905 1.561085
    36 -10.376546 3.448693 -0.102849 0.412726 -3.339380 -1.423963
    37 0.136008 -8.438699 -0.060148 -0.336658 -0.151469 -0.125256
    38 0.447953 -2.798986 -0.200443 -0.735873 0.010098 0.254020
    39 -0.032909 -1.499736 0.028378 -1.435653 0.023358 -0.027754
    40 -0.027022 -1.135516 -0.020210 -1.403578 0.024892 -0.027133
    41 -0.249534 -2.846964 -0.174213 -0.314880 0.133839 0.144563
    42 0.043235 -1.656596 0.068667 -1.454198 -0.022453 0.008066
    43 0.031729 -1.137392 0.051025 -1.500061 -0.016580 0.008779
    44 -0.963866 -2.785145 -0.085350 0.178507 0.162851 -0.182687
    45 0.028479 -1.403067 -0.017167 -0.866992 -0.021392 -0.032095
    46 0.021413 -0.961687 0.020046 0.204098 0.000551 0.009024
    47 1.164475 -2.543940 -0.170330 -0.641109 -0.235285 0.274225
    48 0.024032 -1.148574 -0.009538 -1.265292 0.022124 0.061853
    49 0.014898 -0.903521 -0.012035 -1.137822 0.013722 0.056028
    50 -0.586770 -1.264477 0.200161 -0.316722 -1.034155 -2.553877
    51 1.561899 0.035243 0.016848 -0.016099 -0.006259 0.794269
    52 1.114041 0.044518 -0.005766 -0.025854 -0.034738 0.943911
    53 -0.139399 -0.111698 0.014397 0.285382 -0.030687 1.580508
    54 -7.858511 4.635924 -0.442564 1.575915 -0.028920 -0.617591
  time 14
    0 4.890774 -22.133488 -4.062624 3.672776 -0.691739 1.058049
    1 3.096915 -0.000001 -3.559005 -3.141592 -1.570451 0.000000
    2 -3.157606 0.000000 -1.771385 0.000000 -3.141496 0.000000
    3 1.347458 0.000000 -0.036606 0.000001 -3.141592 0.000000
    4 2.980681 -0.000001 -3.026972 0.000000 0.000000 0.000000
    5 -2.772562 0.000000 -3.715392 0.000000 -0.478942 0.000000
    6 -22.160833 0.652058 -0.906278 1.378455 -0.140092 -1.120655
    7 3.096915 -0.000002 -3.559005 -3.141592 -1.570451 0.000000
    8 -3.157606 0.000001 -1.771385 0.000000 0.000000 0.000000
    9 1.347458 0.000000 -0.036606 0.000001 -3.141592 0.000000
    10 2.980681 -0.000001 -3.026972 0.000000 0.000000 0.000000
    11 -2.772562 -0.000001 -3.715392 0.000000 -0.478942 0.000000
    12 7.415204 -21.494202 -1.449263 -1.487211 0.246300 -0.190486
    13 7.415204 -21.494202 -1.449263 0.397688 0.246300 -0.190486
    14 -4.740017 -882.283637 -788.197658 1.457761 -1.417492 -1.448618
    15 0.000002 0.001860 -0.000010 0.000000 0.000000 0.000000
    16 0.466012 4.112142 -4.780777 0.000000 0.000000 0.183360
    17 3.649774 -10.748999 -1.655282 0.323444 -1.488313 -0.494421
    18 1.772821 9.164941 -0.161526 1.570112 3.139835 1.513792
    19 -0.044576 -8.381545 -0.123666 -0.321464 0.292341 -0.303451
    20 -0.488518 -2.755602 -0.228260 -0.745402 0.051164 -0.424724
    21 0.039887 -1.530573 0.014229 -1.482049 -0.012128 0.032947
    22 0.028786 -1.196828 -0.132487 -1.279288 -0.014837 0.028427
    23 0.250027 -2.820665 -0.238396 -0.301926 -0.009465 -0.329642
    24 -0.049759 -1.598510 0.037977 -1.460971 0.002145 -0.039647
    25 -0.034142 -1.171750 0.045718 -1.169340 0.006568 -0.030800
    26 0.957766 -2.746780 -0.090302 -0.064246 -0.106477 -0.260954
    27 -0.033420 -1.397129 -0.026882 -0.849423 0.006472 -0.041779
    28 -0.022360 -0.961342 -0.004654 -0.872915 0.005693 -0.042509
    29 -1.180681 -2.507217 -0.193859 -0.662871 0.218926 -0.377400
    30 -0.024967 -1.127840 0.017597 -0.996245 0.004003 -0.042688
    31 -0.020057 -0.902687 0.025715 -0.825926 0.007371 -0.033257
    32 0.618667 -1.208996 0.197098 0.015013 -1.047217 -0.152481
    33 1.457800 -0.239762 0.075324 0.065696 -0.234766 -0.863572
    34 0.987486 -0.190791 0.047917 0.110063 -0.259625 -1.140265
    35 0.120153 -0.050270 -0.054489 0.287569 3.110905 1.561085
    36 -10.411703 3.421348 0.049500 0.459906 -3.335779 -1.407513
    37 0.136008 -8.438699 -0.060148 -0.336658 -0.151469 -0.125256
    38 0.447953 -2.798986 -0.200443 -0.735873 0.010098 0.254020
    39 -0.032909 -1.499736 0.028378 -1.435653 0.023358 -0.027754
    40 -0.027022 -1.135516 -0.020210 -1.403578 0.024892 -0.027133
    41 -0.249534 -2.846964 -0.174213 -0.314880 0.133839 0.144563
    42 0.043235 -1.656596 0.068667 -1.454198 -0.022453 0.008066
    43 0.031729 -1.137392 0.051025 -1.500061 -0.016580 0.008779
    44 -0.963866 -2.785145 -0.085350 0.178507 0.162851 -0.182687
    45 0.028479 -1.403067 -0.017167 -0.866992 -0.021392 -0.032095
    46 0.021413 -0.961687 0.020046 0.204098 0.000551 0.009024
    47 1.164475 -2.543940 -0.170330 -0.641109 -0.235285 0.274225
    48 0.024032 -1.148574 -0.009538 -1.265292 0.022124 0.061853
    49 0.014898 -0.903521 -0.012035 -1.137822 0.013722 0.056028
    50 -0.586770 -1.264477 0.200161 -0.316722 -1.034155 -2.553877
    51 1.561899 0.035243 0.016848 -0.016099 -0.006259 0.794269
    52 1.114041 0.044518 -0.005766 -0.025854 -0.034738 0.943911
    53 -0.139399 -0.111698 0.014397 0.285382 -0.030687 1.580508
    54 -7.858511 4.635924 -0.442564 1.575915 -0.028920 -0.617591
  time 15
    0 5.957213 -21.879574 -3.640736 3.734473 -0.648148 1.068671
    1 3.096915 -0.000001 -3.559005 -3.141592 -1.570451 0.000000
    2 -3.157606 0.000000 -1.771385 0.000000 3.141592 0.000000
    3 1.347458 0.000000 -0.036606 0.000001 -3.141592 0.000000
    4 2.980681 -0.000001 -3.026972 0.000000 0.000000 0.000000
    5 -2.772562 0.000000 -3.715392 0.000000 -0.478942 0.000000
    6 -22.016297 0.663778 -0.167974 1.332477 -0.131100 -1.106502
    7 3.096915 -0.000002 -3.559005 -3.141592 -1.570451 0.000000
    8 -3.157606 0.000001 -1.771385 0.000000 0.000000 0.000000
    9 1.347458 0.000000 -0.036606 0.000001 -3.141592 0.000000
    10 2.980681 -0.000001 -3.026972 0.000000 0.000000 0.000000
    11 -2.772562 -0.000001 -3.715392 0.000000 -0.478942 0.000000
    12 8.606647 -21.076221 -1.199255 -0.884989 0.306317 -0.148603
    13 8.606647 -21.076221 -1.199255 0.685678 0.306317 -0.148603
    14 -4.740017 -882.283637 -788.197658 1.457761 -1.417492 -1.448618
    15 0.000002 0.001860 -0.000010 0.000000 0.000000 0.000000
    16 0.411323 4.201988 -4.776870 0.000000 0.000000 0.184024
    17 3.962284 -10.643527 -1.620125 0.025981 -1.457809 -0.166389
    18 1.987671 9.114158 -0.165432 1.569728 3.140218 1.487886
    19 -0.040670 -8.385452 -0.119759 -0.313957 0.325296 -0.309972
    20 -0.488518 -2.755602 -0.228260 -0.745251 0.051068 -0.423382
    21 0.039887 -1.530573 0.014229 -1.485001 -0.012104 0.033019
    22 0.028786 -1.196828 -0.132487 -1.277422 -0.014849 0.028380
    23 0.250027 -2.820665 -0.238396 -0.301529 -0.010232 -0.328312
    24 -0.049759 -1.598510 0.037977 -1.463482 0.002109 -0.039707
    25 -0.034142 -1.171750 0.045718 -1.169340 0.006568 -0.030800
    26 0.957766 -2.746780 -0.090302 -0.060511 -0.107136 -0.250327
    27 -0.033420 -1.397129 -0.026882 -0.833373 0.006687 -0.041000
    28 -0.022360 -0.961342 -0.004654 -0.863237 0.005836 -0.042042
    29 -1.180681 -2.507217 -0.193859 -0.667273 0.219944 -0.377532
    30 -0.024967 -1.127840 0.017597 -0.998794 0.003967 -0.042796
    31 -0.020057 -0.902687 0.025715 -0.831369 0.007335 -0.033509
    32 0.614761 -1.208996 0.197098 0.029646 -1.044020 -0.169091
    33 1.457800 -0.239762 0.075324 0.065096 -0.234119 -0.860323
    34 0.987486 -0.190791 0.047917 0.109811 -0.259457 -1.139139
    35 0.120153 -0.050270 -0.054489 0.287569 3.110905 1.561085
    36 -10.439048 3.394003 0.201848 0.507085 -3.331440 -1.391254
    37 0.136008 -8.438699 -0.060148 -0.336658 -0.151469 -0.125256
    38 0.447953 -2.798986 -0.200443 -0.735873 0.010098 0.254020
    39 -0.032909 -1.499736 0.028378 -1.435653 0.023358 -0.027754
    40 -0.027022 -1.135516 -0.020210 -1.403578 0.024892 -0.027133
    41 -0.249534 -2.846964 -0.174213 -0.314880 0.133839 0.144563
    42 0.043235 -1.656596 0.068667 -1.454198 -0.022453 0.008066
    43 0.031729 -1.137392 0.051025 -1.500061 -0.016580 0.008779
    44 -0.963866 -2.785145 -0.085350 0.178507 0.162851 -0.182687
    45 0.028479 -1.403067 -0.017167 -0.866992 -0.021392 -0.032095
    46 0.021413 -0.961687 0.020046 0.204098 0.000551 0.009024
    47 1.164475 -2.543940 -0.170330 -0.641109 -0.235285 0.274225
    48 0.024032 -1.148574 -0.009538 -1.265292 0.022124 0.061853
    49 0.014898 -0.903521 -0.012035 -1.137822 0.013722 0.056028
    50 -0.586770 -1.264477 0.200161 -0.316722 -1.034155 -2.553877
    51 1.561899 0.035243 0.016848 -0.016099 -0.006259 0.794269
    52 1.114041 0.044518 -0.005766 -0.025854 -0.034738 0.943911
    53 -0.139399 -0.111698 0.014397 0.285382 -0.030687 1.580508
    54 -7.858511 4.635924 -0.442564 1.575915 -0.028920 -0.617591
  time 16
    0 10.008118 -21.320963 -2.648518 3.936892 -0.505967 1.113072
    1 3.096915 -0.000001 -3.559005 -3.141592 -1.570451 0.000000
    2 -3.157606 0.000000 -1.771385 0.000000 -2.513216 0.000000
    3 1.347458 0.000000 -0.036606 0.000001 -3.141592 0.000000
    4 2.980681 -0.000001 -3.026972 0.000000 0.000000 0.000000
    5 -2.772562 0.000000 -3.715392 0.000000 -0.478942 0.000000
    6 -21.836604 0.390332 -0.187506 1.332477 -0.131100 -1.108988
    7 3.096915 -0.000002 -3.559005 -3.141592 -1.570451 0.000000
    8 -3.157606 0.000001 -1.771385 0.000000 0.000000 0.000000
    9 1.347458 0.000000 -0.036606 0.000001 -3.141592 0.000000
    10 2.980681 -0.000001 -3.026972 0.000000 0.000000 0.000000
    11 -2.772562 -0.000001 -3.715392 0.000000 -0.478942 0.000000
    12 12.946623 -19.982438 -0.867214 -0.327979 0.517527 -0.021997
    13 12.946623 -19.982438 -0.867214 0.928544 0.517527 -0.021997
    14 -4.740017 -882.283637 -788.197658 1.457761 -1.417492 -1.448618
    15 0.000002 0.001860 -0.000010 0.000000 0.000000 0.000000
    16 0.598828 3.877760 -4.796402 0.000000 0.000000 0.181592
    17 5.048255 -10.233358 -1.534185 5.963849 -1.364481 0.298704
    18 2.675192 8.914933 -0.177151 1.568674 3.141657 1.405253
    19 -0.009419 -8.389358 -0.104134 -0.316003 0.467732 -0.347087
    20 -0.488518 -2.755602 -0.228260 -0.744838 0.050672 -0.418468
    21 0.039887 -1.530573 0.014229 -1.495658 -0.012009 0.033282
    22 0.028786 -1.192922 -0.132487 -1.270578 -0.014873 0.028200
    23 0.250027 -2.820665 -0.238396 -0.300177 -0.013048 -0.323434
    24 -0.049759 -1.598510 0.037977 -1.472755 0.001930 -0.039911
    25 -0.034142 -1.171750 0.045718 -1.169340 0.006568 -0.030800
    26 0.957766 -2.746780 -0.090302 -0.047000 -0.109868 -0.211502
    27 -0.033420 -1.393223 -0.022976 -0.774774 0.007371 -0.038112
    28 -0.022360 -0.957436 -0.000748 -0.827769 0.006328 -0.040316
    29 -1.180681 -2.507217 -0.193859 -0.683356 0.223683 -0.378071
    30 -0.024967 -1.127840 0.017597 -1.008155 0.003799 -0.043191
    31 -0.020057 -0.906594 0.025715 -0.851219 0.007167 -0.034396
    32 0.614761 -1.208996 0.193192 0.081575 -1.031296 -0.228288
    33 1.461706 -0.235855 0.075324 0.062939 -0.231734 -0.848501
    34 0.987486 -0.190791 0.047917 0.108876 -0.258822 -1.134970
    35 0.120153 -0.050270 -0.054489 0.287569 3.110905 1.561085
    36 -10.439048 3.394003 0.201848 0.507085 -3.331440 -1.391254
    37 0.136008 -8.438699 -0.060148 -0.336658 -0.151469 -0.125256
    38 0.447953 -2.798986 -0.200443 -0.735873 0.010098 0.254020
    39 -0.032909 -1.499736 0.028378 -1.435653 0.023358 -0.027754
    40 -0.027022 -1.135516 -0.020210 -1.403578 0.024892 -0.027133
    41 -0.249534 -2.846964 -0.174213 -0.314880 0.133839 0.144563
    42 0.043235 -1.656596 0.068667 -1.454198 -0.022453 0.008066
    43 0.031729 -1.137392 0.051025 -1.500061 -0.016580 0.008779
    44 -0.963866 -2.785145 -0.085350 0.178507 0.162851 -0.182687
    45 0.028479 -1.403067 -0.017167 -0.866992 -0.021392 -0.032095
    46 0.021413 -0.961687 0.020046 0.204098 0.000551 0.009024
    47 1.164475 -2.543940 -0.170330 -0.641109 -0.235285 0.274225
    48 0.024032 -1.148574 -0.009538 -1.265292 0.022124 0.061853
    49 0.014898 -0.903521 -0.012035 -1.137822 0.013722 0.056028
    50 -0.586770 -1.264477 0.200161 -0.316722 -1.034155 -2.553877
    51 1.561899 0.035243 0.016848 -0.016099 -0.006259 0.794269
    52 1.114041 0.044518 -0.005766 -0.025854 -0.034738 0.943911
    53 -0.139399 -0.111698 0.014397 0.285382 -0.030687 1.580508
    54 -7.858511 4.635924 -0.442564 1.575915 -0.028920 -0.617591
  time 17
    0 16.191900 -18.578692 -1.640675 4.153117 -0.299883 1.277183
    1 3.096915 -0.000001 -3.559005 -3.141592 -1.570451 0.000000
    2 -3.157606 0.000000 -1.771385 0.000000 -1.884936 0.000000
    3 1.347458 0.000000 -0.036606 0.000001 -3.141592 0.000000
    4 2.980681 -0.000001 -3.026972 0.000000 0.000000 0.000000
    5 -2.772562 0.000000 -3.715392 0.000000 -0.478942 0.000000
    6 -21.668630 0.136418 -0.207038 1.332477 -0.131100 -1.111283
    7 3.096915 -0.000002 -3.559005 -3.141592 -1.570451 0.000000
    8 -3.157606 0.000001 -1.771385 0.000000 0.000000 0.000000
    9 1.347458 0.000000 -0.036606 0.000001 -3.141592 0.000000
    10 2.980681 -0.000001 -3.026972 0.000000 0.000000 0.000000
    11 -2.772562 -0.000001 -3.715392 0.000000 -0.478942 0.000000
    12 19.028840 -16.365140 -0.832057 0.173666 0.785590 0.150135
    13 19.028840 -16.365140 -0.832057 1.116131 0.785590 0.150135
    14 -4.740017 -882.283637 -788.197658 1.457761 -1.417492 -1.448618
    15 0.000002 0.001860 -0.000010 0.000000 0.000000 0.000000
    16 0.778521 3.569156 -4.815934 0.000000 0.000000 0.179270
    17 6.720181 -9.112230 -1.499027 5.845649 -1.200583 0.639910
    18 3.839290 8.434450 -0.204496 1.567140 -3.138687 1.259273
    19 0.025738 -8.397171 -0.092415 -0.318203 0.615826 -0.385870
    20 -0.488518 -2.755602 -0.228260 -0.744086 0.050025 -0.410211
    21 0.039887 -1.530573 0.014229 -1.513620 -0.011829 0.033738
    22 0.028786 -1.192922 -0.132487 -1.259129 -0.014921 0.027900
    23 0.250027 -2.820665 -0.238396 -0.297951 -0.017770 -0.315273
    24 -0.049759 -1.598510 0.037977 -1.488331 0.001630 -0.040258
    25 -0.034142 -1.171750 0.045718 -1.169340 0.006568 -0.030800
    26 0.957766 -2.746780 -0.090302 -0.024565 -0.115633 -0.146467
    27 -0.033420 -1.393223 -0.022976 -0.676478 0.008126 -0.033210
    28 -0.022360 -0.957436 -0.000748 -0.768324 0.007011 -0.037392
    29 -1.180681 -2.507217 -0.193859 -0.710400 0.229915 -0.379102
    30 -0.024967 -1.127840 0.017597 -1.023844 0.003511 -0.043851
    31 -0.020057 -0.906594 0.029622 -0.884484 0.006855 -0.035882
    32 0.614761 -1.205090 0.193192 0.162615 -1.006703 -0.321570
    33 1.465612 -0.231949 0.075324 0.059392 -0.227683 -0.828717
    34 0.991393 -0.190791 0.047917 0.107330 -0.257755 -1.128023
    35 0.120153 -0.050270 -0.054489 0.287569 3.110905 1.561085
    36 -10.439048 3.394003 0.201848 0.507085 -3.331440 -1.391254
    37 0.136008 -8.438699 -0.060148 -0.336658 -0.151469 -0.125256
    38 0.447953 -2.798986 -0.200443 -0.735873 0.010098 0.254020
    39 -0.032909 -1.499736 0.028378 -1.435653 0.023358 -0.027754
    40 -0.027022 -1.135516 -0.020210 -1.403578 0.024892 -0.027133
    41 -0.249534 -2.846964 -0.174213 -0.314880 0.133839 0.144563
    42 0.043235 -1.656596 0.068667 -1.454198 -0.022453 0.008066
    43 0.031729 -1.137392 0.051025 -1.500061 -0.016580 0.008779
    44 -0.963866 -2.785145 -0.085350 0.178507 0.162851 -0.182687
    45 0.028479 -1.403067 -0.017167 -0.866992 -0.021392 -0.032095
    46 0.021413 -0.961687 0.020046 0.204098 0.000551 0.009024
    47 1.164475 -2.543940 -0.170330 -0.641109 -0.235285 0.274225
    48 0.024032 -1.148574 -0.009538 -1.265292 0.022124 0.061853
    49 0.014898 -0.903521 -0.012035 -1.137822 0.013722 0.056028
    50 -0.586770 -1.264477 0.200161 -0.316722 -1.034155 -2.553877
    51 1.561899 0.035243 0.016848 -0.016099 -0.006259 0.794269
    52 1.114041 0.044518 -0.005766 -0.025854 -0.034738 0.943911
    53 -0.139399 -0.111698 0.014397 0.285382 -0.030687 1.580508
    54 -7.858511 4.635924 -0.442564 1.575915 -0.028920 -0.617591
  time 18
    0 21.699881 -13.437910 -1.253945 4.264990 -0.154827 1.553637
    1 3.096915 -0.000001 -3.559005 -3.141592 -1.570451 0.000000
    2 -3.157606 0.000000 -1.771385 0.000000 -1.256560 0.000000
    3 1.347458 0.000000 -0.036606 0.000001 -3.141592 0.000000
    4 2.980681 -0.000001 -3.026972 0.000000 0.000000 0.000000
    5 -2.772562 0.000000 -3.715392 0.000000 -0.478942 0.000000
    6 -21.492843 -0.129215 -0.230476 1.332477 -0.131100 -1.113578
    7 3.096915 -0.000002 -3.559005 -3.141592 -1.570451 0.000000
    8 -3.157606 0.000001 -1.771385 0.000000 0.000000 0.000000
    9 1.347458 0.000000 -0.036606 0.000001 -3.141592 0.000000
    10 2.980681 -0.000001 -3.026972 0.000000 0.000000 0.000000
    11 -2.772562 -0.000001 -3.715392 0.000000 -0.478942 0.000000
    12 23.798517 -10.407927 -1.109409 0.662761 0.943110 0.345556
    13 23.798517 -10.407927 -1.109409 1.291071 0.943110 0.345556
    14 -4.740017 -882.283637 -788.197658 1.457761 -1.417492 -1.448618
    15 0.000002 0.001860 -0.000010 0.000000 0.000000 0.000000
    16 0.958214 3.252741 -4.839372 0.000000 0.000000 0.176894
    17 8.071784 -7.233267 -1.635750 5.868523 -1.029991 0.904036
    18 5.136205 7.625831 -0.235747 1.565798 -3.135140 1.082188
    19 0.029645 -8.404984 -0.088509 -0.292691 0.637053 -0.378270
    20 -0.488518 -2.755602 -0.228260 -0.743297 0.049306 -0.401066
    21 0.039887 -1.534479 0.014229 -1.533483 -0.011613 0.034229
    22 0.028786 -1.189016 -0.132487 -1.246395 -0.014957 0.027565
    23 0.250027 -2.820665 -0.238396 -0.295514 -0.023031 -0.306236
    24 -0.049759 -1.598510 0.037977 -1.505546 0.001294 -0.040642
    25 -0.034142 -1.171750 0.045718 -1.169340 0.006568 -0.030800
    26 0.957766 -2.746780 -0.090302 -0.000201 -0.123699 -0.074415
    27 -0.033420 -1.393223 -0.019070 -0.567424 0.008413 -0.027709
    28 -0.022360 -0.957436 -0.000748 -0.702364 0.007562 -0.034108
    29 -1.180681 -2.507217 -0.193859 -0.740409 0.236795 -0.380444
    30 -0.024967 -1.127840 0.017597 -1.041291 0.003176 -0.044570
    31 -0.020057 -0.906594 0.029622 -0.921399 0.006460 -0.037512
    32 0.610855 -1.205090 0.189285 0.243595 -0.975083 -0.416231
    33 1.469519 -0.228043 0.071417 0.055545 -0.223105 -0.806802
    34 0.991393 -0.190791 0.047917 0.105629 -0.256557 -1.120288
    35 0.120153 -0.050270 -0.054489 0.287569 3.110905 1.561085
    36 -10.439048 3.394003 0.201848 0.507085 -3.331440 -1.391254
    37 0.136008 -8.438699 -0.060148 -0.336658 -0.151469 -0.125256
    38 0.447953 -2.798986 -0.200443 -0.735873 0.010098 0.254020
    39 -0.032909 -1.499736 0.028378 -1.435653 0.023358 -0.027754
    40 -0.027022 -1.135516 -0.020210 -1.403578 0.024892 -0.027133
    41 -0.249534 -2.846964 -0.174213 -0.314880 0.133839 0.144563
    42 0.043235 -1.656596 0.068667 -1.454198 -0.022453 0.008066
    43 0.031729 -1.137392 0.051025 -1.500061 -0.016580 0.008779
    44 -0.963866 -2.785145 -0.085350 0.178507 0.162851 -0.182687
    45 0.028479 -1.403067 -0.017167 -0.866992 -0.021392 -0.032095
    46 0.021413 -0.961687 0.020046 0.204098 0.000551 0.009024
    47 1.164475 -2.543940 -0.170330 -0.641109 -0.235285 0.274225
    48 0.024032 -1.148574 -0.009538 -1.265292 0.022124 0.061853
    49 0.014898 -0.903521 -0.012035 -1.137822 0.013722 0.056028
    50 -0.586770 -1.264477 0.200161 -0.316722 -1.034155 -2.553877
    51 1.561899 0.035243 0.016848 -0.016099 -0.006259 0.794269
    52 1.114041 0.044518 -0.005766 -0.025854 -0.034738 0.943911
    53 -0.139399 -0.111698 0.014397 0.285382 -0.030687 1.580508
    54 -7.858511 4.635924 -0.442564 1.575915 -0.028920 -0.617591
  time 19
    0 25.371868 -6.265816 -1.918027 1.217657 -3.055955 -1.238841
    1 3.096915 -0.000001 -3.559005 -3.141592 -1.570451 0.000000
    2 -3.157606 0.000000 -1.771385 0.000000 -0.628280 0.000000
    3 1.347458 0.000000 -0.036606 0.000001 -3.141592 0.000000
    4 2.980681 -0.000001 -3.026972 0.000000 0.000000 0.000000
    5 -2.772562 0.000000 -3.715392 0.000000 -0.478942 0.000000
    6 -21.297525 -0.422193 -0.253914 1.332477 -0.131100 -1.116256
    7 3.096915 -0.000002 -3.559005 -3.141592 -1.570451 0.000000
    8 -3.157606 0.000001 -1.771385 0.000000 0.000000 0.000000
    9 1.347458 0.000000 -0.036606 0.000001 -3.141592 0.000000
    10 2.980681 -0.000001 -3.026972 0.000000 0.000000 0.000000
    11 -2.772562 -0.000001 -3.715392 0.000000 -0.478942 0.000000
    12 26.267342 -2.696754 -2.175848 1.228871 1.054516 0.653591
    13 26.267342 -2.696754 -2.175848 1.543038 1.054516 0.653591
    14 -4.740017 -882.283637 -788.197658 1.457761 -1.417492 -1.448618
    15 0.000002 0.001860 -0.000010 0.000000 0.000000 0.000000
    16 1.161346 2.901167 -4.862810 0.000000 0.000000 0.174296
    17 8.591331 -4.869913 -1.963885 5.949206 -0.897648 1.177131
    18 6.386243 6.473452 -0.270904 1.565127 -3.130922 0.884776
    19 0.021832 -8.408890 -0.088509 -0.256584 0.617467 -0.355422
    20 -0.488518 -2.755602 -0.228260 -0.742433 0.048503 -0.391083
    21 0.039887 -1.534479 0.014229 -1.555198 -0.011373 0.034756
    22 0.028786 -1.189016 -0.132487 -1.232499 -0.015005 0.027193
    23 0.250027 -2.820665 -0.238396 -0.292890 -0.028796 -0.296385
    24 -0.049759 -1.598510 0.034071 -1.524400 0.000923 -0.041049
    25 -0.034142 -1.171750 0.045718 -1.169340 0.006568 -0.030800
    26 0.957766 -2.746780 -0.090302 0.025693 -0.134461 0.004025
    27 -0.033420 -1.397129 -0.019070 -0.448472 0.008030 -0.021717
    28 -0.022360 -0.957436 0.003159 -0.630382 0.007922 -0.030489
    29 -1.180681 -2.507217 -0.193859 -0.773249 0.244249 -0.382158
    30 -0.024967 -1.127840 0.017597 -1.060277 0.002792 -0.045349
    31 -0.020057 -0.906594 0.029622 -0.961676 0.005944 -0.039285
    32 0.606948 -1.201183 0.185379 0.321519 -0.936215 -0.509264
    33 1.473425 -0.220230 0.071417 0.051482 -0.218011 -0.782944
    34 0.991393 -0.190791 0.047917 0.103771 -0.255238 -1.111876
    35 0.120153 -0.050270 -0.054489 0.287569 3.110905 1.561085
    36 -10.439048 3.394003 0.201848 0.507085 -3.331440 -1.391254
    37 0.136008 -8.438699 -0.060148 -0.336658 -0.151469 -0.125256
    38 0.447953 -2.798986 -0.200443 -0.735873 0.010098 0.254020
    39 -0.032909 -1.499736 0.028378 -1.435653 0.023358 -0.027754
    40 -0.027022 -1.135516 -0.020210 -1.403578 0.024892 -0.027133
    41 -0.249534 -2.846964 -0.174213 -0.314880 0.133839 0.144563
    42 0.043235 -1.656596 0.068667 -1.454198 -0.022453 0.008066
    43 0.031729 -1.137392 0.051025 -1.500061 -0.016580 0.008779
    44 -0.963866 -2.785145 -0.085350 0.178507 0.162851 -0.182687
    45 0.028479 -1.403067 -0.017167 -0.866992 -0.021392 -0.032095
    46 0.021413 -0.961687 0.020046 0.204098 0.000551 0.009024
    47 1.164475 -2.543940 -0.170330 -0.641109 -0.235285 0.274225
    48 0.024032 -1.148574 -0.009538 -1.265292 0.022124 0.061853
    49 0.014898 -0.903521 -0.012035 -1.137822 0.013722 0.056028
    50 -0.586770 -1.264477 0.200161 -0.316722 -1.034155 -2.553877
    51 1.561899 0.035243 0.016848 -0.016099 -0.006259 0.794269
    52 1.114041 0.044518 -0.005766 -0.025854 -0.034738 0.943911
    53 -0.139399 -0.111698 0.014397 0.285382 -0.030687 1.580508
    54 -7.858511 4.635924 -0.442564 1.575915 -0.028920 -0.617591
  time 20
    0 26.078921 1.300821 -3.351665 1.292493 -3.044176 -0.870237
    1 3.096915 -0.000001 -3.559005 -3.141592 -1.570451 0.000000
    2 -3.157606 0.000000 -1.771385 0.000000 0.000000 0.000000
    3 1.347458 0.000000 -0.036606 0.000001 -3.141592 0.000000
    4 2.980681 -0.000001 -3.026972 0.000000 0.000000 0.000000
    5 -2.772562 0.000000 -3.715392 0.000000 -0.478942 0.000000
    6 -21.067049 -0.769860 -0.281259 1.332477 -0.131100 -1.119412
    7 3.096915 -0.000002 -3.559005 -3.141592 -1.570451 0.000000
    8 -3.157606 0.000001 -1.771385 0.000000 0.000000 0.000000
    9 1.347458 0.000000 -0.036606 0.000001 -3.141592 0.000000
    10 2.980681 -0.000001 -3.026972 0.000000 0.000000 0.000000
    11 -2.772562 -0.000001 -3.715392 0.000000 -0.478942 0.000000
    12 25.583727 4.936292 -3.718863 1.937323 1.120093 1.100020
    13 25.583727 4.936292 -3.718863 1.937372 1.120093 1.100020
    14 -4.740017 -882.283637 -788.197658 1.457761 -1.417492 -1.448618
    15 0.000002 0.001860 -0.000010 0.000000 0.000000 0.000000
    16 1.403540 2.483186 -4.890155 0.000000 0.000000 0.171145
    17 8.067878 -2.635470 -2.420931 6.046063 -0.838362 1.460129
    18 7.390180 5.094504 -0.306061 1.565223 -3.126703 0.687269
    19 0.014019 -8.412796 -0.084602 -0.221520 0.597266 -0.333776
    20 -0.488518 -2.755602 -0.228260 -0.741569 0.047688 -0.381112
    21 0.039887 -1.534479 0.014229 -1.576912 -0.011122 0.035284
    22 0.028786 -1.185109 -0.132487 -1.218645 -0.015041 0.026822
    23 0.250027 -2.820665 -0.238396 -0.290347 -0.034584 -0.286546
    24 -0.049759 -1.598510 0.034071 -1.543204 0.000539 -0.041457
    25 -0.034142 -1.171750 0.045718 -1.169340 0.006568 -0.030800
    26 0.957766 -2.746780 -0.090302 0.050684 -0.147200 0.082289
    27 -0.033420 -1.397129 -0.015163 -0.329486 0.006939 -0.015809
    28 -0.022360 -0.957436 0.003159 -0.558428 0.008018 -0.026857
    29 -1.180681 -2.507217 -0.193859 -0.806133 0.251644 -0.384136
    30 -0.024967 -1.127840 0.017597 -1.079262 0.002409 -0.046128
    31 -0.020057 -0.906594 0.029622 -1.001921 0.005369 -0.041023
    32 0.606948 -1.197277 0.185379 0.389364 -0.893516 -0.592401
    33 1.481238 -0.216323 0.067511 0.047551 -0.212834 -0.759113
    34 0.995299 -0.190791 0.047917 0.101937 -0.253896 -1.103464
    35 0.120153 -0.050270 -0.054489 0.287569 3.110905 1.561085
    36 -10.439048 3.394003 0.201848 0.507085 -3.331440 -1.391254
    37 0.136008 -8.438699 -0.060148 -0.336658 -0.151469 -0.125256
    38 0.447953 -2.798986 -0.200443 -0.735873 0.010098 0.254020
    39 -0.032909 -1.499736 0.028378 -1.435653 0.023358 -0.027754
    40 -0.027022 -1.135516 -0.020210 -1.403578 0.024892 -0.027133
    41 -0.249534 -2.846964 -0.174213 -0.314880 0.133839 0.144563
    42 0.043235 -1.656596 0.068667 -1.454198 -0.022453 0.008066
    43 0.031729 -1.137392 0.051025 -1.500061 -0.016580 0.008779
    44 -0.963866 -2.785145 -0.085350 0.178507 0.162851 -0.182687
    45 0.028479 -1.403067 -0.017167 -0.866992 -0.021392 -0.032095
    46 0.021413 -0.961687 0.020046 0.204098 0.000551 0.009024
    47 1.164475 -2.543940 -0.170330 -0.641109 -0.235285 0.274225
    48 0.024032 -1.148574 -0.009538 -1.265292 0.022124 0.061853
    49 0.014898 -0.903521 -0.012035 -1.137822 0.013722 0.056028
    50 -0.586770 -1.264477 0.200161 -0.316722 -1.034155 -2.553877
    51 1.561899 0.035243 0.016848 -0.016099 -0.006259 0.794269
    52 1.114041 0.044518 -0.005766 -0.025854 -0.034738 0.943911
    53 -0.139399 -0.111698 0.014397 0.285382 -0.030687 1.580508
    54 -7.858511 4.635924 -0.442564 1.575915 -0.028920 -0.617591
end
