// Created by Crowbar 0.58

$modelname "weapons/tfa_cso/c_bow.mdl"

$Include "csonline_gmod.qci"

$bodygroup "weapon"
{
	studio "v_bow"
}

$CDMaterials "models\weapons\tfa_cso\bow"

$attachment 0 "Bone25" 5.5 0 0

$definebone "root" "" 0.000000 1.629157 0.541027 0.000000 0.000000 0.000000 0.000000 0.000000 0.000000 -0.000000 0.000000 0.000000
$definebone "Bone04" "root" 7.416435 -2.750924 -8.671820 89.425284 -179.773518 -179.714218 0.000000 0.000000 0.000000 -0.000000 0.000000 0.000000
$definebone "Bone_Righthand" "Bone04" 0.096946 -8.450417 -0.009364 -7.731206 -0.576510 -5.838784 0.000000 0.000000 0.000000 0.000000 0.000000 0.000001
$definebone "Dummy01" "Bone_Righthand" -3.787506 -11.546004 -8.643300 5.857521 -89.415449 172.903195 0.000000 -0.000000 0.000000 -0.000001 0.000000 0.000001
$definebone "Bone25" "Dummy01" 0.000000 -0.000000 0.000000 -0.000001 0.000000 0.000001 0.000000 -0.000000 0.000000 -0.000001 0.000000 0.000001
$definebone "Bone03" "Bone25" 2.268322 4.124473 -0.062954 -0.000001 77.569032 0.000057 0.000000 0.000000 0.000000 -0.000001 0.000003 -0.000000
$definebone "Bone08" "Bone03" 3.295876 -0.000004 0.000000 -0.000001 28.050348 -0.000001 0.000000 0.000000 0.000000 -0.000001 -0.000003 -0.000001
$definebone "Bone47" "Bone25" 4.887197 7.610153 -0.062954 -0.000000 -31.932033 179.999966 0.000000 0.000000 0.000000 0.000000 0.000007 0.000001
$definebone "Dummy03" "Bone47" -8.677814 -0.055529 -0.003085 0.000001 -31.932026 -179.999966 0.000000 0.000000 0.000000 -0.000001 0.000000 0.000001
$definebone "Bone16" "Bone25" 2.244078 -6.395753 -0.062954 0.000001 -77.494036 0.000001 0.000002 0.000000 0.000000 0.000001 -0.000003 0.000001
$definebone "Bone20" "Bone16" 3.333881 0.000004 -0.000000 0.000001 -27.816408 0.000000 0.000000 0.000000 0.000000 0.000001 0.000002 0.000000
$definebone "Bone26" "Bone25" 4.887199 -9.910492 -0.062952 0.000001 -148.067875 -0.000000 0.000001 -0.000002 0.000000 0.000001 0.000007 -0.000000
$definebone "Dummy04" "Bone26" 8.666412 0.037216 0.003086 -0.000001 148.067875 0.000001 0.000000 0.000000 0.000000 -0.000001 0.000000 0.000001
$definebone "Bone02" "Bone25" -3.562309 14.696294 3.645365 -0.000001 0.000000 0.000001 0.000000 0.000000 0.000000 -0.000001 0.000000 0.000001
$definebone "Bone12" "Bone02" 16.927139 0.000008 -0.000000 -0.000001 0.000000 0.000001 0.000000 -0.000001 0.000000 -0.000001 0.000000 0.000001
$definebone "Bone42" "Bone25" 0.863905 0.359274 0.381193 0.000001 -179.999966 47.143711 0.000000 0.000000 0.000000 0.000000 -0.000000 -0.000005
$definebone "Bone34" "Bone25" 0.863905 0.348447 -0.360363 -0.000035 -179.999939 134.814590 0.000000 0.000000 0.000000 -0.000000 -0.000001 0.000007
$definebone "Bone50" "Bone25" 1.069544 -0.585928 0.017010 -0.000114 -179.999966 -89.999983 0.000000 0.000000 0.000000 -0.000000 0.000001 0.000001
$definebone "Dummy02" "Dummy01" -3.502300 0.052788 -0.063186 -0.000035 -180.000007 180.000007 0.000000 0.000000 -0.000000 -0.000001 -0.000000 -0.000001

$sequence "idle" {
	"v_bow_anims\idle"
	fps 30
	loop
}
$sequence "idle_empty" {
	"v_bow_anims\idle_empty"
	fps 30
	loop
}
$sequence "shoot1" {
	"v_bow_anims\shoot1"
	fps 30
}
$sequence "shoot1_empty" {
	"v_bow_anims\shoot1_empty"
	fps 30
}
$sequence "draw" {
	"v_bow_anims\draw"
	{ event 5004 14 "Bow.Draw" }
	{ event 5004 32 "Bow.ChargeStart1" }
	{ event 5004 44 "Bow.ChargeStart2" }
	{ event 5004 64 "Bow.ChargeFinish" }
	fps 30
	activity "ACT_VM_DRAW" 1
	snap
}
$sequence "draw_empty" {
	"v_bow_anims\draw_empty"
	fps 30
}
$sequence "charge_start1" {
	"v_bow_anims\charge_start1"
	{ event 5004 1 "weapons/bow_charge_start1.wav" }
	{ event 5004 13 "weapons/bow_charge_start2.wav" }
	fps 30
}
$sequence "charge_finish1" {
	"v_bow_anims\charge_finish1"
	{ event 5004 1 "weapons/bow_charge_finish1.wav" }
	fps 30
}
$sequence "charge_idle1" {
	"v_bow_anims\charge_idle1"
	fps 30
	loop
}
$sequence "charge_idle2" {
	"v_bow_anims\charge_idle2"
	fps 30
	loop
	activity "ACT_VM_IDLE" 1
	snap
}
$sequence "charge_shoot1" {
	"v_bow_anims\charge_shoot1"
	fps 30
}
$sequence "charge_shoot1_empty" {
	"v_bow_anims\charge_shoot1_empty"
	fps 30
}
$sequence "charge_shoot2" {
	"v_bow_anims\charge_shoot2"
	{ event 5004 42 "Bow.ChargeStart1" }
	{ event 5004 54 "Bow.ChargeStart2" }
	{ event 5004 74 "Bow.ChargeFinish" }
	fps 30
	activity "ACT_VM_PRIMARYATTACK" 1
	snap
}
$sequence "charge_shoot2_empty" {
	"v_bow_anims\charge_shoot2_empty"
	fps 30
}
