version 1
nodes
  0 "Bone01" -1
  1 "Bone_Lefthand" 0
  2 "Bone02" 1
  3 "Bone03" 2
  4 "Bone50" 3
  5 "Bone25" 3
  6 "Bone48" 3
  7 "Bone04" -1
  8 "Bone_Righthand" 7
  9 "Bone27" 8
  10 "Bone28" 9
  11 "Bone29" 10
  12 "Bone31" 8
  13 "Bone32" 12
  14 "Bone33" 13
  15 "Bone35" 8
  16 "Bone36" 15
  17 "Bone37" 16
  18 "Bone39" 8
  19 "Bone40" 18
  20 "Bone41" 19
  21 "Bone43" 8
  22 "Bone44" 21
  23 "Bone45" 22
  24 "Bone_Se_Hand-R" 8
  25 "Bone05" 1
  26 "Bone06" 25
  27 "Bone07" 26
  28 "Bone21" 1
  29 "Bone22" 28
  30 "Bone23" 29
  31 "Bone17" 1
  32 "Bone18" 31
  33 "Bone19" 32
  34 "Bone13" 1
  35 "Bone14" 34
  36 "Bone15" 35
  37 "Bone09" 1
  38 "Bone10" 37
  39 "Bone11" 38
  40 "Bone_Se_Hand-L" 1
end
skeleton
  time 0
    0 8.105274 4.638477 -7.215867 -0.774287 -1.331388 0.567282
    1 -0.071918 -8.498730 -0.104136 0.343031 -0.137497 -0.135187
    2 -0.376959 -3.448742 0.808508 -1.055308 1.425598 -1.076486
    3 0.000000 2.241500 1.549502 0.000000 0.000000 0.000000
    4 0.000000 -2.463371 2.261211 0.000000 0.000000 0.000000
    5 0.000000 -3.140381 0.680599 0.000000 0.000000 0.000000
    6 0.000000 -5.761764 0.714481 0.000000 0.000000 0.000000
    7 -2.097233 -6.852434 -11.727732 -0.614827 0.226308 0.889049
    8 0.096946 -8.450419 -0.009363 0.468731 -0.464819 0.273450
    9 -0.586769 -1.264477 0.200164 0.066863 -0.419239 -2.731787
    10 1.522835 0.058680 0.016850 -0.000011 0.000010 0.001675
    11 1.117947 0.048424 -0.005765 0.000000 0.000000 1.175345
    12 -0.963867 -2.785143 -0.085346 -0.710748 0.000001 -0.000001
    13 0.028478 -1.403067 0.006272 -0.692429 -0.000007 -0.000010
    14 0.021412 -0.957782 0.020047 -0.391772 -0.000003 -0.000008
    15 -0.249534 -2.846963 -0.174215 -0.810197 -0.000004 0.000010
    16 0.043235 -1.683940 0.096015 -0.926287 0.000001 0.000000
    17 0.031729 -1.160830 0.058836 -0.532362 0.000000 0.000000
    18 0.447951 -2.798983 -0.200441 -1.257854 0.046343 0.005340
    19 -0.032909 -1.480207 0.004935 -0.375265 0.000000 0.000000
    20 -0.027023 -1.076921 -0.020212 -0.453799 0.000000 0.000000
    21 1.164474 -2.543939 -0.170327 -0.541411 -0.008474 0.040009
    22 0.024033 -1.129040 0.017807 -1.602002 0.000000 -0.000001
    23 0.014896 -0.883992 -0.019846 -0.523607 0.000000 0.000000
    24 -0.095871 -0.159943 -0.103533 0.372506 0.352681 1.421822
    25 0.583509 -1.197274 0.185379 0.445269 -0.729595 -0.964282
    26 1.535926 0.010247 0.005009 -0.145284 -0.095326 -0.659564
    27 1.100770 0.004528 -0.010675 0.000000 0.000000 -0.764799
    28 0.957766 -2.746777 -0.090301 -0.124565 0.035585 0.131228
    29 -0.033419 -1.397128 -0.011255 -0.740022 0.000000 0.000000
    30 -0.022361 -0.957433 0.018783 -0.567778 0.000000 0.000000
    31 0.250029 -2.820664 -0.238396 -1.173776 0.124630 -0.038460
    32 -0.049759 -1.680544 0.100479 -1.895757 0.000000 0.000000
    33 -0.034141 -1.148311 0.084779 -0.962234 0.000000 0.000000
    34 -0.488517 -2.755600 -0.228261 -1.291960 -0.000003 -0.122179
    35 0.039889 -1.479791 0.029854 -1.660510 0.000000 0.000000
    36 0.028785 -1.075733 -0.023110 -1.186831 0.000000 0.000000
    37 -1.180679 -2.507216 -0.193861 -1.390534 0.102933 -0.174926
    38 -0.024967 -1.123934 0.017595 -1.403775 0.000000 0.000000
    39 -0.020058 -0.890965 0.010091 -1.542928 0.000000 0.000000
    40 0.120180 -0.051600 -0.063059 0.012085 -2.987703 1.512552
  time 1
    0 8.105274 4.638477 -7.215867 -0.774287 -1.331388 0.567282
    1 -0.071918 -8.498730 -0.104136 0.343031 -0.137497 -0.135187
    2 -0.376959 -3.448742 0.808508 -1.055308 1.425598 -1.076486
    3 0.000000 2.241500 1.549502 0.000000 0.000000 0.000000
    4 0.000000 -2.463371 2.261211 0.000000 0.000000 0.000000
    5 0.000000 -3.140381 0.680599 0.000000 0.000000 0.000000
    6 0.000000 -5.761764 0.714481 0.000000 0.000000 0.000000
    7 -2.097233 -6.852434 -11.727732 -0.614827 0.226308 0.889049
    8 0.096946 -8.450419 -0.009363 0.468731 -0.464819 0.273450
    9 -0.586769 -1.264477 0.200164 0.066863 -0.419239 -2.731787
    10 1.522835 0.058680 0.016850 -0.000011 0.000010 0.001675
    11 1.117947 0.048424 -0.005765 0.000000 0.000000 1.175345
    12 -0.963867 -2.785143 -0.085346 -0.710748 0.000001 -0.000001
    13 0.028478 -1.403067 0.006272 -0.692429 -0.000007 -0.000010
    14 0.021412 -0.957782 0.020047 -0.391772 -0.000003 -0.000008
    15 -0.249534 -2.846963 -0.174215 -0.810197 -0.000004 0.000010
    16 0.043235 -1.683940 0.096015 -0.926287 0.000001 0.000000
    17 0.031729 -1.160830 0.058836 -0.532362 0.000000 0.000000
    18 0.447951 -2.798983 -0.200441 -1.257854 0.046343 0.005340
    19 -0.032909 -1.480207 0.004935 -0.375265 0.000000 0.000000
    20 -0.027023 -1.076921 -0.020212 -0.453799 0.000000 0.000000
    21 1.164474 -2.543939 -0.170327 -0.541411 -0.008474 0.040009
    22 0.024033 -1.129040 0.017807 -1.602002 0.000000 -0.000001
    23 0.014896 -0.883992 -0.019846 -0.523607 0.000000 0.000000
    24 -0.095871 -0.159943 -0.103533 0.372506 0.352681 1.421822
    25 0.583509 -1.197274 0.185379 0.445269 -0.729595 -0.964282
    26 1.535926 0.010247 0.005009 -0.145284 -0.095326 -0.659564
    27 1.100770 0.004528 -0.010675 0.000000 0.000000 -0.764799
    28 0.957766 -2.746777 -0.090301 -0.124565 0.035585 0.131228
    29 -0.033419 -1.397128 -0.011255 -0.740022 0.000000 0.000000
    30 -0.022361 -0.957433 0.018783 -0.567778 0.000000 0.000000
    31 0.250029 -2.820664 -0.238396 -1.173776 0.124630 -0.038460
    32 -0.049759 -1.680544 0.100479 -1.895757 0.000000 0.000000
    33 -0.034141 -1.148311 0.084779 -0.962234 0.000000 0.000000
    34 -0.488517 -2.755600 -0.228261 -1.291960 -0.000003 -0.122179
    35 0.039889 -1.479791 0.029854 -1.660510 0.000000 0.000000
    36 0.028785 -1.075733 -0.023110 -1.186831 0.000000 0.000000
    37 -1.180679 -2.507216 -0.193861 -1.390534 0.102933 -0.174926
    38 -0.024967 -1.123934 0.017595 -1.403775 0.000000 0.000000
    39 -0.020058 -0.890965 0.010091 -1.542928 0.000000 0.000000
    40 0.120180 -0.051600 -0.063059 0.012085 -2.987703 1.512552
end
