// Created by Crowbar 0.34.0.0

$ModelName "weapons/tfa_cso/w_fragnade.mdl"

$BodyGroup "studio"
{
	studio "v_fgrenade2_NEXON_CSO_Flame_grenade_green"
}

$collisionmodel "v_fgrenade2_NEXON_CSO_Flame_grenade_green.smd"
{
	$mass 9
}

$CDMaterials "models\weapons\tfa_cso\fragnade"

$Sequence "idle" {
	"anims\idle.smd"
	fps 30
}