// Created by Crowbar 0.34.0.0

$ModelName "weapons/tfa_cso/w_mg3_v6.mdl"

$BodyGroup "studio"
{
	studio "v_mg3_ref_mg3"
}

$collisionmodel "v_mg3_ref_mg3.smd"
{
	$mass 9
}

$CDMaterials "models\weapons\tfa_cso\mg3_v6"

$attachment "0" "root" -0.30 -22.00 0.10 rotate -0 0 0

$Sequence "idle" {
	"anims\idle.smd"
	fps 30
}