version 1
nodes
  0 "argus5_root" -1
  1 "argus5_magazine" 0
  2 "argus5_lever" 0
  3 "argus5_scope_bone" 0
  4 "scope_R" 3
  5 "scope_L" 3
  6 "EF" 3
  7 "root" -1
  8 "Bone01" 7
  9 "Bone_L_Upper" 8
  10 "Bone_Lefthand" 8
  11 "Bone13" 10
  12 "Bone14" 11
  13 "Bone15" 12
  14 "Bone17" 10
  15 "Bone18" 14
  16 "Bone19" 15
  17 "Bone21" 10
  18 "Bone22" 17
  19 "Bone23" 18
  20 "Bone09" 10
  21 "Bone10" 20
  22 "Bone11" 21
  23 "Bone05" 10
  24 "Bone06" 23
  25 "Bone07" 24
  26 "Bone_Se_Hand-L" 10
  27 "Bone04" 7
  28 "Bone_Righthand" 27
  29 "Bone39" 28
  30 "Bone40" 29
  31 "Bone41" 30
  32 "Bone35" 28
  33 "Bone36" 32
  34 "Bone37" 33
  35 "Bone31" 28
  36 "Bone32" 35
  37 "Bone33" 36
  38 "Bone43" 28
  39 "Bone44" 38
  40 "Bone45" 39
  41 "Bone27" 28
  42 "Bone28" 41
  43 "Bone29" 42
  44 "Bone_Se_Hand-R" 28
  45 "Bone_R_Upper" 27
end
skeleton
  time 0
    0 4.615728 -5.026792 -4.454035 -1.564061 -3.089489 1.494542
    1 5.535558 -1.455844 -0.000001 0.000000 0.000000 -1.364276
    2 6.967555 -0.456137 0.775243 1.570767 -1.566682 1.570854
    3 0.594653 3.125398 -0.000001 0.000000 0.000000 0.000000
    4 0.793143 -0.098690 0.439540 -1.570775 1.559439 1.570817
    5 0.793143 -0.098690 -0.474551 1.570775 1.582159 1.570775
    6 -0.205318 -0.032883 -0.000050 -1.570797 0.000000 0.000000
    7 -0.002752 -2.016952 -0.003287 0.000000 0.000000 0.000000
    8 6.212353 6.231988 -8.885972 5.014792 -1.423864 1.240176
    9 8.073794 1.039693 -0.372470 1.568807 -3.117093 0.205671
    10 -0.110985 -8.416703 -0.162730 -0.174548 -0.005265 -0.135666
    11 -0.488518 -2.755602 -0.228260 -0.636514 -0.072434 -0.337320
    12 0.047700 -1.530573 0.014229 -1.481141 -0.125802 0.203368
    13 0.028786 -1.126514 -0.105143 -0.742955 -0.013303 0.014298
    14 0.250027 -2.820665 -0.238396 -0.418648 -0.123606 -0.157124
    15 -0.057572 -1.598510 0.030164 -1.580137 -0.056699 0.100860
    16 -0.034142 -1.160031 0.053531 -0.902405 0.008281 -0.023154
    17 0.957766 -2.746780 -0.090302 -0.138913 -0.159269 0.186081
    18 -0.033420 -1.393223 -0.022976 -0.746922 0.007634 -0.036734
    19 -0.022360 -0.961342 -0.004654 -0.883172 0.005525 -0.043001
    20 -1.180681 -2.507217 -0.193859 -0.314555 -0.083781 -0.213847
    21 -0.024967 -1.127840 0.017597 -1.431112 0.098765 0.048910
    22 -0.020057 -0.902687 0.025715 -0.805420 0.007514 -0.032334
    23 0.583510 -1.208996 0.197098 -0.016291 -1.086293 -0.690834
    24 1.481238 -0.200698 -0.049680 0.017733 0.168348 -0.720722
    25 0.987486 -0.214230 -0.006773 -0.101489 -0.020928 -1.227553
    26 0.120153 -0.050270 -0.054489 0.287569 3.110905 1.561085
    27 -0.747346 -5.922687 -13.388411 -1.738671 -5.435732 -1.241880
    28 0.124289 -8.426980 -0.052335 0.403024 0.007514 0.422708
    29 0.447953 -2.798986 -0.200443 -1.083108 -0.024750 0.321985
    30 -0.032909 -1.499736 0.028378 -1.405033 0.023334 -0.026879
    31 -0.027022 -1.115984 -0.028023 -0.967278 0.021752 -0.015208
    32 -0.249534 -2.846964 -0.174213 -0.927167 -0.009008 0.151859
    33 0.043235 -1.656596 0.072574 -1.315085 -0.020930 0.005777
    34 0.031729 -1.137392 0.051025 -1.375111 -0.015333 0.007761
    35 -0.963866 -2.785145 -0.085350 -0.990983 0.136737 -0.225412
    36 0.028479 -1.403067 -0.017167 -0.965960 -0.135474 0.127432
    37 0.021413 -0.942156 0.012233 -0.964436 -0.025335 -0.033641
    38 1.164475 -2.543940 -0.170330 -1.202160 -0.161088 0.388818
    39 0.024032 -1.140761 -0.005631 -0.986046 0.010594 0.051247
    40 0.014898 -0.903521 -0.015942 -1.028794 0.009660 0.051438
    41 -0.586770 -1.264477 0.200161 0.221924 -1.275430 -2.979233
    42 1.569711 0.035243 0.016848 -0.019647 -0.007097 0.922310
    43 1.114041 0.040611 -0.005766 -0.028766 -0.034359 1.035400
    44 -0.045646 -0.072634 0.010491 0.230636 0.395471 1.618939
    45 -8.014766 2.643676 -0.454283 1.571756 -0.033031 -0.401121
  time 1
    0 4.674323 -5.226017 -4.289967 -1.567128 -3.093131 1.510249
    1 5.535558 -1.455844 -0.000001 0.000000 0.000000 -1.364276
    2 6.967555 -0.456137 0.775243 1.570767 -1.566682 1.570854
    3 0.594653 3.125398 -0.000001 0.000000 0.000000 0.000000
    4 0.793143 -0.098690 0.439540 -1.570775 1.559439 1.570817
    5 0.793143 -0.098690 -0.474551 1.570775 1.582159 1.570775
    6 -0.205318 -0.032883 -0.000050 -1.570797 0.000000 0.000000
    7 -0.002752 -2.016952 -0.003287 0.000000 0.000000 0.000000
    8 6.208446 6.052295 -8.846908 4.995046 -1.409201 1.264293
    9 8.065982 1.180322 -0.368563 1.568616 -3.117475 0.222549
    10 -0.107078 -8.412796 -0.162730 -0.162831 -0.003634 -0.153938
    11 -0.488518 -2.755602 -0.228260 -0.636514 -0.072434 -0.337320
    12 0.047700 -1.530573 0.014229 -1.481141 -0.125802 0.203368
    13 0.028786 -1.126514 -0.105143 -0.742955 -0.013303 0.014298
    14 0.250027 -2.820665 -0.238396 -0.418648 -0.123606 -0.157124
    15 -0.057572 -1.598510 0.030164 -1.580137 -0.056699 0.100860
    16 -0.034142 -1.160031 0.053531 -0.902405 0.008281 -0.023154
    17 0.957766 -2.746780 -0.090302 -0.138913 -0.159269 0.186081
    18 -0.033420 -1.393223 -0.022976 -0.746922 0.007634 -0.036734
    19 -0.022360 -0.961342 -0.004654 -0.883172 0.005525 -0.043001
    20 -1.180681 -2.507217 -0.193859 -0.314555 -0.083781 -0.213847
    21 -0.024967 -1.127840 0.017597 -1.431112 0.098765 0.048910
    22 -0.020057 -0.902687 0.025715 -0.805420 0.007514 -0.032334
    23 0.583510 -1.208996 0.197098 -0.016291 -1.086293 -0.690834
    24 1.481238 -0.200698 -0.049680 0.017733 0.168348 -0.720722
    25 0.987486 -0.214230 -0.006773 -0.101489 -0.020928 -1.227553
    26 0.120153 -0.050270 -0.054489 0.287569 3.110905 1.561085
    27 -0.540308 -6.043785 -13.134497 -1.724109 -5.417242 -1.218158
    28 0.128195 -8.426980 -0.056241 0.428684 0.022879 0.416145
    29 0.447953 -2.798986 -0.200443 -1.083108 -0.024750 0.321985
    30 -0.032909 -1.499736 0.028378 -1.405033 0.023334 -0.026879
    31 -0.027022 -1.115984 -0.028023 -0.967278 0.021752 -0.015208
    32 -0.249534 -2.846964 -0.174213 -0.927167 -0.009008 0.151859
    33 0.043235 -1.656596 0.072574 -1.315085 -0.020930 0.005777
    34 0.031729 -1.137392 0.051025 -1.375111 -0.015333 0.007761
    35 -0.963866 -2.785145 -0.085350 -0.990983 0.136737 -0.225412
    36 0.028479 -1.403067 -0.017167 -0.965960 -0.135474 0.127432
    37 0.021413 -0.942156 0.012233 -0.964436 -0.025335 -0.033641
    38 1.164475 -2.543940 -0.170330 -1.202160 -0.161088 0.388818
    39 0.024032 -1.140761 -0.005631 -0.986046 0.010594 0.051247
    40 0.014898 -0.903521 -0.015942 -1.028794 0.009660 0.051438
    41 -0.586770 -1.264477 0.200161 0.221924 -1.275430 -2.979233
    42 1.569711 0.035243 0.016848 -0.019647 -0.007097 0.922310
    43 1.114041 0.040611 -0.005766 -0.028766 -0.034359 1.035400
    44 -0.045646 -0.072634 0.010491 0.230636 0.395471 1.618939
    45 -7.846792 3.237444 -0.442564 1.573266 -0.031725 -0.475778
  time 2
    0 4.799327 -5.522901 -4.028241 1.569025 -0.042445 -1.608559
    1 5.535558 -1.455844 -0.000001 0.000000 0.000000 -1.364276
    2 6.967555 -0.456137 0.775243 1.570767 -1.566682 1.570854
    3 0.594653 3.125398 -0.000001 0.000000 0.000000 0.000000
    4 0.793143 -0.098690 0.439540 -1.570775 1.559439 1.570817
    5 0.793143 -0.098690 -0.474551 1.570775 1.582159 1.570775
    6 -0.205318 -0.032883 -0.000050 -1.570797 0.000000 0.000000
    7 -0.002752 -2.016952 -0.003287 0.000000 0.000000 0.000000
    8 6.216259 5.778849 -8.776593 4.968050 -1.387394 1.300086
    9 8.054262 1.395172 -0.368563 1.568328 -3.117952 0.249463
    10 -0.107078 -8.412796 -0.162730 -0.148269 0.000317 -0.181822
    11 -0.488518 -2.755602 -0.228260 -0.636514 -0.072434 -0.337320
    12 0.047700 -1.530573 0.014229 -1.481141 -0.125802 0.203368
    13 0.028786 -1.126514 -0.105143 -0.742955 -0.013303 0.014298
    14 0.250027 -2.820665 -0.238396 -0.418648 -0.123606 -0.157124
    15 -0.057572 -1.598510 0.030164 -1.580137 -0.056699 0.100860
    16 -0.034142 -1.160031 0.053531 -0.902405 0.008281 -0.023154
    17 0.957766 -2.746780 -0.090302 -0.138913 -0.159269 0.186081
    18 -0.033420 -1.393223 -0.022976 -0.746922 0.007634 -0.036734
    19 -0.022360 -0.961342 -0.004654 -0.883172 0.005525 -0.043001
    20 -1.180681 -2.507217 -0.193859 -0.314555 -0.083781 -0.213847
    21 -0.024967 -1.127840 0.017597 -1.431112 0.098765 0.048910
    22 -0.020057 -0.902687 0.025715 -0.805420 0.007514 -0.032334
    23 0.583510 -1.208996 0.197098 -0.016291 -1.086293 -0.690834
    24 1.481238 -0.200698 -0.049680 0.017733 0.168348 -0.720722
    25 0.987486 -0.214230 -0.006773 -0.101489 -0.020928 -1.227553
    26 0.120153 -0.050270 -0.054489 0.287569 3.110905 1.561085
    27 -0.852818 -6.500830 -12.677451 -1.967637 -5.442499 -1.428610
    28 0.104757 -8.442606 -0.021084 0.433615 -0.143314 0.408044
    29 0.447953 -2.798986 -0.200443 -1.083108 -0.024750 0.321985
    30 -0.032909 -1.499736 0.028378 -1.405033 0.023334 -0.026879
    31 -0.027022 -1.115984 -0.028023 -0.967278 0.021752 -0.015208
    32 -0.249534 -2.846964 -0.174213 -0.927167 -0.009008 0.151859
    33 0.043235 -1.656596 0.072574 -1.315085 -0.020930 0.005777
    34 0.031729 -1.137392 0.051025 -1.375111 -0.015333 0.007761
    35 -0.963866 -2.785145 -0.085350 -0.990983 0.136737 -0.225412
    36 0.028479 -1.403067 -0.017167 -0.965960 -0.135474 0.127432
    37 0.021413 -0.942156 0.012233 -0.964436 -0.025335 -0.033641
    38 1.164475 -2.543940 -0.170330 -1.202160 -0.161088 0.388818
    39 0.024032 -1.140761 -0.005631 -0.986046 0.010594 0.051247
    40 0.014898 -0.903521 -0.015942 -1.028794 0.009660 0.051438
    41 -0.586770 -1.264477 0.200161 0.221924 -1.275430 -2.979233
    42 1.569711 0.035243 0.016848 -0.019647 -0.007097 0.922310
    43 1.114041 0.040611 -0.005766 -0.028766 -0.034359 1.035400
    44 -0.045646 -0.072634 0.010491 0.230636 0.395471 1.618939
    45 -7.561627 3.999186 -0.430845 1.575111 -0.029831 -0.574588
  time 3
    0 4.900892 -5.831504 -3.735263 1.563179 -0.034204 -1.582841
    1 5.535558 -1.455844 -0.000001 0.000000 0.000000 -1.364276
    2 6.967555 -0.456137 0.775243 1.570767 -1.566682 1.570854
    3 0.594653 3.125398 -0.000001 0.000000 0.000000 0.000000
    4 0.793143 -0.098690 0.439540 -1.570775 1.559439 1.570817
    5 0.793143 -0.098690 -0.474551 1.570775 1.582159 1.570775
    6 -0.205318 -0.032883 -0.000050 -1.570797 0.000000 0.000000
    7 -0.002752 -2.016952 -0.003287 0.000000 0.000000 0.000000
    8 6.212353 5.493684 -8.686747 4.952501 -1.363143 1.322194
    9 8.030824 1.613929 -0.364657 1.568041 -3.118429 0.276442
    10 -0.103172 -8.408890 -0.158823 -0.128157 0.003391 -0.213359
    11 -0.488518 -2.755602 -0.228260 -0.636514 -0.072434 -0.337320
    12 0.047700 -1.530573 0.014229 -1.481141 -0.125802 0.203368
    13 0.028786 -1.126514 -0.105143 -0.742955 -0.013303 0.014298
    14 0.250027 -2.820665 -0.238396 -0.418648 -0.123606 -0.157124
    15 -0.057572 -1.598510 0.030164 -1.580137 -0.056699 0.100860
    16 -0.034142 -1.160031 0.053531 -0.902405 0.008281 -0.023154
    17 0.957766 -2.746780 -0.090302 -0.138913 -0.159269 0.186081
    18 -0.033420 -1.393223 -0.022976 -0.746922 0.007634 -0.036734
    19 -0.022360 -0.961342 -0.004654 -0.883172 0.005525 -0.043001
    20 -1.180681 -2.507217 -0.193859 -0.314555 -0.083781 -0.213847
    21 -0.024967 -1.127840 0.017597 -1.431112 0.098765 0.048910
    22 -0.020057 -0.902687 0.025715 -0.805420 0.007514 -0.032334
    23 0.583510 -1.208996 0.197098 -0.016291 -1.086314 -0.690834
    24 1.481238 -0.200698 -0.049680 0.017733 0.168348 -0.720722
    25 0.987486 -0.214230 -0.006773 -0.101489 -0.020928 -1.227553
    26 0.120153 -0.050270 -0.054489 0.287569 3.110905 1.561085
    27 -1.071575 -6.875841 -12.107121 0.961125 -3.931867 1.518860
    28 0.081319 -8.450418 0.002354 0.415427 -0.306802 0.392068
    29 0.447953 -2.798986 -0.200443 -1.083108 -0.024750 0.321985
    30 -0.032909 -1.499736 0.028378 -1.405033 0.023334 -0.026879
    31 -0.027022 -1.115984 -0.028023 -0.967278 0.021752 -0.015208
    32 -0.249534 -2.846964 -0.174213 -0.927167 -0.009008 0.151859
    33 0.043235 -1.656596 0.072574 -1.315085 -0.020930 0.005777
    34 0.031729 -1.137392 0.051025 -1.375111 -0.015333 0.007761
    35 -0.963866 -2.785145 -0.085350 -0.990983 0.136737 -0.225412
    36 0.028479 -1.403067 -0.017167 -0.965960 -0.135474 0.127432
    37 0.021413 -0.942156 0.012233 -0.964436 -0.025335 -0.033641
    38 1.164475 -2.543940 -0.170330 -1.202160 -0.161088 0.388818
    39 0.024032 -1.140761 -0.005631 -0.986046 0.010594 0.051247
    40 0.014898 -0.903521 -0.015942 -1.028794 0.009660 0.051438
    41 -0.586770 -1.264477 0.200161 0.221924 -1.275430 -2.979233
    42 1.569711 0.035243 0.016848 -0.019647 -0.007097 0.922310
    43 1.114041 0.040611 -0.005766 -0.028766 -0.034359 1.035400
    44 -0.045646 -0.072634 0.010491 0.230636 0.395471 1.618939
    45 -7.147552 4.823430 -0.415220 1.576957 -0.027470 -0.686808
  time 4
    0 4.896986 -6.069792 -3.489162 1.559250 -0.024237 -1.558118
    1 5.535558 -1.455844 -0.000001 0.000000 0.000000 -1.364276
    2 6.967555 -0.456137 0.775243 1.570767 -1.566682 1.570854
    3 0.594653 3.125398 -0.000001 0.000000 0.000000 0.000000
    4 0.793143 -0.098690 0.439540 -1.570775 1.559439 1.570817
    5 0.793143 -0.098690 -0.474551 1.570775 1.582159 1.570775
    6 -0.205318 -0.032883 -0.000050 -1.570797 0.000000 0.000000
    7 -0.002752 -2.016952 -0.003287 0.000000 0.000000 0.000000
    8 6.181102 5.290553 -8.604713 4.954505 -1.341462 1.317983
    9 8.015199 1.754558 -0.360751 1.567849 -3.118715 0.293581
    10 -0.099266 -8.408890 -0.158823 -0.099603 0.002434 -0.242778
    11 -0.488518 -2.755602 -0.228260 -0.636514 -0.072434 -0.337320
    12 0.047700 -1.530573 0.014229 -1.481141 -0.125802 0.203368
    13 0.028786 -1.126514 -0.105143 -0.742955 -0.013303 0.014298
    14 0.250027 -2.820665 -0.238396 -0.418648 -0.123606 -0.157124
    15 -0.057572 -1.598510 0.030164 -1.580137 -0.056699 0.100860
    16 -0.034142 -1.160031 0.053531 -0.902405 0.008281 -0.023154
    17 0.957766 -2.746780 -0.090302 -0.138913 -0.159269 0.186081
    18 -0.033420 -1.393223 -0.022976 -0.746922 0.007634 -0.036734
    19 -0.022360 -0.961342 -0.004654 -0.883172 0.005525 -0.043001
    20 -1.180681 -2.507217 -0.193859 -0.314555 -0.083781 -0.213847
    21 -0.024967 -1.127840 0.017597 -1.431112 0.098765 0.048910
    22 -0.020057 -0.902687 0.025715 -0.805420 0.007514 -0.032334
    23 0.583510 -1.208996 0.197098 -0.016291 -1.086293 -0.690834
    24 1.481238 -0.200698 -0.049680 0.017733 0.168348 -0.720722
    25 0.987486 -0.214230 -0.006773 -0.101489 -0.020928 -1.227553
    26 0.120153 -0.050270 -0.054489 0.287569 3.110905 1.561085
    27 -1.106732 -7.063347 -11.689140 0.859887 -3.909279 1.413110
    28 0.061787 -8.454325 0.017980 0.372912 -0.394109 0.372607
    29 0.447953 -2.798986 -0.200443 -1.083108 -0.024750 0.321985
    30 -0.032909 -1.499736 0.028378 -1.405033 0.023334 -0.026879
    31 -0.027022 -1.115984 -0.028023 -0.967278 0.021752 -0.015208
    32 -0.249534 -2.846964 -0.174213 -0.927167 -0.009008 0.151859
    33 0.043235 -1.656596 0.072574 -1.315085 -0.020930 0.005777
    34 0.031729 -1.137392 0.051025 -1.375111 -0.015333 0.007761
    35 -0.963866 -2.785145 -0.085350 -0.990983 0.136737 -0.225412
    36 0.028479 -1.403067 -0.017167 -0.965960 -0.135474 0.127432
    37 0.021413 -0.942156 0.012233 -0.964436 -0.025335 -0.033641
    38 1.164475 -2.543940 -0.170330 -1.202160 -0.161088 0.388818
    39 0.024032 -1.140761 -0.005631 -0.986046 0.010594 0.051247
    40 0.014898 -0.903521 -0.015942 -1.028794 0.009660 0.051438
    41 -0.586770 -1.264477 0.200161 0.221924 -1.275430 -2.979233
    42 1.569711 0.035243 0.016848 -0.019647 -0.007097 0.922310
    43 1.114041 0.040611 -0.005766 -0.028766 -0.034359 1.035400
    44 -0.045646 -0.072634 0.010491 0.230636 0.395471 1.618939
    45 -6.717851 5.491419 -0.399594 1.578335 -0.025289 -0.783344
  time 5
    0 4.689949 -6.151826 -3.371971 1.560304 -0.012833 -1.537931
    1 5.535558 -1.455844 -0.000001 0.000000 0.000000 -1.364276
    2 6.967555 -0.456137 0.775243 1.570767 -1.566682 1.570854
    3 0.594653 3.125398 -0.000001 0.000000 0.000000 0.000000
    4 0.793143 -0.098690 0.439540 -1.570775 1.559439 1.570817
    5 0.793143 -0.098690 -0.474551 1.570775 1.582159 1.570775
    6 -0.205318 -0.032883 -0.000050 -1.570797 0.000000 0.000000
    7 -0.002752 -2.016952 -0.003287 0.000000 0.000000 0.000000
    8 6.087349 5.255396 -8.573462 4.977685 -1.327238 1.277117
    9 8.019105 1.735026 -0.360751 1.567849 -3.118715 0.291040
    10 -0.103172 -8.408890 -0.158823 -0.059583 -0.005876 -0.264449
    11 -0.488518 -2.755602 -0.228260 -0.636514 -0.072434 -0.337320
    12 0.047700 -1.530573 0.014229 -1.481141 -0.125802 0.203368
    13 0.028786 -1.126514 -0.105143 -0.742955 -0.013303 0.014298
    14 0.250027 -2.820665 -0.238396 -0.418648 -0.123606 -0.157124
    15 -0.057572 -1.598510 0.030164 -1.580137 -0.056699 0.100860
    16 -0.034142 -1.160031 0.053531 -0.902405 0.008281 -0.023154
    17 0.957766 -2.746780 -0.090302 -0.138913 -0.159269 0.186081
    18 -0.033420 -1.393223 -0.022976 -0.746922 0.007634 -0.036734
    19 -0.022360 -0.961342 -0.004654 -0.883172 0.005525 -0.043001
    20 -1.180681 -2.507217 -0.193859 -0.314555 -0.083781 -0.213847
    21 -0.024967 -1.127840 0.017597 -1.431112 0.098765 0.048910
    22 -0.020057 -0.902687 0.025715 -0.805420 0.007514 -0.032334
    23 0.583510 -1.208996 0.197098 -0.016291 -1.086293 -0.690834
    24 1.481238 -0.200698 -0.049680 0.017733 0.168348 -0.720722
    25 0.987486 -0.214230 -0.006773 -0.101489 -0.020928 -1.227553
    26 0.120153 -0.050270 -0.054489 0.287569 3.110905 1.561085
    27 -1.282519 -7.153193 -11.564136 0.797921 -3.881067 1.340514
    28 0.046161 -8.454325 0.025792 0.320838 -0.465912 0.370571
    29 0.447953 -2.798986 -0.200443 -1.083108 -0.024750 0.321985
    30 -0.032909 -1.499736 0.028378 -1.405033 0.023334 -0.026879
    31 -0.027022 -1.115984 -0.028023 -0.967278 0.021752 -0.015208
    32 -0.249534 -2.846964 -0.174213 -0.927167 -0.009008 0.151859
    33 0.043235 -1.656596 0.072574 -1.315085 -0.020930 0.005777
    34 0.031729 -1.137392 0.051025 -1.375111 -0.015333 0.007761
    35 -0.963866 -2.785145 -0.085350 -0.990983 0.136737 -0.225412
    36 0.028479 -1.403067 -0.017167 -0.965960 -0.135474 0.127432
    37 0.021413 -0.942156 0.012233 -0.964436 -0.025335 -0.033641
    38 1.164475 -2.543940 -0.170330 -1.202160 -0.161088 0.388818
    39 0.024032 -1.140761 -0.005631 -0.986046 0.010594 0.051247
    40 0.014898 -0.903521 -0.015942 -1.028794 0.009660 0.051438
    41 -0.586770 -1.264477 0.200161 0.221924 -1.275430 -2.979233
    42 1.569711 0.035243 0.016848 -0.019647 -0.007097 0.922310
    43 1.114041 0.040611 -0.005766 -0.028766 -0.034359 1.035400
    44 -0.045646 -0.072634 0.010491 0.230636 0.395471 1.618939
    45 -6.616286 5.635954 -0.395688 1.578611 -0.024798 -0.804596
  time 6
    0 4.006334 -5.722125 -3.536038 1.569600 0.004897 -1.520232
    1 5.535558 -1.455844 -0.000001 0.000000 0.000000 -1.364276
    2 6.967555 -0.456137 0.775243 1.570767 -1.566682 1.570854
    3 0.594653 3.125398 -0.000001 0.000000 0.000000 0.000000
    4 0.793143 -0.098690 0.439540 -1.570775 1.559439 1.570817
    5 0.793143 -0.098690 -0.474551 1.570775 1.582159 1.570775
    6 -0.205318 -0.032883 -0.000050 -1.570797 0.000000 0.000000
    7 -0.002752 -2.016952 -0.003287 0.000000 0.000000 0.000000
    8 5.864686 5.767130 -8.694559 5.054857 -1.321661 1.142175
    9 8.073794 1.059225 -0.372470 1.568807 -3.117188 0.207821
    10 -0.107078 -8.416703 -0.158823 0.020230 -0.029929 -0.278628
    11 -0.488518 -2.755602 -0.228260 -0.636514 -0.072434 -0.337320
    12 0.047700 -1.530573 0.014229 -1.481141 -0.125802 0.203368
    13 0.028786 -1.126514 -0.105143 -0.742955 -0.013303 0.014298
    14 0.250027 -2.820665 -0.238396 -0.418648 -0.123606 -0.157124
    15 -0.057572 -1.598510 0.030164 -1.580137 -0.056699 0.100860
    16 -0.034142 -1.160031 0.053531 -0.902405 0.008281 -0.023154
    17 0.957766 -2.746780 -0.090302 -0.138913 -0.159269 0.186081
    18 -0.033420 -1.393223 -0.022976 -0.746922 0.007634 -0.036734
    19 -0.022360 -0.961342 -0.004654 -0.883172 0.005525 -0.043001
    20 -1.180681 -2.507217 -0.193859 -0.314555 -0.083781 -0.213847
    21 -0.024967 -1.127840 0.017597 -1.431112 0.098765 0.048910
    22 -0.020057 -0.902687 0.025715 -0.805420 0.007514 -0.032334
    23 0.583510 -1.208996 0.197098 -0.016291 -1.086314 -0.690834
    24 1.481238 -0.200698 -0.049680 0.017733 0.168348 -0.720722
    25 0.987486 -0.214230 -0.006773 -0.101489 -0.020928 -1.227553
    26 0.120153 -0.050270 -0.054489 0.287569 3.110905 1.561085
    27 -1.938789 -7.036002 -12.130560 0.788471 -3.819117 1.335179
    28 0.026629 -8.450418 0.033605 0.275254 -0.532501 0.429225
    29 0.447953 -2.798986 -0.200443 -1.083108 -0.024750 0.321985
    30 -0.032909 -1.499736 0.028378 -1.405033 0.023334 -0.026879
    31 -0.027022 -1.115984 -0.028023 -0.967278 0.021752 -0.015208
    32 -0.249534 -2.846964 -0.174213 -0.927167 -0.009008 0.151859
    33 0.043235 -1.656596 0.072574 -1.315085 -0.020930 0.005777
    34 0.031729 -1.137392 0.051025 -1.375111 -0.015333 0.007761
    35 -0.963866 -2.785145 -0.085350 -0.990983 0.136737 -0.225412
    36 0.028479 -1.403067 -0.017167 -0.965960 -0.135474 0.127432
    37 0.021413 -0.942156 0.012233 -0.964436 -0.025335 -0.033641
    38 1.164475 -2.543940 -0.170330 -1.202160 -0.161088 0.388818
    39 0.024032 -1.140761 -0.005631 -0.986046 0.010594 0.051247
    40 0.014898 -0.903521 -0.015942 -1.028794 0.009660 0.051438
    41 -0.586770 -1.264477 0.200161 0.221924 -1.275430 -2.979233
    42 1.569711 0.035243 0.016848 -0.019647 -0.007097 0.922310
    43 1.114041 0.040611 -0.005766 -0.028766 -0.034359 1.035400
    44 -0.045646 -0.072634 0.010491 0.230636 0.395471 1.618939
    45 -7.432717 4.280444 -0.426939 1.575758 -0.029064 -0.612308
  time 7
    0 3.295375 -5.284612 -3.707918 -4.697338 0.027993 -1.503916
    1 5.535558 -1.455844 -0.000001 0.000000 0.000000 -1.364276
    2 6.967555 -0.456137 0.775243 1.570767 -1.566682 1.570854
    3 0.594653 3.125398 -0.000001 0.000000 0.000000 0.000000
    4 0.793143 -0.098690 0.439540 -1.570775 1.559439 1.570817
    5 0.793143 -0.098690 -0.474551 1.570775 1.582159 1.570775
    6 -0.205318 -0.032883 -0.000050 -1.570797 0.000000 0.000000
    7 -0.002752 -2.016952 -0.003287 0.000000 0.000000 0.000000
    8 5.665461 6.286677 -8.764874 5.153683 -1.316648 0.981872
    9 8.073794 0.457644 -0.380282 1.569766 -3.115948 0.133857
    10 -0.114891 -8.424515 -0.162730 0.104548 -0.061729 -0.295877
    11 -0.488518 -2.755602 -0.228260 -0.636514 -0.072434 -0.337320
    12 0.047700 -1.530573 0.014229 -1.481141 -0.125802 0.203368
    13 0.028786 -1.126514 -0.105143 -0.742955 -0.013303 0.014298
    14 0.250027 -2.820665 -0.238396 -0.418648 -0.123606 -0.157124
    15 -0.057572 -1.598510 0.030164 -1.580137 -0.056699 0.100860
    16 -0.034142 -1.160031 0.053531 -0.902405 0.008281 -0.023154
    17 0.957766 -2.746780 -0.090302 -0.138913 -0.159269 0.186081
    18 -0.033420 -1.393223 -0.022976 -0.746922 0.007634 -0.036734
    19 -0.022360 -0.961342 -0.004654 -0.883172 0.005525 -0.043001
    20 -1.180681 -2.507217 -0.193859 -0.314555 -0.083781 -0.213847
    21 -0.024967 -1.127840 0.017597 -1.431112 0.098765 0.048910
    22 -0.020057 -0.902687 0.025715 -0.805420 0.007514 -0.032334
    23 0.583510 -1.208996 0.197098 -0.016291 -1.086293 -0.690834
    24 1.481238 -0.200698 -0.049680 0.017733 0.168348 -0.720722
    25 0.987486 -0.214230 -0.006773 -0.101489 -0.020928 -1.227553
    26 0.120153 -0.050270 -0.054489 0.287569 3.110905 1.561085
    27 -2.583339 -6.793808 -12.657920 0.772747 -3.772607 1.330320
    28 0.007098 -8.450418 0.041418 0.262701 -0.597779 0.471948
    29 0.447953 -2.798986 -0.200443 -1.083108 -0.024750 0.321985
    30 -0.032909 -1.499736 0.028378 -1.405033 0.023334 -0.026879
    31 -0.027022 -1.115984 -0.028023 -0.967278 0.021752 -0.015208
    32 -0.249534 -2.846964 -0.174213 -0.927167 -0.009008 0.151859
    33 0.043235 -1.656596 0.072574 -1.315085 -0.020930 0.005777
    34 0.031729 -1.137392 0.051025 -1.375111 -0.015333 0.007761
    35 -0.963866 -2.785145 -0.085350 -0.990983 0.136737 -0.225412
    36 0.028479 -1.403067 -0.017167 -0.965960 -0.135474 0.127432
    37 0.021413 -0.942156 0.012233 -0.964436 -0.025335 -0.033641
    38 1.164475 -2.543940 -0.170330 -1.202160 -0.161088 0.388818
    39 0.024032 -1.140761 -0.005631 -0.986046 0.010594 0.051247
    40 0.014898 -0.903521 -0.015942 -1.028794 0.009660 0.051438
    41 -0.586770 -1.264477 0.200161 0.221924 -1.275430 -2.979233
    42 1.569711 0.035243 0.016848 -0.019647 -0.007097 0.922310
    43 1.114041 0.040611 -0.005766 -0.028766 -0.034359 1.035400
    44 -0.045646 -0.072634 0.010491 0.230636 0.395471 1.618939
    45 -7.948358 2.893683 -0.450377 1.572403 -0.032504 -0.432333
  time 8
    0 2.611760 -4.886162 -3.868079 -4.682772 0.047064 -1.491306
    1 5.535558 -1.455844 -0.000001 0.000000 0.000000 -1.364276
    2 6.967555 -0.456137 0.775243 1.570767 -1.566682 1.570854
    3 0.594653 3.125398 -0.000001 0.000000 0.000000 0.000000
    4 0.793143 -0.098690 0.439540 -1.570775 1.559439 1.570817
    5 0.793143 -0.098690 -0.474551 1.570775 1.582159 1.570775
    6 -0.205318 -0.032883 -0.000050 -1.570797 0.000000 0.000000
    7 -0.002752 -2.016952 -0.003287 0.000000 0.000000 0.000000
    8 5.474049 6.728097 -8.784406 5.280364 -1.309504 0.795442
    9 8.050356 0.039662 -0.388095 1.570533 -3.115089 0.082831
    10 -0.122704 -8.432328 -0.166636 0.184589 -0.096742 -0.306110
    11 -0.488518 -2.755602 -0.228260 -0.636514 -0.072434 -0.337320
    12 0.047700 -1.530573 0.014229 -1.481141 -0.125802 0.203368
    13 0.028786 -1.126514 -0.105143 -0.742955 -0.013303 0.014298
    14 0.250027 -2.820665 -0.238396 -0.418648 -0.123606 -0.157124
    15 -0.057572 -1.598510 0.030164 -1.580137 -0.056699 0.100860
    16 -0.034142 -1.160031 0.053531 -0.902405 0.008281 -0.023154
    17 0.957766 -2.746780 -0.090302 -0.138913 -0.159269 0.186081
    18 -0.033420 -1.393223 -0.022976 -0.746922 0.007634 -0.036734
    19 -0.022360 -0.961342 -0.004654 -0.883172 0.005525 -0.043001
    20 -1.180681 -2.507217 -0.193859 -0.314555 -0.083781 -0.213847
    21 -0.024967 -1.127840 0.017597 -1.431112 0.098765 0.048910
    22 -0.020057 -0.902687 0.025715 -0.805420 0.007514 -0.032334
    23 0.583510 -1.208996 0.197098 -0.016291 -1.086293 -0.690834
    24 1.481238 -0.200698 -0.049680 0.017733 0.168348 -0.720722
    25 0.987486 -0.214230 -0.006773 -0.101489 -0.020928 -1.227553
    26 0.120153 -0.050270 -0.054489 0.287569 3.110905 1.561085
    27 -3.032572 -6.465672 -13.122777 0.775148 -3.752973 1.349374
    28 0.007098 -8.458231 0.041418 0.338045 -0.622959 0.485707
    29 0.447953 -2.798986 -0.200443 -1.083108 -0.024750 0.321985
    30 -0.032909 -1.499736 0.028378 -1.405033 0.023334 -0.026879
    31 -0.027022 -1.115984 -0.028023 -0.967278 0.021752 -0.015208
    32 -0.249534 -2.846964 -0.174213 -0.927167 -0.009008 0.151859
    33 0.043235 -1.656596 0.072574 -1.315085 -0.020930 0.005777
    34 0.031729 -1.137392 0.051025 -1.375111 -0.015333 0.007761
    35 -0.963866 -2.785145 -0.085350 -0.990983 0.136737 -0.225412
    36 0.028479 -1.403067 -0.017167 -0.965960 -0.135474 0.127432
    37 0.021413 -0.942156 0.012233 -0.964436 -0.025335 -0.033641
    38 1.164475 -2.543940 -0.170330 -1.202160 -0.161088 0.388818
    39 0.024032 -1.140761 -0.005631 -0.986046 0.010594 0.051247
    40 0.014898 -0.903521 -0.015942 -1.028794 0.009660 0.051438
    41 -0.586770 -1.264477 0.200161 0.221924 -1.275430 -2.979233
    42 1.569711 0.035243 0.016848 -0.019647 -0.007097 0.922310
    43 1.114041 0.040611 -0.005766 -0.028766 -0.034359 1.035400
    44 -0.045646 -0.072634 0.010491 0.230636 0.395471 1.618939
    45 -8.186646 1.667083 -0.466002 1.569119 -0.034889 -0.280510
  time 9
    0 2.010179 -4.581466 -3.981364 -4.678652 -6.229779 -1.485278
    1 5.535558 -1.455844 -0.000001 0.000000 0.000000 -1.364276
    2 6.967555 -0.456137 0.775243 1.570767 -1.566682 1.570854
    3 0.594653 3.125398 -0.000001 0.000000 0.000000 0.000000
    4 0.793143 -0.098690 0.439540 -1.570775 1.559439 1.570817
    5 0.793143 -0.098690 -0.474551 1.570775 1.582159 1.570775
    6 -0.205318 -0.032883 -0.000050 -1.570797 0.000000 0.000000
    7 -0.002752 -2.016952 -0.003287 0.000000 0.000000 0.000000
    8 5.286543 7.013262 -8.768780 5.410383 -1.299039 0.613031
    9 8.034731 -0.112686 -0.388095 -1.570754 -0.026708 -3.077705
    10 -0.126610 -8.444047 -0.174449 0.249294 -0.127036 -0.299641
    11 -0.488518 -2.755602 -0.228260 -0.636514 -0.072434 -0.337320
    12 0.047700 -1.530573 0.014229 -1.481141 -0.125802 0.203368
    13 0.028786 -1.126514 -0.105143 -0.742955 -0.013303 0.014298
    14 0.250027 -2.820665 -0.238396 -0.418648 -0.123606 -0.157124
    15 -0.057572 -1.598510 0.030164 -1.580137 -0.056699 0.100860
    16 -0.034142 -1.160031 0.053531 -0.902405 0.008281 -0.023154
    17 0.957766 -2.746780 -0.090302 -0.138913 -0.159269 0.186081
    18 -0.033420 -1.393223 -0.022976 -0.746922 0.007634 -0.036734
    19 -0.022360 -0.961342 -0.004654 -0.883172 0.005525 -0.043001
    20 -1.180681 -2.507217 -0.193859 -0.314555 -0.083781 -0.213847
    21 -0.024967 -1.127840 0.017597 -1.431112 0.098765 0.048910
    22 -0.020057 -0.902687 0.025715 -0.805420 0.007514 -0.032334
    23 0.583510 -1.208996 0.197098 -0.016291 -1.086293 -0.690834
    24 1.481238 -0.200698 -0.049680 0.017733 0.168348 -0.720722
    25 0.987486 -0.214230 -0.006773 -0.101489 -0.020928 -1.227553
    26 0.120153 -0.050270 -0.054489 0.287569 3.110905 1.561085
    27 -3.286486 -6.172695 -13.450912 0.795055 -3.748685 1.374335
    28 0.018817 -8.473857 0.041418 0.450143 -0.608236 0.480412
    29 0.447953 -2.798986 -0.200443 -1.083108 -0.024750 0.321985
    30 -0.032909 -1.499736 0.028378 -1.405033 0.023334 -0.026879
    31 -0.027022 -1.115984 -0.028023 -0.967278 0.021752 -0.015208
    32 -0.249534 -2.846964 -0.174213 -0.927167 -0.009008 0.151859
    33 0.043235 -1.656596 0.072574 -1.315085 -0.020930 0.005777
    34 0.031729 -1.137392 0.051025 -1.375111 -0.015333 0.007761
    35 -0.963866 -2.785145 -0.085350 -0.990983 0.136737 -0.225412
    36 0.028479 -1.403067 -0.017167 -0.965960 -0.135474 0.127432
    37 0.021413 -0.942156 0.012233 -0.964436 -0.025335 -0.033641
    38 1.164475 -2.543940 -0.170330 -1.202160 -0.161088 0.388818
    39 0.024032 -1.140761 -0.005631 -0.986046 0.010594 0.051247
    40 0.014898 -0.903521 -0.015942 -1.028794 0.009660 0.051438
    41 -0.586770 -1.264477 0.200161 0.221924 -1.275430 -2.979233
    42 1.569711 0.035243 0.016848 -0.019647 -0.007097 0.922310
    43 1.114041 0.040611 -0.005766 -0.028766 -0.034359 1.035400
    44 -0.045646 -0.072634 0.010491 0.230636 0.395471 1.618939
    45 -8.241335 0.799869 -0.473815 1.566650 -0.036243 -0.174877
  time 10
    0 1.494539 -4.390054 -4.028241 -4.692643 0.039780 -1.488707
    1 5.535558 -1.455844 -0.000001 0.000000 0.000000 -1.364276
    2 6.967555 -0.456137 0.775243 1.570767 -1.566682 1.570854
    3 0.594653 3.125398 -0.000001 0.000000 0.000000 0.000000
    4 0.793143 -0.098690 0.439540 -1.570775 1.559439 1.570817
    5 0.793143 -0.098690 -0.474551 1.570775 1.582159 1.570775
    6 -0.205318 -0.032883 -0.000050 -1.570797 0.000000 0.000000
    7 -0.002752 -2.016952 -0.003287 0.000000 0.000000 0.000000
    8 5.083412 7.103108 -8.733623 5.525139 -1.286945 0.453972
    9 8.050356 0.035756 -0.388095 1.570533 -3.115089 0.082179
    10 -0.134423 -8.455766 -0.178355 0.290816 -0.147420 -0.267226
    11 -0.488518 -2.755602 -0.228260 -0.636514 -0.072434 -0.337320
    12 0.047700 -1.530573 0.014229 -1.481141 -0.125802 0.203368
    13 0.028786 -1.126514 -0.105143 -0.742955 -0.013303 0.014298
    14 0.250027 -2.820665 -0.238396 -0.418648 -0.123606 -0.157124
    15 -0.057572 -1.598510 0.030164 -1.580137 -0.056699 0.100860
    16 -0.034142 -1.160031 0.053531 -0.902405 0.008281 -0.023154
    17 0.957766 -2.746780 -0.090302 -0.138913 -0.159269 0.186081
    18 -0.033420 -1.393223 -0.022976 -0.746922 0.007634 -0.036734
    19 -0.022360 -0.961342 -0.004654 -0.883172 0.005525 -0.043001
    20 -1.180681 -2.507217 -0.193859 -0.314555 -0.083781 -0.213847
    21 -0.024967 -1.127840 0.017597 -1.431112 0.098765 0.048910
    22 -0.020057 -0.902687 0.025715 -0.805420 0.007514 -0.032334
    23 0.583510 -1.208996 0.197098 -0.016291 -1.086293 -0.690834
    24 1.481238 -0.200698 -0.049680 0.017733 0.168348 -0.720722
    25 0.987486 -0.214230 -0.006773 -0.101489 -0.020928 -1.227553
    26 0.120153 -0.050270 -0.054489 0.287569 3.110905 1.561085
    27 -3.622434 -5.993002 -13.572010 0.822785 -3.729337 1.354709
    28 0.014910 -8.462138 0.041418 0.397490 -0.593792 0.505982
    29 0.447953 -2.798986 -0.200443 -1.083108 -0.024750 0.321985
    30 -0.032909 -1.499736 0.028378 -1.405033 0.023334 -0.026879
    31 -0.027022 -1.115984 -0.028023 -0.967278 0.021752 -0.015208
    32 -0.249534 -2.846964 -0.174213 -0.927167 -0.009008 0.151859
    33 0.043235 -1.656596 0.072574 -1.315085 -0.020930 0.005777
    34 0.031729 -1.137392 0.051025 -1.375111 -0.015333 0.007761
    35 -0.963866 -2.785145 -0.085350 -0.990983 0.136737 -0.225412
    36 0.028479 -1.403067 -0.017167 -0.965960 -0.135474 0.127432
    37 0.021413 -0.942156 0.012233 -0.964436 -0.025335 -0.033641
    38 1.164475 -2.543940 -0.170330 -1.202160 -0.161088 0.388818
    39 0.024032 -1.140761 -0.005631 -0.986046 0.010594 0.051247
    40 0.014898 -0.903521 -0.015942 -1.028794 0.009660 0.051438
    41 -0.586770 -1.264477 0.200161 0.221924 -1.275430 -2.979233
    42 1.569711 0.035243 0.016848 -0.019647 -0.007097 0.922310
    43 1.114041 0.040611 -0.005766 -0.028766 -0.034359 1.035400
    44 -0.045646 -0.072634 0.010491 0.230636 0.395471 1.618939
    45 -8.225710 0.229539 -0.477722 1.564960 -0.036986 -0.105788
  time 11
    0 1.033587 -4.284582 -4.032147 1.565000 0.012563 -1.498939
    1 5.535558 -1.455844 -0.000001 0.000000 0.000000 -1.364276
    2 6.967555 -0.456137 0.775243 1.570767 -1.566682 1.570854
    3 0.594653 3.125398 -0.000001 0.000000 0.000000 0.000000
    4 0.793143 -0.098690 0.439540 -1.570775 1.559439 1.570817
    5 0.793143 -0.098690 -0.474551 1.570775 1.582159 1.570775
    6 -0.205318 -0.032883 -0.000050 -1.570797 0.000000 0.000000
    7 -0.002752 -2.016952 -0.003287 0.000000 0.000000 0.000000
    8 4.864655 7.044513 -8.690653 5.621962 -1.274977 0.319987
    9 8.073794 0.399048 -0.380282 1.569862 -3.115757 0.126754
    10 -0.138329 -8.467485 -0.182261 0.312385 -0.161563 -0.216941
    11 -0.488518 -2.755602 -0.228260 -0.636514 -0.072434 -0.337320
    12 0.047700 -1.530573 0.014229 -1.481141 -0.125802 0.203368
    13 0.028786 -1.126514 -0.105143 -0.742955 -0.013303 0.014298
    14 0.250027 -2.820665 -0.238396 -0.418648 -0.123606 -0.157124
    15 -0.057572 -1.598510 0.030164 -1.580137 -0.056699 0.100860
    16 -0.034142 -1.160031 0.053531 -0.902405 0.008281 -0.023154
    17 0.957766 -2.746780 -0.090302 -0.138913 -0.159269 0.186081
    18 -0.033420 -1.393223 -0.022976 -0.746922 0.007634 -0.036734
    19 -0.022360 -0.961342 -0.004654 -0.883172 0.005525 -0.043001
    20 -1.180681 -2.507217 -0.193859 -0.314555 -0.083781 -0.213847
    21 -0.024967 -1.127840 0.017597 -1.431112 0.098765 0.048910
    22 -0.020057 -0.902687 0.025715 -0.805420 0.007514 -0.032334
    23 0.583510 -1.208996 0.197098 -0.016291 -1.086293 -0.690834
    24 1.481238 -0.200698 -0.049680 0.017733 0.168348 -0.720722
    25 0.987486 -0.214230 -0.006773 -0.101489 -0.020928 -1.227553
    26 0.120153 -0.050270 -0.054489 0.287569 3.110905 1.561085
    27 -3.888067 -5.922687 -13.564197 0.857873 -3.706844 1.321841
    28 0.014910 -8.450418 0.037511 0.333642 -0.564150 0.525398
    29 0.447953 -2.798986 -0.200443 -1.083108 -0.024750 0.321985
    30 -0.032909 -1.499736 0.028378 -1.405033 0.023334 -0.026879
    31 -0.027022 -1.115984 -0.028023 -0.967278 0.021752 -0.015208
    32 -0.249534 -2.846964 -0.174213 -0.927167 -0.009008 0.151859
    33 0.043235 -1.656596 0.072574 -1.315085 -0.020930 0.005777
    34 0.031729 -1.137392 0.051025 -1.375111 -0.015333 0.007761
    35 -0.963866 -2.785145 -0.085350 -0.990983 0.136737 -0.225412
    36 0.028479 -1.403067 -0.017167 -0.965960 -0.135474 0.127432
    37 0.021413 -0.942156 0.012233 -0.964436 -0.025335 -0.033641
    38 1.164475 -2.543940 -0.170330 -1.202160 -0.161088 0.388818
    39 0.024032 -1.140761 -0.005631 -0.986046 0.010594 0.051247
    40 0.014898 -0.903521 -0.015942 -1.028794 0.009660 0.051438
    41 -0.586770 -1.264477 0.200161 0.221924 -1.275430 -2.979233
    42 1.569711 0.035243 0.016848 -0.019647 -0.007097 0.922310
    43 1.114041 0.040611 -0.005766 -0.028766 -0.034359 1.035400
    44 -0.045646 -0.072634 0.010491 0.230636 0.395471 1.618939
    45 -8.206178 -0.040000 -0.477722 1.564133 -0.037298 -0.072930
  time 12
    0 0.646856 -4.229892 -4.020428 1.539988 -0.017145 -1.511328
    1 5.535558 -1.455844 -0.000001 0.000000 0.000000 -1.364276
    2 6.967555 -0.456137 0.775243 1.570767 -1.566682 1.570854
    3 0.594653 3.125398 -0.000001 0.000000 0.000000 0.000000
    4 0.793143 -0.098690 0.439540 -1.570775 1.559439 1.570817
    5 0.793143 -0.098690 -0.474551 1.570775 1.582159 1.570775
    6 -0.205318 -0.032883 -0.000050 -1.570797 0.000000 0.000000
    7 -0.002752 -2.016952 -0.003287 0.000000 0.000000 0.000000
    8 4.665430 6.927322 -8.635964 5.695891 -1.265452 0.216244
    9 8.077701 0.820936 -0.376376 1.569191 -3.116711 0.178887
    10 -0.142236 -8.479205 -0.186168 0.320849 -0.172445 -0.165559
    11 -0.488518 -2.755602 -0.228260 -0.636514 -0.072434 -0.337320
    12 0.047700 -1.530573 0.014229 -1.481141 -0.125802 0.203368
    13 0.028786 -1.126514 -0.105143 -0.742955 -0.013303 0.014298
    14 0.250027 -2.820665 -0.238396 -0.418648 -0.123606 -0.157124
    15 -0.057572 -1.598510 0.030164 -1.580137 -0.056699 0.100860
    16 -0.034142 -1.160031 0.053531 -0.902405 0.008281 -0.023154
    17 0.957766 -2.746780 -0.090302 -0.138913 -0.159269 0.186081
    18 -0.033420 -1.393223 -0.022976 -0.746922 0.007634 -0.036734
    19 -0.022360 -0.961342 -0.004654 -0.883172 0.005525 -0.043001
    20 -1.180681 -2.507217 -0.193859 -0.314555 -0.083781 -0.213847
    21 -0.024967 -1.127840 0.017597 -1.431112 0.098765 0.048910
    22 -0.020057 -0.902687 0.025715 -0.805420 0.007514 -0.032334
    23 0.583510 -1.208996 0.197098 -0.016291 -1.086293 -0.690834
    24 1.481238 -0.200698 -0.049680 0.017733 0.168348 -0.720722
    25 0.987486 -0.214230 -0.006773 -0.101489 -0.020928 -1.227553
    26 0.120153 -0.050270 -0.054489 0.287569 3.110905 1.561085
    27 -4.087292 -5.910968 -13.501695 0.891955 -3.686639 1.287067
    28 0.018817 -8.442606 0.033605 0.275983 -0.533784 0.535717
    29 0.447953 -2.798986 -0.200443 -1.083108 -0.024750 0.321985
    30 -0.032909 -1.499736 0.028378 -1.405033 0.023334 -0.026879
    31 -0.027022 -1.115984 -0.028023 -0.967278 0.021752 -0.015208
    32 -0.249534 -2.846964 -0.174213 -0.927167 -0.009008 0.151859
    33 0.043235 -1.656596 0.072574 -1.315085 -0.020930 0.005777
    34 0.031729 -1.137392 0.051025 -1.375111 -0.015333 0.007761
    35 -0.963866 -2.785145 -0.085350 -0.990983 0.136737 -0.225412
    36 0.028479 -1.403067 -0.017167 -0.965960 -0.135474 0.127432
    37 0.021413 -0.942156 0.012233 -0.964436 -0.025335 -0.033641
    38 1.164475 -2.543940 -0.170330 -1.202160 -0.161088 0.388818
    39 0.024032 -1.140761 -0.005631 -0.986046 0.010594 0.051247
    40 0.014898 -0.903521 -0.015942 -1.028794 0.009660 0.051438
    41 -0.586770 -1.264477 0.200161 0.221924 -1.275430 -2.979233
    42 1.569711 0.035243 0.016848 -0.019647 -0.007097 0.922310
    43 1.114041 0.040611 -0.005766 -0.028766 -0.034359 1.035400
    44 -0.045646 -0.072634 0.010491 0.230636 0.395471 1.618939
    45 -8.198365 -0.129847 -0.477722 1.563858 -0.037405 -0.062108
  time 13
    0 0.346066 -4.186922 -4.016521 1.527147 -0.037654 -1.522334
    1 5.535558 -1.455844 -0.000001 0.000000 0.000000 -1.364276
    2 6.967555 -0.456137 0.775243 1.570767 -1.566682 1.570854
    3 0.594653 3.125398 -0.000001 0.000000 0.000000 0.000000
    4 0.793143 -0.098690 0.439540 -1.570775 1.559439 1.570817
    5 0.793143 -0.098690 -0.474551 1.570775 1.582159 1.570775
    6 -0.205318 -0.032883 -0.000050 -1.570797 0.000000 0.000000
    7 -0.002752 -2.016952 -0.003287 0.000000 0.000000 0.000000
    8 4.516988 6.841382 -8.592994 5.744541 -1.258246 0.145711
    9 8.069888 1.141258 -0.372470 1.568712 -3.117379 0.217988
    10 -0.146142 -8.487017 -0.186168 0.324739 -0.184158 -0.131646
    11 -0.488518 -2.755602 -0.228260 -0.636514 -0.072434 -0.337320
    12 0.047700 -1.530573 0.014229 -1.481141 -0.125802 0.203368
    13 0.028786 -1.126514 -0.105143 -0.742955 -0.013303 0.014298
    14 0.250027 -2.820665 -0.238396 -0.418648 -0.123606 -0.157124
    15 -0.057572 -1.598510 0.030164 -1.580137 -0.056699 0.100860
    16 -0.034142 -1.160031 0.053531 -0.902405 0.008281 -0.023154
    17 0.957766 -2.746780 -0.090302 -0.138913 -0.159269 0.186081
    18 -0.033420 -1.393223 -0.022976 -0.746922 0.007634 -0.036734
    19 -0.022360 -0.961342 -0.004654 -0.883172 0.005525 -0.043001
    20 -1.180681 -2.507217 -0.193859 -0.314555 -0.083781 -0.213847
    21 -0.024967 -1.127840 0.017597 -1.431112 0.098765 0.048910
    22 -0.020057 -0.902687 0.025715 -0.805420 0.007514 -0.032334
    23 0.583510 -1.208996 0.197098 -0.016291 -1.086293 -0.690834
    24 1.481238 -0.200698 -0.049680 0.017733 0.168348 -0.720722
    25 0.987486 -0.214230 -0.006773 -0.101489 -0.020928 -1.227553
    26 0.120153 -0.050270 -0.054489 0.287569 3.110905 1.561085
    27 -4.239640 -5.891436 -13.458725 0.916431 -3.673201 1.259344
    28 0.018817 -8.434793 0.029699 0.237594 -0.517053 0.539926
    29 0.447953 -2.798986 -0.200443 -1.083108 -0.024750 0.321985
    30 -0.032909 -1.499736 0.028378 -1.405033 0.023334 -0.026879
    31 -0.027022 -1.115984 -0.028023 -0.967278 0.021752 -0.015208
    32 -0.249534 -2.846964 -0.174213 -0.927167 -0.009008 0.151859
    33 0.043235 -1.656596 0.072574 -1.315085 -0.020930 0.005777
    34 0.031729 -1.137392 0.051025 -1.375111 -0.015333 0.007761
    35 -0.963866 -2.785145 -0.085350 -0.990983 0.136737 -0.225412
    36 0.028479 -1.403067 -0.017167 -0.965960 -0.135474 0.127432
    37 0.021413 -0.942156 0.012233 -0.964436 -0.025335 -0.033641
    38 1.164475 -2.543940 -0.170330 -1.202160 -0.161088 0.388818
    39 0.024032 -1.140761 -0.005631 -0.986046 0.010594 0.051247
    40 0.014898 -0.903521 -0.015942 -1.028794 0.009660 0.051438
    41 -0.586770 -1.264477 0.200161 0.221924 -1.275430 -2.979233
    42 1.569711 0.035243 0.016848 -0.019647 -0.007097 0.922310
    43 1.114041 0.040611 -0.005766 -0.028766 -0.034359 1.035400
    44 -0.045646 -0.072634 0.010491 0.230636 0.395471 1.618939
    45 -8.190552 -0.192348 -0.477722 1.563666 -0.037465 -0.054187
  time 14
    0 0.205437 -4.167390 -4.012615 1.539126 -0.040624 -1.534225
    1 5.535558 -1.455844 -0.000001 0.000000 0.000000 -1.364276
    2 6.967555 -0.456137 0.775243 1.570767 -1.566682 1.570854
    3 0.594653 3.125398 -0.000001 0.000000 0.000000 0.000000
    4 0.793143 -0.098690 0.439540 -1.570775 1.559439 1.570817
    5 0.793143 -0.098690 -0.474551 1.570775 1.582159 1.570775
    6 -0.205318 -0.032883 -0.000050 -1.570797 0.000000 0.000000
    7 -0.002752 -2.016952 -0.003287 0.000000 0.000000 0.000000
    8 4.474018 6.817943 -8.577368 5.749692 -1.254486 0.134035
    9 8.065982 1.211573 -0.368563 1.568616 -3.117475 0.226394
    10 -0.146142 -8.487017 -0.190074 0.320530 -0.200089 -0.135191
    11 -0.488518 -2.755602 -0.228260 -0.636514 -0.072434 -0.337320
    12 0.047700 -1.530573 0.014229 -1.481141 -0.125802 0.203368
    13 0.028786 -1.126514 -0.105143 -0.742955 -0.013303 0.014298
    14 0.250027 -2.820665 -0.238396 -0.418648 -0.123606 -0.157124
    15 -0.057572 -1.598510 0.030164 -1.580137 -0.056699 0.100860
    16 -0.034142 -1.160031 0.053531 -0.902405 0.008281 -0.023154
    17 0.957766 -2.746780 -0.090302 -0.138913 -0.159269 0.186081
    18 -0.033420 -1.393223 -0.022976 -0.746922 0.007634 -0.036734
    19 -0.022360 -0.961342 -0.004654 -0.883172 0.005525 -0.043001
    20 -1.180681 -2.507217 -0.193859 -0.314555 -0.083781 -0.213847
    21 -0.024967 -1.127840 0.017597 -1.431112 0.098765 0.048910
    22 -0.020057 -0.902687 0.025715 -0.805420 0.007514 -0.032334
    23 0.583510 -1.208996 0.197098 -0.016291 -1.086293 -0.690834
    24 1.481238 -0.200698 -0.049680 0.017733 0.168348 -0.720722
    25 0.987486 -0.214230 -0.006773 -0.101489 -0.020928 -1.227553
    26 0.120153 -0.050270 -0.054489 0.287569 3.110905 1.561085
    27 -4.329486 -5.836747 -13.486070 0.923170 -3.670151 1.245815
    28 0.014910 -8.434793 0.033605 0.234903 -0.526255 0.539926
    29 0.447953 -2.798986 -0.200443 -1.083108 -0.024750 0.321985
    30 -0.032909 -1.499736 0.028378 -1.405033 0.023334 -0.026879
    31 -0.027022 -1.115984 -0.028023 -0.967278 0.021752 -0.015208
    32 -0.249534 -2.846964 -0.174213 -0.927167 -0.009008 0.151859
    33 0.043235 -1.656596 0.072574 -1.315085 -0.020930 0.005777
    34 0.031729 -1.137392 0.051025 -1.375111 -0.015333 0.007761
    35 -0.963866 -2.785145 -0.085350 -0.990983 0.136737 -0.225412
    36 0.028479 -1.403067 -0.017167 -0.965960 -0.135474 0.127432
    37 0.021413 -0.942156 0.012233 -0.964436 -0.025335 -0.033641
    38 1.164475 -2.543940 -0.170330 -1.202160 -0.161088 0.388818
    39 0.024032 -1.140761 -0.005631 -0.986046 0.010594 0.051247
    40 0.014898 -0.903521 -0.015942 -1.028794 0.009660 0.051438
    41 -0.586770 -1.264477 0.200161 0.221924 -1.275430 -2.979233
    42 1.569711 0.035243 0.016848 -0.019647 -0.007097 0.922310
    43 1.114041 0.040611 -0.005766 -0.028766 -0.034359 1.035400
    44 -0.045646 -0.072634 0.010491 0.230636 0.395471 1.618939
    45 -8.178833 -0.286101 -0.477722 1.563366 -0.037573 -0.042659
  time 15
    0 0.205437 -4.186922 -4.000896 1.565000 -0.033341 -1.546946
    1 5.535558 -1.455844 -0.000001 0.000000 0.000000 -1.364276
    2 6.967555 -0.456137 0.775243 1.570767 -1.566682 1.570854
    3 0.594653 3.125398 -0.000001 0.000000 0.000000 0.000000
    4 0.793143 -0.098690 0.439540 -1.570775 1.559439 1.570817
    5 0.793143 -0.098690 -0.474551 1.570775 1.582159 1.570775
    6 -0.205318 -0.032883 -0.000050 -1.570797 0.000000 0.000000
    7 -0.002752 -2.016952 -0.003287 0.000000 0.000000 0.000000
    8 4.509176 6.817943 -8.581275 5.722696 -1.253922 0.167627
    9 8.069888 1.117820 -0.372470 1.568712 -3.117284 0.215055
    10 -0.146142 -8.479205 -0.193980 0.307721 -0.215989 -0.162087
    11 -0.488518 -2.755602 -0.228260 -0.636514 -0.072434 -0.337320
    12 0.047700 -1.530573 0.014229 -1.481141 -0.125802 0.203368
    13 0.028786 -1.126514 -0.105143 -0.742955 -0.013303 0.014298
    14 0.250027 -2.820665 -0.238396 -0.418648 -0.123606 -0.157124
    15 -0.057572 -1.598510 0.030164 -1.580137 -0.056699 0.100860
    16 -0.034142 -1.160031 0.053531 -0.902405 0.008281 -0.023154
    17 0.957766 -2.746780 -0.090302 -0.138913 -0.159269 0.186081
    18 -0.033420 -1.393223 -0.022976 -0.746922 0.007634 -0.036734
    19 -0.022360 -0.961342 -0.004654 -0.883172 0.005525 -0.043001
    20 -1.180681 -2.507217 -0.193859 -0.314555 -0.083781 -0.213847
    21 -0.024967 -1.127840 0.017597 -1.431112 0.098765 0.048910
    22 -0.020057 -0.902687 0.025715 -0.805420 0.007514 -0.032334
    23 0.583510 -1.208996 0.197098 -0.016291 -1.086293 -0.690834
    24 1.481238 -0.200698 -0.049680 0.017733 0.168348 -0.720722
    25 0.987486 -0.214230 -0.006773 -0.101489 -0.020928 -1.227553
    26 0.120153 -0.050270 -0.054489 0.287569 3.110905 1.561085
    27 -4.352925 -5.785964 -13.529040 0.918213 -3.673868 1.243434
    28 0.014910 -8.438699 0.033605 0.257544 -0.549120 0.536169
    29 0.447953 -2.798986 -0.200443 -1.083108 -0.024750 0.321985
    30 -0.032909 -1.499736 0.028378 -1.405033 0.023334 -0.026879
    31 -0.027022 -1.115984 -0.028023 -0.967278 0.021752 -0.015208
    32 -0.249534 -2.846964 -0.174213 -0.927167 -0.009008 0.151859
    33 0.043235 -1.656596 0.072574 -1.315085 -0.020930 0.005777
    34 0.031729 -1.137392 0.051025 -1.375111 -0.015333 0.007761
    35 -0.963866 -2.785145 -0.085350 -0.990983 0.136737 -0.225412
    36 0.028479 -1.403067 -0.017167 -0.965960 -0.135474 0.127432
    37 0.021413 -0.942156 0.012233 -0.964436 -0.025335 -0.033641
    38 1.164475 -2.543940 -0.170330 -1.202160 -0.161088 0.388818
    39 0.024032 -1.140761 -0.005631 -0.986046 0.010594 0.051247
    40 0.014898 -0.903521 -0.015942 -1.028794 0.009660 0.051438
    41 -0.586770 -1.264477 0.200161 0.221924 -1.275430 -2.979233
    42 1.569711 0.035243 0.016848 -0.019647 -0.007097 0.922310
    43 1.114041 0.040611 -0.005766 -0.028766 -0.034359 1.035400
    44 -0.045646 -0.072634 0.010491 0.230636 0.395471 1.618939
    45 -8.171021 -0.352510 -0.477722 1.563163 -0.037633 -0.034582
  time 16
    0 0.228875 -4.202548 -3.989177 -4.701843 -0.027591 -1.554302
    1 5.535558 -1.455844 -0.000001 0.000000 0.000000 -1.364276
    2 6.967555 -0.456137 0.775243 1.570767 -1.566682 1.570854
    3 0.594653 3.125398 -0.000001 0.000000 0.000000 0.000000
    4 0.793143 -0.098690 0.439540 -1.570775 1.559439 1.570817
    5 0.793143 -0.098690 -0.474551 1.570775 1.582159 1.570775
    6 -0.205318 -0.032883 -0.000050 -1.570797 0.000000 0.000000
    7 -0.002752 -2.016952 -0.003287 0.000000 0.000000 0.000000
    8 4.536520 6.817943 -8.589087 5.701996 -1.253797 0.193945
    9 8.073794 1.043599 -0.372470 1.568807 -3.117188 0.205932
    10 -0.146142 -8.475298 -0.193980 0.298984 -0.224707 -0.180579
    11 -0.488518 -2.755602 -0.228260 -0.636514 -0.072434 -0.337320
    12 0.047700 -1.530573 0.014229 -1.481141 -0.125802 0.203368
    13 0.028786 -1.126514 -0.105143 -0.742955 -0.013303 0.014298
    14 0.250027 -2.820665 -0.238396 -0.418648 -0.123606 -0.157124
    15 -0.057572 -1.598510 0.030164 -1.580137 -0.056699 0.100860
    16 -0.034142 -1.160031 0.053531 -0.902405 0.008281 -0.023154
    17 0.957766 -2.746780 -0.090302 -0.138913 -0.159269 0.186081
    18 -0.033420 -1.393223 -0.022976 -0.746922 0.007634 -0.036734
    19 -0.022360 -0.961342 -0.004654 -0.883172 0.005525 -0.043001
    20 -1.180681 -2.507217 -0.193859 -0.314555 -0.083781 -0.213847
    21 -0.024967 -1.127840 0.017597 -1.431112 0.098765 0.048910
    22 -0.020057 -0.902687 0.025715 -0.805420 0.007514 -0.032334
    23 0.583510 -1.208996 0.197098 -0.016291 -1.086293 -0.690834
    24 1.481238 -0.200698 -0.049680 0.017733 0.168348 -0.720722
    25 0.987486 -0.214230 -0.006773 -0.101489 -0.020928 -1.227553
    26 0.120153 -0.050270 -0.054489 0.287569 3.110905 1.561085
    27 -4.360737 -5.762526 -13.556384 0.913953 -3.676822 1.243910
    28 0.011004 -8.442606 0.037511 0.274046 -0.563509 0.533544
    29 0.447953 -2.798986 -0.200443 -1.083108 -0.024750 0.321985
    30 -0.032909 -1.499736 0.028378 -1.405033 0.023334 -0.026879
    31 -0.027022 -1.115984 -0.028023 -0.967278 0.021752 -0.015208
    32 -0.249534 -2.846964 -0.174213 -0.927167 -0.009008 0.151859
    33 0.043235 -1.656596 0.072574 -1.315085 -0.020930 0.005777
    34 0.031729 -1.137392 0.051025 -1.375111 -0.015333 0.007761
    35 -0.963866 -2.785145 -0.085350 -0.990983 0.136737 -0.225412
    36 0.028479 -1.403067 -0.017167 -0.965960 -0.135474 0.127432
    37 0.021413 -0.942156 0.012233 -0.964436 -0.025335 -0.033641
    38 1.164475 -2.543940 -0.170330 -1.202160 -0.161088 0.388818
    39 0.024032 -1.140761 -0.005631 -0.986046 0.010594 0.051247
    40 0.014898 -0.903521 -0.015942 -1.028794 0.009660 0.051438
    41 -0.586770 -1.264477 0.200161 0.221924 -1.275430 -2.979233
    42 1.569711 0.035243 0.016848 -0.019647 -0.007097 0.922310
    43 1.114041 0.040611 -0.005766 -0.028766 -0.034359 1.035400
    44 -0.045646 -0.072634 0.010491 0.230636 0.395471 1.618939
    45 -8.167114 -0.387667 -0.477722 1.563055 -0.037669 -0.030504
  time 17
    0 0.224969 -4.206454 -3.981364 -4.699638 -0.026824 -1.556459
    1 5.535558 -1.455844 -0.000001 0.000000 0.000000 -1.364276
    2 6.967555 -0.456137 0.775243 1.570767 -1.566682 1.570854
    3 0.594653 3.125398 -0.000001 0.000000 0.000000 0.000000
    4 0.793143 -0.098690 0.439540 -1.570775 1.559439 1.570817
    5 0.793143 -0.098690 -0.474551 1.570775 1.582159 1.570775
    6 -0.205318 -0.032883 -0.000050 -1.570797 0.000000 0.000000
    7 -0.002752 -2.016952 -0.003287 0.000000 0.000000 0.000000
    8 4.540427 6.814037 -8.585181 5.698371 -1.253295 0.197965
    9 8.073794 1.035786 -0.372470 1.568903 -3.117093 0.205019
    10 -0.146142 -8.471392 -0.193980 0.297096 -0.226212 -0.183539
    11 -0.488518 -2.755602 -0.228260 -0.636514 -0.072434 -0.337320
    12 0.047700 -1.530573 0.014229 -1.481141 -0.125802 0.203368
    13 0.028786 -1.126514 -0.105143 -0.742955 -0.013303 0.014298
    14 0.250027 -2.820665 -0.238396 -0.418648 -0.123606 -0.157124
    15 -0.057572 -1.598510 0.030164 -1.580137 -0.056699 0.100860
    16 -0.034142 -1.160031 0.053531 -0.902405 0.008281 -0.023154
    17 0.957766 -2.746780 -0.090302 -0.138913 -0.159269 0.186081
    18 -0.033420 -1.393223 -0.022976 -0.746922 0.007634 -0.036734
    19 -0.022360 -0.961342 -0.004654 -0.883172 0.005525 -0.043001
    20 -1.180681 -2.507217 -0.193859 -0.314555 -0.083781 -0.213847
    21 -0.024967 -1.127840 0.017597 -1.431112 0.098765 0.048910
    22 -0.020057 -0.902687 0.025715 -0.805420 0.007514 -0.032334
    23 0.583510 -1.208996 0.197098 -0.016291 -1.086293 -0.690834
    24 1.481238 -0.200698 -0.049680 0.017733 0.168348 -0.720722
    25 0.987486 -0.214230 -0.006773 -0.101489 -0.020928 -1.227553
    26 0.120153 -0.050270 -0.054489 0.287569 3.110905 1.561085
    27 -4.368550 -5.754713 -13.560291 0.914262 -3.676727 1.242957
    28 0.011004 -8.446512 0.037511 0.275430 -0.565210 0.534088
    29 0.447953 -2.798986 -0.200443 -1.083108 -0.024750 0.321985
    30 -0.032909 -1.499736 0.028378 -1.405033 0.023334 -0.026879
    31 -0.027022 -1.115984 -0.028023 -0.967278 0.021752 -0.015208
    32 -0.249534 -2.846964 -0.174213 -0.927167 -0.009008 0.151859
    33 0.043235 -1.656596 0.072574 -1.315085 -0.020930 0.005777
    34 0.031729 -1.137392 0.051025 -1.375111 -0.015333 0.007761
    35 -0.963866 -2.785145 -0.085350 -0.990983 0.136737 -0.225412
    36 0.028479 -1.403067 -0.017167 -0.965960 -0.135474 0.127432
    37 0.021413 -0.942156 0.012233 -0.964436 -0.025335 -0.033641
    38 1.164475 -2.543940 -0.170330 -1.202160 -0.161088 0.388818
    39 0.024032 -1.140761 -0.005631 -0.986046 0.010594 0.051247
    40 0.014898 -0.903521 -0.015942 -1.028794 0.009660 0.051438
    41 -0.586770 -1.264477 0.200161 0.221924 -1.275430 -2.979233
    42 1.569711 0.035243 0.016848 -0.019647 -0.007097 0.922310
    43 1.114041 0.040611 -0.005766 -0.028766 -0.034359 1.035400
    44 -0.045646 -0.072634 0.010491 0.230636 0.395471 1.618939
    45 -8.163208 -0.395480 -0.477722 1.563031 -0.037681 -0.029249
  time 18
    0 0.224969 -4.206454 -3.973551 -4.699638 -0.026537 -1.557454
    1 5.535558 -1.455844 -0.000001 0.000000 0.000000 -1.364276
    2 6.967555 -0.456137 0.775243 1.570767 -1.566682 1.570854
    3 0.594653 3.125398 -0.000001 0.000000 0.000000 0.000000
    4 0.793143 -0.098690 0.439540 -1.570775 1.559439 1.570817
    5 0.793143 -0.098690 -0.474551 1.570775 1.582159 1.570775
    6 -0.205318 -0.032883 -0.000050 -1.570797 0.000000 0.000000
    7 -0.002752 -2.016952 -0.003287 0.000000 0.000000 0.000000
    8 4.540427 6.814037 -8.585181 5.696177 -1.252919 0.200358
    9 8.073794 1.031880 -0.372470 1.568903 -3.117093 0.204498
    10 -0.146142 -8.471392 -0.193980 0.296118 -0.225992 -0.184672
    11 -0.488518 -2.755602 -0.228260 -0.636514 -0.072434 -0.337320
    12 0.047700 -1.530573 0.014229 -1.481141 -0.125802 0.203368
    13 0.028786 -1.126514 -0.105143 -0.742955 -0.013303 0.014298
    14 0.250027 -2.820665 -0.238396 -0.418648 -0.123606 -0.157124
    15 -0.057572 -1.598510 0.030164 -1.580137 -0.056699 0.100860
    16 -0.034142 -1.160031 0.053531 -0.902405 0.008281 -0.023154
    17 0.957766 -2.746780 -0.090302 -0.138913 -0.159269 0.186081
    18 -0.033420 -1.393223 -0.022976 -0.746922 0.007634 -0.036734
    19 -0.022360 -0.961342 -0.004654 -0.883172 0.005525 -0.043001
    20 -1.180681 -2.507217 -0.193859 -0.314555 -0.083781 -0.213847
    21 -0.024967 -1.127840 0.017597 -1.431112 0.098765 0.048910
    22 -0.020057 -0.902687 0.025715 -0.805420 0.007514 -0.032334
    23 0.583510 -1.208996 0.197098 -0.016291 -1.086314 -0.690834
    24 1.481238 -0.200698 -0.049680 0.017733 0.168348 -0.720722
    25 0.987486 -0.214230 -0.006773 -0.101489 -0.020928 -1.227553
    26 0.120153 -0.050270 -0.054489 0.287569 3.110905 1.561085
    27 -4.368550 -5.754713 -13.560291 0.914805 -3.676346 1.242672
    28 0.011004 -8.446512 0.037511 0.275229 -0.565015 0.535129
    29 0.447953 -2.798986 -0.200443 -1.083108 -0.024750 0.321985
    30 -0.032909 -1.499736 0.028378 -1.405033 0.023334 -0.026879
    31 -0.027022 -1.115984 -0.028023 -0.967278 0.021752 -0.015208
    32 -0.249534 -2.846964 -0.174213 -0.927167 -0.009008 0.151859
    33 0.043235 -1.656596 0.072574 -1.315085 -0.020930 0.005777
    34 0.031729 -1.137392 0.051025 -1.375111 -0.015333 0.007761
    35 -0.963866 -2.785145 -0.085350 -0.990983 0.136737 -0.225412
    36 0.028479 -1.403067 -0.017167 -0.965960 -0.135474 0.127432
    37 0.021413 -0.942156 0.012233 -0.964436 -0.025335 -0.033641
    38 1.164475 -2.543940 -0.170330 -1.202160 -0.161088 0.388818
    39 0.024032 -1.140761 -0.005631 -0.986046 0.010594 0.051247
    40 0.014898 -0.903521 -0.015942 -1.028794 0.009660 0.051438
    41 -0.586770 -1.264477 0.200161 0.221924 -1.275430 -2.979233
    42 1.569711 0.035243 0.016848 -0.019647 -0.007097 0.922310
    43 1.114041 0.040611 -0.005766 -0.028766 -0.034359 1.035400
    44 -0.045646 -0.072634 0.010491 0.230636 0.395471 1.618939
    45 -8.163208 -0.399386 -0.477722 1.563019 -0.037681 -0.028936
  time 19
    0 0.228875 -4.206454 -3.969645 -4.701363 -0.026537 -1.557565
    1 5.535558 -1.455844 -0.000001 0.000000 0.000000 -1.364276
    2 6.967555 -0.456137 0.775243 1.570767 -1.566682 1.570854
    3 0.594653 3.125398 -0.000001 0.000000 0.000000 0.000000
    4 0.793143 -0.098690 0.439540 -1.570775 1.559439 1.570817
    5 0.793143 -0.098690 -0.474551 1.570775 1.582159 1.570775
    6 -0.205318 -0.032883 -0.000050 -1.570797 0.000000 0.000000
    7 -0.002752 -2.016952 -0.003287 0.000000 0.000000 0.000000
    8 4.536520 6.814037 -8.585181 5.695032 -1.252669 0.201506
    9 8.073794 1.027974 -0.372470 1.568903 -3.117093 0.204302
    10 -0.146142 -8.471392 -0.193980 0.295822 -0.224472 -0.184416
    11 -0.488518 -2.755602 -0.228260 -0.636514 -0.072434 -0.337320
    12 0.047700 -1.530573 0.014229 -1.481141 -0.125802 0.203368
    13 0.028786 -1.126514 -0.105143 -0.742955 -0.013303 0.014298
    14 0.250027 -2.820665 -0.238396 -0.418648 -0.123606 -0.157124
    15 -0.057572 -1.598510 0.030164 -1.580137 -0.056699 0.100860
    16 -0.034142 -1.160031 0.053531 -0.902405 0.008281 -0.023154
    17 0.957766 -2.746780 -0.090302 -0.138913 -0.159269 0.186081
    18 -0.033420 -1.393223 -0.022976 -0.746922 0.007634 -0.036734
    19 -0.022360 -0.961342 -0.004654 -0.883172 0.005525 -0.043001
    20 -1.180681 -2.507217 -0.193859 -0.314555 -0.083781 -0.213847
    21 -0.024967 -1.127840 0.017597 -1.431112 0.098765 0.048910
    22 -0.020057 -0.902687 0.025715 -0.805420 0.007514 -0.032334
    23 0.583510 -1.208996 0.197098 -0.016291 -1.086293 -0.690834
    24 1.481238 -0.200698 -0.049680 0.017733 0.168348 -0.720722
    25 0.987486 -0.214230 -0.006773 -0.101489 -0.020928 -1.227553
    26 0.120153 -0.050270 -0.054489 0.287569 3.110905 1.561085
    27 -4.368550 -5.758620 -13.556384 0.915502 -3.675774 1.242767
    28 0.011004 -8.442606 0.037511 0.273820 -0.563286 0.536486
    29 0.447953 -2.798986 -0.200443 -1.083108 -0.024750 0.321985
    30 -0.032909 -1.499736 0.028378 -1.405033 0.023334 -0.026879
    31 -0.027022 -1.115984 -0.028023 -0.967278 0.021752 -0.015208
    32 -0.249534 -2.846964 -0.174213 -0.927167 -0.009008 0.151859
    33 0.043235 -1.656596 0.072574 -1.315085 -0.020930 0.005777
    34 0.031729 -1.137392 0.051025 -1.375111 -0.015333 0.007761
    35 -0.963866 -2.785145 -0.085350 -0.990983 0.136737 -0.225412
    36 0.028479 -1.403067 -0.017167 -0.965960 -0.135474 0.127432
    37 0.021413 -0.942156 0.012233 -0.964436 -0.025335 -0.033641
    38 1.164475 -2.543940 -0.170330 -1.202160 -0.161088 0.388818
    39 0.024032 -1.140761 -0.005631 -0.986046 0.010594 0.051247
    40 0.014898 -0.903521 -0.015942 -1.028794 0.009660 0.051438
    41 -0.586770 -1.264477 0.200161 0.221924 -1.275430 -2.979233
    42 1.569711 0.035243 0.016848 -0.019647 -0.007097 0.922310
    43 1.114041 0.040611 -0.005766 -0.028766 -0.034359 1.035400
    44 -0.045646 -0.072634 0.010491 0.230636 0.395471 1.618939
    45 -8.163208 -0.395480 -0.477722 1.563031 -0.037681 -0.029328
  time 20
    0 0.240594 -4.206454 -3.961832 -4.704238 -0.026728 -1.557067
    1 5.535558 -1.455844 -0.000001 0.000000 0.000000 -1.364276
    2 6.967555 -0.456137 0.775243 1.570767 -1.566682 1.570854
    3 0.594653 3.125398 -0.000001 0.000000 0.000000 0.000000
    4 0.793143 -0.098690 0.439540 -1.570775 1.559439 1.570817
    5 0.793143 -0.098690 -0.474551 1.570775 1.582159 1.570775
    6 -0.205318 -0.032883 -0.000050 -1.570797 0.000000 0.000000
    7 -0.002752 -2.016952 -0.003287 0.000000 0.000000 0.000000
    8 4.536520 6.810131 -8.585181 5.694746 -1.252543 0.201697
    9 8.073794 1.031880 -0.372470 1.568903 -3.117093 0.204302
    10 -0.146142 -8.471392 -0.193980 0.296004 -0.222025 -0.183137
    11 -0.488518 -2.755602 -0.228260 -0.636514 -0.072434 -0.337320
    12 0.047700 -1.530573 0.014229 -1.481141 -0.125802 0.203368
    13 0.028786 -1.126514 -0.105143 -0.742955 -0.013303 0.014298
    14 0.250027 -2.820665 -0.238396 -0.418648 -0.123606 -0.157124
    15 -0.057572 -1.598510 0.030164 -1.580137 -0.056699 0.100860
    16 -0.034142 -1.160031 0.053531 -0.902405 0.008281 -0.023154
    17 0.957766 -2.746780 -0.090302 -0.138913 -0.159269 0.186081
    18 -0.033420 -1.393223 -0.022976 -0.746922 0.007634 -0.036734
    19 -0.022360 -0.961342 -0.004654 -0.883172 0.005525 -0.043001
    20 -1.180681 -2.507217 -0.193859 -0.314555 -0.083781 -0.213847
    21 -0.024967 -1.127840 0.017597 -1.431112 0.098765 0.048910
    22 -0.020057 -0.902687 0.025715 -0.805420 0.007514 -0.032334
    23 0.583510 -1.208996 0.197098 -0.016291 -1.086293 -0.690834
    24 1.481238 -0.200698 -0.049680 0.017733 0.168348 -0.720722
    25 0.987486 -0.214230 -0.006773 -0.101489 -0.020928 -1.227553
    26 0.120153 -0.050270 -0.054489 0.287569 3.110905 1.561085
    27 -4.364644 -5.766432 -13.552478 0.916276 -3.675202 1.243243
    28 0.011004 -8.442606 0.037511 0.271581 -0.560553 0.538070
    29 0.447953 -2.798986 -0.200443 -1.083108 -0.024750 0.321985
    30 -0.032909 -1.499736 0.028378 -1.405033 0.023334 -0.026879
    31 -0.027022 -1.115984 -0.028023 -0.967278 0.021752 -0.015208
    32 -0.249534 -2.846964 -0.174213 -0.927167 -0.009008 0.151859
    33 0.043235 -1.656596 0.072574 -1.315085 -0.020930 0.005777
    34 0.031729 -1.137392 0.051025 -1.375111 -0.015333 0.007761
    35 -0.963866 -2.785145 -0.085350 -0.990983 0.136737 -0.225412
    36 0.028479 -1.403067 -0.017167 -0.965960 -0.135474 0.127432
    37 0.021413 -0.942156 0.012233 -0.964436 -0.025335 -0.033641
    38 1.164475 -2.543940 -0.170330 -1.202160 -0.161088 0.388818
    39 0.024032 -1.140761 -0.005631 -0.986046 0.010594 0.051247
    40 0.014898 -0.903521 -0.015942 -1.028794 0.009660 0.051438
    41 -0.586770 -1.264477 0.200161 0.221924 -1.275430 -2.979233
    42 1.569711 0.035243 0.016848 -0.019647 -0.007097 0.922310
    43 1.114041 0.040611 -0.005766 -0.028766 -0.034359 1.035400
    44 -0.045646 -0.072634 0.010491 0.230636 0.395471 1.618939
    45 -8.167114 -0.387667 -0.477722 1.563055 -0.037669 -0.030269
  time 21
    0 0.248407 -4.206454 -3.954020 1.575350 -0.027112 -1.556182
    1 5.535558 -1.455844 -0.000001 0.000000 0.000000 -1.364276
    2 6.967555 -0.456137 0.775243 1.570767 -1.566682 1.570854
    3 0.594653 3.125398 -0.000001 0.000000 0.000000 0.000000
    4 0.793143 -0.098690 0.439540 -1.570775 1.559439 1.570817
    5 0.793143 -0.098690 -0.474551 1.570775 1.582159 1.570775
    6 -0.205318 -0.032883 -0.000050 -1.570797 0.000000 0.000000
    7 -0.002752 -2.016952 -0.003287 0.000000 0.000000 0.000000
    8 4.536520 6.810131 -8.585181 5.694842 -1.252418 0.201315
    9 8.073794 1.031880 -0.372470 1.568903 -3.117093 0.204498
    10 -0.146142 -8.471392 -0.193980 0.296482 -0.219062 -0.181273
    11 -0.488518 -2.755602 -0.228260 -0.636514 -0.072434 -0.337320
    12 0.047700 -1.530573 0.014229 -1.481141 -0.125802 0.203368
    13 0.028786 -1.126514 -0.105143 -0.742955 -0.013303 0.014298
    14 0.250027 -2.820665 -0.238396 -0.418648 -0.123606 -0.157124
    15 -0.057572 -1.598510 0.030164 -1.580137 -0.056699 0.100860
    16 -0.034142 -1.160031 0.053531 -0.902405 0.008281 -0.023154
    17 0.957766 -2.746780 -0.090302 -0.138913 -0.159269 0.186081
    18 -0.033420 -1.393223 -0.022976 -0.746922 0.007634 -0.036734
    19 -0.022360 -0.961342 -0.004654 -0.883172 0.005525 -0.043001
    20 -1.180681 -2.507217 -0.193859 -0.314555 -0.083781 -0.213847
    21 -0.024967 -1.127840 0.017597 -1.431112 0.098765 0.048910
    22 -0.020057 -0.902687 0.025715 -0.805420 0.007514 -0.032334
    23 0.583510 -1.208996 0.197098 -0.016291 -1.086293 -0.690834
    24 1.481238 -0.200698 -0.049680 0.017733 0.168348 -0.720722
    25 0.987486 -0.214230 -0.006773 -0.101489 -0.020928 -1.227553
    26 0.120153 -0.050270 -0.054489 0.287569 3.110905 1.561085
    27 -4.360737 -5.774245 -13.544665 0.917051 -3.674440 1.243910
    28 0.011004 -8.442606 0.037511 0.268889 -0.557207 0.539745
    29 0.447953 -2.798986 -0.200443 -1.083108 -0.024750 0.321985
    30 -0.032909 -1.499736 0.028378 -1.405033 0.023334 -0.026879
    31 -0.027022 -1.115984 -0.028023 -0.967278 0.021752 -0.015208
    32 -0.249534 -2.846964 -0.174213 -0.927167 -0.009008 0.151859
    33 0.043235 -1.656596 0.072574 -1.315085 -0.020930 0.005777
    34 0.031729 -1.137392 0.051025 -1.375111 -0.015333 0.007761
    35 -0.963866 -2.785145 -0.085350 -0.990983 0.136737 -0.225412
    36 0.028479 -1.403067 -0.017167 -0.965960 -0.135474 0.127432
    37 0.021413 -0.942156 0.012233 -0.964436 -0.025335 -0.033641
    38 1.164475 -2.543940 -0.170330 -1.202160 -0.161088 0.388818
    39 0.024032 -1.140761 -0.005631 -0.986046 0.010594 0.051247
    40 0.014898 -0.903521 -0.015942 -1.028794 0.009660 0.051438
    41 -0.586770 -1.264477 0.200161 0.221924 -1.275430 -2.979233
    42 1.569711 0.035243 0.016848 -0.019647 -0.007097 0.922310
    43 1.114041 0.040611 -0.005766 -0.028766 -0.034359 1.035400
    44 -0.045646 -0.072634 0.010491 0.230636 0.395471 1.618939
    45 -8.167114 -0.379854 -0.477722 1.563091 -0.037657 -0.031524
  time 22
    0 0.260126 -4.206454 -3.950113 1.571612 -0.027495 -1.555187
    1 5.535558 -1.455844 -0.000001 0.000000 0.000000 -1.364276
    2 6.967555 -0.456137 0.775243 1.570767 -1.566682 1.570854
    3 0.594653 3.125398 -0.000001 0.000000 0.000000 0.000000
    4 0.793143 -0.098690 0.439540 -1.570775 1.559439 1.570817
    5 0.793143 -0.098690 -0.474551 1.570775 1.582159 1.570775
    6 -0.205318 -0.032883 -0.000050 -1.570797 0.000000 0.000000
    7 -0.002752 -2.016952 -0.003287 0.000000 0.000000 0.000000
    8 4.536520 6.810131 -8.585181 5.695128 -1.252355 0.200932
    9 8.073794 1.031880 -0.372470 1.568903 -3.117093 0.204693
    10 -0.146142 -8.475298 -0.193980 0.297050 -0.215957 -0.179300
    11 -0.488518 -2.755602 -0.228260 -0.636514 -0.072434 -0.337320
    12 0.047700 -1.530573 0.014229 -1.481141 -0.125802 0.203368
    13 0.028786 -1.126514 -0.105143 -0.742955 -0.013303 0.014298
    14 0.250027 -2.820665 -0.238396 -0.418648 -0.123606 -0.157124
    15 -0.057572 -1.598510 0.030164 -1.580137 -0.056699 0.100860
    16 -0.034142 -1.160031 0.053531 -0.902405 0.008281 -0.023154
    17 0.957766 -2.746780 -0.090302 -0.138913 -0.159269 0.186081
    18 -0.033420 -1.393223 -0.022976 -0.746922 0.007634 -0.036734
    19 -0.022360 -0.961342 -0.004654 -0.883172 0.005525 -0.043001
    20 -1.180681 -2.507217 -0.193859 -0.314555 -0.083781 -0.213847
    21 -0.024967 -1.127840 0.017597 -1.431112 0.098765 0.048910
    22 -0.020057 -0.902687 0.025715 -0.805420 0.007514 -0.032334
    23 0.583510 -1.208996 0.197098 -0.016291 -1.086293 -0.690834
    24 1.481238 -0.200698 -0.049680 0.017733 0.168348 -0.720722
    25 0.987486 -0.214230 -0.006773 -0.101489 -0.020928 -1.227553
    26 0.120153 -0.050270 -0.054489 0.287569 3.110905 1.561085
    27 -4.352925 -5.782058 -13.536853 0.917903 -3.673772 1.244577
    28 0.011004 -8.442606 0.033605 0.266072 -0.553693 0.541465
    29 0.447953 -2.798986 -0.200443 -1.083108 -0.024750 0.321985
    30 -0.032909 -1.499736 0.028378 -1.405033 0.023334 -0.026879
    31 -0.027022 -1.115984 -0.028023 -0.967278 0.021752 -0.015208
    32 -0.249534 -2.846964 -0.174213 -0.927167 -0.009008 0.151859
    33 0.043235 -1.656596 0.072574 -1.315085 -0.020930 0.005777
    34 0.031729 -1.137392 0.051025 -1.375111 -0.015333 0.007761
    35 -0.963866 -2.785145 -0.085350 -0.990983 0.136737 -0.225412
    36 0.028479 -1.403067 -0.017167 -0.965960 -0.135474 0.127432
    37 0.021413 -0.942156 0.012233 -0.964436 -0.025335 -0.033641
    38 1.164475 -2.543940 -0.170330 -1.202160 -0.161088 0.388818
    39 0.024032 -1.140761 -0.005631 -0.986046 0.010594 0.051247
    40 0.014898 -0.903521 -0.015942 -1.028794 0.009660 0.051438
    41 -0.586770 -1.264477 0.200161 0.221924 -1.275430 -2.979233
    42 1.569711 0.035243 0.016848 -0.019647 -0.007097 0.922310
    43 1.114041 0.040611 -0.005766 -0.028766 -0.034359 1.035400
    44 -0.045646 -0.072634 0.010491 0.230636 0.395471 1.618939
    45 -8.167114 -0.368135 -0.477722 1.563127 -0.037645 -0.032857
  time 23
    0 0.267939 -4.206454 -3.942300 1.568258 -0.027783 -1.554412
    1 5.535558 -1.455844 -0.000001 0.000000 0.000000 -1.364276
    2 6.967555 -0.456137 0.775243 1.570767 -1.566682 1.570854
    3 0.594653 3.125398 -0.000001 0.000000 0.000000 0.000000
    4 0.793143 -0.098690 0.439540 -1.570775 1.559439 1.570817
    5 0.793143 -0.098690 -0.474551 1.570775 1.582159 1.570775
    6 -0.205318 -0.032883 -0.000050 -1.570797 0.000000 0.000000
    7 -0.002752 -2.016952 -0.003287 0.000000 0.000000 0.000000
    8 4.532614 6.810131 -8.585181 5.695128 -1.252230 0.200740
    9 8.073794 1.035786 -0.372470 1.568903 -3.117093 0.204824
    10 -0.146142 -8.475298 -0.193980 0.297483 -0.213119 -0.177582
    11 -0.488518 -2.755602 -0.228260 -0.636514 -0.072434 -0.337320
    12 0.047700 -1.530573 0.014229 -1.481141 -0.125802 0.203368
    13 0.028786 -1.126514 -0.105143 -0.742955 -0.013303 0.014298
    14 0.250027 -2.820665 -0.238396 -0.418648 -0.123606 -0.157124
    15 -0.057572 -1.598510 0.030164 -1.580137 -0.056699 0.100860
    16 -0.034142 -1.160031 0.053531 -0.902405 0.008281 -0.023154
    17 0.957766 -2.746780 -0.090302 -0.138913 -0.159269 0.186081
    18 -0.033420 -1.393223 -0.022976 -0.746922 0.007634 -0.036734
    19 -0.022360 -0.961342 -0.004654 -0.883172 0.005525 -0.043001
    20 -1.180681 -2.507217 -0.193859 -0.314555 -0.083781 -0.213847
    21 -0.024967 -1.127840 0.017597 -1.431112 0.098765 0.048910
    22 -0.020057 -0.902687 0.025715 -0.805420 0.007514 -0.032334
    23 0.583510 -1.208996 0.197098 -0.016291 -1.086293 -0.690834
    24 1.481238 -0.200698 -0.049680 0.017733 0.168348 -0.720722
    25 0.987486 -0.214230 -0.006773 -0.101489 -0.020928 -1.227553
    26 0.120153 -0.050270 -0.054489 0.287569 3.110905 1.561085
    27 -4.349018 -5.789871 -13.529040 0.918755 -3.673105 1.245149
    28 0.011004 -8.442606 0.033605 0.263531 -0.550487 0.543094
    29 0.447953 -2.798986 -0.200443 -1.083108 -0.024750 0.321985
    30 -0.032909 -1.499736 0.028378 -1.405033 0.023334 -0.026879
    31 -0.027022 -1.115984 -0.028023 -0.967278 0.021752 -0.015208
    32 -0.249534 -2.846964 -0.174213 -0.927167 -0.009008 0.151859
    33 0.043235 -1.656596 0.072574 -1.315085 -0.020930 0.005777
    34 0.031729 -1.137392 0.051025 -1.375111 -0.015333 0.007761
    35 -0.963866 -2.785145 -0.085350 -0.990983 0.136737 -0.225412
    36 0.028479 -1.403067 -0.017167 -0.965960 -0.135474 0.127432
    37 0.021413 -0.942156 0.012233 -0.964436 -0.025335 -0.033641
    38 1.164475 -2.543940 -0.170330 -1.202160 -0.161088 0.388818
    39 0.024032 -1.140761 -0.005631 -0.986046 0.010594 0.051247
    40 0.014898 -0.903521 -0.015942 -1.028794 0.009660 0.051438
    41 -0.586770 -1.264477 0.200161 0.221924 -1.275430 -2.979233
    42 1.569711 0.035243 0.016848 -0.019647 -0.007097 0.922310
    43 1.114041 0.040611 -0.005766 -0.028766 -0.034359 1.035400
    44 -0.045646 -0.072634 0.010491 0.230636 0.395471 1.618939
    45 -8.171021 -0.356416 -0.477722 1.563151 -0.037633 -0.034033
  time 24
    0 0.275751 -4.206454 -3.934488 1.565766 -0.027974 -1.554025
    1 5.535558 -1.455844 -0.000001 0.000000 0.000000 -1.364276
    2 6.967555 -0.456137 0.775243 1.570767 -1.566682 1.570854
    3 0.594653 3.125398 -0.000001 0.000000 0.000000 0.000000
    4 0.793143 -0.098690 0.439540 -1.570775 1.559439 1.570817
    5 0.793143 -0.098690 -0.474551 1.570775 1.582159 1.570775
    6 -0.205318 -0.032883 -0.000050 -1.570797 0.000000 0.000000
    7 -0.002752 -2.016952 -0.003287 0.000000 0.000000 0.000000
    8 4.532614 6.810131 -8.581275 5.694651 -1.252042 0.201219
    9 8.073794 1.031880 -0.372470 1.568903 -3.117093 0.204759
    10 -0.146142 -8.475298 -0.193980 0.297551 -0.210940 -0.176596
    11 -0.488518 -2.755602 -0.228260 -0.636514 -0.072434 -0.337320
    12 0.047700 -1.530573 0.014229 -1.481141 -0.125802 0.203368
    13 0.028786 -1.126514 -0.105143 -0.742955 -0.013303 0.014298
    14 0.250027 -2.820665 -0.238396 -0.418648 -0.123606 -0.157124
    15 -0.057572 -1.598510 0.030164 -1.580137 -0.056699 0.100860
    16 -0.034142 -1.160031 0.053531 -0.902405 0.008281 -0.023154
    17 0.957766 -2.746780 -0.090302 -0.138913 -0.159269 0.186081
    18 -0.033420 -1.393223 -0.022976 -0.746922 0.007634 -0.036734
    19 -0.022360 -0.961342 -0.004654 -0.883172 0.005525 -0.043001
    20 -1.180681 -2.507217 -0.193859 -0.314555 -0.083781 -0.213847
    21 -0.024967 -1.127840 0.017597 -1.431112 0.098765 0.048910
    22 -0.020057 -0.902687 0.025715 -0.805420 0.007514 -0.032334
    23 0.583510 -1.208996 0.197098 -0.016291 -1.086293 -0.690834
    24 1.481238 -0.200698 -0.049680 0.017733 0.168348 -0.720722
    25 0.987486 -0.214230 -0.006773 -0.101489 -0.020928 -1.227553
    26 0.120153 -0.050270 -0.054489 0.287569 3.110905 1.561085
    27 -4.345112 -5.797683 -13.521227 0.919452 -3.672438 1.245530
    28 0.014910 -8.438699 0.033605 0.261569 -0.548033 0.544542
    29 0.447953 -2.798986 -0.200443 -1.083108 -0.024750 0.321985
    30 -0.032909 -1.499736 0.028378 -1.405033 0.023334 -0.026879
    31 -0.027022 -1.115984 -0.028023 -0.967278 0.021752 -0.015208
    32 -0.249534 -2.846964 -0.174213 -0.927167 -0.009008 0.151859
    33 0.043235 -1.656596 0.072574 -1.315085 -0.020930 0.005777
    34 0.031729 -1.137392 0.051025 -1.375111 -0.015333 0.007761
    35 -0.963866 -2.785145 -0.085350 -0.990983 0.136737 -0.225412
    36 0.028479 -1.403067 -0.017167 -0.965960 -0.135474 0.127432
    37 0.021413 -0.942156 0.012233 -0.964436 -0.025335 -0.033641
    38 1.164475 -2.543940 -0.170330 -1.202160 -0.161088 0.388818
    39 0.024032 -1.140761 -0.005631 -0.986046 0.010594 0.051247
    40 0.014898 -0.903521 -0.015942 -1.028794 0.009660 0.051438
    41 -0.586770 -1.264477 0.200161 0.221924 -1.275430 -2.979233
    42 1.569711 0.035243 0.016848 -0.019647 -0.007097 0.922310
    43 1.114041 0.040611 -0.005766 -0.028766 -0.034359 1.035400
    44 -0.045646 -0.072634 0.010491 0.230636 0.395471 1.618939
    45 -8.171021 -0.352510 -0.477722 1.563175 -0.037633 -0.034817
end
