version 1
nodes
  0 "root" -1
  1 "Bone01" 0
  2 "Bone_Lefthand" 1
  3 "sg1_root" 2
  4 "plate" 3
  5 "load" 4
  6 "trigger" 4
  7 "magazine" 4
  8 "bullet" 4
  9 "sg_01_01" 3
  10 "sg_01_02" 9
  11 "sg_02_01" 3
  12 "sg_02_02" 11
  13 "sg_04_01" 3
  14 "sg_04_02" 13
  15 "sg_03_01" 3
  16 "sg_03_02" 15
  17 "sg_05_01" 3
  18 "sg_05_02" 17
  19 "sg_14_01" 3
  20 "sg_14_02" 19
  21 "sg_16_01" 3
  22 "sg_16_02" 21
  23 "sg_15_01" 3
  24 "sg_15_02" 23
  25 "sg_13_01" 3
  26 "sg_13_02" 25
  27 "sg_12_01" 3
  28 "sg_12_02" 27
  29 "sg_10_01" 3
  30 "sg_10_02" 29
  31 "sg_11_01" 3
  32 "sg_11_02" 31
  33 "sg_07_01" 3
  34 "sg_07_02" 33
  35 "sg_08_01" 3
  36 "sg_08_02" 35
  37 "sg_09_01" 3
  38 "sg_09_02" 37
  39 "sg_06_01" 3
  40 "sg_06_02" 39
  41 "Bone_L_Upper" 1
  42 "Bone13" 2
  43 "Bone14" 42
  44 "Bone15" 43
  45 "Bone17" 2
  46 "Bone18" 45
  47 "Bone19" 46
  48 "Bone21" 2
  49 "Bone22" 48
  50 "Bone23" 49
  51 "Bone09" 2
  52 "Bone10" 51
  53 "Bone11" 52
  54 "Bone05" 2
  55 "Bone06" 54
  56 "Bone07" 55
  57 "Bone_Se_Hand-L" 2
  58 "Bone04" 0
  59 "Bone_Righthand" 58
  60 "Bone39" 59
  61 "Bone40" 60
  62 "Bone41" 61
  63 "Bone35" 59
  64 "Bone36" 63
  65 "Bone37" 64
  66 "Bone31" 59
  67 "Bone32" 66
  68 "Bone33" 67
  69 "Bone43" 59
  70 "Bone44" 69
  71 "Bone45" 70
  72 "Bone27" 59
  73 "Bone28" 72
  74 "Bone29" 73
  75 "Bone_Se_Hand-R" 59
  76 "Bone_R_Upper" 58
end
skeleton
  time 0
    0 0.000000 0.000000 0.000000 0.000000 0.000000 -0.000026
    1 6.673672 4.908574 -6.747736 1.337145 -1.731993 -1.394200
    2 -0.071915 -8.498732 -0.104137 -0.152542 0.246016 -0.460110
    3 6.145909 -15.861228 -0.217039 -0.281978 -0.099457 1.944519
    4 10.000004 0.000002 -0.000001 -3.141592 0.000000 0.000000
    5 2.811740 0.747386 0.000000 0.000000 0.000000 3.141592
    6 2.313365 -0.730267 0.000000 0.000000 0.000000 -1.570796
    7 2.749725 0.098767 0.000006 0.000000 3.141592 0.000000
    8 46.699851 -29.422755 0.000004 0.000001 0.000001 -3.141592
    9 -15.803130 -0.198099 0.000016 3.141591 0.000000 -0.051514
    10 14.302282 0.000004 0.000000 0.000000 0.000000 0.003353
    11 -15.803130 -0.198099 0.000016 0.392230 0.019700 -0.047561
    12 14.302280 0.000004 -0.000001 0.000000 0.000000 0.031553
    13 -15.803130 -0.198099 0.000016 1.177606 0.047586 -0.019713
    14 14.302282 0.000002 0.000002 0.000000 0.000000 0.031553
    15 -15.803130 -0.198099 0.000016 0.784735 0.036390 -0.036452
    16 14.302286 0.000000 0.000001 0.000000 0.000000 -0.003341
    17 -15.803130 -0.198099 0.000016 1.570794 0.051514 -0.000003
    18 14.302284 0.000000 0.000000 0.000000 0.000000 -0.003341
    19 -15.803130 -0.198099 0.000016 1.963964 -0.047584 -0.019713
    20 14.302282 -0.000002 0.000001 0.000000 0.000000 -0.031559
    21 -15.803130 -0.198099 0.000016 2.749372 -0.019700 -0.047561
    22 14.302284 -0.000002 -0.000003 0.000000 0.000000 -0.031559
    23 -15.803130 -0.198099 0.000016 2.356857 -0.036387 -0.036452
    24 14.302285 0.000004 -0.000002 0.000000 0.000000 0.003353
    25 -15.803130 -0.198099 0.000016 1.570793 -0.051512 0.000003
    26 14.302282 -0.000002 0.000000 0.000000 0.000000 0.003353
    27 -15.803130 -0.198099 0.000016 -1.963987 -0.047583 0.019746
    28 14.302282 -0.000010 -0.000001 0.000000 0.000000 0.031553
    29 -15.803130 -0.198099 0.000016 -2.749373 -0.019700 0.047601
    30 14.302284 0.000010 0.000001 0.000000 0.000000 0.031553
    31 -15.803130 -0.198099 0.000016 -2.356858 -0.036387 0.036414
    32 14.302282 -0.000004 0.000005 0.000000 0.000000 -0.003341
    33 -15.803130 -0.198099 0.000016 -0.784719 0.036390 0.036414
    34 14.302282 -0.000002 -0.000002 0.000000 0.000000 0.003353
    35 -15.803130 -0.198099 0.000016 -0.392231 0.019701 0.047562
    36 14.302280 -0.000004 -0.000001 0.000000 0.000000 -0.031559
    37 -15.803130 -0.198099 0.000016 -3.141592 0.000001 0.051514
    38 14.302285 0.000000 0.000000 0.000000 0.000000 -0.003341
    39 -15.803130 -0.198099 0.000016 -1.177629 0.047586 0.019746
    40 14.302279 -0.000002 0.000000 0.000000 0.000000 -0.031559
    41 1.257180 8.762585 -0.153713 -1.570562 0.002683 -1.566807
    42 -0.488518 -2.755602 -0.228260 -1.286872 -0.050430 -0.402325
    43 0.039887 -1.479790 0.029854 -1.208016 0.000000 0.000001
    44 0.028786 -1.075731 -0.023109 -0.530140 0.000000 0.000000
    45 0.250027 -2.820665 -0.238396 -1.002152 0.064816 -0.258921
    46 -0.049759 -1.680544 0.100479 -1.430840 0.000000 -0.000002
    47 -0.034142 -1.148312 0.084782 -0.766456 0.000000 0.000000
    48 0.957766 -2.746780 -0.090302 0.185474 -0.279978 0.011753
    49 -0.033420 -1.397129 -0.011257 -0.562653 0.000000 -0.000001
    50 -0.022360 -0.957436 0.018784 -0.830690 0.000000 0.000000
    51 -1.180681 -2.507217 -0.193859 -1.242958 0.074571 -0.388474
    52 -0.024967 -1.123934 0.017597 -1.138636 0.000000 0.000001
    53 -0.020057 -0.890968 0.010090 -0.440505 0.000000 0.000000
    54 0.583510 -1.197277 0.185379 -0.226871 -0.921580 0.087268
    55 1.535927 0.010246 0.005009 -0.127016 -0.194510 -0.923923
    56 1.100771 0.004527 -0.010679 -0.015224 0.005570 -1.043747
    57 0.120153 -0.050270 -0.054489 0.287569 3.110905 1.561085
    58 -1.591122 -7.161006 -10.618795 -0.521742 -5.809925 0.450846
    59 0.096944 -8.450418 -0.009365 0.063308 -0.288753 -0.027575
    60 0.447953 -2.798986 -0.200443 -0.049019 -0.206533 0.090383
    61 -0.032909 -1.480204 0.004940 -1.015334 0.000000 0.000002
    62 -0.027022 -1.076920 -0.020210 -0.813171 0.000000 0.000000
    63 -0.249534 -2.846964 -0.174213 0.146912 0.010860 -0.033600
    64 0.043235 -1.683941 0.096012 -0.989726 0.002823 -0.000167
    65 0.031729 -1.160830 0.058838 -1.015242 0.000642 0.008372
    66 -0.963866 -2.785145 -0.085350 0.258155 0.136235 -0.037326
    67 0.028479 -1.403067 0.006271 -0.422380 0.000000 0.000000
    68 0.021413 -0.957781 0.020046 0.153840 0.000000 0.000000
    69 1.164475 -2.543940 -0.170330 -0.689328 -0.486121 0.123929
    70 0.024032 -1.129042 0.017807 -0.304203 0.000000 0.000001
    71 0.014898 -0.883989 -0.019848 -0.741892 0.000000 0.000000
    72 -0.586770 -1.264477 0.200161 -0.289387 -0.420304 -2.419838
    73 1.522835 0.058681 0.016848 0.039940 0.038040 0.357708
    74 1.117947 0.048424 -0.005766 0.000764 -0.025198 0.025304
    75 -0.139399 -0.111698 0.014397 0.285382 -0.030687 1.580508
    76 -1.393470 8.839177 -0.239433 1.580804 -0.005023 -1.566847
  time 1
    0 0.000000 0.000000 0.000000 0.003404 0.000000 -0.000026
    1 6.673672 4.771851 -6.849301 1.337145 -1.731993 -1.394200
    2 -0.071915 -8.498732 -0.104137 -0.152542 0.246016 -0.460110
    3 6.200599 -15.704974 -0.177976 -0.281978 -0.099457 1.944519
    4 10.000004 0.000002 -0.000001 -3.141592 0.000000 0.000000
    5 2.811740 0.747386 0.000000 0.000000 0.000000 3.141592
    6 2.313365 -0.730267 0.000000 0.000000 0.000000 -1.570796
    7 2.749725 0.098767 0.000006 0.000000 3.141592 0.000000
    8 46.699851 -29.422755 0.000004 0.000001 0.000001 -3.141592
    9 -15.803130 -0.198099 0.000016 3.141591 0.000000 -0.051514
    10 14.302282 0.000004 0.000000 0.000000 0.000000 0.003353
    11 -15.803130 -0.198099 0.000016 0.392230 0.019700 -0.047561
    12 14.302280 0.000004 -0.000001 0.000000 0.000000 0.031553
    13 -15.803130 -0.198099 0.000016 1.177606 0.047586 -0.019713
    14 14.302282 0.000002 0.000002 0.000000 0.000000 0.031553
    15 -15.803130 -0.198099 0.000016 0.784735 0.036390 -0.036452
    16 14.302286 0.000000 0.000001 0.000000 0.000000 -0.003341
    17 -15.803130 -0.198099 0.000016 1.570794 0.051514 -0.000003
    18 14.302284 0.000000 0.000000 0.000000 0.000000 -0.003341
    19 -15.803130 -0.198099 0.000016 1.963964 -0.047584 -0.019713
    20 14.302282 -0.000002 0.000001 0.000000 0.000000 -0.031559
    21 -15.803130 -0.198099 0.000016 2.749372 -0.019700 -0.047561
    22 14.302284 -0.000002 -0.000003 0.000000 0.000000 -0.031559
    23 -15.803130 -0.198099 0.000016 2.356857 -0.036387 -0.036452
    24 14.302285 0.000004 -0.000002 0.000000 0.000000 0.003353
    25 -15.803130 -0.198099 0.000016 1.570793 -0.051512 0.000003
    26 14.302282 -0.000002 0.000000 0.000000 0.000000 0.003353
    27 -15.803130 -0.198099 0.000016 -1.963987 -0.047583 0.019746
    28 14.302282 -0.000010 -0.000001 0.000000 0.000000 0.031553
    29 -15.803130 -0.198099 0.000016 -2.749373 -0.019700 0.047601
    30 14.302284 0.000010 0.000001 0.000000 0.000000 0.031553
    31 -15.803130 -0.198099 0.000016 -2.356858 -0.036387 0.036414
    32 14.302282 -0.000004 0.000005 0.000000 0.000000 -0.003341
    33 -15.803130 -0.198099 0.000016 -0.784719 0.036390 0.036414
    34 14.302282 -0.000002 -0.000002 0.000000 0.000000 0.003353
    35 -15.803130 -0.198099 0.000016 -0.392231 0.019701 0.047562
    36 14.302280 -0.000004 -0.000001 0.000000 0.000000 -0.031559
    37 -15.803130 -0.198099 0.000016 -3.141592 0.000001 0.051514
    38 14.302285 0.000000 0.000000 0.000000 0.000000 -0.003341
    39 -15.803130 -0.198099 0.000016 -1.177629 0.047586 0.019746
    40 14.302279 -0.000002 0.000000 0.000000 0.000000 -0.031559
    41 1.257180 8.762585 -0.153713 -1.570562 0.002683 -1.566807
    42 -0.488518 -2.755602 -0.228260 -1.286872 -0.050430 -0.402325
    43 0.039887 -1.479790 0.029854 -1.208016 0.000000 0.000001
    44 0.028786 -1.075731 -0.023109 -0.530140 0.000000 0.000000
    45 0.250027 -2.820665 -0.238396 -1.002152 0.064816 -0.258921
    46 -0.049759 -1.680544 0.100479 -1.430840 0.000000 -0.000002
    47 -0.034142 -1.148312 0.084782 -0.766456 0.000000 0.000000
    48 0.957766 -2.746780 -0.090302 0.185474 -0.279978 0.011753
    49 -0.033420 -1.397129 -0.011257 -0.562653 0.000000 -0.000001
    50 -0.022360 -0.957436 0.018784 -0.830690 0.000000 0.000000
    51 -1.180681 -2.507217 -0.193859 -1.242958 0.074571 -0.388474
    52 -0.024967 -1.123934 0.017597 -1.138636 0.000000 0.000001
    53 -0.020057 -0.890968 0.010090 -0.440505 0.000000 0.000000
    54 0.583510 -1.197277 0.185379 -0.226871 -0.921580 0.087268
    55 1.535927 0.010246 0.005009 -0.127016 -0.194510 -0.923923
    56 1.100771 0.004527 -0.010679 -0.015224 0.005570 -1.043747
    57 0.120153 -0.050270 -0.054489 0.287569 3.110905 1.561085
    58 -1.591122 -7.161006 -10.618795 -0.521742 -5.809925 0.450846
    59 0.096944 -8.450418 -0.009365 0.063308 -0.288753 -0.027575
    60 0.447953 -2.798986 -0.200443 -0.049019 -0.206533 0.090383
    61 -0.032909 -1.480204 0.004940 -1.015334 0.000000 0.000002
    62 -0.027022 -1.076920 -0.020210 -0.813171 0.000000 0.000000
    63 -0.249534 -2.846964 -0.174213 0.146912 0.010860 -0.033600
    64 0.043235 -1.683941 0.096012 -0.989726 0.002823 -0.000167
    65 0.031729 -1.160830 0.058838 -1.015242 0.000642 0.008372
    66 -0.963866 -2.785145 -0.085350 0.258155 0.136235 -0.037326
    67 0.028479 -1.403067 0.006271 -0.422380 0.000000 0.000000
    68 0.021413 -0.957781 0.020046 0.153840 0.000000 0.000000
    69 1.164475 -2.543940 -0.170330 -0.689328 -0.486121 0.123929
    70 0.024032 -1.129042 0.017807 -0.304203 0.000000 0.000001
    71 0.014898 -0.883989 -0.019848 -0.741892 0.000000 0.000000
    72 -0.586770 -1.264477 0.200161 -0.289387 -0.420304 -2.419838
    73 1.522835 0.058681 0.016848 0.039940 0.038040 0.357708
    74 1.117947 0.048424 -0.005766 0.000764 -0.025198 0.025304
    75 -0.139399 -0.111698 0.014397 0.285382 -0.030687 1.580508
    76 -1.393470 8.839177 -0.239433 1.580804 -0.005023 -1.566847
  time 2
    0 0.000000 0.000000 0.000000 0.012548 0.000000 -0.000026
    1 6.673672 4.424184 -7.107122 1.337145 -1.731993 -1.394200
    2 -0.071915 -8.498732 -0.104137 -0.152542 0.246016 -0.460110
    3 6.337322 -15.310430 -0.072504 -0.281978 -0.099457 1.944519
    4 10.000004 0.000002 -0.000001 -3.141592 0.000000 0.000000
    5 2.811740 0.747386 0.000000 0.000000 0.000000 3.141592
    6 2.313365 -0.730267 0.000000 0.000000 0.000000 -1.570796
    7 2.749725 0.098767 0.000006 0.000000 3.141592 0.000000
    8 46.699851 -29.422755 0.000004 0.000001 0.000001 -3.141592
    9 -15.803130 -0.198099 0.000016 3.141591 0.000000 -0.051514
    10 14.302282 0.000004 0.000000 0.000000 0.000000 0.003353
    11 -15.803130 -0.198099 0.000016 0.392230 0.019700 -0.047561
    12 14.302280 0.000004 -0.000001 0.000000 0.000000 0.031553
    13 -15.803130 -0.198099 0.000016 1.177606 0.047586 -0.019713
    14 14.302282 0.000002 0.000002 0.000000 0.000000 0.031553
    15 -15.803130 -0.198099 0.000016 0.784735 0.036390 -0.036452
    16 14.302286 0.000000 0.000001 0.000000 0.000000 -0.003341
    17 -15.803130 -0.198099 0.000016 1.570794 0.051514 -0.000003
    18 14.302284 0.000000 0.000000 0.000000 0.000000 -0.003341
    19 -15.803130 -0.198099 0.000016 1.963964 -0.047584 -0.019713
    20 14.302282 -0.000002 0.000001 0.000000 0.000000 -0.031559
    21 -15.803130 -0.198099 0.000016 2.749372 -0.019700 -0.047561
    22 14.302284 -0.000002 -0.000003 0.000000 0.000000 -0.031559
    23 -15.803130 -0.198099 0.000016 2.356857 -0.036387 -0.036452
    24 14.302285 0.000004 -0.000002 0.000000 0.000000 0.003353
    25 -15.803130 -0.198099 0.000016 1.570793 -0.051512 0.000003
    26 14.302282 -0.000002 0.000000 0.000000 0.000000 0.003353
    27 -15.803130 -0.198099 0.000016 -1.963987 -0.047583 0.019746
    28 14.302282 -0.000010 -0.000001 0.000000 0.000000 0.031553
    29 -15.803130 -0.198099 0.000016 -2.749373 -0.019700 0.047601
    30 14.302284 0.000010 0.000001 0.000000 0.000000 0.031553
    31 -15.803130 -0.198099 0.000016 -2.356858 -0.036387 0.036414
    32 14.302282 -0.000004 0.000005 0.000000 0.000000 -0.003341
    33 -15.803130 -0.198099 0.000016 -0.784719 0.036390 0.036414
    34 14.302282 -0.000002 -0.000002 0.000000 0.000000 0.003353
    35 -15.803130 -0.198099 0.000016 -0.392231 0.019701 0.047562
    36 14.302280 -0.000004 -0.000001 0.000000 0.000000 -0.031559
    37 -15.803130 -0.198099 0.000016 -3.141592 0.000001 0.051514
    38 14.302285 0.000000 0.000000 0.000000 0.000000 -0.003341
    39 -15.803130 -0.198099 0.000016 -1.177629 0.047586 0.019746
    40 14.302279 -0.000002 0.000000 0.000000 0.000000 -0.031559
    41 1.257180 8.762585 -0.153713 -1.570562 0.002683 -1.566807
    42 -0.488518 -2.755602 -0.228260 -1.286872 -0.050430 -0.402325
    43 0.039887 -1.479790 0.029854 -1.208016 0.000000 0.000001
    44 0.028786 -1.075731 -0.023109 -0.530140 0.000000 0.000000
    45 0.250027 -2.820665 -0.238396 -1.002152 0.064816 -0.258921
    46 -0.049759 -1.680544 0.100479 -1.430840 0.000000 -0.000002
    47 -0.034142 -1.148312 0.084782 -0.766456 0.000000 0.000000
    48 0.957766 -2.746780 -0.090302 0.185474 -0.279978 0.011753
    49 -0.033420 -1.397129 -0.011257 -0.562653 0.000000 -0.000001
    50 -0.022360 -0.957436 0.018784 -0.830690 0.000000 0.000000
    51 -1.180681 -2.507217 -0.193859 -1.242958 0.074571 -0.388474
    52 -0.024967 -1.123934 0.017597 -1.138636 0.000000 0.000001
    53 -0.020057 -0.890968 0.010090 -0.440505 0.000000 0.000000
    54 0.583510 -1.197277 0.185379 -0.226871 -0.921580 0.087268
    55 1.535927 0.010246 0.005009 -0.127016 -0.194510 -0.923923
    56 1.100771 0.004527 -0.010679 -0.015224 0.005570 -1.043747
    57 0.120153 -0.050270 -0.054489 0.287569 3.110905 1.561085
    58 -1.591122 -7.161006 -10.618795 -0.521742 -5.809925 0.450846
    59 0.096944 -8.450418 -0.009365 0.063308 -0.288753 -0.027575
    60 0.447953 -2.798986 -0.200443 -0.049019 -0.206533 0.090383
    61 -0.032909 -1.480204 0.004940 -1.015334 0.000000 0.000002
    62 -0.027022 -1.076920 -0.020210 -0.813171 0.000000 0.000000
    63 -0.249534 -2.846964 -0.174213 0.146912 0.010860 -0.033600
    64 0.043235 -1.683941 0.096012 -0.989726 0.002823 -0.000167
    65 0.031729 -1.160830 0.058838 -1.015242 0.000642 0.008372
    66 -0.963866 -2.785145 -0.085350 0.258155 0.136235 -0.037326
    67 0.028479 -1.403067 0.006271 -0.422380 0.000000 0.000000
    68 0.021413 -0.957781 0.020046 0.153840 0.000000 0.000000
    69 1.164475 -2.543940 -0.170330 -0.689328 -0.486121 0.123929
    70 0.024032 -1.129042 0.017807 -0.304203 0.000000 0.000001
    71 0.014898 -0.883989 -0.019848 -0.741892 0.000000 0.000000
    72 -0.586770 -1.264477 0.200161 -0.289387 -0.420304 -2.419838
    73 1.522835 0.058681 0.016848 0.039940 0.038040 0.357708
    74 1.117947 0.048424 -0.005766 0.000764 -0.025198 0.025304
    75 -0.139399 -0.111698 0.014397 0.285382 -0.030687 1.580508
    76 -1.393470 8.839177 -0.239433 1.580804 -0.005023 -1.566847
  time 3
    0 0.000000 0.000000 0.000000 0.025791 0.000000 -0.000026
    1 6.673672 3.971045 -7.462601 1.337145 -1.731993 -1.394200
    2 -0.071915 -8.498732 -0.104137 -0.152542 0.246016 -0.460110
    3 6.532640 -14.786977 0.072032 -0.281978 -0.099457 1.944519
    4 10.000004 0.000002 -0.000001 -3.143210 -0.001965 0.081655
    5 2.811740 0.747386 0.000000 0.000000 0.000000 3.141592
    6 2.313365 -0.730267 0.000000 0.000000 0.000000 -1.570796
    7 2.749725 0.098767 0.000006 0.000000 3.141592 0.000000
    8 46.699851 -29.422755 0.000004 0.000001 0.000001 -3.141592
    9 -15.803130 -0.198099 0.000016 3.141591 0.000000 -0.051514
    10 14.302282 0.000004 0.000000 0.000000 0.000000 0.003353
    11 -15.803130 -0.198099 0.000016 0.392230 0.019700 -0.047561
    12 14.302280 0.000004 -0.000001 0.000000 0.000000 0.031553
    13 -15.803130 -0.198099 0.000016 1.177606 0.047586 -0.019713
    14 14.302282 0.000002 0.000002 0.000000 0.000000 0.031553
    15 -15.803130 -0.198099 0.000016 0.784735 0.036390 -0.036452
    16 14.302286 0.000000 0.000001 0.000000 0.000000 -0.003341
    17 -15.803130 -0.198099 0.000016 1.570794 0.051514 -0.000003
    18 14.302284 0.000000 0.000000 0.000000 0.000000 -0.003341
    19 -15.803130 -0.198099 0.000016 1.963964 -0.047584 -0.019713
    20 14.302282 -0.000002 0.000001 0.000000 0.000000 -0.031559
    21 -15.803130 -0.198099 0.000016 2.749372 -0.019700 -0.047561
    22 14.302284 -0.000002 -0.000003 0.000000 0.000000 -0.031559
    23 -15.803130 -0.198099 0.000016 2.356857 -0.036387 -0.036452
    24 14.302285 0.000004 -0.000002 0.000000 0.000000 0.003353
    25 -15.803130 -0.198099 0.000016 1.570793 -0.051512 0.000003
    26 14.302282 -0.000002 0.000000 0.000000 0.000000 0.003353
    27 -15.803130 -0.198099 0.000016 -1.963987 -0.047583 0.019746
    28 14.302282 -0.000010 -0.000001 0.000000 0.000000 0.031553
    29 -15.803130 -0.198099 0.000016 -2.749373 -0.019700 0.047601
    30 14.302284 0.000010 0.000001 0.000000 0.000000 0.031553
    31 -15.803130 -0.198099 0.000016 -2.356858 -0.036387 0.036414
    32 14.302282 -0.000004 0.000005 0.000000 0.000000 -0.003341
    33 -15.803130 -0.198099 0.000016 -0.784719 0.036390 0.036414
    34 14.302282 -0.000002 -0.000002 0.000000 0.000000 0.003353
    35 -15.803130 -0.198099 0.000016 -0.392231 0.019701 0.047562
    36 14.302280 -0.000004 -0.000001 0.000000 0.000000 -0.031559
    37 -15.803130 -0.198099 0.000016 -3.141592 0.000001 0.051514
    38 14.302285 0.000000 0.000000 0.000000 0.000000 -0.003341
    39 -15.803130 -0.198099 0.000016 -1.177629 0.047586 0.019746
    40 14.302279 -0.000002 0.000000 0.000000 0.000000 -0.031559
    41 1.257180 8.762585 -0.153713 -1.570562 0.002683 -1.566807
    42 -0.488518 -2.755602 -0.228260 -1.286872 -0.050430 -0.402325
    43 0.039887 -1.479790 0.029854 -1.208016 0.000000 0.000001
    44 0.028786 -1.075731 -0.023109 -0.530140 0.000000 0.000000
    45 0.250027 -2.820665 -0.238396 -1.002152 0.064816 -0.258921
    46 -0.049759 -1.680544 0.100479 -1.430840 0.000000 -0.000002
    47 -0.034142 -1.148312 0.084782 -0.766456 0.000000 0.000000
    48 0.957766 -2.746780 -0.090302 0.185474 -0.279978 0.011753
    49 -0.033420 -1.397129 -0.011257 -0.562653 0.000000 -0.000001
    50 -0.022360 -0.957436 0.018784 -0.830690 0.000000 0.000000
    51 -1.180681 -2.507217 -0.193859 -1.242958 0.074571 -0.388474
    52 -0.024967 -1.123934 0.017597 -1.138636 0.000000 0.000001
    53 -0.020057 -0.890968 0.010090 -0.440505 0.000000 0.000000
    54 0.583510 -1.197277 0.185379 -0.226871 -0.921580 0.087268
    55 1.535927 0.010246 0.005009 -0.127016 -0.194510 -0.923923
    56 1.100771 0.004527 -0.010679 -0.015224 0.005570 -1.043747
    57 0.120153 -0.050270 -0.054489 0.287569 3.110905 1.561085
    58 -1.591122 -7.161006 -10.618795 -0.521742 -5.809925 0.450846
    59 0.096944 -8.450418 -0.009365 0.063308 -0.288753 -0.027575
    60 0.447953 -2.798986 -0.200443 -0.049019 -0.206533 0.090383
    61 -0.032909 -1.480204 0.004940 -1.015334 0.000000 0.000002
    62 -0.027022 -1.076920 -0.020210 -0.813171 0.000000 0.000000
    63 -0.249534 -2.846964 -0.174213 0.146912 0.010860 -0.033600
    64 0.043235 -1.683941 0.096012 -0.989726 0.002823 -0.000167
    65 0.031729 -1.160830 0.058838 -1.015242 0.000642 0.008372
    66 -0.963866 -2.785145 -0.085350 0.258155 0.136235 -0.037326
    67 0.028479 -1.403067 0.006271 -0.422380 0.000000 0.000000
    68 0.021413 -0.957781 0.020046 0.153840 0.000000 0.000000
    69 1.164475 -2.543940 -0.170330 -0.689328 -0.486121 0.123929
    70 0.024032 -1.129042 0.017807 -0.304203 0.000000 0.000001
    71 0.014898 -0.883989 -0.019848 -0.741892 0.000000 0.000000
    72 -0.586770 -1.264477 0.200161 -0.289387 -0.420304 -2.419838
    73 1.522835 0.058681 0.016848 0.039940 0.038040 0.357708
    74 1.117947 0.048424 -0.005766 0.000764 -0.025198 0.025304
    75 -0.139399 -0.111698 0.014397 0.285382 -0.030687 1.580508
    76 -1.393470 8.839177 -0.239433 1.580804 -0.005023 -1.566847
  time 4
    0 0.000000 0.000000 0.000000 0.041515 0.000000 -0.000026
    1 6.673672 3.506187 -7.845425 1.337145 -1.731993 -1.394200
    2 -0.071915 -8.498732 -0.104137 -0.152542 0.246016 -0.460110
    3 6.501389 -14.493999 0.115002 -0.278760 -0.106488 1.917916
    4 10.000004 0.000002 -0.000001 -3.147081 -0.006663 0.276381
    5 2.811740 0.747386 0.000000 0.000000 0.000000 3.141592
    6 2.313365 -0.730267 0.000000 0.000000 0.000000 -1.570796
    7 2.749725 0.098767 0.000006 0.000000 3.141592 0.000000
    8 46.699851 -29.422755 0.000004 0.000001 0.000001 -3.141592
    9 -15.803130 -0.198099 0.000016 3.141591 0.000000 -0.051514
    10 14.302282 0.000004 0.000000 0.000000 0.000000 0.003353
    11 -15.803130 -0.198099 0.000016 0.392230 0.019700 -0.047561
    12 14.302280 0.000004 -0.000001 0.000000 0.000000 0.031553
    13 -15.803130 -0.198099 0.000016 1.177606 0.047586 -0.019713
    14 14.302282 0.000002 0.000002 0.000000 0.000000 0.031553
    15 -15.803130 -0.198099 0.000016 0.784735 0.036390 -0.036452
    16 14.302286 0.000000 0.000001 0.000000 0.000000 -0.003341
    17 -15.803130 -0.198099 0.000016 1.570794 0.051514 -0.000003
    18 14.302284 0.000000 0.000000 0.000000 0.000000 -0.003341
    19 -15.803130 -0.198099 0.000016 1.963964 -0.047584 -0.019713
    20 14.302282 -0.000002 0.000001 0.000000 0.000000 -0.031559
    21 -15.803130 -0.198099 0.000016 2.749372 -0.019700 -0.047561
    22 14.302284 -0.000002 -0.000003 0.000000 0.000000 -0.031559
    23 -15.803130 -0.198099 0.000016 2.356857 -0.036387 -0.036452
    24 14.302285 0.000004 -0.000002 0.000000 0.000000 0.003353
    25 -15.803130 -0.198099 0.000016 1.570793 -0.051512 0.000003
    26 14.302282 -0.000002 0.000000 0.000000 0.000000 0.003353
    27 -15.803130 -0.198099 0.000016 -1.963987 -0.047583 0.019746
    28 14.302282 -0.000010 -0.000001 0.000000 0.000000 0.031553
    29 -15.803130 -0.198099 0.000016 -2.749373 -0.019700 0.047601
    30 14.302284 0.000010 0.000001 0.000000 0.000000 0.031553
    31 -15.803130 -0.198099 0.000016 -2.356858 -0.036387 0.036414
    32 14.302282 -0.000004 0.000005 0.000000 0.000000 -0.003341
    33 -15.803130 -0.198099 0.000016 -0.784719 0.036390 0.036414
    34 14.302282 -0.000002 -0.000002 0.000000 0.000000 0.003353
    35 -15.803130 -0.198099 0.000016 -0.392231 0.019701 0.047562
    36 14.302280 -0.000004 -0.000001 0.000000 0.000000 -0.031559
    37 -15.803130 -0.198099 0.000016 -3.141592 0.000001 0.051514
    38 14.302285 0.000000 0.000000 0.000000 0.000000 -0.003341
    39 -15.803130 -0.198099 0.000016 -1.177629 0.047586 0.019746
    40 14.302279 -0.000002 0.000000 0.000000 0.000000 -0.031559
    41 1.257180 8.762585 -0.153713 -1.570562 0.002683 -1.566807
    42 -0.488518 -2.755602 -0.228260 -1.286872 -0.050430 -0.402325
    43 0.039887 -1.479790 0.029854 -1.208016 0.000000 0.000001
    44 0.028786 -1.075731 -0.023109 -0.530140 0.000000 0.000000
    45 0.250027 -2.820665 -0.238396 -1.002152 0.064816 -0.258921
    46 -0.049759 -1.680544 0.100479 -1.430840 0.000000 -0.000002
    47 -0.034142 -1.148312 0.084782 -0.766456 0.000000 0.000000
    48 0.957766 -2.746780 -0.090302 0.185474 -0.279978 0.011753
    49 -0.033420 -1.397129 -0.011257 -0.562653 0.000000 -0.000001
    50 -0.022360 -0.957436 0.018784 -0.830690 0.000000 0.000000
    51 -1.180681 -2.507217 -0.193859 -1.242958 0.074571 -0.388474
    52 -0.024967 -1.123934 0.017597 -1.138636 0.000000 0.000001
    53 -0.020057 -0.890968 0.010090 -0.440505 0.000000 0.000000
    54 0.583510 -1.197277 0.185379 -0.226871 -0.921580 0.087268
    55 1.535927 0.010246 0.005009 -0.127016 -0.194510 -0.923923
    56 1.100771 0.004527 -0.010679 -0.015224 0.005570 -1.043747
    57 0.120153 -0.050270 -0.054489 0.287569 3.110905 1.561085
    58 -1.591122 -7.161006 -10.579731 -0.494124 -5.821738 0.463604
    59 0.096944 -8.450418 -0.009365 0.063308 -0.288753 -0.027575
    60 0.447953 -2.798986 -0.200443 -0.049019 -0.206533 0.090383
    61 -0.032909 -1.480204 0.004940 -1.015334 0.000000 0.000002
    62 -0.027022 -1.076920 -0.020210 -0.813171 0.000000 0.000000
    63 -0.249534 -2.846964 -0.174213 0.146912 0.010860 -0.033600
    64 0.043235 -1.683941 0.096012 -0.989726 0.002823 -0.000167
    65 0.031729 -1.160830 0.058838 -1.015242 0.000642 0.008372
    66 -0.963866 -2.785145 -0.085350 0.258155 0.136235 -0.037326
    67 0.028479 -1.403067 0.006271 -0.422380 0.000000 0.000000
    68 0.021413 -0.957781 0.020046 0.153840 0.000000 0.000000
    69 1.164475 -2.543940 -0.170330 -0.689328 -0.486121 0.123929
    70 0.024032 -1.129042 0.017807 -0.304203 0.000000 0.000001
    71 0.014898 -0.883989 -0.019848 -0.741892 0.000000 0.000000
    72 -0.586770 -1.264477 0.200161 -0.289387 -0.420304 -2.419838
    73 1.522835 0.058681 0.016848 0.039940 0.038040 0.357708
    74 1.117947 0.048424 -0.005766 0.000764 -0.025198 0.025304
    75 -0.139399 -0.111698 0.014397 0.285382 -0.030687 1.580508
    76 -1.393470 8.839177 -0.239433 1.580804 -0.005023 -1.566847
  time 5
    0 0.000000 0.000000 0.000000 0.058089 0.000000 -0.000026
    1 6.673672 3.131176 -8.196999 1.337145 -1.731993 -1.394200
    2 -0.071915 -8.498732 -0.104137 -0.152542 0.246016 -0.460110
    3 6.286539 -14.529157 0.072032 -0.271757 -0.120731 1.859424
    4 10.000004 0.000002 -0.000001 -3.151695 -0.012260 0.508786
    5 2.811740 0.747386 0.000000 0.000000 0.000000 3.141592
    6 2.313365 -0.730267 0.000000 0.000000 0.000000 -1.570796
    7 2.749725 0.098767 0.000006 0.000000 3.141592 0.000000
    8 46.699851 -29.422755 0.000004 0.000001 0.000001 -3.141592
    9 -15.803130 -0.198099 0.000016 3.141591 0.000000 -0.051514
    10 14.302282 0.000004 0.000000 0.000000 0.000000 0.003353
    11 -15.803130 -0.198099 0.000016 0.392230 0.019700 -0.047561
    12 14.302280 0.000004 -0.000001 0.000000 0.000000 0.031553
    13 -15.803130 -0.198099 0.000016 1.177606 0.047586 -0.019713
    14 14.302282 0.000002 0.000002 0.000000 0.000000 0.031553
    15 -15.803130 -0.198099 0.000016 0.784735 0.036390 -0.036452
    16 14.302286 0.000000 0.000001 0.000000 0.000000 -0.003341
    17 -15.803130 -0.198099 0.000016 1.570794 0.051514 -0.000003
    18 14.302284 0.000000 0.000000 0.000000 0.000000 -0.003341
    19 -15.803130 -0.198099 0.000016 1.963964 -0.047584 -0.019713
    20 14.302282 -0.000002 0.000001 0.000000 0.000000 -0.031559
    21 -15.803130 -0.198099 0.000016 2.749372 -0.019700 -0.047561
    22 14.302284 -0.000002 -0.000003 0.000000 0.000000 -0.031559
    23 -15.803130 -0.198099 0.000016 2.356857 -0.036387 -0.036452
    24 14.302285 0.000004 -0.000002 0.000000 0.000000 0.003353
    25 -15.803130 -0.198099 0.000016 1.570793 -0.051512 0.000003
    26 14.302282 -0.000002 0.000000 0.000000 0.000000 0.003353
    27 -15.803130 -0.198099 0.000016 -1.963987 -0.047583 0.019746
    28 14.302282 -0.000010 -0.000001 0.000000 0.000000 0.031553
    29 -15.803130 -0.198099 0.000016 -2.749373 -0.019700 0.047601
    30 14.302284 0.000010 0.000001 0.000000 0.000000 0.031553
    31 -15.803130 -0.198099 0.000016 -2.356858 -0.036387 0.036414
    32 14.302282 -0.000004 0.000005 0.000000 0.000000 -0.003341
    33 -15.803130 -0.198099 0.000016 -0.784719 0.036390 0.036414
    34 14.302282 -0.000002 -0.000002 0.000000 0.000000 0.003353
    35 -15.803130 -0.198099 0.000016 -0.392231 0.019701 0.047562
    36 14.302280 -0.000004 -0.000001 0.000000 0.000000 -0.031559
    37 -15.803130 -0.198099 0.000016 -3.141592 0.000001 0.051514
    38 14.302285 0.000000 0.000000 0.000000 0.000000 -0.003341
    39 -15.803130 -0.198099 0.000016 -1.177629 0.047586 0.019746
    40 14.302279 -0.000002 0.000000 0.000000 0.000000 -0.031559
    41 1.257180 8.762585 -0.153713 -1.570562 0.002683 -1.566807
    42 -0.488518 -2.755602 -0.228260 -1.286872 -0.050430 -0.402325
    43 0.039887 -1.479790 0.029854 -1.208016 0.000000 0.000001
    44 0.028786 -1.075731 -0.023109 -0.530140 0.000000 0.000000
    45 0.250027 -2.820665 -0.238396 -1.002152 0.064816 -0.258921
    46 -0.049759 -1.680544 0.100479 -1.430840 0.000000 -0.000002
    47 -0.034142 -1.148312 0.084782 -0.766456 0.000000 0.000000
    48 0.957766 -2.746780 -0.090302 0.185474 -0.279978 0.011753
    49 -0.033420 -1.397129 -0.011257 -0.562653 0.000000 -0.000001
    50 -0.022360 -0.957436 0.018784 -0.830690 0.000000 0.000000
    51 -1.180681 -2.507217 -0.193859 -1.242958 0.074571 -0.388474
    52 -0.024967 -1.123934 0.017597 -1.138636 0.000000 0.000001
    53 -0.020057 -0.890968 0.010090 -0.440505 0.000000 0.000000
    54 0.583510 -1.197277 0.185379 -0.226871 -0.921580 0.087268
    55 1.535927 0.010246 0.005009 -0.127016 -0.194510 -0.923923
    56 1.100771 0.004527 -0.010679 -0.015224 0.005570 -1.043747
    57 0.120153 -0.050270 -0.054489 0.287569 3.110905 1.561085
    58 -1.591122 -7.161006 -10.337536 -0.435180 -5.849472 0.488847
    59 0.096944 -8.450418 -0.009365 0.063308 -0.288753 -0.027575
    60 0.447953 -2.798986 -0.200443 -0.049019 -0.206533 0.090383
    61 -0.032909 -1.480204 0.004940 -1.015334 0.000000 0.000002
    62 -0.027022 -1.076920 -0.020210 -0.813171 0.000000 0.000000
    63 -0.249534 -2.846964 -0.174213 0.146912 0.010860 -0.033600
    64 0.043235 -1.683941 0.096012 -0.989726 0.002823 -0.000167
    65 0.031729 -1.160830 0.058838 -1.015242 0.000642 0.008372
    66 -0.963866 -2.785145 -0.085350 0.258155 0.136235 -0.037326
    67 0.028479 -1.403067 0.006271 -0.422380 0.000000 0.000000
    68 0.021413 -0.957781 0.020046 0.153840 0.000000 0.000000
    69 1.164475 -2.543940 -0.170330 -0.689328 -0.486121 0.123929
    70 0.024032 -1.129042 0.017807 -0.304203 0.000000 0.000001
    71 0.014898 -0.883989 -0.019848 -0.741892 0.000000 0.000000
    72 -0.586770 -1.264477 0.200161 -0.289387 -0.420304 -2.419838
    73 1.522835 0.058681 0.016848 0.039940 0.038040 0.357708
    74 1.117947 0.048424 -0.005766 0.000764 -0.025198 0.025304
    75 -0.139399 -0.111698 0.014397 0.285382 -0.030687 1.580508
    76 -1.393470 8.839177 -0.239433 1.580804 -0.005023 -1.566847
  time 6
    0 0.000000 0.000000 0.000000 0.073873 0.000000 -0.000026
    1 6.673672 2.904606 -8.634512 1.370196 -1.809336 -1.426941
    2 -0.071915 -8.498732 -0.104137 -0.152542 0.246016 -0.460110
    3 4.817744 -15.013546 -0.256103 -0.251409 -0.159762 1.694873
    4 10.000004 0.000002 -0.000001 -3.155566 -0.016958 0.703512
    5 2.811740 0.747386 0.000000 0.000000 0.000000 3.141592
    6 2.313365 -0.730267 0.000000 0.000000 0.000000 -1.570796
    7 2.749725 0.098767 0.000006 0.000000 3.141592 0.000000
    8 46.699851 -29.422755 0.000004 0.000001 0.000001 -3.141592
    9 -15.803130 -0.198099 0.000016 3.141591 0.000000 -0.051514
    10 14.302282 0.000004 0.000000 0.000000 0.000000 0.003353
    11 -15.803130 -0.198099 0.000016 0.392230 0.019700 -0.047561
    12 14.302280 0.000004 -0.000001 0.000000 0.000000 0.031553
    13 -15.803130 -0.198099 0.000016 1.177606 0.047586 -0.019713
    14 14.302282 0.000002 0.000002 0.000000 0.000000 0.031553
    15 -15.803130 -0.198099 0.000016 0.784735 0.036390 -0.036452
    16 14.302286 0.000000 0.000001 0.000000 0.000000 -0.003341
    17 -15.803130 -0.198099 0.000016 1.570794 0.051514 -0.000003
    18 14.302284 0.000000 0.000000 0.000000 0.000000 -0.003341
    19 -15.803130 -0.198099 0.000016 1.963964 -0.047584 -0.019713
    20 14.302282 -0.000002 0.000001 0.000000 0.000000 -0.031559
    21 -15.803130 -0.198099 0.000016 2.749372 -0.019700 -0.047561
    22 14.302284 -0.000002 -0.000003 0.000000 0.000000 -0.031559
    23 -15.803130 -0.198099 0.000016 2.356857 -0.036387 -0.036452
    24 14.302285 0.000004 -0.000002 0.000000 0.000000 0.003353
    25 -15.803130 -0.198099 0.000016 1.570793 -0.051512 0.000003
    26 14.302282 -0.000002 0.000000 0.000000 0.000000 0.003353
    27 -15.803130 -0.198099 0.000016 -1.963987 -0.047583 0.019746
    28 14.302282 -0.000010 -0.000001 0.000000 0.000000 0.031553
    29 -15.803130 -0.198099 0.000016 -2.749373 -0.019700 0.047601
    30 14.302284 0.000010 0.000001 0.000000 0.000000 0.031553
    31 -15.803130 -0.198099 0.000016 -2.356858 -0.036387 0.036414
    32 14.302282 -0.000004 0.000005 0.000000 0.000000 -0.003341
    33 -15.803130 -0.198099 0.000016 -0.784719 0.036390 0.036414
    34 14.302282 -0.000002 -0.000002 0.000000 0.000000 0.003353
    35 -15.803130 -0.198099 0.000016 -0.392231 0.019701 0.047562
    36 14.302280 -0.000004 -0.000001 0.000000 0.000000 -0.031559
    37 -15.803130 -0.198099 0.000016 -3.141592 0.000001 0.051514
    38 14.302285 0.000000 0.000000 0.000000 0.000000 -0.003341
    39 -15.803130 -0.198099 0.000016 -1.177629 0.047586 0.019746
    40 14.302279 -0.000002 0.000000 0.000000 0.000000 -0.031559
    41 1.257180 8.762585 -0.153713 -1.570562 0.002683 -1.566807
    42 -0.488518 -2.755602 -0.228260 -1.286872 -0.050430 -0.402325
    43 0.039887 -1.479790 0.029854 -1.208016 0.000000 0.000001
    44 0.028786 -1.075731 -0.023109 -0.530140 0.000000 0.000000
    45 0.250027 -2.820665 -0.238396 -1.002152 0.064816 -0.258921
    46 -0.049759 -1.680544 0.100479 -1.430840 0.000000 -0.000002
    47 -0.034142 -1.148312 0.084782 -0.766456 0.000000 0.000000
    48 0.957766 -2.746780 -0.090302 0.185474 -0.279978 0.011753
    49 -0.033420 -1.397129 -0.011257 -0.562653 0.000000 -0.000001
    50 -0.022360 -0.957436 0.018784 -0.830690 0.000000 0.000000
    51 -1.180681 -2.507217 -0.193859 -1.242958 0.074571 -0.388474
    52 -0.024967 -1.123934 0.017597 -1.138636 0.000000 0.000001
    53 -0.020057 -0.890968 0.010090 -0.440505 0.000000 0.000000
    54 0.583510 -1.197277 0.185379 -0.226871 -0.921580 0.087268
    55 1.535927 0.010246 0.005009 -0.127016 -0.194510 -0.923923
    56 1.100771 0.004527 -0.010679 -0.015224 0.005570 -1.043747
    57 0.120153 -0.050270 -0.054489 0.287569 3.110905 1.561085
    58 -1.649717 -6.766463 -9.192970 -0.337685 -5.900831 0.526301
    59 0.096944 -8.450418 -0.009365 0.047378 -0.288753 -0.027575
    60 0.447953 -2.798986 -0.200443 -0.049019 -0.206533 0.090383
    61 -0.032909 -1.480204 0.004940 -1.015334 0.000000 0.000002
    62 -0.027022 -1.076920 -0.020210 -0.813171 0.000000 0.000000
    63 -0.249534 -2.846964 -0.174213 0.146912 0.010860 -0.033600
    64 0.043235 -1.683941 0.096012 -0.989726 0.002823 -0.000167
    65 0.031729 -1.160830 0.058838 -1.015242 0.000642 0.008372
    66 -0.963866 -2.785145 -0.085350 0.258155 0.136235 -0.037326
    67 0.028479 -1.403067 0.006271 -0.422380 0.000000 0.000000
    68 0.021413 -0.957781 0.020046 0.153840 0.000000 0.000000
    69 1.164475 -2.543940 -0.170330 -0.689328 -0.486121 0.123929
    70 0.024032 -1.129042 0.017807 -0.304203 0.000000 0.000001
    71 0.014898 -0.883989 -0.019848 -0.741892 0.000000 0.000000
    72 -0.586770 -1.264477 0.200161 -0.289387 -0.420304 -2.419838
    73 1.522835 0.058681 0.016848 0.039940 0.038040 0.357708
    74 1.117947 0.048424 -0.005766 0.000764 -0.025198 0.025304
    75 -0.139399 -0.111698 0.014397 0.285382 -0.030687 1.580508
    76 -1.393470 8.839177 -0.239433 1.580804 -0.005023 -1.566847
  time 7
    0 0.000000 0.000000 0.000000 0.087260 0.000000 -0.000026
    1 6.673672 2.822573 -8.915771 1.457036 -1.904168 -1.517409
    2 -0.071915 -8.498732 -0.104137 -0.152542 0.246016 -0.460110
    3 3.005189 -15.396371 -0.767837 -0.254154 -0.203391 1.554635
    4 10.000004 0.000002 -0.000001 -3.157184 -0.018924 0.785167
    5 2.811740 0.747386 0.000000 0.000000 0.000000 3.141592
    6 2.313365 -0.730267 0.000000 0.000000 0.000000 -1.570796
    7 2.749725 0.098767 0.000006 0.000000 3.141592 0.000000
    8 46.699851 -29.422755 0.000004 0.000001 0.000001 -3.141592
    9 -15.803130 -0.198099 0.000016 3.141591 0.000000 -0.051514
    10 14.302282 0.000004 0.000000 0.000000 0.000000 0.003353
    11 -15.803130 -0.198099 0.000016 0.392230 0.019700 -0.047561
    12 14.302280 0.000004 -0.000001 0.000000 0.000000 0.031553
    13 -15.803130 -0.198099 0.000016 1.177606 0.047586 -0.019713
    14 14.302282 0.000002 0.000002 0.000000 0.000000 0.031553
    15 -15.803130 -0.198099 0.000016 0.784735 0.036390 -0.036452
    16 14.302286 0.000000 0.000001 0.000000 0.000000 -0.003341
    17 -15.803130 -0.198099 0.000016 1.570794 0.051514 -0.000003
    18 14.302284 0.000000 0.000000 0.000000 0.000000 -0.003341
    19 -15.803130 -0.198099 0.000016 1.963964 -0.047584 -0.019713
    20 14.302282 -0.000002 0.000001 0.000000 0.000000 -0.031559
    21 -15.803130 -0.198099 0.000016 2.749372 -0.019700 -0.047561
    22 14.302284 -0.000002 -0.000003 0.000000 0.000000 -0.031559
    23 -15.803130 -0.198099 0.000016 2.356857 -0.036387 -0.036452
    24 14.302285 0.000004 -0.000002 0.000000 0.000000 0.003353
    25 -15.803130 -0.198099 0.000016 1.570793 -0.051512 0.000003
    26 14.302282 -0.000002 0.000000 0.000000 0.000000 0.003353
    27 -15.803130 -0.198099 0.000016 -1.963987 -0.047583 0.019746
    28 14.302282 -0.000010 -0.000001 0.000000 0.000000 0.031553
    29 -15.803130 -0.198099 0.000016 -2.749373 -0.019700 0.047601
    30 14.302284 0.000010 0.000001 0.000000 0.000000 0.031553
    31 -15.803130 -0.198099 0.000016 -2.356858 -0.036387 0.036414
    32 14.302282 -0.000004 0.000005 0.000000 0.000000 -0.003341
    33 -15.803130 -0.198099 0.000016 -0.784719 0.036390 0.036414
    34 14.302282 -0.000002 -0.000002 0.000000 0.000000 0.003353
    35 -15.803130 -0.198099 0.000016 -0.392231 0.019701 0.047562
    36 14.302280 -0.000004 -0.000001 0.000000 0.000000 -0.031559
    37 -15.803130 -0.198099 0.000016 -3.141592 0.000001 0.051514
    38 14.302285 0.000000 0.000000 0.000000 0.000000 -0.003341
    39 -15.803130 -0.198099 0.000016 -1.177629 0.047586 0.019746
    40 14.302279 -0.000002 0.000000 0.000000 0.000000 -0.031559
    41 1.257180 8.762585 -0.153713 -1.570562 0.002683 -1.566807
    42 -0.488518 -2.755602 -0.228260 -1.286872 -0.050430 -0.402325
    43 0.039887 -1.479790 0.029854 -1.208016 0.000000 0.000001
    44 0.028786 -1.075731 -0.023109 -0.530140 0.000000 0.000000
    45 0.250027 -2.820665 -0.238396 -1.002152 0.064816 -0.258921
    46 -0.049759 -1.680544 0.100479 -1.430840 0.000000 -0.000002
    47 -0.034142 -1.148312 0.084782 -0.766456 0.000000 0.000000
    48 0.957766 -2.746780 -0.090302 0.185474 -0.279978 0.011753
    49 -0.033420 -1.397129 -0.011257 -0.562653 0.000000 -0.000001
    50 -0.022360 -0.957436 0.018784 -0.830690 0.000000 0.000000
    51 -1.180681 -2.507217 -0.193859 -1.242958 0.074571 -0.388474
    52 -0.024967 -1.123934 0.017597 -1.138636 0.000000 0.000001
    53 -0.020057 -0.890968 0.010090 -0.440505 0.000000 0.000000
    54 0.583510 -1.197277 0.185379 -0.226871 -0.921580 0.087268
    55 1.535927 0.010246 0.005009 -0.127016 -0.194510 -0.923923
    56 1.100771 0.004527 -0.010679 -0.015224 0.005570 -1.043747
    57 0.120153 -0.050270 -0.054489 0.287569 3.110905 1.561085
    58 -1.712219 -6.371920 -8.247629 -0.271453 -5.936439 0.551271
    59 0.096944 -8.450418 -0.009365 0.017802 -0.288753 -0.027575
    60 0.447953 -2.798986 -0.200443 -0.049019 -0.206533 0.090383
    61 -0.032909 -1.480204 0.004940 -1.015334 0.000000 0.000002
    62 -0.027022 -1.076920 -0.020210 -0.813171 0.000000 0.000000
    63 -0.249534 -2.846964 -0.174213 0.146912 0.010860 -0.033600
    64 0.043235 -1.683941 0.096012 -0.989726 0.002823 -0.000167
    65 0.031729 -1.160830 0.058838 -1.015242 0.000642 0.008372
    66 -0.963866 -2.785145 -0.085350 0.258155 0.136235 -0.037326
    67 0.028479 -1.403067 0.006271 -0.422380 0.000000 0.000000
    68 0.021413 -0.957781 0.020046 0.153840 0.000000 0.000000
    69 1.164475 -2.543940 -0.170330 -0.689328 -0.486121 0.123929
    70 0.024032 -1.129042 0.017807 -0.304203 0.000000 0.000001
    71 0.014898 -0.883989 -0.019848 -0.741892 0.000000 0.000000
    72 -0.586770 -1.264477 0.200161 -0.289387 -0.420304 -2.419838
    73 1.522835 0.058681 0.016848 0.039940 0.038040 0.357708
    74 1.117947 0.048424 -0.005766 0.000764 -0.025198 0.025304
    75 -0.139399 -0.111698 0.014397 0.285382 -0.030687 1.580508
    76 -1.393470 8.839177 -0.239433 1.580804 -0.005023 -1.566847
  time 8
    0 0.000000 0.000000 0.039064 0.099916 0.000000 -0.000026
    1 6.673672 2.822573 -8.876707 4.722233 -1.202903 1.491486
    2 -0.071915 -8.498732 -0.104137 -0.152542 0.246016 -0.460110
    3 3.005189 -15.396371 -0.767837 -0.254154 -0.203391 1.554635
    4 10.000004 0.000002 -0.000001 -3.157184 -0.018924 0.785167
    5 2.811740 0.747386 0.000000 0.000000 0.000000 3.141592
    6 2.313365 -0.730267 0.000000 0.000000 0.000000 -1.570796
    7 2.749725 0.544093 0.000006 0.000000 3.141592 0.000000
    8 46.699851 -29.422755 0.000004 0.000001 0.000001 -3.141592
    9 -15.803130 -0.198099 0.000016 3.141591 0.000000 -0.051514
    10 14.302282 0.000004 0.000000 0.000000 0.000000 0.003353
    11 -15.803130 -0.198099 0.000016 0.392230 0.019700 -0.047561
    12 14.302280 0.000004 -0.000001 0.000000 0.000000 0.031553
    13 -15.803130 -0.198099 0.000016 1.177606 0.047586 -0.019713
    14 14.302282 0.000002 0.000002 0.000000 0.000000 0.031553
    15 -15.803130 -0.198099 0.000016 0.784735 0.036390 -0.036452
    16 14.302286 0.000000 0.000001 0.000000 0.000000 -0.003341
    17 -15.803130 -0.198099 0.000016 1.570794 0.051514 -0.000003
    18 14.302284 0.000000 0.000000 0.000000 0.000000 -0.003341
    19 -15.803130 -0.198099 0.000016 1.963964 -0.047584 -0.019713
    20 14.302282 -0.000002 0.000001 0.000000 0.000000 -0.031559
    21 -15.803130 -0.198099 0.000016 2.749372 -0.019700 -0.047561
    22 14.302284 -0.000002 -0.000003 0.000000 0.000000 -0.031559
    23 -15.803130 -0.198099 0.000016 2.356857 -0.036387 -0.036452
    24 14.302285 0.000004 -0.000002 0.000000 0.000000 0.003353
    25 -15.803130 -0.198099 0.000016 1.570793 -0.051512 0.000003
    26 14.302282 -0.000002 0.000000 0.000000 0.000000 0.003353
    27 -15.803130 -0.198099 0.000016 -1.963987 -0.047583 0.019746
    28 14.302282 -0.000010 -0.000001 0.000000 0.000000 0.031553
    29 -15.803130 -0.198099 0.000016 -2.749373 -0.019700 0.047601
    30 14.302284 0.000010 0.000001 0.000000 0.000000 0.031553
    31 -15.803130 -0.198099 0.000016 -2.356858 -0.036387 0.036414
    32 14.302282 -0.000004 0.000005 0.000000 0.000000 -0.003341
    33 -15.803130 -0.198099 0.000016 -0.784719 0.036390 0.036414
    34 14.302282 -0.000002 -0.000002 0.000000 0.000000 0.003353
    35 -15.803130 -0.198099 0.000016 -0.392231 0.019701 0.047562
    36 14.302280 -0.000004 -0.000001 0.000000 0.000000 -0.031559
    37 -15.803130 -0.198099 0.000016 -3.141592 0.000001 0.051514
    38 14.302285 0.000000 0.000000 0.000000 0.000000 -0.003341
    39 -15.803130 -0.198099 0.000016 -1.177629 0.047586 0.019746
    40 14.302279 -0.000002 0.000000 0.000000 0.000000 -0.031559
    41 1.257180 8.762585 -0.153713 -1.570562 0.002683 -1.566807
    42 -0.488518 -2.755602 -0.228260 -1.286872 -0.050430 -0.402325
    43 0.039887 -1.479790 0.029854 -1.208016 0.000000 0.000001
    44 0.028786 -1.075731 -0.023109 -0.530140 0.000000 0.000000
    45 0.250027 -2.820665 -0.238396 -1.002152 0.064816 -0.258921
    46 -0.049759 -1.680544 0.100479 -1.430840 0.000000 -0.000002
    47 -0.034142 -1.148312 0.084782 -0.766456 0.000000 0.000000
    48 0.957766 -2.746780 -0.090302 0.185474 -0.279978 0.011753
    49 -0.033420 -1.397129 -0.011257 -0.562653 0.000000 -0.000001
    50 -0.022360 -0.957436 0.018784 -0.830690 0.000000 0.000000
    51 -1.180681 -2.507217 -0.193859 -1.242958 0.074571 -0.388474
    52 -0.024967 -1.123934 0.017597 -1.138636 0.000000 0.000001
    53 -0.020057 -0.890968 0.010090 -0.440505 0.000000 0.000000
    54 0.583510 -1.197277 0.185379 -0.226871 -0.921580 0.087268
    55 1.535927 0.010246 0.005009 -0.127016 -0.194510 -0.923923
    56 1.100771 0.004527 -0.010679 -0.015224 0.005570 -1.043747
    57 0.120153 -0.050270 -0.054489 0.287569 3.110905 1.561085
    58 -1.712219 -6.371920 -8.247629 -0.271453 -5.936439 0.551271
    59 0.096944 -8.450418 -0.009365 0.001871 -0.288753 -0.027575
    60 0.447953 -2.798986 -0.200443 -0.049019 -0.206533 0.090383
    61 -0.032909 -1.480204 0.004940 -1.015334 0.000000 0.000002
    62 -0.027022 -1.076920 -0.020210 -0.813171 0.000000 0.000000
    63 -0.249534 -2.846964 -0.174213 0.146912 0.010860 -0.033600
    64 0.043235 -1.683941 0.096012 -0.989726 0.002823 -0.000167
    65 0.031729 -1.160830 0.058838 -1.015242 0.000642 0.008372
    66 -0.963866 -2.785145 -0.085350 0.258155 0.136235 -0.037326
    67 0.028479 -1.403067 0.006271 -0.422380 0.000000 0.000000
    68 0.021413 -0.957781 0.020046 0.153840 0.000000 0.000000
    69 1.164475 -2.543940 -0.170330 -0.689328 -0.486121 0.123929
    70 0.024032 -1.129042 0.017807 -0.304203 0.000000 0.000001
    71 0.014898 -0.883989 -0.019848 -0.741892 0.000000 0.000000
    72 -0.586770 -1.264477 0.200161 -0.289387 -0.420304 -2.419838
    73 1.522835 0.058681 0.016848 0.039940 0.038040 0.357708
    74 1.117947 0.048424 -0.005766 0.000764 -0.025198 0.025304
    75 -0.139399 -0.111698 0.014397 0.285382 -0.030687 1.580508
    76 -1.393470 8.839177 -0.239433 1.580804 -0.005023 -1.566847
  time 9
    0 0.000000 0.000000 0.152348 0.113985 0.000000 -0.000026
    1 6.673672 2.822573 -8.786860 4.869435 -1.170132 1.333143
    2 -0.071915 -8.498732 -0.104137 -0.152542 0.246016 -0.460110
    3 3.005189 -15.396371 -0.767837 -0.254154 -0.203391 1.554635
    4 10.000004 0.000002 -0.000001 -3.157184 -0.018924 0.785167
    5 2.811740 0.747386 0.000000 0.000000 0.000000 3.141592
    6 2.313365 -0.730267 0.000000 0.000000 0.000000 -1.570796
    7 2.749725 0.989419 0.000006 0.000000 3.141592 0.000000
    8 46.699851 -29.422755 0.000004 0.000001 0.000001 -3.141592
    9 -15.803130 -0.198099 0.000016 3.141591 0.000000 -0.051514
    10 14.302282 0.000004 0.000000 0.000000 0.000000 0.003353
    11 -15.803130 -0.198099 0.000016 0.392230 0.019700 -0.047561
    12 14.302280 0.000004 -0.000001 0.000000 0.000000 0.031553
    13 -15.803130 -0.198099 0.000016 1.177606 0.047586 -0.019713
    14 14.302282 0.000002 0.000002 0.000000 0.000000 0.031553
    15 -15.803130 -0.198099 0.000016 0.784735 0.036390 -0.036452
    16 14.302286 0.000000 0.000001 0.000000 0.000000 -0.003341
    17 -15.803130 -0.198099 0.000016 1.570794 0.051514 -0.000003
    18 14.302284 0.000000 0.000000 0.000000 0.000000 -0.003341
    19 -15.803130 -0.198099 0.000016 1.963964 -0.047584 -0.019713
    20 14.302282 -0.000002 0.000001 0.000000 0.000000 -0.031559
    21 -15.803130 -0.198099 0.000016 2.749372 -0.019700 -0.047561
    22 14.302284 -0.000002 -0.000003 0.000000 0.000000 -0.031559
    23 -15.803130 -0.198099 0.000016 2.356857 -0.036387 -0.036452
    24 14.302285 0.000004 -0.000002 0.000000 0.000000 0.003353
    25 -15.803130 -0.198099 0.000016 1.570793 -0.051512 0.000003
    26 14.302282 -0.000002 0.000000 0.000000 0.000000 0.003353
    27 -15.803130 -0.198099 0.000016 -1.963987 -0.047583 0.019746
    28 14.302282 -0.000010 -0.000001 0.000000 0.000000 0.031553
    29 -15.803130 -0.198099 0.000016 -2.749373 -0.019700 0.047601
    30 14.302284 0.000010 0.000001 0.000000 0.000000 0.031553
    31 -15.803130 -0.198099 0.000016 -2.356858 -0.036387 0.036414
    32 14.302282 -0.000004 0.000005 0.000000 0.000000 -0.003341
    33 -15.803130 -0.198099 0.000016 -0.784719 0.036390 0.036414
    34 14.302282 -0.000002 -0.000002 0.000000 0.000000 0.003353
    35 -15.803130 -0.198099 0.000016 -0.392231 0.019701 0.047562
    36 14.302280 -0.000004 -0.000001 0.000000 0.000000 -0.031559
    37 -15.803130 -0.198099 0.000016 -3.141592 0.000001 0.051514
    38 14.302285 0.000000 0.000000 0.000000 0.000000 -0.003341
    39 -15.803130 -0.198099 0.000016 -1.177629 0.047586 0.019746
    40 14.302279 -0.000002 0.000000 0.000000 0.000000 -0.031559
    41 1.257180 8.762585 -0.153713 -1.570562 0.002683 -1.566807
    42 -0.488518 -2.755602 -0.228260 -1.286872 -0.050430 -0.402325
    43 0.039887 -1.479790 0.029854 -1.208016 0.000000 0.000001
    44 0.028786 -1.075731 -0.023109 -0.530140 0.000000 0.000000
    45 0.250027 -2.820665 -0.238396 -1.002152 0.064816 -0.258921
    46 -0.049759 -1.680544 0.100479 -1.430840 0.000000 -0.000002
    47 -0.034142 -1.148312 0.084782 -0.766456 0.000000 0.000000
    48 0.957766 -2.746780 -0.090302 0.185474 -0.279978 0.011753
    49 -0.033420 -1.397129 -0.011257 -0.562653 0.000000 -0.000001
    50 -0.022360 -0.957436 0.018784 -0.830690 0.000000 0.000000
    51 -1.180681 -2.507217 -0.193859 -1.242958 0.074571 -0.388474
    52 -0.024967 -1.123934 0.017597 -1.138636 0.000000 0.000001
    53 -0.020057 -0.890968 0.010090 -0.440505 0.000000 0.000000
    54 0.583510 -1.197277 0.185379 -0.226871 -0.921580 0.087268
    55 1.535927 0.010246 0.005009 -0.127016 -0.194510 -0.923923
    56 1.100771 0.004527 -0.010679 -0.015224 0.005570 -1.043747
    57 0.120153 -0.050270 -0.054489 0.287569 3.110905 1.561085
    58 -1.712219 -6.371920 -8.247629 -0.252146 -5.936439 0.551271
    59 0.096944 -8.450418 -0.009365 0.250746 -0.288753 -0.027575
    60 0.447953 -2.798986 -0.200443 -0.049019 -0.206533 0.090383
    61 -0.032909 -1.480204 0.004940 -1.015334 0.000000 0.000002
    62 -0.027022 -1.076920 -0.020210 -0.813171 0.000000 0.000000
    63 -0.249534 -2.846964 -0.174213 0.146912 0.010860 -0.033600
    64 0.043235 -1.683941 0.096012 -0.989726 0.002823 -0.000167
    65 0.031729 -1.160830 0.058838 -1.015242 0.000642 0.008372
    66 -0.963866 -2.785145 -0.085350 0.258155 0.136235 -0.037326
    67 0.028479 -1.403067 0.006271 -0.422380 0.000000 0.000000
    68 0.021413 -0.957781 0.020046 0.153840 0.000000 0.000000
    69 1.164475 -2.543940 -0.170330 -0.689328 -0.486121 0.123929
    70 0.024032 -1.129042 0.017807 -0.304203 0.000000 0.000001
    71 0.014898 -0.883989 -0.019848 -0.741892 0.000000 0.000000
    72 -0.586770 -1.264477 0.200161 -0.289387 -0.420304 -2.419838
    73 1.522835 0.058681 0.016848 0.039940 0.038040 0.357708
    74 1.117947 0.048424 -0.005766 0.000764 -0.025198 0.025304
    75 -0.139399 -0.111698 0.014397 0.285382 -0.030687 1.580508
    76 -1.393470 8.839177 -0.239433 1.580804 -0.005023 -1.566847
  time 10
    0 0.000000 0.000000 0.312510 0.128511 0.000000 -0.000026
    1 6.673672 2.822573 -8.700920 5.027839 -1.139992 1.162547
    2 -0.071915 -8.498732 -0.104137 -0.152542 0.246016 -0.460110
    3 3.005189 -15.396371 -0.767837 -0.254154 -0.203391 1.554635
    4 10.000004 0.000002 -0.000001 -3.157184 -0.018924 0.785167
    5 2.811740 0.747386 0.000000 0.000000 0.000000 3.141592
    6 2.313365 -0.730267 0.000000 0.000000 0.000000 -1.570796
    7 2.749725 0.989419 0.000006 0.000000 3.141592 0.000000
    8 46.699851 -29.422755 0.000004 0.000001 0.000001 -3.141592
    9 -15.803130 -0.198099 0.000016 3.141591 0.000000 -0.051514
    10 14.302282 0.000004 0.000000 0.000000 0.000000 0.003353
    11 -15.803130 -0.198099 0.000016 0.392230 0.019700 -0.047561
    12 14.302280 0.000004 -0.000001 0.000000 0.000000 0.031553
    13 -15.803130 -0.198099 0.000016 1.177606 0.047586 -0.019713
    14 14.302282 0.000002 0.000002 0.000000 0.000000 0.031553
    15 -15.803130 -0.198099 0.000016 0.784735 0.036390 -0.036452
    16 14.302286 0.000000 0.000001 0.000000 0.000000 -0.003341
    17 -15.803130 -0.198099 0.000016 1.570794 0.051514 -0.000003
    18 14.302284 0.000000 0.000000 0.000000 0.000000 -0.003341
    19 -15.803130 -0.198099 0.000016 1.963964 -0.047584 -0.019713
    20 14.302282 -0.000002 0.000001 0.000000 0.000000 -0.031559
    21 -15.803130 -0.198099 0.000016 2.749372 -0.019700 -0.047561
    22 14.302284 -0.000002 -0.000003 0.000000 0.000000 -0.031559
    23 -15.803130 -0.198099 0.000016 2.356857 -0.036387 -0.036452
    24 14.302285 0.000004 -0.000002 0.000000 0.000000 0.003353
    25 -15.803130 -0.198099 0.000016 1.570793 -0.051512 0.000003
    26 14.302282 -0.000002 0.000000 0.000000 0.000000 0.003353
    27 -15.803130 -0.198099 0.000016 -1.963987 -0.047583 0.019746
    28 14.302282 -0.000010 -0.000001 0.000000 0.000000 0.031553
    29 -15.803130 -0.198099 0.000016 -2.749373 -0.019700 0.047601
    30 14.302284 0.000010 0.000001 0.000000 0.000000 0.031553
    31 -15.803130 -0.198099 0.000016 -2.356858 -0.036387 0.036414
    32 14.302282 -0.000004 0.000005 0.000000 0.000000 -0.003341
    33 -15.803130 -0.198099 0.000016 -0.784719 0.036390 0.036414
    34 14.302282 -0.000002 -0.000002 0.000000 0.000000 0.003353
    35 -15.803130 -0.198099 0.000016 -0.392231 0.019701 0.047562
    36 14.302280 -0.000004 -0.000001 0.000000 0.000000 -0.031559
    37 -15.803130 -0.198099 0.000016 -3.141592 0.000001 0.051514
    38 14.302285 0.000000 0.000000 0.000000 0.000000 -0.003341
    39 -15.803130 -0.198099 0.000016 -1.177629 0.047586 0.019746
    40 14.302279 -0.000002 0.000000 0.000000 0.000000 -0.031559
    41 1.257180 8.762585 -0.153713 -1.570562 0.002683 -1.566807
    42 -0.488518 -2.755602 -0.228260 -1.286872 -0.050430 -0.402325
    43 0.039887 -1.479790 0.029854 -1.208016 0.000000 0.000001
    44 0.028786 -1.075731 -0.023109 -0.530140 0.000000 0.000000
    45 0.250027 -2.820665 -0.238396 -1.002152 0.064816 -0.258921
    46 -0.049759 -1.680544 0.100479 -1.430840 0.000000 -0.000002
    47 -0.034142 -1.148312 0.084782 -0.766456 0.000000 0.000000
    48 0.957766 -2.746780 -0.090302 0.185474 -0.279978 0.011753
    49 -0.033420 -1.397129 -0.011257 -0.562653 0.000000 -0.000001
    50 -0.022360 -0.957436 0.018784 -0.830690 0.000000 0.000000
    51 -1.180681 -2.507217 -0.193859 -1.242958 0.074571 -0.388474
    52 -0.024967 -1.123934 0.017597 -1.138636 0.000000 0.000001
    53 -0.020057 -0.890968 0.010090 -0.440505 0.000000 0.000000
    54 0.583510 -1.197277 0.185379 -0.226871 -0.921580 0.087268
    55 1.535927 0.010246 0.005009 -0.127016 -0.194510 -0.923923
    56 1.100771 0.004527 -0.010679 -0.015224 0.005570 -1.043747
    57 0.120153 -0.050270 -0.054489 0.287569 3.110905 1.561085
    58 -1.712219 -6.371920 -8.247629 -0.202280 -5.936439 0.551271
    59 0.096944 -8.450418 -0.009365 0.499620 -0.288753 -0.027575
    60 0.447953 -2.798986 -0.200443 -0.049019 -0.206533 0.090383
    61 -0.032909 -1.480204 0.004940 -1.015334 0.000000 0.000002
    62 -0.027022 -1.076920 -0.020210 -0.813171 0.000000 0.000000
    63 -0.249534 -2.846964 -0.174213 0.146912 0.010860 -0.033600
    64 0.043235 -1.683941 0.096012 -0.989726 0.002823 -0.000167
    65 0.031729 -1.160830 0.058838 -1.015242 0.000642 0.008372
    66 -0.963866 -2.785145 -0.085350 0.258155 0.136235 -0.037326
    67 0.028479 -1.403067 0.006271 -0.422380 0.000000 0.000000
    68 0.021413 -0.957781 0.020046 0.153840 0.000000 0.000000
    69 1.164475 -2.543940 -0.170330 -0.689328 -0.486121 0.123929
    70 0.024032 -1.129042 0.017807 -0.304203 0.000000 0.000001
    71 0.014898 -0.883989 -0.019848 -0.741892 0.000000 0.000000
    72 -0.586770 -1.264477 0.200161 -0.289387 -0.420304 -2.419838
    73 1.522835 0.058681 0.016848 0.039940 0.038040 0.357708
    74 1.117947 0.048424 -0.005766 0.000764 -0.025198 0.025304
    75 -0.139399 -0.111698 0.014397 0.285382 -0.030687 1.580508
    76 -1.393470 8.839177 -0.239433 1.580804 -0.005023 -1.566847
  time 11
    0 0.000000 0.000000 0.496109 0.142533 0.000000 -0.000026
    1 6.673672 2.822573 -8.661857 5.185132 -1.113334 0.993003
    2 -0.071915 -8.498732 -0.104137 -0.152542 0.246016 -0.460110
    3 3.005189 -15.396371 -0.767837 -0.254154 -0.203391 1.554635
    4 10.000004 0.000002 -0.000001 -3.157184 -0.018924 0.785167
    5 2.811740 0.747386 0.000000 0.000000 0.000000 3.141592
    6 2.313365 -0.730267 0.000000 0.000000 0.000000 -1.570796
    7 2.749725 0.989419 0.000006 0.000000 3.141592 0.000000
    8 46.699851 -29.422755 0.000004 0.000001 0.000001 -3.141592
    9 -15.803130 -0.198099 0.000016 3.141591 0.000000 -0.051514
    10 14.302282 0.000004 0.000000 0.000000 0.000000 0.003353
    11 -15.803130 -0.198099 0.000016 0.392230 0.019700 -0.047561
    12 14.302280 0.000004 -0.000001 0.000000 0.000000 0.031553
    13 -15.803130 -0.198099 0.000016 1.177606 0.047586 -0.019713
    14 14.302282 0.000002 0.000002 0.000000 0.000000 0.031553
    15 -15.803130 -0.198099 0.000016 0.784735 0.036390 -0.036452
    16 14.302286 0.000000 0.000001 0.000000 0.000000 -0.003341
    17 -15.803130 -0.198099 0.000016 1.570794 0.051514 -0.000003
    18 14.302284 0.000000 0.000000 0.000000 0.000000 -0.003341
    19 -15.803130 -0.198099 0.000016 1.963964 -0.047584 -0.019713
    20 14.302282 -0.000002 0.000001 0.000000 0.000000 -0.031559
    21 -15.803130 -0.198099 0.000016 2.749372 -0.019700 -0.047561
    22 14.302284 -0.000002 -0.000003 0.000000 0.000000 -0.031559
    23 -15.803130 -0.198099 0.000016 2.356857 -0.036387 -0.036452
    24 14.302285 0.000004 -0.000002 0.000000 0.000000 0.003353
    25 -15.803130 -0.198099 0.000016 1.570793 -0.051512 0.000003
    26 14.302282 -0.000002 0.000000 0.000000 0.000000 0.003353
    27 -15.803130 -0.198099 0.000016 -1.963987 -0.047583 0.019746
    28 14.302282 -0.000010 -0.000001 0.000000 0.000000 0.031553
    29 -15.803130 -0.198099 0.000016 -2.749373 -0.019700 0.047601
    30 14.302284 0.000010 0.000001 0.000000 0.000000 0.031553
    31 -15.803130 -0.198099 0.000016 -2.356858 -0.036387 0.036414
    32 14.302282 -0.000004 0.000005 0.000000 0.000000 -0.003341
    33 -15.803130 -0.198099 0.000016 -0.784719 0.036390 0.036414
    34 14.302282 -0.000002 -0.000002 0.000000 0.000000 0.003353
    35 -15.803130 -0.198099 0.000016 -0.392231 0.019701 0.047562
    36 14.302280 -0.000004 -0.000001 0.000000 0.000000 -0.031559
    37 -15.803130 -0.198099 0.000016 -3.141592 0.000001 0.051514
    38 14.302285 0.000000 0.000000 0.000000 0.000000 -0.003341
    39 -15.803130 -0.198099 0.000016 -1.177629 0.047586 0.019746
    40 14.302279 -0.000002 0.000000 0.000000 0.000000 -0.031559
    41 1.257180 8.762585 -0.153713 -1.570562 0.002683 -1.566807
    42 -0.488518 -2.755602 -0.228260 -1.286872 -0.050430 -0.402325
    43 0.039887 -1.479790 0.029854 -1.208016 0.000000 0.000001
    44 0.028786 -1.075731 -0.023109 -0.530140 0.000000 0.000000
    45 0.250027 -2.820665 -0.238396 -1.002152 0.064816 -0.258921
    46 -0.049759 -1.680544 0.100479 -1.430840 0.000000 -0.000002
    47 -0.034142 -1.148312 0.084782 -0.766456 0.000000 0.000000
    48 0.957766 -2.746780 -0.090302 0.185474 -0.279978 0.011753
    49 -0.033420 -1.397129 -0.011257 -0.562653 0.000000 -0.000001
    50 -0.022360 -0.957436 0.018784 -0.830690 0.000000 0.000000
    51 -1.180681 -2.507217 -0.193859 -1.242958 0.074571 -0.388474
    52 -0.024967 -1.123934 0.017597 -1.138636 0.000000 0.000001
    53 -0.020057 -0.890968 0.010090 -0.440505 0.000000 0.000000
    54 0.583510 -1.197277 0.185379 -0.226871 -0.921580 0.087268
    55 1.535927 0.010246 0.005009 -0.127016 -0.194510 -0.923923
    56 1.100771 0.004527 -0.010679 -0.015224 0.005570 -1.043747
    57 0.120153 -0.050270 -0.054489 0.287569 3.110905 1.561085
    58 -1.712219 -6.371920 -8.247629 -0.134066 -5.936439 0.551271
    59 0.096944 -8.450418 -0.009365 0.499620 -0.288753 -0.027575
    60 0.447953 -2.798986 -0.200443 -0.049019 -0.206533 0.090383
    61 -0.032909 -1.480204 0.004940 -1.015334 0.000000 0.000002
    62 -0.027022 -1.076920 -0.020210 -0.813171 0.000000 0.000000
    63 -0.249534 -2.846964 -0.174213 0.146912 0.010860 -0.033600
    64 0.043235 -1.683941 0.096012 -0.989726 0.002823 -0.000167
    65 0.031729 -1.160830 0.058838 -1.015242 0.000642 0.008372
    66 -0.963866 -2.785145 -0.085350 0.258155 0.136235 -0.037326
    67 0.028479 -1.403067 0.006271 -0.422380 0.000000 0.000000
    68 0.021413 -0.957781 0.020046 0.153840 0.000000 0.000000
    69 1.164475 -2.543940 -0.170330 -0.689328 -0.486121 0.123929
    70 0.024032 -1.129042 0.017807 -0.304203 0.000000 0.000001
    71 0.014898 -0.883989 -0.019848 -0.741892 0.000000 0.000000
    72 -0.586770 -1.264477 0.200161 -0.289387 -0.420304 -2.419838
    73 1.522835 0.058681 0.016848 0.039940 0.038040 0.357708
    74 1.117947 0.048424 -0.005766 0.000764 -0.025198 0.025304
    75 -0.139399 -0.111698 0.014397 0.285382 -0.030687 1.580508
    76 -1.393470 8.839177 -0.239433 1.580804 -0.005023 -1.566847
  time 12
    0 0.000000 0.000000 0.679708 0.155093 0.000000 -0.000026
    1 6.673672 2.822573 -8.700920 5.329001 -1.091091 0.837915
    2 -0.071915 -8.498732 -0.104137 -0.152542 0.246016 -0.460110
    3 3.005189 -15.396371 -0.767837 -0.254154 -0.203391 1.554635
    4 10.000004 0.000002 -0.000001 -3.157184 -0.018924 0.785167
    5 2.811740 0.747386 0.000000 0.000000 0.000000 3.141592
    6 2.313365 -0.730267 0.000000 0.000000 0.000000 -1.570796
    7 2.749725 0.989419 0.000006 0.000000 3.141592 0.000000
    8 46.699851 -29.422755 0.000004 0.000001 0.000001 -3.141592
    9 -15.803130 -0.198099 0.000016 3.141591 0.000000 -0.051514
    10 14.302282 0.000004 0.000000 0.000000 0.000000 0.003353
    11 -15.803130 -0.198099 0.000016 0.392230 0.019700 -0.047561
    12 14.302280 0.000004 -0.000001 0.000000 0.000000 0.031553
    13 -15.803130 -0.198099 0.000016 1.177606 0.047586 -0.019713
    14 14.302282 0.000002 0.000002 0.000000 0.000000 0.031553
    15 -15.803130 -0.198099 0.000016 0.784735 0.036390 -0.036452
    16 14.302286 0.000000 0.000001 0.000000 0.000000 -0.003341
    17 -15.803130 -0.198099 0.000016 1.570794 0.051514 -0.000003
    18 14.302284 0.000000 0.000000 0.000000 0.000000 -0.003341
    19 -15.803130 -0.198099 0.000016 1.963964 -0.047584 -0.019713
    20 14.302282 -0.000002 0.000001 0.000000 0.000000 -0.031559
    21 -15.803130 -0.198099 0.000016 2.749372 -0.019700 -0.047561
    22 14.302284 -0.000002 -0.000003 0.000000 0.000000 -0.031559
    23 -15.803130 -0.198099 0.000016 2.356857 -0.036387 -0.036452
    24 14.302285 0.000004 -0.000002 0.000000 0.000000 0.003353
    25 -15.803130 -0.198099 0.000016 1.570793 -0.051512 0.000003
    26 14.302282 -0.000002 0.000000 0.000000 0.000000 0.003353
    27 -15.803130 -0.198099 0.000016 -1.963987 -0.047583 0.019746
    28 14.302282 -0.000010 -0.000001 0.000000 0.000000 0.031553
    29 -15.803130 -0.198099 0.000016 -2.749373 -0.019700 0.047601
    30 14.302284 0.000010 0.000001 0.000000 0.000000 0.031553
    31 -15.803130 -0.198099 0.000016 -2.356858 -0.036387 0.036414
    32 14.302282 -0.000004 0.000005 0.000000 0.000000 -0.003341
    33 -15.803130 -0.198099 0.000016 -0.784719 0.036390 0.036414
    34 14.302282 -0.000002 -0.000002 0.000000 0.000000 0.003353
    35 -15.803130 -0.198099 0.000016 -0.392231 0.019701 0.047562
    36 14.302280 -0.000004 -0.000001 0.000000 0.000000 -0.031559
    37 -15.803130 -0.198099 0.000016 -3.141592 0.000001 0.051514
    38 14.302285 0.000000 0.000000 0.000000 0.000000 -0.003341
    39 -15.803130 -0.198099 0.000016 -1.177629 0.047586 0.019746
    40 14.302279 -0.000002 0.000000 0.000000 0.000000 -0.031559
    41 1.257180 8.762585 -0.153713 -1.570562 0.002683 -1.566807
    42 -0.488518 -2.755602 -0.228260 -1.286872 -0.050430 -0.402325
    43 0.039887 -1.479790 0.029854 -1.208016 0.000000 0.000001
    44 0.028786 -1.075731 -0.023109 -0.530140 0.000000 0.000000
    45 0.250027 -2.820665 -0.238396 -1.002152 0.064816 -0.258921
    46 -0.049759 -1.680544 0.100479 -1.430840 0.000000 -0.000002
    47 -0.034142 -1.148312 0.084782 -0.766456 0.000000 0.000000
    48 0.957766 -2.746780 -0.090302 0.185474 -0.279978 0.011753
    49 -0.033420 -1.397129 -0.011257 -0.562653 0.000000 -0.000001
    50 -0.022360 -0.957436 0.018784 -0.830690 0.000000 0.000000
    51 -1.180681 -2.507217 -0.193859 -1.242958 0.074571 -0.388474
    52 -0.024967 -1.123934 0.017597 -1.138636 0.000000 0.000001
    53 -0.020057 -0.890968 0.010090 -0.440505 0.000000 0.000000
    54 0.583510 -1.197277 0.185379 -0.226871 -0.921580 0.087268
    55 1.535927 0.010246 0.005009 -0.127016 -0.194510 -0.923923
    56 1.100771 0.004527 -0.010679 -0.015224 0.005570 -1.043747
    57 0.120153 -0.050270 -0.054489 0.287569 3.110905 1.561085
    58 -1.712219 -6.371920 -8.247629 -0.059778 -5.936439 0.551271
    59 0.096944 -8.450418 -0.009365 0.499620 -0.288753 -0.027575
    60 0.447953 -2.798986 -0.200443 -0.049019 -0.206533 0.090383
    61 -0.032909 -1.480204 0.004940 -1.015334 0.000000 0.000002
    62 -0.027022 -1.076920 -0.020210 -0.813171 0.000000 0.000000
    63 -0.249534 -2.846964 -0.174213 0.146912 0.010860 -0.033600
    64 0.043235 -1.683941 0.096012 -0.989726 0.002823 -0.000167
    65 0.031729 -1.160830 0.058838 -1.015242 0.000642 0.008372
    66 -0.963866 -2.785145 -0.085350 0.258155 0.136235 -0.037326
    67 0.028479 -1.403067 0.006271 -0.422380 0.000000 0.000000
    68 0.021413 -0.957781 0.020046 0.153840 0.000000 0.000000
    69 1.164475 -2.543940 -0.170330 -0.689328 -0.486121 0.123929
    70 0.024032 -1.129042 0.017807 -0.304203 0.000000 0.000001
    71 0.014898 -0.883989 -0.019848 -0.741892 0.000000 0.000000
    72 -0.586770 -1.264477 0.200161 -0.289387 -0.420304 -2.419838
    73 1.522835 0.058681 0.016848 0.039940 0.038040 0.357708
    74 1.117947 0.048424 -0.005766 0.000764 -0.025198 0.025304
    75 -0.139399 -0.111698 0.014397 0.285382 -0.030687 1.580508
    76 -1.393470 8.839177 -0.239433 1.580804 -0.005023 -1.566847
  time 13
    0 0.000000 0.000000 0.839869 0.165256 0.000000 -0.000026
    1 6.673672 2.822573 -8.786860 5.447040 -1.074111 0.710590
    2 -0.071915 -8.498732 -0.104137 -0.152542 0.246016 -0.460110
    3 3.005189 -15.396371 -0.767837 -0.254154 -0.203391 1.554635
    4 10.000004 0.000002 -0.000001 -3.157184 -0.018924 0.785167
    5 2.811740 0.747386 0.000000 0.000000 0.000000 3.141592
    6 2.313365 -0.730267 0.000000 0.000000 0.000000 -1.570796
    7 2.749725 0.989419 0.000006 0.000000 3.141592 0.000000
    8 46.699851 -29.422755 0.000004 0.000001 0.000001 -3.141592
    9 -15.803130 -0.198099 0.000016 3.141591 0.000000 -0.051514
    10 14.302282 0.000004 0.000000 0.000000 0.000000 0.003353
    11 -15.803130 -0.198099 0.000016 0.392230 0.019700 -0.047561
    12 14.302280 0.000004 -0.000001 0.000000 0.000000 0.031553
    13 -15.803130 -0.198099 0.000016 1.177606 0.047586 -0.019713
    14 14.302282 0.000002 0.000002 0.000000 0.000000 0.031553
    15 -15.803130 -0.198099 0.000016 0.784735 0.036390 -0.036452
    16 14.302286 0.000000 0.000001 0.000000 0.000000 -0.003341
    17 -15.803130 -0.198099 0.000016 1.570794 0.051514 -0.000003
    18 14.302284 0.000000 0.000000 0.000000 0.000000 -0.003341
    19 -15.803130 -0.198099 0.000016 1.963964 -0.047584 -0.019713
    20 14.302282 -0.000002 0.000001 0.000000 0.000000 -0.031559
    21 -15.803130 -0.198099 0.000016 2.749372 -0.019700 -0.047561
    22 14.302284 -0.000002 -0.000003 0.000000 0.000000 -0.031559
    23 -15.803130 -0.198099 0.000016 2.356857 -0.036387 -0.036452
    24 14.302285 0.000004 -0.000002 0.000000 0.000000 0.003353
    25 -15.803130 -0.198099 0.000016 1.570793 -0.051512 0.000003
    26 14.302282 -0.000002 0.000000 0.000000 0.000000 0.003353
    27 -15.803130 -0.198099 0.000016 -1.963987 -0.047583 0.019746
    28 14.302282 -0.000010 -0.000001 0.000000 0.000000 0.031553
    29 -15.803130 -0.198099 0.000016 -2.749373 -0.019700 0.047601
    30 14.302284 0.000010 0.000001 0.000000 0.000000 0.031553
    31 -15.803130 -0.198099 0.000016 -2.356858 -0.036387 0.036414
    32 14.302282 -0.000004 0.000005 0.000000 0.000000 -0.003341
    33 -15.803130 -0.198099 0.000016 -0.784719 0.036390 0.036414
    34 14.302282 -0.000002 -0.000002 0.000000 0.000000 0.003353
    35 -15.803130 -0.198099 0.000016 -0.392231 0.019701 0.047562
    36 14.302280 -0.000004 -0.000001 0.000000 0.000000 -0.031559
    37 -15.803130 -0.198099 0.000016 -3.141592 0.000001 0.051514
    38 14.302285 0.000000 0.000000 0.000000 0.000000 -0.003341
    39 -15.803130 -0.198099 0.000016 -1.177629 0.047586 0.019746
    40 14.302279 -0.000002 0.000000 0.000000 0.000000 -0.031559
    41 1.257180 8.762585 -0.153713 -1.570562 0.002683 -1.566807
    42 -0.488518 -2.755602 -0.228260 -1.286872 -0.050430 -0.402325
    43 0.039887 -1.479790 0.029854 -1.208016 0.000000 0.000001
    44 0.028786 -1.075731 -0.023109 -0.530140 0.000000 0.000000
    45 0.250027 -2.820665 -0.238396 -1.002152 0.064816 -0.258921
    46 -0.049759 -1.680544 0.100479 -1.430840 0.000000 -0.000002
    47 -0.034142 -1.148312 0.084782 -0.766456 0.000000 0.000000
    48 0.957766 -2.746780 -0.090302 0.185474 -0.279978 0.011753
    49 -0.033420 -1.397129 -0.011257 -0.562653 0.000000 -0.000001
    50 -0.022360 -0.957436 0.018784 -0.830690 0.000000 0.000000
    51 -1.180681 -2.507217 -0.193859 -1.242958 0.074571 -0.388474
    52 -0.024967 -1.123934 0.017597 -1.138636 0.000000 0.000001
    53 -0.020057 -0.890968 0.010090 -0.440505 0.000000 0.000000
    54 0.583510 -1.197277 0.185379 -0.226871 -0.921580 0.087268
    55 1.535927 0.010246 0.005009 -0.127016 -0.194510 -0.923923
    56 1.100771 0.004527 -0.010679 -0.015224 0.005570 -1.043747
    57 0.120153 -0.050270 -0.054489 0.287569 3.110905 1.561085
    58 -1.712219 -6.371920 -8.247629 0.008308 -5.936439 0.551271
    59 0.096944 -8.450418 -0.009365 0.499620 -0.288753 -0.027575
    60 0.447953 -2.798986 -0.200443 -0.049019 -0.206533 0.090383
    61 -0.032909 -1.480204 0.004940 -1.015334 0.000000 0.000002
    62 -0.027022 -1.076920 -0.020210 -0.813171 0.000000 0.000000
    63 -0.249534 -2.846964 -0.174213 0.146912 0.010860 -0.033600
    64 0.043235 -1.683941 0.096012 -0.989726 0.002823 -0.000167
    65 0.031729 -1.160830 0.058838 -1.015242 0.000642 0.008372
    66 -0.963866 -2.785145 -0.085350 0.258155 0.136235 -0.037326
    67 0.028479 -1.403067 0.006271 -0.422380 0.000000 0.000000
    68 0.021413 -0.957781 0.020046 0.153840 0.000000 0.000000
    69 1.164475 -2.543940 -0.170330 -0.689328 -0.486121 0.123929
    70 0.024032 -1.129042 0.017807 -0.304203 0.000000 0.000001
    71 0.014898 -0.883989 -0.019848 -0.741892 0.000000 0.000000
    72 -0.586770 -1.264477 0.200161 -0.289387 -0.420304 -2.419838
    73 1.522835 0.058681 0.016848 0.039940 0.038040 0.357708
    74 1.117947 0.048424 -0.005766 0.000764 -0.025198 0.025304
    75 -0.139399 -0.111698 0.014397 0.285382 -0.030687 1.580508
    76 -1.393470 8.839177 -0.239433 1.580804 -0.005023 -1.566847
  time 14
    0 0.000000 0.000000 0.953154 0.172051 0.000000 -0.000026
    1 6.673672 2.822573 -8.876707 5.526936 -1.063244 0.624430
    2 -0.071915 -8.498732 -0.104137 -0.152542 0.246016 -0.460110
    3 3.005189 -15.396371 -0.767837 -0.254154 -0.203391 1.554635
    4 10.000004 0.000002 -0.000001 -3.157184 -0.018924 0.785167
    5 2.811740 0.747386 0.000000 0.000000 0.000000 3.141592
    6 2.313365 -0.730267 0.000000 0.000000 0.000000 -1.570796
    7 2.749725 0.989419 0.000006 0.000000 3.141592 0.000000
    8 46.699851 -29.422755 0.000004 0.000001 0.000001 -3.141592
    9 -15.803130 -0.198099 0.000016 3.141591 0.000000 -0.051514
    10 14.302282 0.000004 0.000000 0.000000 0.000000 0.003353
    11 -15.803130 -0.198099 0.000016 0.392230 0.019700 -0.047561
    12 14.302280 0.000004 -0.000001 0.000000 0.000000 0.031553
    13 -15.803130 -0.198099 0.000016 1.177606 0.047586 -0.019713
    14 14.302282 0.000002 0.000002 0.000000 0.000000 0.031553
    15 -15.803130 -0.198099 0.000016 0.784735 0.036390 -0.036452
    16 14.302286 0.000000 0.000001 0.000000 0.000000 -0.003341
    17 -15.803130 -0.198099 0.000016 1.570794 0.051514 -0.000003
    18 14.302284 0.000000 0.000000 0.000000 0.000000 -0.003341
    19 -15.803130 -0.198099 0.000016 1.963964 -0.047584 -0.019713
    20 14.302282 -0.000002 0.000001 0.000000 0.000000 -0.031559
    21 -15.803130 -0.198099 0.000016 2.749372 -0.019700 -0.047561
    22 14.302284 -0.000002 -0.000003 0.000000 0.000000 -0.031559
    23 -15.803130 -0.198099 0.000016 2.356857 -0.036387 -0.036452
    24 14.302285 0.000004 -0.000002 0.000000 0.000000 0.003353
    25 -15.803130 -0.198099 0.000016 1.570793 -0.051512 0.000003
    26 14.302282 -0.000002 0.000000 0.000000 0.000000 0.003353
    27 -15.803130 -0.198099 0.000016 -1.963987 -0.047583 0.019746
    28 14.302282 -0.000010 -0.000001 0.000000 0.000000 0.031553
    29 -15.803130 -0.198099 0.000016 -2.749373 -0.019700 0.047601
    30 14.302284 0.000010 0.000001 0.000000 0.000000 0.031553
    31 -15.803130 -0.198099 0.000016 -2.356858 -0.036387 0.036414
    32 14.302282 -0.000004 0.000005 0.000000 0.000000 -0.003341
    33 -15.803130 -0.198099 0.000016 -0.784719 0.036390 0.036414
    34 14.302282 -0.000002 -0.000002 0.000000 0.000000 0.003353
    35 -15.803130 -0.198099 0.000016 -0.392231 0.019701 0.047562
    36 14.302280 -0.000004 -0.000001 0.000000 0.000000 -0.031559
    37 -15.803130 -0.198099 0.000016 -3.141592 0.000001 0.051514
    38 14.302285 0.000000 0.000000 0.000000 0.000000 -0.003341
    39 -15.803130 -0.198099 0.000016 -1.177629 0.047586 0.019746
    40 14.302279 -0.000002 0.000000 0.000000 0.000000 -0.031559
    41 1.257180 8.762585 -0.153713 -1.570562 0.002683 -1.566807
    42 -0.488518 -2.755602 -0.228260 -1.286872 -0.050430 -0.402325
    43 0.039887 -1.479790 0.029854 -1.208016 0.000000 0.000001
    44 0.028786 -1.075731 -0.023109 -0.530140 0.000000 0.000000
    45 0.250027 -2.820665 -0.238396 -1.002152 0.064816 -0.258921
    46 -0.049759 -1.680544 0.100479 -1.430840 0.000000 -0.000002
    47 -0.034142 -1.148312 0.084782 -0.766456 0.000000 0.000000
    48 0.957766 -2.746780 -0.090302 0.185474 -0.279978 0.011753
    49 -0.033420 -1.397129 -0.011257 -0.562653 0.000000 -0.000001
    50 -0.022360 -0.957436 0.018784 -0.830690 0.000000 0.000000
    51 -1.180681 -2.507217 -0.193859 -1.242958 0.074571 -0.388474
    52 -0.024967 -1.123934 0.017597 -1.138636 0.000000 0.000001
    53 -0.020057 -0.890968 0.010090 -0.440505 0.000000 0.000000
    54 0.583510 -1.197277 0.185379 -0.226871 -0.921580 0.087268
    55 1.535927 0.010246 0.005009 -0.127016 -0.194510 -0.923923
    56 1.100771 0.004527 -0.010679 -0.015224 0.005570 -1.043747
    57 0.120153 -0.050270 -0.054489 0.287569 3.110905 1.561085
    58 -1.712219 -6.371920 -8.247629 0.058174 -5.936439 0.551271
    59 0.096944 -8.450418 -0.009365 0.499620 -0.288753 -0.027575
    60 0.447953 -2.798986 -0.200443 -0.049019 -0.206533 0.090383
    61 -0.032909 -1.480204 0.004940 -1.015334 0.000000 0.000002
    62 -0.027022 -1.076920 -0.020210 -0.813171 0.000000 0.000000
    63 -0.249534 -2.846964 -0.174213 0.146912 0.010860 -0.033600
    64 0.043235 -1.683941 0.096012 -0.989726 0.002823 -0.000167
    65 0.031729 -1.160830 0.058838 -1.015242 0.000642 0.008372
    66 -0.963866 -2.785145 -0.085350 0.258155 0.136235 -0.037326
    67 0.028479 -1.403067 0.006271 -0.422380 0.000000 0.000000
    68 0.021413 -0.957781 0.020046 0.153840 0.000000 0.000000
    69 1.164475 -2.543940 -0.170330 -0.689328 -0.486121 0.123929
    70 0.024032 -1.129042 0.017807 -0.304203 0.000000 0.000001
    71 0.014898 -0.883989 -0.019848 -0.741892 0.000000 0.000000
    72 -0.586770 -1.264477 0.200161 -0.289387 -0.420304 -2.419838
    73 1.522835 0.058681 0.016848 0.039940 0.038040 0.357708
    74 1.117947 0.048424 -0.005766 0.000764 -0.025198 0.025304
    75 -0.139399 -0.111698 0.014397 0.285382 -0.030687 1.580508
    76 -1.393470 8.839177 -0.239433 1.580804 -0.005023 -1.566847
  time 15
    0 0.000000 0.000000 0.996124 0.174532 0.000000 -0.000026
    1 6.673672 2.822573 -8.915771 5.556284 -1.059423 0.592647
    2 -0.071915 -8.498732 -0.104137 -0.152542 0.246016 -0.460110
    3 3.005189 -15.396371 -0.767837 -0.254154 -0.203391 1.554635
    4 10.000004 0.000002 -0.000001 -3.157184 -0.018924 0.785167
    5 2.811740 0.747386 0.000000 0.000000 0.000000 3.141592
    6 2.313365 -0.730267 0.000000 0.000000 0.000000 -1.570796
    7 2.749725 0.989419 0.000006 0.000000 3.141592 0.000000
    8 46.699851 -29.422755 0.000004 0.000001 0.000001 -3.141592
    9 -15.803130 -0.198099 0.000016 3.141591 0.000000 -0.051514
    10 14.302282 0.000004 0.000000 0.000000 0.000000 0.003353
    11 -15.803130 -0.198099 0.000016 0.392230 0.019700 -0.047561
    12 14.302280 0.000004 -0.000001 0.000000 0.000000 0.031553
    13 -15.803130 -0.198099 0.000016 1.177606 0.047586 -0.019713
    14 14.302282 0.000002 0.000002 0.000000 0.000000 0.031553
    15 -15.803130 -0.198099 0.000016 0.784735 0.036390 -0.036452
    16 14.302286 0.000000 0.000001 0.000000 0.000000 -0.003341
    17 -15.803130 -0.198099 0.000016 1.570794 0.051514 -0.000003
    18 14.302284 0.000000 0.000000 0.000000 0.000000 -0.003341
    19 -15.803130 -0.198099 0.000016 1.963964 -0.047584 -0.019713
    20 14.302282 -0.000002 0.000001 0.000000 0.000000 -0.031559
    21 -15.803130 -0.198099 0.000016 2.749372 -0.019700 -0.047561
    22 14.302284 -0.000002 -0.000003 0.000000 0.000000 -0.031559
    23 -15.803130 -0.198099 0.000016 2.356857 -0.036387 -0.036452
    24 14.302285 0.000004 -0.000002 0.000000 0.000000 0.003353
    25 -15.803130 -0.198099 0.000016 1.570793 -0.051512 0.000003
    26 14.302282 -0.000002 0.000000 0.000000 0.000000 0.003353
    27 -15.803130 -0.198099 0.000016 -1.963987 -0.047583 0.019746
    28 14.302282 -0.000010 -0.000001 0.000000 0.000000 0.031553
    29 -15.803130 -0.198099 0.000016 -2.749373 -0.019700 0.047601
    30 14.302284 0.000010 0.000001 0.000000 0.000000 0.031553
    31 -15.803130 -0.198099 0.000016 -2.356858 -0.036387 0.036414
    32 14.302282 -0.000004 0.000005 0.000000 0.000000 -0.003341
    33 -15.803130 -0.198099 0.000016 -0.784719 0.036390 0.036414
    34 14.302282 -0.000002 -0.000002 0.000000 0.000000 0.003353
    35 -15.803130 -0.198099 0.000016 -0.392231 0.019701 0.047562
    36 14.302280 -0.000004 -0.000001 0.000000 0.000000 -0.031559
    37 -15.803130 -0.198099 0.000016 -3.141592 0.000001 0.051514
    38 14.302285 0.000000 0.000000 0.000000 0.000000 -0.003341
    39 -15.803130 -0.198099 0.000016 -1.177629 0.047586 0.019746
    40 14.302279 -0.000002 0.000000 0.000000 0.000000 -0.031559
    41 1.257180 8.762585 -0.153713 -1.570562 0.002683 -1.566807
    42 -0.488518 -2.755602 -0.228260 -1.286872 -0.050430 -0.402325
    43 0.039887 -1.479790 0.029854 -1.208016 0.000000 0.000001
    44 0.028786 -1.075731 -0.023109 -0.530140 0.000000 0.000000
    45 0.250027 -2.820665 -0.238396 -1.002152 0.064816 -0.258921
    46 -0.049759 -1.680544 0.100479 -1.430840 0.000000 -0.000002
    47 -0.034142 -1.148312 0.084782 -0.766456 0.000000 0.000000
    48 0.957766 -2.746780 -0.090302 0.185474 -0.279978 0.011753
    49 -0.033420 -1.397129 -0.011257 -0.562653 0.000000 -0.000001
    50 -0.022360 -0.957436 0.018784 -0.830690 0.000000 0.000000
    51 -1.180681 -2.507217 -0.193859 -1.242958 0.074571 -0.388474
    52 -0.024967 -1.123934 0.017597 -1.138636 0.000000 0.000001
    53 -0.020057 -0.890968 0.010090 -0.440505 0.000000 0.000000
    54 0.583510 -1.197277 0.185379 -0.226871 -0.921580 0.087268
    55 1.535927 0.010246 0.005009 -0.127016 -0.194510 -0.923923
    56 1.100771 0.004527 -0.010679 -0.015224 0.005570 -1.043747
    57 0.120153 -0.050270 -0.054489 0.287569 3.110905 1.561085
    58 -1.712219 -6.371920 -8.247629 0.077545 -5.936439 0.551271
    59 0.096944 -8.450418 -0.009365 0.499620 -0.288753 -0.027575
    60 0.447953 -2.798986 -0.200443 -0.049019 -0.206533 0.090383
    61 -0.032909 -1.480204 0.004940 -1.015334 0.000000 0.000002
    62 -0.027022 -1.076920 -0.020210 -0.813171 0.000000 0.000000
    63 -0.249534 -2.846964 -0.174213 0.146912 0.010860 -0.033600
    64 0.043235 -1.683941 0.096012 -0.989726 0.002823 -0.000167
    65 0.031729 -1.160830 0.058838 -1.015242 0.000642 0.008372
    66 -0.963866 -2.785145 -0.085350 0.258155 0.136235 -0.037326
    67 0.028479 -1.403067 0.006271 -0.422380 0.000000 0.000000
    68 0.021413 -0.957781 0.020046 0.153840 0.000000 0.000000
    69 1.164475 -2.543940 -0.170330 -0.689328 -0.486121 0.123929
    70 0.024032 -1.129042 0.017807 -0.304203 0.000000 0.000001
    71 0.014898 -0.883989 -0.019848 -0.741892 0.000000 0.000000
    72 -0.586770 -1.264477 0.200161 -0.289387 -0.420304 -2.419838
    73 1.522835 0.058681 0.016848 0.039940 0.038040 0.357708
    74 1.117947 0.048424 -0.005766 0.000764 -0.025198 0.025304
    75 -0.139399 -0.111698 0.014397 0.285382 -0.030687 1.580508
    76 -1.393470 8.839177 -0.239433 1.580804 -0.005023 -1.566847
end
