version 1
nodes
  0 "root" -1
  1 "Bone01" 0
  2 "Bone_Lefthand" 1
  3 "Dummy03" 2
  4 "Bone02" 3
  5 "Bone16" 4
  6 "Bone24" 4
  7 "Dummy02" 4
  8 "Bone08" 7
  9 "Bone_L_Upper" 1
  10 "Bone13" 2
  11 "Bone14" 10
  12 "Bone15" 11
  13 "Bone17" 2
  14 "Bone18" 13
  15 "Bone19" 14
  16 "Bone21" 2
  17 "Bone22" 16
  18 "Bone23" 17
  19 "Bone09" 2
  20 "Bone10" 19
  21 "Bone11" 20
  22 "Bone05" 2
  23 "Bone06" 22
  24 "Bone07" 23
  25 "Bone_Se_Hand-L" 2
  26 "Bone04" 0
  27 "Bone_Righthand" 26
  28 "Bone39" 27
  29 "Bone40" 28
  30 "Bone41" 29
  31 "Bone35" 27
  32 "Bone36" 31
  33 "Bone37" 32
  34 "Bone31" 27
  35 "Bone32" 34
  36 "Bone33" 35
  37 "Bone43" 27
  38 "Bone44" 37
  39 "Bone45" 38
  40 "Bone27" 27
  41 "Bone28" 40
  42 "Bone29" 41
  43 "Bone_Se_Hand-R" 27
  44 "Bone_R_Upper" 26
end
skeleton
  time 0
    0 -0.999830 1.628956 0.541027 0.000000 0.000000 0.000000
    1 9.216351 3.754207 -9.111090 6.133214 -1.612705 -0.045791
    2 -0.071918 -8.498730 -0.104137 0.151104 0.283297 0.053558
    3 3.877622 -5.248455 1.421663 0.246215 -3.194606 1.568953
    4 0.000000 0.000000 0.000000 0.000000 0.000000 0.000000
    5 -0.248228 2.512564 0.000000 0.000001 0.000000 1.570796
    6 4.320393 -1.031701 0.000001 -1.570795 -1.570796 0.000000
    7 4.110973 2.892190 0.000001 0.000000 0.000000 1.570796
    8 0.000000 -0.000002 0.000000 0.000001 0.000000 0.000000
    9 1.257180 8.762585 -0.153713 -1.570562 0.002683 -1.566807
    10 -0.488518 -2.755602 -0.228260 -0.871614 -0.202562 -0.209541
    11 0.039887 -1.479790 0.029854 -2.058953 0.000000 0.000001
    12 0.028786 -1.075731 -0.023109 -0.606330 0.000000 0.000000
    13 0.250027 -2.820665 -0.238396 -0.797118 -0.167517 -0.114938
    14 -0.049759 -1.680544 0.100479 -1.934765 0.000000 -0.000002
    15 -0.034142 -1.148312 0.084782 -0.925906 0.000000 0.000000
    16 0.957766 -2.746780 -0.090302 0.005849 -0.162684 0.097910
    17 -0.033420 -1.397129 -0.011257 -0.521003 0.000000 -0.000001
    18 -0.022360 -0.957436 0.018784 -0.975516 0.000000 0.000000
    19 -1.180681 -2.507217 -0.193859 -0.671429 -0.081516 -0.261329
    20 -0.024967 -1.123934 0.017597 -2.056303 0.000000 0.000001
    21 -0.020057 -0.890968 0.010090 -0.677843 0.000000 0.000000
    22 0.583510 -1.197277 0.185379 0.180209 -0.812077 -1.291294
    23 1.535927 0.010246 0.005009 -0.002964 -0.012979 -0.506650
    24 1.100771 0.004527 -0.010679 -0.015488 -0.004784 -1.694062
    25 0.120153 -0.050270 -0.054489 0.287569 3.110905 1.561085
    26 -0.516870 -12.208035 -10.032839 -1.199515 -5.086469 -0.350929
    27 0.096944 -8.450418 -0.009365 0.162477 -1.145436 -0.075755
    28 0.447953 -2.798986 -0.200443 -0.437412 -0.067958 0.142839
    29 -0.032909 -1.480204 0.004940 -1.165534 0.000000 0.000002
    30 -0.027022 -1.076920 -0.020210 -0.581968 0.000000 0.000000
    31 -0.249534 -2.846964 -0.174213 -0.128738 0.012411 0.088176
    32 0.043235 -1.683941 0.096012 -1.309101 0.002823 -0.000167
    33 0.031729 -1.160830 0.058838 -0.744926 0.000642 0.008372
    34 -0.963866 -2.785145 -0.085350 0.029537 0.160514 0.097512
    35 0.028479 -1.403067 0.006271 -0.585005 0.000000 0.000000
    36 0.021413 -0.957781 0.020046 -0.738170 0.000000 0.000000
    37 1.164475 -2.543940 -0.170330 -0.610671 -0.190582 0.231608
    38 0.024032 -1.129042 0.017807 -0.709819 0.000000 0.000001
    39 0.014898 -0.883989 -0.019848 -0.845482 0.000000 0.000000
    40 -0.586770 -1.264477 0.200161 0.029415 -0.425542 -2.676427
    41 1.522835 0.058681 0.016848 0.001410 0.008985 0.586077
    42 1.117947 0.048424 -0.005766 0.001267 -0.025174 0.005124
    43 -0.139399 -0.111698 0.014397 0.653621 -0.030687 1.580508
    44 -1.393470 8.839177 -0.239433 1.580804 -0.005023 -1.566847
  time 1
    0 -0.999830 1.628956 0.541027 0.000000 0.000000 0.000000
    1 9.216351 3.754207 -9.040775 6.133214 -1.612705 -0.045791
    2 -0.071918 -8.498730 -0.104137 0.148359 0.235281 0.026443
    3 3.877622 -5.248455 1.421663 0.246215 -3.194606 1.568953
    4 0.000000 0.000000 0.000000 0.000000 0.000000 0.000000
    5 -0.248228 2.512564 0.000000 0.000001 0.000000 1.570796
    6 -0.062553 -1.031701 0.000001 -1.570795 -1.570796 0.000000
    7 4.110973 2.892190 0.000001 0.000000 0.000000 1.570796
    8 0.000000 -0.000002 0.000000 0.000001 0.000000 0.000000
    9 1.257180 8.762585 -0.153713 -1.570562 0.002683 -1.566807
    10 -0.488518 -2.755602 -0.228260 -0.871614 -0.202562 -0.209541
    11 0.039887 -1.479790 0.029854 -2.058953 0.000000 0.000001
    12 0.028786 -1.075731 -0.023109 -0.606330 0.000000 0.000000
    13 0.250027 -2.820665 -0.238396 -0.797118 -0.167517 -0.114938
    14 -0.049759 -1.680544 0.100479 -1.934765 0.000000 -0.000002
    15 -0.034142 -1.148312 0.084782 -0.925879 0.000000 0.000000
    16 0.957766 -2.746780 -0.090302 0.005849 -0.162684 0.097910
    17 -0.033420 -1.397129 -0.011257 -0.521003 0.000000 -0.000001
    18 -0.022360 -0.957436 0.018784 -0.975516 0.000000 0.000000
    19 -1.180681 -2.507217 -0.193859 -0.671429 -0.081516 -0.261329
    20 -0.024967 -1.123934 0.017597 -2.056303 0.000000 0.000001
    21 -0.020057 -0.890968 0.010090 -0.677843 0.000000 0.000000
    22 0.583510 -1.197277 0.185379 0.180209 -0.812077 -1.291294
    23 1.535927 0.010246 0.005009 -0.002964 -0.012979 -0.506650
    24 1.100771 0.004527 -0.010679 -0.015488 -0.004784 -1.694062
    25 0.120153 -0.050270 -0.054489 0.287569 3.110905 1.561085
    26 -0.399679 -12.102563 -10.505510 -1.117110 -5.130237 -0.282631
    27 0.096944 -8.450418 -0.009365 0.162477 -1.145436 -0.075755
    28 0.447953 -2.798986 -0.200443 -0.437412 -0.067958 0.142839
    29 -0.032909 -1.480204 0.004940 -1.165534 0.000000 0.000002
    30 -0.027022 -1.076920 -0.020210 -0.581968 0.000000 0.000000
    31 -0.249534 -2.846964 -0.174213 -0.128738 0.012411 0.088176
    32 0.043235 -1.683941 0.096012 -1.309101 0.002823 -0.000167
    33 0.031729 -1.160830 0.058838 -0.744926 0.000642 0.008372
    34 -0.963866 -2.785145 -0.085350 0.029537 0.160514 0.097512
    35 0.028479 -1.403067 0.006271 -0.585005 0.000000 0.000000
    36 0.021413 -0.957781 0.020046 -0.738170 0.000000 0.000000
    37 1.164475 -2.543940 -0.170330 -0.610671 -0.190582 0.231608
    38 0.024032 -1.129042 0.017807 -0.709819 0.000000 0.000001
    39 0.014898 -0.883989 -0.019848 -0.845482 0.000000 0.000000
    40 -0.586770 -1.264477 0.200161 0.061006 -0.422366 -2.753172
    41 1.522835 0.058681 0.016848 0.001410 0.008985 0.701826
    42 1.117947 0.048424 -0.005766 -0.002448 -0.025090 0.153526
    43 -0.139399 -0.111698 0.014397 0.653621 -0.030687 1.580508
    44 -1.393470 8.839177 -0.239433 1.580804 -0.005023 -1.566847
  time 2
    0 -0.999830 1.628956 0.541027 0.000000 0.000000 0.000000
    1 9.228070 6.859770 -9.138435 0.641949 -1.633315 -0.836704
    2 -0.071918 -8.498730 -0.104137 0.154112 0.358505 0.046146
    3 3.877622 -5.248455 1.421663 0.246215 -3.194606 1.568953
    4 0.000000 0.000000 0.000000 0.000000 0.000000 0.000000
    5 -0.248228 2.512564 0.000000 0.000001 0.000000 1.570796
    6 0.593717 -1.031701 0.000001 -1.570795 -1.570796 0.000000
    7 4.110973 2.892190 0.000001 0.000000 0.000000 1.570796
    8 0.000000 -0.000002 0.000000 0.000001 0.000000 0.000000
    9 1.257180 8.762585 -0.153713 -1.570562 0.002683 -1.566807
    10 -0.488518 -2.755602 -0.228260 -0.871614 -0.202562 -0.209541
    11 0.039887 -1.479790 0.029854 -2.058953 0.000000 0.000001
    12 0.028786 -1.075731 -0.023109 -0.606330 0.000000 0.000000
    13 0.250027 -2.820665 -0.238396 -0.797118 -0.167517 -0.114938
    14 -0.049759 -1.680544 0.100479 -1.934765 0.000000 -0.000002
    15 -0.034142 -1.148312 0.084782 -0.925879 0.000000 0.000000
    16 0.957766 -2.746780 -0.090302 0.005849 -0.162684 0.097910
    17 -0.033420 -1.397129 -0.011257 -0.521003 0.000000 -0.000001
    18 -0.022360 -0.957436 0.018784 -0.975516 0.000000 0.000000
    19 -1.180681 -2.507217 -0.193859 -0.671429 -0.081516 -0.261329
    20 -0.024967 -1.123934 0.017597 -2.056303 0.000000 0.000001
    21 -0.020057 -0.890968 0.010090 -0.677843 0.000000 0.000000
    22 0.583510 -1.197277 0.185379 0.180209 -0.812077 -1.291294
    23 1.535927 0.010246 0.005009 -0.002964 -0.012979 -0.506650
    24 1.100771 0.004527 -0.010679 -0.015488 -0.004784 -1.694062
    25 0.120153 -0.050270 -0.054489 0.287569 3.110905 1.561085
    26 -0.352803 -8.809494 -8.931243 -1.354826 -5.028925 -0.523806
    27 0.096944 -8.450418 -0.009365 0.162477 -1.145436 -0.075755
    28 0.447953 -2.798986 -0.200443 -0.437412 -0.067958 0.142839
    29 -0.032909 -1.480204 0.004940 -1.165534 0.000000 0.000002
    30 -0.027022 -1.076920 -0.020210 -0.581968 0.000000 0.000000
    31 -0.249534 -2.846964 -0.174213 -0.128738 0.012411 0.088176
    32 0.043235 -1.683941 0.096012 -1.309101 0.002823 -0.000167
    33 0.031729 -1.160830 0.058838 -0.744926 0.000642 0.008372
    34 -0.963866 -2.785145 -0.085350 0.029537 0.160514 0.097512
    35 0.028479 -1.403067 0.006271 -0.585005 0.000000 0.000000
    36 0.021413 -0.957781 0.020046 -0.738170 0.000000 0.000000
    37 1.164475 -2.543940 -0.170330 -0.610671 -0.190582 0.231608
    38 0.024032 -1.129042 0.017807 -0.709819 0.000000 0.000001
    39 0.014898 -0.883989 -0.019848 -0.845482 0.000000 0.000000
    40 -0.586770 -1.264477 0.200161 0.061006 -0.422366 -2.753172
    41 1.522835 0.058681 0.016848 0.001410 0.008985 0.701826
    42 1.117947 0.048424 -0.005766 -0.002448 -0.025090 0.153526
    43 -0.139399 -0.111698 0.014397 0.653621 -0.030687 1.580508
    44 -1.393470 8.839177 -0.239433 1.580804 -0.005023 -1.566847
  time 3
    0 -0.999830 1.628956 0.541027 0.000000 0.000000 0.000000
    1 9.560111 6.789456 -10.228312 0.580642 -1.726366 -0.774271
    2 -0.071918 -8.498730 -0.104137 0.153129 0.320029 0.065690
    3 3.877622 -5.248455 1.421663 0.246215 -3.194606 1.568953
    4 0.000000 0.000000 0.000000 0.000000 0.000000 0.000000
    5 -0.248228 2.512564 0.000000 0.000001 0.000000 1.570796
    6 2.824254 -1.031701 0.000001 -1.570795 -1.570796 0.000000
    7 4.110973 2.892190 0.000001 0.000000 0.000000 1.570796
    8 0.000000 -0.000002 0.000000 0.000001 0.000000 0.000000
    9 1.257180 8.762585 -0.153713 -1.570562 0.002683 -1.566807
    10 -0.488518 -2.755602 -0.228260 -0.871614 -0.202562 -0.209541
    11 0.039887 -1.479790 0.029854 -2.058953 0.000000 0.000001
    12 0.028786 -1.075731 -0.023109 -0.606330 0.000000 0.000000
    13 0.250027 -2.820665 -0.238396 -0.797118 -0.167517 -0.114938
    14 -0.049759 -1.680544 0.100479 -1.934765 0.000000 -0.000002
    15 -0.034142 -1.148312 0.084782 -0.925906 0.000000 0.000000
    16 0.957766 -2.746780 -0.090302 0.005849 -0.162684 0.097910
    17 -0.033420 -1.397129 -0.011257 -0.521003 0.000000 -0.000001
    18 -0.022360 -0.957436 0.018784 -0.975516 0.000000 0.000000
    19 -1.180681 -2.507217 -0.193859 -0.671429 -0.081516 -0.261329
    20 -0.024967 -1.123934 0.017597 -2.056303 0.000000 0.000001
    21 -0.020057 -0.890968 0.010090 -0.677843 0.000000 0.000000
    22 0.583510 -1.197277 0.185379 0.180209 -0.812077 -1.291294
    23 1.535927 0.010246 0.005009 -0.002964 -0.012979 -0.506650
    24 1.100771 0.004527 -0.010679 -0.015488 -0.004784 -1.694062
    25 0.120153 -0.050270 -0.054489 0.287569 3.110905 1.561085
    26 0.131587 -8.692303 -9.782832 -1.414135 -5.164086 -0.593052
    27 0.096944 -8.450418 -0.009365 0.162477 -1.145436 -0.075755
    28 0.447953 -2.798986 -0.200443 -0.437412 -0.067958 0.142839
    29 -0.032909 -1.480204 0.004940 -1.165534 0.000000 0.000002
    30 -0.027022 -1.076920 -0.020210 -0.581968 0.000000 0.000000
    31 -0.249534 -2.846964 -0.174213 -0.128738 0.012411 0.088176
    32 0.043235 -1.683941 0.096012 -1.309101 0.002823 -0.000167
    33 0.031729 -1.160830 0.058838 -0.744926 0.000642 0.008372
    34 -0.963866 -2.785145 -0.085350 0.029537 0.160514 0.097512
    35 0.028479 -1.403067 0.006271 -0.585005 0.000000 0.000000
    36 0.021413 -0.957781 0.020046 -0.738170 0.000000 0.000000
    37 1.164475 -2.543940 -0.170330 -0.610671 -0.190582 0.231608
    38 0.024032 -1.129042 0.017807 -0.709819 0.000000 0.000001
    39 0.014898 -0.883989 -0.019848 -0.845482 0.000000 0.000000
    40 -0.586770 -1.264477 0.200161 0.061006 -0.422366 -2.753172
    41 1.522835 0.058681 0.016848 0.001410 0.008985 0.701826
    42 1.117947 0.048424 -0.005766 -0.002448 -0.025090 0.153526
    43 -0.139399 -0.111698 0.014397 0.653621 -0.030687 1.580508
    44 -1.393470 8.839177 -0.239433 1.580804 -0.005023 -1.566847
  time 4
    0 -0.999830 1.628956 0.541027 0.000000 0.000000 0.000000
    1 9.095253 6.789456 -10.220499 0.662991 -1.683604 -0.852265
    2 -0.071918 -8.498730 -0.104137 0.151823 0.278671 0.076835
    3 3.877622 -5.248455 1.421663 0.246215 -3.194606 1.568953
    4 0.000000 0.000000 0.000000 0.000000 0.000000 0.000000
    5 -0.248228 2.512564 0.000000 0.000001 0.000000 1.570796
    6 4.320393 -1.031701 0.000001 -1.570795 -1.570796 0.000000
    7 4.110973 2.892190 0.000001 0.000000 0.000000 1.570796
    8 0.000000 -0.000002 0.000000 0.000001 0.000000 0.000000
    9 1.257180 8.762585 -0.153713 -1.570562 0.002683 -1.566807
    10 -0.488518 -2.755602 -0.228260 -0.871614 -0.202562 -0.209541
    11 0.039887 -1.479790 0.029854 -2.058953 0.000000 0.000001
    12 0.028786 -1.075731 -0.023109 -0.606330 0.000000 0.000000
    13 0.250027 -2.820665 -0.238396 -0.797118 -0.167517 -0.114938
    14 -0.049759 -1.680544 0.100479 -1.934765 0.000000 -0.000002
    15 -0.034142 -1.148312 0.084782 -0.925906 0.000000 0.000000
    16 0.957766 -2.746780 -0.090302 0.005849 -0.162684 0.097910
    17 -0.033420 -1.397129 -0.011257 -0.521003 0.000000 -0.000001
    18 -0.022360 -0.957436 0.018784 -0.975516 0.000000 0.000000
    19 -1.180681 -2.507217 -0.193859 -0.671429 -0.081516 -0.261329
    20 -0.024967 -1.123934 0.017597 -2.056303 0.000000 0.000001
    21 -0.020057 -0.890968 0.010090 -0.677843 0.000000 0.000000
    22 0.583510 -1.197277 0.185379 0.180209 -0.812077 -1.291294
    23 1.535927 0.010246 0.005009 -0.002964 -0.012979 -0.506650
    24 1.100771 0.004527 -0.010679 -0.015488 -0.004784 -1.694062
    25 0.120153 -0.050270 -0.054489 0.287569 3.110905 1.561085
    26 -0.173110 -8.676677 -9.950806 -1.405116 -5.162669 -0.585663
    27 0.096944 -8.450418 -0.009365 0.162477 -1.145436 -0.075755
    28 0.447953 -2.798986 -0.200443 -0.437412 -0.067958 0.142839
    29 -0.032909 -1.480204 0.004940 -1.165534 0.000000 0.000002
    30 -0.027022 -1.076920 -0.020210 -0.581968 0.000000 0.000000
    31 -0.249534 -2.846964 -0.174213 -0.128738 0.012411 0.088176
    32 0.043235 -1.683941 0.096012 -1.309101 0.002823 -0.000167
    33 0.031729 -1.160830 0.058838 -0.744926 0.000642 0.008372
    34 -0.963866 -2.785145 -0.085350 0.029537 0.160514 0.097512
    35 0.028479 -1.403067 0.006271 -0.585005 0.000000 0.000000
    36 0.021413 -0.957781 0.020046 -0.738170 0.000000 0.000000
    37 1.164475 -2.543940 -0.170330 -0.610671 -0.190582 0.231608
    38 0.024032 -1.129042 0.017807 -0.709819 0.000000 0.000001
    39 0.014898 -0.883989 -0.019848 -0.845482 0.000000 0.000000
    40 -0.586770 -1.264477 0.200161 0.061006 -0.422366 -2.753172
    41 1.522835 0.058681 0.016848 0.001410 0.008985 0.701826
    42 1.117947 0.048424 -0.005766 -0.002448 -0.025090 0.153526
    43 -0.139399 -0.111698 0.014397 0.653621 -0.030687 1.580508
    44 -1.393470 8.839177 -0.239433 1.580804 -0.005023 -1.566847
  time 5
    0 -0.999830 1.628956 0.541027 0.000000 0.000000 0.000000
    1 8.626489 6.789456 -10.165810 0.745244 -1.634919 -0.930354
    2 -0.071918 -8.498730 -0.104137 0.151175 0.273296 0.074062
    3 3.877622 -5.248455 1.421663 0.246215 -3.194606 1.568953
    4 0.000000 0.000000 0.000000 0.000000 0.000000 0.000000
    5 -0.248228 2.512564 0.000000 0.000001 0.000000 1.570796
    6 4.320393 -1.031701 0.000001 -1.570795 -1.570796 0.000000
    7 4.110973 2.892190 0.000001 0.000000 0.000000 1.570796
    8 0.000000 -0.000002 0.000000 0.000001 0.000000 0.000000
    9 1.257180 8.762585 -0.153713 -1.570562 0.002683 -1.566807
    10 -0.488518 -2.755602 -0.228260 -0.871614 -0.202562 -0.209541
    11 0.039887 -1.479790 0.029854 -2.058953 0.000000 0.000001
    12 0.028786 -1.075731 -0.023109 -0.606330 0.000000 0.000000
    13 0.250027 -2.820665 -0.238396 -0.797118 -0.167517 -0.114938
    14 -0.049759 -1.680544 0.100479 -1.934765 0.000000 -0.000002
    15 -0.034142 -1.148312 0.084782 -0.925879 0.000000 0.000000
    16 0.957766 -2.746780 -0.090302 0.005849 -0.162684 0.097910
    17 -0.033420 -1.397129 -0.011257 -0.521003 0.000000 -0.000001
    18 -0.022360 -0.957436 0.018784 -0.975516 0.000000 0.000000
    19 -1.180681 -2.507217 -0.193859 -0.671429 -0.081516 -0.261329
    20 -0.024967 -1.123934 0.017597 -2.056303 0.000000 0.000001
    21 -0.020057 -0.890968 0.010090 -0.677843 0.000000 0.000000
    22 0.583510 -1.197277 0.185379 0.180209 -0.812077 -1.291294
    23 1.535927 0.010246 0.005009 -0.002964 -0.012979 -0.506650
    24 1.100771 0.004527 -0.010679 -0.015488 -0.004784 -1.694062
    25 0.120153 -0.050270 -0.054489 0.287569 3.110905 1.561085
    26 -0.594998 -8.750898 -10.130499 -1.374095 -5.118035 -0.550140
    27 0.096944 -8.450418 -0.009365 0.162477 -1.145436 -0.075755
    28 0.447953 -2.798986 -0.200443 -0.437412 -0.067958 0.142839
    29 -0.032909 -1.480204 0.004940 -1.165534 0.000000 0.000002
    30 -0.027022 -1.076920 -0.020210 -0.581968 0.000000 0.000000
    31 -0.249534 -2.846964 -0.174213 -0.128738 0.012411 0.088176
    32 0.043235 -1.683941 0.096012 -1.309101 0.002823 -0.000167
    33 0.031729 -1.160830 0.058838 -0.744926 0.000642 0.008372
    34 -0.963866 -2.785145 -0.085350 0.029537 0.160514 0.097512
    35 0.028479 -1.403067 0.006271 -0.585005 0.000000 0.000000
    36 0.021413 -0.957781 0.020046 -0.738170 0.000000 0.000000
    37 1.164475 -2.543940 -0.170330 -0.610671 -0.190582 0.231608
    38 0.024032 -1.129042 0.017807 -0.709819 0.000000 0.000001
    39 0.014898 -0.883989 -0.019848 -0.845482 0.000000 0.000000
    40 -0.586770 -1.264477 0.200161 0.061006 -0.422366 -2.753172
    41 1.522835 0.058681 0.016848 0.001410 0.008985 0.701826
    42 1.117947 0.048424 -0.005766 -0.002448 -0.025090 0.153526
    43 -0.139399 -0.111698 0.014397 0.653621 -0.030687 1.580508
    44 -1.393470 8.839177 -0.239433 1.580804 -0.005023 -1.566847
  time 6
    0 -0.999830 1.628956 0.541027 0.000000 0.000000 0.000000
    1 8.759305 6.433976 -10.025180 0.580546 -1.626465 -0.767780
    2 -0.071918 -8.498730 -0.104137 0.150516 0.268728 0.066783
    3 3.877622 -5.248455 1.421663 0.246215 -3.194606 1.568953
    4 0.000000 0.000000 0.000000 0.000000 0.000000 0.000000
    5 -0.248228 2.512564 0.000000 0.000001 0.000000 1.570796
    6 4.320393 -1.031701 0.000001 -1.570795 -1.570796 0.000000
    7 4.110973 2.892190 0.000001 0.000000 0.000000 1.570796
    8 0.000000 -0.000002 0.000000 0.000001 0.000000 0.000000
    9 1.257180 8.762585 -0.153713 -1.570562 0.002683 -1.566807
    10 -0.488518 -2.755602 -0.228260 -0.871614 -0.202562 -0.209541
    11 0.039887 -1.479790 0.029854 -2.058953 0.000000 0.000001
    12 0.028786 -1.075731 -0.023109 -0.606330 0.000000 0.000000
    13 0.250027 -2.820665 -0.238396 -0.797118 -0.167517 -0.114938
    14 -0.049759 -1.680544 0.100479 -1.934765 0.000000 -0.000002
    15 -0.034142 -1.148312 0.084782 -0.925906 0.000000 0.000000
    16 0.957766 -2.746780 -0.090302 0.005849 -0.162684 0.097910
    17 -0.033420 -1.397129 -0.011257 -0.521003 0.000000 -0.000001
    18 -0.022360 -0.957436 0.018784 -0.975516 0.000000 0.000000
    19 -1.180681 -2.507217 -0.193859 -0.671429 -0.081516 -0.261329
    20 -0.024967 -1.123934 0.017597 -2.056303 0.000000 0.000001
    21 -0.020057 -0.890968 0.010090 -0.677843 0.000000 0.000000
    22 0.583510 -1.197277 0.185379 0.180209 -0.812077 -1.291294
    23 1.535927 0.010246 0.005009 -0.002964 -0.012979 -0.506650
    24 1.100771 0.004527 -0.010679 -0.015488 -0.004784 -1.694062
    25 0.120153 -0.050270 -0.054489 0.287569 3.110905 1.561085
    26 -0.544215 -9.168880 -10.294566 -1.322575 -5.114650 -0.496051
    27 0.096944 -8.450418 -0.009365 0.165086 -1.144934 -0.078355
    28 0.447953 -2.798986 -0.200443 -0.437412 -0.067958 0.142839
    29 -0.032909 -1.480204 0.004940 -1.165534 0.000000 0.000002
    30 -0.027022 -1.076920 -0.020210 -0.581968 0.000000 0.000000
    31 -0.249534 -2.846964 -0.174213 -0.128738 0.012411 0.088176
    32 0.043235 -1.683941 0.096012 -1.309101 0.002823 -0.000167
    33 0.031729 -1.160830 0.058838 -0.744926 0.000642 0.008372
    34 -0.963866 -2.785145 -0.085350 0.029537 0.160514 0.097512
    35 0.028479 -1.403067 0.006271 -0.585005 0.000000 0.000000
    36 0.021413 -0.957781 0.020046 -0.738170 0.000000 0.000000
    37 1.164475 -2.543940 -0.170330 -0.610671 -0.190582 0.231608
    38 0.024032 -1.129042 0.017807 -0.709819 0.000000 0.000001
    39 0.014898 -0.883989 -0.019848 -0.845482 0.000000 0.000000
    40 -0.586770 -1.264477 0.200161 0.061006 -0.422366 -2.753172
    41 1.522835 0.058681 0.016848 0.001410 0.008985 0.701826
    42 1.117947 0.048424 -0.005766 -0.002448 -0.025090 0.153526
    43 -0.139399 -0.111698 0.014397 0.653621 -0.030687 1.580508
    44 -1.393470 8.839177 -0.239433 1.580804 -0.005023 -1.566847
  time 7
    0 -0.999830 1.628956 0.541027 0.000000 0.000000 0.000000
    1 9.036658 5.668328 -9.849394 0.221979 -1.622886 -0.413707
    2 -0.071918 -8.498730 -0.104137 0.149857 0.264952 0.056491
    3 3.877622 -5.248455 1.421663 0.246215 -3.194606 1.568953
    4 0.000000 0.000000 0.000000 0.000000 0.000000 0.000000
    5 -0.248228 2.512564 0.000000 0.000001 0.000000 1.570796
    6 4.320393 -1.031701 0.000001 -1.570795 -1.570796 0.000000
    7 4.110973 2.892190 0.000001 0.000000 0.000000 1.570796
    8 0.000000 -0.000002 0.000000 0.000001 0.000000 0.000000
    9 1.257180 8.762585 -0.153713 -1.570562 0.002683 -1.566807
    10 -0.488518 -2.755602 -0.228260 -0.871614 -0.202562 -0.209541
    11 0.039887 -1.479790 0.029854 -2.058953 0.000000 0.000001
    12 0.028786 -1.075731 -0.023109 -0.606330 0.000000 0.000000
    13 0.250027 -2.820665 -0.238396 -0.797118 -0.167517 -0.114938
    14 -0.049759 -1.680544 0.100479 -1.934765 0.000000 -0.000002
    15 -0.034142 -1.148312 0.084782 -0.925906 0.000000 0.000000
    16 0.957766 -2.746780 -0.090302 0.005849 -0.162684 0.097910
    17 -0.033420 -1.397129 -0.011257 -0.521003 0.000000 -0.000001
    18 -0.022360 -0.957436 0.018784 -0.975516 0.000000 0.000000
    19 -1.180681 -2.507217 -0.193859 -0.671429 -0.081516 -0.261329
    20 -0.024967 -1.123934 0.017597 -2.056303 0.000000 0.000001
    21 -0.020057 -0.890968 0.010090 -0.677843 0.000000 0.000000
    22 0.583510 -1.197277 0.185379 0.180209 -0.812077 -1.291294
    23 1.535927 0.010246 0.005009 -0.002964 -0.012979 -0.506650
    24 1.100771 0.004527 -0.010679 -0.015488 -0.004784 -1.694062
    25 0.120153 -0.050270 -0.054489 0.287569 3.110905 1.561085
    26 -0.407492 -10.000937 -10.579731 -1.245022 -5.114257 -0.416007
    27 0.096944 -8.450418 -0.009365 0.172058 -1.143530 -0.085446
    28 0.447953 -2.798986 -0.200443 -0.437412 -0.067958 0.142839
    29 -0.032909 -1.480204 0.004940 -1.165534 0.000000 0.000002
    30 -0.027022 -1.076920 -0.020210 -0.581968 0.000000 0.000000
    31 -0.249534 -2.846964 -0.174213 -0.128738 0.012411 0.088176
    32 0.043235 -1.683941 0.096012 -1.309101 0.002823 -0.000167
    33 0.031729 -1.160830 0.058838 -0.744926 0.000642 0.008372
    34 -0.963866 -2.785145 -0.085350 0.029537 0.160514 0.097512
    35 0.028479 -1.403067 0.006271 -0.585005 0.000000 0.000000
    36 0.021413 -0.957781 0.020046 -0.738170 0.000000 0.000000
    37 1.164475 -2.543940 -0.170330 -0.610671 -0.190582 0.231608
    38 0.024032 -1.129042 0.017807 -0.709819 0.000000 0.000001
    39 0.014898 -0.883989 -0.019848 -0.845482 0.000000 0.000000
    40 -0.586770 -1.264477 0.200161 0.061006 -0.422366 -2.753172
    41 1.522835 0.058681 0.016848 0.001410 0.008985 0.701826
    42 1.117947 0.048424 -0.005766 -0.002448 -0.025090 0.153526
    43 -0.139399 -0.111698 0.014397 0.653621 -0.030687 1.580508
    44 -1.393470 8.839177 -0.239433 1.580804 -0.005023 -1.566847
  time 8
    0 -0.999830 1.628956 0.541027 0.000000 0.000000 0.000000
    1 9.274946 4.965181 -9.689233 6.155882 -1.621652 -0.068511
    2 -0.071918 -8.498730 -0.104137 0.149246 0.261926 0.044680
    3 3.877622 -5.248455 1.421663 0.246215 -3.194606 1.568953
    4 0.000000 0.000000 0.000000 0.000000 0.000000 0.000000
    5 -0.248228 2.512564 0.000000 0.000001 0.000000 1.570796
    6 4.320393 -1.031701 0.000001 -1.570795 -1.570796 0.000000
    7 4.110973 2.892190 0.000001 0.000000 0.000000 1.570796
    8 0.000000 -0.000002 0.000000 0.000001 0.000000 0.000000
    9 1.257180 8.762585 -0.153713 -1.570562 0.002683 -1.566807
    10 -0.488518 -2.755602 -0.228260 -0.871614 -0.202562 -0.209541
    11 0.039887 -1.479790 0.029854 -2.058953 0.000000 0.000001
    12 0.028786 -1.075731 -0.023109 -0.606330 0.000000 0.000000
    13 0.250027 -2.820665 -0.238396 -0.797118 -0.167517 -0.114938
    14 -0.049759 -1.680544 0.100479 -1.934765 0.000000 -0.000002
    15 -0.034142 -1.148312 0.084782 -0.925906 0.000000 0.000000
    16 0.957766 -2.746780 -0.090302 0.005849 -0.162684 0.097910
    17 -0.033420 -1.397129 -0.011257 -0.521003 0.000000 -0.000001
    18 -0.022360 -0.957436 0.018784 -0.975516 0.000000 0.000000
    19 -1.180681 -2.507217 -0.193859 -0.671429 -0.081516 -0.261329
    20 -0.024967 -1.123934 0.017597 -2.056303 0.000000 0.000001
    21 -0.020057 -0.890968 0.010090 -0.677843 0.000000 0.000000
    22 0.583510 -1.197277 0.185379 0.180209 -0.812077 -1.291294
    23 1.535927 0.010246 0.005009 -0.002964 -0.012979 -0.506650
    24 1.100771 0.004527 -0.010679 -0.015488 -0.004784 -1.694062
    25 0.120153 -0.050270 -0.054489 0.287569 3.110905 1.561085
    26 -0.325458 -10.790023 -10.853177 -1.168767 -5.111423 -0.334257
    27 0.096944 -8.450418 -0.009365 0.182196 -1.141575 -0.095670
    28 0.447953 -2.798986 -0.200443 -0.437412 -0.067958 0.142839
    29 -0.032909 -1.480204 0.004940 -1.165534 0.000000 0.000002
    30 -0.027022 -1.076920 -0.020210 -0.581968 0.000000 0.000000
    31 -0.249534 -2.846964 -0.174213 -0.128738 0.012411 0.088176
    32 0.043235 -1.683941 0.096012 -1.309101 0.002823 -0.000167
    33 0.031729 -1.160830 0.058838 -0.744926 0.000642 0.008372
    34 -0.963866 -2.785145 -0.085350 0.029537 0.160514 0.097512
    35 0.028479 -1.403067 0.006271 -0.585005 0.000000 0.000000
    36 0.021413 -0.957781 0.020046 -0.738170 0.000000 0.000000
    37 1.164475 -2.543940 -0.170330 -0.610671 -0.190582 0.231608
    38 0.024032 -1.129042 0.017807 -0.709819 0.000000 0.000001
    39 0.014898 -0.883989 -0.019848 -0.845482 0.000000 0.000000
    40 -0.586770 -1.264477 0.200161 0.061006 -0.422366 -2.753172
    41 1.522835 0.058681 0.016848 0.001410 0.008985 0.701826
    42 1.117947 0.048424 -0.005766 -0.002448 -0.025090 0.153526
    43 -0.139399 -0.111698 0.014397 0.653621 -0.030687 1.580508
    44 -1.393470 8.839177 -0.239433 1.580804 -0.005023 -1.566847
  time 9
    0 -0.999830 1.628956 0.541027 0.000000 0.000000 0.000000
    1 9.407763 4.426102 -9.575948 5.838729 -1.623318 0.245944
    2 -0.071918 -8.498730 -0.104137 0.148707 0.259620 0.032868
    3 3.877622 -5.248455 1.421663 0.246215 -3.194606 1.568953
    4 0.000000 0.000000 0.000000 0.000000 0.000000 0.000000
    5 -0.248228 2.512564 0.000000 0.000001 0.000000 1.570796
    6 4.320393 -1.031701 0.000001 -1.570795 -1.570796 0.000000
    7 4.110973 2.892190 0.000001 0.000000 0.000000 1.570796
    8 0.000000 -0.000002 0.000000 0.000001 0.000000 0.000000
    9 1.257180 8.762585 -0.153713 -1.570562 0.002683 -1.566807
    10 -0.488518 -2.755602 -0.228260 -0.871614 -0.202562 -0.209541
    11 0.039887 -1.479790 0.029854 -2.058953 0.000000 0.000001
    12 0.028786 -1.075731 -0.023109 -0.606330 0.000000 0.000000
    13 0.250027 -2.820665 -0.238396 -0.797118 -0.167517 -0.114938
    14 -0.049759 -1.680544 0.100479 -1.934765 0.000000 -0.000002
    15 -0.034142 -1.148312 0.084782 -0.925879 0.000000 0.000000
    16 0.957766 -2.746780 -0.090302 0.005849 -0.162684 0.097910
    17 -0.033420 -1.397129 -0.011257 -0.521003 0.000000 -0.000001
    18 -0.022360 -0.957436 0.018784 -0.975516 0.000000 0.000000
    19 -1.180681 -2.507217 -0.193859 -0.671429 -0.081516 -0.261329
    20 -0.024967 -1.123934 0.017597 -2.056303 0.000000 0.000001
    21 -0.020057 -0.890968 0.010090 -0.677843 0.000000 0.000000
    22 0.583510 -1.197277 0.185379 0.180209 -0.812077 -1.291294
    23 1.535927 0.010246 0.005009 -0.002964 -0.012979 -0.506650
    24 1.100771 0.004527 -0.010679 -0.015488 -0.004784 -1.694062
    25 0.120153 -0.050270 -0.054489 0.287569 3.110905 1.561085
    26 -0.333271 -11.434574 -11.134436 -1.097022 -5.108589 -0.253929
    27 0.096944 -8.450418 -0.009365 0.194173 -1.139269 -0.107725
    28 0.447953 -2.798986 -0.200443 -0.437412 -0.067958 0.142839
    29 -0.032909 -1.480204 0.004940 -1.165534 0.000000 0.000002
    30 -0.027022 -1.076920 -0.020210 -0.581968 0.000000 0.000000
    31 -0.249534 -2.846964 -0.174213 -0.128738 0.012411 0.088176
    32 0.043235 -1.683941 0.096012 -1.309101 0.002823 -0.000167
    33 0.031729 -1.160830 0.058838 -0.744926 0.000642 0.008372
    34 -0.963866 -2.785145 -0.085350 0.029537 0.160514 0.097512
    35 0.028479 -1.403067 0.006271 -0.585005 0.000000 0.000000
    36 0.021413 -0.957781 0.020046 -0.738170 0.000000 0.000000
    37 1.164475 -2.543940 -0.170330 -0.610671 -0.190582 0.231608
    38 0.024032 -1.129042 0.017807 -0.709819 0.000000 0.000001
    39 0.014898 -0.883989 -0.019848 -0.845482 0.000000 0.000000
    40 -0.586770 -1.264477 0.200161 0.061006 -0.422366 -2.753172
    41 1.522835 0.058681 0.016848 0.001410 0.008985 0.701826
    42 1.117947 0.048424 -0.005766 -0.002448 -0.025090 0.153526
    43 -0.139399 -0.111698 0.014397 0.653621 -0.030687 1.580508
    44 -1.393470 8.839177 -0.239433 1.580804 -0.005023 -1.566847
  time 10
    0 -0.999830 1.628956 0.541027 0.000000 0.000000 0.000000
    1 9.509328 3.906555 -9.493914 5.500916 -1.628378 0.581402
    2 -0.071918 -8.498730 -0.104137 0.148287 0.258006 0.022577
    3 3.877622 -5.248455 1.421663 0.246215 -3.194606 1.568953
    4 0.000000 0.000000 0.000000 0.000000 0.000000 0.000000
    5 -0.248228 2.512564 0.000000 0.000001 0.000000 1.570796
    6 4.320393 -1.031701 0.000001 -1.570795 -1.570796 0.000000
    7 4.110973 2.892190 0.000001 0.000000 0.000000 1.570796
    8 0.000000 -0.000002 0.000000 0.000001 0.000000 0.000000
    9 1.257180 8.762585 -0.153713 -1.570562 0.002683 -1.566807
    10 -0.488518 -2.755602 -0.228260 -0.871614 -0.202562 -0.209541
    11 0.039887 -1.479790 0.029854 -2.058953 0.000000 0.000001
    12 0.028786 -1.075731 -0.023109 -0.606349 0.000000 0.000000
    13 0.250027 -2.820665 -0.238396 -0.797118 -0.167517 -0.114938
    14 -0.049759 -1.680544 0.100479 -1.934765 0.000000 -0.000002
    15 -0.034142 -1.148312 0.084782 -0.925906 0.000000 0.000000
    16 0.957766 -2.746780 -0.090302 0.005849 -0.162684 0.097910
    17 -0.033420 -1.397129 -0.011257 -0.521003 0.000000 -0.000001
    18 -0.022360 -0.957436 0.018784 -0.975516 0.000000 0.000000
    19 -1.180681 -2.507217 -0.193859 -0.671429 -0.081516 -0.261329
    20 -0.024967 -1.123934 0.017597 -2.056303 0.000000 0.000001
    21 -0.020057 -0.890968 0.010090 -0.677843 0.000000 0.000000
    22 0.583510 -1.197277 0.185379 0.180209 -0.812077 -1.291294
    23 1.535927 0.010246 0.005009 -0.002964 -0.012979 -0.506650
    24 1.100771 0.004527 -0.010679 -0.015488 -0.004784 -1.694062
    25 0.120153 -0.050270 -0.054489 0.287569 3.110905 1.561085
    26 -0.380147 -12.043968 -11.439132 -1.023295 -5.104338 -0.171421
    27 0.096944 -8.450418 -0.009365 0.206792 -1.136762 -0.120490
    28 0.447953 -2.798986 -0.200443 -0.437412 -0.067958 0.142839
    29 -0.032909 -1.480204 0.004940 -1.165534 0.000000 0.000002
    30 -0.027022 -1.076920 -0.020210 -0.581968 0.000000 0.000000
    31 -0.249534 -2.846964 -0.174213 -0.128738 0.012411 0.088176
    32 0.043235 -1.683941 0.096012 -1.309101 0.002823 -0.000167
    33 0.031729 -1.160830 0.058838 -0.744926 0.000642 0.008372
    34 -0.963866 -2.785145 -0.085350 0.029537 0.160514 0.097512
    35 0.028479 -1.403067 0.006271 -0.585005 0.000000 0.000000
    36 0.021413 -0.957781 0.020046 -0.738170 0.000000 0.000000
    37 1.164475 -2.543940 -0.170330 -0.610671 -0.190582 0.231608
    38 0.024032 -1.129042 0.017807 -0.709819 0.000000 0.000001
    39 0.014898 -0.883989 -0.019848 -0.845482 0.000000 0.000000
    40 -0.586770 -1.264477 0.200161 0.061006 -0.422366 -2.753172
    41 1.522835 0.058681 0.016848 0.001410 0.008985 0.701826
    42 1.117947 0.048424 -0.005766 -0.002448 -0.025090 0.153526
    43 -0.139399 -0.111698 0.014397 0.653621 -0.030687 1.580508
    44 -1.393470 8.839177 -0.239433 1.580804 -0.005023 -1.566847
  time 11
    0 -0.999830 1.628956 0.541027 0.000000 0.000000 0.000000
    1 9.567924 3.519825 -9.415787 5.232350 -1.633685 0.848318
    2 -0.071918 -8.498730 -0.104137 0.148000 0.257055 0.015298
    3 3.877622 -5.248455 1.421663 0.246215 -3.194606 1.568953
    4 0.000000 0.000000 0.000000 0.000000 0.000000 0.000000
    5 -0.248228 2.512564 0.000000 0.000001 0.000000 1.570796
    6 4.320393 -1.031701 0.000001 -1.570795 -1.570796 0.000000
    7 4.110973 2.892190 0.000001 0.000000 0.000000 1.570796
    8 0.000000 -0.000002 0.000000 0.000001 0.000000 0.000000
    9 1.257180 8.762585 -0.153713 -1.570562 0.002683 -1.566807
    10 -0.488518 -2.755602 -0.228260 -0.871614 -0.202562 -0.209541
    11 0.039887 -1.479790 0.029854 -2.058953 0.000000 0.000001
    12 0.028786 -1.075731 -0.023109 -0.606330 0.000000 0.000000
    13 0.250027 -2.820665 -0.238396 -0.797118 -0.167517 -0.114938
    14 -0.049759 -1.680544 0.100479 -1.934765 0.000000 -0.000002
    15 -0.034142 -1.148312 0.084782 -0.925906 0.000000 0.000000
    16 0.957766 -2.746780 -0.090302 0.005849 -0.162684 0.097910
    17 -0.033420 -1.397129 -0.011257 -0.521003 0.000000 -0.000001
    18 -0.022360 -0.957436 0.018784 -0.975516 0.000000 0.000000
    19 -1.180681 -2.507217 -0.193859 -0.671429 -0.081516 -0.261329
    20 -0.024967 -1.123934 0.017597 -2.056303 0.000000 0.000001
    21 -0.020057 -0.890968 0.010090 -0.677843 0.000000 0.000000
    22 0.583510 -1.197277 0.185379 0.180209 -0.812077 -1.291294
    23 1.535927 0.010246 0.005009 -0.002964 -0.012979 -0.506650
    24 1.100771 0.004527 -0.010679 -0.015488 -0.004784 -1.694062
    25 0.120153 -0.050270 -0.054489 0.287569 3.110905 1.561085
    26 -0.458275 -12.520545 -11.634451 -0.965694 -5.098513 -0.104354
    27 0.096944 -8.450418 -0.009365 0.218769 -1.134455 -0.132604
    28 0.447953 -2.798986 -0.200443 -0.437412 -0.067958 0.142839
    29 -0.032909 -1.480204 0.004940 -1.165534 0.000000 0.000002
    30 -0.027022 -1.076920 -0.020210 -0.581968 0.000000 0.000000
    31 -0.249534 -2.846964 -0.174213 -0.128738 0.012411 0.088176
    32 0.043235 -1.683941 0.096012 -1.309101 0.002823 -0.000167
    33 0.031729 -1.160830 0.058838 -0.744926 0.000642 0.008372
    34 -0.963866 -2.785145 -0.085350 0.029537 0.160514 0.097512
    35 0.028479 -1.403067 0.006271 -0.585005 0.000000 0.000000
    36 0.021413 -0.957781 0.020046 -0.738170 0.000000 0.000000
    37 1.164475 -2.543940 -0.170330 -0.610671 -0.190582 0.231608
    38 0.024032 -1.129042 0.017807 -0.709819 0.000000 0.000001
    39 0.014898 -0.883989 -0.019848 -0.845482 0.000000 0.000000
    40 -0.586770 -1.264477 0.200161 0.061006 -0.422366 -2.753172
    41 1.522835 0.058681 0.016848 0.001410 0.008985 0.701826
    42 1.117947 0.048424 -0.005766 -0.002448 -0.025090 0.153526
    43 -0.139399 -0.111698 0.014397 0.653621 -0.030687 1.580508
    44 -1.393470 8.839177 -0.239433 1.580804 -0.005023 -1.566847
  time 12
    0 -0.999830 1.628956 0.541027 0.000000 0.000000 0.000000
    1 9.591362 3.367476 -9.325940 5.122838 -1.636153 0.957146
    2 -0.071918 -8.498730 -0.104137 0.147904 0.256753 0.012552
    3 3.877622 -5.248455 1.421663 0.246215 -3.194606 1.568953
    4 0.000000 0.000000 0.000000 0.000000 0.000000 0.000000
    5 -0.248228 2.512564 0.000000 0.000001 0.000000 1.570796
    6 4.320393 -1.031701 0.000001 -1.570795 -1.570796 0.000000
    7 4.110973 2.892190 0.000001 0.000000 0.000000 1.570796
    8 0.000000 -0.000002 0.000000 0.000001 0.000000 0.000000
    9 1.257180 8.762585 -0.153713 -1.570562 0.002683 -1.566807
    10 -0.488518 -2.755602 -0.228260 -0.871614 -0.202562 -0.209541
    11 0.039887 -1.479790 0.029854 -2.058953 0.000000 0.000001
    12 0.028786 -1.075731 -0.023109 -0.606330 0.000000 0.000000
    13 0.250027 -2.820665 -0.238396 -0.797118 -0.167517 -0.114938
    14 -0.049759 -1.680544 0.100479 -1.934765 0.000000 -0.000002
    15 -0.034142 -1.148312 0.084782 -0.925879 0.000000 0.000000
    16 0.957766 -2.746780 -0.090302 0.005849 -0.162684 0.097910
    17 -0.033420 -1.397129 -0.011257 -0.521003 0.000000 -0.000001
    18 -0.022360 -0.957436 0.018784 -0.975516 0.000000 0.000000
    19 -1.180681 -2.507217 -0.193859 -0.671429 -0.081516 -0.261329
    20 -0.024967 -1.123934 0.017597 -2.056303 0.000000 0.000001
    21 -0.020057 -0.890968 0.010090 -0.677843 0.000000 0.000000
    22 0.583510 -1.197277 0.185379 0.180209 -0.812077 -1.291294
    23 1.535927 0.010246 0.005009 -0.002964 -0.012979 -0.506650
    24 1.100771 0.004527 -0.010679 -0.015488 -0.004784 -1.694062
    25 0.120153 -0.050270 -0.054489 0.287569 3.110905 1.561085
    26 -0.540308 -12.766646 -11.653983 -0.942599 -5.096073 -0.071200
    27 0.096944 -8.450418 -0.009365 0.228864 -1.132450 -0.142828
    28 0.447953 -2.798986 -0.200443 -0.437412 -0.067958 0.142839
    29 -0.032909 -1.480204 0.004940 -1.165534 0.000000 0.000002
    30 -0.027022 -1.076920 -0.020210 -0.581968 0.000000 0.000000
    31 -0.249534 -2.846964 -0.174213 -0.128738 0.012411 0.088176
    32 0.043235 -1.683941 0.096012 -1.309101 0.002823 -0.000167
    33 0.031729 -1.160830 0.058838 -0.744926 0.000642 0.008372
    34 -0.963866 -2.785145 -0.085350 0.029537 0.160514 0.097512
    35 0.028479 -1.403067 0.006271 -0.585005 0.000000 0.000000
    36 0.021413 -0.957781 0.020046 -0.738170 0.000000 0.000000
    37 1.164475 -2.543940 -0.170330 -0.610671 -0.190582 0.231608
    38 0.024032 -1.129042 0.017807 -0.709819 0.000000 0.000001
    39 0.014898 -0.883989 -0.019848 -0.845482 0.000000 0.000000
    40 -0.586770 -1.264477 0.200161 0.059915 -0.422474 -2.750546
    41 1.522835 0.058681 0.016848 0.001410 0.008985 0.697859
    42 1.117947 0.048424 -0.005766 -0.002328 -0.025090 0.148436
    43 -0.139399 -0.111698 0.014397 0.653621 -0.030687 1.580508
    44 -1.393470 8.839177 -0.239433 1.580804 -0.005023 -1.566847
  time 13
    0 -0.999830 1.628956 0.541027 0.000000 0.000000 0.000000
    1 9.579643 3.371383 -9.212656 5.147610 -1.635783 0.932612
    2 -0.071918 -8.498730 -0.104137 0.147988 0.257790 0.013405
    3 3.877622 -5.248455 1.421663 0.246215 -3.194606 1.568953
    4 0.000000 0.000000 0.000000 0.000000 0.000000 0.000000
    5 -0.248228 2.512564 0.000000 0.000001 0.000000 1.570796
    6 4.320393 -1.031701 0.000001 -1.570795 -1.570796 0.000000
    7 4.110973 2.892190 0.000001 0.000000 0.000000 1.570796
    8 0.000000 -0.000002 0.000000 0.000001 0.000000 0.000000
    9 1.257180 8.762585 -0.153713 -1.570562 0.002683 -1.566807
    10 -0.488518 -2.755602 -0.228260 -0.871614 -0.202562 -0.209541
    11 0.039887 -1.479790 0.029854 -2.058953 0.000000 0.000001
    12 0.028786 -1.075731 -0.023109 -0.606330 0.000000 0.000000
    13 0.250027 -2.820665 -0.238396 -0.797118 -0.167517 -0.114938
    14 -0.049759 -1.680544 0.100479 -1.934765 0.000000 -0.000002
    15 -0.034142 -1.148312 0.084782 -0.925879 0.000000 0.000000
    16 0.957766 -2.746780 -0.090302 0.005849 -0.162684 0.097910
    17 -0.033420 -1.397129 -0.011257 -0.521003 0.000000 -0.000001
    18 -0.022360 -0.957436 0.018784 -0.975516 0.000000 0.000000
    19 -1.180681 -2.507217 -0.193859 -0.671429 -0.081516 -0.261329
    20 -0.024967 -1.123934 0.017597 -2.056303 0.000000 0.000001
    21 -0.020057 -0.890968 0.010090 -0.677843 0.000000 0.000000
    22 0.583510 -1.197277 0.185379 0.180209 -0.812077 -1.291294
    23 1.535927 0.010246 0.005009 -0.002964 -0.012979 -0.506650
    24 1.100771 0.004527 -0.010679 -0.015488 -0.004784 -1.694062
    25 0.120153 -0.050270 -0.054489 0.287569 3.110905 1.561085
    26 -0.610623 -12.848680 -11.525072 -0.947382 -5.097175 -0.067127
    27 0.096944 -8.450418 -0.009365 0.235879 -1.131096 -0.149860
    28 0.447953 -2.798986 -0.200443 -0.437412 -0.067958 0.142839
    29 -0.032909 -1.480204 0.004940 -1.165534 0.000000 0.000002
    30 -0.027022 -1.076920 -0.020210 -0.581968 0.000000 0.000000
    31 -0.249534 -2.846964 -0.174213 -0.128738 0.012411 0.088176
    32 0.043235 -1.683941 0.096012 -1.309101 0.002823 -0.000167
    33 0.031729 -1.160830 0.058838 -0.744926 0.000642 0.008372
    34 -0.963866 -2.785145 -0.085350 0.029537 0.160514 0.097512
    35 0.028479 -1.403067 0.006271 -0.585005 0.000000 0.000000
    36 0.021413 -0.957781 0.020046 -0.738170 0.000000 0.000000
    37 1.164475 -2.543940 -0.170330 -0.610671 -0.190582 0.231608
    38 0.024032 -1.129042 0.017807 -0.709819 0.000000 0.000001
    39 0.014898 -0.883989 -0.019848 -0.845482 0.000000 0.000000
    40 -0.586770 -1.264477 0.200161 0.057015 -0.422773 -2.743488
    41 1.522835 0.058681 0.016848 0.001410 0.008985 0.687210
    42 1.117947 0.048424 -0.005766 -0.001981 -0.025090 0.134784
    43 -0.139399 -0.111698 0.014397 0.653621 -0.030687 1.580508
    44 -1.393470 8.839177 -0.239433 1.580804 -0.005023 -1.566847
  time 14
    0 -0.999830 1.628956 0.541027 0.000000 0.000000 0.000000
    1 9.548392 3.383102 -9.075933 5.215995 -1.634795 0.864546
    2 -0.071918 -8.498730 -0.104137 0.148227 0.260672 0.015725
    3 3.877622 -5.248455 1.421663 0.246215 -3.194606 1.568953
    4 0.000000 0.000000 0.000000 0.000000 0.000000 0.000000
    5 -0.248228 2.512564 0.000000 0.000001 0.000000 1.570796
    6 4.320393 -1.031701 0.000001 -1.570795 -1.570796 0.000000
    7 4.110973 2.892190 0.000001 0.000000 0.000000 1.570796
    8 0.000000 -0.000002 0.000000 0.000001 0.000000 0.000000
    9 1.257180 8.762585 -0.153713 -1.570562 0.002683 -1.566807
    10 -0.488518 -2.755602 -0.228260 -0.871614 -0.202562 -0.209541
    11 0.039887 -1.479790 0.029854 -2.058953 0.000000 0.000001
    12 0.028786 -1.075731 -0.023109 -0.606330 0.000000 0.000000
    13 0.250027 -2.820665 -0.238396 -0.797118 -0.167517 -0.114938
    14 -0.049759 -1.680544 0.100479 -1.934765 0.000000 -0.000002
    15 -0.034142 -1.148312 0.084782 -0.925879 0.000000 0.000000
    16 0.957766 -2.746780 -0.090302 0.005849 -0.162684 0.097910
    17 -0.033420 -1.397129 -0.011257 -0.521003 0.000000 -0.000001
    18 -0.022360 -0.957436 0.018784 -0.975516 0.000000 0.000000
    19 -1.180681 -2.507217 -0.193859 -0.671429 -0.081516 -0.261329
    20 -0.024967 -1.123934 0.017597 -2.056303 0.000000 0.000001
    21 -0.020057 -0.890968 0.010090 -0.677843 0.000000 0.000000
    22 0.583510 -1.197277 0.185379 0.180209 -0.812077 -1.291294
    23 1.535927 0.010246 0.005009 -0.002964 -0.012979 -0.506650
    24 1.100771 0.004527 -0.010679 -0.015488 -0.004784 -1.694062
    25 0.120153 -0.050270 -0.054489 0.287569 3.110905 1.561085
    26 -0.653593 -12.883837 -11.325848 -0.961253 -5.097490 -0.076315
    27 0.096944 -8.450418 -0.009365 0.238489 -1.130595 -0.152461
    28 0.447953 -2.798986 -0.200443 -0.437412 -0.067958 0.142839
    29 -0.032909 -1.480204 0.004940 -1.165534 0.000000 0.000002
    30 -0.027022 -1.076920 -0.020210 -0.581968 0.000000 0.000000
    31 -0.249534 -2.846964 -0.174213 -0.128738 0.012411 0.088176
    32 0.043235 -1.683941 0.096012 -1.309101 0.002823 -0.000167
    33 0.031729 -1.160830 0.058838 -0.744926 0.000642 0.008372
    34 -0.963866 -2.785145 -0.085350 0.029537 0.160514 0.097512
    35 0.028479 -1.403067 0.006271 -0.585005 0.000000 0.000000
    36 0.021413 -0.957781 0.020046 -0.738170 0.000000 0.000000
    37 1.164475 -2.543940 -0.170330 -0.610671 -0.190582 0.231608
    38 0.024032 -1.129042 0.017807 -0.709819 0.000000 0.000001
    39 0.014898 -0.883989 -0.019848 -0.845482 0.000000 0.000000
    40 -0.586770 -1.264477 0.200161 0.052809 -0.423193 -2.733273
    41 1.522835 0.058681 0.016848 0.001410 0.008985 0.671827
    42 1.117947 0.048424 -0.005766 -0.001489 -0.025102 0.115040
    43 -0.139399 -0.111698 0.014397 0.653621 -0.030687 1.580508
    44 -1.393470 8.839177 -0.239433 1.580804 -0.005023 -1.566847
  time 15
    0 -0.999830 1.628956 0.541027 0.000000 0.000000 0.000000
    1 9.509328 3.398727 -8.950929 5.319481 -1.633253 0.761732
    2 -0.071918 -8.498730 -0.104137 0.148575 0.265010 0.019244
    3 3.877622 -5.248455 1.421663 0.246215 -3.194606 1.568953
    4 0.000000 0.000000 0.000000 0.000000 0.000000 0.000000
    5 -0.248228 2.512564 0.000000 0.000001 0.000000 1.570796
    6 4.320393 -1.031701 0.000001 -1.570795 -1.570796 0.000000
    7 4.110973 2.892190 0.000001 0.000000 0.000000 1.570796
    8 0.000000 -0.000002 0.000000 0.000001 0.000000 0.000000
    9 1.257180 8.762585 -0.153713 -1.570562 0.002683 -1.566807
    10 -0.488518 -2.755602 -0.228260 -0.871614 -0.202562 -0.209541
    11 0.039887 -1.479790 0.029854 -2.058953 0.000000 0.000001
    12 0.028786 -1.075731 -0.023109 -0.606330 0.000000 0.000000
    13 0.250027 -2.820665 -0.238396 -0.797118 -0.167517 -0.114938
    14 -0.049759 -1.680544 0.100479 -1.934765 0.000000 -0.000002
    15 -0.034142 -1.148312 0.084782 -0.925879 0.000000 0.000000
    16 0.957766 -2.746780 -0.090302 0.005849 -0.162684 0.097910
    17 -0.033420 -1.397129 -0.011257 -0.521003 0.000000 -0.000001
    18 -0.022360 -0.957436 0.018784 -0.975516 0.000000 0.000000
    19 -1.180681 -2.507217 -0.193859 -0.671429 -0.081516 -0.261329
    20 -0.024967 -1.123934 0.017597 -2.056303 0.000000 0.000001
    21 -0.020057 -0.890968 0.010090 -0.677843 0.000000 0.000000
    22 0.583510 -1.197277 0.185379 0.180209 -0.812077 -1.291294
    23 1.535927 0.010246 0.005009 -0.002964 -0.012979 -0.506650
    24 1.100771 0.004527 -0.010679 -0.015488 -0.004784 -1.694062
    25 0.120153 -0.050270 -0.054489 0.287569 3.110905 1.561085
    26 -0.665312 -12.872118 -11.083653 -0.983118 -5.096860 -0.098387
    27 0.096944 -8.450418 -0.009365 0.237633 -1.130745 -0.151633
    28 0.447953 -2.798986 -0.200443 -0.437412 -0.067958 0.142839
    29 -0.032909 -1.480204 0.004940 -1.165534 0.000000 0.000002
    30 -0.027022 -1.076920 -0.020210 -0.581968 0.000000 0.000000
    31 -0.249534 -2.846964 -0.174213 -0.128738 0.012411 0.088176
    32 0.043235 -1.683941 0.096012 -1.309101 0.002823 -0.000167
    33 0.031729 -1.160830 0.058838 -0.744926 0.000642 0.008372
    34 -0.963866 -2.785145 -0.085350 0.029537 0.160514 0.097512
    35 0.028479 -1.403067 0.006271 -0.585005 0.000000 0.000000
    36 0.021413 -0.957781 0.020046 -0.738170 0.000000 0.000000
    37 1.164475 -2.543940 -0.170330 -0.610671 -0.190582 0.231608
    38 0.024032 -1.129042 0.017807 -0.709819 0.000000 0.000001
    39 0.014898 -0.883989 -0.019848 -0.845482 0.000000 0.000000
    40 -0.586770 -1.264477 0.200161 0.047835 -0.423684 -2.721164
    41 1.522835 0.058681 0.016848 0.001410 0.008985 0.653551
    42 1.117947 0.048424 -0.005766 -0.000890 -0.025126 0.091628
    43 -0.139399 -0.111698 0.014397 0.653621 -0.030687 1.580508
    44 -1.393470 8.839177 -0.239433 1.580804 -0.005023 -1.566847
  time 16
    0 -0.999830 1.628956 0.541027 0.000000 0.000000 0.000000
    1 9.466358 3.418259 -8.853270 5.449078 -1.631278 0.632952
    2 -0.071918 -8.498730 -0.104137 0.149030 0.270443 0.023670
    3 3.877622 -5.248455 1.421663 0.246215 -3.194606 1.568953
    4 0.000000 0.000000 0.000000 0.000000 0.000000 0.000000
    5 -0.248228 2.512564 0.000000 0.000001 0.000000 1.570796
    6 4.320393 -1.031701 0.000001 -1.570795 -1.570796 0.000000
    7 4.110973 2.892190 0.000001 0.000000 0.000000 1.570796
    8 0.000000 -0.000002 0.000000 0.000001 0.000000 0.000000
    9 1.257180 8.762585 -0.153713 -1.570562 0.002683 -1.566807
    10 -0.488518 -2.755602 -0.228260 -0.871614 -0.202562 -0.209541
    11 0.039887 -1.479790 0.029854 -2.058953 0.000000 0.000001
    12 0.028786 -1.075731 -0.023109 -0.606330 0.000000 0.000000
    13 0.250027 -2.820665 -0.238396 -0.797118 -0.167517 -0.114938
    14 -0.049759 -1.680544 0.100479 -1.934765 0.000000 -0.000002
    15 -0.034142 -1.148312 0.084782 -0.925906 0.000000 0.000000
    16 0.957766 -2.746780 -0.090302 0.005849 -0.162684 0.097910
    17 -0.033420 -1.397129 -0.011257 -0.521003 0.000000 -0.000001
    18 -0.022360 -0.957436 0.018784 -0.975516 0.000000 0.000000
    19 -1.180681 -2.507217 -0.193859 -0.671429 -0.081516 -0.261329
    20 -0.024967 -1.123934 0.017597 -2.056303 0.000000 0.000001
    21 -0.020057 -0.890968 0.010090 -0.677843 0.000000 0.000000
    22 0.583510 -1.197277 0.185379 0.180209 -0.812077 -1.291294
    23 1.535927 0.010246 0.005009 -0.002964 -0.012979 -0.506650
    24 1.100771 0.004527 -0.010679 -0.015488 -0.004784 -1.694062
    25 0.120153 -0.050270 -0.054489 0.287569 3.110905 1.561085
    26 -0.653593 -12.825242 -10.821926 -1.011884 -5.095207 -0.130878
    27 0.096944 -8.450418 -0.009365 0.235195 -1.131247 -0.149210
    28 0.447953 -2.798986 -0.200443 -0.437412 -0.067958 0.142839
    29 -0.032909 -1.480204 0.004940 -1.165534 0.000000 0.000002
    30 -0.027022 -1.076920 -0.020210 -0.581968 0.000000 0.000000
    31 -0.249534 -2.846964 -0.174213 -0.128738 0.012411 0.088176
    32 0.043235 -1.683941 0.096012 -1.309101 0.002823 -0.000167
    33 0.031729 -1.160830 0.058838 -0.744926 0.000642 0.008372
    34 -0.963866 -2.785145 -0.085350 0.029537 0.160514 0.097512
    35 0.028479 -1.403067 0.006271 -0.585005 0.000000 0.000000
    36 0.021413 -0.957781 0.020046 -0.738170 0.000000 0.000000
    37 1.164475 -2.543940 -0.170330 -0.610671 -0.190582 0.231608
    38 0.024032 -1.129042 0.017807 -0.709819 0.000000 0.000001
    39 0.014898 -0.883989 -0.019848 -0.845482 0.000000 0.000000
    40 -0.586770 -1.264477 0.200161 0.042586 -0.424211 -2.708436
    41 1.522835 0.058681 0.016848 0.001410 0.008985 0.634353
    42 1.117947 0.048424 -0.005766 -0.000279 -0.025138 0.066989
    43 -0.139399 -0.111698 0.014397 0.653621 -0.030687 1.580508
    44 -1.393470 8.839177 -0.239433 1.580804 -0.005023 -1.566847
  time 17
    0 -0.999830 1.628956 0.541027 0.000000 0.000000 0.000000
    1 9.427294 3.437791 -8.814206 5.596177 -1.629057 0.486703
    2 -0.071918 -8.498730 -0.104137 0.149534 0.276625 0.028682
    3 3.877622 -5.248455 1.421663 0.246215 -3.194606 1.568953
    4 0.000000 0.000000 0.000000 0.000000 0.000000 0.000000
    5 -0.248228 2.512564 0.000000 0.000001 0.000000 1.570796
    6 4.320393 -1.031701 0.000001 -1.570795 -1.570796 0.000000
    7 4.110973 2.892190 0.000001 0.000000 0.000000 1.570796
    8 0.000000 -0.000002 0.000000 0.000001 0.000000 0.000000
    9 1.257180 8.762585 -0.153713 -1.570562 0.002683 -1.566807
    10 -0.488518 -2.755602 -0.228260 -0.871614 -0.202562 -0.209541
    11 0.039887 -1.479790 0.029854 -2.058953 0.000000 0.000001
    12 0.028786 -1.075731 -0.023109 -0.606330 0.000000 0.000000
    13 0.250027 -2.820665 -0.238396 -0.797118 -0.167517 -0.114938
    14 -0.049759 -1.680544 0.100479 -1.934765 0.000000 -0.000002
    15 -0.034142 -1.148312 0.084782 -0.925906 0.000000 0.000000
    16 0.957766 -2.746780 -0.090302 0.005849 -0.162684 0.097910
    17 -0.033420 -1.397129 -0.011257 -0.521003 0.000000 -0.000001
    18 -0.022360 -0.957436 0.018784 -0.975516 0.000000 0.000000
    19 -1.180681 -2.507217 -0.193859 -0.671429 -0.081516 -0.261329
    20 -0.024967 -1.123934 0.017597 -2.056303 0.000000 0.000001
    21 -0.020057 -0.890968 0.010090 -0.677843 0.000000 0.000000
    22 0.583510 -1.197277 0.185379 0.180209 -0.812077 -1.291294
    23 1.535927 0.010246 0.005009 -0.002964 -0.012979 -0.506650
    24 1.100771 0.004527 -0.010679 -0.015488 -0.004784 -1.694062
    25 0.120153 -0.050270 -0.054489 0.287569 3.110905 1.561085
    26 -0.618436 -12.758833 -10.579731 -1.046185 -5.092530 -0.171421
    27 0.096944 -8.450418 -0.009365 0.231474 -1.131949 -0.145428
    28 0.447953 -2.798986 -0.200443 -0.437412 -0.067958 0.142839
    29 -0.032909 -1.480204 0.004940 -1.165534 0.000000 0.000002
    30 -0.027022 -1.076920 -0.020210 -0.581968 0.000000 0.000000
    31 -0.249534 -2.846964 -0.174213 -0.128738 0.012411 0.088176
    32 0.043235 -1.683941 0.096012 -1.309101 0.002823 -0.000167
    33 0.031729 -1.160830 0.058838 -0.744926 0.000642 0.008372
    34 -0.963866 -2.785145 -0.085350 0.029537 0.160514 0.097512
    35 0.028479 -1.403067 0.006271 -0.585005 0.000000 0.000000
    36 0.021413 -0.957781 0.020046 -0.738170 0.000000 0.000000
    37 1.164475 -2.543940 -0.170330 -0.610671 -0.190582 0.231608
    38 0.024032 -1.129042 0.017807 -0.709819 0.000000 0.000001
    39 0.014898 -0.883989 -0.019848 -0.845482 0.000000 0.000000
    40 -0.586770 -1.264477 0.200161 0.037600 -0.424715 -2.696327
    41 1.522835 0.058681 0.016848 0.001410 0.008985 0.616077
    42 1.117947 0.048424 -0.005766 0.000296 -0.025150 0.043594
    43 -0.139399 -0.111698 0.014397 0.653621 -0.030687 1.580508
    44 -1.393470 8.839177 -0.239433 1.580804 -0.005023 -1.566847
  time 18
    0 -0.999830 1.628956 0.541027 0.000000 0.000000 0.000000
    1 9.384324 3.461229 -8.825925 5.751980 -1.626589 0.331766
    2 -0.071918 -8.498730 -0.104137 0.150073 0.283167 0.034015
    3 3.877622 -5.248455 1.421663 0.246215 -3.194606 1.568953
    4 0.000000 0.000000 0.000000 0.000000 0.000000 0.000000
    5 -0.248228 2.512564 0.000000 0.000001 0.000000 1.570796
    6 4.320393 -1.031701 0.000001 -1.570795 -1.570796 0.000000
    7 4.110973 2.892190 0.000001 0.000000 0.000000 1.570796
    8 0.000000 -0.000002 0.000000 0.000001 0.000000 0.000000
    9 1.257180 8.762585 -0.153713 -1.570562 0.002683 -1.566807
    10 -0.488518 -2.755602 -0.228260 -0.871614 -0.202562 -0.209541
    11 0.039887 -1.479790 0.029854 -2.058953 0.000000 0.000001
    12 0.028786 -1.075731 -0.023109 -0.606330 0.000000 0.000000
    13 0.250027 -2.820665 -0.238396 -0.797118 -0.167517 -0.114938
    14 -0.049759 -1.680544 0.100479 -1.934765 0.000000 -0.000002
    15 -0.034142 -1.148312 0.084782 -0.925879 0.000000 0.000000
    16 0.957766 -2.746780 -0.090302 0.005849 -0.162684 0.097910
    17 -0.033420 -1.397129 -0.011257 -0.521003 0.000000 -0.000001
    18 -0.022360 -0.957436 0.018784 -0.975516 0.000000 0.000000
    19 -1.180681 -2.507217 -0.193859 -0.671429 -0.081516 -0.261329
    20 -0.024967 -1.123934 0.017597 -2.056303 0.000000 0.000001
    21 -0.020057 -0.890968 0.010090 -0.677843 0.000000 0.000000
    22 0.583510 -1.197277 0.185379 0.180209 -0.812077 -1.291294
    23 1.535927 0.010246 0.005009 -0.002964 -0.012979 -0.506650
    24 1.100771 0.004527 -0.010679 -0.015488 -0.004784 -1.694062
    25 0.120153 -0.050270 -0.054489 0.287569 3.110905 1.561085
    26 -0.583278 -12.672893 -10.360974 -1.084108 -5.088831 -0.216701
    27 0.096944 -8.450418 -0.009365 0.226597 -1.132901 -0.140523
    28 0.447953 -2.798986 -0.200443 -0.437412 -0.067958 0.142839
    29 -0.032909 -1.480204 0.004940 -1.165534 0.000000 0.000002
    30 -0.027022 -1.076920 -0.020210 -0.581968 0.000000 0.000000
    31 -0.249534 -2.846964 -0.174213 -0.128738 0.012411 0.088176
    32 0.043235 -1.683941 0.096012 -1.309101 0.002823 -0.000167
    33 0.031729 -1.160830 0.058838 -0.744926 0.000642 0.008372
    34 -0.963866 -2.785145 -0.085350 0.029537 0.160514 0.097512
    35 0.028479 -1.403067 0.006271 -0.585005 0.000000 0.000000
    36 0.021413 -0.957781 0.020046 -0.738170 0.000000 0.000000
    37 1.164475 -2.543940 -0.170330 -0.610671 -0.190582 0.231608
    38 0.024032 -1.129042 0.017807 -0.709819 0.000000 0.000001
    39 0.014898 -0.883989 -0.019848 -0.845482 0.000000 0.000000
    40 -0.586770 -1.264477 0.200161 0.033406 -0.425134 -2.686112
    41 1.522835 0.058681 0.016848 0.001410 0.008985 0.600693
    42 1.117947 0.048424 -0.005766 0.000800 -0.025162 0.023850
    43 -0.139399 -0.111698 0.014397 0.653621 -0.030687 1.580508
    44 -1.393470 8.839177 -0.239433 1.580804 -0.005023 -1.566847
  time 19
    0 -0.999830 1.628956 0.541027 0.000000 0.000000 0.000000
    1 9.333542 3.484667 -8.849363 5.907879 -1.624120 0.176925
    2 -0.071918 -8.498730 -0.104137 0.150612 0.289695 0.039321
    3 3.877622 -5.248455 1.421663 0.246215 -3.194606 1.568953
    4 0.000000 0.000000 0.000000 0.000000 0.000000 0.000000
    5 -0.248228 2.512564 0.000000 0.000001 0.000000 1.570796
    6 4.320393 -1.031701 0.000001 -1.570795 -1.570796 0.000000
    7 4.110973 2.892190 0.000001 0.000000 0.000000 1.570796
    8 0.000000 -0.000002 0.000000 0.000001 0.000000 0.000000
    9 1.257180 8.762585 -0.153713 -1.570562 0.002683 -1.566807
    10 -0.488518 -2.755602 -0.228260 -0.871614 -0.202562 -0.209541
    11 0.039887 -1.479790 0.029854 -2.058953 0.000000 0.000001
    12 0.028786 -1.075731 -0.023109 -0.606330 0.000000 0.000000
    13 0.250027 -2.820665 -0.238396 -0.797118 -0.167517 -0.114938
    14 -0.049759 -1.680544 0.100479 -1.934765 0.000000 -0.000002
    15 -0.034142 -1.148312 0.084782 -0.925906 0.000000 0.000000
    16 0.957766 -2.746780 -0.090302 0.005849 -0.162684 0.097910
    17 -0.033420 -1.397129 -0.011257 -0.521003 0.000000 -0.000001
    18 -0.022360 -0.957436 0.018784 -0.975516 0.000000 0.000000
    19 -1.180681 -2.507217 -0.193859 -0.671429 -0.081516 -0.261329
    20 -0.024967 -1.123934 0.017597 -2.056303 0.000000 0.000001
    21 -0.020057 -0.890968 0.010090 -0.677843 0.000000 0.000000
    22 0.583510 -1.197277 0.185379 0.180209 -0.812077 -1.291294
    23 1.535927 0.010246 0.005009 -0.002964 -0.012979 -0.506650
    24 1.100771 0.004527 -0.010679 -0.015488 -0.004784 -1.694062
    25 0.120153 -0.050270 -0.054489 0.287569 3.110905 1.561085
    26 -0.552027 -12.583047 -10.146124 -1.123260 -5.084501 -0.263306
    27 0.096944 -8.450418 -0.009365 0.220822 -1.134054 -0.134673
    28 0.447953 -2.798986 -0.200443 -0.437412 -0.067958 0.142839
    29 -0.032909 -1.480204 0.004940 -1.165534 0.000000 0.000002
    30 -0.027022 -1.076920 -0.020210 -0.581968 0.000000 0.000000
    31 -0.249534 -2.846964 -0.174213 -0.128738 0.012411 0.088176
    32 0.043235 -1.683941 0.096012 -1.309101 0.002823 -0.000167
    33 0.031729 -1.160830 0.058838 -0.744926 0.000642 0.008372
    34 -0.963866 -2.785145 -0.085350 0.029537 0.160514 0.097512
    35 0.028479 -1.403067 0.006271 -0.585005 0.000000 0.000000
    36 0.021413 -0.957781 0.020046 -0.738170 0.000000 0.000000
    37 1.164475 -2.543940 -0.170330 -0.610671 -0.190582 0.231608
    38 0.024032 -1.129042 0.017807 -0.709819 0.000000 0.000001
    39 0.014898 -0.883989 -0.019848 -0.845482 0.000000 0.000000
    40 -0.586770 -1.264477 0.200161 0.030505 -0.425422 -2.679053
    41 1.522835 0.058681 0.016848 0.001410 0.008985 0.590045
    42 1.117947 0.048424 -0.005766 0.001135 -0.025174 0.010214
    43 -0.139399 -0.111698 0.014397 0.653621 -0.030687 1.580508
    44 -1.393470 8.839177 -0.239433 1.580804 -0.005023 -1.566847
  time 20
    0 -0.999830 1.628956 0.541027 0.000000 0.000000 0.000000
    1 9.286665 3.512012 -8.884521 6.054978 -1.621652 0.030675
    2 -0.071918 -8.498730 -0.104137 0.151116 0.295863 0.044360
    3 3.877622 -5.248455 1.421663 0.246215 -3.194606 1.568953
    4 0.000000 0.000000 0.000000 0.000000 0.000000 0.000000
    5 -0.248228 2.512564 0.000000 0.000001 0.000000 1.570796
    6 4.320393 -1.031701 0.000001 -1.570795 -1.570796 0.000000
    7 4.110973 2.892190 0.000001 0.000000 0.000000 1.570796
    8 0.000000 -0.000002 0.000000 0.000001 0.000000 0.000000
    9 1.257180 8.762585 -0.153713 -1.570562 0.002683 -1.566807
    10 -0.488518 -2.755602 -0.228260 -0.871614 -0.202562 -0.209541
    11 0.039887 -1.479790 0.029854 -2.058953 0.000000 0.000001
    12 0.028786 -1.075731 -0.023109 -0.606330 0.000000 0.000000
    13 0.250027 -2.820665 -0.238396 -0.797118 -0.167517 -0.114938
    14 -0.049759 -1.680544 0.100479 -1.934765 0.000000 -0.000002
    15 -0.034142 -1.148312 0.084782 -0.925879 0.000000 0.000000
    16 0.957766 -2.746780 -0.090302 0.005849 -0.162684 0.097910
    17 -0.033420 -1.397129 -0.011257 -0.521003 0.000000 -0.000001
    18 -0.022360 -0.957436 0.018784 -0.975516 0.000000 0.000000
    19 -1.180681 -2.507217 -0.193859 -0.671429 -0.081516 -0.261329
    20 -0.024967 -1.123934 0.017597 -2.056303 0.000000 0.000001
    21 -0.020057 -0.890968 0.010090 -0.677843 0.000000 0.000000
    22 0.583510 -1.197277 0.185379 0.180209 -0.812077 -1.291294
    23 1.535927 0.010246 0.005009 -0.002964 -0.012979 -0.506650
    24 1.100771 0.004527 -0.010679 -0.015488 -0.004784 -1.694062
    25 0.120153 -0.050270 -0.054489 0.287569 3.110905 1.561085
    26 -0.536402 -12.497107 -9.950806 -1.161046 -5.079620 -0.307449
    27 0.096944 -8.450418 -0.009365 0.214406 -1.135308 -0.128231
    28 0.447953 -2.798986 -0.200443 -0.437412 -0.067958 0.142839
    29 -0.032909 -1.480204 0.004940 -1.165534 0.000000 0.000002
    30 -0.027022 -1.076920 -0.020210 -0.581968 0.000000 0.000000
    31 -0.249534 -2.846964 -0.174213 -0.128738 0.012411 0.088176
    32 0.043235 -1.683941 0.096012 -1.309101 0.002823 -0.000167
    33 0.031729 -1.160830 0.058838 -0.744926 0.000642 0.008372
    34 -0.963866 -2.785145 -0.085350 0.029537 0.160514 0.097512
    35 0.028479 -1.403067 0.006271 -0.585005 0.000000 0.000000
    36 0.021413 -0.957781 0.020046 -0.738170 0.000000 0.000000
    37 1.164475 -2.543940 -0.170330 -0.610671 -0.190582 0.231608
    38 0.024032 -1.129042 0.017807 -0.709819 0.000000 0.000001
    39 0.014898 -0.883989 -0.019848 -0.845482 0.000000 0.000000
    40 -0.586770 -1.264477 0.200161 0.029415 -0.425542 -2.676427
    41 1.522835 0.058681 0.016848 0.001410 0.008985 0.586077
    42 1.117947 0.048424 -0.005766 0.001267 -0.025174 0.005124
    43 -0.139399 -0.111698 0.014397 0.653621 -0.030687 1.580508
    44 -1.393470 8.839177 -0.239433 1.580804 -0.005023 -1.566847
  time 21
    0 -0.999830 1.628956 0.541027 0.000000 0.000000 0.000000
    1 9.239789 3.539357 -8.927491 6.184575 -1.619369 -0.098105
    2 -0.071918 -8.498730 -0.104137 0.151559 0.301310 0.048786
    3 3.877622 -5.248455 1.421663 0.246215 -3.194606 1.568953
    4 0.000000 0.000000 0.000000 0.000000 0.000000 0.000000
    5 -0.248228 2.512564 0.000000 0.000001 0.000000 1.570796
    6 4.320393 -1.031701 0.000001 -1.570795 -1.570796 0.000000
    7 4.110973 2.892190 0.000001 0.000000 0.000000 1.570796
    8 0.000000 -0.000002 0.000000 0.000001 0.000000 0.000000
    9 1.257180 8.762585 -0.153713 -1.570562 0.002683 -1.566807
    10 -0.488518 -2.755602 -0.228260 -0.871614 -0.202562 -0.209541
    11 0.039887 -1.479790 0.029854 -2.058953 0.000000 0.000001
    12 0.028786 -1.075731 -0.023109 -0.606330 0.000000 0.000000
    13 0.250027 -2.820665 -0.238396 -0.797118 -0.167517 -0.114938
    14 -0.049759 -1.680544 0.100479 -1.934765 0.000000 -0.000002
    15 -0.034142 -1.148312 0.084782 -0.925879 0.000000 0.000000
    16 0.957766 -2.746780 -0.090302 0.005849 -0.162684 0.097910
    17 -0.033420 -1.397129 -0.011257 -0.521003 0.000000 -0.000001
    18 -0.022360 -0.957436 0.018784 -0.975516 0.000000 0.000000
    19 -1.180681 -2.507217 -0.193859 -0.671429 -0.081516 -0.261329
    20 -0.024967 -1.123934 0.017597 -2.056303 0.000000 0.000001
    21 -0.020057 -0.890968 0.010090 -0.677843 0.000000 0.000000
    22 0.583510 -1.197277 0.185379 0.180209 -0.812077 -1.291294
    23 1.535927 0.010246 0.005009 -0.002964 -0.012979 -0.506650
    24 1.100771 0.004527 -0.010679 -0.015488 -0.004784 -1.694062
    25 0.120153 -0.050270 -0.054489 0.287569 3.110905 1.561085
    26 -0.536402 -12.426792 -9.790645 -1.194595 -5.074740 -0.344961
    27 0.096944 -8.450418 -0.009365 0.207562 -1.136611 -0.121258
    28 0.447953 -2.798986 -0.200443 -0.437412 -0.067958 0.142839
    29 -0.032909 -1.480204 0.004940 -1.165534 0.000000 0.000002
    30 -0.027022 -1.076920 -0.020210 -0.581968 0.000000 0.000000
    31 -0.249534 -2.846964 -0.174213 -0.128738 0.012411 0.088176
    32 0.043235 -1.683941 0.096012 -1.309101 0.002823 -0.000167
    33 0.031729 -1.160830 0.058838 -0.744926 0.000642 0.008372
    34 -0.963866 -2.785145 -0.085350 0.029537 0.160514 0.097512
    35 0.028479 -1.403067 0.006271 -0.585005 0.000000 0.000000
    36 0.021413 -0.957781 0.020046 -0.738170 0.000000 0.000000
    37 1.164475 -2.543940 -0.170330 -0.610671 -0.190582 0.231608
    38 0.024032 -1.129042 0.017807 -0.709819 0.000000 0.000001
    39 0.014898 -0.883989 -0.019848 -0.845482 0.000000 0.000000
    40 -0.586770 -1.264477 0.200161 0.029415 -0.425542 -2.676427
    41 1.522835 0.058681 0.016848 0.001410 0.008985 0.586077
    42 1.117947 0.048424 -0.005766 0.001267 -0.025174 0.005124
    43 -0.139399 -0.111698 0.014397 0.653621 -0.030687 1.580508
    44 -1.393470 8.839177 -0.239433 1.580804 -0.005023 -1.566847
  time 22
    0 -0.999830 1.628956 0.541027 0.000000 0.000000 0.000000
    1 9.196819 3.570608 -8.970461 0.004965 -1.617333 -0.200919
    2 -0.071918 -8.498730 -0.104137 0.151918 0.305647 0.052305
    3 3.877622 -5.248455 1.421663 0.246215 -3.194606 1.568953
    4 0.000000 0.000000 0.000000 0.000000 0.000000 0.000000
    5 -0.248228 2.512564 0.000000 0.000001 0.000000 1.570796
    6 4.320393 -1.031701 0.000001 -1.570795 -1.570796 0.000000
    7 4.110973 2.892190 0.000001 0.000000 0.000000 1.570796
    8 0.000000 -0.000002 0.000000 0.000001 0.000000 0.000000
    9 1.257180 8.762585 -0.153713 -1.570562 0.002683 -1.566807
    10 -0.488518 -2.755602 -0.228260 -0.871614 -0.202562 -0.209541
    11 0.039887 -1.479790 0.029854 -2.058953 0.000000 0.000001
    12 0.028786 -1.075731 -0.023109 -0.606330 0.000000 0.000000
    13 0.250027 -2.820665 -0.238396 -0.797118 -0.167517 -0.114938
    14 -0.049759 -1.680544 0.100479 -1.934765 0.000000 -0.000002
    15 -0.034142 -1.148312 0.084782 -0.925879 0.000000 0.000000
    16 0.957766 -2.746780 -0.090302 0.005849 -0.162684 0.097910
    17 -0.033420 -1.397129 -0.011257 -0.521003 0.000000 -0.000001
    18 -0.022360 -0.957436 0.018784 -0.975516 0.000000 0.000000
    19 -1.180681 -2.507217 -0.193859 -0.671429 -0.081516 -0.261329
    20 -0.024967 -1.123934 0.017597 -2.056303 0.000000 0.000001
    21 -0.020057 -0.890968 0.010090 -0.677843 0.000000 0.000000
    22 0.583510 -1.197277 0.185379 0.180209 -0.812077 -1.291294
    23 1.535927 0.010246 0.005009 -0.002964 -0.012979 -0.506650
    24 1.100771 0.004527 -0.010679 -0.015488 -0.004784 -1.694062
    25 0.120153 -0.050270 -0.054489 0.287569 3.110905 1.561085
    26 -0.559840 -12.387728 -9.677360 -1.221243 -5.070174 -0.371959
    27 0.096944 -8.450418 -0.009365 0.200461 -1.138015 -0.114108
    28 0.447953 -2.798986 -0.200443 -0.437412 -0.067958 0.142839
    29 -0.032909 -1.480204 0.004940 -1.165534 0.000000 0.000002
    30 -0.027022 -1.076920 -0.020210 -0.581968 0.000000 0.000000
    31 -0.249534 -2.846964 -0.174213 -0.128738 0.012411 0.088176
    32 0.043235 -1.683941 0.096012 -1.309101 0.002823 -0.000167
    33 0.031729 -1.160830 0.058838 -0.744926 0.000642 0.008372
    34 -0.963866 -2.785145 -0.085350 0.029537 0.160514 0.097512
    35 0.028479 -1.403067 0.006271 -0.585005 0.000000 0.000000
    36 0.021413 -0.957781 0.020046 -0.738170 0.000000 0.000000
    37 1.164475 -2.543940 -0.170330 -0.610671 -0.190582 0.231608
    38 0.024032 -1.129042 0.017807 -0.709819 0.000000 0.000001
    39 0.014898 -0.883989 -0.019848 -0.845482 0.000000 0.000000
    40 -0.586770 -1.264477 0.200161 0.029415 -0.425542 -2.676427
    41 1.522835 0.058681 0.016848 0.001410 0.008985 0.586077
    42 1.117947 0.048424 -0.005766 0.001267 -0.025174 0.005124
    43 -0.139399 -0.111698 0.014397 0.653621 -0.030687 1.580508
    44 -1.393470 8.839177 -0.239433 1.580804 -0.005023 -1.566847
  time 23
    0 -0.999830 1.628956 0.541027 0.000000 0.000000 0.000000
    1 9.169474 3.597952 -9.005618 0.073350 -1.615667 -0.268984
    2 -0.071918 -8.498730 -0.104137 0.152146 0.308529 0.054652
    3 3.877622 -5.248455 1.421663 0.246215 -3.194606 1.568953
    4 0.000000 0.000000 0.000000 0.000000 0.000000 0.000000
    5 -0.248228 2.512564 0.000000 0.000001 0.000000 1.570796
    6 4.320393 -1.031701 0.000001 -1.570795 -1.570796 0.000000
    7 4.110973 2.892190 0.000001 0.000000 0.000000 1.570796
    8 0.000000 -0.000002 0.000000 0.000001 0.000000 0.000000
    9 1.257180 8.762585 -0.153713 -1.570562 0.002683 -1.566807
    10 -0.488518 -2.755602 -0.228260 -0.871614 -0.202562 -0.209541
    11 0.039887 -1.479790 0.029854 -2.058953 0.000000 0.000001
    12 0.028786 -1.075731 -0.023109 -0.606330 0.000000 0.000000
    13 0.250027 -2.820665 -0.238396 -0.797118 -0.167517 -0.114938
    14 -0.049759 -1.680544 0.100479 -1.934765 0.000000 -0.000002
    15 -0.034142 -1.148312 0.084782 -0.925906 0.000000 0.000000
    16 0.957766 -2.746780 -0.090302 0.005849 -0.162684 0.097910
    17 -0.033420 -1.397129 -0.011257 -0.521003 0.000000 -0.000001
    18 -0.022360 -0.957436 0.018784 -0.975516 0.000000 0.000000
    19 -1.180681 -2.507217 -0.193859 -0.671429 -0.081516 -0.261329
    20 -0.024967 -1.123934 0.017597 -2.056303 0.000000 0.000001
    21 -0.020057 -0.890968 0.010090 -0.677843 0.000000 0.000000
    22 0.583510 -1.197277 0.185379 0.180209 -0.812077 -1.291294
    23 1.535927 0.010246 0.005009 -0.002964 -0.012979 -0.506650
    24 1.100771 0.004527 -0.010679 -0.015488 -0.004784 -1.694062
    25 0.120153 -0.050270 -0.054489 0.287569 3.110905 1.561085
    26 -0.587185 -12.368196 -9.607045 -1.238667 -5.066632 -0.388062
    27 0.096944 -8.450418 -0.009365 0.193403 -1.139419 -0.106957
    28 0.447953 -2.798986 -0.200443 -0.437412 -0.067958 0.142839
    29 -0.032909 -1.480204 0.004940 -1.165534 0.000000 0.000002
    30 -0.027022 -1.076920 -0.020210 -0.581968 0.000000 0.000000
    31 -0.249534 -2.846964 -0.174213 -0.128738 0.012411 0.088176
    32 0.043235 -1.683941 0.096012 -1.309101 0.002823 -0.000167
    33 0.031729 -1.160830 0.058838 -0.744926 0.000642 0.008372
    34 -0.963866 -2.785145 -0.085350 0.029537 0.160514 0.097512
    35 0.028479 -1.403067 0.006271 -0.585005 0.000000 0.000000
    36 0.021413 -0.957781 0.020046 -0.738170 0.000000 0.000000
    37 1.164475 -2.543940 -0.170330 -0.610671 -0.190582 0.231608
    38 0.024032 -1.129042 0.017807 -0.709819 0.000000 0.000001
    39 0.014898 -0.883989 -0.019848 -0.845482 0.000000 0.000000
    40 -0.586770 -1.264477 0.200161 0.029415 -0.425542 -2.676427
    41 1.522835 0.058681 0.016848 0.001410 0.008985 0.586077
    42 1.117947 0.048424 -0.005766 0.001267 -0.025174 0.005124
    43 -0.139399 -0.111698 0.014397 0.653621 -0.030687 1.580508
    44 -1.393470 8.839177 -0.239433 1.580804 -0.005023 -1.566847
  time 24
    0 -0.999830 1.628956 0.541027 0.000000 0.000000 0.000000
    1 9.157755 3.621390 -9.036869 0.098121 -1.614494 -0.293614
    2 -0.071918 -8.498730 -0.104137 0.152242 0.309567 0.055505
    3 3.877622 -5.248455 1.421663 0.246215 -3.194606 1.568953
    4 0.000000 0.000000 0.000000 0.000000 0.000000 0.000000
    5 -0.248228 2.512564 0.000000 0.000001 0.000000 1.570796
    6 4.320393 -1.031701 0.000001 -1.570795 -1.570796 0.000000
    7 4.110973 2.892190 0.000001 0.000000 0.000000 1.570796
    8 0.000000 -0.000002 0.000000 0.000001 0.000000 0.000000
    9 1.257180 8.762585 -0.153713 -1.570562 0.002683 -1.566807
    10 -0.488518 -2.755602 -0.228260 -0.871614 -0.202562 -0.209541
    11 0.039887 -1.479790 0.029854 -2.058953 0.000000 0.000001
    12 0.028786 -1.075731 -0.023109 -0.606330 0.000000 0.000000
    13 0.250027 -2.820665 -0.238396 -0.797118 -0.167517 -0.114938
    14 -0.049759 -1.680544 0.100479 -1.934765 0.000000 -0.000002
    15 -0.034142 -1.148312 0.084782 -0.925879 0.000000 0.000000
    16 0.957766 -2.746780 -0.090302 0.005849 -0.162684 0.097910
    17 -0.033420 -1.397129 -0.011257 -0.521003 0.000000 -0.000001
    18 -0.022360 -0.957436 0.018784 -0.975516 0.000000 0.000000
    19 -1.180681 -2.507217 -0.193859 -0.671429 -0.081516 -0.261329
    20 -0.024967 -1.123934 0.017597 -2.056303 0.000000 0.000001
    21 -0.020057 -0.890968 0.010090 -0.677843 0.000000 0.000000
    22 0.583510 -1.197277 0.185379 0.180209 -0.812077 -1.291294
    23 1.535927 0.010246 0.005009 -0.002964 -0.012979 -0.506650
    24 1.100771 0.004527 -0.010679 -0.015488 -0.004784 -1.694062
    25 0.120153 -0.050270 -0.054489 0.287569 3.110905 1.561085
    26 -0.594998 -12.344758 -9.599232 -1.245090 -5.064743 -0.393935
    27 0.096944 -8.450418 -0.009365 0.186516 -1.140723 -0.100043
    28 0.447953 -2.798986 -0.200443 -0.437412 -0.067958 0.142839
    29 -0.032909 -1.480204 0.004940 -1.165534 0.000000 0.000002
    30 -0.027022 -1.076920 -0.020210 -0.581968 0.000000 0.000000
    31 -0.249534 -2.846964 -0.174213 -0.128738 0.012411 0.088176
    32 0.043235 -1.683941 0.096012 -1.309101 0.002823 -0.000167
    33 0.031729 -1.160830 0.058838 -0.744926 0.000642 0.008372
    34 -0.963866 -2.785145 -0.085350 0.029537 0.160514 0.097512
    35 0.028479 -1.403067 0.006271 -0.585005 0.000000 0.000000
    36 0.021413 -0.957781 0.020046 -0.738170 0.000000 0.000000
    37 1.164475 -2.543940 -0.170330 -0.610671 -0.190582 0.231608
    38 0.024032 -1.129042 0.017807 -0.709819 0.000000 0.000001
    39 0.014898 -0.883989 -0.019848 -0.845482 0.000000 0.000000
    40 -0.586770 -1.264477 0.200161 0.029415 -0.425542 -2.676427
    41 1.522835 0.058681 0.016848 0.001410 0.008985 0.586077
    42 1.117947 0.048424 -0.005766 0.001267 -0.025174 0.005124
    43 -0.139399 -0.111698 0.014397 0.653621 -0.030687 1.580508
    44 -1.393470 8.839177 -0.239433 1.580804 -0.005023 -1.566847
  time 25
    0 -0.999830 1.628956 0.541027 0.000000 0.000000 0.000000
    1 9.161661 3.648735 -9.056401 0.079758 -1.613816 -0.275189
    2 -0.071918 -8.498730 -0.104137 0.152158 0.307622 0.055345
    3 3.877622 -5.248455 1.421663 0.246215 -3.194606 1.568953
    4 0.000000 0.000000 0.000000 0.000000 0.000000 0.000000
    5 -0.248228 2.512564 0.000000 0.000001 0.000000 1.570796
    6 4.320393 -1.031701 0.000001 -1.570795 -1.570796 0.000000
    7 4.110973 2.892190 0.000001 0.000000 0.000000 1.570796
    8 0.000000 -0.000002 0.000000 0.000001 0.000000 0.000000
    9 1.257180 8.762585 -0.153713 -1.570562 0.002683 -1.566807
    10 -0.488518 -2.755602 -0.228260 -0.871614 -0.202562 -0.209541
    11 0.039887 -1.479790 0.029854 -2.058953 0.000000 0.000001
    12 0.028786 -1.075731 -0.023109 -0.606330 0.000000 0.000000
    13 0.250027 -2.820665 -0.238396 -0.797118 -0.167517 -0.114938
    14 -0.049759 -1.680544 0.100479 -1.934765 0.000000 -0.000002
    15 -0.034142 -1.148312 0.084782 -0.925906 0.000000 0.000000
    16 0.957766 -2.746780 -0.090302 0.005849 -0.162684 0.097910
    17 -0.033420 -1.397129 -0.011257 -0.521003 0.000000 -0.000001
    18 -0.022360 -0.957436 0.018784 -0.975516 0.000000 0.000000
    19 -1.180681 -2.507217 -0.193859 -0.671429 -0.081516 -0.261329
    20 -0.024967 -1.123934 0.017597 -2.056303 0.000000 0.000001
    21 -0.020057 -0.890968 0.010090 -0.677843 0.000000 0.000000
    22 0.583510 -1.197277 0.185379 0.180209 -0.812077 -1.291294
    23 1.535927 0.010246 0.005009 -0.002964 -0.012979 -0.506650
    24 1.100771 0.004527 -0.010679 -0.015488 -0.004784 -1.694062
    25 0.120153 -0.050270 -0.054489 0.287569 3.110905 1.561085
    26 -0.591091 -12.317414 -9.646109 -1.241605 -5.065845 -0.390620
    27 0.096944 -8.450418 -0.009365 0.180100 -1.141976 -0.093542
    28 0.447953 -2.798986 -0.200443 -0.437412 -0.067958 0.142839
    29 -0.032909 -1.480204 0.004940 -1.165534 0.000000 0.000002
    30 -0.027022 -1.076920 -0.020210 -0.581968 0.000000 0.000000
    31 -0.249534 -2.846964 -0.174213 -0.128738 0.012411 0.088176
    32 0.043235 -1.683941 0.096012 -1.309101 0.002823 -0.000167
    33 0.031729 -1.160830 0.058838 -0.744926 0.000642 0.008372
    34 -0.963866 -2.785145 -0.085350 0.029537 0.160514 0.097512
    35 0.028479 -1.403067 0.006271 -0.585005 0.000000 0.000000
    36 0.021413 -0.957781 0.020046 -0.738170 0.000000 0.000000
    37 1.164475 -2.543940 -0.170330 -0.610671 -0.190582 0.231608
    38 0.024032 -1.129042 0.017807 -0.709819 0.000000 0.000001
    39 0.014898 -0.883989 -0.019848 -0.845482 0.000000 0.000000
    40 -0.586770 -1.264477 0.200161 0.029415 -0.425542 -2.676427
    41 1.522835 0.058681 0.016848 0.001410 0.008985 0.586077
    42 1.117947 0.048424 -0.005766 0.001267 -0.025174 0.005124
    43 -0.139399 -0.111698 0.014397 0.653621 -0.030687 1.580508
    44 -1.393470 8.839177 -0.239433 1.580804 -0.005023 -1.566847
  time 26
    0 -0.999830 1.628956 0.541027 0.000000 0.000000 0.000000
    1 9.173380 3.679986 -9.075933 0.033849 -1.613322 -0.229272
    2 -0.071918 -8.498730 -0.104137 0.151942 0.302751 0.054998
    3 3.877622 -5.248455 1.421663 0.246215 -3.194606 1.568953
    4 0.000000 0.000000 0.000000 0.000000 0.000000 0.000000
    5 -0.248228 2.512564 0.000000 0.000001 0.000000 1.570796
    6 4.320393 -1.031701 0.000001 -1.570795 -1.570796 0.000000
    7 4.110973 2.892190 0.000001 0.000000 0.000000 1.570796
    8 0.000000 -0.000002 0.000000 0.000001 0.000000 0.000000
    9 1.257180 8.762585 -0.153713 -1.570562 0.002683 -1.566807
    10 -0.488518 -2.755602 -0.228260 -0.871614 -0.202562 -0.209541
    11 0.039887 -1.479790 0.029854 -2.058953 0.000000 0.000001
    12 0.028786 -1.075731 -0.023109 -0.606330 0.000000 0.000000
    13 0.250027 -2.820665 -0.238396 -0.797118 -0.167517 -0.114938
    14 -0.049759 -1.680544 0.100479 -1.934765 0.000000 -0.000002
    15 -0.034142 -1.148312 0.084782 -0.925906 0.000000 0.000000
    16 0.957766 -2.746780 -0.090302 0.005849 -0.162684 0.097910
    17 -0.033420 -1.397129 -0.011257 -0.521003 0.000000 -0.000001
    18 -0.022360 -0.957436 0.018784 -0.975516 0.000000 0.000000
    19 -1.180681 -2.507217 -0.193859 -0.671429 -0.081516 -0.261329
    20 -0.024967 -1.123934 0.017597 -2.056303 0.000000 0.000001
    21 -0.020057 -0.890968 0.010090 -0.677843 0.000000 0.000000
    22 0.583510 -1.197277 0.185379 0.180209 -0.812077 -1.291294
    23 1.535927 0.010246 0.005009 -0.002964 -0.012979 -0.506650
    24 1.100771 0.004527 -0.010679 -0.015488 -0.004784 -1.694062
    25 0.120153 -0.050270 -0.054489 0.287569 3.110905 1.561085
    26 -0.575466 -12.286163 -9.728143 -1.232723 -5.069781 -0.382189
    27 0.096944 -8.450418 -0.009365 0.174368 -1.143129 -0.087751
    28 0.447953 -2.798986 -0.200443 -0.437412 -0.067958 0.142839
    29 -0.032909 -1.480204 0.004940 -1.165534 0.000000 0.000002
    30 -0.027022 -1.076920 -0.020210 -0.581968 0.000000 0.000000
    31 -0.249534 -2.846964 -0.174213 -0.128738 0.012411 0.088176
    32 0.043235 -1.683941 0.096012 -1.309101 0.002823 -0.000167
    33 0.031729 -1.160830 0.058838 -0.744926 0.000642 0.008372
    34 -0.963866 -2.785145 -0.085350 0.029537 0.160514 0.097512
    35 0.028479 -1.403067 0.006271 -0.585005 0.000000 0.000000
    36 0.021413 -0.957781 0.020046 -0.738170 0.000000 0.000000
    37 1.164475 -2.543940 -0.170330 -0.610671 -0.190582 0.231608
    38 0.024032 -1.129042 0.017807 -0.709819 0.000000 0.000001
    39 0.014898 -0.883989 -0.019848 -0.845482 0.000000 0.000000
    40 -0.586770 -1.264477 0.200161 0.029415 -0.425542 -2.676427
    41 1.522835 0.058681 0.016848 0.001410 0.008985 0.586077
    42 1.117947 0.048424 -0.005766 0.001267 -0.025174 0.005124
    43 -0.139399 -0.111698 0.014397 0.653621 -0.030687 1.580508
    44 -1.393470 8.839177 -0.239433 1.580804 -0.005023 -1.566847
  time 27
    0 -0.999830 1.628956 0.541027 0.000000 0.000000 0.000000
    1 9.185100 3.707331 -9.091558 6.257168 -1.612952 -0.169702
    2 -0.071918 -8.498730 -0.104137 0.151667 0.296425 0.054545
    3 3.877622 -5.248455 1.421663 0.246215 -3.194606 1.568953
    4 0.000000 0.000000 0.000000 0.000000 0.000000 0.000000
    5 -0.248228 2.512564 0.000000 0.000001 0.000000 1.570796
    6 4.320393 -1.031701 0.000001 -1.570795 -1.570796 0.000000
    7 4.110973 2.892190 0.000001 0.000000 0.000000 1.570796
    8 0.000000 -0.000002 0.000000 0.000001 0.000000 0.000000
    9 1.257180 8.762585 -0.153713 -1.570562 0.002683 -1.566807
    10 -0.488518 -2.755602 -0.228260 -0.871614 -0.202562 -0.209541
    11 0.039887 -1.479790 0.029854 -2.058953 0.000000 0.000001
    12 0.028786 -1.075731 -0.023109 -0.606330 0.000000 0.000000
    13 0.250027 -2.820665 -0.238396 -0.797118 -0.167517 -0.114938
    14 -0.049759 -1.680544 0.100479 -1.934765 0.000000 -0.000002
    15 -0.034142 -1.148312 0.084782 -0.925906 0.000000 0.000000
    16 0.957766 -2.746780 -0.090302 0.005849 -0.162684 0.097910
    17 -0.033420 -1.397129 -0.011257 -0.521003 0.000000 -0.000001
    18 -0.022360 -0.957436 0.018784 -0.975516 0.000000 0.000000
    19 -1.180681 -2.507217 -0.193859 -0.671429 -0.081516 -0.261329
    20 -0.024967 -1.123934 0.017597 -2.056303 0.000000 0.000001
    21 -0.020057 -0.890968 0.010090 -0.677843 0.000000 0.000000
    22 0.583510 -1.197277 0.185379 0.180209 -0.812077 -1.291294
    23 1.535927 0.010246 0.005009 -0.002964 -0.012979 -0.506650
    24 1.100771 0.004527 -0.010679 -0.015488 -0.004784 -1.694062
    25 0.120153 -0.050270 -0.054489 0.287569 3.110905 1.561085
    26 -0.559840 -12.258818 -9.833615 -1.221517 -5.075133 -0.371674
    27 0.096944 -8.450418 -0.009365 0.169492 -1.144032 -0.082846
    28 0.447953 -2.798986 -0.200443 -0.437412 -0.067958 0.142839
    29 -0.032909 -1.480204 0.004940 -1.165534 0.000000 0.000002
    30 -0.027022 -1.076920 -0.020210 -0.581968 0.000000 0.000000
    31 -0.249534 -2.846964 -0.174213 -0.128738 0.012411 0.088176
    32 0.043235 -1.683941 0.096012 -1.309101 0.002823 -0.000167
    33 0.031729 -1.160830 0.058838 -0.744926 0.000642 0.008372
    34 -0.963866 -2.785145 -0.085350 0.029537 0.160514 0.097512
    35 0.028479 -1.403067 0.006271 -0.585005 0.000000 0.000000
    36 0.021413 -0.957781 0.020046 -0.738170 0.000000 0.000000
    37 1.164475 -2.543940 -0.170330 -0.610671 -0.190582 0.231608
    38 0.024032 -1.129042 0.017807 -0.709819 0.000000 0.000001
    39 0.014898 -0.883989 -0.019848 -0.845482 0.000000 0.000000
    40 -0.586770 -1.264477 0.200161 0.029415 -0.425542 -2.676427
    41 1.522835 0.058681 0.016848 0.001410 0.008985 0.586077
    42 1.117947 0.048424 -0.005766 0.001267 -0.025174 0.005124
    43 -0.139399 -0.111698 0.014397 0.653621 -0.030687 1.580508
    44 -1.393470 8.839177 -0.239433 1.580804 -0.005023 -1.566847
  time 28
    0 -0.999830 1.628956 0.541027 0.000000 0.000000 0.000000
    1 9.200725 3.730769 -9.103277 6.197487 -1.612767 -0.110038
    2 -0.071918 -8.498730 -0.104137 0.151403 0.290098 0.054065
    3 3.877622 -5.248455 1.421663 0.246215 -3.194606 1.568953
    4 0.000000 0.000000 0.000000 0.000000 0.000000 0.000000
    5 -0.248228 2.512564 0.000000 0.000001 0.000000 1.570796
    6 4.320393 -1.031701 0.000001 -1.570795 -1.570796 0.000000
    7 4.110973 2.892190 0.000001 0.000000 0.000000 1.570796
    8 0.000000 -0.000002 0.000000 0.000001 0.000000 0.000000
    9 1.257180 8.762585 -0.153713 -1.570562 0.002683 -1.566807
    10 -0.488518 -2.755602 -0.228260 -0.871614 -0.202562 -0.209541
    11 0.039887 -1.479790 0.029854 -2.058953 0.000000 0.000001
    12 0.028786 -1.075731 -0.023109 -0.606330 0.000000 0.000000
    13 0.250027 -2.820665 -0.238396 -0.797118 -0.167517 -0.114938
    14 -0.049759 -1.680544 0.100479 -1.934765 0.000000 -0.000002
    15 -0.034142 -1.148312 0.084782 -0.925879 0.000000 0.000000
    16 0.957766 -2.746780 -0.090302 0.005849 -0.162684 0.097910
    17 -0.033420 -1.397129 -0.011257 -0.521003 0.000000 -0.000001
    18 -0.022360 -0.957436 0.018784 -0.975516 0.000000 0.000000
    19 -1.180681 -2.507217 -0.193859 -0.671429 -0.081516 -0.261329
    20 -0.024967 -1.123934 0.017597 -2.056303 0.000000 0.000001
    21 -0.020057 -0.890968 0.010090 -0.677843 0.000000 0.000000
    22 0.583510 -1.197277 0.185379 0.180209 -0.812077 -1.291294
    23 1.535927 0.010246 0.005009 -0.002964 -0.012979 -0.506650
    24 1.100771 0.004527 -0.010679 -0.015488 -0.004784 -1.694062
    25 0.120153 -0.050270 -0.054489 0.287569 3.110905 1.561085
    26 -0.540308 -12.231473 -9.931274 -1.210721 -5.080565 -0.361444
    27 0.096944 -8.450418 -0.009365 0.165728 -1.144784 -0.079064
    28 0.447953 -2.798986 -0.200443 -0.437412 -0.067958 0.142839
    29 -0.032909 -1.480204 0.004940 -1.165534 0.000000 0.000002
    30 -0.027022 -1.076920 -0.020210 -0.581968 0.000000 0.000000
    31 -0.249534 -2.846964 -0.174213 -0.128738 0.012411 0.088176
    32 0.043235 -1.683941 0.096012 -1.309101 0.002823 -0.000167
    33 0.031729 -1.160830 0.058838 -0.744926 0.000642 0.008372
    34 -0.963866 -2.785145 -0.085350 0.029537 0.160514 0.097512
    35 0.028479 -1.403067 0.006271 -0.585005 0.000000 0.000000
    36 0.021413 -0.957781 0.020046 -0.738170 0.000000 0.000000
    37 1.164475 -2.543940 -0.170330 -0.610671 -0.190582 0.231608
    38 0.024032 -1.129042 0.017807 -0.709819 0.000000 0.000001
    39 0.014898 -0.883989 -0.019848 -0.845482 0.000000 0.000000
    40 -0.586770 -1.264477 0.200161 0.029415 -0.425542 -2.676427
    41 1.522835 0.058681 0.016848 0.001410 0.008985 0.586077
    42 1.117947 0.048424 -0.005766 0.001267 -0.025174 0.005124
    43 -0.139399 -0.111698 0.014397 0.653621 -0.030687 1.580508
    44 -1.393470 8.839177 -0.239433 1.580804 -0.005023 -1.566847
  time 29
    0 -0.999830 1.628956 0.541027 0.000000 0.000000 0.000000
    1 9.212444 3.750301 -9.111090 6.151578 -1.612705 -0.064120
    2 -0.071918 -8.498730 -0.104137 0.151187 0.285242 0.053718
    3 3.877622 -5.248455 1.421663 0.246215 -3.194606 1.568953
    4 0.000000 0.000000 0.000000 0.000000 0.000000 0.000000
    5 -0.248228 2.512564 0.000000 0.000001 0.000000 1.570796
    6 4.320393 -1.031701 0.000001 -1.570795 -1.570796 0.000000
    7 4.110973 2.892190 0.000001 0.000000 0.000000 1.570796
    8 0.000000 -0.000002 0.000000 0.000001 0.000000 0.000000
    9 1.257180 8.762585 -0.153713 -1.570562 0.002683 -1.566807
    10 -0.488518 -2.755602 -0.228260 -0.871614 -0.202562 -0.209541
    11 0.039887 -1.479790 0.029854 -2.058953 0.000000 0.000001
    12 0.028786 -1.075731 -0.023109 -0.606330 0.000000 0.000000
    13 0.250027 -2.820665 -0.238396 -0.797118 -0.167517 -0.114938
    14 -0.049759 -1.680544 0.100479 -1.934765 0.000000 -0.000002
    15 -0.034142 -1.148312 0.084782 -0.925906 0.000000 0.000000
    16 0.957766 -2.746780 -0.090302 0.005849 -0.162684 0.097910
    17 -0.033420 -1.397129 -0.011257 -0.521003 0.000000 -0.000001
    18 -0.022360 -0.957436 0.018784 -0.975516 0.000000 0.000000
    19 -1.180681 -2.507217 -0.193859 -0.671429 -0.081516 -0.261329
    20 -0.024967 -1.123934 0.017597 -2.056303 0.000000 0.000001
    21 -0.020057 -0.890968 0.010090 -0.677843 0.000000 0.000000
    22 0.583510 -1.197277 0.185379 0.180209 -0.812077 -1.291294
    23 1.535927 0.010246 0.005009 -0.002964 -0.012979 -0.506650
    24 1.100771 0.004527 -0.010679 -0.015488 -0.004784 -1.694062
    25 0.120153 -0.050270 -0.054489 0.287569 3.110905 1.561085
    26 -0.524683 -12.215848 -10.005495 -1.202658 -5.084737 -0.353960
    27 0.096944 -8.450418 -0.009365 0.163332 -1.145235 -0.076582
    28 0.447953 -2.798986 -0.200443 -0.437412 -0.067958 0.142839
    29 -0.032909 -1.480204 0.004940 -1.165534 0.000000 0.000002
    30 -0.027022 -1.076920 -0.020210 -0.581968 0.000000 0.000000
    31 -0.249534 -2.846964 -0.174213 -0.128738 0.012411 0.088176
    32 0.043235 -1.683941 0.096012 -1.309101 0.002823 -0.000167
    33 0.031729 -1.160830 0.058838 -0.744926 0.000642 0.008372
    34 -0.963866 -2.785145 -0.085350 0.029537 0.160514 0.097512
    35 0.028479 -1.403067 0.006271 -0.585005 0.000000 0.000000
    36 0.021413 -0.957781 0.020046 -0.738170 0.000000 0.000000
    37 1.164475 -2.543940 -0.170330 -0.610671 -0.190582 0.231608
    38 0.024032 -1.129042 0.017807 -0.709819 0.000000 0.000001
    39 0.014898 -0.883989 -0.019848 -0.845482 0.000000 0.000000
    40 -0.586770 -1.264477 0.200161 0.029415 -0.425542 -2.676427
    41 1.522835 0.058681 0.016848 0.001410 0.008985 0.586077
    42 1.117947 0.048424 -0.005766 0.001267 -0.025174 0.005124
    43 -0.139399 -0.111698 0.014397 0.653621 -0.030687 1.580508
    44 -1.393470 8.839177 -0.239433 1.580804 -0.005023 -1.566847
  time 30
    0 -0.999830 1.628956 0.541027 0.000000 0.000000 0.000000
    1 9.216351 3.754207 -9.111090 6.133214 -1.612705 -0.045791
    2 -0.071918 -8.498730 -0.104137 0.151104 0.283297 0.053558
    3 3.877622 -5.248455 1.421663 0.246215 -3.194606 1.568953
    4 0.000000 0.000000 0.000000 0.000000 0.000000 0.000000
    5 -0.248228 2.512564 0.000000 0.000001 0.000000 1.570796
    6 4.320393 -1.031701 0.000001 -1.570795 -1.570796 0.000000
    7 4.110973 2.892190 0.000001 0.000000 0.000000 1.570796
    8 0.000000 -0.000002 0.000000 0.000001 0.000000 0.000000
    9 1.257180 8.762585 -0.153713 -1.570562 0.002683 -1.566807
    10 -0.488518 -2.755602 -0.228260 -0.871614 -0.202562 -0.209541
    11 0.039887 -1.479790 0.029854 -2.058953 0.000000 0.000001
    12 0.028786 -1.075731 -0.023109 -0.606330 0.000000 0.000000
    13 0.250027 -2.820665 -0.238396 -0.797118 -0.167517 -0.114938
    14 -0.049759 -1.680544 0.100479 -1.934765 0.000000 -0.000002
    15 -0.034142 -1.148312 0.084782 -0.925906 0.000000 0.000000
    16 0.957766 -2.746780 -0.090302 0.005849 -0.162684 0.097910
    17 -0.033420 -1.397129 -0.011257 -0.521003 0.000000 -0.000001
    18 -0.022360 -0.957436 0.018784 -0.975516 0.000000 0.000000
    19 -1.180681 -2.507217 -0.193859 -0.671429 -0.081516 -0.261329
    20 -0.024967 -1.123934 0.017597 -2.056303 0.000000 0.000001
    21 -0.020057 -0.890968 0.010090 -0.677843 0.000000 0.000000
    22 0.583510 -1.197277 0.185379 0.180209 -0.812077 -1.291294
    23 1.535927 0.010246 0.005009 -0.002964 -0.012979 -0.506650
    24 1.100771 0.004527 -0.010679 -0.015488 -0.004784 -1.694062
    25 0.120153 -0.050270 -0.054489 0.287569 3.110905 1.561085
    26 -0.516870 -12.208035 -10.032839 -1.199515 -5.086469 -0.350929
    27 0.096944 -8.450418 -0.009365 0.162477 -1.145436 -0.075755
    28 0.447953 -2.798986 -0.200443 -0.437412 -0.067958 0.142839
    29 -0.032909 -1.480204 0.004940 -1.165534 0.000000 0.000002
    30 -0.027022 -1.076920 -0.020210 -0.581968 0.000000 0.000000
    31 -0.249534 -2.846964 -0.174213 -0.128738 0.012411 0.088176
    32 0.043235 -1.683941 0.096012 -1.309101 0.002823 -0.000167
    33 0.031729 -1.160830 0.058838 -0.744926 0.000642 0.008372
    34 -0.963866 -2.785145 -0.085350 0.029537 0.160514 0.097512
    35 0.028479 -1.403067 0.006271 -0.585005 0.000000 0.000000
    36 0.021413 -0.957781 0.020046 -0.738170 0.000000 0.000000
    37 1.164475 -2.543940 -0.170330 -0.610671 -0.190582 0.231608
    38 0.024032 -1.129042 0.017807 -0.709819 0.000000 0.000001
    39 0.014898 -0.883989 -0.019848 -0.845482 0.000000 0.000000
    40 -0.586770 -1.264477 0.200161 0.029415 -0.425542 -2.676427
    41 1.522835 0.058681 0.016848 0.001410 0.008985 0.586077
    42 1.117947 0.048424 -0.005766 0.001267 -0.025174 0.005124
    43 -0.139399 -0.111698 0.014397 0.653621 -0.030687 1.580508
    44 -1.393470 8.839177 -0.239433 1.580804 -0.005023 -1.566847
end
