// Created by Crowbar 0.58

$modelname "weapons/tfa_cso/c_stinger.mdl"

$Include "csonline_gmod.qci"

$bodygroup "weapon"
{
	studio "v_speargunm_v_ref"
}
$bodygroup "weapon"
{
	studio "v_speargunm_v_ref2"
}
$bodygroup "effect"
{
	studio "v_speargunm_v_reffx"
}

$CDMaterials "models\weapons\tfa_cso\stinger"

$attachment 0 "vg_root" 0 0 0

$sequence "idle1" {
	"v_speargunm_anims\idle1"
	fps 30
	loop
	activity "ACT_VM_IDLE" 1
	snap
}
$sequence "idle2" {
	"v_speargunm_anims\idle2"
	fps 30
	loop
}
$sequence "idle3" {
	"v_speargunm_anims\idle3"
	fps 30
	loop
}
$sequence "shoot1" {
	"v_speargunm_anims\shoot1"
	fps 30
	activity "ACT_VM_PRIMARYATTACK" 1
	snap
}
$sequence "shoot2" {
	"v_speargunm_anims\shoot2"
	fps 30
}
$sequence "shoot3" {
	"v_speargunm_anims\shoot3"
	fps 30
}
$sequence "reload" {
	"v_speargunm_anims\reload"
	{ event 5004 15 "Stinger.Reload1" }
	{ event 5004 42 "Stinger.Reload2" }
	fps 30
	activity "ACT_VM_RELOAD" 1
	snap
}
$sequence "draw1" {
	"v_speargunm_anims\draw1"
	{ event 5004 2 "Stinger.Draw" }
	fps 30
	activity "ACT_VM_DRAW" 1
	snap
}
$sequence "draw2" {
	"v_speargunm_anims\draw2"
	{ event 5004 2 "weapons/speargunm_draw.wav" }
	fps 30
}
$sequence "draw3" {
	"v_speargunm_anims\draw3"
	{ event 5004 2 "weapons/speargunm_draw.wav" }
	fps 30
}
$sequence "draw_empty" {
	"v_speargunm_anims\draw_empty"
	{ event 5004 3 "Stinger.Draw_Empty" }
	fps 30
	activity "ACT_VM_DRAW_EMPTY" 1
	snap
}
$sequence "idle_empty" {
	"v_speargunm_anims\idle_empty"
	fps 30
	loop
	activity "ACT_VM_IDLE_EMPTY" 1
	snap
}
$sequence "shoot_empty" {
	"v_speargunm_anims\shoot_empty"
	fps 30
	activity "ACT_VM_PRIMARYATTACK_EMPTY" 1
	snap
}
