// Created by Crowbar 0.58

$modelname "weapons/tfa_cso/w_speargun_v6.mdl"

$bodygroup "studio"
{
	studio "w_speargun"
}

$collisionmodel "w_speargun.smd"
{
	$mass 9
}

$CDMaterials "models\weapons\tfa_cso\speargun_v6"

$attachment "0" "speargun_p" 0.40 -17.80 0.70 rotate -0 0 0

$sequence "idle" {
	"w_speargun_anims\idle"
	fps 30
}
