version 1
nodes
  0 "bouncer_root" -1
  1 "pump" 0
  2 "trigger" 0
  3 "bone_bullet1" 0
  4 "magazine1" 0
  5 "magazine2" 0
  6 "root" -1
  7 "Bone01" 6
  8 "Bone_L_Upper" 7
  9 "Bone_Lefthand" 7
  10 "Bone13" 9
  11 "Bone14" 10
  12 "Bone15" 11
  13 "Bone17" 9
  14 "Bone18" 13
  15 "Bone19" 14
  16 "Bone21" 9
  17 "Bone22" 16
  18 "Bone23" 17
  19 "Bone09" 9
  20 "Bone10" 19
  21 "Bone11" 20
  22 "Bone05" 9
  23 "Bone06" 22
  24 "Bone07" 23
  25 "Bone_Se_Hand-L" 9
  26 "Bone04" 6
  27 "Bone_Righthand" 26
  28 "Bone39" 27
  29 "Bone40" 28
  30 "Bone41" 29
  31 "Bone35" 27
  32 "Bone36" 31
  33 "Bone37" 32
  34 "Bone31" 27
  35 "Bone32" 34
  36 "Bone33" 35
  37 "Bone43" 27
  38 "Bone44" 37
  39 "Bone45" 38
  40 "Bone27" 27
  41 "Bone28" 40
  42 "Bone29" 41
  43 "Bone_Se_Hand-R" 27
  44 "Bone_R_Upper" 26
end
skeleton
  time 0
    0 5.345643 -7.785296 -5.099672 3.141592 1.570451 -0.000067
    1 1.310229 6.579789 -0.000740 1.570788 0.000000 1.570797
    2 0.772819 1.987386 0.000108 0.000000 0.000000 0.000000
    3 17.082664 -18.096640 0.000027 0.000000 0.000001 1.570795
    4 -1.428618 -0.139622 0.882533 0.000000 0.000001 1.570796
    5 -1.573682 -0.156902 0.000661 0.000000 0.000001 1.570796
    6 -1.155131 -0.813790 -4.073724 0.000000 0.000000 0.000000
    7 6.724087 3.587376 -3.815504 0.153890 -2.332973 -0.056876
    8 2.069705 8.489139 -0.106837 -1.570754 0.000094 -1.658030
    9 0.072615 -8.440141 -0.068977 -0.170056 0.859916 -0.308711
    10 -0.488518 -2.755602 -0.228260 -1.141808 -0.249290 -0.364717
    11 0.039887 -1.534479 0.014229 -1.583297 -0.011050 0.035439
    12 0.028786 -1.185109 -0.128581 -1.207611 -0.015077 0.026522
    13 0.250027 -2.820665 -0.238396 -0.956857 -0.243991 -0.301299
    14 -0.049759 -1.598510 0.041883 -1.451333 0.002325 -0.039431
    15 -0.034142 -1.179563 0.045718 -1.341014 0.004422 -0.035367
    16 0.957766 -2.746780 -0.090302 -0.240003 -0.077414 0.109044
    17 -0.033420 -1.393223 -0.022976 -0.801679 0.007071 -0.039442
    18 -0.022360 -0.957436 0.014878 -0.202134 0.004686 -0.009264
    19 -1.180681 -2.507217 -0.193859 -0.985954 -0.078376 -0.407098
    20 -0.024967 -1.127840 0.017597 -1.392783 -0.006040 -0.057597
    21 -0.020057 -0.906594 0.029622 -1.007262 0.005285 -0.041263
    22 0.618667 -1.205090 0.189285 0.731941 -1.193061 -0.979927
    23 1.457800 -0.239762 0.075324 0.065336 -0.234382 -0.861621
    24 1.030456 -0.163447 0.036197 0.059188 -0.214730 -0.888940
    25 0.120153 -0.050270 -0.054489 -2.345120 6.152178 -1.527299
    26 0.823014 -7.567269 -7.200722 -1.258960 -5.187928 -0.629540
    27 -0.016341 -8.454325 0.049231 0.103173 -0.751568 0.181222
    28 0.447953 -2.798986 -0.200443 -0.762103 -0.398733 -0.003996
    29 -0.032909 -1.499736 0.020565 -1.140712 0.022052 -0.019485
    30 -0.027022 -1.123796 -0.024116 -1.160041 0.023789 -0.020302
    31 -0.249534 -2.846964 -0.174213 -0.276660 -0.358728 0.017419
    32 0.043235 -1.656596 0.072574 -1.351124 -0.021350 0.006353
    33 0.031729 -1.145205 0.058838 -1.033424 -0.011403 0.005819
    34 -0.963866 -2.785145 -0.085350 0.479890 -0.064004 0.198944
    35 0.028479 -1.403067 -0.013261 -0.669058 -0.014238 -0.026750
    36 0.021413 -0.946062 0.016140 -0.799858 -0.018900 -0.029926
    37 1.164475 -2.543940 -0.170330 -1.012253 -0.632541 0.144284
    38 0.024032 -1.132948 0.002182 -0.722685 0.002792 0.038699
    39 0.014898 -0.899614 -0.015942 -0.908403 0.005789 0.045877
    40 -0.586770 -1.264477 0.200161 -0.282196 -0.058168 -2.489351
    41 1.546273 0.039149 0.016848 -0.009508 -0.003287 0.539155
    42 1.117947 0.048424 -0.005766 0.005162 -0.017815 -0.220197
    43 -0.002676 -0.002320 0.002678 0.565114 0.229486 1.372791
    44 -0.100462 0.463922 -0.020676 1.564265 -0.018805 -0.783345
  time 1
    0 5.337831 -7.800922 -5.103578 5.131810 1.564821 -4.299465
    1 1.310229 6.579789 -0.000740 1.570788 0.000000 1.570797
    2 0.772819 1.987386 0.000108 0.000000 0.000000 0.000000
    3 17.082664 -18.096640 0.000027 0.000000 0.000001 1.570795
    4 -1.428618 -0.139622 0.882533 0.000000 0.000001 1.570796
    5 -1.573682 -0.156902 0.000661 0.000000 0.000001 1.570796
    6 -1.155131 -0.813790 -4.073724 0.000000 0.000000 0.000000
    7 6.852997 3.571751 -3.893632 0.168651 -2.331260 -0.083135
    8 2.194709 8.453982 -0.110743 1.570505 3.141842 1.467379
    9 0.072615 -8.440141 -0.068977 -0.175383 0.856938 -0.330113
    10 -0.488518 -2.755602 -0.228260 -1.141808 -0.249290 -0.364717
    11 0.039887 -1.534479 0.014229 -1.583297 -0.011050 0.035439
    12 0.028786 -1.185109 -0.128581 -1.207611 -0.015077 0.026522
    13 0.250027 -2.820665 -0.238396 -0.956857 -0.243991 -0.301299
    14 -0.049759 -1.598510 0.041883 -1.451333 0.002325 -0.039431
    15 -0.034142 -1.179563 0.045718 -1.341014 0.004422 -0.035367
    16 0.957766 -2.746780 -0.090302 -0.240003 -0.077414 0.109044
    17 -0.033420 -1.393223 -0.022976 -0.801679 0.007071 -0.039442
    18 -0.022360 -0.957436 0.014878 -0.202134 0.004686 -0.009264
    19 -1.180681 -2.507217 -0.193859 -0.985954 -0.078376 -0.407098
    20 -0.024967 -1.127840 0.017597 -1.392783 -0.006040 -0.057597
    21 -0.020057 -0.906594 0.029622 -1.007262 0.005285 -0.041263
    22 0.618667 -1.205090 0.189285 0.731941 -1.193061 -0.979927
    23 1.457800 -0.239762 0.075324 0.065336 -0.234382 -0.861621
    24 1.030456 -0.163447 0.036197 0.059188 -0.214730 -0.888940
    25 0.120153 -0.050270 -0.054489 -2.345120 6.152178 -1.527299
    26 0.791764 -7.520392 -7.247598 -1.256742 -5.184407 -0.628365
    27 -0.012434 -8.466044 0.049231 0.170716 -0.751835 0.155750
    28 0.447953 -2.798986 -0.200443 -0.655374 -0.189433 0.068954
    29 -0.032909 -1.491923 0.012753 -0.732355 0.016419 -0.009394
    30 -0.027022 -1.096452 -0.028023 -0.527970 0.013794 -0.005681
    31 -0.249534 -2.846964 -0.174213 -0.136013 -0.279606 0.107279
    32 0.043235 -1.664409 0.088199 -0.791410 -0.012781 -0.000419
    33 0.031729 -1.153017 0.058838 -0.607554 -0.005950 0.005412
    34 -0.963866 -2.785145 -0.085350 0.485081 -0.079166 0.206865
    35 0.028479 -1.403067 -0.001542 -0.355800 -0.005417 -0.015712
    36 0.021413 -0.953875 0.020046 -0.209832 -0.002553 -0.009300
    37 1.164475 -2.543940 -0.170330 -0.834368 -0.331114 0.147788
    38 0.024032 -1.132948 0.002182 -0.580046 0.000024 0.031185
    39 0.014898 -0.891802 -0.019848 -0.512155 -0.001822 0.025096
    40 -0.586770 -1.264477 0.200161 -0.276919 -0.078627 -2.540193
    41 1.542367 0.043056 0.016848 -0.007686 -0.002065 0.462219
    42 1.117947 0.048424 -0.005766 0.005018 -0.018067 -0.211356
    43 -0.002676 -0.002320 0.002678 0.559601 0.226682 1.372911
    44 -0.721575 1.647551 -0.071459 1.570497 -0.021586 -0.830524
  time 2
    0 5.318299 -7.839986 -5.123110 5.174930 1.549590 -4.270993
    1 1.310229 6.579789 -0.000740 1.570788 0.000000 1.570797
    2 0.772819 1.987386 0.000108 0.000000 0.000000 0.000000
    3 17.082664 -18.096640 0.000027 0.000000 0.000001 1.570795
    4 -1.428618 -0.139622 0.882533 0.000000 0.000001 1.570796
    5 -1.573682 -0.156902 0.000661 0.000000 0.000001 1.570796
    6 -1.155131 -0.813790 -4.073724 0.000000 0.000000 0.000000
    7 7.142069 3.524874 -4.069418 0.200762 -2.327977 -0.141540
    8 2.487686 8.364135 -0.118556 1.570026 3.142513 1.429586
    9 0.072615 -8.436234 -0.072883 -0.187315 0.851647 -0.378736
    10 -0.488518 -2.755602 -0.228260 -1.141808 -0.249290 -0.364717
    11 0.039887 -1.534479 0.014229 -1.583344 -0.011050 0.035439
    12 0.028786 -1.185109 -0.128581 -1.207611 -0.015077 0.026522
    13 0.250027 -2.820665 -0.238396 -0.956857 -0.243991 -0.301299
    14 -0.049759 -1.598510 0.041883 -1.451333 0.002325 -0.039431
    15 -0.034142 -1.179563 0.045718 -1.341014 0.004422 -0.035367
    16 0.957766 -2.746780 -0.090302 -0.240003 -0.077414 0.109044
    17 -0.033420 -1.393223 -0.022976 -0.801679 0.007071 -0.039442
    18 -0.022360 -0.957436 0.014878 -0.202134 0.004686 -0.009264
    19 -1.180681 -2.507217 -0.193859 -0.985954 -0.078376 -0.407098
    20 -0.024967 -1.127840 0.017597 -1.392783 -0.006040 -0.057597
    21 -0.020057 -0.906594 0.029622 -1.007262 0.005285 -0.041263
    22 0.618667 -1.205090 0.189285 0.731941 -1.193037 -0.979927
    23 1.457800 -0.239762 0.075324 0.065336 -0.234382 -0.861621
    24 1.030456 -0.163447 0.036197 0.059188 -0.214730 -0.888940
    25 0.120153 -0.050270 -0.054489 -2.345120 6.152178 -1.527299
    26 0.666760 -7.418827 -7.372602 -1.253416 -5.177014 -0.637927
    27 -0.012434 -8.473857 0.049231 0.220827 -0.750573 0.152401
    28 0.447953 -2.798986 -0.200443 -0.519161 -0.042556 0.133947
    29 -0.032909 -1.488017 0.004940 -0.424070 0.009755 -0.003725
    30 -0.027022 -1.076920 -0.020210 -0.074857 0.002157 -0.000348
    31 -0.249534 -2.846964 -0.174213 0.000431 -0.214565 0.165189
    32 0.043235 -1.672222 0.096012 -0.389308 -0.005015 -0.001893
    33 0.031729 -1.156924 0.058838 -0.294061 -0.002090 0.006586
    34 -0.963866 -2.785145 -0.085350 0.479890 -0.064004 0.198944
    35 0.028479 -1.403067 0.006271 -0.119243 -0.001270 -0.005872
    36 0.021413 -0.957781 0.020046 0.187763 0.000575 0.008281
    37 1.164475 -2.543940 -0.170330 -0.657313 -0.112697 0.178472
    38 0.024032 -1.129042 0.006088 -0.460560 -0.001450 0.024629
    39 0.014898 -0.883989 -0.019848 -0.219006 -0.001930 0.008665
    40 -0.586770 -1.264477 0.200161 -0.257360 -0.117374 -2.580576
    41 1.538460 0.043056 0.016848 -0.006092 -0.000830 0.391155
    42 1.117947 0.048424 -0.005766 0.004071 -0.019709 -0.152485
    43 -0.002676 -0.002320 0.002678 0.544093 0.218796 1.373270
    44 -2.194276 3.217912 -0.180837 1.577113 -0.024258 -0.868315
  time 3
    0 5.302673 -7.894675 -5.173893 5.228399 1.529043 -4.232648
    1 1.310229 6.579789 -0.000740 1.570788 0.000000 1.570797
    2 0.772819 1.987386 0.000108 0.000000 0.000000 0.000000
    3 17.082664 -18.096640 0.000027 0.000000 0.000001 1.570795
    4 -1.428618 -0.139622 0.882533 0.000000 0.000001 1.570796
    5 -1.573682 -0.156902 0.000661 0.000000 0.000001 1.570796
    6 -1.155131 -0.813790 -4.073724 0.000000 0.000000 0.000000
    7 7.442859 3.458466 -4.260830 0.231147 -2.325193 -0.200938
    8 2.800196 8.250850 -0.122462 1.569547 3.143185 1.388164
    9 0.076521 -8.436234 -0.072883 -0.200384 0.849580 -0.431584
    10 -0.488518 -2.755602 -0.228260 -1.141808 -0.249290 -0.364717
    11 0.039887 -1.534479 0.014229 -1.583344 -0.011050 0.035439
    12 0.028786 -1.185109 -0.128581 -1.207611 -0.015077 0.026522
    13 0.250027 -2.820665 -0.238396 -0.956857 -0.243991 -0.301299
    14 -0.049759 -1.598510 0.041883 -1.451333 0.002325 -0.039431
    15 -0.034142 -1.179563 0.045718 -1.341014 0.004422 -0.035367
    16 0.957766 -2.746780 -0.090302 -0.240003 -0.077414 0.109044
    17 -0.033420 -1.393223 -0.022976 -0.801679 0.007071 -0.039442
    18 -0.022360 -0.957436 0.014878 -0.202134 0.004686 -0.009264
    19 -1.180681 -2.507217 -0.193859 -0.985954 -0.078376 -0.407098
    20 -0.024967 -1.127840 0.017597 -1.392783 -0.006040 -0.057597
    21 -0.020057 -0.906594 0.029622 -1.007262 0.005285 -0.041263
    22 0.618667 -1.205090 0.189285 0.731941 -1.193061 -0.979927
    23 1.457800 -0.239762 0.075324 0.065336 -0.234382 -0.861621
    24 1.030456 -0.163447 0.036197 0.059188 -0.214730 -0.888940
    25 0.120153 -0.050270 -0.054489 -2.345120 6.152178 -1.527299
    26 0.545662 -7.211789 -7.521044 -1.192381 -5.168705 -0.605971
    27 -0.016341 -8.473857 0.049231 0.231080 -0.752005 0.191732
    28 0.447953 -2.798986 -0.200443 -0.295119 -0.018641 0.134522
    29 -0.032909 -1.484110 0.004940 -0.324648 0.007263 -0.002371
    30 -0.027022 -1.076920 -0.020210 -0.023602 0.000719 -0.000096
    31 -0.249534 -2.846964 -0.174213 0.155433 -0.143784 0.122787
    32 0.043235 -1.676128 0.096012 -0.346520 -0.004176 -0.001869
    33 0.031729 -1.160830 0.058838 -0.233049 -0.001395 0.006958
    34 -0.963866 -2.785145 -0.085350 0.456901 0.034929 0.140338
    35 0.028479 -1.403067 0.006271 -0.040722 -0.000419 -0.002433
    36 0.021413 -0.957781 0.020046 0.134082 0.000563 0.005860
    37 1.164475 -2.543940 -0.170330 -0.418053 -0.072839 0.166540
    38 0.024032 -1.129042 0.009994 -0.369667 -0.002037 0.019560
    39 0.014898 -0.883989 -0.019848 -0.142724 -0.001163 0.004446
    40 -0.586770 -1.264477 0.200161 -0.200677 -0.204241 -2.596674
    41 1.534554 0.046962 0.016848 -0.004798 0.000332 0.329898
    42 1.117947 0.048424 -0.005766 0.000212 -0.024719 0.044495
    43 -0.002676 -0.002320 0.002678 0.520112 0.206608 1.373822
    44 -3.956048 4.799991 -0.298029 1.583093 -0.026511 -0.896079
  time 4
    0 5.310486 -8.027491 -5.400462 5.279663 1.475436 -4.193152
    1 1.310229 6.579789 -0.000740 1.570788 0.000000 1.570797
    2 0.772819 1.987386 0.000108 0.000000 0.000000 0.000000
    3 17.082664 -18.096640 0.000027 0.000000 0.000001 1.570795
    4 -1.428618 -0.139622 0.882533 0.477682 0.000001 1.570796
    5 -1.573682 -0.156902 0.000661 0.000000 0.000001 1.570796
    6 -1.155131 -0.813790 -4.073724 0.000000 0.000000 0.000000
    7 7.829589 3.360807 -4.475681 0.242457 -2.323337 -0.257094
    8 3.140050 8.110221 -0.130275 1.569067 3.144047 1.342645
    9 0.088240 -8.436234 -0.072883 -0.222083 0.866929 -0.512815
    10 -0.488518 -2.755602 -0.228260 -1.141808 -0.249290 -0.364717
    11 0.039887 -1.534479 0.014229 -1.583297 -0.011050 0.035439
    12 0.028786 -1.185109 -0.128581 -1.207611 -0.015077 0.026522
    13 0.250027 -2.820665 -0.238396 -0.956857 -0.243991 -0.301299
    14 -0.049759 -1.598510 0.041883 -1.451333 0.002325 -0.039431
    15 -0.034142 -1.179563 0.045718 -1.341014 0.004422 -0.035367
    16 0.957766 -2.746780 -0.090302 -0.240003 -0.077414 0.109044
    17 -0.033420 -1.393223 -0.022976 -0.801679 0.007071 -0.039442
    18 -0.022360 -0.957436 0.014878 -0.202134 0.004686 -0.009264
    19 -1.180681 -2.507217 -0.193859 -0.985954 -0.078376 -0.407098
    20 -0.024967 -1.127840 0.017597 -1.392783 -0.006040 -0.057597
    21 -0.020057 -0.906594 0.029622 -1.007262 0.005285 -0.041263
    22 0.618667 -1.205090 0.189285 0.731941 -1.193037 -0.979927
    23 1.457800 -0.239762 0.075324 0.065336 -0.234382 -0.861621
    24 1.030456 -0.163447 0.036197 0.059188 -0.214730 -0.888940
    25 0.120153 -0.050270 -0.054489 -2.345120 6.152178 -1.527299
    26 0.319093 -6.895373 -7.767145 -1.105848 -5.130048 -0.557658
    27 -0.020247 -8.469950 0.049231 0.217547 -0.755136 0.253250
    28 0.447953 -2.798986 -0.200443 -0.055814 -0.035774 0.104860
    29 -0.032909 -1.484110 0.004940 -0.314064 0.006999 -0.002239
    30 -0.027022 -1.080826 -0.020210 -0.131188 0.003715 -0.000719
    31 -0.249534 -2.846964 -0.174213 0.295928 -0.063619 0.055758
    32 0.043235 -1.672222 0.096012 -0.443746 -0.006094 -0.001881
    33 0.031729 -1.156924 0.058838 -0.271932 -0.001839 0.006718
    34 -0.963866 -2.785145 -0.085350 0.415187 0.158077 0.062782
    35 0.028479 -1.403067 0.006271 -0.030468 -0.000336 -0.001977
    36 0.021413 -0.957781 0.020046 -0.090746 -0.000887 -0.004183
    37 1.164475 -2.543940 -0.170330 -0.170752 -0.093398 0.125803
    38 0.024032 -1.129042 0.009994 -0.299334 -0.002181 0.015605
    39 0.014898 -0.883989 -0.019848 -0.158177 -0.001342 0.005297
    40 -0.586770 -1.264477 0.200161 -0.129653 -0.306918 -2.610863
    41 1.534554 0.046962 0.016848 -0.003671 0.001471 0.273876
    42 1.117947 0.048424 -0.005766 -0.005720 -0.029668 0.286012
    43 -0.002676 -0.002320 0.002678 0.489216 0.190908 1.374541
    44 -5.436562 6.022685 -0.403501 1.587443 -0.028081 -0.913176
  time 5
    0 5.318299 -8.172027 -5.662189 5.306014 1.416367 -4.179156
    1 1.310229 6.579789 -0.000740 1.570788 0.000000 1.570797
    2 0.772819 1.987386 0.000108 0.000000 0.000000 0.000000
    3 17.082664 -18.096640 0.000027 0.000000 0.000001 1.570795
    4 -1.428618 -0.139622 0.882533 0.955365 0.000001 1.570796
    5 -1.573682 -0.156902 0.000661 0.000000 0.000001 1.570796
    6 -1.155131 -0.813790 -4.073724 0.000000 0.000000 0.000000
    7 8.208507 3.235803 -4.694437 0.251180 -2.320126 -0.311199
    8 3.515061 7.938341 -0.138088 1.568492 -3.138106 1.291356
    9 0.099959 -8.436234 -0.072883 -0.249609 0.887429 -0.599129
    10 -0.488518 -2.755602 -0.228260 -1.141808 -0.249290 -0.364717
    11 0.039887 -1.534479 0.014229 -1.583344 -0.011050 0.035439
    12 0.028786 -1.185109 -0.128581 -1.207611 -0.015077 0.026522
    13 0.250027 -2.820665 -0.238396 -0.956857 -0.243991 -0.301299
    14 -0.049759 -1.598510 0.041883 -1.451333 0.002325 -0.039431
    15 -0.034142 -1.179563 0.045718 -1.341014 0.004422 -0.035367
    16 0.957766 -2.746780 -0.090302 -0.240003 -0.077414 0.109044
    17 -0.033420 -1.393223 -0.022976 -0.801679 0.007071 -0.039442
    18 -0.022360 -0.957436 0.014878 -0.202134 0.004686 -0.009264
    19 -1.180681 -2.507217 -0.193859 -0.985954 -0.078376 -0.407098
    20 -0.024967 -1.127840 0.017597 -1.392783 -0.006040 -0.057597
    21 -0.020057 -0.906594 0.029622 -1.007262 0.005285 -0.041263
    22 0.618667 -1.205090 0.189285 0.731941 -1.193061 -0.979927
    23 1.457800 -0.239762 0.075324 0.065336 -0.234382 -0.861621
    24 1.030456 -0.163447 0.036197 0.059188 -0.214730 -0.888940
    25 0.120153 -0.050270 -0.054489 -2.345120 6.152178 -1.527299
    26 -0.298113 -6.645365 -8.122625 -1.212644 -5.054564 -0.698401
    27 -0.020247 -8.458231 0.049231 0.161103 -0.741421 0.320889
    28 0.447953 -2.798986 -0.200443 0.048411 -0.059305 0.107425
    29 -0.032909 -1.484110 0.004940 -0.348766 0.007886 -0.002671
    30 -0.027022 -1.084733 -0.024116 -0.234704 0.006532 -0.001618
    31 -0.249534 -2.846964 -0.174213 0.323627 -0.020007 0.038056
    32 0.043235 -1.668316 0.092106 -0.521634 -0.007628 -0.001749
    33 0.031729 -1.156924 0.058838 -0.308789 -0.002258 0.006502
    34 -0.963866 -2.785145 -0.085350 0.348722 0.228404 0.020821
    35 0.028479 -1.403067 0.006271 -0.062182 -0.000623 -0.003380
    36 0.021413 -0.953875 0.020046 -0.256367 -0.003368 -0.011242
    37 1.164475 -2.543940 -0.170330 -0.052583 -0.107834 0.109487
    38 0.024032 -1.129042 0.009994 -0.298859 -0.002181 0.015581
    39 0.014898 -0.883989 -0.019848 -0.216758 -0.001906 0.008545
    40 -0.586770 -1.264477 0.200161 -0.072225 -0.386629 -2.639970
    41 1.530648 0.046962 0.016848 -0.002797 0.002441 0.227721
    42 1.117947 0.048424 -0.005766 -0.010346 -0.032161 0.449825
    43 -0.002676 -0.002320 0.002678 0.452939 0.172476 1.375380
    44 -6.053769 6.510981 -0.442564 1.589121 -0.028669 -0.919049
  time 6
    0 5.314392 -8.367345 -5.916103 5.412185 1.364781 -4.095658
    1 1.310229 6.579789 -0.000740 1.570788 0.000000 1.570797
    2 0.772819 1.987386 0.000108 0.000000 0.000000 0.000000
    3 17.082664 -18.096640 0.000027 0.000000 0.000001 1.570795
    4 -1.428618 -0.139622 0.882533 1.433123 0.000001 1.570796
    5 -1.573682 -0.156902 0.000661 0.000000 0.000001 1.570796
    6 -1.155131 -0.813790 -4.073724 0.000000 0.000000 0.000000
    7 8.521017 3.020952 -4.936632 0.260382 -2.307992 -0.360675
    8 3.796320 7.789899 -0.145900 1.568109 -3.137339 1.251795
    9 0.107772 -8.436234 -0.072883 -0.278300 0.912777 -0.662234
    10 -0.488518 -2.755602 -0.228260 -1.141808 -0.249290 -0.364717
    11 0.039887 -1.534479 0.014229 -1.583297 -0.011050 0.035439
    12 0.028786 -1.185109 -0.128581 -1.207611 -0.015077 0.026522
    13 0.250027 -2.820665 -0.238396 -0.956857 -0.243991 -0.301299
    14 -0.049759 -1.598510 0.041883 -1.451333 0.002325 -0.039431
    15 -0.034142 -1.179563 0.045718 -1.341014 0.004422 -0.035367
    16 0.957766 -2.746780 -0.090302 -0.240003 -0.077414 0.109044
    17 -0.033420 -1.393223 -0.022976 -0.801679 0.007071 -0.039442
    18 -0.022360 -0.957436 0.014878 -0.202134 0.004686 -0.009264
    19 -1.180681 -2.507217 -0.193859 -0.985954 -0.078376 -0.407098
    20 -0.024967 -1.127840 0.017597 -1.392783 -0.006040 -0.057597
    21 -0.020057 -0.906594 0.029622 -1.007262 0.005285 -0.041263
    22 0.618667 -1.205090 0.189285 0.731941 -1.193061 -0.979927
    23 1.457800 -0.239762 0.075324 0.065336 -0.234382 -0.861621
    24 1.030456 -0.163447 0.036197 0.059188 -0.214730 -0.888940
    25 0.120153 -0.050270 -0.054489 -2.345120 6.152178 -1.527299
    26 -1.786440 -6.586770 -8.446854 -2.013187 -5.008021 -1.500082
    27 -0.008528 -8.442606 0.041418 0.073012 -0.677532 0.334234
    28 0.447953 -2.798986 -0.200443 -0.108135 -0.081721 0.212829
    29 -0.032909 -1.488017 0.004940 -0.434394 0.010007 -0.003881
    30 -0.027022 -1.084733 -0.024116 -0.264744 0.007323 -0.001942
    31 -0.249534 -2.846964 -0.174213 0.140065 -0.045547 0.125196
    32 0.043235 -1.668316 0.092106 -0.497025 -0.007148 -0.001809
    33 0.031729 -1.156924 0.058838 -0.290784 -0.002055 0.006610
    34 -0.963866 -2.785145 -0.085350 0.234356 0.205716 0.063600
    35 0.028479 -1.403067 0.002365 -0.149924 -0.001678 -0.007203
    36 0.021413 -0.953875 0.020046 -0.246077 -0.003176 -0.010810
    37 1.164475 -2.543940 -0.170330 -0.173241 -0.088438 0.173210
    38 0.024032 -1.129042 0.006088 -0.431967 -0.001678 0.023047
    39 0.014898 -0.887895 -0.019848 -0.328155 -0.002445 0.014789
    40 -0.586770 -1.264477 0.200161 -0.035343 -0.435498 -2.702569
    41 1.530648 0.050868 0.016848 -0.001994 0.003424 0.183139
    42 1.114041 0.048424 -0.005766 -0.011197 -0.032521 0.478520
    43 -0.002676 -0.002320 0.002678 0.412814 0.152078 1.376303
    44 -6.053769 6.510981 -0.442564 1.589121 -0.028669 -0.919049
  time 7
    0 5.302673 -8.656417 -6.158298 5.593096 1.317911 -3.951287
    1 1.310229 6.579789 -0.000740 1.570788 0.000000 1.570797
    2 0.772819 1.987386 0.000108 0.000000 0.000000 0.000000
    3 17.082664 -18.096640 0.000027 0.000000 0.000001 1.570795
    4 -1.428618 -0.139622 0.882533 1.910805 0.000001 1.570796
    5 -1.573682 -0.156902 0.000661 0.000000 0.000001 1.570796
    6 -1.155131 -0.813790 -4.073724 0.000000 0.000000 0.000000
    7 8.747586 2.677192 -5.221797 0.270734 -2.284010 -0.404065
    8 3.921324 7.723490 -0.149807 1.568013 -3.136956 1.234202
    9 0.119491 -8.440141 -0.076789 -0.306436 0.945508 -0.691965
    10 -0.488518 -2.755602 -0.228260 -1.141808 -0.249290 -0.364717
    11 0.039887 -1.534479 0.014229 -1.583297 -0.011050 0.035439
    12 0.028786 -1.185109 -0.128581 -1.207611 -0.015077 0.026522
    13 0.250027 -2.820665 -0.238396 -0.956857 -0.243991 -0.301299
    14 -0.049759 -1.598510 0.041883 -1.451333 0.002325 -0.039431
    15 -0.034142 -1.179563 0.045718 -1.341014 0.004422 -0.035367
    16 0.957766 -2.746780 -0.090302 -0.240003 -0.077414 0.109044
    17 -0.033420 -1.393223 -0.022976 -0.801679 0.007071 -0.039442
    18 -0.022360 -0.957436 0.014878 -0.202134 0.004686 -0.009264
    19 -1.180681 -2.507217 -0.193859 -0.985954 -0.078376 -0.407098
    20 -0.024967 -1.127840 0.017597 -1.392783 -0.006040 -0.057597
    21 -0.020057 -0.906594 0.029622 -1.007262 0.005285 -0.041263
    22 0.618667 -1.205090 0.189285 0.731941 -1.193061 -0.979927
    23 1.457800 -0.239762 0.075324 0.065336 -0.234382 -0.861621
    24 1.030456 -0.163447 0.036197 0.059188 -0.214730 -0.888940
    25 0.120153 -0.050270 -0.054489 -2.345120 6.152178 -1.527299
    26 -3.763063 -6.500830 -8.149969 0.356538 -4.218119 0.883740
    27 0.018817 -8.430887 0.029699 -0.002391 -0.586528 0.246073
    28 0.447953 -2.798986 -0.200443 -0.402981 -0.075621 0.357843
    29 -0.032909 -1.491923 0.008846 -0.565307 0.013027 -0.006062
    30 -0.027022 -1.084733 -0.024116 -0.290714 0.008006 -0.002229
    31 -0.249534 -2.846964 -0.174213 -0.157661 -0.077162 0.264961
    32 0.043235 -1.672222 0.092106 -0.453077 -0.006285 -0.001869
    33 0.031729 -1.156924 0.058838 -0.270753 -0.001827 0.006718
    34 -0.963866 -2.785145 -0.085350 0.102145 0.145287 0.156970
    35 0.028479 -1.403067 -0.001542 -0.279635 -0.003835 -0.012656
    36 0.021413 -0.957781 0.020046 -0.176549 -0.002025 -0.007886
    37 1.164475 -2.543940 -0.170330 -0.421263 -0.051370 0.258322
    38 0.024032 -1.132948 0.002182 -0.634896 0.000959 0.034121
    39 0.014898 -0.891802 -0.019848 -0.482722 -0.002049 0.023454
    40 -0.586770 -1.264477 0.200161 -0.014132 -0.461416 -2.773078
    41 1.526741 0.050868 0.016848 -0.001394 0.004215 0.148425
    42 1.117947 0.048424 -0.005766 -0.009747 -0.031897 0.429435
    43 -0.002676 -0.002320 0.002678 0.370377 0.130506 1.377273
    44 -6.053769 6.510981 -0.442564 1.589121 -0.028669 -0.919049
  time 8
    0 5.294860 -8.996271 -6.404399 5.773625 1.265700 -3.814585
    1 1.310229 6.579789 -0.000740 1.570788 0.000000 1.570797
    2 0.772819 1.987386 0.000108 0.000000 0.000000 0.000000
    3 17.082664 -18.096640 0.000027 0.000000 0.000001 1.570795
    4 -1.428618 -0.139622 0.882533 2.388487 0.000001 1.570796
    5 -1.573682 -0.156902 0.000661 0.000000 0.000001 1.570796
    6 -1.155131 -0.813790 -4.073724 0.000000 0.000000 0.000000
    7 8.903841 2.270930 -5.522588 0.280415 -2.254318 -0.439849
    8 3.964294 7.696146 -0.149807 1.567917 -3.136860 1.228058
    9 0.127304 -8.440141 -0.076789 -0.339872 0.982448 -0.705498
    10 -0.488518 -2.755602 -0.228260 -1.141808 -0.249290 -0.364717
    11 0.039887 -1.534479 0.014229 -1.583297 -0.011050 0.035439
    12 0.028786 -1.185109 -0.128581 -1.207611 -0.015077 0.026522
    13 0.250027 -2.820665 -0.238396 -0.956857 -0.243991 -0.301299
    14 -0.049759 -1.598510 0.041883 -1.451333 0.002325 -0.039431
    15 -0.034142 -1.179563 0.045718 -1.341014 0.004422 -0.035367
    16 0.957766 -2.746780 -0.090302 -0.240003 -0.077414 0.109044
    17 -0.033420 -1.393223 -0.022976 -0.801679 0.007071 -0.039442
    18 -0.022360 -0.957436 0.014878 -0.202134 0.004686 -0.009264
    19 -1.180681 -2.507217 -0.193859 -0.985954 -0.078376 -0.407098
    20 -0.024967 -1.127840 0.017597 -1.392783 -0.006040 -0.057597
    21 -0.020057 -0.906594 0.029622 -1.007262 0.005285 -0.041263
    22 0.618667 -1.205090 0.189285 0.731941 -1.193061 -0.979927
    23 1.457800 -0.239762 0.075324 0.065336 -0.234382 -0.861621
    24 1.030456 -0.163447 0.036197 0.059188 -0.214730 -0.888940
    25 0.120153 -0.050270 -0.054489 -2.345120 6.152178 -1.527299
    26 -4.977944 -6.325043 -7.501512 0.126808 -4.014624 0.649476
    27 0.042255 -8.426980 0.017980 -0.064282 -0.515768 0.170424
    28 0.447953 -2.798986 -0.200443 -0.613726 -0.067277 0.418629
    29 -0.032909 -1.491923 0.008846 -0.681039 0.015436 -0.008303
    30 -0.027022 -1.088639 -0.028023 -0.357835 0.009720 -0.003068
    31 -0.249534 -2.846964 -0.174213 -0.354314 -0.094911 0.339804
    32 0.043235 -1.672222 0.092106 -0.479813 -0.006813 -0.001833
    33 0.031729 -1.156924 0.058838 -0.305181 -0.002222 0.006526
    34 -0.963866 -2.785145 -0.085350 0.044649 0.098548 0.224943
    35 0.028479 -1.403067 -0.005448 -0.383007 -0.006040 -0.016778
    36 0.021413 -0.957781 0.020046 -0.167114 -0.001882 -0.007490
    37 1.164475 -2.543940 -0.170330 -0.615447 -0.052028 0.290440
    38 0.024032 -1.136855 -0.001725 -0.765520 0.003835 0.040880
    39 0.014898 -0.895708 -0.019848 -0.602745 -0.000815 0.030081
    40 -0.586770 -1.264477 0.200161 -0.025130 -0.451645 -2.792541
    41 1.526741 0.050868 0.016848 -0.001478 0.004095 0.153328
    42 1.117947 0.048424 -0.005766 -0.007542 -0.030771 0.352370
    43 -0.002676 -0.002320 0.002678 0.327172 0.108550 1.378280
    44 -6.053769 6.510981 -0.442564 1.589121 -0.028669 -0.919049
  time 9
    0 5.283141 -9.324406 -6.627062 5.918699 1.211612 -3.716708
    1 1.310229 6.579789 -0.000740 1.570788 0.000000 1.570797
    2 0.772819 1.987386 0.000108 0.000000 0.000000 0.000000
    3 17.082664 -18.096640 0.000027 0.000000 0.000001 1.570795
    4 -1.428618 -0.139622 0.882533 2.039470 0.000001 1.570796
    5 -1.573682 0.858754 0.000661 0.000000 0.000001 1.570796
    6 -1.155131 -0.813790 -4.073724 0.000000 0.000000 0.000000
    7 8.997594 1.880293 -5.807753 0.290000 -2.225411 -0.468291
    8 4.018983 7.664895 -0.149807 1.567821 -3.136668 1.220146
    9 0.135117 -8.440141 -0.080696 -0.382299 1.017024 -0.715664
    10 -0.488518 -2.755602 -0.228260 -1.141808 -0.249290 -0.364717
    11 0.039887 -1.534479 0.014229 -1.583297 -0.011050 0.035439
    12 0.028786 -1.185109 -0.128581 -1.207611 -0.015077 0.026522
    13 0.250027 -2.820665 -0.238396 -0.956857 -0.243991 -0.301299
    14 -0.049759 -1.598510 0.041883 -1.451333 0.002325 -0.039431
    15 -0.034142 -1.179563 0.045718 -1.341014 0.004422 -0.035367
    16 0.957766 -2.746780 -0.090302 -0.240003 -0.077414 0.109044
    17 -0.033420 -1.393223 -0.022976 -0.801679 0.007071 -0.039442
    18 -0.022360 -0.957436 0.014878 -0.202134 0.004686 -0.009264
    19 -1.180681 -2.507217 -0.193859 -0.985954 -0.078376 -0.407098
    20 -0.024967 -1.127840 0.017597 -1.392783 -0.006040 -0.057597
    21 -0.020057 -0.906594 0.029622 -1.007262 0.005285 -0.041263
    22 0.618667 -1.205090 0.189285 0.731941 -1.193061 -0.979927
    23 1.457800 -0.239762 0.075324 0.065336 -0.234382 -0.861621
    24 1.030456 -0.163447 0.036197 0.059188 -0.214730 -0.888940
    25 0.120153 -0.050270 -0.054489 -2.345120 6.152178 -1.527299
    26 -5.431083 -5.715650 -7.189003 0.011020 -3.963433 0.544045
    27 0.057880 -8.426980 0.010167 -0.088295 -0.450689 0.132808
    28 0.447953 -2.798986 -0.200443 -0.692431 -0.103157 0.383334
    29 -0.032909 -1.495829 0.012753 -0.767057 0.017054 -0.010149
    30 -0.027022 -1.092546 -0.028023 -0.472691 0.012524 -0.004758
    31 -0.249534 -2.846964 -0.174213 -0.402926 -0.130889 0.320054
    32 0.043235 -1.668316 0.092106 -0.591060 -0.008994 -0.001545
    33 0.031729 -1.156924 0.058838 -0.400584 -0.003361 0.006059
    34 -0.963866 -2.785145 -0.085350 0.090025 0.065279 0.243438
    35 0.028479 -1.403067 -0.005448 -0.445361 -0.007574 -0.019139
    36 0.021413 -0.953875 0.020046 -0.255268 -0.003344 -0.011194
    37 1.164475 -2.543940 -0.170330 -0.713566 -0.120933 0.271472
    38 0.024032 -1.136855 -0.001725 -0.795866 0.004626 0.042390
    39 0.014898 -0.895708 -0.019848 -0.672690 0.000252 0.033868
    40 -0.586770 -1.264477 0.200161 -0.065698 -0.396216 -2.752741
    41 1.530648 0.050868 0.016848 -0.002281 0.003065 0.199271
    42 1.117947 0.048424 -0.005766 -0.004989 -0.029189 0.258901
    43 -0.002676 -0.002320 0.002678 0.284759 0.086978 1.379251
    44 -6.053769 6.510981 -0.442564 1.589121 -0.028669 -0.919049
  time 10
    0 5.259703 -9.566601 -6.802849 6.016150 1.163827 -3.665038
    1 1.310229 6.579789 -0.000740 1.570788 0.000000 1.570797
    2 0.772819 1.987386 0.000108 0.000000 0.000000 0.000000
    3 17.082664 -18.096640 0.000027 0.000000 0.000001 1.570795
    4 -1.428618 -0.139622 0.882533 1.690377 0.000001 1.570796
    5 -1.573682 1.878316 0.000661 0.000000 0.000001 1.570796
    6 -1.155131 -0.813790 -4.073724 0.000000 0.000000 0.000000
    7 9.048377 1.579502 -6.049948 0.300639 -2.203071 -0.491573
    8 4.175238 7.571142 -0.153713 1.567629 -3.136285 1.197340
    9 0.139023 -8.436234 -0.080696 -0.434603 1.042594 -0.734402
    10 -0.488518 -2.755602 -0.228260 -1.141808 -0.249290 -0.364717
    11 0.039887 -1.534479 0.014229 -1.583297 -0.011050 0.035439
    12 0.028786 -1.185109 -0.128581 -1.207611 -0.015077 0.026522
    13 0.250027 -2.820665 -0.238396 -0.956857 -0.243991 -0.301299
    14 -0.049759 -1.598510 0.041883 -1.451333 0.002325 -0.039431
    15 -0.034142 -1.179563 0.045718 -1.341014 0.004422 -0.035367
    16 0.957766 -2.746780 -0.090302 -0.240003 -0.077414 0.109044
    17 -0.033420 -1.393223 -0.022976 -0.801679 0.007071 -0.039442
    18 -0.022360 -0.957436 0.014878 -0.202134 0.004686 -0.009264
    19 -1.180681 -2.507217 -0.193859 -0.985954 -0.078376 -0.407098
    20 -0.024967 -1.127840 0.017597 -1.392783 -0.006040 -0.057597
    21 -0.020057 -0.906594 0.029622 -1.007262 0.005285 -0.041263
    22 0.618667 -1.205090 0.189285 0.731941 -1.193061 -0.979927
    23 1.457800 -0.239762 0.075324 0.065336 -0.234382 -0.861621
    24 1.030456 -0.163447 0.036197 0.059188 -0.214730 -0.888940
    25 0.120153 -0.050270 -0.054489 -2.345120 6.152178 -1.527299
    26 -5.630307 -4.992971 -6.958527 -0.103722 -3.962940 0.450607
    27 0.073506 -8.426980 -0.001552 -0.096300 -0.391824 0.103427
    28 0.447953 -2.798986 -0.200443 -0.738462 -0.160881 0.317119
    29 -0.032909 -1.495829 0.012753 -0.849214 0.018444 -0.012031
    30 -0.027022 -1.100358 -0.028023 -0.606201 0.015508 -0.007107
    31 -0.249534 -2.846964 -0.174213 -0.410370 -0.180517 0.267753
    32 0.043235 -1.664409 0.088199 -0.732282 -0.011690 -0.000826
    33 0.031729 -1.153017 0.058838 -0.519331 -0.004835 0.005616
    34 -0.963866 -2.785145 -0.085350 0.181518 0.027239 0.247566
    35 0.028479 -1.403067 -0.005448 -0.498949 -0.009012 -0.021093
    36 0.021413 -0.949968 0.020046 -0.382721 -0.006028 -0.016287
    37 1.164475 -2.543940 -0.170330 -0.792358 -0.221014 0.241695
    38 0.024032 -1.136855 -0.001725 -0.798970 0.004710 0.042546
    39 0.014898 -0.895708 -0.019848 -0.730903 0.001354 0.036948
    40 -0.586770 -1.264477 0.200161 -0.114747 -0.307316 -2.694615
    41 1.534554 0.046962 0.016848 -0.003456 0.001698 0.262738
    42 1.117947 0.048424 -0.005766 -0.001969 -0.026840 0.139829
    43 -0.002676 -0.002320 0.002678 0.244622 0.066592 1.380174
    44 -6.053769 6.510981 -0.442564 1.589121 -0.028669 -0.919049
  time 11
    0 5.216733 -9.718949 -6.927853 6.087728 1.122732 -3.642126
    1 1.310229 6.579789 -0.000740 1.570788 0.000000 1.570797
    2 0.772819 1.987386 0.000108 0.000000 0.000000 0.000000
    3 17.082664 -18.096640 0.000027 0.000000 0.000001 1.570795
    4 -1.428618 -0.139622 0.882533 1.952178 0.000001 1.570796
    5 -1.573682 1.878316 0.000661 0.000000 0.000001 1.570796
    6 -1.155131 -0.813790 -4.073724 0.000000 0.000000 0.000000
    7 9.064002 1.364652 -6.249172 0.313579 -2.186440 -0.512343
    8 4.483841 7.368011 -0.157619 1.567342 -3.135326 1.151449
    9 0.146836 -8.432328 -0.084602 -0.501558 1.058836 -0.765388
    10 -0.488518 -2.755602 -0.228260 -1.141808 -0.249290 -0.364717
    11 0.039887 -1.534479 0.014229 -1.583297 -0.011050 0.035439
    12 0.028786 -1.185109 -0.128581 -1.207611 -0.015077 0.026522
    13 0.250027 -2.820665 -0.238396 -0.956857 -0.243991 -0.301299
    14 -0.049759 -1.598510 0.041883 -1.451333 0.002325 -0.039431
    15 -0.034142 -1.179563 0.045718 -1.341014 0.004422 -0.035367
    16 0.957766 -2.746780 -0.090302 -0.240003 -0.077414 0.109044
    17 -0.033420 -1.393223 -0.022976 -0.801679 0.007071 -0.039442
    18 -0.022360 -0.957436 0.014878 -0.202134 0.004686 -0.009264
    19 -1.180681 -2.507217 -0.193859 -0.985954 -0.078376 -0.407098
    20 -0.024967 -1.127840 0.017597 -1.392783 -0.006040 -0.057597
    21 -0.020057 -0.906594 0.029622 -1.007262 0.005285 -0.041263
    22 0.618667 -1.205090 0.189285 0.731941 -1.193061 -0.979927
    23 1.457800 -0.239762 0.075324 0.065336 -0.234382 -0.861621
    24 1.030456 -0.163447 0.036197 0.059188 -0.214730 -0.888940
    25 0.120153 -0.050270 -0.054489 -2.345120 6.152178 -1.527299
    26 -5.661558 -4.180447 -6.735864 -0.244146 -3.996879 0.335447
    27 0.085225 -8.434793 -0.009365 -0.086273 -0.334925 0.072620
    28 0.447953 -2.798986 -0.200443 -0.757810 -0.229986 0.232280
    29 -0.032909 -1.495829 0.016659 -0.927598 0.019631 -0.013924
    30 -0.027022 -1.108171 -0.028023 -0.750045 0.018348 -0.010055
    31 -0.249534 -2.846964 -0.174213 -0.387102 -0.235179 0.195965
    32 0.043235 -1.660503 0.084293 -0.891199 -0.014567 0.000408
    33 0.031729 -1.149111 0.058838 -0.651666 -0.006513 0.005352
    34 -0.963866 -2.785145 -0.085350 0.292941 -0.009493 0.239149
    35 0.028479 -1.403067 -0.009354 -0.545963 -0.010367 -0.022747
    36 0.021413 -0.949968 0.020046 -0.525166 -0.009767 -0.021536
    37 1.164475 -2.543940 -0.170330 -0.855067 -0.337818 0.208210
    38 0.024032 -1.136855 -0.001725 -0.783998 0.004314 0.041803
    39 0.014898 -0.899614 -0.019848 -0.780449 0.002433 0.039525
    40 -0.586770 -1.264477 0.200161 -0.162828 -0.206060 -2.631739
    41 1.538460 0.046962 0.016848 -0.004930 0.000212 0.336132
    42 1.117947 0.048424 -0.005766 0.000884 -0.023988 0.013782
    43 -0.002676 -0.002320 0.002678 0.208345 0.048148 1.381012
    44 -6.053769 6.510981 -0.442564 1.589121 -0.028669 -0.919049
  time 12
    0 5.158138 -9.824421 -7.029418 6.154420 1.084211 -3.629472
    1 1.310229 6.579789 -0.000740 1.570788 0.000000 1.570797
    2 0.772819 1.987386 0.000108 0.000000 0.000000 0.000000
    3 17.082664 -18.096640 0.000027 0.000000 0.000001 1.570795
    4 -1.428618 -0.139622 0.882533 2.109713 0.000001 1.570796
    5 -1.573682 1.878316 0.000661 0.000000 0.000001 1.570796
    6 -1.155131 -0.813790 -4.073724 0.000000 0.000000 0.000000
    7 9.021032 1.204491 -6.424959 0.324890 -2.172308 -0.524315
    8 4.866665 7.090659 -0.169338 1.566958 -3.134175 1.093178
    9 0.150742 -8.424515 -0.088509 -0.587410 1.069123 -0.804825
    10 -0.488518 -2.755602 -0.228260 -1.141808 -0.249290 -0.364717
    11 0.039887 -1.534479 0.014229 -1.583344 -0.011050 0.035439
    12 0.028786 -1.185109 -0.128581 -1.207611 -0.015077 0.026522
    13 0.250027 -2.820665 -0.238396 -0.956857 -0.243991 -0.301299
    14 -0.049759 -1.598510 0.041883 -1.451333 0.002325 -0.039431
    15 -0.034142 -1.179563 0.045718 -1.341014 0.004422 -0.035367
    16 0.957766 -2.746780 -0.090302 -0.240003 -0.077414 0.109044
    17 -0.033420 -1.393223 -0.022976 -0.801679 0.007071 -0.039442
    18 -0.022360 -0.957436 0.014878 -0.202134 0.004686 -0.009264
    19 -1.180681 -2.507217 -0.193859 -0.985954 -0.078376 -0.407098
    20 -0.024967 -1.127840 0.017597 -1.392783 -0.006040 -0.057597
    21 -0.020057 -0.906594 0.029622 -1.007262 0.005285 -0.041263
    22 0.618667 -1.205090 0.189285 0.731941 -1.193061 -0.979927
    23 1.457800 -0.239762 0.075324 0.065336 -0.234382 -0.861621
    24 1.030456 -0.163447 0.036197 0.059188 -0.214730 -0.888940
    25 0.120153 -0.050270 -0.054489 -2.345120 6.152178 -1.527299
    26 -5.587337 -3.395266 -6.474137 -0.419123 -4.037649 0.182206
    27 0.096944 -8.442606 -0.013271 -0.063147 -0.276206 0.036093
    28 0.447953 -2.798986 -0.200443 -0.759152 -0.299042 0.140682
    29 -0.032909 -1.495829 0.016659 -1.002250 0.020613 -0.015806
    30 -0.027022 -1.112077 -0.028023 -0.895855 0.020757 -0.013435
    31 -0.249534 -2.846964 -0.174213 -0.345984 -0.286353 0.118761
    32 0.043235 -1.656596 0.080387 -1.055530 -0.017299 0.002170
    33 0.031729 -1.149111 0.058838 -0.787940 -0.008275 0.005304
    34 -0.963866 -2.785145 -0.085350 0.397945 -0.039189 0.223094
    35 0.028479 -1.403067 -0.009354 -0.588552 -0.011649 -0.024185
    36 0.021413 -0.946062 0.016140 -0.658328 -0.013902 -0.025911
    37 1.164475 -2.543940 -0.170330 -0.907101 -0.455901 0.176524
    38 0.024032 -1.132948 -0.001725 -0.760152 0.003691 0.040605
    39 0.014898 -0.899614 -0.015942 -0.824518 0.003500 0.041754
    40 -0.586770 -1.264477 0.200161 -0.206136 -0.115049 -2.572855
    41 1.538460 0.043056 0.016848 -0.006548 -0.001202 0.411736
    42 1.117947 0.048424 -0.005766 0.003149 -0.021099 -0.100640
    43 -0.002676 -0.002320 0.002678 0.177449 0.032448 1.381732
    44 -6.053769 6.510981 -0.442564 1.589121 -0.028669 -0.919049
  time 13
    0 5.095636 -9.894736 -7.103639 6.210764 1.051320 -3.624871
    1 1.310229 6.579789 -0.000740 1.570788 0.000000 1.570797
    2 0.772819 1.987386 0.000108 0.000000 0.000000 0.000000
    3 17.082664 -18.096640 0.000027 0.000000 0.000001 1.570795
    4 -1.428618 -0.139622 0.882533 2.283843 0.000001 1.570796
    5 -1.573682 1.878316 0.000661 0.000000 0.000001 1.570796
    6 -1.155131 -0.813790 -4.073724 0.000000 0.000000 0.000000
    7 8.911654 1.099019 -6.549963 0.330641 -2.162173 -0.522793
    8 5.218238 6.801587 -0.177151 1.566575 -3.132929 1.036676
    9 0.154648 -8.416703 -0.096321 -0.683140 1.073085 -0.848977
    10 -0.488518 -2.755602 -0.228260 -1.141808 -0.249290 -0.364717
    11 0.039887 -1.534479 0.014229 -1.583297 -0.011050 0.035439
    12 0.028786 -1.185109 -0.128581 -1.207611 -0.015077 0.026522
    13 0.250027 -2.820665 -0.238396 -0.956857 -0.243991 -0.301299
    14 -0.049759 -1.598510 0.041883 -1.451333 0.002325 -0.039431
    15 -0.034142 -1.179563 0.045718 -1.341014 0.004422 -0.035367
    16 0.957766 -2.746780 -0.090302 -0.240003 -0.077414 0.109044
    17 -0.033420 -1.393223 -0.022976 -0.801679 0.007071 -0.039442
    18 -0.022360 -0.957436 0.014878 -0.202134 0.004686 -0.009264
    19 -1.180681 -2.507217 -0.193859 -0.985954 -0.078376 -0.407098
    20 -0.024967 -1.127840 0.017597 -1.392783 -0.006040 -0.057597
    21 -0.020057 -0.906594 0.029622 -1.007262 0.005285 -0.041263
    22 0.618667 -1.205090 0.189285 0.731941 -1.193061 -0.979927
    23 1.457800 -0.239762 0.075324 0.065336 -0.234382 -0.861621
    24 1.030456 -0.163447 0.036197 0.059188 -0.214730 -0.888940
    25 0.120153 -0.050270 -0.054489 -2.345120 6.152178 -1.527299
    26 -5.462334 -2.762434 -6.200691 -0.621937 -4.062505 0.000532
    27 0.108663 -8.450418 -0.021084 -0.033481 -0.217778 -0.008956
    28 0.447953 -2.798986 -0.200443 -0.755067 -0.357907 0.056251
    29 -0.032909 -1.499736 0.020565 -1.073260 0.021416 -0.017663
    30 -0.027022 -1.119890 -0.024116 -1.035264 0.022579 -0.016970
    31 -0.249534 -2.846964 -0.174213 -0.302941 -0.328299 0.052821
    32 0.043235 -1.656596 0.076480 -1.212900 -0.019612 0.004243
    33 0.031729 -1.145205 0.058838 -0.918396 -0.009952 0.005484
    34 -0.963866 -2.785145 -0.085350 0.469438 -0.058005 0.206891
    35 0.028479 -1.403067 -0.009354 -0.628867 -0.012919 -0.025491
    36 0.021413 -0.946062 0.016140 -0.757994 -0.017366 -0.028811
    37 1.164475 -2.543940 -0.170330 -0.956179 -0.559470 0.152686
    38 0.024032 -1.132948 0.002182 -0.736635 0.003128 0.039418
    39 0.014898 -0.899614 -0.015942 -0.866133 0.004590 0.043828
    40 -0.586770 -1.264477 0.200161 -0.245133 -0.057786 -2.523819
    41 1.542367 0.039149 0.016848 -0.008142 -0.002400 0.481983
    42 1.117947 0.048424 -0.005766 0.004611 -0.018810 -0.184834
    43 -0.002676 -0.002320 0.002678 0.153480 0.020259 1.382283
    44 -6.053769 6.510981 -0.442564 1.589121 -0.028669 -0.919049
  time 14
    0 5.048759 -9.929893 -7.146609 6.251680 1.027091 -3.625542
    1 1.310229 6.579789 -0.000740 1.570788 0.000000 1.570797
    2 0.772819 1.987386 0.000108 0.000000 0.000000 0.000000
    3 17.082664 -18.096640 0.000027 0.000000 0.000001 1.570795
    4 -1.428618 -0.139622 0.882533 2.424859 0.000001 1.570796
    5 -1.573682 1.878316 0.000661 0.000000 0.000001 1.570796
    6 -1.155131 -0.813790 -4.073724 0.000000 0.000000 0.000000
    7 8.778837 1.040423 -6.628090 0.331887 -2.156463 -0.512739
    8 5.476059 6.571112 -0.184964 1.566479 -3.132066 0.993485
    9 0.158555 -8.404984 -0.100228 -0.769852 1.072052 -0.889853
    10 -0.488518 -2.755602 -0.228260 -1.141808 -0.249290 -0.364717
    11 0.039887 -1.534479 0.014229 -1.583297 -0.011050 0.035439
    12 0.028786 -1.185109 -0.128581 -1.207611 -0.015077 0.026522
    13 0.250027 -2.820665 -0.238396 -0.956857 -0.243991 -0.301299
    14 -0.049759 -1.598510 0.041883 -1.451333 0.002325 -0.039431
    15 -0.034142 -1.179563 0.045718 -1.341014 0.004422 -0.035367
    16 0.957766 -2.746780 -0.090302 -0.240003 -0.077414 0.109044
    17 -0.033420 -1.393223 -0.022976 -0.801679 0.007071 -0.039442
    18 -0.022360 -0.957436 0.014878 -0.202134 0.004686 -0.009264
    19 -1.180681 -2.507217 -0.193859 -0.985954 -0.078376 -0.407098
    20 -0.024967 -1.127840 0.017597 -1.392783 -0.006040 -0.057597
    21 -0.020057 -0.906594 0.029622 -1.007262 0.005285 -0.041263
    22 0.618667 -1.205090 0.189285 0.731941 -1.193061 -0.979927
    23 1.457800 -0.239762 0.075324 0.065336 -0.234382 -0.861621
    24 1.030456 -0.163447 0.036197 0.059188 -0.214730 -0.888940
    25 0.120153 -0.050270 -0.054489 -2.345120 6.152178 -1.527299
    26 -5.352955 -2.340547 -5.974122 -0.816007 -4.057647 -0.169903
    27 0.120382 -8.462138 -0.028897 -0.007837 -0.161534 -0.057915
    28 0.447953 -2.798986 -0.200443 -0.762103 -0.398733 -0.003996
    29 -0.032909 -1.499736 0.020565 -1.140712 0.022052 -0.019485
    30 -0.027022 -1.123796 -0.024116 -1.160041 0.023789 -0.020302
    31 -0.249534 -2.846964 -0.174213 -0.276660 -0.358728 0.017419
    32 0.043235 -1.656596 0.072574 -1.351124 -0.021350 0.006353
    33 0.031729 -1.145205 0.058838 -1.033424 -0.011403 0.005819
    34 -0.963866 -2.785145 -0.085350 0.479890 -0.064004 0.198944
    35 0.028479 -1.403067 -0.013261 -0.669058 -0.014238 -0.026750
    36 0.021413 -0.946062 0.016140 -0.799858 -0.018900 -0.029926
    37 1.164475 -2.543940 -0.170330 -1.012253 -0.632541 0.144284
    38 0.024032 -1.132948 0.002182 -0.722685 0.002792 0.038699
    39 0.014898 -0.899614 -0.015942 -0.908403 0.005789 0.045877
    40 -0.586770 -1.264477 0.200161 -0.282196 -0.058168 -2.489351
    41 1.546273 0.039149 0.016848 -0.009508 -0.003287 0.539155
    42 1.117947 0.048424 -0.005766 0.005162 -0.017815 -0.220197
    43 -0.002676 -0.002320 0.002678 0.137960 0.012374 1.382642
    44 -6.053769 6.510981 -0.442564 1.589121 -0.028669 -0.919049
  time 15
    0 5.013602 -9.941612 -7.162235 6.271898 1.014339 -3.628610
    1 1.310229 6.579789 -0.000740 1.570788 0.000000 1.570797
    2 0.772819 1.987386 0.000108 0.000000 0.000000 0.000000
    3 7.305022 3.181353 -1.566427 1.553173 0.281796 1.250405
    4 -1.428618 -0.139622 0.882533 2.482826 0.000001 1.570796
    5 -1.573682 1.878316 0.000661 0.000000 0.000001 1.570796
    6 -1.155131 -0.813790 -4.073724 0.000000 0.000000 0.000000
    7 8.692897 1.016985 -6.667154 0.333133 -2.154607 -0.505993
    8 5.597156 6.450014 -0.188870 1.566383 -3.131587 0.971982
    9 0.162461 -8.401077 -0.104134 -0.822073 1.069197 -0.916492
    10 -0.488518 -2.755602 -0.228260 -1.141808 -0.249290 -0.364717
    11 0.039887 -1.534479 0.014229 -1.583297 -0.011050 0.035439
    12 0.028786 -1.185109 -0.128581 -1.207611 -0.015077 0.026522
    13 0.250027 -2.820665 -0.238396 -0.956857 -0.243991 -0.301299
    14 -0.049759 -1.598510 0.041883 -1.451333 0.002325 -0.039431
    15 -0.034142 -1.179563 0.045718 -1.341014 0.004422 -0.035367
    16 0.957766 -2.746780 -0.090302 -0.240003 -0.077414 0.109044
    17 -0.033420 -1.393223 -0.022976 -0.801679 0.007071 -0.039442
    18 -0.022360 -0.957436 0.014878 -0.202134 0.004686 -0.009264
    19 -1.180681 -2.507217 -0.193859 -0.985954 -0.078376 -0.407098
    20 -0.024967 -1.127840 0.017597 -1.392783 -0.006040 -0.057597
    21 -0.020057 -0.906594 0.029622 -1.007262 0.005285 -0.041263
    22 0.618667 -1.205090 0.189285 0.731941 -1.193061 -0.979927
    23 1.457800 -0.239762 0.075324 0.065336 -0.234382 -0.861621
    24 1.030456 -0.163447 0.036197 0.059188 -0.214730 -0.888940
    25 0.120153 -0.050270 -0.054489 -2.345120 6.152178 -1.527299
    26 -5.356862 -2.274138 -5.888182 -0.818655 -4.058139 -0.171832
    27 0.120382 -8.462138 -0.028897 0.003158 -0.159253 -0.052997
    28 0.447953 -2.798986 -0.200443 -0.803125 -0.246413 0.117432
    29 -0.032909 -1.499736 0.020565 -1.140712 0.022052 -0.019485
    30 -0.027022 -1.123796 -0.024116 -1.160041 0.023789 -0.020302
    31 -0.249534 -2.846964 -0.174213 -0.311879 -0.275950 0.266183
    32 0.043235 -1.656596 0.072574 -1.351124 -0.021350 0.006353
    33 0.031729 -1.145205 0.058838 -1.033424 -0.011403 0.005819
    34 -0.963866 -2.785145 -0.085350 -0.162022 0.102638 0.197845
    35 0.028479 -1.403067 -0.013261 -0.669058 -0.014238 -0.026750
    36 0.021413 -0.953875 0.020046 -0.201374 -0.002409 -0.008941
    37 1.164475 -2.543940 -0.170330 -1.028516 -0.398371 0.181070
    38 0.024032 -1.132948 0.002182 -0.722685 0.002792 0.038699
    39 0.014898 -0.899614 -0.015942 -0.908403 0.005789 0.045877
    40 -0.586770 -1.264477 0.200161 -0.338133 -0.745473 -2.535794
    41 1.546273 0.039149 0.016848 -0.008333 -0.002520 0.490033
    42 1.117947 0.048424 -0.005766 -0.006619 -0.030232 0.319102
    43 -0.002676 -0.002320 0.002678 0.132447 0.009569 1.382762
    44 -6.053769 6.510981 -0.442564 1.589121 -0.028669 -0.919049
end
