// Created by Crowbar 0.49.0.0

$modelname "weapons/tfa_cso/w_g_m4a1.mdl"

$bodygroup "studio"
{
	studio "w_g_m4a1_w_m4a1_Gacha"
}

$collisionmodel "w_g_m4a1_w_m4a1_Gacha.smd"
{
	$mass 9
}

$CDMaterials "models\weapons\tfa_cso\m4a1"

$attachment "0" "Gacha_m4a1" -0.30 -13.60 2.60 rotate -0 0 -0

$sequence "idle" {
	"w_g_m4a1_anims\idle"
	fps 30
}
