// Created by Crowbar 0.49.0.0

$modelname "weapons/tfa_cso/w_m4a1gs.mdl"

$bodygroup "studio"
{
	studio "w_m4a1gs_w_m4a1_Gold"
}

$collisionmodel "w_m4a1gold_w_m4a1_Gold.smd"
{
	$mass 9
}

$CDMaterials "models\weapons\tfa_cso\m4a1"

$attachment "0" "Object04" -0.30 -20.50 2.60 rotate -0 -0 0

$sequence "idle" {
	"w_m4a1gs_anims\idle"
	fps 30
}
