// Created by Crowbar 0.34.0.0

$ModelName "weapons/tfa_cso/w_hk23_v8.mdl"

$BodyGroup "studio"
{
	studio "v_hk23_ref"
}

$collisionmodel "v_hk23_ref.smd"
{
	$mass 9
}

$CDMaterials "models\weapons\tfa_cso\hk23_v8"

$attachment "0" "root" -0.30 -14.80 0.80 rotate -0 0 0

$Sequence "idle" {
	"anims\idle.smd"
	fps 30
}