version 1
nodes
  0 "Bone01" -1
  1 "Bone_Lefthand" 0
  2 "Bone03" 1
  3 "Bone56" 2
  4 "Bone54" 3
  5 "Bone25" 3
  6 "Bone48" 3
  7 "Bone50" 3
  8 "Bone52" 3
  9 "Bone 04" 1
  10 "Bone13" 9
  11 "Bone14" 10
  12 "Bone15" 11
  13 "Bone17" 9
  14 "Bone18" 13
  15 "Bone19" 14
  16 "Bone21" 9
  17 "Bone22" 16
  18 "Bone23" 17
  19 "Bone05" 9
  20 "Bone06" 19
  21 "Bone07" 20
  22 "Bone09" 9
  23 "Bone10" 22
  24 "Bone11" 23
  25 "Bone04" -1
  26 "Bone_Righthand" 25
  27 "Bone26" 26
  28 "Bone35" 27
  29 "Bone36" 28
  30 "Bone37" 29
  31 "Bone31" 27
  32 "Bone32" 31
  33 "Bone33" 32
  34 "Bone39" 27
  35 "Bone40" 34
  36 "Bone41" 35
  37 "Bone43" 27
  38 "Bone44" 37
  39 "Bone45" 38
  40 "Bone27" 27
  41 "Bone28" 40
  42 "Bone29" 41
end
skeleton
  time 0
    0 8.208132 2.665641 -9.811295 1.397969 -1.196906 -1.508662
    1 0.000000 -8.563285 0.000000 0.226561 -0.049861 -0.518981
    2 -0.435133 -3.043624 0.895601 -1.247037 1.437608 -1.233843
    3 0.000000 2.000727 0.853750 0.000000 0.000000 0.000000
    4 0.021119 -3.993921 3.201528 0.000000 0.000000 0.000000
    5 0.021119 -2.845553 1.084931 0.000000 0.000000 0.000000
    6 0.021119 -4.827049 0.994863 0.000000 0.000000 0.000000
    7 0.021119 -5.547592 1.535272 0.000000 0.000000 0.000000
    8 0.021119 -9.375484 3.809488 0.000000 0.000000 0.000000
    9 -0.003480 -0.404829 0.000001 0.000000 0.000000 0.000000
    10 -0.519309 -2.501156 -0.278957 -1.404591 -0.161672 -0.219512
    11 -0.010598 -1.208185 0.000001 -0.740030 0.000000 0.000000
    12 0.000000 -0.763066 0.000000 -1.343903 0.000000 0.000000
    13 0.105981 -2.607135 -0.278957 -1.135143 -0.167988 -0.238861
    14 0.000000 -1.250579 -0.000001 -0.966912 0.000000 0.000000
    15 0.000000 -0.932634 0.000000 -1.431181 0.000000 0.000000
    16 0.763063 -2.490557 -0.278957 -0.388796 -0.041323 0.031656
    17 -0.012322 -1.280917 0.000000 -0.689389 0.000000 0.000000
    18 -0.001697 -0.749371 0.000000 -0.593412 0.000000 0.000000
    19 0.354566 0.016267 0.318133 0.271703 -0.487906 -0.927541
    20 1.887165 0.012877 0.000000 -0.271037 -0.142581 -0.874135
    21 1.001873 -0.000270 0.000000 0.000000 0.000000 -0.902335
    22 -1.123359 -2.195094 -0.278957 -1.253823 -0.147135 -0.327965
    23 0.010772 -0.963791 0.000000 -0.542804 0.000000 0.000000
    24 -0.010412 -0.631916 -0.000001 -1.165881 0.000000 0.000000
    25 2.582597 -9.060585 -9.115808 -1.484125 2.655827 -0.796877
    26 0.089929 -8.543162 0.000001 0.466869 -0.183367 -0.185895
    27 -0.000001 -0.359713 0.000000 0.000000 0.000000 0.000000
    28 -0.170479 -2.636147 -0.277655 -1.326477 0.000000 0.000000
    29 0.010598 -1.261177 0.000000 -1.672008 0.000000 0.000000
    30 -0.000001 -0.943233 -0.000001 -1.186781 0.000000 0.000000
    31 -0.827564 -2.508973 -0.277657 -0.851729 0.000000 0.000000
    32 -0.000001 -1.292971 0.000000 -1.555031 0.000000 0.000000
    33 0.000000 -0.752465 0.000000 -0.837720 0.000000 0.000000
    34 0.444212 -2.561960 -0.277655 -1.570265 -0.041073 -0.026169
    35 0.021022 -1.208186 0.000000 -1.474794 0.000000 0.000000
    36 0.010596 -0.741866 -0.000001 -1.569047 0.000000 0.000000
    37 1.047445 -2.222820 -0.277655 -1.508123 -0.078971 -0.038609
    38 -0.000001 -0.996223 -0.000002 -1.565526 0.000000 0.000000
    39 -0.000001 -0.614690 0.000001 -1.581264 0.000000 0.000000
    40 -0.308255 -0.007814 0.307166 0.103798 -0.109543 -2.218354
    41 1.978378 0.019544 0.000000 -0.104687 0.001811 0.567128
    42 0.982426 0.003186 0.000001 0.000000 0.000000 -0.411867
  time 1
    0 8.172974 2.665641 -9.721449 1.422783 -1.262480 -1.564279
    1 0.000000 -8.563285 0.000000 0.238425 -0.055482 -0.493478
    2 -0.435133 -3.043624 0.895601 -1.247037 1.437608 -1.233843
    3 0.000000 2.000727 0.853750 0.000000 0.000000 0.000000
    4 0.021119 -3.993921 3.201528 0.000000 0.000000 0.000000
    5 0.021119 -2.845553 1.084931 0.000000 0.000000 0.000000
    6 0.021119 -4.827049 0.994863 0.000000 0.000000 0.000000
    7 0.021119 -5.547592 1.535272 0.000000 0.000000 0.000000
    8 0.021119 -9.375484 3.809488 0.000000 0.000000 0.000000
    9 -0.003480 -0.404829 0.000001 0.000000 0.000000 0.000000
    10 -0.519309 -2.501156 -0.278957 -1.404591 -0.161672 -0.219512
    11 -0.010598 -1.208185 0.000001 -0.740030 0.000000 0.000000
    12 0.000000 -0.763066 0.000000 -1.343903 0.000000 0.000000
    13 0.105981 -2.607135 -0.278957 -1.135143 -0.167988 -0.238861
    14 0.000000 -1.250579 -0.000001 -0.966912 0.000000 0.000000
    15 0.000000 -0.932634 0.000000 -1.431181 0.000000 0.000000
    16 0.763063 -2.490557 -0.278957 -0.364935 -0.041323 0.031656
    17 -0.012322 -1.280917 0.000000 -0.666299 0.000000 0.000000
    18 -0.001697 -0.749371 0.000000 -0.573805 0.000000 0.000000
    19 0.354566 0.016267 0.318133 0.271703 -0.487906 -0.927541
    20 1.887165 0.012877 0.000000 -0.271037 -0.142581 -0.874135
    21 1.001873 -0.000270 0.000000 0.000000 0.000000 -0.902335
    22 -1.123359 -2.195094 -0.278957 -1.253823 -0.147135 -0.327965
    23 0.010772 -0.963791 0.000000 -0.542804 0.000000 0.000000
    24 -0.010412 -0.631916 -0.000001 -1.165881 0.000000 0.000000
    25 1.641162 -8.416034 -8.889238 -1.439734 2.512246 -0.790653
    26 0.089929 -8.543162 0.000001 0.476724 -0.181927 -0.156382
    27 -0.000001 -0.359713 0.000000 0.000000 0.000000 0.000000
    28 -0.170479 -2.636147 -0.277655 -1.326477 0.000000 0.000000
    29 0.010598 -1.261177 0.000000 -1.673799 0.000000 0.000000
    30 -0.000001 -0.943233 -0.000001 -1.188027 0.000000 0.000000
    31 -0.827564 -2.508973 -0.277657 -0.851729 0.000000 0.000000
    32 -0.000001 -1.292971 0.000000 -1.555749 0.000000 0.000000
    33 0.000000 -0.752465 0.000000 -0.838466 0.000000 0.000000
    34 0.444212 -2.561960 -0.277655 -1.570265 -0.041073 -0.026169
    35 0.021022 -1.208186 0.000000 -1.476683 0.000000 0.000000
    36 0.010596 -0.741866 -0.000001 -1.571038 0.000000 0.000000
    37 1.047445 -2.222820 -0.277655 -1.508123 -0.078971 -0.038609
    38 -0.000001 -0.996223 -0.000002 -1.567271 0.000000 0.000000
    39 -0.000001 -0.614690 0.000001 -1.583188 0.000000 0.000000
    40 -0.308255 -0.007814 0.307166 0.103726 -0.109591 -2.217850
    41 1.978378 0.019544 0.000000 -0.104687 0.001883 0.567809
    42 0.982426 0.003186 0.000001 0.000000 0.000000 -0.413341
  time 2
    0 8.145630 2.665641 -9.635509 1.471794 -1.329888 -1.644696
    1 0.000000 -8.563285 0.000000 0.250374 -0.061498 -0.467579
    2 -0.435133 -3.043624 0.895601 -1.247037 1.437608 -1.233843
    3 0.000000 2.000727 0.853750 0.000000 0.000000 0.000000
    4 0.021119 -3.993921 3.201528 0.000000 0.000000 0.000000
    5 0.021119 -2.845553 1.084931 0.000000 0.000000 0.000000
    6 0.021119 -4.827049 0.994863 0.000000 0.000000 0.000000
    7 0.021119 -5.547592 1.535272 0.000000 0.000000 0.000000
    8 0.021119 -9.375484 3.809488 0.000000 0.000000 0.000000
    9 -0.003480 -0.404829 0.000001 0.000000 0.000000 0.000000
    10 -0.519309 -2.501156 -0.278957 -1.404591 -0.161672 -0.219512
    11 -0.010598 -1.208185 0.000001 -0.740030 0.000000 0.000000
    12 0.000000 -0.763066 0.000000 -1.343903 0.000000 0.000000
    13 0.105981 -2.607135 -0.278957 -1.135143 -0.167988 -0.238861
    14 0.000000 -1.250579 -0.000001 -0.966912 0.000000 0.000000
    15 0.000000 -0.932634 0.000000 -1.431181 0.000000 0.000000
    16 0.763063 -2.490557 -0.278957 -0.341673 -0.041323 0.031656
    17 -0.012322 -1.280917 0.000000 -0.639781 0.000000 0.000000
    18 -0.001697 -0.749371 0.000000 -0.552557 0.000000 0.000000
    19 0.354566 0.016267 0.318133 0.271703 -0.487906 -0.927541
    20 1.887165 0.012877 0.000000 -0.271037 -0.142581 -0.874135
    21 1.001873 -0.000270 0.000000 0.000000 0.000000 -0.902335
    22 -1.123359 -2.195094 -0.278957 -1.253823 -0.147135 -0.327965
    23 0.010772 -0.963791 0.000000 -0.542804 0.000000 0.000000
    24 -0.010412 -0.631916 -0.000001 -1.165881 0.000000 0.000000
    25 0.785667 -7.845704 -8.678294 -1.387795 2.367407 -0.774867
    26 0.089929 -8.543162 0.000001 0.485441 -0.183542 -0.129894
    27 -0.000001 -0.359713 0.000000 0.000000 0.000000 0.000000
    28 -0.170479 -2.636147 -0.277655 -1.326477 0.000000 0.000000
    29 0.010598 -1.261177 0.000000 -1.678780 0.000000 0.000000
    30 -0.000001 -0.943233 -0.000001 -1.191308 0.000000 0.000000
    31 -0.827564 -2.508973 -0.277657 -0.851729 0.000000 0.000000
    32 -0.000001 -1.292971 0.000000 -1.557731 0.000000 0.000000
    33 0.000000 -0.752465 0.000000 -0.840458 0.000000 0.000000
    34 0.444212 -2.561960 -0.277655 -1.570265 -0.041073 -0.026169
    35 0.021022 -1.208186 0.000000 -1.481963 0.000000 0.000000
    36 0.010596 -0.741866 -0.000001 -1.576756 0.000000 0.000000
    37 1.047445 -2.222820 -0.277655 -1.508123 -0.078971 -0.038609
    38 -0.000001 -0.996223 -0.000002 -1.572071 0.000000 0.000000
    39 -0.000001 -0.614690 0.000001 -1.588575 0.000000 0.000000
    40 -0.308255 -0.007814 0.307166 0.103498 -0.109686 -2.216460
    41 1.978378 0.019544 0.000000 -0.104675 0.002075 0.569712
    42 0.982426 0.003186 0.000001 0.000000 0.000000 -0.417368
  time 3
    0 8.118285 2.665641 -9.565194 -1.568679 -1.744607 1.363726
    1 0.000000 -8.563285 0.000000 0.262299 -0.067910 -0.441440
    2 -0.435133 -3.043624 0.895601 -1.247037 1.437608 -1.233843
    3 0.000000 2.000727 0.853750 0.000000 0.000000 0.000000
    4 0.021119 -3.993921 3.201528 0.000000 0.000000 0.000000
    5 0.021119 -2.845553 1.084931 0.000000 0.000000 0.000000
    6 0.021119 -4.827049 0.994863 0.000000 0.000000 0.000000
    7 0.021119 -5.547592 1.535272 0.000000 0.000000 0.000000
    8 0.021119 -9.375484 3.809488 0.000000 0.000000 0.000000
    9 -0.003480 -0.404829 0.000001 0.000000 0.000000 0.000000
    10 -0.519309 -2.501156 -0.278957 -1.404603 -0.161672 -0.219512
    11 -0.010598 -1.208185 0.000001 -0.740030 0.000000 0.000000
    12 0.000000 -0.763066 0.000000 -1.343903 0.000000 0.000000
    13 0.105981 -2.607135 -0.278957 -1.135143 -0.167988 -0.238861
    14 0.000000 -1.250579 -0.000001 -0.966912 0.000000 0.000000
    15 0.000000 -0.932634 0.000000 -1.431181 0.000000 0.000000
    16 0.763063 -2.490557 -0.278957 -0.318890 -0.041323 0.031656
    17 -0.012322 -1.280917 0.000000 -0.610390 0.000000 0.000000
    18 -0.001697 -0.749371 0.000000 -0.529918 0.000000 0.000000
    19 0.354566 0.016267 0.318133 0.271703 -0.487906 -0.927541
    20 1.887165 0.012877 0.000000 -0.271037 -0.142581 -0.874135
    21 1.001873 -0.000270 0.000000 0.000000 0.000000 -0.902335
    22 -1.123359 -2.195094 -0.278957 -1.253823 -0.147135 -0.327965
    23 0.010772 -0.963791 0.000000 -0.542804 0.000000 0.000000
    24 -0.010412 -0.631916 -0.000001 -1.165881 0.000000 0.000000
    25 0.012206 -7.345689 -8.479069 -1.322436 2.222410 -0.743976
    26 0.089929 -8.543162 0.000001 0.493338 -0.187142 -0.105358
    27 -0.000001 -0.359713 0.000000 0.000000 0.000000 0.000000
    28 -0.170479 -2.636147 -0.277655 -1.326477 0.000000 0.000000
    29 0.010598 -1.261177 0.000000 -1.686300 0.000000 0.000000
    30 -0.000001 -0.943233 -0.000001 -1.196291 0.000000 0.000000
    31 -0.827564 -2.508973 -0.277657 -0.851729 0.000000 0.000000
    32 -0.000001 -1.292971 0.000000 -1.560669 0.000000 0.000000
    33 0.000000 -0.752465 0.000000 -0.843445 0.000000 0.000000
    34 0.444212 -2.561960 -0.277655 -1.570265 -0.041073 -0.026169
    35 0.021022 -1.208186 0.000000 -1.489956 0.000000 0.000000
    36 0.010596 -0.741866 -0.000001 -1.585202 0.000000 0.000000
    37 1.047445 -2.222820 -0.277655 -1.508123 -0.078971 -0.038609
    38 -0.000001 -0.996223 -0.000002 -1.579209 0.000000 0.000000
    39 -0.000001 -0.614690 0.000001 -1.596585 0.000000 0.000000
    40 -0.308255 -0.007814 0.307166 0.103199 -0.109842 -2.214387
    41 1.978378 0.019544 0.000000 -0.104675 0.002387 0.572553
    42 0.982426 0.003186 0.000001 0.000000 0.000000 -0.423422
  time 4
    0 8.090940 2.665641 -9.502692 -1.328970 -1.682379 1.091955
    1 0.000000 -8.563285 0.000000 0.274103 -0.074645 -0.415230
    2 -0.435133 -3.043624 0.895601 -1.247037 1.437608 -1.233843
    3 0.000000 2.000727 0.853750 0.000000 0.000000 0.000000
    4 0.021119 -3.993921 3.201528 0.000000 0.000000 0.000000
    5 0.021119 -2.845553 1.084931 0.000000 0.000000 0.000000
    6 0.021119 -4.827049 0.994863 0.000000 0.000000 0.000000
    7 0.021119 -5.547592 1.535272 0.000000 0.000000 0.000000
    8 0.021119 -9.375484 3.809488 0.000000 0.000000 0.000000
    9 -0.003480 -0.404829 0.000001 0.000000 0.000000 0.000000
    10 -0.519309 -2.501156 -0.278957 -1.404603 -0.161672 -0.219512
    11 -0.010598 -1.208185 0.000001 -0.740030 0.000000 0.000000
    12 0.000000 -0.763066 0.000000 -1.343903 0.000000 0.000000
    13 0.105981 -2.607135 -0.278957 -1.135143 -0.167988 -0.238861
    14 0.000000 -1.250579 -0.000001 -0.966912 0.000000 0.000000
    15 0.000000 -0.932634 0.000000 -1.431181 0.000000 0.000000
    16 0.763063 -2.490557 -0.278957 -0.296514 -0.041323 0.031656
    17 -0.012322 -1.280917 0.000000 -0.578730 0.000000 0.000000
    18 -0.001697 -0.749371 0.000000 -0.506176 0.000000 0.000000
    19 0.354566 0.016267 0.318133 0.271703 -0.487906 -0.927541
    20 1.887165 0.012877 0.000000 -0.271037 -0.142581 -0.874135
    21 1.001873 -0.000270 0.000000 0.000000 0.000000 -0.902335
    22 -1.123359 -2.195094 -0.278957 -1.253823 -0.147135 -0.327965
    23 0.010772 -0.963791 0.000000 -0.542804 0.000000 0.000000
    24 -0.010412 -0.631916 -0.000001 -1.165881 0.000000 0.000000
    25 -0.710472 -6.951146 -8.236875 -1.231398 2.078907 -0.685991
    26 0.089929 -8.543162 0.000001 0.500849 -0.191598 -0.081593
    27 -0.000001 -0.359713 0.000000 0.000000 0.000000 0.000000
    28 -0.170479 -2.636147 -0.277655 -1.326477 0.000000 0.000000
    29 0.010598 -1.261177 0.000000 -1.695611 0.000000 0.000000
    30 -0.000001 -0.943233 -0.000001 -1.202489 0.000000 0.000000
    31 -0.827564 -2.508973 -0.277657 -0.851729 0.000000 0.000000
    32 -0.000001 -1.292971 0.000000 -1.564325 0.000000 0.000000
    33 0.000000 -0.752465 0.000000 -0.847149 0.000000 0.000000
    34 0.444212 -2.561960 -0.277655 -1.570265 -0.041073 -0.026169
    35 0.021022 -1.208186 0.000000 -1.499886 0.000000 0.000000
    36 0.010596 -0.741866 -0.000001 -1.595751 0.000000 0.000000
    37 1.047445 -2.222820 -0.277655 -1.508123 -0.078971 -0.038609
    38 -0.000001 -0.996223 -0.000002 -1.588124 0.000000 0.000000
    39 -0.000001 -0.614690 0.000001 -1.606625 0.000000 0.000000
    40 -0.308255 -0.007814 0.307166 0.102791 -0.110034 -2.211798
    41 1.978378 0.019544 0.000000 -0.104664 0.002746 0.576099
    42 0.982426 0.003186 0.000001 0.000000 0.000000 -0.430950
  time 5
    0 8.071409 2.665641 -9.444097 -0.681063 -1.641319 0.412451
    1 0.000000 -8.563285 0.000000 0.285752 -0.081728 -0.389104
    2 -0.435133 -3.043624 0.895601 -1.247037 1.437608 -1.233843
    3 0.000000 2.000727 0.853750 0.000000 0.000000 0.000000
    4 0.021119 -3.993921 3.201528 0.000000 0.000000 0.000000
    5 0.021119 -2.845553 1.084931 0.000000 0.000000 0.000000
    6 0.021119 -4.827049 0.994863 0.000000 0.000000 0.000000
    7 0.021119 -5.547592 1.535272 0.000000 0.000000 0.000000
    8 0.021119 -9.375484 3.809488 0.000000 0.000000 0.000000
    9 -0.003480 -0.404829 0.000001 0.000000 0.000000 0.000000
    10 -0.519309 -2.501156 -0.278957 -1.404591 -0.161672 -0.219512
    11 -0.010598 -1.208185 0.000001 -0.740030 0.000000 0.000000
    12 0.000000 -0.763066 0.000000 -1.343903 0.000000 0.000000
    13 0.105981 -2.607135 -0.278957 -1.135143 -0.167988 -0.238861
    14 0.000000 -1.250579 -0.000001 -0.966912 0.000000 0.000000
    15 0.000000 -0.932634 0.000000 -1.431181 0.000000 0.000000
    16 0.763063 -2.490557 -0.278957 -0.274426 -0.041323 0.031656
    17 -0.012322 -1.280917 0.000000 -0.545341 0.000000 0.000000
    18 -0.001697 -0.749371 0.000000 -0.481632 0.000000 0.000000
    19 0.354566 0.016267 0.318133 0.271703 -0.487906 -0.927541
    20 1.887165 0.012877 0.000000 -0.271037 -0.142581 -0.874135
    21 1.001873 -0.000270 0.000000 0.000000 0.000000 -0.902335
    22 -1.123359 -2.195094 -0.278957 -1.253823 -0.147135 -0.327965
    23 0.010772 -0.963791 0.000000 -0.542804 0.000000 0.000000
    24 -0.010412 -0.631916 -0.000001 -1.165881 0.000000 0.000000
    25 -1.347210 -6.626917 -8.014212 -1.085710 1.940355 -0.571993
    26 0.089929 -8.543162 0.000001 0.508383 -0.195899 -0.057443
    27 -0.000001 -0.359713 0.000000 0.000000 0.000000 0.000000
    28 -0.170479 -2.636147 -0.277655 -1.326477 0.000000 0.000000
    29 0.010598 -1.261177 0.000000 -1.706061 0.000000 0.000000
    30 -0.000001 -0.943233 -0.000001 -1.209447 0.000000 0.000000
    31 -0.827564 -2.508973 -0.277657 -0.851729 0.000000 0.000000
    32 -0.000001 -1.292971 0.000000 -1.568459 0.000000 0.000000
    33 0.000000 -0.752465 0.000000 -0.851319 0.000000 0.000000
    34 0.444212 -2.561960 -0.277655 -1.570265 -0.041073 -0.026169
    35 0.021022 -1.208186 0.000000 -1.510979 0.000000 0.000000
    36 0.010596 -0.741866 -0.000001 -1.607592 0.000000 0.000000
    37 1.047445 -2.222820 -0.277655 -1.508123 -0.078971 -0.038609
    38 -0.000001 -0.996223 -0.000002 -1.598130 0.000000 0.000000
    39 -0.000001 -0.614690 0.000001 -1.617818 0.000000 0.000000
    40 -0.308255 -0.007814 0.307166 0.102360 -0.110262 -2.208898
    41 1.978378 0.019544 0.000000 -0.104652 0.003178 0.580068
    42 0.982426 0.003186 0.000001 0.000000 0.000000 -0.439426
  time 6
    0 8.051877 2.665641 -9.393314 0.199287 -1.656516 -0.498726
    1 0.000000 -8.563285 0.000000 0.297162 -0.089039 -0.363169
    2 -0.435133 -3.043624 0.895601 -1.247037 1.437608 -1.233843
    3 0.000000 2.000727 0.853750 0.000000 0.000000 0.000000
    4 0.021119 -3.993921 3.201528 0.000000 0.000000 0.000000
    5 0.021119 -2.845553 1.084931 0.000000 0.000000 0.000000
    6 0.021119 -4.827049 0.994863 0.000000 0.000000 0.000000
    7 0.021119 -5.547592 1.535272 0.000000 0.000000 0.000000
    8 0.021119 -9.375484 3.809488 0.000000 0.000000 0.000000
    9 -0.003480 -0.404829 0.000001 0.000000 0.000000 0.000000
    10 -0.519309 -2.501156 -0.278957 -1.404591 -0.161672 -0.219512
    11 -0.010598 -1.208185 0.000001 -0.740030 0.000000 0.000000
    12 0.000000 -0.763066 0.000000 -1.343903 0.000000 0.000000
    13 0.105981 -2.607135 -0.278957 -1.135143 -0.167988 -0.238861
    14 0.000000 -1.250579 -0.000001 -0.966912 0.000000 0.000000
    15 0.000000 -0.932634 0.000000 -1.431181 0.000000 0.000000
    16 0.763063 -2.490557 -0.278957 -0.252529 -0.041323 0.031656
    17 -0.012322 -1.280917 0.000000 -0.510808 0.000000 0.000000
    18 -0.001697 -0.749371 0.000000 -0.456524 0.000000 0.000000
    19 0.354566 0.016267 0.318133 0.271703 -0.487906 -0.927541
    20 1.887165 0.012877 0.000000 -0.271037 -0.142581 -0.874135
    21 1.001873 -0.000270 0.000000 0.000000 0.000000 -0.902335
    22 -1.123359 -2.195094 -0.278957 -1.253823 -0.147135 -0.327965
    23 0.010772 -0.963791 0.000000 -0.542804 0.000000 0.000000
    24 -0.010412 -0.631916 -0.000001 -1.165881 0.000000 0.000000
    25 -1.823787 -6.287063 -7.928271 -0.801497 1.815242 -0.318344
    26 0.089929 -8.543162 0.000001 0.516485 -0.199012 -0.031791
    27 -0.000001 -0.359713 0.000000 0.000000 0.000000 0.000000
    28 -0.170479 -2.636147 -0.277655 -1.326477 0.000000 0.000000
    29 0.010598 -1.261177 0.000000 -1.716968 0.000000 0.000000
    30 -0.000001 -0.943233 -0.000001 -1.216678 0.000000 0.000000
    31 -0.827564 -2.508973 -0.277657 -0.851729 0.000000 0.000000
    32 -0.000001 -1.292971 0.000000 -1.572764 0.000000 0.000000
    33 0.000000 -0.752465 0.000000 -0.855675 0.000000 0.000000
    34 0.444212 -2.561960 -0.277655 -1.570265 -0.041073 -0.026169
    35 0.021022 -1.208186 0.000000 -1.522605 0.000000 0.000000
    36 0.010596 -0.741866 -0.000001 -1.619948 0.000000 0.000000
    37 1.047445 -2.222820 -0.277655 -1.508123 -0.078971 -0.038609
    38 -0.000001 -0.996223 -0.000002 -1.608572 0.000000 0.000000
    39 -0.000001 -0.614690 0.000001 -1.629572 0.000000 0.000000
    40 -0.308255 -0.007814 0.307166 0.101880 -0.110489 -2.205878
    41 1.978378 0.019544 0.000000 -0.104640 0.003609 0.584225
    42 0.982426 0.003186 0.000001 0.000000 0.000000 -0.448218
  time 7
    0 8.036251 2.665641 -9.350344 0.582259 -1.706911 -0.911136
    1 0.000000 -8.563285 0.000000 0.308235 -0.096565 -0.337618
    2 -0.435133 -3.043624 0.895601 -1.247037 1.437608 -1.233843
    3 0.000000 2.000727 0.853750 0.000000 0.000000 0.000000
    4 0.021119 -3.993921 3.201528 0.000000 0.000000 0.000000
    5 0.021119 -2.845553 1.084931 0.000000 0.000000 0.000000
    6 0.021119 -4.827049 0.994863 0.000000 0.000000 0.000000
    7 0.021119 -5.547592 1.535272 0.000000 0.000000 0.000000
    8 0.021119 -9.375484 3.809488 0.000000 0.000000 0.000000
    9 -0.003480 -0.404829 0.000001 0.000000 0.000000 0.000000
    10 -0.519309 -2.501156 -0.278957 -1.404603 -0.161672 -0.219512
    11 -0.010598 -1.208185 0.000001 -0.740030 0.000000 0.000000
    12 0.000000 -0.763066 0.000000 -1.343903 0.000000 0.000000
    13 0.105981 -2.607135 -0.278957 -1.135143 -0.167988 -0.238861
    14 0.000000 -1.250579 -0.000001 -0.966912 0.000000 0.000000
    15 0.000000 -0.932634 0.000000 -1.431181 0.000000 0.000000
    16 0.763063 -2.490557 -0.278957 -0.230753 -0.041323 0.031656
    17 -0.012322 -1.280917 0.000000 -0.475737 0.000000 0.000000
    18 -0.001697 -0.749371 0.000000 -0.431141 0.000000 0.000000
    19 0.354566 0.016267 0.318133 0.271703 -0.487906 -0.927541
    20 1.887165 0.012877 0.000000 -0.271037 -0.142581 -0.874135
    21 1.001873 -0.000270 0.000000 0.000000 0.000000 -0.902335
    22 -1.123359 -2.195094 -0.278957 -1.253823 -0.147135 -0.327965
    23 0.010772 -0.963791 0.000000 -0.542804 0.000000 0.000000
    24 -0.010412 -0.631916 -0.000001 -1.165881 0.000000 0.000000
    25 -2.081608 -5.857362 -8.064994 -0.159130 1.735710 0.294526
    26 0.089929 -8.543162 0.000001 0.525680 -0.200044 -0.003458
    27 -0.000001 -0.359713 0.000000 0.000000 0.000000 0.000000
    28 -0.170479 -2.636147 -0.277655 -1.326477 0.000000 0.000000
    29 0.010598 -1.261177 0.000000 -1.727646 0.000000 0.000000
    30 -0.000001 -0.943233 -0.000001 -1.223788 0.000000 0.000000
    31 -0.827564 -2.508973 -0.277657 -0.851729 0.000000 0.000000
    32 -0.000001 -1.292971 0.000000 -1.576967 0.000000 0.000000
    33 0.000000 -0.752465 0.000000 -0.859939 0.000000 0.000000
    34 0.444212 -2.561960 -0.277655 -1.570265 -0.041073 -0.026169
    35 0.021022 -1.208186 0.000000 -1.533940 0.000000 0.000000
    36 0.010596 -0.741866 -0.000001 -1.632010 0.000000 0.000000
    37 1.047445 -2.222820 -0.277655 -1.508123 -0.078971 -0.038609
    38 -0.000001 -0.996223 -0.000002 -1.618796 0.000000 0.000000
    39 -0.000001 -0.614690 0.000001 -1.640975 0.000000 0.000000
    40 -0.308255 -0.007814 0.307166 0.101449 -0.110693 -2.202917
    41 1.978378 0.019544 0.000000 -0.104640 0.004041 0.588287
    42 0.982426 0.003186 0.000001 0.000000 0.000000 -0.456878
  time 8
    0 8.024532 2.665641 -9.315186 0.731349 -1.762952 -1.087787
    1 0.000000 -8.563285 0.000000 0.318950 -0.104211 -0.312546
    2 -0.435133 -3.043624 0.895601 -1.247037 1.437608 -1.233843
    3 0.000000 2.000727 0.853750 0.000000 0.000000 0.000000
    4 0.021119 -3.993921 3.201528 0.000000 0.000000 0.000000
    5 0.021119 -2.845553 1.084931 0.000000 0.000000 0.000000
    6 0.021119 -4.827049 0.994863 0.000000 0.000000 0.000000
    7 0.021119 -5.547592 1.535272 0.000000 0.000000 0.000000
    8 0.021119 -9.375484 3.809488 0.000000 0.000000 0.000000
    9 -0.003480 -0.404829 0.000001 0.000000 0.000000 0.000000
    10 -0.519309 -2.501156 -0.278957 -1.404603 -0.161672 -0.219512
    11 -0.010598 -1.208185 0.000001 -0.740030 0.000000 0.000000
    12 0.000000 -0.763066 0.000000 -1.343903 0.000000 0.000000
    13 0.105981 -2.607135 -0.278957 -1.135143 -0.167988 -0.238861
    14 0.000000 -1.250579 -0.000001 -0.966912 0.000000 0.000000
    15 0.000000 -0.932634 0.000000 -1.431181 0.000000 0.000000
    16 0.763063 -2.490557 -0.278957 -0.208952 -0.041323 0.031656
    17 -0.012322 -1.280917 0.000000 -0.440633 0.000000 0.000000
    18 -0.001697 -0.749371 0.000000 -0.405757 0.000000 0.000000
    19 0.354566 0.016267 0.318133 0.271703 -0.487906 -0.927541
    20 1.887165 0.012877 0.000000 -0.271037 -0.142581 -0.874135
    21 1.001873 -0.000270 0.000000 0.000000 0.000000 -0.902335
    22 -1.123359 -2.195094 -0.278957 -1.253823 -0.147135 -0.327965
    23 0.010772 -0.963791 0.000000 -0.542804 0.000000 0.000000
    24 -0.010412 -0.631916 -0.000001 -1.165881 0.000000 0.000000
    25 -2.226143 -5.490163 -8.283751 0.674475 1.764238 1.099417
    26 0.089929 -8.543162 0.000001 0.536536 -0.198059 0.028757
    27 -0.000001 -0.359713 0.000000 0.000000 0.000000 0.000000
    28 -0.170479 -2.636147 -0.277655 -1.326477 0.000000 0.000000
    29 0.010598 -1.261177 0.000000 -1.737380 0.000000 0.000000
    30 -0.000001 -0.943233 -0.000001 -1.230290 0.000000 0.000000
    31 -0.827564 -2.508973 -0.277657 -0.851729 0.000000 0.000000
    32 -0.000001 -1.292971 0.000000 -1.580794 0.000000 0.000000
    33 0.000000 -0.752465 0.000000 -0.863828 0.000000 0.000000
    34 0.444212 -2.561960 -0.277655 -1.570265 -0.041073 -0.026169
    35 0.021022 -1.208186 0.000000 -1.544306 0.000000 0.000000
    36 0.010596 -0.741866 -0.000001 -1.643075 0.000000 0.000000
    37 1.047445 -2.222820 -0.277655 -1.508123 -0.078971 -0.038609
    38 -0.000001 -0.996223 -0.000002 -1.628147 0.000000 0.000000
    39 -0.000001 -0.614690 0.000001 -1.651469 0.000000 0.000000
    40 -0.308255 -0.007814 0.307166 0.101029 -0.110909 -2.200209
    41 1.978378 0.019544 0.000000 -0.104616 0.004436 0.592021
    42 0.982426 0.003186 0.000001 0.000000 0.000000 -0.464748
  time 9
    0 8.012813 2.665641 -9.287842 0.801130 -1.816674 -1.182982
    1 0.000000 -8.563285 0.000000 0.329221 -0.111953 -0.288158
    2 -0.435133 -3.043624 0.895601 -1.247037 1.437608 -1.233843
    3 0.000000 2.000727 0.853750 0.000000 0.000000 0.000000
    4 0.021119 -3.993921 3.201528 0.000000 0.000000 0.000000
    5 0.021119 -2.845553 1.084931 0.000000 0.000000 0.000000
    6 0.021119 -4.827049 0.994863 0.000000 0.000000 0.000000
    7 0.021119 -5.547592 1.535272 0.000000 0.000000 0.000000
    8 0.021119 -9.375484 3.809488 0.000000 0.000000 0.000000
    9 -0.003480 -0.404829 0.000001 0.000000 0.000000 0.000000
    10 -0.519309 -2.501156 -0.278957 -1.404603 -0.161672 -0.219512
    11 -0.010598 -1.208185 0.000001 -0.740030 0.000000 0.000000
    12 0.000000 -0.763066 0.000000 -1.343903 0.000000 0.000000
    13 0.105981 -2.607135 -0.278957 -1.135143 -0.167988 -0.238861
    14 0.000000 -1.250579 -0.000001 -0.966912 0.000000 0.000000
    15 0.000000 -0.932634 0.000000 -1.431181 0.000000 0.000000
    16 0.763063 -2.490557 -0.278957 -0.187055 -0.041323 0.031656
    17 -0.012322 -1.280917 0.000000 -0.406101 0.000000 0.000000
    18 -0.001697 -0.749371 0.000000 -0.380662 0.000000 0.000000
    19 0.354566 0.016267 0.318133 0.271703 -0.487906 -0.927541
    20 1.887165 0.012877 0.000000 -0.271037 -0.142581 -0.874135
    21 1.001873 -0.000270 0.000000 0.000000 0.000000 -0.902335
    22 -1.123359 -2.195094 -0.278957 -1.253823 -0.147135 -0.327965
    23 0.010772 -0.963791 0.000000 -0.542804 0.000000 0.000000
    24 -0.010412 -0.631916 -0.000001 -1.165881 0.000000 0.000000
    25 -2.331615 -5.333909 -8.502508 1.097859 1.867897 1.495069
    26 0.089929 -8.543162 0.000001 0.549782 -0.192260 0.065969
    27 -0.000001 -0.359713 0.000000 0.000000 0.000000 0.000000
    28 -0.170479 -2.636147 -0.277655 -1.326477 0.000000 0.000000
    29 0.010598 -1.261177 0.000000 -1.745552 0.000000 0.000000
    30 -0.000001 -0.943233 -0.000001 -1.235698 0.000000 0.000000
    31 -0.827564 -2.508973 -0.277657 -0.851729 0.000000 0.000000
    32 -0.000001 -1.292971 0.000000 -1.584006 0.000000 0.000000
    33 0.000000 -0.752465 0.000000 -0.867096 0.000000 0.000000
    34 0.444212 -2.561960 -0.277655 -1.570265 -0.041073 -0.026169
    35 0.021022 -1.208186 0.000000 -1.552977 0.000000 0.000000
    36 0.010596 -0.741866 -0.000001 -1.652333 0.000000 0.000000
    37 1.047445 -2.222820 -0.277655 -1.508123 -0.078971 -0.038609
    38 -0.000001 -0.996223 -0.000002 -1.635970 0.000000 0.000000
    39 -0.000001 -0.614690 0.000001 -1.660249 0.000000 0.000000
    40 -0.308255 -0.007814 0.307166 0.100682 -0.111077 -2.197932
    41 1.978378 0.019544 0.000000 -0.104604 0.004760 0.595144
    42 0.982426 0.003186 0.000001 0.000000 0.000000 -0.471355
  time 10
    0 8.005000 2.665641 -9.268310 0.837459 -1.865252 -1.242162
    1 0.000000 -8.563285 0.000000 0.339012 -0.119683 -0.264548
    2 -0.435133 -3.043624 0.895601 -1.247037 1.437608 -1.233843
    3 0.000000 2.000727 0.853750 0.000000 0.000000 0.000000
    4 0.021119 -3.993921 3.201528 0.000000 0.000000 0.000000
    5 0.021119 -2.845553 1.084931 0.000000 0.000000 0.000000
    6 0.021119 -4.827049 0.994863 0.000000 0.000000 0.000000
    7 0.021119 -5.547592 1.535272 0.000000 0.000000 0.000000
    8 0.021119 -9.375484 3.809488 0.000000 0.000000 0.000000
    9 -0.003480 -0.404829 0.000001 0.000000 0.000000 0.000000
    10 -0.519309 -2.501156 -0.278957 -1.404591 -0.161672 -0.219512
    11 -0.010598 -1.208185 0.000001 -0.740030 0.000000 0.000000
    12 0.000000 -0.763066 0.000000 -1.343903 0.000000 0.000000
    13 0.105981 -2.607135 -0.278957 -1.135143 -0.167988 -0.238861
    14 0.000000 -1.250579 -0.000001 -0.966912 0.000000 0.000000
    15 0.000000 -0.932634 0.000000 -1.431181 0.000000 0.000000
    16 0.763063 -2.490557 -0.278957 -0.164967 -0.041323 0.031656
    17 -0.012322 -1.280917 0.000000 -0.372727 0.000000 0.000000
    18 -0.001697 -0.749371 0.000000 -0.356093 0.000000 0.000000
    19 0.354566 0.016267 0.318133 0.271703 -0.487906 -0.927541
    20 1.887165 0.012877 0.000000 -0.271037 -0.142581 -0.874135
    21 1.001873 -0.000270 0.000000 0.000000 0.000000 -0.902335
    22 -1.123359 -2.195094 -0.278957 -1.253823 -0.147135 -0.327965
    23 0.010772 -0.963791 0.000000 -0.542804 0.000000 0.000000
    24 -0.010412 -0.631916 -0.000001 -1.165881 0.000000 0.000000
    25 -2.378492 -5.330002 -8.748609 -1.850021 1.150224 -1.479801
    26 0.089929 -8.543162 0.000001 0.566169 -0.181927 0.109465
    27 -0.000001 -0.359713 0.000000 0.000000 0.000000 0.000000
    28 -0.170479 -2.636147 -0.277655 -1.326477 0.000000 0.000000
    29 0.010598 -1.261177 0.000000 -1.751444 0.000000 0.000000
    30 -0.000001 -0.943233 -0.000001 -1.239648 0.000000 0.000000
    31 -0.827564 -2.508973 -0.277657 -0.851729 0.000000 0.000000
    32 -0.000001 -1.292971 0.000000 -1.586329 0.000000 0.000000
    33 0.000000 -0.752465 0.000000 -0.869430 0.000000 0.000000
    34 0.444212 -2.561960 -0.277655 -1.570265 -0.041073 -0.026169
    35 0.021022 -1.208186 0.000000 -1.559323 0.000000 0.000000
    36 0.010596 -0.741866 -0.000001 -1.659046 0.000000 0.000000
    37 1.047445 -2.222820 -0.277655 -1.508123 -0.078971 -0.038609
    38 -0.000001 -0.996223 -0.000002 -1.641612 0.000000 0.000000
    39 -0.000001 -0.614690 0.000001 -1.666651 0.000000 0.000000
    40 -0.308255 -0.007814 0.307166 0.100418 -0.111197 -2.196290
    41 1.978378 0.019544 0.000000 -0.104592 0.004987 0.597375
    42 0.982426 0.003186 0.000001 0.000000 0.000000 -0.476119
  time 11
    0 7.981562 2.646109 -9.233153 0.846988 -1.890917 -1.263770
    1 0.000000 -8.563285 0.000000 0.348240 -0.127329 -0.241849
    2 -0.435133 -3.043624 0.895601 -1.247037 1.437608 -1.233843
    3 0.000000 2.000727 0.853750 0.000000 0.000000 0.000000
    4 0.021119 -3.993921 3.201528 0.000000 0.000000 0.000000
    5 0.021119 -2.845553 1.084931 0.000000 0.000000 0.000000
    6 0.021119 -4.827049 0.994863 0.000000 0.000000 0.000000
    7 0.021119 -5.547592 1.535272 0.000000 0.000000 0.000000
    8 0.021119 -9.375484 3.809488 0.000000 0.000000 0.000000
    9 -0.003480 -0.404829 0.000001 0.000000 0.000000 0.000000
    10 -0.519309 -2.501156 -0.278957 -1.404603 -0.161672 -0.219512
    11 -0.010598 -1.208185 0.000001 -0.740030 0.000000 0.000000
    12 0.000000 -0.763066 0.000000 -1.343903 0.000000 0.000000
    13 0.105981 -2.607135 -0.278957 -1.135143 -0.167988 -0.238861
    14 0.000000 -1.250579 -0.000001 -0.966912 0.000000 0.000000
    15 0.000000 -0.932634 0.000000 -1.431181 0.000000 0.000000
    16 0.763063 -2.490557 -0.278957 -0.142568 -0.041323 0.031656
    17 -0.012322 -1.280917 0.000000 -0.341067 0.000000 0.000000
    18 -0.001697 -0.749371 0.000000 -0.332376 0.000000 0.000000
    19 0.354566 0.016267 0.318133 0.271703 -0.487906 -0.927541
    20 1.887165 0.012877 0.000000 -0.271037 -0.142581 -0.874135
    21 1.001873 -0.000270 0.000000 0.000000 0.000000 -0.902335
    22 -1.123359 -2.195094 -0.278957 -1.253823 -0.147135 -0.327965
    23 0.010772 -0.963791 0.000000 -0.542804 0.000000 0.000000
    24 -0.010412 -0.631916 -0.000001 -1.165881 0.000000 0.000000
    25 -2.382398 -5.423755 -9.002523 -1.742271 1.023618 -1.398211
    26 0.089929 -8.543162 0.000001 0.586676 -0.166495 0.160469
    27 -0.000001 -0.359713 0.000000 0.000000 0.000000 0.000000
    28 -0.170479 -2.636147 -0.277655 -1.326477 0.000000 0.000000
    29 0.010598 -1.261177 0.000000 -1.754407 0.000000 0.000000
    30 -0.000001 -0.943233 -0.000001 -1.241623 0.000000 0.000000
    31 -0.827564 -2.508973 -0.277657 -0.851729 0.000000 0.000000
    32 -0.000001 -1.292971 0.000000 -1.587525 0.000000 0.000000
    33 0.000000 -0.752465 0.000000 -0.870612 0.000000 0.000000
    34 0.444212 -2.561960 -0.277655 -1.570265 -0.041073 -0.026169
    35 0.021022 -1.208186 0.000000 -1.562423 0.000000 0.000000
    36 0.010596 -0.741866 -0.000001 -1.662440 0.000000 0.000000
    37 1.047445 -2.222820 -0.277655 -1.508123 -0.078971 -0.038609
    38 -0.000001 -0.996223 -0.000002 -1.644480 0.000000 0.000000
    39 -0.000001 -0.614690 0.000001 -1.669834 0.000000 0.000000
    40 -0.308255 -0.007814 0.307166 0.100286 -0.111256 -2.195463
    41 1.978378 0.019544 0.000000 -0.104592 0.005107 0.598503
    42 0.982426 0.003186 0.000001 0.000000 0.000000 -0.478541
  time 12
    0 7.946405 2.614858 -9.197995 0.839379 -1.888219 -1.254934
    1 0.000000 -8.563285 0.000000 0.356929 -0.134856 -0.220253
    2 -0.435133 -3.043624 0.895601 -1.247037 1.437608 -1.233843
    3 0.000000 2.000727 0.853750 0.000000 0.000000 0.000000
    4 0.021119 -3.993921 3.201528 0.000000 0.000000 0.000000
    5 0.021119 -2.845553 1.084931 0.000000 0.000000 0.000000
    6 0.021119 -4.827049 0.994863 0.000000 0.000000 0.000000
    7 0.021119 -5.547592 1.535272 0.000000 0.000000 0.000000
    8 0.021119 -9.375484 3.809488 0.000000 0.000000 0.000000
    9 -0.003480 -0.404829 0.000001 0.000000 0.000000 0.000000
    10 -0.519309 -2.501156 -0.278957 -1.404591 -0.161672 -0.219512
    11 -0.010598 -1.208185 0.000001 -0.740030 0.000000 0.000000
    12 0.000000 -0.763066 0.000000 -1.343903 0.000000 0.000000
    13 0.105981 -2.607135 -0.278957 -1.135143 -0.167988 -0.238861
    14 0.000000 -1.250579 -0.000001 -0.966912 0.000000 0.000000
    15 0.000000 -0.932634 0.000000 -1.431181 0.000000 0.000000
    16 0.763063 -2.490557 -0.278957 -0.119809 -0.041323 0.031656
    17 -0.012322 -1.280917 0.000000 -0.311693 0.000000 0.000000
    18 -0.001697 -0.749371 0.000000 -0.309737 0.000000 0.000000
    19 0.354566 0.016267 0.318133 0.271703 -0.487906 -0.927541
    20 1.887165 0.012877 0.000000 -0.271037 -0.142581 -0.874135
    21 1.001873 -0.000270 0.000000 0.000000 0.000000 -0.902335
    22 -1.123359 -2.195094 -0.278957 -1.253823 -0.147135 -0.327965
    23 0.010772 -0.963791 0.000000 -0.542804 0.000000 0.000000
    24 -0.010412 -0.631916 -0.000001 -1.165881 0.000000 0.000000
    25 -2.370679 -5.697201 -9.139246 -1.713302 0.952652 -1.388193
    26 0.089929 -8.543162 0.000001 0.624366 -0.138279 0.238496
    27 -0.000001 -0.359713 0.000000 0.000000 0.000000 0.000000
    28 -0.170479 -2.636147 -0.277655 -1.326477 0.000000 0.000000
    29 0.010598 -1.261177 0.000000 -1.753756 0.000000 0.000000
    30 -0.000001 -0.943233 -0.000001 -1.241167 0.000000 0.000000
    31 -0.827564 -2.508973 -0.277657 -0.851729 0.000000 0.000000
    32 -0.000001 -1.292971 0.000000 -1.587218 0.000000 0.000000
    33 0.000000 -0.752465 0.000000 -0.870332 0.000000 0.000000
    34 0.444212 -2.561960 -0.277655 -1.570265 -0.041073 -0.026169
    35 0.021022 -1.208186 0.000000 -1.561745 0.000000 0.000000
    36 0.010596 -0.741866 -0.000001 -1.661628 0.000000 0.000000
    37 1.047445 -2.222820 -0.277655 -1.508123 -0.078971 -0.038609
    38 -0.000001 -0.996223 -0.000002 -1.643794 0.000000 0.000000
    39 -0.000001 -0.614690 0.000001 -1.669064 0.000000 0.000000
    40 -0.308255 -0.007814 0.307166 0.100322 -0.111244 -2.195667
    41 1.978378 0.019544 0.000000 -0.104592 0.005071 0.598244
    42 0.982426 0.003186 0.000001 0.000000 0.000000 -0.477962
  time 13
    0 7.942498 2.607046 -9.197995 0.830468 -1.874065 -1.239341
    1 0.000000 -8.563285 0.000000 0.359326 -0.145426 -0.220864
    2 -0.435133 -3.043624 0.895601 -1.247037 1.437608 -1.233843
    3 0.000000 2.000727 0.853750 0.000000 0.000000 0.000000
    4 0.021119 -3.993921 3.201528 0.000000 0.000000 0.000000
    5 0.021119 -2.845553 1.084931 0.000000 0.000000 0.000000
    6 0.021119 -4.827049 0.994863 0.000000 0.000000 0.000000
    7 0.021119 -5.547592 1.535272 0.000000 0.000000 0.000000
    8 0.021119 -9.375484 3.809488 0.000000 0.000000 0.000000
    9 -0.003480 -0.404829 0.000001 0.000000 0.000000 0.000000
    10 -0.519309 -2.501156 -0.278957 -1.404603 -0.161672 -0.219512
    11 -0.010598 -1.208185 0.000001 -0.740030 0.000000 0.000000
    12 0.000000 -0.763066 0.000000 -1.343903 0.000000 0.000000
    13 0.105981 -2.607135 -0.278957 -1.135143 -0.167988 -0.238861
    14 0.000000 -1.250579 -0.000001 -0.966912 0.000000 0.000000
    15 0.000000 -0.932634 0.000000 -1.431181 0.000000 0.000000
    16 0.763063 -2.490557 -0.278957 -0.096522 -0.041323 0.031656
    17 -0.012322 -1.280917 0.000000 -0.285174 0.000000 0.000000
    18 -0.001697 -0.749371 0.000000 -0.288464 0.000000 0.000000
    19 0.354566 0.016267 0.318133 0.271703 -0.487906 -0.927541
    20 1.887165 0.012877 0.000000 -0.271037 -0.142581 -0.874135
    21 1.001873 -0.000270 0.000000 0.000000 0.000000 -0.902335
    22 -1.123359 -2.195094 -0.278957 -1.253823 -0.147135 -0.327965
    23 0.010772 -0.963791 0.000000 -0.542804 0.000000 0.000000
    24 -0.010412 -0.631916 -0.000001 -1.165881 0.000000 0.000000
    25 -2.269114 -5.884707 -9.545508 -1.714979 0.904635 -1.365044
    26 0.089929 -8.543162 0.000001 0.685635 -0.097783 0.351077
    27 -0.000001 -0.359713 0.000000 0.000000 0.000000 0.000000
    28 -0.170479 -2.636147 -0.277655 -1.326477 0.000000 0.000000
    29 0.010598 -1.261177 0.000000 -1.748742 0.000000 0.000000
    30 -0.000001 -0.943233 -0.000001 -1.237825 0.000000 0.000000
    31 -0.827564 -2.508973 -0.277657 -0.851729 0.000000 0.000000
    32 -0.000001 -1.292971 0.000000 -1.585236 0.000000 0.000000
    33 0.000000 -0.752465 0.000000 -0.868341 0.000000 0.000000
    34 0.444212 -2.561960 -0.277655 -1.570265 -0.041073 -0.026169
    35 0.021022 -1.208186 0.000000 -1.556368 0.000000 0.000000
    36 0.010596 -0.741866 -0.000001 -1.655948 0.000000 0.000000
    37 1.047445 -2.222820 -0.277655 -1.508123 -0.078971 -0.038609
    38 -0.000001 -0.996223 -0.000002 -1.639025 0.000000 0.000000
    39 -0.000001 -0.614690 0.000001 -1.663712 0.000000 0.000000
    40 -0.308255 -0.007814 0.307166 0.100550 -0.111149 -2.197057
    41 1.978378 0.019544 0.000000 -0.104604 0.004879 0.596342
    42 0.982426 0.003186 0.000001 0.000000 0.000000 -0.473935
  time 14
    0 8.005000 2.665641 -9.268310 0.837459 -1.865252 -1.242162
    1 0.000000 -8.563285 0.000000 0.356929 -0.134856 -0.220253
    2 -0.435133 -3.043624 0.895601 -1.247037 1.437608 -1.233843
    3 0.000000 2.000727 0.853750 0.000000 0.000000 0.000000
    4 0.021119 -3.993921 3.201528 0.000000 0.000000 0.000000
    5 0.021119 -2.845553 1.084931 0.000000 0.000000 0.000000
    6 0.021119 -4.827049 0.994863 0.000000 0.000000 0.000000
    7 0.021119 -5.547592 1.535272 0.000000 0.000000 0.000000
    8 0.021119 -8.402799 3.809488 0.000000 0.000000 0.000000
    9 -0.003480 -0.404829 0.000001 0.000000 0.000000 0.000000
    10 -0.519309 -2.501156 -0.278957 -1.404603 -0.161672 -0.219512
    11 -0.010598 -1.208185 0.000001 -0.740030 0.000000 0.000000
    12 0.000000 -0.763066 0.000000 -1.343903 0.000000 0.000000
    13 0.105981 -2.607135 -0.278957 -1.135143 -0.167988 -0.238861
    14 0.000000 -1.250579 -0.000001 -0.966912 0.000000 0.000000
    15 0.000000 -0.932634 0.000000 -1.431181 0.000000 0.000000
    16 0.763063 -2.490557 -0.278957 -0.072685 -0.041323 0.031656
    17 -0.012322 -1.280917 0.000000 -0.262068 0.000000 0.000000
    18 -0.001697 -0.749371 0.000000 -0.268845 0.000000 0.000000
    19 0.354566 0.016267 0.318133 0.271703 -0.487906 -0.927541
    20 1.887165 0.012877 0.000000 -0.271037 -0.142581 -0.874135
    21 1.001873 -0.000270 0.000000 0.000000 0.000000 -0.902335
    22 -1.123359 -2.195094 -0.278957 -1.253823 -0.147135 -0.327965
    23 0.010772 -0.963791 0.000000 -0.542804 0.000000 0.000000
    24 -0.010412 -0.631916 -0.000001 -1.165881 0.000000 0.000000
    25 -2.023012 -5.705014 -10.604134 -1.729045 0.803176 -1.287629
    26 0.089929 -8.543162 0.000001 0.760378 -0.055594 0.481094
    27 -0.000001 -0.359713 0.000000 0.000000 0.000000 0.000000
    28 -0.170479 -2.636147 -0.277655 -1.326477 0.000000 0.000000
    29 0.010598 -1.261177 0.000000 -1.738780 0.000000 0.000000
    30 -0.000001 -0.943233 -0.000001 -1.231171 0.000000 0.000000
    31 -0.827564 -2.508973 -0.277657 -0.851729 0.000000 0.000000
    32 -0.000001 -1.292971 0.000000 -1.581341 0.000000 0.000000
    33 0.000000 -0.752465 0.000000 -0.864358 0.000000 0.000000
    34 0.444212 -2.561960 -0.277655 -1.570265 -0.041073 -0.026169
    35 0.021022 -1.208186 0.000000 -1.545808 0.000000 0.000000
    36 0.010596 -0.741866 -0.000001 -1.644624 0.000000 0.000000
    37 1.047445 -2.222820 -0.277655 -1.508123 -0.078971 -0.038609
    38 -0.000001 -0.996223 -0.000002 -1.629456 0.000000 0.000000
    39 -0.000001 -0.614690 0.000001 -1.652974 0.000000 0.000000
    40 -0.308255 -0.007814 0.307166 0.100969 -0.110945 -2.199825
    41 1.978378 0.019544 0.000000 -0.104616 0.004496 0.592538
    42 0.982426 0.003186 0.000001 0.000000 0.000000 -0.465854
  time 15
    0 8.192506 2.837521 -9.467535 0.886334 -1.864371 -1.290131
    1 0.000000 -8.563285 0.000000 0.356354 -0.060120 -0.169222
    2 -0.435133 -3.043624 0.895601 -1.247037 1.437608 -1.233843
    3 0.000000 2.000727 0.853750 0.000000 0.000000 0.000000
    4 0.021119 -3.993921 3.201528 0.000000 0.000000 0.000000
    5 0.021119 -2.845553 1.084931 0.000000 0.000000 0.000000
    6 0.021119 -4.827049 0.994863 0.000000 0.000000 0.000000
    7 0.021119 -5.547592 1.535272 0.000000 0.000000 0.000000
    8 0.021119 -6.598056 3.809488 0.000000 0.000000 0.000000
    9 -0.003480 -0.404829 0.000001 0.000000 0.000000 0.000000
    10 -0.519309 -2.501156 -0.278957 -1.404591 -0.161672 -0.219512
    11 -0.010598 -1.208185 0.000001 -0.740030 0.000000 0.000000
    12 0.000000 -0.763066 0.000000 -1.343903 0.000000 0.000000
    13 0.105981 -2.607135 -0.278957 -1.135143 -0.167988 -0.238861
    14 0.000000 -1.250579 -0.000001 -0.966912 0.000000 0.000000
    15 0.000000 -0.932634 0.000000 -1.431181 0.000000 0.000000
    16 0.763063 -2.490557 -0.278957 -0.048130 -0.041323 0.031656
    17 -0.012322 -1.280917 0.000000 -0.242977 0.000000 0.000000
    18 -0.001697 -0.749371 0.000000 -0.251156 0.000000 0.000000
    19 0.354566 0.016267 0.318133 0.271703 -0.487906 -0.927541
    20 1.887165 0.012877 0.000000 -0.271037 -0.142581 -0.874135
    21 1.001873 -0.000270 0.000000 0.000000 0.000000 -0.902335
    22 -1.123359 -2.195094 -0.278957 -1.253823 -0.147135 -0.327965
    23 0.010772 -0.963791 0.000000 -0.542804 0.000000 0.000000
    24 -0.010412 -0.631916 -0.000001 -1.165881 0.000000 0.000000
    25 -1.815975 -4.642481 -11.221341 -1.767950 0.686158 -1.200802
    26 0.089929 -8.543162 0.000001 0.835872 -0.018056 0.610104
    27 -0.000001 -0.359713 0.000000 0.000000 0.000000 0.000000
    28 -0.170479 -2.636147 -0.277655 -1.326477 0.000000 0.000000
    29 0.010598 -1.261177 0.000000 -1.723088 0.000000 0.000000
    30 -0.000001 -0.943233 -0.000001 -1.220780 0.000000 0.000000
    31 -0.827564 -2.508973 -0.277657 -0.851729 0.000000 0.000000
    32 -0.000001 -1.292971 0.000000 -1.575156 0.000000 0.000000
    33 0.000000 -0.752465 0.000000 -0.858103 0.000000 0.000000
    34 0.444212 -2.561960 -0.277655 -1.570265 -0.041073 -0.026169
    35 0.021022 -1.208186 0.000000 -1.529096 0.000000 0.000000
    36 0.010596 -0.741866 -0.000001 -1.626919 0.000000 0.000000
    37 1.047445 -2.222820 -0.277655 -1.508123 -0.078971 -0.038609
    38 -0.000001 -0.996223 -0.000002 -1.614463 0.000000 0.000000
    39 -0.000001 -0.614690 0.000001 -1.636148 0.000000 0.000000
    40 -0.308255 -0.007814 0.307166 0.101641 -0.110609 -2.204176
    41 1.978378 0.019544 0.000000 -0.104640 0.003861 0.586573
    42 0.982426 0.003186 0.000001 0.000000 0.000000 -0.453166
  time 16
    0 8.434701 3.060184 -9.721449 0.954743 -1.864281 -1.357257
    1 0.000000 -8.563285 0.000000 0.358691 0.004993 -0.127073
    2 -0.435133 -3.043624 0.895601 -1.247037 1.437608 -1.233843
    3 0.000000 2.000727 0.853750 0.000000 0.000000 0.000000
    4 0.021119 -3.993921 3.201528 0.000000 0.000000 0.000000
    5 0.021119 -2.845553 1.084931 0.000000 0.000000 0.000000
    6 0.021119 -4.827049 0.994863 0.000000 0.000000 0.000000
    7 0.021119 -5.547592 1.535272 0.000000 0.000000 0.000000
    8 0.021119 -5.621464 3.809488 0.000000 0.000000 0.000000
    9 -0.003480 -0.404829 0.000001 0.000000 0.000000 0.000000
    10 -0.519309 -2.501156 -0.278957 -1.404591 -0.161672 -0.219512
    11 -0.010598 -1.208185 0.000001 -0.740030 0.000000 0.000000
    12 0.000000 -0.763066 0.000000 -1.343903 0.000000 0.000000
    13 0.105981 -2.607135 -0.278957 -1.135143 -0.167988 -0.238861
    14 0.000000 -1.250579 -0.000001 -0.966912 0.000000 0.000000
    15 0.000000 -0.932634 0.000000 -1.431181 0.000000 0.000000
    16 0.763063 -2.490557 -0.278957 -0.022783 -0.041323 0.031656
    17 -0.012322 -1.280917 0.000000 -0.228457 0.000000 0.000000
    18 -0.001697 -0.749371 0.000000 -0.235672 0.000000 0.000000
    19 0.354566 0.016267 0.318133 0.271703 -0.487906 -0.927541
    20 1.887165 0.012877 0.000000 -0.271037 -0.142581 -0.874135
    21 1.001873 -0.000270 0.000000 0.000000 0.000000 -0.902335
    22 -1.123359 -2.195094 -0.278957 -1.253823 -0.147135 -0.327965
    23 0.010772 -0.963791 0.000000 -0.542804 0.000000 0.000000
    24 -0.010412 -0.631916 -0.000001 -1.165881 0.000000 0.000000
    25 -1.476121 -4.486227 -11.670573 -1.791049 0.589022 -1.106462
    26 0.089929 -8.543162 0.000001 0.897277 0.014597 0.718202
    27 -0.000001 -0.359713 0.000000 0.000000 0.000000 0.000000
    28 -0.170479 -2.636147 -0.277655 -1.326477 0.000000 0.000000
    29 0.010598 -1.261177 0.000000 -1.701048 0.000000 0.000000
    30 -0.000001 -0.943233 -0.000001 -1.206105 0.000000 0.000000
    31 -0.827564 -2.508973 -0.277657 -0.851729 0.000000 0.000000
    32 -0.000001 -1.292971 0.000000 -1.566478 0.000000 0.000000
    33 0.000000 -0.752465 0.000000 -0.849327 0.000000 0.000000
    34 0.444212 -2.561960 -0.277655 -1.570265 -0.041073 -0.026169
    35 0.021022 -1.208186 0.000000 -1.505699 0.000000 0.000000
    36 0.010596 -0.741866 -0.000001 -1.601911 0.000000 0.000000
    37 1.047445 -2.222820 -0.277655 -1.508123 -0.078971 -0.038609
    38 -0.000001 -0.996223 -0.000002 -1.593361 0.000000 0.000000
    39 -0.000001 -0.614690 0.000001 -1.612431 0.000000 0.000000
    40 -0.308255 -0.007814 0.307166 0.102575 -0.110154 -2.210276
    41 1.978378 0.019544 0.000000 -0.104664 0.002986 0.578189
    42 0.982426 0.003186 0.000001 0.000000 0.000000 -0.435372
  time 17
    0 8.590956 3.200814 -9.877704 0.989223 -1.864748 -1.391117
    1 0.000000 -8.563285 0.000000 0.358727 0.000055 -0.135869
    2 -0.435133 -3.043624 0.895601 -1.247037 1.437608 -1.233843
    3 0.000000 2.000727 0.853750 0.000000 0.000000 0.000000
    4 0.021119 -3.993921 3.201528 0.000000 0.000000 0.000000
    5 0.021119 -2.845553 1.084931 0.000000 0.000000 0.000000
    6 0.021119 -4.827049 0.994863 0.000000 0.000000 0.000000
    7 0.021119 -5.547592 1.535272 0.000000 0.000000 0.000000
    8 0.021119 -5.621464 3.809488 0.000000 0.000000 0.000000
    9 -0.003480 -0.404829 0.000001 0.000000 0.000000 0.000000
    10 -0.519309 -2.501156 -0.278957 -1.404591 -0.161672 -0.219512
    11 -0.010598 -1.208185 0.000001 -0.740030 0.000000 0.000000
    12 0.000000 -0.763066 0.000000 -1.343903 0.000000 0.000000
    13 0.105981 -2.607135 -0.278957 -1.135143 -0.167988 -0.238861
    14 0.000000 -1.250579 -0.000001 -0.966912 0.000000 0.000000
    15 0.000000 -0.932634 0.000000 -1.431181 0.000000 0.000000
    16 0.763063 -2.490557 -0.278957 0.003402 -0.041323 0.031656
    17 -0.012322 -1.280917 0.000000 -0.219062 0.000000 0.000000
    18 -0.001697 -0.749371 0.000000 -0.222645 0.000000 0.000000
    19 0.354566 0.016267 0.318133 0.271703 -0.487906 -0.927541
    20 1.887165 0.012877 0.000000 -0.271037 -0.142581 -0.874135
    21 1.001873 -0.000270 0.000000 0.000000 0.000000 -0.902335
    22 -1.123359 -2.195094 -0.278957 -1.253823 -0.147135 -0.327965
    23 0.010772 -0.963791 0.000000 -0.542804 0.000000 0.000000
    24 -0.010412 -0.631916 -0.000001 -1.165881 0.000000 0.000000
    25 -1.155798 -4.724515 -11.959644 -1.756272 0.540690 -1.013260
    26 0.089929 -8.543162 0.000001 0.928526 0.046667 0.784519
    27 -0.000001 -0.359713 0.000000 0.000000 0.000000 0.000000
    28 -0.170479 -2.636147 -0.277655 -1.326477 0.000000 0.000000
    29 0.010598 -1.261177 0.000000 -1.672008 0.000000 0.000000
    30 -0.000001 -0.943233 -0.000001 -1.186781 0.000000 0.000000
    31 -0.827564 -2.508973 -0.277657 -0.851729 0.000000 0.000000
    32 -0.000001 -1.292971 0.000000 -1.555031 0.000000 0.000000
    33 0.000000 -0.752465 0.000000 -0.837720 0.000000 0.000000
    34 0.444212 -2.561960 -0.277655 -1.570265 -0.041073 -0.026169
    35 0.021022 -1.208186 0.000000 -1.474794 0.000000 0.000000
    36 0.010596 -0.741866 -0.000001 -1.569047 0.000000 0.000000
    37 1.047445 -2.222820 -0.277655 -1.508123 -0.078971 -0.038609
    38 -0.000001 -0.996223 -0.000002 -1.565526 0.000000 0.000000
    39 -0.000001 -0.614690 0.000001 -1.581264 0.000000 0.000000
    40 -0.308255 -0.007814 0.307166 0.103798 -0.109543 -2.218354
    41 1.978378 0.019544 0.000000 -0.104687 0.001811 0.567128
    42 0.982426 0.003186 0.000001 0.000000 0.000000 -0.411867
  time 18
    0 8.583143 3.185188 -9.842546 0.955292 -1.865611 -1.359633
    1 0.000000 -8.563285 0.000000 0.357648 -0.028972 -0.162811
    2 -0.435133 -3.043624 0.895601 -1.247037 1.437608 -1.233843
    3 0.000000 2.000727 0.853750 0.000000 0.000000 0.000000
    4 0.021119 -3.993921 3.201528 0.000000 0.000000 0.000000
    5 0.021119 -2.845553 1.084931 0.000000 0.000000 0.000000
    6 0.021119 -4.827049 0.994863 0.000000 0.000000 0.000000
    7 0.021119 -5.547592 1.535272 0.000000 0.000000 0.000000
    8 0.021119 -7.500427 3.809488 0.000000 0.000000 0.000000
    9 -0.003480 -0.404829 0.000001 0.000000 0.000000 0.000000
    10 -0.519309 -2.501156 -0.278957 -1.404591 -0.161672 -0.219512
    11 -0.010598 -1.208185 0.000001 -0.740030 0.000000 0.000000
    12 0.000000 -0.763066 0.000000 -1.343903 0.000000 0.000000
    13 0.105981 -2.607135 -0.278957 -1.135143 -0.167988 -0.238861
    14 0.000000 -1.250579 -0.000001 -0.966912 0.000000 0.000000
    15 0.000000 -0.932634 0.000000 -1.431181 0.000000 0.000000
    16 0.763063 -2.490557 -0.278957 0.030617 -0.041323 0.031656
    17 -0.012322 -1.280917 0.000000 -0.215380 0.000000 0.000000
    18 -0.001697 -0.749371 0.000000 -0.212362 0.000000 0.000000
    19 0.354566 0.016267 0.318133 0.271703 -0.487906 -0.927541
    20 1.887165 0.012877 0.000000 -0.271037 -0.142581 -0.874135
    21 1.001873 -0.000270 0.000000 0.000000 0.000000 -0.902335
    22 -1.123359 -2.195094 -0.278957 -1.253823 -0.147135 -0.327965
    23 0.010772 -0.963791 0.000000 -0.542804 0.000000 0.000000
    24 -0.010412 -0.631916 -0.000001 -1.165881 0.000000 0.000000
    25 -1.030795 -4.857332 -12.041678 -1.570582 0.575583 -0.912848
    26 0.089929 -8.543162 0.000001 0.895297 0.102263 0.771628
    27 -0.000001 -0.359713 0.000000 0.000000 0.000000 0.000000
    28 -0.170479 -2.636147 -0.277655 -1.326477 0.000000 0.000000
    29 0.010598 -1.261177 0.000000 -1.632843 0.000000 0.000000
    30 -0.000001 -0.943233 -0.000001 -1.160773 0.000000 0.000000
    31 -0.827564 -2.508973 -0.277657 -0.851729 0.000000 0.000000
    32 -0.000001 -1.292971 0.000000 -1.539656 0.000000 0.000000
    33 0.000000 -0.752465 0.000000 -0.822098 0.000000 0.000000
    34 0.444212 -2.561960 -0.277655 -1.570265 -0.041073 -0.026169
    35 0.021022 -1.208186 0.000000 -1.433135 0.000000 0.000000
    36 0.010596 -0.741866 -0.000001 -1.524674 0.000000 0.000000
    37 1.047445 -2.222820 -0.277655 -1.508123 -0.078971 -0.038609
    38 -0.000001 -0.996223 -0.000002 -1.528059 0.000000 0.000000
    39 -0.000001 -0.614690 0.000001 -1.539183 0.000000 0.000000
    40 -0.308255 -0.007814 0.307166 0.105440 -0.108704 -2.229212
    41 1.978378 0.019544 0.000000 -0.104699 0.000241 0.552216
    42 0.982426 0.003186 0.000001 0.000000 0.000000 -0.380201
  time 19
    0 8.462046 3.064091 -9.678479 0.886471 -1.867842 -1.295329
    1 0.000000 -8.563285 0.000000 0.354124 -0.056333 -0.190962
    2 -0.435133 -3.043624 0.895601 -1.247037 1.437608 -1.233843
    3 0.000000 2.000727 0.853750 0.000000 0.000000 0.000000
    4 0.021119 -3.993921 3.201528 0.000000 0.000000 0.000000
    5 0.021119 -2.845553 1.084931 0.000000 0.000000 0.000000
    6 0.021119 -4.827049 0.994863 0.000000 0.000000 0.000000
    7 0.021119 -5.547592 1.535272 0.000000 0.000000 0.000000
    8 0.021119 -9.375484 3.809488 0.000000 0.000000 0.000000
    9 -0.003480 -0.404829 0.000001 0.000000 0.000000 0.000000
    10 -0.519309 -2.501156 -0.278957 -1.404591 -0.161672 -0.219512
    11 -0.010598 -1.208185 0.000001 -0.740030 0.000000 0.000000
    12 0.000000 -0.763066 0.000000 -1.343903 0.000000 0.000000
    13 0.105981 -2.607135 -0.278957 -1.135143 -0.167988 -0.238861
    14 0.000000 -1.250579 -0.000001 -0.966912 0.000000 0.000000
    15 0.000000 -0.932634 0.000000 -1.431181 0.000000 0.000000
    16 0.763063 -2.490557 -0.278957 0.058886 -0.041323 0.031656
    17 -0.012322 -1.280917 0.000000 -0.218014 0.000000 0.000000
    18 -0.001697 -0.749371 0.000000 -0.205087 0.000000 0.000000
    19 0.354566 0.016267 0.318133 0.271703 -0.487906 -0.927541
    20 1.887165 0.012877 0.000000 -0.271037 -0.142581 -0.874135
    21 1.001873 -0.000270 0.000000 0.000000 0.000000 -0.902335
    22 -1.123359 -2.195094 -0.278957 -1.253823 -0.147135 -0.327965
    23 0.010772 -0.963791 0.000000 -0.542804 0.000000 0.000000
    24 -0.010412 -0.631916 -0.000001 -1.165881 0.000000 0.000000
    25 -1.030795 -5.044837 -11.959644 -1.263400 0.644663 -0.770161
    26 0.089929 -8.543162 0.000001 0.798910 0.175120 0.682576
    27 -0.000001 -0.359713 0.000000 0.000000 0.000000 0.000000
    28 -0.170479 -2.636147 -0.277655 -1.326477 0.000000 0.000000
    29 0.010598 -1.261177 0.000000 -1.581991 0.000000 0.000000
    30 -0.000001 -0.943233 -0.000001 -1.126926 0.000000 0.000000
    31 -0.827564 -2.508973 -0.277657 -0.851729 0.000000 0.000000
    32 -0.000001 -1.292971 0.000000 -1.519633 0.000000 0.000000
    33 0.000000 -0.752465 0.000000 -0.801839 0.000000 0.000000
    34 0.444212 -2.561960 -0.277655 -1.570265 -0.041073 -0.026169
    35 0.021022 -1.208186 0.000000 -1.379027 0.000000 0.000000
    36 0.010596 -0.741866 -0.000001 -1.467022 0.000000 0.000000
    37 1.047445 -2.222820 -0.277655 -1.508123 -0.078971 -0.038609
    38 -0.000001 -0.996223 -0.000002 -1.479371 0.000000 0.000000
    39 -0.000001 -0.614690 0.000001 -1.484508 0.000000 0.000000
    40 -0.308255 -0.007814 0.307166 0.107561 -0.107577 -2.243317
    41 1.978378 0.019544 0.000000 -0.104687 -0.001784 0.532842
    42 0.982426 0.003186 0.000001 0.000000 0.000000 -0.339112
  time 20
    0 8.301884 2.911742 -9.471441 0.831839 -1.869262 -1.242311
    1 0.000000 -8.563285 0.000000 0.346922 -0.075496 -0.218012
    2 -0.435133 -3.043624 0.895601 -1.247037 1.437608 -1.233843
    3 0.000000 2.000727 0.853750 0.000000 0.000000 0.000000
    4 0.021119 -3.993921 3.201528 0.000000 0.000000 0.000000
    5 0.021119 -2.845553 1.084931 0.000000 0.000000 0.000000
    6 0.021119 -4.827049 0.994863 0.000000 0.000000 0.000000
    7 0.021119 -5.547592 1.535272 0.000000 0.000000 0.000000
    8 0.021119 -9.500488 3.809488 0.000000 0.000000 0.000000
    9 -0.003480 -0.404829 0.000001 0.000000 0.000000 0.000000
    10 -0.519309 -2.501156 -0.278957 -1.404603 -0.161672 -0.219512
    11 -0.010598 -1.208185 0.000001 -0.740030 0.000000 0.000000
    12 0.000000 -0.763066 0.000000 -1.343903 0.000000 0.000000
    13 0.105981 -2.607135 -0.278957 -1.135143 -0.167988 -0.238861
    14 0.000000 -1.250579 -0.000001 -0.966912 0.000000 0.000000
    15 0.000000 -0.932634 0.000000 -1.431181 0.000000 0.000000
    16 0.763063 -2.490557 -0.278957 0.088353 -0.041323 0.031656
    17 -0.012322 -1.280917 0.000000 -0.227457 0.000000 0.000000
    18 -0.001697 -0.749371 0.000000 -0.201120 0.000000 0.000000
    19 0.354566 0.016267 0.318133 0.271703 -0.487906 -0.927541
    20 1.887165 0.012877 0.000000 -0.271037 -0.142581 -0.874135
    21 1.001873 -0.000270 0.000000 0.000000 0.000000 -0.902335
    22 -1.123359 -2.195094 -0.278957 -1.253823 -0.147135 -0.327965
    23 0.010772 -0.963791 0.000000 -0.542804 0.000000 0.000000
    24 -0.010412 -0.631916 -0.000001 -1.165881 0.000000 0.000000
    25 -1.069858 -5.232343 -11.865892 -1.010608 0.668947 -0.604553
    26 0.089929 -8.543162 0.000001 0.682335 0.227117 0.563755
    27 -0.000001 -0.359713 0.000000 0.000000 0.000000 0.000000
    28 -0.170479 -2.636147 -0.277655 -1.326477 0.000000 0.000000
    29 0.010598 -1.261177 0.000000 -1.520981 0.000000 0.000000
    30 -0.000001 -0.943233 -0.000001 -1.086395 0.000000 0.000000
    31 -0.827564 -2.508973 -0.277657 -0.851729 0.000000 0.000000
    32 -0.000001 -1.292971 0.000000 -1.495647 0.000000 0.000000
    33 0.000000 -0.752465 0.000000 -0.777504 0.000000 0.000000
    34 0.444212 -2.561960 -0.277655 -1.570265 -0.041073 -0.026169
    35 0.021022 -1.208186 0.000000 -1.314165 0.000000 0.000000
    36 0.010596 -0.741866 -0.000001 -1.397936 0.000000 0.000000
    37 1.047445 -2.222820 -0.277655 -1.508123 -0.078971 -0.038609
    38 -0.000001 -0.996223 -0.000002 -1.420958 0.000000 0.000000
    39 -0.000001 -0.614690 0.000001 -1.418990 0.000000 0.000000
    40 -0.308255 -0.007814 0.307166 0.110090 -0.106199 -2.260228
    41 1.978378 0.019544 0.000000 -0.104628 -0.004241 0.509594
    42 0.982426 0.003186 0.000001 0.000000 0.000000 -0.289810
  time 21
    0 8.172974 2.798458 -9.287842 0.837459 -1.865252 -1.242162
    1 0.000000 -8.563285 0.000000 0.337825 -0.096061 -0.249735
    2 -0.435133 -3.043624 0.895601 -1.247037 1.437608 -1.233843
    3 0.000000 2.000727 0.853750 0.000000 0.000000 0.000000
    4 0.021119 -3.993921 3.201528 0.000000 0.000000 0.000000
    5 0.021119 -2.845553 1.084931 0.000000 0.000000 0.000000
    6 0.021119 -4.827049 0.994863 0.000000 0.000000 0.000000
    7 0.021119 -5.547592 1.535272 0.000000 0.000000 0.000000
    8 0.021119 -9.840342 3.809488 0.000000 0.000000 0.000000
    9 -0.003480 -0.404829 0.000001 0.000000 0.000000 0.000000
    10 -0.519309 -2.501156 -0.278957 -1.404603 -0.161672 -0.219512
    11 -0.010598 -1.208185 0.000001 -0.740030 0.000000 0.000000
    12 0.000000 -0.763066 0.000000 -1.343903 0.000000 0.000000
    13 0.105981 -2.607135 -0.278957 -1.135143 -0.167988 -0.238861
    14 0.000000 -1.250579 -0.000001 -0.966912 0.000000 0.000000
    15 0.000000 -0.932634 0.000000 -1.431181 0.000000 0.000000
    16 0.763063 -2.490557 -0.278957 0.119065 -0.041323 0.031656
    17 -0.012322 -1.280917 0.000000 -0.244374 0.000000 0.000000
    18 -0.001697 -0.749371 0.000000 -0.200737 0.000000 0.000000
    19 0.354566 0.016267 0.318133 0.271703 -0.487906 -0.927541
    20 1.887165 0.012877 0.000000 -0.271037 -0.142581 -0.874135
    21 1.001873 -0.000270 0.000000 0.000000 0.000000 -0.902335
    22 -1.123359 -2.195094 -0.278957 -1.253823 -0.147135 -0.327965
    23 0.010772 -0.963791 0.000000 -0.542804 0.000000 0.000000
    24 -0.010412 -0.631916 -0.000001 -1.165881 0.000000 0.000000
    25 -1.163611 -5.369066 -11.819015 -0.882922 0.651657 -0.456478
    26 0.089929 -8.543162 0.000001 0.602812 0.238540 0.475582
    27 -0.000001 -0.359713 0.000000 0.000000 0.000000 0.000000
    28 -0.170479 -2.636147 -0.277655 -1.326477 0.000000 0.000000
    29 0.010598 -1.261177 0.000000 -1.451344 0.000000 0.000000
    30 -0.000001 -0.943233 -0.000001 -1.040091 0.000000 0.000000
    31 -0.827564 -2.508973 -0.277657 -0.851729 0.000000 0.000000
    32 -0.000001 -1.292971 0.000000 -1.468211 0.000000 0.000000
    33 0.000000 -0.752465 0.000000 -0.749715 0.000000 0.000000
    34 0.444212 -2.561960 -0.277655 -1.570265 -0.041073 -0.026169
    35 0.021022 -1.208186 0.000000 -1.240051 0.000000 0.000000
    36 0.010596 -0.741866 -0.000001 -1.319076 0.000000 0.000000
    37 1.047445 -2.222820 -0.277655 -1.508123 -0.078971 -0.038609
    38 -0.000001 -0.996223 -0.000002 -1.354316 0.000000 0.000000
    39 -0.000001 -0.614690 0.000001 -1.344167 0.000000 0.000000
    40 -0.308255 -0.007814 0.307166 0.112930 -0.104569 -2.279523
    41 1.978378 0.019544 0.000000 -0.104484 -0.007009 0.483080
    42 0.982426 0.003186 0.000001 0.000000 0.000000 -0.233507
  time 22
    0 8.083128 2.728143 -9.151119 0.921293 -1.857374 -1.311590
    1 0.000000 -8.563285 0.000000 0.328561 -0.116519 -0.281626
    2 -0.435133 -3.043624 0.895601 -1.247037 1.437608 -1.233843
    3 0.000000 2.000727 0.853750 0.000000 0.000000 0.000000
    4 0.021119 -3.993921 3.201528 0.000000 0.000000 0.000000
    5 0.021119 -2.845553 1.084931 0.000000 0.000000 0.000000
    6 0.021119 -4.827049 0.994863 0.000000 0.000000 0.000000
    7 0.021119 -5.547592 1.535272 0.000000 0.000000 0.000000
    8 0.021119 -10.313013 3.809488 0.000000 0.000000 0.000000
    9 -0.003480 -0.404829 0.000001 0.000000 0.000000 0.000000
    10 -0.519309 -2.501156 -0.278957 -1.404591 -0.161672 -0.219512
    11 -0.010598 -1.208185 0.000001 -0.740030 0.000000 0.000000
    12 0.000000 -0.763066 0.000000 -1.343903 0.000000 0.000000
    13 0.105981 -2.607135 -0.278957 -1.135143 -0.167988 -0.238861
    14 0.000000 -1.250579 -0.000001 -0.966912 0.000000 0.000000
    15 0.000000 -0.932634 0.000000 -1.431181 0.000000 0.000000
    16 0.763063 -2.490557 -0.278957 0.190624 -0.041323 0.031656
    17 -0.012322 -1.280917 0.000000 -0.397563 0.000000 0.000000
    18 -0.001697 -0.749371 0.000000 -0.260492 0.000000 0.000000
    19 0.354566 0.016267 0.318133 0.271703 -0.487906 -0.927541
    20 1.887165 0.012877 0.000000 -0.271037 -0.142581 -0.874135
    21 1.001873 -0.000270 0.000000 0.000000 0.000000 -0.902335
    22 -1.123359 -2.195094 -0.278957 -1.253823 -0.147135 -0.327965
    23 0.010772 -0.963791 0.000000 -0.542804 0.000000 0.000000
    24 -0.010412 -0.631916 -0.000001 -1.165881 0.000000 0.000000
    25 -1.343304 -5.470632 -11.764326 -0.795690 0.622422 -0.314853
    26 0.089929 -8.543162 0.000001 0.567763 0.223595 0.428182
    27 -0.000001 -0.359713 0.000000 0.000000 0.000000 0.000000
    28 -0.170479 -2.636147 -0.277655 -1.326477 0.000000 0.000000
    29 0.010598 -1.261177 0.000000 -1.374642 0.000000 0.000000
    30 -0.000001 -0.943233 -0.000001 -0.989108 0.000000 0.000000
    31 -0.827564 -2.508973 -0.277657 -0.851729 0.000000 0.000000
    32 -0.000001 -1.292971 0.000000 -1.438006 0.000000 0.000000
    33 0.000000 -0.752465 0.000000 -0.719094 0.000000 0.000000
    34 0.444212 -2.561960 -0.277655 -1.570265 -0.041073 -0.026169
    35 0.021022 -1.208186 0.000000 -1.158429 0.000000 0.000000
    36 0.010596 -0.741866 -0.000001 -1.232100 0.000000 0.000000
    37 1.047445 -2.222820 -0.277655 -1.508123 -0.078971 -0.038609
    38 -0.000001 -0.996223 -0.000002 -1.280817 0.000000 0.000000
    39 -0.000001 -0.614690 0.000001 -1.261754 0.000000 0.000000
    40 -0.308255 -0.007814 0.307166 0.116034 -0.102711 -2.300784
    41 1.978378 0.019544 0.000000 -0.104220 -0.010065 0.453867
    42 0.982426 0.003186 0.000001 0.000000 0.000000 -0.171465
  time 23
    0 8.001094 2.673454 -9.022209 1.055302 -1.851421 -1.426314
    1 0.000000 -8.563285 0.000000 0.320544 -0.135179 -0.309250
    2 -0.435133 -3.043624 0.895601 -1.247037 1.437608 -1.233843
    3 0.000000 2.000727 0.853750 0.000000 0.000000 0.000000
    4 0.021119 -3.993921 3.201528 0.000000 0.000000 0.000000
    5 0.021119 -2.845553 1.084931 0.000000 0.000000 0.000000
    6 0.021119 -4.827049 0.994863 0.000000 0.000000 0.000000
    7 0.021119 -5.547592 1.535272 0.000000 0.000000 0.000000
    8 0.021119 -10.840373 3.809488 0.000000 0.000000 0.000000
    9 -0.003480 -0.404829 0.000001 0.000000 0.000000 0.000000
    10 -0.519309 -2.501156 -0.278957 -1.404591 -0.161672 -0.219512
    11 -0.010598 -1.208185 0.000001 -0.740030 0.000000 0.000000
    12 0.000000 -0.763066 0.000000 -1.343903 0.000000 0.000000
    13 0.105981 -2.607135 -0.278957 -1.135143 -0.167988 -0.238861
    14 0.000000 -1.250579 -0.000001 -0.966912 0.000000 0.000000
    15 0.000000 -0.932634 0.000000 -1.431181 0.000000 0.000000
    16 0.763063 -2.490557 -0.278957 0.301545 -0.041323 0.031656
    17 -0.012322 -1.280917 0.000000 -0.712543 0.000000 0.000000
    18 -0.001697 -0.749371 0.000000 -0.394444 0.000000 0.000000
    19 0.354566 0.016267 0.318133 0.271703 -0.487906 -0.927541
    20 1.887165 0.012877 0.000000 -0.271037 -0.142581 -0.874135
    21 1.001873 -0.000270 0.000000 0.000000 0.000000 -0.902335
    22 -1.123359 -2.195094 -0.278957 -1.253823 -0.147135 -0.327965
    23 0.010772 -0.963791 0.000000 -0.542804 0.000000 0.000000
    24 -0.010412 -0.631916 -0.000001 -1.165881 0.000000 0.000000
    25 -1.542529 -5.591729 -11.694011 -0.739170 0.585957 -0.179680
    26 0.089929 -8.543162 0.000001 0.541930 0.200301 0.387345
    27 -0.000001 -0.359713 0.000000 0.000000 0.000000 0.000000
    28 -0.170479 -2.636147 -0.277655 -1.326477 0.000000 0.000000
    29 0.010598 -1.261177 0.000000 -1.292308 0.000000 0.000000
    30 -0.000001 -0.943233 -0.000001 -0.934327 0.000000 0.000000
    31 -0.827564 -2.508973 -0.277657 -0.851729 0.000000 0.000000
    32 -0.000001 -1.292971 0.000000 -1.405615 0.000000 0.000000
    33 0.000000 -0.752465 0.000000 -0.686263 0.000000 0.000000
    34 0.444212 -2.561960 -0.277655 -1.570265 -0.041073 -0.026169
    35 0.021022 -1.208186 0.000000 -1.070800 0.000000 0.000000
    36 0.010596 -0.741866 -0.000001 -1.138855 0.000000 0.000000
    37 1.047445 -2.222820 -0.277655 -1.508123 -0.078971 -0.038609
    38 -0.000001 -0.996223 -0.000002 -1.202019 0.000000 0.000000
    39 -0.000001 -0.614690 0.000001 -1.173253 0.000000 0.000000
    40 -0.308255 -0.007814 0.307166 0.119330 -0.100638 -2.323566
    41 1.978378 0.019544 0.000000 -0.103861 -0.013349 0.422493
    42 0.982426 0.003186 0.000001 0.000000 0.000000 -0.104896
  time 24
    0 7.922967 2.634390 -8.885486 1.217896 -1.848544 -1.566358
    1 0.000000 -8.563285 0.000000 0.314875 -0.150280 -0.328246
    2 -0.435133 -3.043624 0.895601 -1.247037 1.437608 -1.233843
    3 0.000000 2.000727 0.853750 0.000000 0.000000 0.000000
    4 0.021119 -3.993921 3.201528 0.000000 0.000000 0.000000
    5 0.021119 -2.845553 1.084931 0.000000 0.000000 0.000000
    6 0.021119 -4.827049 0.994863 0.000000 0.000000 0.000000
    7 0.021119 -5.547592 1.535272 0.000000 0.000000 0.000000
    8 0.021119 -11.340388 3.809488 0.000000 0.000000 0.000000
    9 -0.003480 -0.404829 0.000001 0.000000 0.000000 0.000000
    10 -0.519309 -2.501156 -0.278957 -1.404591 -0.161672 -0.219512
    11 -0.010598 -1.208185 0.000001 -0.740030 0.000000 0.000000
    12 0.000000 -0.763066 0.000000 -1.343903 0.000000 0.000000
    13 0.105981 -2.607135 -0.278957 -1.135143 -0.167988 -0.238861
    14 0.000000 -1.250579 -0.000001 -0.966912 0.000000 0.000000
    15 0.000000 -0.932634 0.000000 -1.431181 0.000000 0.000000
    16 0.763063 -2.490557 -0.278957 0.390520 -0.041323 0.031656
    17 -0.012322 -1.280917 0.000000 -1.034664 0.000000 0.000000
    18 -0.001697 -0.749371 0.000000 -0.538918 0.000000 0.000000
    19 0.354566 0.016267 0.318133 0.271703 -0.487906 -0.927541
    20 1.887165 0.012877 0.000000 -0.271037 -0.142581 -0.874135
    21 1.001873 -0.000270 0.000000 0.000000 0.000000 -0.902335
    22 -1.123359 -2.195094 -0.278957 -1.253823 -0.147135 -0.327965
    23 0.010772 -0.963791 0.000000 -0.542804 0.000000 0.000000
    24 -0.010412 -0.631916 -0.000001 -1.165881 0.000000 0.000000
    25 -1.698784 -5.790954 -11.604165 -0.702523 0.544384 -0.050275
    26 0.089929 -8.543162 0.000001 0.523996 0.170742 0.352020
    27 -0.000001 -0.359713 0.000000 0.000000 0.000000 0.000000
    28 -0.170479 -2.636147 -0.277655 -1.326477 0.000000 0.000000
    29 0.010598 -1.261177 0.000000 -1.205938 0.000000 0.000000
    30 -0.000001 -0.943233 -0.000001 -0.876933 0.000000 0.000000
    31 -0.827564 -2.508973 -0.277657 -0.851729 0.000000 0.000000
    32 -0.000001 -1.292971 0.000000 -1.371618 0.000000 0.000000
    33 0.000000 -0.752465 0.000000 -0.651814 0.000000 0.000000
    34 0.444212 -2.561960 -0.277655 -1.570265 -0.041073 -0.026169
    35 0.021022 -1.208186 0.000000 -0.978908 0.000000 0.000000
    36 0.010596 -0.741866 -0.000001 -1.040961 0.000000 0.000000
    37 1.047445 -2.222820 -0.277655 -1.508123 -0.078971 -0.038609
    38 -0.000001 -0.996223 -0.000002 -1.119324 0.000000 0.000000
    39 -0.000001 -0.614690 0.000001 -1.080486 0.000000 0.000000
    40 -0.308255 -0.007814 0.307166 0.122733 -0.098421 -2.347476
    41 1.978378 0.019544 0.000000 -0.103357 -0.016777 0.389569
    42 0.982426 0.003186 0.000001 0.000000 0.000000 -0.035037
  time 25
    0 7.852652 2.607046 -8.760482 -1.754304 -1.294134 1.429590
    1 0.000000 -8.563285 0.000000 0.312622 -0.159891 -0.334178
    2 -0.435133 -3.043624 0.895601 -1.247037 1.437608 -1.233843
    3 0.000000 2.000727 0.853750 0.000000 0.000000 0.000000
    4 0.021119 -3.993921 3.201528 0.000000 0.000000 0.000000
    5 0.021119 -2.845553 1.084931 0.000000 0.000000 0.000000
    6 0.021119 -4.827049 0.994863 0.000000 0.000000 0.000000
    7 0.021119 -5.547592 1.535272 0.000000 0.000000 0.000000
    8 0.021119 -11.731025 3.809488 0.000000 0.000000 0.000000
    9 -0.003480 -0.404829 0.000001 0.000000 0.000000 0.000000
    10 -0.519309 -2.501156 -0.278957 -1.404591 -0.161672 -0.219512
    11 -0.010598 -1.208185 0.000001 -0.740030 0.000000 0.000000
    12 0.000000 -0.763066 0.000000 -1.343903 0.000000 0.000000
    13 0.105981 -2.607135 -0.278957 -1.135143 -0.167988 -0.238861
    14 0.000000 -1.250579 -0.000001 -0.966912 0.000000 0.000000
    15 0.000000 -0.932634 0.000000 -1.431181 0.000000 0.000000
    16 0.763063 -2.490557 -0.278957 0.396174 -0.041323 0.031656
    17 -0.012322 -1.280917 0.000000 -1.209404 0.000000 0.000000
    18 -0.001697 -0.749371 0.000000 -0.630301 0.000000 0.000000
    19 0.354566 0.016267 0.318133 0.271703 -0.487906 -0.927541
    20 1.887165 0.012877 0.000000 -0.271037 -0.142581 -0.874135
    21 1.001873 -0.000270 0.000000 0.000000 0.000000 -0.902335
    22 -1.123359 -2.195094 -0.278957 -1.253823 -0.147135 -0.327965
    23 0.010772 -0.963791 0.000000 -0.542804 0.000000 0.000000
    24 -0.010412 -0.631916 -0.000001 -1.165881 0.000000 0.000000
    25 -1.745660 -6.119089 -11.483067 -0.674779 0.497388 0.073361
    26 0.089929 -8.543162 0.000001 0.512297 0.136726 0.320792
    27 -0.000001 -0.359713 0.000000 0.000000 0.000000 0.000000
    28 -0.170479 -2.636147 -0.277655 -1.326477 0.000000 0.000000
    29 0.010598 -1.261177 0.000000 -1.116995 0.000000 0.000000
    30 -0.000001 -0.943233 -0.000001 -0.817807 0.000000 0.000000
    31 -0.827564 -2.508973 -0.277657 -0.851729 0.000000 0.000000
    32 -0.000001 -1.292971 0.000000 -1.336596 0.000000 0.000000
    33 0.000000 -0.752465 0.000000 -0.616338 0.000000 0.000000
    34 0.444212 -2.561960 -0.277655 -1.570265 -0.041073 -0.026169
    35 0.021022 -1.208186 0.000000 -0.884352 0.000000 0.000000
    36 0.010596 -0.741866 -0.000001 -0.940265 0.000000 0.000000
    37 1.047445 -2.222820 -0.277655 -1.508123 -0.078971 -0.038609
    38 -0.000001 -0.996223 -0.000002 -1.034167 0.000000 0.000000
    39 -0.000001 -0.614690 0.000001 -0.984919 0.000000 0.000000
    40 -0.308255 -0.007814 0.307166 0.126137 -0.096012 -2.372068
    41 1.978378 0.019544 0.000000 -0.102746 -0.020276 0.355705
    42 0.982426 0.003186 0.000001 0.000000 0.000000 0.036850
  time 26
    0 7.790150 2.591420 -8.643291 -1.594247 -1.297731 1.292442
    1 0.000000 -8.563285 0.000000 0.314767 -0.161234 -0.321043
    2 -0.435133 -3.043624 0.895601 -1.247037 1.437608 -1.233843
    3 0.000000 2.000727 0.853750 0.000000 0.000000 0.000000
    4 0.021119 -3.993921 3.201528 0.000000 0.000000 0.000000
    5 0.021119 -2.845553 1.084931 0.000000 0.000000 0.000000
    6 0.021119 -4.827049 0.994863 0.000000 0.000000 0.000000
    7 0.021119 -5.547592 1.535272 0.000000 0.000000 0.000000
    8 0.021119 -11.941969 3.809488 0.000000 0.000000 0.000000
    9 -0.003480 -0.404829 0.000001 0.000000 0.000000 0.000000
    10 -0.519309 -2.501156 -0.278957 -1.404591 -0.161672 -0.219512
    11 -0.010598 -1.208185 0.000001 -0.740030 0.000000 0.000000
    12 0.000000 -0.763066 0.000000 -1.343903 0.000000 0.000000
    13 0.105981 -2.607135 -0.278957 -1.135143 -0.167988 -0.238861
    14 0.000000 -1.250579 -0.000001 -0.966912 0.000000 0.000000
    15 0.000000 -0.932634 0.000000 -1.431181 0.000000 0.000000
    16 0.763063 -2.490557 -0.278957 0.303533 -0.041323 0.031656
    17 -0.012322 -1.280917 0.000000 -1.203596 0.000000 0.000000
    18 -0.001697 -0.749371 0.000000 -0.655552 0.000000 0.000000
    19 0.354566 0.016267 0.318133 0.271703 -0.487906 -0.927541
    20 1.887165 0.012877 0.000000 -0.271037 -0.142581 -0.874135
    21 1.001873 -0.000270 0.000000 0.000000 0.000000 -0.902335
    22 -1.123359 -2.195094 -0.278957 -1.253823 -0.147135 -0.327965
    23 0.010772 -0.963791 0.000000 -0.542804 0.000000 0.000000
    24 -0.010412 -0.631916 -0.000001 -1.165881 0.000000 0.000000
    25 -1.687065 -6.576134 -11.334625 -0.659423 0.446148 0.191913
    26 0.089929 -8.543162 0.000001 0.505082 0.099870 0.292395
    27 -0.000001 -0.359713 0.000000 0.000000 0.000000 0.000000
    28 -0.170479 -2.636147 -0.277655 -1.326477 0.000000 0.000000
    29 0.010598 -1.261177 0.000000 -1.027075 0.000000 0.000000
    30 -0.000001 -0.943233 -0.000001 -0.758013 0.000000 0.000000
    31 -0.827564 -2.508973 -0.277657 -0.851729 0.000000 0.000000
    32 -0.000001 -1.292971 0.000000 -1.301198 0.000000 0.000000
    33 0.000000 -0.752465 0.000000 -0.580458 0.000000 0.000000
    34 0.444212 -2.561960 -0.277655 -1.570265 -0.041073 -0.026169
    35 0.021022 -1.208186 0.000000 -0.788682 0.000000 0.000000
    36 0.010596 -0.741866 -0.000001 -0.838351 0.000000 0.000000
    37 1.047445 -2.222820 -0.277655 -1.508123 -0.078971 -0.038609
    38 -0.000001 -0.996223 -0.000002 -0.948044 0.000000 0.000000
    39 -0.000001 -0.614690 0.000001 -0.888304 0.000000 0.000000
    40 -0.308255 -0.007814 0.307166 0.129565 -0.093495 -2.396936
    41 1.978378 0.019544 0.000000 -0.101991 -0.023800 0.321419
    42 0.982426 0.003186 0.000001 0.000000 0.000000 0.109552
  time 27
    0 7.735461 2.591420 -8.526100 -1.428843 -1.309565 1.149873
    1 0.000000 -8.563285 0.000000 0.320759 -0.155002 -0.290614
    2 -0.435133 -3.043624 0.895601 -1.247037 1.437608 -1.233843
    3 0.000000 2.000727 0.853750 0.000000 0.000000 0.000000
    4 0.021119 -3.993921 3.201528 0.000000 0.000000 0.000000
    5 0.021119 -2.845553 1.084931 0.000000 0.000000 0.000000
    6 0.021119 -4.827049 0.994863 0.000000 0.000000 0.000000
    7 0.021119 -5.547592 1.535272 0.000000 0.000000 0.000000
    8 0.021119 -11.891186 3.809488 0.000000 0.000000 0.000000
    9 -0.003480 -0.404829 0.000001 0.000000 0.000000 0.000000
    10 -0.519309 -2.501156 -0.278957 -1.404603 -0.161672 -0.219512
    11 -0.010598 -1.208185 0.000001 -0.740030 0.000000 0.000000
    12 0.000000 -0.763066 0.000000 -1.343903 0.000000 0.000000
    13 0.105981 -2.607135 -0.278957 -1.135143 -0.167988 -0.238861
    14 0.000000 -1.250579 -0.000001 -0.966912 0.000000 0.000000
    15 0.000000 -0.932634 0.000000 -1.431181 0.000000 0.000000
    16 0.763063 -2.490557 -0.278957 0.154569 -0.041323 0.031656
    17 -0.012322 -1.280917 0.000000 -1.111854 0.000000 0.000000
    18 -0.001697 -0.749371 0.000000 -0.652256 0.000000 0.000000
    19 0.354566 0.016267 0.318133 0.271703 -0.487906 -0.927541
    20 1.887165 0.012877 0.000000 -0.271037 -0.142581 -0.874135
    21 1.001873 -0.000270 0.000000 0.000000 0.000000 -0.902335
    22 -1.123359 -2.195094 -0.278957 -1.253823 -0.147135 -0.327965
    23 0.010772 -0.963791 0.000000 -0.542804 0.000000 0.000000
    24 -0.010412 -0.631916 -0.000001 -1.165881 0.000000 0.000000
    25 -1.562061 -7.123026 -11.162745 -0.662520 0.395222 0.307808
    26 0.089929 -8.543162 0.000001 0.500599 0.061573 0.265413
    27 -0.000001 -0.359713 0.000000 0.000000 0.000000 0.000000
    28 -0.170479 -2.636147 -0.277655 -1.326477 0.000000 0.000000
    29 0.010598 -1.261177 0.000000 -0.937644 0.000000 0.000000
    30 -0.000001 -0.943233 -0.000001 -0.698553 0.000000 0.000000
    31 -0.827564 -2.508973 -0.277657 -0.851729 0.000000 0.000000
    32 -0.000001 -1.292971 0.000000 -1.266005 0.000000 0.000000
    33 0.000000 -0.752465 0.000000 -0.544765 0.000000 0.000000
    34 0.444212 -2.561960 -0.277655 -1.570265 -0.041073 -0.026169
    35 0.021022 -1.208186 0.000000 -0.693545 0.000000 0.000000
    36 0.010596 -0.741866 -0.000001 -0.736990 0.000000 0.000000
    37 1.047445 -2.222820 -0.277655 -1.508123 -0.078971 -0.038609
    38 -0.000001 -0.996223 -0.000002 -0.862450 0.000000 0.000000
    39 -0.000001 -0.614690 0.000001 -0.792213 0.000000 0.000000
    40 -0.308255 -0.007814 0.307166 0.132896 -0.090931 -2.421624
    41 1.978378 0.019544 0.000000 -0.101104 -0.027263 0.287344
    42 0.982426 0.003186 0.000001 0.000000 0.000000 0.181859
  time 28
    0 7.684678 2.603139 -8.412815 -1.230399 -1.325032 0.975226
    1 0.000000 -8.563285 0.000000 0.329292 -0.144719 -0.250298
    2 -0.435133 -3.043624 0.895601 -1.247037 1.437608 -1.233843
    3 0.000000 2.000727 0.853750 0.000000 0.000000 0.000000
    4 0.021119 -3.993921 3.201528 0.000000 0.000000 0.000000
    5 0.021119 -2.845553 1.084931 0.000000 0.000000 0.000000
    6 0.021119 -4.827049 0.994863 0.000000 0.000000 0.000000
    7 0.021119 -5.547592 1.535272 0.000000 0.000000 0.000000
    8 0.021119 -11.496643 3.809488 0.000000 0.000000 0.000000
    9 -0.003480 -0.404829 0.000001 0.000000 0.000000 0.000000
    10 -0.519309 -2.501156 -0.278957 -1.404603 -0.161672 -0.219512
    11 -0.010598 -1.208185 0.000001 -0.740030 0.000000 0.000000
    12 0.000000 -0.763066 0.000000 -1.343903 0.000000 0.000000
    13 0.105981 -2.607135 -0.278957 -1.135143 -0.167988 -0.238861
    14 0.000000 -1.250579 -0.000001 -0.966912 0.000000 0.000000
    15 0.000000 -0.932634 0.000000 -1.431181 0.000000 0.000000
    16 0.763063 -2.490557 -0.278957 -0.026545 -0.041323 0.031656
    17 -0.012322 -1.280917 0.000000 -0.971043 0.000000 0.000000
    18 -0.001697 -0.749371 0.000000 -0.632650 0.000000 0.000000
    19 0.354566 0.016267 0.318133 0.271703 -0.487906 -0.927541
    20 1.887165 0.012877 0.000000 -0.271037 -0.142581 -0.874135
    21 1.001873 -0.000270 0.000000 0.000000 0.000000 -0.902335
    22 -1.123359 -2.195094 -0.278957 -1.253823 -0.147135 -0.327965
    23 0.010772 -0.963791 0.000000 -0.542804 0.000000 0.000000
    24 -0.010412 -0.631916 -0.000001 -1.165881 0.000000 0.000000
    25 -1.374555 -7.767577 -10.959614 -0.678392 0.346340 0.422261
    26 0.089929 -8.543162 0.000001 0.497185 0.023159 0.238668
    27 -0.000001 -0.359713 0.000000 0.000000 0.000000 0.000000
    28 -0.170479 -2.636147 -0.277655 -1.326477 0.000000 0.000000
    29 0.010598 -1.261177 0.000000 -0.850264 0.000000 0.000000
    30 -0.000001 -0.943233 -0.000001 -0.640430 0.000000 0.000000
    31 -0.827564 -2.508973 -0.277657 -0.851729 0.000000 0.000000
    32 -0.000001 -1.292971 0.000000 -1.231598 0.000000 0.000000
    33 0.000000 -0.752465 0.000000 -0.509911 0.000000 0.000000
    34 0.444212 -2.561960 -0.277655 -1.570265 -0.041073 -0.026169
    35 0.021022 -1.208186 0.000000 -0.600539 0.000000 0.000000
    36 0.010596 -0.741866 -0.000001 -0.637991 0.000000 0.000000
    37 1.047445 -2.222820 -0.277655 -1.508123 -0.078971 -0.038609
    38 -0.000001 -0.996223 -0.000002 -0.778789 0.000000 0.000000
    39 -0.000001 -0.614690 0.000001 -0.698291 0.000000 0.000000
    40 -0.308255 -0.007814 0.307166 0.136084 -0.088330 -2.445761
    41 1.978378 0.019544 0.000000 -0.100145 -0.030643 0.254044
    42 0.982426 0.003186 0.000001 0.000000 0.000000 0.252508
  time 29
    0 7.641708 2.626577 -8.303437 -1.001795 -1.334618 0.770878
    1 0.000000 -8.563285 0.000000 0.338832 -0.133741 -0.207465
    2 -0.435133 -3.043624 0.895601 -1.247037 1.437608 -1.233843
    3 0.000000 2.000727 0.853750 0.000000 0.000000 0.000000
    4 0.021119 -3.993921 3.201528 0.000000 0.000000 0.000000
    5 0.021119 -2.845553 1.084931 0.000000 0.000000 0.000000
    6 0.021119 -4.827049 0.994863 0.000000 0.000000 0.000000
    7 0.021119 -5.547592 1.535272 0.000000 0.000000 0.000000
    8 0.021119 -10.684118 3.809488 0.000000 0.000000 0.000000
    9 -0.003480 -0.404829 0.000001 0.000000 0.000000 0.000000
    10 -0.519309 -2.501156 -0.278957 -1.404603 -0.161672 -0.219512
    11 -0.010598 -1.208185 0.000001 -0.740030 0.000000 0.000000
    12 0.000000 -0.763066 0.000000 -1.343903 0.000000 0.000000
    13 0.105981 -2.607135 -0.278957 -1.135143 -0.167988 -0.238861
    14 0.000000 -1.250579 -0.000001 -0.966912 0.000000 0.000000
    15 0.000000 -0.932634 0.000000 -1.431181 0.000000 0.000000
    16 0.763063 -2.490557 -0.278957 -0.215732 -0.041323 0.031656
    17 -0.012322 -1.280917 0.000000 -0.817933 0.000000 0.000000
    18 -0.001697 -0.749371 0.000000 -0.608932 0.000000 0.000000
    19 0.354566 0.016267 0.318133 0.271703 -0.487906 -0.927541
    20 1.887165 0.012877 0.000000 -0.271037 -0.142581 -0.874135
    21 1.001873 -0.000270 0.000000 0.000000 0.000000 -0.902335
    22 -1.123359 -2.195094 -0.278957 -1.253823 -0.147135 -0.327965
    23 0.010772 -0.963791 0.000000 -0.542804 0.000000 0.000000
    24 -0.010412 -0.631916 -0.000001 -1.165881 0.000000 0.000000
    25 -1.120641 -8.501974 -10.733045 -0.701232 0.299737 0.535955
    26 0.089929 -8.543162 0.000001 0.493111 -0.014106 0.211043
    27 -0.000001 -0.359713 0.000000 0.000000 0.000000 0.000000
    28 -0.170479 -2.636147 -0.277655 -1.326477 0.000000 0.000000
    29 0.010598 -1.261177 0.000000 -0.766400 0.000000 0.000000
    30 -0.000001 -0.943233 -0.000001 -0.584646 0.000000 0.000000
    31 -0.827564 -2.508973 -0.277657 -0.851729 0.000000 0.000000
    32 -0.000001 -1.292971 0.000000 -1.198591 0.000000 0.000000
    33 0.000000 -0.752465 0.000000 -0.476458 0.000000 0.000000
    34 0.444212 -2.561960 -0.277655 -1.570265 -0.041073 -0.026169
    35 0.021022 -1.208186 0.000000 -0.511360 0.000000 0.000000
    36 0.010596 -0.741866 -0.000001 -0.542974 0.000000 0.000000
    37 1.047445 -2.222820 -0.277655 -1.508123 -0.078971 -0.038609
    38 -0.000001 -0.996223 -0.000002 -0.698495 0.000000 0.000000
    39 -0.000001 -0.614690 0.000001 -0.608181 0.000000 0.000000
    40 -0.308255 -0.007814 0.307166 0.139092 -0.085765 -2.468891
    41 1.978378 0.019544 0.000000 -0.099127 -0.033831 0.222060
    42 0.982426 0.003186 0.000001 0.000000 0.000000 0.320314
  time 30
    0 7.606551 2.665641 -8.194058 -0.774287 -1.331381 0.567272
    1 0.000000 -8.563285 0.000000 0.347509 -0.125220 -0.169570
    2 -0.435133 -3.043624 0.895601 -1.247037 1.437608 -1.233843
    3 0.000000 2.000727 0.853750 0.000000 0.000000 0.000000
    4 0.021119 -3.993921 3.201528 0.000000 0.000000 0.000000
    5 0.021119 -2.845553 1.084931 0.000000 0.000000 0.000000
    6 0.021119 -4.827049 0.994863 0.000000 0.000000 0.000000
    7 0.021119 -5.547592 1.535272 0.000000 0.000000 0.000000
    8 0.021119 -9.375484 3.809488 0.000000 0.000000 0.000000
    9 -0.003480 -0.404829 0.000001 0.000000 0.000000 0.000000
    10 -0.519309 -2.501156 -0.278957 -1.404603 -0.161672 -0.219512
    11 -0.010598 -1.208185 0.000001 -0.740030 0.000000 0.000000
    12 0.000000 -0.763066 0.000000 -1.343903 0.000000 0.000000
    13 0.105981 -2.607135 -0.278957 -1.135143 -0.167988 -0.238861
    14 0.000000 -1.250579 -0.000001 -0.966912 0.000000 0.000000
    15 0.000000 -0.932634 0.000000 -1.431181 0.000000 0.000000
    16 0.763063 -2.490557 -0.278957 -0.388796 -0.041323 0.031656
    17 -0.012322 -1.280917 0.000000 -0.689389 0.000000 0.000000
    18 -0.001697 -0.749371 0.000000 -0.593412 0.000000 0.000000
    19 0.354566 0.016267 0.318133 0.271703 -0.487906 -0.927541
    20 1.887165 0.012877 0.000000 -0.271037 -0.142581 -0.874135
    21 1.001873 -0.000270 0.000000 0.000000 0.000000 -0.902335
    22 -1.123359 -2.195094 -0.278957 -1.253823 -0.147135 -0.327965
    23 0.010772 -0.963791 0.000000 -0.542804 0.000000 0.000000
    24 -0.010412 -0.631916 -0.000001 -1.165881 0.000000 0.000000
    25 -0.800319 -9.330124 -10.486943 -0.726008 0.255020 0.648663
    26 0.089929 -8.543162 0.000001 0.486738 -0.049153 0.181509
    27 -0.000001 -0.359713 0.000000 0.000000 0.000000 0.000000
    28 -0.170479 -2.636147 -0.277655 -1.326477 0.000000 0.000000
    29 0.010598 -1.261177 0.000000 -0.687615 0.000000 0.000000
    30 -0.000001 -0.943233 -0.000001 -0.532326 0.000000 0.000000
    31 -0.827564 -2.508973 -0.277657 -0.851729 0.000000 0.000000
    32 -0.000001 -1.292971 0.000000 -1.167601 0.000000 0.000000
    33 0.000000 -0.752465 0.000000 -0.445059 0.000000 0.000000
    34 0.444212 -2.561960 -0.277655 -1.570265 -0.041073 -0.026169
    35 0.021022 -1.208186 0.000000 -0.427606 0.000000 0.000000
    36 0.010596 -0.741866 -0.000001 -0.453786 0.000000 0.000000
    37 1.047445 -2.222820 -0.277655 -1.508123 -0.078971 -0.038609
    38 -0.000001 -0.996223 -0.000002 -0.623094 0.000000 0.000000
    39 -0.000001 -0.614690 0.000001 -0.523599 0.000000 0.000000
    40 -0.308255 -0.007814 0.307166 0.141861 -0.083284 -2.490619
    41 1.978378 0.019544 0.000000 -0.098060 -0.036791 0.192024
    42 0.982426 0.003186 0.000001 0.000000 0.000000 0.383988
end
