version 1
nodes
  0 "Bone01" -1
  1 "Bone_Lefthand" 0
  2 "SiN_DoubleB_Root" 1
  3 "SiN_DoubleB_Rotation" 2
  4 "SiN_DoubleB_Barrel" 3
  5 "SiN_DoubleB_BulletBone" 4
  6 "SiN_DoubleB_Bullet02" 5
  7 "SiN_DoubleB_Bullet01" 5
  8 "SiN_DoubleB_Lock" 3
  9 "SiN_DoubleB_Trigger" 3
  10 "Bone04" -1
  11 "Bone_Righthand" 10
  12 "Bone39" 11
  13 "Bone40" 12
  14 "Bone41" 13
  15 "Bone35" 11
  16 "Bone36" 15
  17 "Bone37" 16
  18 "Bone31" 11
  19 "Bone32" 18
  20 "Bone33" 19
  21 "Bone43" 11
  22 "Bone44" 21
  23 "Bone45" 22
  24 "Bone27" 11
  25 "Bone28" 24
  26 "Bone29" 25
  27 "Bone_Se_Hand-R" 11
  28 "Bone13" 1
  29 "Bone14" 28
  30 "Bone15" 29
  31 "Bone17" 1
  32 "Bone18" 31
  33 "Bone19" 32
  34 "Bone21" 1
  35 "Bone22" 34
  36 "Bone23" 35
  37 "Bone09" 1
  38 "Bone10" 37
  39 "Bone11" 38
  40 "Bone05" 1
  41 "Bone06" 40
  42 "Bone07" 41
  43 "Bone_Se_Hand-L" 1
end
skeleton
  time 0
    0 7.826632 -1.962590 -5.707199 4.833792 -1.908110 -5.129616
    1 -0.071918 -8.498731 -0.104137 -0.248455 -0.040406 -0.687001
    2 0.495589 -0.864885 2.107330 0.242957 0.570640 -1.377025
    3 4.542924 -0.382888 0.022987 -0.290882 -0.163213 0.119449
    4 3.200649 0.867596 0.043289 0.000000 0.000000 -0.437102
    5 -3.643570 1.002876 0.003384 0.000000 0.000000 0.003942
    6 0.857399 0.018234 0.573097 0.000000 0.000000 -0.003942
    7 0.857399 0.018232 -0.648928 0.000000 0.000000 -0.003942
    8 0.118242 2.570887 -0.001752 -0.000896 1.161638 3.140619
    9 -0.469978 0.641241 -0.011208 0.000001 0.000000 -1.369176
    10 -6.300771 11.289842 -7.236314 -0.630158 -4.761775 -6.106187
    11 0.096944 -8.450419 -0.009364 -0.457132 -0.001414 -0.009919
    12 0.447952 -2.798982 -0.200442 -0.747382 0.112492 0.092828
    13 -0.032910 -1.480206 0.004936 -0.543456 0.000000 0.000002
    14 -0.027022 -1.076919 -0.020212 -0.208972 0.000000 0.000000
    15 -0.249534 -2.846962 -0.174215 -0.262923 0.055694 0.251063
    16 0.043235 -1.683939 0.096014 -0.892275 0.002823 -0.000167
    17 0.031729 -1.160831 0.058836 -0.088166 0.000642 0.008372
    18 -0.928709 -3.304689 -0.007219 -0.559544 0.120899 0.062599
    19 0.028479 -1.641356 0.150807 -1.220181 0.000000 0.000000
    20 0.021413 -0.957782 0.020047 -0.359918 0.000000 0.000000
    21 1.164474 -2.543938 -0.170328 -0.674861 -0.418461 0.758810
    22 0.024032 -1.129043 0.017806 -0.018074 0.000000 0.000001
    23 0.014896 -0.883989 -0.019845 -0.060801 0.000000 0.000000
    24 -0.586770 -1.264475 0.200164 -0.598458 -0.734380 -2.680461
    25 1.522835 0.058681 0.016850 0.003855 -0.347652 0.206620
    26 1.117948 0.048424 -0.005764 -0.009819 -0.023209 0.456317
    27 -0.139399 -0.111697 0.014397 0.555698 -0.011973 1.557605
    28 -0.488517 -2.755600 -0.228261 -0.574571 0.271685 -0.468093
    29 0.039888 -1.479789 0.029853 -0.905859 0.000000 0.000000
    30 0.028785 -1.075730 -0.023111 -0.077592 0.000000 0.000000
    31 0.250028 -2.820663 -0.238396 -0.321145 0.352734 -0.366444
    32 -0.049759 -1.680545 0.100480 -1.517742 0.000000 -0.000002
    33 -0.034141 -1.148312 0.084779 -0.590723 0.000000 0.000000
    34 0.957766 -2.746776 -0.090301 0.315043 -0.161031 -0.078778
    35 -0.033419 -1.397129 -0.011255 -1.463248 0.000000 -0.000001
    36 -0.022361 -0.957434 0.018783 -1.040570 0.000000 0.000000
    37 -1.180680 -2.507215 -0.193861 -0.548082 0.429750 -0.709238
    38 -0.024966 -1.123934 0.017594 -0.316353 0.000000 0.000001
    39 -0.020057 -0.890966 0.010091 0.010566 0.000000 0.000000
    40 0.708514 -1.013675 0.298662 -1.241877 0.329428 0.170559
    41 1.535926 0.010245 0.005008 0.064690 -0.048058 -0.128399
    42 1.100770 0.004526 -0.010676 0.161489 0.041165 -0.755704
    43 -0.258766 -0.155738 -0.140428 -2.828225 0.268348 -1.453399
  time 1
    0 7.826632 -1.962590 -5.707199 4.813476 -1.905236 -5.109360
    1 -0.071918 -8.498731 -0.104137 -0.261954 -0.026586 -0.691371
    2 0.495589 -0.864885 2.107330 0.242957 0.570640 -1.377025
    3 4.542924 -0.382888 0.022987 -0.248501 -0.194970 0.012795
    4 3.200649 0.867596 0.043289 0.000000 0.000000 -0.437102
    5 -3.643570 1.002876 0.003384 0.000000 0.000000 0.003942
    6 0.857399 0.018234 0.573097 0.000000 0.000000 -0.003942
    7 0.857399 0.018232 -0.648928 0.000000 0.000000 -0.003942
    8 0.118242 2.570887 -0.001752 -0.000896 1.161638 3.140619
    9 -0.469978 0.641241 -0.011208 0.000001 0.000000 -1.369176
    10 -6.300771 11.289842 -7.236314 -0.630158 -4.761775 -6.106187
    11 0.096944 -8.450419 -0.009364 -0.457132 -0.001414 -0.009919
    12 0.447952 -2.798982 -0.200442 -0.747382 0.112492 0.092828
    13 -0.032910 -1.480206 0.004936 -0.543456 0.000000 0.000002
    14 -0.027022 -1.076919 -0.020212 -0.208972 0.000000 0.000000
    15 -0.249534 -2.846962 -0.174215 -0.262923 0.055694 0.251063
    16 0.043235 -1.683939 0.096014 -0.892275 0.002823 -0.000167
    17 0.031729 -1.160831 0.058836 -0.088166 0.000642 0.008372
    18 -0.928709 -3.304689 -0.007219 -0.559544 0.120899 0.062599
    19 0.028479 -1.641356 0.150807 -1.220181 0.000000 0.000000
    20 0.021413 -0.957782 0.020047 -0.359918 0.000000 0.000000
    21 1.164474 -2.543938 -0.170328 -0.674861 -0.418461 0.758810
    22 0.024032 -1.129043 0.017806 -0.018074 0.000000 0.000001
    23 0.014896 -0.883989 -0.019845 -0.060801 0.000000 0.000000
    24 -0.586770 -1.264475 0.200164 -0.598458 -0.734380 -2.680461
    25 1.522835 0.058681 0.016850 0.003855 -0.347652 0.206620
    26 1.117948 0.048424 -0.005764 -0.009819 -0.023209 0.456317
    27 -0.139399 -0.111697 0.014397 0.555698 -0.011973 1.557605
    28 -0.488517 -2.755600 -0.228261 -0.574571 0.271685 -0.468093
    29 0.039888 -1.479789 0.029853 -0.905859 0.000000 0.000000
    30 0.028785 -1.075730 -0.023111 -0.077592 0.000000 0.000000
    31 0.250028 -2.820663 -0.238396 -0.321145 0.352734 -0.366444
    32 -0.049759 -1.680545 0.100480 -1.517742 0.000000 -0.000002
    33 -0.034141 -1.148312 0.084779 -0.590723 0.000000 0.000000
    34 0.957766 -2.746776 -0.090301 0.315043 -0.161031 -0.078778
    35 -0.033419 -1.397129 -0.011255 -1.463248 0.000000 -0.000001
    36 -0.022361 -0.957434 0.018783 -1.040570 0.000000 0.000000
    37 -1.180680 -2.507215 -0.193861 -0.548082 0.429750 -0.709238
    38 -0.024966 -1.123934 0.017594 -0.316353 0.000000 0.000001
    39 -0.020057 -0.890966 0.010091 0.010566 0.000000 0.000000
    40 0.708514 -1.013675 0.298662 -1.241877 0.329428 0.170559
    41 1.535926 0.010245 0.005008 0.064690 -0.048058 -0.128399
    42 1.100770 0.004526 -0.010676 0.161489 0.041165 -0.755704
    43 -0.258766 -0.155738 -0.140428 -2.808448 0.272965 -1.413232
  time 2
    0 7.826632 -1.962590 -5.707199 4.771515 -1.889333 -5.067612
    1 -0.071918 -8.498731 -0.104137 -0.297732 0.010914 -0.703178
    2 0.495589 -0.864885 2.107330 0.242957 0.570640 -1.377025
    3 4.542924 -0.382888 0.022987 -0.169754 -0.261445 -0.228316
    4 3.200649 0.867596 0.043289 0.000000 0.000000 -0.437102
    5 -3.643570 1.002876 0.003384 0.000000 0.000000 0.003942
    6 0.857399 0.018234 0.573097 0.000000 0.000000 -0.003942
    7 0.857399 0.018232 -0.648928 0.000000 0.000000 -0.003942
    8 0.118242 2.570887 -0.001752 -0.000896 1.161638 3.140619
    9 -0.469978 0.641241 -0.011208 0.000001 0.000000 -1.369176
    10 -6.300771 11.289842 -7.236314 -0.630158 -4.761775 -6.106187
    11 0.096944 -8.450419 -0.009364 -0.457132 -0.001414 -0.009919
    12 0.447952 -2.798982 -0.200442 -0.747382 0.112492 0.092828
    13 -0.032910 -1.480206 0.004936 -0.543456 0.000000 0.000002
    14 -0.027022 -1.076919 -0.020212 -0.208972 0.000000 0.000000
    15 -0.249534 -2.846962 -0.174215 -0.262923 0.055694 0.251063
    16 0.043235 -1.683939 0.096014 -0.892275 0.002823 -0.000167
    17 0.031729 -1.160831 0.058836 -0.088166 0.000642 0.008372
    18 -0.928709 -3.304689 -0.007219 -0.559544 0.120899 0.062599
    19 0.028479 -1.641356 0.150807 -1.220181 0.000000 0.000000
    20 0.021413 -0.957782 0.020047 -0.359918 0.000000 0.000000
    21 1.164474 -2.543938 -0.170328 -0.674861 -0.418461 0.758810
    22 0.024032 -1.129043 0.017806 -0.018074 0.000000 0.000001
    23 0.014896 -0.883989 -0.019845 -0.060801 0.000000 0.000000
    24 -0.586770 -1.264475 0.200164 -0.598458 -0.734380 -2.680461
    25 1.522835 0.058681 0.016850 0.003855 -0.347652 0.206620
    26 1.117948 0.048424 -0.005764 -0.009819 -0.023209 0.456317
    27 -0.139399 -0.111697 0.014397 0.555698 -0.011973 1.557605
    28 -0.488517 -2.755600 -0.228261 -0.574571 0.271685 -0.468093
    29 0.039888 -1.479789 0.029853 -0.905859 0.000000 0.000000
    30 0.028785 -1.075730 -0.023111 -0.077592 0.000000 0.000000
    31 0.250028 -2.820663 -0.238396 -0.321145 0.352734 -0.366444
    32 -0.049759 -1.680545 0.100480 -1.517742 0.000000 -0.000002
    33 -0.034141 -1.148312 0.084779 -0.590723 0.000000 0.000000
    34 0.957766 -2.746776 -0.090301 0.315043 -0.161031 -0.078778
    35 -0.033419 -1.397129 -0.011255 -1.463248 0.000000 -0.000001
    36 -0.022361 -0.957434 0.018783 -1.040570 0.000000 0.000000
    37 -1.180680 -2.507215 -0.193861 -0.548082 0.429750 -0.709238
    38 -0.024966 -1.123934 0.017594 -0.316353 0.000000 0.000001
    39 -0.020057 -0.890966 0.010091 0.010566 0.000000 0.000000
    40 0.708514 -1.013675 0.298662 -1.241877 0.329428 0.170559
    41 1.535926 0.010245 0.005008 0.064690 -0.048058 -0.128399
    42 1.100770 0.004526 -0.010676 0.161489 0.041165 -0.755704
    43 -0.258766 -0.155738 -0.140428 -2.768225 0.279120 -1.330514
  time 3
    0 7.826632 -1.962590 -5.707199 4.736200 -1.849863 -5.032902
    1 -0.071918 -8.498731 -0.104137 -0.348850 0.066194 -0.720453
    2 0.495589 -0.864885 2.107330 0.242957 0.570640 -1.377025
    3 4.542924 -0.382888 0.022987 -0.127327 -0.319354 -0.486041
    4 3.200649 0.867596 0.043289 0.000000 0.000000 -0.437102
    5 -3.643570 1.002876 0.003384 0.000000 0.000000 0.003942
    6 0.857399 0.018234 0.573097 0.000000 0.000000 -0.003942
    7 0.857399 0.018232 -0.648928 0.000000 0.000000 -0.003942
    8 0.118242 2.570887 -0.001752 -0.000884 1.161638 3.140619
    9 -0.469978 0.641241 -0.011208 0.000001 0.000000 -1.369176
    10 -6.300771 11.289842 -7.236314 -0.630158 -4.761775 -6.106187
    11 0.096944 -8.450419 -0.009364 -0.457132 -0.001414 -0.009919
    12 0.447952 -2.798982 -0.200442 -0.747382 0.112492 0.092828
    13 -0.032910 -1.480206 0.004936 -0.543456 0.000000 0.000002
    14 -0.027022 -1.076919 -0.020212 -0.208972 0.000000 0.000000
    15 -0.249534 -2.846962 -0.174215 -0.262923 0.055694 0.251063
    16 0.043235 -1.683939 0.096014 -0.892275 0.002823 -0.000167
    17 0.031729 -1.160831 0.058836 -0.088166 0.000642 0.008372
    18 -0.928709 -3.304689 -0.007219 -0.559544 0.120899 0.062599
    19 0.028479 -1.641356 0.150807 -1.220181 0.000000 0.000000
    20 0.021413 -0.957782 0.020047 -0.359918 0.000000 0.000000
    21 1.164474 -2.543938 -0.170328 -0.674861 -0.418461 0.758810
    22 0.024032 -1.129043 0.017806 -0.018074 0.000000 0.000001
    23 0.014896 -0.883989 -0.019845 -0.060801 0.000000 0.000000
    24 -0.586770 -1.264475 0.200164 -0.598458 -0.734380 -2.680461
    25 1.522835 0.058681 0.016850 0.003855 -0.347652 0.206620
    26 1.117948 0.048424 -0.005764 -0.009819 -0.023209 0.456317
    27 -0.139399 -0.111697 0.014397 0.555698 -0.011973 1.557605
    28 -0.488517 -2.755600 -0.228261 -0.574571 0.271685 -0.468093
    29 0.039888 -1.479789 0.029853 -0.905859 0.000000 0.000000
    30 0.028785 -1.075730 -0.023111 -0.077592 0.000000 0.000000
    31 0.250028 -2.820663 -0.238396 -0.321145 0.352734 -0.366444
    32 -0.049759 -1.680545 0.100480 -1.517742 0.000000 -0.000002
    33 -0.034141 -1.148312 0.084779 -0.590723 0.000000 0.000000
    34 0.957766 -2.746776 -0.090301 0.315043 -0.161031 -0.078778
    35 -0.033419 -1.397129 -0.011255 -1.463248 0.000000 -0.000001
    36 -0.022361 -0.957434 0.018783 -1.040570 0.000000 0.000000
    37 -1.180680 -2.507215 -0.193861 -0.548082 0.429750 -0.709238
    38 -0.024966 -1.123934 0.017594 -0.316353 0.000000 0.000001
    39 -0.020057 -0.890966 0.010091 0.010566 0.000000 0.000000
    40 0.708514 -1.013675 0.298662 -1.241877 0.329428 0.170559
    41 1.535926 0.010245 0.005008 0.064690 -0.048058 -0.128399
    42 1.100770 0.004526 -0.010676 0.161489 0.041165 -0.755704
    43 -0.258766 -0.155738 -0.140428 -2.734212 0.275318 -1.261535
  time 4
    0 7.826632 -1.962590 -6.285341 4.713321 -1.716987 -5.011029
    1 -0.071918 -8.498731 -0.104137 -0.408388 0.133272 -0.741357
    2 0.495589 -0.864885 2.107330 0.242957 0.570640 -1.377025
    3 4.542924 -0.382888 0.022987 -0.128391 -0.357328 -0.721859
    4 3.200649 0.867596 0.043289 0.000000 0.000000 -0.437102
    5 -3.643570 1.002876 0.003384 0.000000 0.000000 0.003942
    6 0.857399 0.018234 0.573097 0.000000 0.000000 -0.003942
    7 0.857399 0.018232 -0.648928 0.000000 0.000000 -0.003942
    8 0.118242 2.570887 -0.001752 -0.000896 1.161638 3.140619
    9 -0.469978 0.641241 -0.011208 0.000001 0.000000 -1.369176
    10 -6.300771 11.289842 -7.236314 -0.630158 -4.761775 -6.106187
    11 0.096944 -8.450419 -0.009364 -0.457132 -0.001414 -0.009919
    12 0.447952 -2.798982 -0.200442 -0.747382 0.112492 0.092828
    13 -0.032910 -1.480206 0.004936 -0.543456 0.000000 0.000002
    14 -0.027022 -1.076919 -0.020212 -0.208972 0.000000 0.000000
    15 -0.249534 -2.846962 -0.174215 -0.262923 0.055694 0.251063
    16 0.043235 -1.683939 0.096014 -0.892275 0.002823 -0.000167
    17 0.031729 -1.160831 0.058836 -0.088166 0.000642 0.008372
    18 -0.928709 -3.304689 -0.007219 -0.559544 0.120899 0.062599
    19 0.028479 -1.641356 0.150807 -1.220181 0.000000 0.000000
    20 0.021413 -0.957782 0.020047 -0.359918 0.000000 0.000000
    21 1.164474 -2.543938 -0.170328 -0.674861 -0.418461 0.758810
    22 0.024032 -1.129043 0.017806 -0.018074 0.000000 0.000001
    23 0.014896 -0.883989 -0.019845 -0.060801 0.000000 0.000000
    24 -0.586770 -1.264475 0.200164 -0.598458 -0.734380 -2.680461
    25 1.522835 0.058681 0.016850 0.003855 -0.347652 0.206620
    26 1.117948 0.048424 -0.005764 -0.009819 -0.023209 0.456317
    27 -0.139399 -0.111697 0.014397 0.555698 -0.011973 1.557605
    28 -0.488517 -2.755600 -0.228261 -0.574571 0.271685 -0.468093
    29 0.039888 -1.479789 0.029853 -0.905859 0.000000 0.000000
    30 0.028785 -1.075730 -0.023111 -0.077592 0.000000 0.000000
    31 0.250028 -2.820663 -0.238396 -0.321145 0.352734 -0.366444
    32 -0.049759 -1.680545 0.100480 -1.517742 0.000000 -0.000002
    33 -0.034141 -1.148312 0.084779 -0.590723 0.000000 0.000000
    34 0.957766 -2.746776 -0.090301 0.315043 -0.161031 -0.078778
    35 -0.033419 -1.397129 -0.011255 -1.463248 0.000000 -0.000001
    36 -0.022361 -0.957434 0.018783 -1.040570 0.000000 0.000000
    37 -1.180680 -2.507215 -0.193861 -0.548082 0.429750 -0.709238
    38 -0.024966 -1.123934 0.017594 -0.316353 0.000000 0.000001
    39 -0.020057 -0.890966 0.010091 0.010566 0.000000 0.000000
    40 0.708514 -1.017581 0.294755 -1.211630 0.337006 0.083869
    41 1.535926 0.010245 0.005008 0.064877 -0.047815 -0.132224
    42 1.100770 0.004526 -0.010676 0.161920 0.027119 -0.689137
    43 -0.278298 -0.163551 -0.152147 -2.709849 0.253411 -1.217838
  time 5
    0 7.826632 -1.962590 -7.418188 4.761168 -1.506894 -5.060100
    1 -0.071918 -8.498731 -0.104137 -0.469238 0.206222 -0.764050
    2 0.495589 -0.864885 2.107330 0.242957 0.570640 -1.377025
    3 4.542924 -0.382888 0.022987 -0.130288 -0.386763 -0.974091
    4 3.200649 0.867596 0.043289 0.000000 0.000000 -0.587691
    5 -3.643570 1.002876 0.003384 0.000000 0.000000 0.003942
    6 0.857399 0.018234 0.573097 0.000000 0.000000 -0.003942
    7 0.857399 0.018232 -0.648928 0.000000 0.000000 -0.003942
    8 0.118242 2.570887 -0.001752 -0.000896 1.161638 3.140619
    9 -0.469978 0.641241 -0.011208 0.000001 0.000000 -1.369176
    10 -6.300771 11.289842 -7.236314 -0.630158 -4.761775 -6.106187
    11 0.096944 -8.450419 -0.009364 -0.457132 -0.001414 -0.009919
    12 0.447952 -2.798982 -0.200442 -0.747382 0.112492 0.092828
    13 -0.032910 -1.480206 0.004936 -0.543456 0.000000 0.000002
    14 -0.027022 -1.076919 -0.020212 -0.208972 0.000000 0.000000
    15 -0.249534 -2.846962 -0.174215 -0.262923 0.055694 0.251063
    16 0.043235 -1.683939 0.096014 -0.892275 0.002823 -0.000167
    17 0.031729 -1.160831 0.058836 -0.088166 0.000642 0.008372
    18 -0.928709 -3.304689 -0.007219 -0.559544 0.120899 0.062599
    19 0.028479 -1.641356 0.150807 -1.220181 0.000000 0.000000
    20 0.021413 -0.957782 0.020047 -0.359918 0.000000 0.000000
    21 1.164474 -2.543938 -0.170328 -0.674861 -0.418461 0.758810
    22 0.024032 -1.129043 0.017806 -0.018074 0.000000 0.000001
    23 0.014896 -0.883989 -0.019845 -0.060801 0.000000 0.000000
    24 -0.586770 -1.264475 0.200164 -0.598458 -0.734380 -2.680461
    25 1.522835 0.058681 0.016850 0.003855 -0.347652 0.206620
    26 1.117948 0.048424 -0.005764 -0.009819 -0.023209 0.456317
    27 -0.139399 -0.111697 0.014397 0.555698 -0.011973 1.557605
    28 -0.488517 -2.755600 -0.228261 -0.574571 0.271685 -0.468093
    29 0.039888 -1.479789 0.029853 -0.905859 0.000000 0.000000
    30 0.028785 -1.075730 -0.023111 -0.077592 0.000000 0.000000
    31 0.250028 -2.820663 -0.238396 -0.321145 0.352734 -0.366444
    32 -0.049759 -1.680545 0.100480 -1.517742 0.000000 -0.000002
    33 -0.034141 -1.148312 0.084779 -0.590723 0.000000 0.000000
    34 0.957766 -2.746776 -0.090301 0.315043 -0.161031 -0.078778
    35 -0.033419 -1.397129 -0.011255 -1.463248 0.000000 -0.000001
    36 -0.022361 -0.957434 0.018783 -1.040570 0.000000 0.000000
    37 -1.180680 -2.507215 -0.193861 -0.548082 0.429750 -0.709238
    38 -0.024966 -1.123934 0.017594 -0.316353 0.000000 0.000001
    39 -0.020057 -0.890966 0.010091 0.010566 0.000000 0.000000
    40 0.700701 -1.029300 0.286943 -1.143188 0.367863 -0.102211
    41 1.535926 0.010245 0.005008 0.065267 -0.047256 -0.140653
    42 1.100770 0.004526 -0.010676 0.162555 -0.003861 -0.533094
    43 -0.321268 -0.183083 -0.183398 -2.685104 0.219917 -1.176432
  time 6
    0 7.826632 -1.962590 -8.195556 4.725662 -1.337900 -5.025960
    1 -0.071918 -8.498731 -0.104137 -0.523970 0.279116 -0.786590
    2 0.495589 -0.864885 2.107330 0.242957 0.570640 -1.377025
    3 4.542924 -0.382888 0.022987 -0.131306 -0.398612 -1.240391
    4 3.200649 0.867596 0.043289 0.000000 0.000000 -0.919056
    5 -3.643570 1.002876 0.003384 0.000000 0.000000 0.003942
    6 0.857399 0.018234 0.573097 0.000000 0.000000 -0.003942
    7 0.857399 0.018232 -0.648928 0.000000 0.000000 -0.003942
    8 0.118242 2.570887 -0.001752 -0.000896 1.161638 3.140619
    9 -0.469978 0.641241 -0.011208 0.000001 0.000000 -1.369176
    10 -6.300771 11.289842 -7.236314 -0.630158 -4.761775 -6.106187
    11 0.096944 -8.450419 -0.009364 -0.457132 -0.001414 -0.009919
    12 0.447952 -2.798982 -0.200442 -0.747382 0.112492 0.092828
    13 -0.032910 -1.480206 0.004936 -0.543456 0.000000 0.000002
    14 -0.027022 -1.076919 -0.020212 -0.208972 0.000000 0.000000
    15 -0.249534 -2.846962 -0.174215 -0.262923 0.055694 0.251063
    16 0.043235 -1.683939 0.096014 -0.892275 0.002823 -0.000167
    17 0.031729 -1.160831 0.058836 -0.088166 0.000642 0.008372
    18 -0.928709 -3.304689 -0.007219 -0.559544 0.120899 0.062599
    19 0.028479 -1.641356 0.150807 -1.220181 0.000000 0.000000
    20 0.021413 -0.957782 0.020047 -0.359918 0.000000 0.000000
    21 1.164474 -2.543938 -0.170328 -0.674861 -0.418461 0.758810
    22 0.024032 -1.129043 0.017806 -0.018074 0.000000 0.000001
    23 0.014896 -0.883989 -0.019845 -0.060801 0.000000 0.000000
    24 -0.586770 -1.264475 0.200164 -0.598458 -0.734380 -2.680461
    25 1.522835 0.058681 0.016850 0.003855 -0.347652 0.206620
    26 1.117948 0.048424 -0.005764 -0.009819 -0.023209 0.456317
    27 -0.139399 -0.111697 0.014397 0.555698 -0.011973 1.557605
    28 -0.488517 -2.755600 -0.228261 -0.574571 0.271685 -0.468093
    29 0.039888 -1.479789 0.029853 -0.905859 0.000000 0.000000
    30 0.028785 -1.075730 -0.023111 -0.077592 0.000000 0.000000
    31 0.250028 -2.820663 -0.238396 -0.321145 0.352734 -0.366444
    32 -0.049759 -1.680545 0.100480 -1.517742 0.000000 -0.000002
    33 -0.034141 -1.148312 0.084779 -0.590723 0.000000 0.000000
    34 0.957766 -2.746776 -0.090301 0.315043 -0.161031 -0.078778
    35 -0.033419 -1.397129 -0.011255 -1.463248 0.000000 -0.000001
    36 -0.022361 -0.957434 0.018783 -1.040570 0.000000 0.000000
    37 -1.180680 -2.507215 -0.193861 -0.548082 0.429750 -0.709238
    38 -0.024966 -1.123934 0.017594 -0.316353 0.000000 0.000001
    39 -0.020057 -0.890966 0.010091 0.010566 0.000000 0.000000
    40 0.685076 -1.048832 0.279130 -1.074149 0.417277 -0.281109
    41 1.535926 0.010245 0.005008 0.065670 -0.046721 -0.149057
    42 1.100770 0.004526 -0.010676 0.162220 -0.034938 -0.352788
    43 -0.375957 -0.206521 -0.218556 -2.663320 0.184432 -1.141417
  time 7
    0 7.826632 -1.911808 -8.476814 4.711422 -1.230698 -5.013502
    1 -0.071918 -8.498731 -0.104137 -0.564827 0.346084 -0.806881
    2 0.495589 -0.864885 2.107330 0.242957 0.570640 -1.377025
    3 4.542924 -0.382888 0.022987 0.021514 -0.383134 -1.575561
    4 3.200649 0.867596 0.043289 0.000000 0.000000 -1.250420
    5 -3.643570 1.002876 0.003384 0.000000 0.000000 0.003942
    6 0.857399 0.018234 0.573097 0.000000 0.000000 -0.003942
    7 0.857399 0.018232 -0.648928 0.000000 0.000000 -0.003942
    8 0.118242 2.570887 -0.001752 -0.000896 1.161638 3.140619
    9 -0.469978 0.641241 -0.011208 0.000001 0.000000 -1.369176
    10 -6.300771 11.289842 -7.236314 -0.630158 -4.761775 -6.106187
    11 0.096944 -8.450419 -0.009364 -0.457132 -0.001414 -0.009919
    12 0.447952 -2.798982 -0.200442 -0.747382 0.112492 0.092828
    13 -0.032910 -1.480206 0.004936 -0.543456 0.000000 0.000002
    14 -0.027022 -1.076919 -0.020212 -0.208972 0.000000 0.000000
    15 -0.249534 -2.846962 -0.174215 -0.262923 0.055694 0.251063
    16 0.043235 -1.683939 0.096014 -0.892275 0.002823 -0.000167
    17 0.031729 -1.160831 0.058836 -0.088166 0.000642 0.008372
    18 -0.928709 -3.304689 -0.007219 -0.559544 0.120899 0.062599
    19 0.028479 -1.641356 0.150807 -1.220181 0.000000 0.000000
    20 0.021413 -0.957782 0.020047 -0.359918 0.000000 0.000000
    21 1.164474 -2.543938 -0.170328 -0.674861 -0.418461 0.758810
    22 0.024032 -1.129043 0.017806 -0.018074 0.000000 0.000001
    23 0.014896 -0.883989 -0.019845 -0.060801 0.000000 0.000000
    24 -0.586770 -1.264475 0.200164 -0.598458 -0.734380 -2.680461
    25 1.522835 0.058681 0.016850 0.003855 -0.347652 0.206620
    26 1.117948 0.048424 -0.005764 -0.009819 -0.023209 0.456317
    27 -0.139399 -0.111697 0.014397 0.555698 -0.011973 1.557605
    28 -0.488517 -2.755600 -0.228261 -0.574571 0.271685 -0.468093
    29 0.039888 -1.479789 0.029853 -0.905859 0.000000 0.000000
    30 0.028785 -1.075730 -0.023111 -0.077592 0.000000 0.000000
    31 0.250028 -2.820663 -0.238396 -0.321145 0.352734 -0.366444
    32 -0.049759 -1.680545 0.100480 -1.517742 0.000000 -0.000002
    33 -0.034141 -1.148312 0.084779 -0.590723 0.000000 0.000000
    34 0.957766 -2.746776 -0.090301 0.315043 -0.161031 -0.078778
    35 -0.033419 -1.397129 -0.011255 -1.463248 0.000000 -0.000001
    36 -0.022361 -0.957434 0.018783 -1.040570 0.000000 0.000000
    37 -1.180680 -2.507215 -0.193861 -0.548082 0.429750 -0.709238
    38 -0.024966 -1.123934 0.017594 -0.316353 0.000000 0.000001
    39 -0.020057 -0.890966 0.010091 0.010566 0.000000 0.000000
    40 0.669450 -1.068364 0.263504 -1.043133 0.445409 -0.359834
    41 1.535926 0.010245 0.005008 0.065843 -0.046454 -0.152882
    42 1.100770 0.004526 -0.010676 0.159356 -0.048828 -0.213318
    43 -0.418927 -0.226053 -0.249806 -2.647652 0.156188 -1.117089
  time 8
    0 7.826632 -1.771178 -8.742447 4.698131 -1.132502 -5.001995
    1 -0.071918 -8.498731 -0.104137 -0.583559 0.401281 -0.822469
    2 0.495589 -0.864885 2.107330 0.242957 0.570640 -1.377025
    3 4.542924 -0.382888 0.022987 0.105582 -0.331629 -1.590434
    4 3.200649 0.867596 0.043289 0.000000 0.000000 -1.401052
    5 -3.643570 1.002876 0.003384 0.000000 0.000000 0.003942
    6 0.857399 0.018234 0.573097 0.000000 0.000000 -0.003942
    7 0.857399 0.018232 -0.648928 0.000000 0.000000 -0.003942
    8 0.118242 2.570887 -0.001752 -0.000896 1.161638 3.140619
    9 -0.469978 0.641241 -0.011208 0.000001 0.000000 -1.369176
    10 -6.300771 11.289842 -7.236314 -0.630158 -4.761775 -6.106187
    11 0.096944 -8.450419 -0.009364 -0.457132 -0.001414 -0.009919
    12 0.447952 -2.798982 -0.200442 -0.747382 0.112492 0.092828
    13 -0.032910 -1.480206 0.004936 -0.543456 0.000000 0.000002
    14 -0.027022 -1.076919 -0.020212 -0.208972 0.000000 0.000000
    15 -0.249534 -2.846962 -0.174215 -0.262923 0.055694 0.251063
    16 0.043235 -1.683939 0.096014 -0.892275 0.002823 -0.000167
    17 0.031729 -1.160831 0.058836 -0.088166 0.000642 0.008372
    18 -0.928709 -3.304689 -0.007219 -0.559544 0.120899 0.062599
    19 0.028479 -1.641356 0.150807 -1.220181 0.000000 0.000000
    20 0.021413 -0.957782 0.020047 -0.359918 0.000000 0.000000
    21 1.164474 -2.543938 -0.170328 -0.674861 -0.418461 0.758810
    22 0.024032 -1.129043 0.017806 -0.018074 0.000000 0.000001
    23 0.014896 -0.883989 -0.019845 -0.060801 0.000000 0.000000
    24 -0.586770 -1.264475 0.200164 -0.598458 -0.734380 -2.680461
    25 1.522835 0.058681 0.016850 0.003855 -0.347652 0.206620
    26 1.117948 0.048424 -0.005764 -0.009819 -0.023209 0.456317
    27 -0.139399 -0.111697 0.014397 0.555698 -0.011973 1.557605
    28 -0.488517 -2.755600 -0.228261 -0.578903 0.270694 -0.471052
    29 0.039888 -1.479789 0.029853 -0.925417 0.000000 0.000000
    30 0.028785 -1.075730 -0.023111 -0.093213 0.000000 0.000000
    31 0.250028 -2.820663 -0.238396 -0.496383 0.351583 -0.370268
    32 -0.049759 -1.680545 0.100480 -1.431613 0.000000 -0.000002
    33 -0.034141 -1.148312 0.084779 -0.567433 0.000000 0.000000
    34 0.957766 -2.746776 -0.090301 0.318004 -0.161031 -0.078778
    35 -0.033419 -1.397129 -0.011255 -1.451814 0.000000 -0.000001
    36 -0.022361 -0.957434 0.018783 -1.039168 0.000000 0.000000
    37 -1.180680 -2.507215 -0.193861 -0.585696 0.427021 -0.712972
    38 -0.024966 -1.123934 0.017594 -0.355199 0.000000 0.000001
    39 -0.020057 -0.890966 0.010091 0.009496 0.000000 0.000000
    40 0.653825 -1.095708 0.247879 -1.051592 0.427164 -0.344670
    41 1.535926 0.010245 0.005008 0.061390 -0.048472 -0.097021
    42 1.100770 0.004526 -0.010676 0.141606 -0.044609 -0.130603
    43 -0.438459 -0.233865 -0.261526 -2.641632 0.144601 -1.108025
  time 9
    0 7.826632 -1.552422 -8.984642 4.685885 -1.052028 -4.991724
    1 -0.071918 -8.498731 -0.104137 -0.437756 0.497384 -0.539267
    2 0.495589 -0.864885 2.107330 0.242957 0.570640 -1.377025
    3 4.542924 -0.382888 0.022987 0.120480 -0.283381 -1.382820
    4 3.200649 0.867596 0.043289 0.000000 0.000000 -1.399812
    5 -3.643570 1.002876 0.003384 0.000000 0.000000 0.003942
    6 0.857399 0.018234 0.573097 0.000000 0.000000 -0.003942
    7 0.857399 0.018232 -0.648928 0.000000 0.000000 -0.003942
    8 0.118242 2.570887 -0.001752 -0.000896 1.161638 3.140619
    9 -0.469978 0.641241 -0.011208 0.000001 0.000000 -1.369176
    10 -6.300771 11.289842 -7.236314 -0.630158 -4.761775 -6.106187
    11 0.096944 -8.450419 -0.009364 -0.457132 -0.001414 -0.009919
    12 0.447952 -2.798982 -0.200442 -0.747382 0.112492 0.092828
    13 -0.032910 -1.480206 0.004936 -0.543456 0.000000 0.000002
    14 -0.027022 -1.076919 -0.020212 -0.208972 0.000000 0.000000
    15 -0.249534 -2.846962 -0.174215 -0.262923 0.055694 0.251063
    16 0.043235 -1.683939 0.096014 -0.892275 0.002823 -0.000167
    17 0.031729 -1.160831 0.058836 -0.088166 0.000642 0.008372
    18 -0.928709 -3.304689 -0.007219 -0.559544 0.120899 0.062599
    19 0.028479 -1.641356 0.150807 -1.220181 0.000000 0.000000
    20 0.021413 -0.957782 0.020047 -0.359918 0.000000 0.000000
    21 1.164474 -2.543938 -0.170328 -0.674861 -0.418461 0.758810
    22 0.024032 -1.129043 0.017806 -0.018074 0.000000 0.000001
    23 0.014896 -0.883989 -0.019845 -0.060801 0.000000 0.000000
    24 -0.586770 -1.264475 0.200164 -0.598458 -0.734380 -2.680461
    25 1.522835 0.058681 0.016850 0.003855 -0.347652 0.206620
    26 1.117948 0.048424 -0.005764 -0.009819 -0.023209 0.456317
    27 -0.139399 -0.111697 0.014397 0.555698 -0.011973 1.557605
    28 -0.488517 -2.755600 -0.228261 -0.601784 0.267965 -0.479223
    29 0.039888 -1.479789 0.029853 -0.961699 0.000000 0.000000
    30 0.028785 -1.075730 -0.023111 -0.122244 0.000000 0.000000
    31 0.250028 -2.820663 -0.238396 -0.821839 0.348395 -0.380889
    32 -0.049759 -1.680545 0.100480 -1.244091 0.000000 -0.000002
    33 -0.034141 -1.148312 0.084779 -0.505499 0.000000 0.000000
    34 0.957766 -2.746776 -0.090301 0.326207 -0.161031 -0.078778
    35 -0.033419 -1.397129 -0.011255 -1.420051 0.000000 -0.000001
    36 -0.022361 -0.957434 0.018783 -1.035375 0.000000 0.000000
    37 -1.180680 -2.507215 -0.193861 -0.656563 0.419445 -0.723332
    38 -0.024966 -1.123934 0.017594 -0.456541 0.000000 0.000001
    39 -0.020057 -0.890966 0.010091 0.004084 0.000000 0.000000
    40 0.638199 -1.119147 0.232253 -1.059196 0.372690 -0.308695
    41 1.535926 0.010245 0.005008 0.051618 -0.052726 0.025848
    42 1.100770 0.004526 -0.010676 0.108769 -0.036028 -0.070295
    43 -0.430646 -0.229959 -0.257619 -2.653957 0.180539 -1.201619
  time 10
    0 7.826632 -1.271163 -9.207305 4.675632 -0.997517 -4.983071
    1 -0.071918 -8.498731 -0.104137 -0.117634 0.573878 0.032736
    2 0.495589 -0.864885 2.107330 0.242957 0.570640 -1.377025
    3 4.542924 -0.382888 0.022987 0.094524 -0.234679 -0.996266
    4 3.200649 0.867596 0.043289 0.000000 0.000000 -1.395152
    5 -3.643570 1.002876 0.003384 0.000000 0.000000 0.003942
    6 0.857399 0.018234 0.573097 0.000000 0.000000 -0.003942
    7 0.857399 0.018232 -0.648928 0.000000 0.000000 -0.003942
    8 0.118242 2.570887 -0.001752 -0.000896 1.161638 3.140619
    9 -0.469978 0.641241 -0.011208 0.000001 0.000000 -1.369176
    10 -6.300771 11.289842 -7.236314 -0.630158 -4.761775 -6.106187
    11 0.096944 -8.450419 -0.009364 -0.457132 -0.001414 -0.009919
    12 0.447952 -2.798982 -0.200442 -0.747382 0.112492 0.092828
    13 -0.032910 -1.480206 0.004936 -0.543456 0.000000 0.000002
    14 -0.027022 -1.076919 -0.020212 -0.208972 0.000000 0.000000
    15 -0.249534 -2.846962 -0.174215 -0.262923 0.055694 0.251063
    16 0.043235 -1.683939 0.096014 -0.892275 0.002823 -0.000167
    17 0.031729 -1.160831 0.058836 -0.088166 0.000642 0.008372
    18 -0.928709 -3.304689 -0.007219 -0.559544 0.120899 0.062599
    19 0.028479 -1.641356 0.150807 -1.220181 0.000000 0.000000
    20 0.021413 -0.957782 0.020047 -0.359918 0.000000 0.000000
    21 1.164474 -2.543938 -0.170328 -0.674861 -0.418461 0.758810
    22 0.024032 -1.129043 0.017806 -0.018074 0.000000 0.000001
    23 0.014896 -0.883989 -0.019845 -0.060801 0.000000 0.000000
    24 -0.586770 -1.264475 0.200164 -0.598458 -0.734380 -2.680461
    25 1.522835 0.058681 0.016850 0.003855 -0.347652 0.206620
    26 1.117948 0.048424 -0.005764 -0.009819 -0.023209 0.456317
    27 -0.139399 -0.111697 0.014397 0.555698 -0.011973 1.557605
    28 -0.488517 -2.755600 -0.228261 -0.658101 0.263818 -0.491651
    29 0.039888 -1.479789 0.029853 -0.981200 0.000000 0.000000
    30 0.028785 -1.075730 -0.023111 -0.137864 0.000000 0.000000
    31 0.250028 -2.820663 -0.238396 -0.997299 0.343542 -0.397006
    32 -0.049759 -1.680545 0.100480 -1.061535 0.000000 -0.000002
    33 -0.034141 -1.148312 0.084779 -0.416824 0.000000 0.000000
    34 0.957766 -2.746776 -0.090301 0.338669 -0.161031 -0.078778
    35 -0.033419 -1.397129 -0.011255 -1.371832 0.000000 -0.000001
    36 -0.022361 -0.957434 0.018783 -1.029574 0.000000 0.000000
    37 -1.180680 -2.507215 -0.193861 -0.697859 0.407948 -0.739048
    38 -0.024966 -1.123934 0.017594 -0.597593 0.000000 0.000001
    39 -0.020057 -0.890966 0.010091 -0.009186 0.000000 0.000000
    40 0.618667 -1.142585 0.216628 -1.038476 0.282039 -0.264868
    41 1.535926 0.010245 0.005008 0.041889 -0.056810 0.148743
    42 1.100770 0.004526 -0.010676 0.077309 -0.027423 -0.022002
    43 -0.415021 -0.226053 -0.253713 -2.690167 0.261649 -1.408367
  time 11
    0 7.826632 -0.935215 -9.406530 4.668607 -0.977495 -4.976889
    1 -0.071918 -8.498731 -0.104137 0.063912 0.575872 0.349569
    2 0.495589 -0.864885 2.107330 0.242957 0.570640 -1.377025
    3 4.542924 -0.382888 0.022987 0.037384 -0.184696 -0.572061
    4 3.200649 0.867596 0.043289 0.000000 0.000000 -1.385574
    5 -3.643570 1.002876 0.003384 0.000000 0.000000 0.003942
    6 0.857399 0.018234 0.573097 0.000000 0.000000 -0.003942
    7 0.857399 0.018232 -0.648928 0.000000 0.000000 -0.003942
    8 0.118242 2.570887 -0.001752 -0.000896 1.161638 3.140619
    9 -0.469978 0.641241 -0.011208 0.000001 0.000000 -1.369176
    10 -6.300771 11.289842 -7.236314 -0.630158 -4.761775 -6.106187
    11 0.096944 -8.450419 -0.009364 -0.457132 -0.001414 -0.009919
    12 0.447952 -2.798982 -0.200442 -0.747382 0.112492 0.092828
    13 -0.032910 -1.480206 0.004936 -0.543456 0.000000 0.000002
    14 -0.027022 -1.076919 -0.020212 -0.208972 0.000000 0.000000
    15 -0.249534 -2.846962 -0.174215 -0.262923 0.055694 0.251063
    16 0.043235 -1.683939 0.096014 -0.892275 0.002823 -0.000167
    17 0.031729 -1.160831 0.058836 -0.088166 0.000642 0.008372
    18 -0.928709 -3.304689 -0.007219 -0.559544 0.120899 0.062599
    19 0.028479 -1.641356 0.150807 -1.220181 0.000000 0.000000
    20 0.021413 -0.957782 0.020047 -0.359918 0.000000 0.000000
    21 1.164474 -2.543938 -0.170328 -0.674861 -0.418461 0.758810
    22 0.024032 -1.129043 0.017806 -0.018074 0.000000 0.000001
    23 0.014896 -0.883989 -0.019845 -0.060801 0.000000 0.000000
    24 -0.586770 -1.264475 0.200164 -0.598458 -0.734380 -2.680461
    25 1.522835 0.058681 0.016850 0.003855 -0.347652 0.206620
    26 1.117948 0.048424 -0.005764 -0.009819 -0.023209 0.456317
    27 -0.139399 -0.111697 0.014397 0.555698 -0.011973 1.557605
    28 -0.488517 -2.755600 -0.228261 -0.773890 0.260434 -0.504644
    29 0.039888 -1.479789 0.029853 -0.944805 0.000000 0.000000
    30 0.028785 -1.075730 -0.023111 -0.109453 0.000000 0.000000
    31 0.250028 -2.820663 -0.238396 -0.935779 0.339335 -0.410600
    32 -0.049759 -1.680545 0.100480 -0.893323 0.000000 -0.000002
    33 -0.034141 -1.148312 0.084779 -0.281516 0.000000 0.000000
    34 0.957766 -2.746776 -0.090301 0.355590 -0.161031 -0.078778
    35 -0.033419 -1.397129 -0.011255 -1.306371 0.000000 -0.000001
    36 -0.022361 -0.957434 0.018783 -1.021701 0.000000 0.000000
    37 -1.180680 -2.507215 -0.193861 -0.702300 0.399132 -0.753904
    38 -0.024966 -1.123934 0.017594 -0.807659 0.000000 0.000001
    39 -0.020057 -0.890966 0.010091 -0.038385 0.020709 0.004890
    40 0.606948 -1.166023 0.204909 -0.962259 0.154119 -0.227538
    41 1.535926 0.010245 0.005008 0.037493 -0.058585 0.204604
    42 1.100770 0.004526 -0.010676 0.063695 -0.023193 0.024552
    43 -0.387676 -0.214334 -0.241994 0.401740 2.798143 1.523685
  time 12
    0 7.826632 -0.564110 -9.582317 4.663385 -0.979411 -4.972324
    1 -0.071918 -8.498731 -0.104137 0.063366 0.572217 0.347985
    2 0.495589 -0.864885 2.107330 0.242957 0.570640 -1.377025
    3 4.542924 -0.382888 0.022987 -0.020034 -0.137861 -0.170768
    4 3.200649 0.867596 0.043289 0.000000 0.000000 -1.369540
    5 -3.643570 1.002876 0.003384 0.000000 0.000000 0.003942
    6 0.857399 0.018234 0.573097 0.000000 0.000000 -0.003942
    7 0.857399 0.018232 -0.648928 0.000000 0.000000 -0.003942
    8 0.118242 2.570887 -0.001752 -0.000896 1.161638 3.140619
    9 -0.469978 0.641241 -0.011208 0.000001 0.000000 -1.369176
    10 -6.300771 11.289842 -7.236314 -0.630158 -4.761775 -6.106187
    11 0.096944 -8.450419 -0.009364 -0.457132 -0.001414 -0.009919
    12 0.447952 -2.798982 -0.200442 -0.747382 0.112492 0.092828
    13 -0.032910 -1.480206 0.004936 -0.543456 0.000000 0.000002
    14 -0.027022 -1.076919 -0.020212 -0.208972 0.000000 0.000000
    15 -0.249534 -2.846962 -0.174215 -0.262923 0.055694 0.251063
    16 0.043235 -1.683939 0.096014 -0.892275 0.002823 -0.000167
    17 0.031729 -1.160831 0.058836 -0.088166 0.000642 0.008372
    18 -0.928709 -3.304689 -0.007219 -0.559544 0.120899 0.062599
    19 0.028479 -1.641356 0.150807 -1.220181 0.000000 0.000000
    20 0.021413 -0.957782 0.020047 -0.359918 0.000000 0.000000
    21 1.164474 -2.543938 -0.170328 -0.674861 -0.418461 0.758810
    22 0.024032 -1.129043 0.017806 -0.018074 0.000000 0.000001
    23 0.014896 -0.883989 -0.019845 -0.060801 0.000000 0.000000
    24 -0.586770 -1.264475 0.200164 -0.598458 -0.734380 -2.680461
    25 1.522835 0.058681 0.016850 0.003855 -0.347652 0.206620
    26 1.117948 0.048424 -0.005764 -0.009819 -0.023209 0.456317
    27 -0.139399 -0.111697 0.014397 0.555698 -0.011973 1.557605
    28 -0.488517 -2.755600 -0.228261 -0.927407 0.257415 -0.518419
    29 0.039888 -1.479789 0.029853 -0.864589 0.000000 0.000000
    30 0.028785 -1.075730 -0.023111 -0.046972 0.000000 0.000000
    31 0.250028 -2.820663 -0.238396 -0.788510 0.335392 -0.423000
    32 -0.049759 -1.680545 0.100480 -0.711257 0.000000 -0.000002
    33 -0.034141 -1.148312 0.084779 -0.111372 0.000000 0.000000
    34 0.957766 -2.746776 -0.090301 0.375888 -0.161031 -0.078778
    35 -0.033419 -1.397129 -0.011255 -1.227901 0.000000 -0.000001
    36 -0.022361 -0.957434 0.018783 -1.012299 0.000000 0.000000
    37 -1.180680 -2.507215 -0.193861 -0.705262 0.391745 -0.768682
    38 -0.024966 -1.123934 0.017594 -1.070383 0.000000 0.000001
    39 -0.020057 -0.890966 0.010091 -0.093880 0.066299 0.015664
    40 0.591323 -1.181648 0.193190 -0.678711 -0.104211 -0.198940
    41 1.535926 0.010245 0.005008 0.040563 -0.058171 0.175818
    42 1.100770 0.004526 -0.010676 0.065588 -0.022713 0.077017
    43 -0.356425 -0.202614 -0.230275 0.373746 2.761300 1.426656
  time 13
    0 7.826632 -0.173473 -9.734665 4.658354 -0.984967 -4.967665
    1 -0.071918 -8.498731 -0.104137 0.061065 0.562606 0.340880
    2 0.495589 -0.864885 2.107330 0.242957 0.570640 -1.377025
    3 4.542924 -0.382888 0.022987 -0.046730 -0.098606 0.146849
    4 3.200649 0.867596 0.043289 0.000000 0.000000 -1.281119
    5 -3.643570 1.002876 0.003384 0.000000 0.000000 0.003942
    6 0.857399 0.018234 0.573097 0.000000 0.000000 -0.003942
    7 0.857399 0.018232 -0.648928 0.000000 0.000000 -0.003942
    8 0.118242 2.570887 -0.001752 -0.000896 1.161638 3.140619
    9 -0.469978 0.641241 -0.011208 0.000001 0.000000 -1.369176
    10 -6.300771 11.289842 -7.236314 -0.630158 -4.761775 -6.106187
    11 0.096944 -8.450419 -0.009364 -0.457132 -0.001414 -0.009919
    12 0.447952 -2.798982 -0.200442 -0.747382 0.112492 0.092828
    13 -0.032910 -1.480206 0.004936 -0.543456 0.000000 0.000002
    14 -0.027022 -1.076919 -0.020212 -0.208972 0.000000 0.000000
    15 -0.249534 -2.846962 -0.174215 -0.262923 0.055694 0.251063
    16 0.043235 -1.683939 0.096014 -0.892275 0.002823 -0.000167
    17 0.031729 -1.160831 0.058836 -0.088166 0.000642 0.008372
    18 -0.928709 -3.304689 -0.007219 -0.559544 0.120899 0.062599
    19 0.028479 -1.641356 0.150807 -1.220181 0.000000 0.000000
    20 0.021413 -0.957782 0.020047 -0.359918 0.000000 0.000000
    21 1.164474 -2.543938 -0.170328 -0.674861 -0.418461 0.758810
    22 0.024032 -1.129043 0.017806 -0.018074 0.000000 0.000001
    23 0.014896 -0.883989 -0.019845 -0.060801 0.000000 0.000000
    24 -0.586770 -1.264475 0.200164 -0.598458 -0.734380 -2.680461
    25 1.522835 0.058681 0.016850 0.003855 -0.347652 0.206620
    26 1.117948 0.048424 -0.005764 -0.009819 -0.023209 0.456317
    27 -0.139399 -0.111697 0.014397 0.555698 -0.011973 1.557605
    28 -0.488517 -2.755600 -0.228261 -1.061913 0.251240 -0.537797
    29 0.039888 -1.479789 0.029853 -0.784429 0.000000 0.000000
    30 0.028785 -1.075730 -0.023111 0.015491 0.000000 0.000000
    31 0.250028 -2.820663 -0.238396 -0.612511 0.328093 -0.447030
    32 -0.049759 -1.680545 0.100480 -0.565359 0.000000 -0.000002
    33 -0.034141 -1.148312 0.084779 0.034238 0.000000 0.000000
    34 0.957766 -2.746776 -0.090301 0.396619 -0.161031 -0.078778
    35 -0.033419 -1.397129 -0.011255 -1.147678 0.000000 -0.000001
    36 -0.022361 -0.957434 0.018783 -1.002641 0.000000 0.000000
    37 -1.180680 -2.507215 -0.193861 -0.707823 0.374836 -0.792588
    38 -0.024966 -1.123934 0.017594 -1.294779 0.000000 0.000001
    39 -0.020057 -0.890966 0.010091 -0.182579 0.111888 0.026414
    40 0.583510 -1.193368 0.185377 -0.265159 -0.429706 -0.167127
    41 1.535926 0.010245 0.005008 0.048908 -0.056980 0.097663
    42 1.100770 0.004526 -0.010676 0.069603 -0.022378 0.134389
    43 -0.321268 -0.190895 -0.218556 0.373555 2.767636 1.443639
  time 14
    0 7.826632 0.228883 -9.863575 4.653322 -0.993590 -4.963100
    1 -0.071918 -8.498731 -0.104137 0.056071 0.548953 0.324832
    2 0.495589 -0.864885 2.107330 0.242957 0.570640 -1.377025
    3 4.542924 -0.382888 0.022987 -0.047563 -0.072294 0.315004
    4 3.200649 0.867596 0.043289 0.000000 0.000000 -1.079607
    5 -3.643570 1.002876 0.003384 0.000000 0.000000 0.003942
    6 0.857399 0.018234 0.573097 0.000000 0.000000 -0.003942
    7 0.857399 0.018232 -0.648928 0.000000 0.000000 -0.003942
    8 0.118242 2.570887 -0.001752 -0.000525 0.824031 3.141050
    9 -0.469978 0.641241 -0.011208 0.000001 0.000000 -1.369176
    10 -6.625000 4.094310 -6.978494 -0.630158 -4.761775 -6.106187
    11 0.096944 -8.450419 -0.009364 -0.457132 -0.001414 -0.009919
    12 0.447952 -2.798982 -0.200442 -0.747382 0.112492 0.092828
    13 -0.032910 -1.480206 0.004936 -0.543456 0.000000 0.000002
    14 -0.027022 -1.076919 -0.020212 -0.208972 0.000000 0.000000
    15 -0.249534 -2.846962 -0.174215 -0.262923 0.055694 0.251063
    16 0.043235 -1.683939 0.096014 -0.892275 0.002823 -0.000167
    17 0.031729 -1.160831 0.058836 -0.088166 0.000642 0.008372
    18 -0.928709 -3.304689 -0.007219 -0.559544 0.120899 0.062599
    19 0.028479 -1.641356 0.150807 -1.220181 0.000000 0.000000
    20 0.021413 -0.957782 0.020047 -0.359918 0.000000 0.000000
    21 1.164474 -2.543938 -0.170328 -0.674861 -0.418461 0.758810
    22 0.024032 -1.129043 0.017806 -0.018074 0.000000 0.000001
    23 0.014896 -0.883989 -0.019845 -0.060801 0.000000 0.000000
    24 -0.586770 -1.264475 0.200164 -0.598458 -0.734380 -2.680461
    25 1.522835 0.058681 0.016850 0.003855 -0.347652 0.206620
    26 1.117948 0.048424 -0.005764 -0.009819 -0.023209 0.456317
    27 -0.139399 -0.111697 0.014397 0.555698 -0.011973 1.557605
    28 -0.488517 -2.755600 -0.228261 -1.120670 0.238311 -0.567539
    29 0.039888 -1.479789 0.029853 -0.747978 0.000000 0.000000
    30 0.028785 -1.075730 -0.023111 0.043883 0.000000 0.000000
    31 0.250028 -2.820663 -0.238396 -0.464830 0.313820 -0.495567
    32 -0.049759 -1.680545 0.100480 -0.505590 0.000000 -0.000002
    33 -0.034141 -1.148312 0.084779 0.095958 0.000000 0.000000
    34 0.957766 -2.746776 -0.090301 0.414888 -0.161031 -0.078778
    35 -0.033419 -1.397129 -0.011255 -1.077074 0.000000 -0.000001
    36 -0.022361 -0.957434 0.018783 -0.994163 0.000000 0.000000
    37 -1.180680 -2.507215 -0.193861 -0.710904 0.337411 -0.834693
    38 -0.024966 -1.123934 0.017594 -1.389820 0.000000 0.000001
    39 -0.020057 -0.890966 0.010091 -0.311026 0.132598 0.031304
    40 0.583510 -1.197274 0.185377 -0.052829 -0.589832 -0.150625
    41 1.535926 0.010245 0.005008 0.061260 -0.055108 -0.017507
    42 1.100770 0.004526 -0.010676 0.075523 -0.022198 0.194234
    43 -0.282204 -0.175270 -0.202930 0.374797 2.784745 1.488766
  time 15
    0 7.826632 0.627332 -9.961235 4.648481 -1.004607 -4.958630
    1 -0.071918 -8.498731 -0.104137 0.047463 0.533166 0.296465
    2 0.495589 -0.864885 2.107330 0.242957 0.570640 -1.377025
    3 4.542924 -0.382888 0.022987 -0.047887 -0.056842 0.370542
    4 3.200649 0.867596 0.043289 0.000000 0.000000 -0.801090
    5 -3.643570 1.002876 0.003384 0.000000 0.000000 0.003942
    6 0.857399 0.018234 0.573097 0.000000 0.000000 -0.003942
    7 0.857399 0.018232 -0.648928 0.000000 0.000000 -0.003942
    8 0.118242 2.570887 -0.001752 -0.000357 0.197047 3.141374
    9 -0.469978 0.641241 -0.011208 0.000001 0.000000 -1.369176
    10 -6.945322 -3.808275 -6.720674 -0.630158 -4.761775 -6.106187
    11 0.096944 -8.450419 -0.009364 -0.457132 -0.001414 -0.009919
    12 0.447952 -2.798982 -0.200442 -0.747382 0.112492 0.092828
    13 -0.032910 -1.480206 0.004936 -0.543456 0.000000 0.000002
    14 -0.027022 -1.076919 -0.020212 -0.208972 0.000000 0.000000
    15 -0.249534 -2.846962 -0.174215 -0.262923 0.055694 0.251063
    16 0.043235 -1.683939 0.096014 -0.892275 0.002823 -0.000167
    17 0.031729 -1.160831 0.058836 -0.088166 0.000642 0.008372
    18 -0.928709 -3.304689 -0.007219 -0.559544 0.120899 0.062599
    19 0.028479 -1.641356 0.150807 -1.220181 0.000000 0.000000
    20 0.021413 -0.957782 0.020047 -0.359918 0.000000 0.000000
    21 1.164474 -2.543938 -0.170328 -0.674861 -0.418461 0.758810
    22 0.024032 -1.129043 0.017806 -0.018074 0.000000 0.000001
    23 0.014896 -0.883989 -0.019845 -0.060801 0.000000 0.000000
    24 -0.586770 -1.264475 0.200164 -0.598458 -0.734380 -2.680461
    25 1.522835 0.058681 0.016850 0.003855 -0.347652 0.206620
    26 1.117948 0.048424 -0.005764 -0.009819 -0.023209 0.456317
    27 -0.139399 -0.111697 0.014397 0.555698 -0.011973 1.557605
    28 -0.492423 -2.755600 -0.216542 -1.019685 0.135352 -0.637149
    29 0.039888 -1.479789 0.029853 -0.934715 -0.010654 -0.004386
    30 0.028785 -1.075730 -0.023111 -0.082747 0.000000 0.000000
    31 0.250028 -2.820663 -0.234490 -0.360087 0.213281 -0.619405
    32 -0.049759 -1.684451 0.108293 -0.729403 0.000000 -0.000002
    33 -0.034141 -1.148312 0.084779 -0.028319 0.000000 0.000000
    34 0.957766 -2.746776 -0.090301 0.432225 -0.161031 -0.078778
    35 -0.033419 -1.397129 -0.011255 -1.009979 0.000000 -0.000001
    36 -0.022361 -0.957434 0.018783 -0.986099 0.000000 0.000000
    37 -1.180680 -2.507215 -0.189955 -0.656483 0.223898 -0.932860
    38 -0.024966 -1.123934 0.017594 -1.335307 0.000000 0.000001
    39 -0.020057 -0.890966 0.010091 -0.572844 0.129086 0.027493
    40 0.583510 -1.197274 0.185377 -0.052829 -0.589832 -0.150625
    41 1.535926 0.010245 0.005008 0.076307 -0.052580 -0.157386
    42 1.100770 0.004526 -0.010676 0.083193 -0.022114 0.254078
    43 -0.239234 -0.159644 -0.187305 0.376230 2.809730 1.553548
  time 16
    0 7.826632 1.010157 -10.035456 4.643924 -1.017540 -4.954351
    1 -0.071918 -8.498731 -0.104137 0.034288 0.516881 0.252408
    2 0.495589 -0.864885 2.107330 0.242957 0.570640 -1.377025
    3 4.542924 -0.382888 0.022987 -0.047979 -0.045367 0.407187
    4 3.200649 0.867596 0.043289 0.000000 0.000000 -0.246792
    5 -3.643570 1.002876 0.003384 0.000000 0.000000 0.003942
    6 0.857399 0.018234 0.573097 0.000000 0.000000 -0.003942
    7 0.857399 0.018232 -0.648928 0.000000 0.000000 -0.003942
    8 0.118242 2.570887 -0.001752 -0.000357 -0.140518 3.141482
    9 -0.469978 0.641241 -0.011208 0.000001 0.000000 -1.369176
    10 -6.828131 -5.124721 -6.787082 -0.739220 -4.786613 -6.205823
    11 0.096944 -8.450419 -0.009364 -0.440921 -0.059781 -0.001329
    12 0.447952 -2.798982 -0.200442 -0.729903 0.110039 0.106035
    13 -0.032910 -1.480206 0.004936 -0.587199 0.000000 0.000002
    14 -0.027022 -1.076919 -0.020212 -0.196928 0.000000 0.000000
    15 -0.249534 -2.846962 -0.174215 -0.271154 0.050785 0.246236
    16 0.043235 -1.683939 0.096014 -0.804685 0.002823 -0.000167
    17 0.031729 -1.160831 0.058836 -0.133210 0.000642 0.008372
    18 -0.928709 -3.304689 -0.007219 -0.492928 0.068142 0.098247
    19 0.028479 -1.602293 0.131275 -1.065648 0.000000 0.000000
    20 0.021413 -0.957782 0.020047 -0.372010 0.000000 0.000000
    21 1.164474 -2.543938 -0.170328 -0.695006 -0.382517 0.716277
    22 0.024032 -1.129043 0.017806 -0.133191 0.000000 0.000001
    23 0.014896 -0.883989 -0.019845 -0.134890 0.000000 0.000000
    24 -0.586770 -1.264475 0.200164 -0.549700 -0.745302 -2.690856
    25 1.522835 0.058681 0.016850 0.000271 -0.327974 0.216198
    26 1.117948 0.048424 -0.005764 -0.011173 -0.022585 0.515551
    27 -0.139399 -0.111697 0.014397 0.575470 -0.011973 1.557605
    28 -0.500236 -2.755600 -0.185291 -0.801944 -0.054023 -0.728205
    29 0.039888 -1.487602 0.037666 -1.313291 -0.030441 -0.012548
    30 0.028785 -1.075730 -0.023111 -0.333895 0.000000 0.000000
    31 0.238309 -2.832382 -0.214958 -0.272214 0.029270 -0.780602
    32 -0.045853 -1.703983 0.135637 -1.185487 0.000000 -0.000002
    33 -0.034141 -1.148312 0.084779 -0.278670 0.000000 0.000000
    34 0.957766 -2.746776 -0.090301 0.451143 -0.161031 -0.078778
    35 -0.033419 -1.397129 -0.011255 -0.936834 0.000000 -0.000001
    36 -0.022361 -0.957434 0.018783 -0.977302 0.000000 0.000000
    37 -1.188493 -2.515028 -0.174329 -0.536437 0.061164 -1.057006
    38 -0.024966 -1.123934 0.017594 -1.234094 0.000000 0.000001
    39 -0.020057 -0.890966 0.010091 -0.901346 0.113961 0.020961
    40 0.583510 -1.197274 0.185377 -0.052829 -0.589832 -0.150625
    41 1.535926 0.010245 0.005008 0.092694 -0.049541 -0.309570
    42 1.100770 0.004526 -0.010676 0.092398 -0.022126 0.311450
    43 -0.200170 -0.147925 -0.175585 -2.764976 0.302204 -1.511692
  time 17
    0 7.826632 1.365636 -10.078426 4.639462 -1.031910 -4.950167
    1 -0.071918 -8.498731 -0.104137 0.013595 0.499821 0.183971
    2 0.495589 -0.864885 2.107330 0.242957 0.570640 -1.377025
    3 4.542924 -0.382888 0.022987 -0.047470 -0.034159 0.466276
    4 3.200649 0.867596 0.043289 0.000000 0.000000 0.155036
    5 -3.643570 1.002876 0.003384 0.000000 0.000000 0.003942
    6 0.857399 0.018234 0.573097 0.000000 0.000000 -0.003942
    7 0.857399 0.018232 -0.648928 0.000000 0.000000 -0.003942
    8 0.118242 2.570887 -0.001752 -0.000357 0.051376 3.141422
    9 -0.469978 0.641241 -0.011208 0.000001 0.000000 -1.369176
    10 -6.519528 -6.222411 -6.962868 -0.907679 -4.852571 -0.066371
    11 0.096944 -8.450419 -0.009364 -0.398872 -0.213549 0.022804
    12 0.447952 -2.798982 -0.200442 -0.683842 0.100146 0.140754
    13 -0.032910 -1.480206 0.004936 -0.683358 0.000000 0.000002
    14 -0.027022 -1.076919 -0.020212 -0.166522 0.000000 0.000000
    15 -0.249534 -2.846962 -0.174215 -0.289243 0.036388 0.235490
    16 0.043235 -1.683939 0.096014 -0.603224 0.002823 -0.000167
    17 0.031729 -1.160831 0.058836 -0.232224 0.000642 0.008372
    18 -0.928709 -3.304689 -0.007219 -0.333660 -0.048618 0.174508
    19 0.028479 -1.520259 0.084398 -0.708597 0.000000 0.000000
    20 0.021413 -0.957782 0.020047 -0.398608 0.000000 0.000000
    21 1.164474 -2.543938 -0.170328 -0.739601 -0.303245 0.623012
    22 0.024032 -1.129043 0.017806 -0.386491 0.000000 0.000001
    23 0.014896 -0.883989 -0.019845 -0.297896 0.000000 0.000000
    24 -0.586770 -1.264475 0.200164 -0.420786 -0.773917 -2.718813
    25 1.522835 0.058681 0.016850 -0.007626 -0.280251 0.237310
    26 1.117948 0.048424 -0.005764 -0.014013 -0.020943 0.645838
    27 -0.139399 -0.111697 0.014397 0.627606 -0.011973 1.557605
    28 -0.515862 -2.755600 -0.142321 -0.605232 -0.202340 -0.777419
    29 0.043794 -1.495414 0.045478 -1.610970 -0.041095 -0.016946
    30 0.028785 -1.075730 -0.023111 -0.516398 0.000000 0.000000
    31 0.226590 -2.844101 -0.187613 -0.197882 -0.117673 -0.861612
    32 -0.038040 -1.727421 0.166888 -1.550599 0.000000 -0.000002
    33 -0.034141 -1.148312 0.084779 -0.471428 0.000000 0.000000
    34 0.957766 -2.746776 -0.090301 0.470077 -0.161031 -0.078778
    35 -0.033419 -1.397129 -0.011255 -0.863568 0.000000 -0.000001
    36 -0.022361 -0.957434 0.018783 -0.968505 0.000000 0.000000
    37 -1.200212 -2.526747 -0.150891 -0.428876 -0.036680 -1.118443
    38 -0.024966 -1.123934 0.017594 -1.179581 0.000000 0.000001
    39 -0.020057 -0.890966 0.010091 -1.062662 0.080417 0.018996
    40 0.583510 -1.197274 0.185377 -0.052829 -0.589832 -0.150625
    41 1.535926 0.010245 0.005008 0.109053 -0.046211 -0.461754
    42 1.100770 0.004526 -0.010676 0.102956 -0.022162 0.363876
    43 -0.161107 -0.132300 -0.159960 -2.766409 0.270792 -1.432027
  time 18
    0 7.826632 1.670333 -10.094051 4.635380 -1.047047 -4.946268
    1 -0.071918 -8.498731 -0.104137 -0.015211 0.479853 0.090311
    2 0.495589 -0.864885 2.107330 0.242957 0.570640 -1.377025
    3 4.542924 -0.382888 0.022987 -0.045851 -0.024285 0.522484
    4 3.200649 0.867596 0.043289 0.000000 0.000000 0.034163
    5 -3.643570 1.002876 0.003384 0.000000 0.000000 0.003942
    6 0.857399 0.018234 0.573097 0.000000 0.000000 -0.003942
    7 0.857399 0.018232 -0.648928 0.000000 0.000000 -0.003942
    8 0.118242 2.570887 -0.001752 -0.000357 0.000159 3.141434
    9 -0.469978 0.641241 -0.011208 0.000001 0.000000 -1.369176
    10 -6.078108 -7.116970 -7.220689 -1.083334 -4.946294 -0.206967
    11 0.096944 -8.450419 -0.009364 -0.342020 -0.430599 0.060726
    12 0.447952 -2.798982 -0.200442 -0.618893 0.079035 0.189591
    13 -0.032910 -1.480206 0.004936 -0.779548 0.000000 0.000002
    14 -0.027022 -1.076919 -0.020212 -0.126289 0.000000 0.000000
    15 -0.249534 -2.846962 -0.174215 -0.307333 0.013098 0.224370
    16 0.043235 -1.683939 0.096014 -0.379691 0.002823 -0.000167
    17 0.031729 -1.160831 0.058836 -0.331272 0.000642 0.008372
    18 -0.928709 -3.304689 -0.007219 -0.142334 -0.166276 0.247746
    19 0.028479 -1.438225 0.033616 -0.308949 0.000000 0.000000
    20 0.021413 -0.957782 0.020047 -0.425181 0.000000 0.000000
    21 1.164474 -2.543938 -0.170328 -0.784516 -0.223761 0.530108
    22 0.024032 -1.129043 0.017806 -0.639791 0.000000 0.000001
    23 0.014896 -0.883989 -0.019845 -0.460903 0.000000 0.000000
    24 -0.586770 -1.264475 0.200164 -0.237536 -0.813946 -2.759820
    25 1.522835 0.058681 0.016850 -0.015548 -0.221407 0.258485
    26 1.117948 0.048424 -0.005764 -0.016614 -0.018942 0.776158
    27 -0.139399 -0.111697 0.014397 0.701318 -0.011973 1.557605
    28 -0.535393 -2.759506 -0.095444 -0.456595 -0.274882 -0.751231
    29 0.043794 -1.503227 0.053291 -1.751788 -0.034671 -0.014298
    30 0.028785 -1.075730 -0.023111 -0.581728 0.000000 0.000000
    31 0.214871 -2.859727 -0.160269 -0.126975 -0.195118 -0.826855
    32 -0.030227 -1.750860 0.205952 -1.738244 0.000000 -0.000002
    33 -0.034141 -1.148312 0.084779 -0.552915 0.000000 0.000000
    34 0.957766 -2.746776 -0.090301 0.487497 -0.161031 -0.078778
    35 -0.033419 -1.397129 -0.011255 -0.796170 0.000000 -0.000001
    36 -0.022361 -0.957434 0.018783 -0.960409 0.000000 0.000000
    37 -1.211931 -2.538466 -0.123546 -0.348005 -0.062451 -1.051923
    38 -0.024966 -1.123934 0.017594 -1.219073 0.000000 0.000001
    39 -0.020057 -0.890966 0.010091 -1.015301 0.013830 0.023274
    40 0.583510 -1.197274 0.185377 -0.052829 -0.589832 -0.150625
    41 1.535926 0.010245 0.005008 0.124014 -0.042856 -0.601583
    42 1.100770 0.004526 -0.010676 0.114713 -0.022186 0.408962
    43 -0.129856 -0.120581 -0.148241 -2.769371 0.241100 -1.356751
  time 19
    0 7.826632 1.971123 -10.047175 4.631582 -1.062471 -4.942654
    1 -0.071918 -8.498731 -0.104137 -0.049352 0.455951 -0.020062
    2 0.495589 -0.864885 2.107330 0.242957 0.570640 -1.377025
    3 4.542924 -0.382888 0.022987 -0.043214 -0.015879 0.569982
    4 3.200649 0.867596 0.043289 0.000000 0.000000 -0.086668
    5 -3.643570 1.002876 0.003384 0.000000 0.000000 0.003942
    6 0.857399 0.018234 0.573097 0.000000 0.000000 -0.003942
    7 0.857399 0.018232 -0.648928 0.000000 0.000000 -0.003942
    8 0.118242 2.570887 -0.001752 -0.000357 0.000159 3.141434
    9 -0.469978 0.641241 -0.011208 0.000001 0.000000 -1.369176
    10 -5.570280 -7.816210 -7.537105 -1.265006 -5.053900 -0.348313
    11 0.096944 -8.450419 -0.009364 -0.283624 -0.678859 0.112665
    12 0.447952 -2.798982 -0.200442 -0.544665 0.042958 0.245176
    13 -0.032910 -1.480206 0.004936 -0.823259 0.000000 0.000002
    14 -0.027022 -1.076919 -0.020212 -0.084767 0.000000 0.000000
    15 -0.249534 -2.846962 -0.174215 -0.315528 -0.018555 0.218464
    16 0.043235 -1.683939 0.096014 -0.225929 0.002823 -0.000167
    17 0.031729 -1.160831 0.058836 -0.376282 0.000642 0.008372
    18 -0.928709 -3.304689 -0.007219 0.019582 -0.220040 0.279998
    19 0.028479 -1.403068 0.006271 -0.026698 0.000000 0.000000
    20 0.021413 -0.957782 0.020047 -0.437273 0.000000 0.000000
    21 1.164474 -2.543938 -0.170328 -0.805016 -0.187572 0.487958
    22 0.024032 -1.129043 0.017806 -0.754935 0.000000 0.000001
    23 0.014896 -0.883989 -0.019845 -0.535010 0.000000 0.000000
    24 -0.586770 -1.264475 0.200164 -0.025834 -0.859190 -2.809200
    25 1.522835 0.058681 0.016850 -0.019156 -0.168363 0.268235
    26 1.117948 0.048424 -0.005764 -0.017705 -0.017923 0.835359
    27 -0.139399 -0.111697 0.014397 0.785779 -0.011973 1.557605
    28 -0.547113 -2.759506 -0.052474 -0.310270 -0.324067 -0.683546
    29 0.047701 -1.511040 0.061104 -1.845214 -0.020542 -0.008473
    30 0.028785 -1.075730 -0.023111 -0.616554 0.000000 0.000000
    31 0.199245 -2.871446 -0.132924 -0.059968 -0.251326 -0.747200
    32 -0.022414 -1.774298 0.241109 -1.875682 0.000000 -0.000002
    33 -0.034141 -1.148312 0.084779 -0.598640 0.000000 0.000000
    34 0.957766 -2.746776 -0.090301 0.501856 -0.161031 -0.078778
    35 -0.033419 -1.397129 -0.011255 -0.740631 0.000000 -0.000001
    36 -0.022361 -0.957434 0.018783 -0.953748 0.000000 0.000000
    37 -1.223650 -2.550185 -0.104015 -0.268175 -0.084849 -0.903657
    38 -0.024966 -1.123934 0.017594 -1.305957 0.000000 0.000001
    39 -0.020057 -0.890966 0.010091 -0.901560 -0.074089 0.029123
    40 0.583510 -1.197274 0.185377 -0.052829 -0.589832 -0.150625
    41 1.535926 0.010245 0.005008 0.136279 -0.039939 -0.716728
    42 1.100770 0.004526 -0.010676 0.127453 -0.022150 0.444197
    43 -0.106417 -0.112768 -0.140428 -2.773193 0.216115 -1.293496
  time 20
    0 7.826632 2.295352 -9.926077 4.628165 -1.077607 -4.939326
    1 -0.071918 -8.498731 -0.104137 -0.085999 0.427619 -0.138791
    2 0.495589 -0.864885 2.107330 0.242957 0.570640 -1.377025
    3 4.542924 -0.382888 0.022987 -0.039466 -0.009154 0.602809
    4 3.200649 0.867596 0.043289 0.000000 0.000000 -0.050624
    5 -3.643570 1.002876 0.003384 0.000000 0.000000 0.003942
    6 0.857399 0.018234 0.573097 0.000000 0.000000 -0.003942
    7 0.857399 0.018232 -0.648928 0.000000 0.000000 -0.003942
    8 0.118242 2.570887 -0.001752 -0.000357 0.000159 3.141434
    9 -0.469978 0.641241 -0.011208 0.000001 0.000000 -1.369176
    10 -5.050733 -8.335757 -7.884772 -1.440130 -5.161730 -0.482910
    11 0.096944 -8.450419 -0.009364 -0.241121 -0.926105 0.182123
    12 0.447952 -2.798982 -0.200442 -0.438957 -0.028707 0.323735
    13 -0.032910 -1.480206 0.004936 -0.654793 0.000000 0.000002
    14 -0.027022 -1.076919 -0.020212 -0.032955 0.000000 0.000000
    15 -0.249534 -2.846962 -0.174215 -0.206631 -0.057729 0.218850
    16 0.043235 -1.683939 0.096014 -0.157835 0.002823 -0.000167
    17 0.031729 -1.160831 0.058836 -0.331272 0.000642 0.008372
    18 -0.932615 -3.222655 -0.022844 0.156986 -0.148246 0.244781
    19 0.032385 -1.442132 -0.001542 0.104409 0.000000 0.000000
    20 0.021413 -0.957782 0.020047 -0.355821 0.000000 0.000000
    21 1.164474 -2.543938 -0.170328 -0.633399 -0.223761 0.530108
    22 0.024032 -1.129043 0.017806 -0.661031 0.000000 0.000001
    23 0.014896 -0.883989 -0.019845 -0.449285 0.000000 0.000000
    24 -0.586770 -1.264475 0.200164 0.187965 -0.903656 -2.861398
    25 1.522835 0.058681 0.016850 -0.015800 -0.115631 0.236669
    26 1.117948 0.048424 -0.005764 -0.015068 -0.020200 0.696967
    27 -0.139399 -0.111697 0.014397 0.870280 -0.011973 1.557605
    28 -0.558832 -2.763413 -0.021223 -0.199149 -0.352257 -0.613841
    29 0.047701 -1.514946 0.068917 -1.896972 -0.006412 -0.002637
    30 0.028785 -1.075730 -0.023111 -0.630431 0.000000 0.000000
    31 0.191432 -2.879259 -0.113392 -0.010276 -0.285721 -0.666960
    32 -0.018508 -1.789923 0.268454 -1.960156 0.000000 -0.000002
    33 -0.034141 -1.148312 0.084779 -0.618674 0.000000 0.000000
    34 0.957766 -2.746776 -0.090301 0.511606 -0.161031 -0.078778
    35 -0.033419 -1.397129 -0.011255 -0.702939 0.000000 -0.000001
    36 -0.022361 -0.957434 0.018783 -0.949222 0.000000 0.000000
    37 -1.231463 -2.557998 -0.084483 -0.208592 -0.101522 -0.754999
    38 -0.024966 -1.123934 0.017594 -1.392841 0.000000 0.000001
    39 -0.020057 -0.890966 0.010091 -0.763023 -0.150742 0.034348
    40 0.583510 -1.197274 0.185377 -0.052829 -0.589832 -0.150625
    41 1.535926 0.010245 0.005008 0.144552 -0.037848 -0.794858
    42 1.100770 0.004526 -0.010676 0.141019 -0.021982 0.467145
    43 -0.086886 -0.104955 -0.132615 -2.776441 0.199006 -1.249895
  time 21
    0 7.826632 2.627393 -9.750291 4.625127 -1.091882 -4.936473
    1 -0.071918 -8.498731 -0.104137 -0.122339 0.395354 -0.257750
    2 0.495589 -0.864885 2.107330 0.242957 0.570640 -1.377025
    3 4.542924 -0.382888 0.022987 -0.034608 -0.004244 0.615069
    4 3.200649 0.867596 0.043289 0.000000 0.000000 -0.027877
    5 -3.643570 1.002876 0.003384 0.000000 0.000000 0.003942
    6 0.857399 0.018234 0.573097 0.000000 0.000000 -0.003942
    7 0.857399 0.018232 -0.648928 0.000000 0.000000 -0.003942
    8 0.118242 2.570887 -0.001752 -0.000357 0.000159 3.141434
    9 -0.469978 0.641241 -0.011208 0.000001 0.000000 -1.369176
    10 -4.585875 -8.691236 -8.240251 -1.590540 -5.255828 -0.597917
    11 0.096944 -8.450419 -0.009364 -0.238714 -1.140013 0.278709
    12 0.447952 -2.798982 -0.200442 -0.304916 -0.135000 0.422607
    13 -0.032910 -1.480206 0.004936 -0.284173 0.000000 0.000002
    14 -0.027022 -1.076919 -0.020212 0.029947 0.000000 0.000000
    15 -0.249534 -2.846962 -0.174215 0.032921 -0.105002 0.224610
    16 0.043235 -1.683939 0.096014 -0.122684 0.002823 -0.000167
    17 0.031729 -1.160831 0.058836 -0.232224 0.000642 0.008372
    18 -0.948241 -3.042962 -0.046282 0.296062 0.008980 0.163872
    19 0.044104 -1.535884 -0.005448 0.171525 0.000000 0.000000
    20 0.021413 -0.957782 0.020047 -0.176626 0.000000 0.000000
    21 1.164474 -2.543938 -0.170328 -0.256032 -0.303245 0.623012
    22 0.024032 -1.129043 0.017806 -0.448467 0.000000 0.000001
    23 0.014896 -0.883989 -0.019845 -0.260685 0.000000 0.000000
    24 -0.586770 -1.264475 0.200164 0.376527 -0.941762 -2.909614
    25 1.522835 0.058681 0.016850 -0.008381 -0.057506 0.166963
    26 1.117948 0.048424 -0.005764 -0.008321 -0.023796 0.392407
    27 -0.139399 -0.111697 0.014397 0.943992 -0.011973 1.557605
    28 -0.562738 -2.763413 -0.009504 -0.155155 -0.361283 -0.581736
    29 0.047701 -1.518853 0.068917 -1.913015 0.000000 0.000000
    30 0.028785 -1.075730 -0.023111 -0.632950 0.000000 0.000000
    31 0.187526 -2.883165 -0.105579 0.009131 -0.297406 -0.630371
    32 -0.014602 -1.797736 0.276267 -1.988845 0.000000 -0.000002
    33 -0.034141 -1.148312 0.084779 -0.623122 0.000000 0.000000
    34 0.957766 -2.746776 -0.090301 0.515200 -0.161031 -0.078778
    35 -0.033419 -1.397129 -0.011255 -0.689084 0.000000 -0.000001
    36 -0.022361 -0.957434 0.018783 -0.947565 0.000000 0.000000
    37 -1.235369 -2.561904 -0.080576 -0.185463 -0.108157 -0.687306
    38 -0.024966 -1.123934 0.017594 -1.432334 0.000000 0.000001
    39 -0.020057 -0.890966 0.010091 -0.640660 -0.183544 0.036625
    40 0.583510 -1.197274 0.185377 -0.052829 -0.589832 -0.150625
    41 1.535926 0.010245 0.005008 0.147579 -0.037070 -0.823644
    42 1.100770 0.004526 -0.010676 0.155233 -0.021635 0.475336
    43 -0.082979 -0.104955 -0.132615 -2.777779 0.192670 -1.233676
  time 22
    0 7.826632 2.939903 -9.547159 4.622659 -1.104815 -4.934000
    1 -0.071918 -8.498731 -0.104137 -0.156020 0.360541 -0.369376
    2 0.495589 -0.864885 2.107330 0.242957 0.570640 -1.377025
    3 4.542924 -0.382888 0.022987 -0.023087 -0.001789 0.561139
    4 3.200649 0.867596 0.043289 0.000000 0.000000 -0.008295
    5 -3.643570 1.002876 0.003384 0.000000 0.000000 0.003942
    6 0.857399 0.018234 0.573097 0.000000 0.000000 -0.003942
    7 0.857399 0.018232 -0.648928 0.000000 0.000000 -0.003942
    8 0.118242 2.570887 -0.001752 -0.000357 0.000159 3.141434
    9 -0.469978 0.641241 -0.011208 0.000001 0.000000 -1.369176
    10 -4.234302 -8.894368 -8.572293 -1.696240 -5.322537 -0.678432
    11 0.096944 -8.450419 -0.009364 -0.298336 -1.288412 0.409205
    12 0.447952 -2.798982 -0.200442 -0.189350 -0.247396 0.505817
    13 -0.032910 -1.480206 0.004936 0.086415 0.000000 0.000002
    14 -0.027022 -1.076919 -0.020212 0.083049 0.000000 0.000000
    15 -0.249534 -2.846962 -0.174215 0.272544 -0.162044 0.238236
    16 0.043235 -1.683939 0.096014 -0.109564 0.002823 -0.000167
    17 0.031729 -1.160831 0.058836 -0.133210 0.000642 0.008372
    18 -0.959960 -2.863269 -0.073627 0.404187 0.165091 0.078545
    19 0.055824 -1.625731 -0.009354 0.196082 0.000000 0.000000
    20 0.021413 -0.957782 0.020047 0.002569 0.000000 0.000000
    21 1.164474 -2.543938 -0.170328 0.120978 -0.382517 0.716277
    22 0.024032 -1.129043 0.017806 -0.220757 0.000000 0.000001
    23 0.014896 -0.883989 -0.019845 -0.072085 0.000000 0.000000
    24 -0.586770 -1.264475 0.200164 0.511242 -0.968311 -2.945414
    25 1.522835 0.058681 0.016850 -0.000963 -0.010538 0.097148
    26 1.117948 0.048424 -0.005764 -0.000806 -0.025186 0.087815
    27 -0.139399 -0.111697 0.014397 0.996128 -0.011973 1.557605
    28 -0.554925 -2.763413 -0.032943 -0.272837 -0.302478 -0.589814
    29 0.047701 -1.514946 0.065010 -1.833819 0.000000 0.000000
    30 0.028785 -1.075730 -0.023111 -0.628260 0.000000 0.000000
    31 0.195339 -2.879259 -0.121205 -0.072653 -0.237939 -0.629707
    32 -0.018508 -1.786017 0.256735 -1.949796 0.000000 -0.000002
    33 -0.034141 -1.148312 0.084779 -0.616539 0.000000 0.000000
    34 0.957766 -2.746776 -0.090301 0.515200 -0.161031 -0.078778
    35 -0.033419 -1.397129 -0.011255 -0.689084 0.000000 -0.000001
    36 -0.022361 -0.957434 0.018783 -0.947565 0.000000 0.000000
    37 -1.227556 -2.557998 -0.092295 -0.294025 -0.071407 -0.715259
    38 -0.024966 -1.123934 0.017594 -1.406480 0.000000 0.000001
    39 -0.020057 -0.890966 0.010091 -0.525819 -0.164453 0.032790
    40 0.583510 -1.197274 0.185377 -0.110119 -0.556535 -0.155472
    41 1.535926 0.010245 0.005008 0.147579 -0.037070 -0.823644
    42 1.100770 0.004526 -0.010676 0.176589 -0.015079 0.366967
    43 -0.082979 -0.104955 -0.132615 -2.777779 0.192670 -1.233676
  time 23
    0 7.826632 3.221161 -9.347935 4.620570 -1.115928 -4.932003
    1 -0.071918 -8.498731 -0.104137 -0.185269 0.325395 -0.466639
    2 0.495589 -0.864885 2.107330 0.242957 0.570640 -1.377025
    3 4.542924 -0.382888 0.022987 -0.010133 -0.001309 0.443163
    4 3.200649 0.867596 0.043289 0.000000 0.000000 0.000000
    5 -3.643570 1.002876 0.003384 0.000000 0.000000 0.003942
    6 0.857399 0.018234 0.573097 0.000000 0.000000 -0.003942
    7 0.857399 0.018232 -0.648928 0.000000 0.000000 -0.003942
    8 0.118242 2.570887 -0.001752 -0.000357 0.000159 3.141434
    9 -0.469978 0.641241 -0.011208 0.000001 0.000000 -1.369176
    10 -4.058515 -8.956869 -8.857457 -1.736172 -5.347825 -0.708895
    11 0.096944 -8.450419 -0.009364 -0.357822 -1.342978 0.495732
    12 0.447952 -2.798982 -0.200442 -0.138733 -0.337733 0.536629
    13 -0.032910 -1.480206 0.004936 0.254882 0.000000 0.000002
    14 -0.027022 -1.076919 -0.020212 0.105383 0.000000 0.000000
    15 -0.249534 -2.846962 -0.174215 0.381656 -0.230541 0.262249
    16 0.043235 -1.683939 0.096014 -0.107602 0.002823 -0.000167
    17 0.031729 -1.160831 0.058836 -0.088166 0.000642 0.008372
    18 -0.963866 -2.785142 -0.085346 0.447550 0.235661 0.038306
    19 0.063636 -1.668701 -0.009354 0.199472 0.000000 0.000000
    20 0.021413 -0.957782 0.020047 0.083996 0.000000 0.000000
    21 1.164474 -2.543938 -0.170328 0.292240 -0.418461 0.758810
    22 0.024032 -1.129043 0.017806 -0.081500 0.000000 0.000001
    23 0.014896 -0.883989 -0.019845 0.013622 0.000000 0.000000
    24 -0.586770 -1.264475 0.200164 0.562656 -0.978272 -2.959382
    25 1.522835 0.058681 0.016850 0.002405 0.008781 0.065394
    26 1.117948 0.048424 -0.005764 0.002669 -0.025066 -0.050610
    27 -0.139399 -0.111697 0.014397 1.015899 -0.011973 1.557605
    28 -0.535393 -2.759506 -0.087632 -0.551817 -0.162196 -0.610194
    29 0.043794 -1.503227 0.057198 -1.645098 0.000000 0.000000
    30 0.028785 -1.075730 -0.023111 -0.617136 0.000000 0.000000
    31 0.210964 -2.859727 -0.152456 -0.267045 -0.096125 -0.628406
    32 -0.030227 -1.754766 0.213765 -1.856678 0.000000 -0.000002
    33 -0.034141 -1.148312 0.084779 -0.600864 0.000000 0.000000
    34 0.957766 -2.746776 -0.090301 0.515200 -0.161031 -0.078778
    35 -0.033419 -1.397129 -0.011255 -0.689084 0.000000 -0.000001
    36 -0.022361 -0.957434 0.018783 -0.947565 0.000000 0.000000
    37 -1.215837 -2.542372 -0.119640 -0.552763 0.016116 -0.782248
    38 -0.024966 -1.123934 0.017594 -1.344759 0.000000 0.000001
    39 -0.020057 -0.890966 0.010091 -0.397555 -0.118935 0.023682
    40 0.583510 -1.197274 0.185377 -0.246062 -0.477069 -0.167813
    41 1.535926 0.010245 0.005008 0.147579 -0.037070 -0.823644
    42 1.100770 0.004526 -0.010676 0.206431 -0.000230 0.104564
    43 -0.082979 -0.104955 -0.132615 -2.777779 0.192670 -1.233676
  time 24
    0 7.826632 3.443825 -9.172148 4.619051 -1.124454 -4.930577
    1 -0.071918 -8.498731 -0.104137 -0.208927 0.292687 -0.543049
    2 0.495589 -0.864885 2.107330 0.242957 0.570640 -1.377025
    3 4.542924 -0.382888 0.022987 -0.002313 -0.014438 0.284857
    4 3.200649 0.867596 0.043289 0.000000 0.000000 0.000000
    5 -3.643570 1.002876 0.003384 0.000000 0.000000 0.003942
    6 0.857399 0.018234 0.573097 0.000000 0.000000 -0.003942
    7 0.857399 0.018232 -0.648928 0.000000 0.000000 -0.003942
    8 0.118242 2.570887 -0.001752 -0.000357 0.000159 3.141434
    9 -0.469978 0.641241 -0.011208 0.000001 0.000000 -1.369176
    10 -4.011639 -8.757645 -9.084027 -1.661734 -5.267459 -0.693054
    11 0.096944 -8.450419 -0.009364 -0.366314 -1.342978 0.495732
    12 0.447952 -2.798982 -0.200442 -0.293898 -0.402417 0.493317
    13 -0.032910 -1.480206 0.004936 0.128807 0.000000 0.000002
    14 -0.027022 -1.076919 -0.020212 0.009599 0.000000 0.000000
    15 -0.249534 -2.846962 -0.174215 0.266174 -0.344493 0.318767
    16 0.043235 -1.683939 0.096014 -0.311025 0.002823 -0.000167
    17 0.031729 -1.160831 0.058836 -0.104925 0.000642 0.008372
    18 -0.956053 -2.917958 -0.065814 0.270971 0.122912 0.067981
    19 0.051917 -1.660888 0.029709 0.090925 0.000000 0.000000
    20 0.021413 -0.957782 0.020047 0.065166 0.000000 0.000000
    21 1.164474 -2.543938 -0.170328 0.057022 -0.418461 0.758810
    22 0.024032 -1.129043 0.017806 -0.038187 0.000000 0.000001
    23 0.014896 -0.883989 -0.019845 -0.035004 0.000000 0.000000
    24 -0.586770 -1.264475 0.200164 0.327478 -0.961766 -2.924400
    25 1.522835 0.058681 0.016850 0.002537 0.008733 0.081075
    26 1.117948 0.048424 -0.005764 -0.001537 -0.025162 0.117127
    27 -0.139399 -0.111697 0.014397 1.015899 -0.011973 1.557605
    28 -0.515862 -2.755600 -0.154040 -0.882193 0.005270 -0.635913
    29 0.043794 -1.491508 0.041572 -1.419868 0.000000 0.000000
    30 0.028785 -1.075730 -0.023111 -0.603822 0.000000 0.000000
    31 0.230496 -2.840195 -0.191520 -0.498095 0.073133 -0.627052
    32 -0.038040 -1.719609 0.162982 -1.745539 0.000000 -0.000002
    33 -0.034141 -1.148312 0.084779 -0.582165 0.000000 0.000000
    34 0.957766 -2.746776 -0.090301 0.515200 -0.161031 -0.078778
    35 -0.033419 -1.397129 -0.011255 -0.689084 0.000000 -0.000001
    36 -0.022361 -0.957434 0.018783 -0.947565 0.000000 0.000000
    37 -1.196306 -2.526747 -0.154797 -0.861401 0.120376 -0.862822
    38 -0.024966 -1.123934 0.017594 -1.271126 0.000000 0.000001
    39 -0.020057 -0.890966 0.010091 -0.278433 -0.064609 0.012847
    40 0.583510 -1.197274 0.185377 -0.406997 -0.381927 -0.184331
    41 1.535926 0.010245 0.005008 0.147579 -0.037070 -0.823644
    42 1.100770 0.004526 -0.010676 0.237183 0.017267 -0.217877
    43 -0.082979 -0.104955 -0.132615 -2.777779 0.192670 -1.233676
  time 25
    0 7.826632 3.592267 -9.051051 4.618102 -1.130011 -4.929626
    1 -0.071918 -8.498731 -0.104137 -0.226245 0.265324 -0.592345
    2 0.495589 -0.864885 2.107330 0.242957 0.570640 -1.377025
    3 4.542924 -0.382888 0.022987 0.003701 -0.038829 0.107859
    4 3.200649 0.867596 0.043289 0.000000 0.000000 0.000000
    5 -3.643570 1.002876 0.003384 0.000000 0.000000 0.003942
    6 0.857399 0.018234 0.573097 0.000000 0.000000 -0.003942
    7 0.857399 0.018232 -0.648928 0.000000 0.000000 -0.003942
    8 0.118242 2.570887 -0.001752 -0.000357 0.000159 3.141434
    9 -0.469978 0.641241 -0.011208 0.000001 0.000000 -1.369176
    10 -3.992107 -8.382633 -9.287158 -1.522059 -5.118057 -0.662310
    11 0.096944 -8.450419 -0.009364 -0.385613 -1.342978 0.495732
    12 0.447952 -2.798982 -0.200442 -0.584982 -0.449098 0.420870
    13 -0.032910 -1.480206 0.004936 -0.122211 0.000000 0.000002
    14 -0.027022 -1.076919 -0.020212 -0.181145 0.000000 0.000000
    15 -0.249534 -2.846962 -0.174215 0.037126 -0.477701 0.392138
    16 0.043235 -1.683939 0.096014 -0.688852 0.002823 -0.000167
    17 0.031729 -1.160831 0.058836 -0.146788 0.000642 0.008372
    18 -0.936521 -3.167966 -0.030657 -0.056386 -0.086868 0.120151
    19 0.036292 -1.649169 0.107837 -0.132721 0.000000 0.000000
    20 0.021413 -0.957782 0.020047 0.021197 0.000000 0.000000
    21 1.164474 -2.543938 -0.170328 -0.409036 -0.418461 0.758810
    22 0.024032 -1.129043 0.017806 -0.021081 0.000000 0.000001
    23 0.014896 -0.883989 -0.019845 -0.125276 0.000000 0.000000
    24 -0.586770 -1.264475 0.200164 -0.121699 -0.925194 -2.855680
    25 1.522835 0.058681 0.016850 0.002812 0.008649 0.113221
    26 1.117948 0.048424 -0.005764 -0.009172 -0.023472 0.428671
    27 -0.139399 -0.111697 0.014397 1.015899 -0.011973 1.557605
    28 -0.496330 -2.755600 -0.208729 -1.157009 0.145537 -0.657984
    29 0.039888 -1.483695 0.033759 -1.231147 0.000000 0.000000
    30 0.028785 -1.075730 -0.023111 -0.592678 0.000000 0.000000
    31 0.246122 -2.824569 -0.226677 -0.690902 0.214959 -0.625831
    32 -0.049759 -1.692264 0.116105 -1.652360 0.000000 -0.000002
    33 -0.034141 -1.148312 0.084779 -0.566508 0.000000 0.000000
    34 0.957766 -2.746776 -0.090301 0.515200 -0.161031 -0.078778
    35 -0.033419 -1.397129 -0.011255 -0.689084 0.000000 -0.000001
    36 -0.022361 -0.957434 0.018783 -0.947565 0.000000 0.000000
    37 -1.184586 -2.511121 -0.182142 -1.119820 0.207507 -0.930827
    38 -0.024966 -1.123934 0.017594 -1.209405 0.000000 0.000001
    39 -0.020057 -0.890966 0.010091 -0.190712 -0.019079 0.003787
    40 0.583510 -1.197274 0.185377 -0.539436 -0.301631 -0.202596
    41 1.535926 0.010245 0.005008 0.147579 -0.037070 -0.823644
    42 1.100770 0.004526 -0.010676 0.261476 0.033375 -0.506166
    43 -0.082979 -0.104955 -0.132615 -2.777779 0.192670 -1.233676
  time 26
    0 7.826632 3.646956 -9.000268 4.617817 -1.131927 -4.929340
    1 -0.071918 -8.498731 -0.104137 -0.236455 0.245882 -0.608291
    2 0.495589 -0.864885 2.107330 0.242957 0.570640 -1.377025
    3 4.542924 -0.382888 0.022987 0.006755 -0.051986 -0.025928
    4 3.200649 0.867596 0.043289 0.000000 0.000000 0.000000
    5 -3.643570 1.002876 0.003384 0.000000 0.000000 0.003942
    6 0.857399 0.018234 0.573097 0.000000 0.000000 -0.003942
    7 0.857399 0.018232 -0.648928 0.000000 0.000000 -0.003942
    8 0.118242 2.570887 -0.001752 -0.000357 0.000159 3.141434
    9 -0.469978 0.641241 -0.011208 0.000001 0.000000 -1.369176
    10 -3.976482 -8.183408 -9.490289 -1.445497 -5.037691 -0.644314
    11 0.096944 -8.450419 -0.009364 -0.406456 -1.342978 0.495732
    12 0.447952 -2.798982 -0.200442 -0.742163 -0.466990 0.382663
    13 -0.032910 -1.480206 0.004936 -0.307427 0.000000 0.000002
    14 -0.027022 -1.076919 -0.020212 -0.322088 0.000000 0.000000
    15 -0.249534 -2.846962 -0.174215 -0.129423 -0.541735 0.428484
    16 0.043235 -1.683939 0.096014 -0.892275 0.002823 -0.000167
    17 0.031729 -1.160831 0.058836 -0.201306 0.000642 0.008372
    18 -0.928709 -3.304689 -0.007219 -0.232006 -0.199997 0.146530
    19 0.028479 -1.641356 0.150807 -0.318478 0.000000 0.000000
    20 0.021413 -0.957782 0.020047 -0.029082 0.000000 0.000000
    21 1.164474 -2.543938 -0.170328 -0.746185 -0.418461 0.758810
    22 0.024032 -1.129043 0.017806 -0.018074 0.000000 0.000001
    23 0.014896 -0.883989 -0.019845 -0.173902 0.000000 0.000000
    24 -0.586770 -1.264475 0.200164 -0.404608 -0.889666 -2.802604
    25 1.522835 0.058681 0.016850 0.003040 0.008578 0.139466
    26 1.117948 0.048424 -0.005764 -0.012959 -0.021615 0.596408
    27 -0.139399 -0.111697 0.014397 1.015899 -0.011973 1.557605
    28 -0.488517 -2.755600 -0.228261 -1.271705 0.204357 -0.667266
    29 0.039888 -1.479789 0.029853 -1.152008 0.000000 0.000000
    30 0.028785 -1.075730 -0.023111 -0.588007 0.000000 0.000000
    31 0.250028 -2.820663 -0.238396 -0.771513 0.274426 -0.625246
    32 -0.049759 -1.680545 0.100480 -1.613311 0.000000 -0.000002
    33 -0.034141 -1.148312 0.084779 -0.559943 0.000000 0.000000
    34 0.957766 -2.746776 -0.090301 0.515200 -0.161031 -0.078778
    35 -0.033419 -1.397129 -0.011255 -0.689084 0.000000 -0.000001
    36 -0.022361 -0.957434 0.018783 -0.947565 0.000000 0.000000
    37 -1.180680 -2.507215 -0.193861 -1.228181 0.243990 -0.959484
    38 -0.024966 -1.123934 0.017594 -1.183509 0.000000 0.000001
    39 -0.020057 -0.890966 0.010091 -0.156559 0.000000 0.000000
    40 0.583510 -1.197274 0.185377 -0.590062 -0.266802 -0.221547
    41 1.535926 0.010245 0.005008 0.147579 -0.037070 -0.823644
    42 1.100770 0.004526 -0.010676 0.271088 0.045503 -0.665957
    43 -0.082979 -0.104955 -0.132615 -2.777779 0.192670 -1.233676
  time 27
    0 7.826632 3.646956 -9.000268 4.618197 -1.129819 -4.929816
    1 -0.071918 -8.498731 -0.104137 -0.245796 0.233668 -0.604484
    2 0.495589 -0.864885 2.107330 0.242957 0.570640 -1.377025
    3 4.542924 -0.382888 0.022987 0.007495 -0.047182 -0.079724
    4 3.200649 0.867596 0.043289 0.000000 0.000000 0.000000
    5 -3.643570 1.002876 0.003384 0.000000 0.000000 0.003942
    6 0.857399 0.018234 0.573097 0.000000 0.000000 -0.003942
    7 0.857399 0.018232 -0.648928 0.000000 0.000000 -0.003942
    8 0.118242 2.570887 -0.001752 -0.000357 0.000159 3.141434
    9 -0.469978 0.641241 -0.011208 0.000001 0.000000 -1.369176
    10 -3.964763 -8.183408 -9.763735 -1.446854 -5.041818 -0.645720
    11 0.096944 -8.450419 -0.009364 -0.428070 -1.342978 0.495732
    12 0.447952 -2.798982 -0.200442 -0.742163 -0.466990 0.382663
    13 -0.032910 -1.480206 0.004936 -0.386522 0.000000 0.000002
    14 -0.027022 -1.076919 -0.020212 -0.382565 0.000000 0.000000
    15 -0.249534 -2.846962 -0.174215 -0.196021 -0.541735 0.428484
    16 0.043235 -1.683939 0.096014 -0.892275 0.002823 -0.000167
    17 0.031729 -1.160831 0.058836 -0.270017 0.000642 0.008372
    18 -0.928709 -3.304689 -0.007219 -0.226726 -0.199997 0.146530
    19 0.028479 -1.641356 0.150807 -0.437645 0.000000 0.000000
    20 0.021413 -0.957782 0.020047 -0.084942 0.000000 0.000000
    21 1.164474 -2.543938 -0.170328 -0.877300 -0.418461 0.758810
    22 0.024032 -1.129043 0.017806 -0.054701 0.000000 0.000001
    23 0.014896 -0.883989 -0.019845 -0.150832 0.000000 0.000000
    24 -0.586770 -1.264475 0.200164 -0.471062 -0.859312 -2.771808
    25 1.522835 0.058681 0.016850 0.003184 0.008530 0.155538
    26 1.117948 0.048424 -0.005764 -0.011916 -0.022214 0.548483
    27 -0.139399 -0.111697 0.014397 1.015899 -0.011973 1.557605
    28 -0.488517 -2.755600 -0.228261 -1.271705 0.204357 -0.667266
    29 0.039888 -1.479789 0.029853 -1.152008 0.000000 0.000000
    30 0.028785 -1.075730 -0.023111 -0.588007 0.000000 0.000000
    31 0.250028 -2.820663 -0.238396 -0.771513 0.274426 -0.625246
    32 -0.049759 -1.680545 0.100480 -1.613311 0.000000 -0.000002
    33 -0.034141 -1.148312 0.084779 -0.559943 0.000000 0.000000
    34 0.957766 -2.746776 -0.090301 0.515200 -0.161031 -0.078778
    35 -0.033419 -1.397129 -0.011255 -0.689084 0.000000 -0.000001
    36 -0.022361 -0.957434 0.018783 -0.947565 0.000000 0.000000
    37 -1.180680 -2.507215 -0.193861 -1.228181 0.243990 -0.959484
    38 -0.024966 -1.123934 0.017594 -1.183509 0.000000 0.000001
    39 -0.020057 -0.890966 0.010091 -0.156559 0.000000 0.000000
    40 0.583510 -1.197274 0.185377 -0.565369 -0.275886 -0.245019
    41 1.535926 0.010245 0.005008 0.142563 -0.035247 -0.808068
    42 1.100770 0.004526 -0.010676 0.269937 0.054875 -0.720933
    43 -0.082979 -0.104955 -0.132615 -2.777779 0.192670 -1.233676
  time 28
    0 7.826632 3.646956 -9.000268 4.619241 -1.124454 -4.930862
    1 -0.071918 -8.498731 -0.104137 -0.259380 0.225664 -0.599347
    2 0.495589 -0.864885 2.107330 0.242957 0.570640 -1.377025
    3 4.542924 -0.382888 0.022987 0.007634 -0.038055 -0.087696
    4 3.200649 0.867596 0.043289 0.000000 0.000000 0.000000
    5 -3.643570 1.002876 0.003384 0.000000 0.000000 0.003942
    6 0.857399 0.018234 0.573097 0.000000 0.000000 -0.003942
    7 0.857399 0.018232 -0.648928 0.000000 0.000000 -0.003942
    8 0.118242 2.570887 -0.001752 -0.000357 0.000159 3.141434
    9 -0.469978 0.641241 -0.011208 0.000001 0.000000 -1.369176
    10 -3.945231 -8.183408 -9.923896 -1.450216 -5.052174 -0.649282
    11 0.096944 -8.450419 -0.009364 -0.453590 -1.342978 0.495732
    12 0.447952 -2.798982 -0.200442 -0.742163 -0.466990 0.382663
    13 -0.032910 -1.480206 0.004936 -0.447486 0.000000 0.000002
    14 -0.027022 -1.076919 -0.020212 -0.429400 0.000000 0.000000
    15 -0.249534 -2.846962 -0.174215 -0.243974 -0.541735 0.428484
    16 0.043235 -1.683939 0.096014 -0.892275 0.002823 -0.000167
    17 0.031729 -1.160831 0.058836 -0.354495 0.000642 0.008372
    18 -0.928709 -3.304689 -0.007219 -0.213519 -0.199997 0.146530
    19 0.028479 -1.641356 0.150807 -0.557114 0.000000 0.000000
    20 0.021413 -0.957782 0.020047 -0.151838 0.000000 0.000000
    21 1.164474 -2.543938 -0.170328 -0.969409 -0.418461 0.758810
    22 0.024032 -1.129043 0.017806 -0.146295 0.000000 0.000001
    23 0.014896 -0.883989 -0.019845 -0.093131 0.000000 0.000000
    24 -0.586770 -1.264475 0.200164 -0.521605 -0.825318 -2.742931
    25 1.522835 0.058681 0.016850 0.003316 0.008470 0.171314
    26 1.117948 0.048424 -0.005764 -0.009172 -0.023472 0.428671
    27 -0.139399 -0.111697 0.014397 1.015899 -0.011973 1.557605
    28 -0.488517 -2.755600 -0.228261 -1.271705 0.204357 -0.667266
    29 0.039888 -1.479789 0.029853 -1.152008 0.000000 0.000000
    30 0.028785 -1.075730 -0.023111 -0.588007 0.000000 0.000000
    31 0.250028 -2.820663 -0.238396 -0.771513 0.274426 -0.625246
    32 -0.049759 -1.680545 0.100480 -1.613311 0.000000 -0.000002
    33 -0.034141 -1.148312 0.084779 -0.559943 0.000000 0.000000
    34 0.957766 -2.746776 -0.090301 0.515200 -0.161031 -0.078778
    35 -0.033419 -1.397129 -0.011255 -0.689084 0.000000 -0.000001
    36 -0.022361 -0.957434 0.018783 -0.947565 0.000000 0.000000
    37 -1.180680 -2.507215 -0.193861 -1.228181 0.243990 -0.959484
    38 -0.024966 -1.123934 0.017594 -1.183509 0.000000 0.000001
    39 -0.020057 -0.890966 0.010091 -0.156559 0.000000 0.000000
    40 0.583510 -1.197274 0.185377 -0.515768 -0.301371 -0.274368
    41 1.535926 0.010245 0.005008 0.129995 -0.030701 -0.769142
    42 1.100770 0.004526 -0.010676 0.268140 0.063792 -0.759413
    43 -0.082979 -0.104955 -0.132615 -2.777779 0.192670 -1.233676
  time 29
    0 7.826632 3.646956 -9.000268 4.620570 -1.117461 -4.932383
    1 -0.071918 -8.498731 -0.104137 -0.274550 0.220984 -0.593827
    2 0.495589 -0.864885 2.107330 0.242957 0.570640 -1.377025
    3 4.542924 -0.382888 0.022987 0.006431 -0.027248 -0.073962
    4 3.200649 0.867596 0.043289 0.000000 0.000000 0.000000
    5 -3.643570 1.002876 0.003384 0.000000 0.000000 0.003942
    6 0.857399 0.018234 0.573097 0.000000 0.000000 -0.003942
    7 0.857399 0.018232 -0.648928 0.000000 0.000000 -0.003942
    8 0.118242 2.570887 -0.001752 -0.000357 0.000159 3.141434
    9 -0.469978 0.641241 -0.011208 0.000001 0.000000 -1.369176
    10 -3.886635 -8.183408 -9.837956 -1.454463 -5.065606 -0.653875
    11 0.096944 -8.450419 -0.009364 -0.479473 -1.342978 0.495732
    12 0.447952 -2.798982 -0.200442 -0.742163 -0.466990 0.382663
    13 -0.032910 -1.480206 0.004936 -0.491983 0.000000 0.000002
    14 -0.027022 -1.076919 -0.020212 -0.463778 0.000000 0.000000
    15 -0.249534 -2.846962 -0.174215 -0.276217 -0.541735 0.428484
    16 0.043235 -1.683939 0.096014 -0.892275 0.002823 -0.000167
    17 0.031729 -1.160831 0.058836 -0.442155 0.000642 0.008372
    18 -0.928709 -3.304689 -0.007219 -0.196355 -0.199997 0.146530
    19 0.028479 -1.641356 0.150807 -0.667129 0.000000 0.000000
    20 0.021413 -0.957782 0.020047 -0.220318 0.000000 0.000000
    21 1.164474 -2.543938 -0.170328 -1.029343 -0.418461 0.758810
    22 0.024032 -1.129043 0.017806 -0.265359 0.000000 0.000001
    23 0.014896 -0.883989 -0.019845 -0.018152 0.000000 0.000000
    24 -0.586770 -1.264475 0.200164 -0.557822 -0.791712 -2.717812
    25 1.522835 0.058681 0.016850 0.003435 0.008422 0.185602
    26 1.117948 0.048424 -0.005764 -0.005420 -0.024611 0.272883
    27 -0.139399 -0.111697 0.014397 1.015899 -0.011973 1.557605
    28 -0.488517 -2.755600 -0.228261 -1.271705 0.204357 -0.667266
    29 0.039888 -1.479789 0.029853 -1.152008 0.000000 0.000000
    30 0.028785 -1.075730 -0.023111 -0.588007 0.000000 0.000000
    31 0.250028 -2.820663 -0.238396 -0.771513 0.274426 -0.625246
    32 -0.049759 -1.680545 0.100480 -1.613311 0.000000 -0.000002
    33 -0.034141 -1.148312 0.084779 -0.559943 0.000000 0.000000
    34 0.957766 -2.746776 -0.090301 0.515200 -0.161031 -0.078778
    35 -0.033419 -1.397129 -0.011255 -0.689084 0.000000 -0.000001
    36 -0.022361 -0.957434 0.018783 -0.947565 0.000000 0.000000
    37 -1.180680 -2.507215 -0.193861 -1.228181 0.243990 -0.959484
    38 -0.024966 -1.123934 0.017594 -1.183509 0.000000 0.000001
    39 -0.020057 -0.890966 0.010091 -0.156559 0.000000 0.000000
    40 0.583510 -1.197274 0.185377 -0.454162 -0.335005 -0.305724
    41 1.535926 0.010245 0.005008 0.113651 -0.024745 -0.718565
    42 1.100770 0.004526 -0.010676 0.266042 0.071725 -0.784370
    43 -0.082979 -0.104955 -0.132615 -2.777779 0.192670 -1.233676
  time 30
    0 7.826632 3.646956 -9.000268 4.621899 -1.110467 -4.933810
    1 -0.071918 -8.498731 -0.104137 -0.288664 0.218768 -0.588767
    2 0.495589 -0.864885 2.107330 0.242957 0.570640 -1.377025
    3 4.542924 -0.382888 0.022987 0.003794 -0.014705 -0.043815
    4 3.200649 0.867596 0.043289 0.000000 0.000000 0.000000
    5 -3.643570 1.002876 0.003384 0.000000 0.000000 0.003942
    6 0.857399 0.018234 0.573097 0.000000 0.000000 -0.003942
    7 0.857399 0.018232 -0.648928 0.000000 0.000000 -0.003942
    8 0.118242 2.570887 -0.001752 -0.000357 0.000159 3.141434
    9 -0.469978 0.641241 -0.011208 0.000001 0.000000 -1.369176
    10 -3.808508 -8.183408 -9.642638 -1.458710 -5.079037 -0.658374
    11 0.096944 -8.450419 -0.009364 -0.502223 -1.342978 0.495732
    12 0.447952 -2.798982 -0.200442 -0.742163 -0.466990 0.382663
    13 -0.032910 -1.480206 0.004936 -0.521710 0.000000 0.000002
    14 -0.027022 -1.076919 -0.020212 -0.486860 0.000000 0.000000
    15 -0.249534 -2.846962 -0.174215 -0.295649 -0.541735 0.428484
    16 0.043235 -1.683939 0.096014 -0.892275 0.002823 -0.000167
    17 0.031729 -1.160831 0.058836 -0.520374 0.000642 0.008372
    18 -0.928709 -3.304689 -0.007219 -0.179176 -0.199997 0.146530
    19 0.028479 -1.641356 0.150807 -0.757823 0.000000 0.000000
    20 0.021413 -0.957782 0.020047 -0.280930 0.000000 0.000000
    21 1.164474 -2.543938 -0.170328 -1.063759 -0.418461 0.758810
    22 0.024032 -1.129043 0.017806 -0.384423 0.000000 0.000001
    23 0.014896 -0.883989 -0.019845 0.056847 0.000000 0.000000
    24 -0.586770 -1.264475 0.200164 -0.581543 -0.762606 -2.698064
    25 1.522835 0.058681 0.016850 0.003531 0.008386 0.197246
    26 1.117948 0.048424 -0.005764 -0.001537 -0.025162 0.117127
    27 -0.139399 -0.111697 0.014397 1.015899 -0.011973 1.557605
    28 -0.488517 -2.755600 -0.228261 -1.271705 0.204357 -0.667266
    29 0.039888 -1.479789 0.029853 -1.152008 0.000000 0.000000
    30 0.028785 -1.075730 -0.023111 -0.588007 0.000000 0.000000
    31 0.250028 -2.820663 -0.238396 -0.771513 0.274426 -0.625246
    32 -0.049759 -1.680545 0.100480 -1.613311 0.000000 -0.000002
    33 -0.034141 -1.148312 0.084779 -0.559943 0.000000 0.000000
    34 0.957766 -2.746776 -0.090301 0.515200 -0.161031 -0.078778
    35 -0.033419 -1.397129 -0.011255 -0.689084 0.000000 -0.000001
    36 -0.022361 -0.957434 0.018783 -0.947565 0.000000 0.000000
    37 -1.180680 -2.507215 -0.193861 -1.228181 0.243990 -0.959484
    38 -0.024966 -1.123934 0.017594 -1.183509 0.000000 0.000001
    39 -0.020057 -0.890966 0.010091 -0.156559 0.000000 0.000000
    40 0.583510 -1.197274 0.185377 -0.393497 -0.368692 -0.334615
    41 1.535926 0.010245 0.005008 0.097278 -0.018765 -0.667988
    42 1.100770 0.004526 -0.010676 0.264053 0.078089 -0.798626
    43 -0.082979 -0.104955 -0.132615 -2.777779 0.192670 -1.233676
  time 31
    0 7.826632 3.646956 -9.000268 4.622943 -1.105102 -4.934951
    1 -0.071918 -8.498731 -0.104137 -0.299044 0.218076 -0.585087
    2 0.495589 -0.864885 2.107330 0.242957 0.570640 -1.377025
    3 4.542924 -0.382888 0.022987 0.001157 -0.004324 -0.013668
    4 3.200649 0.867596 0.043289 0.000000 0.000000 0.000000
    5 -3.643570 1.002876 0.003384 0.000000 0.000000 0.003942
    6 0.857399 0.018234 0.573097 0.000000 0.000000 -0.003942
    7 0.857399 0.018232 -0.648928 0.000000 0.000000 -0.003942
    8 0.118242 2.570887 -0.001752 -0.000357 0.000159 3.141434
    9 -0.469978 0.641241 -0.011208 0.000001 0.000000 -1.369176
    10 -3.746006 -8.183408 -9.451226 -1.461954 -5.089393 -0.661842
    11 0.096944 -8.450419 -0.009364 -0.518435 -1.342978 0.495732
    12 0.447952 -2.798982 -0.200442 -0.742163 -0.466990 0.382663
    13 -0.032910 -1.480206 0.004936 -0.538302 0.000000 0.000002
    14 -0.027022 -1.076919 -0.020212 -0.499833 0.000000 0.000000
    15 -0.249534 -2.846962 -0.174215 -0.305186 -0.541735 0.428484
    16 0.043235 -1.683939 0.096014 -0.892275 0.002823 -0.000167
    17 0.031729 -1.160831 0.058836 -0.576533 0.000642 0.008372
    18 -0.928709 -3.304689 -0.007219 -0.165968 -0.199997 0.146530
    19 0.028479 -1.641356 0.150807 -0.819441 0.000000 0.000000
    20 0.021413 -0.957782 0.020047 -0.324220 0.000000 0.000000
    21 1.164474 -2.543938 -0.170328 -1.079454 -0.418461 0.758810
    22 0.024032 -1.129043 0.017806 -0.475990 0.000000 0.000001
    23 0.014896 -0.883989 -0.019845 0.114529 0.000000 0.000000
    24 -0.586770 -1.264475 0.200164 -0.594508 -0.742111 -2.685117
    25 1.522835 0.058681 0.016850 0.003603 0.008362 0.205087
    26 1.117948 0.048424 -0.005764 0.001471 -0.025162 -0.002685
    27 -0.139399 -0.111697 0.014397 1.015899 -0.011973 1.557605
    28 -0.488517 -2.755600 -0.228261 -1.271705 0.204357 -0.667266
    29 0.039888 -1.479789 0.029853 -1.152008 0.000000 0.000000
    30 0.028785 -1.075730 -0.023111 -0.588007 0.000000 0.000000
    31 0.250028 -2.820663 -0.238396 -0.771513 0.274426 -0.625246
    32 -0.049759 -1.680545 0.100480 -1.613311 0.000000 -0.000002
    33 -0.034141 -1.148312 0.084779 -0.559943 0.000000 0.000000
    34 0.957766 -2.746776 -0.090301 0.515200 -0.161031 -0.078778
    35 -0.033419 -1.397129 -0.011255 -0.689084 0.000000 -0.000001
    36 -0.022361 -0.957434 0.018783 -0.947565 0.000000 0.000000
    37 -1.180680 -2.507215 -0.193861 -1.228181 0.243990 -0.959484
    38 -0.024966 -1.123934 0.017594 -1.183509 0.000000 0.000001
    39 -0.020057 -0.890966 0.010091 -0.156559 0.000000 0.000000
    40 0.583510 -1.197274 0.185377 -0.347143 -0.394618 -0.355965
    41 1.535926 0.010245 0.005008 0.084681 -0.014146 -0.629086
    42 1.100770 0.004526 -0.010676 0.262567 0.082332 -0.805078
    43 -0.082979 -0.104955 -0.132615 -2.777779 0.192670 -1.233676
  time 32
    0 7.826632 3.646956 -9.000268 4.623323 -1.102899 -4.935427
    1 -0.071918 -8.498731 -0.104137 -0.303101 0.218048 -0.583656
    2 0.495589 -0.864885 2.107330 0.242957 0.570640 -1.377025
    3 4.542924 -0.382888 0.022987 0.000000 -0.000001 -0.000001
    4 3.200649 0.867596 0.043289 0.000000 0.000000 0.000000
    5 -3.643570 1.002876 0.003384 0.000000 0.000000 0.003942
    6 0.857399 0.018234 0.573097 0.000000 0.000000 -0.003942
    7 0.857399 0.018232 -0.648928 0.000000 0.000000 -0.003942
    8 0.118242 2.570887 -0.001752 -0.000357 0.000159 3.141434
    9 -0.469978 0.641241 -0.011208 0.000001 0.000000 -1.369176
    10 -3.718661 -8.183408 -9.361379 -1.463252 -5.093520 -0.663248
    11 0.096944 -8.450419 -0.009364 -0.524656 -1.342978 0.495732
    12 0.447952 -2.798982 -0.200442 -0.742163 -0.466990 0.382663
    13 -0.032910 -1.480206 0.004936 -0.543456 0.000000 0.000002
    14 -0.027022 -1.076919 -0.020212 -0.503908 0.000000 0.000000
    15 -0.249534 -2.846962 -0.174215 -0.307709 -0.541735 0.428484
    16 0.043235 -1.683939 0.096014 -0.892275 0.002823 -0.000167
    17 0.031729 -1.160831 0.058836 -0.598046 0.000642 0.008372
    18 -0.928709 -3.304689 -0.007219 -0.160689 -0.199997 0.146530
    19 0.028479 -1.641356 0.150807 -0.842152 0.000000 0.000000
    20 0.021413 -0.957782 0.020047 -0.340762 0.000000 0.000000
    21 1.164474 -2.543938 -0.170328 -1.083191 -0.418461 0.758810
    22 0.024032 -1.129043 0.017806 -0.512644 0.000000 0.000001
    23 0.014896 -0.883989 -0.019845 0.137598 0.000000 0.000000
    24 -0.586770 -1.264475 0.200164 -0.598458 -0.734380 -2.680461
    25 1.522835 0.058681 0.016850 0.003627 0.008350 0.207966
    26 1.117948 0.048424 -0.005764 0.002669 -0.025066 -0.050610
    27 -0.139399 -0.111697 0.014397 1.015899 -0.011973 1.557605
    28 -0.488517 -2.755600 -0.228261 -1.271705 0.204357 -0.667266
    29 0.039888 -1.479789 0.029853 -1.152008 0.000000 0.000000
    30 0.028785 -1.075730 -0.023111 -0.588007 0.000000 0.000000
    31 0.250028 -2.820663 -0.238396 -0.771513 0.274426 -0.625246
    32 -0.049759 -1.680545 0.100480 -1.613311 0.000000 -0.000002
    33 -0.034141 -1.148312 0.084779 -0.559943 0.000000 0.000000
    34 0.957766 -2.746776 -0.090301 0.515200 -0.161031 -0.078778
    35 -0.033419 -1.397129 -0.011255 -0.689084 0.000000 -0.000001
    36 -0.022361 -0.957434 0.018783 -0.947565 0.000000 0.000000
    37 -1.180680 -2.507215 -0.193861 -1.228181 0.243990 -0.959484
    38 -0.024966 -1.123934 0.017594 -1.183509 0.000000 0.000001
    39 -0.020057 -0.890966 0.010091 -0.156559 0.000000 0.000000
    40 0.583510 -1.197274 0.185377 -0.328687 -0.404973 -0.364290
    41 1.535926 0.010245 0.005008 0.079636 -0.012323 -0.613536
    42 1.100770 0.004526 -0.010676 0.261980 0.083878 -0.806585
    43 -0.082979 -0.104955 -0.132615 -2.777779 0.192670 -1.233676
end
