// Created by Crowbar 0.34.0.0

$ModelName "weapons/tfa_cso/w_dbarrel_g.mdl"

$BodyGroup "studio"
{
	studio "v_dbarrelg_v_ref"
}

$collisionmodel "v_dbarrelg_v_ref.smd"
{
	$mass 9
}

$CDMaterials "models\weapons\tfa_cso\dbarrel_g"

$attachment "0" "root" 1.00 -17.40 0.40 rotate -0 0 0

$Sequence "idle" {
	"anims\idle.smd"
	fps 30
}