// Created by Crowbar 0.49.0.0

$modelname "weapons/tfa_cso/c_ump45.mdl"

$bodygroup "weapon"
{
	studio "v_ump45_f_ump45_template"
}

$bodygroup "hands"
{
	studio "v_ump45_f_ump45_Male_hand_Low"
}

$CDMaterials "models\weapons\tfa_cso\ump45\"

$attachment 0 "Bone51" 0 -8.3 0
//$attachment 1 "Bone51" 0 -1 0

$definebone "Bone24" "" 7.550744 2.826793 -8.353151 -77.878658 74.212130 -82.715456 0.000000 0.000000 0.000000 -0.000000 -0.000000 0.000001
$definebone "Bone25" "Bone24" -0.244755 -8.933567 0.000000 -1.325138 -16.303353 18.775716 0.000000 0.000000 0.000000 0.000000 -0.000002 0.000001
$definebone "Bone47" "Bone25" -0.686200 -3.387099 0.924607 79.585823 -105.757394 -110.184183 0.000000 0.000000 0.000000 -0.000000 -0.000001 -0.000001
$definebone "Bone48" "Bone47" 0.000000 2.226935 0.999491 0.000000 0.000001 -0.000003 -0.000000 0.000000 0.000000 -0.000000 -0.000001 -0.000001
$definebone "Bone51" "Bone48" 0.000000 -4.979920 3.296568 0.000000 0.000001 -0.000003 0.000000 0.000000 0.000000 -0.000000 -0.000001 -0.000001
$definebone "Bone53" "Bone48" -0.000000 -6.435322 1.946378 0.000000 0.000001 -0.000003 0.000000 0.000000 0.000000 -0.000000 -0.000001 -0.000001
$definebone "Bone49" "Bone48" 0.000000 -3.226429 1.771029 0.000000 0.000001 -0.000003 0.000000 0.000000 0.000000 -0.000000 -0.000001 -0.000001
$definebone "Bone55" "Bone48" -0.000000 -5.541038 1.209910 0.000000 0.000001 -0.000003 0.000000 0.000000 -0.000000 -0.000000 -0.000001 -0.000001
$definebone "Bone57" "Bone48" -0.002621 -8.389322 4.069160 -2.356460 -0.180825 0.421293 0.000000 0.000000 0.000000 -0.000001 -0.000001 -0.000001
$definebone "Bone01" "" -1.306171 -11.912071 -12.471897 47.410710 -39.445627 -91.192712 0.000000 -0.000000 0.000000 -0.000000 0.000002 0.000002
$definebone "Bone02" "Bone01" 0.026865 -9.077095 -0.000001 2.764693 48.702842 22.086091 0.000000 0.000000 0.000000 -0.000000 -0.000001 0.000002
$definebone "Bone04" "Bone02" -0.710981 -0.309349 0.477535 -41.252448 -114.470215 -10.779917 0.000000 -0.000001 0.000000 -0.000000 -0.000001 -0.000003
$definebone "Bone05" "Bone04" 1.647789 0.090625 0.000000 0.000002 37.498764 -0.000004 -0.000002 -0.000000 0.000000 0.000002 -0.000003 -0.000004
$definebone "Bone06" "Bone05" 0.983505 0.005681 -0.000002 0.000004 52.499437 -0.000003 0.000000 -0.000001 -0.000001 0.000004 0.000000 -0.000003
$definebone "Bone07" "Bone02" -1.090122 -2.286360 -0.122572 -32.899516 -92.196360 -2.722638 0.000000 -0.000000 0.000000 0.000005 0.000001 -0.000000
$definebone "Bone08" "Bone07" 1.390341 -0.000584 -0.000001 -81.299797 0.300004 -0.000003 0.000000 0.000000 0.000000 -0.000005 0.000000 -0.000002
$definebone "Bone09" "Bone08" 0.964940 -0.010943 0.000000 -65.398837 -0.000004 -0.000005 0.000002 0.000000 0.000000 -0.000002 -0.000002 -0.000001
$definebone "Bone11" "Bone02" -0.348493 -2.450808 -0.122571 -46.799767 -94.199819 -0.000401 0.000001 0.000000 0.000000 0.000002 0.000000 -0.000000
$definebone "Bone12" "Bone11" 1.546314 0.004627 -0.000002 -85.800011 -180.000007 -180.000007 0.000000 0.000000 0.000000 -0.000000 -0.000000 -0.000000
$definebone "Bone13" "Bone12" 1.135736 0.008475 -0.000001 -59.101225 1.200002 -0.000001 -0.000002 -0.000000 0.000000 -0.000005 -0.000000 0.000000
$definebone "Bone15" "Bone02" 0.310263 -2.195681 -0.122572 -34.717688 -90.952125 2.838433 -0.000001 0.000000 -0.000001 0.000003 0.000001 0.000000
$definebone "Bone16" "Bone15" 1.569654 0.049780 -0.000001 -86.699349 -0.600003 -0.000004 0.000000 0.000000 0.000000 -0.000009 0.000000 -0.000001
$definebone "Bone17" "Bone16" 1.096339 0.003407 0.000001 -66.000208 0.299998 -0.000001 0.000002 0.000000 0.000000 0.000007 -0.000001 -0.000000
$definebone "Bone19" "Bone02" 0.956485 -1.792013 -0.122573 -24.768389 -89.079581 2.639559 0.000000 0.000000 0.000000 0.000003 0.000000 0.000000
$definebone "Bone20" "Bone19" 1.346260 0.018203 0.000001 -51.298577 -0.300001 0.000000 -0.000000 0.000000 0.000000 -0.000000 0.000000 -0.000000
$definebone "Bone21" "Bone20" 0.874448 -0.001050 0.000000 -67.800666 -0.000002 -0.000000 0.000000 0.000000 0.000001 0.000001 -0.000001 -0.000000
$definebone "Bone27" "Bone25" 0.696741 -0.322882 0.472822 -18.463222 -51.992534 -2.802565 0.000000 0.000000 -0.000000 -0.000000 0.000001 0.000001
$definebone "Bone28" "Bone27" 1.728638 -0.122214 -0.000000 -0.000000 -30.299662 0.000001 0.000000 0.000000 0.000000 -0.000000 0.000004 0.000001
$definebone "Bone29" "Bone28" 0.882757 0.056391 0.000000 0.000001 -30.600242 0.000001 0.000000 0.000000 0.000000 0.000001 0.000002 0.000001
$definebone "Bone31" "Bone25" 1.120275 -2.304550 -0.137080 -7.491480 -85.823630 0.355006 0.000001 0.000000 0.000000 0.000001 0.000005 0.000000
$definebone "Bone32" "Bone31" 1.365644 0.014869 -0.000000 -15.000438 -0.299996 0.000000 0.000000 0.000000 0.000000 -0.000000 0.000005 -0.000001
$definebone "Bone33" "Bone32" 0.938014 -0.005663 0.000002 -47.099947 0.600005 -0.000001 0.000000 0.000000 0.000000 -0.000003 0.000003 -0.000004

$sequence "idle1" {
	"v_ump45_anims\idle1"
	fps 12
	loop
	activity "ACT_VM_IDLE" 1
	snap
}
$sequence "reload" {
	"v_ump45_anims\reload"
	{ event 5004 23 "Ump45.ClipOut" }
	{ event 5004 59 "Ump45.ClipIn" }
	{ event 5004 86 "Ump45.Boltslap" }
	fps 33
	activity "ACT_VM_RELOAD" 1
	snap
}
$sequence "draw" {
	"v_ump45_anims\draw"
	fps 30
	activity "ACT_VM_DRAW" 1
	snap
}
$sequence "shoot1" {
	"v_ump45_anims\shoot1"
	{ event 5001 0 "11" }
	{ event 5001 0 "11" }
	fps 32
	activity "ACT_VM_PRIMARYATTACK" 1
	snap
}
$sequence "shoot2" {
	"v_ump45_anims\shoot2"
	{ event 5001 0 "11" }
	{ event 5001 0 "11" }
	fps 32
	activity "ACT_VM_PRIMARYATTACK" 2
	snap
}
$sequence "shoot3" {
	"v_ump45_anims\shoot3"
	{ event 5001 0 "11" }
	{ event 5001 0 "11" }
	fps 32
	activity "ACT_VM_PRIMARYATTACK" 3
	snap
}
