"VertexLitGeneric"
{
	$basetexture	"models\weapons\v_models\Request CSO\Frame MG3 XMAS Box D"
	$bumpmap "models\weapons\v_models\Request CSO\Frame MG3 XMAS Box N"
	$phongexponenttexture "models\weapons\v_models\Request CSO\Dragon TMP S"
	
	$phong "1"
	$phongexponent "20"
	$phongfresnelranges "[0.15 0.65 1.00]"
	$phongalbedotint "1"
	$phongboost "16"

	$alphatest "1"
	$ambientocclusion "0"
}