"VertexLitGeneric"
{
"$basetexture" "models\weapons\v_models\Request CSO\SF Ethereal Ammo D"
"$bumpmap" "models\weapons\v_models\Request CSO\SF Ethereal Ammo N"
"$additive" "1"
"$model" "1"	
"$nocull" "1"
$selfillum 1
$selfillumtint "[0.05 0.05 0.05]"
}