version 1
nodes
  0 "root" -1
  1 "Bone01" 0
  2 "Bone_Lefthand" 1
  3 "Bone02" 2
  4 "Dummy01" 3
  5 "Bone08" 4
  6 "Bone16" 3
  7 "Bone26" 3
  8 "Bone24" 3
  9 "Bone_L_Upper" 1
  10 "Bone13" 2
  11 "Bone14" 10
  12 "Bone15" 11
  13 "Bone17" 2
  14 "Bone18" 13
  15 "Bone19" 14
  16 "Bone21" 2
  17 "Bone22" 16
  18 "Bone23" 17
  19 "Bone09" 2
  20 "Bone10" 19
  21 "Bone11" 20
  22 "Bone05" 2
  23 "Bone06" 22
  24 "Bone07" 23
  25 "Bone_Se_Hand-L" 2
  26 "Bone04" 0
  27 "Bone_Righthand" 26
  28 "Bone39" 27
  29 "Bone40" 28
  30 "Bone41" 29
  31 "Bone35" 27
  32 "Bone36" 31
  33 "Bone37" 32
  34 "Bone31" 27
  35 "Bone32" 34
  36 "Bone33" 35
  37 "Bone43" 27
  38 "Bone44" 37
  39 "Bone45" 38
  40 "Bone27" 27
  41 "Bone28" 40
  42 "Bone29" 41
  43 "Bone_Se_Hand-R" 27
  44 "Bone_R_Upper" 26
end
skeleton
  time 0
    0 -0.349399 1.166145 0.203512 0.000000 0.000000 0.000000
    1 9.847816 3.010857 -8.841781 -1.654813 -1.258183 1.303959
    2 -0.071918 -8.498729 -0.104136 0.219055 0.124697 -0.381034
    3 2.441370 -6.426759 0.537448 0.089049 0.119162 -1.478491
    4 2.710185 -3.307132 0.000000 0.000000 0.000000 -1.570797
    5 0.000000 0.000000 0.000000 0.000000 0.000000 0.000000
    6 -0.787659 -1.985389 0.000000 0.000000 0.000000 -1.570796
    7 14.175378 -1.687388 0.000001 0.000000 0.000000 -1.570796
    8 1.025149 -0.859104 0.000000 1.570796 -1.570796 0.000000
    9 1.257180 8.762585 -0.153713 -1.570562 0.002683 -1.566807
    10 -0.488518 -2.755602 -0.228260 -1.043629 0.109301 -0.409563
    11 0.039887 -1.479790 0.029854 -1.667534 0.000000 0.000001
    12 0.028786 -1.075731 -0.023109 -0.454494 0.000000 0.000000
    13 0.250027 -2.820665 -0.238396 -0.736464 0.165690 -0.428552
    14 -0.049759 -1.680544 0.100479 -1.752455 0.000000 -0.000002
    15 -0.034142 -1.148312 0.084782 -0.832761 0.000000 0.000000
    16 0.957766 -2.746780 -0.090302 0.092438 -0.026887 -0.411347
    17 -0.033420 -1.397129 -0.011257 -0.387585 0.000000 -0.000001
    18 -0.022360 -0.957436 0.018784 -0.125157 0.000000 0.000000
    19 -1.180681 -2.507217 -0.193859 -1.338376 0.249247 -0.349932
    20 -0.024967 -1.123934 0.017597 -1.138797 0.000000 0.000001
    21 -0.020057 -0.890968 0.010090 -0.444208 0.000000 0.000000
    22 0.583510 -1.197277 0.185379 -0.170596 -0.642052 -0.400567
    23 1.535927 0.010246 0.005009 -0.002964 -0.012979 -0.887970
    24 1.100771 0.004527 -0.010679 -0.012432 0.010412 -0.697598
    25 0.120153 -0.050270 -0.054489 0.287569 3.110905 1.561085
    26 1.213651 -11.227537 -12.321972 -1.671668 -5.320523 -1.094220
    27 0.096944 -8.450418 -0.009365 -0.036421 -1.226923 0.518805
    28 0.447953 -2.798986 -0.200443 -1.421012 0.011480 0.381620
    29 -0.032909 -1.480204 0.004940 -1.110076 0.000000 0.000002
    30 -0.027022 -1.076920 -0.020210 0.205198 0.000000 0.000000
    31 -0.249534 -2.846964 -0.174213 -0.964673 0.069314 0.302245
    32 0.043235 -1.683941 0.096012 -1.514629 0.002823 -0.000167
    33 0.031729 -1.160830 0.058838 0.134676 0.000642 0.008372
    34 -0.963866 -2.785145 -0.085350 -0.482992 0.119647 0.325274
    35 0.028479 -1.403067 0.006271 -1.337916 0.000000 0.000000
    36 0.021413 -0.957781 0.020046 -0.325451 0.000000 0.000000
    37 1.164475 -2.543940 -0.170330 -1.543927 0.034787 0.508555
    38 0.024032 -1.129042 0.017807 -1.093987 0.000000 0.000001
    39 0.014898 -0.883989 -0.019848 0.041331 0.000000 0.000000
    40 -0.586770 -1.264477 0.200161 0.164856 -0.089913 -2.665668
    41 1.522835 0.058681 0.016848 0.001410 0.008985 0.554174
    42 1.117947 0.048424 -0.005766 0.000584 -0.025198 0.032164
    43 -0.139399 -0.111698 0.014397 0.812758 0.207758 1.328796
    44 -6.260806 6.983652 -0.294122 1.580804 -0.005023 -0.912813
  time 1
    0 -0.349399 1.166145 0.203512 0.000000 0.000000 0.000000
    1 9.847816 5.792192 -8.349578 -1.654813 -1.258183 1.303959
    2 -0.071918 -8.498729 -0.104136 0.218635 0.108183 -0.384737
    3 2.441370 -6.426759 0.537448 0.089049 0.119162 -1.478491
    4 2.710185 -3.307132 0.000000 0.000000 0.000000 -1.570797
    5 0.000000 0.000000 0.000000 0.000000 0.000000 0.000000
    6 -0.787659 -1.985389 0.000000 0.000000 0.000000 -1.570796
    7 14.175378 -1.687388 0.000001 0.000000 0.000000 -0.523689
    8 -2.584336 -0.859104 0.000000 1.570796 -1.570796 0.000000
    9 1.257180 8.762585 -0.153713 -1.570562 0.002683 -1.566807
    10 -0.488518 -2.755602 -0.228260 -1.043629 0.109301 -0.409563
    11 0.039887 -1.479790 0.029854 -1.667534 0.000000 0.000001
    12 0.028786 -1.075731 -0.023109 -0.454494 0.000000 0.000000
    13 0.250027 -2.820665 -0.238396 -0.736464 0.165690 -0.428552
    14 -0.049759 -1.680544 0.100479 -1.752455 0.000000 -0.000002
    15 -0.034142 -1.148312 0.084782 -0.832761 0.000000 0.000000
    16 0.957766 -2.746780 -0.090302 0.092438 -0.026887 -0.411347
    17 -0.033420 -1.397129 -0.011257 -0.387585 0.000000 -0.000001
    18 -0.022360 -0.957436 0.018784 -0.125157 0.000000 0.000000
    19 -1.180681 -2.507217 -0.193859 -1.338376 0.249247 -0.349932
    20 -0.024967 -1.123934 0.017597 -1.138797 0.000000 0.000001
    21 -0.020057 -0.890968 0.010090 -0.444208 0.000000 0.000000
    22 0.583510 -1.197277 0.185379 -0.170596 -0.642052 -0.400567
    23 1.535927 0.010246 0.005009 -0.002964 -0.012979 -0.887970
    24 1.100771 0.004527 -0.010679 -0.012432 0.010412 -0.697598
    25 0.120153 -0.050270 -0.054489 0.287569 3.110905 1.561085
    26 1.303498 -8.450108 -11.907897 -1.647739 -5.330194 -1.076182
    27 0.096944 -8.450418 -0.009365 -0.036421 -1.226923 0.518805
    28 0.447953 -2.798986 -0.200443 -1.421012 0.011480 0.381620
    29 -0.032909 -1.480204 0.004940 -1.110076 0.000000 0.000002
    30 -0.027022 -1.076920 -0.020210 0.205198 0.000000 0.000000
    31 -0.249534 -2.846964 -0.174213 -0.964673 0.069314 0.302245
    32 0.043235 -1.683941 0.096012 -1.514629 0.002823 -0.000167
    33 0.031729 -1.160830 0.058838 0.134676 0.000642 0.008372
    34 -0.963866 -2.785145 -0.085350 -0.482992 0.119647 0.325274
    35 0.028479 -1.403067 0.006271 -1.337916 0.000000 0.000000
    36 0.021413 -0.957781 0.020046 -0.325451 0.000000 0.000000
    37 1.164475 -2.543940 -0.170330 -1.543927 0.034787 0.508555
    38 0.024032 -1.129042 0.017807 -1.093987 0.000000 0.000001
    39 0.014898 -0.883989 -0.019848 0.041331 0.000000 0.000000
    40 -0.586770 -1.264477 0.200161 0.164856 -0.089913 -2.665668
    41 1.522835 0.058681 0.016848 0.001410 0.008985 0.554174
    42 1.117947 0.048424 -0.005766 0.000584 -0.025198 0.032164
    43 -0.139399 -0.111698 0.014397 0.812758 0.207758 1.328796
    44 -6.260806 6.983652 -0.294122 1.580804 -0.005023 -0.912813
  time 2
    0 -0.349399 1.166145 0.203512 0.000000 0.000000 0.000000
    1 9.847816 6.553934 -8.330046 -1.672823 -1.236398 1.320965
    2 -0.071918 -8.498729 -0.104136 0.217964 0.075692 -0.391976
    3 2.441370 -6.426759 0.537448 0.089049 0.119162 -1.478491
    4 2.710185 -3.307132 0.000000 0.000000 0.000000 -1.570797
    5 0.000000 0.000000 0.000000 0.000000 0.000000 0.000000
    6 -0.787659 -1.985389 0.000000 0.000000 0.000000 -1.570796
    7 14.175378 -1.687388 0.000001 0.000000 0.000000 -0.940563
    8 -2.584336 -0.859104 0.000000 1.570796 -1.570796 0.000000
    9 1.257180 8.762585 -0.153713 -1.570562 0.002683 -1.566807
    10 -0.488518 -2.755602 -0.228260 -1.043629 0.109301 -0.409563
    11 0.039887 -1.479790 0.029854 -1.667534 0.000000 0.000001
    12 0.028786 -1.075731 -0.023109 -0.454494 0.000000 0.000000
    13 0.250027 -2.820665 -0.238396 -0.736464 0.165690 -0.428552
    14 -0.049759 -1.680544 0.100479 -1.752455 0.000000 -0.000002
    15 -0.034142 -1.148312 0.084782 -0.832761 0.000000 0.000000
    16 0.957766 -2.746780 -0.090302 0.092438 -0.026887 -0.411347
    17 -0.033420 -1.397129 -0.011257 -0.387585 0.000000 -0.000001
    18 -0.022360 -0.957436 0.018784 -0.125157 0.000000 0.000000
    19 -1.180681 -2.507217 -0.193859 -1.338376 0.249247 -0.349932
    20 -0.024967 -1.123934 0.017597 -1.138797 0.000000 0.000001
    21 -0.020057 -0.890968 0.010090 -0.444208 0.000000 0.000000
    22 0.583510 -1.197277 0.185379 -0.170596 -0.642052 -0.400567
    23 1.535927 0.010246 0.005009 -0.002964 -0.012979 -0.887970
    24 1.100771 0.004527 -0.010679 -0.012432 0.010412 -0.697598
    25 0.120153 -0.050270 -0.054489 0.287569 3.110905 1.561085
    26 1.487097 -7.778213 -11.728204 -1.621050 -5.369522 -1.057284
    27 0.096944 -8.450418 -0.009365 -0.036421 -1.226923 0.518805
    28 0.447953 -2.798986 -0.200443 -1.421012 0.011480 0.381620
    29 -0.032909 -1.480204 0.004940 -1.110076 0.000000 0.000002
    30 -0.027022 -1.076920 -0.020210 0.205198 0.000000 0.000000
    31 -0.249534 -2.846964 -0.174213 -0.964673 0.069314 0.302245
    32 0.043235 -1.683941 0.096012 -1.514629 0.002823 -0.000167
    33 0.031729 -1.160830 0.058838 0.134676 0.000642 0.008372
    34 -0.963866 -2.785145 -0.085350 -0.482992 0.119647 0.325274
    35 0.028479 -1.403067 0.006271 -1.337916 0.000000 0.000000
    36 0.021413 -0.957781 0.020046 -0.325451 0.000000 0.000000
    37 1.164475 -2.543940 -0.170330 -1.543927 0.034787 0.508555
    38 0.024032 -1.129042 0.017807 -1.093987 0.000000 0.000001
    39 0.014898 -0.883989 -0.019848 0.041331 0.000000 0.000000
    40 -0.586770 -1.264477 0.200161 0.164856 -0.089913 -2.665668
    41 1.522835 0.058681 0.016848 0.001410 0.008985 0.554174
    42 1.117947 0.048424 -0.005766 0.000584 -0.025198 0.032164
    43 -0.139399 -0.111698 0.014397 0.812758 0.207758 1.328796
    44 -6.260806 6.983652 -0.294122 1.580804 -0.005023 -0.912813
  time 3
    0 -0.349399 1.166145 0.203512 0.000000 0.000000 0.000000
    1 9.847816 6.542215 -8.349578 -1.683305 -1.222418 1.330806
    2 -0.071918 -8.498729 -0.104136 0.217688 0.056265 -0.396278
    3 2.441370 -6.426759 0.537448 0.089049 0.119162 -1.478491
    4 2.710185 -3.307132 0.000000 0.000000 0.000000 -1.570797
    5 0.000000 0.000000 0.000000 0.000000 0.000000 0.000000
    6 -0.787659 -1.985389 0.000000 0.000000 0.000000 -1.570796
    7 14.175378 -1.687388 0.000001 0.000000 0.000000 -1.601025
    8 -0.779594 -0.859104 0.000000 1.570796 -1.570796 0.000000
    9 1.257180 8.762585 -0.153713 -1.570562 0.002683 -1.566807
    10 -0.488518 -2.755602 -0.228260 -1.043629 0.109301 -0.409563
    11 0.039887 -1.479790 0.029854 -1.667534 0.000000 0.000001
    12 0.028786 -1.075731 -0.023109 -0.454494 0.000000 0.000000
    13 0.250027 -2.820665 -0.238396 -0.736464 0.165690 -0.428552
    14 -0.049759 -1.680544 0.100479 -1.752455 0.000000 -0.000002
    15 -0.034142 -1.148312 0.084782 -0.832761 0.000000 0.000000
    16 0.957766 -2.746780 -0.090302 0.092438 -0.026887 -0.411347
    17 -0.033420 -1.397129 -0.011257 -0.387585 0.000000 -0.000001
    18 -0.022360 -0.957436 0.018784 -0.125157 0.000000 0.000000
    19 -1.180681 -2.507217 -0.193859 -1.338376 0.249247 -0.349932
    20 -0.024967 -1.123934 0.017597 -1.138797 0.000000 0.000001
    21 -0.020057 -0.890968 0.010090 -0.444208 0.000000 0.000000
    22 0.583510 -1.197277 0.185379 -0.170596 -0.642052 -0.400567
    23 1.535927 0.010246 0.005009 -0.002964 -0.012979 -0.887970
    24 1.100771 0.004527 -0.010679 -0.012432 0.010412 -0.697598
    25 0.120153 -0.050270 -0.054489 0.287569 3.110905 1.561085
    26 1.600382 -7.844621 -11.634451 -1.606969 -5.393930 -1.047454
    27 0.096944 -8.450418 -0.009365 -0.036421 -1.226923 0.518805
    28 0.447953 -2.798986 -0.200443 -1.421012 0.011480 0.381620
    29 -0.032909 -1.480204 0.004940 -1.110076 0.000000 0.000002
    30 -0.027022 -1.076920 -0.020210 0.205198 0.000000 0.000000
    31 -0.249534 -2.846964 -0.174213 -0.964673 0.069314 0.302245
    32 0.043235 -1.683941 0.096012 -1.514629 0.002823 -0.000167
    33 0.031729 -1.160830 0.058838 0.134676 0.000642 0.008372
    34 -0.963866 -2.785145 -0.085350 -0.482992 0.119647 0.325274
    35 0.028479 -1.403067 0.006271 -1.337916 0.000000 0.000000
    36 0.021413 -0.957781 0.020046 -0.325451 0.000000 0.000000
    37 1.164475 -2.543940 -0.170330 -1.543927 0.034787 0.508555
    38 0.024032 -1.129042 0.017807 -1.093987 0.000000 0.000001
    39 0.014898 -0.883989 -0.019848 0.041331 0.000000 0.000000
    40 -0.586770 -1.264477 0.200161 0.164856 -0.089913 -2.665668
    41 1.522835 0.058681 0.016848 0.001410 0.008985 0.554174
    42 1.117947 0.048424 -0.005766 0.000584 -0.025198 0.032164
    43 -0.139399 -0.111698 0.014397 0.812758 0.207758 1.328796
    44 -6.260806 6.983652 -0.294122 1.580804 -0.005023 -0.912813
  time 4
    0 -0.349399 1.166145 0.203512 0.000000 0.000000 0.000000
    1 9.847816 5.827349 -8.197230 -1.673585 -1.235381 1.321729
    2 -0.071918 -8.498729 -0.104136 0.217820 0.065997 -0.394121
    3 2.441370 -6.426759 0.537448 0.089049 0.119162 -1.478491
    4 2.710185 -3.307132 0.000000 0.000000 0.000000 -1.570797
    5 0.000000 0.000000 0.000000 0.000000 0.000000 0.000000
    6 -0.787659 -1.985389 0.000000 0.000000 0.000000 -1.570796
    7 14.175378 -1.687388 0.000001 0.000000 0.000000 -2.245202
    8 1.025149 -0.859104 0.000000 1.570796 -1.570796 0.000000
    9 1.257180 8.762585 -0.153713 -1.570562 0.002683 -1.566807
    10 -0.488518 -2.755602 -0.228260 -1.043629 0.109301 -0.409563
    11 0.039887 -1.479790 0.029854 -1.667534 0.000000 0.000001
    12 0.028786 -1.075731 -0.023109 -0.454494 0.000000 0.000000
    13 0.250027 -2.820665 -0.238396 -0.736464 0.165690 -0.428552
    14 -0.049759 -1.680544 0.100479 -1.752455 0.000000 -0.000002
    15 -0.034142 -1.148312 0.084782 -0.832785 0.000000 0.000000
    16 0.957766 -2.746780 -0.090302 0.092438 -0.026887 -0.411347
    17 -0.033420 -1.397129 -0.011257 -0.387585 0.000000 -0.000001
    18 -0.022360 -0.957436 0.018784 -0.125157 0.000000 0.000000
    19 -1.180681 -2.507217 -0.193859 -1.338376 0.249247 -0.349932
    20 -0.024967 -1.123934 0.017597 -1.138797 0.000000 0.000001
    21 -0.020057 -0.890968 0.010090 -0.444208 0.000000 0.000000
    22 0.583510 -1.197277 0.185379 -0.170596 -0.642052 -0.400567
    23 1.535927 0.010246 0.005009 -0.002964 -0.012979 -0.887970
    24 1.100771 0.004527 -0.010679 -0.012432 0.010412 -0.697598
    25 0.120153 -0.050270 -0.054489 0.287569 3.110905 1.561085
    26 1.545693 -8.512610 -11.630544 -1.608902 -5.376338 -1.048408
    27 0.096944 -8.450418 -0.009365 -0.036421 -1.226923 0.518805
    28 0.447953 -2.798986 -0.200443 -1.421012 0.011480 0.381620
    29 -0.032909 -1.480204 0.004940 -1.110076 0.000000 0.000002
    30 -0.027022 -1.076920 -0.020210 0.205198 0.000000 0.000000
    31 -0.249534 -2.846964 -0.174213 -0.964673 0.069314 0.302245
    32 0.043235 -1.683941 0.096012 -1.514629 0.002823 -0.000167
    33 0.031729 -1.160830 0.058838 0.134676 0.000642 0.008372
    34 -0.963866 -2.785145 -0.085350 -0.482992 0.119647 0.325274
    35 0.028479 -1.403067 0.006271 -1.337916 0.000000 0.000000
    36 0.021413 -0.957781 0.020046 -0.325451 0.000000 0.000000
    37 1.164475 -2.543940 -0.170330 -1.543927 0.034787 0.508555
    38 0.024032 -1.129042 0.017807 -1.093987 0.000000 0.000001
    39 0.014898 -0.883989 -0.019848 0.041331 0.000000 0.000000
    40 -0.586770 -1.264477 0.200161 0.164856 -0.089913 -2.665668
    41 1.522835 0.058681 0.016848 0.001410 0.008985 0.554174
    42 1.117947 0.048424 -0.005766 0.000584 -0.025198 0.032164
    43 -0.139399 -0.111698 0.014397 0.812758 0.207758 1.328796
    44 -6.260806 6.983652 -0.294122 1.580804 -0.005023 -0.912813
  time 5
    0 -0.349399 1.166145 0.203512 0.000000 0.000000 0.000000
    1 9.847816 4.780442 -8.005818 -1.655003 -1.257929 1.304150
    2 -0.071918 -8.498729 -0.104136 0.218120 0.084477 -0.390022
    3 2.441370 -6.426759 0.537448 0.089049 0.119162 -1.478491
    4 2.710185 -3.307132 0.000000 0.000000 0.000000 -1.570797
    5 0.000000 0.000000 0.000000 0.000000 0.000000 0.000000
    6 -0.787659 -1.985389 0.000000 0.000000 0.000000 -1.570796
    7 14.175378 -1.687388 0.000001 0.000000 0.000000 -2.613006
    8 1.025149 -0.859104 0.000000 1.570796 -1.570796 0.000000
    9 1.257180 8.762585 -0.153713 -1.570562 0.002683 -1.566807
    10 -0.488518 -2.755602 -0.228260 -1.043629 0.109301 -0.409563
    11 0.039887 -1.479790 0.029854 -1.667534 0.000000 0.000001
    12 0.028786 -1.075731 -0.023109 -0.454494 0.000000 0.000000
    13 0.250027 -2.820665 -0.238396 -0.736464 0.165690 -0.428552
    14 -0.049759 -1.680544 0.100479 -1.752455 0.000000 -0.000002
    15 -0.034142 -1.148312 0.084782 -0.832761 0.000000 0.000000
    16 0.957766 -2.746780 -0.090302 0.092438 -0.026887 -0.411347
    17 -0.033420 -1.397129 -0.011257 -0.387585 0.000000 -0.000001
    18 -0.022360 -0.957436 0.018784 -0.125157 0.000000 0.000000
    19 -1.180681 -2.507217 -0.193859 -1.338376 0.249247 -0.349932
    20 -0.024967 -1.123934 0.017597 -1.138797 0.000000 0.000001
    21 -0.020057 -0.890968 0.010090 -0.444208 0.000000 0.000000
    22 0.583510 -1.197277 0.185379 -0.170596 -0.642052 -0.400567
    23 1.535927 0.010246 0.005009 -0.002964 -0.012979 -0.887970
    24 1.100771 0.004527 -0.010679 -0.012432 0.010412 -0.697598
    25 0.120153 -0.050270 -0.054489 0.287569 3.110905 1.561085
    26 1.436314 -9.469670 -11.681327 -1.614608 -5.344746 -1.051462
    27 0.096944 -8.450418 -0.009365 -0.036421 -1.226923 0.518805
    28 0.447953 -2.798986 -0.200443 -1.421012 0.011480 0.381620
    29 -0.032909 -1.480204 0.004940 -1.110076 0.000000 0.000002
    30 -0.027022 -1.076920 -0.020210 0.205198 0.000000 0.000000
    31 -0.249534 -2.846964 -0.174213 -0.964673 0.069314 0.302245
    32 0.043235 -1.683941 0.096012 -1.514629 0.002823 -0.000167
    33 0.031729 -1.160830 0.058838 0.134676 0.000642 0.008372
    34 -0.963866 -2.785145 -0.085350 -0.482992 0.119647 0.325274
    35 0.028479 -1.403067 0.006271 -1.337916 0.000000 0.000000
    36 0.021413 -0.957781 0.020046 -0.325451 0.000000 0.000000
    37 1.164475 -2.543940 -0.170330 -1.543927 0.034787 0.508555
    38 0.024032 -1.129042 0.017807 -1.093987 0.000000 0.000001
    39 0.014898 -0.883989 -0.019848 0.041331 0.000000 0.000000
    40 -0.586770 -1.264477 0.200161 0.164856 -0.089913 -2.665668
    41 1.522835 0.058681 0.016848 0.001410 0.008985 0.554174
    42 1.117947 0.048424 -0.005766 0.000584 -0.025198 0.032164
    43 -0.139399 -0.111698 0.014397 0.812758 0.207758 1.328796
    44 -6.260806 6.983652 -0.294122 1.580804 -0.005023 -0.912813
  time 6
    0 -0.349399 1.166145 0.203512 0.000000 0.000000 0.000000
    1 9.847816 3.940573 -7.900346 -1.636707 -1.277319 1.286570
    2 -0.071918 -8.498729 -0.104136 0.218575 0.105606 -0.385312
    3 2.441370 -6.426759 0.537448 0.089049 0.119162 -1.478491
    4 2.710185 -3.307132 0.000000 0.000000 0.000000 -1.570797
    5 0.000000 0.000000 0.000000 0.000000 0.000000 0.000000
    6 -0.787659 -1.985389 0.000000 0.000000 0.000000 -1.570796
    7 14.175378 -1.687388 0.000001 0.000000 0.000000 -2.685812
    8 1.025149 -0.859104 0.000000 1.570796 -1.570796 0.000000
    9 1.257180 8.762585 -0.153713 -1.570562 0.002683 -1.566807
    10 -0.488518 -2.755602 -0.228260 -1.043629 0.109301 -0.409563
    11 0.039887 -1.479790 0.029854 -1.667534 0.000000 0.000001
    12 0.028786 -1.075731 -0.023109 -0.454494 0.000000 0.000000
    13 0.250027 -2.820665 -0.238396 -0.736464 0.165690 -0.428552
    14 -0.049759 -1.680544 0.100479 -1.752455 0.000000 -0.000002
    15 -0.034142 -1.148312 0.084782 -0.832761 0.000000 0.000000
    16 0.957766 -2.746780 -0.090302 0.092438 -0.026887 -0.411347
    17 -0.033420 -1.397129 -0.011257 -0.387585 0.000000 -0.000001
    18 -0.022360 -0.957436 0.018784 -0.125157 0.000000 0.000000
    19 -1.180681 -2.507217 -0.193859 -1.338376 0.249247 -0.349932
    20 -0.024967 -1.123934 0.017597 -1.138797 0.000000 0.000001
    21 -0.020057 -0.890968 0.010090 -0.444208 0.000000 0.000000
    22 0.583510 -1.197277 0.185379 -0.170596 -0.642052 -0.400567
    23 1.535927 0.010246 0.005009 -0.002964 -0.012979 -0.887970
    24 1.100771 0.004527 -0.010679 -0.012432 0.010412 -0.697598
    25 0.120153 -0.050270 -0.054489 0.287569 3.110905 1.561085
    26 1.319123 -10.227506 -11.755548 -1.627308 -5.314352 -1.059670
    27 0.096944 -8.450418 -0.009365 -0.036421 -1.226923 0.518805
    28 0.447953 -2.798986 -0.200443 -1.421012 0.011480 0.381620
    29 -0.032909 -1.480204 0.004940 -1.110076 0.000000 0.000002
    30 -0.027022 -1.076920 -0.020210 0.205198 0.000000 0.000000
    31 -0.249534 -2.846964 -0.174213 -0.964673 0.069314 0.302245
    32 0.043235 -1.683941 0.096012 -1.514629 0.002823 -0.000167
    33 0.031729 -1.160830 0.058838 0.134676 0.000642 0.008372
    34 -0.963866 -2.785145 -0.085350 -0.482992 0.119647 0.325274
    35 0.028479 -1.403067 0.006271 -1.337916 0.000000 0.000000
    36 0.021413 -0.957781 0.020046 -0.325451 0.000000 0.000000
    37 1.164475 -2.543940 -0.170330 -1.543927 0.034787 0.508555
    38 0.024032 -1.129042 0.017807 -1.093987 0.000000 0.000001
    39 0.014898 -0.883989 -0.019848 0.041331 0.000000 0.000000
    40 -0.586770 -1.264477 0.200161 0.164856 -0.089913 -2.665668
    41 1.522835 0.058681 0.016848 0.001410 0.008985 0.554174
    42 1.117947 0.048424 -0.005766 0.000584 -0.025198 0.032164
    43 -0.139399 -0.111698 0.014397 0.812758 0.207758 1.328796
    44 -6.260806 6.983652 -0.294122 1.580804 -0.005023 -0.912813
  time 7
    0 -0.349399 1.166145 0.203512 0.000000 0.000000 0.000000
    1 9.847816 3.444464 -7.908158 -1.622128 -1.291007 1.272717
    2 -0.071918 -8.498729 -0.104136 0.219007 0.123283 -0.381357
    3 2.441370 -6.426759 0.537448 0.089049 0.119162 -1.478491
    4 2.710185 -3.307132 0.000000 0.000000 0.000000 -1.570797
    5 0.000000 0.000000 0.000000 0.000000 0.000000 0.000000
    6 -0.787659 -1.985389 0.000000 0.000000 0.000000 -1.570796
    7 14.175378 -1.687388 0.000001 0.000000 0.000000 -2.640681
    8 1.025149 -0.859104 0.000000 1.570796 -1.570796 0.000000
    9 1.257180 8.762585 -0.153713 -1.570562 0.002683 -1.566807
    10 -0.488518 -2.755602 -0.228260 -1.043629 0.109301 -0.409563
    11 0.039887 -1.479790 0.029854 -1.667534 0.000000 0.000001
    12 0.028786 -1.075731 -0.023109 -0.454494 0.000000 0.000000
    13 0.250027 -2.820665 -0.238396 -0.736464 0.165690 -0.428552
    14 -0.049759 -1.680544 0.100479 -1.752455 0.000000 -0.000002
    15 -0.034142 -1.148312 0.084782 -0.832785 0.000000 0.000000
    16 0.957766 -2.746780 -0.090302 0.092438 -0.026887 -0.411347
    17 -0.033420 -1.397129 -0.011257 -0.387585 0.000000 -0.000001
    18 -0.022360 -0.957436 0.018784 -0.125157 0.000000 0.000000
    19 -1.180681 -2.507217 -0.193859 -1.338376 0.249247 -0.349932
    20 -0.024967 -1.123934 0.017597 -1.138797 0.000000 0.000001
    21 -0.020057 -0.890968 0.010090 -0.444208 0.000000 0.000000
    22 0.583510 -1.197277 0.185379 -0.170596 -0.642052 -0.400567
    23 1.535927 0.010246 0.005009 -0.002964 -0.012979 -0.887970
    24 1.100771 0.004527 -0.010679 -0.012432 0.010412 -0.697598
    25 0.120153 -0.050270 -0.054489 0.287569 3.110905 1.561085
    26 1.221464 -10.665019 -11.880552 -1.640929 -5.291141 -1.068833
    27 0.096944 -8.450418 -0.009365 -0.036421 -1.226923 0.518805
    28 0.447953 -2.798986 -0.200443 -1.421012 0.011480 0.381620
    29 -0.032909 -1.480204 0.004940 -1.110076 0.000000 0.000002
    30 -0.027022 -1.076920 -0.020210 0.205198 0.000000 0.000000
    31 -0.249534 -2.846964 -0.174213 -0.964673 0.069314 0.302245
    32 0.043235 -1.683941 0.096012 -1.514629 0.002823 -0.000167
    33 0.031729 -1.160830 0.058838 0.134676 0.000642 0.008372
    34 -0.963866 -2.785145 -0.085350 -0.482992 0.119647 0.325274
    35 0.028479 -1.403067 0.006271 -1.337916 0.000000 0.000000
    36 0.021413 -0.957781 0.020046 -0.325451 0.000000 0.000000
    37 1.164475 -2.543940 -0.170330 -1.543927 0.034787 0.508555
    38 0.024032 -1.129042 0.017807 -1.093987 0.000000 0.000001
    39 0.014898 -0.883989 -0.019848 0.041331 0.000000 0.000000
    40 -0.586770 -1.264477 0.200161 0.164856 -0.089913 -2.665668
    41 1.522835 0.058681 0.016848 0.001410 0.008985 0.554174
    42 1.117947 0.048424 -0.005766 0.000584 -0.025198 0.032164
    43 -0.139399 -0.111698 0.014397 0.812758 0.207758 1.328796
    44 -6.260806 6.983652 -0.294122 1.580804 -0.005023 -0.912813
  time 8
    0 -0.349399 1.166145 0.203512 0.000000 0.000000 0.000000
    1 9.847816 3.073359 -7.974567 -1.607453 -1.303571 1.258577
    2 -0.071918 -8.498729 -0.104136 0.219246 0.131409 -0.379524
    3 2.441370 -6.426759 0.537448 0.089049 0.119162 -1.478491
    4 2.710185 -3.307132 0.000000 0.000000 0.000000 -1.570797
    5 0.000000 0.000000 0.000000 0.000000 0.000000 0.000000
    6 -0.787659 -1.985389 0.000000 0.000000 0.000000 -1.570796
    7 14.175378 -1.687388 0.000001 0.000000 0.000000 -2.511303
    8 1.025149 -0.859104 0.000000 1.570796 -1.570796 0.000000
    9 1.257180 8.762585 -0.153713 -1.570562 0.002683 -1.566807
    10 -0.488518 -2.755602 -0.228260 -1.043629 0.109301 -0.409563
    11 0.039887 -1.479790 0.029854 -1.667534 0.000000 0.000001
    12 0.028786 -1.075731 -0.023109 -0.454494 0.000000 0.000000
    13 0.250027 -2.820665 -0.238396 -0.736464 0.165690 -0.428552
    14 -0.049759 -1.680544 0.100479 -1.752455 0.000000 -0.000002
    15 -0.034142 -1.148312 0.084782 -0.832761 0.000000 0.000000
    16 0.957766 -2.746780 -0.090302 0.092438 -0.026887 -0.411347
    17 -0.033420 -1.397129 -0.011257 -0.387585 0.000000 -0.000001
    18 -0.022360 -0.957436 0.018784 -0.125157 0.000000 0.000000
    19 -1.180681 -2.507217 -0.193859 -1.338376 0.249247 -0.349932
    20 -0.024967 -1.123934 0.017597 -1.138797 0.000000 0.000001
    21 -0.020057 -0.890968 0.010090 -0.444208 0.000000 0.000000
    22 0.583510 -1.197277 0.185379 -0.170596 -0.642052 -0.400567
    23 1.535927 0.010246 0.005009 -0.002964 -0.012979 -0.887970
    24 1.100771 0.004527 -0.010679 -0.012432 0.010412 -0.697598
    25 0.120153 -0.050270 -0.054489 0.287569 3.110905 1.561085
    26 1.174588 -10.985342 -12.091496 -1.641481 -5.274747 -1.068260
    27 0.096944 -8.450418 -0.009365 -0.036421 -1.226923 0.518805
    28 0.447953 -2.798986 -0.200443 -1.421012 0.011480 0.381620
    29 -0.032909 -1.480204 0.004940 -1.110076 0.000000 0.000002
    30 -0.027022 -1.076920 -0.020210 0.205198 0.000000 0.000000
    31 -0.249534 -2.846964 -0.174213 -0.964673 0.069314 0.302245
    32 0.043235 -1.683941 0.096012 -1.514629 0.002823 -0.000167
    33 0.031729 -1.160830 0.058838 0.134676 0.000642 0.008372
    34 -0.963866 -2.785145 -0.085350 -0.482992 0.119647 0.325274
    35 0.028479 -1.403067 0.006271 -1.337916 0.000000 0.000000
    36 0.021413 -0.957781 0.020046 -0.325451 0.000000 0.000000
    37 1.164475 -2.543940 -0.170330 -1.543927 0.034787 0.508555
    38 0.024032 -1.129042 0.017807 -1.093987 0.000000 0.000001
    39 0.014898 -0.883989 -0.019848 0.041331 0.000000 0.000000
    40 -0.586770 -1.264477 0.200161 0.164856 -0.089913 -2.665668
    41 1.522835 0.058681 0.016848 0.001410 0.008985 0.554174
    42 1.117947 0.048424 -0.005766 0.000584 -0.025198 0.032164
    43 -0.139399 -0.111698 0.014397 0.812758 0.207758 1.328796
    44 -6.260806 6.983652 -0.294122 1.580804 -0.005023 -0.912813
  time 9
    0 -0.349399 1.166145 0.203512 0.000000 0.000000 0.000000
    1 9.847816 2.811632 -8.072226 -1.595446 -1.313047 1.246921
    2 -0.071918 -8.498729 -0.104136 0.219079 0.125920 -0.380758
    3 2.441370 -6.426759 0.537448 0.089049 0.119162 -1.478491
    4 2.710185 -3.307132 0.000000 0.000000 0.000000 -1.570797
    5 0.000000 0.000000 0.000000 0.000000 0.000000 0.000000
    6 -0.787659 -1.985389 0.000000 0.000000 0.000000 -1.570796
    7 14.175378 -1.687388 0.000001 0.000000 0.000000 -2.331206
    8 1.025149 -0.859104 0.000000 1.570796 -1.570796 0.000000
    9 1.257180 8.762585 -0.153713 -1.570562 0.002683 -1.566807
    10 -0.488518 -2.755602 -0.228260 -1.043629 0.109301 -0.409563
    11 0.039887 -1.479790 0.029854 -1.667534 0.000000 0.000001
    12 0.028786 -1.075731 -0.023109 -0.454494 0.000000 0.000000
    13 0.250027 -2.820665 -0.238396 -0.736464 0.165690 -0.428552
    14 -0.049759 -1.680544 0.100479 -1.752455 0.000000 -0.000002
    15 -0.034142 -1.148312 0.084782 -0.832761 0.000000 0.000000
    16 0.957766 -2.746780 -0.090302 0.092438 -0.026887 -0.411347
    17 -0.033420 -1.397129 -0.011257 -0.387585 0.000000 -0.000001
    18 -0.022360 -0.957436 0.018784 -0.125157 0.000000 0.000000
    19 -1.180681 -2.507217 -0.193859 -1.338376 0.249247 -0.349932
    20 -0.024967 -1.123934 0.017597 -1.138797 0.000000 0.000001
    21 -0.020057 -0.890968 0.010090 -0.444208 0.000000 0.000000
    22 0.583510 -1.197277 0.185379 -0.170596 -0.642052 -0.400567
    23 1.535927 0.010246 0.005009 -0.002964 -0.012979 -0.887970
    24 1.100771 0.004527 -0.010679 -0.012432 0.010412 -0.697598
    25 0.120153 -0.050270 -0.054489 0.287569 3.110905 1.561085
    26 1.205839 -11.208005 -12.353223 -1.623903 -5.269405 -1.054135
    27 0.096944 -8.450418 -0.009365 -0.036421 -1.226923 0.518805
    28 0.447953 -2.798986 -0.200443 -1.421012 0.011480 0.381620
    29 -0.032909 -1.480204 0.004940 -1.110076 0.000000 0.000002
    30 -0.027022 -1.076920 -0.020210 0.205198 0.000000 0.000000
    31 -0.249534 -2.846964 -0.174213 -0.964673 0.069314 0.302245
    32 0.043235 -1.683941 0.096012 -1.514629 0.002823 -0.000167
    33 0.031729 -1.160830 0.058838 0.134676 0.000642 0.008372
    34 -0.963866 -2.785145 -0.085350 -0.482992 0.119647 0.325274
    35 0.028479 -1.403067 0.006271 -1.337916 0.000000 0.000000
    36 0.021413 -0.957781 0.020046 -0.325451 0.000000 0.000000
    37 1.164475 -2.543940 -0.170330 -1.543927 0.034787 0.508555
    38 0.024032 -1.129042 0.017807 -1.093987 0.000000 0.000001
    39 0.014898 -0.883989 -0.019848 0.041331 0.000000 0.000000
    40 -0.586770 -1.264477 0.200161 0.164856 -0.089913 -2.665668
    41 1.522835 0.058681 0.016848 0.001410 0.008985 0.554174
    42 1.117947 0.048424 -0.005766 0.000584 -0.025198 0.032164
    43 -0.139399 -0.111698 0.014397 0.812758 0.207758 1.328796
    44 -6.260806 6.983652 -0.294122 1.580804 -0.005023 -0.912813
  time 10
    0 -0.349399 1.166145 0.203512 0.000000 0.000000 0.000000
    1 9.847816 2.639752 -8.173792 -1.589728 -1.317368 1.241379
    2 -0.071918 -8.498729 -0.104136 0.218695 0.110831 -0.384138
    3 2.441370 -6.426759 0.537448 0.089049 0.119162 -1.478491
    4 2.710185 -3.307132 0.000000 0.000000 0.000000 -1.570797
    5 0.000000 0.000000 0.000000 0.000000 0.000000 0.000000
    6 -0.787659 -1.985389 0.000000 0.000000 0.000000 -1.570796
    7 14.175378 -1.687388 0.000001 0.000000 0.000000 -2.133972
    8 1.025149 -0.859104 0.000000 1.570796 -1.570796 0.000000
    9 1.257180 8.762585 -0.153713 -1.570562 0.002683 -1.566807
    10 -0.488518 -2.755602 -0.228260 -1.043629 0.109301 -0.409563
    11 0.039887 -1.479790 0.029854 -1.667534 0.000000 0.000001
    12 0.028786 -1.075731 -0.023109 -0.454494 0.000000 0.000000
    13 0.250027 -2.820665 -0.238396 -0.736464 0.165690 -0.428552
    14 -0.049759 -1.680544 0.100479 -1.752455 0.000000 -0.000002
    15 -0.034142 -1.148312 0.084782 -0.832761 0.000000 0.000000
    16 0.957766 -2.746780 -0.090302 0.092438 -0.026887 -0.411347
    17 -0.033420 -1.397129 -0.011257 -0.387585 0.000000 -0.000001
    18 -0.022360 -0.957436 0.018784 -0.125157 0.000000 0.000000
    19 -1.180681 -2.507217 -0.193859 -1.338376 0.249247 -0.349932
    20 -0.024967 -1.123934 0.017597 -1.138797 0.000000 0.000001
    21 -0.020057 -0.890968 0.010090 -0.444208 0.000000 0.000000
    22 0.583510 -1.197277 0.185379 -0.170596 -0.642052 -0.400567
    23 1.535927 0.010246 0.005009 -0.002964 -0.012979 -0.887970
    24 1.100771 0.004527 -0.010679 -0.012432 0.010412 -0.697598
    25 0.120153 -0.050270 -0.054489 0.287569 3.110905 1.561085
    26 1.291779 -11.360353 -12.591511 -1.596753 -5.274747 -1.033424
    27 0.096944 -8.450418 -0.009365 -0.036421 -1.226923 0.518805
    28 0.447953 -2.798986 -0.200443 -1.421012 0.011480 0.381620
    29 -0.032909 -1.480204 0.004940 -1.110076 0.000000 0.000002
    30 -0.027022 -1.076920 -0.020210 0.205198 0.000000 0.000000
    31 -0.249534 -2.846964 -0.174213 -0.964673 0.069314 0.302245
    32 0.043235 -1.683941 0.096012 -1.514629 0.002823 -0.000167
    33 0.031729 -1.160830 0.058838 0.134676 0.000642 0.008372
    34 -0.963866 -2.785145 -0.085350 -0.482992 0.119647 0.325274
    35 0.028479 -1.403067 0.006271 -1.337916 0.000000 0.000000
    36 0.021413 -0.957781 0.020046 -0.325451 0.000000 0.000000
    37 1.164475 -2.543940 -0.170330 -1.543927 0.034787 0.508555
    38 0.024032 -1.129042 0.017807 -1.093987 0.000000 0.000001
    39 0.014898 -0.883989 -0.019848 0.041331 0.000000 0.000000
    40 -0.586770 -1.264477 0.200161 0.164856 -0.089913 -2.665668
    41 1.522835 0.058681 0.016848 0.001410 0.008985 0.554174
    42 1.117947 0.048424 -0.005766 0.000584 -0.025198 0.032164
    43 -0.139399 -0.111698 0.014397 0.812758 0.207758 1.328796
    44 -6.260806 6.983652 -0.294122 1.580804 -0.005023 -0.912813
  time 11
    0 -0.349399 1.166145 0.203512 0.000000 0.000000 0.000000
    1 9.847816 2.549906 -8.279263 -1.590681 -1.316642 1.242335
    2 -0.071918 -8.498729 -0.104136 0.218276 0.092315 -0.388272
    3 2.441370 -6.426759 0.537448 0.089049 0.119162 -1.478491
    4 2.710185 -3.307132 0.000000 0.000000 0.000000 -1.570797
    5 0.000000 0.000000 0.000000 0.000000 0.000000 0.000000
    6 -0.787659 -1.985389 0.000000 0.000000 0.000000 -1.570796
    7 14.175378 -1.687388 0.000001 0.000000 0.000000 -1.953289
    8 1.025149 -0.859104 0.000000 1.570796 -1.570796 0.000000
    9 1.257180 8.762585 -0.153713 -1.570562 0.002683 -1.566807
    10 -0.488518 -2.755602 -0.228260 -1.043629 0.109301 -0.409563
    11 0.039887 -1.479790 0.029854 -1.667534 0.000000 0.000001
    12 0.028786 -1.075731 -0.023109 -0.454494 0.000000 0.000000
    13 0.250027 -2.820665 -0.238396 -0.736464 0.165690 -0.428552
    14 -0.049759 -1.680544 0.100479 -1.752455 0.000000 -0.000002
    15 -0.034142 -1.148312 0.084782 -0.832761 0.000000 0.000000
    16 0.957766 -2.746780 -0.090302 0.092438 -0.026887 -0.411347
    17 -0.033420 -1.397129 -0.011257 -0.387585 0.000000 -0.000001
    18 -0.022360 -0.957436 0.018784 -0.125157 0.000000 0.000000
    19 -1.180681 -2.507217 -0.193859 -1.338376 0.249247 -0.349932
    20 -0.024967 -1.123934 0.017597 -1.138797 0.000000 0.000001
    21 -0.020057 -0.890968 0.010090 -0.444208 0.000000 0.000000
    22 0.583510 -1.197277 0.185379 -0.170596 -0.642052 -0.400567
    23 1.535927 0.010246 0.005009 -0.002964 -0.012979 -0.887970
    24 1.100771 0.004527 -0.010679 -0.012432 0.010412 -0.697598
    25 0.120153 -0.050270 -0.054489 0.287569 3.110905 1.561085
    26 1.393344 -11.450200 -12.779017 -1.570248 -5.287089 -1.013954
    27 0.096944 -8.450418 -0.009365 -0.036421 -1.226923 0.518805
    28 0.447953 -2.798986 -0.200443 -1.421012 0.011480 0.381620
    29 -0.032909 -1.480204 0.004940 -1.110076 0.000000 0.000002
    30 -0.027022 -1.076920 -0.020210 0.205198 0.000000 0.000000
    31 -0.249534 -2.846964 -0.174213 -0.964673 0.069314 0.302245
    32 0.043235 -1.683941 0.096012 -1.514629 0.002823 -0.000167
    33 0.031729 -1.160830 0.058838 0.134676 0.000642 0.008372
    34 -0.963866 -2.785145 -0.085350 -0.482992 0.119647 0.325274
    35 0.028479 -1.403067 0.006271 -1.337916 0.000000 0.000000
    36 0.021413 -0.957781 0.020046 -0.325451 0.000000 0.000000
    37 1.164475 -2.543940 -0.170330 -1.543927 0.034787 0.508555
    38 0.024032 -1.129042 0.017807 -1.093987 0.000000 0.000001
    39 0.014898 -0.883989 -0.019848 0.041331 0.000000 0.000000
    40 -0.586770 -1.264477 0.200161 0.164856 -0.089913 -2.665668
    41 1.522835 0.058681 0.016848 0.001410 0.008985 0.554174
    42 1.117947 0.048424 -0.005766 0.000584 -0.025198 0.032164
    43 -0.139399 -0.111698 0.014397 0.812758 0.207758 1.328796
    44 -6.260806 6.983652 -0.294122 1.580804 -0.005023 -0.912813
  time 12
    0 -0.349399 1.166145 0.203512 0.000000 0.000000 0.000000
    1 9.847816 2.522561 -8.400361 -1.595637 -1.312902 1.247112
    2 -0.071918 -8.498729 -0.104136 0.217976 0.076531 -0.391784
    3 2.441370 -6.426759 0.537448 0.089049 0.119162 -1.478491
    4 2.710185 -3.307132 0.000000 0.000000 0.000000 -1.570797
    5 0.000000 0.000000 0.000000 0.000000 0.000000 0.000000
    6 -0.787659 -1.985389 0.000000 0.000000 0.000000 -1.570796
    7 14.175378 -1.687388 0.000001 0.000000 0.000000 -1.677396
    8 1.025149 -0.859104 0.000000 1.570796 -1.570796 0.000000
    9 1.257180 8.762585 -0.153713 -1.570562 0.002683 -1.566807
    10 -0.488518 -2.755602 -0.228260 -1.043629 0.109301 -0.409563
    11 0.039887 -1.479790 0.029854 -1.667534 0.000000 0.000001
    12 0.028786 -1.075731 -0.023109 -0.454494 0.000000 0.000000
    13 0.250027 -2.820665 -0.238396 -0.736464 0.165690 -0.428552
    14 -0.049759 -1.680544 0.100479 -1.752455 0.000000 -0.000002
    15 -0.034142 -1.148312 0.084782 -0.832761 0.000000 0.000000
    16 0.957766 -2.746780 -0.090302 0.092438 -0.026887 -0.411347
    17 -0.033420 -1.397129 -0.011257 -0.387585 0.000000 -0.000001
    18 -0.022360 -0.957436 0.018784 -0.125157 0.000000 0.000000
    19 -1.180681 -2.507217 -0.193859 -1.338376 0.249247 -0.349932
    20 -0.024967 -1.123934 0.017597 -1.138797 0.000000 0.000001
    21 -0.020057 -0.890968 0.010090 -0.444208 0.000000 0.000000
    22 0.583510 -1.197277 0.185379 -0.170596 -0.642052 -0.400567
    23 1.535927 0.010246 0.005009 -0.002964 -0.012979 -0.887970
    24 1.100771 0.004527 -0.010679 -0.012432 0.010412 -0.697598
    25 0.120153 -0.050270 -0.054489 0.287569 3.110905 1.561085
    26 1.483191 -11.497076 -12.923553 -1.551657 -5.300628 -1.000783
    27 0.096944 -8.450418 -0.009365 -0.036421 -1.226923 0.518805
    28 0.447953 -2.798986 -0.200443 -1.421012 0.011480 0.381620
    29 -0.032909 -1.480204 0.004940 -1.110076 0.000000 0.000002
    30 -0.027022 -1.076920 -0.020210 0.205198 0.000000 0.000000
    31 -0.249534 -2.846964 -0.174213 -0.964673 0.069314 0.302245
    32 0.043235 -1.683941 0.096012 -1.514629 0.002823 -0.000167
    33 0.031729 -1.160830 0.058838 0.134676 0.000642 0.008372
    34 -0.963866 -2.785145 -0.085350 -0.482992 0.119647 0.325274
    35 0.028479 -1.403067 0.006271 -1.337916 0.000000 0.000000
    36 0.021413 -0.957781 0.020046 -0.325451 0.000000 0.000000
    37 1.164475 -2.543940 -0.170330 -1.543927 0.034787 0.508555
    38 0.024032 -1.129042 0.017807 -1.093987 0.000000 0.000001
    39 0.014898 -0.883989 -0.019848 0.041331 0.000000 0.000000
    40 -0.586770 -1.264477 0.200161 0.164856 -0.089913 -2.665668
    41 1.522835 0.058681 0.016848 0.001410 0.008985 0.554174
    42 1.117947 0.048424 -0.005766 0.000584 -0.025198 0.032164
    43 -0.139399 -0.111698 0.014397 0.812758 0.207758 1.328796
    44 -6.260806 6.983652 -0.294122 1.580804 -0.005023 -0.912813
  time 13
    0 -0.349399 1.166145 0.203512 0.000000 0.000000 0.000000
    1 9.847816 2.538186 -8.533177 -1.602974 -1.307165 1.254277
    2 -0.071918 -8.498729 -0.104136 0.217868 0.069616 -0.393318
    3 2.441370 -6.426759 0.537448 0.089049 0.119162 -1.478491
    4 2.710185 -3.307132 0.000000 0.000000 0.000000 -1.570797
    5 0.000000 0.000000 0.000000 0.000000 0.000000 0.000000
    6 -0.787659 -1.985389 0.000000 0.000000 0.000000 -1.570796
    7 14.175378 -1.687388 0.000001 0.000000 0.000000 -1.333115
    8 1.025149 -0.859104 0.000000 1.570796 -1.570796 0.000000
    9 1.257180 8.762585 -0.153713 -1.570562 0.002683 -1.566807
    10 -0.488518 -2.755602 -0.228260 -1.043629 0.109301 -0.409563
    11 0.039887 -1.479790 0.029854 -1.667534 0.000000 0.000001
    12 0.028786 -1.075731 -0.023109 -0.454494 0.000000 0.000000
    13 0.250027 -2.820665 -0.238396 -0.736464 0.165690 -0.428552
    14 -0.049759 -1.680544 0.100479 -1.752455 0.000000 -0.000002
    15 -0.034142 -1.148312 0.084782 -0.832761 0.000000 0.000000
    16 0.957766 -2.746780 -0.090302 0.092438 -0.026887 -0.411347
    17 -0.033420 -1.397129 -0.011257 -0.387585 0.000000 -0.000001
    18 -0.022360 -0.957436 0.018784 -0.125157 0.000000 0.000000
    19 -1.180681 -2.507217 -0.193859 -1.338376 0.249247 -0.349932
    20 -0.024967 -1.123934 0.017597 -1.138797 0.000000 0.000001
    21 -0.020057 -0.890968 0.010090 -0.444208 0.000000 0.000000
    22 0.583510 -1.197277 0.185379 -0.170596 -0.642052 -0.400567
    23 1.535927 0.010246 0.005009 -0.002964 -0.012979 -0.887970
    24 1.100771 0.004527 -0.010679 -0.012432 0.010412 -0.697598
    25 0.120153 -0.050270 -0.054489 0.287569 3.110905 1.561085
    26 1.522255 -11.504889 -13.001680 -1.547884 -5.310207 -0.998683
    27 0.096944 -8.450418 -0.009365 -0.036421 -1.226923 0.518805
    28 0.447953 -2.798986 -0.200443 -1.421012 0.011480 0.381620
    29 -0.032909 -1.480204 0.004940 -1.110076 0.000000 0.000002
    30 -0.027022 -1.076920 -0.020210 0.205198 0.000000 0.000000
    31 -0.249534 -2.846964 -0.174213 -0.964673 0.069314 0.302245
    32 0.043235 -1.683941 0.096012 -1.514629 0.002823 -0.000167
    33 0.031729 -1.160830 0.058838 0.134676 0.000642 0.008372
    34 -0.963866 -2.785145 -0.085350 -0.482992 0.119647 0.325274
    35 0.028479 -1.403067 0.006271 -1.337916 0.000000 0.000000
    36 0.021413 -0.957781 0.020046 -0.325451 0.000000 0.000000
    37 1.164475 -2.543940 -0.170330 -1.543927 0.034787 0.508555
    38 0.024032 -1.129042 0.017807 -1.093987 0.000000 0.000001
    39 0.014898 -0.883989 -0.019848 0.041331 0.000000 0.000000
    40 -0.586770 -1.264477 0.200161 0.164856 -0.089913 -2.665668
    41 1.522835 0.058681 0.016848 0.001410 0.008985 0.554174
    42 1.117947 0.048424 -0.005766 0.000584 -0.025198 0.032164
    43 -0.139399 -0.111698 0.014397 0.812758 0.207758 1.328796
    44 -6.260806 6.983652 -0.294122 1.580804 -0.005023 -0.912813
  time 14
    0 -0.349399 1.166145 0.203512 0.000000 0.000000 0.000000
    1 9.847816 2.581156 -8.654275 -1.611169 -1.300521 1.262112
    2 -0.071918 -8.498729 -0.104136 0.217880 0.070287 -0.393174
    3 2.441370 -6.426759 0.537448 0.089049 0.119162 -1.478491
    4 2.710185 -3.307132 0.000000 0.000000 0.000000 -1.570797
    5 0.000000 0.000000 0.000000 0.000000 0.000000 0.000000
    6 -0.787659 -1.985389 0.000000 0.000000 0.000000 -1.570796
    7 14.175378 -1.687388 0.000001 0.000000 0.000000 -1.161693
    8 1.025149 -0.859104 0.000000 1.570796 -1.570796 0.000000
    9 1.257180 8.762585 -0.153713 -1.570562 0.002683 -1.566807
    10 -0.488518 -2.755602 -0.228260 -1.043629 0.109301 -0.409563
    11 0.039887 -1.479790 0.029854 -1.667534 0.000000 0.000001
    12 0.028786 -1.075731 -0.023109 -0.454494 0.000000 0.000000
    13 0.250027 -2.820665 -0.238396 -0.736464 0.165690 -0.428552
    14 -0.049759 -1.680544 0.100479 -1.752455 0.000000 -0.000002
    15 -0.034142 -1.148312 0.084782 -0.832761 0.000000 0.000000
    16 0.957766 -2.746780 -0.090302 0.092438 -0.026887 -0.411347
    17 -0.033420 -1.397129 -0.011257 -0.387585 0.000000 -0.000001
    18 -0.022360 -0.957436 0.018784 -0.125157 0.000000 0.000000
    19 -1.180681 -2.507217 -0.193859 -1.338376 0.249247 -0.349932
    20 -0.024967 -1.123934 0.017597 -1.138797 0.000000 0.000001
    21 -0.020057 -0.890968 0.010090 -0.444208 0.000000 0.000000
    22 0.583510 -1.197277 0.185379 -0.170596 -0.642052 -0.400567
    23 1.535927 0.010246 0.005009 -0.002964 -0.012979 -0.887970
    24 1.100771 0.004527 -0.010679 -0.012432 0.010412 -0.697598
    25 0.120153 -0.050270 -0.054489 0.287569 3.110905 1.561085
    26 1.518348 -11.493170 -13.025118 -1.555431 -5.315641 -1.004887
    27 0.096944 -8.450418 -0.009365 -0.036421 -1.226923 0.518805
    28 0.447953 -2.798986 -0.200443 -1.421012 0.011480 0.381620
    29 -0.032909 -1.480204 0.004940 -1.110076 0.000000 0.000002
    30 -0.027022 -1.076920 -0.020210 0.205198 0.000000 0.000000
    31 -0.249534 -2.846964 -0.174213 -0.964673 0.069314 0.302245
    32 0.043235 -1.683941 0.096012 -1.514629 0.002823 -0.000167
    33 0.031729 -1.160830 0.058838 0.134676 0.000642 0.008372
    34 -0.963866 -2.785145 -0.085350 -0.482992 0.119647 0.325274
    35 0.028479 -1.403067 0.006271 -1.337916 0.000000 0.000000
    36 0.021413 -0.957781 0.020046 -0.325451 0.000000 0.000000
    37 1.164475 -2.543940 -0.170330 -1.543927 0.034787 0.508555
    38 0.024032 -1.129042 0.017807 -1.093987 0.000000 0.000001
    39 0.014898 -0.883989 -0.019848 0.041331 0.000000 0.000000
    40 -0.586770 -1.264477 0.200161 0.164856 -0.089913 -2.665668
    41 1.522835 0.058681 0.016848 0.001410 0.008985 0.554174
    42 1.117947 0.048424 -0.005766 0.000584 -0.025198 0.032164
    43 -0.139399 -0.111698 0.014397 0.812758 0.207758 1.328796
    44 -6.260806 6.983652 -0.294122 1.580804 -0.005023 -0.912813
  time 15
    0 -0.349399 1.166145 0.203512 0.000000 0.000000 0.000000
    1 9.847816 2.631939 -8.755841 -1.618888 -1.293912 1.269564
    2 -0.071918 -8.498729 -0.104136 0.217916 0.072888 -0.392599
    3 2.441370 -6.426759 0.537448 0.089049 0.119162 -1.478491
    4 2.710185 -3.307132 0.000000 0.000000 0.000000 -1.570797
    5 0.000000 0.000000 0.000000 0.000000 0.000000 0.000000
    6 -0.787659 -1.985389 0.000000 0.000000 0.000000 -1.570796
    7 14.175378 -1.687388 0.000001 0.000000 0.000000 -1.233167
    8 1.025149 -0.859104 0.000000 1.570796 -1.570796 0.000000
    9 1.257180 8.762585 -0.153713 -1.570562 0.002683 -1.566807
    10 -0.488518 -2.755602 -0.228260 -1.043629 0.109301 -0.409563
    11 0.039887 -1.479790 0.029854 -1.667534 0.000000 0.000001
    12 0.028786 -1.075731 -0.023109 -0.454494 0.000000 0.000000
    13 0.250027 -2.820665 -0.238396 -0.736464 0.165690 -0.428552
    14 -0.049759 -1.680544 0.100479 -1.752455 0.000000 -0.000002
    15 -0.034142 -1.148312 0.084782 -0.832785 0.000000 0.000000
    16 0.957766 -2.746780 -0.090302 0.092438 -0.026887 -0.411347
    17 -0.033420 -1.397129 -0.011257 -0.387585 0.000000 -0.000001
    18 -0.022360 -0.957436 0.018784 -0.125157 0.000000 0.000000
    19 -1.180681 -2.507217 -0.193859 -1.338376 0.249247 -0.349932
    20 -0.024967 -1.123934 0.017597 -1.138797 0.000000 0.000001
    21 -0.020057 -0.890968 0.010090 -0.444208 0.000000 0.000000
    22 0.583510 -1.197277 0.185379 -0.170596 -0.642052 -0.400567
    23 1.535927 0.010246 0.005009 -0.002964 -0.012979 -0.887970
    24 1.100771 0.004527 -0.010679 -0.012432 0.010412 -0.697598
    25 0.120153 -0.050270 -0.054489 0.287569 3.110905 1.561085
    26 1.502723 -11.473638 -13.017305 -1.565554 -5.319786 -1.012809
    27 0.096944 -8.450418 -0.009365 -0.036421 -1.226923 0.518805
    28 0.447953 -2.798986 -0.200443 -1.421012 0.011480 0.381620
    29 -0.032909 -1.480204 0.004940 -1.110076 0.000000 0.000002
    30 -0.027022 -1.076920 -0.020210 0.205198 0.000000 0.000000
    31 -0.249534 -2.846964 -0.174213 -0.964673 0.069314 0.302245
    32 0.043235 -1.683941 0.096012 -1.514629 0.002823 -0.000167
    33 0.031729 -1.160830 0.058838 0.134676 0.000642 0.008372
    34 -0.963866 -2.785145 -0.085350 -0.482992 0.119647 0.325274
    35 0.028479 -1.403067 0.006271 -1.337916 0.000000 0.000000
    36 0.021413 -0.957781 0.020046 -0.325451 0.000000 0.000000
    37 1.164475 -2.543940 -0.170330 -1.543927 0.034787 0.508555
    38 0.024032 -1.129042 0.017807 -1.093987 0.000000 0.000001
    39 0.014898 -0.883989 -0.019848 0.041331 0.000000 0.000000
    40 -0.586770 -1.264477 0.200161 0.164856 -0.089913 -2.665668
    41 1.522835 0.058681 0.016848 0.001410 0.008985 0.554174
    42 1.117947 0.048424 -0.005766 0.000584 -0.025198 0.032164
    43 -0.139399 -0.111698 0.014397 0.812758 0.207758 1.328796
    44 -6.260806 6.983652 -0.294122 1.580804 -0.005023 -0.912813
  time 16
    0 -0.349399 1.166145 0.203512 0.000000 0.000000 0.000000
    1 9.847816 2.667097 -8.830062 -1.624986 -1.288466 1.275392
    2 -0.071918 -8.498729 -0.104136 0.217988 0.077083 -0.391664
    3 2.441370 -6.426759 0.537448 0.089049 0.119162 -1.478491
    4 2.710185 -3.307132 0.000000 0.000000 0.000000 -1.570797
    5 0.000000 0.000000 0.000000 0.000000 0.000000 0.000000
    6 -0.787659 -1.985389 0.000000 0.000000 0.000000 -1.570796
    7 14.175378 -1.687388 0.000001 0.000000 0.000000 -1.411934
    8 1.025149 -0.859104 0.000000 1.570796 -1.570796 0.000000
    9 1.257180 8.762585 -0.153713 -1.570562 0.002683 -1.566807
    10 -0.488518 -2.755602 -0.228260 -1.043629 0.109301 -0.409563
    11 0.039887 -1.479790 0.029854 -1.667534 0.000000 0.000001
    12 0.028786 -1.075731 -0.023109 -0.454494 0.000000 0.000000
    13 0.250027 -2.820665 -0.238396 -0.736464 0.165690 -0.428552
    14 -0.049759 -1.680544 0.100479 -1.752455 0.000000 -0.000002
    15 -0.034142 -1.148312 0.084782 -0.832761 0.000000 0.000000
    16 0.957766 -2.746780 -0.090302 0.092438 -0.026887 -0.411347
    17 -0.033420 -1.397129 -0.011257 -0.387585 0.000000 -0.000001
    18 -0.022360 -0.957436 0.018784 -0.125157 0.000000 0.000000
    19 -1.180681 -2.507217 -0.193859 -1.338376 0.249247 -0.349932
    20 -0.024967 -1.123934 0.017597 -1.138797 0.000000 0.000001
    21 -0.020057 -0.890968 0.010090 -0.444208 0.000000 0.000000
    22 0.583510 -1.197277 0.185379 -0.170596 -0.642052 -0.400567
    23 1.535927 0.010246 0.005009 -0.002964 -0.012979 -0.887970
    24 1.100771 0.004527 -0.010679 -0.012432 0.010412 -0.697598
    25 0.120153 -0.050270 -0.054489 0.287569 3.110905 1.561085
    26 1.479285 -11.461919 -12.989961 -1.576598 -5.321996 -1.021303
    27 0.096944 -8.450418 -0.009365 -0.036421 -1.226923 0.518805
    28 0.447953 -2.798986 -0.200443 -1.421012 0.011480 0.381620
    29 -0.032909 -1.480204 0.004940 -1.110076 0.000000 0.000002
    30 -0.027022 -1.076920 -0.020210 0.205198 0.000000 0.000000
    31 -0.249534 -2.846964 -0.174213 -0.964673 0.069314 0.302245
    32 0.043235 -1.683941 0.096012 -1.514629 0.002823 -0.000167
    33 0.031729 -1.160830 0.058838 0.134676 0.000642 0.008372
    34 -0.963866 -2.785145 -0.085350 -0.482992 0.119647 0.325274
    35 0.028479 -1.403067 0.006271 -1.337916 0.000000 0.000000
    36 0.021413 -0.957781 0.020046 -0.325451 0.000000 0.000000
    37 1.164475 -2.543940 -0.170330 -1.543927 0.034787 0.508555
    38 0.024032 -1.129042 0.017807 -1.093987 0.000000 0.000001
    39 0.014898 -0.883989 -0.019848 0.041331 0.000000 0.000000
    40 -0.586770 -1.264477 0.200161 0.164856 -0.089913 -2.665668
    41 1.522835 0.058681 0.016848 0.001410 0.008985 0.554174
    42 1.117947 0.048424 -0.005766 0.000584 -0.025198 0.032164
    43 -0.139399 -0.111698 0.014397 0.812758 0.207758 1.328796
    44 -6.260806 6.983652 -0.294122 1.580804 -0.005023 -0.912813
  time 17
    0 -0.349399 1.166145 0.203512 0.000000 0.000000 0.000000
    1 9.847816 2.698348 -8.865219 -1.630037 -1.283709 1.280264
    2 -0.071918 -8.498729 -0.104136 0.218084 0.082488 -0.390466
    3 2.441370 -6.426759 0.537448 0.089049 0.119162 -1.478491
    4 2.710185 -3.307132 0.000000 0.000000 0.000000 -1.570797
    5 0.000000 0.000000 0.000000 0.000000 0.000000 0.000000
    6 -0.787659 -1.985389 0.000000 0.000000 0.000000 -1.570796
    7 14.175378 -1.687388 0.000001 0.000000 0.000000 -1.630349
    8 1.025149 -0.859104 0.000000 1.570796 -1.570796 0.000000
    9 1.257180 8.762585 -0.153713 -1.570562 0.002683 -1.566807
    10 -0.488518 -2.755602 -0.228260 -1.043629 0.109301 -0.409563
    11 0.039887 -1.479790 0.029854 -1.667534 0.000000 0.000001
    12 0.028786 -1.075731 -0.023109 -0.454494 0.000000 0.000000
    13 0.250027 -2.820665 -0.238396 -0.736464 0.165690 -0.428552
    14 -0.049759 -1.680544 0.100479 -1.752455 0.000000 -0.000002
    15 -0.034142 -1.148312 0.084782 -0.832785 0.000000 0.000000
    16 0.957766 -2.746780 -0.090302 0.092438 -0.026887 -0.411347
    17 -0.033420 -1.397129 -0.011257 -0.387585 0.000000 -0.000001
    18 -0.022360 -0.957436 0.018784 -0.125157 0.000000 0.000000
    19 -1.180681 -2.507217 -0.193859 -1.338376 0.249247 -0.349932
    20 -0.024967 -1.123934 0.017597 -1.138797 0.000000 0.000001
    21 -0.020057 -0.890968 0.010090 -0.444208 0.000000 0.000000
    22 0.583510 -1.197277 0.185379 -0.170596 -0.642052 -0.400567
    23 1.535927 0.010246 0.005009 -0.002964 -0.012979 -0.887970
    24 1.100771 0.004527 -0.010679 -0.012432 0.010412 -0.697598
    25 0.120153 -0.050270 -0.054489 0.287569 3.110905 1.561085
    26 1.448034 -11.450200 -12.931365 -1.588562 -5.322825 -1.030561
    27 0.096944 -8.450418 -0.009365 -0.036421 -1.226923 0.518805
    28 0.447953 -2.798986 -0.200443 -1.421012 0.011480 0.381620
    29 -0.032909 -1.480204 0.004940 -1.110076 0.000000 0.000002
    30 -0.027022 -1.076920 -0.020210 0.205198 0.000000 0.000000
    31 -0.249534 -2.846964 -0.174213 -0.964673 0.069314 0.302245
    32 0.043235 -1.683941 0.096012 -1.514629 0.002823 -0.000167
    33 0.031729 -1.160830 0.058838 0.134676 0.000642 0.008372
    34 -0.963866 -2.785145 -0.085350 -0.482992 0.119647 0.325274
    35 0.028479 -1.403067 0.006271 -1.337916 0.000000 0.000000
    36 0.021413 -0.957781 0.020046 -0.325451 0.000000 0.000000
    37 1.164475 -2.543940 -0.170330 -1.543927 0.034787 0.508555
    38 0.024032 -1.129042 0.017807 -1.093987 0.000000 0.000001
    39 0.014898 -0.883989 -0.019848 0.041331 0.000000 0.000000
    40 -0.586770 -1.264477 0.200161 0.164856 -0.089913 -2.665668
    41 1.522835 0.058681 0.016848 0.001410 0.008985 0.554174
    42 1.117947 0.048424 -0.005766 0.000584 -0.025198 0.032164
    43 -0.139399 -0.111698 0.014397 0.812758 0.207758 1.328796
    44 -6.260806 6.983652 -0.294122 1.580804 -0.005023 -0.912813
  time 18
    0 -0.349399 1.166145 0.203512 0.000000 0.000000 0.000000
    1 9.847816 2.741318 -8.884751 -1.635278 -1.278698 1.285233
    2 -0.071918 -8.498729 -0.104136 0.218204 0.088768 -0.389063
    3 2.441370 -6.426759 0.537448 0.089049 0.119162 -1.478491
    4 2.710185 -3.307132 0.000000 0.000000 0.000000 -1.570797
    5 0.000000 0.000000 0.000000 0.000000 0.000000 0.000000
    6 -0.787659 -1.985389 0.000000 0.000000 0.000000 -1.570796
    7 14.175378 -1.687388 0.000001 0.000000 0.000000 -1.820984
    8 1.025149 -0.859104 0.000000 1.570796 -1.570796 0.000000
    9 1.257180 8.762585 -0.153713 -1.570562 0.002683 -1.566807
    10 -0.488518 -2.755602 -0.228260 -1.043629 0.109301 -0.409563
    11 0.039887 -1.479790 0.029854 -1.667534 0.000000 0.000001
    12 0.028786 -1.075731 -0.023109 -0.454494 0.000000 0.000000
    13 0.250027 -2.820665 -0.238396 -0.736464 0.165690 -0.428552
    14 -0.049759 -1.680544 0.100479 -1.752455 0.000000 -0.000002
    15 -0.034142 -1.148312 0.084782 -0.832761 0.000000 0.000000
    16 0.957766 -2.746780 -0.090302 0.092438 -0.026887 -0.411347
    17 -0.033420 -1.397129 -0.011257 -0.387585 0.000000 -0.000001
    18 -0.022360 -0.957436 0.018784 -0.125157 0.000000 0.000000
    19 -1.180681 -2.507217 -0.193859 -1.338376 0.249247 -0.349932
    20 -0.024967 -1.123934 0.017597 -1.138797 0.000000 0.000001
    21 -0.020057 -0.890968 0.010090 -0.444208 0.000000 0.000000
    22 0.583510 -1.197277 0.185379 -0.170596 -0.642052 -0.400567
    23 1.535927 0.010246 0.005009 -0.002964 -0.012979 -0.887970
    24 1.100771 0.004527 -0.010679 -0.012432 0.010412 -0.697598
    25 0.120153 -0.050270 -0.054489 0.287569 3.110905 1.561085
    26 1.412876 -11.426761 -12.845425 -1.601999 -5.323378 -1.040773
    27 0.096944 -8.450418 -0.009365 -0.036421 -1.226923 0.518805
    28 0.447953 -2.798986 -0.200443 -1.421012 0.011480 0.381620
    29 -0.032909 -1.480204 0.004940 -1.110076 0.000000 0.000002
    30 -0.027022 -1.076920 -0.020210 0.205198 0.000000 0.000000
    31 -0.249534 -2.846964 -0.174213 -0.964673 0.069314 0.302245
    32 0.043235 -1.683941 0.096012 -1.514629 0.002823 -0.000167
    33 0.031729 -1.160830 0.058838 0.134676 0.000642 0.008372
    34 -0.963866 -2.785145 -0.085350 -0.482992 0.119647 0.325274
    35 0.028479 -1.403067 0.006271 -1.337916 0.000000 0.000000
    36 0.021413 -0.957781 0.020046 -0.325451 0.000000 0.000000
    37 1.164475 -2.543940 -0.170330 -1.543927 0.034787 0.508555
    38 0.024032 -1.129042 0.017807 -1.093987 0.000000 0.000001
    39 0.014898 -0.883989 -0.019848 0.041331 0.000000 0.000000
    40 -0.586770 -1.264477 0.200161 0.164856 -0.089913 -2.665668
    41 1.522835 0.058681 0.016848 0.001410 0.008985 0.554174
    42 1.117947 0.048424 -0.005766 0.000584 -0.025198 0.032164
    43 -0.139399 -0.111698 0.014397 0.812758 0.207758 1.328796
    44 -6.260806 6.983652 -0.294122 1.580804 -0.005023 -0.912813
  time 19
    0 -0.349399 1.166145 0.203512 0.000000 0.000000 0.000000
    1 9.847816 2.792100 -8.884751 -1.640328 -1.273688 1.290105
    2 -0.071918 -8.498729 -0.104136 0.218348 0.095563 -0.387553
    3 2.441370 -6.426759 0.537448 0.089049 0.119162 -1.478491
    4 2.710185 -3.307132 0.000000 0.000000 0.000000 -1.570797
    5 0.000000 0.000000 0.000000 0.000000 0.000000 0.000000
    6 -0.787659 -1.985389 0.000000 0.000000 0.000000 -1.570796
    7 14.175378 -1.687388 0.000001 0.000000 0.000000 -1.916301
    8 1.025149 -0.859104 0.000000 1.570796 -1.570796 0.000000
    9 1.257180 8.762585 -0.153713 -1.570562 0.002683 -1.566807
    10 -0.488518 -2.755602 -0.228260 -1.043629 0.109301 -0.409563
    11 0.039887 -1.479790 0.029854 -1.667534 0.000000 0.000001
    12 0.028786 -1.075731 -0.023109 -0.454494 0.000000 0.000000
    13 0.250027 -2.820665 -0.238396 -0.736464 0.165690 -0.428552
    14 -0.049759 -1.680544 0.100479 -1.752455 0.000000 -0.000002
    15 -0.034142 -1.148312 0.084782 -0.832761 0.000000 0.000000
    16 0.957766 -2.746780 -0.090302 0.092438 -0.026887 -0.411347
    17 -0.033420 -1.397129 -0.011257 -0.387585 0.000000 -0.000001
    18 -0.022360 -0.957436 0.018784 -0.125157 0.000000 0.000000
    19 -1.180681 -2.507217 -0.193859 -1.338376 0.249247 -0.349932
    20 -0.024967 -1.123934 0.017597 -1.138797 0.000000 0.000001
    21 -0.020057 -0.890968 0.010090 -0.444208 0.000000 0.000000
    22 0.583510 -1.197277 0.185379 -0.170596 -0.642052 -0.400567
    23 1.535927 0.010246 0.005009 -0.002964 -0.012979 -0.887970
    24 1.100771 0.004527 -0.010679 -0.012432 0.010412 -0.697598
    25 0.120153 -0.050270 -0.054489 0.287569 3.110905 1.561085
    26 1.373813 -11.395510 -12.739953 -1.616172 -5.323746 -1.051653
    27 0.096944 -8.450418 -0.009365 -0.036421 -1.226923 0.518805
    28 0.447953 -2.798986 -0.200443 -1.421012 0.011480 0.381620
    29 -0.032909 -1.480204 0.004940 -1.110076 0.000000 0.000002
    30 -0.027022 -1.076920 -0.020210 0.205198 0.000000 0.000000
    31 -0.249534 -2.846964 -0.174213 -0.964673 0.069314 0.302245
    32 0.043235 -1.683941 0.096012 -1.514629 0.002823 -0.000167
    33 0.031729 -1.160830 0.058838 0.134676 0.000642 0.008372
    34 -0.963866 -2.785145 -0.085350 -0.482992 0.119647 0.325274
    35 0.028479 -1.403067 0.006271 -1.337916 0.000000 0.000000
    36 0.021413 -0.957781 0.020046 -0.325451 0.000000 0.000000
    37 1.164475 -2.543940 -0.170330 -1.543927 0.034787 0.508555
    38 0.024032 -1.129042 0.017807 -1.093987 0.000000 0.000001
    39 0.014898 -0.883989 -0.019848 0.041331 0.000000 0.000000
    40 -0.586770 -1.264477 0.200161 0.164856 -0.089913 -2.665668
    41 1.522835 0.058681 0.016848 0.001410 0.008985 0.554174
    42 1.117947 0.048424 -0.005766 0.000584 -0.025198 0.032164
    43 -0.139399 -0.111698 0.014397 0.812758 0.207758 1.328796
    44 -6.260806 6.983652 -0.294122 1.580804 -0.005023 -0.912813
  time 20
    0 -0.349399 1.166145 0.203512 0.000000 0.000000 0.000000
    1 9.847816 2.842883 -8.876938 -1.644902 -1.268895 1.294500
    2 -0.071918 -8.498729 -0.104136 0.218503 0.102502 -0.386007
    3 2.441370 -6.426759 0.537448 0.089049 0.119162 -1.478491
    4 2.710185 -3.307132 0.000000 0.000000 0.000000 -1.570797
    5 0.000000 0.000000 0.000000 0.000000 0.000000 0.000000
    6 -0.787659 -1.985389 0.000000 0.000000 0.000000 -1.570796
    7 14.175378 -1.687388 0.000001 0.000000 0.000000 -1.886871
    8 1.025149 -0.859104 0.000000 1.570796 -1.570796 0.000000
    9 1.257180 8.762585 -0.153713 -1.570562 0.002683 -1.566807
    10 -0.488518 -2.755602 -0.228260 -1.043629 0.109301 -0.409563
    11 0.039887 -1.479790 0.029854 -1.667534 0.000000 0.000001
    12 0.028786 -1.075731 -0.023109 -0.454494 0.000000 0.000000
    13 0.250027 -2.820665 -0.238396 -0.736464 0.165690 -0.428552
    14 -0.049759 -1.680544 0.100479 -1.752455 0.000000 -0.000002
    15 -0.034142 -1.148312 0.084782 -0.832761 0.000000 0.000000
    16 0.957766 -2.746780 -0.090302 0.092438 -0.026887 -0.411347
    17 -0.033420 -1.397129 -0.011257 -0.387585 0.000000 -0.000001
    18 -0.022360 -0.957436 0.018784 -0.125157 0.000000 0.000000
    19 -1.180681 -2.507217 -0.193859 -1.338376 0.249247 -0.349932
    20 -0.024967 -1.123934 0.017597 -1.138797 0.000000 0.000001
    21 -0.020057 -0.890968 0.010090 -0.444208 0.000000 0.000000
    22 0.583510 -1.197277 0.185379 -0.170596 -0.642052 -0.400567
    23 1.535927 0.010246 0.005009 -0.002964 -0.012979 -0.887970
    24 1.100771 0.004527 -0.010679 -0.012432 0.010412 -0.697598
    25 0.120153 -0.050270 -0.054489 0.287569 3.110905 1.561085
    26 1.334749 -11.364259 -12.622762 -1.630345 -5.323838 -1.062534
    27 0.096944 -8.450418 -0.009365 -0.036421 -1.226923 0.518805
    28 0.447953 -2.798986 -0.200443 -1.421012 0.011480 0.381620
    29 -0.032909 -1.480204 0.004940 -1.110076 0.000000 0.000002
    30 -0.027022 -1.076920 -0.020210 0.205198 0.000000 0.000000
    31 -0.249534 -2.846964 -0.174213 -0.964673 0.069314 0.302245
    32 0.043235 -1.683941 0.096012 -1.514629 0.002823 -0.000167
    33 0.031729 -1.160830 0.058838 0.134676 0.000642 0.008372
    34 -0.963866 -2.785145 -0.085350 -0.482992 0.119647 0.325274
    35 0.028479 -1.403067 0.006271 -1.337916 0.000000 0.000000
    36 0.021413 -0.957781 0.020046 -0.325451 0.000000 0.000000
    37 1.164475 -2.543940 -0.170330 -1.543927 0.034787 0.508555
    38 0.024032 -1.129042 0.017807 -1.093987 0.000000 0.000001
    39 0.014898 -0.883989 -0.019848 0.041331 0.000000 0.000000
    40 -0.586770 -1.264477 0.200161 0.164856 -0.089913 -2.665668
    41 1.522835 0.058681 0.016848 0.001410 0.008985 0.554174
    42 1.117947 0.048424 -0.005766 0.000584 -0.025198 0.032164
    43 -0.139399 -0.111698 0.014397 0.812758 0.207758 1.328796
    44 -6.260806 6.983652 -0.294122 1.580804 -0.005023 -0.912813
  time 21
    0 -0.349399 1.166145 0.203512 0.000000 0.000000 0.000000
    1 9.847816 2.889760 -8.865219 -1.649000 -1.264538 1.298417
    2 -0.071918 -8.498729 -0.104136 0.218659 0.109249 -0.384497
    3 2.441370 -6.426759 0.537448 0.089049 0.119162 -1.478491
    4 2.710185 -3.307132 0.000000 0.000000 0.000000 -1.570797
    5 0.000000 0.000000 0.000000 0.000000 0.000000 0.000000
    6 -0.787659 -1.985389 0.000000 0.000000 0.000000 -1.570796
    7 14.175378 -1.687388 0.000001 0.000000 0.000000 -1.777716
    8 1.025149 -0.859104 0.000000 1.570796 -1.570796 0.000000
    9 1.257180 8.762585 -0.153713 -1.570562 0.002683 -1.566807
    10 -0.488518 -2.755602 -0.228260 -1.043629 0.109301 -0.409563
    11 0.039887 -1.479790 0.029854 -1.667534 0.000000 0.000001
    12 0.028786 -1.075731 -0.023109 -0.454494 0.000000 0.000000
    13 0.250027 -2.820665 -0.238396 -0.736464 0.165690 -0.428552
    14 -0.049759 -1.680544 0.100479 -1.752455 0.000000 -0.000002
    15 -0.034142 -1.148312 0.084782 -0.832761 0.000000 0.000000
    16 0.957766 -2.746780 -0.090302 0.092438 -0.026887 -0.411347
    17 -0.033420 -1.397129 -0.011257 -0.387585 0.000000 -0.000001
    18 -0.022360 -0.957436 0.018784 -0.125157 0.000000 0.000000
    19 -1.180681 -2.507217 -0.193859 -1.338376 0.249247 -0.349932
    20 -0.024967 -1.123934 0.017597 -1.138797 0.000000 0.000001
    21 -0.020057 -0.890968 0.010090 -0.444208 0.000000 0.000000
    22 0.583510 -1.197277 0.185379 -0.170596 -0.642052 -0.400567
    23 1.535927 0.010246 0.005009 -0.002964 -0.012979 -0.887970
    24 1.100771 0.004527 -0.010679 -0.012432 0.010412 -0.697598
    25 0.120153 -0.050270 -0.054489 0.287569 3.110905 1.561085
    26 1.299592 -11.329102 -12.513384 -1.643782 -5.323746 -1.072841
    27 0.096944 -8.450418 -0.009365 -0.036421 -1.226923 0.518805
    28 0.447953 -2.798986 -0.200443 -1.421012 0.011480 0.381620
    29 -0.032909 -1.480204 0.004940 -1.110076 0.000000 0.000002
    30 -0.027022 -1.076920 -0.020210 0.205198 0.000000 0.000000
    31 -0.249534 -2.846964 -0.174213 -0.964673 0.069314 0.302245
    32 0.043235 -1.683941 0.096012 -1.514629 0.002823 -0.000167
    33 0.031729 -1.160830 0.058838 0.134676 0.000642 0.008372
    34 -0.963866 -2.785145 -0.085350 -0.482992 0.119647 0.325274
    35 0.028479 -1.403067 0.006271 -1.337916 0.000000 0.000000
    36 0.021413 -0.957781 0.020046 -0.325451 0.000000 0.000000
    37 1.164475 -2.543940 -0.170330 -1.543927 0.034787 0.508555
    38 0.024032 -1.129042 0.017807 -1.093987 0.000000 0.000001
    39 0.014898 -0.883989 -0.019848 0.041331 0.000000 0.000000
    40 -0.586770 -1.264477 0.200161 0.164856 -0.089913 -2.665668
    41 1.522835 0.058681 0.016848 0.001410 0.008985 0.554174
    42 1.117947 0.048424 -0.005766 0.000584 -0.025198 0.032164
    43 -0.139399 -0.111698 0.014397 0.812758 0.207758 1.328796
    44 -6.260806 6.983652 -0.294122 1.580804 -0.005023 -0.912813
  time 22
    0 -0.349399 1.166145 0.203512 0.000000 0.000000 0.000000
    1 9.847816 2.932730 -8.853500 -1.652335 -1.260907 1.301570
    2 -0.071918 -8.498729 -0.104136 0.218815 0.115433 -0.383119
    3 2.441370 -6.426759 0.537448 0.089049 0.119162 -1.478491
    4 2.710185 -3.307132 0.000000 0.000000 0.000000 -1.570797
    5 0.000000 0.000000 0.000000 0.000000 0.000000 0.000000
    6 -0.787659 -1.985389 0.000000 0.000000 0.000000 -1.570796
    7 14.175378 -1.687388 0.000001 0.000000 0.000000 -1.632957
    8 1.025149 -0.859104 0.000000 1.570796 -1.570796 0.000000
    9 1.257180 8.762585 -0.153713 -1.570562 0.002683 -1.566807
    10 -0.488518 -2.755602 -0.228260 -1.043629 0.109301 -0.409563
    11 0.039887 -1.479790 0.029854 -1.667534 0.000000 0.000001
    12 0.028786 -1.075731 -0.023109 -0.454494 0.000000 0.000000
    13 0.250027 -2.820665 -0.238396 -0.736464 0.165690 -0.428552
    14 -0.049759 -1.680544 0.100479 -1.752455 0.000000 -0.000002
    15 -0.034142 -1.148312 0.084782 -0.832761 0.000000 0.000000
    16 0.957766 -2.746780 -0.090302 0.092438 -0.026887 -0.411347
    17 -0.033420 -1.397129 -0.011257 -0.387585 0.000000 -0.000001
    18 -0.022360 -0.957436 0.018784 -0.125157 0.000000 0.000000
    19 -1.180681 -2.507217 -0.193859 -1.338376 0.249247 -0.349932
    20 -0.024967 -1.123934 0.017597 -1.138797 0.000000 0.000001
    21 -0.020057 -0.890968 0.010090 -0.444208 0.000000 0.000000
    22 0.583510 -1.197277 0.185379 -0.170596 -0.642052 -0.400567
    23 1.535927 0.010246 0.005009 -0.002964 -0.012979 -0.887970
    24 1.100771 0.004527 -0.010679 -0.012432 0.010412 -0.697598
    25 0.120153 -0.050270 -0.054489 0.287569 3.110905 1.561085
    26 1.264434 -11.297851 -12.419631 -1.655838 -5.323470 -1.082099
    27 0.096944 -8.450418 -0.009365 -0.036421 -1.226923 0.518805
    28 0.447953 -2.798986 -0.200443 -1.421012 0.011480 0.381620
    29 -0.032909 -1.480204 0.004940 -1.110076 0.000000 0.000002
    30 -0.027022 -1.076920 -0.020210 0.205198 0.000000 0.000000
    31 -0.249534 -2.846964 -0.174213 -0.964673 0.069314 0.302245
    32 0.043235 -1.683941 0.096012 -1.514629 0.002823 -0.000167
    33 0.031729 -1.160830 0.058838 0.134676 0.000642 0.008372
    34 -0.963866 -2.785145 -0.085350 -0.482992 0.119647 0.325274
    35 0.028479 -1.403067 0.006271 -1.337916 0.000000 0.000000
    36 0.021413 -0.957781 0.020046 -0.325451 0.000000 0.000000
    37 1.164475 -2.543940 -0.170330 -1.543927 0.034787 0.508555
    38 0.024032 -1.129042 0.017807 -1.093987 0.000000 0.000001
    39 0.014898 -0.883989 -0.019848 0.041331 0.000000 0.000000
    40 -0.586770 -1.264477 0.200161 0.164856 -0.089913 -2.665668
    41 1.522835 0.058681 0.016848 0.001410 0.008985 0.554174
    42 1.117947 0.048424 -0.005766 0.000584 -0.025198 0.032164
    43 -0.139399 -0.111698 0.014397 0.812758 0.207758 1.328796
    44 -6.260806 6.983652 -0.294122 1.580804 -0.005023 -0.912813
  time 23
    0 -0.349399 1.166145 0.203512 0.000000 0.000000 0.000000
    1 9.847816 2.963981 -8.849593 -1.654813 -1.258183 1.303959
    2 -0.071918 -8.498729 -0.104136 0.218935 0.120707 -0.381933
    3 2.441370 -6.426759 0.537448 0.089049 0.119162 -1.478491
    4 2.710185 -3.307132 0.000000 0.000000 0.000000 -1.570797
    5 0.000000 0.000000 0.000000 0.000000 0.000000 0.000000
    6 -0.787659 -1.985389 0.000000 0.000000 0.000000 -1.570796
    7 14.175378 -1.687388 0.000001 0.000000 0.000000 -1.496554
    8 1.025149 -0.859104 0.000000 1.570796 -1.570796 0.000000
    9 1.257180 8.762585 -0.153713 -1.570562 0.002683 -1.566807
    10 -0.488518 -2.755602 -0.228260 -1.043629 0.109301 -0.409563
    11 0.039887 -1.479790 0.029854 -1.667534 0.000000 0.000001
    12 0.028786 -1.075731 -0.023109 -0.454494 0.000000 0.000000
    13 0.250027 -2.820665 -0.238396 -0.736464 0.165690 -0.428552
    14 -0.049759 -1.680544 0.100479 -1.752455 0.000000 -0.000002
    15 -0.034142 -1.148312 0.084782 -0.832785 0.000000 0.000000
    16 0.957766 -2.746780 -0.090302 0.092438 -0.026887 -0.411347
    17 -0.033420 -1.397129 -0.011257 -0.387585 0.000000 -0.000001
    18 -0.022360 -0.957436 0.018784 -0.125157 0.000000 0.000000
    19 -1.180681 -2.507217 -0.193859 -1.338376 0.249247 -0.349932
    20 -0.024967 -1.123934 0.017597 -1.138797 0.000000 0.000001
    21 -0.020057 -0.890968 0.010090 -0.444208 0.000000 0.000000
    22 0.583510 -1.197277 0.185379 -0.170596 -0.642052 -0.400567
    23 1.535927 0.010246 0.005009 -0.002964 -0.012979 -0.887970
    24 1.100771 0.004527 -0.010679 -0.012432 0.010412 -0.697598
    25 0.120153 -0.050270 -0.054489 0.287569 3.110905 1.561085
    26 1.237090 -11.278319 -12.349316 -1.665870 -5.322825 -1.089830
    27 0.096944 -8.450418 -0.009365 -0.036421 -1.226923 0.518805
    28 0.447953 -2.798986 -0.200443 -1.421012 0.011480 0.381620
    29 -0.032909 -1.480204 0.004940 -1.110076 0.000000 0.000002
    30 -0.027022 -1.076920 -0.020210 0.205198 0.000000 0.000000
    31 -0.249534 -2.846964 -0.174213 -0.964673 0.069314 0.302245
    32 0.043235 -1.683941 0.096012 -1.514629 0.002823 -0.000167
    33 0.031729 -1.160830 0.058838 0.134676 0.000642 0.008372
    34 -0.963866 -2.785145 -0.085350 -0.482992 0.119647 0.325274
    35 0.028479 -1.403067 0.006271 -1.337916 0.000000 0.000000
    36 0.021413 -0.957781 0.020046 -0.325451 0.000000 0.000000
    37 1.164475 -2.543940 -0.170330 -1.543927 0.034787 0.508555
    38 0.024032 -1.129042 0.017807 -1.093987 0.000000 0.000001
    39 0.014898 -0.883989 -0.019848 0.041331 0.000000 0.000000
    40 -0.586770 -1.264477 0.200161 0.164856 -0.089913 -2.665668
    41 1.522835 0.058681 0.016848 0.001410 0.008985 0.554174
    42 1.117947 0.048424 -0.005766 0.000584 -0.025198 0.032164
    43 -0.139399 -0.111698 0.014397 0.812758 0.207758 1.328796
    44 -6.260806 6.983652 -0.294122 1.580804 -0.005023 -0.912813
  time 24
    0 -0.349399 1.166145 0.203512 0.000000 0.000000 0.000000
    1 9.847816 2.987419 -8.849593 -1.656147 -1.256622 1.305201
    2 -0.071918 -8.498729 -0.104136 0.219055 0.124697 -0.381034
    3 2.441370 -6.426759 0.537448 0.089049 0.119162 -1.478491
    4 2.710185 -3.307132 0.000000 0.000000 0.000000 -1.570797
    5 0.000000 0.000000 0.000000 0.000000 0.000000 0.000000
    6 -0.787659 -1.985389 0.000000 0.000000 0.000000 -1.570796
    7 14.175378 -1.687388 0.000001 0.000000 0.000000 -1.412519
    8 1.025149 -0.859104 0.000000 1.570796 -1.570796 0.000000
    9 1.257180 8.762585 -0.153713 -1.570562 0.002683 -1.566807
    10 -0.488518 -2.755602 -0.228260 -1.043629 0.109301 -0.409563
    11 0.039887 -1.479790 0.029854 -1.667534 0.000000 0.000001
    12 0.028786 -1.075731 -0.023109 -0.454494 0.000000 0.000000
    13 0.250027 -2.820665 -0.238396 -0.736464 0.165690 -0.428552
    14 -0.049759 -1.680544 0.100479 -1.752455 0.000000 -0.000002
    15 -0.034142 -1.148312 0.084782 -0.832761 0.000000 0.000000
    16 0.957766 -2.746780 -0.090302 0.092438 -0.026887 -0.411347
    17 -0.033420 -1.397129 -0.011257 -0.387585 0.000000 -0.000001
    18 -0.022360 -0.957436 0.018784 -0.125157 0.000000 0.000000
    19 -1.180681 -2.507217 -0.193859 -1.338376 0.249247 -0.349932
    20 -0.024967 -1.123934 0.017597 -1.138797 0.000000 0.000001
    21 -0.020057 -0.890968 0.010090 -0.444208 0.000000 0.000000
    22 0.583510 -1.197277 0.185379 -0.170596 -0.642052 -0.400567
    23 1.535927 0.010246 0.005009 -0.002964 -0.012979 -0.887970
    24 1.100771 0.004527 -0.010679 -0.012432 0.010412 -0.697598
    25 0.120153 -0.050270 -0.054489 0.287569 3.110905 1.561085
    26 1.213651 -11.258788 -12.306346 -1.673048 -5.321996 -1.095366
    27 0.096944 -8.450418 -0.009365 -0.036421 -1.226923 0.518805
    28 0.447953 -2.798986 -0.200443 -1.421012 0.011480 0.381620
    29 -0.032909 -1.480204 0.004940 -1.110076 0.000000 0.000002
    30 -0.027022 -1.076920 -0.020210 0.205198 0.000000 0.000000
    31 -0.249534 -2.846964 -0.174213 -0.964673 0.069314 0.302245
    32 0.043235 -1.683941 0.096012 -1.514629 0.002823 -0.000167
    33 0.031729 -1.160830 0.058838 0.134676 0.000642 0.008372
    34 -0.963866 -2.785145 -0.085350 -0.482992 0.119647 0.325274
    35 0.028479 -1.403067 0.006271 -1.337916 0.000000 0.000000
    36 0.021413 -0.957781 0.020046 -0.325451 0.000000 0.000000
    37 1.164475 -2.543940 -0.170330 -1.543927 0.034787 0.508555
    38 0.024032 -1.129042 0.017807 -1.093987 0.000000 0.000001
    39 0.014898 -0.883989 -0.019848 0.041331 0.000000 0.000000
    40 -0.586770 -1.264477 0.200161 0.164856 -0.089913 -2.665668
    41 1.522835 0.058681 0.016848 0.001410 0.008985 0.554174
    42 1.117947 0.048424 -0.005766 0.000584 -0.025198 0.032164
    43 -0.139399 -0.111698 0.014397 0.812758 0.207758 1.328796
    44 -6.260806 6.983652 -0.294122 1.580804 -0.005023 -0.912813
  time 25
    0 -0.349399 1.166145 0.203512 0.000000 0.000000 0.000000
    1 9.847816 2.999138 -8.849593 -1.656623 -1.256005 1.305678
    2 -0.071918 -8.498729 -0.104136 0.219115 0.126951 -0.380530
    3 2.441370 -6.426759 0.537448 0.089049 0.119162 -1.478491
    4 2.710185 -3.307132 0.000000 0.000000 0.000000 -1.570797
    5 0.000000 0.000000 0.000000 0.000000 0.000000 0.000000
    6 -0.787659 -1.985389 0.000000 0.000000 0.000000 -1.570796
    7 14.175378 -1.687388 0.000001 0.000000 0.000000 -1.428485
    8 1.025149 -0.859104 0.000000 1.570796 -1.570796 0.000000
    9 1.257180 8.762585 -0.153713 -1.570562 0.002683 -1.566807
    10 -0.488518 -2.755602 -0.228260 -1.043629 0.109301 -0.409563
    11 0.039887 -1.479790 0.029854 -1.667534 0.000000 0.000001
    12 0.028786 -1.075731 -0.023109 -0.454494 0.000000 0.000000
    13 0.250027 -2.820665 -0.238396 -0.736464 0.165690 -0.428552
    14 -0.049759 -1.680544 0.100479 -1.752455 0.000000 -0.000002
    15 -0.034142 -1.148312 0.084782 -0.832761 0.000000 0.000000
    16 0.957766 -2.746780 -0.090302 0.092438 -0.026887 -0.411347
    17 -0.033420 -1.397129 -0.011257 -0.387585 0.000000 -0.000001
    18 -0.022360 -0.957436 0.018784 -0.125157 0.000000 0.000000
    19 -1.180681 -2.507217 -0.193859 -1.338376 0.249247 -0.349932
    20 -0.024967 -1.123934 0.017597 -1.138797 0.000000 0.000001
    21 -0.020057 -0.890968 0.010090 -0.444208 0.000000 0.000000
    22 0.583510 -1.197277 0.185379 -0.170596 -0.642052 -0.400567
    23 1.535927 0.010246 0.005009 -0.002964 -0.012979 -0.887970
    24 1.100771 0.004527 -0.010679 -0.012432 0.010412 -0.697598
    25 0.120153 -0.050270 -0.054489 0.287569 3.110905 1.561085
    26 1.201932 -11.247068 -12.286814 -1.676822 -5.321260 -1.098324
    27 0.096944 -8.450418 -0.009365 -0.036421 -1.226923 0.518805
    28 0.447953 -2.798986 -0.200443 -1.421012 0.011480 0.381620
    29 -0.032909 -1.480204 0.004940 -1.110076 0.000000 0.000002
    30 -0.027022 -1.076920 -0.020210 0.205198 0.000000 0.000000
    31 -0.249534 -2.846964 -0.174213 -0.964673 0.069314 0.302245
    32 0.043235 -1.683941 0.096012 -1.514629 0.002823 -0.000167
    33 0.031729 -1.160830 0.058838 0.134676 0.000642 0.008372
    34 -0.963866 -2.785145 -0.085350 -0.482992 0.119647 0.325274
    35 0.028479 -1.403067 0.006271 -1.337916 0.000000 0.000000
    36 0.021413 -0.957781 0.020046 -0.325451 0.000000 0.000000
    37 1.164475 -2.543940 -0.170330 -1.543927 0.034787 0.508555
    38 0.024032 -1.129042 0.017807 -1.093987 0.000000 0.000001
    39 0.014898 -0.883989 -0.019848 0.041331 0.000000 0.000000
    40 -0.586770 -1.264477 0.200161 0.164856 -0.089913 -2.665668
    41 1.522835 0.058681 0.016848 0.001410 0.008985 0.554174
    42 1.117947 0.048424 -0.005766 0.000584 -0.025198 0.032164
    43 -0.139399 -0.111698 0.014397 0.812758 0.207758 1.328796
    44 -6.260806 6.983652 -0.294122 1.580804 -0.005023 -0.912813
  time 26
    0 -0.349399 1.166145 0.203512 0.000000 0.000000 0.000000
    1 9.847816 3.010857 -8.845687 -1.656623 -1.256078 1.305583
    2 -0.071918 -8.498729 -0.104136 0.219127 0.127574 -0.380387
    3 2.441370 -6.426759 0.537448 0.089049 0.119162 -1.478491
    4 2.710185 -3.307132 0.000000 0.000000 0.000000 -1.570797
    5 0.000000 0.000000 0.000000 0.000000 0.000000 0.000000
    6 -0.787659 -1.985389 0.000000 0.000000 0.000000 -1.570796
    7 14.175378 -1.687388 0.000001 0.000000 0.000000 -1.508475
    8 1.025149 -0.859104 0.000000 1.570796 -1.570796 0.000000
    9 1.257180 8.762585 -0.153713 -1.570562 0.002683 -1.566807
    10 -0.488518 -2.755602 -0.228260 -1.043629 0.109301 -0.409563
    11 0.039887 -1.479790 0.029854 -1.667534 0.000000 0.000001
    12 0.028786 -1.075731 -0.023109 -0.454494 0.000000 0.000000
    13 0.250027 -2.820665 -0.238396 -0.736464 0.165690 -0.428552
    14 -0.049759 -1.680544 0.100479 -1.752455 0.000000 -0.000002
    15 -0.034142 -1.148312 0.084782 -0.832761 0.000000 0.000000
    16 0.957766 -2.746780 -0.090302 0.092438 -0.026887 -0.411347
    17 -0.033420 -1.397129 -0.011257 -0.387585 0.000000 -0.000001
    18 -0.022360 -0.957436 0.018784 -0.125157 0.000000 0.000000
    19 -1.180681 -2.507217 -0.193859 -1.338376 0.249247 -0.349932
    20 -0.024967 -1.123934 0.017597 -1.138797 0.000000 0.000001
    21 -0.020057 -0.890968 0.010090 -0.444208 0.000000 0.000000
    22 0.583510 -1.197277 0.185379 -0.170596 -0.642052 -0.400567
    23 1.535927 0.010246 0.005009 -0.002964 -0.012979 -0.887970
    24 1.100771 0.004527 -0.010679 -0.012432 0.010412 -0.697598
    25 0.120153 -0.050270 -0.054489 0.287569 3.110905 1.561085
    26 1.198026 -11.239256 -12.282908 -1.677742 -5.320799 -1.098897
    27 0.096944 -8.450418 -0.009365 -0.036421 -1.226923 0.518805
    28 0.447953 -2.798986 -0.200443 -1.421012 0.011480 0.381620
    29 -0.032909 -1.480204 0.004940 -1.110076 0.000000 0.000002
    30 -0.027022 -1.076920 -0.020210 0.205198 0.000000 0.000000
    31 -0.249534 -2.846964 -0.174213 -0.964673 0.069314 0.302245
    32 0.043235 -1.683941 0.096012 -1.514629 0.002823 -0.000167
    33 0.031729 -1.160830 0.058838 0.134676 0.000642 0.008372
    34 -0.963866 -2.785145 -0.085350 -0.482992 0.119647 0.325274
    35 0.028479 -1.403067 0.006271 -1.337916 0.000000 0.000000
    36 0.021413 -0.957781 0.020046 -0.325451 0.000000 0.000000
    37 1.164475 -2.543940 -0.170330 -1.543927 0.034787 0.508555
    38 0.024032 -1.129042 0.017807 -1.093987 0.000000 0.000001
    39 0.014898 -0.883989 -0.019848 0.041331 0.000000 0.000000
    40 -0.586770 -1.264477 0.200161 0.164856 -0.089913 -2.665668
    41 1.522835 0.058681 0.016848 0.001410 0.008985 0.554174
    42 1.117947 0.048424 -0.005766 0.000584 -0.025198 0.032164
    43 -0.139399 -0.111698 0.014397 0.812758 0.207758 1.328796
    44 -6.260806 6.983652 -0.294122 1.580804 -0.005023 -0.912813
  time 27
    0 -0.349399 1.166145 0.203512 0.000000 0.000000 0.000000
    1 9.847816 3.010857 -8.845687 -1.656147 -1.256622 1.305201
    2 -0.071918 -8.498729 -0.104136 0.219115 0.127130 -0.380494
    3 2.441370 -6.426759 0.537448 0.089049 0.119162 -1.478491
    4 2.710185 -3.307132 0.000000 0.000000 0.000000 -1.570797
    5 0.000000 0.000000 0.000000 0.000000 0.000000 0.000000
    6 -0.787659 -1.985389 0.000000 0.000000 0.000000 -1.570796
    7 14.175378 -1.687388 0.000001 0.000000 0.000000 -1.570796
    8 1.025149 -0.859104 0.000000 1.570796 -1.570796 0.000000
    9 1.257180 8.762585 -0.153713 -1.570562 0.002683 -1.566807
    10 -0.488518 -2.755602 -0.228260 -1.043629 0.109301 -0.409563
    11 0.039887 -1.479790 0.029854 -1.667534 0.000000 0.000001
    12 0.028786 -1.075731 -0.023109 -0.454494 0.000000 0.000000
    13 0.250027 -2.820665 -0.238396 -0.736464 0.165690 -0.428552
    14 -0.049759 -1.680544 0.100479 -1.752455 0.000000 -0.000002
    15 -0.034142 -1.148312 0.084782 -0.832761 0.000000 0.000000
    16 0.957766 -2.746780 -0.090302 0.092438 -0.026887 -0.411347
    17 -0.033420 -1.397129 -0.011257 -0.387585 0.000000 -0.000001
    18 -0.022360 -0.957436 0.018784 -0.125157 0.000000 0.000000
    19 -1.180681 -2.507217 -0.193859 -1.338376 0.249247 -0.349932
    20 -0.024967 -1.123934 0.017597 -1.138797 0.000000 0.000001
    21 -0.020057 -0.890968 0.010090 -0.444208 0.000000 0.000000
    22 0.583510 -1.197277 0.185379 -0.170596 -0.642052 -0.400567
    23 1.535927 0.010246 0.005009 -0.002964 -0.012979 -0.887970
    24 1.100771 0.004527 -0.010679 -0.012432 0.010412 -0.697598
    25 0.120153 -0.050270 -0.054489 0.287569 3.110905 1.561085
    26 1.201932 -11.231443 -12.290721 -1.676638 -5.320615 -1.098038
    27 0.096944 -8.450418 -0.009365 -0.036421 -1.226923 0.518805
    28 0.447953 -2.798986 -0.200443 -1.421012 0.011480 0.381620
    29 -0.032909 -1.480204 0.004940 -1.110076 0.000000 0.000002
    30 -0.027022 -1.076920 -0.020210 0.205198 0.000000 0.000000
    31 -0.249534 -2.846964 -0.174213 -0.964673 0.069314 0.302245
    32 0.043235 -1.683941 0.096012 -1.514629 0.002823 -0.000167
    33 0.031729 -1.160830 0.058838 0.134676 0.000642 0.008372
    34 -0.963866 -2.785145 -0.085350 -0.482992 0.119647 0.325274
    35 0.028479 -1.403067 0.006271 -1.337916 0.000000 0.000000
    36 0.021413 -0.957781 0.020046 -0.325451 0.000000 0.000000
    37 1.164475 -2.543940 -0.170330 -1.543927 0.034787 0.508555
    38 0.024032 -1.129042 0.017807 -1.093987 0.000000 0.000001
    39 0.014898 -0.883989 -0.019848 0.041331 0.000000 0.000000
    40 -0.586770 -1.264477 0.200161 0.164856 -0.089913 -2.665668
    41 1.522835 0.058681 0.016848 0.001410 0.008985 0.554174
    42 1.117947 0.048424 -0.005766 0.000584 -0.025198 0.032164
    43 -0.139399 -0.111698 0.014397 0.812758 0.207758 1.328796
    44 -6.260806 6.983652 -0.294122 1.580804 -0.005023 -0.912813
  time 28
    0 -0.349399 1.166145 0.203512 0.000000 0.000000 0.000000
    1 9.847816 3.010857 -8.845687 -1.655575 -1.257276 1.304627
    2 -0.071918 -8.498729 -0.104136 0.219091 0.126136 -0.380710
    3 2.441370 -6.426759 0.537448 0.089049 0.119162 -1.478491
    4 2.710185 -3.307132 0.000000 0.000000 0.000000 -1.570797
    5 0.000000 0.000000 0.000000 0.000000 0.000000 0.000000
    6 -0.787659 -1.985389 0.000000 0.000000 0.000000 -1.570796
    7 14.175378 -1.687388 0.000001 0.000000 0.000000 -1.582504
    8 1.025149 -0.859104 0.000000 1.570796 -1.570796 0.000000
    9 1.257180 8.762585 -0.153713 -1.570562 0.002683 -1.566807
    10 -0.488518 -2.755602 -0.228260 -1.043629 0.109301 -0.409563
    11 0.039887 -1.479790 0.029854 -1.667534 0.000000 0.000001
    12 0.028786 -1.075731 -0.023109 -0.454494 0.000000 0.000000
    13 0.250027 -2.820665 -0.238396 -0.736464 0.165690 -0.428552
    14 -0.049759 -1.680544 0.100479 -1.752455 0.000000 -0.000002
    15 -0.034142 -1.148312 0.084782 -0.832785 0.000000 0.000000
    16 0.957766 -2.746780 -0.090302 0.092438 -0.026887 -0.411347
    17 -0.033420 -1.397129 -0.011257 -0.387585 0.000000 -0.000001
    18 -0.022360 -0.957436 0.018784 -0.125157 0.000000 0.000000
    19 -1.180681 -2.507217 -0.193859 -1.338376 0.249247 -0.349932
    20 -0.024967 -1.123934 0.017597 -1.138797 0.000000 0.000001
    21 -0.020057 -0.890968 0.010090 -0.444208 0.000000 0.000000
    22 0.583510 -1.197277 0.185379 -0.170596 -0.642052 -0.400567
    23 1.535927 0.010246 0.005009 -0.002964 -0.012979 -0.887970
    24 1.100771 0.004527 -0.010679 -0.012432 0.010412 -0.697598
    25 0.120153 -0.050270 -0.054489 0.287569 3.110905 1.561085
    26 1.205839 -11.227537 -12.306346 -1.674521 -5.320523 -1.096511
    27 0.096944 -8.450418 -0.009365 -0.036421 -1.226923 0.518805
    28 0.447953 -2.798986 -0.200443 -1.421012 0.011480 0.381620
    29 -0.032909 -1.480204 0.004940 -1.110076 0.000000 0.000002
    30 -0.027022 -1.076920 -0.020210 0.205198 0.000000 0.000000
    31 -0.249534 -2.846964 -0.174213 -0.964673 0.069314 0.302245
    32 0.043235 -1.683941 0.096012 -1.514629 0.002823 -0.000167
    33 0.031729 -1.160830 0.058838 0.134676 0.000642 0.008372
    34 -0.963866 -2.785145 -0.085350 -0.482992 0.119647 0.325274
    35 0.028479 -1.403067 0.006271 -1.337916 0.000000 0.000000
    36 0.021413 -0.957781 0.020046 -0.325451 0.000000 0.000000
    37 1.164475 -2.543940 -0.170330 -1.543927 0.034787 0.508555
    38 0.024032 -1.129042 0.017807 -1.093987 0.000000 0.000001
    39 0.014898 -0.883989 -0.019848 0.041331 0.000000 0.000000
    40 -0.586770 -1.264477 0.200161 0.164856 -0.089913 -2.665668
    41 1.522835 0.058681 0.016848 0.001410 0.008985 0.554174
    42 1.117947 0.048424 -0.005766 0.000584 -0.025198 0.032164
    43 -0.139399 -0.111698 0.014397 0.812758 0.207758 1.328796
    44 -6.260806 6.983652 -0.294122 1.580804 -0.005023 -0.912813
  time 29
    0 -0.349399 1.166145 0.203512 0.000000 0.000000 0.000000
    1 9.847816 3.010857 -8.841781 -1.655003 -1.257893 1.304150
    2 -0.071918 -8.498729 -0.104136 0.219067 0.125141 -0.380938
    3 2.441370 -6.426759 0.537448 0.089049 0.119162 -1.478491
    4 2.710185 -3.307132 0.000000 0.000000 0.000000 -1.570797
    5 0.000000 0.000000 0.000000 0.000000 0.000000 0.000000
    6 -0.787659 -1.985389 0.000000 0.000000 0.000000 -1.570796
    7 14.175378 -1.687388 0.000001 0.000000 0.000000 -1.576650
    8 1.025149 -0.859104 0.000000 1.570796 -1.570796 0.000000
    9 1.257180 8.762585 -0.153713 -1.570562 0.002683 -1.566807
    10 -0.488518 -2.755602 -0.228260 -1.043629 0.109301 -0.409563
    11 0.039887 -1.479790 0.029854 -1.667534 0.000000 0.000001
    12 0.028786 -1.075731 -0.023109 -0.454494 0.000000 0.000000
    13 0.250027 -2.820665 -0.238396 -0.736464 0.165690 -0.428552
    14 -0.049759 -1.680544 0.100479 -1.752455 0.000000 -0.000002
    15 -0.034142 -1.148312 0.084782 -0.832761 0.000000 0.000000
    16 0.957766 -2.746780 -0.090302 0.092438 -0.026887 -0.411347
    17 -0.033420 -1.397129 -0.011257 -0.387585 0.000000 -0.000001
    18 -0.022360 -0.957436 0.018784 -0.125157 0.000000 0.000000
    19 -1.180681 -2.507217 -0.193859 -1.338376 0.249247 -0.349932
    20 -0.024967 -1.123934 0.017597 -1.138797 0.000000 0.000001
    21 -0.020057 -0.890968 0.010090 -0.444208 0.000000 0.000000
    22 0.583510 -1.197277 0.185379 -0.170596 -0.642052 -0.400567
    23 1.535927 0.010246 0.005009 -0.002964 -0.012979 -0.887970
    24 1.100771 0.004527 -0.010679 -0.012432 0.010412 -0.697598
    25 0.120153 -0.050270 -0.054489 0.287569 3.110905 1.561085
    26 1.209745 -11.227537 -12.318065 -1.672588 -5.320523 -1.094984
    27 0.096944 -8.450418 -0.009365 -0.036421 -1.226923 0.518805
    28 0.447953 -2.798986 -0.200443 -1.421012 0.011480 0.381620
    29 -0.032909 -1.480204 0.004940 -1.110076 0.000000 0.000002
    30 -0.027022 -1.076920 -0.020210 0.205198 0.000000 0.000000
    31 -0.249534 -2.846964 -0.174213 -0.964673 0.069314 0.302245
    32 0.043235 -1.683941 0.096012 -1.514629 0.002823 -0.000167
    33 0.031729 -1.160830 0.058838 0.134676 0.000642 0.008372
    34 -0.963866 -2.785145 -0.085350 -0.482992 0.119647 0.325274
    35 0.028479 -1.403067 0.006271 -1.337916 0.000000 0.000000
    36 0.021413 -0.957781 0.020046 -0.325451 0.000000 0.000000
    37 1.164475 -2.543940 -0.170330 -1.543927 0.034787 0.508555
    38 0.024032 -1.129042 0.017807 -1.093987 0.000000 0.000001
    39 0.014898 -0.883989 -0.019848 0.041331 0.000000 0.000000
    40 -0.586770 -1.264477 0.200161 0.164856 -0.089913 -2.665668
    41 1.522835 0.058681 0.016848 0.001410 0.008985 0.554174
    42 1.117947 0.048424 -0.005766 0.000584 -0.025198 0.032164
    43 -0.139399 -0.111698 0.014397 0.812758 0.207758 1.328796
    44 -6.260806 6.983652 -0.294122 1.580804 -0.005023 -0.912813
  time 30
    0 -0.349399 1.166145 0.203512 0.000000 0.000000 0.000000
    1 9.847816 3.010857 -8.841781 -1.654813 -1.258183 1.303959
    2 -0.071918 -8.498729 -0.104136 0.219055 0.124697 -0.381034
    3 2.441370 -6.426759 0.537448 0.089049 0.119162 -1.478491
    4 2.710185 -3.307132 0.000000 0.000000 0.000000 -1.570797
    5 0.000000 0.000000 0.000000 0.000000 0.000000 0.000000
    6 -0.787659 -1.985389 0.000000 0.000000 0.000000 -1.570796
    7 14.175378 -1.687388 0.000001 0.000000 0.000000 -1.570796
    8 1.025149 -0.859104 0.000000 1.570796 -1.570796 0.000000
    9 1.257180 8.762585 -0.153713 -1.570562 0.002683 -1.566807
    10 -0.488518 -2.755602 -0.228260 -1.043629 0.109301 -0.409563
    11 0.039887 -1.479790 0.029854 -1.667534 0.000000 0.000001
    12 0.028786 -1.075731 -0.023109 -0.454494 0.000000 0.000000
    13 0.250027 -2.820665 -0.238396 -0.736464 0.165690 -0.428552
    14 -0.049759 -1.680544 0.100479 -1.752455 0.000000 -0.000002
    15 -0.034142 -1.148312 0.084782 -0.832761 0.000000 0.000000
    16 0.957766 -2.746780 -0.090302 0.092438 -0.026887 -0.411347
    17 -0.033420 -1.397129 -0.011257 -0.387585 0.000000 -0.000001
    18 -0.022360 -0.957436 0.018784 -0.125157 0.000000 0.000000
    19 -1.180681 -2.507217 -0.193859 -1.338376 0.249247 -0.349932
    20 -0.024967 -1.123934 0.017597 -1.138797 0.000000 0.000001
    21 -0.020057 -0.890968 0.010090 -0.444208 0.000000 0.000000
    22 0.583510 -1.197277 0.185379 -0.170596 -0.642052 -0.400567
    23 1.535927 0.010246 0.005009 -0.002964 -0.012979 -0.887970
    24 1.100771 0.004527 -0.010679 -0.012432 0.010412 -0.697598
    25 0.120153 -0.050270 -0.054489 0.287569 3.110905 1.561085
    26 1.213651 -11.227537 -12.321972 -1.671668 -5.320523 -1.094220
    27 0.096944 -8.450418 -0.009365 -0.036421 -1.226923 0.518805
    28 0.447953 -2.798986 -0.200443 -1.421012 0.011480 0.381620
    29 -0.032909 -1.480204 0.004940 -1.110076 0.000000 0.000002
    30 -0.027022 -1.076920 -0.020210 0.205198 0.000000 0.000000
    31 -0.249534 -2.846964 -0.174213 -0.964673 0.069314 0.302245
    32 0.043235 -1.683941 0.096012 -1.514629 0.002823 -0.000167
    33 0.031729 -1.160830 0.058838 0.134676 0.000642 0.008372
    34 -0.963866 -2.785145 -0.085350 -0.482992 0.119647 0.325274
    35 0.028479 -1.403067 0.006271 -1.337916 0.000000 0.000000
    36 0.021413 -0.957781 0.020046 -0.325451 0.000000 0.000000
    37 1.164475 -2.543940 -0.170330 -1.543927 0.034787 0.508555
    38 0.024032 -1.129042 0.017807 -1.093987 0.000000 0.000001
    39 0.014898 -0.883989 -0.019848 0.041331 0.000000 0.000000
    40 -0.586770 -1.264477 0.200161 0.164856 -0.089913 -2.665668
    41 1.522835 0.058681 0.016848 0.001410 0.008985 0.554174
    42 1.117947 0.048424 -0.005766 0.000584 -0.025198 0.032164
    43 -0.139399 -0.111698 0.014397 0.812758 0.207758 1.328796
    44 -6.260806 6.983652 -0.294122 1.580804 -0.005023 -0.912813
end
