version 1
nodes
  0 "root" -1
  1 "Bone01" 0
  2 "Bone_Lefthand" 1
  3 "Bone02" 2
  4 "Dummy01" 3
  5 "Bone08" 4
  6 "Bone16" 3
  7 "Bone26" 3
  8 "Bone24" 3
  9 "Bone_L_Upper" 1
  10 "Bone13" 2
  11 "Bone14" 10
  12 "Bone15" 11
  13 "Bone17" 2
  14 "Bone18" 13
  15 "Bone19" 14
  16 "Bone21" 2
  17 "Bone22" 16
  18 "Bone23" 17
  19 "Bone09" 2
  20 "Bone10" 19
  21 "Bone11" 20
  22 "Bone05" 2
  23 "Bone06" 22
  24 "Bone07" 23
  25 "Bone_Se_Hand-L" 2
  26 "Bone04" 0
  27 "Bone_Righthand" 26
  28 "Bone39" 27
  29 "Bone40" 28
  30 "Bone41" 29
  31 "Bone35" 27
  32 "Bone36" 31
  33 "Bone37" 32
  34 "Bone31" 27
  35 "Bone32" 34
  36 "Bone33" 35
  37 "Bone43" 27
  38 "Bone44" 37
  39 "Bone45" 38
  40 "Bone27" 27
  41 "Bone28" 40
  42 "Bone29" 41
  43 "Bone_Se_Hand-R" 27
  44 "Bone_R_Upper" 26
end
skeleton
  time 0
    0 -0.349399 1.166145 0.203512 0.000000 0.000000 0.000000
    1 9.847816 3.010857 -8.841781 -1.654813 -1.258183 1.303959
    2 -0.071918 -8.498729 -0.104136 0.219055 0.124697 -0.381034
    3 2.441370 -6.426759 0.537448 0.089049 0.119162 -1.478491
    4 2.710185 -3.307132 0.000000 0.000000 0.000000 -1.570797
    5 0.000000 0.000000 0.000000 0.000000 0.000000 0.000000
    6 -0.787659 -1.985389 0.000000 0.000000 0.000000 -1.570796
    7 14.175378 -1.687388 0.000001 0.000000 0.000000 -1.570796
    8 1.025149 -0.859104 0.000000 1.570796 -1.570796 0.000000
    9 1.257180 8.762585 -0.153713 -1.570562 0.002683 -1.566807
    10 -0.488518 -2.755602 -0.228260 -1.043629 0.109301 -0.409563
    11 0.039887 -1.479790 0.029854 -1.667534 0.000000 0.000001
    12 0.028786 -1.075731 -0.023109 -0.454494 0.000000 0.000000
    13 0.250027 -2.820665 -0.238396 -0.736464 0.165690 -0.428552
    14 -0.049759 -1.680544 0.100479 -1.752455 0.000000 -0.000002
    15 -0.034142 -1.148312 0.084782 -0.832761 0.000000 0.000000
    16 0.957766 -2.746780 -0.090302 0.092438 -0.026887 -0.411347
    17 -0.033420 -1.397129 -0.011257 -0.387585 0.000000 -0.000001
    18 -0.022360 -0.957436 0.018784 -0.125157 0.000000 0.000000
    19 -1.180681 -2.507217 -0.193859 -1.338376 0.249247 -0.349932
    20 -0.024967 -1.123934 0.017597 -1.138797 0.000000 0.000001
    21 -0.020057 -0.890968 0.010090 -0.444208 0.000000 0.000000
    22 0.583510 -1.197277 0.185379 -0.170596 -0.642052 -0.400567
    23 1.535927 0.010246 0.005009 -0.002964 -0.012979 -0.887970
    24 1.100771 0.004527 -0.010679 -0.012432 0.010412 -0.697598
    25 0.120153 -0.050270 -0.054489 0.287569 3.110905 1.561085
    26 1.213651 -11.227537 -12.321972 -1.671668 -5.320523 -1.094220
    27 0.096944 -8.450418 -0.009365 -0.036421 -1.226923 0.518805
    28 0.447953 -2.798986 -0.200443 -1.421012 0.011480 0.381620
    29 -0.032909 -1.480204 0.004940 -1.110076 0.000000 0.000002
    30 -0.027022 -1.076920 -0.020210 0.205198 0.000000 0.000000
    31 -0.249534 -2.846964 -0.174213 -0.964673 0.069314 0.302245
    32 0.043235 -1.683941 0.096012 -1.514629 0.002823 -0.000167
    33 0.031729 -1.160830 0.058838 0.134676 0.000642 0.008372
    34 -0.963866 -2.785145 -0.085350 -0.482992 0.119647 0.325274
    35 0.028479 -1.403067 0.006271 -1.337916 0.000000 0.000000
    36 0.021413 -0.957781 0.020046 -0.325451 0.000000 0.000000
    37 1.164475 -2.543940 -0.170330 -1.543927 0.034787 0.508555
    38 0.024032 -1.129042 0.017807 -1.093987 0.000000 0.000001
    39 0.014898 -0.883989 -0.019848 0.041331 0.000000 0.000000
    40 -0.586770 -1.264477 0.200161 0.164856 -0.089913 -2.665668
    41 1.522835 0.058681 0.016848 0.001410 0.008985 0.554174
    42 1.117947 0.048424 -0.005766 0.000584 -0.025198 0.032164
    43 -0.139399 -0.111698 0.014397 0.812758 0.207758 1.328796
    44 -6.260806 6.983652 -0.294122 1.580804 -0.005023 -0.912813
  time 1
    0 -0.349399 1.166145 0.203512 0.000000 0.000000 0.000000
    1 9.847816 5.792192 -8.349578 -1.654813 -1.258183 1.303959
    2 -0.071918 -8.498729 -0.104136 0.220565 0.170179 -0.370775
    3 2.441370 -6.426759 0.537448 0.089049 0.119162 -1.478491
    4 2.710185 -3.307132 0.000000 0.000000 0.000000 -1.570797
    5 0.000000 0.000000 0.000000 0.000000 0.000000 0.000000
    6 -0.787659 -1.985389 0.000000 0.000000 0.000000 -1.570796
    7 14.175378 -1.687388 0.000001 0.000000 0.000000 -0.507776
    8 -2.584336 -0.859104 0.000000 1.570796 -1.570796 0.000000
    9 1.257180 8.762585 -0.153713 -1.570562 0.002683 -1.566807
    10 -0.488518 -2.755602 -0.228260 -1.043629 0.109301 -0.409563
    11 0.039887 -1.479790 0.029854 -1.667534 0.000000 0.000001
    12 0.028786 -1.075731 -0.023109 -0.454494 0.000000 0.000000
    13 0.250027 -2.820665 -0.238396 -0.736464 0.165690 -0.428552
    14 -0.049759 -1.680544 0.100479 -1.752455 0.000000 -0.000002
    15 -0.034142 -1.148312 0.084782 -0.832761 0.000000 0.000000
    16 0.957766 -2.746780 -0.090302 0.092438 -0.026887 -0.411347
    17 -0.033420 -1.397129 -0.011257 -0.387585 0.000000 -0.000001
    18 -0.022360 -0.957436 0.018784 -0.125157 0.000000 0.000000
    19 -1.180681 -2.507217 -0.193859 -1.338376 0.249247 -0.349932
    20 -0.024967 -1.123934 0.017597 -1.138797 0.000000 0.000001
    21 -0.020057 -0.890968 0.010090 -0.444208 0.000000 0.000000
    22 0.583510 -1.197277 0.185379 -0.170596 -0.642052 -0.400567
    23 1.535927 0.010246 0.005009 -0.002964 -0.012979 -0.887970
    24 1.100771 0.004527 -0.010679 -0.012432 0.010412 -0.697598
    25 0.120153 -0.050270 -0.054489 0.287569 3.110905 1.561085
    26 0.967550 -8.434483 -11.587574 -1.741153 -5.295194 -1.147572
    27 0.096944 -8.450418 -0.009365 -0.036421 -1.226923 0.518805
    28 0.447953 -2.798986 -0.200443 -1.421012 0.011480 0.381620
    29 -0.032909 -1.480204 0.004940 -1.110076 0.000000 0.000002
    30 -0.027022 -1.076920 -0.020210 0.205198 0.000000 0.000000
    31 -0.249534 -2.846964 -0.174213 -0.964673 0.069314 0.302245
    32 0.043235 -1.683941 0.096012 -1.514629 0.002823 -0.000167
    33 0.031729 -1.160830 0.058838 0.134676 0.000642 0.008372
    34 -0.963866 -2.785145 -0.085350 -0.482992 0.119647 0.325274
    35 0.028479 -1.403067 0.006271 -1.337916 0.000000 0.000000
    36 0.021413 -0.957781 0.020046 -0.325451 0.000000 0.000000
    37 1.164475 -2.543940 -0.170330 -1.543927 0.034787 0.508555
    38 0.024032 -1.129042 0.017807 -1.093987 0.000000 0.000001
    39 0.014898 -0.883989 -0.019848 0.041331 0.000000 0.000000
    40 -0.586770 -1.264477 0.200161 0.164856 -0.089913 -2.665668
    41 1.522835 0.058681 0.016848 0.001410 0.008985 0.554174
    42 1.117947 0.048424 -0.005766 0.000584 -0.025198 0.032164
    43 -0.139399 -0.111698 0.014397 0.812758 0.207758 1.328796
    44 -6.260806 6.983652 -0.294122 1.580804 -0.005023 -0.912813
  time 2
    0 -0.349399 1.166145 0.203512 0.000000 0.000000 0.000000
    1 9.847816 6.553934 -8.330046 -1.672823 -1.236398 1.320965
    2 -0.071918 -8.498729 -0.104136 0.220984 0.180761 -0.368366
    3 2.441370 -6.426759 0.537448 0.089049 0.119162 -1.478491
    4 2.710185 -3.307132 0.000000 0.000000 0.000000 -1.570797
    5 0.000000 0.000000 0.000000 0.000000 0.000000 0.000000
    6 -0.787659 -1.985389 0.000000 0.000000 0.000000 -1.570796
    7 14.175378 -1.687388 0.000001 0.000000 0.000000 -1.182395
    8 -2.584336 -0.859104 0.000000 1.570796 -1.570796 0.000000
    9 1.257180 8.762585 -0.153713 -1.570562 0.002683 -1.566807
    10 -0.488518 -2.755602 -0.228260 -1.043629 0.109301 -0.409563
    11 0.039887 -1.479790 0.029854 -1.667534 0.000000 0.000001
    12 0.028786 -1.075731 -0.023109 -0.454494 0.000000 0.000000
    13 0.250027 -2.820665 -0.238396 -0.736464 0.165690 -0.428552
    14 -0.049759 -1.680544 0.100479 -1.752455 0.000000 -0.000002
    15 -0.034142 -1.148312 0.084782 -0.832761 0.000000 0.000000
    16 0.957766 -2.746780 -0.090302 0.092438 -0.026887 -0.411347
    17 -0.033420 -1.397129 -0.011257 -0.387585 0.000000 -0.000001
    18 -0.022360 -0.957436 0.018784 -0.125157 0.000000 0.000000
    19 -1.180681 -2.507217 -0.193859 -1.338376 0.249247 -0.349932
    20 -0.024967 -1.123934 0.017597 -1.138797 0.000000 0.000001
    21 -0.020057 -0.890968 0.010090 -0.444208 0.000000 0.000000
    22 0.583510 -1.197277 0.185379 -0.170596 -0.642052 -0.400567
    23 1.535927 0.010246 0.005009 -0.002964 -0.012979 -0.887970
    24 1.100771 0.004527 -0.010679 -0.012432 0.010412 -0.697598
    25 0.120153 -0.050270 -0.054489 0.287569 3.110905 1.561085
    26 0.912861 -7.739149 -11.189125 -1.774008 -5.310391 -1.174009
    27 0.096944 -8.450418 -0.009365 -0.036421 -1.226923 0.518805
    28 0.447953 -2.798986 -0.200443 -1.421012 0.011480 0.381620
    29 -0.032909 -1.480204 0.004940 -1.110076 0.000000 0.000002
    30 -0.027022 -1.076920 -0.020210 0.205198 0.000000 0.000000
    31 -0.249534 -2.846964 -0.174213 -0.964673 0.069314 0.302245
    32 0.043235 -1.683941 0.096012 -1.514629 0.002823 -0.000167
    33 0.031729 -1.160830 0.058838 0.134676 0.000642 0.008372
    34 -0.963866 -2.785145 -0.085350 -0.482992 0.119647 0.325274
    35 0.028479 -1.403067 0.006271 -1.337916 0.000000 0.000000
    36 0.021413 -0.957781 0.020046 -0.325451 0.000000 0.000000
    37 1.164475 -2.543940 -0.170330 -1.543927 0.034787 0.508555
    38 0.024032 -1.129042 0.017807 -1.093987 0.000000 0.000001
    39 0.014898 -0.883989 -0.019848 0.041331 0.000000 0.000000
    40 -0.586770 -1.264477 0.200161 0.164856 -0.089913 -2.665668
    41 1.522835 0.058681 0.016848 0.001410 0.008985 0.554174
    42 1.117947 0.048424 -0.005766 0.000584 -0.025198 0.032164
    43 -0.139399 -0.111698 0.014397 0.812758 0.207758 1.328796
    44 -6.260806 6.983652 -0.294122 1.580804 -0.005023 -0.912813
  time 3
    0 -0.349399 1.166145 0.203512 0.000000 0.000000 0.000000
    1 9.847816 6.542215 -8.349578 -1.683305 -1.222418 1.330806
    2 -0.071918 -8.498729 -0.104136 0.220769 0.175644 -0.369528
    3 2.441370 -6.426759 0.537448 0.089049 0.119162 -1.478491
    4 2.710185 -3.307132 0.000000 0.000000 0.000000 -1.570797
    5 0.000000 0.000000 0.000000 0.000000 0.000000 0.000000
    6 -0.787659 -1.985389 0.000000 0.000000 0.000000 -1.570796
    7 14.175378 -1.687388 0.000001 0.000000 0.000000 -2.161167
    8 -0.779594 -0.859104 0.000000 1.570796 -1.570796 0.000000
    9 1.257180 8.762585 -0.153713 -1.570562 0.002683 -1.566807
    10 -0.488518 -2.755602 -0.228260 -1.043629 0.109301 -0.409563
    11 0.039887 -1.479790 0.029854 -1.667534 0.000000 0.000001
    12 0.028786 -1.075731 -0.023109 -0.454494 0.000000 0.000000
    13 0.250027 -2.820665 -0.238396 -0.736464 0.165690 -0.428552
    14 -0.049759 -1.680544 0.100479 -1.752455 0.000000 -0.000002
    15 -0.034142 -1.148312 0.084782 -0.832761 0.000000 0.000000
    16 0.957766 -2.746780 -0.090302 0.092438 -0.026887 -0.411347
    17 -0.033420 -1.397129 -0.011257 -0.387585 0.000000 -0.000001
    18 -0.022360 -0.957436 0.018784 -0.125157 0.000000 0.000000
    19 -1.180681 -2.507217 -0.193859 -1.338376 0.249247 -0.349932
    20 -0.024967 -1.123934 0.017597 -1.138797 0.000000 0.000001
    21 -0.020057 -0.890968 0.010090 -0.444208 0.000000 0.000000
    22 0.583510 -1.197277 0.185379 -0.170596 -0.642052 -0.400567
    23 1.535927 0.010246 0.005009 -0.002964 -0.012979 -0.887970
    24 1.100771 0.004527 -0.010679 -0.012432 0.010412 -0.697598
    25 0.120153 -0.050270 -0.054489 0.287569 3.110905 1.561085
    26 0.940206 -7.793838 -11.028964 -1.775757 -5.326325 -1.175823
    27 0.096944 -8.450418 -0.009365 -0.036421 -1.226923 0.518805
    28 0.447953 -2.798986 -0.200443 -1.421012 0.011480 0.381620
    29 -0.032909 -1.480204 0.004940 -1.110076 0.000000 0.000002
    30 -0.027022 -1.076920 -0.020210 0.205198 0.000000 0.000000
    31 -0.249534 -2.846964 -0.174213 -0.964673 0.069314 0.302245
    32 0.043235 -1.683941 0.096012 -1.514629 0.002823 -0.000167
    33 0.031729 -1.160830 0.058838 0.134676 0.000642 0.008372
    34 -0.963866 -2.785145 -0.085350 -0.482992 0.119647 0.325274
    35 0.028479 -1.403067 0.006271 -1.337916 0.000000 0.000000
    36 0.021413 -0.957781 0.020046 -0.325451 0.000000 0.000000
    37 1.164475 -2.543940 -0.170330 -1.543927 0.034787 0.508555
    38 0.024032 -1.129042 0.017807 -1.093987 0.000000 0.000001
    39 0.014898 -0.883989 -0.019848 0.041331 0.000000 0.000000
    40 -0.586770 -1.264477 0.200161 0.164856 -0.089913 -2.665668
    41 1.522835 0.058681 0.016848 0.001410 0.008985 0.554174
    42 1.117947 0.048424 -0.005766 0.000584 -0.025198 0.032164
    43 -0.139399 -0.111698 0.014397 0.812758 0.207758 1.328796
    44 -6.260806 6.983652 -0.294122 1.580804 -0.005023 -0.912813
  time 4
    0 -0.349399 1.166145 0.203512 0.000000 0.000000 0.000000
    1 9.847816 5.827349 -8.197230 -1.673585 -1.235381 1.321729
    2 -0.071918 -8.498729 -0.104136 0.220013 0.155390 -0.374119
    3 2.441370 -6.426759 0.537448 0.089049 0.119162 -1.478491
    4 2.710185 -3.307132 0.000000 0.000000 0.000000 -1.570797
    5 0.000000 0.000000 0.000000 0.000000 0.000000 0.000000
    6 -0.787659 -1.985389 0.000000 0.000000 0.000000 -1.570796
    7 14.175378 -1.687388 0.000001 0.000000 0.000000 -2.794274
    8 1.025149 -0.859104 0.000000 1.570796 -1.570796 0.000000
    9 1.257180 8.762585 -0.153713 -1.570562 0.002683 -1.566807
    10 -0.488518 -2.755602 -0.228260 -1.043629 0.109301 -0.409563
    11 0.039887 -1.479790 0.029854 -1.667534 0.000000 0.000001
    12 0.028786 -1.075731 -0.023109 -0.454494 0.000000 0.000000
    13 0.250027 -2.820665 -0.238396 -0.736464 0.165690 -0.428552
    14 -0.049759 -1.680544 0.100479 -1.752455 0.000000 -0.000002
    15 -0.034142 -1.148312 0.084782 -0.832761 0.000000 0.000000
    16 0.957766 -2.746780 -0.090302 0.092438 -0.026887 -0.411347
    17 -0.033420 -1.397129 -0.011257 -0.387585 0.000000 -0.000001
    18 -0.022360 -0.957436 0.018784 -0.125157 0.000000 0.000000
    19 -1.180681 -2.507217 -0.193859 -1.338376 0.249247 -0.349932
    20 -0.024967 -1.123934 0.017597 -1.138797 0.000000 0.000001
    21 -0.020057 -0.890968 0.010090 -0.444208 0.000000 0.000000
    22 0.583510 -1.197277 0.185379 -0.170596 -0.642052 -0.400567
    23 1.535927 0.010246 0.005009 -0.002964 -0.012979 -0.887970
    24 1.100771 0.004527 -0.010679 -0.012432 0.010412 -0.697598
    25 0.120153 -0.050270 -0.054489 0.287569 3.110905 1.561085
    26 1.045678 -8.477453 -11.177406 -1.735539 -5.324667 -1.144136
    27 0.096944 -8.450418 -0.009365 -0.036421 -1.226923 0.518805
    28 0.447953 -2.798986 -0.200443 -1.421012 0.011480 0.381620
    29 -0.032909 -1.480204 0.004940 -1.110076 0.000000 0.000002
    30 -0.027022 -1.076920 -0.020210 0.205198 0.000000 0.000000
    31 -0.249534 -2.846964 -0.174213 -0.964673 0.069314 0.302245
    32 0.043235 -1.683941 0.096012 -1.514629 0.002823 -0.000167
    33 0.031729 -1.160830 0.058838 0.134676 0.000642 0.008372
    34 -0.963866 -2.785145 -0.085350 -0.482992 0.119647 0.325274
    35 0.028479 -1.403067 0.006271 -1.337916 0.000000 0.000000
    36 0.021413 -0.957781 0.020046 -0.325451 0.000000 0.000000
    37 1.164475 -2.543940 -0.170330 -1.543927 0.034787 0.508555
    38 0.024032 -1.129042 0.017807 -1.093987 0.000000 0.000001
    39 0.014898 -0.883989 -0.019848 0.041331 0.000000 0.000000
    40 -0.586770 -1.264477 0.200161 0.164856 -0.089913 -2.665668
    41 1.522835 0.058681 0.016848 0.001410 0.008985 0.554174
    42 1.117947 0.048424 -0.005766 0.000584 -0.025198 0.032164
    43 -0.139399 -0.111698 0.014397 0.812758 0.207758 1.328796
    44 -6.260806 6.983652 -0.294122 1.580804 -0.005023 -0.912813
  time 5
    0 -0.349399 1.166145 0.203512 0.000000 0.000000 0.000000
    1 9.847816 4.780442 -8.005818 -1.655003 -1.257929 1.304150
    2 -0.071918 -8.498729 -0.104136 0.219151 0.128377 -0.380207
    3 2.441370 -6.426759 0.537448 0.089049 0.119162 -1.478491
    4 2.710185 -3.307132 0.000000 0.000000 0.000000 -1.570797
    5 0.000000 0.000000 0.000000 0.000000 0.000000 0.000000
    6 -0.787659 -1.985389 0.000000 0.000000 0.000000 -1.570796
    7 14.175378 -1.687388 0.000001 0.000000 0.000000 -2.947495
    8 1.025149 -0.859104 0.000000 1.570796 -1.570796 0.000000
    9 1.257180 8.762585 -0.153713 -1.570562 0.002683 -1.566807
    10 -0.488518 -2.755602 -0.228260 -1.043629 0.109301 -0.409563
    11 0.039887 -1.479790 0.029854 -1.667534 0.000000 0.000001
    12 0.028786 -1.075731 -0.023109 -0.454494 0.000000 0.000000
    13 0.250027 -2.820665 -0.238396 -0.736464 0.165690 -0.428552
    14 -0.049759 -1.680544 0.100479 -1.752455 0.000000 -0.000002
    15 -0.034142 -1.148312 0.084782 -0.832785 0.000000 0.000000
    16 0.957766 -2.746780 -0.090302 0.092438 -0.026887 -0.411347
    17 -0.033420 -1.397129 -0.011257 -0.387585 0.000000 -0.000001
    18 -0.022360 -0.957436 0.018784 -0.125157 0.000000 0.000000
    19 -1.180681 -2.507217 -0.193859 -1.338376 0.249247 -0.349932
    20 -0.024967 -1.123934 0.017597 -1.138797 0.000000 0.000001
    21 -0.020057 -0.890968 0.010090 -0.444208 0.000000 0.000000
    22 0.583510 -1.197277 0.185379 -0.170596 -0.642052 -0.400567
    23 1.535927 0.010246 0.005009 -0.002964 -0.012979 -0.887970
    24 1.100771 0.004527 -0.010679 -0.012432 0.010412 -0.697598
    25 0.120153 -0.050270 -0.054489 0.287569 3.110905 1.561085
    26 1.194120 -9.457951 -11.462571 -1.677374 -5.318589 -1.098515
    27 0.096944 -8.450418 -0.009365 -0.036421 -1.226923 0.518805
    28 0.447953 -2.798986 -0.200443 -1.421012 0.011480 0.381620
    29 -0.032909 -1.480204 0.004940 -1.110076 0.000000 0.000002
    30 -0.027022 -1.076920 -0.020210 0.205198 0.000000 0.000000
    31 -0.249534 -2.846964 -0.174213 -0.964673 0.069314 0.302245
    32 0.043235 -1.683941 0.096012 -1.514629 0.002823 -0.000167
    33 0.031729 -1.160830 0.058838 0.134676 0.000642 0.008372
    34 -0.963866 -2.785145 -0.085350 -0.482992 0.119647 0.325274
    35 0.028479 -1.403067 0.006271 -1.337916 0.000000 0.000000
    36 0.021413 -0.957781 0.020046 -0.325451 0.000000 0.000000
    37 1.164475 -2.543940 -0.170330 -1.543927 0.034787 0.508555
    38 0.024032 -1.129042 0.017807 -1.093987 0.000000 0.000001
    39 0.014898 -0.883989 -0.019848 0.041331 0.000000 0.000000
    40 -0.586770 -1.264477 0.200161 0.164856 -0.089913 -2.665668
    41 1.522835 0.058681 0.016848 0.001410 0.008985 0.554174
    42 1.117947 0.048424 -0.005766 0.000584 -0.025198 0.032164
    43 -0.139399 -0.111698 0.014397 0.812758 0.207758 1.328796
    44 -6.260806 6.983652 -0.294122 1.580804 -0.005023 -0.912813
  time 6
    0 -0.349399 1.166145 0.203512 0.000000 0.000000 0.000000
    1 9.847816 3.940573 -7.900346 -1.636707 -1.277319 1.286570
    2 -0.071918 -8.498729 -0.104136 0.218491 0.102011 -0.386115
    3 2.441370 -6.426759 0.537448 0.089049 0.119162 -1.478491
    4 2.710185 -3.307132 0.000000 0.000000 0.000000 -1.570797
    5 0.000000 0.000000 0.000000 0.000000 0.000000 0.000000
    6 -0.787659 -1.985389 0.000000 0.000000 0.000000 -1.570796
    7 14.175378 -1.687388 0.000001 0.000000 0.000000 -2.947974
    8 1.025149 -0.859104 0.000000 1.570796 -1.570796 0.000000
    9 1.257180 8.762585 -0.153713 -1.570562 0.002683 -1.566807
    10 -0.488518 -2.755602 -0.228260 -1.043629 0.109301 -0.409563
    11 0.039887 -1.479790 0.029854 -1.667534 0.000000 0.000001
    12 0.028786 -1.075731 -0.023109 -0.454494 0.000000 0.000000
    13 0.250027 -2.820665 -0.238396 -0.736464 0.165690 -0.428552
    14 -0.049759 -1.680544 0.100479 -1.752455 0.000000 -0.000002
    15 -0.034142 -1.148312 0.084782 -0.832785 0.000000 0.000000
    16 0.957766 -2.746780 -0.090302 0.092438 -0.026887 -0.411347
    17 -0.033420 -1.397129 -0.011257 -0.387585 0.000000 -0.000001
    18 -0.022360 -0.957436 0.018784 -0.125157 0.000000 0.000000
    19 -1.180681 -2.507217 -0.193859 -1.338376 0.249247 -0.349932
    20 -0.024967 -1.123934 0.017597 -1.138797 0.000000 0.000001
    21 -0.020057 -0.890968 0.010090 -0.444208 0.000000 0.000000
    22 0.583510 -1.197277 0.185379 -0.170596 -0.642052 -0.400567
    23 1.535927 0.010246 0.005009 -0.002964 -0.012979 -0.887970
    24 1.100771 0.004527 -0.010679 -0.012432 0.010412 -0.697598
    25 0.120153 -0.050270 -0.054489 0.287569 3.110905 1.561085
    26 1.338655 -10.227506 -11.775080 -1.622154 -5.316470 -1.055757
    27 0.096944 -8.450418 -0.009365 -0.036421 -1.226923 0.518805
    28 0.447953 -2.798986 -0.200443 -1.421012 0.011480 0.381620
    29 -0.032909 -1.480204 0.004940 -1.110076 0.000000 0.000002
    30 -0.027022 -1.076920 -0.020210 0.205198 0.000000 0.000000
    31 -0.249534 -2.846964 -0.174213 -0.964673 0.069314 0.302245
    32 0.043235 -1.683941 0.096012 -1.514629 0.002823 -0.000167
    33 0.031729 -1.160830 0.058838 0.134676 0.000642 0.008372
    34 -0.963866 -2.785145 -0.085350 -0.482992 0.119647 0.325274
    35 0.028479 -1.403067 0.006271 -1.337916 0.000000 0.000000
    36 0.021413 -0.957781 0.020046 -0.325451 0.000000 0.000000
    37 1.164475 -2.543940 -0.170330 -1.543927 0.034787 0.508555
    38 0.024032 -1.129042 0.017807 -1.093987 0.000000 0.000001
    39 0.014898 -0.883989 -0.019848 0.041331 0.000000 0.000000
    40 -0.586770 -1.264477 0.200161 0.164856 -0.089913 -2.665668
    41 1.522835 0.058681 0.016848 0.001410 0.008985 0.554174
    42 1.117947 0.048424 -0.005766 0.000584 -0.025198 0.032164
    43 -0.139399 -0.111698 0.014397 0.812758 0.207758 1.328796
    44 -6.260806 6.983652 -0.294122 1.580804 -0.005023 -0.912813
  time 7
    0 -0.349399 1.166145 0.203512 0.000000 0.000000 0.000000
    1 9.847816 3.444464 -7.908158 -1.622128 -1.291007 1.272717
    2 -0.071918 -8.498729 -0.104136 0.218108 0.083722 -0.390190
    3 2.441370 -6.426759 0.537448 0.089049 0.119162 -1.478491
    4 2.710185 -3.307132 0.000000 0.000000 0.000000 -1.570797
    5 0.000000 0.000000 0.000000 0.000000 0.000000 0.000000
    6 -0.787659 -1.985389 0.000000 0.000000 0.000000 -1.570796
    7 14.175378 -1.687388 0.000001 0.000000 0.000000 -2.838128
    8 1.025149 -0.859104 0.000000 1.570796 -1.570796 0.000000
    9 1.257180 8.762585 -0.153713 -1.570562 0.002683 -1.566807
    10 -0.488518 -2.755602 -0.228260 -1.043629 0.109301 -0.409563
    11 0.039887 -1.479790 0.029854 -1.667534 0.000000 0.000001
    12 0.028786 -1.075731 -0.023109 -0.454494 0.000000 0.000000
    13 0.250027 -2.820665 -0.238396 -0.736464 0.165690 -0.428552
    14 -0.049759 -1.680544 0.100479 -1.752455 0.000000 -0.000002
    15 -0.034142 -1.148312 0.084782 -0.832761 0.000000 0.000000
    16 0.957766 -2.746780 -0.090302 0.092438 -0.026887 -0.411347
    17 -0.033420 -1.397129 -0.011257 -0.387585 0.000000 -0.000001
    18 -0.022360 -0.957436 0.018784 -0.125157 0.000000 0.000000
    19 -1.180681 -2.507217 -0.193859 -1.338376 0.249247 -0.349932
    20 -0.024967 -1.123934 0.017597 -1.138797 0.000000 0.000001
    21 -0.020057 -0.890968 0.010090 -0.444208 0.000000 0.000000
    22 0.583510 -1.197277 0.185379 -0.170596 -0.642052 -0.400567
    23 1.535927 0.010246 0.005009 -0.002964 -0.012979 -0.887970
    24 1.100771 0.004527 -0.010679 -0.012432 0.010412 -0.697598
    25 0.120153 -0.050270 -0.054489 0.287569 3.110905 1.561085
    26 1.444127 -10.668926 -12.079777 -1.583409 -5.315549 -1.026075
    27 0.096944 -8.450418 -0.009365 -0.036421 -1.226923 0.518805
    28 0.447953 -2.798986 -0.200443 -1.421012 0.011480 0.381620
    29 -0.032909 -1.480204 0.004940 -1.110076 0.000000 0.000002
    30 -0.027022 -1.076920 -0.020210 0.205198 0.000000 0.000000
    31 -0.249534 -2.846964 -0.174213 -0.964673 0.069314 0.302245
    32 0.043235 -1.683941 0.096012 -1.514629 0.002823 -0.000167
    33 0.031729 -1.160830 0.058838 0.134676 0.000642 0.008372
    34 -0.963866 -2.785145 -0.085350 -0.482992 0.119647 0.325274
    35 0.028479 -1.403067 0.006271 -1.337916 0.000000 0.000000
    36 0.021413 -0.957781 0.020046 -0.325451 0.000000 0.000000
    37 1.164475 -2.543940 -0.170330 -1.543927 0.034787 0.508555
    38 0.024032 -1.129042 0.017807 -1.093987 0.000000 0.000001
    39 0.014898 -0.883989 -0.019848 0.041331 0.000000 0.000000
    40 -0.586770 -1.264477 0.200161 0.164856 -0.089913 -2.665668
    41 1.522835 0.058681 0.016848 0.001410 0.008985 0.554174
    42 1.117947 0.048424 -0.005766 0.000584 -0.025198 0.032164
    43 -0.139399 -0.111698 0.014397 0.812758 0.207758 1.328796
    44 -6.260806 6.983652 -0.294122 1.580804 -0.005023 -0.912813
  time 8
    0 -0.349399 1.166145 0.203512 0.000000 0.000000 0.000000
    1 9.847816 3.073359 -7.974567 -1.607453 -1.303571 1.258577
    2 -0.071918 -8.498729 -0.104136 0.217940 0.074051 -0.392335
    3 2.441370 -6.426759 0.537448 0.089049 0.119162 -1.478491
    4 2.710185 -3.307132 0.000000 0.000000 0.000000 -1.570797
    5 0.000000 0.000000 0.000000 0.000000 0.000000 0.000000
    6 -0.787659 -1.985389 0.000000 0.000000 0.000000 -1.570796
    7 14.175378 -1.687388 0.000001 0.000000 0.000000 -2.660319
    8 1.025149 -0.859104 0.000000 1.570796 -1.570796 0.000000
    9 1.257180 8.762585 -0.153713 -1.570562 0.002683 -1.566807
    10 -0.488518 -2.755602 -0.228260 -1.043629 0.109301 -0.409563
    11 0.039887 -1.479790 0.029854 -1.667534 0.000000 0.000001
    12 0.028786 -1.075731 -0.023109 -0.454494 0.000000 0.000000
    13 0.250027 -2.820665 -0.238396 -0.736464 0.165690 -0.428552
    14 -0.049759 -1.680544 0.100479 -1.752455 0.000000 -0.000002
    15 -0.034142 -1.148312 0.084782 -0.832761 0.000000 0.000000
    16 0.957766 -2.746780 -0.090302 0.092438 -0.026887 -0.411347
    17 -0.033420 -1.397129 -0.011257 -0.387585 0.000000 -0.000001
    18 -0.022360 -0.957436 0.018784 -0.125157 0.000000 0.000000
    19 -1.180681 -2.507217 -0.193859 -1.338376 0.249247 -0.349932
    20 -0.024967 -1.123934 0.017597 -1.138797 0.000000 0.000001
    21 -0.020057 -0.890968 0.010090 -0.444208 0.000000 0.000000
    22 0.583510 -1.197277 0.185379 -0.170596 -0.642052 -0.400567
    23 1.535927 0.010246 0.005009 -0.002964 -0.012979 -0.887970
    24 1.100771 0.004527 -0.010679 -0.012432 0.010412 -0.697598
    25 0.120153 -0.050270 -0.054489 0.287569 3.110905 1.561085
    26 1.498816 -10.985342 -12.376661 -1.557639 -5.310483 -1.006128
    27 0.096944 -8.450418 -0.009365 -0.036421 -1.226923 0.518805
    28 0.447953 -2.798986 -0.200443 -1.421012 0.011480 0.381620
    29 -0.032909 -1.480204 0.004940 -1.110076 0.000000 0.000002
    30 -0.027022 -1.076920 -0.020210 0.205198 0.000000 0.000000
    31 -0.249534 -2.846964 -0.174213 -0.964673 0.069314 0.302245
    32 0.043235 -1.683941 0.096012 -1.514629 0.002823 -0.000167
    33 0.031729 -1.160830 0.058838 0.134676 0.000642 0.008372
    34 -0.963866 -2.785145 -0.085350 -0.482992 0.119647 0.325274
    35 0.028479 -1.403067 0.006271 -1.337916 0.000000 0.000000
    36 0.021413 -0.957781 0.020046 -0.325451 0.000000 0.000000
    37 1.164475 -2.543940 -0.170330 -1.543927 0.034787 0.508555
    38 0.024032 -1.129042 0.017807 -1.093987 0.000000 0.000001
    39 0.014898 -0.883989 -0.019848 0.041331 0.000000 0.000000
    40 -0.586770 -1.264477 0.200161 0.164856 -0.089913 -2.665668
    41 1.522835 0.058681 0.016848 0.001410 0.008985 0.554174
    42 1.117947 0.048424 -0.005766 0.000584 -0.025198 0.032164
    43 -0.139399 -0.111698 0.014397 0.812758 0.207758 1.328796
    44 -6.260806 6.983652 -0.294122 1.580804 -0.005023 -0.912813
  time 9
    0 -0.349399 1.166145 0.203512 0.000000 0.000000 0.000000
    1 9.847816 2.811632 -8.072226 -1.595446 -1.313047 1.246921
    2 -0.071918 -8.498729 -0.104136 0.217844 0.068298 -0.393618
    3 2.441370 -6.426759 0.537448 0.089049 0.119162 -1.478491
    4 2.710185 -3.307132 0.000000 0.000000 0.000000 -1.570797
    5 0.000000 0.000000 0.000000 0.000000 0.000000 0.000000
    6 -0.787659 -1.985389 0.000000 0.000000 0.000000 -1.570796
    7 14.175378 -1.687388 0.000001 0.000000 0.000000 -2.456912
    8 1.025149 -0.859104 0.000000 1.570796 -1.570796 0.000000
    9 1.257180 8.762585 -0.153713 -1.570562 0.002683 -1.566807
    10 -0.488518 -2.755602 -0.228260 -1.043629 0.109301 -0.409563
    11 0.039887 -1.479790 0.029854 -1.667534 0.000000 0.000001
    12 0.028786 -1.075731 -0.023109 -0.454494 0.000000 0.000000
    13 0.250027 -2.820665 -0.238396 -0.736464 0.165690 -0.428552
    14 -0.049759 -1.680544 0.100479 -1.752455 0.000000 -0.000002
    15 -0.034142 -1.148312 0.084782 -0.832761 0.000000 0.000000
    16 0.957766 -2.746780 -0.090302 0.092438 -0.026887 -0.411347
    17 -0.033420 -1.397129 -0.011257 -0.387585 0.000000 -0.000001
    18 -0.022360 -0.957436 0.018784 -0.125157 0.000000 0.000000
    19 -1.180681 -2.507217 -0.193859 -1.338376 0.249247 -0.349932
    20 -0.024967 -1.123934 0.017597 -1.138797 0.000000 0.000001
    21 -0.020057 -0.890968 0.010090 -0.444208 0.000000 0.000000
    22 0.583510 -1.197277 0.185379 -0.170596 -0.642052 -0.400567
    23 1.535927 0.010246 0.005009 -0.002964 -0.012979 -0.887970
    24 1.100771 0.004527 -0.010679 -0.012432 0.010412 -0.697598
    25 0.120153 -0.050270 -0.054489 0.287569 3.110905 1.561085
    26 1.530067 -11.208005 -12.638388 -1.540061 -5.305878 -0.992384
    27 0.096944 -8.450418 -0.009365 -0.036421 -1.226923 0.518805
    28 0.447953 -2.798986 -0.200443 -1.421012 0.011480 0.381620
    29 -0.032909 -1.480204 0.004940 -1.110076 0.000000 0.000002
    30 -0.027022 -1.076920 -0.020210 0.205198 0.000000 0.000000
    31 -0.249534 -2.846964 -0.174213 -0.964673 0.069314 0.302245
    32 0.043235 -1.683941 0.096012 -1.514629 0.002823 -0.000167
    33 0.031729 -1.160830 0.058838 0.134676 0.000642 0.008372
    34 -0.963866 -2.785145 -0.085350 -0.482992 0.119647 0.325274
    35 0.028479 -1.403067 0.006271 -1.337916 0.000000 0.000000
    36 0.021413 -0.957781 0.020046 -0.325451 0.000000 0.000000
    37 1.164475 -2.543940 -0.170330 -1.543927 0.034787 0.508555
    38 0.024032 -1.129042 0.017807 -1.093987 0.000000 0.000001
    39 0.014898 -0.883989 -0.019848 0.041331 0.000000 0.000000
    40 -0.586770 -1.264477 0.200161 0.164856 -0.089913 -2.665668
    41 1.522835 0.058681 0.016848 0.001410 0.008985 0.554174
    42 1.117947 0.048424 -0.005766 0.000584 -0.025198 0.032164
    43 -0.139399 -0.111698 0.014397 0.812758 0.207758 1.328796
    44 -6.260806 6.983652 -0.294122 1.580804 -0.005023 -0.912813
  time 10
    0 -0.349399 1.166145 0.203512 0.000000 0.000000 0.000000
    1 9.847816 2.639752 -8.173792 -1.589728 -1.317368 1.241379
    2 -0.071918 -8.498729 -0.104136 0.217820 0.065973 -0.394133
    3 2.441370 -6.426759 0.537448 0.089049 0.119162 -1.478491
    4 2.710185 -3.307132 0.000000 0.000000 0.000000 -1.570797
    5 0.000000 0.000000 0.000000 0.000000 0.000000 0.000000
    6 -0.787659 -1.985389 0.000000 0.000000 0.000000 -1.570796
    7 14.175378 -1.687388 0.000001 0.000000 0.000000 -2.122583
    8 1.025149 -0.859104 0.000000 1.570796 -1.570796 0.000000
    9 1.257180 8.762585 -0.153713 -1.570562 0.002683 -1.566807
    10 -0.488518 -2.755602 -0.228260 -1.043629 0.109301 -0.409563
    11 0.039887 -1.479790 0.029854 -1.667534 0.000000 0.000001
    12 0.028786 -1.075731 -0.023109 -0.454494 0.000000 0.000000
    13 0.250027 -2.820665 -0.238396 -0.736464 0.165690 -0.428552
    14 -0.049759 -1.680544 0.100479 -1.752455 0.000000 -0.000002
    15 -0.034142 -1.148312 0.084782 -0.832785 0.000000 0.000000
    16 0.957766 -2.746780 -0.090302 0.092438 -0.026887 -0.411347
    17 -0.033420 -1.397129 -0.011257 -0.387585 0.000000 -0.000001
    18 -0.022360 -0.957436 0.018784 -0.125157 0.000000 0.000000
    19 -1.180681 -2.507217 -0.193859 -1.338376 0.249247 -0.349932
    20 -0.024967 -1.123934 0.017597 -1.138797 0.000000 0.000001
    21 -0.020057 -0.890968 0.010090 -0.444208 0.000000 0.000000
    22 0.583510 -1.197277 0.185379 -0.170596 -0.642052 -0.400567
    23 1.535927 0.010246 0.005009 -0.002964 -0.012979 -0.887970
    24 1.100771 0.004527 -0.010679 -0.012432 0.010412 -0.697598
    25 0.120153 -0.050270 -0.054489 0.287569 3.110905 1.561085
    26 1.545693 -11.356447 -12.810268 -1.532330 -5.303575 -0.986371
    27 0.096944 -8.450418 -0.009365 -0.036421 -1.226923 0.518805
    28 0.447953 -2.798986 -0.200443 -1.421012 0.011480 0.381620
    29 -0.032909 -1.480204 0.004940 -1.110076 0.000000 0.000002
    30 -0.027022 -1.076920 -0.020210 0.205198 0.000000 0.000000
    31 -0.249534 -2.846964 -0.174213 -0.964673 0.069314 0.302245
    32 0.043235 -1.683941 0.096012 -1.514629 0.002823 -0.000167
    33 0.031729 -1.160830 0.058838 0.134676 0.000642 0.008372
    34 -0.963866 -2.785145 -0.085350 -0.482992 0.119647 0.325274
    35 0.028479 -1.403067 0.006271 -1.337916 0.000000 0.000000
    36 0.021413 -0.957781 0.020046 -0.325451 0.000000 0.000000
    37 1.164475 -2.543940 -0.170330 -1.543927 0.034787 0.508555
    38 0.024032 -1.129042 0.017807 -1.093987 0.000000 0.000001
    39 0.014898 -0.883989 -0.019848 0.041331 0.000000 0.000000
    40 -0.586770 -1.264477 0.200161 0.164856 -0.089913 -2.665668
    41 1.522835 0.058681 0.016848 0.001410 0.008985 0.554174
    42 1.117947 0.048424 -0.005766 0.000584 -0.025198 0.032164
    43 -0.139399 -0.111698 0.014397 0.812758 0.207758 1.328796
    44 -6.260806 6.983652 -0.294122 1.580804 -0.005023 -0.912813
  time 11
    0 -0.349399 1.166145 0.203512 0.000000 0.000000 0.000000
    1 9.847816 2.549906 -8.279263 -1.590681 -1.316642 1.242335
    2 -0.071918 -8.498729 -0.104136 0.217820 0.066572 -0.394001
    3 2.441370 -6.426759 0.537448 0.089049 0.119162 -1.478491
    4 2.710185 -3.307132 0.000000 0.000000 0.000000 -1.570797
    5 0.000000 0.000000 0.000000 0.000000 0.000000 0.000000
    6 -0.787659 -1.985389 0.000000 0.000000 0.000000 -1.570796
    7 14.175378 -1.687388 0.000001 0.000000 0.000000 -1.643974
    8 1.025149 -0.859104 0.000000 1.570796 -1.570796 0.000000
    9 1.257180 8.762585 -0.153713 -1.570562 0.002683 -1.566807
    10 -0.488518 -2.755602 -0.228260 -1.043629 0.109301 -0.409563
    11 0.039887 -1.479790 0.029854 -1.667534 0.000000 0.000001
    12 0.028786 -1.075731 -0.023109 -0.454494 0.000000 0.000000
    13 0.250027 -2.820665 -0.238396 -0.736464 0.165690 -0.428552
    14 -0.049759 -1.680544 0.100479 -1.752455 0.000000 -0.000002
    15 -0.034142 -1.148312 0.084782 -0.832761 0.000000 0.000000
    16 0.957766 -2.746780 -0.090302 0.092438 -0.026887 -0.411347
    17 -0.033420 -1.397129 -0.011257 -0.387585 0.000000 -0.000001
    18 -0.022360 -0.957436 0.018784 -0.125157 0.000000 0.000000
    19 -1.180681 -2.507217 -0.193859 -1.338376 0.249247 -0.349932
    20 -0.024967 -1.123934 0.017597 -1.138797 0.000000 0.000001
    21 -0.020057 -0.890968 0.010090 -0.444208 0.000000 0.000000
    22 0.583510 -1.197277 0.185379 -0.170596 -0.642052 -0.400567
    23 1.535927 0.010246 0.005009 -0.002964 -0.012979 -0.887970
    24 1.100771 0.004527 -0.010679 -0.012432 0.010412 -0.697598
    25 0.120153 -0.050270 -0.054489 0.287569 3.110905 1.561085
    26 1.541786 -11.450200 -12.904021 -1.533987 -5.303852 -0.987612
    27 0.096944 -8.450418 -0.009365 -0.036421 -1.226923 0.518805
    28 0.447953 -2.798986 -0.200443 -1.421012 0.011480 0.381620
    29 -0.032909 -1.480204 0.004940 -1.110076 0.000000 0.000002
    30 -0.027022 -1.076920 -0.020210 0.205198 0.000000 0.000000
    31 -0.249534 -2.846964 -0.174213 -0.964673 0.069314 0.302245
    32 0.043235 -1.683941 0.096012 -1.514629 0.002823 -0.000167
    33 0.031729 -1.160830 0.058838 0.134676 0.000642 0.008372
    34 -0.963866 -2.785145 -0.085350 -0.482992 0.119647 0.325274
    35 0.028479 -1.403067 0.006271 -1.337916 0.000000 0.000000
    36 0.021413 -0.957781 0.020046 -0.325451 0.000000 0.000000
    37 1.164475 -2.543940 -0.170330 -1.543927 0.034787 0.508555
    38 0.024032 -1.129042 0.017807 -1.093987 0.000000 0.000001
    39 0.014898 -0.883989 -0.019848 0.041331 0.000000 0.000000
    40 -0.586770 -1.264477 0.200161 0.164856 -0.089913 -2.665668
    41 1.522835 0.058681 0.016848 0.001410 0.008985 0.554174
    42 1.117947 0.048424 -0.005766 0.000584 -0.025198 0.032164
    43 -0.139399 -0.111698 0.014397 0.812758 0.207758 1.328796
    44 -6.260806 6.983652 -0.294122 1.580804 -0.005023 -0.912813
  time 12
    0 -0.349399 1.166145 0.203512 0.000000 0.000000 0.000000
    1 9.847816 2.522561 -8.400361 -1.595637 -1.312902 1.247112
    2 -0.071918 -8.498729 -0.104136 0.217868 0.069616 -0.393318
    3 2.441370 -6.426759 0.537448 0.089049 0.119162 -1.478491
    4 2.710185 -3.307132 0.000000 0.000000 0.000000 -1.570797
    5 0.000000 0.000000 0.000000 0.000000 0.000000 0.000000
    6 -0.787659 -1.985389 0.000000 0.000000 0.000000 -1.570796
    7 14.175378 -1.687388 0.000001 0.000000 0.000000 -1.201555
    8 1.025149 -0.859104 0.000000 1.570796 -1.570796 0.000000
    9 1.257180 8.762585 -0.153713 -1.570562 0.002683 -1.566807
    10 -0.488518 -2.755602 -0.228260 -1.043629 0.109301 -0.409563
    11 0.039887 -1.479790 0.029854 -1.667534 0.000000 0.000001
    12 0.028786 -1.075731 -0.023109 -0.454494 0.000000 0.000000
    13 0.250027 -2.820665 -0.238396 -0.736464 0.165690 -0.428552
    14 -0.049759 -1.680544 0.100479 -1.752455 0.000000 -0.000002
    15 -0.034142 -1.148312 0.084782 -0.832761 0.000000 0.000000
    16 0.957766 -2.746780 -0.090302 0.092438 -0.026887 -0.411347
    17 -0.033420 -1.397129 -0.011257 -0.387585 0.000000 -0.000001
    18 -0.022360 -0.957436 0.018784 -0.125157 0.000000 0.000000
    19 -1.180681 -2.507217 -0.193859 -1.338376 0.249247 -0.349932
    20 -0.024967 -1.123934 0.017597 -1.138797 0.000000 0.000001
    21 -0.020057 -0.890968 0.010090 -0.444208 0.000000 0.000000
    22 0.583510 -1.197277 0.185379 -0.170596 -0.642052 -0.400567
    23 1.535927 0.010246 0.005009 -0.002964 -0.012979 -0.887970
    24 1.100771 0.004527 -0.010679 -0.012432 0.010412 -0.697598
    25 0.120153 -0.050270 -0.054489 0.287569 3.110905 1.561085
    26 1.522255 -11.497076 -12.958710 -1.542086 -5.305141 -0.993816
    27 0.096944 -8.450418 -0.009365 -0.036421 -1.226923 0.518805
    28 0.447953 -2.798986 -0.200443 -1.421012 0.011480 0.381620
    29 -0.032909 -1.480204 0.004940 -1.110076 0.000000 0.000002
    30 -0.027022 -1.076920 -0.020210 0.205198 0.000000 0.000000
    31 -0.249534 -2.846964 -0.174213 -0.964673 0.069314 0.302245
    32 0.043235 -1.683941 0.096012 -1.514629 0.002823 -0.000167
    33 0.031729 -1.160830 0.058838 0.134676 0.000642 0.008372
    34 -0.963866 -2.785145 -0.085350 -0.482992 0.119647 0.325274
    35 0.028479 -1.403067 0.006271 -1.337916 0.000000 0.000000
    36 0.021413 -0.957781 0.020046 -0.325451 0.000000 0.000000
    37 1.164475 -2.543940 -0.170330 -1.543927 0.034787 0.508555
    38 0.024032 -1.129042 0.017807 -1.093987 0.000000 0.000001
    39 0.014898 -0.883989 -0.019848 0.041331 0.000000 0.000000
    40 -0.586770 -1.264477 0.200161 0.164856 -0.089913 -2.665668
    41 1.522835 0.058681 0.016848 0.001410 0.008985 0.554174
    42 1.117947 0.048424 -0.005766 0.000584 -0.025198 0.032164
    43 -0.139399 -0.111698 0.014397 0.812758 0.207758 1.328796
    44 -6.260806 6.983652 -0.294122 1.580804 -0.005023 -0.912813
  time 13
    0 -0.349399 1.166145 0.203512 0.000000 0.000000 0.000000
    1 9.847816 2.538186 -8.533177 -1.602974 -1.307165 1.254277
    2 -0.071918 -8.498729 -0.104136 0.217988 0.077238 -0.391628
    3 2.441370 -6.426759 0.537448 0.089049 0.119162 -1.478491
    4 2.710185 -3.307132 0.000000 0.000000 0.000000 -1.570797
    5 0.000000 0.000000 0.000000 0.000000 0.000000 0.000000
    6 -0.787659 -1.985389 0.000000 0.000000 0.000000 -1.570796
    7 14.175378 -1.687388 0.000001 0.000000 0.000000 -0.975528
    8 1.025149 -0.859104 0.000000 1.570796 -1.570796 0.000000
    9 1.257180 8.762585 -0.153713 -1.570562 0.002683 -1.566807
    10 -0.488518 -2.755602 -0.228260 -1.043629 0.109301 -0.409563
    11 0.039887 -1.479790 0.029854 -1.667534 0.000000 0.000001
    12 0.028786 -1.075731 -0.023109 -0.454494 0.000000 0.000000
    13 0.250027 -2.820665 -0.238396 -0.736464 0.165690 -0.428552
    14 -0.049759 -1.680544 0.100479 -1.752455 0.000000 -0.000002
    15 -0.034142 -1.148312 0.084782 -0.832761 0.000000 0.000000
    16 0.957766 -2.746780 -0.090302 0.092438 -0.026887 -0.411347
    17 -0.033420 -1.397129 -0.011257 -0.387585 0.000000 -0.000001
    18 -0.022360 -0.957436 0.018784 -0.125157 0.000000 0.000000
    19 -1.180681 -2.507217 -0.193859 -1.338376 0.249247 -0.349932
    20 -0.024967 -1.123934 0.017597 -1.138797 0.000000 0.000001
    21 -0.020057 -0.890968 0.010090 -0.444208 0.000000 0.000000
    22 0.583510 -1.197277 0.185379 -0.170596 -0.642052 -0.400567
    23 1.535927 0.010246 0.005009 -0.002964 -0.012979 -0.887970
    24 1.100771 0.004527 -0.010679 -0.012432 0.010412 -0.697598
    25 0.120153 -0.050270 -0.054489 0.287569 3.110905 1.561085
    26 1.479285 -11.504889 -12.966523 -1.558468 -5.305233 -1.006319
    27 0.096944 -8.450418 -0.009365 -0.036421 -1.226923 0.518805
    28 0.447953 -2.798986 -0.200443 -1.421012 0.011480 0.381620
    29 -0.032909 -1.480204 0.004940 -1.110076 0.000000 0.000002
    30 -0.027022 -1.076920 -0.020210 0.205198 0.000000 0.000000
    31 -0.249534 -2.846964 -0.174213 -0.964673 0.069314 0.302245
    32 0.043235 -1.683941 0.096012 -1.514629 0.002823 -0.000167
    33 0.031729 -1.160830 0.058838 0.134676 0.000642 0.008372
    34 -0.963866 -2.785145 -0.085350 -0.482992 0.119647 0.325274
    35 0.028479 -1.403067 0.006271 -1.337916 0.000000 0.000000
    36 0.021413 -0.957781 0.020046 -0.325451 0.000000 0.000000
    37 1.164475 -2.543940 -0.170330 -1.543927 0.034787 0.508555
    38 0.024032 -1.129042 0.017807 -1.093987 0.000000 0.000001
    39 0.014898 -0.883989 -0.019848 0.041331 0.000000 0.000000
    40 -0.586770 -1.264477 0.200161 0.164856 -0.089913 -2.665668
    41 1.522835 0.058681 0.016848 0.001410 0.008985 0.554174
    42 1.117947 0.048424 -0.005766 0.000584 -0.025198 0.032164
    43 -0.139399 -0.111698 0.014397 0.812758 0.207758 1.328796
    44 -6.260806 6.983652 -0.294122 1.580804 -0.005023 -0.912813
  time 14
    0 -0.349399 1.166145 0.203512 0.000000 0.000000 0.000000
    1 9.847816 2.581156 -8.654275 -1.611169 -1.300521 1.262112
    2 -0.071918 -8.498729 -0.104136 0.218228 0.089750 -0.388848
    3 2.441370 -6.426759 0.537448 0.089049 0.119162 -1.478491
    4 2.710185 -3.307132 0.000000 0.000000 0.000000 -1.570797
    5 0.000000 0.000000 0.000000 0.000000 0.000000 0.000000
    6 -0.787659 -1.985389 0.000000 0.000000 0.000000 -1.570796
    7 14.175378 -1.687388 0.000001 0.000000 0.000000 -1.031889
    8 1.025149 -0.859104 0.000000 1.570796 -1.570796 0.000000
    9 1.257180 8.762585 -0.153713 -1.570562 0.002683 -1.566807
    10 -0.488518 -2.755602 -0.228260 -1.043629 0.109301 -0.409563
    11 0.039887 -1.479790 0.029854 -1.667534 0.000000 0.000001
    12 0.028786 -1.075731 -0.023109 -0.454494 0.000000 0.000000
    13 0.250027 -2.820665 -0.238396 -0.736464 0.165690 -0.428552
    14 -0.049759 -1.680544 0.100479 -1.752455 0.000000 -0.000002
    15 -0.034142 -1.148312 0.084782 -0.832761 0.000000 0.000000
    16 0.957766 -2.746780 -0.090302 0.092438 -0.026887 -0.411347
    17 -0.033420 -1.397129 -0.011257 -0.387585 0.000000 -0.000001
    18 -0.022360 -0.957436 0.018784 -0.125157 0.000000 0.000000
    19 -1.180681 -2.507217 -0.193859 -1.338376 0.249247 -0.349932
    20 -0.024967 -1.123934 0.017597 -1.138797 0.000000 0.000001
    21 -0.020057 -0.890968 0.010090 -0.444208 0.000000 0.000000
    22 0.583510 -1.197277 0.185379 -0.170596 -0.642052 -0.400567
    23 1.535927 0.010246 0.005009 -0.002964 -0.012979 -0.887970
    24 1.100771 0.004527 -0.010679 -0.012432 0.010412 -0.697598
    25 0.120153 -0.050270 -0.054489 0.287569 3.110905 1.561085
    26 1.408970 -11.493170 -12.927459 -1.582764 -5.303207 -1.024739
    27 0.096944 -8.450418 -0.009365 -0.036421 -1.226923 0.518805
    28 0.447953 -2.798986 -0.200443 -1.421012 0.011480 0.381620
    29 -0.032909 -1.480204 0.004940 -1.110076 0.000000 0.000002
    30 -0.027022 -1.076920 -0.020210 0.205198 0.000000 0.000000
    31 -0.249534 -2.846964 -0.174213 -0.964673 0.069314 0.302245
    32 0.043235 -1.683941 0.096012 -1.514629 0.002823 -0.000167
    33 0.031729 -1.160830 0.058838 0.134676 0.000642 0.008372
    34 -0.963866 -2.785145 -0.085350 -0.482992 0.119647 0.325274
    35 0.028479 -1.403067 0.006271 -1.337916 0.000000 0.000000
    36 0.021413 -0.957781 0.020046 -0.325451 0.000000 0.000000
    37 1.164475 -2.543940 -0.170330 -1.543927 0.034787 0.508555
    38 0.024032 -1.129042 0.017807 -1.093987 0.000000 0.000001
    39 0.014898 -0.883989 -0.019848 0.041331 0.000000 0.000000
    40 -0.586770 -1.264477 0.200161 0.164856 -0.089913 -2.665668
    41 1.522835 0.058681 0.016848 0.001410 0.008985 0.554174
    42 1.117947 0.048424 -0.005766 0.000584 -0.025198 0.032164
    43 -0.139399 -0.111698 0.014397 0.812758 0.207758 1.328796
    44 -6.260806 6.983652 -0.294122 1.580804 -0.005023 -0.912813
  time 15
    0 -0.349399 1.166145 0.203512 0.000000 0.000000 0.000000
    1 9.847816 2.631939 -8.755841 -1.618888 -1.293912 1.269564
    2 -0.071918 -8.498729 -0.104136 0.218527 0.103976 -0.385672
    3 2.441370 -6.426759 0.537448 0.089049 0.119162 -1.478491
    4 2.710185 -3.307132 0.000000 0.000000 0.000000 -1.570797
    5 0.000000 0.000000 0.000000 0.000000 0.000000 0.000000
    6 -0.787659 -1.985389 0.000000 0.000000 0.000000 -1.570796
    7 14.175378 -1.687388 0.000001 0.000000 0.000000 -1.252167
    8 1.025149 -0.859104 0.000000 1.570796 -1.570796 0.000000
    9 1.257180 8.762585 -0.153713 -1.570562 0.002683 -1.566807
    10 -0.488518 -2.755602 -0.228260 -1.043629 0.109301 -0.409563
    11 0.039887 -1.479790 0.029854 -1.667534 0.000000 0.000001
    12 0.028786 -1.075731 -0.023109 -0.454494 0.000000 0.000000
    13 0.250027 -2.820665 -0.238396 -0.736464 0.165690 -0.428552
    14 -0.049759 -1.680544 0.100479 -1.752455 0.000000 -0.000002
    15 -0.034142 -1.148312 0.084782 -0.832761 0.000000 0.000000
    16 0.957766 -2.746780 -0.090302 0.092438 -0.026887 -0.411347
    17 -0.033420 -1.397129 -0.011257 -0.387585 0.000000 -0.000001
    18 -0.022360 -0.957436 0.018784 -0.125157 0.000000 0.000000
    19 -1.180681 -2.507217 -0.193859 -1.338376 0.249247 -0.349932
    20 -0.024967 -1.123934 0.017597 -1.138797 0.000000 0.000001
    21 -0.020057 -0.890968 0.010090 -0.444208 0.000000 0.000000
    22 0.583510 -1.197277 0.185379 -0.170596 -0.642052 -0.400567
    23 1.535927 0.010246 0.005009 -0.002964 -0.012979 -0.887970
    24 1.100771 0.004527 -0.010679 -0.012432 0.010412 -0.697598
    25 0.120153 -0.050270 -0.054489 0.287569 3.110905 1.561085
    26 1.326936 -11.473638 -12.864957 -1.609546 -5.300260 -1.045163
    27 0.096944 -8.450418 -0.009365 -0.036421 -1.226923 0.518805
    28 0.447953 -2.798986 -0.200443 -1.421012 0.011480 0.381620
    29 -0.032909 -1.480204 0.004940 -1.110076 0.000000 0.000002
    30 -0.027022 -1.076920 -0.020210 0.205198 0.000000 0.000000
    31 -0.249534 -2.846964 -0.174213 -0.964673 0.069314 0.302245
    32 0.043235 -1.683941 0.096012 -1.514629 0.002823 -0.000167
    33 0.031729 -1.160830 0.058838 0.134676 0.000642 0.008372
    34 -0.963866 -2.785145 -0.085350 -0.482992 0.119647 0.325274
    35 0.028479 -1.403067 0.006271 -1.337916 0.000000 0.000000
    36 0.021413 -0.957781 0.020046 -0.325451 0.000000 0.000000
    37 1.164475 -2.543940 -0.170330 -1.543927 0.034787 0.508555
    38 0.024032 -1.129042 0.017807 -1.093987 0.000000 0.000001
    39 0.014898 -0.883989 -0.019848 0.041331 0.000000 0.000000
    40 -0.586770 -1.264477 0.200161 0.164856 -0.089913 -2.665668
    41 1.522835 0.058681 0.016848 0.001410 0.008985 0.554174
    42 1.117947 0.048424 -0.005766 0.000584 -0.025198 0.032164
    43 -0.139399 -0.111698 0.014397 0.812758 0.207758 1.328796
    44 -6.260806 6.983652 -0.294122 1.580804 -0.005023 -0.912813
  time 16
    0 -0.349399 1.166145 0.203512 0.000000 0.000000 0.000000
    1 9.847816 2.667097 -8.830062 -1.624986 -1.288466 1.275392
    2 -0.071918 -8.498729 -0.104136 0.218839 0.116692 -0.382831
    3 2.441370 -6.426759 0.537448 0.089049 0.119162 -1.478491
    4 2.710185 -3.307132 0.000000 0.000000 0.000000 -1.570797
    5 0.000000 0.000000 0.000000 0.000000 0.000000 0.000000
    6 -0.787659 -1.985389 0.000000 0.000000 0.000000 -1.570796
    7 14.175378 -1.687388 0.000001 0.000000 0.000000 -1.540620
    8 1.025149 -0.859104 0.000000 1.570796 -1.570796 0.000000
    9 1.257180 8.762585 -0.153713 -1.570562 0.002683 -1.566807
    10 -0.488518 -2.755602 -0.228260 -1.043629 0.109301 -0.409563
    11 0.039887 -1.479790 0.029854 -1.667534 0.000000 0.000001
    12 0.028786 -1.075731 -0.023109 -0.454494 0.000000 0.000000
    13 0.250027 -2.820665 -0.238396 -0.736464 0.165690 -0.428552
    14 -0.049759 -1.680544 0.100479 -1.752455 0.000000 -0.000002
    15 -0.034142 -1.148312 0.084782 -0.832761 0.000000 0.000000
    16 0.957766 -2.746780 -0.090302 0.092438 -0.026887 -0.411347
    17 -0.033420 -1.397129 -0.011257 -0.387585 0.000000 -0.000001
    18 -0.022360 -0.957436 0.018784 -0.125157 0.000000 0.000000
    19 -1.180681 -2.507217 -0.193859 -1.338376 0.249247 -0.349932
    20 -0.024967 -1.123934 0.017597 -1.138797 0.000000 0.000001
    21 -0.020057 -0.890968 0.010090 -0.444208 0.000000 0.000000
    22 0.583510 -1.197277 0.185379 -0.170596 -0.642052 -0.400567
    23 1.535927 0.010246 0.005009 -0.002964 -0.012979 -0.887970
    24 1.100771 0.004527 -0.010679 -0.012432 0.010412 -0.697598
    25 0.120153 -0.050270 -0.054489 0.287569 3.110905 1.561085
    26 1.256621 -11.458012 -12.790736 -1.633382 -5.297497 -1.063393
    27 0.096944 -8.450418 -0.009365 -0.036421 -1.226923 0.518805
    28 0.447953 -2.798986 -0.200443 -1.421012 0.011480 0.381620
    29 -0.032909 -1.480204 0.004940 -1.110076 0.000000 0.000002
    30 -0.027022 -1.076920 -0.020210 0.205198 0.000000 0.000000
    31 -0.249534 -2.846964 -0.174213 -0.964673 0.069314 0.302245
    32 0.043235 -1.683941 0.096012 -1.514629 0.002823 -0.000167
    33 0.031729 -1.160830 0.058838 0.134676 0.000642 0.008372
    34 -0.963866 -2.785145 -0.085350 -0.482992 0.119647 0.325274
    35 0.028479 -1.403067 0.006271 -1.337916 0.000000 0.000000
    36 0.021413 -0.957781 0.020046 -0.325451 0.000000 0.000000
    37 1.164475 -2.543940 -0.170330 -1.543927 0.034787 0.508555
    38 0.024032 -1.129042 0.017807 -1.093987 0.000000 0.000001
    39 0.014898 -0.883989 -0.019848 0.041331 0.000000 0.000000
    40 -0.586770 -1.264477 0.200161 0.164856 -0.089913 -2.665668
    41 1.522835 0.058681 0.016848 0.001410 0.008985 0.554174
    42 1.117947 0.048424 -0.005766 0.000584 -0.025198 0.032164
    43 -0.139399 -0.111698 0.014397 0.812758 0.207758 1.328796
    44 -6.260806 6.983652 -0.294122 1.580804 -0.005023 -0.912813
  time 17
    0 -0.349399 1.166145 0.203512 0.000000 0.000000 0.000000
    1 9.847816 2.698348 -8.865219 -1.630037 -1.283709 1.280264
    2 -0.071918 -8.498729 -0.104136 0.219055 0.124697 -0.381034
    3 2.441370 -6.426759 0.537448 0.089049 0.119162 -1.478491
    4 2.710185 -3.307132 0.000000 0.000000 0.000000 -1.570797
    5 0.000000 0.000000 0.000000 0.000000 0.000000 0.000000
    6 -0.787659 -1.985389 0.000000 0.000000 0.000000 -1.570796
    7 14.175378 -1.687388 0.000001 0.000000 0.000000 -1.801239
    8 1.025149 -0.859104 0.000000 1.570796 -1.570796 0.000000
    9 1.257180 8.762585 -0.153713 -1.570562 0.002683 -1.566807
    10 -0.488518 -2.755602 -0.228260 -1.043629 0.109301 -0.409563
    11 0.039887 -1.479790 0.029854 -1.667534 0.000000 0.000001
    12 0.028786 -1.075731 -0.023109 -0.454494 0.000000 0.000000
    13 0.250027 -2.820665 -0.238396 -0.736464 0.165690 -0.428552
    14 -0.049759 -1.680544 0.100479 -1.752455 0.000000 -0.000002
    15 -0.034142 -1.148312 0.084782 -0.832761 0.000000 0.000000
    16 0.957766 -2.746780 -0.090302 0.092438 -0.026887 -0.411347
    17 -0.033420 -1.397129 -0.011257 -0.387585 0.000000 -0.000001
    18 -0.022360 -0.957436 0.018784 -0.125157 0.000000 0.000000
    19 -1.180681 -2.507217 -0.193859 -1.338376 0.249247 -0.349932
    20 -0.024967 -1.123934 0.017597 -1.138797 0.000000 0.000001
    21 -0.020057 -0.890968 0.010090 -0.444208 0.000000 0.000000
    22 0.583510 -1.197277 0.185379 -0.170596 -0.642052 -0.400567
    23 1.535927 0.010246 0.005009 -0.002964 -0.012979 -0.887970
    24 1.100771 0.004527 -0.010679 -0.012432 0.010412 -0.697598
    25 0.120153 -0.050270 -0.054489 0.287569 3.110905 1.561085
    26 1.213651 -11.442387 -12.720421 -1.649672 -5.297036 -1.075991
    27 0.096944 -8.450418 -0.009365 -0.036421 -1.226923 0.518805
    28 0.447953 -2.798986 -0.200443 -1.421012 0.011480 0.381620
    29 -0.032909 -1.480204 0.004940 -1.110076 0.000000 0.000002
    30 -0.027022 -1.076920 -0.020210 0.205198 0.000000 0.000000
    31 -0.249534 -2.846964 -0.174213 -0.964673 0.069314 0.302245
    32 0.043235 -1.683941 0.096012 -1.514629 0.002823 -0.000167
    33 0.031729 -1.160830 0.058838 0.134676 0.000642 0.008372
    34 -0.963866 -2.785145 -0.085350 -0.482992 0.119647 0.325274
    35 0.028479 -1.403067 0.006271 -1.337916 0.000000 0.000000
    36 0.021413 -0.957781 0.020046 -0.325451 0.000000 0.000000
    37 1.164475 -2.543940 -0.170330 -1.543927 0.034787 0.508555
    38 0.024032 -1.129042 0.017807 -1.093987 0.000000 0.000001
    39 0.014898 -0.883989 -0.019848 0.041331 0.000000 0.000000
    40 -0.586770 -1.264477 0.200161 0.164856 -0.089913 -2.665668
    41 1.522835 0.058681 0.016848 0.001410 0.008985 0.554174
    42 1.117947 0.048424 -0.005766 0.000584 -0.025198 0.032164
    43 -0.139399 -0.111698 0.014397 0.812758 0.207758 1.328796
    44 -6.260806 6.983652 -0.294122 1.580804 -0.005023 -0.912813
  time 18
    0 -0.349399 1.166145 0.203512 0.000000 0.000000 0.000000
    1 9.847816 2.741318 -8.884751 -1.635278 -1.278698 1.285233
    2 -0.071918 -8.498729 -0.104136 0.219151 0.128065 -0.380279
    3 2.441370 -6.426759 0.537448 0.089049 0.119162 -1.478491
    4 2.710185 -3.307132 0.000000 0.000000 0.000000 -1.570797
    5 0.000000 0.000000 0.000000 0.000000 0.000000 0.000000
    6 -0.787659 -1.985389 0.000000 0.000000 0.000000 -1.570796
    7 14.175378 -1.687388 0.000001 0.000000 0.000000 -1.938334
    8 1.025149 -0.859104 0.000000 1.570796 -1.570796 0.000000
    9 1.257180 8.762585 -0.153713 -1.570562 0.002683 -1.566807
    10 -0.488518 -2.755602 -0.228260 -1.043629 0.109301 -0.409563
    11 0.039887 -1.479790 0.029854 -1.667534 0.000000 0.000001
    12 0.028786 -1.075731 -0.023109 -0.454494 0.000000 0.000000
    13 0.250027 -2.820665 -0.238396 -0.736464 0.165690 -0.428552
    14 -0.049759 -1.680544 0.100479 -1.752455 0.000000 -0.000002
    15 -0.034142 -1.148312 0.084782 -0.832761 0.000000 0.000000
    16 0.957766 -2.746780 -0.090302 0.092438 -0.026887 -0.411347
    17 -0.033420 -1.397129 -0.011257 -0.387585 0.000000 -0.000001
    18 -0.022360 -0.957436 0.018784 -0.125157 0.000000 0.000000
    19 -1.180681 -2.507217 -0.193859 -1.338376 0.249247 -0.349932
    20 -0.024967 -1.123934 0.017597 -1.138797 0.000000 0.000001
    21 -0.020057 -0.890968 0.010090 -0.444208 0.000000 0.000000
    22 0.583510 -1.197277 0.185379 -0.170596 -0.642052 -0.400567
    23 1.535927 0.010246 0.005009 -0.002964 -0.012979 -0.887970
    24 1.100771 0.004527 -0.010679 -0.012432 0.010412 -0.697598
    25 0.120153 -0.050270 -0.054489 0.287569 3.110905 1.561085
    26 1.194120 -11.418949 -12.646200 -1.659152 -5.299615 -1.083531
    27 0.096944 -8.450418 -0.009365 -0.036421 -1.226923 0.518805
    28 0.447953 -2.798986 -0.200443 -1.421012 0.011480 0.381620
    29 -0.032909 -1.480204 0.004940 -1.110076 0.000000 0.000002
    30 -0.027022 -1.076920 -0.020210 0.205198 0.000000 0.000000
    31 -0.249534 -2.846964 -0.174213 -0.964673 0.069314 0.302245
    32 0.043235 -1.683941 0.096012 -1.514629 0.002823 -0.000167
    33 0.031729 -1.160830 0.058838 0.134676 0.000642 0.008372
    34 -0.963866 -2.785145 -0.085350 -0.482992 0.119647 0.325274
    35 0.028479 -1.403067 0.006271 -1.337916 0.000000 0.000000
    36 0.021413 -0.957781 0.020046 -0.325451 0.000000 0.000000
    37 1.164475 -2.543940 -0.170330 -1.543927 0.034787 0.508555
    38 0.024032 -1.129042 0.017807 -1.093987 0.000000 0.000001
    39 0.014898 -0.883989 -0.019848 0.041331 0.000000 0.000000
    40 -0.586770 -1.264477 0.200161 0.164856 -0.089913 -2.665668
    41 1.522835 0.058681 0.016848 0.001410 0.008985 0.554174
    42 1.117947 0.048424 -0.005766 0.000584 -0.025198 0.032164
    43 -0.139399 -0.111698 0.014397 0.812758 0.207758 1.328796
    44 -6.260806 6.983652 -0.294122 1.580804 -0.005023 -0.912813
  time 19
    0 -0.349399 1.166145 0.203512 0.000000 0.000000 0.000000
    1 9.847816 2.792100 -8.884751 -1.640328 -1.273688 1.290105
    2 -0.071918 -8.498729 -0.104136 0.219187 0.129383 -0.379991
    3 2.441370 -6.426759 0.537448 0.089049 0.119162 -1.478491
    4 2.710185 -3.307132 0.000000 0.000000 0.000000 -1.570797
    5 0.000000 0.000000 0.000000 0.000000 0.000000 0.000000
    6 -0.787659 -1.985389 0.000000 0.000000 0.000000 -1.570796
    7 14.175378 -1.687388 0.000001 0.000000 0.000000 -1.918324
    8 1.025149 -0.859104 0.000000 1.570796 -1.570796 0.000000
    9 1.257180 8.762585 -0.153713 -1.570562 0.002683 -1.566807
    10 -0.488518 -2.755602 -0.228260 -1.043629 0.109301 -0.409563
    11 0.039887 -1.479790 0.029854 -1.667534 0.000000 0.000001
    12 0.028786 -1.075731 -0.023109 -0.454494 0.000000 0.000000
    13 0.250027 -2.820665 -0.238396 -0.736464 0.165690 -0.428552
    14 -0.049759 -1.680544 0.100479 -1.752455 0.000000 -0.000002
    15 -0.034142 -1.148312 0.084782 -0.832761 0.000000 0.000000
    16 0.957766 -2.746780 -0.090302 0.092438 -0.026887 -0.411347
    17 -0.033420 -1.397129 -0.011257 -0.387585 0.000000 -0.000001
    18 -0.022360 -0.957436 0.018784 -0.125157 0.000000 0.000000
    19 -1.180681 -2.507217 -0.193859 -1.338376 0.249247 -0.349932
    20 -0.024967 -1.123934 0.017597 -1.138797 0.000000 0.000001
    21 -0.020057 -0.890968 0.010090 -0.444208 0.000000 0.000000
    22 0.583510 -1.197277 0.185379 -0.170596 -0.642052 -0.400567
    23 1.535927 0.010246 0.005009 -0.002964 -0.012979 -0.887970
    24 1.100771 0.004527 -0.010679 -0.012432 0.010412 -0.697598
    25 0.120153 -0.050270 -0.054489 0.287569 3.110905 1.561085
    26 1.186307 -11.391604 -12.568073 -1.665502 -5.303483 -1.088685
    27 0.096944 -8.450418 -0.009365 -0.036421 -1.226923 0.518805
    28 0.447953 -2.798986 -0.200443 -1.421012 0.011480 0.381620
    29 -0.032909 -1.480204 0.004940 -1.110076 0.000000 0.000002
    30 -0.027022 -1.076920 -0.020210 0.205198 0.000000 0.000000
    31 -0.249534 -2.846964 -0.174213 -0.964673 0.069314 0.302245
    32 0.043235 -1.683941 0.096012 -1.514629 0.002823 -0.000167
    33 0.031729 -1.160830 0.058838 0.134676 0.000642 0.008372
    34 -0.963866 -2.785145 -0.085350 -0.482992 0.119647 0.325274
    35 0.028479 -1.403067 0.006271 -1.337916 0.000000 0.000000
    36 0.021413 -0.957781 0.020046 -0.325451 0.000000 0.000000
    37 1.164475 -2.543940 -0.170330 -1.543927 0.034787 0.508555
    38 0.024032 -1.129042 0.017807 -1.093987 0.000000 0.000001
    39 0.014898 -0.883989 -0.019848 0.041331 0.000000 0.000000
    40 -0.586770 -1.264477 0.200161 0.164856 -0.089913 -2.665668
    41 1.522835 0.058681 0.016848 0.001410 0.008985 0.554174
    42 1.117947 0.048424 -0.005766 0.000584 -0.025198 0.032164
    43 -0.139399 -0.111698 0.014397 0.812758 0.207758 1.328796
    44 -6.260806 6.983652 -0.294122 1.580804 -0.005023 -0.912813
  time 20
    0 -0.349399 1.166145 0.203512 0.000000 0.000000 0.000000
    1 9.847816 2.842883 -8.876938 -1.644902 -1.268895 1.294500
    2 -0.071918 -8.498729 -0.104136 0.219175 0.129192 -0.380027
    3 2.441370 -6.426759 0.537448 0.089049 0.119162 -1.478491
    4 2.710185 -3.307132 0.000000 0.000000 0.000000 -1.570797
    5 0.000000 0.000000 0.000000 0.000000 0.000000 0.000000
    6 -0.787659 -1.985389 0.000000 0.000000 0.000000 -1.570796
    7 14.175378 -1.687388 0.000001 0.000000 0.000000 -1.805178
    8 1.025149 -0.859104 0.000000 1.570796 -1.570796 0.000000
    9 1.257180 8.762585 -0.153713 -1.570562 0.002683 -1.566807
    10 -0.488518 -2.755602 -0.228260 -1.043629 0.109301 -0.409563
    11 0.039887 -1.479790 0.029854 -1.667534 0.000000 0.000001
    12 0.028786 -1.075731 -0.023109 -0.454494 0.000000 0.000000
    13 0.250027 -2.820665 -0.238396 -0.736464 0.165690 -0.428552
    14 -0.049759 -1.680544 0.100479 -1.752455 0.000000 -0.000002
    15 -0.034142 -1.148312 0.084782 -0.832761 0.000000 0.000000
    16 0.957766 -2.746780 -0.090302 0.092438 -0.026887 -0.411347
    17 -0.033420 -1.397129 -0.011257 -0.387585 0.000000 -0.000001
    18 -0.022360 -0.957436 0.018784 -0.125157 0.000000 0.000000
    19 -1.180681 -2.507217 -0.193859 -1.338376 0.249247 -0.349932
    20 -0.024967 -1.123934 0.017597 -1.138797 0.000000 0.000001
    21 -0.020057 -0.890968 0.010090 -0.444208 0.000000 0.000000
    22 0.583510 -1.197277 0.185379 -0.170596 -0.642052 -0.400567
    23 1.535927 0.010246 0.005009 -0.002964 -0.012979 -0.887970
    24 1.100771 0.004527 -0.010679 -0.012432 0.010412 -0.697598
    25 0.120153 -0.050270 -0.054489 0.287569 3.110905 1.561085
    26 1.190213 -11.356447 -12.493852 -1.669367 -5.308089 -1.091834
    27 0.096944 -8.450418 -0.009365 -0.036421 -1.226923 0.518805
    28 0.447953 -2.798986 -0.200443 -1.421012 0.011480 0.381620
    29 -0.032909 -1.480204 0.004940 -1.110076 0.000000 0.000002
    30 -0.027022 -1.076920 -0.020210 0.205198 0.000000 0.000000
    31 -0.249534 -2.846964 -0.174213 -0.964673 0.069314 0.302245
    32 0.043235 -1.683941 0.096012 -1.514629 0.002823 -0.000167
    33 0.031729 -1.160830 0.058838 0.134676 0.000642 0.008372
    34 -0.963866 -2.785145 -0.085350 -0.482992 0.119647 0.325274
    35 0.028479 -1.403067 0.006271 -1.337916 0.000000 0.000000
    36 0.021413 -0.957781 0.020046 -0.325451 0.000000 0.000000
    37 1.164475 -2.543940 -0.170330 -1.543927 0.034787 0.508555
    38 0.024032 -1.129042 0.017807 -1.093987 0.000000 0.000001
    39 0.014898 -0.883989 -0.019848 0.041331 0.000000 0.000000
    40 -0.586770 -1.264477 0.200161 0.164856 -0.089913 -2.665668
    41 1.522835 0.058681 0.016848 0.001410 0.008985 0.554174
    42 1.117947 0.048424 -0.005766 0.000584 -0.025198 0.032164
    43 -0.139399 -0.111698 0.014397 0.812758 0.207758 1.328796
    44 -6.260806 6.983652 -0.294122 1.580804 -0.005023 -0.912813
  time 21
    0 -0.349399 1.166145 0.203512 0.000000 0.000000 0.000000
    1 9.847816 2.889760 -8.865219 -1.649000 -1.264538 1.298417
    2 -0.071918 -8.498729 -0.104136 0.219151 0.128065 -0.380279
    3 2.441370 -6.426759 0.537448 0.089049 0.119162 -1.478491
    4 2.710185 -3.307132 0.000000 0.000000 0.000000 -1.570797
    5 0.000000 0.000000 0.000000 0.000000 0.000000 0.000000
    6 -0.787659 -1.985389 0.000000 0.000000 0.000000 -1.570796
    7 14.175378 -1.687388 0.000001 0.000000 0.000000 -1.649030
    8 1.025149 -0.859104 0.000000 1.570796 -1.570796 0.000000
    9 1.257180 8.762585 -0.153713 -1.570562 0.002683 -1.566807
    10 -0.488518 -2.755602 -0.228260 -1.043629 0.109301 -0.409563
    11 0.039887 -1.479790 0.029854 -1.667534 0.000000 0.000001
    12 0.028786 -1.075731 -0.023109 -0.454494 0.000000 0.000000
    13 0.250027 -2.820665 -0.238396 -0.736464 0.165690 -0.428552
    14 -0.049759 -1.680544 0.100479 -1.752455 0.000000 -0.000002
    15 -0.034142 -1.148312 0.084782 -0.832761 0.000000 0.000000
    16 0.957766 -2.746780 -0.090302 0.092438 -0.026887 -0.411347
    17 -0.033420 -1.397129 -0.011257 -0.387585 0.000000 -0.000001
    18 -0.022360 -0.957436 0.018784 -0.125157 0.000000 0.000000
    19 -1.180681 -2.507217 -0.193859 -1.338376 0.249247 -0.349932
    20 -0.024967 -1.123934 0.017597 -1.138797 0.000000 0.000001
    21 -0.020057 -0.890968 0.010090 -0.444208 0.000000 0.000000
    22 0.583510 -1.197277 0.185379 -0.170596 -0.642052 -0.400567
    23 1.535927 0.010246 0.005009 -0.002964 -0.012979 -0.887970
    24 1.100771 0.004527 -0.010679 -0.012432 0.010412 -0.697598
    25 0.120153 -0.050270 -0.054489 0.287569 3.110905 1.561085
    26 1.194120 -11.325196 -12.423537 -1.671392 -5.312694 -1.093648
    27 0.096944 -8.450418 -0.009365 -0.036421 -1.226923 0.518805
    28 0.447953 -2.798986 -0.200443 -1.421012 0.011480 0.381620
    29 -0.032909 -1.480204 0.004940 -1.110076 0.000000 0.000002
    30 -0.027022 -1.076920 -0.020210 0.205198 0.000000 0.000000
    31 -0.249534 -2.846964 -0.174213 -0.964673 0.069314 0.302245
    32 0.043235 -1.683941 0.096012 -1.514629 0.002823 -0.000167
    33 0.031729 -1.160830 0.058838 0.134676 0.000642 0.008372
    34 -0.963866 -2.785145 -0.085350 -0.482992 0.119647 0.325274
    35 0.028479 -1.403067 0.006271 -1.337916 0.000000 0.000000
    36 0.021413 -0.957781 0.020046 -0.325451 0.000000 0.000000
    37 1.164475 -2.543940 -0.170330 -1.543927 0.034787 0.508555
    38 0.024032 -1.129042 0.017807 -1.093987 0.000000 0.000001
    39 0.014898 -0.883989 -0.019848 0.041331 0.000000 0.000000
    40 -0.586770 -1.264477 0.200161 0.164856 -0.089913 -2.665668
    41 1.522835 0.058681 0.016848 0.001410 0.008985 0.554174
    42 1.117947 0.048424 -0.005766 0.000584 -0.025198 0.032164
    43 -0.139399 -0.111698 0.014397 0.812758 0.207758 1.328796
    44 -6.260806 6.983652 -0.294122 1.580804 -0.005023 -0.912813
  time 22
    0 -0.349399 1.166145 0.203512 0.000000 0.000000 0.000000
    1 9.847816 2.932730 -8.853500 -1.652335 -1.260907 1.301570
    2 -0.071918 -8.498729 -0.104136 0.219103 0.126567 -0.380614
    3 2.441370 -6.426759 0.537448 0.089049 0.119162 -1.478491
    4 2.710185 -3.307132 0.000000 0.000000 0.000000 -1.570797
    5 0.000000 0.000000 0.000000 0.000000 0.000000 0.000000
    6 -0.787659 -1.985389 0.000000 0.000000 0.000000 -1.570796
    7 14.175378 -1.687388 0.000001 0.000000 0.000000 -1.500226
    8 1.025149 -0.859104 0.000000 1.570796 -1.570796 0.000000
    9 1.257180 8.762585 -0.153713 -1.570562 0.002683 -1.566807
    10 -0.488518 -2.755602 -0.228260 -1.043629 0.109301 -0.409563
    11 0.039887 -1.479790 0.029854 -1.667534 0.000000 0.000001
    12 0.028786 -1.075731 -0.023109 -0.454494 0.000000 0.000000
    13 0.250027 -2.820665 -0.238396 -0.736464 0.165690 -0.428552
    14 -0.049759 -1.680544 0.100479 -1.752455 0.000000 -0.000002
    15 -0.034142 -1.148312 0.084782 -0.832785 0.000000 0.000000
    16 0.957766 -2.746780 -0.090302 0.092438 -0.026887 -0.411347
    17 -0.033420 -1.397129 -0.011257 -0.387585 0.000000 -0.000001
    18 -0.022360 -0.957436 0.018784 -0.125157 0.000000 0.000000
    19 -1.180681 -2.507217 -0.193859 -1.338376 0.249247 -0.349932
    20 -0.024967 -1.123934 0.017597 -1.138797 0.000000 0.000001
    21 -0.020057 -0.890968 0.010090 -0.444208 0.000000 0.000000
    22 0.583510 -1.197277 0.185379 -0.170596 -0.642052 -0.400567
    23 1.535927 0.010246 0.005009 -0.002964 -0.012979 -0.887970
    24 1.100771 0.004527 -0.010679 -0.012432 0.010412 -0.697598
    25 0.120153 -0.050270 -0.054489 0.287569 3.110905 1.561085
    26 1.201932 -11.297851 -12.364942 -1.672220 -5.316931 -1.094507
    27 0.096944 -8.450418 -0.009365 -0.036421 -1.226923 0.518805
    28 0.447953 -2.798986 -0.200443 -1.421012 0.011480 0.381620
    29 -0.032909 -1.480204 0.004940 -1.110076 0.000000 0.000002
    30 -0.027022 -1.076920 -0.020210 0.205198 0.000000 0.000000
    31 -0.249534 -2.846964 -0.174213 -0.964673 0.069314 0.302245
    32 0.043235 -1.683941 0.096012 -1.514629 0.002823 -0.000167
    33 0.031729 -1.160830 0.058838 0.134676 0.000642 0.008372
    34 -0.963866 -2.785145 -0.085350 -0.482992 0.119647 0.325274
    35 0.028479 -1.403067 0.006271 -1.337916 0.000000 0.000000
    36 0.021413 -0.957781 0.020046 -0.325451 0.000000 0.000000
    37 1.164475 -2.543940 -0.170330 -1.543927 0.034787 0.508555
    38 0.024032 -1.129042 0.017807 -1.093987 0.000000 0.000001
    39 0.014898 -0.883989 -0.019848 0.041331 0.000000 0.000000
    40 -0.586770 -1.264477 0.200161 0.164856 -0.089913 -2.665668
    41 1.522835 0.058681 0.016848 0.001410 0.008985 0.554174
    42 1.117947 0.048424 -0.005766 0.000584 -0.025198 0.032164
    43 -0.139399 -0.111698 0.014397 0.812758 0.207758 1.328796
    44 -6.260806 6.983652 -0.294122 1.580804 -0.005023 -0.912813
  time 23
    0 -0.349399 1.166145 0.203512 0.000000 0.000000 0.000000
    1 9.847816 2.963981 -8.849593 -1.654813 -1.258183 1.303959
    2 -0.071918 -8.498729 -0.104136 0.219067 0.125261 -0.380914
    3 2.441370 -6.426759 0.537448 0.089049 0.119162 -1.478491
    4 2.710185 -3.307132 0.000000 0.000000 0.000000 -1.570797
    5 0.000000 0.000000 0.000000 0.000000 0.000000 0.000000
    6 -0.787659 -1.985389 0.000000 0.000000 0.000000 -1.570796
    7 14.175378 -1.687388 0.000001 0.000000 0.000000 -1.408794
    8 1.025149 -0.859104 0.000000 1.570796 -1.570796 0.000000
    9 1.257180 8.762585 -0.153713 -1.570562 0.002683 -1.566807
    10 -0.488518 -2.755602 -0.228260 -1.043629 0.109301 -0.409563
    11 0.039887 -1.479790 0.029854 -1.667534 0.000000 0.000001
    12 0.028786 -1.075731 -0.023109 -0.454494 0.000000 0.000000
    13 0.250027 -2.820665 -0.238396 -0.736464 0.165690 -0.428552
    14 -0.049759 -1.680544 0.100479 -1.752455 0.000000 -0.000002
    15 -0.034142 -1.148312 0.084782 -0.832761 0.000000 0.000000
    16 0.957766 -2.746780 -0.090302 0.092438 -0.026887 -0.411347
    17 -0.033420 -1.397129 -0.011257 -0.387585 0.000000 -0.000001
    18 -0.022360 -0.957436 0.018784 -0.125157 0.000000 0.000000
    19 -1.180681 -2.507217 -0.193859 -1.338376 0.249247 -0.349932
    20 -0.024967 -1.123934 0.017597 -1.138797 0.000000 0.000001
    21 -0.020057 -0.890968 0.010090 -0.444208 0.000000 0.000000
    22 0.583510 -1.197277 0.185379 -0.170596 -0.642052 -0.400567
    23 1.535927 0.010246 0.005009 -0.002964 -0.012979 -0.887970
    24 1.100771 0.004527 -0.010679 -0.012432 0.010412 -0.697598
    25 0.120153 -0.050270 -0.054489 0.287569 3.110905 1.561085
    26 1.209745 -11.274413 -12.325878 -1.672496 -5.320154 -1.094888
    27 0.096944 -8.450418 -0.009365 -0.036421 -1.226923 0.518805
    28 0.447953 -2.798986 -0.200443 -1.421012 0.011480 0.381620
    29 -0.032909 -1.480204 0.004940 -1.110076 0.000000 0.000002
    30 -0.027022 -1.076920 -0.020210 0.205198 0.000000 0.000000
    31 -0.249534 -2.846964 -0.174213 -0.964673 0.069314 0.302245
    32 0.043235 -1.683941 0.096012 -1.514629 0.002823 -0.000167
    33 0.031729 -1.160830 0.058838 0.134676 0.000642 0.008372
    34 -0.963866 -2.785145 -0.085350 -0.482992 0.119647 0.325274
    35 0.028479 -1.403067 0.006271 -1.337916 0.000000 0.000000
    36 0.021413 -0.957781 0.020046 -0.325451 0.000000 0.000000
    37 1.164475 -2.543940 -0.170330 -1.543927 0.034787 0.508555
    38 0.024032 -1.129042 0.017807 -1.093987 0.000000 0.000001
    39 0.014898 -0.883989 -0.019848 0.041331 0.000000 0.000000
    40 -0.586770 -1.264477 0.200161 0.164856 -0.089913 -2.665668
    41 1.522835 0.058681 0.016848 0.001410 0.008985 0.554174
    42 1.117947 0.048424 -0.005766 0.000584 -0.025198 0.032164
    43 -0.139399 -0.111698 0.014397 0.812758 0.207758 1.328796
    44 -6.260806 6.983652 -0.294122 1.580804 -0.005023 -0.912813
  time 24
    0 -0.349399 1.166145 0.203512 0.000000 0.000000 0.000000
    1 9.847816 2.987419 -8.849593 -1.656147 -1.256622 1.305201
    2 -0.071918 -8.498729 -0.104136 0.219055 0.124697 -0.381034
    3 2.441370 -6.426759 0.537448 0.089049 0.119162 -1.478491
    4 2.710185 -3.307132 0.000000 0.000000 0.000000 -1.570797
    5 0.000000 0.000000 0.000000 0.000000 0.000000 0.000000
    6 -0.787659 -1.985389 0.000000 0.000000 0.000000 -1.570796
    7 14.175378 -1.687388 0.000001 0.000000 0.000000 -1.425239
    8 1.025149 -0.859104 0.000000 1.570796 -1.570796 0.000000
    9 1.257180 8.762585 -0.153713 -1.570562 0.002683 -1.566807
    10 -0.488518 -2.755602 -0.228260 -1.043629 0.109301 -0.409563
    11 0.039887 -1.479790 0.029854 -1.667534 0.000000 0.000001
    12 0.028786 -1.075731 -0.023109 -0.454494 0.000000 0.000000
    13 0.250027 -2.820665 -0.238396 -0.736464 0.165690 -0.428552
    14 -0.049759 -1.680544 0.100479 -1.752455 0.000000 -0.000002
    15 -0.034142 -1.148312 0.084782 -0.832785 0.000000 0.000000
    16 0.957766 -2.746780 -0.090302 0.092438 -0.026887 -0.411347
    17 -0.033420 -1.397129 -0.011257 -0.387585 0.000000 -0.000001
    18 -0.022360 -0.957436 0.018784 -0.125157 0.000000 0.000000
    19 -1.180681 -2.507217 -0.193859 -1.338376 0.249247 -0.349932
    20 -0.024967 -1.123934 0.017597 -1.138797 0.000000 0.000001
    21 -0.020057 -0.890968 0.010090 -0.444208 0.000000 0.000000
    22 0.583510 -1.197277 0.185379 -0.170596 -0.642052 -0.400567
    23 1.535927 0.010246 0.005009 -0.002964 -0.012979 -0.887970
    24 1.100771 0.004527 -0.010679 -0.012432 0.010412 -0.697598
    25 0.120153 -0.050270 -0.054489 0.287569 3.110905 1.561085
    26 1.213651 -11.258788 -12.306346 -1.673048 -5.321996 -1.095366
    27 0.096944 -8.450418 -0.009365 -0.036421 -1.226923 0.518805
    28 0.447953 -2.798986 -0.200443 -1.421012 0.011480 0.381620
    29 -0.032909 -1.480204 0.004940 -1.110076 0.000000 0.000002
    30 -0.027022 -1.076920 -0.020210 0.205198 0.000000 0.000000
    31 -0.249534 -2.846964 -0.174213 -0.964673 0.069314 0.302245
    32 0.043235 -1.683941 0.096012 -1.514629 0.002823 -0.000167
    33 0.031729 -1.160830 0.058838 0.134676 0.000642 0.008372
    34 -0.963866 -2.785145 -0.085350 -0.482992 0.119647 0.325274
    35 0.028479 -1.403067 0.006271 -1.337916 0.000000 0.000000
    36 0.021413 -0.957781 0.020046 -0.325451 0.000000 0.000000
    37 1.164475 -2.543940 -0.170330 -1.543927 0.034787 0.508555
    38 0.024032 -1.129042 0.017807 -1.093987 0.000000 0.000001
    39 0.014898 -0.883989 -0.019848 0.041331 0.000000 0.000000
    40 -0.586770 -1.264477 0.200161 0.164856 -0.089913 -2.665668
    41 1.522835 0.058681 0.016848 0.001410 0.008985 0.554174
    42 1.117947 0.048424 -0.005766 0.000584 -0.025198 0.032164
    43 -0.139399 -0.111698 0.014397 0.812758 0.207758 1.328796
    44 -6.260806 6.983652 -0.294122 1.580804 -0.005023 -0.912813
  time 25
    0 -0.349399 1.166145 0.203512 0.000000 0.000000 0.000000
    1 9.847816 2.999138 -8.849593 -1.656623 -1.256005 1.305678
    2 -0.071918 -8.498729 -0.104136 0.219055 0.124697 -0.381034
    3 2.441370 -6.426759 0.537448 0.089049 0.119162 -1.478491
    4 2.710185 -3.307132 0.000000 0.000000 0.000000 -1.570797
    5 0.000000 0.000000 0.000000 0.000000 0.000000 0.000000
    6 -0.787659 -1.985389 0.000000 0.000000 0.000000 -1.570796
    7 14.175378 -1.687388 0.000001 0.000000 0.000000 -1.508316
    8 1.025149 -0.859104 0.000000 1.570796 -1.570796 0.000000
    9 1.257180 8.762585 -0.153713 -1.570562 0.002683 -1.566807
    10 -0.488518 -2.755602 -0.228260 -1.043629 0.109301 -0.409563
    11 0.039887 -1.479790 0.029854 -1.667534 0.000000 0.000001
    12 0.028786 -1.075731 -0.023109 -0.454494 0.000000 0.000000
    13 0.250027 -2.820665 -0.238396 -0.736464 0.165690 -0.428552
    14 -0.049759 -1.680544 0.100479 -1.752455 0.000000 -0.000002
    15 -0.034142 -1.148312 0.084782 -0.832761 0.000000 0.000000
    16 0.957766 -2.746780 -0.090302 0.092438 -0.026887 -0.411347
    17 -0.033420 -1.397129 -0.011257 -0.387585 0.000000 -0.000001
    18 -0.022360 -0.957436 0.018784 -0.125157 0.000000 0.000000
    19 -1.180681 -2.507217 -0.193859 -1.338376 0.249247 -0.349932
    20 -0.024967 -1.123934 0.017597 -1.138797 0.000000 0.000001
    21 -0.020057 -0.890968 0.010090 -0.444208 0.000000 0.000000
    22 0.583510 -1.197277 0.185379 -0.170596 -0.642052 -0.400567
    23 1.535927 0.010246 0.005009 -0.002964 -0.012979 -0.887970
    24 1.100771 0.004527 -0.010679 -0.012432 0.010412 -0.697598
    25 0.120153 -0.050270 -0.054489 0.287569 3.110905 1.561085
    26 1.213651 -11.247068 -12.298534 -1.673509 -5.322549 -1.095747
    27 0.096944 -8.450418 -0.009365 -0.036421 -1.226923 0.518805
    28 0.447953 -2.798986 -0.200443 -1.421012 0.011480 0.381620
    29 -0.032909 -1.480204 0.004940 -1.110076 0.000000 0.000002
    30 -0.027022 -1.076920 -0.020210 0.205198 0.000000 0.000000
    31 -0.249534 -2.846964 -0.174213 -0.964673 0.069314 0.302245
    32 0.043235 -1.683941 0.096012 -1.514629 0.002823 -0.000167
    33 0.031729 -1.160830 0.058838 0.134676 0.000642 0.008372
    34 -0.963866 -2.785145 -0.085350 -0.482992 0.119647 0.325274
    35 0.028479 -1.403067 0.006271 -1.337916 0.000000 0.000000
    36 0.021413 -0.957781 0.020046 -0.325451 0.000000 0.000000
    37 1.164475 -2.543940 -0.170330 -1.543927 0.034787 0.508555
    38 0.024032 -1.129042 0.017807 -1.093987 0.000000 0.000001
    39 0.014898 -0.883989 -0.019848 0.041331 0.000000 0.000000
    40 -0.586770 -1.264477 0.200161 0.164856 -0.089913 -2.665668
    41 1.522835 0.058681 0.016848 0.001410 0.008985 0.554174
    42 1.117947 0.048424 -0.005766 0.000584 -0.025198 0.032164
    43 -0.139399 -0.111698 0.014397 0.812758 0.207758 1.328796
    44 -6.260806 6.983652 -0.294122 1.580804 -0.005023 -0.912813
  time 26
    0 -0.349399 1.166145 0.203512 0.000000 0.000000 0.000000
    1 9.847816 3.010857 -8.845687 -1.656623 -1.256078 1.305583
    2 -0.071918 -8.498729 -0.104136 0.219055 0.124697 -0.381034
    3 2.441370 -6.426759 0.537448 0.089049 0.119162 -1.478491
    4 2.710185 -3.307132 0.000000 0.000000 0.000000 -1.570797
    5 0.000000 0.000000 0.000000 0.000000 0.000000 0.000000
    6 -0.787659 -1.985389 0.000000 0.000000 0.000000 -1.570796
    7 14.175378 -1.687388 0.000001 0.000000 0.000000 -1.570796
    8 1.025149 -0.859104 0.000000 1.570796 -1.570796 0.000000
    9 1.257180 8.762585 -0.153713 -1.570562 0.002683 -1.566807
    10 -0.488518 -2.755602 -0.228260 -1.043629 0.109301 -0.409563
    11 0.039887 -1.479790 0.029854 -1.667534 0.000000 0.000001
    12 0.028786 -1.075731 -0.023109 -0.454494 0.000000 0.000000
    13 0.250027 -2.820665 -0.238396 -0.736464 0.165690 -0.428552
    14 -0.049759 -1.680544 0.100479 -1.752455 0.000000 -0.000002
    15 -0.034142 -1.148312 0.084782 -0.832761 0.000000 0.000000
    16 0.957766 -2.746780 -0.090302 0.092438 -0.026887 -0.411347
    17 -0.033420 -1.397129 -0.011257 -0.387585 0.000000 -0.000001
    18 -0.022360 -0.957436 0.018784 -0.125157 0.000000 0.000000
    19 -1.180681 -2.507217 -0.193859 -1.338376 0.249247 -0.349932
    20 -0.024967 -1.123934 0.017597 -1.138797 0.000000 0.000001
    21 -0.020057 -0.890968 0.010090 -0.444208 0.000000 0.000000
    22 0.583510 -1.197277 0.185379 -0.170596 -0.642052 -0.400567
    23 1.535927 0.010246 0.005009 -0.002964 -0.012979 -0.887970
    24 1.100771 0.004527 -0.010679 -0.012432 0.010412 -0.697598
    25 0.120153 -0.050270 -0.054489 0.287569 3.110905 1.561085
    26 1.213651 -11.239256 -12.298534 -1.673509 -5.322457 -1.095747
    27 0.096944 -8.450418 -0.009365 -0.036421 -1.226923 0.518805
    28 0.447953 -2.798986 -0.200443 -1.421012 0.011480 0.381620
    29 -0.032909 -1.480204 0.004940 -1.110076 0.000000 0.000002
    30 -0.027022 -1.076920 -0.020210 0.205198 0.000000 0.000000
    31 -0.249534 -2.846964 -0.174213 -0.964673 0.069314 0.302245
    32 0.043235 -1.683941 0.096012 -1.514629 0.002823 -0.000167
    33 0.031729 -1.160830 0.058838 0.134676 0.000642 0.008372
    34 -0.963866 -2.785145 -0.085350 -0.482992 0.119647 0.325274
    35 0.028479 -1.403067 0.006271 -1.337916 0.000000 0.000000
    36 0.021413 -0.957781 0.020046 -0.325451 0.000000 0.000000
    37 1.164475 -2.543940 -0.170330 -1.543927 0.034787 0.508555
    38 0.024032 -1.129042 0.017807 -1.093987 0.000000 0.000001
    39 0.014898 -0.883989 -0.019848 0.041331 0.000000 0.000000
    40 -0.586770 -1.264477 0.200161 0.164856 -0.089913 -2.665668
    41 1.522835 0.058681 0.016848 0.001410 0.008985 0.554174
    42 1.117947 0.048424 -0.005766 0.000584 -0.025198 0.032164
    43 -0.139399 -0.111698 0.014397 0.812758 0.207758 1.328796
    44 -6.260806 6.983652 -0.294122 1.580804 -0.005023 -0.912813
  time 27
    0 -0.349399 1.166145 0.203512 0.000000 0.000000 0.000000
    1 9.847816 3.010857 -8.845687 -1.656147 -1.256622 1.305201
    2 -0.071918 -8.498729 -0.104136 0.219055 0.124697 -0.381034
    3 2.441370 -6.426759 0.537448 0.089049 0.119162 -1.478491
    4 2.710185 -3.307132 0.000000 0.000000 0.000000 -1.570797
    5 0.000000 0.000000 0.000000 0.000000 0.000000 0.000000
    6 -0.787659 -1.985389 0.000000 0.000000 0.000000 -1.570796
    7 14.175378 -1.687388 0.000001 0.000000 0.000000 -1.583782
    8 1.025149 -0.859104 0.000000 1.570796 -1.570796 0.000000
    9 1.257180 8.762585 -0.153713 -1.570562 0.002683 -1.566807
    10 -0.488518 -2.755602 -0.228260 -1.043629 0.109301 -0.409563
    11 0.039887 -1.479790 0.029854 -1.667534 0.000000 0.000001
    12 0.028786 -1.075731 -0.023109 -0.454494 0.000000 0.000000
    13 0.250027 -2.820665 -0.238396 -0.736464 0.165690 -0.428552
    14 -0.049759 -1.680544 0.100479 -1.752455 0.000000 -0.000002
    15 -0.034142 -1.148312 0.084782 -0.832761 0.000000 0.000000
    16 0.957766 -2.746780 -0.090302 0.092438 -0.026887 -0.411347
    17 -0.033420 -1.397129 -0.011257 -0.387585 0.000000 -0.000001
    18 -0.022360 -0.957436 0.018784 -0.125157 0.000000 0.000000
    19 -1.180681 -2.507217 -0.193859 -1.338376 0.249247 -0.349932
    20 -0.024967 -1.123934 0.017597 -1.138797 0.000000 0.000001
    21 -0.020057 -0.890968 0.010090 -0.444208 0.000000 0.000000
    22 0.583510 -1.197277 0.185379 -0.170596 -0.642052 -0.400567
    23 1.535927 0.010246 0.005009 -0.002964 -0.012979 -0.887970
    24 1.100771 0.004527 -0.010679 -0.012432 0.010412 -0.697598
    25 0.120153 -0.050270 -0.054489 0.287569 3.110905 1.561085
    26 1.213651 -11.231443 -12.302440 -1.673048 -5.321996 -1.095366
    27 0.096944 -8.450418 -0.009365 -0.036421 -1.226923 0.518805
    28 0.447953 -2.798986 -0.200443 -1.421012 0.011480 0.381620
    29 -0.032909 -1.480204 0.004940 -1.110076 0.000000 0.000002
    30 -0.027022 -1.076920 -0.020210 0.205198 0.000000 0.000000
    31 -0.249534 -2.846964 -0.174213 -0.964673 0.069314 0.302245
    32 0.043235 -1.683941 0.096012 -1.514629 0.002823 -0.000167
    33 0.031729 -1.160830 0.058838 0.134676 0.000642 0.008372
    34 -0.963866 -2.785145 -0.085350 -0.482992 0.119647 0.325274
    35 0.028479 -1.403067 0.006271 -1.337916 0.000000 0.000000
    36 0.021413 -0.957781 0.020046 -0.325451 0.000000 0.000000
    37 1.164475 -2.543940 -0.170330 -1.543927 0.034787 0.508555
    38 0.024032 -1.129042 0.017807 -1.093987 0.000000 0.000001
    39 0.014898 -0.883989 -0.019848 0.041331 0.000000 0.000000
    40 -0.586770 -1.264477 0.200161 0.164856 -0.089913 -2.665668
    41 1.522835 0.058681 0.016848 0.001410 0.008985 0.554174
    42 1.117947 0.048424 -0.005766 0.000584 -0.025198 0.032164
    43 -0.139399 -0.111698 0.014397 0.812758 0.207758 1.328796
    44 -6.260806 6.983652 -0.294122 1.580804 -0.005023 -0.912813
  time 28
    0 -0.349399 1.166145 0.203512 0.000000 0.000000 0.000000
    1 9.847816 3.010857 -8.845687 -1.655575 -1.257276 1.304627
    2 -0.071918 -8.498729 -0.104136 0.219055 0.124697 -0.381034
    3 2.441370 -6.426759 0.537448 0.089049 0.119162 -1.478491
    4 2.710185 -3.307132 0.000000 0.000000 0.000000 -1.570797
    5 0.000000 0.000000 0.000000 0.000000 0.000000 0.000000
    6 -0.787659 -1.985389 0.000000 0.000000 0.000000 -1.570796
    7 14.175378 -1.687388 0.000001 0.000000 0.000000 -1.582345
    8 1.025149 -0.859104 0.000000 1.570796 -1.570796 0.000000
    9 1.257180 8.762585 -0.153713 -1.570562 0.002683 -1.566807
    10 -0.488518 -2.755602 -0.228260 -1.043629 0.109301 -0.409563
    11 0.039887 -1.479790 0.029854 -1.667534 0.000000 0.000001
    12 0.028786 -1.075731 -0.023109 -0.454494 0.000000 0.000000
    13 0.250027 -2.820665 -0.238396 -0.736464 0.165690 -0.428552
    14 -0.049759 -1.680544 0.100479 -1.752455 0.000000 -0.000002
    15 -0.034142 -1.148312 0.084782 -0.832785 0.000000 0.000000
    16 0.957766 -2.746780 -0.090302 0.092438 -0.026887 -0.411347
    17 -0.033420 -1.397129 -0.011257 -0.387585 0.000000 -0.000001
    18 -0.022360 -0.957436 0.018784 -0.125157 0.000000 0.000000
    19 -1.180681 -2.507217 -0.193859 -1.338376 0.249247 -0.349932
    20 -0.024967 -1.123934 0.017597 -1.138797 0.000000 0.000001
    21 -0.020057 -0.890968 0.010090 -0.444208 0.000000 0.000000
    22 0.583510 -1.197277 0.185379 -0.170596 -0.642052 -0.400567
    23 1.535927 0.010246 0.005009 -0.002964 -0.012979 -0.887970
    24 1.100771 0.004527 -0.010679 -0.012432 0.010412 -0.697598
    25 0.120153 -0.050270 -0.054489 0.287569 3.110905 1.561085
    26 1.213651 -11.227537 -12.314159 -1.672404 -5.321352 -1.094888
    27 0.096944 -8.450418 -0.009365 -0.036421 -1.226923 0.518805
    28 0.447953 -2.798986 -0.200443 -1.421012 0.011480 0.381620
    29 -0.032909 -1.480204 0.004940 -1.110076 0.000000 0.000002
    30 -0.027022 -1.076920 -0.020210 0.205198 0.000000 0.000000
    31 -0.249534 -2.846964 -0.174213 -0.964673 0.069314 0.302245
    32 0.043235 -1.683941 0.096012 -1.514629 0.002823 -0.000167
    33 0.031729 -1.160830 0.058838 0.134676 0.000642 0.008372
    34 -0.963866 -2.785145 -0.085350 -0.482992 0.119647 0.325274
    35 0.028479 -1.403067 0.006271 -1.337916 0.000000 0.000000
    36 0.021413 -0.957781 0.020046 -0.325451 0.000000 0.000000
    37 1.164475 -2.543940 -0.170330 -1.543927 0.034787 0.508555
    38 0.024032 -1.129042 0.017807 -1.093987 0.000000 0.000001
    39 0.014898 -0.883989 -0.019848 0.041331 0.000000 0.000000
    40 -0.586770 -1.264477 0.200161 0.164856 -0.089913 -2.665668
    41 1.522835 0.058681 0.016848 0.001410 0.008985 0.554174
    42 1.117947 0.048424 -0.005766 0.000584 -0.025198 0.032164
    43 -0.139399 -0.111698 0.014397 0.812758 0.207758 1.328796
    44 -6.260806 6.983652 -0.294122 1.580804 -0.005023 -0.912813
  time 29
    0 -0.349399 1.166145 0.203512 0.000000 0.000000 0.000000
    1 9.847816 3.010857 -8.841781 -1.655003 -1.257893 1.304150
    2 -0.071918 -8.498729 -0.104136 0.219055 0.124697 -0.381034
    3 2.441370 -6.426759 0.537448 0.089049 0.119162 -1.478491
    4 2.710185 -3.307132 0.000000 0.000000 0.000000 -1.570797
    5 0.000000 0.000000 0.000000 0.000000 0.000000 0.000000
    6 -0.787659 -1.985389 0.000000 0.000000 0.000000 -1.570796
    7 14.175378 -1.687388 0.000001 0.000000 0.000000 -1.575107
    8 1.025149 -0.859104 0.000000 1.570796 -1.570796 0.000000
    9 1.257180 8.762585 -0.153713 -1.570562 0.002683 -1.566807
    10 -0.488518 -2.755602 -0.228260 -1.043629 0.109301 -0.409563
    11 0.039887 -1.479790 0.029854 -1.667534 0.000000 0.000001
    12 0.028786 -1.075731 -0.023109 -0.454494 0.000000 0.000000
    13 0.250027 -2.820665 -0.238396 -0.736464 0.165690 -0.428552
    14 -0.049759 -1.680544 0.100479 -1.752455 0.000000 -0.000002
    15 -0.034142 -1.148312 0.084782 -0.832761 0.000000 0.000000
    16 0.957766 -2.746780 -0.090302 0.092438 -0.026887 -0.411347
    17 -0.033420 -1.397129 -0.011257 -0.387585 0.000000 -0.000001
    18 -0.022360 -0.957436 0.018784 -0.125157 0.000000 0.000000
    19 -1.180681 -2.507217 -0.193859 -1.338376 0.249247 -0.349932
    20 -0.024967 -1.123934 0.017597 -1.138797 0.000000 0.000001
    21 -0.020057 -0.890968 0.010090 -0.444208 0.000000 0.000000
    22 0.583510 -1.197277 0.185379 -0.170596 -0.642052 -0.400567
    23 1.535927 0.010246 0.005009 -0.002964 -0.012979 -0.887970
    24 1.100771 0.004527 -0.010679 -0.012432 0.010412 -0.697598
    25 0.120153 -0.050270 -0.054489 0.287569 3.110905 1.561085
    26 1.213651 -11.227537 -12.318065 -1.671944 -5.320799 -1.094411
    27 0.096944 -8.450418 -0.009365 -0.036421 -1.226923 0.518805
    28 0.447953 -2.798986 -0.200443 -1.421012 0.011480 0.381620
    29 -0.032909 -1.480204 0.004940 -1.110076 0.000000 0.000002
    30 -0.027022 -1.076920 -0.020210 0.205198 0.000000 0.000000
    31 -0.249534 -2.846964 -0.174213 -0.964673 0.069314 0.302245
    32 0.043235 -1.683941 0.096012 -1.514629 0.002823 -0.000167
    33 0.031729 -1.160830 0.058838 0.134676 0.000642 0.008372
    34 -0.963866 -2.785145 -0.085350 -0.482992 0.119647 0.325274
    35 0.028479 -1.403067 0.006271 -1.337916 0.000000 0.000000
    36 0.021413 -0.957781 0.020046 -0.325451 0.000000 0.000000
    37 1.164475 -2.543940 -0.170330 -1.543927 0.034787 0.508555
    38 0.024032 -1.129042 0.017807 -1.093987 0.000000 0.000001
    39 0.014898 -0.883989 -0.019848 0.041331 0.000000 0.000000
    40 -0.586770 -1.264477 0.200161 0.164856 -0.089913 -2.665668
    41 1.522835 0.058681 0.016848 0.001410 0.008985 0.554174
    42 1.117947 0.048424 -0.005766 0.000584 -0.025198 0.032164
    43 -0.139399 -0.111698 0.014397 0.812758 0.207758 1.328796
    44 -6.260806 6.983652 -0.294122 1.580804 -0.005023 -0.912813
  time 30
    0 -0.349399 1.166145 0.203512 0.000000 0.000000 0.000000
    1 9.847816 3.010857 -8.841781 -1.654813 -1.258183 1.303959
    2 -0.071918 -8.498729 -0.104136 0.219055 0.124697 -0.381034
    3 2.441370 -6.426759 0.537448 0.089049 0.119162 -1.478491
    4 2.710185 -3.307132 0.000000 0.000000 0.000000 -1.570797
    5 0.000000 0.000000 0.000000 0.000000 0.000000 0.000000
    6 -0.787659 -1.985389 0.000000 0.000000 0.000000 -1.570796
    7 14.175378 -1.687388 0.000001 0.000000 0.000000 -1.570796
    8 1.025149 -0.859104 0.000000 1.570796 -1.570796 0.000000
    9 1.257180 8.762585 -0.153713 -1.570562 0.002683 -1.566807
    10 -0.488518 -2.755602 -0.228260 -1.043629 0.109301 -0.409563
    11 0.039887 -1.479790 0.029854 -1.667534 0.000000 0.000001
    12 0.028786 -1.075731 -0.023109 -0.454494 0.000000 0.000000
    13 0.250027 -2.820665 -0.238396 -0.736464 0.165690 -0.428552
    14 -0.049759 -1.680544 0.100479 -1.752455 0.000000 -0.000002
    15 -0.034142 -1.148312 0.084782 -0.832761 0.000000 0.000000
    16 0.957766 -2.746780 -0.090302 0.092438 -0.026887 -0.411347
    17 -0.033420 -1.397129 -0.011257 -0.387585 0.000000 -0.000001
    18 -0.022360 -0.957436 0.018784 -0.125157 0.000000 0.000000
    19 -1.180681 -2.507217 -0.193859 -1.338376 0.249247 -0.349932
    20 -0.024967 -1.123934 0.017597 -1.138797 0.000000 0.000001
    21 -0.020057 -0.890968 0.010090 -0.444208 0.000000 0.000000
    22 0.583510 -1.197277 0.185379 -0.170596 -0.642052 -0.400567
    23 1.535927 0.010246 0.005009 -0.002964 -0.012979 -0.887970
    24 1.100771 0.004527 -0.010679 -0.012432 0.010412 -0.697598
    25 0.120153 -0.050270 -0.054489 0.287569 3.110905 1.561085
    26 1.213651 -11.227537 -12.321972 -1.671668 -5.320523 -1.094220
    27 0.096944 -8.450418 -0.009365 -0.036421 -1.226923 0.518805
    28 0.447953 -2.798986 -0.200443 -1.421012 0.011480 0.381620
    29 -0.032909 -1.480204 0.004940 -1.110076 0.000000 0.000002
    30 -0.027022 -1.076920 -0.020210 0.205198 0.000000 0.000000
    31 -0.249534 -2.846964 -0.174213 -0.964673 0.069314 0.302245
    32 0.043235 -1.683941 0.096012 -1.514629 0.002823 -0.000167
    33 0.031729 -1.160830 0.058838 0.134676 0.000642 0.008372
    34 -0.963866 -2.785145 -0.085350 -0.482992 0.119647 0.325274
    35 0.028479 -1.403067 0.006271 -1.337916 0.000000 0.000000
    36 0.021413 -0.957781 0.020046 -0.325451 0.000000 0.000000
    37 1.164475 -2.543940 -0.170330 -1.543927 0.034787 0.508555
    38 0.024032 -1.129042 0.017807 -1.093987 0.000000 0.000001
    39 0.014898 -0.883989 -0.019848 0.041331 0.000000 0.000000
    40 -0.586770 -1.264477 0.200161 0.164856 -0.089913 -2.665668
    41 1.522835 0.058681 0.016848 0.001410 0.008985 0.554174
    42 1.117947 0.048424 -0.005766 0.000584 -0.025198 0.032164
    43 -0.139399 -0.111698 0.014397 0.812758 0.207758 1.328796
    44 -6.260806 6.983652 -0.294122 1.580804 -0.005023 -0.912813
end
