// Created by Crowbar 0.34.0.0

$ModelName "weapons/tfa_cso/w_at4ex.mdl"

$BodyGroup "studio"
{
	studio "v_at4ex_v_ref"
}

$collisionmodel "v_at4ex_v_ref.smd"
{
	$mass 9
}

$CDMaterials "models\weapons\tfa_cso\at4ex"

$attachment "0" "root" -3.00 -18.40 -1.00 rotate -0 0 0

$Sequence "idle" {
	"anims\idle.smd"
	fps 30
}