version 1
nodes
  0 "Bone01" -1
  1 "Bone_Lefthand" 0
  2 "Bone_SA80" 1
  3 "Bone_Norishe" 2
  4 "Bone_Cover" 2
  5 "Bone_Magazine" 2
  6 "Bone_Trigger" 2
  7 "Bone_Bullet" 2
  8 "Bone04" -1
  9 "Bone_Righthand" 8
  10 "Bone27" 9
  11 "Bone28" 10
  12 "Bone29" 11
  13 "Bone31" 9
  14 "Bone32" 13
  15 "Bone33" 14
  16 "Bone35" 9
  17 "Bone36" 16
  18 "Bone37" 17
  19 "Bone39" 9
  20 "Bone40" 19
  21 "Bone41" 20
  22 "Bone43" 9
  23 "Bone44" 22
  24 "Bone45" 23
  25 "Bone_Se_Hand-R" 9
  26 "Bone05" 1
  27 "Bone06" 26
  28 "Bone07" 27
  29 "Bone21" 1
  30 "Bone22" 29
  31 "Bone23" 30
  32 "Bone17" 1
  33 "Bone18" 32
  34 "Bone19" 33
  35 "Bone13" 1
  36 "Bone14" 35
  37 "Bone15" 36
  38 "Bone09" 1
  39 "Bone10" 38
  40 "Bone11" 39
  41 "Bone_Se_Hand-L" 1
end
skeleton
  time 0
    0 9.704549 -1.783219 -9.914709 -2.010314 -1.110847 -5.072475
    1 -0.071917 -8.498731 -0.104136 0.657272 -0.000624 -0.413414
    2 0.991758 -2.979139 0.412045 0.093149 0.219909 -0.132239
    3 2.319730 3.732436 0.663903 0.000000 0.000000 0.000000
    4 1.993585 6.767204 0.465244 0.000000 -6.185087 0.000000
    5 -0.970720 4.474501 -0.006065 0.000000 -1.570796 0.000000
    6 0.809255 -1.531572 0.002293 0.000000 0.000000 0.000000
    7 2.158777 4.640841 0.663902 0.000000 -1.570796 0.000000
    8 -2.931217 -7.499518 -11.057019 -1.125464 0.774185 -0.267166
    9 0.096946 -8.450418 -0.009364 0.312875 -0.618931 0.268718
    10 -0.586769 -1.264477 0.200164 -0.339704 -0.308951 -2.463889
    11 1.522835 0.058680 0.016850 0.225980 -0.044688 0.526090
    12 1.117948 0.048425 -0.005765 -0.023921 -0.001546 0.069712
    13 -0.963866 -2.785142 -0.085346 0.294214 -0.058876 0.191782
    14 0.028478 -1.403067 0.006272 -0.355672 0.000000 0.000000
    15 0.021414 -0.957782 0.020047 -0.445104 -0.000013 0.000017
    16 -0.249534 -2.846962 -0.174215 -0.005950 -0.106350 0.177791
    17 0.043234 -1.683940 0.096015 -1.428417 0.000000 0.000000
    18 0.031728 -1.160830 0.058837 -1.034886 0.000000 0.000000
    19 0.447951 -2.798983 -0.200441 -0.855534 0.034197 0.093401
    20 -0.032909 -1.480207 0.004936 -1.173508 0.000000 0.000000
    21 -0.027023 -1.076920 -0.020212 -0.453824 0.000000 0.000000
    22 1.164475 -2.543938 -0.170327 -1.095364 -0.020941 0.248253
    23 0.024032 -1.129040 0.017806 -0.800795 0.000000 0.000000
    24 0.014896 -0.883991 -0.019846 -0.315687 0.000000 0.000000
    25 -0.088450 -0.124069 -0.041685 0.300574 0.169220 1.410648
    26 0.583510 -1.197274 0.185379 0.250092 -0.500871 -0.758615
    27 1.535926 0.010246 0.005009 -0.283171 -0.264042 -0.854738
    28 1.100770 0.004527 -0.010676 0.000000 0.000000 -0.573941
    29 0.957766 -2.746777 -0.090301 0.123323 0.221571 -0.025715
    30 -0.033419 -1.397127 -0.011256 -0.220310 0.000000 0.000000
    31 -0.022361 -0.957433 0.018783 -0.824165 0.000000 0.000000
    32 0.250029 -2.820664 -0.238397 -0.745999 0.258538 -0.139501
    33 -0.049759 -1.680544 0.100480 -1.776937 0.000000 0.000000
    34 -0.034141 -1.148310 0.084780 -1.016983 0.000000 0.000000
    35 -0.488516 -2.755600 -0.228262 -0.907168 0.257855 -0.143315
    36 0.039889 -1.479791 0.029853 -1.477868 0.000000 0.000000
    37 0.028785 -1.075732 -0.023111 -1.081152 0.000000 0.000000
    38 -1.180679 -2.507217 -0.193861 -1.010385 0.420021 -0.125607
    39 -0.024967 -1.123934 0.017594 -0.854095 0.030836 -0.035379
    40 -0.020058 -0.890965 0.010092 -1.068685 0.000000 0.000000
    41 -0.016570 -0.061986 -0.062301 2.854220 5.679697 -1.245378
  time 1
    0 9.704549 -1.783219 -9.914709 -2.010314 -1.110847 -5.072475
    1 -0.071917 -8.498731 -0.104136 0.657272 -0.000624 -0.413414
    2 0.991758 -2.979139 0.412045 0.093149 0.219909 -0.132239
    3 2.319730 3.732436 0.663903 0.000000 0.000000 0.000000
    4 1.993585 6.767204 0.465244 0.000000 -6.185087 0.000000
    5 -0.970720 4.474501 -0.006065 0.000000 -1.570796 0.000000
    6 0.809255 -1.531572 0.002293 0.000000 0.000000 0.000000
    7 2.158777 4.640841 0.663902 0.000000 -1.570796 0.000000
    8 -2.931217 -7.499518 -11.057019 -1.125464 0.774185 -0.267166
    9 0.096946 -8.450418 -0.009364 0.312875 -0.618931 0.268718
    10 -0.586769 -1.264477 0.200164 -0.339704 -0.308951 -2.463889
    11 1.522835 0.058680 0.016850 0.225980 -0.044688 0.526090
    12 1.117948 0.048425 -0.005765 -0.023921 -0.001546 0.069712
    13 -0.963866 -2.785142 -0.085346 0.294214 -0.058876 0.191782
    14 0.028478 -1.403067 0.006272 -0.355672 0.000000 0.000000
    15 0.021414 -0.957782 0.020047 -0.445104 -0.000013 0.000017
    16 -0.249534 -2.846962 -0.174215 -0.005950 -0.106350 0.177791
    17 0.043234 -1.683940 0.096015 -1.428417 0.000000 0.000000
    18 0.031728 -1.160830 0.058837 -1.034886 0.000000 0.000000
    19 0.447951 -2.798983 -0.200441 -0.855534 0.034197 0.093401
    20 -0.032909 -1.480207 0.004936 -1.173508 0.000000 0.000000
    21 -0.027023 -1.076920 -0.020212 -0.453824 0.000000 0.000000
    22 1.164475 -2.543938 -0.170327 -1.095364 -0.020941 0.248253
    23 0.024032 -1.129040 0.017806 -0.800795 0.000000 0.000000
    24 0.014896 -0.883991 -0.019846 -0.315687 0.000000 0.000000
    25 -0.088450 -0.124069 -0.041685 0.300574 0.169220 1.410648
    26 0.583510 -1.197274 0.185379 0.250092 -0.500871 -0.758615
    27 1.535926 0.010246 0.005009 -0.283171 -0.264042 -0.854738
    28 1.100770 0.004527 -0.010676 0.000000 0.000000 -0.573941
    29 0.957766 -2.746777 -0.090301 0.123323 0.221571 -0.025715
    30 -0.033419 -1.397127 -0.011256 -0.220310 0.000000 0.000000
    31 -0.022361 -0.957433 0.018783 -0.824165 0.000000 0.000000
    32 0.250029 -2.820664 -0.238397 -0.745999 0.258538 -0.139501
    33 -0.049759 -1.680544 0.100480 -1.776937 0.000000 0.000000
    34 -0.034141 -1.148310 0.084780 -1.016983 0.000000 0.000000
    35 -0.488516 -2.755600 -0.228262 -0.907168 0.257855 -0.143315
    36 0.039889 -1.479791 0.029853 -1.477868 0.000000 0.000000
    37 0.028785 -1.075732 -0.023111 -1.081152 0.000000 0.000000
    38 -1.180679 -2.507217 -0.193861 -1.010385 0.420021 -0.125607
    39 -0.024967 -1.123934 0.017594 -0.854095 0.030836 -0.035379
    40 -0.020058 -0.890965 0.010092 -1.068685 0.000000 0.000000
    41 -0.016570 -0.061986 -0.062301 2.854220 5.679697 -1.245378
  time 2
    0 9.704549 -1.783219 -9.914709 -2.010314 -1.110847 -5.072475
    1 -0.071917 -8.498731 -0.104136 0.657272 -0.000624 -0.413414
    2 0.991758 -2.979139 0.412045 0.093149 0.219909 -0.132239
    3 2.319730 3.732436 0.663903 0.000000 0.000000 0.000000
    4 1.993585 6.767204 0.465244 0.000000 -6.185087 0.000000
    5 -0.970720 4.474501 -0.006065 0.000000 -1.570796 0.000000
    6 0.809255 -1.531572 0.002293 0.000000 0.000000 0.000000
    7 2.158777 4.640841 0.663902 0.000000 -1.570796 0.000000
    8 -2.931217 -7.499518 -11.057019 -1.125464 0.774185 -0.267166
    9 0.096946 -8.450418 -0.009364 0.312875 -0.618931 0.268718
    10 -0.586769 -1.264477 0.200164 -0.339704 -0.308951 -2.463889
    11 1.522835 0.058680 0.016850 0.225980 -0.044688 0.526090
    12 1.117948 0.048425 -0.005765 -0.023921 -0.001546 0.069712
    13 -0.963866 -2.785142 -0.085346 0.294214 -0.058876 0.191782
    14 0.028478 -1.403067 0.006272 -0.355672 0.000000 0.000000
    15 0.021414 -0.957782 0.020047 -0.445104 -0.000013 0.000017
    16 -0.249534 -2.846962 -0.174215 -0.005950 -0.106350 0.177791
    17 0.043234 -1.683940 0.096015 -1.428417 0.000000 0.000000
    18 0.031728 -1.160830 0.058837 -1.034886 0.000000 0.000000
    19 0.447951 -2.798983 -0.200441 -0.855534 0.034197 0.093401
    20 -0.032909 -1.480207 0.004936 -1.173508 0.000000 0.000000
    21 -0.027023 -1.076920 -0.020212 -0.453824 0.000000 0.000000
    22 1.164475 -2.543938 -0.170327 -1.095364 -0.020941 0.248253
    23 0.024032 -1.129040 0.017806 -0.800795 0.000000 0.000000
    24 0.014896 -0.883991 -0.019846 -0.315687 0.000000 0.000000
    25 -0.088450 -0.124069 -0.041685 0.300574 0.169220 1.410648
    26 0.583510 -1.197274 0.185379 0.250092 -0.500871 -0.758615
    27 1.535926 0.010246 0.005009 -0.283171 -0.264042 -0.854738
    28 1.100770 0.004527 -0.010676 0.000000 0.000000 -0.573941
    29 0.957766 -2.746777 -0.090301 0.123323 0.221571 -0.025715
    30 -0.033419 -1.397127 -0.011256 -0.220310 0.000000 0.000000
    31 -0.022361 -0.957433 0.018783 -0.824165 0.000000 0.000000
    32 0.250029 -2.820664 -0.238397 -0.745999 0.258538 -0.139501
    33 -0.049759 -1.680544 0.100480 -1.776937 0.000000 0.000000
    34 -0.034141 -1.148310 0.084780 -1.016983 0.000000 0.000000
    35 -0.488516 -2.755600 -0.228262 -0.907168 0.257855 -0.143315
    36 0.039889 -1.479791 0.029853 -1.477868 0.000000 0.000000
    37 0.028785 -1.075732 -0.023111 -1.081152 0.000000 0.000000
    38 -1.180679 -2.507217 -0.193861 -1.010385 0.420021 -0.125607
    39 -0.024967 -1.123934 0.017594 -0.854095 0.030836 -0.035379
    40 -0.020058 -0.890965 0.010092 -1.068685 0.000000 0.000000
    41 -0.016570 -0.061986 -0.062301 2.854220 5.679697 -1.245378
  time 3
    0 9.704549 -1.783219 -9.914709 -2.010314 -1.110847 -5.072475
    1 -0.071917 -8.498731 -0.104136 0.657272 -0.000624 -0.413414
    2 0.991758 -2.979139 0.412045 0.093149 0.219909 -0.132239
    3 2.319730 3.732436 0.663903 0.000000 0.000000 0.000000
    4 1.993585 6.767204 0.465244 0.000000 -6.185087 0.000000
    5 -0.970720 4.474501 -0.006065 0.000000 -1.570796 0.000000
    6 0.809255 -1.531572 0.002293 0.000000 0.000000 0.000000
    7 2.158777 4.640841 0.663902 0.000000 -1.570796 0.000000
    8 -2.931217 -7.499518 -11.057019 -1.125464 0.774185 -0.267166
    9 0.096946 -8.450418 -0.009364 0.312875 -0.618931 0.268718
    10 -0.586769 -1.264477 0.200164 -0.339704 -0.308951 -2.463889
    11 1.522835 0.058680 0.016850 0.225980 -0.044688 0.526090
    12 1.117948 0.048425 -0.005765 -0.023921 -0.001546 0.069712
    13 -0.963866 -2.785142 -0.085346 0.294214 -0.058876 0.191782
    14 0.028478 -1.403067 0.006272 -0.355672 0.000000 0.000000
    15 0.021414 -0.957782 0.020047 -0.445104 -0.000013 0.000017
    16 -0.249534 -2.846962 -0.174215 -0.005950 -0.106350 0.177791
    17 0.043234 -1.683940 0.096015 -1.428417 0.000000 0.000000
    18 0.031728 -1.160830 0.058837 -1.034886 0.000000 0.000000
    19 0.447951 -2.798983 -0.200441 -0.855534 0.034197 0.093401
    20 -0.032909 -1.480207 0.004936 -1.173508 0.000000 0.000000
    21 -0.027023 -1.076920 -0.020212 -0.453824 0.000000 0.000000
    22 1.164475 -2.543938 -0.170327 -1.095364 -0.020941 0.248253
    23 0.024032 -1.129040 0.017806 -0.800795 0.000000 0.000000
    24 0.014896 -0.883991 -0.019846 -0.315687 0.000000 0.000000
    25 -0.088450 -0.124069 -0.041685 0.300574 0.169220 1.410648
    26 0.583510 -1.197274 0.185379 0.250092 -0.500871 -0.758615
    27 1.535926 0.010246 0.005009 -0.283171 -0.264042 -0.854738
    28 1.100770 0.004527 -0.010676 0.000000 0.000000 -0.573941
    29 0.957766 -2.746777 -0.090301 0.123323 0.221571 -0.025715
    30 -0.033419 -1.397127 -0.011256 -0.220310 0.000000 0.000000
    31 -0.022361 -0.957433 0.018783 -0.824165 0.000000 0.000000
    32 0.250029 -2.820664 -0.238397 -0.745999 0.258538 -0.139501
    33 -0.049759 -1.680544 0.100480 -1.776937 0.000000 0.000000
    34 -0.034141 -1.148310 0.084780 -1.016983 0.000000 0.000000
    35 -0.488516 -2.755600 -0.228262 -0.907168 0.257855 -0.143315
    36 0.039889 -1.479791 0.029853 -1.477868 0.000000 0.000000
    37 0.028785 -1.075732 -0.023111 -1.081152 0.000000 0.000000
    38 -1.180679 -2.507217 -0.193861 -1.010385 0.420021 -0.125607
    39 -0.024967 -1.123934 0.017594 -0.854095 0.030836 -0.035379
    40 -0.020058 -0.890965 0.010092 -1.068685 0.000000 0.000000
    41 -0.016570 -0.061986 -0.062301 2.854220 5.679697 -1.245378
  time 4
    0 9.704549 -1.783219 -9.914709 -2.010314 -1.110847 -5.072475
    1 -0.071917 -8.498731 -0.104136 0.657272 -0.000624 -0.413414
    2 0.991758 -2.979139 0.412045 0.093149 0.219909 -0.132239
    3 2.319730 3.732436 0.663903 0.000000 0.000000 0.000000
    4 1.993585 6.767204 0.465244 0.000000 -6.185087 0.000000
    5 -0.970720 4.474501 -0.006065 0.000000 -1.570796 0.000000
    6 0.809255 -1.531572 0.002293 0.000000 0.000000 0.000000
    7 2.158777 4.640841 0.663902 0.000000 -1.570796 0.000000
    8 -2.931217 -7.499518 -11.057019 -1.125464 0.774185 -0.267166
    9 0.096946 -8.450418 -0.009364 0.312875 -0.618931 0.268718
    10 -0.586769 -1.264477 0.200164 -0.339704 -0.308951 -2.463889
    11 1.522835 0.058680 0.016850 0.225980 -0.044688 0.526090
    12 1.117948 0.048425 -0.005765 -0.023921 -0.001546 0.069712
    13 -0.963866 -2.785142 -0.085346 0.294214 -0.058876 0.191782
    14 0.028478 -1.403067 0.006272 -0.355672 0.000000 0.000000
    15 0.021414 -0.957782 0.020047 -0.445104 -0.000013 0.000017
    16 -0.249534 -2.846962 -0.174215 -0.005950 -0.106350 0.177791
    17 0.043234 -1.683940 0.096015 -1.428417 0.000000 0.000000
    18 0.031728 -1.160830 0.058837 -1.034886 0.000000 0.000000
    19 0.447951 -2.798983 -0.200441 -0.855534 0.034197 0.093401
    20 -0.032909 -1.480207 0.004936 -1.173508 0.000000 0.000000
    21 -0.027023 -1.076920 -0.020212 -0.453824 0.000000 0.000000
    22 1.164475 -2.543938 -0.170327 -1.095364 -0.020941 0.248253
    23 0.024032 -1.129040 0.017806 -0.800795 0.000000 0.000000
    24 0.014896 -0.883991 -0.019846 -0.315687 0.000000 0.000000
    25 -0.088450 -0.124069 -0.041685 0.300574 0.169220 1.410648
    26 0.583510 -1.197274 0.185379 0.250092 -0.500871 -0.758615
    27 1.535926 0.010246 0.005009 -0.283171 -0.264042 -0.854738
    28 1.100770 0.004527 -0.010676 0.000000 0.000000 -0.573941
    29 0.957766 -2.746777 -0.090301 0.123323 0.221571 -0.025715
    30 -0.033419 -1.397127 -0.011256 -0.220310 0.000000 0.000000
    31 -0.022361 -0.957433 0.018783 -0.824165 0.000000 0.000000
    32 0.250029 -2.820664 -0.238397 -0.745999 0.258538 -0.139501
    33 -0.049759 -1.680544 0.100480 -1.776937 0.000000 0.000000
    34 -0.034141 -1.148310 0.084780 -1.016983 0.000000 0.000000
    35 -0.488516 -2.755600 -0.228262 -0.907168 0.257855 -0.143315
    36 0.039889 -1.479791 0.029853 -1.477868 0.000000 0.000000
    37 0.028785 -1.075732 -0.023111 -1.081152 0.000000 0.000000
    38 -1.180679 -2.507217 -0.193861 -1.010385 0.420021 -0.125607
    39 -0.024967 -1.123934 0.017594 -0.854095 0.030836 -0.035379
    40 -0.020058 -0.890965 0.010092 -1.068685 0.000000 0.000000
    41 -0.016570 -0.061986 -0.062301 2.854220 5.679697 -1.245378
  time 5
    0 9.704549 -1.783219 -9.914709 -2.010314 -1.110847 -5.072475
    1 -0.071917 -8.498731 -0.104136 0.657272 -0.000624 -0.413414
    2 0.991758 -2.979139 0.412045 0.093149 0.219909 -0.132239
    3 2.319730 3.732436 0.663903 0.000000 0.000000 0.000000
    4 1.993585 6.767204 0.465244 0.000000 -6.185087 0.000000
    5 -0.970720 4.474501 -0.006065 0.000000 -1.570796 0.000000
    6 0.809255 -1.531572 0.002293 0.000000 0.000000 0.000000
    7 2.158777 4.640841 0.663902 0.000000 -1.570796 0.000000
    8 -2.931217 -7.499518 -11.057019 -1.125464 0.774185 -0.267166
    9 0.096946 -8.450418 -0.009364 0.312875 -0.618931 0.268718
    10 -0.586769 -1.264477 0.200164 -0.339704 -0.308951 -2.463889
    11 1.522835 0.058680 0.016850 0.225980 -0.044688 0.526090
    12 1.117948 0.048425 -0.005765 -0.023921 -0.001546 0.069712
    13 -0.963866 -2.785142 -0.085346 0.294214 -0.058876 0.191782
    14 0.028478 -1.403067 0.006272 -0.355672 0.000000 0.000000
    15 0.021414 -0.957782 0.020047 -0.445104 -0.000013 0.000017
    16 -0.249534 -2.846962 -0.174215 -0.005950 -0.106350 0.177791
    17 0.043234 -1.683940 0.096015 -1.428417 0.000000 0.000000
    18 0.031728 -1.160830 0.058837 -1.034886 0.000000 0.000000
    19 0.447951 -2.798983 -0.200441 -0.855534 0.034197 0.093401
    20 -0.032909 -1.480207 0.004936 -1.173508 0.000000 0.000000
    21 -0.027023 -1.076920 -0.020212 -0.453824 0.000000 0.000000
    22 1.164475 -2.543938 -0.170327 -1.095364 -0.020941 0.248253
    23 0.024032 -1.129040 0.017806 -0.800795 0.000000 0.000000
    24 0.014896 -0.883991 -0.019846 -0.315687 0.000000 0.000000
    25 -0.088450 -0.124069 -0.041685 0.300574 0.169220 1.410648
    26 0.583510 -1.197274 0.185379 0.250092 -0.500871 -0.758615
    27 1.535926 0.010246 0.005009 -0.283171 -0.264042 -0.854738
    28 1.100770 0.004527 -0.010676 0.000000 0.000000 -0.573941
    29 0.957766 -2.746777 -0.090301 0.123323 0.221571 -0.025715
    30 -0.033419 -1.397127 -0.011256 -0.220310 0.000000 0.000000
    31 -0.022361 -0.957433 0.018783 -0.824165 0.000000 0.000000
    32 0.250029 -2.820664 -0.238397 -0.745999 0.258538 -0.139501
    33 -0.049759 -1.680544 0.100480 -1.776937 0.000000 0.000000
    34 -0.034141 -1.148310 0.084780 -1.016983 0.000000 0.000000
    35 -0.488516 -2.755600 -0.228262 -0.907168 0.257855 -0.143315
    36 0.039889 -1.479791 0.029853 -1.477868 0.000000 0.000000
    37 0.028785 -1.075732 -0.023111 -1.081152 0.000000 0.000000
    38 -1.180679 -2.507217 -0.193861 -1.010385 0.420021 -0.125607
    39 -0.024967 -1.123934 0.017594 -0.854095 0.030836 -0.035379
    40 -0.020058 -0.890965 0.010092 -1.068685 0.000000 0.000000
    41 -0.016570 -0.061986 -0.062301 2.854220 5.679697 -1.245378
  time 6
    0 9.704549 -1.783219 -9.914709 -2.010314 -1.110847 -5.072475
    1 -0.071917 -8.498731 -0.104136 0.657272 -0.000624 -0.413414
    2 0.991758 -2.979139 0.412045 0.093149 0.219909 -0.132239
    3 2.319730 3.732436 0.663903 0.000000 0.000000 0.000000
    4 1.993585 6.767204 0.465244 0.000000 -6.185087 0.000000
    5 -0.970720 4.474501 -0.006065 0.000000 -1.570796 0.000000
    6 0.809255 -1.531572 0.002293 0.000000 0.000000 0.000000
    7 2.158777 4.640841 0.663902 0.000000 -1.570796 0.000000
    8 -2.931217 -7.499518 -11.057019 -1.125464 0.774185 -0.267166
    9 0.096946 -8.450418 -0.009364 0.312875 -0.618931 0.268718
    10 -0.586769 -1.264477 0.200164 -0.339704 -0.308951 -2.463889
    11 1.522835 0.058680 0.016850 0.225980 -0.044688 0.526090
    12 1.117948 0.048425 -0.005765 -0.023921 -0.001546 0.069712
    13 -0.963866 -2.785142 -0.085346 0.294214 -0.058876 0.191782
    14 0.028478 -1.403067 0.006272 -0.355672 0.000000 0.000000
    15 0.021414 -0.957782 0.020047 -0.445104 -0.000013 0.000017
    16 -0.249534 -2.846962 -0.174215 -0.005950 -0.106350 0.177791
    17 0.043234 -1.683940 0.096015 -1.428417 0.000000 0.000000
    18 0.031728 -1.160830 0.058837 -1.034886 0.000000 0.000000
    19 0.447951 -2.798983 -0.200441 -0.855534 0.034197 0.093401
    20 -0.032909 -1.480207 0.004936 -1.173508 0.000000 0.000000
    21 -0.027023 -1.076920 -0.020212 -0.453824 0.000000 0.000000
    22 1.164475 -2.543938 -0.170327 -1.095364 -0.020941 0.248253
    23 0.024032 -1.129040 0.017806 -0.800795 0.000000 0.000000
    24 0.014896 -0.883991 -0.019846 -0.315687 0.000000 0.000000
    25 -0.088450 -0.124069 -0.041685 0.300574 0.169220 1.410648
    26 0.583510 -1.197274 0.185379 0.250092 -0.500871 -0.758615
    27 1.535926 0.010246 0.005009 -0.283171 -0.264042 -0.854738
    28 1.100770 0.004527 -0.010676 0.000000 0.000000 -0.573941
    29 0.957766 -2.746777 -0.090301 0.123323 0.221571 -0.025715
    30 -0.033419 -1.397127 -0.011256 -0.220310 0.000000 0.000000
    31 -0.022361 -0.957433 0.018783 -0.824165 0.000000 0.000000
    32 0.250029 -2.820664 -0.238397 -0.745999 0.258538 -0.139501
    33 -0.049759 -1.680544 0.100480 -1.776937 0.000000 0.000000
    34 -0.034141 -1.148310 0.084780 -1.016983 0.000000 0.000000
    35 -0.488516 -2.755600 -0.228262 -0.907168 0.257855 -0.143315
    36 0.039889 -1.479791 0.029853 -1.477868 0.000000 0.000000
    37 0.028785 -1.075732 -0.023111 -1.081152 0.000000 0.000000
    38 -1.180679 -2.507217 -0.193861 -1.010385 0.420021 -0.125607
    39 -0.024967 -1.123934 0.017594 -0.854095 0.030836 -0.035379
    40 -0.020058 -0.890965 0.010092 -1.068685 0.000000 0.000000
    41 -0.016570 -0.061986 -0.062301 2.854220 5.679697 -1.245378
  time 7
    0 9.704549 -1.783219 -9.914709 -2.010314 -1.110847 -5.072475
    1 -0.071917 -8.498731 -0.104136 0.657272 -0.000624 -0.413414
    2 0.991758 -2.979139 0.412045 0.093149 0.219909 -0.132239
    3 2.319730 3.732436 0.663903 0.000000 0.000000 0.000000
    4 1.993585 6.767204 0.465244 0.000000 -6.185087 0.000000
    5 -0.970720 4.474501 -0.006065 0.000000 -1.570796 0.000000
    6 0.809255 -1.531572 0.002293 0.000000 0.000000 0.000000
    7 2.158777 4.640841 0.663902 0.000000 -1.570796 0.000000
    8 -2.931217 -7.499518 -11.057019 -1.125464 0.774185 -0.267166
    9 0.096946 -8.450418 -0.009364 0.312875 -0.618931 0.268718
    10 -0.586769 -1.264477 0.200164 -0.339704 -0.308951 -2.463889
    11 1.522835 0.058680 0.016850 0.225980 -0.044688 0.526090
    12 1.117948 0.048425 -0.005765 -0.023921 -0.001546 0.069712
    13 -0.963866 -2.785142 -0.085346 0.294214 -0.058876 0.191782
    14 0.028478 -1.403067 0.006272 -0.355672 0.000000 0.000000
    15 0.021414 -0.957782 0.020047 -0.445104 -0.000013 0.000017
    16 -0.249534 -2.846962 -0.174215 -0.005950 -0.106350 0.177791
    17 0.043234 -1.683940 0.096015 -1.428417 0.000000 0.000000
    18 0.031728 -1.160830 0.058837 -1.034886 0.000000 0.000000
    19 0.447951 -2.798983 -0.200441 -0.855534 0.034197 0.093401
    20 -0.032909 -1.480207 0.004936 -1.173508 0.000000 0.000000
    21 -0.027023 -1.076920 -0.020212 -0.453824 0.000000 0.000000
    22 1.164475 -2.543938 -0.170327 -1.095364 -0.020941 0.248253
    23 0.024032 -1.129040 0.017806 -0.800795 0.000000 0.000000
    24 0.014896 -0.883991 -0.019846 -0.315687 0.000000 0.000000
    25 -0.088450 -0.124069 -0.041685 0.300574 0.169220 1.410648
    26 0.583510 -1.197274 0.185379 0.250092 -0.500871 -0.758615
    27 1.535926 0.010246 0.005009 -0.283171 -0.264042 -0.854738
    28 1.100770 0.004527 -0.010676 0.000000 0.000000 -0.573941
    29 0.957766 -2.746777 -0.090301 0.123323 0.221571 -0.025715
    30 -0.033419 -1.397127 -0.011256 -0.220310 0.000000 0.000000
    31 -0.022361 -0.957433 0.018783 -0.824165 0.000000 0.000000
    32 0.250029 -2.820664 -0.238397 -0.745999 0.258538 -0.139501
    33 -0.049759 -1.680544 0.100480 -1.776937 0.000000 0.000000
    34 -0.034141 -1.148310 0.084780 -1.016983 0.000000 0.000000
    35 -0.488516 -2.755600 -0.228262 -0.907168 0.257855 -0.143315
    36 0.039889 -1.479791 0.029853 -1.477868 0.000000 0.000000
    37 0.028785 -1.075732 -0.023111 -1.081152 0.000000 0.000000
    38 -1.180679 -2.507217 -0.193861 -1.010385 0.420021 -0.125607
    39 -0.024967 -1.123934 0.017594 -0.854095 0.030836 -0.035379
    40 -0.020058 -0.890965 0.010092 -1.068685 0.000000 0.000000
    41 -0.016570 -0.061986 -0.062301 2.854220 5.679697 -1.245378
  time 8
    0 9.704549 -1.783219 -9.914709 -2.010314 -1.110847 -5.072475
    1 -0.071917 -8.498731 -0.104136 0.657272 -0.000624 -0.413414
    2 0.991758 -2.979139 0.412045 0.093149 0.219909 -0.132239
    3 2.319730 3.732436 0.663903 0.000000 0.000000 0.000000
    4 1.993585 6.767204 0.465244 0.000000 -6.185087 0.000000
    5 -0.970720 4.474501 -0.006065 0.000000 -1.570796 0.000000
    6 0.809255 -1.531572 0.002293 0.000000 0.000000 0.000000
    7 2.158777 4.640841 0.663902 0.000000 -1.570796 0.000000
    8 -2.931217 -7.499518 -11.057019 -1.125464 0.774185 -0.267166
    9 0.096946 -8.450418 -0.009364 0.312875 -0.618931 0.268718
    10 -0.586769 -1.264477 0.200164 -0.339704 -0.308951 -2.463889
    11 1.522835 0.058680 0.016850 0.225980 -0.044688 0.526090
    12 1.117948 0.048425 -0.005765 -0.023921 -0.001546 0.069712
    13 -0.963866 -2.785142 -0.085346 0.294214 -0.058876 0.191782
    14 0.028478 -1.403067 0.006272 -0.355672 0.000000 0.000000
    15 0.021414 -0.957782 0.020047 -0.445104 -0.000013 0.000017
    16 -0.249534 -2.846962 -0.174215 -0.005950 -0.106350 0.177791
    17 0.043234 -1.683940 0.096015 -1.428417 0.000000 0.000000
    18 0.031728 -1.160830 0.058837 -1.034886 0.000000 0.000000
    19 0.447951 -2.798983 -0.200441 -0.855534 0.034197 0.093401
    20 -0.032909 -1.480207 0.004936 -1.173508 0.000000 0.000000
    21 -0.027023 -1.076920 -0.020212 -0.453824 0.000000 0.000000
    22 1.164475 -2.543938 -0.170327 -1.095364 -0.020941 0.248253
    23 0.024032 -1.129040 0.017806 -0.800795 0.000000 0.000000
    24 0.014896 -0.883991 -0.019846 -0.315687 0.000000 0.000000
    25 -0.088450 -0.124069 -0.041685 0.300574 0.169220 1.410648
    26 0.583510 -1.197274 0.185379 0.250092 -0.500871 -0.758615
    27 1.535926 0.010246 0.005009 -0.283171 -0.264042 -0.854738
    28 1.100770 0.004527 -0.010676 0.000000 0.000000 -0.573941
    29 0.957766 -2.746777 -0.090301 0.123323 0.221571 -0.025715
    30 -0.033419 -1.397127 -0.011256 -0.220310 0.000000 0.000000
    31 -0.022361 -0.957433 0.018783 -0.824165 0.000000 0.000000
    32 0.250029 -2.820664 -0.238397 -0.745999 0.258538 -0.139501
    33 -0.049759 -1.680544 0.100480 -1.776937 0.000000 0.000000
    34 -0.034141 -1.148310 0.084780 -1.016983 0.000000 0.000000
    35 -0.488516 -2.755600 -0.228262 -0.907168 0.257855 -0.143315
    36 0.039889 -1.479791 0.029853 -1.477868 0.000000 0.000000
    37 0.028785 -1.075732 -0.023111 -1.081152 0.000000 0.000000
    38 -1.180679 -2.507217 -0.193861 -1.010385 0.420021 -0.125607
    39 -0.024967 -1.123934 0.017594 -0.854095 0.030836 -0.035379
    40 -0.020058 -0.890965 0.010092 -1.068685 0.000000 0.000000
    41 -0.016570 -0.061986 -0.062301 2.854220 5.679697 -1.245378
  time 9
    0 9.704549 -1.783219 -9.914709 -2.010314 -1.110847 -5.072475
    1 -0.071917 -8.498731 -0.104136 0.657272 -0.000624 -0.413414
    2 0.991758 -2.979139 0.412045 0.093149 0.219909 -0.132239
    3 2.319730 3.732436 0.663903 0.000000 0.000000 0.000000
    4 1.993585 6.767204 0.465244 0.000000 -6.185087 0.000000
    5 -0.970720 4.474501 -0.006065 0.000000 -1.570796 0.000000
    6 0.809255 -1.531572 0.002293 0.000000 0.000000 0.000000
    7 2.158777 4.640841 0.663902 0.000000 -1.570796 0.000000
    8 -2.931217 -7.499518 -11.057019 -1.125464 0.774185 -0.267166
    9 0.096946 -8.450418 -0.009364 0.312875 -0.618931 0.268718
    10 -0.586769 -1.264477 0.200164 -0.339704 -0.308951 -2.463889
    11 1.522835 0.058680 0.016850 0.225980 -0.044688 0.526090
    12 1.117948 0.048425 -0.005765 -0.023921 -0.001546 0.069712
    13 -0.963866 -2.785142 -0.085346 0.294214 -0.058876 0.191782
    14 0.028478 -1.403067 0.006272 -0.355672 0.000000 0.000000
    15 0.021414 -0.957782 0.020047 -0.445104 -0.000013 0.000017
    16 -0.249534 -2.846962 -0.174215 -0.005950 -0.106350 0.177791
    17 0.043234 -1.683940 0.096015 -1.428417 0.000000 0.000000
    18 0.031728 -1.160830 0.058837 -1.034886 0.000000 0.000000
    19 0.447951 -2.798983 -0.200441 -0.855534 0.034197 0.093401
    20 -0.032909 -1.480207 0.004936 -1.173508 0.000000 0.000000
    21 -0.027023 -1.076920 -0.020212 -0.453824 0.000000 0.000000
    22 1.164475 -2.543938 -0.170327 -1.095364 -0.020941 0.248253
    23 0.024032 -1.129040 0.017806 -0.800795 0.000000 0.000000
    24 0.014896 -0.883991 -0.019846 -0.315687 0.000000 0.000000
    25 -0.088450 -0.124069 -0.041685 0.300574 0.169220 1.410648
    26 0.583510 -1.197274 0.185379 0.250092 -0.500871 -0.758615
    27 1.535926 0.010246 0.005009 -0.283171 -0.264042 -0.854738
    28 1.100770 0.004527 -0.010676 0.000000 0.000000 -0.573941
    29 0.957766 -2.746777 -0.090301 0.123323 0.221571 -0.025715
    30 -0.033419 -1.397127 -0.011256 -0.220310 0.000000 0.000000
    31 -0.022361 -0.957433 0.018783 -0.824165 0.000000 0.000000
    32 0.250029 -2.820664 -0.238397 -0.745999 0.258538 -0.139501
    33 -0.049759 -1.680544 0.100480 -1.776937 0.000000 0.000000
    34 -0.034141 -1.148310 0.084780 -1.016983 0.000000 0.000000
    35 -0.488516 -2.755600 -0.228262 -0.907168 0.257855 -0.143315
    36 0.039889 -1.479791 0.029853 -1.477868 0.000000 0.000000
    37 0.028785 -1.075732 -0.023111 -1.081152 0.000000 0.000000
    38 -1.180679 -2.507217 -0.193861 -1.010385 0.420021 -0.125607
    39 -0.024967 -1.123934 0.017594 -0.854095 0.030836 -0.035379
    40 -0.020058 -0.890965 0.010092 -1.068685 0.000000 0.000000
    41 -0.016570 -0.061986 -0.062301 2.854220 5.679697 -1.245378
  time 10
    0 9.704549 -1.783219 -9.914709 -2.010314 -1.110847 -5.072475
    1 -0.071917 -8.498731 -0.104136 0.657272 -0.000624 -0.413414
    2 0.991758 -2.979139 0.412045 0.093149 0.219909 -0.132239
    3 2.319730 3.732436 0.663903 0.000000 0.000000 0.000000
    4 1.993585 6.767204 0.465244 0.000000 -6.185087 0.000000
    5 -0.970720 4.474501 -0.006065 0.000000 -1.570796 0.000000
    6 0.809255 -1.531572 0.002293 0.000000 0.000000 0.000000
    7 2.158777 4.640841 0.663902 0.000000 -1.570796 0.000000
    8 -2.931217 -7.499518 -11.057019 -1.125464 0.774185 -0.267166
    9 0.096946 -8.450418 -0.009364 0.312875 -0.618931 0.268718
    10 -0.586769 -1.264477 0.200164 -0.339704 -0.308951 -2.463889
    11 1.522835 0.058680 0.016850 0.225980 -0.044688 0.526090
    12 1.117948 0.048425 -0.005765 -0.023921 -0.001546 0.069712
    13 -0.963866 -2.785142 -0.085346 0.294214 -0.058876 0.191782
    14 0.028478 -1.403067 0.006272 -0.355672 0.000000 0.000000
    15 0.021414 -0.957782 0.020047 -0.445104 -0.000013 0.000017
    16 -0.249534 -2.846962 -0.174215 -0.005950 -0.106350 0.177791
    17 0.043234 -1.683940 0.096015 -1.428417 0.000000 0.000000
    18 0.031728 -1.160830 0.058837 -1.034886 0.000000 0.000000
    19 0.447951 -2.798983 -0.200441 -0.855534 0.034197 0.093401
    20 -0.032909 -1.480207 0.004936 -1.173508 0.000000 0.000000
    21 -0.027023 -1.076920 -0.020212 -0.453824 0.000000 0.000000
    22 1.164475 -2.543938 -0.170327 -1.095364 -0.020941 0.248253
    23 0.024032 -1.129040 0.017806 -0.800795 0.000000 0.000000
    24 0.014896 -0.883991 -0.019846 -0.315687 0.000000 0.000000
    25 -0.088450 -0.124069 -0.041685 0.300574 0.169220 1.410648
    26 0.583510 -1.197274 0.185379 0.250092 -0.500871 -0.758615
    27 1.535926 0.010246 0.005009 -0.283171 -0.264042 -0.854738
    28 1.100770 0.004527 -0.010676 0.000000 0.000000 -0.573941
    29 0.957766 -2.746777 -0.090301 0.123323 0.221571 -0.025715
    30 -0.033419 -1.397127 -0.011256 -0.220310 0.000000 0.000000
    31 -0.022361 -0.957433 0.018783 -0.824165 0.000000 0.000000
    32 0.250029 -2.820664 -0.238397 -0.745999 0.258538 -0.139501
    33 -0.049759 -1.680544 0.100480 -1.776937 0.000000 0.000000
    34 -0.034141 -1.148310 0.084780 -1.016983 0.000000 0.000000
    35 -0.488516 -2.755600 -0.228262 -0.907168 0.257855 -0.143315
    36 0.039889 -1.479791 0.029853 -1.477868 0.000000 0.000000
    37 0.028785 -1.075732 -0.023111 -1.081152 0.000000 0.000000
    38 -1.180679 -2.507217 -0.193861 -1.010385 0.420021 -0.125607
    39 -0.024967 -1.123934 0.017594 -0.854095 0.030836 -0.035379
    40 -0.020058 -0.890965 0.010092 -1.068685 0.000000 0.000000
    41 -0.016570 -0.061986 -0.062301 2.854220 5.679697 -1.245378
  time 11
    0 9.704549 -1.783219 -9.914709 -2.010314 -1.110847 -5.072475
    1 -0.071917 -8.498731 -0.104136 0.657272 -0.000624 -0.413414
    2 0.991758 -2.979139 0.412045 0.093149 0.219909 -0.132239
    3 2.319730 3.732436 0.663903 0.000000 0.000000 0.000000
    4 1.993585 6.767204 0.465244 0.000000 -6.185087 0.000000
    5 -0.970720 4.474501 -0.006065 0.000000 -1.570796 0.000000
    6 0.809255 -1.531572 0.002293 0.000000 0.000000 0.000000
    7 2.158777 4.640841 0.663902 0.000000 -1.570796 0.000000
    8 -2.931217 -7.499518 -11.057019 -1.125464 0.774185 -0.267166
    9 0.096946 -8.450418 -0.009364 0.312875 -0.618931 0.268718
    10 -0.586769 -1.264477 0.200164 -0.339704 -0.308951 -2.463889
    11 1.522835 0.058680 0.016850 0.225980 -0.044688 0.526090
    12 1.117948 0.048425 -0.005765 -0.023921 -0.001546 0.069712
    13 -0.963866 -2.785142 -0.085346 0.294214 -0.058876 0.191782
    14 0.028478 -1.403067 0.006272 -0.355672 0.000000 0.000000
    15 0.021414 -0.957782 0.020047 -0.445104 -0.000013 0.000017
    16 -0.249534 -2.846962 -0.174215 -0.005950 -0.106350 0.177791
    17 0.043234 -1.683940 0.096015 -1.428417 0.000000 0.000000
    18 0.031728 -1.160830 0.058837 -1.034886 0.000000 0.000000
    19 0.447951 -2.798983 -0.200441 -0.855534 0.034197 0.093401
    20 -0.032909 -1.480207 0.004936 -1.173508 0.000000 0.000000
    21 -0.027023 -1.076920 -0.020212 -0.453824 0.000000 0.000000
    22 1.164475 -2.543938 -0.170327 -1.095364 -0.020941 0.248253
    23 0.024032 -1.129040 0.017806 -0.800795 0.000000 0.000000
    24 0.014896 -0.883991 -0.019846 -0.315687 0.000000 0.000000
    25 -0.088450 -0.124069 -0.041685 0.300574 0.169220 1.410648
    26 0.583510 -1.197274 0.185379 0.250092 -0.500871 -0.758615
    27 1.535926 0.010246 0.005009 -0.283171 -0.264042 -0.854738
    28 1.100770 0.004527 -0.010676 0.000000 0.000000 -0.573941
    29 0.957766 -2.746777 -0.090301 0.123323 0.221571 -0.025715
    30 -0.033419 -1.397127 -0.011256 -0.220310 0.000000 0.000000
    31 -0.022361 -0.957433 0.018783 -0.824165 0.000000 0.000000
    32 0.250029 -2.820664 -0.238397 -0.745999 0.258538 -0.139501
    33 -0.049759 -1.680544 0.100480 -1.776937 0.000000 0.000000
    34 -0.034141 -1.148310 0.084780 -1.016983 0.000000 0.000000
    35 -0.488516 -2.755600 -0.228262 -0.907168 0.257855 -0.143315
    36 0.039889 -1.479791 0.029853 -1.477868 0.000000 0.000000
    37 0.028785 -1.075732 -0.023111 -1.081152 0.000000 0.000000
    38 -1.180679 -2.507217 -0.193861 -1.010385 0.420021 -0.125607
    39 -0.024967 -1.123934 0.017594 -0.854095 0.030836 -0.035379
    40 -0.020058 -0.890965 0.010092 -1.068685 0.000000 0.000000
    41 -0.016570 -0.061986 -0.062301 2.854220 5.679697 -1.245378
  time 12
    0 9.704549 -1.783219 -9.914709 -2.010314 -1.110847 -5.072475
    1 -0.071917 -8.498731 -0.104136 0.657272 -0.000624 -0.413414
    2 0.991758 -2.979139 0.412045 0.093149 0.219909 -0.132239
    3 2.319730 3.732436 0.663903 0.000000 0.000000 0.000000
    4 1.993585 6.767204 0.465244 0.000000 -6.185087 0.000000
    5 -0.970720 4.474501 -0.006065 0.000000 -1.570796 0.000000
    6 0.809255 -1.531572 0.002293 0.000000 0.000000 0.000000
    7 2.158777 4.640841 0.663902 0.000000 -1.570796 0.000000
    8 -2.931217 -7.499518 -11.057019 -1.125464 0.774185 -0.267166
    9 0.096946 -8.450418 -0.009364 0.312875 -0.618931 0.268718
    10 -0.586769 -1.264477 0.200164 -0.339704 -0.308951 -2.463889
    11 1.522835 0.058680 0.016850 0.225980 -0.044688 0.526090
    12 1.117948 0.048425 -0.005765 -0.023921 -0.001546 0.069712
    13 -0.963866 -2.785142 -0.085346 0.294214 -0.058876 0.191782
    14 0.028478 -1.403067 0.006272 -0.355672 0.000000 0.000000
    15 0.021414 -0.957782 0.020047 -0.445104 -0.000013 0.000017
    16 -0.249534 -2.846962 -0.174215 -0.005950 -0.106350 0.177791
    17 0.043234 -1.683940 0.096015 -1.428417 0.000000 0.000000
    18 0.031728 -1.160830 0.058837 -1.034886 0.000000 0.000000
    19 0.447951 -2.798983 -0.200441 -0.855534 0.034197 0.093401
    20 -0.032909 -1.480207 0.004936 -1.173508 0.000000 0.000000
    21 -0.027023 -1.076920 -0.020212 -0.453824 0.000000 0.000000
    22 1.164475 -2.543938 -0.170327 -1.095364 -0.020941 0.248253
    23 0.024032 -1.129040 0.017806 -0.800795 0.000000 0.000000
    24 0.014896 -0.883991 -0.019846 -0.315687 0.000000 0.000000
    25 -0.088450 -0.124069 -0.041685 0.300574 0.169220 1.410648
    26 0.583510 -1.197274 0.185379 0.250092 -0.500871 -0.758615
    27 1.535926 0.010246 0.005009 -0.283171 -0.264042 -0.854738
    28 1.100770 0.004527 -0.010676 0.000000 0.000000 -0.573941
    29 0.957766 -2.746777 -0.090301 0.123323 0.221571 -0.025715
    30 -0.033419 -1.397127 -0.011256 -0.220310 0.000000 0.000000
    31 -0.022361 -0.957433 0.018783 -0.824165 0.000000 0.000000
    32 0.250029 -2.820664 -0.238397 -0.745999 0.258538 -0.139501
    33 -0.049759 -1.680544 0.100480 -1.776937 0.000000 0.000000
    34 -0.034141 -1.148310 0.084780 -1.016983 0.000000 0.000000
    35 -0.488516 -2.755600 -0.228262 -0.907168 0.257855 -0.143315
    36 0.039889 -1.479791 0.029853 -1.477868 0.000000 0.000000
    37 0.028785 -1.075732 -0.023111 -1.081152 0.000000 0.000000
    38 -1.180679 -2.507217 -0.193861 -1.010385 0.420021 -0.125607
    39 -0.024967 -1.123934 0.017594 -0.854095 0.030836 -0.035379
    40 -0.020058 -0.890965 0.010092 -1.068685 0.000000 0.000000
    41 -0.016570 -0.061986 -0.062301 2.854220 5.679697 -1.245378
  time 13
    0 9.704549 -1.783219 -9.914709 -2.010314 -1.110847 -5.072475
    1 -0.071917 -8.498731 -0.104136 0.657272 -0.000624 -0.413414
    2 0.991758 -2.979139 0.412045 0.093149 0.219909 -0.132239
    3 2.319730 3.732436 0.663903 0.000000 0.000000 0.000000
    4 1.993585 6.767204 0.465244 0.000000 -6.185087 0.000000
    5 -0.970720 4.474501 -0.006065 0.000000 -1.570796 0.000000
    6 0.809255 -1.531572 0.002293 0.000000 0.000000 0.000000
    7 2.158777 4.640841 0.663902 0.000000 -1.570796 0.000000
    8 -2.931217 -7.499518 -11.057019 -1.125464 0.774185 -0.267166
    9 0.096946 -8.450418 -0.009364 0.312875 -0.618931 0.268718
    10 -0.586769 -1.264477 0.200164 -0.339704 -0.308951 -2.463889
    11 1.522835 0.058680 0.016850 0.225980 -0.044688 0.526090
    12 1.117948 0.048425 -0.005765 -0.023921 -0.001546 0.069712
    13 -0.963866 -2.785142 -0.085346 0.294214 -0.058876 0.191782
    14 0.028478 -1.403067 0.006272 -0.355672 0.000000 0.000000
    15 0.021414 -0.957782 0.020047 -0.445104 -0.000013 0.000017
    16 -0.249534 -2.846962 -0.174215 -0.005950 -0.106350 0.177791
    17 0.043234 -1.683940 0.096015 -1.428417 0.000000 0.000000
    18 0.031728 -1.160830 0.058837 -1.034886 0.000000 0.000000
    19 0.447951 -2.798983 -0.200441 -0.855534 0.034197 0.093401
    20 -0.032909 -1.480207 0.004936 -1.173508 0.000000 0.000000
    21 -0.027023 -1.076920 -0.020212 -0.453824 0.000000 0.000000
    22 1.164475 -2.543938 -0.170327 -1.095364 -0.020941 0.248253
    23 0.024032 -1.129040 0.017806 -0.800795 0.000000 0.000000
    24 0.014896 -0.883991 -0.019846 -0.315687 0.000000 0.000000
    25 -0.088450 -0.124069 -0.041685 0.300574 0.169220 1.410648
    26 0.583510 -1.197274 0.185379 0.250092 -0.500871 -0.758615
    27 1.535926 0.010246 0.005009 -0.283171 -0.264042 -0.854738
    28 1.100770 0.004527 -0.010676 0.000000 0.000000 -0.573941
    29 0.957766 -2.746777 -0.090301 0.123323 0.221571 -0.025715
    30 -0.033419 -1.397127 -0.011256 -0.220310 0.000000 0.000000
    31 -0.022361 -0.957433 0.018783 -0.824165 0.000000 0.000000
    32 0.250029 -2.820664 -0.238397 -0.745999 0.258538 -0.139501
    33 -0.049759 -1.680544 0.100480 -1.776937 0.000000 0.000000
    34 -0.034141 -1.148310 0.084780 -1.016983 0.000000 0.000000
    35 -0.488516 -2.755600 -0.228262 -0.907168 0.257855 -0.143315
    36 0.039889 -1.479791 0.029853 -1.477868 0.000000 0.000000
    37 0.028785 -1.075732 -0.023111 -1.081152 0.000000 0.000000
    38 -1.180679 -2.507217 -0.193861 -1.010385 0.420021 -0.125607
    39 -0.024967 -1.123934 0.017594 -0.854095 0.030836 -0.035379
    40 -0.020058 -0.890965 0.010092 -1.068685 0.000000 0.000000
    41 -0.016570 -0.061986 -0.062301 2.854220 5.679697 -1.245378
  time 14
    0 9.704549 -1.783219 -9.914709 -2.010314 -1.110847 -5.072475
    1 -0.071917 -8.498731 -0.104136 0.657272 -0.000624 -0.413414
    2 0.991758 -2.979139 0.412045 0.093149 0.219909 -0.132239
    3 2.319730 3.732436 0.663903 0.000000 0.000000 0.000000
    4 1.993585 6.767204 0.465244 0.000000 -6.185087 0.000000
    5 -0.970720 4.474501 -0.006065 0.000000 -1.570796 0.000000
    6 0.809255 -1.531572 0.002293 0.000000 0.000000 0.000000
    7 2.158777 4.640841 0.663902 0.000000 -1.570796 0.000000
    8 -2.931217 -7.499518 -11.057019 -1.125464 0.774185 -0.267166
    9 0.096946 -8.450418 -0.009364 0.312875 -0.618931 0.268718
    10 -0.586769 -1.264477 0.200164 -0.339704 -0.308951 -2.463889
    11 1.522835 0.058680 0.016850 0.225980 -0.044688 0.526090
    12 1.117948 0.048425 -0.005765 -0.023921 -0.001546 0.069712
    13 -0.963866 -2.785142 -0.085346 0.294214 -0.058876 0.191782
    14 0.028478 -1.403067 0.006272 -0.355672 0.000000 0.000000
    15 0.021414 -0.957782 0.020047 -0.445104 -0.000013 0.000017
    16 -0.249534 -2.846962 -0.174215 -0.005950 -0.106350 0.177791
    17 0.043234 -1.683940 0.096015 -1.428417 0.000000 0.000000
    18 0.031728 -1.160830 0.058837 -1.034886 0.000000 0.000000
    19 0.447951 -2.798983 -0.200441 -0.855534 0.034197 0.093401
    20 -0.032909 -1.480207 0.004936 -1.173508 0.000000 0.000000
    21 -0.027023 -1.076920 -0.020212 -0.453824 0.000000 0.000000
    22 1.164475 -2.543938 -0.170327 -1.095364 -0.020941 0.248253
    23 0.024032 -1.129040 0.017806 -0.800795 0.000000 0.000000
    24 0.014896 -0.883991 -0.019846 -0.315687 0.000000 0.000000
    25 -0.088450 -0.124069 -0.041685 0.300574 0.169220 1.410648
    26 0.583510 -1.197274 0.185379 0.250092 -0.500871 -0.758615
    27 1.535926 0.010246 0.005009 -0.283171 -0.264042 -0.854738
    28 1.100770 0.004527 -0.010676 0.000000 0.000000 -0.573941
    29 0.957766 -2.746777 -0.090301 0.123323 0.221571 -0.025715
    30 -0.033419 -1.397127 -0.011256 -0.220310 0.000000 0.000000
    31 -0.022361 -0.957433 0.018783 -0.824165 0.000000 0.000000
    32 0.250029 -2.820664 -0.238397 -0.745999 0.258538 -0.139501
    33 -0.049759 -1.680544 0.100480 -1.776937 0.000000 0.000000
    34 -0.034141 -1.148310 0.084780 -1.016983 0.000000 0.000000
    35 -0.488516 -2.755600 -0.228262 -0.907168 0.257855 -0.143315
    36 0.039889 -1.479791 0.029853 -1.477868 0.000000 0.000000
    37 0.028785 -1.075732 -0.023111 -1.081152 0.000000 0.000000
    38 -1.180679 -2.507217 -0.193861 -1.010385 0.420021 -0.125607
    39 -0.024967 -1.123934 0.017594 -0.854095 0.030836 -0.035379
    40 -0.020058 -0.890965 0.010092 -1.068685 0.000000 0.000000
    41 -0.016570 -0.061986 -0.062301 2.854220 5.679697 -1.245378
  time 15
    0 9.704549 -1.783219 -9.914709 -2.010314 -1.110847 -5.072475
    1 -0.071917 -8.498731 -0.104136 0.657272 -0.000624 -0.413414
    2 0.991758 -2.979139 0.412045 0.093149 0.219909 -0.132239
    3 2.319730 3.732436 0.663903 0.000000 0.000000 0.000000
    4 1.993585 6.767204 0.465244 0.000000 -6.185087 0.000000
    5 -0.970720 4.474501 -0.006065 0.000000 -1.570796 0.000000
    6 0.809255 -1.531572 0.002293 0.000000 0.000000 0.000000
    7 2.158777 4.640841 0.663902 0.000000 -1.570796 0.000000
    8 -2.931217 -7.499518 -11.057019 -1.125464 0.774185 -0.267166
    9 0.096946 -8.450418 -0.009364 0.312875 -0.618931 0.268718
    10 -0.586769 -1.264477 0.200164 -0.339704 -0.308951 -2.463889
    11 1.522835 0.058680 0.016850 0.225980 -0.044688 0.526090
    12 1.117948 0.048425 -0.005765 -0.023921 -0.001546 0.069712
    13 -0.963866 -2.785142 -0.085346 0.294214 -0.058876 0.191782
    14 0.028478 -1.403067 0.006272 -0.355672 0.000000 0.000000
    15 0.021414 -0.957782 0.020047 -0.445104 -0.000013 0.000017
    16 -0.249534 -2.846962 -0.174215 -0.005950 -0.106350 0.177791
    17 0.043234 -1.683940 0.096015 -1.428417 0.000000 0.000000
    18 0.031728 -1.160830 0.058837 -1.034886 0.000000 0.000000
    19 0.447951 -2.798983 -0.200441 -0.855534 0.034197 0.093401
    20 -0.032909 -1.480207 0.004936 -1.173508 0.000000 0.000000
    21 -0.027023 -1.076920 -0.020212 -0.453824 0.000000 0.000000
    22 1.164475 -2.543938 -0.170327 -1.095364 -0.020941 0.248253
    23 0.024032 -1.129040 0.017806 -0.800795 0.000000 0.000000
    24 0.014896 -0.883991 -0.019846 -0.315687 0.000000 0.000000
    25 -0.088450 -0.124069 -0.041685 0.300574 0.169220 1.410648
    26 0.583510 -1.197274 0.185379 0.250092 -0.500871 -0.758615
    27 1.535926 0.010246 0.005009 -0.283171 -0.264042 -0.854738
    28 1.100770 0.004527 -0.010676 0.000000 0.000000 -0.573941
    29 0.957766 -2.746777 -0.090301 0.123323 0.221571 -0.025715
    30 -0.033419 -1.397127 -0.011256 -0.220310 0.000000 0.000000
    31 -0.022361 -0.957433 0.018783 -0.824165 0.000000 0.000000
    32 0.250029 -2.820664 -0.238397 -0.745999 0.258538 -0.139501
    33 -0.049759 -1.680544 0.100480 -1.776937 0.000000 0.000000
    34 -0.034141 -1.148310 0.084780 -1.016983 0.000000 0.000000
    35 -0.488516 -2.755600 -0.228262 -0.907168 0.257855 -0.143315
    36 0.039889 -1.479791 0.029853 -1.477868 0.000000 0.000000
    37 0.028785 -1.075732 -0.023111 -1.081152 0.000000 0.000000
    38 -1.180679 -2.507217 -0.193861 -1.010385 0.420021 -0.125607
    39 -0.024967 -1.123934 0.017594 -0.854095 0.030836 -0.035379
    40 -0.020058 -0.890965 0.010092 -1.068685 0.000000 0.000000
    41 -0.016570 -0.061986 -0.062301 2.854220 5.679697 -1.245378
  time 16
    0 9.704549 -1.783219 -9.914709 -2.010314 -1.110847 -5.072475
    1 -0.071917 -8.498731 -0.104136 0.657272 -0.000624 -0.413414
    2 0.991758 -2.979139 0.412045 0.093149 0.219909 -0.132239
    3 2.319730 3.732436 0.663903 0.000000 0.000000 0.000000
    4 1.993585 6.767204 0.465244 0.000000 -6.185087 0.000000
    5 -0.970720 4.474501 -0.006065 0.000000 -1.570796 0.000000
    6 0.809255 -1.531572 0.002293 0.000000 0.000000 0.000000
    7 2.158777 4.640841 0.663902 0.000000 -1.570796 0.000000
    8 -2.931217 -7.499518 -11.057019 -1.125464 0.774185 -0.267166
    9 0.096946 -8.450418 -0.009364 0.312875 -0.618931 0.268718
    10 -0.586769 -1.264477 0.200164 -0.339704 -0.308951 -2.463889
    11 1.522835 0.058680 0.016850 0.225980 -0.044688 0.526090
    12 1.117948 0.048425 -0.005765 -0.023921 -0.001546 0.069712
    13 -0.963866 -2.785142 -0.085346 0.294214 -0.058876 0.191782
    14 0.028478 -1.403067 0.006272 -0.355672 0.000000 0.000000
    15 0.021414 -0.957782 0.020047 -0.445104 -0.000013 0.000017
    16 -0.249534 -2.846962 -0.174215 -0.005950 -0.106350 0.177791
    17 0.043234 -1.683940 0.096015 -1.428417 0.000000 0.000000
    18 0.031728 -1.160830 0.058837 -1.034886 0.000000 0.000000
    19 0.447951 -2.798983 -0.200441 -0.855534 0.034197 0.093401
    20 -0.032909 -1.480207 0.004936 -1.173508 0.000000 0.000000
    21 -0.027023 -1.076920 -0.020212 -0.453824 0.000000 0.000000
    22 1.164475 -2.543938 -0.170327 -1.095364 -0.020941 0.248253
    23 0.024032 -1.129040 0.017806 -0.800795 0.000000 0.000000
    24 0.014896 -0.883991 -0.019846 -0.315687 0.000000 0.000000
    25 -0.088450 -0.124069 -0.041685 0.300574 0.169220 1.410648
    26 0.583510 -1.197274 0.185379 0.250092 -0.500871 -0.758615
    27 1.535926 0.010246 0.005009 -0.283171 -0.264042 -0.854738
    28 1.100770 0.004527 -0.010676 0.000000 0.000000 -0.573941
    29 0.957766 -2.746777 -0.090301 0.123323 0.221571 -0.025715
    30 -0.033419 -1.397127 -0.011256 -0.220310 0.000000 0.000000
    31 -0.022361 -0.957433 0.018783 -0.824165 0.000000 0.000000
    32 0.250029 -2.820664 -0.238397 -0.745999 0.258538 -0.139501
    33 -0.049759 -1.680544 0.100480 -1.776937 0.000000 0.000000
    34 -0.034141 -1.148310 0.084780 -1.016983 0.000000 0.000000
    35 -0.488516 -2.755600 -0.228262 -0.907168 0.257855 -0.143315
    36 0.039889 -1.479791 0.029853 -1.477868 0.000000 0.000000
    37 0.028785 -1.075732 -0.023111 -1.081152 0.000000 0.000000
    38 -1.180679 -2.507217 -0.193861 -1.010385 0.420021 -0.125607
    39 -0.024967 -1.123934 0.017594 -0.854095 0.030836 -0.035379
    40 -0.020058 -0.890965 0.010092 -1.068685 0.000000 0.000000
    41 -0.016570 -0.061986 -0.062301 2.854220 5.679697 -1.245378
  time 17
    0 9.704549 -1.783219 -9.914709 -2.010314 -1.110847 -5.072475
    1 -0.071917 -8.498731 -0.104136 0.657272 -0.000624 -0.413414
    2 0.991758 -2.979139 0.412045 0.093149 0.219909 -0.132239
    3 2.319730 3.732436 0.663903 0.000000 0.000000 0.000000
    4 1.993585 6.767204 0.465244 0.000000 -6.185087 0.000000
    5 -0.970720 4.474501 -0.006065 0.000000 -1.570796 0.000000
    6 0.809255 -1.531572 0.002293 0.000000 0.000000 0.000000
    7 2.158777 4.640841 0.663902 0.000000 -1.570796 0.000000
    8 -2.931217 -7.499518 -11.057019 -1.125464 0.774185 -0.267166
    9 0.096946 -8.450418 -0.009364 0.312875 -0.618931 0.268718
    10 -0.586769 -1.264477 0.200164 -0.339704 -0.308951 -2.463889
    11 1.522835 0.058680 0.016850 0.225980 -0.044688 0.526090
    12 1.117948 0.048425 -0.005765 -0.023921 -0.001546 0.069712
    13 -0.963866 -2.785142 -0.085346 0.294214 -0.058876 0.191782
    14 0.028478 -1.403067 0.006272 -0.355672 0.000000 0.000000
    15 0.021414 -0.957782 0.020047 -0.445104 -0.000013 0.000017
    16 -0.249534 -2.846962 -0.174215 -0.005950 -0.106350 0.177791
    17 0.043234 -1.683940 0.096015 -1.428417 0.000000 0.000000
    18 0.031728 -1.160830 0.058837 -1.034886 0.000000 0.000000
    19 0.447951 -2.798983 -0.200441 -0.855534 0.034197 0.093401
    20 -0.032909 -1.480207 0.004936 -1.173508 0.000000 0.000000
    21 -0.027023 -1.076920 -0.020212 -0.453824 0.000000 0.000000
    22 1.164475 -2.543938 -0.170327 -1.095364 -0.020941 0.248253
    23 0.024032 -1.129040 0.017806 -0.800795 0.000000 0.000000
    24 0.014896 -0.883991 -0.019846 -0.315687 0.000000 0.000000
    25 -0.088450 -0.124069 -0.041685 0.300574 0.169220 1.410648
    26 0.583510 -1.197274 0.185379 0.250092 -0.500871 -0.758615
    27 1.535926 0.010246 0.005009 -0.283171 -0.264042 -0.854738
    28 1.100770 0.004527 -0.010676 0.000000 0.000000 -0.573941
    29 0.957766 -2.746777 -0.090301 0.123323 0.221571 -0.025715
    30 -0.033419 -1.397127 -0.011256 -0.220310 0.000000 0.000000
    31 -0.022361 -0.957433 0.018783 -0.824165 0.000000 0.000000
    32 0.250029 -2.820664 -0.238397 -0.745999 0.258538 -0.139501
    33 -0.049759 -1.680544 0.100480 -1.776937 0.000000 0.000000
    34 -0.034141 -1.148310 0.084780 -1.016983 0.000000 0.000000
    35 -0.488516 -2.755600 -0.228262 -0.907168 0.257855 -0.143315
    36 0.039889 -1.479791 0.029853 -1.477868 0.000000 0.000000
    37 0.028785 -1.075732 -0.023111 -1.081152 0.000000 0.000000
    38 -1.180679 -2.507217 -0.193861 -1.010385 0.420021 -0.125607
    39 -0.024967 -1.123934 0.017594 -0.854095 0.030836 -0.035379
    40 -0.020058 -0.890965 0.010092 -1.068685 0.000000 0.000000
    41 -0.016570 -0.061986 -0.062301 2.854220 5.679697 -1.245378
  time 18
    0 9.704549 -1.783219 -9.914709 -2.010314 -1.110847 -5.072475
    1 -0.071917 -8.498731 -0.104136 0.657272 -0.000624 -0.413414
    2 0.991758 -2.979139 0.412045 0.093149 0.219909 -0.132239
    3 2.319730 3.732436 0.663903 0.000000 0.000000 0.000000
    4 1.993585 6.767204 0.465244 0.000000 -6.185087 0.000000
    5 -0.970720 4.474501 -0.006065 0.000000 -1.570796 0.000000
    6 0.809255 -1.531572 0.002293 0.000000 0.000000 0.000000
    7 2.158777 4.640841 0.663902 0.000000 -1.570796 0.000000
    8 -2.931217 -7.499518 -11.057019 -1.125464 0.774185 -0.267166
    9 0.096946 -8.450418 -0.009364 0.312875 -0.618931 0.268718
    10 -0.586769 -1.264477 0.200164 -0.339704 -0.308951 -2.463889
    11 1.522835 0.058680 0.016850 0.225980 -0.044688 0.526090
    12 1.117948 0.048425 -0.005765 -0.023921 -0.001546 0.069712
    13 -0.963866 -2.785142 -0.085346 0.294214 -0.058876 0.191782
    14 0.028478 -1.403067 0.006272 -0.355672 0.000000 0.000000
    15 0.021414 -0.957782 0.020047 -0.445104 -0.000013 0.000017
    16 -0.249534 -2.846962 -0.174215 -0.005950 -0.106350 0.177791
    17 0.043234 -1.683940 0.096015 -1.428417 0.000000 0.000000
    18 0.031728 -1.160830 0.058837 -1.034886 0.000000 0.000000
    19 0.447951 -2.798983 -0.200441 -0.855534 0.034197 0.093401
    20 -0.032909 -1.480207 0.004936 -1.173508 0.000000 0.000000
    21 -0.027023 -1.076920 -0.020212 -0.453824 0.000000 0.000000
    22 1.164475 -2.543938 -0.170327 -1.095364 -0.020941 0.248253
    23 0.024032 -1.129040 0.017806 -0.800795 0.000000 0.000000
    24 0.014896 -0.883991 -0.019846 -0.315687 0.000000 0.000000
    25 -0.088450 -0.124069 -0.041685 0.300574 0.169220 1.410648
    26 0.583510 -1.197274 0.185379 0.250092 -0.500871 -0.758615
    27 1.535926 0.010246 0.005009 -0.283171 -0.264042 -0.854738
    28 1.100770 0.004527 -0.010676 0.000000 0.000000 -0.573941
    29 0.957766 -2.746777 -0.090301 0.123323 0.221571 -0.025715
    30 -0.033419 -1.397127 -0.011256 -0.220310 0.000000 0.000000
    31 -0.022361 -0.957433 0.018783 -0.824165 0.000000 0.000000
    32 0.250029 -2.820664 -0.238397 -0.745999 0.258538 -0.139501
    33 -0.049759 -1.680544 0.100480 -1.776937 0.000000 0.000000
    34 -0.034141 -1.148310 0.084780 -1.016983 0.000000 0.000000
    35 -0.488516 -2.755600 -0.228262 -0.907168 0.257855 -0.143315
    36 0.039889 -1.479791 0.029853 -1.477868 0.000000 0.000000
    37 0.028785 -1.075732 -0.023111 -1.081152 0.000000 0.000000
    38 -1.180679 -2.507217 -0.193861 -1.010385 0.420021 -0.125607
    39 -0.024967 -1.123934 0.017594 -0.854095 0.030836 -0.035379
    40 -0.020058 -0.890965 0.010092 -1.068685 0.000000 0.000000
    41 -0.016570 -0.061986 -0.062301 2.854220 5.679697 -1.245378
  time 19
    0 9.704549 -1.783219 -9.914709 -2.010314 -1.110847 -5.072475
    1 -0.071917 -8.498731 -0.104136 0.657272 -0.000624 -0.413414
    2 0.991758 -2.979139 0.412045 0.093149 0.219909 -0.132239
    3 2.319730 3.732436 0.663903 0.000000 0.000000 0.000000
    4 1.993585 6.767204 0.465244 0.000000 -6.185087 0.000000
    5 -0.970720 4.474501 -0.006065 0.000000 -1.570796 0.000000
    6 0.809255 -1.531572 0.002293 0.000000 0.000000 0.000000
    7 2.158777 4.640841 0.663902 0.000000 -1.570796 0.000000
    8 -2.931217 -7.499518 -11.057019 -1.125464 0.774185 -0.267166
    9 0.096946 -8.450418 -0.009364 0.312875 -0.618931 0.268718
    10 -0.586769 -1.264477 0.200164 -0.339704 -0.308951 -2.463889
    11 1.522835 0.058680 0.016850 0.225980 -0.044688 0.526090
    12 1.117948 0.048425 -0.005765 -0.023921 -0.001546 0.069712
    13 -0.963866 -2.785142 -0.085346 0.294214 -0.058876 0.191782
    14 0.028478 -1.403067 0.006272 -0.355672 0.000000 0.000000
    15 0.021414 -0.957782 0.020047 -0.445104 -0.000013 0.000017
    16 -0.249534 -2.846962 -0.174215 -0.005950 -0.106350 0.177791
    17 0.043234 -1.683940 0.096015 -1.428417 0.000000 0.000000
    18 0.031728 -1.160830 0.058837 -1.034886 0.000000 0.000000
    19 0.447951 -2.798983 -0.200441 -0.855534 0.034197 0.093401
    20 -0.032909 -1.480207 0.004936 -1.173508 0.000000 0.000000
    21 -0.027023 -1.076920 -0.020212 -0.453824 0.000000 0.000000
    22 1.164475 -2.543938 -0.170327 -1.095364 -0.020941 0.248253
    23 0.024032 -1.129040 0.017806 -0.800795 0.000000 0.000000
    24 0.014896 -0.883991 -0.019846 -0.315687 0.000000 0.000000
    25 -0.088450 -0.124069 -0.041685 0.300574 0.169220 1.410648
    26 0.583510 -1.197274 0.185379 0.250092 -0.500871 -0.758615
    27 1.535926 0.010246 0.005009 -0.283171 -0.264042 -0.854738
    28 1.100770 0.004527 -0.010676 0.000000 0.000000 -0.573941
    29 0.957766 -2.746777 -0.090301 0.123323 0.221571 -0.025715
    30 -0.033419 -1.397127 -0.011256 -0.220310 0.000000 0.000000
    31 -0.022361 -0.957433 0.018783 -0.824165 0.000000 0.000000
    32 0.250029 -2.820664 -0.238397 -0.745999 0.258538 -0.139501
    33 -0.049759 -1.680544 0.100480 -1.776937 0.000000 0.000000
    34 -0.034141 -1.148310 0.084780 -1.016983 0.000000 0.000000
    35 -0.488516 -2.755600 -0.228262 -0.907168 0.257855 -0.143315
    36 0.039889 -1.479791 0.029853 -1.477868 0.000000 0.000000
    37 0.028785 -1.075732 -0.023111 -1.081152 0.000000 0.000000
    38 -1.180679 -2.507217 -0.193861 -1.010385 0.420021 -0.125607
    39 -0.024967 -1.123934 0.017594 -0.854095 0.030836 -0.035379
    40 -0.020058 -0.890965 0.010092 -1.068685 0.000000 0.000000
    41 -0.016570 -0.061986 -0.062301 2.854220 5.679697 -1.245378
  time 20
    0 9.704549 -1.783219 -9.914709 -2.010314 -1.110847 -5.072475
    1 -0.071917 -8.498731 -0.104136 0.657272 -0.000624 -0.413414
    2 0.991758 -2.979139 0.412045 0.093149 0.219909 -0.132239
    3 2.319730 3.732436 0.663903 0.000000 0.000000 0.000000
    4 1.993585 6.767204 0.465244 0.000000 -6.185087 0.000000
    5 -0.970720 4.474501 -0.006065 0.000000 -1.570796 0.000000
    6 0.809255 -1.531572 0.002293 0.000000 0.000000 0.000000
    7 2.158777 4.640841 0.663902 0.000000 -1.570796 0.000000
    8 -2.931217 -7.499518 -11.057019 -1.125464 0.774185 -0.267166
    9 0.096946 -8.450418 -0.009364 0.312875 -0.618931 0.268718
    10 -0.586769 -1.264477 0.200164 -0.339704 -0.308951 -2.463889
    11 1.522835 0.058680 0.016850 0.225980 -0.044688 0.526090
    12 1.117948 0.048425 -0.005765 -0.023921 -0.001546 0.069712
    13 -0.963866 -2.785142 -0.085346 0.294214 -0.058876 0.191782
    14 0.028478 -1.403067 0.006272 -0.355672 0.000000 0.000000
    15 0.021414 -0.957782 0.020047 -0.445104 -0.000013 0.000017
    16 -0.249534 -2.846962 -0.174215 -0.005950 -0.106350 0.177791
    17 0.043234 -1.683940 0.096015 -1.428417 0.000000 0.000000
    18 0.031728 -1.160830 0.058837 -1.034886 0.000000 0.000000
    19 0.447951 -2.798983 -0.200441 -0.855534 0.034197 0.093401
    20 -0.032909 -1.480207 0.004936 -1.173508 0.000000 0.000000
    21 -0.027023 -1.076920 -0.020212 -0.453824 0.000000 0.000000
    22 1.164475 -2.543938 -0.170327 -1.095364 -0.020941 0.248253
    23 0.024032 -1.129040 0.017806 -0.800795 0.000000 0.000000
    24 0.014896 -0.883991 -0.019846 -0.315687 0.000000 0.000000
    25 -0.088450 -0.124069 -0.041685 0.300574 0.169220 1.410648
    26 0.583510 -1.197274 0.185379 0.250092 -0.500871 -0.758615
    27 1.535926 0.010246 0.005009 -0.283171 -0.264042 -0.854738
    28 1.100770 0.004527 -0.010676 0.000000 0.000000 -0.573941
    29 0.957766 -2.746777 -0.090301 0.123323 0.221571 -0.025715
    30 -0.033419 -1.397127 -0.011256 -0.220310 0.000000 0.000000
    31 -0.022361 -0.957433 0.018783 -0.824165 0.000000 0.000000
    32 0.250029 -2.820664 -0.238397 -0.745999 0.258538 -0.139501
    33 -0.049759 -1.680544 0.100480 -1.776937 0.000000 0.000000
    34 -0.034141 -1.148310 0.084780 -1.016983 0.000000 0.000000
    35 -0.488516 -2.755600 -0.228262 -0.907168 0.257855 -0.143315
    36 0.039889 -1.479791 0.029853 -1.477868 0.000000 0.000000
    37 0.028785 -1.075732 -0.023111 -1.081152 0.000000 0.000000
    38 -1.180679 -2.507217 -0.193861 -1.010385 0.420021 -0.125607
    39 -0.024967 -1.123934 0.017594 -0.854095 0.030836 -0.035379
    40 -0.020058 -0.890965 0.010092 -1.068685 0.000000 0.000000
    41 -0.016570 -0.061986 -0.062301 2.854220 5.679697 -1.245378
  time 21
    0 9.704549 -1.783219 -9.914709 -2.010314 -1.110847 -5.072475
    1 -0.071917 -8.498731 -0.104136 0.657272 -0.000624 -0.413414
    2 0.991758 -2.979139 0.412045 0.093149 0.219909 -0.132239
    3 2.319730 3.732436 0.663903 0.000000 0.000000 0.000000
    4 1.993585 6.767204 0.465244 0.000000 -6.185087 0.000000
    5 -0.970720 4.474501 -0.006065 0.000000 -1.570796 0.000000
    6 0.809255 -1.531572 0.002293 0.000000 0.000000 0.000000
    7 2.158777 4.640841 0.663902 0.000000 -1.570796 0.000000
    8 -2.931217 -7.499518 -11.057019 -1.125464 0.774185 -0.267166
    9 0.096946 -8.450418 -0.009364 0.312875 -0.618931 0.268718
    10 -0.586769 -1.264477 0.200164 -0.339704 -0.308951 -2.463889
    11 1.522835 0.058680 0.016850 0.225980 -0.044688 0.526090
    12 1.117948 0.048425 -0.005765 -0.023921 -0.001546 0.069712
    13 -0.963866 -2.785142 -0.085346 0.294214 -0.058876 0.191782
    14 0.028478 -1.403067 0.006272 -0.355672 0.000000 0.000000
    15 0.021414 -0.957782 0.020047 -0.445104 -0.000013 0.000017
    16 -0.249534 -2.846962 -0.174215 -0.005950 -0.106350 0.177791
    17 0.043234 -1.683940 0.096015 -1.428417 0.000000 0.000000
    18 0.031728 -1.160830 0.058837 -1.034886 0.000000 0.000000
    19 0.447951 -2.798983 -0.200441 -0.855534 0.034197 0.093401
    20 -0.032909 -1.480207 0.004936 -1.173508 0.000000 0.000000
    21 -0.027023 -1.076920 -0.020212 -0.453824 0.000000 0.000000
    22 1.164475 -2.543938 -0.170327 -1.095364 -0.020941 0.248253
    23 0.024032 -1.129040 0.017806 -0.800795 0.000000 0.000000
    24 0.014896 -0.883991 -0.019846 -0.315687 0.000000 0.000000
    25 -0.088450 -0.124069 -0.041685 0.300574 0.169220 1.410648
    26 0.583510 -1.197274 0.185379 0.250092 -0.500871 -0.758615
    27 1.535926 0.010246 0.005009 -0.283171 -0.264042 -0.854738
    28 1.100770 0.004527 -0.010676 0.000000 0.000000 -0.573941
    29 0.957766 -2.746777 -0.090301 0.123323 0.221571 -0.025715
    30 -0.033419 -1.397127 -0.011256 -0.220310 0.000000 0.000000
    31 -0.022361 -0.957433 0.018783 -0.824165 0.000000 0.000000
    32 0.250029 -2.820664 -0.238397 -0.745999 0.258538 -0.139501
    33 -0.049759 -1.680544 0.100480 -1.776937 0.000000 0.000000
    34 -0.034141 -1.148310 0.084780 -1.016983 0.000000 0.000000
    35 -0.488516 -2.755600 -0.228262 -0.907168 0.257855 -0.143315
    36 0.039889 -1.479791 0.029853 -1.477868 0.000000 0.000000
    37 0.028785 -1.075732 -0.023111 -1.081152 0.000000 0.000000
    38 -1.180679 -2.507217 -0.193861 -1.010385 0.420021 -0.125607
    39 -0.024967 -1.123934 0.017594 -0.854095 0.030836 -0.035379
    40 -0.020058 -0.890965 0.010092 -1.068685 0.000000 0.000000
    41 -0.016570 -0.061986 -0.062301 2.854220 5.679697 -1.245378
  time 22
    0 9.704549 -1.783219 -9.914709 -2.010314 -1.110847 -5.072475
    1 -0.071917 -8.498731 -0.104136 0.657272 -0.000624 -0.413414
    2 0.991758 -2.979139 0.412045 0.093149 0.219909 -0.132239
    3 2.319730 3.732436 0.663903 0.000000 0.000000 0.000000
    4 1.993585 6.767204 0.465244 0.000000 -6.185087 0.000000
    5 -0.970720 4.474501 -0.006065 0.000000 -1.570796 0.000000
    6 0.809255 -1.531572 0.002293 0.000000 0.000000 0.000000
    7 2.158777 4.640841 0.663902 0.000000 -1.570796 0.000000
    8 -2.931217 -7.499518 -11.057019 -1.125464 0.774185 -0.267166
    9 0.096946 -8.450418 -0.009364 0.312875 -0.618931 0.268718
    10 -0.586769 -1.264477 0.200164 -0.339704 -0.308951 -2.463889
    11 1.522835 0.058680 0.016850 0.225980 -0.044688 0.526090
    12 1.117948 0.048425 -0.005765 -0.023921 -0.001546 0.069712
    13 -0.963866 -2.785142 -0.085346 0.294214 -0.058876 0.191782
    14 0.028478 -1.403067 0.006272 -0.355672 0.000000 0.000000
    15 0.021414 -0.957782 0.020047 -0.445104 -0.000013 0.000017
    16 -0.249534 -2.846962 -0.174215 -0.005950 -0.106350 0.177791
    17 0.043234 -1.683940 0.096015 -1.428417 0.000000 0.000000
    18 0.031728 -1.160830 0.058837 -1.034886 0.000000 0.000000
    19 0.447951 -2.798983 -0.200441 -0.855534 0.034197 0.093401
    20 -0.032909 -1.480207 0.004936 -1.173508 0.000000 0.000000
    21 -0.027023 -1.076920 -0.020212 -0.453824 0.000000 0.000000
    22 1.164475 -2.543938 -0.170327 -1.095364 -0.020941 0.248253
    23 0.024032 -1.129040 0.017806 -0.800795 0.000000 0.000000
    24 0.014896 -0.883991 -0.019846 -0.315687 0.000000 0.000000
    25 -0.088450 -0.124069 -0.041685 0.300574 0.169220 1.410648
    26 0.583510 -1.197274 0.185379 0.250092 -0.500871 -0.758615
    27 1.535926 0.010246 0.005009 -0.283171 -0.264042 -0.854738
    28 1.100770 0.004527 -0.010676 0.000000 0.000000 -0.573941
    29 0.957766 -2.746777 -0.090301 0.123323 0.221571 -0.025715
    30 -0.033419 -1.397127 -0.011256 -0.220310 0.000000 0.000000
    31 -0.022361 -0.957433 0.018783 -0.824165 0.000000 0.000000
    32 0.250029 -2.820664 -0.238397 -0.745999 0.258538 -0.139501
    33 -0.049759 -1.680544 0.100480 -1.776937 0.000000 0.000000
    34 -0.034141 -1.148310 0.084780 -1.016983 0.000000 0.000000
    35 -0.488516 -2.755600 -0.228262 -0.907168 0.257855 -0.143315
    36 0.039889 -1.479791 0.029853 -1.477868 0.000000 0.000000
    37 0.028785 -1.075732 -0.023111 -1.081152 0.000000 0.000000
    38 -1.180679 -2.507217 -0.193861 -1.010385 0.420021 -0.125607
    39 -0.024967 -1.123934 0.017594 -0.854095 0.030836 -0.035379
    40 -0.020058 -0.890965 0.010092 -1.068685 0.000000 0.000000
    41 -0.016570 -0.061986 -0.062301 2.854220 5.679697 -1.245378
  time 23
    0 9.704549 -1.783219 -9.914709 -2.010314 -1.110847 -5.072475
    1 -0.071917 -8.498731 -0.104136 0.657272 -0.000624 -0.413414
    2 0.991758 -2.979139 0.412045 0.093149 0.219909 -0.132239
    3 2.319730 3.732436 0.663903 0.000000 0.000000 0.000000
    4 1.993585 6.767204 0.465244 0.000000 -6.185087 0.000000
    5 -0.970720 4.474501 -0.006065 0.000000 -1.570796 0.000000
    6 0.809255 -1.531572 0.002293 0.000000 0.000000 0.000000
    7 2.158777 4.640841 0.663902 0.000000 -1.570796 0.000000
    8 -2.931217 -7.499518 -11.057019 -1.125464 0.774185 -0.267166
    9 0.096946 -8.450418 -0.009364 0.312875 -0.618931 0.268718
    10 -0.586769 -1.264477 0.200164 -0.339704 -0.308951 -2.463889
    11 1.522835 0.058680 0.016850 0.225980 -0.044688 0.526090
    12 1.117948 0.048425 -0.005765 -0.023921 -0.001546 0.069712
    13 -0.963866 -2.785142 -0.085346 0.294214 -0.058876 0.191782
    14 0.028478 -1.403067 0.006272 -0.355672 0.000000 0.000000
    15 0.021414 -0.957782 0.020047 -0.445104 -0.000013 0.000017
    16 -0.249534 -2.846962 -0.174215 -0.005950 -0.106350 0.177791
    17 0.043234 -1.683940 0.096015 -1.428417 0.000000 0.000000
    18 0.031728 -1.160830 0.058837 -1.034886 0.000000 0.000000
    19 0.447951 -2.798983 -0.200441 -0.855534 0.034197 0.093401
    20 -0.032909 -1.480207 0.004936 -1.173508 0.000000 0.000000
    21 -0.027023 -1.076920 -0.020212 -0.453824 0.000000 0.000000
    22 1.164475 -2.543938 -0.170327 -1.095364 -0.020941 0.248253
    23 0.024032 -1.129040 0.017806 -0.800795 0.000000 0.000000
    24 0.014896 -0.883991 -0.019846 -0.315687 0.000000 0.000000
    25 -0.088450 -0.124069 -0.041685 0.300574 0.169220 1.410648
    26 0.583510 -1.197274 0.185379 0.250092 -0.500871 -0.758615
    27 1.535926 0.010246 0.005009 -0.283171 -0.264042 -0.854738
    28 1.100770 0.004527 -0.010676 0.000000 0.000000 -0.573941
    29 0.957766 -2.746777 -0.090301 0.123323 0.221571 -0.025715
    30 -0.033419 -1.397127 -0.011256 -0.220310 0.000000 0.000000
    31 -0.022361 -0.957433 0.018783 -0.824165 0.000000 0.000000
    32 0.250029 -2.820664 -0.238397 -0.745999 0.258538 -0.139501
    33 -0.049759 -1.680544 0.100480 -1.776937 0.000000 0.000000
    34 -0.034141 -1.148310 0.084780 -1.016983 0.000000 0.000000
    35 -0.488516 -2.755600 -0.228262 -0.907168 0.257855 -0.143315
    36 0.039889 -1.479791 0.029853 -1.477868 0.000000 0.000000
    37 0.028785 -1.075732 -0.023111 -1.081152 0.000000 0.000000
    38 -1.180679 -2.507217 -0.193861 -1.010385 0.420021 -0.125607
    39 -0.024967 -1.123934 0.017594 -0.854095 0.030836 -0.035379
    40 -0.020058 -0.890965 0.010092 -1.068685 0.000000 0.000000
    41 -0.016570 -0.061986 -0.062301 2.854220 5.679697 -1.245378
  time 24
    0 9.704549 -1.783219 -9.914709 -2.010314 -1.110847 -5.072475
    1 -0.071917 -8.498731 -0.104136 0.657272 -0.000624 -0.413414
    2 0.991758 -2.979139 0.412045 0.093149 0.219909 -0.132239
    3 2.319730 3.732436 0.663903 0.000000 0.000000 0.000000
    4 1.993585 6.767204 0.465244 0.000000 -6.185087 0.000000
    5 -0.970720 4.474501 -0.006065 0.000000 -1.570796 0.000000
    6 0.809255 -1.531572 0.002293 0.000000 0.000000 0.000000
    7 2.158777 4.640841 0.663902 0.000000 -1.570796 0.000000
    8 -2.931217 -7.499518 -11.057019 -1.125464 0.774185 -0.267166
    9 0.096946 -8.450418 -0.009364 0.312875 -0.618931 0.268718
    10 -0.586769 -1.264477 0.200164 -0.339704 -0.308951 -2.463889
    11 1.522835 0.058680 0.016850 0.225980 -0.044688 0.526090
    12 1.117948 0.048425 -0.005765 -0.023921 -0.001546 0.069712
    13 -0.963866 -2.785142 -0.085346 0.294214 -0.058876 0.191782
    14 0.028478 -1.403067 0.006272 -0.355672 0.000000 0.000000
    15 0.021414 -0.957782 0.020047 -0.445104 -0.000013 0.000017
    16 -0.249534 -2.846962 -0.174215 -0.005950 -0.106350 0.177791
    17 0.043234 -1.683940 0.096015 -1.428417 0.000000 0.000000
    18 0.031728 -1.160830 0.058837 -1.034886 0.000000 0.000000
    19 0.447951 -2.798983 -0.200441 -0.855534 0.034197 0.093401
    20 -0.032909 -1.480207 0.004936 -1.173508 0.000000 0.000000
    21 -0.027023 -1.076920 -0.020212 -0.453824 0.000000 0.000000
    22 1.164475 -2.543938 -0.170327 -1.095364 -0.020941 0.248253
    23 0.024032 -1.129040 0.017806 -0.800795 0.000000 0.000000
    24 0.014896 -0.883991 -0.019846 -0.315687 0.000000 0.000000
    25 -0.088450 -0.124069 -0.041685 0.300574 0.169220 1.410648
    26 0.583510 -1.197274 0.185379 0.250092 -0.500871 -0.758615
    27 1.535926 0.010246 0.005009 -0.283171 -0.264042 -0.854738
    28 1.100770 0.004527 -0.010676 0.000000 0.000000 -0.573941
    29 0.957766 -2.746777 -0.090301 0.123323 0.221571 -0.025715
    30 -0.033419 -1.397127 -0.011256 -0.220310 0.000000 0.000000
    31 -0.022361 -0.957433 0.018783 -0.824165 0.000000 0.000000
    32 0.250029 -2.820664 -0.238397 -0.745999 0.258538 -0.139501
    33 -0.049759 -1.680544 0.100480 -1.776937 0.000000 0.000000
    34 -0.034141 -1.148310 0.084780 -1.016983 0.000000 0.000000
    35 -0.488516 -2.755600 -0.228262 -0.907168 0.257855 -0.143315
    36 0.039889 -1.479791 0.029853 -1.477868 0.000000 0.000000
    37 0.028785 -1.075732 -0.023111 -1.081152 0.000000 0.000000
    38 -1.180679 -2.507217 -0.193861 -1.010385 0.420021 -0.125607
    39 -0.024967 -1.123934 0.017594 -0.854095 0.030836 -0.035379
    40 -0.020058 -0.890965 0.010092 -1.068685 0.000000 0.000000
    41 -0.016570 -0.061986 -0.062301 2.854220 5.679697 -1.245378
  time 25
    0 9.704549 -1.783219 -9.914709 -2.010314 -1.110847 -5.072475
    1 -0.071917 -8.498731 -0.104136 0.657272 -0.000624 -0.413414
    2 0.991758 -2.979139 0.412045 0.093149 0.219909 -0.132239
    3 2.319730 3.732436 0.663903 0.000000 0.000000 0.000000
    4 1.993585 6.767204 0.465244 0.000000 -6.185087 0.000000
    5 -0.970720 4.474501 -0.006065 0.000000 -1.570796 0.000000
    6 0.809255 -1.531572 0.002293 0.000000 0.000000 0.000000
    7 2.158777 4.640841 0.663902 0.000000 -1.570796 0.000000
    8 -2.931217 -7.499518 -11.057019 -1.125464 0.774185 -0.267166
    9 0.096946 -8.450418 -0.009364 0.312875 -0.618931 0.268718
    10 -0.586769 -1.264477 0.200164 -0.339704 -0.308951 -2.463889
    11 1.522835 0.058680 0.016850 0.225980 -0.044688 0.526090
    12 1.117948 0.048425 -0.005765 -0.023921 -0.001546 0.069712
    13 -0.963866 -2.785142 -0.085346 0.294214 -0.058876 0.191782
    14 0.028478 -1.403067 0.006272 -0.355672 0.000000 0.000000
    15 0.021414 -0.957782 0.020047 -0.445104 -0.000013 0.000017
    16 -0.249534 -2.846962 -0.174215 -0.005950 -0.106350 0.177791
    17 0.043234 -1.683940 0.096015 -1.428417 0.000000 0.000000
    18 0.031728 -1.160830 0.058837 -1.034886 0.000000 0.000000
    19 0.447951 -2.798983 -0.200441 -0.855534 0.034197 0.093401
    20 -0.032909 -1.480207 0.004936 -1.173508 0.000000 0.000000
    21 -0.027023 -1.076920 -0.020212 -0.453824 0.000000 0.000000
    22 1.164475 -2.543938 -0.170327 -1.095364 -0.020941 0.248253
    23 0.024032 -1.129040 0.017806 -0.800795 0.000000 0.000000
    24 0.014896 -0.883991 -0.019846 -0.315687 0.000000 0.000000
    25 -0.088450 -0.124069 -0.041685 0.300574 0.169220 1.410648
    26 0.583510 -1.197274 0.185379 0.250092 -0.500871 -0.758615
    27 1.535926 0.010246 0.005009 -0.283171 -0.264042 -0.854738
    28 1.100770 0.004527 -0.010676 0.000000 0.000000 -0.573941
    29 0.957766 -2.746777 -0.090301 0.123323 0.221571 -0.025715
    30 -0.033419 -1.397127 -0.011256 -0.220310 0.000000 0.000000
    31 -0.022361 -0.957433 0.018783 -0.824165 0.000000 0.000000
    32 0.250029 -2.820664 -0.238397 -0.745999 0.258538 -0.139501
    33 -0.049759 -1.680544 0.100480 -1.776937 0.000000 0.000000
    34 -0.034141 -1.148310 0.084780 -1.016983 0.000000 0.000000
    35 -0.488516 -2.755600 -0.228262 -0.907168 0.257855 -0.143315
    36 0.039889 -1.479791 0.029853 -1.477868 0.000000 0.000000
    37 0.028785 -1.075732 -0.023111 -1.081152 0.000000 0.000000
    38 -1.180679 -2.507217 -0.193861 -1.010385 0.420021 -0.125607
    39 -0.024967 -1.123934 0.017594 -0.854095 0.030836 -0.035379
    40 -0.020058 -0.890965 0.010092 -1.068685 0.000000 0.000000
    41 -0.016570 -0.061986 -0.062301 2.854220 5.679697 -1.245378
  time 26
    0 9.704549 -1.783219 -9.914709 -2.010314 -1.110847 -5.072475
    1 -0.071917 -8.498731 -0.104136 0.657272 -0.000624 -0.413414
    2 0.991758 -2.979139 0.412045 0.093149 0.219909 -0.132239
    3 2.319730 3.732436 0.663903 0.000000 0.000000 0.000000
    4 1.993585 6.767204 0.465244 0.000000 -6.185087 0.000000
    5 -0.970720 4.474501 -0.006065 0.000000 -1.570796 0.000000
    6 0.809255 -1.531572 0.002293 0.000000 0.000000 0.000000
    7 2.158777 4.640841 0.663902 0.000000 -1.570796 0.000000
    8 -2.931217 -7.499518 -11.057019 -1.125464 0.774185 -0.267166
    9 0.096946 -8.450418 -0.009364 0.312875 -0.618931 0.268718
    10 -0.586769 -1.264477 0.200164 -0.339704 -0.308951 -2.463889
    11 1.522835 0.058680 0.016850 0.225980 -0.044688 0.526090
    12 1.117948 0.048425 -0.005765 -0.023921 -0.001546 0.069712
    13 -0.963866 -2.785142 -0.085346 0.294214 -0.058876 0.191782
    14 0.028478 -1.403067 0.006272 -0.355672 0.000000 0.000000
    15 0.021414 -0.957782 0.020047 -0.445104 -0.000013 0.000017
    16 -0.249534 -2.846962 -0.174215 -0.005950 -0.106350 0.177791
    17 0.043234 -1.683940 0.096015 -1.428417 0.000000 0.000000
    18 0.031728 -1.160830 0.058837 -1.034886 0.000000 0.000000
    19 0.447951 -2.798983 -0.200441 -0.855534 0.034197 0.093401
    20 -0.032909 -1.480207 0.004936 -1.173508 0.000000 0.000000
    21 -0.027023 -1.076920 -0.020212 -0.453824 0.000000 0.000000
    22 1.164475 -2.543938 -0.170327 -1.095364 -0.020941 0.248253
    23 0.024032 -1.129040 0.017806 -0.800795 0.000000 0.000000
    24 0.014896 -0.883991 -0.019846 -0.315687 0.000000 0.000000
    25 -0.088450 -0.124069 -0.041685 0.300574 0.169220 1.410648
    26 0.583510 -1.197274 0.185379 0.250092 -0.500871 -0.758615
    27 1.535926 0.010246 0.005009 -0.283171 -0.264042 -0.854738
    28 1.100770 0.004527 -0.010676 0.000000 0.000000 -0.573941
    29 0.957766 -2.746777 -0.090301 0.123323 0.221571 -0.025715
    30 -0.033419 -1.397127 -0.011256 -0.220310 0.000000 0.000000
    31 -0.022361 -0.957433 0.018783 -0.824165 0.000000 0.000000
    32 0.250029 -2.820664 -0.238397 -0.745999 0.258538 -0.139501
    33 -0.049759 -1.680544 0.100480 -1.776937 0.000000 0.000000
    34 -0.034141 -1.148310 0.084780 -1.016983 0.000000 0.000000
    35 -0.488516 -2.755600 -0.228262 -0.907168 0.257855 -0.143315
    36 0.039889 -1.479791 0.029853 -1.477868 0.000000 0.000000
    37 0.028785 -1.075732 -0.023111 -1.081152 0.000000 0.000000
    38 -1.180679 -2.507217 -0.193861 -1.010385 0.420021 -0.125607
    39 -0.024967 -1.123934 0.017594 -0.854095 0.030836 -0.035379
    40 -0.020058 -0.890965 0.010092 -1.068685 0.000000 0.000000
    41 -0.016570 -0.061986 -0.062301 2.854220 5.679697 -1.245378
end
