version 1
nodes
  0 "root" -1
  1 "Bone01" 0
  2 "Bone_Lefthand" 1
  3 "left_skull4_root" 2
  4 "left_skull4_grib" 3
  5 "left_skull4_magazine" 3
  6 "left_skull4_trigger" 3
  7 "Bone04" 0
  8 "Bone_Righthand" 7
  9 "right_skull4_root" 8
  10 "right_skull4_grib" 9
  11 "right_skull4_magazine" 9
  12 "right_skull4_trigger" 9
  13 "Bone_L_Upper" 1
  14 "Bone13" 2
  15 "Bone14" 14
  16 "Bone15" 15
  17 "Bone17" 2
  18 "Bone18" 17
  19 "Bone19" 18
  20 "Bone21" 2
  21 "Bone22" 20
  22 "Bone23" 21
  23 "Bone09" 2
  24 "Bone10" 23
  25 "Bone11" 24
  26 "Bone05" 2
  27 "Bone06" 26
  28 "Bone07" 27
  29 "Bone_Se_Hand-L" 2
  30 "Bone39" 8
  31 "Bone40" 30
  32 "Bone41" 31
  33 "Bone35" 8
  34 "Bone36" 33
  35 "Bone37" 34
  36 "Bone31" 8
  37 "Bone32" 36
  38 "Bone33" 37
  39 "Bone43" 8
  40 "Bone44" 39
  41 "Bone45" 40
  42 "Bone27" 8
  43 "Bone28" 42
  44 "Bone29" 43
  45 "Bone_Se_Hand-R" 8
  46 "Bone_R_Upper" 7
end
skeleton
  time 0
    0 0.000000 1.410199 -4.644612 -0.174533 0.000000 0.000000
    1 12.889416 5.330175 -8.422448 0.538041 -2.317726 -0.694505
    2 0.084337 -8.502637 0.173215 -0.079034 0.391905 -0.708829
    3 1.776994 -2.723174 0.873419 0.134966 0.079135 3.004383
    4 -2.548201 7.012088 0.748838 0.000000 0.000000 -1.570796
    5 -1.546743 7.218124 0.000000 0.000000 0.000000 -0.002004
    6 -0.284830 2.178886 0.000000 0.000001 0.000000 0.000000
    7 -11.021444 4.818629 -7.648736 0.393734 2.082801 0.422417
    8 -0.227284 -8.466044 0.162515 0.053284 -0.334585 0.249785
    9 -1.471282 -3.093521 0.739297 3.070381 0.002168 0.135135
    10 -2.536482 9.152779 0.850403 0.000000 0.000000 -1.570796
    11 -1.546742 7.218122 -0.000001 0.000000 0.000000 -0.002004
    12 -0.284830 2.417173 0.000000 0.000001 0.000000 0.000000
    13 1.257180 8.762585 -0.153713 -1.570562 0.002683 -1.566807
    14 -0.488518 -2.755602 -0.228260 -0.647514 0.030346 -0.257527
    15 0.039887 -1.479790 0.029854 -1.670335 0.000000 0.000001
    16 0.028786 -1.075731 -0.023109 -1.197449 0.000000 0.000000
    17 0.250027 -2.820665 -0.238396 -0.482190 0.047366 -0.266951
    18 -0.049759 -1.680544 0.100479 -1.890537 0.000000 -0.000002
    19 -0.034142 -1.148312 0.084782 -1.087281 0.000000 0.000000
    20 0.957766 -2.774125 -0.086396 -0.200214 -0.028397 -0.018724
    21 -0.033420 -1.397129 -0.011257 -0.346688 0.136277 -0.074809
    22 -0.022360 -0.957436 0.018784 -0.364582 0.000000 0.000000
    23 -1.180681 -2.507217 -0.193859 -0.541359 0.150781 -0.464420
    24 -0.024967 -1.123934 0.017597 -1.488903 0.000000 0.000001
    25 -0.020057 -0.890968 0.010090 -1.277757 0.000000 0.000000
    26 0.583510 -1.197277 0.185379 0.316258 -1.087026 -0.583548
    27 1.535927 0.010246 0.005009 0.087412 0.030537 -1.135410
    28 1.100771 0.004527 -0.010679 -0.010778 0.012114 -0.550575
    29 0.120153 -0.050270 -0.054489 0.099906 3.110905 1.561085
    30 0.447953 -2.798986 -0.200443 -0.607948 0.000534 0.561976
    31 -0.032909 -1.480204 0.004940 -1.413633 0.000000 0.000002
    32 -0.027022 -1.076920 -0.020210 -1.481391 0.000000 0.000000
    33 -0.249534 -2.846964 -0.174213 -0.445831 0.004261 0.486845
    34 0.043235 -1.683941 0.096012 -1.469776 0.002823 -0.000167
    35 0.031729 -1.160830 0.058838 -1.698243 0.000642 0.008372
    36 -0.963866 -2.785145 -0.085350 0.057485 0.039254 0.065226
    37 0.028479 -1.403067 0.006271 -0.285462 0.000000 0.000000
    38 0.021413 -0.957781 0.020046 -0.387944 0.000000 0.000000
    39 1.164475 -2.543940 -0.170330 -0.557511 -0.035046 0.464229
    40 0.024032 -1.129042 0.017807 -1.373638 0.000000 0.000001
    41 0.014898 -0.883989 -0.019848 -1.103398 0.000000 0.000000
    42 -0.586770 -1.264477 0.200161 -0.683236 -0.842752 -2.270081
    43 1.522835 0.058681 0.016848 -0.059520 -0.122786 0.824758
    44 1.117947 0.048424 -0.005766 -0.016015 -0.019457 0.744725
    45 -0.041740 -0.115604 0.002678 0.136590 -0.022461 1.520273
    46 -1.393470 8.839177 -0.239433 1.580804 -0.005023 -1.566847
  time 1
    0 0.000000 1.410199 -4.644612 -0.174533 0.000000 0.000000
    1 12.889416 5.330175 -8.422448 0.538041 -2.317726 -0.694505
    2 0.084337 -8.502637 0.173215 -0.079034 0.391905 -0.708829
    3 1.776994 -2.723174 0.873419 0.134966 0.079135 3.004383
    4 -2.548201 7.012088 0.748838 0.000000 0.000000 -1.570796
    5 -1.546743 7.218124 0.000000 0.000000 0.000000 -0.002004
    6 -0.284830 2.178886 0.000000 0.000001 0.000000 0.000000
    7 -11.021444 4.818629 -7.648736 0.393734 2.082801 0.422417
    8 -0.227284 -8.466044 0.162515 0.053284 -0.334585 0.249785
    9 -1.471282 -3.093521 0.739297 3.070381 0.002168 0.135135
    10 -2.536482 9.152779 0.850403 0.000000 0.000000 -1.570796
    11 -1.546742 7.218122 -0.000001 0.000000 0.000000 -0.002004
    12 -0.284830 2.417173 0.000000 0.000001 0.000000 0.000000
    13 1.257180 8.762585 -0.153713 -1.570562 0.002683 -1.566807
    14 -0.488518 -2.755602 -0.228260 -0.647514 0.030346 -0.257527
    15 0.039887 -1.479790 0.029854 -1.670335 0.000000 0.000001
    16 0.028786 -1.075731 -0.023109 -1.197449 0.000000 0.000000
    17 0.250027 -2.820665 -0.238396 -0.482190 0.047366 -0.266951
    18 -0.049759 -1.680544 0.100479 -1.890537 0.000000 -0.000002
    19 -0.034142 -1.148312 0.084782 -1.087281 0.000000 0.000000
    20 0.957766 -2.774125 -0.086396 -0.200214 -0.028397 -0.018724
    21 -0.033420 -1.397129 -0.011257 -0.346688 0.136277 -0.074809
    22 -0.022360 -0.957436 0.018784 -0.364582 0.000000 0.000000
    23 -1.180681 -2.507217 -0.193859 -0.541359 0.150781 -0.464420
    24 -0.024967 -1.123934 0.017597 -1.488903 0.000000 0.000001
    25 -0.020057 -0.890968 0.010090 -1.277757 0.000000 0.000000
    26 0.583510 -1.197277 0.185379 0.316258 -1.087026 -0.583548
    27 1.535927 0.010246 0.005009 0.087412 0.030537 -1.135410
    28 1.100771 0.004527 -0.010679 -0.010778 0.012114 -0.550575
    29 0.120153 -0.050270 -0.054489 0.099906 3.110905 1.561085
    30 0.447953 -2.798986 -0.200443 -0.607948 0.000534 0.561976
    31 -0.032909 -1.480204 0.004940 -1.413633 0.000000 0.000002
    32 -0.027022 -1.076920 -0.020210 -1.481391 0.000000 0.000000
    33 -0.249534 -2.846964 -0.174213 -0.445831 0.004261 0.486845
    34 0.043235 -1.683941 0.096012 -1.469776 0.002823 -0.000167
    35 0.031729 -1.160830 0.058838 -1.698243 0.000642 0.008372
    36 -0.963866 -2.785145 -0.085350 0.057485 0.039254 0.065226
    37 0.028479 -1.403067 0.006271 -0.285462 0.000000 0.000000
    38 0.021413 -0.957781 0.020046 -0.387944 0.000000 0.000000
    39 1.164475 -2.543940 -0.170330 -0.557511 -0.035046 0.464229
    40 0.024032 -1.129042 0.017807 -1.373638 0.000000 0.000001
    41 0.014898 -0.883989 -0.019848 -1.103398 0.000000 0.000000
    42 -0.586770 -1.264477 0.200161 -0.683236 -0.842752 -2.270081
    43 1.522835 0.058681 0.016848 -0.059520 -0.122786 0.824758
    44 1.117947 0.048424 -0.005766 -0.016015 -0.019457 0.744725
    45 -0.041740 -0.115604 0.002678 0.136590 -0.022461 1.520273
    46 -1.393470 8.839177 -0.239433 1.580804 -0.005023 -1.566847
  time 2
    0 0.000000 1.410199 -4.644612 -0.174533 0.000000 0.000000
    1 12.889416 5.330175 -8.422448 0.538041 -2.317726 -0.694505
    2 0.084337 -8.502637 0.173215 -0.079034 0.391905 -0.708829
    3 1.776994 -2.723174 0.873419 0.134966 0.079135 3.004383
    4 -2.548201 7.012088 0.748838 0.000000 0.000000 -1.570796
    5 -1.546743 7.218124 0.000000 0.000000 0.000000 -0.002004
    6 -0.284830 2.178886 0.000000 0.000001 0.000000 0.000000
    7 -11.021444 4.818629 -7.648736 0.393734 2.082801 0.422417
    8 -0.227284 -8.466044 0.162515 0.053284 -0.334585 0.249785
    9 -1.471282 -3.093521 0.739297 3.070381 0.002168 0.135135
    10 -2.536482 9.152779 0.850403 0.000000 0.000000 -1.570796
    11 -1.546742 7.218122 -0.000001 0.000000 0.000000 -0.002004
    12 -0.284830 2.417173 0.000000 0.000001 0.000000 0.000000
    13 1.257180 8.762585 -0.153713 -1.570562 0.002683 -1.566807
    14 -0.488518 -2.755602 -0.228260 -0.647514 0.030346 -0.257527
    15 0.039887 -1.479790 0.029854 -1.670335 0.000000 0.000001
    16 0.028786 -1.075731 -0.023109 -1.197449 0.000000 0.000000
    17 0.250027 -2.820665 -0.238396 -0.482190 0.047366 -0.266951
    18 -0.049759 -1.680544 0.100479 -1.890537 0.000000 -0.000002
    19 -0.034142 -1.148312 0.084782 -1.087281 0.000000 0.000000
    20 0.957766 -2.774125 -0.086396 -0.200214 -0.028397 -0.018724
    21 -0.033420 -1.397129 -0.011257 -0.346688 0.136277 -0.074809
    22 -0.022360 -0.957436 0.018784 -0.364582 0.000000 0.000000
    23 -1.180681 -2.507217 -0.193859 -0.541359 0.150781 -0.464420
    24 -0.024967 -1.123934 0.017597 -1.488903 0.000000 0.000001
    25 -0.020057 -0.890968 0.010090 -1.277757 0.000000 0.000000
    26 0.583510 -1.197277 0.185379 0.316258 -1.087026 -0.583548
    27 1.535927 0.010246 0.005009 0.087412 0.030537 -1.135410
    28 1.100771 0.004527 -0.010679 -0.010778 0.012114 -0.550575
    29 0.120153 -0.050270 -0.054489 0.099906 3.110905 1.561085
    30 0.447953 -2.798986 -0.200443 -0.607948 0.000534 0.561976
    31 -0.032909 -1.480204 0.004940 -1.413633 0.000000 0.000002
    32 -0.027022 -1.076920 -0.020210 -1.481391 0.000000 0.000000
    33 -0.249534 -2.846964 -0.174213 -0.445831 0.004261 0.486845
    34 0.043235 -1.683941 0.096012 -1.469776 0.002823 -0.000167
    35 0.031729 -1.160830 0.058838 -1.698243 0.000642 0.008372
    36 -0.963866 -2.785145 -0.085350 0.057485 0.039254 0.065226
    37 0.028479 -1.403067 0.006271 -0.285462 0.000000 0.000000
    38 0.021413 -0.957781 0.020046 -0.387944 0.000000 0.000000
    39 1.164475 -2.543940 -0.170330 -0.557511 -0.035046 0.464229
    40 0.024032 -1.129042 0.017807 -1.373638 0.000000 0.000001
    41 0.014898 -0.883989 -0.019848 -1.103398 0.000000 0.000000
    42 -0.586770 -1.264477 0.200161 -0.683236 -0.842752 -2.270081
    43 1.522835 0.058681 0.016848 -0.059520 -0.122786 0.824758
    44 1.117947 0.048424 -0.005766 -0.016015 -0.019457 0.744725
    45 -0.041740 -0.115604 0.002678 0.136590 -0.022461 1.520273
    46 -1.393470 8.839177 -0.239433 1.580804 -0.005023 -1.566847
  time 3
    0 0.000000 1.410199 -4.644612 -0.174533 0.000000 0.000000
    1 12.889416 5.330175 -8.422448 0.538041 -2.317726 -0.694505
    2 0.084337 -8.502637 0.173215 -0.079034 0.391905 -0.708829
    3 1.776994 -2.723174 0.873419 0.134966 0.079135 3.004383
    4 -2.548201 7.012088 0.748838 0.000000 0.000000 -1.570796
    5 -1.546743 7.218124 0.000000 0.000000 0.000000 -0.002004
    6 -0.284830 2.178886 0.000000 0.000001 0.000000 0.000000
    7 -11.021444 4.818629 -7.648736 0.393734 2.082801 0.422417
    8 -0.227284 -8.466044 0.162515 0.053284 -0.334585 0.249785
    9 -1.471282 -3.093521 0.739297 3.070381 0.002168 0.135135
    10 -2.536482 9.152779 0.850403 0.000000 0.000000 -1.570796
    11 -1.546742 7.218122 -0.000001 0.000000 0.000000 -0.002004
    12 -0.284830 2.417173 0.000000 0.000001 0.000000 0.000000
    13 1.257180 8.762585 -0.153713 -1.570562 0.002683 -1.566807
    14 -0.488518 -2.755602 -0.228260 -0.647514 0.030346 -0.257527
    15 0.039887 -1.479790 0.029854 -1.670335 0.000000 0.000001
    16 0.028786 -1.075731 -0.023109 -1.197449 0.000000 0.000000
    17 0.250027 -2.820665 -0.238396 -0.482190 0.047366 -0.266951
    18 -0.049759 -1.680544 0.100479 -1.890537 0.000000 -0.000002
    19 -0.034142 -1.148312 0.084782 -1.087281 0.000000 0.000000
    20 0.957766 -2.774125 -0.086396 -0.200214 -0.028397 -0.018724
    21 -0.033420 -1.397129 -0.011257 -0.346688 0.136277 -0.074809
    22 -0.022360 -0.957436 0.018784 -0.364582 0.000000 0.000000
    23 -1.180681 -2.507217 -0.193859 -0.541359 0.150781 -0.464420
    24 -0.024967 -1.123934 0.017597 -1.488903 0.000000 0.000001
    25 -0.020057 -0.890968 0.010090 -1.277757 0.000000 0.000000
    26 0.583510 -1.197277 0.185379 0.316258 -1.087026 -0.583548
    27 1.535927 0.010246 0.005009 0.087412 0.030537 -1.135410
    28 1.100771 0.004527 -0.010679 -0.010778 0.012114 -0.550575
    29 0.120153 -0.050270 -0.054489 0.099906 3.110905 1.561085
    30 0.447953 -2.798986 -0.200443 -0.607948 0.000534 0.561976
    31 -0.032909 -1.480204 0.004940 -1.413633 0.000000 0.000002
    32 -0.027022 -1.076920 -0.020210 -1.481391 0.000000 0.000000
    33 -0.249534 -2.846964 -0.174213 -0.445831 0.004261 0.486845
    34 0.043235 -1.683941 0.096012 -1.469776 0.002823 -0.000167
    35 0.031729 -1.160830 0.058838 -1.698243 0.000642 0.008372
    36 -0.963866 -2.785145 -0.085350 0.057485 0.039254 0.065226
    37 0.028479 -1.403067 0.006271 -0.285462 0.000000 0.000000
    38 0.021413 -0.957781 0.020046 -0.387944 0.000000 0.000000
    39 1.164475 -2.543940 -0.170330 -0.557511 -0.035046 0.464229
    40 0.024032 -1.129042 0.017807 -1.373638 0.000000 0.000001
    41 0.014898 -0.883989 -0.019848 -1.103398 0.000000 0.000000
    42 -0.586770 -1.264477 0.200161 -0.683236 -0.842752 -2.270081
    43 1.522835 0.058681 0.016848 -0.059520 -0.122786 0.824758
    44 1.117947 0.048424 -0.005766 -0.016015 -0.019457 0.744725
    45 -0.041740 -0.115604 0.002678 0.136590 -0.022461 1.520273
    46 -1.393470 8.839177 -0.239433 1.580804 -0.005023 -1.566847
  time 4
    0 0.000000 1.410199 -4.644612 -0.174533 0.000000 0.000000
    1 12.889416 5.330175 -8.422448 0.538041 -2.317726 -0.694505
    2 0.084337 -8.502637 0.173215 -0.079034 0.391905 -0.708829
    3 1.776994 -2.723174 0.873419 0.134966 0.079135 3.004383
    4 -2.548201 7.012088 0.748838 0.000000 0.000000 -1.570796
    5 -1.546743 7.218124 0.000000 0.000000 0.000000 -0.002004
    6 -0.284830 2.178886 0.000000 0.000001 0.000000 0.000000
    7 -11.021444 4.818629 -7.648736 0.393734 2.082801 0.422417
    8 -0.227284 -8.466044 0.162515 0.053284 -0.334585 0.249785
    9 -1.471282 -3.093521 0.739297 3.070381 0.002168 0.135135
    10 -2.536482 9.152779 0.850403 0.000000 0.000000 -1.570796
    11 -1.546742 7.218122 -0.000001 0.000000 0.000000 -0.002004
    12 -0.284830 2.417173 0.000000 0.000001 0.000000 0.000000
    13 1.257180 8.762585 -0.153713 -1.570562 0.002683 -1.566807
    14 -0.488518 -2.755602 -0.228260 -0.647514 0.030346 -0.257527
    15 0.039887 -1.479790 0.029854 -1.670335 0.000000 0.000001
    16 0.028786 -1.075731 -0.023109 -1.197449 0.000000 0.000000
    17 0.250027 -2.820665 -0.238396 -0.482190 0.047366 -0.266951
    18 -0.049759 -1.680544 0.100479 -1.890537 0.000000 -0.000002
    19 -0.034142 -1.148312 0.084782 -1.087281 0.000000 0.000000
    20 0.957766 -2.774125 -0.086396 -0.200214 -0.028397 -0.018724
    21 -0.033420 -1.397129 -0.011257 -0.346688 0.136277 -0.074809
    22 -0.022360 -0.957436 0.018784 -0.364582 0.000000 0.000000
    23 -1.180681 -2.507217 -0.193859 -0.541359 0.150781 -0.464420
    24 -0.024967 -1.123934 0.017597 -1.488903 0.000000 0.000001
    25 -0.020057 -0.890968 0.010090 -1.277757 0.000000 0.000000
    26 0.583510 -1.197277 0.185379 0.316258 -1.087026 -0.583548
    27 1.535927 0.010246 0.005009 0.087412 0.030537 -1.135410
    28 1.100771 0.004527 -0.010679 -0.010778 0.012114 -0.550575
    29 0.120153 -0.050270 -0.054489 0.099906 3.110905 1.561085
    30 0.447953 -2.798986 -0.200443 -0.607948 0.000534 0.561976
    31 -0.032909 -1.480204 0.004940 -1.413633 0.000000 0.000002
    32 -0.027022 -1.076920 -0.020210 -1.481391 0.000000 0.000000
    33 -0.249534 -2.846964 -0.174213 -0.445831 0.004261 0.486845
    34 0.043235 -1.683941 0.096012 -1.469776 0.002823 -0.000167
    35 0.031729 -1.160830 0.058838 -1.698243 0.000642 0.008372
    36 -0.963866 -2.785145 -0.085350 0.057485 0.039254 0.065226
    37 0.028479 -1.403067 0.006271 -0.285462 0.000000 0.000000
    38 0.021413 -0.957781 0.020046 -0.387944 0.000000 0.000000
    39 1.164475 -2.543940 -0.170330 -0.557511 -0.035046 0.464229
    40 0.024032 -1.129042 0.017807 -1.373638 0.000000 0.000001
    41 0.014898 -0.883989 -0.019848 -1.103398 0.000000 0.000000
    42 -0.586770 -1.264477 0.200161 -0.683236 -0.842752 -2.270081
    43 1.522835 0.058681 0.016848 -0.059520 -0.122786 0.824758
    44 1.117947 0.048424 -0.005766 -0.016015 -0.019457 0.744725
    45 -0.041740 -0.115604 0.002678 0.136590 -0.022461 1.520273
    46 -1.393470 8.839177 -0.239433 1.580804 -0.005023 -1.566847
  time 5
    0 0.000000 1.410199 -4.644612 -0.174533 0.000000 0.000000
    1 12.889416 5.330175 -8.422448 0.538041 -2.317726 -0.694505
    2 0.084337 -8.502637 0.173215 -0.079034 0.391905 -0.708829
    3 1.776994 -2.723174 0.873419 0.134966 0.079135 3.004383
    4 -2.548201 7.012088 0.748838 0.000000 0.000000 -1.570796
    5 -1.546743 7.218124 0.000000 0.000000 0.000000 -0.002004
    6 -0.284830 2.178886 0.000000 0.000001 0.000000 0.000000
    7 -11.021444 4.818629 -7.648736 0.393734 2.082801 0.422417
    8 -0.227284 -8.466044 0.162515 0.053284 -0.334585 0.249785
    9 -1.471282 -3.093521 0.739297 3.070381 0.002168 0.135135
    10 -2.536482 9.152779 0.850403 0.000000 0.000000 -1.570796
    11 -1.546742 7.218122 -0.000001 0.000000 0.000000 -0.002004
    12 -0.284830 2.417173 0.000000 0.000001 0.000000 0.000000
    13 1.257180 8.762585 -0.153713 -1.570562 0.002683 -1.566807
    14 -0.488518 -2.755602 -0.228260 -0.647514 0.030346 -0.257527
    15 0.039887 -1.479790 0.029854 -1.670335 0.000000 0.000001
    16 0.028786 -1.075731 -0.023109 -1.197449 0.000000 0.000000
    17 0.250027 -2.820665 -0.238396 -0.482190 0.047366 -0.266951
    18 -0.049759 -1.680544 0.100479 -1.890537 0.000000 -0.000002
    19 -0.034142 -1.148312 0.084782 -1.087281 0.000000 0.000000
    20 0.957766 -2.774125 -0.086396 -0.200214 -0.028397 -0.018724
    21 -0.033420 -1.397129 -0.011257 -0.346688 0.136277 -0.074809
    22 -0.022360 -0.957436 0.018784 -0.364582 0.000000 0.000000
    23 -1.180681 -2.507217 -0.193859 -0.541359 0.150781 -0.464420
    24 -0.024967 -1.123934 0.017597 -1.488903 0.000000 0.000001
    25 -0.020057 -0.890968 0.010090 -1.277757 0.000000 0.000000
    26 0.583510 -1.197277 0.185379 0.316258 -1.087026 -0.583548
    27 1.535927 0.010246 0.005009 0.087412 0.030537 -1.135410
    28 1.100771 0.004527 -0.010679 -0.010778 0.012114 -0.550575
    29 0.120153 -0.050270 -0.054489 0.099906 3.110905 1.561085
    30 0.447953 -2.798986 -0.200443 -0.607948 0.000534 0.561976
    31 -0.032909 -1.480204 0.004940 -1.413633 0.000000 0.000002
    32 -0.027022 -1.076920 -0.020210 -1.481391 0.000000 0.000000
    33 -0.249534 -2.846964 -0.174213 -0.445831 0.004261 0.486845
    34 0.043235 -1.683941 0.096012 -1.469776 0.002823 -0.000167
    35 0.031729 -1.160830 0.058838 -1.698243 0.000642 0.008372
    36 -0.963866 -2.785145 -0.085350 0.057485 0.039254 0.065226
    37 0.028479 -1.403067 0.006271 -0.285462 0.000000 0.000000
    38 0.021413 -0.957781 0.020046 -0.387944 0.000000 0.000000
    39 1.164475 -2.543940 -0.170330 -0.557511 -0.035046 0.464229
    40 0.024032 -1.129042 0.017807 -1.373638 0.000000 0.000001
    41 0.014898 -0.883989 -0.019848 -1.103398 0.000000 0.000000
    42 -0.586770 -1.264477 0.200161 -0.683236 -0.842752 -2.270081
    43 1.522835 0.058681 0.016848 -0.059520 -0.122786 0.824758
    44 1.117947 0.048424 -0.005766 -0.016015 -0.019457 0.744725
    45 -0.041740 -0.115604 0.002678 0.136590 -0.022461 1.520273
    46 -1.393470 8.839177 -0.239433 1.580804 -0.005023 -1.566847
  time 6
    0 0.000000 1.410199 -4.644612 -0.174533 0.000000 0.000000
    1 12.889416 5.330175 -8.422448 0.538041 -2.317726 -0.694505
    2 0.084337 -8.502637 0.173215 -0.079034 0.391905 -0.708829
    3 1.776994 -2.723174 0.873419 0.134966 0.079135 3.004383
    4 -2.548201 7.012088 0.748838 0.000000 0.000000 -1.570796
    5 -1.546743 7.218124 0.000000 0.000000 0.000000 -0.002004
    6 -0.284830 2.178886 0.000000 0.000001 0.000000 0.000000
    7 -11.021444 4.818629 -7.648736 0.393734 2.082801 0.422417
    8 -0.227284 -8.466044 0.162515 0.053284 -0.334585 0.249785
    9 -1.471282 -3.093521 0.739297 3.070381 0.002168 0.135135
    10 -2.536482 9.152779 0.850403 0.000000 0.000000 -1.570796
    11 -1.546742 7.218122 -0.000001 0.000000 0.000000 -0.002004
    12 -0.284830 2.417173 0.000000 0.000001 0.000000 0.000000
    13 1.257180 8.762585 -0.153713 -1.570562 0.002683 -1.566807
    14 -0.488518 -2.755602 -0.228260 -0.647514 0.030346 -0.257527
    15 0.039887 -1.479790 0.029854 -1.670335 0.000000 0.000001
    16 0.028786 -1.075731 -0.023109 -1.197449 0.000000 0.000000
    17 0.250027 -2.820665 -0.238396 -0.482190 0.047366 -0.266951
    18 -0.049759 -1.680544 0.100479 -1.890537 0.000000 -0.000002
    19 -0.034142 -1.148312 0.084782 -1.087281 0.000000 0.000000
    20 0.957766 -2.774125 -0.086396 -0.200214 -0.028397 -0.018724
    21 -0.033420 -1.397129 -0.011257 -0.346688 0.136277 -0.074809
    22 -0.022360 -0.957436 0.018784 -0.364582 0.000000 0.000000
    23 -1.180681 -2.507217 -0.193859 -0.541359 0.150781 -0.464420
    24 -0.024967 -1.123934 0.017597 -1.488903 0.000000 0.000001
    25 -0.020057 -0.890968 0.010090 -1.277757 0.000000 0.000000
    26 0.583510 -1.197277 0.185379 0.316258 -1.087026 -0.583548
    27 1.535927 0.010246 0.005009 0.087412 0.030537 -1.135410
    28 1.100771 0.004527 -0.010679 -0.010778 0.012114 -0.550575
    29 0.120153 -0.050270 -0.054489 0.099906 3.110905 1.561085
    30 0.447953 -2.798986 -0.200443 -0.607948 0.000534 0.561976
    31 -0.032909 -1.480204 0.004940 -1.413633 0.000000 0.000002
    32 -0.027022 -1.076920 -0.020210 -1.481391 0.000000 0.000000
    33 -0.249534 -2.846964 -0.174213 -0.445831 0.004261 0.486845
    34 0.043235 -1.683941 0.096012 -1.469776 0.002823 -0.000167
    35 0.031729 -1.160830 0.058838 -1.698243 0.000642 0.008372
    36 -0.963866 -2.785145 -0.085350 0.057485 0.039254 0.065226
    37 0.028479 -1.403067 0.006271 -0.285462 0.000000 0.000000
    38 0.021413 -0.957781 0.020046 -0.387944 0.000000 0.000000
    39 1.164475 -2.543940 -0.170330 -0.557511 -0.035046 0.464229
    40 0.024032 -1.129042 0.017807 -1.373638 0.000000 0.000001
    41 0.014898 -0.883989 -0.019848 -1.103398 0.000000 0.000000
    42 -0.586770 -1.264477 0.200161 -0.683236 -0.842752 -2.270081
    43 1.522835 0.058681 0.016848 -0.059520 -0.122786 0.824758
    44 1.117947 0.048424 -0.005766 -0.016015 -0.019457 0.744725
    45 -0.041740 -0.115604 0.002678 0.136590 -0.022461 1.520273
    46 -1.393470 8.839177 -0.239433 1.580804 -0.005023 -1.566847
  time 7
    0 0.000000 1.410199 -4.644612 -0.174533 0.000000 0.000000
    1 12.889416 5.330175 -8.422448 0.538041 -2.317726 -0.694505
    2 0.084337 -8.502637 0.173215 -0.079034 0.391905 -0.708829
    3 1.776994 -2.723174 0.873419 0.134966 0.079135 3.004383
    4 -2.548201 7.012088 0.748838 0.000000 0.000000 -1.570796
    5 -1.546743 7.218124 0.000000 0.000000 0.000000 -0.002004
    6 -0.284830 2.178886 0.000000 0.000001 0.000000 0.000000
    7 -11.021444 4.818629 -7.648736 0.393734 2.082801 0.422417
    8 -0.227284 -8.466044 0.162515 0.053284 -0.334585 0.249785
    9 -1.471282 -3.093521 0.739297 3.070381 0.002168 0.135135
    10 -2.536482 9.152779 0.850403 0.000000 0.000000 -1.570796
    11 -1.546742 7.218122 -0.000001 0.000000 0.000000 -0.002004
    12 -0.284830 2.417173 0.000000 0.000001 0.000000 0.000000
    13 1.257180 8.762585 -0.153713 -1.570562 0.002683 -1.566807
    14 -0.488518 -2.755602 -0.228260 -0.647514 0.030346 -0.257527
    15 0.039887 -1.479790 0.029854 -1.670335 0.000000 0.000001
    16 0.028786 -1.075731 -0.023109 -1.197449 0.000000 0.000000
    17 0.250027 -2.820665 -0.238396 -0.482190 0.047366 -0.266951
    18 -0.049759 -1.680544 0.100479 -1.890537 0.000000 -0.000002
    19 -0.034142 -1.148312 0.084782 -1.087281 0.000000 0.000000
    20 0.957766 -2.774125 -0.086396 -0.200214 -0.028397 -0.018724
    21 -0.033420 -1.397129 -0.011257 -0.346688 0.136277 -0.074809
    22 -0.022360 -0.957436 0.018784 -0.364582 0.000000 0.000000
    23 -1.180681 -2.507217 -0.193859 -0.541359 0.150781 -0.464420
    24 -0.024967 -1.123934 0.017597 -1.488903 0.000000 0.000001
    25 -0.020057 -0.890968 0.010090 -1.277757 0.000000 0.000000
    26 0.583510 -1.197277 0.185379 0.316258 -1.087026 -0.583548
    27 1.535927 0.010246 0.005009 0.087412 0.030537 -1.135410
    28 1.100771 0.004527 -0.010679 -0.010778 0.012114 -0.550575
    29 0.120153 -0.050270 -0.054489 0.099906 3.110905 1.561085
    30 0.447953 -2.798986 -0.200443 -0.607948 0.000534 0.561976
    31 -0.032909 -1.480204 0.004940 -1.413633 0.000000 0.000002
    32 -0.027022 -1.076920 -0.020210 -1.481391 0.000000 0.000000
    33 -0.249534 -2.846964 -0.174213 -0.445831 0.004261 0.486845
    34 0.043235 -1.683941 0.096012 -1.469776 0.002823 -0.000167
    35 0.031729 -1.160830 0.058838 -1.698243 0.000642 0.008372
    36 -0.963866 -2.785145 -0.085350 0.057485 0.039254 0.065226
    37 0.028479 -1.403067 0.006271 -0.285462 0.000000 0.000000
    38 0.021413 -0.957781 0.020046 -0.387944 0.000000 0.000000
    39 1.164475 -2.543940 -0.170330 -0.557511 -0.035046 0.464229
    40 0.024032 -1.129042 0.017807 -1.373638 0.000000 0.000001
    41 0.014898 -0.883989 -0.019848 -1.103398 0.000000 0.000000
    42 -0.586770 -1.264477 0.200161 -0.683236 -0.842752 -2.270081
    43 1.522835 0.058681 0.016848 -0.059520 -0.122786 0.824758
    44 1.117947 0.048424 -0.005766 -0.016015 -0.019457 0.744725
    45 -0.041740 -0.115604 0.002678 0.136590 -0.022461 1.520273
    46 -1.393470 8.839177 -0.239433 1.580804 -0.005023 -1.566847
  time 8
    0 0.000000 1.410199 -4.644612 -0.174533 0.000000 0.000000
    1 12.889416 5.330175 -8.422448 0.538041 -2.317726 -0.694505
    2 0.084337 -8.502637 0.173215 -0.079034 0.391905 -0.708829
    3 1.776994 -2.723174 0.873419 0.134966 0.079135 3.004383
    4 -2.548201 7.012088 0.748838 0.000000 0.000000 -1.570796
    5 -1.546743 7.218124 0.000000 0.000000 0.000000 -0.002004
    6 -0.284830 2.178886 0.000000 0.000001 0.000000 0.000000
    7 -11.021444 4.818629 -7.648736 0.393734 2.082801 0.422417
    8 -0.227284 -8.466044 0.162515 0.053284 -0.334585 0.249785
    9 -1.471282 -3.093521 0.739297 3.070381 0.002168 0.135135
    10 -2.536482 9.152779 0.850403 0.000000 0.000000 -1.570796
    11 -1.546742 7.218122 -0.000001 0.000000 0.000000 -0.002004
    12 -0.284830 2.417173 0.000000 0.000001 0.000000 0.000000
    13 1.257180 8.762585 -0.153713 -1.570562 0.002683 -1.566807
    14 -0.488518 -2.755602 -0.228260 -0.647514 0.030346 -0.257527
    15 0.039887 -1.479790 0.029854 -1.670335 0.000000 0.000001
    16 0.028786 -1.075731 -0.023109 -1.197449 0.000000 0.000000
    17 0.250027 -2.820665 -0.238396 -0.482190 0.047366 -0.266951
    18 -0.049759 -1.680544 0.100479 -1.890537 0.000000 -0.000002
    19 -0.034142 -1.148312 0.084782 -1.087281 0.000000 0.000000
    20 0.957766 -2.774125 -0.086396 -0.200214 -0.028397 -0.018724
    21 -0.033420 -1.397129 -0.011257 -0.346688 0.136277 -0.074809
    22 -0.022360 -0.957436 0.018784 -0.364582 0.000000 0.000000
    23 -1.180681 -2.507217 -0.193859 -0.541359 0.150781 -0.464420
    24 -0.024967 -1.123934 0.017597 -1.488903 0.000000 0.000001
    25 -0.020057 -0.890968 0.010090 -1.277757 0.000000 0.000000
    26 0.583510 -1.197277 0.185379 0.316258 -1.087026 -0.583548
    27 1.535927 0.010246 0.005009 0.087412 0.030537 -1.135410
    28 1.100771 0.004527 -0.010679 -0.010778 0.012114 -0.550575
    29 0.120153 -0.050270 -0.054489 0.099906 3.110905 1.561085
    30 0.447953 -2.798986 -0.200443 -0.607948 0.000534 0.561976
    31 -0.032909 -1.480204 0.004940 -1.413633 0.000000 0.000002
    32 -0.027022 -1.076920 -0.020210 -1.481391 0.000000 0.000000
    33 -0.249534 -2.846964 -0.174213 -0.445831 0.004261 0.486845
    34 0.043235 -1.683941 0.096012 -1.469776 0.002823 -0.000167
    35 0.031729 -1.160830 0.058838 -1.698243 0.000642 0.008372
    36 -0.963866 -2.785145 -0.085350 0.057485 0.039254 0.065226
    37 0.028479 -1.403067 0.006271 -0.285462 0.000000 0.000000
    38 0.021413 -0.957781 0.020046 -0.387944 0.000000 0.000000
    39 1.164475 -2.543940 -0.170330 -0.557511 -0.035046 0.464229
    40 0.024032 -1.129042 0.017807 -1.373638 0.000000 0.000001
    41 0.014898 -0.883989 -0.019848 -1.103398 0.000000 0.000000
    42 -0.586770 -1.264477 0.200161 -0.683236 -0.842752 -2.270081
    43 1.522835 0.058681 0.016848 -0.059520 -0.122786 0.824758
    44 1.117947 0.048424 -0.005766 -0.016015 -0.019457 0.744725
    45 -0.041740 -0.115604 0.002678 0.136590 -0.022461 1.520273
    46 -1.393470 8.839177 -0.239433 1.580804 -0.005023 -1.566847
  time 9
    0 0.000000 1.410199 -4.644612 -0.174533 0.000000 0.000000
    1 12.889416 5.330175 -8.422448 0.538041 -2.317726 -0.694505
    2 0.084337 -8.502637 0.173215 -0.079034 0.391905 -0.708829
    3 1.776994 -2.723174 0.873419 0.134966 0.079135 3.004383
    4 -2.548201 7.012088 0.748838 0.000000 0.000000 -1.570796
    5 -1.546743 7.218124 0.000000 0.000000 0.000000 -0.002004
    6 -0.284830 2.178886 0.000000 0.000001 0.000000 0.000000
    7 -11.021444 4.818629 -7.648736 0.393734 2.082801 0.422417
    8 -0.227284 -8.466044 0.162515 0.053284 -0.334585 0.249785
    9 -1.471282 -3.093521 0.739297 3.070381 0.002168 0.135135
    10 -2.536482 9.152779 0.850403 0.000000 0.000000 -1.570796
    11 -1.546742 7.218122 -0.000001 0.000000 0.000000 -0.002004
    12 -0.284830 2.417173 0.000000 0.000001 0.000000 0.000000
    13 1.257180 8.762585 -0.153713 -1.570562 0.002683 -1.566807
    14 -0.488518 -2.755602 -0.228260 -0.647514 0.030346 -0.257527
    15 0.039887 -1.479790 0.029854 -1.670335 0.000000 0.000001
    16 0.028786 -1.075731 -0.023109 -1.197449 0.000000 0.000000
    17 0.250027 -2.820665 -0.238396 -0.482190 0.047366 -0.266951
    18 -0.049759 -1.680544 0.100479 -1.890537 0.000000 -0.000002
    19 -0.034142 -1.148312 0.084782 -1.087281 0.000000 0.000000
    20 0.957766 -2.774125 -0.086396 -0.200214 -0.028397 -0.018724
    21 -0.033420 -1.397129 -0.011257 -0.346688 0.136277 -0.074809
    22 -0.022360 -0.957436 0.018784 -0.364582 0.000000 0.000000
    23 -1.180681 -2.507217 -0.193859 -0.541359 0.150781 -0.464420
    24 -0.024967 -1.123934 0.017597 -1.488903 0.000000 0.000001
    25 -0.020057 -0.890968 0.010090 -1.277757 0.000000 0.000000
    26 0.583510 -1.197277 0.185379 0.316258 -1.087026 -0.583548
    27 1.535927 0.010246 0.005009 0.087412 0.030537 -1.135410
    28 1.100771 0.004527 -0.010679 -0.010778 0.012114 -0.550575
    29 0.120153 -0.050270 -0.054489 0.099906 3.110905 1.561085
    30 0.447953 -2.798986 -0.200443 -0.607948 0.000534 0.561976
    31 -0.032909 -1.480204 0.004940 -1.413633 0.000000 0.000002
    32 -0.027022 -1.076920 -0.020210 -1.481391 0.000000 0.000000
    33 -0.249534 -2.846964 -0.174213 -0.445831 0.004261 0.486845
    34 0.043235 -1.683941 0.096012 -1.469776 0.002823 -0.000167
    35 0.031729 -1.160830 0.058838 -1.698243 0.000642 0.008372
    36 -0.963866 -2.785145 -0.085350 0.057485 0.039254 0.065226
    37 0.028479 -1.403067 0.006271 -0.285462 0.000000 0.000000
    38 0.021413 -0.957781 0.020046 -0.387944 0.000000 0.000000
    39 1.164475 -2.543940 -0.170330 -0.557511 -0.035046 0.464229
    40 0.024032 -1.129042 0.017807 -1.373638 0.000000 0.000001
    41 0.014898 -0.883989 -0.019848 -1.103398 0.000000 0.000000
    42 -0.586770 -1.264477 0.200161 -0.683236 -0.842752 -2.270081
    43 1.522835 0.058681 0.016848 -0.059520 -0.122786 0.824758
    44 1.117947 0.048424 -0.005766 -0.016015 -0.019457 0.744725
    45 -0.041740 -0.115604 0.002678 0.136590 -0.022461 1.520273
    46 -1.393470 8.839177 -0.239433 1.580804 -0.005023 -1.566847
  time 10
    0 0.000000 1.410199 -4.644612 -0.174533 0.000000 0.000000
    1 12.889416 5.330175 -8.422448 0.538041 -2.317726 -0.694505
    2 0.084337 -8.502637 0.173215 -0.079034 0.391905 -0.708829
    3 1.776994 -2.723174 0.873419 0.134966 0.079135 3.004383
    4 -2.548201 7.012088 0.748838 0.000000 0.000000 -1.570796
    5 -1.546743 7.218124 0.000000 0.000000 0.000000 -0.002004
    6 -0.284830 2.178886 0.000000 0.000001 0.000000 0.000000
    7 -11.021444 4.818629 -7.648736 0.393734 2.082801 0.422417
    8 -0.227284 -8.466044 0.162515 0.053284 -0.334585 0.249785
    9 -1.471282 -3.093521 0.739297 3.070381 0.002168 0.135135
    10 -2.536482 9.152779 0.850403 0.000000 0.000000 -1.570796
    11 -1.546742 7.218122 -0.000001 0.000000 0.000000 -0.002004
    12 -0.284830 2.417173 0.000000 0.000001 0.000000 0.000000
    13 1.257180 8.762585 -0.153713 -1.570562 0.002683 -1.566807
    14 -0.488518 -2.755602 -0.228260 -0.647514 0.030346 -0.257527
    15 0.039887 -1.479790 0.029854 -1.670335 0.000000 0.000001
    16 0.028786 -1.075731 -0.023109 -1.197449 0.000000 0.000000
    17 0.250027 -2.820665 -0.238396 -0.482190 0.047366 -0.266951
    18 -0.049759 -1.680544 0.100479 -1.890537 0.000000 -0.000002
    19 -0.034142 -1.148312 0.084782 -1.087281 0.000000 0.000000
    20 0.957766 -2.774125 -0.086396 -0.200214 -0.028397 -0.018724
    21 -0.033420 -1.397129 -0.011257 -0.346688 0.136277 -0.074809
    22 -0.022360 -0.957436 0.018784 -0.364582 0.000000 0.000000
    23 -1.180681 -2.507217 -0.193859 -0.541359 0.150781 -0.464420
    24 -0.024967 -1.123934 0.017597 -1.488903 0.000000 0.000001
    25 -0.020057 -0.890968 0.010090 -1.277757 0.000000 0.000000
    26 0.583510 -1.197277 0.185379 0.316258 -1.087026 -0.583548
    27 1.535927 0.010246 0.005009 0.087412 0.030537 -1.135410
    28 1.100771 0.004527 -0.010679 -0.010778 0.012114 -0.550575
    29 0.120153 -0.050270 -0.054489 0.099906 3.110905 1.561085
    30 0.447953 -2.798986 -0.200443 -0.607948 0.000534 0.561976
    31 -0.032909 -1.480204 0.004940 -1.413633 0.000000 0.000002
    32 -0.027022 -1.076920 -0.020210 -1.481391 0.000000 0.000000
    33 -0.249534 -2.846964 -0.174213 -0.445831 0.004261 0.486845
    34 0.043235 -1.683941 0.096012 -1.469776 0.002823 -0.000167
    35 0.031729 -1.160830 0.058838 -1.698243 0.000642 0.008372
    36 -0.963866 -2.785145 -0.085350 0.057485 0.039254 0.065226
    37 0.028479 -1.403067 0.006271 -0.285462 0.000000 0.000000
    38 0.021413 -0.957781 0.020046 -0.387944 0.000000 0.000000
    39 1.164475 -2.543940 -0.170330 -0.557511 -0.035046 0.464229
    40 0.024032 -1.129042 0.017807 -1.373638 0.000000 0.000001
    41 0.014898 -0.883989 -0.019848 -1.103398 0.000000 0.000000
    42 -0.586770 -1.264477 0.200161 -0.683236 -0.842752 -2.270081
    43 1.522835 0.058681 0.016848 -0.059520 -0.122786 0.824758
    44 1.117947 0.048424 -0.005766 -0.016015 -0.019457 0.744725
    45 -0.041740 -0.115604 0.002678 0.136590 -0.022461 1.520273
    46 -1.393470 8.839177 -0.239433 1.580804 -0.005023 -1.566847
  time 11
    0 0.000000 1.410199 -4.644612 -0.174533 0.000000 0.000000
    1 12.889416 5.330175 -8.422448 0.538041 -2.317726 -0.694505
    2 0.084337 -8.502637 0.173215 -0.079034 0.391905 -0.708829
    3 1.776994 -2.723174 0.873419 0.134966 0.079135 3.004383
    4 -2.548201 7.012088 0.748838 0.000000 0.000000 -1.570796
    5 -1.546743 7.218124 0.000000 0.000000 0.000000 -0.002004
    6 -0.284830 2.178886 0.000000 0.000001 0.000000 0.000000
    7 -11.021444 4.818629 -7.648736 0.393734 2.082801 0.422417
    8 -0.227284 -8.466044 0.162515 0.053284 -0.334585 0.249785
    9 -1.471282 -3.093521 0.739297 3.070381 0.002168 0.135135
    10 -2.536482 9.152779 0.850403 0.000000 0.000000 -1.570796
    11 -1.546742 7.218122 -0.000001 0.000000 0.000000 -0.002004
    12 -0.284830 2.417173 0.000000 0.000001 0.000000 0.000000
    13 1.257180 8.762585 -0.153713 -1.570562 0.002683 -1.566807
    14 -0.488518 -2.755602 -0.228260 -0.647514 0.030346 -0.257527
    15 0.039887 -1.479790 0.029854 -1.670335 0.000000 0.000001
    16 0.028786 -1.075731 -0.023109 -1.197449 0.000000 0.000000
    17 0.250027 -2.820665 -0.238396 -0.482190 0.047366 -0.266951
    18 -0.049759 -1.680544 0.100479 -1.890537 0.000000 -0.000002
    19 -0.034142 -1.148312 0.084782 -1.087281 0.000000 0.000000
    20 0.957766 -2.774125 -0.086396 -0.200214 -0.028397 -0.018724
    21 -0.033420 -1.397129 -0.011257 -0.346688 0.136277 -0.074809
    22 -0.022360 -0.957436 0.018784 -0.364582 0.000000 0.000000
    23 -1.180681 -2.507217 -0.193859 -0.541359 0.150781 -0.464420
    24 -0.024967 -1.123934 0.017597 -1.488903 0.000000 0.000001
    25 -0.020057 -0.890968 0.010090 -1.277757 0.000000 0.000000
    26 0.583510 -1.197277 0.185379 0.316258 -1.087026 -0.583548
    27 1.535927 0.010246 0.005009 0.087412 0.030537 -1.135410
    28 1.100771 0.004527 -0.010679 -0.010778 0.012114 -0.550575
    29 0.120153 -0.050270 -0.054489 0.099906 3.110905 1.561085
    30 0.447953 -2.798986 -0.200443 -0.607948 0.000534 0.561976
    31 -0.032909 -1.480204 0.004940 -1.413633 0.000000 0.000002
    32 -0.027022 -1.076920 -0.020210 -1.481391 0.000000 0.000000
    33 -0.249534 -2.846964 -0.174213 -0.445831 0.004261 0.486845
    34 0.043235 -1.683941 0.096012 -1.469776 0.002823 -0.000167
    35 0.031729 -1.160830 0.058838 -1.698243 0.000642 0.008372
    36 -0.963866 -2.785145 -0.085350 0.057485 0.039254 0.065226
    37 0.028479 -1.403067 0.006271 -0.285462 0.000000 0.000000
    38 0.021413 -0.957781 0.020046 -0.387944 0.000000 0.000000
    39 1.164475 -2.543940 -0.170330 -0.557511 -0.035046 0.464229
    40 0.024032 -1.129042 0.017807 -1.373638 0.000000 0.000001
    41 0.014898 -0.883989 -0.019848 -1.103398 0.000000 0.000000
    42 -0.586770 -1.264477 0.200161 -0.683236 -0.842752 -2.270081
    43 1.522835 0.058681 0.016848 -0.059520 -0.122786 0.824758
    44 1.117947 0.048424 -0.005766 -0.016015 -0.019457 0.744725
    45 -0.041740 -0.115604 0.002678 0.136590 -0.022461 1.520273
    46 -1.393470 8.839177 -0.239433 1.580804 -0.005023 -1.566847
  time 12
    0 0.000000 1.410199 -4.644612 -0.174533 0.000000 0.000000
    1 12.889416 5.330175 -8.422448 0.538041 -2.317726 -0.694505
    2 0.084337 -8.502637 0.173215 -0.079034 0.391905 -0.708829
    3 1.776994 -2.723174 0.873419 0.134966 0.079135 3.004383
    4 -2.548201 7.012088 0.748838 0.000000 0.000000 -1.570796
    5 -1.546743 7.218124 0.000000 0.000000 0.000000 -0.002004
    6 -0.284830 2.178886 0.000000 0.000001 0.000000 0.000000
    7 -11.021444 4.818629 -7.648736 0.393734 2.082801 0.422417
    8 -0.227284 -8.466044 0.162515 0.053284 -0.334585 0.249785
    9 -1.471282 -3.093521 0.739297 3.070381 0.002168 0.135135
    10 -2.536482 9.152779 0.850403 0.000000 0.000000 -1.570796
    11 -1.546742 7.218122 -0.000001 0.000000 0.000000 -0.002004
    12 -0.284830 2.417173 0.000000 0.000001 0.000000 0.000000
    13 1.257180 8.762585 -0.153713 -1.570562 0.002683 -1.566807
    14 -0.488518 -2.755602 -0.228260 -0.647514 0.030346 -0.257527
    15 0.039887 -1.479790 0.029854 -1.670335 0.000000 0.000001
    16 0.028786 -1.075731 -0.023109 -1.197449 0.000000 0.000000
    17 0.250027 -2.820665 -0.238396 -0.482190 0.047366 -0.266951
    18 -0.049759 -1.680544 0.100479 -1.890537 0.000000 -0.000002
    19 -0.034142 -1.148312 0.084782 -1.087281 0.000000 0.000000
    20 0.957766 -2.774125 -0.086396 -0.200214 -0.028397 -0.018724
    21 -0.033420 -1.397129 -0.011257 -0.346688 0.136277 -0.074809
    22 -0.022360 -0.957436 0.018784 -0.364582 0.000000 0.000000
    23 -1.180681 -2.507217 -0.193859 -0.541359 0.150781 -0.464420
    24 -0.024967 -1.123934 0.017597 -1.488903 0.000000 0.000001
    25 -0.020057 -0.890968 0.010090 -1.277757 0.000000 0.000000
    26 0.583510 -1.197277 0.185379 0.316258 -1.087026 -0.583548
    27 1.535927 0.010246 0.005009 0.087412 0.030537 -1.135410
    28 1.100771 0.004527 -0.010679 -0.010778 0.012114 -0.550575
    29 0.120153 -0.050270 -0.054489 0.099906 3.110905 1.561085
    30 0.447953 -2.798986 -0.200443 -0.607948 0.000534 0.561976
    31 -0.032909 -1.480204 0.004940 -1.413633 0.000000 0.000002
    32 -0.027022 -1.076920 -0.020210 -1.481391 0.000000 0.000000
    33 -0.249534 -2.846964 -0.174213 -0.445831 0.004261 0.486845
    34 0.043235 -1.683941 0.096012 -1.469776 0.002823 -0.000167
    35 0.031729 -1.160830 0.058838 -1.698243 0.000642 0.008372
    36 -0.963866 -2.785145 -0.085350 0.057485 0.039254 0.065226
    37 0.028479 -1.403067 0.006271 -0.285462 0.000000 0.000000
    38 0.021413 -0.957781 0.020046 -0.387944 0.000000 0.000000
    39 1.164475 -2.543940 -0.170330 -0.557511 -0.035046 0.464229
    40 0.024032 -1.129042 0.017807 -1.373638 0.000000 0.000001
    41 0.014898 -0.883989 -0.019848 -1.103398 0.000000 0.000000
    42 -0.586770 -1.264477 0.200161 -0.683236 -0.842752 -2.270081
    43 1.522835 0.058681 0.016848 -0.059520 -0.122786 0.824758
    44 1.117947 0.048424 -0.005766 -0.016015 -0.019457 0.744725
    45 -0.041740 -0.115604 0.002678 0.136590 -0.022461 1.520273
    46 -1.393470 8.839177 -0.239433 1.580804 -0.005023 -1.566847
  time 13
    0 0.000000 1.410199 -4.644612 -0.174533 0.000000 0.000000
    1 12.889416 5.330175 -8.422448 0.538041 -2.317726 -0.694505
    2 0.084337 -8.502637 0.173215 -0.079034 0.391905 -0.708829
    3 1.776994 -2.723174 0.873419 0.134966 0.079135 3.004383
    4 -2.548201 7.012088 0.748838 0.000000 0.000000 -1.570796
    5 -1.546743 7.218124 0.000000 0.000000 0.000000 -0.002004
    6 -0.284830 2.178886 0.000000 0.000001 0.000000 0.000000
    7 -11.021444 4.818629 -7.648736 0.393734 2.082801 0.422417
    8 -0.227284 -8.466044 0.162515 0.053284 -0.334585 0.249785
    9 -1.471282 -3.093521 0.739297 3.070381 0.002168 0.135135
    10 -2.536482 9.152779 0.850403 0.000000 0.000000 -1.570796
    11 -1.546742 7.218122 -0.000001 0.000000 0.000000 -0.002004
    12 -0.284830 2.417173 0.000000 0.000001 0.000000 0.000000
    13 1.257180 8.762585 -0.153713 -1.570562 0.002683 -1.566807
    14 -0.488518 -2.755602 -0.228260 -0.647514 0.030346 -0.257527
    15 0.039887 -1.479790 0.029854 -1.670335 0.000000 0.000001
    16 0.028786 -1.075731 -0.023109 -1.197449 0.000000 0.000000
    17 0.250027 -2.820665 -0.238396 -0.482190 0.047366 -0.266951
    18 -0.049759 -1.680544 0.100479 -1.890537 0.000000 -0.000002
    19 -0.034142 -1.148312 0.084782 -1.087281 0.000000 0.000000
    20 0.957766 -2.774125 -0.086396 -0.200214 -0.028397 -0.018724
    21 -0.033420 -1.397129 -0.011257 -0.346688 0.136277 -0.074809
    22 -0.022360 -0.957436 0.018784 -0.364582 0.000000 0.000000
    23 -1.180681 -2.507217 -0.193859 -0.541359 0.150781 -0.464420
    24 -0.024967 -1.123934 0.017597 -1.488903 0.000000 0.000001
    25 -0.020057 -0.890968 0.010090 -1.277757 0.000000 0.000000
    26 0.583510 -1.197277 0.185379 0.316258 -1.087026 -0.583548
    27 1.535927 0.010246 0.005009 0.087412 0.030537 -1.135410
    28 1.100771 0.004527 -0.010679 -0.010778 0.012114 -0.550575
    29 0.120153 -0.050270 -0.054489 0.099906 3.110905 1.561085
    30 0.447953 -2.798986 -0.200443 -0.607948 0.000534 0.561976
    31 -0.032909 -1.480204 0.004940 -1.413633 0.000000 0.000002
    32 -0.027022 -1.076920 -0.020210 -1.481391 0.000000 0.000000
    33 -0.249534 -2.846964 -0.174213 -0.445831 0.004261 0.486845
    34 0.043235 -1.683941 0.096012 -1.469776 0.002823 -0.000167
    35 0.031729 -1.160830 0.058838 -1.698243 0.000642 0.008372
    36 -0.963866 -2.785145 -0.085350 0.057485 0.039254 0.065226
    37 0.028479 -1.403067 0.006271 -0.285462 0.000000 0.000000
    38 0.021413 -0.957781 0.020046 -0.387944 0.000000 0.000000
    39 1.164475 -2.543940 -0.170330 -0.557511 -0.035046 0.464229
    40 0.024032 -1.129042 0.017807 -1.373638 0.000000 0.000001
    41 0.014898 -0.883989 -0.019848 -1.103398 0.000000 0.000000
    42 -0.586770 -1.264477 0.200161 -0.683236 -0.842752 -2.270081
    43 1.522835 0.058681 0.016848 -0.059520 -0.122786 0.824758
    44 1.117947 0.048424 -0.005766 -0.016015 -0.019457 0.744725
    45 -0.041740 -0.115604 0.002678 0.136590 -0.022461 1.520273
    46 -1.393470 8.839177 -0.239433 1.580804 -0.005023 -1.566847
  time 14
    0 0.000000 1.410199 -4.644612 -0.174533 0.000000 0.000000
    1 12.889416 5.330175 -8.422448 0.538041 -2.317726 -0.694505
    2 0.084337 -8.502637 0.173215 -0.079034 0.391905 -0.708829
    3 1.776994 -2.723174 0.873419 0.134966 0.079135 3.004383
    4 -2.548201 7.012088 0.748838 0.000000 0.000000 -1.570796
    5 -1.546743 7.218124 0.000000 0.000000 0.000000 -0.002004
    6 -0.284830 2.178886 0.000000 0.000001 0.000000 0.000000
    7 -11.021444 4.818629 -7.648736 0.393734 2.082801 0.422417
    8 -0.227284 -8.466044 0.162515 0.053284 -0.334585 0.249785
    9 -1.471282 -3.093521 0.739297 3.070381 0.002168 0.135135
    10 -2.536482 9.152779 0.850403 0.000000 0.000000 -1.570796
    11 -1.546742 7.218122 -0.000001 0.000000 0.000000 -0.002004
    12 -0.284830 2.417173 0.000000 0.000001 0.000000 0.000000
    13 1.257180 8.762585 -0.153713 -1.570562 0.002683 -1.566807
    14 -0.488518 -2.755602 -0.228260 -0.647514 0.030346 -0.257527
    15 0.039887 -1.479790 0.029854 -1.670335 0.000000 0.000001
    16 0.028786 -1.075731 -0.023109 -1.197449 0.000000 0.000000
    17 0.250027 -2.820665 -0.238396 -0.482190 0.047366 -0.266951
    18 -0.049759 -1.680544 0.100479 -1.890537 0.000000 -0.000002
    19 -0.034142 -1.148312 0.084782 -1.087281 0.000000 0.000000
    20 0.957766 -2.774125 -0.086396 -0.200214 -0.028397 -0.018724
    21 -0.033420 -1.397129 -0.011257 -0.346688 0.136277 -0.074809
    22 -0.022360 -0.957436 0.018784 -0.364582 0.000000 0.000000
    23 -1.180681 -2.507217 -0.193859 -0.541359 0.150781 -0.464420
    24 -0.024967 -1.123934 0.017597 -1.488903 0.000000 0.000001
    25 -0.020057 -0.890968 0.010090 -1.277757 0.000000 0.000000
    26 0.583510 -1.197277 0.185379 0.316258 -1.087026 -0.583548
    27 1.535927 0.010246 0.005009 0.087412 0.030537 -1.135410
    28 1.100771 0.004527 -0.010679 -0.010778 0.012114 -0.550575
    29 0.120153 -0.050270 -0.054489 0.099906 3.110905 1.561085
    30 0.447953 -2.798986 -0.200443 -0.607948 0.000534 0.561976
    31 -0.032909 -1.480204 0.004940 -1.413633 0.000000 0.000002
    32 -0.027022 -1.076920 -0.020210 -1.481391 0.000000 0.000000
    33 -0.249534 -2.846964 -0.174213 -0.445831 0.004261 0.486845
    34 0.043235 -1.683941 0.096012 -1.469776 0.002823 -0.000167
    35 0.031729 -1.160830 0.058838 -1.698243 0.000642 0.008372
    36 -0.963866 -2.785145 -0.085350 0.057485 0.039254 0.065226
    37 0.028479 -1.403067 0.006271 -0.285462 0.000000 0.000000
    38 0.021413 -0.957781 0.020046 -0.387944 0.000000 0.000000
    39 1.164475 -2.543940 -0.170330 -0.557511 -0.035046 0.464229
    40 0.024032 -1.129042 0.017807 -1.373638 0.000000 0.000001
    41 0.014898 -0.883989 -0.019848 -1.103398 0.000000 0.000000
    42 -0.586770 -1.264477 0.200161 -0.683236 -0.842752 -2.270081
    43 1.522835 0.058681 0.016848 -0.059520 -0.122786 0.824758
    44 1.117947 0.048424 -0.005766 -0.016015 -0.019457 0.744725
    45 -0.041740 -0.115604 0.002678 0.136590 -0.022461 1.520273
    46 -1.393470 8.839177 -0.239433 1.580804 -0.005023 -1.566847
  time 15
    0 0.000000 1.410199 -4.644612 -0.174533 0.000000 0.000000
    1 12.889416 5.330175 -8.422448 0.538041 -2.317726 -0.694505
    2 0.084337 -8.502637 0.173215 -0.079034 0.391905 -0.708829
    3 1.776994 -2.723174 0.873419 0.134966 0.079135 3.004383
    4 -2.548201 7.012088 0.748838 0.000000 0.000000 -1.570796
    5 -1.546743 7.218124 0.000000 0.000000 0.000000 -0.002004
    6 -0.284830 2.178886 0.000000 0.000001 0.000000 0.000000
    7 -11.021444 4.818629 -7.648736 0.393734 2.082801 0.422417
    8 -0.227284 -8.466044 0.162515 0.053284 -0.334585 0.249785
    9 -1.471282 -3.093521 0.739297 3.070381 0.002168 0.135135
    10 -2.536482 9.152779 0.850403 0.000000 0.000000 -1.570796
    11 -1.546742 7.218122 -0.000001 0.000000 0.000000 -0.002004
    12 -0.284830 2.417173 0.000000 0.000001 0.000000 0.000000
    13 1.257180 8.762585 -0.153713 -1.570562 0.002683 -1.566807
    14 -0.488518 -2.755602 -0.228260 -0.647514 0.030346 -0.257527
    15 0.039887 -1.479790 0.029854 -1.670335 0.000000 0.000001
    16 0.028786 -1.075731 -0.023109 -1.197449 0.000000 0.000000
    17 0.250027 -2.820665 -0.238396 -0.482190 0.047366 -0.266951
    18 -0.049759 -1.680544 0.100479 -1.890537 0.000000 -0.000002
    19 -0.034142 -1.148312 0.084782 -1.087281 0.000000 0.000000
    20 0.957766 -2.774125 -0.086396 -0.200214 -0.028397 -0.018724
    21 -0.033420 -1.397129 -0.011257 -0.346688 0.136277 -0.074809
    22 -0.022360 -0.957436 0.018784 -0.364582 0.000000 0.000000
    23 -1.180681 -2.507217 -0.193859 -0.541359 0.150781 -0.464420
    24 -0.024967 -1.123934 0.017597 -1.488903 0.000000 0.000001
    25 -0.020057 -0.890968 0.010090 -1.277757 0.000000 0.000000
    26 0.583510 -1.197277 0.185379 0.316258 -1.087026 -0.583548
    27 1.535927 0.010246 0.005009 0.087412 0.030537 -1.135410
    28 1.100771 0.004527 -0.010679 -0.010778 0.012114 -0.550575
    29 0.120153 -0.050270 -0.054489 0.099906 3.110905 1.561085
    30 0.447953 -2.798986 -0.200443 -0.607948 0.000534 0.561976
    31 -0.032909 -1.480204 0.004940 -1.413633 0.000000 0.000002
    32 -0.027022 -1.076920 -0.020210 -1.481391 0.000000 0.000000
    33 -0.249534 -2.846964 -0.174213 -0.445831 0.004261 0.486845
    34 0.043235 -1.683941 0.096012 -1.469776 0.002823 -0.000167
    35 0.031729 -1.160830 0.058838 -1.698243 0.000642 0.008372
    36 -0.963866 -2.785145 -0.085350 0.057485 0.039254 0.065226
    37 0.028479 -1.403067 0.006271 -0.285462 0.000000 0.000000
    38 0.021413 -0.957781 0.020046 -0.387944 0.000000 0.000000
    39 1.164475 -2.543940 -0.170330 -0.557511 -0.035046 0.464229
    40 0.024032 -1.129042 0.017807 -1.373638 0.000000 0.000001
    41 0.014898 -0.883989 -0.019848 -1.103398 0.000000 0.000000
    42 -0.586770 -1.264477 0.200161 -0.683236 -0.842752 -2.270081
    43 1.522835 0.058681 0.016848 -0.059520 -0.122786 0.824758
    44 1.117947 0.048424 -0.005766 -0.016015 -0.019457 0.744725
    45 -0.041740 -0.115604 0.002678 0.136590 -0.022461 1.520273
    46 -1.393470 8.839177 -0.239433 1.580804 -0.005023 -1.566847
  time 16
    0 0.000000 1.410199 -4.644612 -0.174533 0.000000 0.000000
    1 12.889416 5.330175 -8.422448 0.538041 -2.317726 -0.694505
    2 0.084337 -8.502637 0.173215 -0.079034 0.391905 -0.708829
    3 1.776994 -2.723174 0.873419 0.134966 0.079135 3.004383
    4 -2.548201 7.012088 0.748838 0.000000 0.000000 -1.570796
    5 -1.546743 7.218124 0.000000 0.000000 0.000000 -0.002004
    6 -0.284830 2.178886 0.000000 0.000001 0.000000 0.000000
    7 -11.021444 4.818629 -7.648736 0.393734 2.082801 0.422417
    8 -0.227284 -8.466044 0.162515 0.053284 -0.334585 0.249785
    9 -1.471282 -3.093521 0.739297 3.070381 0.002168 0.135135
    10 -2.536482 9.152779 0.850403 0.000000 0.000000 -1.570796
    11 -1.546742 7.218122 -0.000001 0.000000 0.000000 -0.002004
    12 -0.284830 2.417173 0.000000 0.000001 0.000000 0.000000
    13 1.257180 8.762585 -0.153713 -1.570562 0.002683 -1.566807
    14 -0.488518 -2.755602 -0.228260 -0.647514 0.030346 -0.257527
    15 0.039887 -1.479790 0.029854 -1.670335 0.000000 0.000001
    16 0.028786 -1.075731 -0.023109 -1.197449 0.000000 0.000000
    17 0.250027 -2.820665 -0.238396 -0.482190 0.047366 -0.266951
    18 -0.049759 -1.680544 0.100479 -1.890537 0.000000 -0.000002
    19 -0.034142 -1.148312 0.084782 -1.087281 0.000000 0.000000
    20 0.957766 -2.774125 -0.086396 -0.200214 -0.028397 -0.018724
    21 -0.033420 -1.397129 -0.011257 -0.346688 0.136277 -0.074809
    22 -0.022360 -0.957436 0.018784 -0.364582 0.000000 0.000000
    23 -1.180681 -2.507217 -0.193859 -0.541359 0.150781 -0.464420
    24 -0.024967 -1.123934 0.017597 -1.488903 0.000000 0.000001
    25 -0.020057 -0.890968 0.010090 -1.277757 0.000000 0.000000
    26 0.583510 -1.197277 0.185379 0.316258 -1.087026 -0.583548
    27 1.535927 0.010246 0.005009 0.087412 0.030537 -1.135410
    28 1.100771 0.004527 -0.010679 -0.010778 0.012114 -0.550575
    29 0.120153 -0.050270 -0.054489 0.099906 3.110905 1.561085
    30 0.447953 -2.798986 -0.200443 -0.607948 0.000534 0.561976
    31 -0.032909 -1.480204 0.004940 -1.413633 0.000000 0.000002
    32 -0.027022 -1.076920 -0.020210 -1.481391 0.000000 0.000000
    33 -0.249534 -2.846964 -0.174213 -0.445831 0.004261 0.486845
    34 0.043235 -1.683941 0.096012 -1.469776 0.002823 -0.000167
    35 0.031729 -1.160830 0.058838 -1.698243 0.000642 0.008372
    36 -0.963866 -2.785145 -0.085350 0.057485 0.039254 0.065226
    37 0.028479 -1.403067 0.006271 -0.285462 0.000000 0.000000
    38 0.021413 -0.957781 0.020046 -0.387944 0.000000 0.000000
    39 1.164475 -2.543940 -0.170330 -0.557511 -0.035046 0.464229
    40 0.024032 -1.129042 0.017807 -1.373638 0.000000 0.000001
    41 0.014898 -0.883989 -0.019848 -1.103398 0.000000 0.000000
    42 -0.586770 -1.264477 0.200161 -0.683236 -0.842752 -2.270081
    43 1.522835 0.058681 0.016848 -0.059520 -0.122786 0.824758
    44 1.117947 0.048424 -0.005766 -0.016015 -0.019457 0.744725
    45 -0.041740 -0.115604 0.002678 0.136590 -0.022461 1.520273
    46 -1.393470 8.839177 -0.239433 1.580804 -0.005023 -1.566847
  time 17
    0 0.000000 1.410199 -4.644612 -0.174533 0.000000 0.000000
    1 12.889416 5.330175 -8.422448 0.538041 -2.317726 -0.694505
    2 0.084337 -8.502637 0.173215 -0.079034 0.391905 -0.708829
    3 1.776994 -2.723174 0.873419 0.134966 0.079135 3.004383
    4 -2.548201 7.012088 0.748838 0.000000 0.000000 -1.570796
    5 -1.546743 7.218124 0.000000 0.000000 0.000000 -0.002004
    6 -0.284830 2.178886 0.000000 0.000001 0.000000 0.000000
    7 -11.021444 4.818629 -7.648736 0.393734 2.082801 0.422417
    8 -0.227284 -8.466044 0.162515 0.053284 -0.334585 0.249785
    9 -1.471282 -3.093521 0.739297 3.070381 0.002168 0.135135
    10 -2.536482 9.152779 0.850403 0.000000 0.000000 -1.570796
    11 -1.546742 7.218122 -0.000001 0.000000 0.000000 -0.002004
    12 -0.284830 2.417173 0.000000 0.000001 0.000000 0.000000
    13 1.257180 8.762585 -0.153713 -1.570562 0.002683 -1.566807
    14 -0.488518 -2.755602 -0.228260 -0.647514 0.030346 -0.257527
    15 0.039887 -1.479790 0.029854 -1.670335 0.000000 0.000001
    16 0.028786 -1.075731 -0.023109 -1.197449 0.000000 0.000000
    17 0.250027 -2.820665 -0.238396 -0.482190 0.047366 -0.266951
    18 -0.049759 -1.680544 0.100479 -1.890537 0.000000 -0.000002
    19 -0.034142 -1.148312 0.084782 -1.087281 0.000000 0.000000
    20 0.957766 -2.774125 -0.086396 -0.200214 -0.028397 -0.018724
    21 -0.033420 -1.397129 -0.011257 -0.346688 0.136277 -0.074809
    22 -0.022360 -0.957436 0.018784 -0.364582 0.000000 0.000000
    23 -1.180681 -2.507217 -0.193859 -0.541359 0.150781 -0.464420
    24 -0.024967 -1.123934 0.017597 -1.488903 0.000000 0.000001
    25 -0.020057 -0.890968 0.010090 -1.277757 0.000000 0.000000
    26 0.583510 -1.197277 0.185379 0.316258 -1.087026 -0.583548
    27 1.535927 0.010246 0.005009 0.087412 0.030537 -1.135410
    28 1.100771 0.004527 -0.010679 -0.010778 0.012114 -0.550575
    29 0.120153 -0.050270 -0.054489 0.099906 3.110905 1.561085
    30 0.447953 -2.798986 -0.200443 -0.607948 0.000534 0.561976
    31 -0.032909 -1.480204 0.004940 -1.413633 0.000000 0.000002
    32 -0.027022 -1.076920 -0.020210 -1.481391 0.000000 0.000000
    33 -0.249534 -2.846964 -0.174213 -0.445831 0.004261 0.486845
    34 0.043235 -1.683941 0.096012 -1.469776 0.002823 -0.000167
    35 0.031729 -1.160830 0.058838 -1.698243 0.000642 0.008372
    36 -0.963866 -2.785145 -0.085350 0.057485 0.039254 0.065226
    37 0.028479 -1.403067 0.006271 -0.285462 0.000000 0.000000
    38 0.021413 -0.957781 0.020046 -0.387944 0.000000 0.000000
    39 1.164475 -2.543940 -0.170330 -0.557511 -0.035046 0.464229
    40 0.024032 -1.129042 0.017807 -1.373638 0.000000 0.000001
    41 0.014898 -0.883989 -0.019848 -1.103398 0.000000 0.000000
    42 -0.586770 -1.264477 0.200161 -0.683236 -0.842752 -2.270081
    43 1.522835 0.058681 0.016848 -0.059520 -0.122786 0.824758
    44 1.117947 0.048424 -0.005766 -0.016015 -0.019457 0.744725
    45 -0.041740 -0.115604 0.002678 0.136590 -0.022461 1.520273
    46 -1.393470 8.839177 -0.239433 1.580804 -0.005023 -1.566847
  time 18
    0 0.000000 1.410199 -4.644612 -0.174533 0.000000 0.000000
    1 12.889416 5.330175 -8.422448 0.538041 -2.317726 -0.694505
    2 0.084337 -8.502637 0.173215 -0.079034 0.391905 -0.708829
    3 1.776994 -2.723174 0.873419 0.134966 0.079135 3.004383
    4 -2.548201 7.012088 0.748838 0.000000 0.000000 -1.570796
    5 -1.546743 7.218124 0.000000 0.000000 0.000000 -0.002004
    6 -0.284830 2.178886 0.000000 0.000001 0.000000 0.000000
    7 -11.021444 4.818629 -7.648736 0.393734 2.082801 0.422417
    8 -0.227284 -8.466044 0.162515 0.053284 -0.334585 0.249785
    9 -1.471282 -3.093521 0.739297 3.070381 0.002168 0.135135
    10 -2.536482 9.152779 0.850403 0.000000 0.000000 -1.570796
    11 -1.546742 7.218122 -0.000001 0.000000 0.000000 -0.002004
    12 -0.284830 2.417173 0.000000 0.000001 0.000000 0.000000
    13 1.257180 8.762585 -0.153713 -1.570562 0.002683 -1.566807
    14 -0.488518 -2.755602 -0.228260 -0.647514 0.030346 -0.257527
    15 0.039887 -1.479790 0.029854 -1.670335 0.000000 0.000001
    16 0.028786 -1.075731 -0.023109 -1.197449 0.000000 0.000000
    17 0.250027 -2.820665 -0.238396 -0.482190 0.047366 -0.266951
    18 -0.049759 -1.680544 0.100479 -1.890537 0.000000 -0.000002
    19 -0.034142 -1.148312 0.084782 -1.087281 0.000000 0.000000
    20 0.957766 -2.774125 -0.086396 -0.200214 -0.028397 -0.018724
    21 -0.033420 -1.397129 -0.011257 -0.346688 0.136277 -0.074809
    22 -0.022360 -0.957436 0.018784 -0.364582 0.000000 0.000000
    23 -1.180681 -2.507217 -0.193859 -0.541359 0.150781 -0.464420
    24 -0.024967 -1.123934 0.017597 -1.488903 0.000000 0.000001
    25 -0.020057 -0.890968 0.010090 -1.277757 0.000000 0.000000
    26 0.583510 -1.197277 0.185379 0.316258 -1.087026 -0.583548
    27 1.535927 0.010246 0.005009 0.087412 0.030537 -1.135410
    28 1.100771 0.004527 -0.010679 -0.010778 0.012114 -0.550575
    29 0.120153 -0.050270 -0.054489 0.099906 3.110905 1.561085
    30 0.447953 -2.798986 -0.200443 -0.607948 0.000534 0.561976
    31 -0.032909 -1.480204 0.004940 -1.413633 0.000000 0.000002
    32 -0.027022 -1.076920 -0.020210 -1.481391 0.000000 0.000000
    33 -0.249534 -2.846964 -0.174213 -0.445831 0.004261 0.486845
    34 0.043235 -1.683941 0.096012 -1.469776 0.002823 -0.000167
    35 0.031729 -1.160830 0.058838 -1.698243 0.000642 0.008372
    36 -0.963866 -2.785145 -0.085350 0.057485 0.039254 0.065226
    37 0.028479 -1.403067 0.006271 -0.285462 0.000000 0.000000
    38 0.021413 -0.957781 0.020046 -0.387944 0.000000 0.000000
    39 1.164475 -2.543940 -0.170330 -0.557511 -0.035046 0.464229
    40 0.024032 -1.129042 0.017807 -1.373638 0.000000 0.000001
    41 0.014898 -0.883989 -0.019848 -1.103398 0.000000 0.000000
    42 -0.586770 -1.264477 0.200161 -0.683236 -0.842752 -2.270081
    43 1.522835 0.058681 0.016848 -0.059520 -0.122786 0.824758
    44 1.117947 0.048424 -0.005766 -0.016015 -0.019457 0.744725
    45 -0.041740 -0.115604 0.002678 0.136590 -0.022461 1.520273
    46 -1.393470 8.839177 -0.239433 1.580804 -0.005023 -1.566847
  time 19
    0 0.000000 1.410199 -4.644612 -0.174533 0.000000 0.000000
    1 12.889416 5.330175 -8.422448 0.538041 -2.317726 -0.694505
    2 0.084337 -8.502637 0.173215 -0.079034 0.391905 -0.708829
    3 1.776994 -2.723174 0.873419 0.134966 0.079135 3.004383
    4 -2.548201 7.012088 0.748838 0.000000 0.000000 -1.570796
    5 -1.546743 7.218124 0.000000 0.000000 0.000000 -0.002004
    6 -0.284830 2.178886 0.000000 0.000001 0.000000 0.000000
    7 -11.021444 4.818629 -7.648736 0.393734 2.082801 0.422417
    8 -0.227284 -8.466044 0.162515 0.053284 -0.334585 0.249785
    9 -1.471282 -3.093521 0.739297 3.070381 0.002168 0.135135
    10 -2.536482 9.152779 0.850403 0.000000 0.000000 -1.570796
    11 -1.546742 7.218122 -0.000001 0.000000 0.000000 -0.002004
    12 -0.284830 2.417173 0.000000 0.000001 0.000000 0.000000
    13 1.257180 8.762585 -0.153713 -1.570562 0.002683 -1.566807
    14 -0.488518 -2.755602 -0.228260 -0.647514 0.030346 -0.257527
    15 0.039887 -1.479790 0.029854 -1.670335 0.000000 0.000001
    16 0.028786 -1.075731 -0.023109 -1.197449 0.000000 0.000000
    17 0.250027 -2.820665 -0.238396 -0.482190 0.047366 -0.266951
    18 -0.049759 -1.680544 0.100479 -1.890537 0.000000 -0.000002
    19 -0.034142 -1.148312 0.084782 -1.087281 0.000000 0.000000
    20 0.957766 -2.774125 -0.086396 -0.200214 -0.028397 -0.018724
    21 -0.033420 -1.397129 -0.011257 -0.346688 0.136277 -0.074809
    22 -0.022360 -0.957436 0.018784 -0.364582 0.000000 0.000000
    23 -1.180681 -2.507217 -0.193859 -0.541359 0.150781 -0.464420
    24 -0.024967 -1.123934 0.017597 -1.488903 0.000000 0.000001
    25 -0.020057 -0.890968 0.010090 -1.277757 0.000000 0.000000
    26 0.583510 -1.197277 0.185379 0.316258 -1.087026 -0.583548
    27 1.535927 0.010246 0.005009 0.087412 0.030537 -1.135410
    28 1.100771 0.004527 -0.010679 -0.010778 0.012114 -0.550575
    29 0.120153 -0.050270 -0.054489 0.099906 3.110905 1.561085
    30 0.447953 -2.798986 -0.200443 -0.607948 0.000534 0.561976
    31 -0.032909 -1.480204 0.004940 -1.413633 0.000000 0.000002
    32 -0.027022 -1.076920 -0.020210 -1.481391 0.000000 0.000000
    33 -0.249534 -2.846964 -0.174213 -0.445831 0.004261 0.486845
    34 0.043235 -1.683941 0.096012 -1.469776 0.002823 -0.000167
    35 0.031729 -1.160830 0.058838 -1.698243 0.000642 0.008372
    36 -0.963866 -2.785145 -0.085350 0.057485 0.039254 0.065226
    37 0.028479 -1.403067 0.006271 -0.285462 0.000000 0.000000
    38 0.021413 -0.957781 0.020046 -0.387944 0.000000 0.000000
    39 1.164475 -2.543940 -0.170330 -0.557511 -0.035046 0.464229
    40 0.024032 -1.129042 0.017807 -1.373638 0.000000 0.000001
    41 0.014898 -0.883989 -0.019848 -1.103398 0.000000 0.000000
    42 -0.586770 -1.264477 0.200161 -0.683236 -0.842752 -2.270081
    43 1.522835 0.058681 0.016848 -0.059520 -0.122786 0.824758
    44 1.117947 0.048424 -0.005766 -0.016015 -0.019457 0.744725
    45 -0.041740 -0.115604 0.002678 0.136590 -0.022461 1.520273
    46 -1.393470 8.839177 -0.239433 1.580804 -0.005023 -1.566847
  time 20
    0 0.000000 1.410199 -4.644612 -0.174533 0.000000 0.000000
    1 12.889416 5.330175 -8.422448 0.538041 -2.317726 -0.694505
    2 0.084337 -8.502637 0.173215 -0.079034 0.391905 -0.708829
    3 1.776994 -2.723174 0.873419 0.134966 0.079135 3.004383
    4 -2.548201 7.012088 0.748838 0.000000 0.000000 -1.570796
    5 -1.546743 7.218124 0.000000 0.000000 0.000000 -0.002004
    6 -0.284830 2.178886 0.000000 0.000001 0.000000 0.000000
    7 -11.021444 4.818629 -7.648736 0.393734 2.082801 0.422417
    8 -0.227284 -8.466044 0.162515 0.053284 -0.334585 0.249785
    9 -1.471282 -3.093521 0.739297 3.070381 0.002168 0.135135
    10 -2.536482 9.152779 0.850403 0.000000 0.000000 -1.570796
    11 -1.546742 7.218122 -0.000001 0.000000 0.000000 -0.002004
    12 -0.284830 2.417173 0.000000 0.000001 0.000000 0.000000
    13 1.257180 8.762585 -0.153713 -1.570562 0.002683 -1.566807
    14 -0.488518 -2.755602 -0.228260 -0.647514 0.030346 -0.257527
    15 0.039887 -1.479790 0.029854 -1.670335 0.000000 0.000001
    16 0.028786 -1.075731 -0.023109 -1.197449 0.000000 0.000000
    17 0.250027 -2.820665 -0.238396 -0.482190 0.047366 -0.266951
    18 -0.049759 -1.680544 0.100479 -1.890537 0.000000 -0.000002
    19 -0.034142 -1.148312 0.084782 -1.087281 0.000000 0.000000
    20 0.957766 -2.774125 -0.086396 -0.200214 -0.028397 -0.018724
    21 -0.033420 -1.397129 -0.011257 -0.346688 0.136277 -0.074809
    22 -0.022360 -0.957436 0.018784 -0.364582 0.000000 0.000000
    23 -1.180681 -2.507217 -0.193859 -0.541359 0.150781 -0.464420
    24 -0.024967 -1.123934 0.017597 -1.488903 0.000000 0.000001
    25 -0.020057 -0.890968 0.010090 -1.277757 0.000000 0.000000
    26 0.583510 -1.197277 0.185379 0.316258 -1.087026 -0.583548
    27 1.535927 0.010246 0.005009 0.087412 0.030537 -1.135410
    28 1.100771 0.004527 -0.010679 -0.010778 0.012114 -0.550575
    29 0.120153 -0.050270 -0.054489 0.099906 3.110905 1.561085
    30 0.447953 -2.798986 -0.200443 -0.607948 0.000534 0.561976
    31 -0.032909 -1.480204 0.004940 -1.413633 0.000000 0.000002
    32 -0.027022 -1.076920 -0.020210 -1.481391 0.000000 0.000000
    33 -0.249534 -2.846964 -0.174213 -0.445831 0.004261 0.486845
    34 0.043235 -1.683941 0.096012 -1.469776 0.002823 -0.000167
    35 0.031729 -1.160830 0.058838 -1.698243 0.000642 0.008372
    36 -0.963866 -2.785145 -0.085350 0.057485 0.039254 0.065226
    37 0.028479 -1.403067 0.006271 -0.285462 0.000000 0.000000
    38 0.021413 -0.957781 0.020046 -0.387944 0.000000 0.000000
    39 1.164475 -2.543940 -0.170330 -0.557511 -0.035046 0.464229
    40 0.024032 -1.129042 0.017807 -1.373638 0.000000 0.000001
    41 0.014898 -0.883989 -0.019848 -1.103398 0.000000 0.000000
    42 -0.586770 -1.264477 0.200161 -0.683236 -0.842752 -2.270081
    43 1.522835 0.058681 0.016848 -0.059520 -0.122786 0.824758
    44 1.117947 0.048424 -0.005766 -0.016015 -0.019457 0.744725
    45 -0.041740 -0.115604 0.002678 0.136590 -0.022461 1.520273
    46 -1.393470 8.839177 -0.239433 1.580804 -0.005023 -1.566847
  time 21
    0 0.000000 1.410199 -4.644612 -0.174533 0.000000 0.000000
    1 12.889416 5.330175 -8.422448 0.538041 -2.317726 -0.694505
    2 0.084337 -8.502637 0.173215 -0.079034 0.391905 -0.708829
    3 1.776994 -2.723174 0.873419 0.134966 0.079135 3.004383
    4 -2.548201 7.012088 0.748838 0.000000 0.000000 -1.570796
    5 -1.546743 7.218124 0.000000 0.000000 0.000000 -0.002004
    6 -0.284830 2.178886 0.000000 0.000001 0.000000 0.000000
    7 -11.021444 4.818629 -7.648736 0.393734 2.082801 0.422417
    8 -0.227284 -8.466044 0.162515 0.053284 -0.334585 0.249785
    9 -1.471282 -3.093521 0.739297 3.070381 0.002168 0.135135
    10 -2.536482 9.152779 0.850403 0.000000 0.000000 -1.570796
    11 -1.546742 7.218122 -0.000001 0.000000 0.000000 -0.002004
    12 -0.284830 2.417173 0.000000 0.000001 0.000000 0.000000
    13 1.257180 8.762585 -0.153713 -1.570562 0.002683 -1.566807
    14 -0.488518 -2.755602 -0.228260 -0.647514 0.030346 -0.257527
    15 0.039887 -1.479790 0.029854 -1.670335 0.000000 0.000001
    16 0.028786 -1.075731 -0.023109 -1.197449 0.000000 0.000000
    17 0.250027 -2.820665 -0.238396 -0.482190 0.047366 -0.266951
    18 -0.049759 -1.680544 0.100479 -1.890537 0.000000 -0.000002
    19 -0.034142 -1.148312 0.084782 -1.087281 0.000000 0.000000
    20 0.957766 -2.774125 -0.086396 -0.200214 -0.028397 -0.018724
    21 -0.033420 -1.397129 -0.011257 -0.346688 0.136277 -0.074809
    22 -0.022360 -0.957436 0.018784 -0.364582 0.000000 0.000000
    23 -1.180681 -2.507217 -0.193859 -0.541359 0.150781 -0.464420
    24 -0.024967 -1.123934 0.017597 -1.488903 0.000000 0.000001
    25 -0.020057 -0.890968 0.010090 -1.277757 0.000000 0.000000
    26 0.583510 -1.197277 0.185379 0.316258 -1.087026 -0.583548
    27 1.535927 0.010246 0.005009 0.087412 0.030537 -1.135410
    28 1.100771 0.004527 -0.010679 -0.010778 0.012114 -0.550575
    29 0.120153 -0.050270 -0.054489 0.099906 3.110905 1.561085
    30 0.447953 -2.798986 -0.200443 -0.607948 0.000534 0.561976
    31 -0.032909 -1.480204 0.004940 -1.413633 0.000000 0.000002
    32 -0.027022 -1.076920 -0.020210 -1.481391 0.000000 0.000000
    33 -0.249534 -2.846964 -0.174213 -0.445831 0.004261 0.486845
    34 0.043235 -1.683941 0.096012 -1.469776 0.002823 -0.000167
    35 0.031729 -1.160830 0.058838 -1.698243 0.000642 0.008372
    36 -0.963866 -2.785145 -0.085350 0.057485 0.039254 0.065226
    37 0.028479 -1.403067 0.006271 -0.285462 0.000000 0.000000
    38 0.021413 -0.957781 0.020046 -0.387944 0.000000 0.000000
    39 1.164475 -2.543940 -0.170330 -0.557511 -0.035046 0.464229
    40 0.024032 -1.129042 0.017807 -1.373638 0.000000 0.000001
    41 0.014898 -0.883989 -0.019848 -1.103398 0.000000 0.000000
    42 -0.586770 -1.264477 0.200161 -0.683236 -0.842752 -2.270081
    43 1.522835 0.058681 0.016848 -0.059520 -0.122786 0.824758
    44 1.117947 0.048424 -0.005766 -0.016015 -0.019457 0.744725
    45 -0.041740 -0.115604 0.002678 0.136590 -0.022461 1.520273
    46 -1.393470 8.839177 -0.239433 1.580804 -0.005023 -1.566847
  time 22
    0 0.000000 1.410199 -4.644612 -0.174533 0.000000 0.000000
    1 12.889416 5.330175 -8.422448 0.538041 -2.317726 -0.694505
    2 0.084337 -8.502637 0.173215 -0.079034 0.391905 -0.708829
    3 1.776994 -2.723174 0.873419 0.134966 0.079135 3.004383
    4 -2.548201 7.012088 0.748838 0.000000 0.000000 -1.570796
    5 -1.546743 7.218124 0.000000 0.000000 0.000000 -0.002004
    6 -0.284830 2.178886 0.000000 0.000001 0.000000 0.000000
    7 -11.021444 4.818629 -7.648736 0.393734 2.082801 0.422417
    8 -0.227284 -8.466044 0.162515 0.053284 -0.334585 0.249785
    9 -1.471282 -3.093521 0.739297 3.070381 0.002168 0.135135
    10 -2.536482 9.152779 0.850403 0.000000 0.000000 -1.570796
    11 -1.546742 7.218122 -0.000001 0.000000 0.000000 -0.002004
    12 -0.284830 2.417173 0.000000 0.000001 0.000000 0.000000
    13 1.257180 8.762585 -0.153713 -1.570562 0.002683 -1.566807
    14 -0.488518 -2.755602 -0.228260 -0.647514 0.030346 -0.257527
    15 0.039887 -1.479790 0.029854 -1.670335 0.000000 0.000001
    16 0.028786 -1.075731 -0.023109 -1.197449 0.000000 0.000000
    17 0.250027 -2.820665 -0.238396 -0.482190 0.047366 -0.266951
    18 -0.049759 -1.680544 0.100479 -1.890537 0.000000 -0.000002
    19 -0.034142 -1.148312 0.084782 -1.087281 0.000000 0.000000
    20 0.957766 -2.774125 -0.086396 -0.200214 -0.028397 -0.018724
    21 -0.033420 -1.397129 -0.011257 -0.346688 0.136277 -0.074809
    22 -0.022360 -0.957436 0.018784 -0.364582 0.000000 0.000000
    23 -1.180681 -2.507217 -0.193859 -0.541359 0.150781 -0.464420
    24 -0.024967 -1.123934 0.017597 -1.488903 0.000000 0.000001
    25 -0.020057 -0.890968 0.010090 -1.277757 0.000000 0.000000
    26 0.583510 -1.197277 0.185379 0.316258 -1.087026 -0.583548
    27 1.535927 0.010246 0.005009 0.087412 0.030537 -1.135410
    28 1.100771 0.004527 -0.010679 -0.010778 0.012114 -0.550575
    29 0.120153 -0.050270 -0.054489 0.099906 3.110905 1.561085
    30 0.447953 -2.798986 -0.200443 -0.607948 0.000534 0.561976
    31 -0.032909 -1.480204 0.004940 -1.413633 0.000000 0.000002
    32 -0.027022 -1.076920 -0.020210 -1.481391 0.000000 0.000000
    33 -0.249534 -2.846964 -0.174213 -0.445831 0.004261 0.486845
    34 0.043235 -1.683941 0.096012 -1.469776 0.002823 -0.000167
    35 0.031729 -1.160830 0.058838 -1.698243 0.000642 0.008372
    36 -0.963866 -2.785145 -0.085350 0.057485 0.039254 0.065226
    37 0.028479 -1.403067 0.006271 -0.285462 0.000000 0.000000
    38 0.021413 -0.957781 0.020046 -0.387944 0.000000 0.000000
    39 1.164475 -2.543940 -0.170330 -0.557511 -0.035046 0.464229
    40 0.024032 -1.129042 0.017807 -1.373638 0.000000 0.000001
    41 0.014898 -0.883989 -0.019848 -1.103398 0.000000 0.000000
    42 -0.586770 -1.264477 0.200161 -0.683236 -0.842752 -2.270081
    43 1.522835 0.058681 0.016848 -0.059520 -0.122786 0.824758
    44 1.117947 0.048424 -0.005766 -0.016015 -0.019457 0.744725
    45 -0.041740 -0.115604 0.002678 0.136590 -0.022461 1.520273
    46 -1.393470 8.839177 -0.239433 1.580804 -0.005023 -1.566847
  time 23
    0 0.000000 1.410199 -4.644612 -0.174533 0.000000 0.000000
    1 12.889416 5.330175 -8.422448 0.538041 -2.317726 -0.694505
    2 0.084337 -8.502637 0.173215 -0.079034 0.391905 -0.708829
    3 1.776994 -2.723174 0.873419 0.134966 0.079135 3.004383
    4 -2.548201 7.012088 0.748838 0.000000 0.000000 -1.570796
    5 -1.546743 7.218124 0.000000 0.000000 0.000000 -0.002004
    6 -0.284830 2.178886 0.000000 0.000001 0.000000 0.000000
    7 -11.021444 4.818629 -7.648736 0.393734 2.082801 0.422417
    8 -0.227284 -8.466044 0.162515 0.053284 -0.334585 0.249785
    9 -1.471282 -3.093521 0.739297 3.070381 0.002168 0.135135
    10 -2.536482 9.152779 0.850403 0.000000 0.000000 -1.570796
    11 -1.546742 7.218122 -0.000001 0.000000 0.000000 -0.002004
    12 -0.284830 2.417173 0.000000 0.000001 0.000000 0.000000
    13 1.257180 8.762585 -0.153713 -1.570562 0.002683 -1.566807
    14 -0.488518 -2.755602 -0.228260 -0.647514 0.030346 -0.257527
    15 0.039887 -1.479790 0.029854 -1.670335 0.000000 0.000001
    16 0.028786 -1.075731 -0.023109 -1.197449 0.000000 0.000000
    17 0.250027 -2.820665 -0.238396 -0.482190 0.047366 -0.266951
    18 -0.049759 -1.680544 0.100479 -1.890537 0.000000 -0.000002
    19 -0.034142 -1.148312 0.084782 -1.087281 0.000000 0.000000
    20 0.957766 -2.774125 -0.086396 -0.200214 -0.028397 -0.018724
    21 -0.033420 -1.397129 -0.011257 -0.346688 0.136277 -0.074809
    22 -0.022360 -0.957436 0.018784 -0.364582 0.000000 0.000000
    23 -1.180681 -2.507217 -0.193859 -0.541359 0.150781 -0.464420
    24 -0.024967 -1.123934 0.017597 -1.488903 0.000000 0.000001
    25 -0.020057 -0.890968 0.010090 -1.277757 0.000000 0.000000
    26 0.583510 -1.197277 0.185379 0.316258 -1.087026 -0.583548
    27 1.535927 0.010246 0.005009 0.087412 0.030537 -1.135410
    28 1.100771 0.004527 -0.010679 -0.010778 0.012114 -0.550575
    29 0.120153 -0.050270 -0.054489 0.099906 3.110905 1.561085
    30 0.447953 -2.798986 -0.200443 -0.607948 0.000534 0.561976
    31 -0.032909 -1.480204 0.004940 -1.413633 0.000000 0.000002
    32 -0.027022 -1.076920 -0.020210 -1.481391 0.000000 0.000000
    33 -0.249534 -2.846964 -0.174213 -0.445831 0.004261 0.486845
    34 0.043235 -1.683941 0.096012 -1.469776 0.002823 -0.000167
    35 0.031729 -1.160830 0.058838 -1.698243 0.000642 0.008372
    36 -0.963866 -2.785145 -0.085350 0.057485 0.039254 0.065226
    37 0.028479 -1.403067 0.006271 -0.285462 0.000000 0.000000
    38 0.021413 -0.957781 0.020046 -0.387944 0.000000 0.000000
    39 1.164475 -2.543940 -0.170330 -0.557511 -0.035046 0.464229
    40 0.024032 -1.129042 0.017807 -1.373638 0.000000 0.000001
    41 0.014898 -0.883989 -0.019848 -1.103398 0.000000 0.000000
    42 -0.586770 -1.264477 0.200161 -0.683236 -0.842752 -2.270081
    43 1.522835 0.058681 0.016848 -0.059520 -0.122786 0.824758
    44 1.117947 0.048424 -0.005766 -0.016015 -0.019457 0.744725
    45 -0.041740 -0.115604 0.002678 0.136590 -0.022461 1.520273
    46 -1.393470 8.839177 -0.239433 1.580804 -0.005023 -1.566847
  time 24
    0 0.000000 1.410199 -4.644612 -0.174533 0.000000 0.000000
    1 12.889416 5.330175 -8.422448 0.538041 -2.317726 -0.694505
    2 0.084337 -8.502637 0.173215 -0.079034 0.391905 -0.708829
    3 1.776994 -2.723174 0.873419 0.134966 0.079135 3.004383
    4 -2.548201 7.012088 0.748838 0.000000 0.000000 -1.570796
    5 -1.546743 7.218124 0.000000 0.000000 0.000000 -0.002004
    6 -0.284830 2.178886 0.000000 0.000001 0.000000 0.000000
    7 -11.021444 4.818629 -7.648736 0.393734 2.082801 0.422417
    8 -0.227284 -8.466044 0.162515 0.053284 -0.334585 0.249785
    9 -1.471282 -3.093521 0.739297 3.070381 0.002168 0.135135
    10 -2.536482 9.152779 0.850403 0.000000 0.000000 -1.570796
    11 -1.546742 7.218122 -0.000001 0.000000 0.000000 -0.002004
    12 -0.284830 2.417173 0.000000 0.000001 0.000000 0.000000
    13 1.257180 8.762585 -0.153713 -1.570562 0.002683 -1.566807
    14 -0.488518 -2.755602 -0.228260 -0.647514 0.030346 -0.257527
    15 0.039887 -1.479790 0.029854 -1.670335 0.000000 0.000001
    16 0.028786 -1.075731 -0.023109 -1.197449 0.000000 0.000000
    17 0.250027 -2.820665 -0.238396 -0.482190 0.047366 -0.266951
    18 -0.049759 -1.680544 0.100479 -1.890537 0.000000 -0.000002
    19 -0.034142 -1.148312 0.084782 -1.087281 0.000000 0.000000
    20 0.957766 -2.774125 -0.086396 -0.200214 -0.028397 -0.018724
    21 -0.033420 -1.397129 -0.011257 -0.346688 0.136277 -0.074809
    22 -0.022360 -0.957436 0.018784 -0.364582 0.000000 0.000000
    23 -1.180681 -2.507217 -0.193859 -0.541359 0.150781 -0.464420
    24 -0.024967 -1.123934 0.017597 -1.488903 0.000000 0.000001
    25 -0.020057 -0.890968 0.010090 -1.277757 0.000000 0.000000
    26 0.583510 -1.197277 0.185379 0.316258 -1.087026 -0.583548
    27 1.535927 0.010246 0.005009 0.087412 0.030537 -1.135410
    28 1.100771 0.004527 -0.010679 -0.010778 0.012114 -0.550575
    29 0.120153 -0.050270 -0.054489 0.099906 3.110905 1.561085
    30 0.447953 -2.798986 -0.200443 -0.607948 0.000534 0.561976
    31 -0.032909 -1.480204 0.004940 -1.413633 0.000000 0.000002
    32 -0.027022 -1.076920 -0.020210 -1.481391 0.000000 0.000000
    33 -0.249534 -2.846964 -0.174213 -0.445831 0.004261 0.486845
    34 0.043235 -1.683941 0.096012 -1.469776 0.002823 -0.000167
    35 0.031729 -1.160830 0.058838 -1.698243 0.000642 0.008372
    36 -0.963866 -2.785145 -0.085350 0.057485 0.039254 0.065226
    37 0.028479 -1.403067 0.006271 -0.285462 0.000000 0.000000
    38 0.021413 -0.957781 0.020046 -0.387944 0.000000 0.000000
    39 1.164475 -2.543940 -0.170330 -0.557511 -0.035046 0.464229
    40 0.024032 -1.129042 0.017807 -1.373638 0.000000 0.000001
    41 0.014898 -0.883989 -0.019848 -1.103398 0.000000 0.000000
    42 -0.586770 -1.264477 0.200161 -0.683236 -0.842752 -2.270081
    43 1.522835 0.058681 0.016848 -0.059520 -0.122786 0.824758
    44 1.117947 0.048424 -0.005766 -0.016015 -0.019457 0.744725
    45 -0.041740 -0.115604 0.002678 0.136590 -0.022461 1.520273
    46 -1.393470 8.839177 -0.239433 1.580804 -0.005023 -1.566847
  time 25
    0 0.000000 1.410199 -4.644612 -0.174533 0.000000 0.000000
    1 12.889416 5.330175 -8.422448 0.538041 -2.317726 -0.694505
    2 0.084337 -8.502637 0.173215 -0.079034 0.391905 -0.708829
    3 1.776994 -2.723174 0.873419 0.134966 0.079135 3.004383
    4 -2.548201 7.012088 0.748838 0.000000 0.000000 -1.570796
    5 -1.546743 7.218124 0.000000 0.000000 0.000000 -0.002004
    6 -0.284830 2.178886 0.000000 0.000001 0.000000 0.000000
    7 -11.021444 4.818629 -7.648736 0.393734 2.082801 0.422417
    8 -0.227284 -8.466044 0.162515 0.053284 -0.334585 0.249785
    9 -1.471282 -3.093521 0.739297 3.070381 0.002168 0.135135
    10 -2.536482 9.152779 0.850403 0.000000 0.000000 -1.570796
    11 -1.546742 7.218122 -0.000001 0.000000 0.000000 -0.002004
    12 -0.284830 2.417173 0.000000 0.000001 0.000000 0.000000
    13 1.257180 8.762585 -0.153713 -1.570562 0.002683 -1.566807
    14 -0.488518 -2.755602 -0.228260 -0.647514 0.030346 -0.257527
    15 0.039887 -1.479790 0.029854 -1.670335 0.000000 0.000001
    16 0.028786 -1.075731 -0.023109 -1.197449 0.000000 0.000000
    17 0.250027 -2.820665 -0.238396 -0.482190 0.047366 -0.266951
    18 -0.049759 -1.680544 0.100479 -1.890537 0.000000 -0.000002
    19 -0.034142 -1.148312 0.084782 -1.087281 0.000000 0.000000
    20 0.957766 -2.774125 -0.086396 -0.200214 -0.028397 -0.018724
    21 -0.033420 -1.397129 -0.011257 -0.346688 0.136277 -0.074809
    22 -0.022360 -0.957436 0.018784 -0.364582 0.000000 0.000000
    23 -1.180681 -2.507217 -0.193859 -0.541359 0.150781 -0.464420
    24 -0.024967 -1.123934 0.017597 -1.488903 0.000000 0.000001
    25 -0.020057 -0.890968 0.010090 -1.277757 0.000000 0.000000
    26 0.583510 -1.197277 0.185379 0.316258 -1.087026 -0.583548
    27 1.535927 0.010246 0.005009 0.087412 0.030537 -1.135410
    28 1.100771 0.004527 -0.010679 -0.010778 0.012114 -0.550575
    29 0.120153 -0.050270 -0.054489 0.099906 3.110905 1.561085
    30 0.447953 -2.798986 -0.200443 -0.607948 0.000534 0.561976
    31 -0.032909 -1.480204 0.004940 -1.413633 0.000000 0.000002
    32 -0.027022 -1.076920 -0.020210 -1.481391 0.000000 0.000000
    33 -0.249534 -2.846964 -0.174213 -0.445831 0.004261 0.486845
    34 0.043235 -1.683941 0.096012 -1.469776 0.002823 -0.000167
    35 0.031729 -1.160830 0.058838 -1.698243 0.000642 0.008372
    36 -0.963866 -2.785145 -0.085350 0.057485 0.039254 0.065226
    37 0.028479 -1.403067 0.006271 -0.285462 0.000000 0.000000
    38 0.021413 -0.957781 0.020046 -0.387944 0.000000 0.000000
    39 1.164475 -2.543940 -0.170330 -0.557511 -0.035046 0.464229
    40 0.024032 -1.129042 0.017807 -1.373638 0.000000 0.000001
    41 0.014898 -0.883989 -0.019848 -1.103398 0.000000 0.000000
    42 -0.586770 -1.264477 0.200161 -0.683236 -0.842752 -2.270081
    43 1.522835 0.058681 0.016848 -0.059520 -0.122786 0.824758
    44 1.117947 0.048424 -0.005766 -0.016015 -0.019457 0.744725
    45 -0.041740 -0.115604 0.002678 0.136590 -0.022461 1.520273
    46 -1.393470 8.839177 -0.239433 1.580804 -0.005023 -1.566847
  time 26
    0 0.000000 1.410199 -4.644612 -0.174533 0.000000 0.000000
    1 12.889416 5.330175 -8.422448 0.538041 -2.317726 -0.694505
    2 0.084337 -8.502637 0.173215 -0.079034 0.391905 -0.708829
    3 1.776994 -2.723174 0.873419 0.134966 0.079135 3.004383
    4 -2.548201 7.012088 0.748838 0.000000 0.000000 -1.570796
    5 -1.546743 7.218124 0.000000 0.000000 0.000000 -0.002004
    6 -0.284830 2.178886 0.000000 0.000001 0.000000 0.000000
    7 -11.021444 4.818629 -7.648736 0.393734 2.082801 0.422417
    8 -0.227284 -8.466044 0.162515 0.053284 -0.334585 0.249785
    9 -1.471282 -3.093521 0.739297 3.070381 0.002168 0.135135
    10 -2.536482 9.152779 0.850403 0.000000 0.000000 -1.570796
    11 -1.546742 7.218122 -0.000001 0.000000 0.000000 -0.002004
    12 -0.284830 2.417173 0.000000 0.000001 0.000000 0.000000
    13 1.257180 8.762585 -0.153713 -1.570562 0.002683 -1.566807
    14 -0.488518 -2.755602 -0.228260 -0.647514 0.030346 -0.257527
    15 0.039887 -1.479790 0.029854 -1.670335 0.000000 0.000001
    16 0.028786 -1.075731 -0.023109 -1.197449 0.000000 0.000000
    17 0.250027 -2.820665 -0.238396 -0.482190 0.047366 -0.266951
    18 -0.049759 -1.680544 0.100479 -1.890537 0.000000 -0.000002
    19 -0.034142 -1.148312 0.084782 -1.087281 0.000000 0.000000
    20 0.957766 -2.774125 -0.086396 -0.200214 -0.028397 -0.018724
    21 -0.033420 -1.397129 -0.011257 -0.346688 0.136277 -0.074809
    22 -0.022360 -0.957436 0.018784 -0.364582 0.000000 0.000000
    23 -1.180681 -2.507217 -0.193859 -0.541359 0.150781 -0.464420
    24 -0.024967 -1.123934 0.017597 -1.488903 0.000000 0.000001
    25 -0.020057 -0.890968 0.010090 -1.277757 0.000000 0.000000
    26 0.583510 -1.197277 0.185379 0.316258 -1.087026 -0.583548
    27 1.535927 0.010246 0.005009 0.087412 0.030537 -1.135410
    28 1.100771 0.004527 -0.010679 -0.010778 0.012114 -0.550575
    29 0.120153 -0.050270 -0.054489 0.099906 3.110905 1.561085
    30 0.447953 -2.798986 -0.200443 -0.607948 0.000534 0.561976
    31 -0.032909 -1.480204 0.004940 -1.413633 0.000000 0.000002
    32 -0.027022 -1.076920 -0.020210 -1.481391 0.000000 0.000000
    33 -0.249534 -2.846964 -0.174213 -0.445831 0.004261 0.486845
    34 0.043235 -1.683941 0.096012 -1.469776 0.002823 -0.000167
    35 0.031729 -1.160830 0.058838 -1.698243 0.000642 0.008372
    36 -0.963866 -2.785145 -0.085350 0.057485 0.039254 0.065226
    37 0.028479 -1.403067 0.006271 -0.285462 0.000000 0.000000
    38 0.021413 -0.957781 0.020046 -0.387944 0.000000 0.000000
    39 1.164475 -2.543940 -0.170330 -0.557511 -0.035046 0.464229
    40 0.024032 -1.129042 0.017807 -1.373638 0.000000 0.000001
    41 0.014898 -0.883989 -0.019848 -1.103398 0.000000 0.000000
    42 -0.586770 -1.264477 0.200161 -0.683236 -0.842752 -2.270081
    43 1.522835 0.058681 0.016848 -0.059520 -0.122786 0.824758
    44 1.117947 0.048424 -0.005766 -0.016015 -0.019457 0.744725
    45 -0.041740 -0.115604 0.002678 0.136590 -0.022461 1.520273
    46 -1.393470 8.839177 -0.239433 1.580804 -0.005023 -1.566847
  time 27
    0 0.000000 1.410199 -4.644612 -0.174533 0.000000 0.000000
    1 12.889416 5.330175 -8.422448 0.538041 -2.317726 -0.694505
    2 0.084337 -8.502637 0.173215 -0.079034 0.391905 -0.708829
    3 1.776994 -2.723174 0.873419 0.134966 0.079135 3.004383
    4 -2.548201 7.012088 0.748838 0.000000 0.000000 -1.570796
    5 -1.546743 7.218124 0.000000 0.000000 0.000000 -0.002004
    6 -0.284830 2.178886 0.000000 0.000001 0.000000 0.000000
    7 -11.021444 4.818629 -7.648736 0.393734 2.082801 0.422417
    8 -0.227284 -8.466044 0.162515 0.053284 -0.334585 0.249785
    9 -1.471282 -3.093521 0.739297 3.070381 0.002168 0.135135
    10 -2.536482 9.152779 0.850403 0.000000 0.000000 -1.570796
    11 -1.546742 7.218122 -0.000001 0.000000 0.000000 -0.002004
    12 -0.284830 2.417173 0.000000 0.000001 0.000000 0.000000
    13 1.257180 8.762585 -0.153713 -1.570562 0.002683 -1.566807
    14 -0.488518 -2.755602 -0.228260 -0.647514 0.030346 -0.257527
    15 0.039887 -1.479790 0.029854 -1.670335 0.000000 0.000001
    16 0.028786 -1.075731 -0.023109 -1.197449 0.000000 0.000000
    17 0.250027 -2.820665 -0.238396 -0.482190 0.047366 -0.266951
    18 -0.049759 -1.680544 0.100479 -1.890537 0.000000 -0.000002
    19 -0.034142 -1.148312 0.084782 -1.087281 0.000000 0.000000
    20 0.957766 -2.774125 -0.086396 -0.200214 -0.028397 -0.018724
    21 -0.033420 -1.397129 -0.011257 -0.346688 0.136277 -0.074809
    22 -0.022360 -0.957436 0.018784 -0.364582 0.000000 0.000000
    23 -1.180681 -2.507217 -0.193859 -0.541359 0.150781 -0.464420
    24 -0.024967 -1.123934 0.017597 -1.488903 0.000000 0.000001
    25 -0.020057 -0.890968 0.010090 -1.277757 0.000000 0.000000
    26 0.583510 -1.197277 0.185379 0.316258 -1.087026 -0.583548
    27 1.535927 0.010246 0.005009 0.087412 0.030537 -1.135410
    28 1.100771 0.004527 -0.010679 -0.010778 0.012114 -0.550575
    29 0.120153 -0.050270 -0.054489 0.099906 3.110905 1.561085
    30 0.447953 -2.798986 -0.200443 -0.607948 0.000534 0.561976
    31 -0.032909 -1.480204 0.004940 -1.413633 0.000000 0.000002
    32 -0.027022 -1.076920 -0.020210 -1.481391 0.000000 0.000000
    33 -0.249534 -2.846964 -0.174213 -0.445831 0.004261 0.486845
    34 0.043235 -1.683941 0.096012 -1.469776 0.002823 -0.000167
    35 0.031729 -1.160830 0.058838 -1.698243 0.000642 0.008372
    36 -0.963866 -2.785145 -0.085350 0.057485 0.039254 0.065226
    37 0.028479 -1.403067 0.006271 -0.285462 0.000000 0.000000
    38 0.021413 -0.957781 0.020046 -0.387944 0.000000 0.000000
    39 1.164475 -2.543940 -0.170330 -0.557511 -0.035046 0.464229
    40 0.024032 -1.129042 0.017807 -1.373638 0.000000 0.000001
    41 0.014898 -0.883989 -0.019848 -1.103398 0.000000 0.000000
    42 -0.586770 -1.264477 0.200161 -0.683236 -0.842752 -2.270081
    43 1.522835 0.058681 0.016848 -0.059520 -0.122786 0.824758
    44 1.117947 0.048424 -0.005766 -0.016015 -0.019457 0.744725
    45 -0.041740 -0.115604 0.002678 0.136590 -0.022461 1.520273
    46 -1.393470 8.839177 -0.239433 1.580804 -0.005023 -1.566847
  time 28
    0 0.000000 1.410199 -4.644612 -0.174533 0.000000 0.000000
    1 12.889416 5.330175 -8.422448 0.538041 -2.317726 -0.694505
    2 0.084337 -8.502637 0.173215 -0.079034 0.391905 -0.708829
    3 1.776994 -2.723174 0.873419 0.134966 0.079135 3.004383
    4 -2.548201 7.012088 0.748838 0.000000 0.000000 -1.570796
    5 -1.546743 7.218124 0.000000 0.000000 0.000000 -0.002004
    6 -0.284830 2.178886 0.000000 0.000001 0.000000 0.000000
    7 -11.021444 4.818629 -7.648736 0.393734 2.082801 0.422417
    8 -0.227284 -8.466044 0.162515 0.053284 -0.334585 0.249785
    9 -1.471282 -3.093521 0.739297 3.070381 0.002168 0.135135
    10 -2.536482 9.152779 0.850403 0.000000 0.000000 -1.570796
    11 -1.546742 7.218122 -0.000001 0.000000 0.000000 -0.002004
    12 -0.284830 2.417173 0.000000 0.000001 0.000000 0.000000
    13 1.257180 8.762585 -0.153713 -1.570562 0.002683 -1.566807
    14 -0.488518 -2.755602 -0.228260 -0.647514 0.030346 -0.257527
    15 0.039887 -1.479790 0.029854 -1.670335 0.000000 0.000001
    16 0.028786 -1.075731 -0.023109 -1.197449 0.000000 0.000000
    17 0.250027 -2.820665 -0.238396 -0.482190 0.047366 -0.266951
    18 -0.049759 -1.680544 0.100479 -1.890537 0.000000 -0.000002
    19 -0.034142 -1.148312 0.084782 -1.087281 0.000000 0.000000
    20 0.957766 -2.774125 -0.086396 -0.200214 -0.028397 -0.018724
    21 -0.033420 -1.397129 -0.011257 -0.346688 0.136277 -0.074809
    22 -0.022360 -0.957436 0.018784 -0.364582 0.000000 0.000000
    23 -1.180681 -2.507217 -0.193859 -0.541359 0.150781 -0.464420
    24 -0.024967 -1.123934 0.017597 -1.488903 0.000000 0.000001
    25 -0.020057 -0.890968 0.010090 -1.277757 0.000000 0.000000
    26 0.583510 -1.197277 0.185379 0.316258 -1.087026 -0.583548
    27 1.535927 0.010246 0.005009 0.087412 0.030537 -1.135410
    28 1.100771 0.004527 -0.010679 -0.010778 0.012114 -0.550575
    29 0.120153 -0.050270 -0.054489 0.099906 3.110905 1.561085
    30 0.447953 -2.798986 -0.200443 -0.607948 0.000534 0.561976
    31 -0.032909 -1.480204 0.004940 -1.413633 0.000000 0.000002
    32 -0.027022 -1.076920 -0.020210 -1.481391 0.000000 0.000000
    33 -0.249534 -2.846964 -0.174213 -0.445831 0.004261 0.486845
    34 0.043235 -1.683941 0.096012 -1.469776 0.002823 -0.000167
    35 0.031729 -1.160830 0.058838 -1.698243 0.000642 0.008372
    36 -0.963866 -2.785145 -0.085350 0.057485 0.039254 0.065226
    37 0.028479 -1.403067 0.006271 -0.285462 0.000000 0.000000
    38 0.021413 -0.957781 0.020046 -0.387944 0.000000 0.000000
    39 1.164475 -2.543940 -0.170330 -0.557511 -0.035046 0.464229
    40 0.024032 -1.129042 0.017807 -1.373638 0.000000 0.000001
    41 0.014898 -0.883989 -0.019848 -1.103398 0.000000 0.000000
    42 -0.586770 -1.264477 0.200161 -0.683236 -0.842752 -2.270081
    43 1.522835 0.058681 0.016848 -0.059520 -0.122786 0.824758
    44 1.117947 0.048424 -0.005766 -0.016015 -0.019457 0.744725
    45 -0.041740 -0.115604 0.002678 0.136590 -0.022461 1.520273
    46 -1.393470 8.839177 -0.239433 1.580804 -0.005023 -1.566847
  time 29
    0 0.000000 1.410199 -4.644612 -0.174533 0.000000 0.000000
    1 12.889416 5.330175 -8.422448 0.538041 -2.317726 -0.694505
    2 0.084337 -8.502637 0.173215 -0.079034 0.391905 -0.708829
    3 1.776994 -2.723174 0.873419 0.134966 0.079135 3.004383
    4 -2.548201 7.012088 0.748838 0.000000 0.000000 -1.570796
    5 -1.546743 7.218124 0.000000 0.000000 0.000000 -0.002004
    6 -0.284830 2.178886 0.000000 0.000001 0.000000 0.000000
    7 -11.021444 4.818629 -7.648736 0.393734 2.082801 0.422417
    8 -0.227284 -8.466044 0.162515 0.053284 -0.334585 0.249785
    9 -1.471282 -3.093521 0.739297 3.070381 0.002168 0.135135
    10 -2.536482 9.152779 0.850403 0.000000 0.000000 -1.570796
    11 -1.546742 7.218122 -0.000001 0.000000 0.000000 -0.002004
    12 -0.284830 2.417173 0.000000 0.000001 0.000000 0.000000
    13 1.257180 8.762585 -0.153713 -1.570562 0.002683 -1.566807
    14 -0.488518 -2.755602 -0.228260 -0.647514 0.030346 -0.257527
    15 0.039887 -1.479790 0.029854 -1.670335 0.000000 0.000001
    16 0.028786 -1.075731 -0.023109 -1.197449 0.000000 0.000000
    17 0.250027 -2.820665 -0.238396 -0.482190 0.047366 -0.266951
    18 -0.049759 -1.680544 0.100479 -1.890537 0.000000 -0.000002
    19 -0.034142 -1.148312 0.084782 -1.087281 0.000000 0.000000
    20 0.957766 -2.774125 -0.086396 -0.200214 -0.028397 -0.018724
    21 -0.033420 -1.397129 -0.011257 -0.346688 0.136277 -0.074809
    22 -0.022360 -0.957436 0.018784 -0.364582 0.000000 0.000000
    23 -1.180681 -2.507217 -0.193859 -0.541359 0.150781 -0.464420
    24 -0.024967 -1.123934 0.017597 -1.488903 0.000000 0.000001
    25 -0.020057 -0.890968 0.010090 -1.277757 0.000000 0.000000
    26 0.583510 -1.197277 0.185379 0.316258 -1.087026 -0.583548
    27 1.535927 0.010246 0.005009 0.087412 0.030537 -1.135410
    28 1.100771 0.004527 -0.010679 -0.010778 0.012114 -0.550575
    29 0.120153 -0.050270 -0.054489 0.099906 3.110905 1.561085
    30 0.447953 -2.798986 -0.200443 -0.607948 0.000534 0.561976
    31 -0.032909 -1.480204 0.004940 -1.413633 0.000000 0.000002
    32 -0.027022 -1.076920 -0.020210 -1.481391 0.000000 0.000000
    33 -0.249534 -2.846964 -0.174213 -0.445831 0.004261 0.486845
    34 0.043235 -1.683941 0.096012 -1.469776 0.002823 -0.000167
    35 0.031729 -1.160830 0.058838 -1.698243 0.000642 0.008372
    36 -0.963866 -2.785145 -0.085350 0.057485 0.039254 0.065226
    37 0.028479 -1.403067 0.006271 -0.285462 0.000000 0.000000
    38 0.021413 -0.957781 0.020046 -0.387944 0.000000 0.000000
    39 1.164475 -2.543940 -0.170330 -0.557511 -0.035046 0.464229
    40 0.024032 -1.129042 0.017807 -1.373638 0.000000 0.000001
    41 0.014898 -0.883989 -0.019848 -1.103398 0.000000 0.000000
    42 -0.586770 -1.264477 0.200161 -0.683236 -0.842752 -2.270081
    43 1.522835 0.058681 0.016848 -0.059520 -0.122786 0.824758
    44 1.117947 0.048424 -0.005766 -0.016015 -0.019457 0.744725
    45 -0.041740 -0.115604 0.002678 0.136590 -0.022461 1.520273
    46 -1.393470 8.839177 -0.239433 1.580804 -0.005023 -1.566847
  time 30
    0 0.000000 1.410199 -4.644612 -0.174533 0.000000 0.000000
    1 12.889416 5.330175 -8.422448 0.538041 -2.317726 -0.694505
    2 0.084337 -8.502637 0.173215 -0.079034 0.391905 -0.708829
    3 1.776994 -2.723174 0.873419 0.134966 0.079135 3.004383
    4 -2.548201 7.012088 0.748838 0.000000 0.000000 -1.570796
    5 -1.546743 7.218124 0.000000 0.000000 0.000000 -0.002004
    6 -0.284830 2.178886 0.000000 0.000001 0.000000 0.000000
    7 -11.021444 4.818629 -7.648736 0.393734 2.082801 0.422417
    8 -0.227284 -8.466044 0.162515 0.053284 -0.334585 0.249785
    9 -1.471282 -3.093521 0.739297 3.070381 0.002168 0.135135
    10 -2.536482 9.152779 0.850403 0.000000 0.000000 -1.570796
    11 -1.546742 7.218122 -0.000001 0.000000 0.000000 -0.002004
    12 -0.284830 2.417173 0.000000 0.000001 0.000000 0.000000
    13 1.257180 8.762585 -0.153713 -1.570562 0.002683 -1.566807
    14 -0.488518 -2.755602 -0.228260 -0.647514 0.030346 -0.257527
    15 0.039887 -1.479790 0.029854 -1.670335 0.000000 0.000001
    16 0.028786 -1.075731 -0.023109 -1.197449 0.000000 0.000000
    17 0.250027 -2.820665 -0.238396 -0.482190 0.047366 -0.266951
    18 -0.049759 -1.680544 0.100479 -1.890537 0.000000 -0.000002
    19 -0.034142 -1.148312 0.084782 -1.087281 0.000000 0.000000
    20 0.957766 -2.774125 -0.086396 -0.200214 -0.028397 -0.018724
    21 -0.033420 -1.397129 -0.011257 -0.346688 0.136277 -0.074809
    22 -0.022360 -0.957436 0.018784 -0.364582 0.000000 0.000000
    23 -1.180681 -2.507217 -0.193859 -0.541359 0.150781 -0.464420
    24 -0.024967 -1.123934 0.017597 -1.488903 0.000000 0.000001
    25 -0.020057 -0.890968 0.010090 -1.277757 0.000000 0.000000
    26 0.583510 -1.197277 0.185379 0.316258 -1.087026 -0.583548
    27 1.535927 0.010246 0.005009 0.087412 0.030537 -1.135410
    28 1.100771 0.004527 -0.010679 -0.010778 0.012114 -0.550575
    29 0.120153 -0.050270 -0.054489 0.099906 3.110905 1.561085
    30 0.447953 -2.798986 -0.200443 -0.607948 0.000534 0.561976
    31 -0.032909 -1.480204 0.004940 -1.413633 0.000000 0.000002
    32 -0.027022 -1.076920 -0.020210 -1.481391 0.000000 0.000000
    33 -0.249534 -2.846964 -0.174213 -0.445831 0.004261 0.486845
    34 0.043235 -1.683941 0.096012 -1.469776 0.002823 -0.000167
    35 0.031729 -1.160830 0.058838 -1.698243 0.000642 0.008372
    36 -0.963866 -2.785145 -0.085350 0.057485 0.039254 0.065226
    37 0.028479 -1.403067 0.006271 -0.285462 0.000000 0.000000
    38 0.021413 -0.957781 0.020046 -0.387944 0.000000 0.000000
    39 1.164475 -2.543940 -0.170330 -0.557511 -0.035046 0.464229
    40 0.024032 -1.129042 0.017807 -1.373638 0.000000 0.000001
    41 0.014898 -0.883989 -0.019848 -1.103398 0.000000 0.000000
    42 -0.586770 -1.264477 0.200161 -0.683236 -0.842752 -2.270081
    43 1.522835 0.058681 0.016848 -0.059520 -0.122786 0.824758
    44 1.117947 0.048424 -0.005766 -0.016015 -0.019457 0.744725
    45 -0.041740 -0.115604 0.002678 0.136590 -0.022461 1.520273
    46 -1.393470 8.839177 -0.239433 1.580804 -0.005023 -1.566847
end
