version 1
nodes
  0 "throwing knife-1_p" -1
end
skeleton
  time 0
    0 -0.302654 -0.032204 1.120278 -1.580122 0.159589 -0.760826
  time 1
    0 -0.302654 -0.032204 1.120278 -1.580122 0.159589 -0.760826
end
