version 1
nodes
  0 "root" -1
  1 "Bone01" 0
  2 "Bone_Lefthand" 1
  3 "Bone02" 2
  4 "Bone24" 3
  5 "Bone25" 4
  6 "Bone12" 3
  7 "Bone16" 3
  8 "Bone08" 3
  9 "Bone_L_Upper" 1
  10 "Bone13" 2
  11 "Bone14" 10
  12 "Bone15" 11
  13 "Bone17" 2
  14 "Bone18" 13
  15 "Bone19" 14
  16 "Bone21" 2
  17 "Bone22" 16
  18 "Bone23" 17
  19 "Bone09" 2
  20 "Bone10" 19
  21 "Bone11" 20
  22 "Bone05" 2
  23 "Bone06" 22
  24 "Bone07" 23
  25 "Bone_Se_Hand-L" 2
  26 "Bone04" 0
  27 "Bone_Righthand" 26
  28 "Bone39" 27
  29 "Bone40" 28
  30 "Bone41" 29
  31 "Bone35" 27
  32 "Bone36" 31
  33 "Bone37" 32
  34 "Bone31" 27
  35 "Bone32" 34
  36 "Bone33" 35
  37 "Bone43" 27
  38 "Bone44" 37
  39 "Bone45" 38
  40 "Bone27" 27
  41 "Bone28" 40
  42 "Bone29" 41
  43 "Bone_Se_Hand-R" 27
  44 "Bone_R_Upper" 26
end
skeleton
  time 0
    0 -0.999830 1.628925 3.537212 0.000000 0.000000 0.000000
    1 6.360183 2.511600 -15.977213 -0.970271 -0.785686 0.775527
    2 -0.071918 -8.498731 -0.104136 0.176045 0.231261 0.147203
    3 2.815887 -5.283122 1.386547 0.209716 0.049969 -1.630727
    4 -2.052183 -0.333174 -0.000001 0.000000 3.141592 0.144933
    5 9.198753 0.000002 0.000000 0.000000 0.000000 -1.425816
    6 3.633989 -0.389698 -0.017557 -1.570797 -1.570796 0.000000
    7 11.822115 -1.093857 0.000000 0.000001 0.000000 -1.570796
    8 -3.104368 -7.911609 -4.383154 0.264087 -0.455095 0.474858
    9 1.257180 8.762585 -0.153713 -1.570562 0.002683 -1.566807
    10 -0.488518 -2.755602 -0.228260 -0.871614 -0.202562 -0.209541
    11 0.039887 -1.479790 0.029854 -1.516144 0.000000 0.000001
    12 0.028786 -1.075731 -0.023109 -1.298153 0.000000 0.000000
    13 0.250027 -2.820665 -0.238396 -0.797118 -0.167517 -0.114938
    14 -0.049759 -1.680544 0.100479 -1.644607 0.000000 -0.000002
    15 -0.034142 -1.148312 0.084782 -1.481046 0.000000 0.000000
    16 0.957766 -2.746780 -0.090302 -0.175885 -0.162684 0.097910
    17 -0.033420 -1.397129 -0.011257 -0.521018 0.000000 -0.000001
    18 -0.022360 -0.957436 0.018784 -0.975516 0.000000 0.000000
    19 -1.180681 -2.507217 -0.193859 -0.671429 -0.081516 -0.261329
    20 -0.024967 -1.123934 0.017597 -1.276708 0.000000 0.000001
    21 -0.020057 -0.890968 0.010090 -1.435733 0.000000 0.000000
    22 0.583510 -1.197277 0.185379 0.135458 -1.044822 -1.384612
    23 1.535927 0.010246 0.005009 -0.002964 -0.012979 -0.506650
    24 1.100771 0.004527 -0.010679 -0.015488 -0.004784 -1.694062
    25 0.120153 -0.050270 -0.054489 0.287569 3.110905 1.561085
    26 0.190183 -14.989370 -22.876981 1.325382 -2.488112 0.884154
    27 0.096944 -8.450418 -0.009365 0.468241 -1.052210 -0.376421
    28 0.447953 -2.798986 -0.200443 -0.895145 0.080423 0.181981
    29 -0.032909 -1.480204 0.004940 -1.562711 0.000000 0.000002
    30 -0.027022 -1.076920 -0.020210 -1.353433 0.000000 0.000000
    31 -0.249534 -2.846964 -0.174213 -0.563538 0.059582 0.201886
    32 0.043235 -1.683941 0.096012 -1.740259 0.002823 -0.000167
    33 0.031729 -1.160830 0.058838 -1.701368 0.000642 0.008372
    34 -0.963866 -2.785145 -0.085350 -0.272011 0.220066 0.176819
    35 0.028479 -1.403067 0.006271 -0.226238 0.000000 0.000000
    36 0.021413 -0.957781 0.020046 -0.625558 0.000000 0.000000
    37 1.164475 -2.543940 -0.170330 -1.110681 -0.190582 0.231606
    38 0.024032 -1.129042 0.017807 -1.303248 0.000000 0.000001
    39 0.014898 -0.883989 -0.019848 -1.545343 0.000000 0.000000
    40 -0.586770 -1.264477 0.200161 0.250707 -0.573539 -2.508807
    41 1.522835 0.058681 0.016848 0.001410 0.008985 0.551203
    42 1.117947 0.048424 -0.005766 0.001267 -0.025174 0.005110
    43 -0.139399 -0.111698 0.014397 0.808201 0.213999 1.504546
    44 -1.393470 8.839177 -0.239433 1.580804 -0.005023 -1.566847
  time 1
    0 -0.999830 1.628925 3.537212 0.000000 0.000000 0.000000
    1 6.321119 2.374877 -16.160812 -0.976769 -0.781140 0.780143
    2 -0.071918 -8.498731 -0.104136 0.176944 0.250330 0.154683
    3 2.815887 -5.283122 1.386547 0.209716 0.049969 -1.630727
    4 -2.052183 -0.333174 -0.000001 0.000000 3.141592 0.144933
    5 9.198753 0.000002 0.000000 0.000000 0.000000 -1.425816
    6 3.633989 -0.389698 -0.017557 -1.570797 -1.570796 0.000000
    7 11.822115 -1.093857 0.000000 0.000001 0.000000 -1.570796
    8 -1.790896 -5.906702 -2.297492 0.493438 -0.299396 0.625095
    9 1.257180 8.762585 -0.153713 -1.570562 0.002683 -1.566807
    10 -0.488518 -2.755602 -0.228260 -0.871614 -0.202562 -0.209541
    11 0.039887 -1.479790 0.029854 -1.516144 0.000000 0.000001
    12 0.028786 -1.075731 -0.023109 -1.298153 0.000000 0.000000
    13 0.250027 -2.820665 -0.238396 -0.797118 -0.167517 -0.114938
    14 -0.049759 -1.680544 0.100479 -1.644607 0.000000 -0.000002
    15 -0.034142 -1.148312 0.084782 -1.481046 0.000000 0.000000
    16 0.957766 -2.746780 -0.090302 -0.175885 -0.162684 0.097910
    17 -0.033420 -1.397129 -0.011257 -0.521018 0.000000 -0.000001
    18 -0.022360 -0.957436 0.018784 -0.975516 0.000000 0.000000
    19 -1.180681 -2.507217 -0.193859 -0.671429 -0.081516 -0.261329
    20 -0.024967 -1.123934 0.017597 -1.276708 0.000000 0.000001
    21 -0.020057 -0.890968 0.010090 -1.435733 0.000000 0.000000
    22 0.583510 -1.197277 0.185379 0.135458 -1.044822 -1.384612
    23 1.535927 0.010246 0.005009 -0.002964 -0.012979 -0.506650
    24 1.100771 0.004527 -0.010679 -0.015488 -0.004784 -1.694062
    25 0.120153 -0.050270 -0.054489 0.287569 3.110905 1.561085
    26 1.104273 -16.442539 -19.396406 1.487870 -2.400584 0.808303
    27 0.096944 -8.450418 -0.009365 1.032771 -1.260292 -0.910041
    28 0.447953 -2.798986 -0.200443 -0.895145 0.080423 0.181981
    29 -0.032909 -1.480204 0.004940 -1.562711 0.000000 0.000002
    30 -0.027022 -1.076920 -0.020210 -1.353433 0.000000 0.000000
    31 -0.249534 -2.846964 -0.174213 -0.563538 0.059582 0.201886
    32 0.043235 -1.683941 0.096012 -1.740259 0.002823 -0.000167
    33 0.031729 -1.160830 0.058838 -1.701368 0.000642 0.008372
    34 -0.963866 -2.785145 -0.085350 -0.272011 0.220066 0.176819
    35 0.028479 -1.403067 0.006271 -0.226238 0.000000 0.000000
    36 0.021413 -0.957781 0.020046 -0.625558 0.000000 0.000000
    37 1.164475 -2.543940 -0.170330 -1.110681 -0.190582 0.231606
    38 0.024032 -1.129042 0.017807 -1.303248 0.000000 0.000001
    39 0.014898 -0.883989 -0.019848 -1.545343 0.000000 0.000000
    40 -0.586770 -1.264477 0.200161 0.250707 -0.573539 -2.508807
    41 1.522835 0.058681 0.016848 0.001410 0.008985 0.551203
    42 1.117947 0.048424 -0.005766 0.001267 -0.025174 0.005110
    43 -0.139399 -0.111698 0.014397 0.808201 0.213999 1.504546
    44 -1.393470 8.839177 -0.239433 1.580804 -0.005023 -1.566847
  time 2
    0 -0.999830 1.628925 3.537212 0.000000 0.000000 0.000000
    1 6.258617 2.175652 -16.422539 -0.986121 -0.774501 0.786675
    2 -0.071918 -8.498731 -0.104136 0.176944 0.267656 0.160749
    3 2.815887 -5.283122 1.386547 0.209716 0.049969 -1.630727
    4 -2.052183 -0.333174 -0.000001 0.000000 3.141592 0.144933
    5 9.198753 0.000002 0.000000 0.000000 0.000000 -1.425816
    6 3.633989 -0.389698 -0.017557 -1.570797 -1.570796 0.000000
    7 11.822115 -1.093857 0.000000 0.000001 0.000000 -1.570796
    8 0.056871 -3.363164 -0.586597 0.625146 -0.076286 0.626463
    9 1.257180 8.762585 -0.153713 -1.570562 0.002683 -1.566807
    10 -0.488518 -2.755602 -0.228260 -0.871614 -0.202562 -0.209541
    11 0.039887 -1.479790 0.029854 -1.516144 0.000000 0.000001
    12 0.028786 -1.075731 -0.023109 -1.298153 0.000000 0.000000
    13 0.250027 -2.820665 -0.238396 -0.797118 -0.167517 -0.114938
    14 -0.049759 -1.680544 0.100479 -1.644607 0.000000 -0.000002
    15 -0.034142 -1.148312 0.084782 -1.481002 0.000000 0.000000
    16 0.957766 -2.746780 -0.090302 -0.175885 -0.162684 0.097910
    17 -0.033420 -1.397129 -0.011257 -0.521018 0.000000 -0.000001
    18 -0.022360 -0.957436 0.018784 -0.975516 0.000000 0.000000
    19 -1.180681 -2.507217 -0.193859 -0.671429 -0.081516 -0.261329
    20 -0.024967 -1.123934 0.017597 -1.276708 0.000000 0.000001
    21 -0.020057 -0.890968 0.010090 -1.435733 0.000000 0.000000
    22 0.583510 -1.197277 0.185379 0.135458 -1.044822 -1.384612
    23 1.535927 0.010246 0.005009 -0.002964 -0.012979 -0.506650
    24 1.100771 0.004527 -0.010679 -0.015488 -0.004784 -1.694062
    25 0.120153 -0.050270 -0.054489 0.287569 3.110905 1.561085
    26 1.491004 -16.219876 -16.392408 1.495708 -2.388623 0.738939
    27 0.096944 -8.450418 -0.009365 -1.339139 -1.815674 1.530872
    28 0.447953 -2.798986 -0.200443 -0.895145 0.080423 0.181981
    29 -0.032909 -1.480204 0.004940 -1.562711 0.000000 0.000002
    30 -0.027022 -1.076920 -0.020210 -1.353433 0.000000 0.000000
    31 -0.249534 -2.846964 -0.174213 -0.563538 0.059582 0.201886
    32 0.043235 -1.683941 0.096012 -1.740259 0.002823 -0.000167
    33 0.031729 -1.160830 0.058838 -1.701368 0.000642 0.008372
    34 -0.963866 -2.785145 -0.085350 -0.272011 0.220066 0.176819
    35 0.028479 -1.403067 0.006271 -0.226238 0.000000 0.000000
    36 0.021413 -0.957781 0.020046 -0.625558 0.000000 0.000000
    37 1.164475 -2.543940 -0.170330 -1.110681 -0.190582 0.231606
    38 0.024032 -1.129042 0.017807 -1.303248 0.000000 0.000001
    39 0.014898 -0.883989 -0.019848 -1.545343 0.000000 0.000000
    40 -0.586770 -1.264477 0.200161 0.250707 -0.573539 -2.508807
    41 1.522835 0.058681 0.016848 0.001410 0.008985 0.551203
    42 1.117947 0.048424 -0.005766 0.001267 -0.025174 0.005110
    43 -0.139399 -0.111698 0.014397 0.808201 0.213999 1.504546
    44 -1.393470 8.839177 -0.239433 1.580804 -0.005023 -1.566847
  time 3
    0 -0.999830 1.628925 3.537212 0.000000 0.000000 0.000000
    1 6.207834 1.992053 -16.668640 -0.994342 -0.768585 0.792422
    2 -0.071918 -8.498731 -0.104136 0.177854 0.278212 0.165154
    3 2.815887 -5.283122 1.386547 0.209716 0.049969 -1.630727
    4 -2.052183 -0.333174 -0.000001 0.000000 3.141592 0.144933
    5 9.198753 0.000002 0.000000 0.000000 0.000000 -1.425816
    6 3.633989 -0.389698 -0.017557 -1.570797 -1.570796 0.000000
    7 11.822115 -1.093857 0.000000 0.000001 0.000000 -1.570796
    8 0.813788 -2.255976 -0.277007 0.568126 0.044123 0.600713
    9 1.257180 8.762585 -0.153713 -1.570562 0.002683 -1.566807
    10 -0.488518 -2.755602 -0.228260 -0.871614 -0.202562 -0.209541
    11 0.039887 -1.479790 0.029854 -1.516144 0.000000 0.000001
    12 0.028786 -1.075731 -0.023109 -1.298153 0.000000 0.000000
    13 0.250027 -2.820665 -0.238396 -0.797118 -0.167517 -0.114938
    14 -0.049759 -1.680544 0.100479 -1.644607 0.000000 -0.000002
    15 -0.034142 -1.148312 0.084782 -1.481046 0.000000 0.000000
    16 0.957766 -2.746780 -0.090302 -0.175885 -0.162684 0.097910
    17 -0.033420 -1.397129 -0.011257 -0.521018 0.000000 -0.000001
    18 -0.022360 -0.957436 0.018784 -0.975516 0.000000 0.000000
    19 -1.180681 -2.507217 -0.193859 -0.671429 -0.081516 -0.261329
    20 -0.024967 -1.123934 0.017597 -1.276708 0.000000 0.000001
    21 -0.020057 -0.890968 0.010090 -1.435733 0.000000 0.000000
    22 0.583510 -1.197277 0.185379 0.135458 -1.044822 -1.384612
    23 1.535927 0.010246 0.005009 -0.002964 -0.012979 -0.506650
    24 1.100771 0.004527 -0.010679 -0.015488 -0.004784 -1.694062
    25 0.120153 -0.050270 -0.054489 0.287569 3.110905 1.561085
    26 1.373813 -15.692517 -15.599416 1.565496 -2.418526 0.556514
    27 0.096944 -8.450418 -0.009365 1.666435 -1.406794 -1.496897
    28 0.447953 -2.798986 -0.200443 -1.027485 0.080423 0.181981
    29 -0.032909 -1.480204 0.004940 -1.562711 0.000000 0.000002
    30 -0.027022 -1.076920 -0.020210 -1.353433 0.000000 0.000000
    31 -0.249534 -2.846964 -0.174213 -0.647034 0.059582 0.201886
    32 0.043235 -1.683941 0.096012 -1.740259 0.002823 -0.000167
    33 0.031729 -1.160830 0.058838 -1.701368 0.000642 0.008372
    34 -0.963866 -2.785145 -0.085350 -0.315027 0.159004 0.108924
    35 0.028479 -1.403067 0.006271 -0.546192 0.000000 0.000000
    36 0.021413 -0.957781 0.020046 -0.625558 0.000000 0.000000
    37 1.164475 -2.543940 -0.170330 -1.231543 -0.190582 0.231606
    38 0.024032 -1.129042 0.017807 -1.303248 0.000000 0.000001
    39 0.014898 -0.883989 -0.019848 -1.545343 0.000000 0.000000
    40 -0.586770 -1.264477 0.200161 0.276749 -0.475074 -2.549470
    41 1.522835 0.058681 0.016848 0.001410 0.008985 0.627270
    42 1.117947 0.048424 -0.005766 0.002861 -0.024958 -0.059250
    43 -0.139399 -0.111698 0.014397 0.808201 0.213999 1.504546
    44 -1.393470 8.839177 -0.239433 1.580804 -0.005023 -1.566847
  time 4
    0 -0.999830 1.628925 3.537212 0.000000 0.000000 0.000000
    1 6.184396 1.906113 -16.797551 -0.997492 -0.766260 0.794583
    2 -0.071918 -8.498731 -0.104136 0.181438 0.276989 0.167619
    3 2.815887 -5.283122 1.386547 0.209716 0.049969 -1.630727
    4 -2.052183 -0.333174 -0.000001 0.000000 -3.141592 0.144933
    5 9.198753 0.000002 0.000000 0.000000 0.000000 -1.425816
    6 3.633989 -0.389698 -0.017557 -1.570797 -1.570796 0.000000
    7 11.822115 -1.093857 0.000000 0.000001 0.000000 -1.570796
    8 1.437131 -1.777193 -0.195536 0.491966 0.148923 0.511939
    9 1.257180 8.762585 -0.153713 -1.570562 0.002683 -1.566807
    10 -0.488518 -2.755602 -0.228260 -0.871614 -0.202562 -0.209541
    11 0.039887 -1.479790 0.029854 -1.516144 0.000000 0.000001
    12 0.028786 -1.075731 -0.023109 -1.298153 0.000000 0.000000
    13 0.250027 -2.820665 -0.238396 -0.797118 -0.167517 -0.114938
    14 -0.049759 -1.680544 0.100479 -1.644607 0.000000 -0.000002
    15 -0.034142 -1.148312 0.084782 -1.481046 0.000000 0.000000
    16 0.957766 -2.746780 -0.090302 -0.175885 -0.162684 0.097910
    17 -0.033420 -1.397129 -0.011257 -0.521018 0.000000 -0.000001
    18 -0.022360 -0.957436 0.018784 -0.975516 0.000000 0.000000
    19 -1.180681 -2.507217 -0.193859 -0.671429 -0.081516 -0.261329
    20 -0.024967 -1.123934 0.017597 -1.276708 0.000000 0.000001
    21 -0.020057 -0.890968 0.010090 -1.435733 0.000000 0.000000
    22 0.583510 -1.197277 0.185379 0.135458 -1.044822 -1.384612
    23 1.535927 0.010246 0.005009 -0.002964 -0.012979 -0.506650
    24 1.100771 0.004527 -0.010679 -0.015488 -0.004784 -1.694062
    25 0.120153 -0.050270 -0.054489 0.287569 3.110905 1.561085
    26 1.037865 -14.762801 -15.595509 -1.537817 -0.661134 -2.779229
    27 0.096944 -8.450418 -0.009365 0.494483 -1.439460 -0.369298
    28 0.447953 -2.798986 -0.200443 -1.273248 0.080423 0.181981
    29 -0.032909 -1.480204 0.004940 -1.562711 0.000000 0.000002
    30 -0.027022 -1.076920 -0.020210 -1.353433 0.000000 0.000000
    31 -0.249534 -2.846964 -0.174213 -0.802053 0.059582 0.201886
    32 0.043235 -1.683941 0.096012 -1.740259 0.002823 -0.000167
    33 0.031729 -1.160830 0.058838 -1.701368 0.000642 0.008372
    34 -0.963866 -2.785145 -0.085350 -0.413507 0.045594 -0.017160
    35 0.028479 -1.403067 0.006271 -1.140431 0.000000 0.000000
    36 0.021413 -0.957781 0.020046 -0.625558 0.000000 0.000000
    37 1.164475 -2.543940 -0.170330 -1.455995 -0.190582 0.231606
    38 0.024032 -1.129042 0.017807 -1.303248 0.000000 0.000001
    39 0.014898 -0.883989 -0.019848 -1.545343 0.000000 0.000000
    40 -0.586770 -1.264477 0.200161 0.330341 -0.292225 -2.635352
    41 1.522835 0.058681 0.016848 0.001410 0.008985 0.768493
    42 1.117947 0.048424 -0.005766 0.005821 -0.024503 -0.178802
    43 -0.139399 -0.111698 0.014397 0.808201 0.213999 1.504546
    44 -1.393470 8.839177 -0.239433 1.580804 -0.005023 -1.566847
  time 5
    0 -0.999830 1.628925 3.537212 0.000000 0.000000 0.000000
    1 6.211741 1.999865 -16.703798 -0.989715 -0.771943 0.789180
    2 -0.071918 -8.498731 -0.104136 0.192655 0.247922 0.167093
    3 2.815887 -5.283122 1.386547 0.209716 0.049969 -1.630727
    4 -2.052183 -0.333174 -0.000001 0.000000 -3.141592 0.144933
    5 9.198753 0.000002 0.000000 0.000000 0.000000 -1.425816
    6 3.633989 -0.389698 -0.017557 -1.570797 -1.570796 0.000000
    7 11.822115 -1.093857 0.000000 0.000001 0.000000 -1.570796
    8 2.238572 -1.403143 -0.065182 0.375048 0.235437 0.363695
    9 1.257180 8.762585 -0.153713 -1.570562 0.002683 -1.566807
    10 -0.488518 -2.755602 -0.228260 -0.871614 -0.202562 -0.209541
    11 0.039887 -1.479790 0.029854 -1.516144 0.000000 0.000001
    12 0.028786 -1.075731 -0.023109 -1.298153 0.000000 0.000000
    13 0.250027 -2.820665 -0.238396 -0.797118 -0.167517 -0.114938
    14 -0.049759 -1.680544 0.100479 -1.644607 0.000000 -0.000002
    15 -0.034142 -1.148312 0.084782 -1.481046 0.000000 0.000000
    16 0.957766 -2.746780 -0.090302 -0.175885 -0.162684 0.097910
    17 -0.033420 -1.397129 -0.011257 -0.521018 0.000000 -0.000001
    18 -0.022360 -0.957436 0.018784 -0.975516 0.000000 0.000000
    19 -1.180681 -2.507217 -0.193859 -0.671429 -0.081516 -0.261329
    20 -0.024967 -1.123934 0.017597 -1.276708 0.000000 0.000001
    21 -0.020057 -0.890968 0.010090 -1.435733 0.000000 0.000000
    22 0.583510 -1.197277 0.185379 0.135458 -1.044822 -1.384612
    23 1.535927 0.010246 0.005009 -0.002964 -0.012979 -0.506650
    24 1.100771 0.004527 -0.010679 -0.015488 -0.004784 -1.694062
    25 0.120153 -0.050270 -0.054489 0.287569 3.110905 1.561085
    26 0.967550 -13.606515 -15.536914 1.565722 -2.550768 0.246430
    27 0.096944 -8.450418 -0.009365 -0.226311 -1.344772 0.313719
    28 0.447953 -2.798986 -0.200443 -1.405543 0.080423 0.181981
    29 -0.032909 -1.480204 0.004940 -1.562711 0.000000 0.000002
    30 -0.027022 -1.076920 -0.020210 -1.353433 0.000000 0.000000
    31 -0.249534 -2.846964 -0.174213 -0.885520 0.059582 0.201886
    32 0.043235 -1.683941 0.096012 -1.740259 0.002823 -0.000167
    33 0.031729 -1.160830 0.058838 -1.701368 0.000642 0.008372
    34 -0.963866 -2.785145 -0.085350 -0.521637 -0.015479 -0.085055
    35 0.028479 -1.403067 0.006271 -1.460385 0.000000 0.000000
    36 0.021413 -0.957781 0.020046 -0.625558 0.000000 0.000000
    37 1.164475 -2.543940 -0.170330 -1.576807 -0.190582 0.231606
    38 0.024032 -1.129042 0.017807 -1.303248 0.000000 0.000001
    39 0.014898 -0.883989 -0.019848 -1.545343 0.000000 0.000000
    40 -0.586770 -1.264477 0.200161 0.374698 -0.193760 -2.712346
    41 1.522835 0.058681 0.016848 0.001410 0.008985 0.844559
    42 1.117947 0.048424 -0.005766 0.007415 -0.024083 -0.243162
    43 -0.139399 -0.111698 0.014397 0.808201 0.213999 1.504546
    44 -1.393470 8.839177 -0.239433 1.580804 -0.005023 -1.566847
  time 6
    0 -0.999830 1.628925 3.537212 0.000000 0.000000 0.000000
    1 6.282055 2.218622 -16.465509 -0.975194 -0.782276 0.779014
    2 -0.071918 -8.498731 -0.104136 0.207456 0.200958 0.162550
    3 2.815887 -5.283122 1.386547 0.209716 0.049969 -1.630727
    4 -2.052183 -0.333174 -0.000001 0.000000 3.141592 0.144933
    5 9.198753 0.000002 0.000000 0.000000 0.000000 -1.425816
    6 3.633989 -0.389698 -0.017557 -1.570797 -1.570796 0.000000
    7 11.822115 -1.093857 0.000000 0.000001 0.000000 -1.570796
    8 3.863716 -0.640081 -0.130359 0.155869 0.235282 -0.102060
    9 1.257180 8.762585 -0.153713 -1.570562 0.002683 -1.566807
    10 -0.488518 -2.755602 -0.228260 -0.871614 -0.202562 -0.209541
    11 0.039887 -1.479790 0.029854 -1.516144 0.000000 0.000001
    12 0.028786 -1.075731 -0.023109 -1.298153 0.000000 0.000000
    13 0.250027 -2.820665 -0.238396 -0.797118 -0.167517 -0.114938
    14 -0.049759 -1.680544 0.100479 -1.644607 0.000000 -0.000002
    15 -0.034142 -1.148312 0.084782 -1.481046 0.000000 0.000000
    16 0.957766 -2.746780 -0.090302 -0.175885 -0.162684 0.097910
    17 -0.033420 -1.397129 -0.011257 -0.521018 0.000000 -0.000001
    18 -0.022360 -0.957436 0.018784 -0.975516 0.000000 0.000000
    19 -1.180681 -2.507217 -0.193859 -0.671429 -0.081516 -0.261329
    20 -0.024967 -1.123934 0.017597 -1.276708 0.000000 0.000001
    21 -0.020057 -0.890968 0.010090 -1.435733 0.000000 0.000000
    22 0.583510 -1.197277 0.185379 0.135458 -1.044822 -1.384612
    23 1.535927 0.010246 0.005009 -0.002964 -0.012979 -0.506650
    24 1.100771 0.004527 -0.010679 -0.015488 -0.004784 -1.694062
    25 0.120153 -0.050270 -0.054489 0.287569 3.110905 1.561085
    26 1.549599 -12.000998 -14.868924 1.417629 -2.628422 0.247194
    27 0.096944 -8.450418 -0.009365 -0.672904 -1.225143 0.734448
    28 0.447953 -2.798986 -0.200443 -1.405543 0.080423 0.181981
    29 -0.032909 -1.480204 0.004940 -1.562711 0.000000 0.000002
    30 -0.027022 -1.076920 -0.020210 -1.353433 0.000000 0.000000
    31 -0.249534 -2.846964 -0.174213 -0.885520 0.059582 0.201886
    32 0.043235 -1.683941 0.096012 -1.740259 0.002823 -0.000167
    33 0.031729 -1.160830 0.058838 -1.701368 0.000642 0.008372
    34 -0.963866 -2.785145 -0.085350 -0.652327 0.019204 -0.057645
    35 0.028479 -1.403067 0.006271 -1.460385 0.000000 0.000000
    36 0.021413 -0.957781 0.020046 -0.625558 0.000000 0.000000
    37 1.164475 -2.543940 -0.170330 -1.576807 -0.190582 0.231606
    38 0.024032 -1.129042 0.017807 -1.303248 0.000000 0.000001
    39 0.014898 -0.883989 -0.019848 -1.545343 0.000000 0.000000
    40 -0.586770 -1.264477 0.200161 0.397535 -0.252508 -2.768580
    41 1.522835 0.058681 0.016848 0.001410 0.008985 0.842655
    42 1.117947 0.048424 -0.005766 0.003077 -0.023784 -0.067613
    43 -0.139399 -0.111698 0.014397 0.808201 0.213999 1.504546
    44 -1.393470 8.839177 -0.239433 1.580804 -0.005023 -1.566847
  time 7
    0 -0.999830 1.628925 3.537212 0.000000 0.000000 0.000000
    1 6.360183 2.441285 -16.242846 -0.965890 -0.788735 0.772433
    2 -0.071918 -8.498731 -0.104136 0.214347 0.170017 0.155154
    3 2.815887 -5.283122 1.386547 0.209716 0.049969 -1.630727
    4 -2.052183 -0.333174 -0.000001 0.000000 -3.141592 0.144933
    5 9.198753 0.000002 0.000000 0.000000 0.000000 -1.425816
    6 3.633989 -0.389698 -0.017557 -1.570797 -1.570796 0.000000
    7 11.822115 -1.093857 0.000000 0.000001 0.000000 -1.570796
    8 3.863716 -0.640081 -0.130359 0.155869 0.235282 -0.102060
    9 1.257180 8.762585 -0.153713 -1.570562 0.002683 -1.566807
    10 -0.488518 -2.755602 -0.228260 -0.871614 -0.202562 -0.209541
    11 0.039887 -1.479790 0.029854 -1.516144 0.000000 0.000001
    12 0.028786 -1.075731 -0.023109 -1.298153 0.000000 0.000000
    13 0.250027 -2.820665 -0.238396 -0.797118 -0.167517 -0.114938
    14 -0.049759 -1.680544 0.100479 -1.644607 0.000000 -0.000002
    15 -0.034142 -1.148312 0.084782 -1.481002 0.000000 0.000000
    16 0.957766 -2.746780 -0.090302 -0.175885 -0.162684 0.097910
    17 -0.033420 -1.397129 -0.011257 -0.521018 0.000000 -0.000001
    18 -0.022360 -0.957436 0.018784 -0.975516 0.000000 0.000000
    19 -1.180681 -2.507217 -0.193859 -0.671429 -0.081516 -0.261329
    20 -0.024967 -1.123934 0.017597 -1.276708 0.000000 0.000001
    21 -0.020057 -0.890968 0.010090 -1.435733 0.000000 0.000000
    22 0.583510 -1.197277 0.185379 0.135458 -1.044822 -1.384612
    23 1.535927 0.010246 0.005009 -0.002964 -0.012979 -0.506650
    24 1.100771 0.004527 -0.010679 -0.015488 -0.004784 -1.694062
    25 0.120153 -0.050270 -0.054489 0.287569 3.110905 1.561085
    26 2.397281 -10.168911 -14.146246 1.225523 -2.719463 0.292132
    27 0.096944 -8.450418 -0.009365 -0.920862 -1.084822 0.962808
    28 0.447953 -2.798986 -0.200443 -1.405543 0.080423 0.181981
    29 -0.032909 -1.480204 0.004940 -1.562711 0.000000 0.000002
    30 -0.027022 -1.076920 -0.020210 -1.353433 0.000000 0.000000
    31 -0.249534 -2.846964 -0.174213 -0.885520 0.059582 0.201886
    32 0.043235 -1.683941 0.096012 -1.740259 0.002823 -0.000167
    33 0.031729 -1.160830 0.058838 -1.701368 0.000642 0.008372
    34 -0.963866 -2.785145 -0.085350 -0.792668 0.091088 0.001586
    35 0.028479 -1.403067 0.006271 -1.460385 0.000000 0.000000
    36 0.021413 -0.957781 0.020046 -0.625558 0.000000 0.000000
    37 1.164475 -2.543940 -0.170330 -1.576807 -0.190582 0.231606
    38 0.024032 -1.129042 0.017807 -1.303248 0.000000 0.000001
    39 0.014898 -0.883989 -0.019848 -1.545343 0.000000 0.000000
    40 -0.586770 -1.264477 0.200161 0.411137 -0.373684 -2.815899
    41 1.522835 0.058681 0.016848 0.001410 0.008985 0.830793
    42 1.117947 0.048424 -0.005766 -0.004977 -0.023532 0.258876
    43 -0.139399 -0.111698 0.014397 0.808201 0.213999 1.504546
    44 -1.393470 8.839177 -0.239433 1.580804 -0.005023 -1.566847
  time 8
    0 -0.999830 1.628925 3.537212 0.000000 0.000000 0.000000
    1 6.450029 2.663948 -16.078779 -0.964069 -0.789975 0.771107
    2 -0.071918 -8.498731 -0.104136 0.208463 0.165956 0.144018
    3 2.815887 -5.283122 1.386547 0.209716 0.049969 -1.630727
    4 -2.052183 -0.333174 -0.000001 0.000000 -3.141592 0.144933
    5 9.198753 0.000002 0.000000 0.000000 0.000000 -1.425816
    6 3.633989 -0.389698 -0.017557 -1.570797 -1.570796 0.000000
    7 11.822115 -1.093857 0.000000 0.000001 0.000000 -1.570796
    8 3.863716 -0.640081 -0.130359 0.155869 0.235282 -0.102060
    9 1.257180 8.762585 -0.153713 -1.570562 0.002683 -1.566807
    10 -0.488518 -2.755602 -0.228260 -0.871614 -0.202562 -0.209541
    11 0.039887 -1.479790 0.029854 -1.516144 0.000000 0.000001
    12 0.028786 -1.075731 -0.023109 -1.298153 0.000000 0.000000
    13 0.250027 -2.820665 -0.238396 -0.797118 -0.167517 -0.114938
    14 -0.049759 -1.680544 0.100479 -1.644607 0.000000 -0.000002
    15 -0.034142 -1.148312 0.084782 -1.481046 0.000000 0.000000
    16 0.957766 -2.746780 -0.090302 -0.175885 -0.162684 0.097910
    17 -0.033420 -1.397129 -0.011257 -0.521018 0.000000 -0.000001
    18 -0.022360 -0.957436 0.018784 -0.975516 0.000000 0.000000
    19 -1.180681 -2.507217 -0.193859 -0.671429 -0.081516 -0.261329
    20 -0.024967 -1.123934 0.017597 -1.276708 0.000000 0.000001
    21 -0.020057 -0.890968 0.010090 -1.435733 0.000000 0.000000
    22 0.583510 -1.197277 0.185379 0.135458 -1.044822 -1.384612
    23 1.535927 0.010246 0.005009 -0.002964 -0.012979 -0.506650
    24 1.100771 0.004527 -0.010679 -0.015488 -0.004784 -1.694062
    25 0.120153 -0.050270 -0.054489 0.287569 3.110905 1.561085
    26 2.826982 -8.911060 -14.224374 1.095443 -2.790093 0.315030
    27 0.096944 -8.450418 -0.009365 -0.982061 -1.076048 1.023729
    28 0.447953 -2.798986 -0.200443 -1.405543 0.080423 0.181981
    29 -0.032909 -1.480204 0.004940 -1.562711 0.000000 0.000002
    30 -0.027022 -1.076920 -0.020210 -1.353433 0.000000 0.000000
    31 -0.249534 -2.846964 -0.174213 -0.885520 0.059582 0.201886
    32 0.043235 -1.683941 0.096012 -1.740259 0.002823 -0.000167
    33 0.031729 -1.160830 0.058838 -1.701368 0.000642 0.008372
    34 -0.963866 -2.785145 -0.085350 -0.858218 0.151945 0.058091
    35 0.028479 -1.403067 0.006271 -1.460385 0.000000 0.000000
    36 0.021413 -0.957781 0.020046 -0.625558 0.000000 0.000000
    37 1.164475 -2.543940 -0.170330 -1.576807 -0.190582 0.231606
    38 0.024032 -1.129042 0.017807 -1.303248 0.000000 0.000001
    39 0.014898 -0.883989 -0.019848 -1.545343 0.000000 0.000000
    40 -0.586770 -1.264477 0.200161 0.415642 -0.474631 -2.835801
    41 1.522835 0.058681 0.016848 0.001410 0.008985 0.799806
    42 1.117947 0.048424 -0.005766 -0.009351 -0.023400 0.436221
    43 -0.139399 -0.111698 0.014397 0.808201 0.213999 1.504546
    44 -1.393470 8.839177 -0.239433 1.580804 -0.005023 -1.566847
  time 9
    0 -0.999830 1.628925 3.537212 0.000000 0.000000 0.000000
    1 6.551595 2.910049 -15.914711 -0.963478 -0.790388 0.770714
    2 -0.071918 -8.498731 -0.104136 0.196167 0.172777 0.129974
    3 2.815887 -5.283122 1.386547 0.209716 0.049969 -1.630727
    4 -2.052183 -0.333174 -0.000001 0.000000 -3.141592 0.144933
    5 9.198753 0.000002 0.000000 0.000000 0.000000 -1.425816
    6 3.633989 -0.389698 -0.017557 -1.570797 -1.570796 0.000000
    7 11.822115 -1.093857 0.000000 0.000001 0.000000 -1.570796
    8 3.863716 -0.640081 -0.130359 0.155869 0.235282 -0.102060
    9 1.257180 8.762585 -0.153713 -1.570562 0.002683 -1.566807
    10 -0.488518 -2.755602 -0.228260 -0.871614 -0.202562 -0.209541
    11 0.039887 -1.479790 0.029854 -1.516144 0.000000 0.000001
    12 0.028786 -1.075731 -0.023109 -1.298153 0.000000 0.000000
    13 0.250027 -2.820665 -0.238396 -0.797118 -0.167517 -0.114938
    14 -0.049759 -1.680544 0.100479 -1.644607 0.000000 -0.000002
    15 -0.034142 -1.148312 0.084782 -1.481046 0.000000 0.000000
    16 0.957766 -2.746780 -0.090302 -0.175885 -0.162684 0.097910
    17 -0.033420 -1.397129 -0.011257 -0.521018 0.000000 -0.000001
    18 -0.022360 -0.957436 0.018784 -0.975516 0.000000 0.000000
    19 -1.180681 -2.507217 -0.193859 -0.671429 -0.081516 -0.261329
    20 -0.024967 -1.123934 0.017597 -1.276708 0.000000 0.000001
    21 -0.020057 -0.890968 0.010090 -1.435733 0.000000 0.000000
    22 0.583510 -1.197277 0.185379 0.135458 -1.044822 -1.384612
    23 1.535927 0.010246 0.005009 -0.002964 -0.012979 -0.506650
    24 1.100771 0.004527 -0.010679 -0.015488 -0.004784 -1.694062
    25 0.120153 -0.050270 -0.054489 0.287569 3.110905 1.561085
    26 2.690259 -8.239164 -15.279093 1.031759 -2.833097 0.297666
    27 0.096944 -8.450418 -0.009365 -0.668600 -1.332081 0.750569
    28 0.447953 -2.798986 -0.200443 -1.273248 0.080423 0.181981
    29 -0.032909 -1.480204 0.004940 -1.562711 0.000000 0.000002
    30 -0.027022 -1.076920 -0.020210 -1.353433 0.000000 0.000000
    31 -0.249534 -2.846964 -0.174213 -0.802053 0.059582 0.201886
    32 0.043235 -1.683941 0.096012 -1.740259 0.002823 -0.000167
    33 0.031729 -1.160830 0.058838 -1.701368 0.000642 0.008372
    34 -0.963866 -2.785145 -0.085350 -0.706251 0.187048 0.108269
    35 0.028479 -1.403067 0.006271 -1.415931 0.000000 0.000000
    36 0.021413 -0.957781 0.020046 -0.625558 0.000000 0.000000
    37 1.164475 -2.543940 -0.170330 -1.455995 -0.190582 0.231606
    38 0.024032 -1.129042 0.017807 -1.303248 0.000000 0.000001
    39 0.014898 -0.883989 -0.019848 -1.545343 0.000000 0.000000
    40 -0.586770 -1.264477 0.200161 0.372879 -0.528405 -2.751028
    41 1.522835 0.058681 0.016848 0.001410 0.008985 0.705948
    42 1.117947 0.048424 -0.005766 -0.009399 -0.023388 0.438231
    43 -0.139399 -0.111698 0.014397 0.808201 0.213999 1.504546
    44 -1.393470 8.839177 -0.239433 1.580804 -0.005023 -1.566847
  time 10
    0 -0.999830 1.628925 3.537212 0.000000 0.000000 0.000000
    1 6.637535 3.113181 -15.785801 -0.963823 -0.790130 0.770959
    2 -0.071918 -8.498731 -0.104136 0.182732 0.184271 0.117564
    3 2.815887 -5.283122 1.386547 0.209716 0.049969 -1.630727
    4 -2.052183 -0.333174 -0.000001 0.000000 -3.141592 0.144933
    5 9.198753 0.000002 0.000000 0.000000 0.000000 -1.425816
    6 3.633989 -0.389698 -0.017557 -1.570797 -1.570796 0.000000
    7 11.822115 -1.093857 0.000000 0.000001 0.000000 -1.570796
    8 3.863716 -0.640081 -0.130359 0.155869 0.235282 -0.102060
    9 1.257180 8.762585 -0.153713 -1.570562 0.002683 -1.566807
    10 -0.488518 -2.755602 -0.228260 -0.871614 -0.202562 -0.209541
    11 0.039887 -1.479790 0.029854 -1.516144 0.000000 0.000001
    12 0.028786 -1.075731 -0.023109 -1.298153 0.000000 0.000000
    13 0.250027 -2.820665 -0.238396 -0.797118 -0.167517 -0.114938
    14 -0.049759 -1.680544 0.100479 -1.644607 0.000000 -0.000002
    15 -0.034142 -1.148312 0.084782 -1.481046 0.000000 0.000000
    16 0.957766 -2.746780 -0.090302 -0.175885 -0.162684 0.097910
    17 -0.033420 -1.397129 -0.011257 -0.521018 0.000000 -0.000001
    18 -0.022360 -0.957436 0.018784 -0.975516 0.000000 0.000000
    19 -1.180681 -2.507217 -0.193859 -0.671429 -0.081516 -0.261329
    20 -0.024967 -1.123934 0.017597 -1.276708 0.000000 0.000001
    21 -0.020057 -0.890968 0.010090 -1.435733 0.000000 0.000000
    22 0.583510 -1.197277 0.185379 0.135458 -1.044822 -1.384612
    23 1.535927 0.010246 0.005009 -0.002964 -0.012979 -0.506650
    24 1.100771 0.004527 -0.010679 -0.015488 -0.004784 -1.694062
    25 0.120153 -0.050270 -0.054489 0.287569 3.110905 1.561085
    26 2.342592 -7.696179 -16.771326 0.982320 -2.869836 0.264081
    27 0.096944 -8.450418 -0.009365 1.438756 -1.315196 -1.299279
    28 0.447953 -2.798986 -0.200443 -1.027485 0.080423 0.181981
    29 -0.032909 -1.480204 0.004940 -1.562711 0.000000 0.000002
    30 -0.027022 -1.076920 -0.020210 -1.353433 0.000000 0.000000
    31 -0.249534 -2.846964 -0.174213 -0.647034 0.059582 0.201886
    32 0.043235 -1.683941 0.096012 -1.740259 0.002823 -0.000167
    33 0.031729 -1.160830 0.058838 -1.701368 0.000642 0.008372
    34 -0.963866 -2.785145 -0.085350 -0.424004 0.211125 0.155734
    35 0.028479 -1.403067 0.006271 -1.299756 0.000000 0.000000
    36 0.021413 -0.957781 0.020046 -0.625558 0.000000 0.000000
    37 1.164475 -2.543940 -0.170330 -1.231543 -0.190582 0.231606
    38 0.024032 -1.129042 0.017807 -1.303248 0.000000 0.000001
    39 0.014898 -0.883989 -0.019848 -1.545343 0.000000 0.000000
    40 -0.586770 -1.264477 0.200161 0.293470 -0.561962 -2.593593
    41 1.522835 0.058681 0.016848 0.001410 0.008985 0.577348
    42 1.117947 0.048424 -0.005766 -0.009423 -0.023376 0.439143
    43 -0.139399 -0.111698 0.014397 0.808201 0.213999 1.504546
    44 -1.393470 8.839177 -0.239433 1.580804 -0.005023 -1.566847
  time 11
    0 -0.999830 1.628925 3.537212 0.000000 0.000000 0.000000
    1 6.676599 3.203027 -15.711580 -0.964857 -0.789432 0.771696
    2 -0.071918 -8.498731 -0.104136 0.173684 0.194437 0.111580
    3 2.815887 -5.283122 1.386547 0.209716 0.049969 -1.630727
    4 -2.052183 -0.333174 -0.000001 0.000000 3.141592 0.144933
    5 9.198753 0.000002 0.000000 0.000000 0.000000 -1.425816
    6 3.633989 -0.389698 -0.017557 -1.570797 -1.570796 0.000000
    7 11.822115 -1.093857 0.000000 0.000001 0.000000 -1.570796
    8 3.863716 -0.640081 -0.130359 0.155869 0.235282 -0.102060
    9 1.257180 8.762585 -0.153713 -1.570562 0.002683 -1.566807
    10 -0.488518 -2.755602 -0.228260 -0.871614 -0.202562 -0.209541
    11 0.039887 -1.479790 0.029854 -1.516144 0.000000 0.000001
    12 0.028786 -1.075731 -0.023109 -1.298153 0.000000 0.000000
    13 0.250027 -2.820665 -0.238396 -0.797118 -0.167517 -0.114938
    14 -0.049759 -1.680544 0.100479 -1.644607 0.000000 -0.000002
    15 -0.034142 -1.148312 0.084782 -1.481046 0.000000 0.000000
    16 0.957766 -2.746780 -0.090302 -0.175885 -0.162684 0.097910
    17 -0.033420 -1.397129 -0.011257 -0.521018 0.000000 -0.000001
    18 -0.022360 -0.957436 0.018784 -0.975516 0.000000 0.000000
    19 -1.180681 -2.507217 -0.193859 -0.671429 -0.081516 -0.261329
    20 -0.024967 -1.123934 0.017597 -1.276708 0.000000 0.000001
    21 -0.020057 -0.890968 0.010090 -1.435733 0.000000 0.000000
    22 0.583510 -1.197277 0.185379 0.135458 -1.044822 -1.384612
    23 1.535927 0.010246 0.005009 -0.002964 -0.012979 -0.506650
    24 1.100771 0.004527 -0.010679 -0.015488 -0.004784 -1.694062
    25 0.120153 -0.050270 -0.054489 0.287569 3.110905 1.561085
    26 1.873828 -7.399295 -18.474503 0.952400 -2.894423 0.236985
    27 0.096944 -8.450418 -0.009365 -1.360143 -2.106028 1.526795
    28 0.447953 -2.798986 -0.200443 -0.895145 0.080423 0.181981
    29 -0.032909 -1.480204 0.004940 -1.562711 0.000000 0.000002
    30 -0.027022 -1.076920 -0.020210 -1.353433 0.000000 0.000000
    31 -0.249534 -2.846964 -0.174213 -0.563538 0.059582 0.201886
    32 0.043235 -1.683941 0.096012 -1.740259 0.002823 -0.000167
    33 0.031729 -1.160830 0.058838 -1.701368 0.000642 0.008372
    34 -0.963866 -2.785145 -0.085350 -0.272011 0.220066 0.176819
    35 0.028479 -1.403067 0.006271 -1.137731 0.000000 0.000000
    36 0.021413 -0.957781 0.020046 -0.625558 0.000000 0.000000
    37 1.164475 -2.543940 -0.170330 -1.110681 -0.190582 0.231606
    38 0.024032 -1.129042 0.017807 -1.303248 0.000000 0.000001
    39 0.014898 -0.883989 -0.019848 -1.545343 0.000000 0.000000
    40 -0.586770 -1.264477 0.200161 0.250707 -0.573539 -2.508807
    41 1.522835 0.058681 0.016848 0.001410 0.008985 0.512572
    42 1.117947 0.048424 -0.005766 -0.009423 -0.023376 0.439384
    43 -0.139399 -0.111698 0.014397 0.808201 0.213999 1.504546
    44 -1.393470 8.839177 -0.239433 1.580804 -0.005023 -1.566847
  time 12
    0 -0.999830 1.628925 3.537212 0.000000 0.000000 0.000000
    1 6.637535 3.128806 -15.723299 -0.966333 -0.788425 0.772727
    2 -0.071918 -8.498731 -0.104136 0.171095 0.202910 0.115015
    3 2.815887 -5.283122 1.386547 0.209716 0.049969 -1.630727
    4 -2.052183 -0.333174 -0.000001 0.000000 -3.141592 0.144933
    5 9.198753 0.000002 0.000000 0.000000 0.000000 -1.425816
    6 3.633989 -0.389698 -0.017557 -1.570797 -1.570796 0.000000
    7 11.822115 -1.093857 0.000000 0.000001 0.000000 -1.570796
    8 3.863716 -0.640081 -0.130359 0.155869 0.235282 -0.102060
    9 1.257180 8.762585 -0.153713 -1.570562 0.002683 -1.566807
    10 -0.488518 -2.755602 -0.228260 -0.871614 -0.202562 -0.209541
    11 0.039887 -1.479790 0.029854 -1.516144 0.000000 0.000001
    12 0.028786 -1.075731 -0.023109 -1.298153 0.000000 0.000000
    13 0.250027 -2.820665 -0.238396 -0.797118 -0.167517 -0.114938
    14 -0.049759 -1.680544 0.100479 -1.644607 0.000000 -0.000002
    15 -0.034142 -1.148312 0.084782 -1.481002 0.000000 0.000000
    16 0.957766 -2.746780 -0.090302 -0.175885 -0.162684 0.097910
    17 -0.033420 -1.397129 -0.011257 -0.521018 0.000000 -0.000001
    18 -0.022360 -0.957436 0.018784 -0.975516 0.000000 0.000000
    19 -1.180681 -2.507217 -0.193859 -0.671429 -0.081516 -0.261329
    20 -0.024967 -1.123934 0.017597 -1.276708 0.000000 0.000001
    21 -0.020057 -0.890968 0.010090 -1.435733 0.000000 0.000000
    22 0.583510 -1.197277 0.185379 0.135458 -1.044822 -1.384612
    23 1.535927 0.010246 0.005009 -0.002964 -0.012979 -0.506650
    24 1.100771 0.004527 -0.010679 -0.015488 -0.004784 -1.694062
    25 0.120153 -0.050270 -0.054489 0.287569 3.110905 1.561085
    26 1.373813 -7.481328 -20.158148 0.948632 -2.902683 0.238893
    27 0.096944 -8.450418 -0.009365 -1.156840 -2.033136 1.252463
    28 0.447953 -2.798986 -0.200443 -0.895145 0.080423 0.181981
    29 -0.032909 -1.480204 0.004940 -1.562711 0.000000 0.000002
    30 -0.027022 -1.076920 -0.020210 -1.353433 0.000000 0.000000
    31 -0.249534 -2.846964 -0.174213 -0.563538 0.059582 0.201886
    32 0.043235 -1.683941 0.096012 -1.740259 0.002823 -0.000167
    33 0.031729 -1.160830 0.058838 -1.701368 0.000642 0.008372
    34 -0.963866 -2.785145 -0.085350 -0.272011 0.220066 0.176819
    35 0.028479 -1.403067 0.006271 -0.896157 0.000000 0.000000
    36 0.021413 -0.957781 0.020046 -0.625558 0.000000 0.000000
    37 1.164475 -2.543940 -0.170330 -1.110681 -0.190582 0.231606
    38 0.024032 -1.129042 0.017807 -1.303248 0.000000 0.000001
    39 0.014898 -0.883989 -0.019848 -1.545343 0.000000 0.000000
    40 -0.586770 -1.264477 0.200161 0.250707 -0.573539 -2.508807
    41 1.522835 0.058681 0.016848 0.001410 0.008985 0.518611
    42 1.117947 0.048424 -0.005766 -0.008033 -0.023652 0.382851
    43 -0.139399 -0.111698 0.014397 0.808201 0.213999 1.504546
    44 -1.393470 8.839177 -0.239433 1.580804 -0.005023 -1.566847
  time 13
    0 -0.999830 1.628925 3.537212 0.000000 0.000000 0.000000
    1 6.551595 2.937394 -15.797520 -0.967909 -0.787340 0.773857
    2 -0.071918 -8.498731 -0.104136 0.171982 0.212556 0.124821
    3 2.815887 -5.283122 1.386547 0.209716 0.049969 -1.630727
    4 -2.052183 -0.333174 -0.000001 0.000000 -3.141592 0.144933
    5 9.198753 0.000002 0.000000 0.000000 0.000000 -1.425816
    6 3.633989 -0.389698 -0.017557 -1.570797 -1.570796 0.000000
    7 11.822115 -1.093857 0.000000 0.000001 0.000000 -1.570796
    8 3.863716 -0.640081 -0.130359 0.155869 0.235282 -0.102060
    9 1.257180 8.762585 -0.153713 -1.570562 0.002683 -1.566807
    10 -0.488518 -2.755602 -0.228260 -0.871614 -0.202562 -0.209541
    11 0.039887 -1.479790 0.029854 -1.516144 0.000000 0.000001
    12 0.028786 -1.075731 -0.023109 -1.298153 0.000000 0.000000
    13 0.250027 -2.820665 -0.238396 -0.797118 -0.167517 -0.114938
    14 -0.049759 -1.680544 0.100479 -1.644607 0.000000 -0.000002
    15 -0.034142 -1.148312 0.084782 -1.481002 0.000000 0.000000
    16 0.957766 -2.746780 -0.090302 -0.175885 -0.162684 0.097910
    17 -0.033420 -1.397129 -0.011257 -0.521018 0.000000 -0.000001
    18 -0.022360 -0.957436 0.018784 -0.975516 0.000000 0.000000
    19 -1.180681 -2.507217 -0.193859 -0.671429 -0.081516 -0.261329
    20 -0.024967 -1.123934 0.017597 -1.276708 0.000000 0.000001
    21 -0.020057 -0.890968 0.010090 -1.435733 0.000000 0.000000
    22 0.583510 -1.197277 0.185379 0.135458 -1.044822 -1.384612
    23 1.535927 0.010246 0.005009 -0.002964 -0.012979 -0.506650
    24 1.100771 0.004527 -0.010679 -0.015488 -0.004784 -1.694062
    25 0.120153 -0.050270 -0.054489 0.287569 3.110905 1.561085
    26 0.940206 -8.059471 -21.595692 0.977195 -2.888728 0.291464
    27 0.096944 -8.450418 -0.009365 -0.886529 -1.863625 0.902637
    28 0.447953 -2.798986 -0.200443 -0.895145 0.080423 0.181981
    29 -0.032909 -1.480204 0.004940 -1.562711 0.000000 0.000002
    30 -0.027022 -1.076920 -0.020210 -1.353433 0.000000 0.000000
    31 -0.249534 -2.846964 -0.174213 -0.563538 0.059582 0.201886
    32 0.043235 -1.683941 0.096012 -1.740259 0.002823 -0.000167
    33 0.031729 -1.160830 0.058838 -1.701368 0.000642 0.008372
    34 -0.963866 -2.785145 -0.085350 -0.272011 0.220066 0.176819
    35 0.028479 -1.403067 0.006271 -0.593841 0.000000 0.000000
    36 0.021413 -0.957781 0.020046 -0.625558 0.000000 0.000000
    37 1.164475 -2.543940 -0.170330 -1.110681 -0.190582 0.231606
    38 0.024032 -1.129042 0.017807 -1.303248 0.000000 0.000001
    39 0.014898 -0.883989 -0.019848 -1.545343 0.000000 0.000000
    40 -0.586770 -1.264477 0.200161 0.250707 -0.573539 -2.508807
    41 1.522835 0.058681 0.016848 0.001410 0.008985 0.531887
    42 1.117947 0.048424 -0.005766 -0.004821 -0.024275 0.252443
    43 -0.139399 -0.111698 0.014397 0.808201 0.213999 1.504546
    44 -1.393470 8.839177 -0.239433 1.580804 -0.005023 -1.566847
  time 14
    0 -0.999830 1.628925 3.537212 0.000000 0.000000 0.000000
    1 6.450029 2.706918 -15.895179 -0.969287 -0.786358 0.774839
    2 -0.071918 -8.498731 -0.104136 0.174319 0.222331 0.136926
    3 2.815887 -5.283122 1.386547 0.209716 0.049969 -1.630727
    4 -2.052183 -0.333174 -0.000001 0.000000 -3.141592 0.144933
    5 9.198753 0.000002 0.000000 0.000000 0.000000 -1.425816
    6 3.633989 -0.389698 -0.017557 -1.570797 -1.570796 0.000000
    7 11.822115 -1.093857 0.000000 0.000001 0.000000 -1.570796
    8 3.863716 -0.640081 -0.130359 0.155869 0.235282 -0.102060
    9 1.257180 8.762585 -0.153713 -1.570562 0.002683 -1.566807
    10 -0.488518 -2.755602 -0.228260 -0.871614 -0.202562 -0.209541
    11 0.039887 -1.479790 0.029854 -1.516144 0.000000 0.000001
    12 0.028786 -1.075731 -0.023109 -1.298153 0.000000 0.000000
    13 0.250027 -2.820665 -0.238396 -0.797118 -0.167517 -0.114938
    14 -0.049759 -1.680544 0.100479 -1.644607 0.000000 -0.000002
    15 -0.034142 -1.148312 0.084782 -1.481002 0.000000 0.000000
    16 0.957766 -2.746780 -0.090302 -0.175885 -0.162684 0.097910
    17 -0.033420 -1.397129 -0.011257 -0.521018 0.000000 -0.000001
    18 -0.022360 -0.957436 0.018784 -0.975516 0.000000 0.000000
    19 -1.180681 -2.507217 -0.193859 -0.671429 -0.081516 -0.261329
    20 -0.024967 -1.123934 0.017597 -1.276708 0.000000 0.000001
    21 -0.020057 -0.890968 0.010090 -1.435733 0.000000 0.000000
    22 0.583510 -1.197277 0.185379 0.135458 -1.044822 -1.384612
    23 1.535927 0.010246 0.005009 -0.002964 -0.012979 -0.506650
    24 1.100771 0.004527 -0.010679 -0.015488 -0.004784 -1.694062
    25 0.120153 -0.050270 -0.054489 0.287569 3.110905 1.561085
    26 0.463629 -11.645518 -22.810573 1.199447 -2.689084 0.573975
    27 0.096944 -8.450418 -0.009365 -1.421134 -1.779973 1.451628
    28 0.447953 -2.798986 -0.200443 -0.895145 0.080423 0.181981
    29 -0.032909 -1.480204 0.004940 -1.562711 0.000000 0.000002
    30 -0.027022 -1.076920 -0.020210 -1.353433 0.000000 0.000000
    31 -0.249534 -2.846964 -0.174213 -0.563538 0.059582 0.201886
    32 0.043235 -1.683941 0.096012 -1.740259 0.002823 -0.000167
    33 0.031729 -1.160830 0.058838 -1.701368 0.000642 0.008372
    34 -0.963866 -2.785145 -0.085350 -0.272011 0.220066 0.176819
    35 0.028479 -1.403067 0.006271 -0.335619 0.000000 0.000000
    36 0.021413 -0.957781 0.020046 -0.625558 0.000000 0.000000
    37 1.164475 -2.543940 -0.170330 -1.110681 -0.190582 0.231606
    38 0.024032 -1.129042 0.017807 -1.303248 0.000000 0.000001
    39 0.014898 -0.883989 -0.019848 -1.545343 0.000000 0.000000
    40 -0.586770 -1.264477 0.200161 0.250707 -0.573539 -2.508807
    41 1.522835 0.058681 0.016848 0.001410 0.008985 0.545191
    42 1.117947 0.048424 -0.005766 -0.001238 -0.024886 0.106944
    43 -0.139399 -0.111698 0.014397 0.808201 0.213999 1.504546
    44 -1.393470 8.839177 -0.239433 1.580804 -0.005023 -1.566847
  time 15
    0 -0.999830 1.628925 3.537212 0.000000 0.000000 0.000000
    1 6.360183 2.511600 -15.977213 -0.970271 -0.785686 0.775527
    2 -0.071918 -8.498731 -0.104136 0.176045 0.231261 0.147203
    3 2.815887 -5.283122 1.386547 0.209716 0.049969 -1.630727
    4 -2.052183 -0.333174 -0.000001 0.000000 -3.141592 0.144933
    5 9.198753 0.000002 0.000000 0.000000 0.000000 -1.425816
    6 3.633989 -0.389698 -0.017557 -1.570797 -1.570796 0.000000
    7 11.822115 -1.093857 0.000000 0.000001 0.000000 -1.570796
    8 3.863716 -0.640081 -0.130359 0.155869 0.235282 -0.102060
    9 1.257180 8.762585 -0.153713 -1.570562 0.002683 -1.566807
    10 -0.488518 -2.755602 -0.228260 -0.871614 -0.202562 -0.209541
    11 0.039887 -1.479790 0.029854 -1.516144 0.000000 0.000001
    12 0.028786 -1.075731 -0.023109 -1.298153 0.000000 0.000000
    13 0.250027 -2.820665 -0.238396 -0.797118 -0.167517 -0.114938
    14 -0.049759 -1.680544 0.100479 -1.644607 0.000000 -0.000002
    15 -0.034142 -1.148312 0.084782 -1.481046 0.000000 0.000000
    16 0.957766 -2.746780 -0.090302 -0.175885 -0.162684 0.097910
    17 -0.033420 -1.397129 -0.011257 -0.521018 0.000000 -0.000001
    18 -0.022360 -0.957436 0.018784 -0.975516 0.000000 0.000000
    19 -1.180681 -2.507217 -0.193859 -0.671429 -0.081516 -0.261329
    20 -0.024967 -1.123934 0.017597 -1.276708 0.000000 0.000001
    21 -0.020057 -0.890968 0.010090 -1.435733 0.000000 0.000000
    22 0.583510 -1.197277 0.185379 0.135458 -1.044822 -1.384612
    23 1.535927 0.010246 0.005009 -0.002964 -0.012979 -0.506650
    24 1.100771 0.004527 -0.010679 -0.015488 -0.004784 -1.694062
    25 0.120153 -0.050270 -0.054489 0.287569 3.110905 1.561085
    26 0.190183 -14.989370 -22.876981 1.325382 -2.488112 0.884154
    27 0.096944 -8.450418 -0.009365 0.925103 -1.286889 -0.867865
    28 0.447953 -2.798986 -0.200443 -0.895145 0.080423 0.181981
    29 -0.032909 -1.480204 0.004940 -1.562711 0.000000 0.000002
    30 -0.027022 -1.076920 -0.020210 -1.353433 0.000000 0.000000
    31 -0.249534 -2.846964 -0.174213 -0.563538 0.059582 0.201886
    32 0.043235 -1.683941 0.096012 -1.740259 0.002823 -0.000167
    33 0.031729 -1.160830 0.058838 -1.701368 0.000642 0.008372
    34 -0.963866 -2.785145 -0.085350 -0.272011 0.220066 0.176819
    35 0.028479 -1.403067 0.006271 -0.226238 0.000000 0.000000
    36 0.021413 -0.957781 0.020046 -0.625558 0.000000 0.000000
    37 1.164475 -2.543940 -0.170330 -1.110681 -0.190582 0.231606
    38 0.024032 -1.129042 0.017807 -1.303248 0.000000 0.000001
    39 0.014898 -0.883989 -0.019848 -1.545343 0.000000 0.000000
    40 -0.586770 -1.264477 0.200161 0.250707 -0.573539 -2.508807
    41 1.522835 0.058681 0.016848 0.001410 0.008985 0.551203
    42 1.117947 0.048424 -0.005766 0.001267 -0.025174 0.005110
    43 -0.139399 -0.111698 0.014397 0.808201 0.213999 1.504546
    44 -1.393470 8.839177 -0.239433 1.580804 -0.005023 -1.566847
end
