version 1
nodes
  0 "root" -1
  1 "Bone04" 0
  2 "Bone_Righthand" 1
  3 "root_tomahawk" 2
  4 "Bone01" 0
  5 "Bone_Lefthand" 4
  6 "Bone13" 5
  7 "Bone14" 6
  8 "Bone15" 7
  9 "Bone17" 5
  10 "Bone18" 9
  11 "Bone19" 10
  12 "Bone21" 5
  13 "Bone22" 12
  14 "Bone23" 13
  15 "Bone09" 5
  16 "Bone10" 15
  17 "Bone11" 16
  18 "Bone05" 5
  19 "Bone06" 18
  20 "Bone07" 19
  21 "Bone_Se_Hand-L" 5
  22 "Bone39" 2
  23 "Bone40" 22
  24 "Bone41" 23
  25 "Bone35" 2
  26 "Bone36" 25
  27 "Bone37" 26
  28 "Bone31" 2
  29 "Bone32" 28
  30 "Bone33" 29
  31 "Bone43" 2
  32 "Bone44" 31
  33 "Bone45" 32
  34 "Bone27" 2
  35 "Bone28" 34
  36 "Bone29" 35
  37 "Bone_Se_Hand-R" 2
end
skeleton
  time 0
    0 0.000114 5.939355 -3.620358 0.000000 0.000000 -0.000030
    1 -9.255889 -8.536368 -3.620918 -1.578552 -4.896861 -1.447955
    2 0.096944 -8.450418 -0.009364 -0.198493 -0.197561 -0.188633
    3 1.075543 -2.255324 0.791183 0.071893 3.247513 0.282733
    4 11.938192 -10.546177 -3.761264 0.255640 -2.914786 -0.664747
    5 -0.071919 -8.498733 -0.104137 0.028525 0.287591 0.014898
    6 -0.488517 -2.755600 -0.228261 -0.629673 0.037645 -0.287536
    7 0.039887 -1.479789 0.029853 -1.015001 0.000000 0.000000
    8 0.028785 -1.075730 -0.023111 -0.912011 0.000000 0.000001
    9 0.250028 -2.820663 -0.238396 -0.401368 -0.018453 -0.128421
    10 -0.049759 -1.680545 0.100480 -1.081089 0.000000 -0.000002
    11 -0.034141 -1.148311 0.084779 -0.800009 0.000000 0.000000
    12 0.957766 -2.746777 -0.090301 -0.253106 -0.162565 -0.001658
    13 -0.033419 -1.397127 -0.011255 -0.787060 0.000000 -0.000001
    14 -0.022360 -0.957435 0.018783 -0.201165 0.000000 0.000000
    15 -1.180680 -2.507215 -0.193861 -0.665149 0.122928 -0.318014
    16 -0.024966 -1.123933 0.017594 -0.947284 0.000000 0.000001
    17 -0.020057 -0.890966 0.010091 -0.864747 0.000000 0.000000
    18 0.583510 -1.197274 0.185377 0.502449 -0.610780 -0.737255
    19 1.535926 0.010245 0.005008 -0.220281 -0.011793 -0.706298
    20 1.100770 0.004527 -0.010676 -0.005984 0.015074 -0.201936
    21 0.120152 -0.050266 -0.054488 0.287568 3.110905 1.561085
    22 0.447952 -2.798983 -0.200442 -1.180010 0.239647 0.248507
    23 -0.032910 -1.480207 0.004936 -1.668858 0.000000 0.000002
    24 -0.027022 -1.076920 -0.020212 -1.015864 0.000000 0.000000
    25 -0.249534 -2.846962 -0.174216 -1.033989 0.218842 0.164949
    26 0.043235 -1.683940 0.096014 -1.738499 0.002823 -0.000167
    27 0.031730 -1.160831 0.058836 -1.160052 0.000642 0.008372
    28 -0.963866 -2.785142 -0.085346 -0.754276 0.267860 0.066915
    29 0.028479 -1.403069 0.006271 -1.364513 0.000000 0.000000
    30 0.021413 -0.957782 0.020047 -0.740299 0.000000 0.000000
    31 1.164475 -2.543938 -0.170328 -0.862922 0.065073 0.386604
    32 0.024033 -1.129041 0.017806 -1.702787 0.000000 0.000001
    33 0.014896 -0.883990 -0.019845 -0.853439 0.000000 0.000000
    34 -0.586770 -1.264475 0.200164 -0.446649 -1.113739 -2.509270
    35 1.522835 0.058681 0.016850 0.627276 -0.441885 0.679144
    36 1.117948 0.048424 -0.005764 -0.016278 0.004644 1.437277
    37 -0.139399 -0.111697 0.014397 0.296911 -0.081523 1.796803
  time 1
    0 0.000114 5.939355 -3.620358 0.000000 0.000000 -0.000030
    1 -8.966817 -8.712155 -3.398255 1.437477 -4.355430 1.564765
    2 0.096944 -8.450418 -0.009364 -0.182158 -0.070964 -0.122525
    3 1.075543 -2.255324 0.791183 0.071893 3.247513 0.282733
    4 10.840503 -11.175102 -3.022960 0.236577 -2.974033 -0.804456
    5 -0.071919 -8.498733 -0.104137 0.068719 0.237052 0.077829
    6 -0.488517 -2.755600 -0.228261 -0.335499 0.037645 -0.287536
    7 0.039887 -1.479789 0.029853 -0.647213 0.000000 0.000000
    8 0.028785 -1.075730 -0.023111 -0.520612 0.000000 0.000001
    9 0.250028 -2.820663 -0.238396 -0.161383 -0.018453 -0.128421
    10 -0.049759 -1.680545 0.100480 -0.672319 0.000000 -0.000002
    11 -0.034141 -1.148311 0.084779 -0.546261 0.000000 0.000000
    12 0.957766 -2.746777 -0.090301 0.058971 -0.168197 0.084619
    13 -0.033419 -1.397127 -0.011255 -0.787060 0.000000 -0.000001
    14 -0.022360 -0.957435 0.018783 -0.201165 0.000000 0.000000
    15 -1.180680 -2.507215 -0.193861 -0.665149 0.122928 -0.318014
    16 -0.024966 -1.123933 0.017594 -0.947284 0.000000 0.000001
    17 -0.020057 -0.890966 0.010091 -0.864747 0.000000 0.000000
    18 0.583510 -1.197274 0.185377 0.527433 -0.670034 -0.779060
    19 1.535926 0.010245 0.005008 -0.220281 -0.011793 -0.706298
    20 1.100770 0.004527 -0.010676 -0.005984 0.015074 -0.201936
    21 0.120152 -0.050266 -0.054488 0.287568 3.110905 1.561085
    22 0.447952 -2.798983 -0.200442 -1.180010 0.239647 0.248507
    23 -0.032910 -1.480207 0.004936 -1.668858 0.000000 0.000002
    24 -0.027022 -1.076920 -0.020212 -1.015864 0.000000 0.000000
    25 -0.249534 -2.846962 -0.174216 -1.033989 0.218842 0.164949
    26 0.043235 -1.683940 0.096014 -1.738499 0.002823 -0.000167
    27 0.031730 -1.160831 0.058836 -1.160052 0.000642 0.008372
    28 -0.963866 -2.785142 -0.085346 -0.754276 0.267860 0.066915
    29 0.028479 -1.403069 0.006271 -1.364513 0.000000 0.000000
    30 0.021413 -0.957782 0.020047 -0.740299 0.000000 0.000000
    31 1.164475 -2.543938 -0.170328 -0.862922 0.065073 0.386604
    32 0.024033 -1.129041 0.017806 -1.702787 0.000000 0.000001
    33 0.014896 -0.883990 -0.019845 -0.853439 0.000000 0.000000
    34 -0.586770 -1.264475 0.200164 -0.446649 -1.113739 -2.509270
    35 1.522835 0.058681 0.016850 0.627276 -0.441885 0.679144
    36 1.117948 0.048424 -0.005764 -0.016278 0.004644 1.437277
    37 -0.139399 -0.111697 0.014397 0.274009 -0.088226 1.820032
  time 2
    0 0.000114 5.939355 -3.620358 0.000000 0.000000 -0.000030
    1 -8.193356 -8.790282 -2.835738 1.324212 -4.166365 1.315800
    2 0.096944 -8.450418 -0.009364 -0.151443 0.151354 -0.012310
    3 1.075543 -2.255324 0.791183 0.071893 3.247513 0.282733
    4 8.805284 -11.499331 -1.651825 0.200846 -3.113582 -0.889571
    5 -0.071919 -8.498733 -0.104137 0.133335 0.140394 0.189801
    6 -0.488517 -2.755600 -0.228261 -0.845868 -0.033987 -0.439046
    7 0.039887 -1.479789 0.029853 -1.121259 0.000000 0.000000
    8 0.028785 -1.075730 -0.023111 -1.002410 0.000000 0.000001
    9 0.250028 -2.820663 -0.238396 -0.441690 -0.068585 -0.222656
    10 -0.049759 -1.680545 0.100480 -1.316822 0.000000 -0.000002
    11 -0.034141 -1.148311 0.084779 -0.849655 0.000000 0.000000
    12 0.957766 -2.746777 -0.090301 -0.309122 -0.230122 0.028639
    13 -0.033419 -1.397127 -0.011255 -1.144201 0.000000 -0.000001
    14 -0.022360 -0.957435 0.018783 -0.746949 0.000000 0.000000
    15 -1.180680 -2.507215 -0.193861 -1.061857 0.057984 -0.543292
    16 -0.024966 -1.123933 0.017594 -1.277447 0.000000 0.000001
    17 -0.020057 -0.890966 0.010091 -1.182864 0.000000 0.000000
    18 0.583510 -1.197274 0.185377 0.387408 -0.728926 -0.825681
    19 1.535926 0.010245 0.005008 -0.218902 -0.023681 -0.759681
    20 1.100770 0.004527 -0.010676 -0.010514 0.012342 -0.529459
    21 0.120152 -0.050266 -0.054488 0.287568 3.110905 1.561085
    22 0.447952 -2.798983 -0.200442 -1.180010 0.239647 0.248507
    23 -0.032910 -1.480207 0.004936 -1.668858 0.000000 0.000002
    24 -0.027022 -1.076920 -0.020212 -1.015864 0.000000 0.000000
    25 -0.249534 -2.846962 -0.174216 -1.033989 0.218842 0.164949
    26 0.043235 -1.683940 0.096014 -1.738499 0.002823 -0.000167
    27 0.031730 -1.160831 0.058836 -1.160052 0.000642 0.008372
    28 -0.963866 -2.785142 -0.085346 -0.754276 0.267860 0.066915
    29 0.028479 -1.403069 0.006271 -1.364513 0.000000 0.000000
    30 0.021413 -0.957782 0.020047 -0.740299 0.000000 0.000000
    31 1.164475 -2.543938 -0.170328 -0.862922 0.065073 0.386604
    32 0.024033 -1.129041 0.017806 -1.702787 0.000000 0.000001
    33 0.014896 -0.883990 -0.019845 -0.853439 0.000000 0.000000
    34 -0.586770 -1.264475 0.200164 -0.446649 -1.113739 -2.509270
    35 1.522835 0.058681 0.016850 0.627276 -0.441885 0.679144
    36 1.117948 0.048424 -0.005764 -0.016278 0.004644 1.437277
    37 -0.139399 -0.111697 0.014397 0.219395 -0.096653 1.848371
  time 3
    0 0.000114 5.939355 -3.620358 0.000000 0.000000 -0.000030
    1 -7.072228 -8.821533 -2.109153 1.277077 -3.995194 1.183432
    2 0.096944 -8.450418 -0.009364 -0.136113 0.270933 0.040313
    3 1.075543 -2.255324 0.791183 0.071893 3.247513 0.282733
    4 7.711501 -11.593084 -0.913521 0.181591 3.005840 -0.918135
    5 -0.071919 -8.498733 -0.104137 0.166821 0.086937 0.247495
    6 -0.488517 -2.755600 -0.228261 -1.357801 -0.106290 -0.589872
    7 0.039887 -1.479789 0.029853 -1.595352 0.000000 0.000000
    8 0.028785 -1.075730 -0.023111 -1.484163 0.000000 0.000001
    9 0.250028 -2.820663 -0.238396 -0.722251 -0.118776 -0.316807
    10 -0.049759 -1.680545 0.100480 -1.961265 0.000000 -0.000002
    11 -0.034141 -1.148311 0.084779 -1.153087 0.000000 0.000000
    12 0.957766 -2.746777 -0.090301 -0.676994 -0.284795 -0.028383
    13 -0.033419 -1.397127 -0.011255 -1.501343 0.000000 -0.000001
    14 -0.022360 -0.957435 0.018783 -1.292773 0.000000 0.000000
    15 -1.180680 -2.507215 -0.193861 -1.462149 -0.007908 -0.768149
    16 -0.024966 -1.123933 0.017594 -1.607610 0.000000 0.000001
    17 -0.020057 -0.890966 0.010091 -1.500937 0.000000 0.000000
    18 0.583510 -1.197274 0.185377 0.238697 -0.762273 -0.854339
    19 1.535926 0.010245 0.005008 -0.217536 -0.035534 -0.813088
    20 1.100770 0.004527 -0.010676 -0.013930 0.008303 -0.856956
    21 0.120152 -0.050266 -0.054488 0.287568 3.110905 1.561085
    22 0.447952 -2.798983 -0.200442 -1.180010 0.239647 0.248507
    23 -0.032910 -1.480207 0.004936 -1.668858 0.000000 0.000002
    24 -0.027022 -1.076920 -0.020212 -1.015864 0.000000 0.000000
    25 -0.249534 -2.846962 -0.174216 -1.033989 0.218842 0.164949
    26 0.043235 -1.683940 0.096014 -1.738499 0.002823 -0.000167
    27 0.031730 -1.160831 0.058836 -1.160052 0.000642 0.008372
    28 -0.963866 -2.785142 -0.085346 -0.754276 0.267860 0.066915
    29 0.028479 -1.403069 0.006271 -1.364513 0.000000 0.000000
    30 0.021413 -0.957782 0.020047 -0.740299 0.000000 0.000000
    31 1.164475 -2.543938 -0.170328 -0.862922 0.065073 0.386604
    32 0.024033 -1.129041 0.017806 -1.702787 0.000000 0.000001
    33 0.014896 -0.883990 -0.019845 -0.853439 0.000000 0.000000
    34 -0.586770 -1.264475 0.200164 -0.446649 -1.113739 -2.509270
    35 1.522835 0.058681 0.016850 0.627276 -0.441885 0.679144
    36 1.117948 0.048424 -0.005764 -0.016278 0.004644 1.437277
    37 -0.139399 -0.111697 0.014397 0.148925 -0.105449 1.877662
  time 4
    0 0.000114 5.939355 -3.620358 0.000000 0.000000 -0.000030
    1 -5.744063 -8.844972 -1.378662 1.468080 -3.839389 1.301846
    2 0.096944 -8.450418 -0.009364 -0.123743 0.129026 -0.049847
    3 1.075543 -2.255324 0.791183 0.071893 3.247513 0.282733
    4 11.020196 -8.796123 -0.913521 0.315607 2.741097 -0.077694
    5 -0.071919 -8.498733 -0.104137 0.020258 0.101166 0.186745
    6 -0.488517 -2.755600 -0.228261 -1.357801 -0.106290 -0.589872
    7 0.039887 -1.479789 0.029853 -1.595352 0.000000 0.000000
    8 0.028785 -1.075730 -0.023111 -1.484163 0.000000 0.000001
    9 0.250028 -2.820663 -0.238396 -0.722251 -0.118776 -0.316807
    10 -0.049759 -1.680545 0.100480 -1.961265 0.000000 -0.000002
    11 -0.034141 -1.148311 0.084779 -1.153087 0.000000 0.000000
    12 0.957766 -2.746777 -0.090301 -0.676994 -0.284795 -0.028383
    13 -0.033419 -1.397127 -0.011255 -1.501343 0.000000 -0.000001
    14 -0.022360 -0.957435 0.018783 -1.292773 0.000000 0.000000
    15 -1.180680 -2.507215 -0.193861 -1.462149 -0.007908 -0.768149
    16 -0.024966 -1.123933 0.017594 -1.607610 0.000000 0.000001
    17 -0.020057 -0.890966 0.010091 -1.500937 0.000000 0.000000
    18 0.583510 -1.197274 0.185377 0.238697 -0.762273 -0.854339
    19 1.535926 0.010245 0.005008 -0.217536 -0.035534 -0.813088
    20 1.100770 0.004527 -0.010676 -0.013930 0.008303 -0.856956
    21 0.120152 -0.050266 -0.054488 0.287568 3.110905 1.561085
    22 0.447952 -2.798983 -0.200442 -1.180010 0.239647 0.248507
    23 -0.032910 -1.480207 0.004936 -1.668858 0.000000 0.000002
    24 -0.027022 -1.076920 -0.020212 -1.015864 0.000000 0.000000
    25 -0.249534 -2.846962 -0.174216 -1.033989 0.218842 0.164949
    26 0.043235 -1.683940 0.096014 -1.738499 0.002823 -0.000167
    27 0.031730 -1.160831 0.058836 -1.160052 0.000642 0.008372
    28 -0.963866 -2.785142 -0.085346 -0.754276 0.267860 0.066915
    29 0.028479 -1.403069 0.006271 -1.364513 0.000000 0.000000
    30 0.021413 -0.957782 0.020047 -0.740299 0.000000 0.000000
    31 1.164475 -2.543938 -0.170328 -0.862922 0.065073 0.386604
    32 0.024033 -1.129041 0.017806 -1.702787 0.000000 0.000001
    33 0.014896 -0.883990 -0.019845 -0.853439 0.000000 0.000000
    34 -0.586770 -1.264475 0.200164 -0.446649 -1.113739 -2.509270
    35 1.522835 0.058681 0.016850 0.627276 -0.441885 0.679144
    36 1.117948 0.048424 -0.005764 -0.016278 0.004644 1.437277
    37 -0.139399 -0.111697 0.014397 0.078624 -0.113302 1.903789
  time 5
    0 0.000114 5.939355 -3.620358 0.000000 0.000000 -0.000030
    1 -4.341676 -8.911380 -0.820051 -1.261901 -5.722827 -1.549262
    2 0.096944 -8.450418 -0.009364 -0.093474 -0.139159 -0.274622
    3 1.075543 -2.255324 0.791183 0.071893 3.247513 0.282733
    4 12.055384 -5.557743 -0.913521 0.429984 2.777947 0.224355
    5 -0.071919 -8.498733 -0.104137 -0.252243 0.126831 0.072688
    6 -0.488517 -2.755600 -0.228261 -1.357801 -0.106290 -0.589872
    7 0.039887 -1.479789 0.029853 -1.595305 0.000000 0.000000
    8 0.028785 -1.075730 -0.023111 -1.484163 0.000000 0.000001
    9 0.250028 -2.820663 -0.238396 -0.722251 -0.118776 -0.316807
    10 -0.049759 -1.680545 0.100480 -1.961265 0.000000 -0.000002
    11 -0.034141 -1.148311 0.084779 -1.153087 0.000000 0.000000
    12 0.957766 -2.746777 -0.090301 -0.676994 -0.284795 -0.028383
    13 -0.033419 -1.397127 -0.011255 -1.501343 0.000000 -0.000001
    14 -0.022360 -0.957435 0.018783 -1.292773 0.000000 0.000000
    15 -1.180680 -2.507215 -0.193861 -1.462149 -0.007908 -0.768149
    16 -0.024966 -1.123933 0.017594 -1.607610 0.000000 0.000001
    17 -0.020057 -0.890966 0.010091 -1.500937 0.000000 0.000000
    18 0.583510 -1.197274 0.185377 0.238697 -0.762273 -0.854339
    19 1.535926 0.010245 0.005008 -0.217536 -0.035534 -0.813088
    20 1.100770 0.004527 -0.010676 -0.013930 0.008303 -0.856956
    21 0.120152 -0.050266 -0.054488 0.287568 3.110905 1.561085
    22 0.447952 -2.798983 -0.200442 -1.180010 0.239647 0.248507
    23 -0.032910 -1.480207 0.004936 -1.668858 0.000000 0.000002
    24 -0.027022 -1.076920 -0.020212 -1.015864 0.000000 0.000000
    25 -0.249534 -2.846962 -0.174216 -1.033989 0.218842 0.164949
    26 0.043235 -1.683940 0.096014 -1.738499 0.002823 -0.000167
    27 0.031730 -1.160831 0.058836 -1.160052 0.000642 0.008372
    28 -0.963866 -2.785142 -0.085346 -0.754276 0.267860 0.066915
    29 0.028479 -1.403069 0.006271 -1.364513 0.000000 0.000000
    30 0.021413 -0.957782 0.020047 -0.740299 0.000000 0.000000
    31 1.164475 -2.543938 -0.170328 -0.862922 0.065073 0.386604
    32 0.024033 -1.129041 0.017806 -1.702787 0.000000 0.000001
    33 0.014896 -0.883990 -0.019845 -0.853439 0.000000 0.000000
    34 -0.586770 -1.264475 0.200164 -0.446649 -1.113739 -2.509270
    35 1.522835 0.058681 0.016850 0.627276 -0.441885 0.679144
    36 1.117948 0.048424 -0.005764 -0.016278 0.004644 1.437277
    37 -0.139399 -0.111697 0.014397 0.024597 -0.118924 1.922549
  time 6
    0 0.000114 5.939355 -3.620358 0.000000 0.000000 -0.000030
    1 -3.001792 -9.059822 -0.593482 -0.865330 -5.798246 -1.174332
    2 0.096944 -8.450418 -0.009364 -0.045754 -0.308114 -0.517262
    3 1.075543 -2.255324 0.791183 0.071893 3.247513 0.282733
    4 12.422582 -3.647529 -0.913521 0.492633 2.834322 0.320182
    5 -0.071919 -8.498733 -0.104137 -0.399064 0.145229 0.010452
    6 -0.488517 -2.755600 -0.228261 -1.357801 -0.106290 -0.589872
    7 0.039887 -1.479789 0.029853 -1.595352 0.000000 0.000000
    8 0.028785 -1.075730 -0.023111 -1.484163 0.000000 0.000001
    9 0.250028 -2.820663 -0.238396 -0.722251 -0.118776 -0.316807
    10 -0.049759 -1.680545 0.100480 -1.961265 0.000000 -0.000002
    11 -0.034141 -1.148311 0.084779 -1.153087 0.000000 0.000000
    12 0.957766 -2.746777 -0.090301 -0.676994 -0.284795 -0.028383
    13 -0.033419 -1.397127 -0.011255 -1.501343 0.000000 -0.000001
    14 -0.022360 -0.957435 0.018783 -1.292773 0.000000 0.000000
    15 -1.180680 -2.507215 -0.193861 -1.462149 -0.007908 -0.768149
    16 -0.024966 -1.123933 0.017594 -1.607610 0.000000 0.000001
    17 -0.020057 -0.890966 0.010091 -1.500937 0.000000 0.000000
    18 0.583510 -1.197274 0.185377 0.238697 -0.762273 -0.854339
    19 1.535926 0.010245 0.005008 -0.217536 -0.035534 -0.813088
    20 1.100770 0.004527 -0.010676 -0.013930 0.008303 -0.856956
    21 0.120152 -0.050266 -0.054488 0.287568 3.110905 1.561085
    22 0.447952 -2.798983 -0.200442 -1.180010 0.239647 0.248507
    23 -0.032910 -1.480207 0.004936 -1.668858 0.000000 0.000002
    24 -0.027022 -1.076920 -0.020212 -1.015864 0.000000 0.000000
    25 -0.249534 -2.846962 -0.174216 -1.033989 0.218842 0.164949
    26 0.043235 -1.683940 0.096014 -1.738499 0.002823 -0.000167
    27 0.031730 -1.160831 0.058836 -1.160052 0.000642 0.008372
    28 -0.963866 -2.785142 -0.085346 -0.754276 0.267860 0.066915
    29 0.028479 -1.403069 0.006271 -1.364513 0.000000 0.000000
    30 0.021413 -0.957782 0.020047 -0.740299 0.000000 0.000000
    31 1.164475 -2.543938 -0.170328 -0.862922 0.065073 0.386604
    32 0.024033 -1.129041 0.017806 -1.702787 0.000000 0.000001
    33 0.014896 -0.883990 -0.019845 -0.853439 0.000000 0.000000
    34 -0.586770 -1.264475 0.200164 -0.446649 -1.113739 -2.509270
    35 1.522835 0.058681 0.016850 0.627276 -0.441885 0.679144
    36 1.117948 0.048424 -0.005764 -0.016278 0.004644 1.437277
    37 -0.139399 -0.111697 0.014397 0.002989 -0.121072 1.929739
  time 7
    0 0.000114 5.939355 -3.620358 0.000000 0.000000 -0.000030
    1 -0.904071 -9.688747 -1.773205 -0.609463 -5.809396 -0.659390
    2 0.096944 -8.450418 -0.009364 0.070267 -0.319660 -0.661783
    3 1.075543 -2.255324 0.791183 0.071893 3.247513 0.282733
    4 12.641339 -3.651435 -0.796330 0.429601 2.874809 0.318800
    5 -0.071919 -8.498733 -0.104137 -0.396584 0.155790 0.011770
    6 -0.488517 -2.755600 -0.228261 -1.357801 -0.106290 -0.589872
    7 0.039887 -1.479789 0.029853 -1.595352 0.000000 0.000000
    8 0.028785 -1.075730 -0.023111 -1.484163 0.000000 0.000001
    9 0.250028 -2.820663 -0.238396 -0.722251 -0.118776 -0.316807
    10 -0.049759 -1.680545 0.100480 -1.961265 0.000000 -0.000002
    11 -0.034141 -1.148311 0.084779 -1.153087 0.000000 0.000000
    12 0.957766 -2.746777 -0.090301 -0.676994 -0.284795 -0.028383
    13 -0.033419 -1.397127 -0.011255 -1.501343 0.000000 -0.000001
    14 -0.022360 -0.957435 0.018783 -1.292773 0.000000 0.000000
    15 -1.180680 -2.507215 -0.193861 -1.462149 -0.007908 -0.768149
    16 -0.024966 -1.123933 0.017594 -1.607610 0.000000 0.000001
    17 -0.020057 -0.890966 0.010091 -1.500937 0.000000 0.000000
    18 0.583510 -1.197274 0.185377 0.238697 -0.762273 -0.854339
    19 1.535926 0.010245 0.005008 -0.217536 -0.035534 -0.813088
    20 1.100770 0.004527 -0.010676 -0.013930 0.008303 -0.856956
    21 0.120152 -0.050266 -0.054488 0.287568 3.110905 1.561085
    22 0.447952 -2.798983 -0.200442 -1.180010 0.239647 0.248507
    23 -0.032910 -1.480207 0.004936 -1.668858 0.000000 0.000002
    24 -0.027022 -1.076920 -0.020212 -1.015864 0.000000 0.000000
    25 -0.249534 -2.846962 -0.174216 -1.033989 0.218842 0.164949
    26 0.043235 -1.683940 0.096014 -1.738499 0.002823 -0.000167
    27 0.031730 -1.160831 0.058836 -1.160052 0.000642 0.008372
    28 -0.963866 -2.785142 -0.085346 -0.754276 0.267860 0.066915
    29 0.028479 -1.403069 0.006271 -1.364513 0.000000 0.000000
    30 0.021413 -0.957782 0.020047 -0.740299 0.000000 0.000000
    31 1.164475 -2.543938 -0.170328 -0.862922 0.065073 0.386604
    32 0.024033 -1.129041 0.017806 -1.702787 0.000000 0.000001
    33 0.014896 -0.883990 -0.019845 -0.853439 0.000000 0.000000
    34 -0.586770 -1.264475 0.200164 -0.446649 -1.113739 -2.509270
    35 1.522835 0.058681 0.016850 0.627276 -0.441885 0.679144
    36 1.117948 0.048424 -0.005764 -0.016278 0.004644 1.437277
    37 -0.088616 -0.142948 0.022210 0.060084 -0.092043 1.919474
  time 8
    0 0.000114 5.939355 -3.620358 0.000000 0.000000 -0.000030
    1 0.806918 -10.212201 -2.949023 -0.312370 -5.825697 -0.013609
    2 0.096944 -8.450418 -0.009364 0.039412 -0.312101 -0.515455
    3 1.075543 -2.255324 0.791183 0.071893 3.247513 0.282733
    4 12.828845 -3.670967 -0.491633 0.263303 2.916827 0.315114
    5 -0.071919 -8.498733 -0.104137 -0.389700 0.165698 0.015737
    6 -0.488517 -2.755600 -0.228261 -1.357801 -0.106290 -0.589872
    7 0.039887 -1.479789 0.029853 -1.595352 0.000000 0.000000
    8 0.028785 -1.075730 -0.023111 -1.484163 0.000000 0.000001
    9 0.250028 -2.820663 -0.238396 -0.722251 -0.118776 -0.316807
    10 -0.049759 -1.680545 0.100480 -1.961265 0.000000 -0.000002
    11 -0.034141 -1.148311 0.084779 -1.153087 0.000000 0.000000
    12 0.957766 -2.746777 -0.090301 -0.676994 -0.284795 -0.028383
    13 -0.033419 -1.397127 -0.011255 -1.501343 0.000000 -0.000001
    14 -0.022360 -0.957435 0.018783 -1.292773 0.000000 0.000000
    15 -1.180680 -2.507215 -0.193861 -1.462149 -0.007908 -0.768149
    16 -0.024966 -1.123933 0.017594 -1.607610 0.000000 0.000001
    17 -0.020057 -0.890966 0.010091 -1.500937 0.000000 0.000000
    18 0.583510 -1.197274 0.185377 0.238697 -0.762273 -0.854339
    19 1.535926 0.010245 0.005008 -0.217536 -0.035534 -0.813088
    20 1.100770 0.004527 -0.010676 -0.013930 0.008303 -0.856956
    21 0.120152 -0.050266 -0.054488 0.287568 3.110905 1.561085
    22 0.447952 -2.798983 -0.200442 -1.180010 0.239647 0.248507
    23 -0.032910 -1.480207 0.004936 -1.668858 0.000000 0.000002
    24 -0.027022 -1.076920 -0.020212 -1.015864 0.000000 0.000000
    25 -0.249534 -2.846962 -0.174216 -1.033989 0.218842 0.164949
    26 0.043235 -1.683940 0.096014 -1.738499 0.002823 -0.000167
    27 0.031730 -1.160831 0.058836 -1.160052 0.000642 0.008372
    28 -0.963866 -2.785142 -0.085346 -0.754276 0.267860 0.066915
    29 0.028479 -1.403069 0.006271 -1.364513 0.000000 0.000000
    30 0.021413 -0.957782 0.020047 -0.740299 0.000000 0.000000
    31 1.164475 -2.543938 -0.170328 -0.862922 0.065073 0.386604
    32 0.024033 -1.129041 0.017806 -1.702787 0.000000 0.000001
    33 0.014896 -0.883990 -0.019845 -0.853439 0.000000 0.000000
    34 -0.586770 -1.264475 0.200164 -0.446649 -1.113739 -2.509270
    35 1.522835 0.058681 0.016850 0.627276 -0.441885 0.679144
    36 1.117948 0.048424 -0.005764 -0.016278 0.004644 1.437319
    37 0.028575 -0.213263 0.037835 0.160239 -0.038498 1.819081
  time 9
    0 0.000114 5.939355 -3.620358 0.000000 0.000000 -0.000030
    1 0.986611 -9.645777 -1.773205 0.227717 -5.899712 0.763488
    2 0.096944 -8.450418 -0.009364 0.074874 -0.316694 0.315242
    3 1.075543 -2.255324 0.791183 0.071893 3.247513 0.282733
    4 12.989006 -3.713937 -0.061933 0.028130 2.959228 0.309471
    5 -0.071919 -8.498733 -0.104137 -0.379373 0.174897 0.021513
    6 -0.488517 -2.755600 -0.228261 -1.357801 -0.106290 -0.589872
    7 0.039887 -1.479789 0.029853 -1.595352 0.000000 0.000000
    8 0.028785 -1.075730 -0.023111 -1.484163 0.000000 0.000001
    9 0.250028 -2.820663 -0.238396 -0.722251 -0.118776 -0.316807
    10 -0.049759 -1.680545 0.100480 -1.961265 0.000000 -0.000002
    11 -0.034141 -1.148311 0.084779 -1.153087 0.000000 0.000000
    12 0.957766 -2.746777 -0.090301 -0.676994 -0.284795 -0.028383
    13 -0.033419 -1.397127 -0.011255 -1.501343 0.000000 -0.000001
    14 -0.022360 -0.957435 0.018783 -1.292773 0.000000 0.000000
    15 -1.180680 -2.507215 -0.193861 -1.462149 -0.007908 -0.768149
    16 -0.024966 -1.123933 0.017594 -1.607610 0.000000 0.000001
    17 -0.020057 -0.890966 0.010091 -1.500937 0.000000 0.000000
    18 0.583510 -1.197274 0.185377 0.238697 -0.762273 -0.854339
    19 1.535926 0.010245 0.005008 -0.217536 -0.035534 -0.813088
    20 1.100770 0.004527 -0.010676 -0.013930 0.008303 -0.856956
    21 0.120152 -0.050266 -0.054488 0.287568 3.110905 1.561085
    22 0.447952 -2.798983 -0.200442 -1.180010 0.239647 0.248507
    23 -0.032910 -1.480207 0.004936 -1.668858 0.000000 0.000002
    24 -0.027022 -1.076920 -0.020212 -1.015864 0.000000 0.000000
    25 -0.249534 -2.846962 -0.174216 -1.033989 0.218842 0.164949
    26 0.043235 -1.683940 0.096014 -1.738499 0.002823 -0.000167
    27 0.031730 -1.160831 0.058836 -1.160052 0.000642 0.008372
    28 -0.963866 -2.785142 -0.085346 -0.754276 0.267860 0.066915
    29 0.028479 -1.403069 0.006271 -1.364513 0.000000 0.000000
    30 0.021413 -0.957782 0.020047 -0.740299 0.000000 0.000000
    31 1.164475 -2.543938 -0.170328 -0.862922 0.065073 0.386604
    32 0.024033 -1.129041 0.017806 -1.702787 0.000000 0.000001
    33 0.014896 -0.883990 -0.019845 -0.853439 0.000000 0.000000
    34 -0.586770 -1.264475 0.200164 -0.446649 -1.113739 -2.509270
    35 1.522835 0.058681 0.016850 0.627276 -0.441885 0.679144
    36 1.117948 0.048424 -0.005764 -0.016278 0.004644 1.437319
    37 0.145766 -0.283577 0.053461 0.251238 0.075348 1.369854
  time 10
    0 0.000114 5.939355 -3.620358 0.000000 0.000000 -0.000030
    1 7.982919 -9.059822 -0.593482 0.700126 -5.955083 1.423318
    2 0.096944 -8.450418 -0.009364 0.205220 -0.208565 0.921165
    3 1.075543 -2.255324 0.791183 0.071893 3.247513 0.282733
    4 13.121822 -3.776439 0.430270 6.041672 3.000671 0.302445
    5 -0.071919 -8.498733 -0.104137 -0.366553 0.183359 0.028213
    6 -0.488517 -2.755600 -0.228261 -1.357801 -0.106290 -0.589872
    7 0.039887 -1.479789 0.029853 -1.595352 0.000000 0.000000
    8 0.028785 -1.075730 -0.023111 -1.484163 0.000000 0.000001
    9 0.250028 -2.820663 -0.238396 -0.722251 -0.118776 -0.316807
    10 -0.049759 -1.680545 0.100480 -1.961265 0.000000 -0.000002
    11 -0.034141 -1.148311 0.084779 -1.153087 0.000000 0.000000
    12 0.957766 -2.746777 -0.090301 -0.676994 -0.284795 -0.028383
    13 -0.033419 -1.397127 -0.011255 -1.501343 0.000000 -0.000001
    14 -0.022360 -0.957435 0.018783 -1.292773 0.000000 0.000000
    15 -1.180680 -2.507215 -0.193861 -1.462149 -0.007908 -0.768149
    16 -0.024966 -1.123933 0.017594 -1.607610 0.000000 0.000001
    17 -0.020057 -0.890966 0.010091 -1.500937 0.000000 0.000000
    18 0.583510 -1.197274 0.185377 0.238697 -0.762273 -0.854339
    19 1.535926 0.010245 0.005008 -0.217536 -0.035534 -0.813088
    20 1.100770 0.004527 -0.010676 -0.013930 0.008303 -0.856956
    21 0.120152 -0.050266 -0.054488 0.287568 3.110905 1.561085
    22 0.447952 -2.798983 -0.200442 -1.180010 0.239647 0.248507
    23 -0.032910 -1.480207 0.004936 -1.668858 0.000000 0.000002
    24 -0.027022 -1.076920 -0.020212 -1.015864 0.000000 0.000000
    25 -0.249534 -2.846962 -0.174216 -1.033989 0.218842 0.164949
    26 0.043235 -1.683940 0.096014 -1.738499 0.002823 -0.000167
    27 0.031730 -1.160831 0.058836 -1.160052 0.000642 0.008372
    28 -0.963866 -2.785142 -0.085346 -0.754276 0.267860 0.066915
    29 0.028479 -1.403069 0.006271 -1.364513 0.000000 0.000000
    30 0.021413 -0.957782 0.020047 -0.740299 0.000000 0.000000
    31 1.164475 -2.543938 -0.170328 -0.862951 0.065073 0.386604
    32 0.024033 -1.129041 0.017806 -1.702787 0.000000 0.000001
    33 0.014896 -0.883990 -0.019845 -0.853439 0.000000 0.000000
    34 -0.586770 -1.264475 0.200164 -0.446649 -1.113739 -2.509270
    35 1.522835 0.058681 0.016850 0.627276 -0.441885 0.679144
    36 1.117948 0.048424 -0.005764 -0.016278 0.004644 1.437277
    37 0.200455 -0.314828 0.061273 0.264301 0.159208 1.006730
  time 11
    0 0.000114 5.939355 -3.620358 0.000000 0.000000 -0.000030
    1 7.826664 -9.032477 -1.761486 0.933551 -5.892592 -4.459720
    2 0.096944 -8.450418 -0.009364 0.205778 -0.194212 0.916924
    3 1.075543 -2.255324 0.791183 0.071893 3.247513 0.282733
    4 13.223388 -3.870192 0.922472 5.772205 3.040105 0.294440
    5 -0.071919 -8.498733 -0.104137 -0.352202 0.191044 0.034972
    6 -0.488517 -2.755600 -0.228261 -1.357801 -0.106290 -0.589872
    7 0.039887 -1.479789 0.029853 -1.595305 0.000000 0.000000
    8 0.028785 -1.075730 -0.023111 -1.484163 0.000000 0.000001
    9 0.250028 -2.820663 -0.238396 -0.722251 -0.118776 -0.316807
    10 -0.049759 -1.680545 0.100480 -1.961265 0.000000 -0.000002
    11 -0.034141 -1.148311 0.084779 -1.153087 0.000000 0.000000
    12 0.957766 -2.746777 -0.090301 -0.676994 -0.284795 -0.028383
    13 -0.033419 -1.397127 -0.011255 -1.501343 0.000000 -0.000001
    14 -0.022360 -0.957435 0.018783 -1.292773 0.000000 0.000000
    15 -1.180680 -2.507215 -0.193861 -1.462149 -0.007908 -0.768149
    16 -0.024966 -1.123933 0.017594 -1.607610 0.000000 0.000001
    17 -0.020057 -0.890966 0.010091 -1.500937 0.000000 0.000000
    18 0.583510 -1.197274 0.185377 0.238697 -0.762273 -0.854339
    19 1.535926 0.010245 0.005008 -0.217536 -0.035534 -0.813088
    20 1.100770 0.004527 -0.010676 -0.013930 0.008303 -0.856956
    21 0.120152 -0.050266 -0.054488 0.287568 3.110905 1.561085
    22 0.447952 -2.798983 -0.200442 -1.180010 0.239647 0.248507
    23 -0.032910 -1.480207 0.004936 -1.668858 0.000000 0.000002
    24 -0.027022 -1.076920 -0.020212 -1.015864 0.000000 0.000000
    25 -0.249534 -2.846962 -0.174216 -1.033989 0.218842 0.164949
    26 0.043235 -1.683940 0.096014 -1.738499 0.002823 -0.000167
    27 0.031730 -1.160831 0.058836 -1.160052 0.000642 0.008372
    28 -0.963866 -2.785142 -0.085346 -0.754276 0.267860 0.066915
    29 0.028479 -1.403069 0.006271 -1.364513 0.000000 0.000000
    30 0.021413 -0.957782 0.020047 -0.740299 0.000000 0.000000
    31 1.164475 -2.543938 -0.170328 -0.862922 0.065073 0.386604
    32 0.024033 -1.129041 0.017806 -1.702787 0.000000 0.000001
    33 0.014896 -0.883990 -0.019845 -0.853439 0.000000 0.000000
    34 -0.586770 -1.264475 0.200164 -0.446649 -1.113739 -2.509270
    35 1.522835 0.058681 0.016850 0.627276 -0.441885 0.679144
    36 1.117948 0.048424 -0.005764 -0.016278 0.004644 1.437277
    37 0.196549 -0.314828 0.061273 0.266051 0.156595 1.011708
  time 12
    0 0.000114 5.939355 -3.620358 0.000000 0.000000 -0.000030
    1 7.377431 -9.012945 -4.327971 1.108515 -5.743626 -4.121490
    2 0.096944 -8.450418 -0.009364 0.206951 -0.154022 0.904863
    3 1.075543 -2.255324 0.791183 0.071893 3.247513 0.282733
    4 13.297609 -3.999102 1.352173 5.537031 3.076285 0.285975
    5 -0.071919 -8.498733 -0.104137 -0.337295 0.197950 0.040881
    6 -0.488517 -2.755600 -0.228261 -1.357801 -0.106290 -0.589872
    7 0.039887 -1.479789 0.029853 -1.595352 0.000000 0.000000
    8 0.028785 -1.075730 -0.023111 -1.484163 0.000000 0.000001
    9 0.250028 -2.820663 -0.238396 -0.722251 -0.118776 -0.316807
    10 -0.049759 -1.680545 0.100480 -1.961265 0.000000 -0.000002
    11 -0.034141 -1.148311 0.084779 -1.153087 0.000000 0.000000
    12 0.957766 -2.746777 -0.090301 -0.676994 -0.284795 -0.028383
    13 -0.033419 -1.397127 -0.011255 -1.501343 0.000000 -0.000001
    14 -0.022360 -0.957435 0.018783 -1.292773 0.000000 0.000000
    15 -1.180680 -2.507215 -0.193861 -1.462149 -0.007908 -0.768149
    16 -0.024966 -1.123933 0.017594 -1.607610 0.000000 0.000001
    17 -0.020057 -0.890966 0.010091 -1.500937 0.000000 0.000000
    18 0.583510 -1.197274 0.185377 0.238697 -0.762273 -0.854339
    19 1.535926 0.010245 0.005008 -0.217536 -0.035534 -0.813088
    20 1.100770 0.004527 -0.010676 -0.013930 0.008303 -0.856956
    21 0.120152 -0.050266 -0.054488 0.287568 3.110905 1.561085
    22 0.447952 -2.798983 -0.200442 -1.180010 0.239647 0.248507
    23 -0.032910 -1.480207 0.004936 -1.668858 0.000000 0.000002
    24 -0.027022 -1.076920 -0.020212 -1.015864 0.000000 0.000000
    25 -0.249534 -2.846962 -0.174216 -1.033989 0.218842 0.164949
    26 0.043235 -1.683940 0.096014 -1.738499 0.002823 -0.000167
    27 0.031730 -1.160831 0.058836 -1.160052 0.000642 0.008372
    28 -0.963866 -2.785142 -0.085346 -0.754276 0.267860 0.066915
    29 0.028479 -1.403069 0.006271 -1.364513 0.000000 0.000000
    30 0.021413 -0.957782 0.020047 -0.740299 0.000000 0.000000
    31 1.164475 -2.543938 -0.170328 -0.862922 0.065073 0.386604
    32 0.024033 -1.129041 0.017806 -1.702787 0.000000 0.000001
    33 0.014896 -0.883990 -0.019845 -0.853439 0.000000 0.000000
    34 -0.586770 -1.264475 0.200164 -0.446649 -1.113739 -2.509270
    35 1.522835 0.058681 0.016850 0.627276 -0.441885 0.679144
    36 1.117948 0.048424 -0.005764 -0.016278 0.004644 1.437319
    37 0.192642 -0.310922 0.061273 0.269059 0.151452 1.026619
  time 13
    0 0.000114 5.939355 -3.620358 0.000000 0.000000 -0.000030
    1 6.674285 -9.001226 -6.890549 1.218052 -5.574891 -3.888294
    2 0.096944 -8.450418 -0.009364 0.207593 -0.092399 0.886095
    3 1.075543 -2.255324 0.791183 0.071893 3.247513 0.282733
    4 13.340579 -4.167076 1.656870 5.370733 3.107870 0.277624
    5 -0.071919 -8.498733 -0.104137 -0.322794 0.204022 0.045063
    6 -0.488517 -2.755600 -0.228261 -1.357801 -0.106290 -0.589872
    7 0.039887 -1.479789 0.029853 -1.595352 0.000000 0.000000
    8 0.028785 -1.075730 -0.023111 -1.484163 0.000000 0.000001
    9 0.250028 -2.820663 -0.238396 -0.722251 -0.118776 -0.316807
    10 -0.049759 -1.680545 0.100480 -1.961265 0.000000 -0.000002
    11 -0.034141 -1.148311 0.084779 -1.153087 0.000000 0.000000
    12 0.957766 -2.746777 -0.090301 -0.676994 -0.284795 -0.028383
    13 -0.033419 -1.397127 -0.011255 -1.501343 0.000000 -0.000001
    14 -0.022360 -0.957435 0.018783 -1.292773 0.000000 0.000000
    15 -1.180680 -2.507215 -0.193861 -1.462102 -0.007908 -0.768149
    16 -0.024966 -1.123933 0.017594 -1.607610 0.000000 0.000001
    17 -0.020057 -0.890966 0.010091 -1.500937 0.000000 0.000000
    18 0.583510 -1.197274 0.185377 0.238697 -0.762273 -0.854339
    19 1.535926 0.010245 0.005008 -0.217536 -0.035534 -0.813088
    20 1.100770 0.004527 -0.010676 -0.013930 0.008303 -0.856956
    21 0.120152 -0.050266 -0.054488 0.287568 3.110905 1.561085
    22 0.447952 -2.798983 -0.200442 -1.180010 0.239647 0.248507
    23 -0.032910 -1.480207 0.004936 -1.668858 0.000000 0.000002
    24 -0.027022 -1.076920 -0.020212 -1.015864 0.000000 0.000000
    25 -0.249534 -2.846962 -0.174216 -1.033989 0.218842 0.164949
    26 0.043235 -1.683940 0.096014 -1.738499 0.002823 -0.000167
    27 0.031730 -1.160831 0.058836 -1.160052 0.000642 0.008372
    28 -0.963866 -2.785142 -0.085346 -0.754276 0.267860 0.066915
    29 0.028479 -1.403069 0.006271 -1.364513 0.000000 0.000000
    30 0.021413 -0.957782 0.020047 -0.740299 0.000000 0.000000
    31 1.164475 -2.543938 -0.170328 -0.862922 0.065073 0.386604
    32 0.024033 -1.129041 0.017806 -1.702787 0.000000 0.000001
    33 0.014896 -0.883990 -0.019845 -0.853439 0.000000 0.000000
    34 -0.586770 -1.264475 0.200164 -0.446649 -1.113739 -2.509270
    35 1.522835 0.058681 0.016850 0.627276 -0.441885 0.679144
    36 1.117948 0.048424 -0.005764 -0.016278 0.004644 1.437277
    37 0.180923 -0.303109 0.061273 0.273098 0.143996 1.050379
  time 14
    0 0.000114 5.939355 -3.620358 0.000000 0.000000 -0.000030
    1 5.756288 -8.993414 -8.058553 1.255408 -5.452814 -3.802088
    2 0.096944 -8.450418 -0.009364 0.206504 -0.013710 0.861591
    3 1.075543 -2.255324 0.791183 0.071893 3.247513 0.282733
    4 13.352298 -4.378020 1.774061 5.307701 3.133713 0.269735
    5 -0.071919 -8.498733 -0.104137 -0.309662 0.209275 0.046597
    6 -0.488517 -2.755600 -0.228261 -1.357801 -0.106290 -0.589872
    7 0.039887 -1.479789 0.029853 -1.595352 0.000000 0.000000
    8 0.028785 -1.075730 -0.023111 -1.484163 0.000000 0.000001
    9 0.250028 -2.820663 -0.238396 -0.722251 -0.118776 -0.316807
    10 -0.049759 -1.680545 0.100480 -1.961265 0.000000 -0.000002
    11 -0.034141 -1.148311 0.084779 -1.153087 0.000000 0.000000
    12 0.957766 -2.746777 -0.090301 -0.676994 -0.284795 -0.028383
    13 -0.033419 -1.397127 -0.011255 -1.501343 0.000000 -0.000001
    14 -0.022360 -0.957435 0.018783 -1.292773 0.000000 0.000000
    15 -1.180680 -2.507215 -0.193861 -1.462102 -0.007908 -0.768149
    16 -0.024966 -1.123933 0.017594 -1.607610 0.000000 0.000001
    17 -0.020057 -0.890966 0.010091 -1.500937 0.000000 0.000000
    18 0.583510 -1.197274 0.185377 0.238697 -0.762273 -0.854339
    19 1.535926 0.010245 0.005008 -0.217536 -0.035534 -0.813088
    20 1.100770 0.004527 -0.010676 -0.013930 0.008303 -0.856956
    21 0.120152 -0.050266 -0.054488 0.287568 3.110905 1.561085
    22 0.447952 -2.798983 -0.200442 -1.180010 0.239647 0.248507
    23 -0.032910 -1.480207 0.004936 -1.668858 0.000000 0.000002
    24 -0.027022 -1.076920 -0.020212 -1.015864 0.000000 0.000000
    25 -0.249534 -2.846962 -0.174216 -1.033989 0.218842 0.164949
    26 0.043235 -1.683940 0.096014 -1.738499 0.002823 -0.000167
    27 0.031730 -1.160831 0.058836 -1.160052 0.000642 0.008372
    28 -0.963866 -2.785142 -0.085346 -0.754276 0.267860 0.066915
    29 0.028479 -1.403069 0.006271 -1.364513 0.000000 0.000000
    30 0.021413 -0.957782 0.020047 -0.740299 0.000000 0.000000
    31 1.164475 -2.543938 -0.170328 -0.862922 0.065073 0.386604
    32 0.024033 -1.129041 0.017806 -1.702787 0.000000 0.000001
    33 0.014896 -0.883990 -0.019845 -0.853439 0.000000 0.000000
    34 -0.586770 -1.264475 0.200164 -0.446649 -1.113739 -2.509270
    35 1.522835 0.058681 0.016850 0.627276 -0.441885 0.679144
    36 1.117948 0.048424 -0.005764 -0.016278 0.004644 1.437277
    37 0.169204 -0.295296 0.057367 0.277868 0.134420 1.081904
  time 15
    0 0.000114 5.939355 -3.620358 0.000000 0.000000 -0.000030
    1 4.674224 -9.071541 -7.976520 1.225298 -5.375145 -3.842324
    2 0.096944 -8.450418 -0.009364 0.202623 0.077545 0.832047
    3 1.075543 -2.255324 0.791183 0.071893 3.247513 0.282733
    4 13.266358 -4.631934 1.727185 5.319101 -3.129088 0.263227
    5 -0.071919 -8.498733 -0.104137 -0.298861 0.213499 0.042475
    6 -0.488517 -2.755600 -0.228261 -1.357801 -0.106290 -0.589872
    7 0.039887 -1.479789 0.029853 -1.595305 0.000000 0.000000
    8 0.028785 -1.075730 -0.023111 -1.484163 0.000000 0.000001
    9 0.250028 -2.820663 -0.238396 -0.722251 -0.118776 -0.316807
    10 -0.049759 -1.680545 0.100480 -1.961265 0.000000 -0.000002
    11 -0.034141 -1.148311 0.084779 -1.153087 0.000000 0.000000
    12 0.957766 -2.746777 -0.090301 -0.676994 -0.284795 -0.028383
    13 -0.033419 -1.397127 -0.011255 -1.501343 0.000000 -0.000001
    14 -0.022360 -0.957435 0.018783 -1.292773 0.000000 0.000000
    15 -1.180680 -2.507215 -0.193861 -1.462149 -0.007908 -0.768149
    16 -0.024966 -1.123933 0.017594 -1.607610 0.000000 0.000001
    17 -0.020057 -0.890966 0.010091 -1.500937 0.000000 0.000000
    18 0.583510 -1.197274 0.185377 0.238697 -0.762273 -0.854339
    19 1.535926 0.010245 0.005008 -0.217536 -0.035534 -0.813088
    20 1.100770 0.004527 -0.010676 -0.013930 0.008303 -0.856956
    21 0.120152 -0.050266 -0.054488 0.287568 3.110905 1.561085
    22 0.447952 -2.798983 -0.200442 -1.180010 0.239647 0.248507
    23 -0.032910 -1.480207 0.004936 -1.668858 0.000000 0.000002
    24 -0.027022 -1.076920 -0.020212 -1.015864 0.000000 0.000000
    25 -0.249534 -2.846962 -0.174216 -1.033989 0.218842 0.164949
    26 0.043235 -1.683940 0.096014 -1.738499 0.002823 -0.000167
    27 0.031730 -1.160831 0.058836 -1.160052 0.000642 0.008372
    28 -0.963866 -2.785142 -0.085346 -0.754276 0.267860 0.066915
    29 0.028479 -1.403069 0.006271 -1.364513 0.000000 0.000000
    30 0.021413 -0.957782 0.020047 -0.740299 0.000000 0.000000
    31 1.164475 -2.543938 -0.170328 -0.862922 0.065073 0.386604
    32 0.024033 -1.129041 0.017806 -1.702787 0.000000 0.000001
    33 0.014896 -0.883990 -0.019845 -0.853439 0.000000 0.000000
    34 -0.586770 -1.264475 0.200164 -0.446649 -1.113739 -2.509270
    35 1.522835 0.058681 0.016850 0.627276 -0.441885 0.679144
    36 1.117948 0.048424 -0.005764 -0.016278 0.004644 1.437277
    37 0.153579 -0.287484 0.057367 0.283033 0.122956 1.120110
  time 16
    0 0.000114 5.939355 -3.620358 0.000000 0.000000 -0.000030
    1 3.482781 -9.270766 -7.742138 1.142495 -5.296540 -3.952901
    2 0.096944 -8.450418 -0.009364 0.195083 0.177030 0.798020
    3 1.075543 -2.255324 0.791183 0.071893 3.247513 0.282733
    4 13.028069 -4.917099 1.602181 5.351000 -3.112817 0.258275
    5 -0.071919 -8.498733 -0.104137 -0.290270 0.216653 0.031281
    6 -0.488517 -2.755600 -0.228261 -1.357801 -0.106290 -0.589872
    7 0.039887 -1.479789 0.029853 -1.595352 0.000000 0.000000
    8 0.028785 -1.075730 -0.023111 -1.484163 0.000000 0.000001
    9 0.250028 -2.820663 -0.238396 -0.722251 -0.118776 -0.316807
    10 -0.049759 -1.680545 0.100480 -1.961265 0.000000 -0.000002
    11 -0.034141 -1.148311 0.084779 -1.153087 0.000000 0.000000
    12 0.957766 -2.746777 -0.090301 -0.676994 -0.284795 -0.028383
    13 -0.033419 -1.397127 -0.011255 -1.501343 0.000000 -0.000001
    14 -0.022360 -0.957435 0.018783 -1.292773 0.000000 0.000000
    15 -1.180680 -2.507215 -0.193861 -1.462149 -0.007908 -0.768149
    16 -0.024966 -1.123933 0.017594 -1.607610 0.000000 0.000001
    17 -0.020057 -0.890966 0.010091 -1.500937 0.000000 0.000000
    18 0.583510 -1.197274 0.185377 0.238697 -0.762273 -0.854339
    19 1.535926 0.010245 0.005008 -0.217536 -0.035534 -0.813088
    20 1.100770 0.004527 -0.010676 -0.013930 0.008303 -0.856956
    21 0.120152 -0.050266 -0.054488 0.287568 3.110905 1.561085
    22 0.447952 -2.798983 -0.200442 -1.180010 0.239647 0.248507
    23 -0.032910 -1.480207 0.004936 -1.668858 0.000000 0.000002
    24 -0.027022 -1.076920 -0.020212 -1.015864 0.000000 0.000000
    25 -0.249534 -2.846962 -0.174216 -1.033989 0.218842 0.164949
    26 0.043235 -1.683940 0.096014 -1.738499 0.002823 -0.000167
    27 0.031730 -1.160831 0.058836 -1.160052 0.000642 0.008372
    28 -0.963866 -2.785142 -0.085346 -0.754276 0.267860 0.066915
    29 0.028479 -1.403069 0.006271 -1.364513 0.000000 0.000000
    30 0.021413 -0.957782 0.020047 -0.740299 0.000000 0.000000
    31 1.164475 -2.543938 -0.170328 -0.862922 0.065073 0.386604
    32 0.024033 -1.129041 0.017806 -1.702787 0.000000 0.000001
    33 0.014896 -0.883990 -0.019845 -0.853439 0.000000 0.000000
    34 -0.586770 -1.264475 0.200164 -0.446649 -1.113718 -2.509270
    35 1.522835 0.058681 0.016850 0.627276 -0.441885 0.679144
    36 1.117948 0.048424 -0.005764 -0.016278 0.004644 1.437319
    37 0.134047 -0.275765 0.053461 0.288294 0.109823 1.163891
  time 17
    0 0.000114 5.939355 -3.620358 0.000000 0.000000 -0.000030
    1 2.213211 -9.571556 -7.398377 1.016777 -5.218778 -4.121203
    2 0.096944 -8.450418 -0.009364 0.183356 0.280215 0.759856
    3 1.075543 -2.255324 0.791183 0.071893 3.247513 0.282733
    4 12.672590 -5.229608 1.406862 5.399950 -3.099896 0.254128
    5 -0.071919 -8.498733 -0.104137 -0.283263 0.218891 0.014586
    6 -0.488517 -2.755600 -0.228261 -1.357801 -0.106290 -0.589872
    7 0.039887 -1.479789 0.029853 -1.595352 0.000000 0.000000
    8 0.028785 -1.075730 -0.023111 -1.484163 0.000000 0.000001
    9 0.250028 -2.820663 -0.238396 -0.722251 -0.118776 -0.316807
    10 -0.049759 -1.680545 0.100480 -1.961265 0.000000 -0.000002
    11 -0.034141 -1.148311 0.084779 -1.153087 0.000000 0.000000
    12 0.957766 -2.746777 -0.090301 -0.676994 -0.284795 -0.028383
    13 -0.033419 -1.397127 -0.011255 -1.501343 0.000000 -0.000001
    14 -0.022360 -0.957435 0.018783 -1.292773 0.000000 0.000000
    15 -1.180680 -2.507215 -0.193861 -1.462149 -0.007908 -0.768149
    16 -0.024966 -1.123933 0.017594 -1.607610 0.000000 0.000001
    17 -0.020057 -0.890966 0.010091 -1.500937 0.000000 0.000000
    18 0.583510 -1.197274 0.185377 0.238697 -0.762273 -0.854339
    19 1.535926 0.010245 0.005008 -0.217536 -0.035534 -0.813088
    20 1.100770 0.004527 -0.010676 -0.013930 0.008303 -0.856956
    21 0.120152 -0.050266 -0.054488 0.287568 3.110905 1.561085
    22 0.447952 -2.798983 -0.200442 -1.180010 0.239647 0.248507
    23 -0.032910 -1.480207 0.004936 -1.668858 0.000000 0.000002
    24 -0.027022 -1.076920 -0.020212 -1.015864 0.000000 0.000000
    25 -0.249534 -2.846962 -0.174216 -1.033989 0.218842 0.164949
    26 0.043235 -1.683940 0.096014 -1.738499 0.002823 -0.000167
    27 0.031730 -1.160831 0.058836 -1.160052 0.000642 0.008372
    28 -0.963866 -2.785142 -0.085346 -0.754276 0.267860 0.066915
    29 0.028479 -1.403069 0.006271 -1.364513 0.000000 0.000000
    30 0.021413 -0.957782 0.020047 -0.740299 0.000000 0.000000
    31 1.164475 -2.543938 -0.170328 -0.862922 0.065073 0.386604
    32 0.024033 -1.129041 0.017806 -1.702787 0.000000 0.000001
    33 0.014896 -0.883990 -0.019845 -0.853439 0.000000 0.000000
    34 -0.586770 -1.264475 0.200164 -0.446649 -1.113739 -2.509270
    35 1.522835 0.058681 0.016850 0.627276 -0.441885 0.679144
    36 1.117948 0.048424 -0.005764 -0.016278 0.004644 1.437319
    37 0.110609 -0.264045 0.049554 0.293352 0.095253 1.212229
  time 18
    0 0.000114 5.939355 -3.620358 0.000000 0.000000 -0.000030
    1 0.896765 -9.934849 -6.968676 0.858135 -5.143920 -4.334425
    2 0.096944 -8.450418 -0.009364 0.167160 0.382666 0.717870
    3 1.075543 -2.255324 0.791183 0.071893 3.247513 0.282733
    4 12.235076 -5.565556 1.152948 5.462600 -3.089367 0.250328
    5 -0.071919 -8.498733 -0.104137 -0.277178 0.220405 -0.006051
    6 -0.488517 -2.755600 -0.228261 -1.357801 -0.106290 -0.589872
    7 0.039887 -1.479789 0.029853 -1.595352 0.000000 0.000000
    8 0.028785 -1.075730 -0.023111 -1.484163 0.000000 0.000001
    9 0.250028 -2.820663 -0.238396 -0.722251 -0.118776 -0.316807
    10 -0.049759 -1.680545 0.100480 -1.961265 0.000000 -0.000002
    11 -0.034141 -1.148311 0.084779 -1.153087 0.000000 0.000000
    12 0.957766 -2.746777 -0.090301 -0.676994 -0.284795 -0.028383
    13 -0.033419 -1.397127 -0.011255 -1.501343 0.000000 -0.000001
    14 -0.022360 -0.957435 0.018783 -1.292773 0.000000 0.000000
    15 -1.180680 -2.507215 -0.193861 -1.462149 -0.007908 -0.768149
    16 -0.024966 -1.123933 0.017594 -1.607610 0.000000 0.000001
    17 -0.020057 -0.890966 0.010091 -1.500937 0.000000 0.000000
    18 0.583510 -1.197274 0.185377 0.238697 -0.762273 -0.854339
    19 1.535926 0.010245 0.005008 -0.217536 -0.035534 -0.813088
    20 1.100770 0.004527 -0.010676 -0.013930 0.008303 -0.856956
    21 0.120152 -0.050266 -0.054488 0.287568 3.110905 1.561085
    22 0.447952 -2.798983 -0.200442 -1.180010 0.239647 0.248507
    23 -0.032910 -1.480207 0.004936 -1.668858 0.000000 0.000002
    24 -0.027022 -1.076920 -0.020212 -1.015864 0.000000 0.000000
    25 -0.249534 -2.846962 -0.174216 -1.033989 0.218842 0.164949
    26 0.043235 -1.683940 0.096014 -1.738499 0.002823 -0.000167
    27 0.031730 -1.160831 0.058836 -1.160052 0.000642 0.008372
    28 -0.963866 -2.785142 -0.085346 -0.754276 0.267860 0.066915
    29 0.028479 -1.403069 0.006271 -1.364513 0.000000 0.000000
    30 0.021413 -0.957782 0.020047 -0.740299 0.000000 0.000000
    31 1.164475 -2.543938 -0.170328 -0.862922 0.065073 0.386604
    32 0.024033 -1.129041 0.017806 -1.702787 0.000000 0.000001
    33 0.014896 -0.883990 -0.019845 -0.853439 0.000000 0.000000
    34 -0.586770 -1.264475 0.200164 -0.446649 -1.113739 -2.509270
    35 1.522835 0.058681 0.016850 0.627276 -0.441885 0.679144
    36 1.117948 0.048424 -0.005764 -0.016278 0.004644 1.437319
    37 0.091077 -0.248420 0.045648 0.297942 0.079535 1.264063
  time 19
    0 0.000114 5.939355 -3.620358 0.000000 0.000000 -0.000030
    1 -0.435307 -10.329392 -6.484287 0.676417 -5.073934 -4.579758
    2 0.096944 -8.450418 -0.009364 0.146665 0.480014 0.672685
    3 1.075543 -2.255324 0.791183 0.071893 3.247513 0.282733
    4 11.746780 -5.921036 0.859971 5.535403 -3.080657 0.246124
    5 -0.071919 -8.498733 -0.104137 -0.271405 0.221364 -0.029061
    6 -0.488517 -2.755600 -0.228261 -1.357801 -0.106290 -0.589872
    7 0.039887 -1.479789 0.029853 -1.595352 0.000000 0.000000
    8 0.028785 -1.075730 -0.023111 -1.484163 0.000000 0.000001
    9 0.250028 -2.820663 -0.238396 -0.722251 -0.118776 -0.316807
    10 -0.049759 -1.680545 0.100480 -1.961265 0.000000 -0.000002
    11 -0.034141 -1.148311 0.084779 -1.153087 0.000000 0.000000
    12 0.957766 -2.746777 -0.090301 -0.676994 -0.284795 -0.028383
    13 -0.033419 -1.397127 -0.011255 -1.501343 0.000000 -0.000001
    14 -0.022360 -0.957435 0.018783 -1.292773 0.000000 0.000000
    15 -1.180680 -2.507215 -0.193861 -1.462149 -0.007908 -0.768149
    16 -0.024966 -1.123933 0.017594 -1.607610 0.000000 0.000001
    17 -0.020057 -0.890966 0.010091 -1.500937 0.000000 0.000000
    18 0.583510 -1.197274 0.185377 0.238697 -0.762273 -0.854339
    19 1.535926 0.010245 0.005008 -0.217536 -0.035534 -0.813088
    20 1.100770 0.004527 -0.010676 -0.013930 0.008303 -0.856956
    21 0.120152 -0.050266 -0.054488 0.287568 3.110905 1.561085
    22 0.447952 -2.798983 -0.200442 -1.180010 0.239647 0.248507
    23 -0.032910 -1.480207 0.004936 -1.668858 0.000000 0.000002
    24 -0.027022 -1.076920 -0.020212 -1.015864 0.000000 0.000000
    25 -0.249534 -2.846962 -0.174216 -1.033989 0.218842 0.164949
    26 0.043235 -1.683940 0.096014 -1.738499 0.002823 -0.000167
    27 0.031730 -1.160831 0.058836 -1.160052 0.000642 0.008372
    28 -0.963866 -2.785142 -0.085346 -0.754276 0.267860 0.066915
    29 0.028479 -1.403069 0.006271 -1.364513 0.000000 0.000000
    30 0.021413 -0.957782 0.020047 -0.740299 0.000000 0.000000
    31 1.164475 -2.543938 -0.170328 -0.862922 0.065073 0.386604
    32 0.024033 -1.129041 0.017806 -1.702787 0.000000 0.000001
    33 0.014896 -0.883990 -0.019845 -0.853439 0.000000 0.000000
    34 -0.586770 -1.264475 0.200164 -0.446649 -1.113739 -2.509270
    35 1.522835 0.058681 0.016850 0.627276 -0.441885 0.679144
    36 1.117948 0.048424 -0.005764 -0.016278 0.004644 1.437277
    37 0.067639 -0.236701 0.041742 0.301837 0.062954 1.318375
  time 20
    0 0.000114 5.939355 -3.620358 0.000000 0.000000 -0.000030
    1 -1.747847 -10.723935 -5.980365 0.481333 -5.010693 1.438419
    2 0.096944 -8.450418 -0.009364 0.122651 0.567889 0.625277
    3 1.075543 -2.255324 0.791183 0.071893 3.247513 0.282733
    4 11.238952 -6.284328 0.535742 5.615103 -3.072809 0.240941
    5 -0.071919 -8.498733 -0.104137 -0.265280 0.222003 -0.052863
    6 -0.488517 -2.755600 -0.228261 -1.357801 -0.106290 -0.589872
    7 0.039887 -1.479789 0.029853 -1.595352 0.000000 0.000000
    8 0.028785 -1.075730 -0.023111 -1.484163 0.000000 0.000001
    9 0.250028 -2.820663 -0.238396 -0.722251 -0.118776 -0.316807
    10 -0.049759 -1.680545 0.100480 -1.961265 0.000000 -0.000002
    11 -0.034141 -1.148311 0.084779 -1.153087 0.000000 0.000000
    12 0.957766 -2.746777 -0.090301 -0.676994 -0.284795 -0.028383
    13 -0.033419 -1.397127 -0.011255 -1.501343 0.000000 -0.000001
    14 -0.022360 -0.957435 0.018783 -1.292773 0.000000 0.000000
    15 -1.180680 -2.507215 -0.193861 -1.462149 -0.007908 -0.768149
    16 -0.024966 -1.123933 0.017594 -1.607610 0.000000 0.000001
    17 -0.020057 -0.890966 0.010091 -1.500937 0.000000 0.000000
    18 0.583510 -1.197274 0.185377 0.238697 -0.762273 -0.854339
    19 1.535926 0.010245 0.005008 -0.217536 -0.035534 -0.813088
    20 1.100770 0.004527 -0.010676 -0.013930 0.008303 -0.856956
    21 0.120152 -0.050266 -0.054488 0.287568 3.110905 1.561085
    22 0.447952 -2.798983 -0.200442 -1.180010 0.239647 0.248507
    23 -0.032910 -1.480207 0.004936 -1.668858 0.000000 0.000002
    24 -0.027022 -1.076920 -0.020212 -1.015864 0.000000 0.000000
    25 -0.249534 -2.846962 -0.174216 -1.033989 0.218842 0.164949
    26 0.043235 -1.683940 0.096014 -1.738499 0.002823 -0.000167
    27 0.031730 -1.160831 0.058836 -1.160052 0.000642 0.008372
    28 -0.963866 -2.785142 -0.085346 -0.754276 0.267860 0.066915
    29 0.028479 -1.403069 0.006271 -1.364513 0.000000 0.000000
    30 0.021413 -0.957782 0.020047 -0.740299 0.000000 0.000000
    31 1.164475 -2.543938 -0.170328 -0.862922 0.065073 0.386604
    32 0.024033 -1.129041 0.017806 -1.702787 0.000000 0.000001
    33 0.014896 -0.883990 -0.019845 -0.853439 0.000000 0.000000
    34 -0.586770 -1.264475 0.200164 -0.446649 -1.113739 -2.509270
    35 1.522835 0.058681 0.016850 0.627276 -0.441885 0.679144
    36 1.117948 0.048424 -0.005764 -0.016278 0.004644 1.437319
    37 0.040294 -0.221075 0.037835 0.304869 0.045854 1.374124
  time 21
    0 0.000114 5.939355 -3.620358 0.000000 0.000000 -0.000030
    1 -3.017417 -11.087227 -5.484256 0.281888 -4.956635 1.165560
    2 0.096944 -8.450418 -0.009364 0.096598 0.642048 0.577312
    3 1.075543 -2.255324 0.791183 0.071893 3.247513 0.282733
    4 10.750656 -6.659339 0.195888 5.698252 -3.065056 0.234145
    5 -0.071919 -8.498733 -0.104137 -0.258152 0.222587 -0.075897
    6 -0.488517 -2.755600 -0.228261 -1.357801 -0.106290 -0.589872
    7 0.039887 -1.479789 0.029853 -1.595352 0.000000 0.000000
    8 0.028785 -1.075730 -0.023111 -1.484163 0.000000 0.000001
    9 0.250028 -2.820663 -0.238396 -0.722251 -0.118776 -0.316807
    10 -0.049759 -1.680545 0.100480 -1.961265 0.000000 -0.000002
    11 -0.034141 -1.148311 0.084779 -1.153087 0.000000 0.000000
    12 0.957766 -2.746777 -0.090301 -0.676994 -0.284795 -0.028383
    13 -0.033419 -1.397127 -0.011255 -1.501343 0.000000 -0.000001
    14 -0.022360 -0.957435 0.018783 -1.292773 0.000000 0.000000
    15 -1.180680 -2.507215 -0.193861 -1.462149 -0.007908 -0.768149
    16 -0.024966 -1.123933 0.017594 -1.607610 0.000000 0.000001
    17 -0.020057 -0.890966 0.010091 -1.500937 0.000000 0.000000
    18 0.583510 -1.197274 0.185377 0.238697 -0.762273 -0.854339
    19 1.535926 0.010245 0.005008 -0.217536 -0.035534 -0.813088
    20 1.100770 0.004527 -0.010676 -0.013930 0.008303 -0.856956
    21 0.120152 -0.050266 -0.054488 0.287568 3.110905 1.561085
    22 0.447952 -2.798983 -0.200442 -1.180010 0.239647 0.248507
    23 -0.032910 -1.480207 0.004936 -1.668858 0.000000 0.000002
    24 -0.027022 -1.076920 -0.020212 -1.015864 0.000000 0.000000
    25 -0.249534 -2.846962 -0.174216 -1.033989 0.218842 0.164949
    26 0.043235 -1.683940 0.096014 -1.738499 0.002823 -0.000167
    27 0.031730 -1.160831 0.058836 -1.160052 0.000642 0.008372
    28 -0.963866 -2.785142 -0.085346 -0.754276 0.267860 0.066915
    29 0.028479 -1.403069 0.006271 -1.364513 0.000000 0.000000
    30 0.021413 -0.957782 0.020047 -0.740299 0.000000 0.000000
    31 1.164475 -2.543938 -0.170328 -0.862922 0.065073 0.386604
    32 0.024033 -1.129041 0.017806 -1.702787 0.000000 0.000001
    33 0.014896 -0.883990 -0.019845 -0.853439 0.000000 0.000000
    34 -0.586770 -1.264475 0.200164 -0.446649 -1.113739 -2.509270
    35 1.522835 0.058681 0.016850 0.627276 -0.441885 0.679144
    36 1.117948 0.048424 -0.005764 -0.016278 0.004644 1.437277
    37 0.016856 -0.205450 0.037835 0.306954 0.028562 1.430338
  time 22
    0 0.000114 5.939355 -3.620358 0.000000 0.000000 -0.000030
    1 -4.208860 -11.388018 -5.031117 0.085678 -4.914100 0.895187
    2 0.096944 -8.450418 -0.009364 0.070881 0.698345 0.531293
    3 1.075543 -2.255324 0.791183 0.071893 3.247513 0.282733
    4 10.309236 -7.034351 -0.151779 5.781401 -3.056633 0.225162
    5 -0.071919 -8.498733 -0.104137 -0.249424 0.223421 -0.096583
    6 -0.488517 -2.755600 -0.228261 -1.357801 -0.106290 -0.589872
    7 0.039887 -1.479789 0.029853 -1.595352 0.000000 0.000000
    8 0.028785 -1.075730 -0.023111 -1.484163 0.000000 0.000001
    9 0.250028 -2.820663 -0.238396 -0.722251 -0.118776 -0.316807
    10 -0.049759 -1.680545 0.100480 -1.961265 0.000000 -0.000002
    11 -0.034141 -1.148311 0.084779 -1.153087 0.000000 0.000000
    12 0.957766 -2.746777 -0.090301 -0.676994 -0.284795 -0.028383
    13 -0.033419 -1.397127 -0.011255 -1.501343 0.000000 -0.000001
    14 -0.022360 -0.957435 0.018783 -1.292773 0.000000 0.000000
    15 -1.180680 -2.507215 -0.193861 -1.462149 -0.007908 -0.768149
    16 -0.024966 -1.123933 0.017594 -1.607610 0.000000 0.000001
    17 -0.020057 -0.890966 0.010091 -1.500937 0.000000 0.000000
    18 0.583510 -1.197274 0.185377 0.238697 -0.762273 -0.854339
    19 1.535926 0.010245 0.005008 -0.217536 -0.035534 -0.813088
    20 1.100770 0.004527 -0.010676 -0.013930 0.008303 -0.856956
    21 0.120152 -0.050266 -0.054488 0.287568 3.110905 1.561085
    22 0.447952 -2.798983 -0.200442 -1.180010 0.239647 0.248507
    23 -0.032910 -1.480207 0.004936 -1.668858 0.000000 0.000002
    24 -0.027022 -1.076920 -0.020212 -1.015864 0.000000 0.000000
    25 -0.249534 -2.846962 -0.174216 -1.033989 0.218842 0.164949
    26 0.043235 -1.683940 0.096014 -1.738499 0.002823 -0.000167
    27 0.031730 -1.160831 0.058836 -1.160052 0.000642 0.008372
    28 -0.963866 -2.785142 -0.085346 -0.754276 0.267860 0.066915
    29 0.028479 -1.403069 0.006271 -1.364513 0.000000 0.000000
    30 0.021413 -0.957782 0.020047 -0.740299 0.000000 0.000000
    31 1.164475 -2.543938 -0.170328 -0.862922 0.065073 0.386604
    32 0.024033 -1.129041 0.017806 -1.702787 0.000000 0.000001
    33 0.014896 -0.883990 -0.019845 -0.853439 0.000000 0.000000
    34 -0.586770 -1.264475 0.200164 -0.446649 -1.113739 -2.509270
    35 1.522835 0.058681 0.016850 0.627276 -0.441885 0.679144
    36 1.117948 0.048424 -0.005764 -0.016278 0.004644 1.437277
    37 -0.006582 -0.189824 0.033929 0.308057 0.011434 1.486021
  time 23
    0 0.000114 5.939355 -3.620358 0.000000 0.000000 -0.000030
    1 -5.290924 -11.591149 -4.648293 -0.101879 -4.885712 0.635422
    2 0.096944 -8.450418 -0.009364 0.048263 0.732602 0.490141
    3 1.075543 -2.255324 0.791183 0.071893 3.247513 0.282733
    4 9.953757 -7.405456 -0.491633 5.861197 -3.046775 0.213356
    5 -0.071919 -8.498733 -0.104137 -0.238461 0.224824 -0.113385
    6 -0.488517 -2.755600 -0.228261 -1.357801 -0.106290 -0.589872
    7 0.039887 -1.479789 0.029853 -1.595352 0.000000 0.000000
    8 0.028785 -1.075730 -0.023111 -1.484163 0.000000 0.000001
    9 0.250028 -2.820663 -0.238396 -0.722251 -0.118776 -0.316807
    10 -0.049759 -1.680545 0.100480 -1.961265 0.000000 -0.000002
    11 -0.034141 -1.148311 0.084779 -1.153087 0.000000 0.000000
    12 0.957766 -2.746777 -0.090301 -0.676994 -0.284795 -0.028383
    13 -0.033419 -1.397127 -0.011255 -1.501343 0.000000 -0.000001
    14 -0.022360 -0.957435 0.018783 -1.292773 0.000000 0.000000
    15 -1.180680 -2.507215 -0.193861 -1.462149 -0.007908 -0.768149
    16 -0.024966 -1.123933 0.017594 -1.607610 0.000000 0.000001
    17 -0.020057 -0.890966 0.010091 -1.500937 0.000000 0.000000
    18 0.583510 -1.197274 0.185377 0.238697 -0.762273 -0.854339
    19 1.535926 0.010245 0.005008 -0.217536 -0.035534 -0.813088
    20 1.100770 0.004527 -0.010676 -0.013930 0.008303 -0.856956
    21 0.120152 -0.050266 -0.054488 0.287568 3.110905 1.561085
    22 0.447952 -2.798983 -0.200442 -1.180010 0.239647 0.248507
    23 -0.032910 -1.480207 0.004936 -1.668858 0.000000 0.000002
    24 -0.027022 -1.076920 -0.020212 -1.015864 0.000000 0.000000
    25 -0.249534 -2.846962 -0.174216 -1.033989 0.218842 0.164949
    26 0.043235 -1.683940 0.096014 -1.738499 0.002823 -0.000167
    27 0.031730 -1.160831 0.058836 -1.160052 0.000642 0.008372
    28 -0.963866 -2.785142 -0.085346 -0.754276 0.267860 0.066915
    29 0.028479 -1.403069 0.006271 -1.364513 0.000000 0.000000
    30 0.021413 -0.957782 0.020047 -0.740299 0.000000 0.000000
    31 1.164475 -2.543938 -0.170328 -0.862922 0.065073 0.386604
    32 0.024033 -1.129041 0.017806 -1.702787 0.000000 0.000001
    33 0.014896 -0.883990 -0.019845 -0.853439 0.000000 0.000000
    34 -0.586770 -1.264475 0.200164 -0.446649 -1.113739 -2.509270
    35 1.522835 0.058681 0.016850 0.627276 -0.441885 0.679144
    36 1.117948 0.048424 -0.005764 -0.016278 0.004644 1.437319
    37 -0.030021 -0.178105 0.030022 0.308213 -0.005160 1.540178
  time 24
    0 0.000114 5.939355 -3.620358 0.000000 0.000000 -0.000030
    1 -6.228453 -11.665370 -4.370941 -0.276983 -4.873907 0.392764
    2 0.096944 -8.450418 -0.009364 0.031202 0.740671 0.456357
    3 1.075543 -2.255324 0.791183 0.071893 3.247513 0.282733
    4 9.719375 -7.768748 -0.808049 5.934192 -3.034619 0.198095
    5 -0.071919 -8.498733 -0.104137 -0.224638 0.227172 -0.124722
    6 -0.488517 -2.755600 -0.228261 -1.357801 -0.106290 -0.589872
    7 0.039887 -1.479789 0.029853 -1.595352 0.000000 0.000000
    8 0.028785 -1.075730 -0.023111 -1.484163 0.000000 0.000001
    9 0.250028 -2.820663 -0.238396 -0.722251 -0.118776 -0.316807
    10 -0.049759 -1.680545 0.100480 -1.961265 0.000000 -0.000002
    11 -0.034141 -1.148311 0.084779 -1.153087 0.000000 0.000000
    12 0.957766 -2.746777 -0.090301 -0.676994 -0.284795 -0.028383
    13 -0.033419 -1.397127 -0.011255 -1.501343 0.000000 -0.000001
    14 -0.022360 -0.957435 0.018783 -1.292773 0.000000 0.000000
    15 -1.180680 -2.507215 -0.193861 -1.462149 -0.007908 -0.768149
    16 -0.024966 -1.123933 0.017594 -1.607610 0.000000 0.000001
    17 -0.020057 -0.890966 0.010091 -1.500937 0.000000 0.000000
    18 0.583510 -1.197274 0.185377 0.238697 -0.762273 -0.854339
    19 1.535926 0.010245 0.005008 -0.217536 -0.035534 -0.813088
    20 1.100770 0.004527 -0.010676 -0.013930 0.008303 -0.856956
    21 0.120152 -0.050266 -0.054488 0.287568 3.110905 1.561085
    22 0.447952 -2.798983 -0.200442 -1.180010 0.239647 0.248507
    23 -0.032910 -1.480207 0.004936 -1.668858 0.000000 0.000002
    24 -0.027022 -1.076920 -0.020212 -1.015864 0.000000 0.000000
    25 -0.249534 -2.846962 -0.174216 -1.033989 0.218842 0.164949
    26 0.043235 -1.683940 0.096014 -1.738499 0.002823 -0.000167
    27 0.031730 -1.160831 0.058836 -1.160052 0.000642 0.008372
    28 -0.963866 -2.785142 -0.085346 -0.754276 0.267860 0.066915
    29 0.028479 -1.403069 0.006271 -1.364513 0.000000 0.000000
    30 0.021413 -0.957782 0.020047 -0.740299 0.000000 0.000000
    31 1.164475 -2.543938 -0.170328 -0.862922 0.065073 0.386604
    32 0.024033 -1.129041 0.017806 -1.702787 0.000000 0.000001
    33 0.014896 -0.883990 -0.019845 -0.853439 0.000000 0.000000
    34 -0.586770 -1.264475 0.200164 -0.446649 -1.113739 -2.509270
    35 1.522835 0.058681 0.016850 0.627276 -0.441885 0.679144
    36 1.117948 0.048424 -0.005764 -0.016278 0.004644 1.437277
    37 -0.053459 -0.162480 0.026116 0.307530 -0.020892 1.591791
  time 25
    0 0.000114 5.939355 -3.620358 0.000000 0.000000 -0.000030
    1 -6.970663 -11.493490 -4.195154 -0.470730 -4.872783 0.121913
    2 0.096944 -8.450418 -0.009364 0.012857 0.705745 0.420452
    3 1.075543 -2.255324 0.791183 0.071893 3.247513 0.282733
    4 9.629528 -8.120322 -1.089308 5.996841 -3.019401 0.178746
    5 -0.071919 -8.498733 -0.104137 -0.207359 0.230799 -0.129049
    6 -0.488517 -2.755600 -0.228261 -1.357801 -0.106290 -0.589872
    7 0.039887 -1.479789 0.029853 -1.595352 0.000000 0.000000
    8 0.028785 -1.075730 -0.023111 -1.484163 0.000000 0.000001
    9 0.250028 -2.820663 -0.238396 -0.722251 -0.118776 -0.316807
    10 -0.049759 -1.680545 0.100480 -1.961265 0.000000 -0.000002
    11 -0.034141 -1.148311 0.084779 -1.153087 0.000000 0.000000
    12 0.957766 -2.746777 -0.090301 -0.676994 -0.284795 -0.028383
    13 -0.033419 -1.397127 -0.011255 -1.501343 0.000000 -0.000001
    14 -0.022360 -0.957435 0.018783 -1.292773 0.000000 0.000000
    15 -1.180680 -2.507215 -0.193861 -1.462149 -0.007908 -0.768149
    16 -0.024966 -1.123933 0.017594 -1.607610 0.000000 0.000001
    17 -0.020057 -0.890966 0.010091 -1.500937 0.000000 0.000000
    18 0.583510 -1.197274 0.185377 0.238697 -0.762273 -0.854339
    19 1.535926 0.010245 0.005008 -0.217536 -0.035534 -0.813088
    20 1.100770 0.004527 -0.010676 -0.013930 0.008303 -0.856956
    21 0.120152 -0.050266 -0.054488 0.287568 3.110905 1.561085
    22 0.447952 -2.798983 -0.200442 -1.180010 0.239647 0.248507
    23 -0.032910 -1.480207 0.004936 -1.668858 0.000000 0.000002
    24 -0.027022 -1.076920 -0.020212 -1.015864 0.000000 0.000000
    25 -0.249534 -2.846962 -0.174216 -1.033989 0.218842 0.164949
    26 0.043235 -1.683940 0.096014 -1.738499 0.002823 -0.000167
    27 0.031730 -1.160831 0.058836 -1.160052 0.000642 0.008372
    28 -0.963866 -2.785142 -0.085346 -0.754276 0.267860 0.066915
    29 0.028479 -1.403069 0.006271 -1.364513 0.000000 0.000000
    30 0.021413 -0.957782 0.020047 -0.740299 0.000000 0.000000
    31 1.164475 -2.543938 -0.170328 -0.862951 0.065073 0.386604
    32 0.024033 -1.129041 0.017806 -1.702787 0.000000 0.000001
    33 0.014896 -0.883990 -0.019845 -0.853439 0.000000 0.000000
    34 -0.586770 -1.264475 0.200164 -0.446649 -1.113739 -2.509270
    35 1.522835 0.058681 0.016850 0.627276 -0.441885 0.679144
    36 1.117948 0.048424 -0.005764 -0.016278 0.004644 1.437277
    37 -0.072991 -0.150761 0.022210 0.306163 -0.035420 1.639908
  time 26
    0 0.000114 5.939355 -3.620358 0.000000 0.000000 -0.000030
    1 -7.513648 -11.044257 -4.077963 -0.703804 -4.874375 -0.206569
    2 0.096944 -8.450418 -0.009364 -0.016071 0.623867 0.368942
    3 1.075543 -2.255324 0.791183 0.071893 3.247513 0.282733
    4 9.789689 -8.507052 -1.354941 6.050485 -2.997291 0.138088
    5 -0.071919 -8.498733 -0.104137 -0.180228 0.237302 -0.121415
    6 -0.488517 -2.755600 -0.228261 -1.357801 -0.106290 -0.589872
    7 0.039887 -1.479789 0.029853 -1.595352 0.000000 0.000000
    8 0.028785 -1.075730 -0.023111 -1.484163 0.000000 0.000001
    9 0.250028 -2.820663 -0.238396 -0.722251 -0.118776 -0.316807
    10 -0.049759 -1.680545 0.100480 -1.961265 0.000000 -0.000002
    11 -0.034141 -1.148311 0.084779 -1.153087 0.000000 0.000000
    12 0.957766 -2.746777 -0.090301 -0.676994 -0.284795 -0.028383
    13 -0.033419 -1.397127 -0.011255 -1.501343 0.000000 -0.000001
    14 -0.022360 -0.957435 0.018783 -1.292773 0.000000 0.000000
    15 -1.180680 -2.507215 -0.193861 -1.462102 -0.007908 -0.768149
    16 -0.024966 -1.123933 0.017594 -1.607610 0.000000 0.000001
    17 -0.020057 -0.890966 0.010091 -1.500937 0.000000 0.000000
    18 0.583510 -1.197274 0.185377 0.238697 -0.762273 -0.854339
    19 1.535926 0.010245 0.005008 -0.217536 -0.035534 -0.813088
    20 1.100770 0.004527 -0.010676 -0.013930 0.008303 -0.856956
    21 0.120152 -0.050266 -0.054488 0.287568 3.110905 1.561085
    22 0.447952 -2.798983 -0.200442 -1.180010 0.239647 0.248507
    23 -0.032910 -1.480207 0.004936 -1.668858 0.000000 0.000002
    24 -0.027022 -1.076920 -0.020212 -1.015864 0.000000 0.000000
    25 -0.249534 -2.846962 -0.174216 -1.033989 0.218842 0.164949
    26 0.043235 -1.683940 0.096014 -1.738499 0.002823 -0.000167
    27 0.031730 -1.160831 0.058836 -1.160052 0.000642 0.008372
    28 -0.963866 -2.785142 -0.085346 -0.754276 0.267860 0.066915
    29 0.028479 -1.403069 0.006271 -1.364513 0.000000 0.000000
    30 0.021413 -0.957782 0.020047 -0.740299 0.000000 0.000000
    31 1.164475 -2.543938 -0.170328 -0.862922 0.065073 0.386604
    32 0.024033 -1.129041 0.017806 -1.702787 0.000000 0.000001
    33 0.014896 -0.883990 -0.019845 -0.853439 0.000000 0.000000
    34 -0.586770 -1.264475 0.200164 -0.446649 -1.113739 -2.509270
    35 1.522835 0.058681 0.016850 0.627276 -0.441885 0.679144
    36 1.117948 0.048424 -0.005764 -0.016278 0.004644 1.437277
    37 -0.092523 -0.139042 0.018303 0.304318 -0.048444 1.683468
  time 27
    0 0.000114 5.939355 -3.620358 0.000000 0.000000 -0.000030
    1 -7.904285 -10.434864 -4.007649 -0.952707 -4.878217 -0.558179
    2 0.096944 -8.450418 -0.009364 -0.056365 0.510060 0.298211
    3 1.075543 -2.255324 0.791183 0.071893 3.247513 0.282733
    4 10.203764 -8.948472 -1.624480 6.099531 -2.967428 0.065643
    5 -0.071919 -8.498733 -0.104137 -0.141145 0.246960 -0.101161
    6 -0.488517 -2.755600 -0.228261 -1.357801 -0.106290 -0.589872
    7 0.039887 -1.479789 0.029853 -1.595352 0.000000 0.000000
    8 0.028785 -1.075730 -0.023111 -1.484163 0.000000 0.000001
    9 0.250028 -2.820663 -0.238396 -0.722251 -0.118776 -0.316807
    10 -0.049759 -1.680545 0.100480 -1.961265 0.000000 -0.000002
    11 -0.034141 -1.148311 0.084779 -1.153087 0.000000 0.000000
    12 0.957766 -2.746777 -0.090301 -0.676994 -0.284795 -0.028383
    13 -0.033419 -1.397127 -0.011255 -1.501343 0.000000 -0.000001
    14 -0.022360 -0.957435 0.018783 -1.292773 0.000000 0.000000
    15 -1.180680 -2.507215 -0.193861 -1.462149 -0.007908 -0.768149
    16 -0.024966 -1.123933 0.017594 -1.607610 0.000000 0.000001
    17 -0.020057 -0.890966 0.010091 -1.500937 0.000000 0.000000
    18 0.583510 -1.197274 0.185377 0.238697 -0.762273 -0.854339
    19 1.535926 0.010245 0.005008 -0.217536 -0.035534 -0.813088
    20 1.100770 0.004527 -0.010676 -0.013930 0.008303 -0.856956
    21 0.120152 -0.050266 -0.054488 0.287568 3.110905 1.561085
    22 0.447952 -2.798983 -0.200442 -1.180010 0.239647 0.248507
    23 -0.032910 -1.480207 0.004936 -1.668858 0.000000 0.000002
    24 -0.027022 -1.076920 -0.020212 -1.015864 0.000000 0.000000
    25 -0.249534 -2.846962 -0.174216 -1.033989 0.218842 0.164949
    26 0.043235 -1.683940 0.096014 -1.738499 0.002823 -0.000167
    27 0.031730 -1.160831 0.058836 -1.160052 0.000642 0.008372
    28 -0.963866 -2.785142 -0.085346 -0.754276 0.267860 0.066915
    29 0.028479 -1.403069 0.006271 -1.364513 0.000000 0.000000
    30 0.021413 -0.957782 0.020047 -0.740299 0.000000 0.000000
    31 1.164475 -2.543938 -0.170328 -0.862922 0.065073 0.386604
    32 0.024033 -1.129041 0.017806 -1.702787 0.000000 0.000001
    33 0.014896 -0.883990 -0.019845 -0.853439 0.000000 0.000000
    34 -0.586770 -1.264475 0.200164 -0.446649 -1.113739 -2.509270
    35 1.522835 0.058681 0.016850 0.627276 -0.441885 0.679144
    36 1.117948 0.048424 -0.005764 -0.016278 0.004644 1.437277
    37 -0.108148 -0.131229 0.018303 0.302256 -0.059675 1.721475
  time 28
    0 0.000114 5.939355 -3.620358 0.000000 0.000000 -0.000030
    1 -8.181637 -9.766875 -3.968585 -1.190705 -4.883744 -0.895262
    2 0.096944 -8.450418 -0.009364 -0.103806 0.380019 0.210241
    3 1.075543 -2.255324 0.791183 0.071893 3.247513 0.282733
    4 10.766282 -9.409423 -1.897926 6.145225 -2.933929 -0.029032
    5 -0.071919 -8.498733 -0.104137 -0.095922 0.258118 -0.073177
    6 -0.488517 -2.755600 -0.228261 -1.357801 -0.106290 -0.589872
    7 0.039887 -1.479789 0.029853 -1.595352 0.000000 0.000000
    8 0.028785 -1.075730 -0.023111 -1.484163 0.000000 0.000001
    9 0.250028 -2.820663 -0.238396 -0.722251 -0.118776 -0.316807
    10 -0.049759 -1.680545 0.100480 -1.961265 0.000000 -0.000002
    11 -0.034141 -1.148311 0.084779 -1.153087 0.000000 0.000000
    12 0.957766 -2.746777 -0.090301 -0.676994 -0.284795 -0.028383
    13 -0.033419 -1.397127 -0.011255 -1.501343 0.000000 -0.000001
    14 -0.022360 -0.957435 0.018783 -1.292773 0.000000 0.000000
    15 -1.180680 -2.507215 -0.193861 -1.462102 -0.007908 -0.768149
    16 -0.024966 -1.123933 0.017594 -1.607610 0.000000 0.000001
    17 -0.020057 -0.890966 0.010091 -1.500937 0.000000 0.000000
    18 0.583510 -1.197274 0.185377 0.238697 -0.762273 -0.854339
    19 1.535926 0.010245 0.005008 -0.217536 -0.035534 -0.813088
    20 1.100770 0.004527 -0.010676 -0.013930 0.008303 -0.856956
    21 0.120152 -0.050266 -0.054488 0.287568 3.110905 1.561085
    22 0.447952 -2.798983 -0.200442 -1.180010 0.239647 0.248507
    23 -0.032910 -1.480207 0.004936 -1.668858 0.000000 0.000002
    24 -0.027022 -1.076920 -0.020212 -1.015864 0.000000 0.000000
    25 -0.249534 -2.846962 -0.174216 -1.033989 0.218842 0.164949
    26 0.043235 -1.683940 0.096014 -1.738499 0.002823 -0.000167
    27 0.031730 -1.160831 0.058836 -1.160052 0.000642 0.008372
    28 -0.963866 -2.785142 -0.085346 -0.754276 0.267860 0.066915
    29 0.028479 -1.403069 0.006271 -1.364513 0.000000 0.000000
    30 0.021413 -0.957782 0.020047 -0.740299 0.000000 0.000000
    31 1.164475 -2.543938 -0.170328 -0.862922 0.065073 0.386604
    32 0.024033 -1.129041 0.017806 -1.702787 0.000000 0.000001
    33 0.014896 -0.883990 -0.019845 -0.853439 0.000000 0.000000
    34 -0.586770 -1.264475 0.200164 -0.446649 -1.113739 -2.509270
    35 1.522835 0.058681 0.016850 0.627276 -0.441885 0.679144
    36 1.117948 0.048424 -0.005764 -0.016278 0.004644 1.437319
    37 -0.123774 -0.119510 0.014397 0.300231 -0.068855 1.752867
  time 29
    0 0.000114 5.939355 -3.620358 0.000000 0.000000 -0.000030
    1 -8.400394 -9.157481 -3.941240 -1.390784 -4.889834 -1.179589
    2 0.096944 -8.450418 -0.009364 -0.149991 0.249084 0.112469
    3 1.075543 -2.255324 0.791183 0.071893 3.247513 0.282733
    4 11.379582 -9.843030 -2.167466 6.189194 -2.900908 -0.136376
    5 -0.071919 -8.498733 -0.104137 -0.050415 0.269137 -0.042460
    6 -0.488517 -2.755600 -0.228261 -1.357801 -0.106290 -0.589872
    7 0.039887 -1.479789 0.029853 -1.595305 0.000000 0.000000
    8 0.028785 -1.075730 -0.023111 -1.484163 0.000000 0.000001
    9 0.250028 -2.820663 -0.238396 -0.722251 -0.118776 -0.316807
    10 -0.049759 -1.680545 0.100480 -1.961265 0.000000 -0.000002
    11 -0.034141 -1.148311 0.084779 -1.153087 0.000000 0.000000
    12 0.957766 -2.746777 -0.090301 -0.676994 -0.284795 -0.028383
    13 -0.033419 -1.397127 -0.011255 -1.501343 0.000000 -0.000001
    14 -0.022360 -0.957435 0.018783 -1.292773 0.000000 0.000000
    15 -1.180680 -2.507215 -0.193861 -1.462149 -0.007908 -0.768149
    16 -0.024966 -1.123933 0.017594 -1.607610 0.000000 0.000001
    17 -0.020057 -0.890966 0.010091 -1.500937 0.000000 0.000000
    18 0.583510 -1.197274 0.185377 0.238697 -0.762273 -0.854339
    19 1.535926 0.010245 0.005008 -0.217536 -0.035534 -0.813088
    20 1.100770 0.004527 -0.010676 -0.013930 0.008303 -0.856956
    21 0.120152 -0.050266 -0.054488 0.287568 3.110905 1.561085
    22 0.447952 -2.798983 -0.200442 -1.180010 0.239647 0.248507
    23 -0.032910 -1.480207 0.004936 -1.668858 0.000000 0.000002
    24 -0.027022 -1.076920 -0.020212 -1.015864 0.000000 0.000000
    25 -0.249534 -2.846962 -0.174216 -1.033989 0.218842 0.164949
    26 0.043235 -1.683940 0.096014 -1.738499 0.002823 -0.000167
    27 0.031730 -1.160831 0.058836 -1.160052 0.000642 0.008372
    28 -0.963866 -2.785142 -0.085346 -0.754276 0.267860 0.066915
    29 0.028479 -1.403069 0.006271 -1.364513 0.000000 0.000000
    30 0.021413 -0.957782 0.020047 -0.740299 0.000000 0.000000
    31 1.164475 -2.543938 -0.170328 -0.862922 0.065073 0.386604
    32 0.024033 -1.129041 0.017806 -1.702787 0.000000 0.000001
    33 0.014896 -0.883990 -0.019845 -0.853439 0.000000 0.000000
    34 -0.586770 -1.264475 0.200164 -0.446649 -1.113739 -2.509270
    35 1.522835 0.058681 0.016850 0.627276 -0.441885 0.679144
    36 1.117948 0.048424 -0.005764 -0.016278 0.004644 1.437319
    37 -0.131586 -0.115603 0.014397 0.298505 -0.075722 1.776583
  time 30
    0 0.000114 5.939355 -3.620358 0.000000 0.000000 -0.000030
    1 -8.595712 -8.708249 -3.913896 -1.527828 -4.894800 -1.375225
    2 0.096944 -8.450418 -0.009364 -0.184867 0.131642 0.016504
    3 1.075543 -2.255324 0.791183 0.071893 3.247513 0.282733
    4 11.942099 -10.202416 -2.433099 6.232876 -2.872290 -0.246830
    5 -0.071919 -8.498733 -0.104137 -0.010546 0.278573 -0.014069
    6 -0.488517 -2.755600 -0.228261 -1.317315 -0.098236 -0.573213
    7 0.039887 -1.479789 0.029853 -1.563160 0.000000 0.000000
    8 0.028785 -1.075730 -0.023111 -1.452502 0.000000 0.000001
    9 0.250028 -2.820663 -0.238396 -0.704471 -0.113215 -0.306380
    10 -0.049759 -1.680545 0.100480 -1.912534 0.000000 -0.000002
    11 -0.034141 -1.148311 0.084779 -1.133522 0.000000 0.000000
    12 0.957766 -2.746777 -0.090301 -0.653536 -0.278024 -0.026873
    13 -0.033419 -1.397127 -0.011255 -1.461804 0.000000 -0.000001
    14 -0.022360 -0.957435 0.018783 -1.232271 0.000000 0.000000
    15 -1.180680 -2.507215 -0.193861 -1.417635 -0.000525 -0.743276
    16 -0.024966 -1.123933 0.017594 -1.571033 0.000000 0.000001
    17 -0.020057 -0.890966 0.010091 -1.465732 0.000000 0.000000
    18 0.583510 -1.197274 0.185377 0.252669 -0.754020 -0.847192
    19 1.535926 0.010245 0.005008 -0.217692 -0.034228 -0.807151
    20 1.100770 0.004527 -0.010676 -0.013618 0.008806 -0.820693
    21 0.120152 -0.050266 -0.054488 0.287568 3.110905 1.561085
    22 0.447952 -2.798983 -0.200442 -1.180010 0.239647 0.248507
    23 -0.032910 -1.480207 0.004936 -1.668858 0.000000 0.000002
    24 -0.027022 -1.076920 -0.020212 -1.015864 0.000000 0.000000
    25 -0.249534 -2.846962 -0.174216 -1.033989 0.218842 0.164949
    26 0.043235 -1.683940 0.096014 -1.738499 0.002823 -0.000167
    27 0.031730 -1.160831 0.058836 -1.160052 0.000642 0.008372
    28 -0.963866 -2.785142 -0.085346 -0.754276 0.267860 0.066915
    29 0.028479 -1.403069 0.006271 -1.364513 0.000000 0.000000
    30 0.021413 -0.957782 0.020047 -0.740299 0.000000 0.000000
    31 1.164475 -2.543938 -0.170328 -0.862922 0.065073 0.386604
    32 0.024033 -1.129041 0.017806 -1.702787 0.000000 0.000001
    33 0.014896 -0.883990 -0.019845 -0.853439 0.000000 0.000000
    34 -0.586770 -1.264475 0.200164 -0.446649 -1.113739 -2.509270
    35 1.522835 0.058681 0.016850 0.627276 -0.441885 0.679144
    36 1.117948 0.048424 -0.005764 -0.016278 0.004644 1.437319
    37 -0.139399 -0.111697 0.014397 0.297331 -0.080032 1.791582
  time 31
    0 0.000114 5.939355 -3.620358 0.000000 0.000000 -0.000030
    1 -8.818375 -8.536368 -3.867019 -1.578552 -4.896861 -1.447955
    2 0.096944 -8.450418 -0.009364 -0.198577 0.040546 -0.063437
    3 1.075543 -2.255324 0.791183 0.071893 3.247513 0.282733
    4 12.352268 -10.452424 -2.690919 6.277708 -2.852285 -0.350777
    5 -0.071919 -8.498733 -0.104137 0.017764 0.285131 0.006796
    6 -0.488517 -2.755600 -0.228261 -1.212971 -0.077527 -0.530176
    7 0.039887 -1.479789 0.029853 -1.480259 0.000000 0.000000
    8 0.028785 -1.075730 -0.023111 -1.370766 0.000000 0.000001
    9 0.250028 -2.820663 -0.238396 -0.658576 -0.098870 -0.279487
    10 -0.049759 -1.680545 0.100480 -1.786777 0.000000 -0.000002
    11 -0.034141 -1.148311 0.084779 -1.083087 0.000000 0.000000
    12 0.957766 -2.746777 -0.090301 -0.593010 -0.260575 -0.023002
    13 -0.033419 -1.397127 -0.011255 -1.359744 0.000000 -0.000001
    14 -0.022360 -0.957435 0.018783 -1.076367 0.000000 0.000000
    15 -1.180680 -2.507215 -0.193861 -1.303004 0.018386 -0.679087
    16 -0.024966 -1.123933 0.017594 -1.476728 0.000000 0.000001
    17 -0.020057 -0.890966 0.010091 -1.374842 0.000000 0.000000
    18 0.583510 -1.197274 0.185377 0.289103 -0.732627 -0.829145
    19 1.535926 0.010245 0.005008 -0.218075 -0.030836 -0.791899
    20 1.100770 0.004527 -0.010676 -0.012731 0.010041 -0.727107
    21 0.120152 -0.050266 -0.054488 0.287568 3.110905 1.561085
    22 0.447952 -2.798983 -0.200442 -1.180010 0.239647 0.248507
    23 -0.032910 -1.480207 0.004936 -1.668858 0.000000 0.000002
    24 -0.027022 -1.076920 -0.020212 -1.015864 0.000000 0.000000
    25 -0.249534 -2.846962 -0.174216 -1.033989 0.218842 0.164949
    26 0.043235 -1.683940 0.096014 -1.738499 0.002823 -0.000167
    27 0.031730 -1.160831 0.058836 -1.160052 0.000642 0.008372
    28 -0.963866 -2.785142 -0.085346 -0.754276 0.267860 0.066915
    29 0.028479 -1.403069 0.006271 -1.364513 0.000000 0.000000
    30 0.021413 -0.957782 0.020047 -0.740299 0.000000 0.000000
    31 1.164475 -2.543938 -0.170328 -0.862951 0.065073 0.386604
    32 0.024033 -1.129041 0.017806 -1.702787 0.000000 0.000001
    33 0.014896 -0.883990 -0.019845 -0.853439 0.000000 0.000000
    34 -0.586770 -1.264475 0.200164 -0.446649 -1.113739 -2.509270
    35 1.522835 0.058681 0.016850 0.627276 -0.441885 0.679144
    36 1.117948 0.048424 -0.005764 -0.016278 0.004644 1.437277
    37 -0.139399 -0.111697 0.014397 0.296911 -0.081523 1.796803
  time 32
    0 0.000114 5.939355 -3.620358 0.000000 0.000000 -0.000030
    1 -9.025413 -8.536368 -3.800611 -1.578552 -4.896861 -1.447955
    2 0.096944 -8.450418 -0.009364 -0.198661 -0.031285 -0.119536
    3 1.075543 -2.255324 0.791183 0.071893 3.247513 0.282733
    4 12.512429 -10.546177 -2.937020 0.042116 -2.844724 -0.438714
    5 -0.071919 -8.498733 -0.104137 0.028525 0.287591 0.014898
    6 -0.488517 -2.755600 -0.228261 -1.070465 -0.049315 -0.471212
    7 0.039887 -1.479789 0.029853 -1.366906 0.000000 0.000000
    8 0.028785 -1.075730 -0.023111 -1.259003 0.000000 0.000001
    9 0.250028 -2.820663 -0.238396 -0.595838 -0.079263 -0.242706
    10 -0.049759 -1.680545 0.100480 -1.614890 0.000000 -0.000002
    11 -0.034141 -1.148311 0.084779 -1.014102 0.000000 0.000000
    12 0.957766 -2.746777 -0.090301 -0.510213 -0.236701 -0.017729
    13 -0.033419 -1.397127 -0.011255 -1.220226 0.000000 -0.000001
    14 -0.022360 -0.957435 0.018783 -0.863126 0.000000 0.000000
    15 -1.180680 -2.507215 -0.193861 -1.146782 0.044069 -0.591214
    16 -0.024966 -1.123933 0.017594 -1.347739 0.000000 0.000001
    17 -0.020057 -0.890966 0.010091 -1.250549 0.000000 0.000000
    18 0.583510 -1.197274 0.185377 0.339779 -0.703226 -0.805387
    19 1.535926 0.010245 0.005008 -0.218603 -0.026198 -0.771033
    20 1.100770 0.004527 -0.010676 -0.011353 0.011575 -0.599176
    21 0.120152 -0.050266 -0.054488 0.287568 3.110905 1.561085
    22 0.447952 -2.798983 -0.200442 -1.180010 0.239647 0.248507
    23 -0.032910 -1.480207 0.004936 -1.668858 0.000000 0.000002
    24 -0.027022 -1.076920 -0.020212 -1.015864 0.000000 0.000000
    25 -0.249534 -2.846962 -0.174216 -1.033989 0.218842 0.164949
    26 0.043235 -1.683940 0.096014 -1.738499 0.002823 -0.000167
    27 0.031730 -1.160831 0.058836 -1.160052 0.000642 0.008372
    28 -0.963866 -2.785142 -0.085346 -0.754276 0.267860 0.066915
    29 0.028479 -1.403069 0.006271 -1.364513 0.000000 0.000000
    30 0.021413 -0.957782 0.020047 -0.740299 0.000000 0.000000
    31 1.164475 -2.543938 -0.170328 -0.862922 0.065073 0.386604
    32 0.024033 -1.129041 0.017806 -1.702787 0.000000 0.000001
    33 0.014896 -0.883990 -0.019845 -0.853439 0.000000 0.000000
    34 -0.586770 -1.264475 0.200164 -0.446649 -1.113739 -2.509270
    35 1.522835 0.058681 0.016850 0.627276 -0.441885 0.679144
    36 1.117948 0.048424 -0.005764 -0.016278 0.004644 1.437277
    37 -0.139399 -0.111697 0.014397 0.296911 -0.081523 1.796803
  time 33
    0 0.000114 5.939355 -3.620358 0.000000 0.000000 -0.000030
    1 -9.154323 -8.536368 -3.734203 -1.578552 -4.896861 -1.447955
    2 0.096944 -8.450418 -0.009364 -0.198689 -0.096003 -0.156343
    3 1.075543 -2.255324 0.791183 0.071893 3.247513 0.282733
    4 12.422582 -10.546177 -3.202653 0.103136 -2.855731 -0.517206
    5 -0.071919 -8.498733 -0.104137 0.028525 0.287591 0.014898
    6 -0.488517 -2.755600 -0.228261 -0.915491 -0.018695 -0.406843
    7 0.039887 -1.479789 0.029853 -1.243401 0.000000 0.000000
    8 0.028785 -1.075730 -0.023111 -1.137216 0.000000 0.000001
    9 0.250028 -2.820663 -0.238396 -0.527553 -0.057906 -0.202606
    10 -0.049759 -1.680545 0.100480 -1.427524 0.000000 -0.000002
    11 -0.034141 -1.148311 0.084779 -0.938957 0.000000 0.000000
    12 0.957766 -2.746777 -0.090301 -0.420007 -0.210683 -0.012048
    13 -0.033419 -1.397127 -0.011255 -1.068176 0.000000 -0.000001
    14 -0.022360 -0.957435 0.018783 -0.630812 0.000000 0.000000
    15 -1.180680 -2.507215 -0.193861 -0.977121 0.071850 -0.495346
    16 -0.024966 -1.123933 0.017594 -1.207155 0.000000 0.000001
    17 -0.020057 -0.890966 0.010091 -1.115136 0.000000 0.000000
    18 0.583510 -1.197274 0.185377 0.395996 -0.670962 -0.780564
    19 1.535926 0.010245 0.005008 -0.219190 -0.021152 -0.748304
    20 1.100770 0.004527 -0.010676 -0.009627 0.013049 -0.459769
    21 0.120152 -0.050266 -0.054488 0.287568 3.110905 1.561085
    22 0.447952 -2.798983 -0.200442 -1.180010 0.239647 0.248507
    23 -0.032910 -1.480207 0.004936 -1.668858 0.000000 0.000002
    24 -0.027022 -1.076920 -0.020212 -1.015864 0.000000 0.000000
    25 -0.249534 -2.846962 -0.174216 -1.033989 0.218842 0.164949
    26 0.043235 -1.683940 0.096014 -1.738499 0.002823 -0.000167
    27 0.031730 -1.160831 0.058836 -1.160052 0.000642 0.008372
    28 -0.963866 -2.785142 -0.085346 -0.754276 0.267860 0.066915
    29 0.028479 -1.403069 0.006271 -1.364513 0.000000 0.000000
    30 0.021413 -0.957782 0.020047 -0.740299 0.000000 0.000000
    31 1.164475 -2.543938 -0.170328 -0.862922 0.065073 0.386604
    32 0.024033 -1.129041 0.017806 -1.702787 0.000000 0.000001
    33 0.014896 -0.883990 -0.019845 -0.853439 0.000000 0.000000
    34 -0.586770 -1.264475 0.200164 -0.446649 -1.113739 -2.509270
    35 1.522835 0.058681 0.016850 0.627276 -0.441885 0.679144
    36 1.117948 0.048424 -0.005764 -0.016278 0.004644 1.437277
    37 -0.139399 -0.111697 0.014397 0.296911 -0.081523 1.796803
  time 34
    0 0.000114 5.939355 -3.620358 0.000000 0.000000 -0.000030
    1 -9.220731 -8.536368 -3.679514 -1.578552 -4.896861 -1.447955
    2 0.096944 -8.450418 -0.009364 -0.198633 -0.148791 -0.177372
    3 1.075543 -2.255324 0.791183 0.071893 3.247513 0.282733
    4 12.227264 -10.546177 -3.472193 0.173449 -2.879851 -0.590113
    5 -0.071919 -8.498733 -0.104137 0.028525 0.287591 0.014898
    6 -0.488517 -2.755600 -0.228261 -0.773520 0.009301 -0.347663
    7 0.039887 -1.479789 0.029853 -1.130047 0.000000 0.000000
    8 0.028785 -1.075730 -0.023111 -1.025452 0.000000 0.000001
    9 0.250028 -2.820663 -0.238396 -0.464916 -0.038323 -0.165789
    10 -0.049759 -1.680545 0.100480 -1.255576 0.000000 -0.000002
    11 -0.034141 -1.148311 0.084779 -0.870009 0.000000 0.000000
    12 0.957766 -2.746777 -0.090301 -0.337171 -0.186809 -0.006871
    13 -0.033419 -1.397127 -0.011255 -0.928658 0.000000 -0.000001
    14 -0.022360 -0.957435 0.018783 -0.417572 0.000000 0.000000
    15 -1.180680 -2.507215 -0.193861 -0.822031 0.097233 -0.407340
    16 -0.024966 -1.123933 0.017594 -1.078166 0.000000 0.000001
    17 -0.020057 -0.890966 0.010091 -0.990843 0.000000 0.000000
    18 0.583510 -1.197274 0.185377 0.448443 -0.641174 -0.758665
    19 1.535926 0.010245 0.005008 -0.219729 -0.016502 -0.727463
    20 1.100770 0.004527 -0.010676 -0.007889 0.014163 -0.331811
    21 0.120152 -0.050266 -0.054488 0.287568 3.110905 1.561085
    22 0.447952 -2.798983 -0.200442 -1.180010 0.239647 0.248507
    23 -0.032910 -1.480207 0.004936 -1.668858 0.000000 0.000002
    24 -0.027022 -1.076920 -0.020212 -1.015864 0.000000 0.000000
    25 -0.249534 -2.846962 -0.174216 -1.033989 0.218842 0.164949
    26 0.043235 -1.683940 0.096014 -1.738499 0.002823 -0.000167
    27 0.031730 -1.160831 0.058836 -1.160052 0.000642 0.008372
    28 -0.963866 -2.785142 -0.085346 -0.754276 0.267860 0.066915
    29 0.028479 -1.403069 0.006271 -1.364513 0.000000 0.000000
    30 0.021413 -0.957782 0.020047 -0.740299 0.000000 0.000000
    31 1.164475 -2.543938 -0.170328 -0.862922 0.065073 0.386604
    32 0.024033 -1.129041 0.017806 -1.702787 0.000000 0.000001
    33 0.014896 -0.883990 -0.019845 -0.853439 0.000000 0.000000
    34 -0.586770 -1.264475 0.200164 -0.446649 -1.113739 -2.509270
    35 1.522835 0.058681 0.016850 0.627276 -0.441885 0.679144
    36 1.117948 0.048424 -0.005764 -0.016278 0.004644 1.437319
    37 -0.139399 -0.111697 0.014397 0.296911 -0.081523 1.796803
  time 35
    0 0.000114 5.939355 -3.620358 0.000000 0.000000 -0.000030
    1 -9.248076 -8.536368 -3.636544 -1.578552 -4.896861 -1.447955
    2 0.096944 -8.450418 -0.009364 -0.198549 -0.184452 -0.186617
    3 1.075543 -2.255324 0.791183 0.071893 3.247513 0.282733
    4 12.028039 -10.546177 -3.675324 0.231500 -2.903875 -0.643843
    5 -0.071919 -8.498733 -0.104137 0.028525 0.287591 0.014898
    6 -0.488517 -2.755600 -0.228261 -0.669847 0.029735 -0.304351
    7 0.039887 -1.479789 0.029853 -1.047147 0.000000 0.000000
    8 0.028785 -1.075730 -0.023111 -0.943716 0.000000 0.000001
    9 0.250028 -2.820663 -0.238396 -0.419123 -0.024002 -0.138872
    10 -0.049759 -1.680545 0.100480 -1.129880 0.000000 -0.000002
    11 -0.034141 -1.148311 0.084779 -0.819575 0.000000 0.000000
    12 0.957766 -2.746777 -0.090301 -0.276604 -0.169336 -0.003108
    13 -0.033419 -1.397127 -0.011255 -0.826598 0.000000 -0.000001
    14 -0.022360 -0.957435 0.018783 -0.261628 0.000000 0.000000
    15 -1.180680 -2.507215 -0.193861 -0.708908 0.115749 -0.342972
    16 -0.024966 -1.123933 0.017594 -0.983861 0.000000 0.000001
    17 -0.020057 -0.890966 0.010091 -0.899952 0.000000 0.000000
    18 0.583510 -1.197274 0.185377 0.487286 -0.619291 -0.743170
    19 1.535926 0.010245 0.005008 -0.220125 -0.013111 -0.712211
    20 1.100770 0.004527 -0.010676 -0.006535 0.014846 -0.238226
    21 0.120152 -0.050266 -0.054488 0.287568 3.110905 1.561085
    22 0.447952 -2.798983 -0.200442 -1.180010 0.239647 0.248507
    23 -0.032910 -1.480207 0.004936 -1.668858 0.000000 0.000002
    24 -0.027022 -1.076920 -0.020212 -1.015864 0.000000 0.000000
    25 -0.249534 -2.846962 -0.174216 -1.033989 0.218842 0.164949
    26 0.043235 -1.683940 0.096014 -1.738499 0.002823 -0.000167
    27 0.031730 -1.160831 0.058836 -1.160052 0.000642 0.008372
    28 -0.963866 -2.785142 -0.085346 -0.754276 0.267860 0.066915
    29 0.028479 -1.403069 0.006271 -1.364513 0.000000 0.000000
    30 0.021413 -0.957782 0.020047 -0.740299 0.000000 0.000000
    31 1.164475 -2.543938 -0.170328 -0.862922 0.065073 0.386604
    32 0.024033 -1.129041 0.017806 -1.702787 0.000000 0.000001
    33 0.014896 -0.883990 -0.019845 -0.853439 0.000000 0.000000
    34 -0.586770 -1.264475 0.200164 -0.446649 -1.113739 -2.509270
    35 1.522835 0.058681 0.016850 0.627276 -0.441885 0.679144
    36 1.117948 0.048424 -0.005764 -0.016278 0.004644 1.437277
    37 -0.139399 -0.111697 0.014397 0.296911 -0.081523 1.796803
  time 36
    0 0.000114 5.939355 -3.620358 0.000000 0.000000 -0.000030
    1 -9.255889 -8.536368 -3.620918 -1.578552 -4.896861 -1.447955
    2 0.096944 -8.450418 -0.009364 -0.198493 -0.197561 -0.188633
    3 1.075543 -2.255324 0.791183 0.071893 3.247513 0.282733
    4 11.938192 -10.546177 -3.761264 0.255640 -2.914786 -0.664747
    5 -0.071919 -8.498733 -0.104137 0.028525 0.287591 0.014898
    6 -0.488517 -2.755600 -0.228261 -0.629673 0.037645 -0.287536
    7 0.039887 -1.479789 0.029853 -1.015001 0.000000 0.000000
    8 0.028785 -1.075730 -0.023111 -0.912011 0.000000 0.000001
    9 0.250028 -2.820663 -0.238396 -0.401368 -0.018453 -0.128421
    10 -0.049759 -1.680545 0.100480 -1.081089 0.000000 -0.000002
    11 -0.034141 -1.148311 0.084779 -0.800009 0.000000 0.000000
    12 0.957766 -2.746777 -0.090301 -0.253106 -0.162565 -0.001658
    13 -0.033419 -1.397127 -0.011255 -0.787060 0.000000 -0.000001
    14 -0.022360 -0.957435 0.018783 -0.201165 0.000000 0.000000
    15 -1.180680 -2.507215 -0.193861 -0.665149 0.122928 -0.318014
    16 -0.024966 -1.123933 0.017594 -0.947284 0.000000 0.000001
    17 -0.020057 -0.890966 0.010091 -0.864747 0.000000 0.000000
    18 0.583510 -1.197274 0.185377 0.502449 -0.610780 -0.737255
    19 1.535926 0.010245 0.005008 -0.220281 -0.011793 -0.706298
    20 1.100770 0.004527 -0.010676 -0.005984 0.015074 -0.201936
    21 0.120152 -0.050266 -0.054488 0.287568 3.110905 1.561085
    22 0.447952 -2.798983 -0.200442 -1.180010 0.239647 0.248507
    23 -0.032910 -1.480207 0.004936 -1.668858 0.000000 0.000002
    24 -0.027022 -1.076920 -0.020212 -1.015864 0.000000 0.000000
    25 -0.249534 -2.846962 -0.174216 -1.033989 0.218842 0.164949
    26 0.043235 -1.683940 0.096014 -1.738499 0.002823 -0.000167
    27 0.031730 -1.160831 0.058836 -1.160052 0.000642 0.008372
    28 -0.963866 -2.785142 -0.085346 -0.754276 0.267860 0.066915
    29 0.028479 -1.403069 0.006271 -1.364513 0.000000 0.000000
    30 0.021413 -0.957782 0.020047 -0.740299 0.000000 0.000000
    31 1.164475 -2.543938 -0.170328 -0.862922 0.065073 0.386604
    32 0.024033 -1.129041 0.017806 -1.702787 0.000000 0.000001
    33 0.014896 -0.883990 -0.019845 -0.853439 0.000000 0.000000
    34 -0.586770 -1.264475 0.200164 -0.446649 -1.113739 -2.509270
    35 1.522835 0.058681 0.016850 0.627276 -0.441885 0.679144
    36 1.117948 0.048424 -0.005764 -0.016278 0.004644 1.437277
    37 -0.139399 -0.111697 0.014397 0.296911 -0.081523 1.796803
end
