version 1
nodes
  0 "Bone01" -1
  1 "Bone_Lefthand" 0
  2 "NEXON_CSO_M24_Body" 1
  3 "NEXON_CSO_M24_Norishe" 2
  4 "NEXON_CSO_M24_Trigger" 2
  5 "NEXON_CSO_M24_Magazine" 2
  6 "NEXON_CSO_M24_Bullet" 5
  7 "Bone04" -1
  8 "Bone_Righthand" 7
  9 "Bone27" 8
  10 "Bone28" 9
  11 "Bone29" 10
  12 "Bone31" 8
  13 "Bone32" 12
  14 "Bone33" 13
  15 "Bone35" 8
  16 "Bone36" 15
  17 "Bone37" 16
  18 "Bone39" 8
  19 "Bone40" 18
  20 "Bone41" 19
  21 "Bone43" 8
  22 "Bone44" 21
  23 "Bone45" 22
  24 "Bone_Se_Hand-R" 8
  25 "Bone05" 1
  26 "Bone06" 25
  27 "Bone07" 26
  28 "Bone21" 1
  29 "Bone22" 28
  30 "Bone23" 29
  31 "Bone17" 1
  32 "Bone18" 31
  33 "Bone19" 32
  34 "Bone13" 1
  35 "Bone14" 34
  36 "Bone15" 35
  37 "Bone09" 1
  38 "Bone10" 37
  39 "Bone11" 38
  40 "Bone_Se_Hand-L" 1
end
skeleton
  time 0
    0 13.332965 1.618169 -0.232010 0.638327 -1.201745 -1.483226
    1 -0.071918 -8.498731 -0.104136 0.076025 0.361696 -0.462426
    2 1.054752 -2.729689 1.050994 0.643393 1.323936 1.130239
    3 0.016027 -1.766232 1.182266 0.000000 0.000000 0.000000
    4 0.001592 -1.782947 -0.252182 0.000000 0.000000 0.000000
    5 0.002707 -4.151098 0.297608 0.000000 0.000000 0.000000
    6 0.000000 -0.000001 0.652253 -1.570796 0.000000 -1.572542
    7 -0.999543 -2.711683 -6.278347 -0.014189 0.817331 0.019816
    8 0.096946 -8.450419 -0.009363 0.181634 -0.662044 0.151551
    9 -0.586769 -1.264477 0.200164 -0.038359 -0.234500 -2.188560
    10 1.522835 0.058680 0.016850 0.000014 0.000010 0.131637
    11 1.117947 0.048424 -0.005765 0.000000 0.000000 0.104206
    12 -0.963867 -2.785143 -0.085346 0.224855 0.147939 0.084275
    13 0.028478 -1.403067 0.006272 -0.460197 -0.000007 -0.000010
    14 0.021412 -0.957782 0.020047 -0.782818 -0.000003 -0.000008
    15 -0.249534 -2.846963 -0.174215 0.273888 0.031983 0.107404
    16 0.043235 -1.683940 0.096015 -1.794454 -0.002684 -0.000611
    17 0.031729 -1.160830 0.058836 -0.492812 0.000000 0.000000
    18 0.447951 -2.798983 -0.200441 -0.089195 0.052455 0.140994
    19 -0.032909 -1.480207 0.004935 -1.740899 0.000000 0.000000
    20 -0.027023 -1.076921 -0.020212 -0.750447 0.000000 0.000000
    21 1.164474 -2.543939 -0.170327 -0.798863 0.035007 0.072044
    22 0.024033 -1.129040 0.017807 -1.576980 -0.020326 0.095001
    23 0.014896 -0.883992 -0.019846 -1.454058 0.101857 0.002205
    24 -0.123215 -0.116973 0.005845 0.342810 0.033999 1.471402
    25 0.583509 -1.197274 0.185379 -0.316868 -0.934124 -0.591403
    26 1.535926 0.010247 0.005009 -0.077271 -0.063135 -0.992232
    27 1.100770 0.004528 -0.010675 0.000000 0.000000 -0.891047
    28 0.957766 -2.746777 -0.090301 -0.015248 -0.045538 0.176122
    29 -0.033419 -1.397128 -0.011255 -0.349227 0.000000 0.000000
    30 -0.022361 -0.957433 0.018783 -0.811565 0.000000 0.000000
    31 0.250029 -2.820664 -0.238396 -0.763388 0.057277 -0.106688
    32 -0.049759 -1.680544 0.100479 -1.613606 0.000000 0.000000
    33 -0.034141 -1.148311 0.084779 -1.193267 0.000000 0.000000
    34 -0.488517 -2.755600 -0.228261 -0.639569 0.054586 -0.144146
    35 0.039889 -1.479791 0.029854 -1.617533 0.000000 0.000000
    36 0.028785 -1.075733 -0.023110 -0.841832 0.000000 0.000000
    37 -1.180679 -2.507216 -0.193861 -0.260565 0.123427 -0.000527
    38 -0.024967 -1.123934 0.017595 -1.253816 0.000000 0.000000
    39 -0.020058 -0.890965 0.010091 -0.839123 0.000000 0.000000
    40 0.120180 -0.051600 -0.063059 0.012085 -2.987703 1.512552
  time 1
    0 13.332965 1.618169 -0.232010 0.638327 -1.201745 -1.483226
    1 -0.071918 -8.498731 -0.104136 0.076025 0.361696 -0.462426
    2 1.054752 -2.729689 1.050994 0.643393 1.323936 1.130239
    3 0.016027 -1.766232 1.182266 0.000000 0.000000 0.000000
    4 0.001592 -1.782947 -0.252182 0.000000 0.000000 0.000000
    5 0.002707 -4.151098 0.297608 0.000000 0.000000 0.000000
    6 0.000000 -0.000001 0.652253 -1.570796 0.000000 -1.572542
    7 -0.999543 -2.711683 -6.278347 -0.014189 0.817331 0.019816
    8 0.096946 -8.450419 -0.009363 0.181634 -0.662044 0.151551
    9 -0.586769 -1.264477 0.200164 -0.038359 -0.234500 -2.188560
    10 1.522835 0.058680 0.016850 0.000014 0.000010 0.131637
    11 1.117947 0.048424 -0.005765 0.000000 0.000000 0.104206
    12 -0.963867 -2.785143 -0.085346 0.224855 0.147939 0.084275
    13 0.028478 -1.403067 0.006272 -0.460197 -0.000007 -0.000010
    14 0.021412 -0.957782 0.020047 -0.782818 -0.000003 -0.000008
    15 -0.249534 -2.846963 -0.174215 0.273888 0.031983 0.107404
    16 0.043235 -1.683940 0.096015 -1.794454 -0.002684 -0.000611
    17 0.031729 -1.160830 0.058836 -0.492812 0.000000 0.000000
    18 0.447951 -2.798983 -0.200441 -0.089195 0.052455 0.140994
    19 -0.032909 -1.480207 0.004935 -1.740899 0.000000 0.000000
    20 -0.027023 -1.076921 -0.020212 -0.750447 0.000000 0.000000
    21 1.164474 -2.543939 -0.170327 -0.798863 0.035007 0.072044
    22 0.024033 -1.129040 0.017807 -1.576980 -0.020326 0.095001
    23 0.014896 -0.883992 -0.019846 -1.454058 0.101857 0.002205
    24 -0.123215 -0.116973 0.005845 0.342810 0.033999 1.471402
    25 0.583509 -1.197274 0.185379 -0.316868 -0.934124 -0.591403
    26 1.535926 0.010247 0.005009 -0.077271 -0.063135 -0.992232
    27 1.100770 0.004528 -0.010675 0.000000 0.000000 -0.891047
    28 0.957766 -2.746777 -0.090301 -0.015248 -0.045538 0.176122
    29 -0.033419 -1.397128 -0.011255 -0.349227 0.000000 0.000000
    30 -0.022361 -0.957433 0.018783 -0.811565 0.000000 0.000000
    31 0.250029 -2.820664 -0.238396 -0.763388 0.057277 -0.106688
    32 -0.049759 -1.680544 0.100479 -1.613606 0.000000 0.000000
    33 -0.034141 -1.148311 0.084779 -1.193267 0.000000 0.000000
    34 -0.488517 -2.755600 -0.228261 -0.639569 0.054586 -0.144146
    35 0.039889 -1.479791 0.029854 -1.617533 0.000000 0.000000
    36 0.028785 -1.075733 -0.023110 -0.841832 0.000000 0.000000
    37 -1.180679 -2.507216 -0.193861 -0.260565 0.123427 -0.000527
    38 -0.024967 -1.123934 0.017595 -1.253816 0.000000 0.000000
    39 -0.020058 -0.890965 0.010091 -0.839123 0.000000 0.000000
    40 0.120180 -0.051600 -0.063059 0.012085 -2.987703 1.512552
end
