// Created by Crowbar 0.49.0.0

$modelname "weapons/tfa_cso/c_crow5.mdl"

$Include "csonline_gmod.qci"

$bodygroup "weapon"
{
	studio "v_crow5_v_refA"
}
$bodygroup "weapon"
{
	studio "v_crow5_v_refB"
}

$CDMaterials "models\weapons\tfa_cso\crow5"

$attachment 0 "crow5_root" 2.1 0 18
//$attachment 1 "crow5_root" 2 -1 0

$definebone "crow5_root" "" -0.000004 -8.070596 -1.473913 -89.999983 89.999983 0.000000 0.000000 -0.000000 0.000000 -0.000000 0.000000 0.000000
$definebone "light" "crow5_root" 3.247482 -0.000005 -1.130647 0.000000 -0.000057 0.000000 0.000000 -0.000000 0.000000 0.000000 0.000000 0.000000
$definebone "light01" "crow5_root" 3.260927 1.355822 2.192472 -88.358340 -65.264302 126.529761 0.000000 0.000000 0.000000 -0.000000 0.000000 0.000000
$definebone "light02" "crow5_root" 3.261963 1.374206 1.040803 -89.999983 -116.904071 0.000000 0.000000 -0.000000 0.000000 -0.000000 -0.000000 0.000000
$definebone "lightning" "crow5_root" 2.531871 -0.036995 -2.070253 0.000000 -0.000057 0.000000 0.000000 0.000000 0.000000 0.000000 0.000000 0.000000
$definebone "trigger" "crow5_root" 1.073001 -0.000003 4.918042 -0.000036 180.000007 180.000007 0.000000 0.000000 0.000000 -0.000000 0.000000 0.000000
$definebone "reloader" "crow5_root" 2.916357 0.664625 10.775771 -0.000000 89.999983 -174.643226 0.000000 0.000000 0.000000 0.000000 0.000000 0.000000
$definebone "megazine" "crow5_root" 0.661211 -0.000004 -2.641094 -0.000036 180.000007 180.000007 0.000000 0.000000 0.000000 -0.000000 0.000000 0.000000

$sequence "idle" {
	"v_crow5_anims\idle"
	fps 30
	loop
	activity "ACT_VM_IDLE" 1
	snap
}
$sequence "shoot1" {
	"v_crow5_anims\shoot1"
	{ event 5001 0 "#I3 S0.25 R1 F0 P30 T0.01 A1 L0 O0" }
	fps 30
	activity "ACT_VM_PRIMARYATTACK" 1
	snap
}
$sequence "shoot2" {
	"v_crow5_anims\shoot2"
	{ event 5001 0 "#I3 S0.25 R1 F0 P30 T0.01 A1 L0 O0" }
	fps 30
	activity "ACT_VM_PRIMARYATTACK" 1
	snap
}
$sequence "reload_in" {
	"v_crow5_anims\reload_in"
	{ event 5004 1 "CROW5.Reload_In" }
	fps 30
	activity "ACT_VM_RELOAD" 1
	snap
}
$sequence "reload_A" {
	"v_crow5_anims\reload_A"
	{ event 5004 3 "CROW5.Reload_A" }
	activity "ACT_VM_RELOAD_END" 1
	fps 30
}
$sequence "reload_B" {
	"v_crow5_anims\reload_B"
	{ event 5004 16 "CROW5.Reload_B" }
	activity "ACT_VM_RELOAD_END_EMPTY" 1
	fps 30
}
$sequence "draw" {
	"v_crow5_anims\draw"
	{ event 5004 1 "CROW5.Draw" }
	fps 30
	activity "ACT_VM_DRAW" 1
	snap
}
