// Created by Crowbar 0.34.0.0

$ModelName "weapons/tfa_cso/w_x-12.mdl"

$BodyGroup "studio"
{
	studio "v_kronos12_v_kro12_2"
}

$collisionmodel "v_kronos12_v_kro12_2.smd"
{
	$mass 9
}

$CDMaterials "models\weapons\tfa_cso\x-12"

$attachment "0" "root" 0.10 -14.00 0.50 rotate -0 0 -2

$Sequence "idle" {
	"anims\idle.smd"
	fps 30
}