// Created by Crowbar 0.49.0.0

$modelname "weapons/tfa_cso/c_qbb95.mdl"

$bodygroup "hands"
{
	studio "v_qbb95_f_qbb95_Male_hand_Low"
}

$bodygroup "weapon"
{
	studio "v_qbb95_f_qbb95_template"
}

$CDMaterials "models\weapons\tfa_cso\qbb95"

$attachment 0 "Bone_Bullet_Case" 0.519 -19.725 0

$definebone "Bip01 L Forearm" "" 16.807545 0.855629 -10.889944 15.415718 -121.984380 -49.465508 0.000000 0.000002 0.000000 0.000002 -0.000002 0.000000
$definebone "Bip01 L Hand" "Bip01 L Forearm" 10.624589 0.000000 -0.000000 6.910730 22.838959 -110.818530 0.000000 0.000001 0.000000 0.000003 0.000002 0.000000
$definebone "root" "" 0.000000 1.629157 0.541027 -0.000000 0.000000 0.000000 0.000000 0.000000 0.000000 -0.000000 0.000000 0.000000
$definebone "Bone01" "root" 9.310103 0.168160 -0.149879 -0.012834 -89.771431 179.846260 0.000000 -0.000001 0.000000 0.000000 0.000000 -0.000000
$definebone "Bone_Lefthand" "Bone01" -0.071920 -8.498734 -0.104137 16.477756 0.853593 -1.435030 0.000000 -0.000002 0.000000 0.000002 0.000000 -0.000000
$definebone "Bone13" "Bone_Lefthand" -0.488518 -2.755610 -0.228260 0.591988 -15.154156 6.099304 0.000000 0.000000 -0.000000 0.000004 -0.000003 -0.000000
$definebone "Bone14" "Bone13" 0.039887 -1.479792 0.029853 -0.000045 -0.000115 -3.173846 0.000000 0.000000 0.000000 0.000004 0.000000 -0.000001
$definebone "Bone15" "Bone14" 0.028789 -1.075739 -0.023109 0.000009 0.000003 0.120262 0.000000 0.000002 0.000000 0.000003 -0.000001 -0.000001
$definebone "ValveBiped.Bip01_L_Finger32" "Bone15" 0.007988 0.172184 -0.118553 -12.407346 -89.988358 -91.563871 -0.000002 0.000000 0.000000 -0.000001 -0.000002 0.000003
$definebone "ValveBiped.Bip01_L_Finger31" "Bone14" 0.080660 0.135929 -0.203919 -3.792125 -95.270622 -86.334671 0.000000 -0.000000 0.000000 -0.000000 -0.000001 0.000003
$definebone "ValveBiped.Bip01_L_Finger3" "Bone13" 0.117288 -0.155554 -0.604544 -21.460598 -89.909797 -80.958267 0.000000 -0.000001 -0.000000 -0.000002 -0.000002 0.000003
$definebone "Bone17" "Bone_Lefthand" 0.250027 -2.820667 -0.238396 -0.167354 0.483748 2.396453 0.000000 0.000000 0.000000 0.000003 -0.000000 -0.000000
$definebone "Bone18" "Bone17" -0.049760 -1.680544 0.100479 0.000007 -0.000172 1.135946 0.000000 0.000000 0.000000 0.000003 -0.000000 -0.000000
$definebone "Bone19" "Bone18" -0.034142 -1.148319 0.084782 0.000008 -0.000000 -2.298421 -0.000000 0.000000 0.000000 0.000002 -0.000000 -0.000000
$definebone "ValveBiped.Bip01_L_Finger22" "Bone19" -0.018589 0.129953 -0.123721 0.074599 -93.700545 -74.173970 -0.000002 0.000000 0.000000 -0.000001 -0.000000 0.000005
$definebone "ValveBiped.Bip01_L_Finger21" "Bone18" -0.006160 0.170065 -0.110169 -3.935132 -91.513683 -73.343412 0.000002 0.000000 0.000000 -0.000000 0.000000 0.000002
$definebone "ValveBiped.Bip01_L_Finger2" "Bone17" 0.047100 -0.104074 -0.352264 -14.742089 -97.078873 -71.239762 0.000000 0.000000 0.000000 0.000001 0.000000 0.000004
$definebone "Bone21" "Bone_Lefthand" 0.957766 -2.746782 -0.090302 -9.297777 10.975405 -0.986631 0.000000 0.000000 0.000000 0.000003 -0.000001 0.000000
$definebone "Bone22" "Bone21" -0.033419 -1.397133 -0.011256 0.000007 -0.000002 0.798130 0.000000 0.000000 0.000000 0.000003 -0.000002 0.000000
$definebone "Bone23" "Bone22" -0.022361 -0.957438 0.018784 0.000008 -0.000059 0.220302 0.000000 0.000002 0.000000 0.000003 -0.000001 0.000000
$definebone "ValveBiped.Bip01_L_Finger12" "Bone23" -0.022325 0.045422 -0.038284 -7.404340 -96.337818 -64.488946 0.000000 0.000000 0.000000 -0.000002 -0.000003 -0.000005
$definebone "ValveBiped.Bip01_L_Finger11" "Bone22" -0.042900 -0.061275 -0.071212 -3.463760 -90.876781 -64.426928 0.000000 0.000000 -0.000000 -0.000001 -0.000000 -0.000004
$definebone "ValveBiped.Bip01_L_Finger1" "Bone21" 0.063741 -0.109104 -0.248158 -7.208099 -97.035167 -65.478361 0.000000 0.000000 0.000000 -0.000001 -0.000001 -0.000002
$definebone "Bone09" "Bone_Lefthand" -1.180682 -2.507221 -0.193859 0.761757 -27.382341 4.755430 0.000000 0.000002 0.000000 0.000002 0.000002 -0.000001
$definebone "Bone10" "Bone09" -0.024971 -1.123930 0.017596 -0.000161 -0.000394 -1.034996 0.000000 -0.000002 0.000000 0.000003 0.000000 -0.000001
$definebone "Bone11" "Bone10" -0.020051 -0.890970 0.010091 0.000070 0.000225 -3.483476 0.000000 0.000000 0.000000 0.000004 0.000002 -0.000000
$definebone "ValveBiped.Bip01_L_Finger42" "Bone11" -0.011721 0.093267 0.017949 -4.535249 -90.250262 -96.706983 0.000002 0.000000 -0.000000 -0.000000 0.000000 0.000006
$definebone "ValveBiped.Bip01_L_Finger41" "Bone10" 0.048862 -0.085541 0.028626 -1.980662 -94.720812 -98.296935 0.000000 -0.000000 0.000000 0.000003 -0.000000 0.000003
$definebone "ValveBiped.Bip01_L_Finger4" "Bone09" 0.173919 -0.198416 -0.336163 -24.196989 -98.030571 -95.575323 0.000002 0.000000 0.000000 0.000003 0.000000 0.000001
$definebone "Bone05" "Bone_Lefthand" 0.583510 -1.197279 0.185379 -23.203249 -20.872394 9.055594 0.000000 0.000000 0.000000 0.000001 -0.000003 -0.000001
$definebone "Bone06" "Bone05" 1.535928 0.010252 0.005009 -0.743700 0.051111 -0.169826 0.000000 0.000000 0.000000 0.000001 0.000000 -0.000001
$definebone "Bone07" "Bone06" 1.100770 0.004524 -0.010680 0.915185 0.198185 -0.160200 0.000000 0.000000 0.000000 0.000003 0.000002 -0.000001
$definebone "ValveBiped.Bip01_L_Finger02" "Bone07" -0.267709 0.037512 -0.093907 -8.215422 4.495834 166.949127 -0.000000 -0.000002 0.000000 0.000001 -0.000002 -0.000005
$definebone "ValveBiped.Bip01_L_Finger01" "Bone06" -0.029266 0.205410 -0.329287 -14.638281 -10.824148 159.773535 0.000000 0.000000 0.000000 -0.000000 0.000000 -0.000005
$definebone "ValveBiped.Bip01_L_Finger0" "Bone05" 0.204373 0.521055 -0.268577 2.418227 -13.199069 165.393948 0.000000 0.000000 0.000000 -0.000003 0.000005 -0.000003
$definebone "ValveBiped.Bip01_L_Hand" "Bone_Lefthand" 0.195697 -0.010059 -0.293538 8.643816 -95.841461 -76.408849 -0.000002 0.000000 -0.000000 -0.000000 0.000000 0.000002
$definebone "Bone_L_Upper" "Bone01" 1.257181 8.762590 -0.153713 0.153725 -89.771486 -89.986575 0.000000 -0.000000 0.000000 -0.000000 -0.000000 -0.000000
$definebone "ValveBiped.Bip01_L_UpperArm" "Bone_L_Upper" -0.093500 -0.114213 -0.738866 3.541510 0.120092 -90.002620 0.000000 0.000000 0.000000 -0.000000 0.000000 0.000000
$definebone "ValveBiped.Bip01_L_Forearm" "Bone01" 0.010843 0.093624 -0.081439 2.390303 -89.853284 -179.992549 0.000000 0.000000 0.000000 -0.000000 -0.000000 0.000000
$definebone "Bone04" "root" -9.310107 -5.231259 -12.513384 -0.574482 90.226219 -179.714451 0.000000 0.000001 -0.000001 0.000000 0.000000 0.000000
$definebone "Bone_Righthand" "Bone04" 0.096935 -8.450418 -0.009359 -17.068928 -0.267285 -1.888641 -0.000000 0.000002 0.000000 -0.000002 0.000000 -0.000000
$definebone "Bone39" "Bone_Righthand" 0.447956 -2.798988 -0.200437 -0.595646 15.188992 6.099537 0.000001 0.000000 0.000001 -0.000001 0.000000 0.000000
$definebone "Bone40" "Bone39" -0.032910 -1.480202 0.004945 0.000056 -0.000230 -3.174472 0.000000 0.000000 0.000000 -0.000001 0.000002 -0.000001
$definebone "Bone41" "Bone40" -0.027019 -1.076921 -0.020208 -0.000118 -0.000053 0.120033 0.000000 0.000000 0.000001 -0.000002 -0.000001 -0.000001
$definebone "ValveBiped.Bip01_R_Finger32" "Bone41" 0.006927 0.005329 -0.181358 -14.242537 -92.324242 -87.576598 0.000000 -0.000000 0.000000 0.000001 -0.000003 -0.000001
$definebone "ValveBiped.Bip01_R_Finger31" "Bone40" -0.052313 0.038589 -0.230757 -2.487501 -87.577458 -91.243125 0.000000 0.000000 0.000000 -0.000000 -0.000001 0.000000
$definebone "ValveBiped.Bip01_R_Finger3" "Bone39" -0.232601 -0.209656 -0.420669 -9.578309 -82.444619 -98.192939 0.000000 0.000000 0.000000 -0.000000 -0.000000 0.000001
$definebone "Bone35" "Bone_Righthand" -0.249531 -2.846966 -0.174202 -0.007168 -0.481113 2.400922 0.000000 0.000000 0.000000 -0.000004 0.000000 0.000000
$definebone "Bone36" "Bone35" 0.043239 -1.683939 0.096019 0.161800 -0.009454 1.131993 -0.000000 0.000000 -0.000001 -0.000004 0.000000 0.000000
$definebone "Bone37" "Bone36" 0.031729 -1.160826 0.058845 0.036890 0.479623 -2.302316 0.000000 0.000000 0.000000 -0.000005 0.000000 -0.000000
$definebone "ValveBiped.Bip01_R_Finger22" "Bone37" -0.038065 0.069168 -0.159884 3.791720 -90.263314 -104.105628 0.000000 0.000000 0.000000 0.000000 0.000000 -0.000004
$definebone "ValveBiped.Bip01_R_Finger21" "Bone36" -0.025151 0.088764 -0.068835 2.550233 -89.856235 -104.154724 -0.000002 0.000000 0.000000 0.000000 0.000000 -0.000003
$definebone "ValveBiped.Bip01_R_Finger2" "Bone35" -0.102916 -0.186983 -0.272246 -13.347739 -84.360876 -105.062299 0.000000 0.000000 0.000000 -0.000001 -0.000002 -0.000000
$definebone "Bone31" "Bone_Righthand" -0.963863 -2.785145 -0.085340 9.297841 -10.975174 -0.987091 0.000000 0.000000 0.000000 -0.000002 0.000001 0.000000
$definebone "Bone32" "Bone31" 0.028477 -1.403070 0.006276 0.000169 -0.000113 0.798532 0.000000 0.000000 0.000000 -0.000002 0.000002 0.000001
$definebone "Bone33" "Bone32" 0.021413 -0.957781 0.020044 0.000053 0.000062 0.220589 0.000000 0.000000 0.000000 -0.000001 0.000001 0.000001
$definebone "ValveBiped.Bip01_R_Finger12" "Bone33" -0.004241 0.043709 -0.080204 -10.714081 -83.693266 -115.450825 0.000000 0.000000 0.000000 0.000002 0.000002 0.000000
$definebone "ValveBiped.Bip01_R_Finger11" "Bone32" 0.015383 -0.089136 -0.030010 2.082473 -89.875824 -114.940091 0.000000 0.000000 0.000000 -0.000000 0.000001 -0.000002
$definebone "ValveBiped.Bip01_R_Finger1" "Bone31" -0.022610 -0.212357 -0.177905 -6.806801 -87.026276 -110.761962 0.000002 0.000000 -0.000000 0.000001 0.000000 -0.000002
$definebone "Bone43" "Bone_Righthand" 1.164478 -2.543934 -0.170327 -0.761408 27.382452 4.755606 0.000001 0.000000 0.000000 -0.000001 -0.000002 0.000000
$definebone "Bone44" "Bone43" 0.024035 -1.129042 0.017803 0.000229 0.000512 -1.035561 0.000001 0.000000 0.000000 0.000001 -0.000002 0.000001
$definebone "Bone45" "Bone44" 0.014894 -0.883987 -0.019848 -0.000340 -0.000231 -3.483408 0.000001 0.000000 0.000000 0.000001 -0.000002 0.000000
$definebone "ValveBiped.Bip01_R_Finger42" "Bone45" -0.067138 0.063250 -0.010962 -0.831647 -91.691923 -51.521173 -0.000002 -0.000001 -0.000000 -0.000002 0.000001 -0.000003
$definebone "ValveBiped.Bip01_R_Finger41" "Bone44" -0.151180 -0.007393 -0.070065 -6.807828 -80.704430 -52.314540 0.000000 0.000000 0.000000 -0.000002 0.000002 -0.000006
$definebone "ValveBiped.Bip01_R_Finger4" "Bone43" -0.178164 -0.244682 -0.357067 -22.016482 -89.158538 -66.458288 0.000000 0.000000 0.000000 -0.000000 -0.000001 -0.000000
$definebone "Bone27" "Bone_Righthand" -0.586769 -1.264471 0.200167 -23.520785 -161.276860 -8.714114 0.000000 -0.000002 0.000000 -0.000002 0.000000 0.000000
$definebone "Bone28" "Bone27" 1.522835 0.058674 0.016850 0.514569 -2.686029 0.080501 -0.000001 0.000000 0.000001 -0.000001 0.000000 0.000000
$definebone "Bone29" "Bone28" 1.117948 0.048422 -0.005766 -1.443742 3.748169 -0.013923 0.000000 -0.000002 0.000000 -0.000001 0.000000 0.000000
$definebone "ValveBiped.Bip01_R_Finger02" "Bone29" -0.263408 -0.117641 -0.015660 -4.710291 -1.535535 0.002063 -0.000001 0.000000 0.000001 -0.000001 0.000000 -0.000000
$definebone "ValveBiped.Bip01_R_Finger01" "Bone28" 0.007707 -0.334358 -0.191575 -10.402795 16.178259 4.055853 0.000000 0.000000 -0.000000 0.000001 -0.000005 0.000003
$definebone "ValveBiped.Bip01_R_Finger0" "Bone27" 0.225563 -0.567923 -0.420715 -10.530858 12.803302 6.869476 0.000000 0.000000 -0.000000 -0.000003 0.000000 0.000002
$definebone "ValveBiped.Bip01_R_Hand" "Bone_Righthand" -0.203683 -0.095654 -0.328305 4.305320 -86.824997 -99.985549 0.000000 0.000000 -0.000000 -0.000000 0.000000 -0.000000
$definebone "Bone_R_Upper" "Bone04" -1.393460 8.839182 -0.239439 -0.287854 -89.773781 90.573398 0.000000 0.000000 0.000000 0.000000 -0.000000 0.000000
$definebone "ValveBiped.Bip01_R_UpperArm" "Bone_R_Upper" 0.036020 0.082816 -0.692656 3.780892 0.073109 -89.998439 0.000000 0.000000 -0.000001 0.000000 0.000000 -0.000000
$definebone "ValveBiped.Bip01_R_Forearm" "Bone04" -0.088586 0.054021 -0.088593 1.936599 -89.430175 0.586193 -0.000001 0.000000 0.000000 0.000000 -0.000000 -0.000000
$definebone "Bone_Se_Hand-L" "Bone_Lefthand" 0.120153 -0.050270 -0.054489 1.758293 -90.556445 -163.523528 -0.000002 0.000000 -0.000000 0.000000 -0.000000 -0.000002
$definebone "Bone_Magazine" "Bip01 L Hand" -3.317430 0.377445 0.882668 -6.978659 -97.274299 -170.317476 0.000000 0.000000 0.000000 0.000003 0.000004 -0.000005
$definebone "Bone_Magazine_Clip" "Bip01 L Hand" -4.742373 1.584313 -3.939413 -6.978659 -97.274299 -170.317476 0.000000 0.000000 0.000000 0.000003 0.000004 -0.000005
$definebone "Bone_Trigger" "Bip01 L Hand" 6.310610 0.317827 -2.769314 -6.978659 -97.274299 -170.317476 0.000000 0.000000 0.000000 0.000003 0.000004 -0.000005
$definebone "Bone_Bullet_Clip" "Bip01 L Hand" 7.458437 -0.113876 -5.080396 -6.978659 -97.274299 -170.317476 -0.000000 0.000000 0.000000 0.000003 0.000004 -0.000005
$definebone "Bone_Se_Hand-R" "Bone_Righthand" -0.139399 -0.111694 0.014400 -1.796395 90.545264 16.351926 -0.000002 0.000000 -0.000001 -0.000000 -0.000000 0.000000
$definebone "Bip01 L Finger1" "Bip01 L Hand" 2.725985 -0.106125 -1.020464 6.161357 -0.823795 -2.980461 0.000000 0.000000 0.000000 -0.000003 0.000003 0.000005
$definebone "Bip01 L Finger11" "Bip01 L Finger1" 1.397573 0.000002 0.000001 -0.000004 11.090228 0.000003 0.000000 0.000001 0.000001 -0.000004 0.000005 0.000003
$definebone "Bip01 L Finger12" "Bip01 L Finger11" 0.957878 0.000001 0.000001 -0.000007 36.743604 0.000000 -0.000000 -0.000002 0.000000 -0.000007 -0.000008 0.000000
$definebone "Bip01 L ForeTwist2" "Bip01 L Forearm" 2.428477 -0.000002 -0.000000 0.000002 0.000002 -8.500061 0.000000 0.000000 0.000000 0.000007 0.000003 0.000003
$definebone "Bip01 R Forearm" "" -3.748046 -1.690630 -5.367946 0.079928 -142.453815 -80.113086 0.000000 0.000000 0.000000 -0.000002 0.000000 0.000000
$definebone "Bip01 R Hand" "Bip01 R Forearm" 8.499674 0.000000 -0.000000 20.413228 4.623654 125.310053 0.000000 0.000000 0.000000 -0.000002 0.000000 0.000002
$definebone "Bip01 R Finger0" "Bip01 R Hand" 1.066141 0.161471 0.665475 -52.958374 49.924104 -102.311987 -0.000000 0.000001 0.000001 -0.000000 0.000006 -0.000003
$definebone "Bip01 R Finger01" "Bip01 R Finger0" 1.535968 0.000000 0.000001 0.000002 44.522493 -0.000003 0.000001 -0.000000 0.000000 0.000002 -0.000002 -0.000003
$definebone "Bip01 R Finger02" "Bip01 R Finger01" 1.100831 -0.000001 0.000000 0.000003 54.485417 -0.000002 0.000000 0.000000 0.000001 0.000003 -0.000006 -0.000002
$definebone "Bip01 R Finger1" "Bip01 R Hand" 2.725985 -0.106123 1.020464 -7.949846 43.701952 -6.940126 0.000000 0.000000 0.000000 0.000002 0.000000 -0.000003
$definebone "Bip01 R Finger11" "Bip01 R Finger1" 1.397575 0.000001 -0.000001 -0.000000 83.265266 -0.000001 0.000001 0.000000 0.000000 -0.000000 0.000003 -0.000001
$definebone "Bip01 R Finger12" "Bip01 R Finger11" 0.957879 0.000001 0.000000 0.000003 74.162796 -0.000002 0.000000 0.000000 0.000000 0.000003 -0.000002 -0.000002
$definebone "Bip01 R Finger2" "Bip01 R Hand" 2.818702 -0.176451 0.444443 0.010768 61.642526 -4.469987 0.000000 0.000000 -0.000001 -0.000003 0.000000 0.000002
$definebone "Bip01 R Finger21" "Bip01 R Finger2" 1.684282 -0.000003 0.000000 -0.000004 76.501323 -0.000003 0.000000 0.000000 0.000000 -0.000004 0.000002 -0.000003
$definebone "Bip01 R Finger22" "Bip01 R Finger21" 1.151940 0.000000 -0.000001 0.000003 73.613266 -0.000004 0.000000 0.000000 -0.000000 0.000003 -0.000007 -0.000004
$definebone "Bip01 R Finger3" "Bip01 R Hand" 2.804605 -0.069564 -0.290473 2.668893 71.560480 10.148515 -0.000000 0.000000 0.000000 0.000000 -0.000002 0.000000
$definebone "Bip01 R Finger31" "Bip01 R Finger3" 1.480629 0.000001 -0.000000 -0.000000 88.428418 -0.000001 0.000000 -0.000000 0.000000 -0.000000 -0.000001 -0.000001
$definebone "Bip01 R Finger32" "Bip01 R Finger31" 1.076365 -0.000000 0.000000 0.000002 75.348940 0.000000 -0.000001 0.000001 0.000000 0.000002 0.000003 0.000000
$definebone "Bip01 R Finger4" "Bip01 R Hand" 2.637187 0.041571 -0.929336 2.596243 81.074790 23.093872 -0.000000 0.000000 -0.000000 -0.000002 -0.000000 0.000003
$definebone "Bip01 R Finger41" "Bip01 R Finger4" 1.124349 0.000000 0.000000 -0.000003 81.809896 -0.000002 0.000000 0.000000 0.000000 -0.000003 -0.000001 -0.000002
$definebone "Bip01 R Finger42" "Bip01 R Finger41" 0.891248 0.000001 -0.000000 0.000001 70.029719 -0.000005 0.000000 0.000000 0.000000 0.000001 0.000007 -0.000005
$definebone "Bip01 R ForeTwist2" "Bip01 R Forearm" 2.428478 0.000000 0.000000 -0.000002 0.000000 12.428369 0.000000 0.000000 0.000000 -0.000002 0.000000 -0.000002

$sequence "qbb95_idle" {
	"v_qbb95_anims\qbb95_idle"
	fps 16
}
$sequence "qbb95_reload" {
	"v_qbb95_anims\qbb95_reload"
	{ event 5004 19 "Qbb95.ClipOut" }
	{ event 5004 46 "Qbb95.ClipIn" }
	{ event 5004 65 "Qbb95.ClipOn" }
	{ event 5004 87 "Qbb95.Draw" }
	fps 30
	activity "ACT_VM_RELOAD" 1
	snap
}
$sequence "qbb95_draw" {
	"v_qbb95_anims\qbb95_draw"
	{ event 5004 10 "Qbb95.Draw" }
	fps 30
	activity "ACT_VM_DRAW" 1
	snap
}
$sequence "qbb95_shoot1" {
	"v_qbb95_anims\qbb95_shoot1"
	{ event 5001 1 "33" }
	fps 28
	activity "ACT_VM_PRIMARYATTACK" 1
	snap
}
$sequence "qbb95_shoot2" {
	"v_qbb95_anims\qbb95_shoot2"
	{ event 5001 1 "23" }
	fps 28
	activity "ACT_VM_PRIMARYATTACK" 2
	snap
}
$sequence "qbb95_shoot3" {
	"v_qbb95_anims\qbb95_shoot3"
	{ event 5001 1 "23" }
	fps 28
	activity "ACT_VM_PRIMARYATTACK" 3
	snap
}
