"VertexLitGeneric"
{
	$basetexture	"models\weapons\tfa_cso\k1ase\k1r[copyright(c)[2009]nexon&valve_corp_allrightsreserved"
	$bumpmap "models\weapons\tfa_cso\k1ase\k1r[copyright(c)[2009]nexon&valve_corp_allrightsreserved_n"
	$phongexponenttexture "models\weapons\v_models\Request CSO\Dragon TMP S"
	
	$phong "1"
	$phongexponent "20"
	$phongfresnelranges "[0.15 0.65 1.00]"
	$phongalbedotint "1"
	$phongboost "16"
}