version 1
nodes
  0 "root" -1
  1 "Bone01" 0
  2 "Bone_Lefthand" 1
  3 "Bone08" 2
  4 "Bone02" 2
  5 "Bone03" 2
  6 "Bone_L_Upper" 1
  7 "Bone13" 2
  8 "Bone14" 7
  9 "Bone15" 8
  10 "Bone17" 2
  11 "Bone18" 10
  12 "Bone19" 11
  13 "Bone21" 2
  14 "Bone22" 13
  15 "Bone23" 14
  16 "Bone09" 2
  17 "Bone10" 16
  18 "Bone11" 17
  19 "Bone05" 2
  20 "Bone06" 19
  21 "Bone07" 20
  22 "Bone_Se_Hand-L" 2
  23 "Bone04" 0
  24 "Bone_Righthand" 23
  25 "Bone39" 24
  26 "Bone40" 25
  27 "Bone41" 26
  28 "Bone35" 24
  29 "Bone36" 28
  30 "Bone37" 29
  31 "Bone31" 24
  32 "Bone32" 31
  33 "Bone33" 32
  34 "Bone43" 24
  35 "Bone44" 34
  36 "Bone45" 35
  37 "Bone27" 24
  38 "Bone28" 37
  39 "Bone29" 38
  40 "Bone_Se_Hand-R" 24
  41 "Bone_R_Upper" 23
end
skeleton
  time 0
    0 -0.999830 1.628925 -0.458973 0.000000 0.000000 0.000000
    1 9.417420 -3.520732 -8.978951 0.571049 -2.377344 -0.737175
    2 -0.071918 -8.498690 -0.104135 -0.079631 -0.467489 -0.032771
    3 -0.367077 -4.973077 0.078368 -1.438605 2.841959 1.529636
    4 -1.275862 -3.802608 0.295038 -1.503734 2.821615 1.316754
    5 0.419329 -4.144735 0.665399 0.260058 0.247821 -1.442273
    6 7.019075 5.426545 -0.145900 -1.570562 0.002683 -2.392307
    7 -0.488518 -2.755602 -0.228260 -0.986765 -0.191692 -0.143242
    8 0.039887 -1.479790 0.029854 -1.805407 0.000000 0.000001
    9 0.028786 -1.075731 -0.023109 -1.725017 0.000000 0.000000
    10 0.250027 -2.820665 -0.238396 -0.735864 -0.129430 -0.021219
    11 -0.049759 -1.680544 0.100479 -1.772395 0.000000 -0.000002
    12 -0.034142 -1.148312 0.084782 -1.702608 0.000000 0.000000
    13 0.957766 -2.746780 -0.090302 -0.784780 -0.160731 0.153375
    14 -0.033420 -1.397129 -0.011257 -1.636630 0.000000 -0.000001
    15 -0.022360 -0.957436 0.018784 -0.719552 0.000000 0.000000
    16 -1.180681 -2.507217 -0.193859 -1.101203 0.005180 -0.271205
    17 -0.024967 -1.123934 0.017597 -1.581511 0.000000 0.000001
    18 -0.020057 -0.890968 0.010090 -1.526433 0.000000 0.000000
    19 0.583510 -1.197277 0.185379 -0.410821 -0.829647 -0.746251
    20 1.535927 0.010246 0.005009 -0.002964 -0.012979 -1.103614
    21 1.100771 0.004527 -0.010679 -0.015691 0.004072 -1.140203
    22 0.120153 -0.050270 -0.054489 3.153017 0.007985 -1.554369
    23 -9.907782 -8.352449 -7.259317 0.407626 -3.518121 0.795951
    24 0.096944 -8.450418 -0.009365 -0.476067 0.543503 -0.059912
    25 0.447953 -2.798986 -0.200443 0.092888 -0.030314 0.133120
    26 -0.032909 -1.480204 0.004940 -0.578989 0.000000 0.000002
    27 -0.027022 -1.076920 -0.020210 0.075613 0.000000 0.000000
    28 -0.249534 -2.846964 -0.174213 0.310442 -0.047524 0.063236
    29 0.043235 -1.683941 0.096012 -0.656881 0.002823 -0.000167
    30 0.031729 -1.160830 0.058838 -0.003245 0.000642 0.008372
    31 -0.963866 -2.785145 -0.085350 0.555544 0.095917 -0.050449
    32 0.028479 -1.403067 0.006271 -0.250112 0.000000 0.000000
    33 0.021413 -0.957781 0.020046 0.008236 0.000000 0.000000
    34 1.164475 -2.543940 -0.170330 0.007029 -0.014013 0.194755
    35 0.024032 -1.129042 0.017807 -0.674979 0.000000 0.000001
    36 0.014898 -0.883989 -0.019848 0.026445 0.000000 0.000000
    37 -0.586770 -1.264477 0.200161 0.118992 -0.227520 -2.635419
    38 1.522835 0.058681 0.016848 0.001410 0.008985 0.093763
    39 1.117947 0.048424 -0.005766 -0.016135 -0.019290 0.752397
    40 -0.139399 -0.111698 0.014397 -0.237822 -0.064531 1.594985
    41 -1.393470 8.839177 -0.239433 1.580804 -0.005023 -1.566847
  time 1
    0 -0.999830 1.628925 -0.458973 0.000000 0.000000 0.000000
    1 7.030629 -5.845022 -8.893011 0.780314 -2.333646 -1.150525
    2 -0.071918 -8.498690 -0.104135 0.224727 -0.308074 -0.148890
    3 -0.367077 -4.973077 0.078368 -1.438605 2.841959 1.529636
    4 -1.275862 -3.802608 0.295038 -1.503734 2.821615 1.316754
    5 0.419329 -4.144735 0.665399 0.260058 0.247821 -1.442273
    6 7.015168 5.489047 -0.145900 -1.570562 0.002683 -2.388629
    7 -0.488518 -2.755602 -0.228260 -0.883972 -0.191692 -0.143242
    8 0.039887 -1.479790 0.029854 -1.702600 0.000000 0.000001
    9 0.028786 -1.075731 -0.023109 -1.610481 0.000000 0.000000
    10 0.250027 -2.820665 -0.238396 -0.651632 -0.129430 -0.021219
    11 -0.049759 -1.680544 0.100479 -1.669731 0.000000 -0.000002
    12 -0.034142 -1.148312 0.084782 -1.601848 0.000000 0.000000
    13 0.957766 -2.746780 -0.090302 -0.699982 -0.160731 0.153375
    14 -0.033420 -1.397129 -0.011257 -1.527220 0.000000 -0.000001
    15 -0.022360 -0.957436 0.018784 -0.657827 0.000000 0.000000
    16 -1.180681 -2.507217 -0.193859 -1.001965 0.005180 -0.271205
    17 -0.024967 -1.123934 0.017597 -1.482314 0.000000 0.000001
    18 -0.020057 -0.890968 0.010090 -1.427224 0.000000 0.000000
    19 0.583510 -1.197277 0.185379 -0.410821 -0.829647 -0.746251
    20 1.535927 0.010246 0.005009 -0.002964 -0.012979 -1.028143
    21 1.100771 0.004527 -0.010679 -0.014529 0.004971 -1.042929
    22 0.120153 -0.050270 -0.054489 3.153017 0.007985 -1.554369
    23 -9.595272 -7.293823 -6.020998 0.335015 -3.542803 0.471243
    24 0.096944 -8.450418 -0.009365 -0.323357 0.541039 -0.058702
    25 0.447953 -2.798986 -0.200443 0.093366 -0.030314 0.133120
    26 -0.032909 -1.480204 0.004940 -0.524653 0.000000 0.000002
    27 -0.027022 -1.076920 -0.020210 0.129986 0.000000 0.000000
    28 -0.249534 -2.846964 -0.174213 0.353033 -0.047524 0.063236
    29 0.043235 -1.683941 0.096012 -0.584492 0.002823 -0.000167
    30 0.031729 -1.160830 0.058838 0.069176 0.000642 0.008372
    31 -0.963866 -2.785145 -0.085350 0.596570 0.095917 -0.050449
    32 0.028479 -1.403067 0.006271 -0.209074 0.000000 0.000000
    33 0.021413 -0.957781 0.020046 0.049272 0.000000 0.000000
    34 1.164475 -2.543940 -0.170330 0.028189 -0.014013 0.194755
    35 0.024032 -1.129042 0.017807 -0.629476 0.000000 0.000001
    36 0.014898 -0.883989 -0.019848 0.018907 0.000000 0.000000
    37 -0.586770 -1.264477 0.200161 0.118992 -0.227520 -2.635419
    38 1.522835 0.058681 0.016848 0.001410 0.008985 0.093763
    39 1.117947 0.048424 -0.005766 -0.016135 -0.019290 0.752397
    40 -0.139399 -0.111698 0.014397 -0.237822 -0.064531 1.594985
    41 -1.393470 8.839177 -0.239433 1.580804 -0.005023 -1.566847
  time 2
    0 -0.999830 1.628925 -0.458973 0.000000 0.000000 0.000000
    1 4.893845 -8.052120 -8.783633 -2.142298 -0.787781 1.568773
    2 -0.071918 -8.498690 -0.104135 0.497747 -0.124641 -0.207878
    3 -0.367077 -4.973077 0.078368 -1.438605 2.841959 1.529636
    4 -1.275862 -3.802608 0.295038 -1.503734 2.821615 1.316754
    5 0.419329 -4.144735 0.665399 0.260058 0.247821 -1.442273
    6 6.999543 5.657021 -0.145900 -1.570562 0.002683 -2.377821
    7 -0.488518 -2.755602 -0.228260 -0.626974 -0.191692 -0.143242
    8 0.039887 -1.479790 0.029854 -1.445557 0.000000 0.000001
    9 0.028786 -1.075731 -0.023109 -1.324060 0.000000 0.000000
    10 0.250027 -2.820665 -0.238396 -0.440994 -0.129430 -0.021219
    11 -0.049759 -1.680544 0.100479 -1.412934 0.000000 -0.000002
    12 -0.034142 -1.148312 0.084782 -1.350099 0.000000 0.000000
    13 0.957766 -2.746780 -0.090302 -0.487941 -0.160731 0.153375
    14 -0.033420 -1.397129 -0.011257 -1.253697 0.000000 -0.000001
    15 -0.022360 -0.957436 0.018784 -0.503513 0.000000 0.000000
    16 -1.180681 -2.507217 -0.193859 -0.753907 0.005180 -0.271205
    17 -0.024967 -1.123934 0.017597 -1.234248 0.000000 0.000001
    18 -0.020057 -0.890968 0.010090 -1.179202 0.000000 0.000000
    19 0.583510 -1.197277 0.185379 -0.410821 -0.829647 -0.746251
    20 1.535927 0.010246 0.005009 -0.002964 -0.012979 -0.839480
    21 1.100771 0.004527 -0.010679 -0.011641 0.007224 -0.799691
    22 0.120153 -0.050270 -0.054489 3.153017 0.007985 -1.554369
    23 -9.790591 -5.867998 -5.302226 0.256900 -3.545146 0.143116
    24 0.096944 -8.450418 -0.009365 -0.170889 0.538421 -0.057935
    25 0.447953 -2.798986 -0.200443 0.094241 -0.030314 0.133120
    26 -0.032909 -1.480204 0.004940 -0.423681 0.000000 0.000002
    27 -0.027022 -1.076920 -0.020210 0.230933 0.000000 0.000000
    28 -0.249534 -2.846964 -0.174213 0.432144 -0.047524 0.063236
    29 0.043235 -1.683941 0.096012 -0.449967 0.002823 -0.000167
    30 0.031729 -1.160830 0.058838 0.203666 0.000642 0.008372
    31 -0.963866 -2.785145 -0.085350 0.672788 0.095917 -0.050449
    32 0.028479 -1.403067 0.006271 -0.132870 0.000000 0.000000
    33 0.021413 -0.957781 0.020046 0.125482 0.000000 0.000000
    34 1.164475 -2.543940 -0.170330 0.067522 -0.014013 0.194755
    35 0.024032 -1.129042 0.017807 -0.544994 0.000000 0.000001
    36 0.014898 -0.883989 -0.019848 -0.035796 0.000000 0.000000
    37 -0.586770 -1.264477 0.200161 0.118992 -0.227520 -2.635419
    38 1.522835 0.058681 0.016848 0.001410 0.008985 0.093763
    39 1.117947 0.048424 -0.005766 -0.016135 -0.019290 0.752397
    40 -0.139399 -0.111698 0.014397 -0.237822 -0.064531 1.594985
    41 -1.393470 8.839177 -0.239433 1.580804 -0.005023 -1.566847
  time 3
    0 -0.999830 1.628925 -0.458973 0.000000 0.000000 0.000000
    1 3.253170 -10.017024 -8.631285 -2.068869 -0.720807 1.268976
    2 -0.071918 -8.498690 -0.104135 0.572853 -0.040512 -0.188235
    3 -0.367077 -4.973077 0.078368 -1.438605 2.841959 1.529636
    4 -1.275862 -3.802608 0.295038 -1.503734 2.821615 1.316754
    5 0.419329 -4.144735 0.665399 0.260058 0.247821 -1.442273
    6 6.976104 5.903122 -0.141994 -1.570562 0.002683 -2.360137
    7 -0.488518 -2.755602 -0.228260 -0.292873 -0.191692 -0.143242
    8 0.039887 -1.479790 0.029854 -1.111501 0.000000 0.000001
    9 0.028786 -1.075731 -0.023109 -0.951776 0.000000 0.000000
    10 0.250027 -2.820665 -0.238396 -0.167199 -0.129430 -0.021219
    11 -0.049759 -1.680544 0.100479 -1.079124 0.000000 -0.000002
    12 -0.034142 -1.148312 0.084782 -1.022756 0.000000 0.000000
    13 0.957766 -2.746780 -0.090302 -0.212279 -0.160731 0.153375
    14 -0.033420 -1.397129 -0.011257 -0.898066 0.000000 -0.000001
    15 -0.022360 -0.957436 0.018784 -0.302906 0.000000 0.000000
    16 -1.180681 -2.507217 -0.193859 -0.431439 0.005180 -0.271205
    17 -0.024967 -1.123934 0.017597 -0.911797 0.000000 0.000001
    18 -0.020057 -0.890968 0.010090 -0.856705 0.000000 0.000000
    19 0.583510 -1.197277 0.185379 -0.410821 -0.829647 -0.746251
    20 1.535927 0.010246 0.005009 -0.002964 -0.012979 -0.594189
    21 1.100771 0.004527 -0.010679 -0.007865 0.010148 -0.483506
    22 0.120153 -0.050270 -0.054489 3.153017 0.007985 -1.554369
    23 -10.989846 -3.715589 -5.630361 0.153465 -3.669396 -0.039989
    24 0.096944 -8.450418 -0.009365 -0.102544 0.543533 -0.059912
    25 0.447953 -2.798986 -0.200443 0.094679 -0.030314 0.133120
    26 -0.032909 -1.480204 0.004940 -0.369346 0.000000 0.000002
    27 -0.027022 -1.076920 -0.020210 0.285306 0.000000 0.000000
    28 -0.249534 -2.846964 -0.174213 0.474734 -0.047524 0.063236
    29 0.043235 -1.683941 0.096012 -0.377578 0.002823 -0.000167
    30 0.031729 -1.160830 0.058838 0.276086 0.000642 0.008372
    31 -0.963866 -2.785145 -0.085350 0.713845 0.095917 -0.050449
    32 0.028479 -1.403067 0.006271 -0.091832 0.000000 0.000000
    33 0.021413 -0.957781 0.020046 0.166565 0.000000 0.000000
    34 1.164475 -2.543940 -0.170330 0.088640 -0.014013 0.194755
    35 0.024032 -1.129042 0.017807 -0.499491 0.000000 0.000001
    36 0.014898 -0.883989 -0.019848 -0.186005 0.000000 0.000000
    37 -0.586770 -1.264477 0.200161 0.118992 -0.227520 -2.635419
    38 1.522835 0.058681 0.016848 0.001410 0.008985 0.093763
    39 1.117947 0.048424 -0.005766 -0.016135 -0.019290 0.752397
    40 -0.139399 -0.111698 0.014397 -0.237822 -0.064531 1.594985
    41 -1.393470 8.839177 -0.239433 1.580804 -0.005023 -1.566847
  time 4
    0 -0.999830 1.628925 -0.458973 0.000000 0.000000 0.000000
    1 2.089072 -11.642074 -8.412528 3.712128 -0.657120 1.439678
    2 -0.071918 -8.498690 -0.104135 0.286075 -0.114376 -0.061798
    3 -0.367077 -4.973077 0.078368 -1.438605 2.841959 1.529636
    4 -1.275862 -3.802608 0.295038 -1.503734 2.821615 1.316754
    5 0.419329 -4.144735 0.665399 0.260058 0.247821 -1.442273
    6 6.937041 6.196100 -0.141994 -1.570562 0.002683 -2.335826
    7 -0.488518 -2.755602 -0.228260 0.041229 -0.191692 -0.143242
    8 0.039887 -1.479790 0.029854 -0.777392 0.000000 0.000001
    9 0.028786 -1.075731 -0.023109 -0.579440 0.000000 0.000000
    10 0.250027 -2.820665 -0.238396 0.106596 -0.129430 -0.021219
    11 -0.049759 -1.680544 0.100479 -0.745261 0.000000 -0.000002
    12 -0.034142 -1.148312 0.084782 -0.695462 0.000000 0.000000
    13 0.957766 -2.746780 -0.090302 0.063337 -0.160731 0.153375
    14 -0.033420 -1.397129 -0.011257 -0.542485 0.000000 -0.000001
    15 -0.022360 -0.957436 0.018784 -0.102320 0.000000 0.000000
    16 -1.180681 -2.507217 -0.193859 -0.108971 0.005180 -0.271205
    17 -0.024967 -1.123934 0.017597 -0.589345 0.000000 0.000001
    18 -0.020057 -0.890968 0.010090 -0.534254 0.000000 0.000000
    19 0.583510 -1.197277 0.185379 -0.410821 -0.829647 -0.746251
    20 1.535927 0.010246 0.005009 -0.002964 -0.012979 -0.348898
    21 1.100771 0.004527 -0.010679 -0.004102 0.013073 -0.167287
    22 0.120153 -0.050270 -0.054489 3.153017 0.007985 -1.554369
    23 -15.407950 1.136122 -9.013277 -0.019763 -4.222789 0.137228
    24 0.096944 -8.450418 -0.009365 -0.109292 0.556468 -0.064442
    25 0.447953 -2.798986 -0.200443 -0.107168 -0.022273 0.136272
    26 -0.032909 -1.480204 0.004940 -0.574568 0.000000 0.000002
    27 -0.027022 -1.076920 -0.020210 0.016728 0.000000 0.000000
    28 -0.249534 -2.846964 -0.174213 0.231537 -0.038236 0.068174
    29 0.043235 -1.683941 0.096012 -0.622576 0.002823 -0.000167
    30 0.031729 -1.160830 0.058838 0.031094 0.003231 0.004753
    31 -0.963866 -2.785145 -0.085350 0.439892 0.091471 -0.040622
    32 0.028479 -1.403067 0.006271 -0.353602 0.000000 0.000000
    33 0.021413 -0.957781 0.020046 -0.095162 0.000000 0.000000
    34 1.164475 -2.543940 -0.170330 -0.127586 -0.018292 0.193533
    35 0.024032 -1.129042 0.017807 -0.717334 0.000000 0.000001
    36 0.014898 -0.883989 -0.019848 -0.518018 0.000000 0.000000
    37 -0.586770 -1.264477 0.200161 0.161622 -0.303515 -2.625975
    38 1.522835 0.058681 0.016848 0.001410 0.008985 0.209771
    39 1.117947 0.048424 -0.005766 -0.017189 -0.017875 0.823270
    40 -0.139399 -0.111698 0.014397 -0.212083 -0.064531 1.594985
    41 -1.393470 8.839177 -0.239433 1.580804 -0.005023 -1.566847
  time 5
    0 -0.999830 1.628925 -0.458973 0.000000 0.000000 0.000000
    1 1.424989 -13.024928 -8.150801 3.465574 -0.107826 1.489095
    2 -0.071918 -8.498690 -0.104135 -0.218135 -0.205144 0.160912
    3 -0.367077 -4.973077 0.078368 -1.438605 2.841959 1.529636
    4 -1.275862 -3.802608 0.295038 -1.503734 2.821615 1.316754
    5 0.419329 -4.144735 0.665399 0.260058 0.247821 -1.442273
    6 6.882352 6.504703 -0.141994 -1.570562 0.002683 -2.305192
    7 -0.488518 -2.755602 -0.228260 0.298193 -0.191692 -0.143242
    8 0.039887 -1.479790 0.029854 -0.520349 0.000000 0.000001
    9 0.028786 -1.075731 -0.023109 -0.293019 0.000000 0.000000
    10 0.250027 -2.820665 -0.238396 0.317211 -0.129430 -0.021219
    11 -0.049759 -1.680544 0.100479 -0.488518 0.000000 -0.000002
    12 -0.034142 -1.148312 0.084782 -0.443663 0.000000 0.000000
    13 0.957766 -2.746780 -0.090302 0.275377 -0.160731 0.153375
    14 -0.033420 -1.397129 -0.011257 -0.268911 0.000000 -0.000001
    15 -0.022360 -0.957436 0.018784 0.051971 0.000000 0.000000
    16 -1.180681 -2.507217 -0.193859 0.139014 0.005180 -0.271205
    17 -0.024967 -1.123934 0.017597 -0.341280 0.000000 0.000001
    18 -0.020057 -0.890968 0.010090 -0.286187 0.000000 0.000000
    19 0.583510 -1.197277 0.185379 -0.410821 -0.829647 -0.746251
    20 1.535927 0.010246 0.005009 -0.002964 -0.012979 -0.160202
    21 1.100771 0.004527 -0.010679 -0.001226 0.015326 0.075916
    22 0.120153 -0.050270 -0.054489 3.153017 0.007985 -1.554369
    23 -19.255723 4.866705 -12.384474 -0.773617 -4.862865 -0.258234
    24 0.096944 -8.450418 -0.009365 -0.125519 0.571774 -0.070135
    25 0.447953 -2.798986 -0.200443 -0.551325 -0.004571 0.143211
    26 -0.032909 -1.480204 0.004940 -1.026088 0.000000 0.000002
    27 -0.027022 -1.076920 -0.020210 -0.574101 0.000000 0.000000
    28 -0.249534 -2.846964 -0.174213 -0.303484 -0.017826 0.079044
    29 0.043235 -1.683941 0.096012 -1.161511 0.002823 -0.000167
    30 0.031729 -1.160830 0.058838 -0.507821 0.008947 -0.003205
    31 -0.963866 -2.785145 -0.085350 -0.162830 0.081668 -0.019002
    32 0.028479 -1.403067 0.006271 -0.929485 0.000000 0.000000
    33 0.021413 -0.957781 0.020046 -0.671053 0.000000 0.000000
    34 1.164475 -2.543940 -0.170330 -0.603367 -0.027735 0.190872
    35 0.024032 -1.129042 0.017807 -1.196519 0.000000 0.000001
    36 0.014898 -0.883989 -0.019848 -0.969999 0.000000 0.000000
    37 -0.586770 -1.264477 0.200161 0.255414 -0.470676 -2.605194
    38 1.522835 0.058681 0.016848 0.001410 0.008985 0.465020
    39 1.117947 0.048424 -0.005766 -0.019538 -0.014783 0.979218
    40 -0.139399 -0.111698 0.014397 -0.155465 -0.064531 1.594985
    41 -1.393470 8.839177 -0.239433 1.580804 -0.005023 -1.566847
  time 6
    0 -0.999830 1.628925 -0.458973 0.000000 0.000000 0.000000
    1 1.549993 -14.357000 -7.904700 3.343447 0.457910 1.496660
    2 -0.071918 -8.498690 -0.104135 -0.604576 -0.262132 0.330230
    3 110.987884 16.769774 72.232914 -1.438605 2.841959 1.529636
    4 110.079099 17.940243 72.449584 -1.503734 2.821615 1.316754
    5 111.774290 17.598116 72.819945 0.260058 0.247821 -1.442273
    6 6.812037 6.801587 -0.141994 -1.570562 0.002683 -2.268462
    7 -0.488518 -2.755602 -0.228260 0.400986 -0.191692 -0.143242
    8 0.039887 -1.479790 0.029854 -0.417595 0.000000 0.000001
    9 0.028786 -1.075731 -0.023109 -0.178482 0.000000 0.000000
    10 0.250027 -2.820665 -0.238396 0.401467 -0.129430 -0.021219
    11 -0.049759 -1.680544 0.100479 -0.385799 0.000000 -0.000002
    12 -0.034142 -1.148312 0.084782 -0.342954 0.000000 0.000000
    13 0.957766 -2.746780 -0.090302 0.360198 -0.160731 0.153375
    14 -0.033420 -1.397129 -0.011257 -0.159502 0.000000 -0.000001
    15 -0.022360 -0.957436 0.018784 0.113697 0.000000 0.000000
    16 -1.180681 -2.507217 -0.193859 0.238252 0.005180 -0.271205
    17 -0.024967 -1.123934 0.017597 -0.242082 0.000000 0.000001
    18 -0.020057 -0.890968 0.010090 -0.186978 0.000000 0.000000
    19 0.583510 -1.197277 0.185379 -0.410821 -0.829647 -0.746251
    20 1.535927 0.010246 0.005009 -0.002964 -0.012979 -0.084731
    21 1.100771 0.004527 -0.010679 -0.000064 0.016213 0.173190
    22 0.120153 -0.050270 -0.054489 3.153017 0.007985 -1.554369
    23 -19.154158 4.269030 -12.849332 -0.541560 -5.164914 0.080150
    24 0.096944 -8.450418 -0.009365 -0.149952 0.588774 -0.077086
    25 0.447953 -2.798986 -0.200443 -0.995443 0.013142 0.150150
    26 -0.032909 -1.480204 0.004940 -1.477607 0.000000 0.000002
    27 -0.027022 -1.076920 -0.020210 -1.164973 0.000000 0.000000
    28 -0.249534 -2.846964 -0.174213 -0.838539 0.002584 0.089914
    29 0.043235 -1.683941 0.096012 -1.700507 0.002823 -0.000167
    30 0.031729 -1.160830 0.058838 -1.046812 0.014652 -0.011175
    31 -0.963866 -2.785145 -0.085350 -0.765552 0.071864 0.002618
    32 0.028479 -1.403067 0.006271 -1.505367 0.000000 0.000000
    33 0.021413 -0.957781 0.020046 -1.246944 0.000000 0.000000
    34 1.164475 -2.543940 -0.170330 -1.079191 -0.037167 0.188211
    35 0.024032 -1.129042 0.017807 -1.675761 0.000000 0.000001
    36 0.014898 -0.883989 -0.019848 -1.368405 0.000000 0.000000
    37 -0.586770 -1.264477 0.200161 0.349207 -0.637849 -2.584424
    38 1.522835 0.058681 0.016848 0.001410 0.008985 0.720268
    39 1.117947 0.048424 -0.005766 -0.021887 -0.011679 1.135132
    40 -0.139399 -0.111698 0.014397 -0.098846 -0.064531 1.594985
    41 -1.393470 8.839177 -0.239433 1.580804 -0.005023 -1.566847
  time 7
    0 -0.999830 1.628925 -0.458973 0.000000 0.000000 0.000000
    1 5.710276 -15.513285 -7.756258 0.524269 -3.740630 -1.171411
    2 -0.071918 -8.498690 -0.104135 -0.572878 -0.497448 0.269109
    3 47.579699 73.341813 -52.470111 -1.438605 2.841959 1.529636
    4 46.670914 74.512282 -52.253441 -1.503734 2.821615 1.316754
    5 48.366105 74.170155 -51.883080 0.260058 0.247821 -1.442273
    6 6.347179 7.223475 -0.141994 -1.570562 0.002683 -2.190366
    7 -0.488518 -2.755602 -0.228260 0.400986 -0.191692 -0.143242
    8 0.039887 -1.479790 0.029854 -0.417595 0.000000 0.000001
    9 0.028786 -1.075731 -0.023109 -0.178482 0.000000 0.000000
    10 0.250027 -2.820665 -0.238396 0.401467 -0.129430 -0.021219
    11 -0.049759 -1.680544 0.100479 -0.385799 0.000000 -0.000002
    12 -0.034142 -1.148312 0.084782 -0.342954 0.000000 0.000000
    13 0.957766 -2.746780 -0.090302 0.360198 -0.160731 0.153375
    14 -0.033420 -1.397129 -0.011257 -0.159502 0.000000 -0.000001
    15 -0.022360 -0.957436 0.018784 0.113697 0.000000 0.000000
    16 -1.180681 -2.507217 -0.193859 0.238252 0.005180 -0.271205
    17 -0.024967 -1.123934 0.017597 -0.242082 0.000000 0.000001
    18 -0.020057 -0.890968 0.010090 -0.186978 0.000000 0.000000
    19 0.583510 -1.197277 0.185379 -0.410821 -0.829647 -0.746251
    20 1.535927 0.010246 0.005009 -0.002964 -0.012979 -0.084731
    21 1.100771 0.004527 -0.010679 -0.000064 0.016213 0.173190
    22 0.120153 -0.050270 -0.054489 3.153017 0.007985 -1.554369
    23 -17.927558 2.362722 -12.564167 -0.540635 -5.412159 0.135424
    24 0.096944 -8.450418 -0.009365 -0.181395 0.606698 -0.085355
    25 0.447953 -2.798986 -0.200443 -1.197289 0.021183 0.153302
    26 -0.032909 -1.480204 0.004940 -1.682829 0.000000 0.000002
    27 -0.027022 -1.076920 -0.020210 -1.433551 0.000000 0.000000
    28 -0.249534 -2.846964 -0.174213 -1.081737 0.011860 0.094863
    29 0.043235 -1.683941 0.096012 -1.945445 0.002823 -0.000167
    30 0.031729 -1.160830 0.058838 -1.291805 0.017253 -0.014794
    31 -0.963866 -2.785145 -0.085350 -1.039536 0.067406 0.012434
    32 0.028479 -1.403067 0.006271 -1.767083 0.000000 0.000000
    33 0.021413 -0.957781 0.020046 -1.508671 0.000000 0.000000
    34 1.164475 -2.543940 -0.170330 -1.295417 -0.041458 0.187001
    35 0.024032 -1.129042 0.017807 -1.893604 0.000000 0.000001
    36 0.014898 -0.883989 -0.019848 -1.539782 0.000000 0.000000
    37 -0.586770 -1.264477 0.200161 0.391853 -0.713831 -2.574980
    38 1.522835 0.058681 0.016848 0.001410 0.008985 0.836303
    39 1.117947 0.048424 -0.005766 -0.022954 -0.010265 1.206005
    40 -0.139399 -0.111698 0.014397 -0.073107 -0.064531 1.594985
    41 -1.393470 8.839177 -0.239433 1.580804 -0.005023 -1.566847
  time 8
    0 -0.999830 1.628925 -0.458973 0.000000 0.000000 0.000000
    1 11.284665 -12.813984 -7.717194 0.725289 -3.349685 0.154567
    2 -0.071918 -8.498690 -0.104135 -0.324884 -0.751564 0.050941
    3 47.579699 73.341813 -52.470111 -1.438605 2.841959 1.529636
    4 46.670914 74.512282 -52.253441 -1.503734 2.821615 1.316754
    5 48.366105 74.170155 -51.883080 0.260058 0.247821 -1.442273
    6 5.573718 7.719584 -0.138088 -1.570562 0.002683 -2.086926
    7 -0.488518 -2.755602 -0.228260 0.400986 -0.191692 -0.143242
    8 0.039887 -1.479790 0.029854 -0.417595 0.000000 0.000001
    9 0.028786 -1.075731 -0.023109 -0.178482 0.000000 0.000000
    10 0.250027 -2.820665 -0.238396 0.401467 -0.129430 -0.021219
    11 -0.049759 -1.680544 0.100479 -0.385799 0.000000 -0.000002
    12 -0.034142 -1.148312 0.084782 -0.342954 0.000000 0.000000
    13 0.957766 -2.746780 -0.090302 0.360198 -0.160731 0.153375
    14 -0.033420 -1.397129 -0.011257 -0.159502 0.000000 -0.000001
    15 -0.022360 -0.957436 0.018784 0.113697 0.000000 0.000000
    16 -1.180681 -2.507217 -0.193859 0.238252 0.005180 -0.271205
    17 -0.024967 -1.123934 0.017597 -0.242082 0.000000 0.000001
    18 -0.020057 -0.890968 0.010090 -0.186978 0.000000 0.000000
    19 0.583510 -1.197277 0.185379 -0.410821 -0.829647 -0.746251
    20 1.535927 0.010246 0.005009 -0.002964 -0.012979 -0.084731
    21 1.100771 0.004527 -0.010679 -0.000064 0.016213 0.173190
    22 0.120153 -0.050270 -0.054489 3.153017 0.007985 -1.554369
    23 -16.400167 0.163436 -12.005556 -0.550939 -5.602006 0.150049
    24 0.096944 -8.450418 -0.009365 -0.218558 0.624930 -0.094919
    25 0.447953 -2.798986 -0.200443 -1.180857 0.020524 0.153050
    26 -0.032909 -1.480204 0.004940 -1.668774 0.000000 0.000002
    27 -0.027022 -1.076920 -0.020210 -1.414361 0.000000 0.000000
    28 -0.249534 -2.846964 -0.174213 -1.064008 0.011105 0.094456
    29 0.043235 -1.683941 0.096012 -1.929072 0.002823 -0.000167
    30 0.031729 -1.160830 0.058838 -1.275380 0.017037 -0.014507
    31 -0.963866 -2.785145 -0.085350 -1.019195 0.067766 0.011643
    32 0.028479 -1.403067 0.006271 -1.747787 0.000000 0.000000
    33 0.021413 -0.957781 0.020046 -1.489376 0.000000 0.000000
    34 1.164475 -2.543940 -0.170330 -1.278842 -0.041110 0.187097
    35 0.024032 -1.129042 0.017807 -1.878036 0.000000 0.000001
    36 0.014898 -0.883989 -0.019848 -1.519787 0.000000 0.000000
    37 -0.586770 -1.264477 0.200161 0.388367 -0.707635 -2.575747
    38 1.522835 0.058681 0.016848 0.001410 0.008985 0.826842
    39 1.117947 0.048424 -0.005766 -0.022858 -0.010385 1.200227
    40 -0.139399 -0.111698 0.014397 -0.075215 -0.064531 1.594985
    41 -1.393470 8.839177 -0.239433 1.580804 -0.005023 -1.566847
  time 9
    0 -0.999830 1.628925 -0.458973 0.000000 0.000000 0.000000
    1 14.804304 -10.294376 -7.928138 0.431667 -3.099872 1.006017
    2 -0.071918 -8.498690 -0.104135 -0.324884 -0.751564 0.050941
    3 -26.063174 77.384905 -5.003818 -1.438605 2.841959 1.529636
    4 -26.971959 78.555374 -4.787148 -1.503734 2.821615 1.316754
    5 -25.276768 78.213247 -4.416787 0.260058 0.247821 -1.442273
    6 5.163549 7.953966 -0.138088 -1.570562 0.002683 -2.035282
    7 -0.488518 -2.755602 -0.228260 0.400986 -0.191692 -0.143242
    8 0.039887 -1.479790 0.029854 -0.417595 0.000000 0.000001
    9 0.028786 -1.075731 -0.023109 -0.178482 0.000000 0.000000
    10 0.250027 -2.820665 -0.238396 0.401467 -0.129430 -0.021219
    11 -0.049759 -1.680544 0.100479 -0.385799 0.000000 -0.000002
    12 -0.034142 -1.148312 0.084782 -0.342954 0.000000 0.000000
    13 0.957766 -2.746780 -0.090302 0.360198 -0.160731 0.153375
    14 -0.033420 -1.397129 -0.011257 -0.159502 0.000000 -0.000001
    15 -0.022360 -0.957436 0.018784 0.113697 0.000000 0.000000
    16 -1.180681 -2.507217 -0.193859 0.238252 0.005180 -0.271205
    17 -0.024967 -1.123934 0.017597 -0.242082 0.000000 0.000001
    18 -0.020057 -0.890968 0.010090 -0.186978 0.000000 0.000000
    19 0.583510 -1.197277 0.185379 -0.410821 -0.829647 -0.746251
    20 1.535927 0.010246 0.005009 -0.002964 -0.012979 -0.084731
    21 1.100771 0.004527 -0.010679 -0.000064 0.016213 0.173190
    22 0.120153 -0.050270 -0.054489 3.153017 0.007985 -1.554369
    23 -15.384511 -1.313172 -11.653983 -0.559834 -5.737803 0.163250
    24 0.096944 -8.450418 -0.009365 -0.260096 0.642793 -0.105657
    25 0.447953 -2.798986 -0.200443 -1.134623 0.018679 0.152319
    26 -0.032909 -1.480204 0.004940 -1.629239 0.000000 0.000002
    27 -0.027022 -1.076920 -0.020210 -1.360251 0.000000 0.000000
    28 -0.249534 -2.846964 -0.174213 -1.014113 0.008971 0.093317
    29 0.043235 -1.683941 0.096012 -1.882831 0.002823 -0.000167
    30 0.031729 -1.160830 0.058838 -1.229163 0.016450 -0.013668
    31 -0.963866 -2.785145 -0.085350 -0.962008 0.068784 0.009378
    32 0.028479 -1.403067 0.006271 -1.693378 0.000000 0.000000
    33 0.021413 -0.957781 0.020046 -1.435000 0.000000 0.000000
    34 1.164475 -2.543940 -0.170330 -1.232148 -0.040127 0.187373
    35 0.024032 -1.129042 0.017807 -1.834364 0.000000 0.000001
    36 0.014898 -0.883989 -0.019848 -1.463639 0.000000 0.000000
    37 -0.586770 -1.264477 0.200161 0.378589 -0.690197 -2.577917
    38 1.522835 0.058681 0.016848 0.001410 0.008985 0.800212
    39 1.117947 0.048424 -0.005766 -0.022618 -0.010709 1.183971
    40 -0.139399 -0.111698 0.014397 -0.081107 -0.064531 1.594985
    41 -1.393470 8.839177 -0.239433 1.580804 -0.005023 -1.566847
  time 10
    0 -0.999830 1.628925 -0.458973 0.000000 0.000000 0.000000
    1 14.933214 -9.329503 -8.498468 0.276756 -3.061366 1.090464
    2 -0.071918 -8.498690 -0.104135 -0.297339 -0.725064 0.037986
    3 -99.706046 81.431904 42.458568 -1.438605 2.841959 1.529636
    4 -100.614831 82.602373 42.675238 -1.503734 2.821615 1.316754
    5 -98.919640 82.260246 43.045599 0.260058 0.247821 -1.442273
    6 5.214332 7.883652 -0.141994 -1.570562 0.002683 -2.045284
    7 -0.488518 -2.755602 -0.228260 0.362151 -0.191692 -0.143242
    8 0.039887 -1.479790 0.029854 -0.456422 0.000000 0.000001
    9 0.028786 -1.075731 -0.023109 -0.221756 0.000000 0.000000
    10 0.250027 -2.820665 -0.238396 0.369616 -0.129430 -0.021219
    11 -0.049759 -1.680544 0.100479 -0.424578 0.000000 -0.000002
    12 -0.034142 -1.148312 0.084782 -0.381005 0.000000 0.000000
    13 0.957766 -2.746780 -0.090302 0.328130 -0.160731 0.153375
    14 -0.033420 -1.397129 -0.011257 -0.200858 0.000000 -0.000001
    15 -0.022360 -0.957436 0.018784 0.090362 0.000000 0.000000
    16 -1.180681 -2.507217 -0.193859 0.200740 0.005180 -0.271205
    17 -0.024967 -1.123934 0.017597 -0.279586 0.000000 0.000001
    18 -0.020057 -0.890968 0.010090 -0.224505 0.000000 0.000000
    19 0.583510 -1.197277 0.185379 -0.410821 -0.829647 -0.746251
    20 1.535927 0.010246 0.005009 -0.002964 -0.012979 -0.113247
    21 1.100771 0.004527 -0.010679 -0.000507 0.015877 0.136438
    22 0.120153 -0.050270 -0.054489 3.153017 0.007985 -1.554369
    23 -15.204818 -1.645213 -11.669608 -0.554418 -5.829589 0.192881
    24 0.096944 -8.450418 -0.009365 -0.304569 0.659608 -0.117318
    25 0.447953 -2.798986 -0.200443 -1.063123 0.015826 0.151204
    26 -0.032909 -1.480204 0.004940 -1.568050 0.000000 0.000002
    27 -0.027022 -1.076920 -0.020210 -1.276610 0.000000 0.000000
    28 -0.249534 -2.846964 -0.174213 -0.936957 0.005688 0.091567
    29 0.043235 -1.683941 0.096012 -1.811461 0.002823 -0.000167
    30 0.031729 -1.160830 0.058838 -1.157773 0.015527 -0.012385
    31 -0.963866 -2.785145 -0.085350 -0.873623 0.070366 0.005902
    32 0.028479 -1.403067 0.006271 -1.609347 0.000000 0.000000
    33 0.021413 -0.957781 0.020046 -1.350942 0.000000 0.000000
    34 1.164475 -2.543940 -0.170330 -1.159960 -0.038605 0.187804
    35 0.024032 -1.129042 0.017807 -1.766825 0.000000 0.000001
    36 0.014898 -0.883989 -0.019848 -1.376890 0.000000 0.000000
    37 -0.586770 -1.264477 0.200161 0.363466 -0.663256 -2.581260
    38 1.522835 0.058681 0.016848 0.001410 0.008985 0.759054
    39 1.117947 0.048424 -0.005766 -0.022235 -0.011212 1.158838
    40 -0.139399 -0.111698 0.014397 -0.090240 -0.064531 1.594985
    41 -1.393470 8.839177 -0.239433 1.580804 -0.005023 -1.566847
  time 11
    0 -0.999830 1.628925 -0.458973 0.000000 0.000000 0.000000
    1 14.741802 -8.438851 -9.166457 0.121461 -3.032984 1.120394
    2 -0.071918 -8.498690 -0.104135 -0.268492 -0.695831 0.025270
    3 -96.299692 78.466969 41.005398 -1.438605 2.841959 1.529636
    4 -97.208477 79.637438 41.222068 -1.503734 2.821615 1.316754
    5 -95.513286 79.295311 41.592429 0.260058 0.247821 -1.442273
    6 5.354961 7.692240 -0.141994 -1.570562 0.002683 -2.072416
    7 -0.488518 -2.755602 -0.228260 0.256656 -0.191692 -0.143242
    8 0.039887 -1.479790 0.029854 -0.561899 0.000000 0.000001
    9 0.028786 -1.075731 -0.023109 -0.339297 0.000000 0.000000
    10 0.250027 -2.820665 -0.238396 0.283177 -0.129430 -0.021219
    11 -0.049759 -1.680544 0.100479 -0.529977 0.000000 -0.000002
    12 -0.034142 -1.148312 0.084782 -0.484353 0.000000 0.000000
    13 0.957766 -2.746780 -0.090302 0.241107 -0.160731 0.153375
    14 -0.033420 -1.397129 -0.011257 -0.313139 0.000000 -0.000001
    15 -0.022360 -0.957436 0.018784 0.027047 0.000000 0.000000
    16 -1.180681 -2.507217 -0.193859 0.098936 0.005180 -0.271205
    17 -0.024967 -1.123934 0.017597 -0.381360 0.000000 0.000001
    18 -0.020057 -0.890968 0.010090 -0.326309 0.000000 0.000000
    19 0.583510 -1.197277 0.185379 -0.410821 -0.829647 -0.746251
    20 1.535927 0.010246 0.005009 -0.002964 -0.012979 -0.190708
    21 1.100771 0.004527 -0.010679 -0.001693 0.014954 0.036616
    22 0.120153 -0.050270 -0.054489 3.153017 0.007985 -1.554369
    23 -15.392324 -1.430363 -11.790706 -0.536892 -5.873264 0.219663
    24 0.096944 -8.450418 -0.009365 -0.350369 0.674822 -0.129483
    25 0.447953 -2.798986 -0.200443 -0.971013 0.012147 0.149766
    26 -0.032909 -1.480204 0.004940 -1.489229 0.000000 0.000002
    27 -0.027022 -1.076920 -0.020210 -1.168828 0.000000 0.000000
    28 -0.249534 -2.846964 -0.174213 -0.837545 0.001445 0.089314
    29 0.043235 -1.683941 0.096012 -1.719459 0.002823 -0.000167
    30 0.031729 -1.160830 0.058838 -1.065758 0.014340 -0.010731
    31 -0.963866 -2.785145 -0.085350 -0.759718 0.072404 0.001408
    32 0.028479 -1.403067 0.006271 -1.501019 0.000000 0.000000
    33 0.021413 -0.957781 0.020046 -1.242605 0.000000 0.000000
    34 1.164475 -2.543940 -0.170330 -1.066991 -0.036640 0.188355
    35 0.024032 -1.129042 0.017807 -1.679825 0.000000 0.000001
    36 0.014898 -0.883989 -0.019848 -1.265046 0.000000 0.000000
    37 -0.586770 -1.264477 0.200161 0.343977 -0.628525 -2.585575
    38 1.522835 0.058681 0.016848 0.001410 0.008985 0.706037
    39 1.117947 0.048424 -0.005766 -0.021755 -0.011847 1.126465
    40 -0.139399 -0.111698 0.014397 -0.102007 -0.064531 1.594985
    41 -1.393470 8.839177 -0.239433 1.580804 -0.005023 -1.566847
  time 12
    0 -0.999830 1.628925 -0.458973 0.000000 0.000000 0.000000
    1 14.296476 -7.614607 -9.904761 -0.025494 -3.002612 1.102880
    2 -0.071918 -8.498690 -0.104135 -0.239285 -0.664701 0.013333
    3 -87.170507 70.525321 37.110748 -1.438605 2.841959 1.529636
    4 -88.079292 71.695790 37.327418 -1.503734 2.821615 1.316754
    5 -86.384101 71.353663 37.697779 0.260058 0.247821 -1.442273
    6 5.565905 7.410981 -0.141994 -1.570562 0.002683 -2.112396
    7 -0.488518 -2.755602 -0.228260 0.101249 -0.191692 -0.143242
    8 0.039887 -1.479790 0.029854 -0.717311 0.000000 0.000001
    9 0.028786 -1.075731 -0.023109 -0.512552 0.000000 0.000000
    10 0.250027 -2.820665 -0.238396 0.155796 -0.129430 -0.021219
    11 -0.049759 -1.680544 0.100479 -0.685314 0.000000 -0.000002
    12 -0.034142 -1.148312 0.084782 -0.636609 0.000000 0.000000
    13 0.957766 -2.746780 -0.090302 0.112880 -0.160731 0.153375
    14 -0.033420 -1.397129 -0.011257 -0.478562 0.000000 -0.000001
    15 -0.022360 -0.957436 0.018784 -0.066269 0.000000 0.000000
    16 -1.180681 -2.507217 -0.193859 -0.051040 0.005180 -0.271205
    17 -0.024967 -1.123934 0.017597 -0.531373 0.000000 0.000001
    18 -0.020057 -0.890968 0.010090 -0.476330 0.000000 0.000000
    19 0.583510 -1.197277 0.185379 -0.410821 -0.829647 -0.746251
    20 1.535927 0.010246 0.005009 -0.002964 -0.012979 -0.304808
    21 1.100771 0.004527 -0.010679 -0.003431 0.013600 -0.110465
    22 0.120153 -0.050270 -0.054489 3.153017 0.007985 -1.554369
    23 -15.572017 -1.156917 -11.841488 -0.529187 -5.849084 0.219379
    24 0.096944 -8.450418 -0.009365 -0.395852 0.687941 -0.141587
    25 0.447953 -2.798986 -0.200443 -0.862828 0.007833 0.148064
    26 -0.032909 -1.480204 0.004940 -1.396650 0.000000 0.000002
    27 -0.027022 -1.076920 -0.020210 -1.042294 0.000000 0.000000
    28 -0.249534 -2.846964 -0.174213 -0.720815 -0.003529 0.086666
    29 0.043235 -1.683941 0.096012 -1.611384 0.002823 -0.000167
    30 0.031729 -1.160830 0.058838 -0.957700 0.012950 -0.008790
    31 -0.963866 -2.785145 -0.085350 -0.625970 0.074800 -0.003865
    32 0.028479 -1.403067 0.006271 -1.373830 0.000000 0.000000
    33 0.021413 -0.957781 0.020046 -1.115388 0.000000 0.000000
    34 1.164475 -2.543940 -0.170330 -0.957743 -0.034339 0.189002
    35 0.024032 -1.129042 0.017807 -1.577658 0.000000 0.000001
    36 0.014898 -0.883989 -0.019848 -1.133703 0.000000 0.000000
    37 -0.586770 -1.264477 0.200161 0.321102 -0.587753 -2.590644
    38 1.522835 0.058681 0.016848 0.001410 0.008985 0.643775
    39 1.117947 0.048424 -0.005766 -0.021180 -0.012602 1.088417
    40 -0.139399 -0.111698 0.014397 -0.115819 -0.064531 1.594985
    41 -1.393470 8.839177 -0.239433 1.580804 -0.005023 -1.566847
  time 13
    0 -0.999830 1.628925 -0.458973 0.000000 0.000000 0.000000
    1 13.659737 -6.852865 -10.670409 -0.158741 -2.961424 1.047213
    2 -0.071918 -8.498690 -0.104135 -0.210521 -0.632511 0.002559
    3 -73.951354 59.028876 31.469951 -1.438605 2.841959 1.529636
    4 -74.860139 60.199345 31.686621 -1.503734 2.821615 1.316754
    5 -73.164948 59.857218 32.056982 0.260058 0.247821 -1.442273
    6 5.815913 7.063314 -0.141994 -1.570562 0.002683 -2.160941
    7 -0.488518 -2.755602 -0.228260 -0.087487 -0.191692 -0.143242
    8 0.039887 -1.479790 0.029854 -0.906101 0.000000 0.000001
    9 0.028786 -1.075731 -0.023109 -0.722861 0.000000 0.000000
    10 0.250027 -2.820665 -0.238396 0.001146 -0.129430 -0.021219
    11 -0.049759 -1.680544 0.100479 -0.873851 0.000000 -0.000002
    12 -0.034142 -1.148312 0.084782 -0.821539 0.000000 0.000000
    13 0.957766 -2.746780 -0.090302 -0.042824 -0.160731 0.153375
    14 -0.033420 -1.397129 -0.011257 -0.679449 0.000000 -0.000001
    15 -0.022360 -0.957436 0.018784 -0.179587 0.000000 0.000000
    16 -1.180681 -2.507217 -0.193859 -0.233217 0.005180 -0.271205
    17 -0.024967 -1.123934 0.017597 -0.713545 0.000000 0.000001
    18 -0.020057 -0.890968 0.010090 -0.658466 0.000000 0.000000
    19 0.583510 -1.197277 0.185379 -0.410821 -0.829647 -0.746251
    20 1.535927 0.010246 0.005009 -0.002964 -0.012979 -0.443381
    21 1.100771 0.004527 -0.010679 -0.005552 0.011946 -0.289098
    22 0.120153 -0.050270 -0.054489 3.153017 0.007985 -1.554369
    23 -15.384511 -1.313172 -11.653983 -0.559834 -5.737803 0.163250
    24 0.096944 -8.450418 -0.009365 -0.439203 0.698474 -0.152900
    25 0.447953 -2.798986 -0.200443 -0.743145 0.003051 0.146195
    26 -0.032909 -1.480204 0.004940 -1.294287 0.000000 0.000002
    27 -0.027022 -1.076920 -0.020210 -0.902309 0.000000 0.000000
    28 -0.249534 -2.846964 -0.174213 -0.591672 -0.009030 0.083730
    29 0.043235 -1.683941 0.096012 -1.491914 0.002823 -0.000167
    30 0.031729 -1.160830 0.058838 -0.838221 0.011404 -0.006645
    31 -0.963866 -2.785145 -0.085350 -0.478058 0.077437 -0.009702
    32 0.028479 -1.403067 0.006271 -1.233162 0.000000 0.000000
    33 0.021413 -0.957781 0.020046 -0.974739 0.000000 0.000000
    34 1.164475 -2.543940 -0.170330 -0.836967 -0.031798 0.189722
    35 0.024032 -1.129042 0.017807 -1.464615 0.000000 0.000001
    36 0.014898 -0.883989 -0.019848 -0.988459 0.000000 0.000000
    37 -0.586770 -1.264477 0.200161 0.295803 -0.542643 -2.596253
    38 1.522835 0.058681 0.016848 0.001410 0.008985 0.574909
    39 1.117947 0.048424 -0.005766 -0.020545 -0.013441 1.046332
    40 -0.139399 -0.111698 0.014397 -0.131083 -0.064531 1.594985
    41 -1.393470 8.839177 -0.239433 1.580804 -0.005023 -1.566847
  time 14
    0 -0.999830 1.628925 -0.458973 0.000000 0.000000 0.000000
    1 12.894089 -6.153625 -11.432151 -0.273774 -2.905006 0.963671
    2 -0.071918 -8.498690 -0.104135 -0.182893 -0.600154 -0.006825
    3 -58.279001 45.399554 24.786153 -1.438605 2.841959 1.529636
    4 -59.187786 46.570023 25.002823 -1.503734 2.821615 1.316754
    5 -57.492595 46.227896 25.373184 0.260058 0.247821 -1.442273
    6 6.089359 6.692209 -0.141994 -1.570562 0.002683 -2.213795
    7 -0.488518 -2.755602 -0.228260 -0.292873 -0.191692 -0.143242
    8 0.039887 -1.479790 0.029854 -1.111501 0.000000 0.000001
    9 0.028786 -1.075731 -0.023109 -0.951776 0.000000 0.000000
    10 0.250027 -2.820665 -0.238396 -0.167199 -0.129430 -0.021219
    11 -0.049759 -1.680544 0.100479 -1.079124 0.000000 -0.000002
    12 -0.034142 -1.148312 0.084782 -1.022756 0.000000 0.000000
    13 0.957766 -2.746780 -0.090302 -0.212279 -0.160731 0.153375
    14 -0.033420 -1.397129 -0.011257 -0.898066 0.000000 -0.000001
    15 -0.022360 -0.957436 0.018784 -0.302906 0.000000 0.000000
    16 -1.180681 -2.507217 -0.193859 -0.431439 0.005180 -0.271205
    17 -0.024967 -1.123934 0.017597 -0.911797 0.000000 0.000001
    18 -0.020057 -0.890968 0.010090 -0.856705 0.000000 0.000000
    19 0.583510 -1.197277 0.185379 -0.410821 -0.829647 -0.746251
    20 1.535927 0.010246 0.005009 -0.002964 -0.012979 -0.594189
    21 1.100771 0.004527 -0.010679 -0.007865 0.010148 -0.483506
    22 0.120153 -0.050270 -0.054489 3.153017 0.007985 -1.554369
    23 -14.767305 -1.969442 -11.196937 -0.663489 -5.545278 0.020318
    24 0.096944 -8.450418 -0.009365 -0.478535 0.706050 -0.162620
    25 0.447953 -2.798986 -0.200443 -0.616618 -0.001995 0.144217
    26 -0.032909 -1.480204 0.004940 -1.186064 0.000000 0.000002
    27 -0.027022 -1.076920 -0.020210 -0.754307 0.000000 0.000000
    28 -0.249534 -2.846964 -0.174213 -0.455157 -0.014854 0.080626
    29 0.043235 -1.683941 0.096012 -1.365546 0.002823 -0.000167
    30 0.031729 -1.160830 0.058838 -0.711829 0.009774 -0.004368
    31 -0.963866 -2.785145 -0.085350 -0.321630 0.080241 -0.015862
    32 0.028479 -1.403067 0.006271 -1.084340 0.000000 0.000000
    33 0.021413 -0.957781 0.020046 -0.825966 0.000000 0.000000
    34 1.164475 -2.543940 -0.170330 -0.709209 -0.029102 0.190489
    35 0.024032 -1.129042 0.017807 -1.345105 0.000000 0.000001
    36 0.014898 -0.883989 -0.019848 -0.834820 0.000000 0.000000
    37 -0.586770 -1.264477 0.200161 0.269043 -0.494956 -2.602173
    38 1.522835 0.058681 0.016848 0.001410 0.008985 0.502107
    39 1.117947 0.048424 -0.005766 -0.019874 -0.014328 1.001845
    40 -0.139399 -0.111698 0.014397 -0.147242 -0.064531 1.594985
    41 -1.393470 8.839177 -0.239433 1.580804 -0.005023 -1.566847
  time 15
    0 -0.999830 1.628925 -0.458973 0.000000 0.000000 0.000000
    1 12.065939 -5.516887 -12.147017 -0.367431 -2.833186 0.861957
    2 -0.071918 -8.498690 -0.104135 -0.156925 -0.568494 -0.014734
    3 -41.790216 31.055366 17.750782 -1.438605 2.841959 1.529636
    4 -42.699001 32.225835 17.967452 -1.503734 2.821615 1.316754
    5 -41.003810 31.883708 18.337813 0.260058 0.247821 -1.442273
    6 6.366711 6.317198 -0.145900 -1.570562 0.002683 -2.266623
    7 -0.488518 -2.755602 -0.228260 -0.498258 -0.191692 -0.143242
    8 0.039887 -1.479790 0.029854 -1.316848 0.000000 0.000001
    9 0.028786 -1.075731 -0.023109 -1.180639 0.000000 0.000000
    10 0.250027 -2.820665 -0.238396 -0.335520 -0.129430 -0.021219
    11 -0.049759 -1.680544 0.100479 -1.284344 0.000000 -0.000002
    12 -0.034142 -1.148312 0.084782 -1.223972 0.000000 0.000000
    13 0.957766 -2.746780 -0.090302 -0.381757 -0.160731 0.153375
    14 -0.033420 -1.397129 -0.011257 -1.116683 0.000000 -0.000001
    15 -0.022360 -0.957436 0.018784 -0.426224 0.000000 0.000000
    16 -1.180681 -2.507217 -0.193859 -0.629698 0.005180 -0.271205
    17 -0.024967 -1.123934 0.017597 -1.110049 0.000000 0.000001
    18 -0.020057 -0.890968 0.010090 -1.054945 0.000000 0.000000
    19 0.583510 -1.197277 0.185379 -0.410821 -0.829647 -0.746251
    20 1.535927 0.010246 0.005009 -0.002964 -0.012979 -0.744964
    21 1.100771 0.004527 -0.010679 -0.010190 0.008351 -0.677880
    22 0.120153 -0.050270 -0.054489 3.153017 0.007985 -1.554369
    23 -13.962593 -2.809311 -10.610982 -0.903119 -5.322297 -0.266021
    24 0.096944 -8.450418 -0.009365 -0.511904 0.710392 -0.169883
    25 0.447953 -2.798986 -0.200443 -0.487783 -0.007148 0.142204
    26 -0.032909 -1.480204 0.004940 -1.075804 0.000000 0.000002
    27 -0.027022 -1.076920 -0.020210 -0.603587 0.000000 0.000000
    28 -0.249534 -2.846964 -0.174213 -0.316138 -0.020786 0.077474
    29 0.043235 -1.683941 0.096012 -1.236840 0.002823 -0.000167
    30 0.031729 -1.160830 0.058838 -0.583183 0.008120 -0.002055
    31 -0.963866 -2.785145 -0.085350 -0.162331 0.083082 -0.022142
    32 0.028479 -1.403067 0.006271 -0.932909 0.000000 0.000000
    33 0.021413 -0.957781 0.020046 -0.674469 0.000000 0.000000
    34 1.164475 -2.543940 -0.170330 -0.579179 -0.026357 0.191256
    35 0.024032 -1.129042 0.017807 -1.223420 0.000000 0.000001
    36 0.014898 -0.883989 -0.019848 -0.678427 0.000000 0.000000
    37 -0.586770 -1.264477 0.200161 0.241802 -0.446395 -2.608214
    38 1.522835 0.058681 0.016848 0.001410 0.008985 0.427959
    39 1.117947 0.048424 -0.005766 -0.019203 -0.015227 0.956557
    40 -0.139399 -0.111698 0.014397 -0.163688 -0.064531 1.594985
    41 -1.393470 8.839177 -0.239433 1.580804 -0.005023 -1.566847
  time 16
    0 -0.999830 1.628925 -0.458973 0.000000 0.000000 0.000000
    1 11.241695 -4.938744 -12.779849 -0.437313 -2.749251 0.751034
    2 -0.071918 -8.498690 -0.104135 -0.133172 -0.538508 -0.021182
    3 -26.121769 17.426044 11.063078 -1.438605 2.841959 1.529636
    4 -27.030554 18.596513 11.279748 -1.503734 2.821615 1.316754
    5 -25.335363 18.254386 11.650109 0.260058 0.247821 -1.442273
    6 6.616719 5.973437 -0.145900 -1.570562 0.002683 -2.315168
    7 -0.488518 -2.755602 -0.228260 -0.687028 -0.191692 -0.143242
    8 0.039887 -1.479790 0.029854 -1.505638 0.000000 0.000001
    9 0.028786 -1.075731 -0.023109 -1.391000 0.000000 0.000000
    10 0.250027 -2.820665 -0.238396 -0.490194 -0.129430 -0.021219
    11 -0.049759 -1.680544 0.100479 -1.472880 0.000000 -0.000002
    12 -0.034142 -1.148312 0.084782 -1.408902 0.000000 0.000000
    13 0.957766 -2.746780 -0.090302 -0.537461 -0.160731 0.153375
    14 -0.033420 -1.397129 -0.011257 -1.317569 0.000000 -0.000001
    15 -0.022360 -0.957436 0.018784 -0.539564 0.000000 0.000000
    16 -1.180681 -2.507217 -0.193859 -0.811874 0.005180 -0.271205
    17 -0.024967 -1.123934 0.017597 -1.292221 0.000000 0.000001
    18 -0.020057 -0.890968 0.010090 -1.237126 0.000000 0.000000
    19 0.583510 -1.197277 0.185379 -0.410821 -0.829647 -0.746251
    20 1.535927 0.010246 0.005009 -0.002964 -0.012979 -0.883536
    21 1.100771 0.004527 -0.010679 -0.012312 0.006697 -0.856513
    22 0.120153 -0.050270 -0.054489 3.153017 0.007985 -1.554369
    23 -13.048503 -3.762465 -9.942993 -1.437862 -5.165081 -0.850286
    24 0.096944 -8.450418 -0.009365 -0.537402 0.711224 -0.173849
    25 0.447953 -2.798986 -0.200443 -0.361256 -0.012182 0.140227
    26 -0.032909 -1.480204 0.004940 -0.967580 0.000000 0.000002
    27 -0.027022 -1.076920 -0.020210 -0.455584 0.000000 0.000000
    28 -0.249534 -2.846964 -0.174213 -0.179588 -0.026611 0.074370
    29 0.043235 -1.683941 0.096012 -1.110473 0.002823 -0.000167
    30 0.031729 -1.160830 0.058838 -0.456791 0.006490 0.000222
    31 -0.963866 -2.785145 -0.085350 -0.005933 0.085886 -0.028314
    32 0.028479 -1.403067 0.006271 -0.784087 0.000000 0.000000
    33 0.021413 -0.957781 0.020046 -0.525696 0.000000 0.000000
    34 1.164475 -2.543940 -0.170330 -0.451420 -0.023673 0.192023
    35 0.024032 -1.129042 0.017807 -1.103910 0.000000 0.000001
    36 0.014898 -0.883989 -0.019848 -0.524833 0.000000 0.000000
    37 -0.586770 -1.264477 0.200161 0.215042 -0.398708 -2.614146
    38 1.522835 0.058681 0.016848 0.001410 0.008985 0.355130
    39 1.117947 0.048424 -0.005766 -0.018531 -0.016114 0.912070
    40 -0.139399 -0.111698 0.014397 -0.179846 -0.064531 1.594985
    41 -1.393470 8.839177 -0.239433 1.580804 -0.005023 -1.566847
  time 17
    0 -0.999830 1.628925 -0.458973 0.000000 0.000000 0.000000
    1 10.479953 -4.415290 -13.295489 -0.483518 -2.659087 0.639371
    2 -0.071918 -8.498690 -0.104135 -0.112077 -0.511060 -0.026240
    3 -12.902616 5.929600 5.426187 -1.438605 2.841959 1.529636
    4 -13.811401 7.100068 5.642857 -1.503734 2.821615 1.316754
    5 -12.116210 6.757942 6.013218 0.260058 0.247821 -1.442273
    6 6.823756 5.688272 -0.145900 -1.570562 0.002683 -2.355174
    7 -0.488518 -2.755602 -0.228260 -0.842435 -0.191692 -0.143242
    8 0.039887 -1.479790 0.029854 -1.661050 0.000000 0.000001
    9 0.028786 -1.075731 -0.023109 -1.564202 0.000000 0.000000
    10 0.250027 -2.820665 -0.238396 -0.617598 -0.129430 -0.021219
    11 -0.049759 -1.680544 0.100479 -1.628217 0.000000 -0.000002
    12 -0.034142 -1.148312 0.084782 -1.561158 0.000000 0.000000
    13 0.957766 -2.746780 -0.090302 -0.665712 -0.160731 0.153375
    14 -0.033420 -1.397129 -0.011257 -1.483043 0.000000 -0.000001
    15 -0.022360 -0.957436 0.018784 -0.632880 0.000000 0.000000
    16 -1.180681 -2.507217 -0.193859 -0.961887 0.005180 -0.271205
    17 -0.024967 -1.123934 0.017597 -1.442234 0.000000 0.000001
    18 -0.020057 -0.890968 0.010090 -1.387147 0.000000 0.000000
    19 0.583510 -1.197277 0.185379 -0.410821 -0.829647 -0.746251
    20 1.535927 0.010246 0.005009 -0.002964 -0.012979 -0.997671
    21 1.100771 0.004527 -0.010679 -0.014062 0.005343 -1.003628
    22 0.120153 -0.050270 -0.054489 3.153017 0.007985 -1.554369
    23 -12.110974 -4.754683 -9.255472 1.007803 -4.208482 1.545087
    24 0.096944 -8.450418 -0.009365 -0.547254 0.700599 -0.167486
    25 0.447953 -2.798986 -0.200443 -0.241613 -0.016964 0.138345
    26 -0.032909 -1.480204 0.004940 -0.865217 0.000000 0.000002
    27 -0.027022 -1.076920 -0.020210 -0.315600 0.000000 0.000000
    28 -0.249534 -2.846964 -0.174213 -0.050479 -0.032124 0.071433
    29 0.043235 -1.683941 0.096012 -0.990942 0.002823 -0.000167
    30 0.031729 -1.160830 0.058838 -0.337274 0.004944 0.002368
    31 -0.963866 -2.785145 -0.085350 0.141978 0.088535 -0.034138
    32 0.028479 -1.403067 0.006271 -0.643419 0.000000 0.000000
    33 0.021413 -0.957781 0.020046 -0.385000 0.000000 0.000000
    34 1.164475 -2.543940 -0.170330 -0.330645 -0.021120 0.192742
    35 0.024032 -1.129042 0.017807 -0.990868 0.000000 0.000001
    36 0.014898 -0.883989 -0.019848 -0.379589 0.000000 0.000000
    37 -0.586770 -1.264477 0.200161 0.189743 -0.353610 -2.619743
    38 1.522835 0.058681 0.016848 0.001410 0.008985 0.286264
    39 1.117947 0.048424 -0.005766 -0.017896 -0.016953 0.869985
    40 -0.139399 -0.111698 0.014397 -0.195110 -0.064531 1.594985
    41 -1.393470 8.839177 -0.239433 1.580804 -0.005023 -1.566847
  time 18
    0 -0.999830 1.628925 -0.458973 0.000000 0.000000 0.000000
    1 9.851027 -3.942620 -13.654875 -0.508922 -2.569095 0.536095
    2 -0.071918 -8.498690 -0.104135 -0.094082 -0.487099 -0.030051
    3 -3.773431 -2.012049 1.531537 -1.438605 2.841959 1.529636
    4 -4.682216 -0.841580 1.748207 -1.503734 2.821615 1.316754
    5 -2.987025 -1.183707 2.118568 0.260058 0.247821 -1.442273
    6 6.964385 5.496860 -0.145900 -1.570562 0.002683 -2.382306
    7 -0.488518 -2.755602 -0.228260 -0.947930 -0.191692 -0.143242
    8 0.039887 -1.479790 0.029854 -1.766527 0.000000 0.000001
    9 0.028786 -1.075731 -0.023109 -1.681743 0.000000 0.000000
    10 0.250027 -2.820665 -0.238396 -0.704037 -0.129430 -0.021219
    11 -0.049759 -1.680544 0.100479 -1.733616 0.000000 -0.000002
    12 -0.034142 -1.148312 0.084782 -1.664506 0.000000 0.000000
    13 0.957766 -2.746780 -0.090302 -0.752735 -0.160731 0.153375
    14 -0.033420 -1.397129 -0.011257 -1.595274 0.000000 -0.000001
    15 -0.022360 -0.957436 0.018784 -0.696217 0.000000 0.000000
    16 -1.180681 -2.507217 -0.193859 -1.063691 0.005180 -0.271205
    17 -0.024967 -1.123934 0.017597 -1.544008 0.000000 0.000001
    18 -0.020057 -0.890968 0.010090 -1.488950 0.000000 0.000000
    19 0.583510 -1.197277 0.185379 -0.410821 -0.829647 -0.746251
    20 1.535927 0.010246 0.005009 -0.002964 -0.012979 -1.075098
    21 1.100771 0.004527 -0.010679 -0.015248 0.004420 -1.103450
    22 0.120153 -0.050270 -0.054489 3.153017 0.007985 -1.554369
    23 -11.220322 -5.703930 -8.595296 0.618679 -3.999307 1.106128
    24 0.096944 -8.450418 -0.009365 -0.539832 0.674914 -0.148382
    25 0.447953 -2.798986 -0.200443 -0.133428 -0.021278 0.136655
    26 -0.032909 -1.480204 0.004940 -0.772639 0.000000 0.000002
    27 -0.027022 -1.076920 -0.020210 -0.189065 0.000000 0.000000
    28 -0.249534 -2.846964 -0.174213 0.066250 -0.037097 0.068785
    29 0.043235 -1.683941 0.096012 -0.882927 0.002823 -0.000167
    30 0.031729 -1.160830 0.058838 -0.229254 0.003554 0.004309
    31 -0.963866 -2.785145 -0.085350 0.275757 0.090920 -0.039412
    32 0.028479 -1.403067 0.006271 -0.516230 0.000000 0.000000
    33 0.021413 -0.957781 0.020046 -0.257830 0.000000 0.000000
    34 1.164475 -2.543940 -0.170330 -0.221438 -0.018819 0.193389
    35 0.024032 -1.129042 0.017807 -0.888700 0.000000 0.000001
    36 0.014898 -0.883989 -0.019848 -0.248246 0.000000 0.000000
    37 -0.586770 -1.264477 0.200161 0.166851 -0.312827 -2.624812
    38 1.522835 0.058681 0.016848 0.001410 0.008985 0.224002
    39 1.117947 0.048424 -0.005766 -0.017321 -0.017708 0.831972
    40 -0.139399 -0.111698 0.014397 -0.208922 -0.064531 1.594985
    41 -1.393470 8.839177 -0.239433 1.580804 -0.005023 -1.566847
  time 19
    0 -0.999830 1.628925 -0.458973 0.000000 0.000000 0.000000
    1 9.417420 -3.520732 -13.826756 -0.520808 -2.484988 0.453294
    2 -0.071918 -8.498690 -0.104135 -0.079631 -0.467489 -0.032771
    3 -0.367077 -4.973077 0.078368 -1.438605 2.841959 1.529636
    4 -1.275862 -3.802608 0.295038 -1.503734 2.821615 1.316754
    5 0.419329 -4.144735 0.665399 0.260058 0.247821 -1.442273
    6 7.019075 5.426545 -0.145900 -1.570562 0.002683 -2.392307
    7 -0.488518 -2.755602 -0.228260 -0.986798 -0.191692 -0.143242
    8 0.039887 -1.479790 0.029854 -1.805407 0.000000 0.000001
    9 0.028786 -1.075731 -0.023109 -1.725017 0.000000 0.000000
    10 0.250027 -2.820665 -0.238396 -0.735864 -0.129430 -0.021219
    11 -0.049759 -1.680544 0.100479 -1.772395 0.000000 -0.000002
    12 -0.034142 -1.148312 0.084782 -1.702608 0.000000 0.000000
    13 0.957766 -2.746780 -0.090302 -0.784780 -0.160731 0.153375
    14 -0.033420 -1.397129 -0.011257 -1.636630 0.000000 -0.000001
    15 -0.022360 -0.957436 0.018784 -0.719552 0.000000 0.000000
    16 -1.180681 -2.507217 -0.193859 -1.101203 0.005180 -0.271205
    17 -0.024967 -1.123934 0.017597 -1.581511 0.000000 0.000001
    18 -0.020057 -0.890968 0.010090 -1.526433 0.000000 0.000000
    19 0.583510 -1.197277 0.185379 -0.410821 -0.829647 -0.746251
    20 1.535927 0.010246 0.005009 -0.002964 -0.012979 -1.103614
    21 1.100771 0.004527 -0.010679 -0.015691 0.004072 -1.140203
    22 0.120153 -0.050270 -0.054489 3.153017 0.007985 -1.554369
    23 -10.458580 -6.547706 -8.024966 0.452144 -3.769465 0.893012
    24 0.096944 -8.450418 -0.009365 -0.522784 0.640144 -0.122951
    25 0.447953 -2.798986 -0.200443 -0.041278 -0.024957 0.135217
    26 -0.032909 -1.480204 0.004940 -0.693818 0.000000 0.000002
    27 -0.027022 -1.076920 -0.020210 -0.081284 0.000000 0.000000
    28 -0.249534 -2.846964 -0.174213 0.165662 -0.041340 0.066520
    29 0.043235 -1.683941 0.096012 -0.790926 0.002823 -0.000167
    30 0.031729 -1.160830 0.058838 -0.137238 0.002368 0.005963
    31 -0.963866 -2.785145 -0.085350 0.389631 0.092957 -0.043906
    32 0.028479 -1.403067 0.006271 -0.407902 0.000000 0.000000
    33 0.021413 -0.957781 0.020046 -0.149492 0.000000 0.000000
    34 1.164475 -2.543940 -0.170330 -0.128427 -0.016865 0.193940
    35 0.024032 -1.129042 0.017807 -0.801701 0.000000 0.000001
    36 0.014898 -0.883989 -0.019848 -0.136402 0.000000 0.000000
    37 -0.586770 -1.264477 0.200161 0.147379 -0.278095 -2.629127
    38 1.522835 0.058681 0.016848 0.001410 0.008985 0.170985
    39 1.117947 0.048424 -0.005766 -0.016842 -0.018355 0.799564
    40 -0.139399 -0.111698 0.014397 -0.220689 -0.064531 1.594985
    41 -1.393470 8.839177 -0.239433 1.580804 -0.005023 -1.566847
  time 20
    0 -0.999830 1.628925 -0.458973 0.000000 0.000000 0.000000
    1 9.167413 -3.204316 -13.733003 -0.492721 -2.406591 0.365559
    2 -0.071918 -8.498690 -0.104135 -0.070523 -0.454937 -0.034329
    3 -0.367077 -4.973077 0.078368 -1.438605 2.841959 1.529636
    4 -1.275862 -3.802608 0.295038 -1.503734 2.821615 1.316754
    5 0.419329 -4.144735 0.665399 0.260058 0.247821 -1.442273
    6 7.019075 5.426545 -0.145900 -1.570562 0.002683 -2.392307
    7 -0.488518 -2.755602 -0.228260 -0.986765 -0.191692 -0.143242
    8 0.039887 -1.479790 0.029854 -1.805407 0.000000 0.000001
    9 0.028786 -1.075731 -0.023109 -1.725017 0.000000 0.000000
    10 0.250027 -2.820665 -0.238396 -0.735864 -0.129430 -0.021219
    11 -0.049759 -1.680544 0.100479 -1.772395 0.000000 -0.000002
    12 -0.034142 -1.148312 0.084782 -1.702608 0.000000 0.000000
    13 0.957766 -2.746780 -0.090302 -0.784780 -0.160731 0.153375
    14 -0.033420 -1.397129 -0.011257 -1.636630 0.000000 -0.000001
    15 -0.022360 -0.957436 0.018784 -0.719552 0.000000 0.000000
    16 -1.180681 -2.507217 -0.193859 -1.101203 0.005180 -0.271205
    17 -0.024967 -1.123934 0.017597 -1.581511 0.000000 0.000001
    18 -0.020057 -0.890968 0.010090 -1.526433 0.000000 0.000000
    19 0.583510 -1.197277 0.185379 -0.410821 -0.829647 -0.746251
    20 1.535927 0.010246 0.005009 -0.002964 -0.012979 -1.103614
    21 1.100771 0.004527 -0.010679 -0.015691 0.004072 -1.140203
    22 0.120153 -0.050270 -0.054489 3.153017 0.007985 -1.554369
    23 -9.907782 -7.207883 -7.595265 0.381779 -3.588152 0.784554
    24 0.096944 -8.450418 -0.009365 -0.502912 0.602325 -0.096920
    25 0.447953 -2.798986 -0.200443 0.030182 -0.027810 0.134102
    26 -0.032909 -1.480204 0.004940 -0.632629 0.000000 0.000002
    27 -0.027022 -1.076920 -0.020210 0.002269 0.000000 0.000000
    28 -0.249534 -2.846964 -0.174213 0.242784 -0.044636 0.064770
    29 0.043235 -1.683941 0.096012 -0.719495 0.002823 -0.000167
    30 0.031729 -1.160830 0.058838 -0.065811 0.001445 0.007257
    31 -0.963866 -2.785145 -0.085350 0.478016 0.094539 -0.047393
    32 0.028479 -1.403067 0.006271 -0.323870 0.000000 0.000000
    33 0.021413 -0.957781 0.020046 -0.065435 0.000000 0.000000
    34 1.164475 -2.543940 -0.170330 -0.056240 -0.015343 0.194372
    35 0.024032 -1.129042 0.017807 -0.734162 0.000000 0.000001
    36 0.014898 -0.883989 -0.019848 -0.049698 0.000000 0.000000
    37 -0.586770 -1.264477 0.200161 0.132256 -0.251154 -2.632482
    38 1.522835 0.058681 0.016848 0.001410 0.008985 0.129854
    39 1.117947 0.048424 -0.005766 -0.016458 -0.018858 0.774431
    40 -0.139399 -0.111698 0.014397 -0.229807 -0.064531 1.594985
    41 -1.393470 8.839177 -0.239433 1.580804 -0.005023 -1.566847
  time 21
    0 -0.999830 1.628925 -0.458973 0.000000 0.000000 0.000000
    1 9.030690 -3.036342 -13.365804 -0.392546 -2.336934 0.233833
    2 -0.071918 -8.498690 -0.104135 -0.067007 -0.450055 -0.034904
    3 -0.367077 -4.973077 0.078368 -1.438605 2.841959 1.529636
    4 -1.275862 -3.802608 0.295038 -1.503734 2.821615 1.316754
    5 0.419329 -4.144735 0.665399 0.260058 0.247821 -1.442273
    6 7.019075 5.426545 -0.145900 -1.570562 0.002683 -2.392307
    7 -0.488518 -2.755602 -0.228260 -0.986798 -0.191692 -0.143242
    8 0.039887 -1.479790 0.029854 -1.805407 0.000000 0.000001
    9 0.028786 -1.075731 -0.023109 -1.725017 0.000000 0.000000
    10 0.250027 -2.820665 -0.238396 -0.735864 -0.129430 -0.021219
    11 -0.049759 -1.680544 0.100479 -1.772395 0.000000 -0.000002
    12 -0.034142 -1.148312 0.084782 -1.702608 0.000000 0.000000
    13 0.957766 -2.746780 -0.090302 -0.784780 -0.160731 0.153375
    14 -0.033420 -1.397129 -0.011257 -1.636630 0.000000 -0.000001
    15 -0.022360 -0.957436 0.018784 -0.719552 0.000000 0.000000
    16 -1.180681 -2.507217 -0.193859 -1.101203 0.005180 -0.271205
    17 -0.024967 -1.123934 0.017597 -1.581511 0.000000 0.000001
    18 -0.020057 -0.890968 0.010090 -1.526433 0.000000 0.000000
    19 0.583510 -1.197277 0.185379 -0.410821 -0.829647 -0.746251
    20 1.535927 0.010246 0.005009 -0.002964 -0.012979 -1.103614
    21 1.100771 0.004527 -0.010679 -0.015691 0.004072 -1.140203
    22 0.120153 -0.050270 -0.054489 3.153017 0.007985 -1.554369
    23 -9.583553 -7.668834 -7.325726 0.357208 -3.484736 0.736879
    24 0.096944 -8.450418 -0.009365 -0.485826 0.567863 -0.074761
    25 0.447953 -2.798986 -0.200443 0.076456 -0.029655 0.133371
    26 -0.032909 -1.480204 0.004940 -0.593094 0.000000 0.000002
    27 -0.027022 -1.076920 -0.020210 0.056379 0.000000 0.000000
    28 -0.249534 -2.846964 -0.174213 0.292713 -0.046769 0.063643
    29 0.043235 -1.683941 0.096012 -0.673315 0.002823 -0.000167
    30 0.031729 -1.160830 0.058838 -0.019669 0.000846 0.008084
    31 -0.963866 -2.785145 -0.085350 0.535203 0.095558 -0.049646
    32 0.028479 -1.403067 0.006271 -0.269462 0.000000 0.000000
    33 0.021413 -0.957781 0.020046 -0.011059 0.000000 0.000000
    34 1.164475 -2.543940 -0.170330 -0.009545 -0.014361 0.194647
    35 0.024032 -1.129042 0.017807 -0.690490 0.000000 0.000001
    36 0.014898 -0.883989 -0.019848 0.006495 0.000000 0.000000
    37 -0.586770 -1.264477 0.200161 0.122478 -0.233716 -2.634640
    38 1.522835 0.058681 0.016848 0.001410 0.008985 0.103224
    39 1.117947 0.048424 -0.005766 -0.016218 -0.019182 0.758175
    40 -0.139399 -0.111698 0.014397 -0.235714 -0.064531 1.594985
    41 -1.393470 8.839177 -0.239433 1.580804 -0.005023 -1.566847
  time 22
    0 -0.999830 1.628925 -0.458973 0.000000 0.000000 0.000000
    1 8.991626 -2.985559 -12.764223 -0.227282 -2.287266 0.057129
    2 -0.071918 -8.498690 -0.104135 -0.067506 -0.450753 -0.034821
    3 -0.367077 -4.973077 0.078368 -1.438605 2.841959 1.529636
    4 -1.275862 -3.802608 0.295038 -1.503734 2.821615 1.316754
    5 0.419329 -4.144735 0.665399 0.260058 0.247821 -1.442273
    6 7.019075 5.426545 -0.145900 -1.570562 0.002683 -2.392307
    7 -0.488518 -2.755602 -0.228260 -0.986765 -0.191692 -0.143242
    8 0.039887 -1.479790 0.029854 -1.805407 0.000000 0.000001
    9 0.028786 -1.075731 -0.023109 -1.725017 0.000000 0.000000
    10 0.250027 -2.820665 -0.238396 -0.735864 -0.129430 -0.021219
    11 -0.049759 -1.680544 0.100479 -1.772395 0.000000 -0.000002
    12 -0.034142 -1.148312 0.084782 -1.702608 0.000000 0.000000
    13 0.957766 -2.746780 -0.090302 -0.784780 -0.160731 0.153375
    14 -0.033420 -1.397129 -0.011257 -1.636630 0.000000 -0.000001
    15 -0.022360 -0.957436 0.018784 -0.719552 0.000000 0.000000
    16 -1.180681 -2.507217 -0.193859 -1.101203 0.005180 -0.271205
    17 -0.024967 -1.123934 0.017597 -1.581511 0.000000 0.000001
    18 -0.020057 -0.890968 0.010090 -1.526433 0.000000 0.000000
    19 0.583510 -1.197277 0.185379 -0.410821 -0.829647 -0.746251
    20 1.535927 0.010246 0.005009 -0.002964 -0.012979 -1.103614
    21 1.100771 0.004527 -0.010679 -0.015691 0.004072 -1.140203
    22 0.120153 -0.050270 -0.054489 3.153017 0.007985 -1.554369
    23 -9.439017 -7.981344 -7.169471 0.354786 -3.447336 0.725862
    24 0.096944 -8.450418 -0.009365 -0.476067 0.543533 -0.059912
    25 0.447953 -2.798986 -0.200443 0.092888 -0.030314 0.133120
    26 -0.032909 -1.480204 0.004940 -0.578989 0.000000 0.000002
    27 -0.027022 -1.076920 -0.020210 0.075613 0.000000 0.000000
    28 -0.249534 -2.846964 -0.174213 0.310442 -0.047524 0.063236
    29 0.043235 -1.683941 0.096012 -0.656881 0.002823 -0.000167
    30 0.031729 -1.160830 0.058838 -0.003245 0.000642 0.008372
    31 -0.963866 -2.785145 -0.085350 0.555544 0.095917 -0.050449
    32 0.028479 -1.403067 0.006271 -0.250112 0.000000 0.000000
    33 0.021413 -0.957781 0.020046 0.008236 0.000000 0.000000
    34 1.164475 -2.543940 -0.170330 0.007029 -0.014013 0.194755
    35 0.024032 -1.129042 0.017807 -0.674979 0.000000 0.000001
    36 0.014898 -0.883989 -0.019848 0.026445 0.000000 0.000000
    37 -0.586770 -1.264477 0.200161 0.118992 -0.227520 -2.635419
    38 1.522835 0.058681 0.016848 0.001410 0.008985 0.093763
    39 1.117947 0.048424 -0.005766 -0.016135 -0.019290 0.752397
    40 -0.139399 -0.111698 0.014397 -0.237822 -0.064531 1.594985
    41 -1.393470 8.839177 -0.239433 1.580804 -0.005023 -1.566847
  time 23
    0 -0.999830 1.628925 -0.458973 0.000000 0.000000 0.000000
    1 9.030690 -3.036342 -11.979043 -0.017154 -2.268056 -0.152137
    2 -0.071918 -8.498690 -0.104135 -0.070523 -0.454937 -0.034329
    3 -0.367077 -4.973077 0.078368 -1.438605 2.841959 1.529636
    4 -1.275862 -3.802608 0.295038 -1.503734 2.821615 1.316754
    5 0.419329 -4.144735 0.665399 0.260058 0.247821 -1.442273
    6 7.019075 5.426545 -0.145900 -1.570562 0.002683 -2.392307
    7 -0.488518 -2.755602 -0.228260 -0.986798 -0.191692 -0.143242
    8 0.039887 -1.479790 0.029854 -1.805407 0.000000 0.000001
    9 0.028786 -1.075731 -0.023109 -1.725017 0.000000 0.000000
    10 0.250027 -2.820665 -0.238396 -0.735864 -0.129430 -0.021219
    11 -0.049759 -1.680544 0.100479 -1.772395 0.000000 -0.000002
    12 -0.034142 -1.148312 0.084782 -1.702608 0.000000 0.000000
    13 0.957766 -2.746780 -0.090302 -0.784780 -0.160731 0.153375
    14 -0.033420 -1.397129 -0.011257 -1.636630 0.000000 -0.000001
    15 -0.022360 -0.957436 0.018784 -0.719552 0.000000 0.000000
    16 -1.180681 -2.507217 -0.193859 -1.101203 0.005180 -0.271205
    17 -0.024967 -1.123934 0.017597 -1.581511 0.000000 0.000001
    18 -0.020057 -0.890968 0.010090 -1.526433 0.000000 0.000000
    19 0.583510 -1.197277 0.185379 -0.410821 -0.829647 -0.746251
    20 1.535927 0.010246 0.005009 -0.002964 -0.012979 -1.103614
    21 1.100771 0.004527 -0.010679 -0.015691 0.004072 -1.140203
    22 0.120153 -0.050270 -0.054489 3.153017 0.007985 -1.554369
    23 -9.431205 -8.176662 -7.110875 0.364297 -3.454280 0.737164
    24 0.096944 -8.450418 -0.009365 -0.473488 0.533925 -0.054219
    25 0.447953 -2.798986 -0.200443 0.092888 -0.030314 0.133120
    26 -0.032909 -1.480204 0.004940 -0.578989 0.000000 0.000002
    27 -0.027022 -1.076920 -0.020210 0.075613 0.000000 0.000000
    28 -0.249534 -2.846964 -0.174213 0.310442 -0.047524 0.063236
    29 0.043235 -1.683941 0.096012 -0.656881 0.002823 -0.000167
    30 0.031729 -1.160830 0.058838 -0.003245 0.000642 0.008372
    31 -0.963866 -2.785145 -0.085350 0.555544 0.095917 -0.050449
    32 0.028479 -1.403067 0.006271 -0.250112 0.000000 0.000000
    33 0.021413 -0.957781 0.020046 0.008236 0.000000 0.000000
    34 1.164475 -2.543940 -0.170330 0.007029 -0.014013 0.194755
    35 0.024032 -1.129042 0.017807 -0.674979 0.000000 0.000001
    36 0.014898 -0.883989 -0.019848 0.026445 0.000000 0.000000
    37 -0.586770 -1.264477 0.200161 0.118992 -0.227520 -2.635419
    38 1.522835 0.058681 0.016848 0.001410 0.008985 0.093763
    39 1.117947 0.048424 -0.005766 -0.016135 -0.019290 0.752397
    40 -0.139399 -0.111698 0.014397 -0.237822 -0.064531 1.594985
    41 -1.393470 8.839177 -0.239433 1.580804 -0.005023 -1.566847
  time 24
    0 -0.999830 1.628925 -0.458973 0.000000 0.000000 0.000000
    1 9.128349 -3.157440 -11.057140 0.204860 -2.282593 -0.368062
    2 -0.071918 -8.498690 -0.104135 -0.074565 -0.460516 -0.033658
    3 -0.367077 -4.973077 0.078368 -1.438605 2.841959 1.529636
    4 -1.275862 -3.802608 0.295038 -1.503734 2.821615 1.316754
    5 0.419329 -4.144735 0.665399 0.260058 0.247821 -1.442273
    6 7.019075 5.426545 -0.145900 -1.570562 0.002683 -2.392307
    7 -0.488518 -2.755602 -0.228260 -0.986798 -0.191692 -0.143242
    8 0.039887 -1.479790 0.029854 -1.805407 0.000000 0.000001
    9 0.028786 -1.075731 -0.023109 -1.725017 0.000000 0.000000
    10 0.250027 -2.820665 -0.238396 -0.735864 -0.129430 -0.021219
    11 -0.049759 -1.680544 0.100479 -1.772395 0.000000 -0.000002
    12 -0.034142 -1.148312 0.084782 -1.702608 0.000000 0.000000
    13 0.957766 -2.746780 -0.090302 -0.784780 -0.160731 0.153375
    14 -0.033420 -1.397129 -0.011257 -1.636630 0.000000 -0.000001
    15 -0.022360 -0.957436 0.018784 -0.719552 0.000000 0.000000
    16 -1.180681 -2.507217 -0.193859 -1.101203 0.005180 -0.271205
    17 -0.024967 -1.123934 0.017597 -1.581511 0.000000 0.000001
    18 -0.020057 -0.890968 0.010090 -1.526433 0.000000 0.000000
    19 0.583510 -1.197277 0.185379 -0.410821 -0.829647 -0.746251
    20 1.535927 0.010246 0.005009 -0.002964 -0.012979 -1.103614
    21 1.100771 0.004527 -0.010679 -0.015691 0.004072 -1.140203
    22 0.120153 -0.050270 -0.054489 3.153017 0.007985 -1.554369
    23 -9.532770 -8.282134 -7.122594 0.380414 -3.483147 0.760147
    24 0.096944 -8.450418 -0.009365 -0.473768 0.535003 -0.054842
    25 0.447953 -2.798986 -0.200443 0.092888 -0.030314 0.133120
    26 -0.032909 -1.480204 0.004940 -0.578989 0.000000 0.000002
    27 -0.027022 -1.076920 -0.020210 0.075613 0.000000 0.000000
    28 -0.249534 -2.846964 -0.174213 0.310442 -0.047524 0.063236
    29 0.043235 -1.683941 0.096012 -0.656881 0.002823 -0.000167
    30 0.031729 -1.160830 0.058838 -0.003245 0.000642 0.008372
    31 -0.963866 -2.785145 -0.085350 0.555544 0.095917 -0.050449
    32 0.028479 -1.403067 0.006271 -0.250112 0.000000 0.000000
    33 0.021413 -0.957781 0.020046 0.008236 0.000000 0.000000
    34 1.164475 -2.543940 -0.170330 0.007029 -0.014013 0.194755
    35 0.024032 -1.129042 0.017807 -0.674979 0.000000 0.000001
    36 0.014898 -0.883989 -0.019848 0.026445 0.000000 0.000000
    37 -0.586770 -1.264477 0.200161 0.118992 -0.227520 -2.635419
    38 1.522835 0.058681 0.016848 0.001410 0.008985 0.093763
    39 1.117947 0.048424 -0.005766 -0.016135 -0.019290 0.752397
    40 -0.139399 -0.111698 0.014397 -0.237822 -0.064531 1.594985
    41 -1.393470 8.839177 -0.239433 1.580804 -0.005023 -1.566847
  time 25
    0 -0.999830 1.628925 -0.458973 0.000000 0.000000 0.000000
    1 9.265072 -3.329320 -10.037578 0.406551 -2.323868 -0.566145
    2 -0.071918 -8.498690 -0.104135 -0.078109 -0.465397 -0.033047
    3 -0.367077 -4.973077 0.078368 -1.438605 2.841959 1.529636
    4 -1.275862 -3.802608 0.295038 -1.503734 2.821615 1.316754
    5 0.419329 -4.144735 0.665399 0.260058 0.247821 -1.442273
    6 7.019075 5.426545 -0.145900 -1.570562 0.002683 -2.392307
    7 -0.488518 -2.755602 -0.228260 -0.986798 -0.191692 -0.143242
    8 0.039887 -1.479790 0.029854 -1.805407 0.000000 0.000001
    9 0.028786 -1.075731 -0.023109 -1.725017 0.000000 0.000000
    10 0.250027 -2.820665 -0.238396 -0.735864 -0.129430 -0.021219
    11 -0.049759 -1.680544 0.100479 -1.772395 0.000000 -0.000002
    12 -0.034142 -1.148312 0.084782 -1.702608 0.000000 0.000000
    13 0.957766 -2.746780 -0.090302 -0.784780 -0.160731 0.153375
    14 -0.033420 -1.397129 -0.011257 -1.636630 0.000000 -0.000001
    15 -0.022360 -0.957436 0.018784 -0.719552 0.000000 0.000000
    16 -1.180681 -2.507217 -0.193859 -1.101203 0.005180 -0.271205
    17 -0.024967 -1.123934 0.017597 -1.581511 0.000000 0.000001
    18 -0.020057 -0.890968 0.010090 -1.526433 0.000000 0.000000
    19 0.583510 -1.197277 0.185379 -0.410821 -0.829647 -0.746251
    20 1.535927 0.010246 0.005009 -0.002964 -0.012979 -1.103614
    21 1.100771 0.004527 -0.010679 -0.015691 0.004072 -1.140203
    22 0.120153 -0.050270 -0.054489 3.153017 0.007985 -1.554369
    23 -9.700744 -8.332917 -7.177284 0.397323 -3.511678 0.783985
    24 0.096944 -8.450418 -0.009365 -0.475208 0.540330 -0.058006
    25 0.447953 -2.798986 -0.200443 0.092888 -0.030314 0.133120
    26 -0.032909 -1.480204 0.004940 -0.578989 0.000000 0.000002
    27 -0.027022 -1.076920 -0.020210 0.075613 0.000000 0.000000
    28 -0.249534 -2.846964 -0.174213 0.310442 -0.047524 0.063236
    29 0.043235 -1.683941 0.096012 -0.656881 0.002823 -0.000167
    30 0.031729 -1.160830 0.058838 -0.003245 0.000642 0.008372
    31 -0.963866 -2.785145 -0.085350 0.555544 0.095917 -0.050449
    32 0.028479 -1.403067 0.006271 -0.250112 0.000000 0.000000
    33 0.021413 -0.957781 0.020046 0.008236 0.000000 0.000000
    34 1.164475 -2.543940 -0.170330 0.007029 -0.014013 0.194755
    35 0.024032 -1.129042 0.017807 -0.674979 0.000000 0.000001
    36 0.014898 -0.883989 -0.019848 0.026445 0.000000 0.000000
    37 -0.586770 -1.264477 0.200161 0.118992 -0.227520 -2.635419
    38 1.522835 0.058681 0.016848 0.001410 0.008985 0.093763
    39 1.117947 0.048424 -0.005766 -0.016135 -0.019290 0.752397
    40 -0.139399 -0.111698 0.014397 -0.237822 -0.064531 1.594985
    41 -1.393470 8.839177 -0.239433 1.580804 -0.005023 -1.566847
  time 26
    0 -0.999830 1.628925 -0.458973 0.000000 0.000000 0.000000
    1 9.417420 -3.520732 -8.978951 0.571049 -2.377344 -0.737175
    2 -0.071918 -8.498690 -0.104135 -0.079631 -0.467489 -0.032771
    3 -0.367077 -4.973077 0.078368 -1.438605 2.841959 1.529636
    4 -1.275862 -3.802608 0.295038 -1.503734 2.821615 1.316754
    5 0.419329 -4.144735 0.665399 0.260058 0.247821 -1.442273
    6 7.019075 5.426545 -0.145900 -1.570562 0.002683 -2.392307
    7 -0.488518 -2.755602 -0.228260 -0.986798 -0.191692 -0.143242
    8 0.039887 -1.479790 0.029854 -1.805407 0.000000 0.000001
    9 0.028786 -1.075731 -0.023109 -1.725017 0.000000 0.000000
    10 0.250027 -2.820665 -0.238396 -0.735864 -0.129430 -0.021219
    11 -0.049759 -1.680544 0.100479 -1.772395 0.000000 -0.000002
    12 -0.034142 -1.148312 0.084782 -1.702608 0.000000 0.000000
    13 0.957766 -2.746780 -0.090302 -0.784780 -0.160731 0.153375
    14 -0.033420 -1.397129 -0.011257 -1.636630 0.000000 -0.000001
    15 -0.022360 -0.957436 0.018784 -0.719552 0.000000 0.000000
    16 -1.180681 -2.507217 -0.193859 -1.101203 0.005180 -0.271205
    17 -0.024967 -1.123934 0.017597 -1.581511 0.000000 0.000001
    18 -0.020057 -0.890968 0.010090 -1.526433 0.000000 0.000000
    19 0.583510 -1.197277 0.185379 -0.410821 -0.829647 -0.746251
    20 1.535927 0.010246 0.005009 -0.002964 -0.012979 -1.103614
    21 1.100771 0.004527 -0.010679 -0.015691 0.004072 -1.140203
    22 0.120153 -0.050270 -0.054489 3.153017 0.007985 -1.554369
    23 -9.907782 -8.352449 -7.259317 0.407626 -3.518121 0.795951
    24 0.096944 -8.450418 -0.009365 -0.476067 0.543503 -0.059912
    25 0.447953 -2.798986 -0.200443 0.092888 -0.030314 0.133120
    26 -0.032909 -1.480204 0.004940 -0.578989 0.000000 0.000002
    27 -0.027022 -1.076920 -0.020210 0.075613 0.000000 0.000000
    28 -0.249534 -2.846964 -0.174213 0.310442 -0.047524 0.063236
    29 0.043235 -1.683941 0.096012 -0.656881 0.002823 -0.000167
    30 0.031729 -1.160830 0.058838 -0.003245 0.000642 0.008372
    31 -0.963866 -2.785145 -0.085350 0.555544 0.095917 -0.050449
    32 0.028479 -1.403067 0.006271 -0.250112 0.000000 0.000000
    33 0.021413 -0.957781 0.020046 0.008236 0.000000 0.000000
    34 1.164475 -2.543940 -0.170330 0.007029 -0.014013 0.194755
    35 0.024032 -1.129042 0.017807 -0.674979 0.000000 0.000001
    36 0.014898 -0.883989 -0.019848 0.026445 0.000000 0.000000
    37 -0.586770 -1.264477 0.200161 0.118992 -0.227520 -2.635419
    38 1.522835 0.058681 0.016848 0.001410 0.008985 0.093763
    39 1.117947 0.048424 -0.005766 -0.016135 -0.019290 0.752397
    40 -0.139399 -0.111698 0.014397 -0.237822 -0.064531 1.594985
    41 -1.393470 8.839177 -0.239433 1.580804 -0.005023 -1.566847
end
