version 1
nodes
  0 "Bone01" -1
  1 "Bone_Lefthand" 0
  2 "Bone_MP7A1_L" 1
  3 "Bone_EyeonSite_Front_L" 2
  4 "Bone_EyeonSite_Back_L" 2
  5 "Bone_Magazine_L" 2
  6 "Bone_Trigger_L" 2
  7 "Bone_Hand_Grib_L" 2
  8 "Bone_SlidingStock_L" 2
  9 "Bone_ChargeHandle_L" 2
  10 "Bone04" -1
  11 "Bone_Righthand" 10
  12 "Bone_MP7A1_R" 11
  13 "Bone_EyeonSite_Front_R" 12
  14 "Bone_EyeonSite_Back_R" 12
  15 "Bone_Magazine_R" 12
  16 "Bone_Trigger_R" 12
  17 "Bone_Hand_Grib_R" 12
  18 "Bone_Hand_GribLock_R" 17
  19 "Bone_SlidingStock_R" 12
  20 "Bone_ChargeHandle_R" 12
  21 "Bone4" 1
  22 "Bone13" 21
  23 "Bone14" 22
  24 "Bone15" 23
  25 "Bone17" 21
  26 "Bone18" 25
  27 "Bone19" 26
  28 "Bone21" 21
  29 "Bone22" 28
  30 "Bone23" 29
  31 "Bone05" 21
  32 "Bone06" 31
  33 "Bone07" 32
  34 "Bone09" 21
  35 "Bone10" 34
  36 "Bone11" 35
  37 "Bone26" 11
  38 "Bone35" 37
  39 "Bone36" 38
  40 "Bone37" 39
  41 "Bone31" 37
  42 "Bone32" 41
  43 "Bone33" 42
  44 "Bone39" 37
  45 "Bone40" 44
  46 "Bone41" 45
  47 "Bone43" 37
  48 "Bone44" 47
  49 "Bone45" 48
  50 "Bone27" 37
  51 "Bone28" 50
  52 "Bone29" 51
end
skeleton
  time 0
    0 14.150201 -5.486204 -11.441727 0.497067 -2.175262 -0.893307
    1 -0.021283 -8.563257 -0.000750 0.382246 0.368217 -0.393546
    2 -0.350898 -2.752587 0.514683 0.536110 1.767884 0.542634
    3 0.000000 -5.680970 4.733543 1.570796 0.000000 0.000000
    4 0.000000 2.240248 4.862545 -1.570796 0.000000 0.000000
    5 0.000000 -0.030803 -0.185498 0.000000 0.000000 0.000000
    6 0.000000 -1.489114 1.895751 0.087266 0.000000 0.000000
    7 0.000000 -6.270583 1.350241 1.570796 0.000000 0.000000
    8 0.000000 5.114959 2.564909 0.000000 0.000000 0.000000
    9 0.000000 4.784919 4.090397 -1.570796 -3.141592 -0.000001
    10 -14.743998 -4.539632 -12.139653 0.725875 2.069056 1.131991
    11 0.089929 -8.543166 0.000003 0.201893 -0.377905 0.148357
    12 0.431291 -2.480750 0.566680 1.315037 -1.359682 -1.195261
    13 0.000000 -5.680965 4.733542 1.570796 0.000000 0.000000
    14 0.000001 2.240247 4.862545 -1.570796 0.000000 0.000000
    15 0.000000 -0.030803 -0.185497 0.000000 0.000000 0.000000
    16 0.000000 -1.489114 1.895751 0.633688 0.000000 0.000000
    17 0.000000 -6.270579 1.350240 1.570796 0.000000 0.000000
    18 0.000000 0.355522 -2.249654 -1.570796 -3.141592 1.570796
    19 0.000001 5.114957 2.564910 0.000000 0.000000 0.000000
    20 0.000001 4.784917 4.090397 -1.570796 -3.141592 -0.000001
    21 -0.003480 -0.404827 0.000000 -0.000001 0.000000 0.000000
    22 -0.519309 -2.501154 -0.278957 -0.055823 0.159103 -0.101314
    23 -0.010598 -1.208184 -0.000001 -1.297208 -0.173311 -0.018970
    24 -0.000001 -0.763066 0.000000 -0.764828 -0.064118 0.059360
    25 0.105982 -2.607132 -0.278958 -0.243330 -0.074707 0.002974
    26 0.000000 -1.250579 0.000001 -0.787802 0.000000 0.000000
    27 -0.000001 -0.932635 0.000001 -1.655650 0.000000 0.000000
    28 0.763065 -2.490555 -0.278958 -0.118666 0.173955 0.234657
    29 -0.012322 -1.280917 0.000000 0.163947 -0.078283 -0.101829
    30 -0.001695 -0.738091 0.129482 -1.218877 0.010997 0.011408
    31 0.354567 0.016267 0.318133 0.332140 -0.490594 -1.265606
    32 1.887164 0.012878 0.000000 0.115100 0.249897 -0.404322
    33 1.001873 -0.000270 0.000000 -0.034899 0.000000 -0.092945
    34 -1.123359 -2.195092 -0.278957 -0.208864 0.033771 -0.106283
    35 0.010771 -0.963791 0.000001 -0.580307 0.023406 0.035690
    36 -0.010412 -0.631916 0.000000 -1.043753 0.000000 0.000000
    37 0.000000 -0.359713 0.000000 0.000000 0.000000 0.000000
    38 -0.170478 -2.636148 -0.277655 -0.530743 0.075354 0.129527
    39 0.010599 -1.261177 0.000002 -1.252346 0.000000 0.000000
    40 -0.000002 -0.943233 0.000000 -1.208493 0.000000 0.000000
    41 -0.827562 -2.508972 -0.277656 0.032257 0.011706 -0.024514
    42 0.000001 -1.292972 0.000000 -0.881136 0.059875 -0.104458
    43 -0.000002 -0.752466 -0.000002 -1.310921 -0.009049 0.017023
    44 0.444213 -2.561962 -0.277655 -0.432451 0.143605 0.180950
    45 0.021022 -1.208187 0.000001 -0.966197 0.000000 0.000000
    46 0.010597 -0.741867 -0.000002 -1.240102 0.000000 0.000000
    47 1.047446 -2.222822 -0.277655 -0.287540 0.038255 0.161483
    48 0.000000 -0.996224 -0.000001 -0.664029 0.000000 0.000000
    49 0.000000 -0.614691 0.000000 -1.344689 0.000000 0.000000
    50 -0.308256 -0.007814 0.307165 -0.987918 -0.823553 -1.831620
    51 1.978378 0.019544 0.000000 0.099985 0.407896 0.869471
    52 0.980611 0.058421 -0.012628 0.185445 -0.212474 0.577857
  time 1
    0 14.150201 -5.454953 -11.430008 0.500270 -2.177546 -0.895882
    1 -0.021283 -8.563257 -0.000750 0.380306 0.368201 -0.398698
    2 -0.350898 -2.752587 0.514683 0.536110 1.767884 0.542634
    3 0.000000 -5.680970 4.733543 1.570796 0.000000 0.000000
    4 0.000000 2.240248 4.862545 -1.570796 0.000000 0.000000
    5 0.000000 -0.030803 -0.185498 0.000000 0.000000 0.000000
    6 0.000000 -1.489114 1.895751 0.087266 0.000000 0.000000
    7 0.000000 -6.270583 1.350241 1.570796 0.000000 0.000000
    8 0.000000 5.114959 2.564909 0.000000 0.000000 0.000000
    9 0.000000 4.784919 4.090397 -1.570796 -3.141592 -0.000001
    10 -14.743998 -4.574790 -12.096683 0.720377 2.063976 1.127145
    11 0.089929 -8.543166 0.000003 0.204278 -0.374697 0.139951
    12 0.431291 -2.480750 0.566680 1.315037 -1.359682 -1.195261
    13 0.000000 -5.680965 4.733542 1.570796 0.000000 0.000000
    14 0.000001 2.240247 4.862545 -1.570796 0.000000 0.000000
    15 0.000000 -0.030803 -0.185497 0.000000 0.000000 0.000000
    16 0.000000 -1.489114 1.895751 0.633688 0.000000 0.000000
    17 0.000000 -6.270579 1.350240 1.570796 0.000000 0.000000
    18 0.000000 0.355522 -2.249654 -1.570796 -3.141592 1.570796
    19 0.000001 5.114957 2.564910 0.000000 0.000000 0.000000
    20 0.000001 4.784917 4.090397 -1.570796 -3.141592 -0.000001
    21 -0.003480 -0.404827 0.000000 -0.000001 0.000000 0.000000
    22 -0.519309 -2.501154 -0.278957 -0.055823 0.159103 -0.101314
    23 -0.010598 -1.208184 -0.000001 -1.297208 -0.173311 -0.018970
    24 -0.000001 -0.763066 0.000000 -0.764828 -0.064118 0.059360
    25 0.105982 -2.607132 -0.278958 -0.243330 -0.074707 0.002974
    26 0.000000 -1.250579 0.000001 -0.787802 0.000000 0.000000
    27 -0.000001 -0.932635 0.000001 -1.655650 0.000000 0.000000
    28 0.763065 -2.490555 -0.278958 -0.118666 0.173955 0.234657
    29 -0.012322 -1.280917 0.000000 0.163947 -0.078283 -0.101829
    30 -0.001695 -0.738091 0.129482 -1.218877 0.010997 0.011408
    31 0.354567 0.016267 0.318133 0.332140 -0.490594 -1.265606
    32 1.887164 0.012878 0.000000 0.115100 0.249897 -0.404322
    33 1.001873 -0.000270 0.000000 -0.034899 0.000000 -0.092945
    34 -1.123359 -2.195092 -0.278957 -0.208864 0.033771 -0.106283
    35 0.010771 -0.963791 0.000001 -0.580307 0.023406 0.035690
    36 -0.010412 -0.631916 0.000000 -1.043753 0.000000 0.000000
    37 0.000000 -0.359713 0.000000 0.000000 0.000000 0.000000
    38 -0.170478 -2.636148 -0.277655 -0.530743 0.075354 0.129527
    39 0.010599 -1.261177 0.000002 -1.252346 0.000000 0.000000
    40 -0.000002 -0.943233 0.000000 -1.208493 0.000000 0.000000
    41 -0.827562 -2.508972 -0.277656 0.032257 0.011706 -0.024514
    42 0.000001 -1.292972 0.000000 -0.887901 0.061193 -0.106136
    43 -0.000002 -0.752466 -0.000002 -1.311653 -0.009049 0.017023
    44 0.444213 -2.561962 -0.277655 -0.432451 0.143605 0.180950
    45 0.021022 -1.208187 0.000001 -0.966197 0.000000 0.000000
    46 0.010597 -0.741867 -0.000002 -1.240102 0.000000 0.000000
    47 1.047446 -2.222822 -0.277655 -0.287540 0.038255 0.161483
    48 0.000000 -0.996224 -0.000001 -0.664029 0.000000 0.000000
    49 0.000000 -0.614691 0.000000 -1.344689 0.000000 0.000000
    50 -0.308256 -0.007814 0.307165 -0.987918 -0.823553 -1.831620
    51 1.978378 0.019544 0.000000 0.099985 0.407896 0.869471
    52 0.980611 0.058421 -0.012628 0.185445 -0.212474 0.577857
  time 2
    0 14.150201 -5.384638 -11.406570 0.506770 -2.182195 -0.901223
    1 -0.021283 -8.563257 -0.000750 0.375694 0.368043 -0.410709
    2 -0.350898 -2.752587 0.514683 0.536110 1.767884 0.542634
    3 0.000000 -5.680970 4.733543 1.570796 0.000000 0.000000
    4 0.000000 2.240248 4.862545 -1.570796 0.000000 0.000000
    5 0.000000 -0.030803 -0.185498 0.000000 0.000000 0.000000
    6 0.000000 -1.489114 1.895751 0.087266 0.000000 0.000000
    7 0.000000 -6.270583 1.350241 1.570796 0.000000 0.000000
    8 0.000000 5.114959 2.564909 0.000000 0.000000 0.000000
    9 0.000000 4.784919 4.090397 -1.570796 -3.141592 -0.000001
    10 -14.743998 -4.656823 -11.999024 0.707905 2.052283 1.115961
    11 0.089929 -8.543166 0.000003 0.209468 -0.367542 0.121543
    12 0.431291 -2.480750 0.566680 1.315037 -1.359682 -1.195261
    13 0.000000 -5.680965 4.733542 1.570796 0.000000 0.000000
    14 0.000001 2.240247 4.862545 -1.570796 0.000000 0.000000
    15 0.000000 -0.030803 -0.185497 0.000000 0.000000 0.000000
    16 0.000000 -1.489114 1.895751 0.633688 0.000000 0.000000
    17 0.000000 -6.270579 1.350240 1.570796 0.000000 0.000000
    18 0.000000 0.355522 -2.249654 -1.570796 -3.141592 1.570796
    19 0.000001 5.114957 2.564910 0.000000 0.000000 0.000000
    20 0.000001 4.784917 4.090397 -1.570796 -3.141592 -0.000001
    21 -0.003480 -0.404827 0.000000 -0.000001 0.000000 0.000000
    22 -0.519309 -2.501154 -0.278957 -0.055823 0.159103 -0.101314
    23 -0.010598 -1.208184 -0.000001 -1.297208 -0.173311 -0.018970
    24 -0.000001 -0.763066 0.000000 -0.764828 -0.064118 0.059360
    25 0.105982 -2.607132 -0.278958 -0.243330 -0.074707 0.002974
    26 0.000000 -1.250579 0.000001 -0.787802 0.000000 0.000000
    27 -0.000001 -0.932635 0.000001 -1.655650 0.000000 0.000000
    28 0.763065 -2.490555 -0.278958 -0.118666 0.173955 0.234657
    29 -0.012322 -1.280917 0.000000 0.163947 -0.078283 -0.101829
    30 -0.001695 -0.738091 0.129482 -1.218877 0.010997 0.011408
    31 0.354567 0.016267 0.318133 0.332140 -0.490594 -1.265606
    32 1.887164 0.012878 0.000000 0.115100 0.249897 -0.404322
    33 1.001873 -0.000270 0.000000 -0.034899 0.000000 -0.092945
    34 -1.123359 -2.195092 -0.278957 -0.208864 0.033771 -0.106283
    35 0.010771 -0.963791 0.000001 -0.580307 0.023406 0.035690
    36 -0.010412 -0.631916 0.000000 -1.043753 0.000000 0.000000
    37 0.000000 -0.359713 0.000000 0.000000 0.000000 0.000000
    38 -0.170478 -2.636148 -0.277655 -0.530743 0.075354 0.129527
    39 0.010599 -1.261177 0.000002 -1.252346 0.000000 0.000000
    40 -0.000002 -0.943233 0.000000 -1.208493 0.000000 0.000000
    41 -0.827562 -2.508972 -0.277656 0.032257 0.011706 -0.024514
    42 0.000001 -1.292972 0.000000 -0.901455 0.063830 -0.109467
    43 -0.000002 -0.752466 -0.000002 -1.313172 -0.009049 0.017023
    44 0.444213 -2.561962 -0.277655 -0.432451 0.143605 0.180950
    45 0.021022 -1.208187 0.000001 -0.966197 0.000000 0.000000
    46 0.010597 -0.741867 -0.000002 -1.240102 0.000000 0.000000
    47 1.047446 -2.222822 -0.277655 -0.287540 0.038255 0.161483
    48 0.000000 -0.996224 -0.000001 -0.664029 0.000000 0.000000
    49 0.000000 -0.614691 0.000000 -1.344689 0.000000 0.000000
    50 -0.308256 -0.007814 0.307165 -0.987918 -0.823553 -1.831620
    51 1.978378 0.019544 0.000000 0.099985 0.407896 0.869471
    52 0.980611 0.058421 -0.012628 0.185445 -0.212474 0.577857
  time 3
    0 14.150201 -5.329949 -11.390945 0.511857 -2.185866 -0.905419
    1 -0.021283 -8.563257 -0.000750 0.370436 0.367665 -0.424399
    2 -0.350898 -2.752587 0.514683 0.536110 1.767884 0.542634
    3 0.000000 -5.680970 4.733543 1.570796 0.000000 0.000000
    4 0.000000 2.240248 4.862545 -1.570796 0.000000 0.000000
    5 0.000000 -0.030803 -0.185498 0.000000 0.000000 0.000000
    6 0.000000 -1.489114 1.895751 0.087266 0.000000 0.000000
    7 0.000000 -6.270583 1.350241 1.570796 0.000000 0.000000
    8 0.000000 5.114959 2.564909 0.000000 0.000000 0.000000
    9 0.000000 4.784919 4.090397 -1.570796 -3.141592 -0.000001
    10 -14.743998 -4.766202 -11.885739 0.694120 2.039536 1.103753
    11 0.089929 -8.543166 0.000003 0.214529 -0.360184 0.103394
    12 0.431291 -2.480750 0.566680 1.315037 -1.359682 -1.195261
    13 0.000000 -5.680965 4.733542 1.570796 0.000000 0.000000
    14 0.000001 2.240247 4.862545 -1.570796 0.000000 0.000000
    15 0.000000 -0.030803 -0.185497 0.000000 0.000000 0.000000
    16 0.000000 -1.489114 1.895751 0.633688 0.000000 0.000000
    17 0.000000 -6.270579 1.350240 1.570796 0.000000 0.000000
    18 0.000000 0.355522 -2.249654 -1.570796 -3.141592 1.570796
    19 0.000001 5.114957 2.564910 0.000000 0.000000 0.000000
    20 0.000001 4.784917 4.090397 -1.570796 -3.141592 -0.000001
    21 -0.003480 -0.404827 0.000000 -0.000001 0.000000 0.000000
    22 -0.519309 -2.501154 -0.278957 -0.055823 0.159103 -0.101314
    23 -0.010598 -1.208184 -0.000001 -1.297208 -0.173311 -0.018970
    24 -0.000001 -0.763066 0.000000 -0.764828 -0.064118 0.059360
    25 0.105982 -2.607132 -0.278958 -0.243330 -0.074707 0.002974
    26 0.000000 -1.250579 0.000001 -0.787802 0.000000 0.000000
    27 -0.000001 -0.932635 0.000001 -1.655650 0.000000 0.000000
    28 0.763065 -2.490555 -0.278958 -0.118666 0.173955 0.234657
    29 -0.012322 -1.280917 0.000000 0.163947 -0.078283 -0.101829
    30 -0.001695 -0.738091 0.129482 -1.218877 0.010997 0.011408
    31 0.354567 0.016267 0.318133 0.332140 -0.490594 -1.265606
    32 1.887164 0.012878 0.000000 0.115100 0.249897 -0.404322
    33 1.001873 -0.000270 0.000000 -0.034899 0.000000 -0.092945
    34 -1.123359 -2.195092 -0.278957 -0.208864 0.033771 -0.106283
    35 0.010771 -0.963791 0.000001 -0.580307 0.023406 0.035690
    36 -0.010412 -0.631916 0.000000 -1.043753 0.000000 0.000000
    37 0.000000 -0.359713 0.000000 0.000000 0.000000 0.000000
    38 -0.170478 -2.636148 -0.277655 -0.530743 0.075354 0.129527
    39 0.010599 -1.261177 0.000002 -1.252346 0.000000 0.000000
    40 -0.000002 -0.943233 0.000000 -1.208493 0.000000 0.000000
    41 -0.827562 -2.508972 -0.277656 0.032257 0.011706 -0.024514
    42 0.000001 -1.292972 0.000000 -0.911626 0.065807 -0.111984
    43 -0.000002 -0.752466 -0.000002 -1.314284 -0.009049 0.017023
    44 0.444213 -2.561962 -0.277655 -0.432451 0.143605 0.180950
    45 0.021022 -1.208187 0.000001 -0.966197 0.000000 0.000000
    46 0.010597 -0.741867 -0.000002 -1.240102 0.000000 0.000000
    47 1.047446 -2.222822 -0.277655 -0.287540 0.038255 0.161483
    48 0.000000 -0.996224 -0.000001 -0.664029 0.000000 0.000000
    49 0.000000 -0.614691 0.000000 -1.344689 0.000000 0.000000
    50 -0.308256 -0.007814 0.307165 -0.987918 -0.823553 -1.831620
    51 1.978378 0.019544 0.000000 0.099985 0.407896 0.869471
    52 0.980611 0.058421 -0.012628 0.185445 -0.212474 0.577857
  time 4
    0 14.150201 -5.318230 -11.383132 0.513270 -2.186927 -0.906563
    1 -0.021283 -8.563257 -0.000750 0.366471 0.366970 -0.434587
    2 -0.350898 -2.752587 0.514683 0.536110 1.767884 0.542634
    3 0.000000 -5.680970 4.733543 1.570796 0.000000 0.000000
    4 0.000000 2.240248 4.862545 -1.570796 0.000000 0.000000
    5 0.000000 -0.030803 -0.185498 0.000000 0.000000 0.000000
    6 0.000000 -1.489114 1.895751 0.087266 0.000000 0.000000
    7 0.000000 -6.270583 1.350241 1.570796 0.000000 0.000000
    8 0.000000 5.114959 2.564909 0.000000 0.000000 0.000000
    9 0.000000 4.784919 4.090397 -1.570796 -3.141592 -0.000001
    10 -14.743998 -4.879486 -11.795893 0.684683 2.030718 1.095365
    11 0.089929 -8.543166 0.000003 0.216528 -0.356288 0.095763
    12 0.431291 -2.480750 0.566680 1.315037 -1.359682 -1.195261
    13 0.000000 -5.680965 4.733542 1.570796 0.000000 0.000000
    14 0.000001 2.240247 4.862545 -1.570796 0.000000 0.000000
    15 0.000000 -0.030803 -0.185497 0.000000 0.000000 0.000000
    16 0.000000 -1.489114 1.895751 0.633688 0.000000 0.000000
    17 0.000000 -6.270579 1.350240 1.570796 0.000000 0.000000
    18 0.000000 0.355522 -2.249654 -1.570796 -3.141592 1.570796
    19 0.000001 5.114957 2.564910 0.000000 0.000000 0.000000
    20 0.000001 4.784917 4.090397 -1.570796 -3.141592 -0.000001
    21 -0.003480 -0.404827 0.000000 -0.000001 0.000000 0.000000
    22 -0.519309 -2.501154 -0.278957 -0.055823 0.159103 -0.101314
    23 -0.010598 -1.208184 -0.000001 -1.297208 -0.173311 -0.018970
    24 -0.000001 -0.763066 0.000000 -0.764828 -0.064118 0.059360
    25 0.105982 -2.607132 -0.278958 -0.243330 -0.074707 0.002974
    26 0.000000 -1.250579 0.000001 -0.787802 0.000000 0.000000
    27 -0.000001 -0.932635 0.000001 -1.655650 0.000000 0.000000
    28 0.763065 -2.490555 -0.278958 -0.118666 0.173955 0.234657
    29 -0.012322 -1.280917 0.000000 0.163947 -0.078283 -0.101829
    30 -0.001695 -0.738091 0.129482 -1.218877 0.010997 0.011408
    31 0.354567 0.016267 0.318133 0.332140 -0.490594 -1.265606
    32 1.887164 0.012878 0.000000 0.115100 0.249897 -0.404322
    33 1.001873 -0.000270 0.000000 -0.034899 0.000000 -0.092945
    34 -1.123359 -2.195092 -0.278957 -0.208864 0.033771 -0.106283
    35 0.010771 -0.963791 0.000001 -0.580307 0.023406 0.035690
    36 -0.010412 -0.631916 0.000000 -1.043753 0.000000 0.000000
    37 0.000000 -0.359713 0.000000 0.000000 0.000000 0.000000
    38 -0.170478 -2.636148 -0.277655 -0.530743 0.075354 0.129527
    39 0.010599 -1.261177 0.000002 -1.252346 0.000000 0.000000
    40 -0.000002 -0.943233 0.000000 -1.208493 0.000000 0.000000
    41 -0.827562 -2.508972 -0.277656 0.032257 0.011706 -0.024514
    42 0.000001 -1.292972 0.000000 -0.908243 0.065148 -0.111145
    43 -0.000002 -0.752466 -0.000002 -1.313931 -0.009049 0.017023
    44 0.444213 -2.561962 -0.277655 -0.432451 0.143605 0.180950
    45 0.021022 -1.208187 0.000001 -0.966197 0.000000 0.000000
    46 0.010597 -0.741867 -0.000002 -1.240102 0.000000 0.000000
    47 1.047446 -2.222822 -0.277655 -0.287540 0.038255 0.161483
    48 0.000000 -0.996224 -0.000001 -0.664029 0.000000 0.000000
    49 0.000000 -0.614691 0.000000 -1.344689 0.000000 0.000000
    50 -0.308256 -0.007814 0.307165 -0.987918 -0.823553 -1.831620
    51 1.978378 0.019544 0.000000 0.099985 0.407896 0.869471
    52 0.980611 0.058421 -0.012628 0.185445 -0.212474 0.577857
  time 5
    0 14.150201 -5.326043 -11.387038 0.512328 -2.186274 -0.905800
    1 -0.021283 -8.563257 -0.000750 0.364402 0.365645 -0.439768
    2 -0.350898 -2.752587 0.514683 0.536110 1.767884 0.542634
    3 0.000000 -5.680970 4.733543 1.570796 0.000000 0.000000
    4 0.000000 2.240248 4.862545 -1.570796 0.000000 0.000000
    5 0.000000 -0.030803 -0.185498 0.000000 0.000000 0.000000
    6 0.000000 -1.489114 1.895751 0.087266 0.000000 0.000000
    7 0.000000 -6.270583 1.350241 1.570796 0.000000 0.000000
    8 0.000000 5.114959 2.564909 0.000000 0.000000 0.000000
    9 0.000000 4.784919 4.090397 -1.570796 -3.141592 -0.000001
    10 -14.743998 -5.004490 -11.741204 0.681811 2.027939 1.092756
    11 0.089929 -8.543166 0.000003 0.213304 -0.357994 0.105789
    12 0.431291 -2.480750 0.566680 1.315037 -1.359682 -1.195261
    13 0.000000 -5.680965 4.733542 1.570796 0.000000 0.000000
    14 0.000001 2.240247 4.862545 -1.570796 0.000000 0.000000
    15 0.000000 -0.030803 -0.185497 0.000000 0.000000 0.000000
    16 0.000000 -1.489114 1.895751 0.633688 0.000000 0.000000
    17 0.000000 -6.270579 1.350240 1.570796 0.000000 0.000000
    18 0.000000 0.355522 -2.249654 -1.570796 -3.141592 1.570796
    19 0.000001 5.114957 2.564910 0.000000 0.000000 0.000000
    20 0.000001 4.784917 4.090397 -1.570796 -3.141592 -0.000001
    21 -0.003480 -0.404827 0.000000 -0.000001 0.000000 0.000000
    22 -0.519309 -2.501154 -0.278957 -0.055823 0.159103 -0.101314
    23 -0.010598 -1.208184 -0.000001 -1.297208 -0.173311 -0.018970
    24 -0.000001 -0.763066 0.000000 -0.764828 -0.064118 0.059360
    25 0.105982 -2.607132 -0.278958 -0.243330 -0.074707 0.002974
    26 0.000000 -1.250579 0.000001 -0.787802 0.000000 0.000000
    27 -0.000001 -0.932635 0.000001 -1.655650 0.000000 0.000000
    28 0.763065 -2.490555 -0.278958 -0.118666 0.173955 0.234657
    29 -0.012322 -1.280917 0.000000 0.163947 -0.078283 -0.101829
    30 -0.001695 -0.738091 0.129482 -1.218877 0.010997 0.011408
    31 0.354567 0.016267 0.318133 0.332140 -0.490594 -1.265606
    32 1.887164 0.012878 0.000000 0.115100 0.249897 -0.404322
    33 1.001873 -0.000270 0.000000 -0.034899 0.000000 -0.092945
    34 -1.123359 -2.195092 -0.278957 -0.208864 0.033771 -0.106283
    35 0.010771 -0.963791 0.000001 -0.580307 0.023406 0.035690
    36 -0.010412 -0.631916 0.000000 -1.043753 0.000000 0.000000
    37 0.000000 -0.359713 0.000000 0.000000 0.000000 0.000000
    38 -0.170478 -2.636148 -0.277655 -0.530743 0.075354 0.129527
    39 0.010599 -1.261177 0.000002 -1.252346 0.000000 0.000000
    40 -0.000002 -0.943233 0.000000 -1.208493 0.000000 0.000000
    41 -0.827562 -2.508972 -0.277656 0.032257 0.011706 -0.024514
    42 0.000001 -1.292972 0.000000 -0.881136 0.059875 -0.104458
    43 -0.000002 -0.752466 -0.000002 -1.310921 -0.009049 0.017023
    44 0.444213 -2.561962 -0.277655 -0.432451 0.143605 0.180950
    45 0.021022 -1.208187 0.000001 -0.966197 0.000000 0.000000
    46 0.010597 -0.741867 -0.000002 -1.240102 0.000000 0.000000
    47 1.047446 -2.222822 -0.277655 -0.287540 0.038255 0.161483
    48 0.000000 -0.996224 -0.000001 -0.664029 0.000000 0.000000
    49 0.000000 -0.614691 0.000000 -1.344689 0.000000 0.000000
    50 -0.308256 -0.007814 0.307165 -0.987918 -0.823553 -1.831620
    51 1.978378 0.019544 0.000000 0.099985 0.407896 0.869471
    52 0.980611 0.058421 -0.012628 0.185445 -0.212474 0.577857
  time 6
    0 14.150201 -5.353387 -11.394851 0.509785 -2.184398 -0.903702
    1 -0.021283 -8.563257 -0.000750 0.363238 0.363593 -0.442257
    2 -0.350898 -2.752587 0.514683 0.536110 1.767884 0.542634
    3 0.000000 -5.680970 4.733543 1.570796 0.000000 0.000000
    4 0.000000 2.240248 4.862545 -1.570796 0.000000 0.000000
    5 0.000000 -0.030803 -0.185498 0.000000 0.000000 0.000000
    6 0.000000 -1.489114 1.895751 0.087266 0.000000 0.000000
    7 0.000000 -6.270583 1.350241 1.570796 0.000000 0.000000
    8 0.000000 5.114959 2.564909 0.000000 0.000000 0.000000
    9 0.000000 4.784919 4.090397 -1.570796 -3.141592 -0.000001
    10 -14.743998 -5.149026 -11.698234 0.682796 2.028706 1.093688
    11 0.089929 -8.543166 0.000003 0.205761 -0.363952 0.130160
    12 0.431291 -2.480750 0.566680 1.315037 -1.359682 -1.195261
    13 0.000000 -5.680965 4.733542 1.570796 0.000000 0.000000
    14 0.000001 2.240247 4.862545 -1.570796 0.000000 0.000000
    15 0.000000 -0.030803 -0.185497 0.000000 0.000000 0.000000
    16 0.000000 -1.489114 1.895751 0.633688 0.000000 0.000000
    17 0.000000 -6.270579 1.350240 1.570796 0.000000 0.000000
    18 0.000000 0.355522 -2.249654 -1.570796 -3.141592 1.570796
    19 0.000001 5.114957 2.564910 0.000000 0.000000 0.000000
    20 0.000001 4.784917 4.090397 -1.570796 -3.141592 -0.000001
    21 -0.003480 -0.404827 0.000000 -0.000001 0.000000 0.000000
    22 -0.519309 -2.501154 -0.278957 -0.055823 0.159103 -0.101314
    23 -0.010598 -1.208184 -0.000001 -1.297208 -0.173311 -0.018970
    24 -0.000001 -0.763066 0.000000 -0.764828 -0.064118 0.059360
    25 0.105982 -2.607132 -0.278958 -0.243330 -0.074707 0.002974
    26 0.000000 -1.250579 0.000001 -0.787802 0.000000 0.000000
    27 -0.000001 -0.932635 0.000001 -1.655650 0.000000 0.000000
    28 0.763065 -2.490555 -0.278958 -0.118666 0.173955 0.234657
    29 -0.012322 -1.280917 0.000000 0.163947 -0.078283 -0.101829
    30 -0.001695 -0.738091 0.129482 -1.218877 0.010997 0.011408
    31 0.354567 0.016267 0.318133 0.332140 -0.490594 -1.265606
    32 1.887164 0.012878 0.000000 0.115100 0.249897 -0.404322
    33 1.001873 -0.000270 0.000000 -0.034899 0.000000 -0.092945
    34 -1.123359 -2.195092 -0.278957 -0.208864 0.033771 -0.106283
    35 0.010771 -0.963791 0.000001 -0.580307 0.023406 0.035690
    36 -0.010412 -0.631916 0.000000 -1.043753 0.000000 0.000000
    37 0.000000 -0.359713 0.000000 0.000000 0.000000 0.000000
    38 -0.170478 -2.636148 -0.277655 -0.530743 0.075354 0.129527
    39 0.010599 -1.261177 0.000002 -1.252346 0.000000 0.000000
    40 -0.000002 -0.943233 0.000000 -1.208493 0.000000 0.000000
    41 -0.827562 -2.508972 -0.277656 0.032257 0.011706 -0.024514
    42 0.000001 -1.292972 0.000000 -0.818953 0.047783 -0.089117
    43 -0.000002 -0.752466 -0.000002 -1.307477 -0.009049 0.017023
    44 0.444213 -2.561962 -0.277655 -0.432451 0.143605 0.180950
    45 0.021022 -1.208187 0.000001 -0.966197 0.000000 0.000000
    46 0.010597 -0.741867 -0.000002 -1.240102 0.000000 0.000000
    47 1.047446 -2.222822 -0.277655 -0.287540 0.038255 0.161483
    48 0.000000 -0.996224 -0.000001 -0.664029 0.000000 0.000000
    49 0.000000 -0.614691 0.000000 -1.344689 0.000000 0.000000
    50 -0.308256 -0.007814 0.307165 -0.987918 -0.823553 -1.831620
    51 1.978378 0.019544 0.000000 0.099985 0.407896 0.869471
    52 0.980611 0.058421 -0.012628 0.185445 -0.212474 0.577857
  time 7
    0 14.150201 -5.388545 -11.410476 0.506299 -2.181869 -0.900841
    1 -0.021283 -8.563257 -0.000750 0.362893 0.361100 -0.442604
    2 -0.350898 -2.752587 0.514683 0.536110 1.767884 0.542634
    3 0.000000 -5.680970 4.733543 1.570796 0.000000 0.000000
    4 0.000000 2.240248 4.862545 -1.570796 0.000000 0.000000
    5 0.000000 -0.030803 -0.185498 0.000000 0.000000 0.000000
    6 0.000000 -1.489114 1.895751 0.087266 0.000000 0.000000
    7 0.000000 -6.270583 1.350241 1.570796 0.000000 0.000000
    8 0.000000 5.114959 2.564909 0.000000 0.000000 0.000000
    9 0.000000 4.784919 4.090397 -1.570796 -3.141592 -0.000001
    10 -14.743998 -5.305281 -11.666983 0.686242 2.031773 1.096763
    11 0.089929 -8.543166 0.000003 0.195607 -0.372635 0.163430
    12 0.431291 -2.480750 0.566680 1.315037 -1.359682 -1.195261
    13 0.000000 -5.680965 4.733542 1.570796 0.000000 0.000000
    14 0.000001 2.240247 4.862545 -1.570796 0.000000 0.000000
    15 0.000000 -0.030803 -0.185497 0.000000 0.000000 0.000000
    16 0.000000 -1.489114 1.895751 0.585944 0.000000 0.000000
    17 0.000000 -6.270579 1.350240 1.570796 0.000000 0.000000
    18 0.000000 0.355522 -2.249654 -1.570796 -3.141592 1.570796
    19 0.000001 5.114957 2.564910 0.000000 0.000000 0.000000
    20 0.000001 4.784917 4.090397 -1.570796 -3.141592 -0.000001
    21 -0.003480 -0.404827 0.000000 -0.000001 0.000000 0.000000
    22 -0.519309 -2.501154 -0.278957 -0.055823 0.159103 -0.101314
    23 -0.010598 -1.208184 -0.000001 -1.297208 -0.173311 -0.018970
    24 -0.000001 -0.763066 0.000000 -0.764828 -0.064118 0.059360
    25 0.105982 -2.607132 -0.278958 -0.243330 -0.074707 0.002974
    26 0.000000 -1.250579 0.000001 -0.787802 0.000000 0.000000
    27 -0.000001 -0.932635 0.000001 -1.655650 0.000000 0.000000
    28 0.763065 -2.490555 -0.278958 -0.118666 0.173955 0.234657
    29 -0.012322 -1.280917 0.000000 0.163947 -0.078283 -0.101829
    30 -0.001695 -0.738091 0.129482 -1.218877 0.010997 0.011408
    31 0.354567 0.016267 0.318133 0.332140 -0.490594 -1.265606
    32 1.887164 0.012878 0.000000 0.115100 0.249897 -0.404322
    33 1.001873 -0.000270 0.000000 -0.034899 0.000000 -0.092945
    34 -1.123359 -2.195092 -0.278957 -0.208864 0.033771 -0.106283
    35 0.010771 -0.963791 0.000001 -0.580307 0.023406 0.035690
    36 -0.010412 -0.631916 0.000000 -1.043753 0.000000 0.000000
    37 0.000000 -0.359713 0.000000 0.000000 0.000000 0.000000
    38 -0.170478 -2.636148 -0.277655 -0.530743 0.075354 0.129527
    39 0.010599 -1.261177 0.000002 -1.252346 0.000000 0.000000
    40 -0.000002 -0.943233 0.000000 -1.208493 0.000000 0.000000
    41 -0.827562 -2.508972 -0.277656 0.032257 0.011706 -0.024514
    42 0.000001 -1.292972 0.000000 -0.726190 0.029734 -0.066239
    43 -0.000002 -0.752466 -0.000002 -1.303599 -0.009049 0.017023
    44 0.444213 -2.561962 -0.277655 -0.432451 0.143605 0.180950
    45 0.021022 -1.208187 0.000001 -0.966197 0.000000 0.000000
    46 0.010597 -0.741867 -0.000002 -1.240102 0.000000 0.000000
    47 1.047446 -2.222822 -0.277655 -0.287540 0.038255 0.161483
    48 0.000000 -0.996224 -0.000001 -0.664029 0.000000 0.000000
    49 0.000000 -0.614691 0.000000 -1.344689 0.000000 0.000000
    50 -0.308256 -0.007814 0.307165 -0.987918 -0.823553 -1.831620
    51 1.978378 0.019544 0.000000 0.099985 0.407896 0.869471
    52 0.980611 0.058421 -0.012628 0.185445 -0.212474 0.577857
  time 8
    0 14.150201 -5.427608 -11.422196 0.502531 -2.179177 -0.897789
    1 -0.021283 -8.563257 -0.000750 0.363152 0.358401 -0.441360
    2 -0.350898 -2.752587 0.514683 0.536110 1.767884 0.542634
    3 0.000000 -5.680970 4.733543 1.570796 0.000000 0.000000
    4 0.000000 2.240248 4.862545 -1.570796 0.000000 0.000000
    5 0.000000 -0.030803 -0.185498 0.000000 0.000000 0.000000
    6 0.000000 -1.489114 1.895751 0.087266 0.000000 0.000000
    7 0.000000 -6.270583 1.350241 1.570796 0.000000 0.000000
    8 0.000000 5.114959 2.564909 0.000000 0.000000 0.000000
    9 0.000000 4.784919 4.090397 -1.570796 -3.141592 -0.000001
    10 -14.743998 -5.461535 -11.647451 0.690837 2.035894 1.100864
    11 0.089929 -8.543166 0.000003 0.184454 -0.382565 0.200152
    12 0.431291 -2.480750 0.566680 1.315037 -1.359682 -1.195261
    13 0.000000 -5.680965 4.733542 1.570796 0.000000 0.000000
    14 0.000001 2.240247 4.862545 -1.570796 0.000000 0.000000
    15 0.000000 -0.030803 -0.185497 0.000000 0.000000 0.000000
    16 0.000000 -1.489114 1.895751 0.471409 0.000000 0.000000
    17 0.000000 -6.270579 1.350240 1.570796 0.000000 0.000000
    18 0.000000 0.355522 -2.249654 -1.570796 -3.141592 1.570796
    19 0.000001 5.114957 2.564910 0.000000 0.000000 0.000000
    20 0.000001 4.784917 4.090397 -1.570796 -3.141592 -0.000001
    21 -0.003480 -0.404827 0.000000 -0.000001 0.000000 0.000000
    22 -0.519309 -2.501154 -0.278957 -0.055823 0.159103 -0.101314
    23 -0.010598 -1.208184 -0.000001 -1.297208 -0.173311 -0.018970
    24 -0.000001 -0.763066 0.000000 -0.764828 -0.064118 0.059360
    25 0.105982 -2.607132 -0.278958 -0.243330 -0.074707 0.002974
    26 0.000000 -1.250579 0.000001 -0.787802 0.000000 0.000000
    27 -0.000001 -0.932635 0.000001 -1.655650 0.000000 0.000000
    28 0.763065 -2.490555 -0.278958 -0.118666 0.173955 0.234657
    29 -0.012322 -1.280917 0.000000 0.163947 -0.078283 -0.101829
    30 -0.001695 -0.738091 0.129482 -1.218877 0.010997 0.011408
    31 0.354567 0.016267 0.318133 0.332140 -0.490594 -1.265606
    32 1.887164 0.012878 0.000000 0.115100 0.249897 -0.404322
    33 1.001873 -0.000270 0.000000 -0.034899 0.000000 -0.092945
    34 -1.123359 -2.195092 -0.278957 -0.208864 0.033771 -0.106283
    35 0.010771 -0.963791 0.000001 -0.580307 0.023406 0.035690
    36 -0.010412 -0.631916 0.000000 -1.043753 0.000000 0.000000
    37 0.000000 -0.359713 0.000000 0.000000 0.000000 0.000000
    38 -0.170478 -2.636148 -0.277655 -0.530743 0.075354 0.129527
    39 0.010599 -1.261177 0.000002 -1.252346 0.000000 0.000000
    40 -0.000002 -0.943233 0.000000 -1.208493 0.000000 0.000000
    41 -0.827562 -2.508972 -0.277656 0.032257 0.011706 -0.024514
    42 0.000001 -1.292972 0.000000 -0.616491 0.008401 -0.039190
    43 -0.000002 -0.752466 -0.000002 -1.294921 -0.009049 0.017023
    44 0.444213 -2.561962 -0.277655 -0.432451 0.143605 0.180950
    45 0.021022 -1.208187 0.000001 -0.966197 0.000000 0.000000
    46 0.010597 -0.741867 -0.000002 -1.240102 0.000000 0.000000
    47 1.047446 -2.222822 -0.277655 -0.287540 0.038255 0.161483
    48 0.000000 -0.996224 -0.000001 -0.664029 0.000000 0.000000
    49 0.000000 -0.614691 0.000000 -1.344689 0.000000 0.000000
    50 -0.308256 -0.007814 0.307165 -0.987918 -0.823553 -1.831620
    51 1.978378 0.019544 0.000000 0.099985 0.407896 0.869471
    52 0.980611 0.058421 -0.012628 0.185445 -0.212474 0.577857
  time 9
    0 14.150201 -5.462766 -11.433915 0.499234 -2.176812 -0.895024
    1 -0.021283 -8.563257 -0.000750 0.363755 0.355734 -0.439044
    2 -0.350898 -2.752587 0.514683 0.536110 1.767884 0.542634
    3 0.000000 -5.680970 4.733543 1.570796 0.000000 0.000000
    4 0.000000 2.240248 4.862545 -1.570796 0.000000 0.000000
    5 0.000000 -0.030803 -0.185498 0.000000 0.000000 0.000000
    6 0.000000 -1.489114 1.895751 0.087266 0.000000 0.000000
    7 0.000000 -6.270583 1.350241 1.570796 0.000000 0.000000
    8 0.000000 5.114959 2.564909 0.000000 0.000000 0.000000
    9 0.000000 4.784919 4.090397 -1.570796 -3.141592 -0.000001
    10 -14.743998 -5.602165 -11.635732 0.695104 2.039728 1.104685
    11 0.089929 -8.543166 0.000003 0.173913 -0.392214 0.234924
    12 0.431291 -2.480750 0.566680 1.315037 -1.359682 -1.195261
    13 0.000000 -5.680965 4.733542 1.570796 0.000000 0.000000
    14 0.000001 2.240247 4.862545 -1.570796 0.000000 0.000000
    15 0.000000 -0.030803 -0.185497 0.000000 0.000000 0.000000
    16 0.000000 -1.489114 1.895751 0.333178 0.000000 0.000000
    17 0.000000 -6.270579 1.350240 1.570796 0.000000 0.000000
    18 0.000000 0.355522 -2.249654 -1.570796 -3.141592 1.570796
    19 0.000001 5.114957 2.564910 0.000000 0.000000 0.000000
    20 0.000001 4.784917 4.090397 -1.570796 -3.141592 -0.000001
    21 -0.003480 -0.404827 0.000000 -0.000001 0.000000 0.000000
    22 -0.519309 -2.501154 -0.278957 -0.055823 0.159103 -0.101314
    23 -0.010598 -1.208184 -0.000001 -1.297208 -0.173311 -0.018970
    24 -0.000001 -0.763066 0.000000 -0.764828 -0.064118 0.059360
    25 0.105982 -2.607132 -0.278958 -0.243330 -0.074707 0.002974
    26 0.000000 -1.250579 0.000001 -0.787802 0.000000 0.000000
    27 -0.000001 -0.932635 0.000001 -1.655650 0.000000 0.000000
    28 0.763065 -2.490555 -0.278958 -0.118666 0.173955 0.234657
    29 -0.012322 -1.280917 0.000000 0.163947 -0.078283 -0.101829
    30 -0.001695 -0.738091 0.129482 -1.218877 0.010997 0.011408
    31 0.354567 0.016267 0.318133 0.332140 -0.490594 -1.265606
    32 1.887164 0.012878 0.000000 0.115100 0.249897 -0.404322
    33 1.001873 -0.000270 0.000000 -0.034899 0.000000 -0.092945
    34 -1.123359 -2.195092 -0.278957 -0.208864 0.033771 -0.106283
    35 0.010771 -0.963791 0.000001 -0.580307 0.023406 0.035690
    36 -0.010412 -0.631916 0.000000 -1.043753 0.000000 0.000000
    37 0.000000 -0.359713 0.000000 0.000000 0.000000 0.000000
    38 -0.170478 -2.636148 -0.277655 -0.530743 0.075354 0.129527
    39 0.010599 -1.261177 0.000002 -1.252346 0.000000 0.000000
    40 -0.000002 -0.943233 0.000000 -1.208493 0.000000 0.000000
    41 -0.827562 -2.508972 -0.277656 0.032257 0.011706 -0.024514
    42 0.000001 -1.292972 0.000000 -0.503500 -0.013555 -0.011313
    43 -0.000002 -0.752466 -0.000002 -1.277077 -0.009049 0.017023
    44 0.444213 -2.561962 -0.277655 -0.432451 0.143605 0.180950
    45 0.021022 -1.208187 0.000001 -0.966197 0.000000 0.000000
    46 0.010597 -0.741867 -0.000002 -1.240102 0.000000 0.000000
    47 1.047446 -2.222822 -0.277655 -0.287540 0.038255 0.161483
    48 0.000000 -0.996224 -0.000001 -0.664029 0.000000 0.000000
    49 0.000000 -0.614691 0.000000 -1.344689 0.000000 0.000000
    50 -0.308256 -0.007814 0.307165 -0.987918 -0.823553 -1.831620
    51 1.978378 0.019544 0.000000 0.099985 0.407896 0.869471
    52 0.980611 0.058421 -0.012628 0.185445 -0.212474 0.577857
  time 10
    0 14.150201 -5.486204 -11.441727 0.497067 -2.175262 -0.893307
    1 -0.021283 -8.563257 -0.000750 0.364617 0.353382 -0.436266
    2 -0.350898 -2.752587 0.514683 0.536110 1.767884 0.542634
    3 0.000000 -5.680970 4.733543 1.570796 0.000000 0.000000
    4 0.000000 2.240248 4.862545 -1.570796 0.000000 0.000000
    5 0.000000 -0.030803 -0.185498 0.000000 0.000000 0.000000
    6 0.000000 -1.489114 1.895751 0.087266 0.000000 0.000000
    7 0.000000 -6.270583 1.350241 1.570796 0.000000 0.000000
    8 0.000000 5.114959 2.564909 0.000000 0.000000 0.000000
    9 0.000000 4.784919 4.090397 -1.570796 -3.141592 -0.000001
    10 -14.743998 -5.719356 -11.631825 0.697648 2.041932 1.107015
    11 0.089929 -8.543166 0.000003 0.165693 -0.400107 0.262278
    12 0.431291 -2.480750 0.566680 1.315037 -1.359682 -1.195261
    13 0.000000 -5.680965 4.733542 1.570796 0.000000 0.000000
    14 0.000001 2.240247 4.862545 -1.570796 0.000000 0.000000
    15 0.000000 -0.030803 -0.185497 0.000000 0.000000 0.000000
    16 0.000000 -1.489114 1.895751 0.214358 0.000000 0.000000
    17 0.000000 -6.270579 1.350240 1.570796 0.000000 0.000000
    18 0.000000 0.355522 -2.249654 -1.570796 -3.141592 1.570796
    19 0.000001 5.114957 2.564910 0.000000 0.000000 0.000000
    20 0.000001 4.784917 4.090397 -1.570796 -3.141592 -0.000001
    21 -0.003480 -0.404827 0.000000 -0.000001 0.000000 0.000000
    22 -0.519309 -2.501154 -0.278957 -0.055823 0.159103 -0.101314
    23 -0.010598 -1.208184 -0.000001 -1.297208 -0.173311 -0.018970
    24 -0.000001 -0.763066 0.000000 -0.764828 -0.064118 0.059360
    25 0.105982 -2.607132 -0.278958 -0.243330 -0.074707 0.002974
    26 0.000000 -1.250579 0.000001 -0.787802 0.000000 0.000000
    27 -0.000001 -0.932635 0.000001 -1.655650 0.000000 0.000000
    28 0.763065 -2.490555 -0.278958 -0.118666 0.173955 0.234657
    29 -0.012322 -1.280917 0.000000 0.163947 -0.078283 -0.101829
    30 -0.001695 -0.738091 0.129482 -1.218877 0.010997 0.011408
    31 0.354567 0.016267 0.318133 0.332140 -0.490594 -1.265606
    32 1.887164 0.012878 0.000000 0.115100 0.249897 -0.404322
    33 1.001873 -0.000270 0.000000 -0.034899 0.000000 -0.092945
    34 -1.123359 -2.195092 -0.278957 -0.208864 0.033771 -0.106283
    35 0.010771 -0.963791 0.000001 -0.580307 0.023406 0.035690
    36 -0.010412 -0.631916 0.000000 -1.043753 0.000000 0.000000
    37 0.000000 -0.359713 0.000000 0.000000 0.000000 0.000000
    38 -0.170478 -2.636148 -0.277655 -0.530743 0.075354 0.129527
    39 0.010599 -1.261177 0.000002 -1.252346 0.000000 0.000000
    40 -0.000002 -0.943233 0.000000 -1.208493 0.000000 0.000000
    41 -0.827562 -2.508972 -0.277656 0.032257 0.011706 -0.024514
    42 0.000001 -1.292972 0.000000 -0.400838 -0.033521 0.013986
    43 -0.000002 -0.752466 -0.000002 -1.240602 -0.009049 0.017023
    44 0.444213 -2.561962 -0.277655 -0.432451 0.143605 0.180950
    45 0.021022 -1.208187 0.000001 -0.966197 0.000000 0.000000
    46 0.010597 -0.741867 -0.000002 -1.240102 0.000000 0.000000
    47 1.047446 -2.222822 -0.277655 -0.287540 0.038255 0.161483
    48 0.000000 -0.996224 -0.000001 -0.664029 0.000000 0.000000
    49 0.000000 -0.614691 0.000000 -1.344689 0.000000 0.000000
    50 -0.308256 -0.007814 0.307165 -0.987918 -0.823553 -1.831620
    51 1.978378 0.019544 0.000000 0.099985 0.407896 0.869471
    52 0.980611 0.058421 -0.012628 0.185445 -0.212474 0.577857
  time 11
    0 14.150201 -5.497923 -11.445634 0.495937 -2.174446 -0.892354
    1 -0.021283 -8.563257 -0.000750 0.365522 0.351583 -0.433487
    2 -0.350898 -2.752587 0.514683 0.536110 1.767884 0.542634
    3 0.000000 -5.680970 4.733543 1.570796 0.000000 0.000000
    4 0.000000 2.240248 4.862545 -1.570796 0.000000 0.000000
    5 0.000000 -0.030803 -0.185498 0.000000 0.000000 0.000000
    6 0.000000 -1.489114 1.895751 0.087266 0.000000 0.000000
    7 0.000000 -6.270583 1.350241 1.570796 0.000000 0.000000
    8 0.000000 5.114959 2.564909 0.000000 0.000000 0.000000
    9 0.000000 4.784919 4.090397 -1.570796 -3.141592 -0.000001
    10 -14.743998 -5.813109 -11.643544 0.698551 2.042699 1.107853
    11 0.089929 -8.543166 0.000003 0.161406 -0.404767 0.276764
    12 0.431291 -2.480750 0.566680 1.315037 -1.359682 -1.195261
    13 0.000000 -5.680965 4.733542 1.570796 0.000000 0.000000
    14 0.000001 2.240247 4.862545 -1.570796 0.000000 0.000000
    15 0.000000 -0.030803 -0.185497 0.000000 0.000000 0.000000
    16 0.000000 -1.489114 1.895751 0.158008 0.000000 0.000000
    17 0.000000 -6.270579 1.350240 1.570796 0.000000 0.000000
    18 0.000000 0.355522 -2.249654 -1.570796 -3.141592 1.570796
    19 0.000001 5.114957 2.564910 0.000000 0.000000 0.000000
    20 0.000001 4.784917 4.090397 -1.570796 -3.141592 -0.000001
    21 -0.003480 -0.404827 0.000000 -0.000001 0.000000 0.000000
    22 -0.519309 -2.501154 -0.278957 -0.055823 0.159103 -0.101314
    23 -0.010598 -1.208184 -0.000001 -1.297208 -0.173311 -0.018970
    24 -0.000001 -0.763066 0.000000 -0.764828 -0.064118 0.059360
    25 0.105982 -2.607132 -0.278958 -0.243330 -0.074707 0.002974
    26 0.000000 -1.250579 0.000001 -0.787802 0.000000 0.000000
    27 -0.000001 -0.932635 0.000001 -1.655650 0.000000 0.000000
    28 0.763065 -2.490555 -0.278958 -0.118666 0.173955 0.234657
    29 -0.012322 -1.280917 0.000000 0.163947 -0.078283 -0.101829
    30 -0.001695 -0.738091 0.129482 -1.218877 0.010997 0.011408
    31 0.354567 0.016267 0.318133 0.332140 -0.490594 -1.265606
    32 1.887164 0.012878 0.000000 0.115100 0.249897 -0.404322
    33 1.001873 -0.000270 0.000000 -0.034899 0.000000 -0.092945
    34 -1.123359 -2.195092 -0.278957 -0.208864 0.033771 -0.106283
    35 0.010771 -0.963791 0.000001 -0.580307 0.023406 0.035690
    36 -0.010412 -0.631916 0.000000 -1.043753 0.000000 0.000000
    37 0.000000 -0.359713 0.000000 0.000000 0.000000 0.000000
    38 -0.170478 -2.636148 -0.277655 -0.530743 0.075354 0.129527
    39 0.010599 -1.261177 0.000002 -1.252346 0.000000 0.000000
    40 -0.000002 -0.943233 0.000000 -1.208493 0.000000 0.000000
    41 -0.827562 -2.508972 -0.277656 0.032257 0.011706 -0.024514
    42 0.000001 -1.292972 0.000000 -0.322196 -0.048813 0.033389
    43 -0.000002 -0.752466 -0.000002 -1.184141 -0.009049 0.017023
    44 0.444213 -2.561962 -0.277655 -0.432451 0.143605 0.180950
    45 0.021022 -1.208187 0.000001 -0.966197 0.000000 0.000000
    46 0.010597 -0.741867 -0.000002 -1.240102 0.000000 0.000000
    47 1.047446 -2.222822 -0.277655 -0.287540 0.038255 0.161483
    48 0.000000 -0.996224 -0.000001 -0.664029 0.000000 0.000000
    49 0.000000 -0.614691 0.000000 -1.344689 0.000000 0.000000
    50 -0.308256 -0.007814 0.307165 -0.987918 -0.823553 -1.831620
    51 1.978378 0.019544 0.000000 0.099985 0.407896 0.869471
    52 0.980611 0.058421 -0.012628 0.185445 -0.212474 0.577857
  time 12
    0 14.150201 -5.509642 -11.445634 0.495183 -2.173875 -0.891686
    1 -0.021283 -8.563257 -0.000750 0.366255 0.350589 -0.431345
    2 -0.350898 -2.752587 0.514683 0.536110 1.767884 0.542634
    3 0.000000 -5.680970 4.733543 1.570796 0.000000 0.000000
    4 0.000000 2.240248 4.862545 -1.570796 0.000000 0.000000
    5 0.000000 -0.030803 -0.185498 0.000000 0.000000 0.000000
    6 0.000000 -1.489114 1.895751 0.087266 0.000000 0.000000
    7 0.000000 -6.270583 1.350241 1.570796 0.000000 0.000000
    8 0.000000 5.114959 2.564909 0.000000 0.000000 0.000000
    9 0.000000 4.784919 4.090397 -1.570796 -3.141592 -0.000001
    10 -14.743998 -5.895142 -11.674795 0.698961 2.043082 1.108226
    11 0.089929 -8.543166 0.000003 0.161502 -0.406014 0.276976
    12 0.431291 -2.480750 0.566680 1.315037 -1.359682 -1.195261
    13 0.000000 -5.680965 4.733542 1.570796 0.000000 0.000000
    14 0.000001 2.240247 4.862545 -1.570796 0.000000 0.000000
    15 0.000000 -0.030803 -0.185497 0.000000 0.000000 0.000000
    16 0.000000 -1.489114 1.895751 0.149503 0.000000 0.000000
    17 0.000000 -6.270579 1.350240 1.570796 0.000000 0.000000
    18 0.000000 0.355522 -2.249654 -1.570796 -3.141592 1.570796
    19 0.000001 5.114957 2.564910 0.000000 0.000000 0.000000
    20 0.000001 4.784917 4.090397 -1.570796 -3.141592 -0.000001
    21 -0.003480 -0.404827 0.000000 -0.000001 0.000000 0.000000
    22 -0.519309 -2.501154 -0.278957 -0.055823 0.159103 -0.101314
    23 -0.010598 -1.208184 -0.000001 -1.297208 -0.173311 -0.018970
    24 -0.000001 -0.763066 0.000000 -0.764828 -0.064118 0.059360
    25 0.105982 -2.607132 -0.278958 -0.243330 -0.074707 0.002974
    26 0.000000 -1.250579 0.000001 -0.787802 0.000000 0.000000
    27 -0.000001 -0.932635 0.000001 -1.655650 0.000000 0.000000
    28 0.763065 -2.490555 -0.278958 -0.118666 0.173955 0.234657
    29 -0.012322 -1.280917 0.000000 0.163947 -0.078283 -0.101829
    30 -0.001695 -0.738091 0.129482 -1.218877 0.010997 0.011408
    31 0.354567 0.016267 0.318133 0.332140 -0.490594 -1.265606
    32 1.887164 0.012878 0.000000 0.115100 0.249897 -0.404322
    33 1.001873 -0.000270 0.000000 -0.034899 0.000000 -0.092945
    34 -1.123359 -2.195092 -0.278957 -0.208864 0.033771 -0.106283
    35 0.010771 -0.963791 0.000001 -0.580307 0.023406 0.035690
    36 -0.010412 -0.631916 0.000000 -1.043753 0.000000 0.000000
    37 0.000000 -0.359713 0.000000 0.000000 0.000000 0.000000
    38 -0.170478 -2.636148 -0.277655 -0.530743 0.075354 0.129527
    39 0.010599 -1.261177 0.000002 -1.252346 0.000000 0.000000
    40 -0.000002 -0.943233 0.000000 -1.208493 0.000000 0.000000
    41 -0.827562 -2.508972 -0.277656 0.032257 0.011706 -0.024514
    42 0.000001 -1.292972 0.000000 -0.270002 -0.058964 0.046261
    43 -0.000002 -0.752466 -0.000002 -1.115422 -0.009049 0.017023
    44 0.444213 -2.561962 -0.277655 -0.432451 0.143605 0.180950
    45 0.021022 -1.208187 0.000001 -0.966197 0.000000 0.000000
    46 0.010597 -0.741867 -0.000002 -1.240102 0.000000 0.000000
    47 1.047446 -2.222822 -0.277655 -0.287540 0.038255 0.161483
    48 0.000000 -0.996224 -0.000001 -0.664029 0.000000 0.000000
    49 0.000000 -0.614691 0.000000 -1.344689 0.000000 0.000000
    50 -0.308256 -0.007814 0.307165 -0.987918 -0.823553 -1.831620
    51 1.978378 0.019544 0.000000 0.099985 0.407896 0.869471
    52 0.980611 0.058421 -0.012628 0.185445 -0.212474 0.577857
  time 13
    0 14.150201 -5.513549 -11.449540 0.494712 -2.173549 -0.891305
    1 -0.021283 -8.563257 -0.000750 0.367117 0.350573 -0.429059
    2 -0.350898 -2.752587 0.514683 0.536110 1.767884 0.542634
    3 0.000000 -5.680970 4.733543 1.570796 0.000000 0.000000
    4 0.000000 2.240248 4.862545 -1.570796 0.000000 0.000000
    5 0.000000 -0.030803 -0.185498 0.000000 0.000000 0.000000
    6 0.000000 -1.489114 1.895751 0.087266 0.000000 0.000000
    7 0.000000 -6.270583 1.350241 1.570796 0.000000 0.000000
    8 0.000000 5.114959 2.564909 0.000000 0.000000 0.000000
    9 0.000000 4.784919 4.090397 -1.570796 -3.141592 -0.000001
    10 -14.743998 -5.961551 -11.713859 0.699043 2.043178 1.108226
    11 0.089929 -8.543166 0.000003 0.164694 -0.405200 0.267255
    12 0.431291 -2.480750 0.566680 1.315037 -1.359682 -1.195261
    13 0.000000 -5.680965 4.733542 1.570796 0.000000 0.000000
    14 0.000001 2.240247 4.862545 -1.570796 0.000000 0.000000
    15 0.000000 -0.030803 -0.185497 0.000000 0.000000 0.000000
    16 0.000000 -1.489114 1.895751 0.144566 0.000000 0.000000
    17 0.000000 -6.270579 1.350240 1.570796 0.000000 0.000000
    18 0.000000 0.355522 -2.249654 -1.570796 -3.141592 1.570796
    19 0.000001 5.114957 2.564910 0.000000 0.000000 0.000000
    20 0.000001 4.784917 4.090397 -1.570796 -3.141592 -0.000001
    21 -0.003480 -0.404827 0.000000 -0.000001 0.000000 0.000000
    22 -0.519309 -2.501154 -0.278957 -0.055823 0.159103 -0.101314
    23 -0.010598 -1.208184 -0.000001 -1.297208 -0.173311 -0.018970
    24 -0.000001 -0.763066 0.000000 -0.764828 -0.064118 0.059360
    25 0.105982 -2.607132 -0.278958 -0.243330 -0.074707 0.002974
    26 0.000000 -1.250579 0.000001 -0.787802 0.000000 0.000000
    27 -0.000001 -0.932635 0.000001 -1.655650 0.000000 0.000000
    28 0.763065 -2.490555 -0.278958 -0.118666 0.173955 0.234657
    29 -0.012322 -1.280917 0.000000 0.163947 -0.078283 -0.101829
    30 -0.001695 -0.738091 0.129482 -1.218877 0.010997 0.011408
    31 0.354567 0.016267 0.318133 0.332140 -0.490594 -1.265606
    32 1.887164 0.012878 0.000000 0.115100 0.249897 -0.404322
    33 1.001873 -0.000270 0.000000 -0.034899 0.000000 -0.092945
    34 -1.123359 -2.195092 -0.278957 -0.208864 0.033771 -0.106283
    35 0.010771 -0.963791 0.000001 -0.580307 0.023406 0.035690
    36 -0.010412 -0.631916 0.000000 -1.043753 0.000000 0.000000
    37 0.000000 -0.359713 0.000000 0.000000 0.000000 0.000000
    38 -0.170478 -2.636148 -0.277655 -0.530743 0.075354 0.129527
    39 0.010599 -1.261177 0.000002 -1.252346 0.000000 0.000000
    40 -0.000002 -0.943233 0.000000 -1.208493 0.000000 0.000000
    41 -0.827562 -2.508972 -0.277656 0.032257 0.011706 -0.024514
    42 0.000001 -1.292972 0.000000 -0.235926 -0.065592 0.054662
    43 -0.000002 -0.752466 -0.000002 -1.042174 -0.009049 0.017023
    44 0.444213 -2.561962 -0.277655 -0.432451 0.143605 0.180950
    45 0.021022 -1.208187 0.000001 -0.966197 0.000000 0.000000
    46 0.010597 -0.741867 -0.000002 -1.240102 0.000000 0.000000
    47 1.047446 -2.222822 -0.277655 -0.287540 0.038255 0.161483
    48 0.000000 -0.996224 -0.000001 -0.664029 0.000000 0.000000
    49 0.000000 -0.614691 0.000000 -1.344689 0.000000 0.000000
    50 -0.308256 -0.007814 0.307165 -0.987918 -0.823553 -1.831620
    51 1.978378 0.019544 0.000000 0.099985 0.407896 0.869471
    52 0.980611 0.058421 -0.012628 0.185445 -0.212474 0.577857
  time 14
    0 14.150201 -5.513549 -11.449540 0.494523 -2.173386 -0.891114
    1 -0.021283 -8.563257 -0.000750 0.368453 0.351441 -0.425788
    2 -0.350898 -2.752587 0.514683 0.536110 1.767884 0.542634
    3 0.000000 -5.680970 4.733543 1.570796 0.000000 0.000000
    4 0.000000 2.240248 4.862545 -1.570796 0.000000 0.000000
    5 0.000000 -0.030803 -0.185498 0.000000 0.000000 0.000000
    6 0.000000 -1.489114 1.895751 0.087266 0.000000 0.000000
    7 0.000000 -6.270583 1.350241 1.570796 0.000000 0.000000
    8 0.000000 5.114959 2.564909 0.000000 0.000000 0.000000
    9 0.000000 4.784919 4.090397 -1.570796 -3.141592 -0.000001
    10 -14.743998 -6.016240 -11.764642 0.698879 2.042986 1.108040
    11 0.089929 -8.543166 0.000003 0.169980 -0.402908 0.250867
    12 0.431291 -2.480750 0.566680 1.315037 -1.359682 -1.195261
    13 0.000000 -5.680965 4.733542 1.570796 0.000000 0.000000
    14 0.000001 2.240247 4.862545 -1.570796 0.000000 0.000000
    15 0.000000 -0.030803 -0.185497 0.000000 0.000000 0.000000
    16 0.000000 -1.489114 1.895751 0.141832 0.000000 0.000000
    17 0.000000 -6.270579 1.350240 1.570796 0.000000 0.000000
    18 0.000000 0.355522 -2.249654 -1.570796 -3.141592 1.570796
    19 0.000001 5.114957 2.564910 0.000000 0.000000 0.000000
    20 0.000001 4.784917 4.090397 -1.570796 -3.141592 -0.000001
    21 -0.003480 -0.404827 0.000000 -0.000001 0.000000 0.000000
    22 -0.519309 -2.501154 -0.278957 -0.055823 0.159103 -0.101314
    23 -0.010598 -1.208184 -0.000001 -1.297208 -0.173311 -0.018970
    24 -0.000001 -0.763066 0.000000 -0.764828 -0.064118 0.059360
    25 0.105982 -2.607132 -0.278958 -0.243330 -0.074707 0.002974
    26 0.000000 -1.250579 0.000001 -0.787802 0.000000 0.000000
    27 -0.000001 -0.932635 0.000001 -1.655650 0.000000 0.000000
    28 0.763065 -2.490555 -0.278958 -0.118666 0.173955 0.234657
    29 -0.012322 -1.280917 0.000000 0.163947 -0.078283 -0.101829
    30 -0.001695 -0.738091 0.129482 -1.218877 0.010997 0.011408
    31 0.354567 0.016267 0.318133 0.332140 -0.490594 -1.265606
    32 1.887164 0.012878 0.000000 0.115100 0.249897 -0.404322
    33 1.001873 -0.000270 0.000000 -0.034899 0.000000 -0.092945
    34 -1.123359 -2.195092 -0.278957 -0.208864 0.033771 -0.106283
    35 0.010771 -0.963791 0.000001 -0.580307 0.023406 0.035690
    36 -0.010412 -0.631916 0.000000 -1.043753 0.000000 0.000000
    37 0.000000 -0.359713 0.000000 0.000000 0.000000 0.000000
    38 -0.170478 -2.636148 -0.277655 -0.530743 0.075354 0.129527
    39 0.010599 -1.261177 0.000002 -1.252346 0.000000 0.000000
    40 -0.000002 -0.943233 0.000000 -1.208493 0.000000 0.000000
    41 -0.827562 -2.508972 -0.277656 0.032257 0.011706 -0.024514
    42 0.000001 -1.292972 0.000000 -0.217378 -0.069199 0.059240
    43 -0.000002 -0.752466 -0.000002 -0.972100 -0.009049 0.017023
    44 0.444213 -2.561962 -0.277655 -0.432451 0.143605 0.180950
    45 0.021022 -1.208187 0.000001 -0.966197 0.000000 0.000000
    46 0.010597 -0.741867 -0.000002 -1.240102 0.000000 0.000000
    47 1.047446 -2.222822 -0.277655 -0.287540 0.038255 0.161483
    48 0.000000 -0.996224 -0.000001 -0.664029 0.000000 0.000000
    49 0.000000 -0.614691 0.000000 -1.344689 0.000000 0.000000
    50 -0.308256 -0.007814 0.307165 -0.987918 -0.823553 -1.831620
    51 1.978378 0.019544 0.000000 0.099985 0.407896 0.869471
    52 0.980611 0.058421 -0.012628 0.185445 -0.212474 0.577857
  time 15
    0 14.150201 -5.513549 -11.449540 0.494523 -2.173467 -0.891114
    1 -0.021283 -8.563257 -0.000750 0.370134 0.352988 -0.421765
    2 -0.350898 -2.752587 0.514683 0.536110 1.767884 0.542634
    3 0.000000 -5.680970 4.733543 1.570796 0.000000 0.000000
    4 0.000000 2.240248 4.862545 -1.570796 0.000000 0.000000
    5 0.000000 -0.030803 -0.185498 0.000000 0.000000 0.000000
    6 0.000000 -1.489114 1.895751 0.087266 0.000000 0.000000
    7 0.000000 -6.270583 1.350241 1.570796 0.000000 0.000000
    8 0.000000 5.114959 2.564909 0.000000 0.000000 0.000000
    9 0.000000 4.784919 4.090397 -1.570796 -3.141592 -0.000001
    10 -14.743998 -6.055304 -11.815425 0.698469 2.042603 1.107760
    11 0.089929 -8.543166 0.000003 0.176330 -0.399776 0.231027
    12 0.431291 -2.480750 0.566680 1.315037 -1.359682 -1.195261
    13 0.000000 -5.680965 4.733542 1.570796 0.000000 0.000000
    14 0.000001 2.240247 4.862545 -1.570796 0.000000 0.000000
    15 0.000000 -0.030803 -0.185497 0.000000 0.000000 0.000000
    16 0.000000 -1.489114 1.895751 0.139897 0.000000 0.000000
    17 0.000000 -6.270579 1.350240 1.570796 0.000000 0.000000
    18 0.000000 0.355522 -2.249654 -1.570796 -3.141592 1.570796
    19 0.000001 5.114957 2.564910 0.000000 0.000000 0.000000
    20 0.000001 4.784917 4.090397 -1.570796 -3.141592 -0.000001
    21 -0.003480 -0.404827 0.000000 -0.000001 0.000000 0.000000
    22 -0.519309 -2.501154 -0.278957 -0.055823 0.159103 -0.101314
    23 -0.010598 -1.208184 -0.000001 -1.297208 -0.173311 -0.018970
    24 -0.000001 -0.763066 0.000000 -0.764828 -0.064118 0.059360
    25 0.105982 -2.607132 -0.278958 -0.243330 -0.074707 0.002974
    26 0.000000 -1.250579 0.000001 -0.787802 0.000000 0.000000
    27 -0.000001 -0.932635 0.000001 -1.655650 0.000000 0.000000
    28 0.763065 -2.490555 -0.278958 -0.118666 0.173955 0.234657
    29 -0.012322 -1.280917 0.000000 0.163947 -0.078283 -0.101829
    30 -0.001695 -0.738091 0.129482 -1.218877 0.010997 0.011408
    31 0.354567 0.016267 0.318133 0.332140 -0.490594 -1.265606
    32 1.887164 0.012878 0.000000 0.115100 0.249897 -0.404322
    33 1.001873 -0.000270 0.000000 -0.034899 0.000000 -0.092945
    34 -1.123359 -2.195092 -0.278957 -0.208864 0.033771 -0.106283
    35 0.010771 -0.963791 0.000001 -0.580307 0.023406 0.035690
    36 -0.010412 -0.631916 0.000000 -1.043753 0.000000 0.000000
    37 0.000000 -0.359713 0.000000 0.000000 0.000000 0.000000
    38 -0.170478 -2.636148 -0.277655 -0.530743 0.075354 0.129527
    39 0.010599 -1.261177 0.000002 -1.252346 0.000000 0.000000
    40 -0.000002 -0.943233 0.000000 -1.208493 0.000000 0.000000
    41 -0.827562 -2.508972 -0.277656 0.032257 0.011706 -0.024514
    42 0.000001 -1.292972 0.000000 -0.211770 -0.070290 0.060618
    43 -0.000002 -0.752466 -0.000002 -0.912954 -0.009049 0.017023
    44 0.444213 -2.561962 -0.277655 -0.432451 0.143605 0.180950
    45 0.021022 -1.208187 0.000001 -0.966197 0.000000 0.000000
    46 0.010597 -0.741867 -0.000002 -1.240102 0.000000 0.000000
    47 1.047446 -2.222822 -0.277655 -0.287540 0.038255 0.161483
    48 0.000000 -0.996224 -0.000001 -0.664029 0.000000 0.000000
    49 0.000000 -0.614691 0.000000 -1.344689 0.000000 0.000000
    50 -0.308256 -0.007814 0.307165 -0.987918 -0.823553 -1.831620
    51 1.978378 0.019544 0.000000 0.099985 0.407896 0.869471
    52 0.980611 0.058421 -0.012628 0.185445 -0.212474 0.577857
  time 16
    0 14.150201 -5.513549 -11.449540 0.494712 -2.173549 -0.891305
    1 -0.021283 -8.563257 -0.000750 0.372031 0.355055 -0.417250
    2 -0.350898 -2.752587 0.514683 0.536110 1.767884 0.542634
    3 0.000000 -5.680970 4.733543 1.570796 0.000000 0.000000
    4 0.000000 2.240248 4.862545 -1.570796 0.000000 0.000000
    5 0.000000 -0.030803 -0.185498 0.000000 0.000000 0.000000
    6 0.000000 -1.489114 1.895751 0.087266 0.000000 0.000000
    7 0.000000 -6.270583 1.350241 1.570796 0.000000 0.000000
    8 0.000000 5.114959 2.564909 0.000000 0.000000 0.000000
    9 0.000000 4.784919 4.090397 -1.570796 -3.141592 -0.000001
    10 -14.743998 -6.086555 -11.862301 0.698058 2.042315 1.107387
    11 0.089929 -8.543166 0.000003 0.182745 -0.396416 0.210976
    12 0.431291 -2.480750 0.566680 1.315037 -1.359682 -1.195261
    13 0.000000 -5.680965 4.733542 1.570796 0.000000 0.000000
    14 0.000001 2.240247 4.862545 -1.570796 0.000000 0.000000
    15 0.000000 -0.030803 -0.185497 0.000000 0.000000 0.000000
    16 0.000000 -1.489114 1.895751 0.137379 0.000000 0.000000
    17 0.000000 -6.270579 1.350240 1.570796 0.000000 0.000000
    18 0.000000 0.355522 -2.249654 -1.570796 -3.141592 1.570796
    19 0.000001 5.114957 2.564910 0.000000 0.000000 0.000000
    20 0.000001 4.784917 4.090397 -1.570796 -3.141592 -0.000001
    21 -0.003480 -0.404827 0.000000 -0.000001 0.000000 0.000000
    22 -0.519309 -2.501154 -0.278957 -0.055823 0.159103 -0.101314
    23 -0.010598 -1.208184 -0.000001 -1.297208 -0.173311 -0.018970
    24 -0.000001 -0.763066 0.000000 -0.764828 -0.064118 0.059360
    25 0.105982 -2.607132 -0.278958 -0.243330 -0.074707 0.002974
    26 0.000000 -1.250579 0.000001 -0.787802 0.000000 0.000000
    27 -0.000001 -0.932635 0.000001 -1.655650 0.000000 0.000000
    28 0.763065 -2.490555 -0.278958 -0.118666 0.173955 0.234657
    29 -0.012322 -1.280917 0.000000 0.163947 -0.078283 -0.101829
    30 -0.001695 -0.738091 0.129482 -1.218877 0.010997 0.011408
    31 0.354567 0.016267 0.318133 0.332140 -0.490594 -1.265606
    32 1.887164 0.012878 0.000000 0.115100 0.249897 -0.404322
    33 1.001873 -0.000270 0.000000 -0.034899 0.000000 -0.092945
    34 -1.123359 -2.195092 -0.278957 -0.208864 0.033771 -0.106283
    35 0.010771 -0.963791 0.000001 -0.580307 0.023406 0.035690
    36 -0.010412 -0.631916 0.000000 -1.043753 0.000000 0.000000
    37 0.000000 -0.359713 0.000000 0.000000 0.000000 0.000000
    38 -0.170478 -2.636148 -0.277655 -0.530743 0.075354 0.129527
    39 0.010599 -1.261177 0.000002 -1.252346 0.000000 0.000000
    40 -0.000002 -0.943233 0.000000 -1.208493 0.000000 0.000000
    41 -0.827562 -2.508972 -0.277656 0.032257 0.011706 -0.024514
    42 0.000001 -1.292972 0.000000 -0.216515 -0.069367 0.059444
    43 -0.000002 -0.752466 -0.000002 -0.872438 -0.009049 0.017023
    44 0.444213 -2.561962 -0.277655 -0.432451 0.143605 0.180950
    45 0.021022 -1.208187 0.000001 -0.966197 0.000000 0.000000
    46 0.010597 -0.741867 -0.000002 -1.240102 0.000000 0.000000
    47 1.047446 -2.222822 -0.277655 -0.287540 0.038255 0.161483
    48 0.000000 -0.996224 -0.000001 -0.664029 0.000000 0.000000
    49 0.000000 -0.614691 0.000000 -1.344689 0.000000 0.000000
    50 -0.308256 -0.007814 0.307165 -0.987918 -0.823553 -1.831620
    51 1.978378 0.019544 0.000000 0.099985 0.407896 0.869471
    52 0.980611 0.058421 -0.012628 0.185445 -0.212474 0.577857
  time 17
    0 14.150201 -5.509642 -11.445634 0.495089 -2.173794 -0.891591
    1 -0.021283 -8.563257 -0.000750 0.374057 0.357438 -0.412504
    2 -0.350898 -2.752587 0.514683 0.536110 1.767884 0.542634
    3 0.000000 -5.680970 4.733543 1.570796 0.000000 0.000000
    4 0.000000 2.240248 4.862545 -1.570796 0.000000 0.000000
    5 0.000000 -0.030803 -0.185498 0.000000 0.000000 0.000000
    6 0.000000 -1.489114 1.895751 0.087266 0.000000 0.000000
    7 0.000000 -6.270583 1.350241 1.570796 0.000000 0.000000
    8 0.000000 5.114959 2.564909 0.000000 0.000000 0.000000
    9 0.000000 4.784919 4.090397 -1.570796 -3.141592 -0.000001
    10 -14.743998 -6.106086 -11.901365 0.697730 2.042028 1.107108
    11 0.089929 -8.543166 0.000003 0.188161 -0.393513 0.193953
    12 0.431291 -2.480750 0.566680 1.315037 -1.359682 -1.195261
    13 0.000000 -5.680965 4.733542 1.570796 0.000000 0.000000
    14 0.000001 2.240247 4.862545 -1.570796 0.000000 0.000000
    15 0.000000 -0.030803 -0.185497 0.000000 0.000000 0.000000
    16 0.000000 -1.489114 1.895751 0.132926 0.000000 0.000000
    17 0.000000 -6.270579 1.350240 1.570796 0.000000 0.000000
    18 0.000000 0.355522 -2.249654 -1.570796 -3.141592 1.570796
    19 0.000001 5.114957 2.564910 0.000000 0.000000 0.000000
    20 0.000001 4.784917 4.090397 -1.570796 -3.141592 -0.000001
    21 -0.003480 -0.404827 0.000000 -0.000001 0.000000 0.000000
    22 -0.519309 -2.501154 -0.278957 -0.055823 0.159103 -0.101314
    23 -0.010598 -1.208184 -0.000001 -1.297208 -0.173311 -0.018970
    24 -0.000001 -0.763066 0.000000 -0.764828 -0.064118 0.059360
    25 0.105982 -2.607132 -0.278958 -0.243330 -0.074707 0.002974
    26 0.000000 -1.250579 0.000001 -0.787802 0.000000 0.000000
    27 -0.000001 -0.932635 0.000001 -1.655650 0.000000 0.000000
    28 0.763065 -2.490555 -0.278958 -0.118666 0.173955 0.234657
    29 -0.012322 -1.280917 0.000000 0.163947 -0.078283 -0.101829
    30 -0.001695 -0.738091 0.129482 -1.218877 0.010997 0.011408
    31 0.354567 0.016267 0.318133 0.332140 -0.490594 -1.265606
    32 1.887164 0.012878 0.000000 0.115100 0.249897 -0.404322
    33 1.001873 -0.000270 0.000000 -0.034899 0.000000 -0.092945
    34 -1.123359 -2.195092 -0.278957 -0.208864 0.033771 -0.106283
    35 0.010771 -0.963791 0.000001 -0.580307 0.023406 0.035690
    36 -0.010412 -0.631916 0.000000 -1.043753 0.000000 0.000000
    37 0.000000 -0.359713 0.000000 0.000000 0.000000 0.000000
    38 -0.170478 -2.636148 -0.277655 -0.530743 0.075354 0.129527
    39 0.010599 -1.261177 0.000002 -1.252346 0.000000 0.000000
    40 -0.000002 -0.943233 0.000000 -1.208493 0.000000 0.000000
    41 -0.827562 -2.508972 -0.277656 0.032257 0.011706 -0.024514
    42 0.000001 -1.292972 0.000000 -0.229024 -0.066934 0.056364
    43 -0.000002 -0.752466 -0.000002 -0.851638 -0.009049 0.017023
    44 0.444213 -2.561962 -0.277655 -0.432451 0.143605 0.180950
    45 0.021022 -1.208187 0.000001 -0.966197 0.000000 0.000000
    46 0.010597 -0.741867 -0.000002 -1.240102 0.000000 0.000000
    47 1.047446 -2.222822 -0.277655 -0.287540 0.038255 0.161483
    48 0.000000 -0.996224 -0.000001 -0.664029 0.000000 0.000000
    49 0.000000 -0.614691 0.000000 -1.344689 0.000000 0.000000
    50 -0.308256 -0.007814 0.307165 -0.987918 -0.823553 -1.831620
    51 1.978378 0.019544 0.000000 0.099985 0.407896 0.869471
    52 0.980611 0.058421 -0.012628 0.185445 -0.212474 0.577857
  time 18
    0 14.150201 -5.505736 -11.445634 0.495466 -2.174120 -0.891972
    1 -0.021283 -8.563257 -0.000750 0.376082 0.359963 -0.407786
    2 -0.350898 -2.752587 0.514683 0.536110 1.767884 0.542634
    3 0.000000 -5.680970 4.733543 1.570796 0.000000 0.000000
    4 0.000000 2.240248 4.862545 -1.570796 0.000000 0.000000
    5 0.000000 -0.030803 -0.185498 0.000000 0.000000 0.000000
    6 0.000000 -1.489114 1.895751 0.087266 0.000000 0.000000
    7 0.000000 -6.270583 1.350241 1.570796 0.000000 0.000000
    8 0.000000 5.114959 2.564909 0.000000 0.000000 0.000000
    9 0.000000 4.784919 4.090397 -1.570796 -3.141592 -0.000001
    10 -14.743998 -6.113899 -11.924803 0.697648 2.041932 1.107015
    11 0.089929 -8.543166 0.000003 0.191578 -0.391629 0.183176
    12 0.431291 -2.480750 0.566680 1.315037 -1.359682 -1.195261
    13 0.000000 -5.680965 4.733542 1.570796 0.000000 0.000000
    14 0.000001 2.240247 4.862545 -1.570796 0.000000 0.000000
    15 0.000000 -0.030803 -0.185497 0.000000 0.000000 0.000000
    16 0.000000 -1.489114 1.895751 0.125439 0.000000 0.000000
    17 0.000000 -6.270579 1.350240 1.570796 0.000000 0.000000
    18 0.000000 0.355522 -2.249654 -1.570796 -3.141592 1.570796
    19 0.000001 5.114957 2.564910 0.000000 0.000000 0.000000
    20 0.000001 4.784917 4.090397 -1.570796 -3.141592 -0.000001
    21 -0.003480 -0.404827 0.000000 -0.000001 0.000000 0.000000
    22 -0.519309 -2.501154 -0.278957 -0.055823 0.159103 -0.101314
    23 -0.010598 -1.208184 -0.000001 -1.297208 -0.173311 -0.018970
    24 -0.000001 -0.763066 0.000000 -0.764828 -0.064118 0.059360
    25 0.105982 -2.607132 -0.278958 -0.243330 -0.074707 0.002974
    26 0.000000 -1.250579 0.000001 -0.787802 0.000000 0.000000
    27 -0.000001 -0.932635 0.000001 -1.655650 0.000000 0.000000
    28 0.763065 -2.490555 -0.278958 -0.118666 0.173955 0.234657
    29 -0.012322 -1.280917 0.000000 0.163947 -0.078283 -0.101829
    30 -0.001695 -0.738091 0.129482 -1.218877 0.010997 0.011408
    31 0.354567 0.016267 0.318133 0.332140 -0.490594 -1.265606
    32 1.887164 0.012878 0.000000 0.115100 0.249897 -0.404322
    33 1.001873 -0.000270 0.000000 -0.034899 0.000000 -0.092945
    34 -1.123359 -2.195092 -0.278957 -0.208864 0.033771 -0.106283
    35 0.010771 -0.963791 0.000001 -0.580307 0.023406 0.035690
    36 -0.010412 -0.631916 0.000000 -1.043753 0.000000 0.000000
    37 0.000000 -0.359713 0.000000 0.000000 0.000000 0.000000
    38 -0.170478 -2.636148 -0.277655 -0.530743 0.075354 0.129527
    39 0.010599 -1.261177 0.000002 -1.252346 0.000000 0.000000
    40 -0.000002 -0.943233 0.000000 -1.208493 0.000000 0.000000
    41 -0.827562 -2.508972 -0.277656 0.032257 0.011706 -0.024514
    42 0.000001 -1.292972 0.000000 -0.246709 -0.063494 0.052001
    43 -0.000002 -0.752466 -0.000002 -0.844072 -0.009049 0.017023
    44 0.444213 -2.561962 -0.277655 -0.432451 0.143605 0.180950
    45 0.021022 -1.208187 0.000001 -0.966197 0.000000 0.000000
    46 0.010597 -0.741867 -0.000002 -1.240102 0.000000 0.000000
    47 1.047446 -2.222822 -0.277655 -0.287540 0.038255 0.161483
    48 0.000000 -0.996224 -0.000001 -0.664029 0.000000 0.000000
    49 0.000000 -0.614691 0.000000 -1.344689 0.000000 0.000000
    50 -0.308256 -0.007814 0.307165 -0.987918 -0.823553 -1.831620
    51 1.978378 0.019544 0.000000 0.099985 0.407896 0.869471
    52 0.980611 0.058421 -0.012628 0.185445 -0.212474 0.577857
  time 19
    0 14.150201 -5.497923 -11.445634 0.495937 -2.174446 -0.892354
    1 -0.021283 -8.563257 -0.000750 0.378022 0.362457 -0.403329
    2 -0.350898 -2.752587 0.514683 0.536110 1.767884 0.542634
    3 0.000000 -5.680970 4.733543 1.570796 0.000000 0.000000
    4 0.000000 2.240248 4.862545 -1.570796 0.000000 0.000000
    5 0.000000 -0.030803 -0.185498 0.000000 0.000000 0.000000
    6 0.000000 -1.489114 1.895751 0.087266 0.000000 0.000000
    7 0.000000 -6.270583 1.350241 1.570796 0.000000 0.000000
    8 0.000000 5.114959 2.564909 0.000000 0.000000 0.000000
    9 0.000000 4.784919 4.090397 -1.570796 -3.141592 -0.000001
    10 -14.743998 -6.102180 -11.932616 0.697648 2.041932 1.107015
    11 0.089929 -8.543166 0.000003 0.193190 -0.390508 0.178081
    12 0.431291 -2.480750 0.566680 1.315037 -1.359682 -1.195261
    13 0.000000 -5.680965 4.733542 1.570796 0.000000 0.000000
    14 0.000001 2.240247 4.862545 -1.570796 0.000000 0.000000
    15 0.000000 -0.030803 -0.185497 0.000000 0.000000 0.000000
    16 0.000000 -1.489114 1.895751 0.115850 0.000000 0.000000
    17 0.000000 -6.270579 1.350240 1.570796 0.000000 0.000000
    18 0.000000 0.355522 -2.249654 -1.570796 -3.141592 1.570796
    19 0.000001 5.114957 2.564910 0.000000 0.000000 0.000000
    20 0.000001 4.784917 4.090397 -1.570796 -3.141592 -0.000001
    21 -0.003480 -0.404827 0.000000 -0.000001 0.000000 0.000000
    22 -0.519309 -2.501154 -0.278957 -0.055823 0.159103 -0.101314
    23 -0.010598 -1.208184 -0.000001 -1.297208 -0.173311 -0.018970
    24 -0.000001 -0.763066 0.000000 -0.764828 -0.064118 0.059360
    25 0.105982 -2.607132 -0.278958 -0.243330 -0.074707 0.002974
    26 0.000000 -1.250579 0.000001 -0.787802 0.000000 0.000000
    27 -0.000001 -0.932635 0.000001 -1.655650 0.000000 0.000000
    28 0.763065 -2.490555 -0.278958 -0.118666 0.173955 0.234657
    29 -0.012322 -1.280917 0.000000 0.163947 -0.078283 -0.101829
    30 -0.001695 -0.738091 0.129482 -1.218877 0.010997 0.011408
    31 0.354567 0.016267 0.318133 0.332140 -0.490594 -1.265606
    32 1.887164 0.012878 0.000000 0.115100 0.249897 -0.404322
    33 1.001873 -0.000270 0.000000 -0.034899 0.000000 -0.092945
    34 -1.123359 -2.195092 -0.278957 -0.208864 0.033771 -0.106283
    35 0.010771 -0.963791 0.000001 -0.580307 0.023406 0.035690
    36 -0.010412 -0.631916 0.000000 -1.043753 0.000000 0.000000
    37 0.000000 -0.359713 0.000000 0.000000 0.000000 0.000000
    38 -0.170478 -2.636148 -0.277655 -0.530743 0.075354 0.129527
    39 0.010599 -1.261177 0.000002 -1.252346 0.000000 0.000000
    40 -0.000002 -0.943233 0.000000 -1.208493 0.000000 0.000000
    41 -0.827562 -2.508972 -0.277656 0.032257 0.011706 -0.024514
    42 0.000001 -1.292972 0.000000 -0.266983 -0.059551 0.047004
    43 -0.000002 -0.752466 -0.000002 -0.846052 -0.009049 0.017023
    44 0.444213 -2.561962 -0.277655 -0.432451 0.143605 0.180950
    45 0.021022 -1.208187 0.000001 -0.966197 0.000000 0.000000
    46 0.010597 -0.741867 -0.000002 -1.240102 0.000000 0.000000
    47 1.047446 -2.222822 -0.277655 -0.287540 0.038255 0.161483
    48 0.000000 -0.996224 -0.000001 -0.664029 0.000000 0.000000
    49 0.000000 -0.614691 0.000000 -1.344689 0.000000 0.000000
    50 -0.308256 -0.007814 0.307165 -0.987918 -0.823553 -1.831620
    51 1.978378 0.019544 0.000000 0.099985 0.407896 0.869471
    52 0.980611 0.058421 -0.012628 0.185445 -0.212474 0.577857
  time 20
    0 14.150201 -5.494017 -11.441727 0.496408 -2.174773 -0.892640
    1 -0.021283 -8.563257 -0.000750 0.379703 0.364698 -0.399421
    2 -0.350898 -2.752587 0.514683 0.536110 1.767884 0.542634
    3 0.000000 -5.680970 4.733543 1.570796 0.000000 0.000000
    4 0.000000 2.240248 4.862545 -1.570796 0.000000 0.000000
    5 0.000000 -0.030803 -0.185498 0.000000 0.000000 0.000000
    6 0.000000 -1.489114 1.895751 0.087266 0.000000 0.000000
    7 0.000000 -6.270583 1.350241 1.570796 0.000000 0.000000
    8 0.000000 5.114959 2.564909 0.000000 0.000000 0.000000
    9 0.000000 4.784919 4.090397 -1.570796 -3.141592 -0.000001
    10 -14.743998 -6.070929 -11.932616 0.697648 2.041932 1.107015
    11 0.089929 -8.543166 0.000003 0.193995 -0.389592 0.175428
    12 0.431291 -2.480750 0.566680 1.315037 -1.359682 -1.195261
    13 0.000000 -5.680965 4.733542 1.570796 0.000000 0.000000
    14 0.000001 2.240247 4.862545 -1.570796 0.000000 0.000000
    15 0.000000 -0.030803 -0.185497 0.000000 0.000000 0.000000
    16 0.000000 -1.489114 1.895751 0.105677 0.000000 0.000000
    17 0.000000 -6.270579 1.350240 1.570796 0.000000 0.000000
    18 0.000000 0.355522 -2.249654 -1.570796 -3.141592 1.570796
    19 0.000001 5.114957 2.564910 0.000000 0.000000 0.000000
    20 0.000001 4.784917 4.090397 -1.570796 -3.141592 -0.000001
    21 -0.003480 -0.404827 0.000000 -0.000001 0.000000 0.000000
    22 -0.519309 -2.501154 -0.278957 -0.055823 0.159103 -0.101314
    23 -0.010598 -1.208184 -0.000001 -1.297208 -0.173311 -0.018970
    24 -0.000001 -0.763066 0.000000 -0.764828 -0.064118 0.059360
    25 0.105982 -2.607132 -0.278958 -0.243330 -0.074707 0.002974
    26 0.000000 -1.250579 0.000001 -0.787802 0.000000 0.000000
    27 -0.000001 -0.932635 0.000001 -1.655650 0.000000 0.000000
    28 0.763065 -2.490555 -0.278958 -0.118666 0.173955 0.234657
    29 -0.012322 -1.280917 0.000000 0.163947 -0.078283 -0.101829
    30 -0.001695 -0.738091 0.129482 -1.218877 0.010997 0.011408
    31 0.354567 0.016267 0.318133 0.332140 -0.490594 -1.265606
    32 1.887164 0.012878 0.000000 0.115100 0.249897 -0.404322
    33 1.001873 -0.000270 0.000000 -0.034899 0.000000 -0.092945
    34 -1.123359 -2.195092 -0.278957 -0.208864 0.033771 -0.106283
    35 0.010771 -0.963791 0.000001 -0.580307 0.023406 0.035690
    36 -0.010412 -0.631916 0.000000 -1.043753 0.000000 0.000000
    37 0.000000 -0.359713 0.000000 0.000000 0.000000 0.000000
    38 -0.170478 -2.636148 -0.277655 -0.530743 0.075354 0.129527
    39 0.010599 -1.261177 0.000002 -1.252346 0.000000 0.000000
    40 -0.000002 -0.943233 0.000000 -1.208493 0.000000 0.000000
    41 -0.827562 -2.508972 -0.277656 0.032257 0.011706 -0.024514
    42 0.000001 -1.292972 0.000000 -0.287256 -0.055609 0.042006
    43 -0.000002 -0.752466 -0.000002 -0.853943 -0.009049 0.017023
    44 0.444213 -2.561962 -0.277655 -0.432451 0.143605 0.180950
    45 0.021022 -1.208187 0.000001 -0.966197 0.000000 0.000000
    46 0.010597 -0.741867 -0.000002 -1.240102 0.000000 0.000000
    47 1.047446 -2.222822 -0.277655 -0.287540 0.038255 0.161483
    48 0.000000 -0.996224 -0.000001 -0.664029 0.000000 0.000000
    49 0.000000 -0.614691 0.000000 -1.344689 0.000000 0.000000
    50 -0.308256 -0.007814 0.307165 -0.987918 -0.823553 -1.831620
    51 1.978378 0.019544 0.000000 0.099985 0.407896 0.869471
    52 0.980611 0.058421 -0.012628 0.185445 -0.212474 0.577857
  time 21
    0 14.150201 -5.490110 -11.441727 0.496784 -2.175017 -0.893021
    1 -0.021283 -8.563257 -0.000750 0.381039 0.366528 -0.396325
    2 -0.350898 -2.752587 0.514683 0.536110 1.767884 0.542634
    3 0.000000 -5.680970 4.733543 1.570796 0.000000 0.000000
    4 0.000000 2.240248 4.862545 -1.570796 0.000000 0.000000
    5 0.000000 -0.030803 -0.185498 0.000000 0.000000 0.000000
    6 0.000000 -1.489114 1.895751 0.087266 0.000000 0.000000
    7 0.000000 -6.270583 1.350241 1.570796 0.000000 0.000000
    8 0.000000 5.114959 2.564909 0.000000 0.000000 0.000000
    9 0.000000 4.784919 4.090397 -1.570796 -3.141592 -0.000001
    10 -14.743998 -6.027959 -11.932616 0.697648 2.041932 1.107015
    11 0.089929 -8.543166 0.000003 0.194253 -0.388904 0.174465
    12 0.431291 -2.480750 0.566680 1.315037 -1.359682 -1.195261
    13 0.000000 -5.680965 4.733542 1.570796 0.000000 0.000000
    14 0.000001 2.240247 4.862545 -1.570796 0.000000 0.000000
    15 0.000000 -0.030803 -0.185497 0.000000 0.000000 0.000000
    16 0.000000 -1.489114 1.895751 0.096471 0.000000 0.000000
    17 0.000000 -6.270579 1.350240 1.570796 0.000000 0.000000
    18 0.000000 0.355522 -2.249654 -1.570796 -3.141592 1.570796
    19 0.000001 5.114957 2.564910 0.000000 0.000000 0.000000
    20 0.000001 4.784917 4.090397 -1.570796 -3.141592 -0.000001
    21 -0.003480 -0.404827 0.000000 -0.000001 0.000000 0.000000
    22 -0.519309 -2.501154 -0.278957 -0.055823 0.159103 -0.101314
    23 -0.010598 -1.208184 -0.000001 -1.297208 -0.173311 -0.018970
    24 -0.000001 -0.763066 0.000000 -0.764828 -0.064118 0.059360
    25 0.105982 -2.607132 -0.278958 -0.243330 -0.074707 0.002974
    26 0.000000 -1.250579 0.000001 -0.787802 0.000000 0.000000
    27 -0.000001 -0.932635 0.000001 -1.655650 0.000000 0.000000
    28 0.763065 -2.490555 -0.278958 -0.118666 0.173955 0.234657
    29 -0.012322 -1.280917 0.000000 0.163947 -0.078283 -0.101829
    30 -0.001695 -0.738091 0.129482 -1.218877 0.010997 0.011408
    31 0.354567 0.016267 0.318133 0.332140 -0.490594 -1.265606
    32 1.887164 0.012878 0.000000 0.115100 0.249897 -0.404322
    33 1.001873 -0.000270 0.000000 -0.034899 0.000000 -0.092945
    34 -1.123359 -2.195092 -0.278957 -0.208864 0.033771 -0.106283
    35 0.010771 -0.963791 0.000001 -0.580307 0.023406 0.035690
    36 -0.010412 -0.631916 0.000000 -1.043753 0.000000 0.000000
    37 0.000000 -0.359713 0.000000 0.000000 0.000000 0.000000
    38 -0.170478 -2.636148 -0.277655 -0.530743 0.075354 0.129527
    39 0.010599 -1.261177 0.000002 -1.252346 0.000000 0.000000
    40 -0.000002 -0.943233 0.000000 -1.208493 0.000000 0.000000
    41 -0.827562 -2.508972 -0.277656 0.032257 0.011706 -0.024514
    42 0.000001 -1.292972 0.000000 -0.304942 -0.052169 0.037644
    43 -0.000002 -0.752466 -0.000002 -0.864086 -0.009049 0.017023
    44 0.444213 -2.561962 -0.277655 -0.432451 0.143605 0.180950
    45 0.021022 -1.208187 0.000001 -0.966197 0.000000 0.000000
    46 0.010597 -0.741867 -0.000002 -1.240102 0.000000 0.000000
    47 1.047446 -2.222822 -0.277655 -0.287540 0.038255 0.161483
    48 0.000000 -0.996224 -0.000001 -0.664029 0.000000 0.000000
    49 0.000000 -0.614691 0.000000 -1.344689 0.000000 0.000000
    50 -0.308256 -0.007814 0.307165 -0.987918 -0.823553 -1.831620
    51 1.978378 0.019544 0.000000 0.099985 0.407896 0.869471
    52 0.980611 0.058421 -0.012628 0.185445 -0.212474 0.577857
  time 22
    0 14.150201 -5.490110 -11.441727 0.496973 -2.175262 -0.893212
    1 -0.021283 -8.563257 -0.000750 0.381944 0.367775 -0.394270
    2 -0.350898 -2.752587 0.514683 0.536110 1.767884 0.542634
    3 0.000000 -5.680970 4.733543 1.570796 0.000000 0.000000
    4 0.000000 2.240248 4.862545 -1.570796 0.000000 0.000000
    5 0.000000 -0.030803 -0.185498 0.000000 0.000000 0.000000
    6 0.000000 -1.489114 1.895751 0.087266 0.000000 0.000000
    7 0.000000 -6.270583 1.350241 1.570796 0.000000 0.000000
    8 0.000000 5.114959 2.564909 0.000000 0.000000 0.000000
    9 0.000000 4.784919 4.090397 -1.570796 -3.141592 -0.000001
    10 -14.743998 -5.996708 -11.924803 0.697648 2.041932 1.107015
    11 0.089929 -8.543166 0.000003 0.194221 -0.388446 0.174442
    12 0.431291 -2.480750 0.566680 1.315037 -1.359682 -1.195261
    13 0.000000 -5.680965 4.733542 1.570796 0.000000 0.000000
    14 0.000001 2.240247 4.862545 -1.570796 0.000000 0.000000
    15 0.000000 -0.030803 -0.185497 0.000000 0.000000 0.000000
    16 0.000000 -1.489114 1.895751 0.089818 0.000000 0.000000
    17 0.000000 -6.270579 1.350240 1.570796 0.000000 0.000000
    18 0.000000 0.355522 -2.249654 -1.570796 -3.141592 1.570796
    19 0.000001 5.114957 2.564910 0.000000 0.000000 0.000000
    20 0.000001 4.784917 4.090397 -1.570796 -3.141592 -0.000001
    21 -0.003480 -0.404827 0.000000 -0.000001 0.000000 0.000000
    22 -0.519309 -2.501154 -0.278957 -0.055823 0.159103 -0.101314
    23 -0.010598 -1.208184 -0.000001 -1.297208 -0.173311 -0.018970
    24 -0.000001 -0.763066 0.000000 -0.764828 -0.064118 0.059360
    25 0.105982 -2.607132 -0.278958 -0.243330 -0.074707 0.002974
    26 0.000000 -1.250579 0.000001 -0.787802 0.000000 0.000000
    27 -0.000001 -0.932635 0.000001 -1.655650 0.000000 0.000000
    28 0.763065 -2.490555 -0.278958 -0.118666 0.173955 0.234657
    29 -0.012322 -1.280917 0.000000 0.163947 -0.078283 -0.101829
    30 -0.001695 -0.738091 0.129482 -1.218877 0.010997 0.011408
    31 0.354567 0.016267 0.318133 0.332140 -0.490594 -1.265606
    32 1.887164 0.012878 0.000000 0.115100 0.249897 -0.404322
    33 1.001873 -0.000270 0.000000 -0.034899 0.000000 -0.092945
    34 -1.123359 -2.195092 -0.278957 -0.208864 0.033771 -0.106283
    35 0.010771 -0.963791 0.000001 -0.580307 0.023406 0.035690
    36 -0.010412 -0.631916 0.000000 -1.043753 0.000000 0.000000
    37 0.000000 -0.359713 0.000000 0.000000 0.000000 0.000000
    38 -0.170478 -2.636148 -0.277655 -0.530743 0.075354 0.129527
    39 0.010599 -1.261177 0.000002 -1.252346 0.000000 0.000000
    40 -0.000002 -0.943233 0.000000 -1.208493 0.000000 0.000000
    41 -0.827562 -2.508972 -0.277656 0.032257 0.011706 -0.024514
    42 0.000001 -1.292972 0.000000 -0.317451 -0.049736 0.034552
    43 -0.000002 -0.752466 -0.000002 -0.872845 -0.009049 0.017023
    44 0.444213 -2.561962 -0.277655 -0.432451 0.143605 0.180950
    45 0.021022 -1.208187 0.000001 -0.966197 0.000000 0.000000
    46 0.010597 -0.741867 -0.000002 -1.240102 0.000000 0.000000
    47 1.047446 -2.222822 -0.277655 -0.287540 0.038255 0.161483
    48 0.000000 -0.996224 -0.000001 -0.664029 0.000000 0.000000
    49 0.000000 -0.614691 0.000000 -1.344689 0.000000 0.000000
    50 -0.308256 -0.007814 0.307165 -0.987918 -0.823553 -1.831620
    51 1.978378 0.019544 0.000000 0.099985 0.407896 0.869471
    52 0.980611 0.058421 -0.012628 0.185445 -0.212474 0.577857
  time 23
    0 14.150201 -5.486204 -11.441727 0.497067 -2.175262 -0.893307
    1 -0.021283 -8.563257 -0.000750 0.382246 0.368217 -0.393546
    2 -0.350898 -2.752587 0.514683 0.536110 1.767884 0.542634
    3 0.000000 -5.680970 4.733543 1.570796 0.000000 0.000000
    4 0.000000 2.240248 4.862545 -1.570796 0.000000 0.000000
    5 0.000000 -0.030803 -0.185498 0.000000 0.000000 0.000000
    6 0.000000 -1.489114 1.895751 0.087266 0.000000 0.000000
    7 0.000000 -6.270583 1.350241 1.570796 0.000000 0.000000
    8 0.000000 5.114959 2.564909 0.000000 0.000000 0.000000
    9 0.000000 4.784919 4.090397 -1.570796 -3.141592 -0.000001
    10 -14.743998 -5.981083 -11.924803 0.697648 2.041932 1.107015
    11 0.089929 -8.543166 0.000003 0.194157 -0.388293 0.174606
    12 0.431291 -2.480750 0.566680 1.315037 -1.359682 -1.195261
    13 0.000000 -5.680965 4.733542 1.570796 0.000000 0.000000
    14 0.000001 2.240247 4.862545 -1.570796 0.000000 0.000000
    15 0.000000 -0.030803 -0.185497 0.000000 0.000000 0.000000
    16 0.000000 -1.489114 1.895751 0.087266 0.000000 0.000000
    17 0.000000 -6.270579 1.350240 1.570796 0.000000 0.000000
    18 0.000000 0.355522 -2.249654 -1.570796 -3.141592 1.570796
    19 0.000001 5.114957 2.564910 0.000000 0.000000 0.000000
    20 0.000001 4.784917 4.090397 -1.570796 -3.141592 -0.000001
    21 -0.003480 -0.404827 0.000000 -0.000001 0.000000 0.000000
    22 -0.519309 -2.501154 -0.278957 -0.055823 0.159103 -0.101314
    23 -0.010598 -1.208184 -0.000001 -1.297208 -0.173311 -0.018970
    24 -0.000001 -0.763066 0.000000 -0.764828 -0.064118 0.059360
    25 0.105982 -2.607132 -0.278958 -0.243330 -0.074707 0.002974
    26 0.000000 -1.250579 0.000001 -0.787802 0.000000 0.000000
    27 -0.000001 -0.932635 0.000001 -1.655650 0.000000 0.000000
    28 0.763065 -2.490555 -0.278958 -0.118666 0.173955 0.234657
    29 -0.012322 -1.280917 0.000000 0.163947 -0.078283 -0.101829
    30 -0.001695 -0.738091 0.129482 -1.218877 0.010997 0.011408
    31 0.354567 0.016267 0.318133 0.332140 -0.490594 -1.265606
    32 1.887164 0.012878 0.000000 0.115100 0.249897 -0.404322
    33 1.001873 -0.000270 0.000000 -0.034899 0.000000 -0.092945
    34 -1.123359 -2.195092 -0.278957 -0.208864 0.033771 -0.106283
    35 0.010771 -0.963791 0.000001 -0.580307 0.023406 0.035690
    36 -0.010412 -0.631916 0.000000 -1.043753 0.000000 0.000000
    37 0.000000 -0.359713 0.000000 0.000000 0.000000 0.000000
    38 -0.170478 -2.636148 -0.277655 -0.530743 0.075354 0.129527
    39 0.010599 -1.261177 0.000002 -1.252346 0.000000 0.000000
    40 -0.000002 -0.943233 0.000000 -1.208493 0.000000 0.000000
    41 -0.827562 -2.508972 -0.277656 0.032257 0.011706 -0.024514
    42 0.000001 -1.292972 0.000000 -0.322196 -0.048813 0.033389
    43 -0.000002 -0.752466 -0.000002 -0.876587 -0.009049 0.017023
    44 0.444213 -2.561962 -0.277655 -0.432451 0.143605 0.180950
    45 0.021022 -1.208187 0.000001 -0.966197 0.000000 0.000000
    46 0.010597 -0.741867 -0.000002 -1.240102 0.000000 0.000000
    47 1.047446 -2.222822 -0.277655 -0.287540 0.038255 0.161483
    48 0.000000 -0.996224 -0.000001 -0.664029 0.000000 0.000000
    49 0.000000 -0.614691 0.000000 -1.344689 0.000000 0.000000
    50 -0.308256 -0.007814 0.307165 -0.987918 -0.823553 -1.831620
    51 1.978378 0.019544 0.000000 0.099985 0.407896 0.869471
    52 0.980611 0.058421 -0.012628 0.185445 -0.212474 0.577857
end
