version 1
nodes
  0 "Bone01" -1
  1 "Bone_Lefthand" 0
  2 "Bone_MP7A1_L" 1
  3 "Bone_EyeonSite_Front_L" 2
  4 "Bone_EyeonSite_Back_L" 2
  5 "Bone_Magazine_L" 2
  6 "Bone_Trigger_L" 2
  7 "Bone_Hand_Grib_L" 2
  8 "Bone_SlidingStock_L" 2
  9 "Bone_ChargeHandle_L" 2
  10 "Bone04" -1
  11 "Bone_Righthand" 10
  12 "Bone_MP7A1_R" 11
  13 "Bone_EyeonSite_Front_R" 12
  14 "Bone_EyeonSite_Back_R" 12
  15 "Bone_Magazine_R" 12
  16 "Bone_Trigger_R" 12
  17 "Bone_Hand_Grib_R" 12
  18 "Bone_Hand_GribLock_R" 17
  19 "Bone_SlidingStock_R" 12
  20 "Bone_ChargeHandle_R" 12
  21 "Bone4" 1
  22 "Bone13" 21
  23 "Bone14" 22
  24 "Bone15" 23
  25 "Bone17" 21
  26 "Bone18" 25
  27 "Bone19" 26
  28 "Bone21" 21
  29 "Bone22" 28
  30 "Bone23" 29
  31 "Bone05" 21
  32 "Bone06" 31
  33 "Bone07" 32
  34 "Bone09" 21
  35 "Bone10" 34
  36 "Bone11" 35
  37 "Bone26" 11
  38 "Bone35" 37
  39 "Bone36" 38
  40 "Bone37" 39
  41 "Bone31" 37
  42 "Bone32" 41
  43 "Bone33" 42
  44 "Bone39" 37
  45 "Bone40" 44
  46 "Bone41" 45
  47 "Bone43" 37
  48 "Bone44" 47
  49 "Bone45" 48
  50 "Bone27" 37
  51 "Bone28" 50
  52 "Bone29" 51
end
skeleton
  time 0
    0 14.150201 -4.232260 -11.402664 0.508748 -2.183745 -0.902844
    1 -0.021283 -8.563257 -0.000750 0.404142 0.356586 -0.351405
    2 -0.350898 -2.752587 0.514683 0.536110 1.767884 0.542634
    3 0.000000 -5.680970 4.733543 1.570796 0.000000 0.000000
    4 0.000000 2.240248 4.862545 -1.570796 0.000000 0.000000
    5 0.000000 -0.030803 -0.185498 0.000000 0.000000 0.000000
    6 0.000000 -1.489114 1.895751 0.749180 0.000000 0.000000
    7 0.000000 -6.270583 1.350241 1.570796 0.000000 0.000000
    8 0.000000 5.114959 2.564909 0.000000 0.000000 0.000000
    9 0.000000 4.784919 4.090397 -1.570796 -3.141592 -0.000001
    10 -14.743998 -5.981083 -11.924803 0.697648 2.041932 1.107015
    11 0.089929 -8.543166 0.000003 0.194157 -0.388293 0.174606
    12 0.431291 -2.480750 0.566680 1.315037 -1.359682 -1.195261
    13 0.000000 -5.680965 4.733542 1.570796 0.000000 0.000000
    14 0.000001 2.240247 4.862545 -1.570796 0.000000 0.000000
    15 0.000000 -0.030803 -0.185497 0.000000 0.000000 0.000000
    16 0.000000 -1.489114 1.895751 0.087266 0.000000 0.000000
    17 0.000000 -6.270579 1.350240 1.570796 0.000000 0.000000
    18 0.000000 0.355522 -2.249654 -1.570796 -3.141592 1.570796
    19 0.000001 5.114957 2.564910 0.000000 0.000000 0.000000
    20 0.000001 4.784917 4.090397 -1.570796 -3.141592 -0.000001
    21 -0.003480 -0.404827 0.000000 -0.000001 0.000000 0.000000
    22 -0.519309 -2.501154 -0.278957 -0.055823 0.159103 -0.101314
    23 -0.010598 -1.208184 -0.000001 -1.297208 -0.173311 -0.018970
    24 -0.000001 -0.763066 0.000000 -0.764828 -0.064118 0.059360
    25 0.105982 -2.607132 -0.278958 -0.243330 -0.074707 0.002974
    26 0.000000 -1.250579 0.000001 -0.787802 0.000000 0.000000
    27 -0.000001 -0.932635 0.000001 -1.655650 0.000000 0.000000
    28 0.763065 -2.490555 -0.278958 -0.118666 0.173955 0.234657
    29 -0.012322 -1.280917 0.000000 -0.397870 -0.078283 -0.101829
    30 -0.001695 -0.738091 0.129482 -1.554481 0.010997 0.011408
    31 0.354567 0.016267 0.318133 0.332140 -0.490594 -1.265606
    32 1.887164 0.012878 0.000000 0.122251 0.246529 -0.375236
    33 1.001873 -0.000270 0.000000 -0.034899 0.000000 -0.092945
    34 -1.123359 -2.195092 -0.278957 -0.208864 0.033771 -0.106283
    35 0.010771 -0.963791 0.000001 -0.580307 0.023406 0.035690
    36 -0.010412 -0.631916 0.000000 -1.043753 0.000000 0.000000
    37 0.000000 -0.359713 0.000000 0.000000 0.000000 0.000000
    38 -0.170478 -2.636148 -0.277655 -0.530743 0.075354 0.129527
    39 0.010599 -1.261177 0.000002 -1.252346 0.000000 0.000000
    40 -0.000002 -0.943233 0.000000 -1.208493 0.000000 0.000000
    41 -0.827562 -2.508972 -0.277656 0.032257 0.011706 -0.024514
    42 0.000001 -1.292972 0.000000 -0.322196 -0.048813 0.033389
    43 -0.000002 -0.752466 -0.000002 -0.876587 -0.009049 0.017023
    44 0.444213 -2.561962 -0.277655 -0.432451 0.143605 0.180950
    45 0.021022 -1.208187 0.000001 -0.966197 0.000000 0.000000
    46 0.010597 -0.741867 -0.000002 -1.240102 0.000000 0.000000
    47 1.047446 -2.222822 -0.277655 -0.287540 0.038255 0.161483
    48 0.000000 -0.996224 -0.000001 -0.664029 0.000000 0.000000
    49 0.000000 -0.614691 0.000000 -1.344689 0.000000 0.000000
    50 -0.308256 -0.007814 0.307165 -0.987918 -0.823553 -1.831620
    51 1.978378 0.019544 0.000000 0.099985 0.407896 0.869471
    52 0.980611 0.058421 -0.012628 0.185445 -0.212474 0.577857
  time 1
    0 14.150201 -3.568177 -11.441727 0.517886 -2.190353 -0.910377
    1 -0.021283 -8.563257 -0.000750 0.417116 0.349705 -0.326456
    2 -0.350898 -2.752587 0.514683 0.536110 1.767884 0.542634
    3 0.000000 -5.680970 4.733543 1.570796 0.000000 0.000000
    4 0.000000 2.240248 4.862545 -1.570796 0.000000 0.000000
    5 0.000000 -0.030803 -0.185498 0.000000 0.000000 0.000000
    6 0.000000 -1.489114 1.895751 0.749180 0.000000 0.000000
    7 0.000000 -6.270583 1.350241 1.570796 0.000000 0.000000
    8 0.000000 5.114959 2.564909 0.000000 0.000000 0.000000
    9 0.000000 4.784919 4.090397 -1.570796 -3.141592 -0.000001
    10 -14.732279 -5.945925 -11.920897 0.695597 2.040111 1.105057
    11 0.089929 -8.543166 0.000003 0.196058 -0.388446 0.167774
    12 0.431291 -2.480750 0.566680 1.315037 -1.359682 -1.195261
    13 0.000000 -5.680965 4.733542 1.570796 0.000000 0.000000
    14 0.000001 2.240247 4.862545 -1.570796 0.000000 0.000000
    15 0.000000 -0.030803 -0.185497 0.000000 0.000000 0.000000
    16 0.000000 -1.489114 1.895751 0.087266 0.000000 0.000000
    17 0.000000 -6.270579 1.350240 1.570796 0.000000 0.000000
    18 0.000000 0.355522 -2.249654 -1.570796 -3.141592 1.570796
    19 0.000001 5.114957 2.564910 0.000000 0.000000 0.000000
    20 0.000001 4.784917 4.090397 -1.570796 -3.141592 -0.000001
    21 -0.003480 -0.404827 0.000000 -0.000001 0.000000 0.000000
    22 -0.519309 -2.501154 -0.278957 -0.055823 0.159103 -0.101314
    23 -0.010598 -1.208184 -0.000001 -1.297208 -0.173311 -0.018970
    24 -0.000001 -0.763066 0.000000 -0.764828 -0.064118 0.059360
    25 0.105982 -2.607132 -0.278958 -0.243330 -0.074707 0.002974
    26 0.000000 -1.250579 0.000001 -0.787802 0.000000 0.000000
    27 -0.000001 -0.932635 0.000001 -1.655650 0.000000 0.000000
    28 0.763065 -2.490555 -0.278958 -0.118666 0.173955 0.234657
    29 -0.012322 -1.280917 0.000000 -0.397870 -0.078283 -0.101829
    30 -0.001695 -0.738091 0.129482 -1.554481 0.010997 0.011408
    31 0.354567 0.016267 0.318133 0.332140 -0.490594 -1.265606
    32 1.887164 0.012878 0.000000 0.120566 0.258490 -0.382185
    33 1.001873 -0.000270 0.000000 -0.034839 0.001546 -0.048438
    34 -1.123359 -2.195092 -0.278957 -0.208864 0.033771 -0.106283
    35 0.010771 -0.963791 0.000001 -0.580307 0.023406 0.035690
    36 -0.010412 -0.631916 0.000000 -1.043753 0.000000 0.000000
    37 0.000000 -0.359713 0.000000 0.000000 0.000000 0.000000
    38 -0.170478 -2.636148 -0.277655 -0.530743 0.075354 0.129527
    39 0.010599 -1.261177 0.000002 -1.252346 0.000000 0.000000
    40 -0.000002 -0.943233 0.000000 -1.208493 0.000000 0.000000
    41 -0.827562 -2.508972 -0.277656 0.032257 0.011706 -0.024514
    42 0.000001 -1.292972 0.000000 -0.322196 -0.048813 0.033389
    43 -0.000002 -0.752466 -0.000002 -0.876587 -0.009049 0.017023
    44 0.444213 -2.561962 -0.277655 -0.432451 0.143605 0.180950
    45 0.021022 -1.208187 0.000001 -0.966197 0.000000 0.000000
    46 0.010597 -0.741867 -0.000002 -1.240102 0.000000 0.000000
    47 1.047446 -2.222822 -0.277655 -0.287540 0.038255 0.161483
    48 0.000000 -0.996224 -0.000001 -0.664029 0.000000 0.000000
    49 0.000000 -0.614691 0.000000 -1.344689 0.000000 0.000000
    50 -0.308256 -0.007814 0.307165 -0.987918 -0.823553 -1.831620
    51 1.978378 0.019544 0.000000 0.099985 0.407896 0.869471
    52 0.980611 0.058421 -0.012628 0.185445 -0.212474 0.577857
  time 2
    0 14.150201 -3.646304 -11.590169 0.523068 -2.194186 -0.914669
    1 -0.021283 -8.563257 -0.000750 0.421641 0.347275 -0.317716
    2 -0.350898 -2.752587 0.514683 0.536110 1.767884 0.542634
    3 0.000000 -5.680970 4.733543 1.570796 0.000000 0.000000
    4 0.000000 2.240248 4.862545 -1.570796 0.000000 0.000000
    5 0.000000 -0.030803 -0.185498 0.000000 0.000000 0.000000
    6 0.000000 -1.489114 1.895751 0.749180 0.000000 0.000000
    7 0.000000 -6.270583 1.350241 1.570796 0.000000 0.000000
    8 0.000000 5.114959 2.564909 0.000000 0.000000 0.000000
    9 0.000000 4.784919 4.090397 -1.570796 -3.141592 -0.000001
    10 -14.720560 -5.899049 -11.913084 0.692889 2.037619 1.102634
    11 0.089929 -8.543166 0.000003 0.200249 -0.389108 0.154062
    12 0.431291 -2.480750 0.566680 1.315037 -1.359682 -1.195261
    13 0.000000 -5.680965 4.733542 1.570796 0.000000 0.000000
    14 0.000001 2.240247 4.862545 -1.570796 0.000000 0.000000
    15 0.000000 -0.030803 -0.185497 0.000000 0.000000 0.000000
    16 0.000000 -1.489114 1.895751 0.087266 0.000000 0.000000
    17 0.000000 -6.270579 1.350240 1.570796 0.000000 0.000000
    18 0.000000 0.355522 -2.249654 -1.570796 -3.141592 1.570796
    19 0.000001 5.114957 2.564910 0.000000 0.000000 0.000000
    20 0.000001 4.784917 4.090397 -1.570796 -3.141592 -0.000001
    21 -0.003480 -0.404827 0.000000 -0.000001 0.000000 0.000000
    22 -0.519309 -2.501154 -0.278957 -0.055823 0.159103 -0.101314
    23 -0.010598 -1.208184 -0.000001 -1.297208 -0.173311 -0.018970
    24 -0.000001 -0.763066 0.000000 -0.764828 -0.064118 0.059360
    25 0.105982 -2.607132 -0.278958 -0.243330 -0.074707 0.002974
    26 0.000000 -1.250579 0.000001 -0.787802 0.000000 0.000000
    27 -0.000001 -0.932635 0.000001 -1.655650 0.000000 0.000000
    28 0.763065 -2.490555 -0.278958 -0.118666 0.173955 0.234657
    29 -0.012322 -1.280917 0.000000 -0.397870 -0.078283 -0.101829
    30 -0.001695 -0.738091 0.129482 -1.554481 0.010997 0.011408
    31 0.354567 0.016267 0.318133 0.332140 -0.490594 -1.265606
    32 1.887164 0.012878 0.000000 0.117469 0.280685 -0.395066
    33 1.001873 -0.000270 0.000000 -0.034755 0.003104 -0.003895
    34 -1.123359 -2.195092 -0.278957 -0.208864 0.033771 -0.106283
    35 0.010771 -0.963791 0.000001 -0.580307 0.023406 0.035690
    36 -0.010412 -0.631916 0.000000 -1.043753 0.000000 0.000000
    37 0.000000 -0.359713 0.000000 0.000000 0.000000 0.000000
    38 -0.170478 -2.636148 -0.277655 -0.530743 0.075354 0.129527
    39 0.010599 -1.261177 0.000002 -1.252346 0.000000 0.000000
    40 -0.000002 -0.943233 0.000000 -1.208493 0.000000 0.000000
    41 -0.827562 -2.508972 -0.277656 0.032257 0.011706 -0.024514
    42 0.000001 -1.292972 0.000000 -0.322196 -0.048813 0.033389
    43 -0.000002 -0.752466 -0.000002 -0.876587 -0.009049 0.017023
    44 0.444213 -2.561962 -0.277655 -0.432451 0.143605 0.180950
    45 0.021022 -1.208187 0.000001 -0.966197 0.000000 0.000000
    46 0.010597 -0.741867 -0.000002 -1.240102 0.000000 0.000000
    47 1.047446 -2.222822 -0.277655 -0.287540 0.038255 0.161483
    48 0.000000 -0.996224 -0.000001 -0.664029 0.000000 0.000000
    49 0.000000 -0.614691 0.000000 -1.344689 0.000000 0.000000
    50 -0.308256 -0.007814 0.307165 -0.987918 -0.823553 -1.831620
    51 1.978378 0.019544 0.000000 0.099985 0.407896 0.869471
    52 0.980611 0.058421 -0.012628 0.185445 -0.212474 0.577857
  time 3
    0 14.150201 -4.025222 -11.754237 0.523915 -2.194757 -0.915336
    1 -0.021283 -8.563257 -0.000750 0.420952 0.347591 -0.319018
    2 -0.350898 -2.752587 0.514683 0.536110 1.767884 0.542634
    3 0.000000 -5.680970 4.733543 1.570796 0.000000 0.000000
    4 0.000000 2.240248 4.862545 -1.570796 0.000000 0.000000
    5 0.000000 -0.030803 -0.185498 0.000000 0.000000 0.000000
    6 0.000000 -1.489114 1.895751 0.749180 0.000000 0.000000
    7 0.000000 -6.270583 1.350241 1.570796 0.000000 0.000000
    8 0.000000 5.114959 2.564909 0.000000 0.000000 0.000000
    9 0.000000 4.784919 4.090397 -1.570796 -3.141592 -0.000001
    10 -14.720560 -5.899049 -11.913084 0.692807 2.037619 1.102634
    11 0.089929 -8.543166 0.000003 0.204375 -0.390483 0.143731
    12 0.431291 -2.480750 0.566680 1.315037 -1.359682 -1.195261
    13 0.000000 -5.680965 4.733542 1.570796 0.000000 0.000000
    14 0.000001 2.240247 4.862545 -1.570796 0.000000 0.000000
    15 0.000000 -0.030803 -0.185497 0.000000 0.000000 0.000000
    16 0.000000 -1.489114 1.895751 0.087266 0.000000 0.000000
    17 0.000000 -6.270579 1.350240 1.570796 0.000000 0.000000
    18 0.000000 0.355522 -2.249654 -1.570796 -3.141592 1.570796
    19 0.000001 5.114957 2.564910 0.000000 0.000000 0.000000
    20 0.000001 4.784917 4.090397 -1.570796 -3.141592 -0.000001
    21 -0.003480 -0.404827 0.000000 -0.000001 0.000000 0.000000
    22 -0.519309 -2.501154 -0.278957 -0.055823 0.159103 -0.101314
    23 -0.010598 -1.208184 -0.000001 -1.297208 -0.173311 -0.018970
    24 -0.000001 -0.763066 0.000000 -0.764828 -0.064118 0.059360
    25 0.105982 -2.607132 -0.278958 -0.243330 -0.074707 0.002974
    26 0.000000 -1.250579 0.000001 -0.787802 0.000000 0.000000
    27 -0.000001 -0.932635 0.000001 -1.655650 0.000000 0.000000
    28 0.763065 -2.490555 -0.278958 -0.118666 0.173955 0.234657
    29 -0.012322 -1.280917 0.000000 -0.397870 -0.078283 -0.101829
    30 -0.001695 -0.738091 0.129482 -1.554481 0.010997 0.011408
    31 0.354567 0.016267 0.318133 0.332140 -0.490594 -1.265606
    32 1.887164 0.012878 0.000000 0.115783 0.292634 -0.402016
    33 1.001873 -0.000270 0.000000 -0.034731 0.002409 -0.023848
    34 -1.123359 -2.195092 -0.278957 -0.208864 0.033771 -0.106283
    35 0.010771 -0.963791 0.000001 -0.580307 0.023406 0.035690
    36 -0.010412 -0.631916 0.000000 -1.043753 0.000000 0.000000
    37 0.000000 -0.359713 0.000000 0.000000 0.000000 0.000000
    38 -0.170478 -2.636148 -0.277655 -0.530743 0.075354 0.129527
    39 0.010599 -1.261177 0.000002 -1.252346 0.000000 0.000000
    40 -0.000002 -0.943233 0.000000 -1.208493 0.000000 0.000000
    41 -0.827562 -2.508972 -0.277656 0.032257 0.011706 -0.024514
    42 0.000001 -1.292972 0.000000 -0.322196 -0.048813 0.033389
    43 -0.000002 -0.752466 -0.000002 -0.876587 -0.009049 0.017023
    44 0.444213 -2.561962 -0.277655 -0.432451 0.143605 0.180950
    45 0.021022 -1.208187 0.000001 -0.966197 0.000000 0.000000
    46 0.010597 -0.741867 -0.000002 -1.240102 0.000000 0.000000
    47 1.047446 -2.222822 -0.277655 -0.287540 0.038255 0.161483
    48 0.000000 -0.996224 -0.000001 -0.664029 0.000000 0.000000
    49 0.000000 -0.614691 0.000000 -1.344689 0.000000 0.000000
    50 -0.308256 -0.007814 0.307165 -0.987918 -0.823553 -1.831620
    51 1.978378 0.019544 0.000000 0.099985 0.407896 0.869471
    52 0.980611 0.058421 -0.012628 0.185445 -0.212474 0.577857
  time 4
    0 14.150201 -4.271323 -11.805020 0.521372 -2.192963 -0.913238
    1 -0.021283 -8.563257 -0.000750 0.418193 0.348900 -0.324228
    2 -0.350898 -2.752587 0.514683 0.536110 1.767884 0.542634
    3 0.000000 -5.680970 4.733543 1.570796 0.000000 0.000000
    4 0.000000 2.240248 4.862545 -1.570796 0.000000 0.000000
    5 0.000000 -0.030803 -0.185498 0.000000 0.000000 0.000000
    6 0.000000 -1.489114 1.895751 0.749180 0.000000 0.000000
    7 0.000000 -6.270583 1.350241 1.570796 0.000000 0.000000
    8 0.000000 5.114959 2.564909 0.000000 0.000000 0.000000
    9 0.000000 4.784919 4.090397 -1.570796 -3.141592 -0.000001
    10 -14.728373 -5.922487 -11.916990 0.694284 2.038961 1.103939
    11 0.089929 -8.543166 0.000003 0.207889 -0.393360 0.141571
    12 0.431291 -2.480750 0.566680 1.315037 -1.359682 -1.195261
    13 0.000000 -5.680965 4.733542 1.570796 0.000000 0.000000
    14 0.000001 2.240247 4.862545 -1.570796 0.000000 0.000000
    15 0.000000 -0.030803 -0.185497 0.000000 0.000000 0.000000
    16 0.000000 -1.489114 1.895751 0.087266 0.000000 0.000000
    17 0.000000 -6.270579 1.350240 1.570796 0.000000 0.000000
    18 0.000000 0.355522 -2.249654 -1.570796 -3.141592 1.570796
    19 0.000001 5.114957 2.564910 0.000000 0.000000 0.000000
    20 0.000001 4.784917 4.090397 -1.570796 -3.141592 -0.000001
    21 -0.003480 -0.404827 0.000000 -0.000001 0.000000 0.000000
    22 -0.519309 -2.501154 -0.278957 -0.055823 0.159103 -0.101314
    23 -0.010598 -1.208184 -0.000001 -1.297208 -0.173311 -0.018970
    24 -0.000001 -0.763066 0.000000 -0.764828 -0.064118 0.059360
    25 0.105982 -2.607132 -0.278958 -0.243330 -0.074707 0.002974
    26 0.000000 -1.250579 0.000001 -0.787802 0.000000 0.000000
    27 -0.000001 -0.932635 0.000001 -1.655650 0.000000 0.000000
    28 0.763065 -2.490555 -0.278958 -0.118666 0.173955 0.234657
    29 -0.012322 -1.280917 0.000000 -0.397870 -0.078283 -0.101829
    30 -0.001695 -0.738091 0.129482 -1.554481 0.010997 0.011408
    31 0.354567 0.016267 0.318133 0.332140 -0.490594 -1.265606
    32 1.887164 0.012878 0.000000 0.124915 0.285383 -0.397432
    33 1.001873 -0.000270 0.000000 -0.034719 0.000743 -0.071339
    34 -1.123359 -2.195092 -0.278957 -0.208864 0.033771 -0.106283
    35 0.010771 -0.963791 0.000001 -0.580307 0.023406 0.035690
    36 -0.010412 -0.631916 0.000000 -1.043753 0.000000 0.000000
    37 0.000000 -0.359713 0.000000 0.000000 0.000000 0.000000
    38 -0.170478 -2.636148 -0.277655 -0.530743 0.075354 0.129527
    39 0.010599 -1.261177 0.000002 -1.252346 0.000000 0.000000
    40 -0.000002 -0.943233 0.000000 -1.208493 0.000000 0.000000
    41 -0.827562 -2.508972 -0.277656 0.032257 0.011706 -0.024514
    42 0.000001 -1.292972 0.000000 -0.322196 -0.048813 0.033389
    43 -0.000002 -0.752466 -0.000002 -0.876587 -0.009049 0.017023
    44 0.444213 -2.561962 -0.277655 -0.432451 0.143605 0.180950
    45 0.021022 -1.208187 0.000001 -0.966197 0.000000 0.000000
    46 0.010597 -0.741867 -0.000002 -1.240102 0.000000 0.000000
    47 1.047446 -2.222822 -0.277655 -0.287540 0.038255 0.161483
    48 0.000000 -0.996224 -0.000001 -0.664029 0.000000 0.000000
    49 0.000000 -0.614691 0.000000 -1.344689 0.000000 0.000000
    50 -0.308256 -0.007814 0.307165 -0.987918 -0.823553 -1.831620
    51 1.978378 0.019544 0.000000 0.099985 0.407896 0.869471
    52 0.980611 0.058421 -0.012628 0.185445 -0.212474 0.577857
  time 5
    0 14.150201 -4.540863 -11.773769 0.516662 -2.189455 -0.909328
    1 -0.021283 -8.563257 -0.000750 0.411254 0.352293 -0.337426
    2 -0.350898 -2.752587 0.514683 0.536110 1.767884 0.542634
    3 0.000000 -5.680970 4.733543 1.570796 0.000000 0.000000
    4 0.000000 2.240248 4.862545 -1.570796 0.000000 0.000000
    5 0.000000 -0.030803 -0.185498 0.000000 0.000000 0.000000
    6 0.000000 -1.489114 1.895751 0.749180 0.000000 0.000000
    7 0.000000 -6.270583 1.350241 1.570796 0.000000 0.000000
    8 0.000000 5.114959 2.564909 0.000000 0.000000 0.000000
    9 0.000000 4.784919 4.090397 -1.570796 -3.141592 -0.000001
    10 -14.736185 -5.957644 -11.920897 0.696253 2.040686 1.105710
    11 0.089929 -8.543166 0.000003 0.211467 -0.397409 0.143708
    12 0.431291 -2.480750 0.566680 1.315037 -1.359682 -1.195261
    13 0.000000 -5.680965 4.733542 1.570796 0.000000 0.000000
    14 0.000001 2.240247 4.862545 -1.570796 0.000000 0.000000
    15 0.000000 -0.030803 -0.185497 0.000000 0.000000 0.000000
    16 0.000000 -1.489114 1.895751 0.087266 0.000000 0.000000
    17 0.000000 -6.270579 1.350240 1.570796 0.000000 0.000000
    18 0.000000 0.355522 -2.249654 -1.570796 -3.141592 1.570796
    19 0.000001 5.114957 2.564910 0.000000 0.000000 0.000000
    20 0.000001 4.784917 4.090397 -1.570796 -3.141592 -0.000001
    21 -0.003480 -0.404827 0.000000 -0.000001 0.000000 0.000000
    22 -0.519309 -2.501154 -0.278957 -0.055823 0.159103 -0.101314
    23 -0.010598 -1.208184 -0.000001 -1.297208 -0.173311 -0.018970
    24 -0.000001 -0.763066 0.000000 -0.764828 -0.064118 0.059360
    25 0.105982 -2.607132 -0.278958 -0.243330 -0.074707 0.002974
    26 0.000000 -1.250579 0.000001 -0.787802 0.000000 0.000000
    27 -0.000001 -0.932635 0.000001 -1.655650 0.000000 0.000000
    28 0.763065 -2.490555 -0.278958 -0.118666 0.173955 0.234657
    29 -0.012322 -1.280917 0.000000 -0.397870 -0.078283 -0.101829
    30 -0.001695 -0.738091 0.129482 -1.554481 0.010997 0.011408
    31 0.354567 0.016267 0.318133 0.332140 -0.490594 -1.265606
    32 1.887164 0.012878 0.000000 0.145046 0.269432 -0.387367
    33 1.001873 -0.000270 0.000000 -0.034707 -0.001210 -0.128069
    34 -1.123359 -2.195092 -0.278957 -0.208864 0.033771 -0.106283
    35 0.010771 -0.963791 0.000001 -0.580307 0.023406 0.035690
    36 -0.010412 -0.631916 0.000000 -1.043753 0.000000 0.000000
    37 0.000000 -0.359713 0.000000 0.000000 0.000000 0.000000
    38 -0.170478 -2.636148 -0.277655 -0.530743 0.075354 0.129527
    39 0.010599 -1.261177 0.000002 -1.252346 0.000000 0.000000
    40 -0.000002 -0.943233 0.000000 -1.208493 0.000000 0.000000
    41 -0.827562 -2.508972 -0.277656 0.032257 0.011706 -0.024514
    42 0.000001 -1.292972 0.000000 -0.322196 -0.048813 0.033389
    43 -0.000002 -0.752466 -0.000002 -0.876587 -0.009049 0.017023
    44 0.444213 -2.561962 -0.277655 -0.432451 0.143605 0.180950
    45 0.021022 -1.208187 0.000001 -0.966197 0.000000 0.000000
    46 0.010597 -0.741867 -0.000002 -1.240102 0.000000 0.000000
    47 1.047446 -2.222822 -0.277655 -0.287540 0.038255 0.161483
    48 0.000000 -0.996224 -0.000001 -0.664029 0.000000 0.000000
    49 0.000000 -0.614691 0.000000 -1.344689 0.000000 0.000000
    50 -0.308256 -0.007814 0.307165 -0.987918 -0.823553 -1.831620
    51 1.978378 0.019544 0.000000 0.099985 0.407896 0.869471
    52 0.980611 0.058421 -0.012628 0.185445 -0.212474 0.577857
  time 6
    0 14.150201 -4.818215 -11.691735 0.510727 -2.185214 -0.904465
    1 -0.021283 -8.563257 -0.000750 0.397935 0.358890 -0.362751
    2 -0.350898 -2.752587 0.514683 0.536110 1.767884 0.542634
    3 0.000000 -5.680970 4.733543 1.570796 0.000000 0.000000
    4 0.000000 2.240248 4.862545 -1.570796 0.000000 0.000000
    5 0.000000 -0.030803 -0.185498 0.000000 0.000000 0.000000
    6 0.000000 -1.489114 1.895751 0.749180 0.000000 0.000000
    7 0.000000 -6.270583 1.350241 1.570796 0.000000 0.000000
    8 0.000000 5.114959 2.564909 0.000000 0.000000 0.000000
    9 0.000000 4.784919 4.090397 -1.570796 -3.141592 -0.000001
    10 -14.743998 -5.981083 -11.924803 0.697648 2.041932 1.107015
    11 0.089929 -8.543166 0.000003 0.214723 -0.401330 0.147441
    12 0.431291 -2.480750 0.566680 1.315037 -1.359682 -1.195261
    13 0.000000 -5.680965 4.733542 1.570796 0.000000 0.000000
    14 0.000001 2.240247 4.862545 -1.570796 0.000000 0.000000
    15 0.000000 -0.030803 -0.185497 0.000000 0.000000 0.000000
    16 0.000000 -1.489114 1.895751 0.087266 0.000000 0.000000
    17 0.000000 -6.270579 1.350240 1.570796 0.000000 0.000000
    18 0.000000 0.355522 -2.249654 -1.570796 -3.141592 1.570796
    19 0.000001 5.114957 2.564910 0.000000 0.000000 0.000000
    20 0.000001 4.784917 4.090397 -1.570796 -3.141592 -0.000001
    21 -0.003480 -0.404827 0.000000 -0.000001 0.000000 0.000000
    22 -0.519309 -2.501154 -0.278957 -0.055823 0.159103 -0.101314
    23 -0.010598 -1.208184 -0.000001 -1.297208 -0.173311 -0.018970
    24 -0.000001 -0.763066 0.000000 -0.764828 -0.064118 0.059360
    25 0.105982 -2.607132 -0.278958 -0.243330 -0.074707 0.002974
    26 0.000000 -1.250579 0.000001 -0.787802 0.000000 0.000000
    27 -0.000001 -0.932635 0.000001 -1.655650 0.000000 0.000000
    28 0.763065 -2.490555 -0.278958 -0.118666 0.173955 0.234657
    29 -0.012322 -1.280917 0.000000 -0.397870 -0.078283 -0.101829
    30 -0.001695 -0.738091 0.129482 -1.554481 0.010997 0.011408
    31 0.354567 0.016267 0.318133 0.332140 -0.490594 -1.265606
    32 1.887164 0.012878 0.000000 0.165176 0.253480 -0.377303
    33 1.001873 -0.000270 0.000000 -0.034695 -0.002876 -0.175596
    34 -1.123359 -2.195092 -0.278957 -0.208864 0.033771 -0.106283
    35 0.010771 -0.963791 0.000001 -0.580307 0.023406 0.035690
    36 -0.010412 -0.631916 0.000000 -1.043753 0.000000 0.000000
    37 0.000000 -0.359713 0.000000 0.000000 0.000000 0.000000
    38 -0.170478 -2.636148 -0.277655 -0.530743 0.075354 0.129527
    39 0.010599 -1.261177 0.000002 -1.252346 0.000000 0.000000
    40 -0.000002 -0.943233 0.000000 -1.208493 0.000000 0.000000
    41 -0.827562 -2.508972 -0.277656 0.032257 0.011706 -0.024514
    42 0.000001 -1.292972 0.000000 -0.322196 -0.048813 0.033389
    43 -0.000002 -0.752466 -0.000002 -0.876587 -0.009049 0.017023
    44 0.444213 -2.561962 -0.277655 -0.432451 0.143605 0.180950
    45 0.021022 -1.208187 0.000001 -0.966197 0.000000 0.000000
    46 0.010597 -0.741867 -0.000002 -1.240102 0.000000 0.000000
    47 1.047446 -2.222822 -0.277655 -0.287540 0.038255 0.161483
    48 0.000000 -0.996224 -0.000001 -0.664029 0.000000 0.000000
    49 0.000000 -0.614691 0.000000 -1.344689 0.000000 0.000000
    50 -0.308256 -0.007814 0.307165 -0.987918 -0.823553 -1.831620
    51 1.978378 0.019544 0.000000 0.099985 0.407896 0.869471
    52 0.980611 0.058421 -0.012628 0.185445 -0.212474 0.577857
  time 7
    0 14.150201 -5.076035 -11.590169 0.504792 -2.180809 -0.899601
    1 -0.021283 -8.563257 -0.000750 0.381599 0.367065 -0.393951
    2 -0.350898 -2.752587 0.514683 0.536110 1.767884 0.542634
    3 0.000000 -5.680970 4.733543 1.570796 0.000000 0.000000
    4 0.000000 2.240248 4.862545 -1.570796 0.000000 0.000000
    5 0.000000 -0.030803 -0.185498 0.000000 0.000000 0.000000
    6 0.000000 -1.489114 1.895751 0.749180 0.000000 0.000000
    7 0.000000 -6.270583 1.350241 1.570796 0.000000 0.000000
    8 0.000000 5.114959 2.564909 0.000000 0.000000 0.000000
    9 0.000000 4.784919 4.090397 -1.570796 -3.141592 -0.000001
    10 -14.747905 -5.992802 -11.924803 0.698140 2.042411 1.107481
    11 0.089929 -8.543166 0.000003 0.217205 -0.403748 0.150094
    12 0.431291 -2.480750 0.566680 1.315037 -1.359682 -1.195261
    13 0.000000 -5.680965 4.733542 1.570796 0.000000 0.000000
    14 0.000001 2.240247 4.862545 -1.570796 0.000000 0.000000
    15 0.000000 -0.030803 -0.185497 0.000000 0.000000 0.000000
    16 0.000000 -1.489114 1.895751 0.087266 0.000000 0.000000
    17 0.000000 -6.270579 1.350240 1.570796 0.000000 0.000000
    18 0.000000 0.355522 -2.249654 -1.570796 -3.141592 1.570796
    19 0.000001 5.114957 2.564910 0.000000 0.000000 0.000000
    20 0.000001 4.784917 4.090397 -1.570796 -3.141592 -0.000001
    21 -0.003480 -0.404827 0.000000 -0.000001 0.000000 0.000000
    22 -0.519309 -2.501154 -0.278957 -0.055823 0.159103 -0.101314
    23 -0.010598 -1.208184 -0.000001 -1.297208 -0.173311 -0.018970
    24 -0.000001 -0.763066 0.000000 -0.764828 -0.064118 0.059360
    25 0.105982 -2.607132 -0.278958 -0.243330 -0.074707 0.002974
    26 0.000000 -1.250579 0.000001 -0.787802 0.000000 0.000000
    27 -0.000001 -0.932635 0.000001 -1.655650 0.000000 0.000000
    28 0.763065 -2.490555 -0.278958 -0.118666 0.173955 0.234657
    29 -0.012322 -1.280917 0.000000 -0.397870 -0.078283 -0.101829
    30 -0.001695 -0.738091 0.129482 -1.554481 0.010997 0.011408
    31 0.354567 0.016267 0.318133 0.332140 -0.490594 -1.265606
    32 1.887164 0.012878 0.000000 0.174308 0.246229 -0.372719
    33 1.001873 -0.000270 0.000000 -0.034695 -0.003571 -0.195513
    34 -1.123359 -2.195092 -0.278957 -0.208864 0.033771 -0.106283
    35 0.010771 -0.963791 0.000001 -0.580307 0.023406 0.035690
    36 -0.010412 -0.631916 0.000000 -1.043753 0.000000 0.000000
    37 0.000000 -0.359713 0.000000 0.000000 0.000000 0.000000
    38 -0.170478 -2.636148 -0.277655 -0.530743 0.075354 0.129527
    39 0.010599 -1.261177 0.000002 -1.252346 0.000000 0.000000
    40 -0.000002 -0.943233 0.000000 -1.208493 0.000000 0.000000
    41 -0.827562 -2.508972 -0.277656 0.032257 0.011706 -0.024514
    42 0.000001 -1.292972 0.000000 -0.322196 -0.048813 0.033389
    43 -0.000002 -0.752466 -0.000002 -0.876587 -0.009049 0.017023
    44 0.444213 -2.561962 -0.277655 -0.432451 0.143605 0.180950
    45 0.021022 -1.208187 0.000001 -0.966197 0.000000 0.000000
    46 0.010597 -0.741867 -0.000002 -1.240102 0.000000 0.000000
    47 1.047446 -2.222822 -0.277655 -0.287540 0.038255 0.161483
    48 0.000000 -0.996224 -0.000001 -0.664029 0.000000 0.000000
    49 0.000000 -0.614691 0.000000 -1.344689 0.000000 0.000000
    50 -0.308256 -0.007814 0.307165 -0.987918 -0.823553 -1.831620
    51 1.978378 0.019544 0.000000 0.099985 0.407896 0.869471
    52 0.980611 0.058421 -0.012628 0.185445 -0.212474 0.577857
  time 8
    0 14.150201 -5.306511 -11.496417 0.499799 -2.177220 -0.895596
    1 -0.021283 -8.563257 -0.000750 0.365307 0.375208 -0.425007
    2 -0.350898 -2.752587 0.514683 0.536110 1.767884 0.542634
    3 0.000000 -5.680970 4.733543 1.570796 0.000000 0.000000
    4 0.000000 2.240248 4.862545 -1.570796 0.000000 0.000000
    5 0.000000 -0.030803 -0.185498 0.000000 0.000000 0.000000
    6 0.000000 -1.489114 1.895751 0.680336 0.000000 0.000000
    7 0.000000 -6.270583 1.350241 1.570796 0.000000 0.000000
    8 0.000000 5.114959 2.564909 0.000000 0.000000 0.000000
    9 0.000000 4.784919 4.090397 -1.570796 -3.141592 -0.000001
    10 -14.747905 -5.996708 -11.924803 0.698386 2.042603 1.107667
    11 0.089929 -8.543166 0.000003 0.218720 -0.403901 0.151033
    12 0.431291 -2.480750 0.566680 1.315037 -1.359682 -1.195261
    13 0.000000 -5.680965 4.733542 1.570796 0.000000 0.000000
    14 0.000001 2.240247 4.862545 -1.570796 0.000000 0.000000
    15 0.000000 -0.030803 -0.185497 0.000000 0.000000 0.000000
    16 0.000000 -1.489114 1.895751 0.087266 0.000000 0.000000
    17 0.000000 -6.270579 1.350240 1.570796 0.000000 0.000000
    18 0.000000 0.355522 -2.249654 -1.570796 -3.141592 1.570796
    19 0.000001 5.114957 2.564910 0.000000 0.000000 0.000000
    20 0.000001 4.784917 4.090397 -1.570796 -3.141592 -0.000001
    21 -0.003480 -0.404827 0.000000 -0.000001 0.000000 0.000000
    22 -0.519309 -2.501154 -0.278957 -0.055823 0.159103 -0.101314
    23 -0.010598 -1.208184 -0.000001 -1.297208 -0.173311 -0.018970
    24 -0.000001 -0.763066 0.000000 -0.764828 -0.064118 0.059360
    25 0.105982 -2.607132 -0.278958 -0.243330 -0.074707 0.002974
    26 0.000000 -1.250579 0.000001 -0.787802 0.000000 0.000000
    27 -0.000001 -0.932635 0.000001 -1.655650 0.000000 0.000000
    28 0.763065 -2.490555 -0.278958 -0.118666 0.173955 0.234657
    29 -0.012322 -1.280917 0.000000 -0.397870 -0.078283 -0.101829
    30 -0.001695 -0.738091 0.129482 -1.554481 0.010997 0.011408
    31 0.354567 0.016267 0.318133 0.332140 -0.490594 -1.265606
    32 1.887164 0.012878 0.000000 0.173648 0.246277 -0.373079
    33 1.001873 -0.000270 0.000000 -0.034719 -0.003200 -0.184835
    34 -1.123359 -2.195092 -0.278957 -0.208864 0.033771 -0.106283
    35 0.010771 -0.963791 0.000001 -0.580307 0.023406 0.035690
    36 -0.010412 -0.631916 0.000000 -1.043753 0.000000 0.000000
    37 0.000000 -0.359713 0.000000 0.000000 0.000000 0.000000
    38 -0.170478 -2.636148 -0.277655 -0.530743 0.075354 0.129527
    39 0.010599 -1.261177 0.000002 -1.252346 0.000000 0.000000
    40 -0.000002 -0.943233 0.000000 -1.208493 0.000000 0.000000
    41 -0.827562 -2.508972 -0.277656 0.032257 0.011706 -0.024514
    42 0.000001 -1.292972 0.000000 -0.322196 -0.048813 0.033389
    43 -0.000002 -0.752466 -0.000002 -0.876587 -0.009049 0.017023
    44 0.444213 -2.561962 -0.277655 -0.432451 0.143605 0.180950
    45 0.021022 -1.208187 0.000001 -0.966197 0.000000 0.000000
    46 0.010597 -0.741867 -0.000002 -1.240102 0.000000 0.000000
    47 1.047446 -2.222822 -0.277655 -0.287540 0.038255 0.161483
    48 0.000000 -0.996224 -0.000001 -0.664029 0.000000 0.000000
    49 0.000000 -0.614691 0.000000 -1.344689 0.000000 0.000000
    50 -0.308256 -0.007814 0.307165 -0.987918 -0.823553 -1.831620
    51 1.978378 0.019544 0.000000 0.099985 0.407896 0.869471
    52 0.980611 0.058421 -0.012628 0.185445 -0.212474 0.577857
  time 9
    0 14.150201 -5.486204 -11.441727 0.497067 -2.175262 -0.893307
    1 -0.021283 -8.563257 -0.000750 0.352333 0.381726 -0.449695
    2 -0.350898 -2.752587 0.514683 0.536110 1.767884 0.542634
    3 0.000000 -5.680970 4.733543 1.570796 0.000000 0.000000
    4 0.000000 2.240248 4.862545 -1.570796 0.000000 0.000000
    5 0.000000 -0.030803 -0.185498 0.000000 0.000000 0.000000
    6 0.000000 -1.489114 1.895751 0.516186 0.000000 0.000000
    7 0.000000 -6.270583 1.350241 1.570796 0.000000 0.000000
    8 0.000000 5.114959 2.564909 0.000000 0.000000 0.000000
    9 0.000000 4.784919 4.090397 -1.570796 -3.141592 -0.000001
    10 -14.747905 -5.996708 -11.924803 0.698386 2.042603 1.107667
    11 0.089929 -8.543166 0.000003 0.219397 -0.402221 0.151573
    12 0.431291 -2.480750 0.566680 1.315037 -1.359682 -1.195261
    13 0.000000 -5.680965 4.733542 1.570796 0.000000 0.000000
    14 0.000001 2.240247 4.862545 -1.570796 0.000000 0.000000
    15 0.000000 -0.030803 -0.185497 0.000000 0.000000 0.000000
    16 0.000000 -1.489114 1.895751 0.087266 0.000000 0.000000
    17 0.000000 -6.270579 1.350240 1.570796 0.000000 0.000000
    18 0.000000 0.355522 -2.249654 -1.570796 -3.141592 1.570796
    19 0.000001 5.114957 2.564910 0.000000 0.000000 0.000000
    20 0.000001 4.784917 4.090397 -1.570796 -3.141592 -0.000001
    21 -0.003480 -0.404827 0.000000 -0.000001 0.000000 0.000000
    22 -0.519309 -2.501154 -0.278957 -0.055823 0.159103 -0.101314
    23 -0.010598 -1.208184 -0.000001 -1.297208 -0.173311 -0.018970
    24 -0.000001 -0.763066 0.000000 -0.764828 -0.064118 0.059360
    25 0.105982 -2.607132 -0.278958 -0.243330 -0.074707 0.002974
    26 0.000000 -1.250579 0.000001 -0.787802 0.000000 0.000000
    27 -0.000001 -0.932635 0.000001 -1.655650 0.000000 0.000000
    28 0.763065 -2.490555 -0.278958 -0.118666 0.173955 0.234657
    29 -0.012322 -1.280917 0.000000 -0.310081 -0.078283 -0.101829
    30 -0.001695 -0.738091 0.129482 -1.558165 0.010997 0.011408
    31 0.354567 0.016267 0.318133 0.332140 -0.490594 -1.265606
    32 1.887164 0.012878 0.000000 0.171758 0.246397 -0.374067
    33 1.001873 -0.000270 0.000000 -0.034767 -0.002313 -0.159418
    34 -1.123359 -2.195092 -0.278957 -0.208864 0.033771 -0.106283
    35 0.010771 -0.963791 0.000001 -0.580307 0.023406 0.035690
    36 -0.010412 -0.631916 0.000000 -1.043753 0.000000 0.000000
    37 0.000000 -0.359713 0.000000 0.000000 0.000000 0.000000
    38 -0.170478 -2.636148 -0.277655 -0.530743 0.075354 0.129527
    39 0.010599 -1.261177 0.000002 -1.252346 0.000000 0.000000
    40 -0.000002 -0.943233 0.000000 -1.208493 0.000000 0.000000
    41 -0.827562 -2.508972 -0.277656 0.032257 0.011706 -0.024514
    42 0.000001 -1.292972 0.000000 -0.322196 -0.048813 0.033389
    43 -0.000002 -0.752466 -0.000002 -0.876587 -0.009049 0.017023
    44 0.444213 -2.561962 -0.277655 -0.432451 0.143605 0.180950
    45 0.021022 -1.208187 0.000001 -0.966197 0.000000 0.000000
    46 0.010597 -0.741867 -0.000002 -1.240102 0.000000 0.000000
    47 1.047446 -2.222822 -0.277655 -0.287540 0.038255 0.161483
    48 0.000000 -0.996224 -0.000001 -0.664029 0.000000 0.000000
    49 0.000000 -0.614691 0.000000 -1.344689 0.000000 0.000000
    50 -0.308256 -0.007814 0.307165 -0.987918 -0.823553 -1.831620
    51 1.978378 0.019544 0.000000 0.099985 0.407896 0.869471
    52 0.980611 0.058421 -0.012628 0.185445 -0.212474 0.577857
  time 10
    0 14.150201 -5.607301 -11.430008 0.496031 -2.174528 -0.892354
    1 -0.021283 -8.563257 -0.000750 0.345997 0.384977 -0.461880
    2 -0.350898 -2.752587 0.514683 0.536110 1.767884 0.542634
    3 0.000000 -5.680970 4.733543 1.570796 0.000000 0.000000
    4 0.000000 2.240248 4.862545 -1.570796 0.000000 0.000000
    5 0.000000 -0.030803 -0.185498 0.000000 0.000000 0.000000
    6 0.000000 -1.489114 1.895751 0.320240 0.000000 0.000000
    7 0.000000 -6.270583 1.350241 1.570796 0.000000 0.000000
    8 0.000000 5.114959 2.564909 0.000000 0.000000 0.000000
    9 0.000000 4.784919 4.090397 -1.570796 -3.141592 -0.000001
    10 -14.747905 -5.992802 -11.924803 0.698140 2.042411 1.107481
    11 0.089929 -8.543166 0.000003 0.219397 -0.399318 0.151878
    12 0.431291 -2.480750 0.566680 1.315037 -1.359682 -1.195261
    13 0.000000 -5.680965 4.733542 1.570796 0.000000 0.000000
    14 0.000001 2.240247 4.862545 -1.570796 0.000000 0.000000
    15 0.000000 -0.030803 -0.185497 0.000000 0.000000 0.000000
    16 0.000000 -1.489114 1.895751 0.087266 0.000000 0.000000
    17 0.000000 -6.270579 1.350240 1.570796 0.000000 0.000000
    18 0.000000 0.355522 -2.249654 -1.570796 -3.141592 1.570796
    19 0.000001 5.114957 2.564910 0.000000 0.000000 0.000000
    20 0.000001 4.784917 4.090397 -1.570796 -3.141592 -0.000001
    21 -0.003480 -0.404827 0.000000 -0.000001 0.000000 0.000000
    22 -0.519309 -2.501154 -0.278957 -0.055823 0.159103 -0.101314
    23 -0.010598 -1.208184 -0.000001 -1.297208 -0.173311 -0.018970
    24 -0.000001 -0.763066 0.000000 -0.764828 -0.064118 0.059360
    25 0.105982 -2.607132 -0.278958 -0.243330 -0.074707 0.002974
    26 0.000000 -1.250579 0.000001 -0.787802 0.000000 0.000000
    27 -0.000001 -0.932635 0.000001 -1.655650 0.000000 0.000000
    28 0.763065 -2.490555 -0.278958 -0.118666 0.173955 0.234657
    29 -0.012322 -1.280917 0.000000 -0.116952 -0.078283 -0.101829
    30 -0.001695 -0.738091 0.129482 -1.565046 0.010997 0.011408
    31 0.354567 0.016267 0.318133 0.332140 -0.490594 -1.265606
    32 1.887164 0.012878 0.000000 0.168843 0.246577 -0.375625
    33 1.001873 -0.000270 0.000000 -0.034827 -0.001246 -0.129076
    34 -1.123359 -2.195092 -0.278957 -0.208864 0.033771 -0.106283
    35 0.010771 -0.963791 0.000001 -0.580307 0.023406 0.035690
    36 -0.010412 -0.631916 0.000000 -1.043753 0.000000 0.000000
    37 0.000000 -0.359713 0.000000 0.000000 0.000000 0.000000
    38 -0.170478 -2.636148 -0.277655 -0.530743 0.075354 0.129527
    39 0.010599 -1.261177 0.000002 -1.252346 0.000000 0.000000
    40 -0.000002 -0.943233 0.000000 -1.208493 0.000000 0.000000
    41 -0.827562 -2.508972 -0.277656 0.032257 0.011706 -0.024514
    42 0.000001 -1.292972 0.000000 -0.322196 -0.048813 0.033389
    43 -0.000002 -0.752466 -0.000002 -0.876587 -0.009049 0.017023
    44 0.444213 -2.561962 -0.277655 -0.432451 0.143605 0.180950
    45 0.021022 -1.208187 0.000001 -0.966197 0.000000 0.000000
    46 0.010597 -0.741867 -0.000002 -1.240102 0.000000 0.000000
    47 1.047446 -2.222822 -0.277655 -0.287540 0.038255 0.161483
    48 0.000000 -0.996224 -0.000001 -0.664029 0.000000 0.000000
    49 0.000000 -0.614691 0.000000 -1.344689 0.000000 0.000000
    50 -0.308256 -0.007814 0.307165 -0.987918 -0.823553 -1.831620
    51 1.978378 0.019544 0.000000 0.099985 0.407896 0.869471
    52 0.980611 0.058421 -0.012628 0.185445 -0.212474 0.577857
  time 11
    0 14.150201 -5.677616 -11.437821 0.495466 -2.174120 -0.891877
    1 -0.021283 -8.563257 -0.000750 0.347678 0.384267 -0.458725
    2 -0.350898 -2.752587 0.514683 0.536110 1.767884 0.542634
    3 0.000000 -5.680970 4.733543 1.570796 0.000000 0.000000
    4 0.000000 2.240248 4.862545 -1.570796 0.000000 0.000000
    5 0.000000 -0.030803 -0.185498 0.000000 0.000000 0.000000
    6 0.000000 -1.489114 1.895751 0.156090 0.000000 0.000000
    7 0.000000 -6.270583 1.350241 1.570796 0.000000 0.000000
    8 0.000000 5.114959 2.564909 0.000000 0.000000 0.000000
    9 0.000000 4.784919 4.090397 -1.570796 -3.141592 -0.000001
    10 -14.743998 -5.988895 -11.924803 0.697894 2.042124 1.107294
    11 0.089929 -8.543166 0.000003 0.218881 -0.395754 0.152113
    12 0.431291 -2.480750 0.566680 1.315037 -1.359682 -1.195261
    13 0.000000 -5.680965 4.733542 1.570796 0.000000 0.000000
    14 0.000001 2.240247 4.862545 -1.570796 0.000000 0.000000
    15 0.000000 -0.030803 -0.185497 0.000000 0.000000 0.000000
    16 0.000000 -1.489114 1.895751 0.087266 0.000000 0.000000
    17 0.000000 -6.270579 1.350240 1.570796 0.000000 0.000000
    18 0.000000 0.355522 -2.249654 -1.570796 -3.141592 1.570796
    19 0.000001 5.114957 2.564910 0.000000 0.000000 0.000000
    20 0.000001 4.784917 4.090397 -1.570796 -3.141592 -0.000001
    21 -0.003480 -0.404827 0.000000 -0.000001 0.000000 0.000000
    22 -0.519309 -2.501154 -0.278957 -0.055823 0.159103 -0.101314
    23 -0.010598 -1.208184 -0.000001 -1.297208 -0.173311 -0.018970
    24 -0.000001 -0.763066 0.000000 -0.764828 -0.064118 0.059360
    25 0.105982 -2.607132 -0.278958 -0.243330 -0.074707 0.002974
    26 0.000000 -1.250579 0.000001 -0.787802 0.000000 0.000000
    27 -0.000001 -0.932635 0.000001 -1.655650 0.000000 0.000000
    28 0.763065 -2.490555 -0.278958 -0.118666 0.173955 0.234657
    29 -0.012322 -1.280917 0.000000 0.076157 -0.078283 -0.101829
    30 -0.001695 -0.738091 0.129482 -1.568775 0.010997 0.011408
    31 0.354567 0.016267 0.318133 0.332140 -0.490594 -1.265606
    32 1.887164 0.012878 0.000000 0.165063 0.246805 -0.377662
    33 1.001873 -0.000270 0.000000 -0.034875 -0.000372 -0.103622
    34 -1.123359 -2.195092 -0.278957 -0.208864 0.033771 -0.106283
    35 0.010771 -0.963791 0.000001 -0.580307 0.023406 0.035690
    36 -0.010412 -0.631916 0.000000 -1.043753 0.000000 0.000000
    37 0.000000 -0.359713 0.000000 0.000000 0.000000 0.000000
    38 -0.170478 -2.636148 -0.277655 -0.530743 0.075354 0.129527
    39 0.010599 -1.261177 0.000002 -1.252346 0.000000 0.000000
    40 -0.000002 -0.943233 0.000000 -1.208493 0.000000 0.000000
    41 -0.827562 -2.508972 -0.277656 0.032257 0.011706 -0.024514
    42 0.000001 -1.292972 0.000000 -0.322196 -0.048813 0.033389
    43 -0.000002 -0.752466 -0.000002 -0.876587 -0.009049 0.017023
    44 0.444213 -2.561962 -0.277655 -0.432451 0.143605 0.180950
    45 0.021022 -1.208187 0.000001 -0.966197 0.000000 0.000000
    46 0.010597 -0.741867 -0.000002 -1.240102 0.000000 0.000000
    47 1.047446 -2.222822 -0.277655 -0.287540 0.038255 0.161483
    48 0.000000 -0.996224 -0.000001 -0.664029 0.000000 0.000000
    49 0.000000 -0.614691 0.000000 -1.344689 0.000000 0.000000
    50 -0.308256 -0.007814 0.307165 -0.987918 -0.823553 -1.831620
    51 1.978378 0.019544 0.000000 0.099985 0.407896 0.869471
    52 0.980611 0.058421 -0.012628 0.185445 -0.212474 0.577857
  time 12
    0 14.150201 -5.704961 -11.461259 0.495277 -2.173957 -0.891782
    1 -0.021283 -8.563257 -0.000750 0.355135 0.380732 -0.444630
    2 -0.350898 -2.752587 0.514683 0.536110 1.767884 0.542634
    3 0.000000 -5.680970 4.733543 1.570796 0.000000 0.000000
    4 0.000000 2.240248 4.862545 -1.570796 0.000000 0.000000
    5 0.000000 -0.030803 -0.185498 0.000000 0.000000 0.000000
    6 0.000000 -1.489114 1.895751 0.087266 0.000000 0.000000
    7 0.000000 -6.270583 1.350241 1.570796 0.000000 0.000000
    8 0.000000 5.114959 2.564909 0.000000 0.000000 0.000000
    9 0.000000 4.784919 4.090397 -1.570796 -3.141592 -0.000001
    10 -14.743998 -5.984989 -11.924803 0.697730 2.041932 1.107015
    11 0.089929 -8.543166 0.000003 0.217979 -0.392138 0.152442
    12 0.431291 -2.480750 0.566680 1.315037 -1.359682 -1.195261
    13 0.000000 -5.680965 4.733542 1.570796 0.000000 0.000000
    14 0.000001 2.240247 4.862545 -1.570796 0.000000 0.000000
    15 0.000000 -0.030803 -0.185497 0.000000 0.000000 0.000000
    16 0.000000 -1.489114 1.895751 0.087266 0.000000 0.000000
    17 0.000000 -6.270579 1.350240 1.570796 0.000000 0.000000
    18 0.000000 0.355522 -2.249654 -1.570796 -3.141592 1.570796
    19 0.000001 5.114957 2.564910 0.000000 0.000000 0.000000
    20 0.000001 4.784917 4.090397 -1.570796 -3.141592 -0.000001
    21 -0.003480 -0.404827 0.000000 -0.000001 0.000000 0.000000
    22 -0.519309 -2.501154 -0.278957 -0.055823 0.159103 -0.101314
    23 -0.010598 -1.208184 -0.000001 -1.297208 -0.173311 -0.018970
    24 -0.000001 -0.763066 0.000000 -0.764828 -0.064118 0.059360
    25 0.105982 -2.607132 -0.278958 -0.243330 -0.074707 0.002974
    26 0.000000 -1.250579 0.000001 -0.787802 0.000000 0.000000
    27 -0.000001 -0.932635 0.000001 -1.655650 0.000000 0.000000
    28 0.763065 -2.490555 -0.278958 -0.118666 0.173955 0.234657
    29 -0.012322 -1.280917 0.000000 0.163947 -0.078283 -0.101829
    30 -0.001695 -0.738091 0.129482 -1.503119 0.010997 0.011408
    31 0.354567 0.016267 0.318133 0.332140 -0.490594 -1.265606
    32 1.887164 0.012878 0.000000 0.160576 0.247080 -0.380058
    33 1.001873 -0.000270 0.000000 -0.034899 0.000000 -0.092945
    34 -1.123359 -2.195092 -0.278957 -0.208864 0.033771 -0.106283
    35 0.010771 -0.963791 0.000001 -0.580307 0.023406 0.035690
    36 -0.010412 -0.631916 0.000000 -1.043753 0.000000 0.000000
    37 0.000000 -0.359713 0.000000 0.000000 0.000000 0.000000
    38 -0.170478 -2.636148 -0.277655 -0.530743 0.075354 0.129527
    39 0.010599 -1.261177 0.000002 -1.252346 0.000000 0.000000
    40 -0.000002 -0.943233 0.000000 -1.208493 0.000000 0.000000
    41 -0.827562 -2.508972 -0.277656 0.032257 0.011706 -0.024514
    42 0.000001 -1.292972 0.000000 -0.322196 -0.048813 0.033389
    43 -0.000002 -0.752466 -0.000002 -0.876587 -0.009049 0.017023
    44 0.444213 -2.561962 -0.277655 -0.432451 0.143605 0.180950
    45 0.021022 -1.208187 0.000001 -0.966197 0.000000 0.000000
    46 0.010597 -0.741867 -0.000002 -1.240102 0.000000 0.000000
    47 1.047446 -2.222822 -0.277655 -0.287540 0.038255 0.161483
    48 0.000000 -0.996224 -0.000001 -0.664029 0.000000 0.000000
    49 0.000000 -0.614691 0.000000 -1.344689 0.000000 0.000000
    50 -0.308256 -0.007814 0.307165 -0.987918 -0.823553 -1.831620
    51 1.978378 0.019544 0.000000 0.099985 0.407896 0.869471
    52 0.980611 0.058421 -0.012628 0.185445 -0.212474 0.577857
  time 13
    0 14.150201 -5.701054 -11.496417 0.495371 -2.174038 -0.891877
    1 -0.021283 -8.563257 -0.000750 0.365953 0.375555 -0.424168
    2 -0.350898 -2.752587 0.514683 0.536110 1.767884 0.542634
    3 0.000000 -5.680970 4.733543 1.570796 0.000000 0.000000
    4 0.000000 2.240248 4.862545 -1.570796 0.000000 0.000000
    5 0.000000 -0.030803 -0.185498 0.000000 0.000000 0.000000
    6 0.000000 -1.489114 1.895751 0.087266 0.000000 0.000000
    7 0.000000 -6.270583 1.350241 1.570796 0.000000 0.000000
    8 0.000000 5.114959 2.564909 0.000000 0.000000 0.000000
    9 0.000000 4.784919 4.090397 -1.570796 -3.141592 -0.000001
    10 -14.743998 -5.981083 -11.924803 0.697648 2.041932 1.107015
    11 0.089929 -8.543166 0.000003 0.216850 -0.389006 0.153052
    12 0.431291 -2.480750 0.566680 1.315037 -1.359682 -1.195261
    13 0.000000 -5.680965 4.733542 1.570796 0.000000 0.000000
    14 0.000001 2.240247 4.862545 -1.570796 0.000000 0.000000
    15 0.000000 -0.030803 -0.185497 0.000000 0.000000 0.000000
    16 0.000000 -1.489114 1.895751 0.087266 0.000000 0.000000
    17 0.000000 -6.270579 1.350240 1.570796 0.000000 0.000000
    18 0.000000 0.355522 -2.249654 -1.570796 -3.141592 1.570796
    19 0.000001 5.114957 2.564910 0.000000 0.000000 0.000000
    20 0.000001 4.784917 4.090397 -1.570796 -3.141592 -0.000001
    21 -0.003480 -0.404827 0.000000 -0.000001 0.000000 0.000000
    22 -0.519309 -2.501154 -0.278957 -0.055823 0.159103 -0.101314
    23 -0.010598 -1.208184 -0.000001 -1.297208 -0.173311 -0.018970
    24 -0.000001 -0.763066 0.000000 -0.764828 -0.064118 0.059360
    25 0.105982 -2.607132 -0.278958 -0.243330 -0.074707 0.002974
    26 0.000000 -1.250579 0.000001 -0.787802 0.000000 0.000000
    27 -0.000001 -0.932635 0.000001 -1.655650 0.000000 0.000000
    28 0.763065 -2.490555 -0.278958 -0.118666 0.173955 0.234657
    29 -0.012322 -1.280917 0.000000 0.163947 -0.078283 -0.101829
    30 -0.001695 -0.738091 0.129482 -1.358712 0.010997 0.011408
    31 0.354567 0.016267 0.318133 0.332140 -0.490594 -1.265606
    32 1.887164 0.012878 0.000000 0.155589 0.247392 -0.382724
    33 1.001873 -0.000270 0.000000 -0.034899 0.000000 -0.092945
    34 -1.123359 -2.195092 -0.278957 -0.208864 0.033771 -0.106283
    35 0.010771 -0.963791 0.000001 -0.580307 0.023406 0.035690
    36 -0.010412 -0.631916 0.000000 -1.043753 0.000000 0.000000
    37 0.000000 -0.359713 0.000000 0.000000 0.000000 0.000000
    38 -0.170478 -2.636148 -0.277655 -0.530743 0.075354 0.129527
    39 0.010599 -1.261177 0.000002 -1.252346 0.000000 0.000000
    40 -0.000002 -0.943233 0.000000 -1.208493 0.000000 0.000000
    41 -0.827562 -2.508972 -0.277656 0.032257 0.011706 -0.024514
    42 0.000001 -1.292972 0.000000 -0.322196 -0.048813 0.033389
    43 -0.000002 -0.752466 -0.000002 -0.876587 -0.009049 0.017023
    44 0.444213 -2.561962 -0.277655 -0.432451 0.143605 0.180950
    45 0.021022 -1.208187 0.000001 -0.966197 0.000000 0.000000
    46 0.010597 -0.741867 -0.000002 -1.240102 0.000000 0.000000
    47 1.047446 -2.222822 -0.277655 -0.287540 0.038255 0.161483
    48 0.000000 -0.996224 -0.000001 -0.664029 0.000000 0.000000
    49 0.000000 -0.614691 0.000000 -1.344689 0.000000 0.000000
    50 -0.308256 -0.007814 0.307165 -0.987918 -0.823553 -1.831620
    51 1.978378 0.019544 0.000000 0.099985 0.407896 0.869471
    52 0.980611 0.058421 -0.012628 0.185445 -0.212474 0.577857
  time 14
    0 14.150201 -5.677616 -11.531574 0.495748 -2.174283 -0.892163
    1 -0.021283 -8.563257 -0.000750 0.377677 0.369921 -0.401968
    2 -0.350898 -2.752587 0.514683 0.536110 1.767884 0.542634
    3 0.000000 -5.680970 4.733543 1.570796 0.000000 0.000000
    4 0.000000 2.240248 4.862545 -1.570796 0.000000 0.000000
    5 0.000000 -0.030803 -0.185498 0.000000 0.000000 0.000000
    6 0.000000 -1.489114 1.895751 0.087266 0.000000 0.000000
    7 0.000000 -6.270583 1.350241 1.570796 0.000000 0.000000
    8 0.000000 5.114959 2.564909 0.000000 0.000000 0.000000
    9 0.000000 4.784919 4.090397 -1.570796 -3.141592 -0.000001
    10 -14.743998 -5.981083 -11.924803 0.697648 2.041932 1.107015
    11 0.089929 -8.543166 0.000003 0.215690 -0.386995 0.154086
    12 0.431291 -2.480750 0.566680 1.315037 -1.359682 -1.195261
    13 0.000000 -5.680965 4.733542 1.570796 0.000000 0.000000
    14 0.000001 2.240247 4.862545 -1.570796 0.000000 0.000000
    15 0.000000 -0.030803 -0.185497 0.000000 0.000000 0.000000
    16 0.000000 -1.489114 1.895751 0.087266 0.000000 0.000000
    17 0.000000 -6.270579 1.350240 1.570796 0.000000 0.000000
    18 0.000000 0.355522 -2.249654 -1.570796 -3.141592 1.570796
    19 0.000001 5.114957 2.564910 0.000000 0.000000 0.000000
    20 0.000001 4.784917 4.090397 -1.570796 -3.141592 -0.000001
    21 -0.003480 -0.404827 0.000000 -0.000001 0.000000 0.000000
    22 -0.519309 -2.501154 -0.278957 -0.055823 0.159103 -0.101314
    23 -0.010598 -1.208184 -0.000001 -1.297208 -0.173311 -0.018970
    24 -0.000001 -0.763066 0.000000 -0.764828 -0.064118 0.059360
    25 0.105982 -2.607132 -0.278958 -0.243330 -0.074707 0.002974
    26 0.000000 -1.250579 0.000001 -0.787802 0.000000 0.000000
    27 -0.000001 -0.932635 0.000001 -1.655650 0.000000 0.000000
    28 0.763065 -2.490555 -0.278958 -0.118666 0.173955 0.234657
    29 -0.012322 -1.280917 0.000000 0.163947 -0.078283 -0.101829
    30 -0.001695 -0.738091 0.129482 -1.214349 0.010997 0.011408
    31 0.354567 0.016267 0.318133 0.332140 -0.490594 -1.265606
    32 1.887164 0.012878 0.000000 0.150238 0.247728 -0.385570
    33 1.001873 -0.000270 0.000000 -0.034899 0.000000 -0.092945
    34 -1.123359 -2.195092 -0.278957 -0.208864 0.033771 -0.106283
    35 0.010771 -0.963791 0.000001 -0.580307 0.023406 0.035690
    36 -0.010412 -0.631916 0.000000 -1.043753 0.000000 0.000000
    37 0.000000 -0.359713 0.000000 0.000000 0.000000 0.000000
    38 -0.170478 -2.636148 -0.277655 -0.530743 0.075354 0.129527
    39 0.010599 -1.261177 0.000002 -1.252346 0.000000 0.000000
    40 -0.000002 -0.943233 0.000000 -1.208493 0.000000 0.000000
    41 -0.827562 -2.508972 -0.277656 0.032257 0.011706 -0.024514
    42 0.000001 -1.292972 0.000000 -0.322196 -0.048813 0.033389
    43 -0.000002 -0.752466 -0.000002 -0.876587 -0.009049 0.017023
    44 0.444213 -2.561962 -0.277655 -0.432451 0.143605 0.180950
    45 0.021022 -1.208187 0.000001 -0.966197 0.000000 0.000000
    46 0.010597 -0.741867 -0.000002 -1.240102 0.000000 0.000000
    47 1.047446 -2.222822 -0.277655 -0.287540 0.038255 0.161483
    48 0.000000 -0.996224 -0.000001 -0.664029 0.000000 0.000000
    49 0.000000 -0.614691 0.000000 -1.344689 0.000000 0.000000
    50 -0.308256 -0.007814 0.307165 -0.987918 -0.823553 -1.831620
    51 1.978378 0.019544 0.000000 0.099985 0.407896 0.869471
    52 0.980611 0.058421 -0.012628 0.185445 -0.212474 0.577857
  time 15
    0 14.150201 -5.638552 -11.566731 0.496219 -2.174609 -0.892544
    1 -0.021283 -8.563257 -0.000750 0.387849 0.365029 -0.382606
    2 -0.350898 -2.752587 0.514683 0.536110 1.767884 0.542634
    3 0.000000 -5.680970 4.733543 1.570796 0.000000 0.000000
    4 0.000000 2.240248 4.862545 -1.570796 0.000000 0.000000
    5 0.000000 -0.030803 -0.185498 0.000000 0.000000 0.000000
    6 0.000000 -1.489114 1.895751 0.087266 0.000000 0.000000
    7 0.000000 -6.270583 1.350241 1.570796 0.000000 0.000000
    8 0.000000 5.114959 2.564909 0.000000 0.000000 0.000000
    9 0.000000 4.784919 4.090397 -1.570796 -3.141592 -0.000001
    10 -14.743998 -5.981083 -11.924803 0.697648 2.041932 1.107015
    11 0.089929 -8.543166 0.000003 0.214014 -0.386002 0.155846
    12 0.431291 -2.480750 0.566680 1.315037 -1.359682 -1.195261
    13 0.000000 -5.680965 4.733542 1.570796 0.000000 0.000000
    14 0.000001 2.240247 4.862545 -1.570796 0.000000 0.000000
    15 0.000000 -0.030803 -0.185497 0.000000 0.000000 0.000000
    16 0.000000 -1.489114 1.895751 0.087266 0.000000 0.000000
    17 0.000000 -6.270579 1.350240 1.570796 0.000000 0.000000
    18 0.000000 0.355522 -2.249654 -1.570796 -3.141592 1.570796
    19 0.000001 5.114957 2.564910 0.000000 0.000000 0.000000
    20 0.000001 4.784917 4.090397 -1.570796 -3.141592 -0.000001
    21 -0.003480 -0.404827 0.000000 -0.000001 0.000000 0.000000
    22 -0.519309 -2.501154 -0.278957 -0.055823 0.159103 -0.101314
    23 -0.010598 -1.208184 -0.000001 -1.297208 -0.173311 -0.018970
    24 -0.000001 -0.763066 0.000000 -0.764828 -0.064118 0.059360
    25 0.105982 -2.607132 -0.278958 -0.243330 -0.074707 0.002974
    26 0.000000 -1.250579 0.000001 -0.787802 0.000000 0.000000
    27 -0.000001 -0.932635 0.000001 -1.655650 0.000000 0.000000
    28 0.763065 -2.490555 -0.278958 -0.118666 0.173955 0.234657
    29 -0.012322 -1.280917 0.000000 0.163947 -0.078283 -0.101829
    30 -0.001695 -0.738091 0.129482 -1.148738 0.010997 0.011408
    31 0.354567 0.016267 0.318133 0.332140 -0.490594 -1.265606
    32 1.887164 0.012878 0.000000 0.144704 0.248063 -0.388536
    33 1.001873 -0.000270 0.000000 -0.034899 0.000000 -0.092945
    34 -1.123359 -2.195092 -0.278957 -0.208864 0.033771 -0.106283
    35 0.010771 -0.963791 0.000001 -0.580307 0.023406 0.035690
    36 -0.010412 -0.631916 0.000000 -1.043753 0.000000 0.000000
    37 0.000000 -0.359713 0.000000 0.000000 0.000000 0.000000
    38 -0.170478 -2.636148 -0.277655 -0.530743 0.075354 0.129527
    39 0.010599 -1.261177 0.000002 -1.252346 0.000000 0.000000
    40 -0.000002 -0.943233 0.000000 -1.208493 0.000000 0.000000
    41 -0.827562 -2.508972 -0.277656 0.032257 0.011706 -0.024514
    42 0.000001 -1.292972 0.000000 -0.322196 -0.048813 0.033389
    43 -0.000002 -0.752466 -0.000002 -0.876587 -0.009049 0.017023
    44 0.444213 -2.561962 -0.277655 -0.432451 0.143605 0.180950
    45 0.021022 -1.208187 0.000001 -0.966197 0.000000 0.000000
    46 0.010597 -0.741867 -0.000002 -1.240102 0.000000 0.000000
    47 1.047446 -2.222822 -0.277655 -0.287540 0.038255 0.161483
    48 0.000000 -0.996224 -0.000001 -0.664029 0.000000 0.000000
    49 0.000000 -0.614691 0.000000 -1.344689 0.000000 0.000000
    50 -0.308256 -0.007814 0.307165 -0.987918 -0.823553 -1.831620
    51 1.978378 0.019544 0.000000 0.099985 0.407896 0.869471
    52 0.980611 0.058421 -0.012628 0.185445 -0.212474 0.577857
  time 16
    0 14.150201 -5.599489 -11.594076 0.496596 -2.174936 -0.892926
    1 -0.021283 -8.563257 -0.000750 0.394185 0.362031 -0.370681
    2 -0.350898 -2.752587 0.514683 0.536110 1.767884 0.542634
    3 0.000000 -5.680970 4.733543 1.570796 0.000000 0.000000
    4 0.000000 2.240248 4.862545 -1.570796 0.000000 0.000000
    5 0.000000 -0.030803 -0.185498 0.000000 0.000000 0.000000
    6 0.000000 -1.489114 1.895751 0.087266 0.000000 0.000000
    7 0.000000 -6.270583 1.350241 1.570796 0.000000 0.000000
    8 0.000000 5.114959 2.564909 0.000000 0.000000 0.000000
    9 0.000000 4.784919 4.090397 -1.570796 -3.141592 -0.000001
    10 -14.743998 -5.981083 -11.924803 0.697648 2.041932 1.107015
    11 0.089929 -8.543166 0.000003 0.211531 -0.385594 0.158288
    12 0.431291 -2.480750 0.566680 1.315037 -1.359682 -1.195261
    13 0.000000 -5.680965 4.733542 1.570796 0.000000 0.000000
    14 0.000001 2.240247 4.862545 -1.570796 0.000000 0.000000
    15 0.000000 -0.030803 -0.185497 0.000000 0.000000 0.000000
    16 0.000000 -1.489114 1.895751 0.087266 0.000000 0.000000
    17 0.000000 -6.270579 1.350240 1.570796 0.000000 0.000000
    18 0.000000 0.355522 -2.249654 -1.570796 -3.141592 1.570796
    19 0.000001 5.114957 2.564910 0.000000 0.000000 0.000000
    20 0.000001 4.784917 4.090397 -1.570796 -3.141592 -0.000001
    21 -0.003480 -0.404827 0.000000 -0.000001 0.000000 0.000000
    22 -0.519309 -2.501154 -0.278957 -0.055823 0.159103 -0.101314
    23 -0.010598 -1.208184 -0.000001 -1.297208 -0.173311 -0.018970
    24 -0.000001 -0.763066 0.000000 -0.764828 -0.064118 0.059360
    25 0.105982 -2.607132 -0.278958 -0.243330 -0.074707 0.002974
    26 0.000000 -1.250579 0.000001 -0.787802 0.000000 0.000000
    27 -0.000001 -0.932635 0.000001 -1.655650 0.000000 0.000000
    28 0.763065 -2.490555 -0.278958 -0.118666 0.173955 0.234657
    29 -0.012322 -1.280917 0.000000 0.163947 -0.078283 -0.101829
    30 -0.001695 -0.738091 0.129482 -1.151756 0.010997 0.011408
    31 0.354567 0.016267 0.318133 0.332140 -0.490594 -1.265606
    32 1.887164 0.012878 0.000000 0.139193 0.248411 -0.391471
    33 1.001873 -0.000270 0.000000 -0.034899 0.000000 -0.092945
    34 -1.123359 -2.195092 -0.278957 -0.208864 0.033771 -0.106283
    35 0.010771 -0.963791 0.000001 -0.580307 0.023406 0.035690
    36 -0.010412 -0.631916 0.000000 -1.043753 0.000000 0.000000
    37 0.000000 -0.359713 0.000000 0.000000 0.000000 0.000000
    38 -0.170478 -2.636148 -0.277655 -0.530743 0.075354 0.129527
    39 0.010599 -1.261177 0.000002 -1.252346 0.000000 0.000000
    40 -0.000002 -0.943233 0.000000 -1.208493 0.000000 0.000000
    41 -0.827562 -2.508972 -0.277656 0.032257 0.011706 -0.024514
    42 0.000001 -1.292972 0.000000 -0.322196 -0.048813 0.033389
    43 -0.000002 -0.752466 -0.000002 -0.876587 -0.009049 0.017023
    44 0.444213 -2.561962 -0.277655 -0.432451 0.143605 0.180950
    45 0.021022 -1.208187 0.000001 -0.966197 0.000000 0.000000
    46 0.010597 -0.741867 -0.000002 -1.240102 0.000000 0.000000
    47 1.047446 -2.222822 -0.277655 -0.287540 0.038255 0.161483
    48 0.000000 -0.996224 -0.000001 -0.664029 0.000000 0.000000
    49 0.000000 -0.614691 0.000000 -1.344689 0.000000 0.000000
    50 -0.308256 -0.007814 0.307165 -0.987918 -0.823553 -1.831620
    51 1.978378 0.019544 0.000000 0.099985 0.407896 0.869471
    52 0.980611 0.058421 -0.012628 0.185445 -0.212474 0.577857
  time 17
    0 14.150201 -5.568238 -11.609701 0.496973 -2.175180 -0.893212
    1 -0.021283 -8.563257 -0.000750 0.396944 0.360737 -0.365414
    2 -0.350898 -2.752587 0.514683 0.536110 1.767884 0.542634
    3 0.000000 -5.680970 4.733543 1.570796 0.000000 0.000000
    4 0.000000 2.240248 4.862545 -1.570796 0.000000 0.000000
    5 0.000000 -0.030803 -0.185498 0.000000 0.000000 0.000000
    6 0.000000 -1.489114 1.895751 0.087266 0.000000 0.000000
    7 0.000000 -6.270583 1.350241 1.570796 0.000000 0.000000
    8 0.000000 5.114959 2.564909 0.000000 0.000000 0.000000
    9 0.000000 4.784919 4.090397 -1.570796 -3.141592 -0.000001
    10 -14.743998 -5.981083 -11.924803 0.697648 2.041932 1.107015
    11 0.089929 -8.543166 0.000003 0.208534 -0.385620 0.161176
    12 0.431291 -2.480750 0.566680 1.315037 -1.359682 -1.195261
    13 0.000000 -5.680965 4.733542 1.570796 0.000000 0.000000
    14 0.000001 2.240247 4.862545 -1.570796 0.000000 0.000000
    15 0.000000 -0.030803 -0.185497 0.000000 0.000000 0.000000
    16 0.000000 -1.489114 1.895751 0.087266 0.000000 0.000000
    17 0.000000 -6.270579 1.350240 1.570796 0.000000 0.000000
    18 0.000000 0.355522 -2.249654 -1.570796 -3.141592 1.570796
    19 0.000001 5.114957 2.564910 0.000000 0.000000 0.000000
    20 0.000001 4.784917 4.090397 -1.570796 -3.141592 -0.000001
    21 -0.003480 -0.404827 0.000000 -0.000001 0.000000 0.000000
    22 -0.519309 -2.501154 -0.278957 -0.055823 0.159103 -0.101314
    23 -0.010598 -1.208184 -0.000001 -1.297208 -0.173311 -0.018970
    24 -0.000001 -0.763066 0.000000 -0.764828 -0.064118 0.059360
    25 0.105982 -2.607132 -0.278958 -0.243330 -0.074707 0.002974
    26 0.000000 -1.250579 0.000001 -0.787802 0.000000 0.000000
    27 -0.000001 -0.932635 0.000001 -1.655650 0.000000 0.000000
    28 0.763065 -2.490555 -0.278958 -0.118666 0.173955 0.234657
    29 -0.012322 -1.280917 0.000000 0.163947 -0.078283 -0.101829
    30 -0.001695 -0.738091 0.129482 -1.159702 0.010997 0.011408
    31 0.354567 0.016267 0.318133 0.332140 -0.490594 -1.265606
    32 1.887164 0.012878 0.000000 0.133842 0.248734 -0.394317
    33 1.001873 -0.000270 0.000000 -0.034899 0.000000 -0.092945
    34 -1.123359 -2.195092 -0.278957 -0.208864 0.033771 -0.106283
    35 0.010771 -0.963791 0.000001 -0.580307 0.023406 0.035690
    36 -0.010412 -0.631916 0.000000 -1.043753 0.000000 0.000000
    37 0.000000 -0.359713 0.000000 0.000000 0.000000 0.000000
    38 -0.170478 -2.636148 -0.277655 -0.530743 0.075354 0.129527
    39 0.010599 -1.261177 0.000002 -1.252346 0.000000 0.000000
    40 -0.000002 -0.943233 0.000000 -1.208493 0.000000 0.000000
    41 -0.827562 -2.508972 -0.277656 0.032257 0.011706 -0.024514
    42 0.000001 -1.292972 0.000000 -0.322196 -0.048813 0.033389
    43 -0.000002 -0.752466 -0.000002 -0.876587 -0.009049 0.017023
    44 0.444213 -2.561962 -0.277655 -0.432451 0.143605 0.180950
    45 0.021022 -1.208187 0.000001 -0.966197 0.000000 0.000000
    46 0.010597 -0.741867 -0.000002 -1.240102 0.000000 0.000000
    47 1.047446 -2.222822 -0.277655 -0.287540 0.038255 0.161483
    48 0.000000 -0.996224 -0.000001 -0.664029 0.000000 0.000000
    49 0.000000 -0.614691 0.000000 -1.344689 0.000000 0.000000
    50 -0.308256 -0.007814 0.307165 -0.987918 -0.823553 -1.831620
    51 1.978378 0.019544 0.000000 0.099985 0.407896 0.869471
    52 0.980611 0.058421 -0.012628 0.185445 -0.212474 0.577857
  time 18
    0 14.150201 -5.548706 -11.605795 0.497067 -2.175262 -0.893307
    1 -0.021283 -8.563257 -0.000750 0.398237 0.360184 -0.363011
    2 -0.350898 -2.752587 0.514683 0.536110 1.767884 0.542634
    3 0.000000 -5.680970 4.733543 1.570796 0.000000 0.000000
    4 0.000000 2.240248 4.862545 -1.570796 0.000000 0.000000
    5 0.000000 -0.030803 -0.185498 0.000000 0.000000 0.000000
    6 0.000000 -1.489114 1.895751 0.087266 0.000000 0.000000
    7 0.000000 -6.270583 1.350241 1.570796 0.000000 0.000000
    8 0.000000 5.114959 2.564909 0.000000 0.000000 0.000000
    9 0.000000 4.784919 4.090397 -1.570796 -3.141592 -0.000001
    10 -14.743998 -5.981083 -11.924803 0.697648 2.041932 1.107015
    11 0.089929 -8.543166 0.000003 0.205246 -0.385951 0.164275
    12 0.431291 -2.480750 0.566680 1.315037 -1.359682 -1.195261
    13 0.000000 -5.680965 4.733542 1.570796 0.000000 0.000000
    14 0.000001 2.240247 4.862545 -1.570796 0.000000 0.000000
    15 0.000000 -0.030803 -0.185497 0.000000 0.000000 0.000000
    16 0.000000 -1.489114 1.895751 0.087266 0.000000 0.000000
    17 0.000000 -6.270579 1.350240 1.570796 0.000000 0.000000
    18 0.000000 0.355522 -2.249654 -1.570796 -3.141592 1.570796
    19 0.000001 5.114957 2.564910 0.000000 0.000000 0.000000
    20 0.000001 4.784917 4.090397 -1.570796 -3.141592 -0.000001
    21 -0.003480 -0.404827 0.000000 -0.000001 0.000000 0.000000
    22 -0.519309 -2.501154 -0.278957 -0.055823 0.159103 -0.101314
    23 -0.010598 -1.208184 -0.000001 -1.297208 -0.173311 -0.018970
    24 -0.000001 -0.763066 0.000000 -0.764828 -0.064118 0.059360
    25 0.105982 -2.607132 -0.278958 -0.243330 -0.074707 0.002974
    26 0.000000 -1.250579 0.000001 -0.787802 0.000000 0.000000
    27 -0.000001 -0.932635 0.000001 -1.655650 0.000000 0.000000
    28 0.763065 -2.490555 -0.278958 -0.118666 0.173955 0.234657
    29 -0.012322 -1.280917 0.000000 0.163947 -0.078283 -0.101829
    30 -0.001695 -0.738091 0.129482 -1.170934 0.010997 0.011408
    31 0.354567 0.016267 0.318133 0.332140 -0.490594 -1.265606
    32 1.887164 0.012878 0.000000 0.128832 0.249046 -0.397013
    33 1.001873 -0.000270 0.000000 -0.034899 0.000000 -0.092945
    34 -1.123359 -2.195092 -0.278957 -0.208864 0.033771 -0.106283
    35 0.010771 -0.963791 0.000001 -0.580307 0.023406 0.035690
    36 -0.010412 -0.631916 0.000000 -1.043753 0.000000 0.000000
    37 0.000000 -0.359713 0.000000 0.000000 0.000000 0.000000
    38 -0.170478 -2.636148 -0.277655 -0.530743 0.075354 0.129527
    39 0.010599 -1.261177 0.000002 -1.252346 0.000000 0.000000
    40 -0.000002 -0.943233 0.000000 -1.208493 0.000000 0.000000
    41 -0.827562 -2.508972 -0.277656 0.032257 0.011706 -0.024514
    42 0.000001 -1.292972 0.000000 -0.322196 -0.048813 0.033389
    43 -0.000002 -0.752466 -0.000002 -0.876587 -0.009049 0.017023
    44 0.444213 -2.561962 -0.277655 -0.432451 0.143605 0.180950
    45 0.021022 -1.208187 0.000001 -0.966197 0.000000 0.000000
    46 0.010597 -0.741867 -0.000002 -1.240102 0.000000 0.000000
    47 1.047446 -2.222822 -0.277655 -0.287540 0.038255 0.161483
    48 0.000000 -0.996224 -0.000001 -0.664029 0.000000 0.000000
    49 0.000000 -0.614691 0.000000 -1.344689 0.000000 0.000000
    50 -0.308256 -0.007814 0.307165 -0.987918 -0.823553 -1.831620
    51 1.978378 0.019544 0.000000 0.099985 0.407896 0.869471
    52 0.980611 0.058421 -0.012628 0.185445 -0.212474 0.577857
  time 19
    0 14.150201 -5.544800 -11.586263 0.497067 -2.175262 -0.893307
    1 -0.021283 -8.563257 -0.000750 0.398021 0.360342 -0.363445
    2 -0.350898 -2.752587 0.514683 0.536110 1.767884 0.542634
    3 0.000000 -5.680970 4.733543 1.570796 0.000000 0.000000
    4 0.000000 2.240248 4.862545 -1.570796 0.000000 0.000000
    5 0.000000 -0.030803 -0.185498 0.000000 0.000000 0.000000
    6 0.000000 -1.489114 1.895751 0.087266 0.000000 0.000000
    7 0.000000 -6.270583 1.350241 1.570796 0.000000 0.000000
    8 0.000000 5.114959 2.564909 0.000000 0.000000 0.000000
    9 0.000000 4.784919 4.090397 -1.570796 -3.141592 -0.000001
    10 -14.743998 -5.981083 -11.924803 0.697648 2.041932 1.107015
    11 0.089929 -8.543166 0.000003 0.201990 -0.386486 0.167375
    12 0.431291 -2.480750 0.566680 1.315037 -1.359682 -1.195261
    13 0.000000 -5.680965 4.733542 1.570796 0.000000 0.000000
    14 0.000001 2.240247 4.862545 -1.570796 0.000000 0.000000
    15 0.000000 -0.030803 -0.185497 0.000000 0.000000 0.000000
    16 0.000000 -1.489114 1.895751 0.087266 0.000000 0.000000
    17 0.000000 -6.270579 1.350240 1.570796 0.000000 0.000000
    18 0.000000 0.355522 -2.249654 -1.570796 -3.141592 1.570796
    19 0.000001 5.114957 2.564910 0.000000 0.000000 0.000000
    20 0.000001 4.784917 4.090397 -1.570796 -3.141592 -0.000001
    21 -0.003480 -0.404827 0.000000 -0.000001 0.000000 0.000000
    22 -0.519309 -2.501154 -0.278957 -0.055823 0.159103 -0.101314
    23 -0.010598 -1.208184 -0.000001 -1.297208 -0.173311 -0.018970
    24 -0.000001 -0.763066 0.000000 -0.764828 -0.064118 0.059360
    25 0.105982 -2.607132 -0.278958 -0.243330 -0.074707 0.002974
    26 0.000000 -1.250579 0.000001 -0.787802 0.000000 0.000000
    27 -0.000001 -0.932635 0.000001 -1.655650 0.000000 0.000000
    28 0.763065 -2.490555 -0.278958 -0.118666 0.173955 0.234657
    29 -0.012322 -1.280917 0.000000 0.163947 -0.078283 -0.101829
    30 -0.001695 -0.738091 0.129482 -1.183807 0.010997 0.011408
    31 0.354567 0.016267 0.318133 0.332140 -0.490594 -1.265606
    32 1.887164 0.012878 0.000000 0.124346 0.249322 -0.399379
    33 1.001873 -0.000270 0.000000 -0.034899 0.000000 -0.092945
    34 -1.123359 -2.195092 -0.278957 -0.208864 0.033771 -0.106283
    35 0.010771 -0.963791 0.000001 -0.580307 0.023406 0.035690
    36 -0.010412 -0.631916 0.000000 -1.043753 0.000000 0.000000
    37 0.000000 -0.359713 0.000000 0.000000 0.000000 0.000000
    38 -0.170478 -2.636148 -0.277655 -0.530743 0.075354 0.129527
    39 0.010599 -1.261177 0.000002 -1.252346 0.000000 0.000000
    40 -0.000002 -0.943233 0.000000 -1.208493 0.000000 0.000000
    41 -0.827562 -2.508972 -0.277656 0.032257 0.011706 -0.024514
    42 0.000001 -1.292972 0.000000 -0.322196 -0.048813 0.033389
    43 -0.000002 -0.752466 -0.000002 -0.876587 -0.009049 0.017023
    44 0.444213 -2.561962 -0.277655 -0.432451 0.143605 0.180950
    45 0.021022 -1.208187 0.000001 -0.966197 0.000000 0.000000
    46 0.010597 -0.741867 -0.000002 -1.240102 0.000000 0.000000
    47 1.047446 -2.222822 -0.277655 -0.287540 0.038255 0.161483
    48 0.000000 -0.996224 -0.000001 -0.664029 0.000000 0.000000
    49 0.000000 -0.614691 0.000000 -1.344689 0.000000 0.000000
    50 -0.308256 -0.007814 0.307165 -0.987918 -0.823553 -1.831620
    51 1.978378 0.019544 0.000000 0.099985 0.407896 0.869471
    52 0.980611 0.058421 -0.012628 0.185445 -0.212474 0.577857
  time 20
    0 14.150201 -5.533080 -11.562825 0.497067 -2.175262 -0.893307
    1 -0.021283 -8.563257 -0.000750 0.396340 0.361226 -0.366687
    2 -0.350898 -2.752587 0.514683 0.536110 1.767884 0.542634
    3 0.000000 -5.680970 4.733543 1.570796 0.000000 0.000000
    4 0.000000 2.240248 4.862545 -1.570796 0.000000 0.000000
    5 0.000000 -0.030803 -0.185498 0.000000 0.000000 0.000000
    6 0.000000 -1.489114 1.895751 0.087266 0.000000 0.000000
    7 0.000000 -6.270583 1.350241 1.570796 0.000000 0.000000
    8 0.000000 5.114959 2.564909 0.000000 0.000000 0.000000
    9 0.000000 4.784919 4.090397 -1.570796 -3.141592 -0.000001
    10 -14.743998 -5.981083 -11.924803 0.697648 2.041932 1.107015
    11 0.089929 -8.543166 0.000003 0.198960 -0.387097 0.170169
    12 0.431291 -2.480750 0.566680 1.315037 -1.359682 -1.195261
    13 0.000000 -5.680965 4.733542 1.570796 0.000000 0.000000
    14 0.000001 2.240247 4.862545 -1.570796 0.000000 0.000000
    15 0.000000 -0.030803 -0.185497 0.000000 0.000000 0.000000
    16 0.000000 -1.489114 1.895751 0.087266 0.000000 0.000000
    17 0.000000 -6.270579 1.350240 1.570796 0.000000 0.000000
    18 0.000000 0.355522 -2.249654 -1.570796 -3.141592 1.570796
    19 0.000001 5.114957 2.564910 0.000000 0.000000 0.000000
    20 0.000001 4.784917 4.090397 -1.570796 -3.141592 -0.000001
    21 -0.003480 -0.404827 0.000000 -0.000001 0.000000 0.000000
    22 -0.519309 -2.501154 -0.278957 -0.055823 0.159103 -0.101314
    23 -0.010598 -1.208184 -0.000001 -1.297208 -0.173311 -0.018970
    24 -0.000001 -0.763066 0.000000 -0.764828 -0.064118 0.059360
    25 0.105982 -2.607132 -0.278958 -0.243330 -0.074707 0.002974
    26 0.000000 -1.250579 0.000001 -0.787802 0.000000 0.000000
    27 -0.000001 -0.932635 0.000001 -1.655650 0.000000 0.000000
    28 0.763065 -2.490555 -0.278958 -0.118666 0.173955 0.234657
    29 -0.012322 -1.280917 0.000000 0.163947 -0.078283 -0.101829
    30 -0.001695 -0.738091 0.129482 -1.196681 0.010997 0.011408
    31 0.354567 0.016267 0.318133 0.332140 -0.490594 -1.265606
    32 1.887164 0.012878 0.000000 0.120566 0.249561 -0.401416
    33 1.001873 -0.000270 0.000000 -0.034899 0.000000 -0.092945
    34 -1.123359 -2.195092 -0.278957 -0.208864 0.033771 -0.106283
    35 0.010771 -0.963791 0.000001 -0.580307 0.023406 0.035690
    36 -0.010412 -0.631916 0.000000 -1.043753 0.000000 0.000000
    37 0.000000 -0.359713 0.000000 0.000000 0.000000 0.000000
    38 -0.170478 -2.636148 -0.277655 -0.530743 0.075354 0.129527
    39 0.010599 -1.261177 0.000002 -1.252346 0.000000 0.000000
    40 -0.000002 -0.943233 0.000000 -1.208493 0.000000 0.000000
    41 -0.827562 -2.508972 -0.277656 0.032257 0.011706 -0.024514
    42 0.000001 -1.292972 0.000000 -0.322196 -0.048813 0.033389
    43 -0.000002 -0.752466 -0.000002 -0.876587 -0.009049 0.017023
    44 0.444213 -2.561962 -0.277655 -0.432451 0.143605 0.180950
    45 0.021022 -1.208187 0.000001 -0.966197 0.000000 0.000000
    46 0.010597 -0.741867 -0.000002 -1.240102 0.000000 0.000000
    47 1.047446 -2.222822 -0.277655 -0.287540 0.038255 0.161483
    48 0.000000 -0.996224 -0.000001 -0.664029 0.000000 0.000000
    49 0.000000 -0.614691 0.000000 -1.344689 0.000000 0.000000
    50 -0.308256 -0.007814 0.307165 -0.987918 -0.823553 -1.831620
    51 1.978378 0.019544 0.000000 0.099985 0.407896 0.869471
    52 0.980611 0.058421 -0.012628 0.185445 -0.212474 0.577857
  time 21
    0 14.150201 -5.521361 -11.527668 0.497067 -2.175262 -0.893307
    1 -0.021283 -8.563257 -0.000750 0.393151 0.362835 -0.372823
    2 -0.350898 -2.752587 0.514683 0.536110 1.767884 0.542634
    3 0.000000 -5.680970 4.733543 1.570796 0.000000 0.000000
    4 0.000000 2.240248 4.862545 -1.570796 0.000000 0.000000
    5 0.000000 -0.030803 -0.185498 0.000000 0.000000 0.000000
    6 0.000000 -1.489114 1.895751 0.087266 0.000000 0.000000
    7 0.000000 -6.270583 1.350241 1.570796 0.000000 0.000000
    8 0.000000 5.114959 2.564909 0.000000 0.000000 0.000000
    9 0.000000 4.784919 4.090397 -1.570796 -3.141592 -0.000001
    10 -14.743998 -5.981083 -11.924803 0.697648 2.041932 1.107015
    11 0.089929 -8.543166 0.000003 0.196478 -0.387682 0.172470
    12 0.431291 -2.480750 0.566680 1.315037 -1.359682 -1.195261
    13 0.000000 -5.680965 4.733542 1.570796 0.000000 0.000000
    14 0.000001 2.240247 4.862545 -1.570796 0.000000 0.000000
    15 0.000000 -0.030803 -0.185497 0.000000 0.000000 0.000000
    16 0.000000 -1.489114 1.895751 0.087266 0.000000 0.000000
    17 0.000000 -6.270579 1.350240 1.570796 0.000000 0.000000
    18 0.000000 0.355522 -2.249654 -1.570796 -3.141592 1.570796
    19 0.000001 5.114957 2.564910 0.000000 0.000000 0.000000
    20 0.000001 4.784917 4.090397 -1.570796 -3.141592 -0.000001
    21 -0.003480 -0.404827 0.000000 -0.000001 0.000000 0.000000
    22 -0.519309 -2.501154 -0.278957 -0.055823 0.159103 -0.101314
    23 -0.010598 -1.208184 -0.000001 -1.297208 -0.173311 -0.018970
    24 -0.000001 -0.763066 0.000000 -0.764828 -0.064118 0.059360
    25 0.105982 -2.607132 -0.278958 -0.243330 -0.074707 0.002974
    26 0.000000 -1.250579 0.000001 -0.787802 0.000000 0.000000
    27 -0.000001 -0.932635 0.000001 -1.655650 0.000000 0.000000
    28 0.763065 -2.490555 -0.278958 -0.118666 0.173955 0.234657
    29 -0.012322 -1.280917 0.000000 0.163947 -0.078283 -0.101829
    30 -0.001695 -0.738091 0.129482 -1.207957 0.010997 0.011408
    31 0.354567 0.016267 0.318133 0.332140 -0.490594 -1.265606
    32 1.887164 0.012878 0.000000 0.117651 0.249741 -0.402974
    33 1.001873 -0.000270 0.000000 -0.034899 0.000000 -0.092945
    34 -1.123359 -2.195092 -0.278957 -0.208864 0.033771 -0.106283
    35 0.010771 -0.963791 0.000001 -0.580307 0.023406 0.035690
    36 -0.010412 -0.631916 0.000000 -1.043753 0.000000 0.000000
    37 0.000000 -0.359713 0.000000 0.000000 0.000000 0.000000
    38 -0.170478 -2.636148 -0.277655 -0.530743 0.075354 0.129527
    39 0.010599 -1.261177 0.000002 -1.252346 0.000000 0.000000
    40 -0.000002 -0.943233 0.000000 -1.208493 0.000000 0.000000
    41 -0.827562 -2.508972 -0.277656 0.032257 0.011706 -0.024514
    42 0.000001 -1.292972 0.000000 -0.322196 -0.048813 0.033389
    43 -0.000002 -0.752466 -0.000002 -0.876587 -0.009049 0.017023
    44 0.444213 -2.561962 -0.277655 -0.432451 0.143605 0.180950
    45 0.021022 -1.208187 0.000001 -0.966197 0.000000 0.000000
    46 0.010597 -0.741867 -0.000002 -1.240102 0.000000 0.000000
    47 1.047446 -2.222822 -0.277655 -0.287540 0.038255 0.161483
    48 0.000000 -0.996224 -0.000001 -0.664029 0.000000 0.000000
    49 0.000000 -0.614691 0.000000 -1.344689 0.000000 0.000000
    50 -0.308256 -0.007814 0.307165 -0.987918 -0.823553 -1.831620
    51 1.978378 0.019544 0.000000 0.099985 0.407896 0.869471
    52 0.980611 0.058421 -0.012628 0.185445 -0.212474 0.577857
  time 22
    0 14.150201 -5.505736 -11.488604 0.497067 -2.175262 -0.893307
    1 -0.021283 -8.563257 -0.000750 0.388410 0.365171 -0.381766
    2 -0.350898 -2.752587 0.514683 0.536110 1.767884 0.542634
    3 0.000000 -5.680970 4.733543 1.570796 0.000000 0.000000
    4 0.000000 2.240248 4.862545 -1.570796 0.000000 0.000000
    5 0.000000 -0.030803 -0.185498 0.000000 0.000000 0.000000
    6 0.000000 -1.489114 1.895751 0.087266 0.000000 0.000000
    7 0.000000 -6.270583 1.350241 1.570796 0.000000 0.000000
    8 0.000000 5.114959 2.564909 0.000000 0.000000 0.000000
    9 0.000000 4.784919 4.090397 -1.570796 -3.141592 -0.000001
    10 -14.743998 -5.981083 -11.924803 0.697648 2.041932 1.107015
    11 0.089929 -8.543166 0.000003 0.194769 -0.388115 0.174043
    12 0.431291 -2.480750 0.566680 1.315037 -1.359682 -1.195261
    13 0.000000 -5.680965 4.733542 1.570796 0.000000 0.000000
    14 0.000001 2.240247 4.862545 -1.570796 0.000000 0.000000
    15 0.000000 -0.030803 -0.185497 0.000000 0.000000 0.000000
    16 0.000000 -1.489114 1.895751 0.087266 0.000000 0.000000
    17 0.000000 -6.270579 1.350240 1.570796 0.000000 0.000000
    18 0.000000 0.355522 -2.249654 -1.570796 -3.141592 1.570796
    19 0.000001 5.114957 2.564910 0.000000 0.000000 0.000000
    20 0.000001 4.784917 4.090397 -1.570796 -3.141592 -0.000001
    21 -0.003480 -0.404827 0.000000 -0.000001 0.000000 0.000000
    22 -0.519309 -2.501154 -0.278957 -0.055823 0.159103 -0.101314
    23 -0.010598 -1.208184 -0.000001 -1.297208 -0.173311 -0.018970
    24 -0.000001 -0.763066 0.000000 -0.764828 -0.064118 0.059360
    25 0.105982 -2.607132 -0.278958 -0.243330 -0.074707 0.002974
    26 0.000000 -1.250579 0.000001 -0.787802 0.000000 0.000000
    27 -0.000001 -0.932635 0.000001 -1.655650 0.000000 0.000000
    28 0.763065 -2.490555 -0.278958 -0.118666 0.173955 0.234657
    29 -0.012322 -1.280917 0.000000 0.163947 -0.078283 -0.101829
    30 -0.001695 -0.738091 0.129482 -1.215903 0.010997 0.011408
    31 0.354567 0.016267 0.318133 0.332140 -0.490594 -1.265606
    32 1.887164 0.012878 0.000000 0.115761 0.249861 -0.403963
    33 1.001873 -0.000270 0.000000 -0.034899 0.000000 -0.092945
    34 -1.123359 -2.195092 -0.278957 -0.208864 0.033771 -0.106283
    35 0.010771 -0.963791 0.000001 -0.580307 0.023406 0.035690
    36 -0.010412 -0.631916 0.000000 -1.043753 0.000000 0.000000
    37 0.000000 -0.359713 0.000000 0.000000 0.000000 0.000000
    38 -0.170478 -2.636148 -0.277655 -0.530743 0.075354 0.129527
    39 0.010599 -1.261177 0.000002 -1.252346 0.000000 0.000000
    40 -0.000002 -0.943233 0.000000 -1.208493 0.000000 0.000000
    41 -0.827562 -2.508972 -0.277656 0.032257 0.011706 -0.024514
    42 0.000001 -1.292972 0.000000 -0.322196 -0.048813 0.033389
    43 -0.000002 -0.752466 -0.000002 -0.876587 -0.009049 0.017023
    44 0.444213 -2.561962 -0.277655 -0.432451 0.143605 0.180950
    45 0.021022 -1.208187 0.000001 -0.966197 0.000000 0.000000
    46 0.010597 -0.741867 -0.000002 -1.240102 0.000000 0.000000
    47 1.047446 -2.222822 -0.277655 -0.287540 0.038255 0.161483
    48 0.000000 -0.996224 -0.000001 -0.664029 0.000000 0.000000
    49 0.000000 -0.614691 0.000000 -1.344689 0.000000 0.000000
    50 -0.308256 -0.007814 0.307165 -0.987918 -0.823553 -1.831620
    51 1.978378 0.019544 0.000000 0.099985 0.407896 0.869471
    52 0.980611 0.058421 -0.012628 0.185445 -0.212474 0.577857
  time 23
    0 14.150201 -5.486204 -11.441727 0.497067 -2.175262 -0.893307
    1 -0.021283 -8.563257 -0.000750 0.382246 0.368217 -0.393546
    2 -0.350898 -2.752587 0.514683 0.536110 1.767884 0.542634
    3 0.000000 -5.680970 4.733543 1.570796 0.000000 0.000000
    4 0.000000 2.240248 4.862545 -1.570796 0.000000 0.000000
    5 0.000000 -0.030803 -0.185498 0.000000 0.000000 0.000000
    6 0.000000 -1.489114 1.895751 0.087266 0.000000 0.000000
    7 0.000000 -6.270583 1.350241 1.570796 0.000000 0.000000
    8 0.000000 5.114959 2.564909 0.000000 0.000000 0.000000
    9 0.000000 4.784919 4.090397 -1.570796 -3.141592 -0.000001
    10 -14.743998 -5.981083 -11.924803 0.697648 2.041932 1.107015
    11 0.089929 -8.543166 0.000003 0.194157 -0.388293 0.174606
    12 0.431291 -2.480750 0.566680 1.315037 -1.359682 -1.195261
    13 0.000000 -5.680965 4.733542 1.570796 0.000000 0.000000
    14 0.000001 2.240247 4.862545 -1.570796 0.000000 0.000000
    15 0.000000 -0.030803 -0.185497 0.000000 0.000000 0.000000
    16 0.000000 -1.489114 1.895751 0.087266 0.000000 0.000000
    17 0.000000 -6.270579 1.350240 1.570796 0.000000 0.000000
    18 0.000000 0.355522 -2.249654 -1.570796 -3.141592 1.570796
    19 0.000001 5.114957 2.564910 0.000000 0.000000 0.000000
    20 0.000001 4.784917 4.090397 -1.570796 -3.141592 -0.000001
    21 -0.003480 -0.404827 0.000000 -0.000001 0.000000 0.000000
    22 -0.519309 -2.501154 -0.278957 -0.055823 0.159103 -0.101314
    23 -0.010598 -1.208184 -0.000001 -1.297208 -0.173311 -0.018970
    24 -0.000001 -0.763066 0.000000 -0.764828 -0.064118 0.059360
    25 0.105982 -2.607132 -0.278958 -0.243330 -0.074707 0.002974
    26 0.000000 -1.250579 0.000001 -0.787802 0.000000 0.000000
    27 -0.000001 -0.932635 0.000001 -1.655650 0.000000 0.000000
    28 0.763065 -2.490555 -0.278958 -0.118666 0.173955 0.234657
    29 -0.012322 -1.280917 0.000000 0.163947 -0.078283 -0.101829
    30 -0.001695 -0.738091 0.129482 -1.218877 0.010997 0.011408
    31 0.354567 0.016267 0.318133 0.332140 -0.490594 -1.265606
    32 1.887164 0.012878 0.000000 0.115100 0.249897 -0.404322
    33 1.001873 -0.000270 0.000000 -0.034899 0.000000 -0.092945
    34 -1.123359 -2.195092 -0.278957 -0.208864 0.033771 -0.106283
    35 0.010771 -0.963791 0.000001 -0.580307 0.023406 0.035690
    36 -0.010412 -0.631916 0.000000 -1.043753 0.000000 0.000000
    37 0.000000 -0.359713 0.000000 0.000000 0.000000 0.000000
    38 -0.170478 -2.636148 -0.277655 -0.530743 0.075354 0.129527
    39 0.010599 -1.261177 0.000002 -1.252346 0.000000 0.000000
    40 -0.000002 -0.943233 0.000000 -1.208493 0.000000 0.000000
    41 -0.827562 -2.508972 -0.277656 0.032257 0.011706 -0.024514
    42 0.000001 -1.292972 0.000000 -0.322196 -0.048813 0.033389
    43 -0.000002 -0.752466 -0.000002 -0.876587 -0.009049 0.017023
    44 0.444213 -2.561962 -0.277655 -0.432451 0.143605 0.180950
    45 0.021022 -1.208187 0.000001 -0.966197 0.000000 0.000000
    46 0.010597 -0.741867 -0.000002 -1.240102 0.000000 0.000000
    47 1.047446 -2.222822 -0.277655 -0.287540 0.038255 0.161483
    48 0.000000 -0.996224 -0.000001 -0.664029 0.000000 0.000000
    49 0.000000 -0.614691 0.000000 -1.344689 0.000000 0.000000
    50 -0.308256 -0.007814 0.307165 -0.987918 -0.823553 -1.831620
    51 1.978378 0.019544 0.000000 0.099985 0.407896 0.869471
    52 0.980611 0.058421 -0.012628 0.185445 -0.212474 0.577857
end
