// Created by Crowbar 0.49.0.0

$modelname "weapons/tfa_cso/c_l85a2.mdl"

$Include "csonline_gmod.qci"

$bodygroup "studio"
{
	studio "v_l85a2_NEXON_CSO_L85A2_REF"
}

$CDMaterials "models\weapons\tfa_cso\l85a2"

$attachment 0 "Bone_SA80" 1.945 -13.931 0.002
//$attachment 1 "Bone_SA80" 2.333 4.641 0.294

$definebone "Bone01" "" -1.712981 14.638293 -7.176344 -81.599677 -114.225667 -71.237276 0.000000 0.000000 0.000000 -0.000000 -0.000001 -0.000000
$definebone "Bone_Lefthand" "Bone01" -0.071917 -8.498731 -0.104136 -26.605124 -21.056488 21.808606 0.000000 0.000000 0.000000 0.000002 -0.000000 -0.000003
$definebone "Bone_SA80" "Bone_Lefthand" 53.426952 34.322777 -26.416901 26.718399 4.101403 168.215595 0.000000 0.000000 0.000000 -0.000000 0.000002 -0.000003
$definebone "Bone_Cover" "Bone_SA80" 1.993587 6.767204 0.465244 -0.000036 -180.000007 -180.000007 0.000000 0.000000 0.000000 -0.000000 -0.000002 0.000003
$definebone "Bone_Magazine" "Bone_SA80" -0.970718 4.474501 -0.006065 -89.999983 -0.000002 0.000000 0.000000 0.000000 0.000000 0.000000 -0.000003 -0.000002
$definebone "Bone_Trigger" "Bone_SA80" 0.809258 -1.531572 0.002293 -0.000000 0.000002 -0.000003 0.000004 0.000000 0.000000 -0.000000 0.000002 -0.000003
$definebone "Bone_Bullet" "Bone_SA80" 2.158779 4.640841 0.663901 -89.999983 -0.000002 0.000000 0.000000 0.000000 0.000000 0.000000 -0.000003 -0.000002
$definebone "Bone_Norishe" "Bone_SA80" 2.319733 3.732436 0.663902 -0.000000 0.000002 -0.000003 0.000000 0.000000 0.000000 -0.000000 0.000002 -0.000003

$sequence "idle" {
	"v_l85a2_anims\idle"
	fps 30
	loop
	activity "ACT_VM_IDLE" 1
	snap
}
$sequence "reload" {
	"v_l85a2_anims\reload"
	{ event 5004 11 "L85A2.ClipOut" }
	{ event 5004 49 "L85A2.ClipIn" }
	{ event 5004 74 "L85A2.ClipLock" }
	fps 30
	activity "ACT_VM_RELOAD" 1
	snap
}
$sequence "draw" {
	"v_l85a2_anims\draw"
	{ event 5004 10 "L85A2.Draw" }
	fps 35
	activity "ACT_VM_DRAW" 1
	snap
}
$sequence "shoot1" {
	"v_l85a2_anims\shoot1"
	{ event 5001 0 "22" }
	fps 35
	activity "ACT_VM_PRIMARYATTACK" 1
	snap
}
$sequence "shoot2" {
	"v_l85a2_anims\shoot2"
	{ event 5001 0 "22" }
	fps 35
	activity "ACT_VM_PRIMARYATTACK" 2
	snap
}
$sequence "shoot3" {
	"v_l85a2_anims\shoot3"
	{ event 5001 0 "22" }
	fps 35
	activity "ACT_VM_PRIMARYATTACK" 3
	snap
}
