version 1
nodes
  0 "uzi_root_l" -1
  1 "triger01" 0
  2 "reloader01" 0
  3 "megazine01" 0
  4 "Hb01" 0
  5 "bone02" 0
  6 "bone03" 0
  7 "bone05" 0
  8 "uzi_root_r" -1
  9 "triger" 8
  10 "reloader" 8
  11 "Hb" 8
  12 "megazine" 8
  13 "bone01" 8
  14 "bone04" 8
  15 "bone06" 8
  16 "root" -1
  17 "Bone01" 16
  18 "Bone_L_Upper" 17
  19 "Bone_Lefthand" 17
  20 "Bone13" 19
  21 "Bone14" 20
  22 "Bone15" 21
  23 "Bone17" 19
  24 "Bone18" 23
  25 "Bone19" 24
  26 "Bone21" 19
  27 "Bone22" 26
  28 "Bone23" 27
  29 "Bone09" 19
  30 "Bone10" 29
  31 "Bone11" 30
  32 "Bone05" 19
  33 "Bone06" 32
  34 "Bone07" 33
  35 "Bone_Se_Hand-L" 19
  36 "Bone04" 16
  37 "Bone_Righthand" 36
  38 "Bone39" 37
  39 "Bone40" 38
  40 "Bone41" 39
  41 "Bone35" 37
  42 "Bone36" 41
  43 "Bone37" 42
  44 "Bone31" 37
  45 "Bone32" 44
  46 "Bone33" 45
  47 "Bone43" 37
  48 "Bone44" 47
  49 "Bone45" 48
  50 "Bone27" 37
  51 "Bone28" 50
  52 "Bone29" 51
  53 "Bone_Se_Hand-R" 37
  54 "Bone_R_Upper" 36
end
skeleton
  time 0
    0 -5.193768 -7.112443 -4.401963 -0.085238 -0.061039 -1.574653
    1 2.999629 0.000000 1.353195 0.000000 0.000000 1.570798
    2 3.594184 0.000000 3.113281 0.000000 0.000000 1.570798
    3 1.661240 -0.000001 1.206648 0.000000 0.000000 1.570798
    4 -1.922007 -0.370809 2.041211 0.000000 0.000000 3.141589
    5 6.542123 0.000005 2.151215 1.570796 0.000000 0.000001
    6 -38.455750 -0.000043 2.151239 1.570796 0.000000 0.000001
    7 -38.280617 -0.000043 2.151239 1.570796 0.000000 0.000001
    8 5.262139 -6.426051 -6.479496 0.209529 0.212510 -1.519569
    9 2.999630 0.000001 1.353195 0.000000 0.000000 1.570798
    10 3.572902 0.000003 3.113282 0.000000 0.000000 1.570798
    11 -1.949019 0.369309 1.958547 0.000000 0.000000 3.141589
    12 1.598420 0.000000 1.206649 0.000000 0.000000 1.570798
    13 6.485002 0.000008 2.091607 1.570797 0.000000 0.000001
    14 -37.676521 -0.000033 2.091637 1.570797 0.000000 0.000001
    15 -37.409237 -0.000032 2.091636 1.570797 0.000000 0.000001
    16 -0.002752 8.717751 -1.784592 0.000000 0.000000 0.000000
    17 8.017095 -5.444150 -7.026540 0.376228 -2.233631 -0.518458
    18 8.062075 1.258449 -0.368563 1.568510 -3.117593 0.232443
    19 -0.064108 -8.424515 -0.111947 -0.002625 0.239002 -0.302268
    20 -0.488518 -2.755602 -0.228260 -0.434640 0.150360 -0.257287
    21 0.039887 -1.526666 0.010322 -1.357338 -0.013111 0.029747
    22 0.028786 -1.243705 -0.128581 -1.636554 -0.011673 0.037428
    23 0.250027 -2.820665 -0.238396 -0.156970 0.124643 -0.222596
    24 -0.049759 -1.598510 0.041883 -1.435791 0.002613 -0.039072
    25 -0.034142 -1.179563 0.045718 -1.374047 0.003919 -0.036193
    26 0.957766 -2.746780 -0.090302 0.163303 0.113141 0.005479
    27 -0.033420 -1.393223 -0.019070 -0.548442 0.008389 -0.026751
    28 -0.022360 -0.957436 -0.000748 -0.707936 0.007526 -0.034384
    29 -1.180681 -2.507217 -0.193859 -0.415008 0.237226 -0.226934
    30 -0.024967 -1.123934 0.017597 -0.746625 0.007047 -0.031734
    31 -0.020057 -0.902687 0.025715 -0.835949 0.007299 -0.033713
    32 0.587416 -1.197277 0.185379 0.202761 -0.629696 -0.509768
    33 1.477332 -0.220230 0.071417 0.050655 -0.216957 -0.777967
    34 1.007018 -0.182979 0.044010 0.086801 -0.241947 -1.032056
    35 0.038119 -0.319809 -0.031051 0.239633 3.240644 1.548104
    36 -6.813937 -6.250822 -5.274882 0.637863 -4.329180 0.741808
    37 0.132101 -8.466044 -0.040616 0.139602 -0.070737 0.018094
    38 0.447953 -2.798986 -0.200443 -0.104509 -0.192370 0.258718
    39 -0.032909 -1.499736 0.036191 -1.759234 0.021968 -0.036827
    40 -0.027022 -1.115984 -0.028023 -0.994634 0.022100 -0.015916
    41 -0.249534 -2.846964 -0.174213 0.009452 -0.070702 0.196948
    42 0.043235 -1.656596 0.056948 -1.763160 -0.024622 0.013759
    43 0.031729 -1.141298 0.054932 -1.121697 -0.012481 0.006191
    44 -0.963866 -2.785145 -0.085350 0.260077 0.028696 0.046770
    45 0.028479 -1.403067 -0.009354 -0.545233 -0.010343 -0.022723
    46 0.021413 -0.942156 0.012233 -0.969120 -0.025539 -0.033725
    47 1.164475 -2.543940 -0.170330 -0.244500 -0.299426 0.130841
    48 0.024032 -1.144668 -0.005631 -1.178629 0.018241 0.058905
    49 0.014898 -0.903521 -0.015942 -1.054822 0.010594 0.052564
    50 -0.586770 -1.264477 0.200161 -0.480709 -0.775212 -2.389081
    51 1.565805 0.035243 0.016848 -0.018844 -0.006943 0.893522
    52 1.114041 0.040611 -0.005766 -0.030624 -0.033971 1.094330
    53 -0.002676 -0.502335 -0.044199 0.290547 0.059634 1.643451
    54 -8.233523 1.053783 -0.469909 1.567393 -0.035871 -0.205961
  time 1
    0 -5.193768 -7.112443 -4.401963 -0.085238 -0.061039 -1.574653
    1 2.999629 0.000000 1.353195 0.000000 0.000000 1.570798
    2 3.594184 0.000000 3.113281 0.000000 0.000000 1.570798
    3 1.661240 -0.000001 1.206648 0.000000 0.000000 1.570798
    4 -1.922007 -0.370809 2.041211 0.000000 0.000000 3.141589
    5 6.542123 0.000005 2.151215 1.570796 0.000000 0.000001
    6 -38.455750 -0.000043 2.151239 1.570796 0.000000 0.000001
    7 -38.280617 -0.000043 2.151239 1.570796 0.000000 0.000001
    8 5.262139 -6.426051 -6.479496 0.209529 0.212510 -1.519569
    9 2.999630 0.000001 1.353195 0.000000 0.000000 1.570798
    10 3.572902 0.000003 3.113282 0.000000 0.000000 1.570798
    11 -1.949019 0.369309 1.958547 0.000000 0.000000 3.141589
    12 1.598420 0.000000 1.206649 0.000000 0.000000 1.570798
    13 6.485002 0.000008 2.091607 1.570797 0.000000 0.000001
    14 -37.676521 -0.000033 2.091637 1.570797 0.000000 0.000001
    15 -37.409237 -0.000032 2.091636 1.570797 0.000000 0.000001
    16 -0.002752 8.717751 -1.784592 0.000000 0.000000 0.000000
    17 8.017095 -5.444150 -7.026540 0.376228 -2.233631 -0.518458
    18 8.062075 1.258449 -0.368563 1.568510 -3.117593 0.232443
    19 -0.064108 -8.424515 -0.111947 -0.002625 0.239002 -0.302268
    20 -0.488518 -2.755602 -0.228260 -0.434640 0.150360 -0.257287
    21 0.039887 -1.526666 0.010322 -1.357338 -0.013111 0.029747
    22 0.028786 -1.243705 -0.128581 -1.636554 -0.011673 0.037428
    23 0.250027 -2.820665 -0.238396 -0.156970 0.124643 -0.222596
    24 -0.049759 -1.598510 0.041883 -1.435791 0.002613 -0.039072
    25 -0.034142 -1.179563 0.045718 -1.374047 0.003919 -0.036193
    26 0.957766 -2.746780 -0.090302 0.163303 0.113141 0.005479
    27 -0.033420 -1.393223 -0.019070 -0.548442 0.008389 -0.026751
    28 -0.022360 -0.957436 -0.000748 -0.707936 0.007526 -0.034384
    29 -1.180681 -2.507217 -0.193859 -0.415008 0.237226 -0.226934
    30 -0.024967 -1.123934 0.017597 -0.746625 0.007047 -0.031734
    31 -0.020057 -0.902687 0.025715 -0.835949 0.007299 -0.033713
    32 0.587416 -1.197277 0.185379 0.202761 -0.629696 -0.509768
    33 1.477332 -0.220230 0.071417 0.050655 -0.216957 -0.777967
    34 1.007018 -0.182979 0.044010 0.086801 -0.241947 -1.032056
    35 0.038119 -0.319809 -0.031051 0.239633 3.240644 1.548104
    36 -6.813937 -6.250822 -5.274882 0.637863 -4.329180 0.741808
    37 0.132101 -8.466044 -0.040616 0.139602 -0.070737 0.018094
    38 0.447953 -2.798986 -0.200443 -0.104509 -0.192370 0.258718
    39 -0.032909 -1.499736 0.036191 -1.759234 0.021968 -0.036827
    40 -0.027022 -1.115984 -0.028023 -0.994634 0.022100 -0.015916
    41 -0.249534 -2.846964 -0.174213 0.009452 -0.070702 0.196948
    42 0.043235 -1.656596 0.056948 -1.763160 -0.024622 0.013759
    43 0.031729 -1.141298 0.054932 -1.121697 -0.012481 0.006191
    44 -0.963866 -2.785145 -0.085350 0.260077 0.028696 0.046770
    45 0.028479 -1.403067 -0.009354 -0.545233 -0.010343 -0.022723
    46 0.021413 -0.942156 0.012233 -0.969120 -0.025539 -0.033725
    47 1.164475 -2.543940 -0.170330 -0.244500 -0.299426 0.130841
    48 0.024032 -1.144668 -0.005631 -1.178629 0.018241 0.058905
    49 0.014898 -0.903521 -0.015942 -1.054822 0.010594 0.052564
    50 -0.586770 -1.264477 0.200161 -0.480709 -0.775212 -2.389081
    51 1.565805 0.035243 0.016848 -0.018844 -0.006943 0.893522
    52 1.114041 0.040611 -0.005766 -0.030624 -0.033971 1.094330
    53 -0.002676 -0.502335 -0.044199 0.290547 0.059634 1.643451
    54 -8.233523 1.053783 -0.469909 1.567393 -0.035871 -0.205961
end
