version 1
nodes
  0 "Bone01" -1
  1 "Bone02" 0
  2 "Bone48" 1
  3 "Bone49" 2
  4 "Bone56" 3
  5 "Bone50" 3
  6 "Bone54" 3
  7 "Bone52" 3
  8 "Bone24" -1
  9 "Bone25" 8
  10 "Bone47" 9
  11 "Bone58" 10
  12 "Bone65" 11
  13 "Bone59" 11
  14 "Bone61" 11
  15 "Bone63" 11
  16 "Bone03" 1
  17 "Bone04" 16
  18 "Bone05" 17
  19 "Bone07" 16
  20 "Bone08" 19
  21 "Bone09" 20
  22 "Bone11" 16
  23 "Bone12" 22
  24 "Bone13" 23
  25 "Bone15" 16
  26 "Bone16" 25
  27 "Bone17" 26
  28 "Bone19" 16
  29 "Bone20" 28
  30 "Bone21" 29
  31 "Bone26" 9
  32 "Bone27" 31
  33 "Bone28" 32
  34 "Bone29" 33
  35 "Bone31" 31
  36 "Bone32" 35
  37 "Bone33" 36
  38 "Bone35" 31
  39 "Bone36" 38
  40 "Bone37" 39
  41 "Bone39" 31
  42 "Bone40" 41
  43 "Bone41" 42
  44 "Bone43" 31
  45 "Bone44" 44
  46 "Bone45" 45
end
skeleton
  time 0
    0 -11.873008 1.157728 -6.182642 -1.061709 2.315204 -0.708101
    1 0.026864 -9.077094 0.000000 0.236863 0.318649 0.403949
    2 0.379649 -1.735596 1.827245 0.080108 -1.549641 -0.151662
    3 0.000000 2.233213 0.719424 0.000000 0.000000 0.000000
    4 0.000000 -1.663670 1.258993 0.000000 0.000000 0.000000
    5 0.000000 -2.967625 1.273980 0.000000 0.000000 0.000000
    6 0.000000 -1.019184 1.678656 0.000000 0.000000 0.000000
    7 0.000000 -1.558753 2.323140 0.000000 0.000000 0.000000
    8 11.170797 1.433907 -7.169521 -1.214734 -2.335699 -5.561970
    9 -0.244755 -8.933564 0.000000 -0.328299 0.352549 -0.616089
    10 -0.565186 -2.402559 2.300986 1.423020 1.236305 1.507755
    11 -0.000001 2.323140 0.854316 0.000000 0.000000 0.000000
    12 0.000001 -1.064149 1.708633 0.000000 0.000000 0.000000
    13 0.000001 -1.693644 1.258993 0.000000 0.000000 0.000000
    14 0.000001 -2.997601 1.229017 0.000000 0.000000 0.000000
    15 0.000000 -1.258993 2.323142 0.000000 0.000000 0.000000
    16 0.000000 -0.456721 0.000000 0.000000 0.000000 0.000000
    17 -0.421910 0.233313 0.477535 0.297238 -0.077719 -3.023020
    18 1.827484 -0.104693 -0.000001 0.000000 0.000000 -0.408361
    19 -1.090122 -1.829638 -0.122573 0.000000 -1.178081 -1.638864
    20 1.390341 -0.000583 0.000000 0.000324 -0.199003 0.001940
    21 0.964939 -0.010943 -0.000001 0.000000 0.099445 0.000000
    22 -0.348493 -1.994085 -0.122573 -0.076324 0.021727 -1.459420
    23 1.546317 0.004627 0.000000 0.000000 -0.000089 0.000000
    24 1.135737 0.008475 0.000001 0.000000 0.088953 0.020944
    25 0.310263 -1.738958 -0.122573 -0.056788 0.214603 -1.460916
    26 1.569654 0.049780 0.000001 0.000000 0.031333 -0.010472
    27 1.096338 0.003407 0.000000 0.000000 -0.015767 0.005236
    28 0.956485 -1.335291 -0.122573 0.000000 0.109951 -1.445133
    29 1.346260 0.018204 0.000000 0.000252 0.146610 -0.001677
    30 0.874448 -0.001050 -0.000001 0.000000 -0.151887 0.000000
    31 -0.017482 -0.437063 0.000000 0.000000 0.000000 0.000000
    32 0.472028 0.192308 0.472822 -0.165972 -0.158055 -0.186526
    33 1.857547 0.010603 0.000001 0.000000 0.000000 -0.020962
    34 0.996041 -0.010017 0.000000 0.000000 0.000000 -0.000039
    35 1.137759 -1.867485 -0.137081 0.000000 -1.015748 -1.523672
    36 1.365642 0.014869 0.000000 -0.000204 -0.178066 -0.002947
    37 0.938013 -0.005664 0.000000 0.000000 0.272236 0.010472
    38 0.409682 -2.071857 -0.137081 0.066106 0.132280 -1.722635
    39 1.470906 0.007359 0.000000 0.000000 0.125647 0.010472
    40 1.152100 0.010338 -0.000001 0.000000 0.026137 0.005236
    41 -0.292847 -1.816392 -0.137081 0.018088 0.251939 -1.716180
    42 1.511617 -0.004263 0.000001 0.000000 0.052295 0.036652
    43 1.099637 -0.010806 0.000000 0.000000 0.073255 0.010472
    44 -0.957058 -1.356555 -0.137080 0.000000 0.345552 -1.685988
    45 1.351390 -0.010799 -0.000001 0.000000 0.109948 0.005229
    46 0.859052 0.017735 -0.000001 0.000000 -0.062843 -0.010472
  time 1
    0 -11.333929 0.200668 -5.967792 -1.002530 2.209786 -0.690603
    1 0.026864 -9.077094 0.000000 0.161555 0.225985 0.430378
    2 0.746848 -2.309832 2.053814 -0.147216 -1.549641 -0.151662
    3 0.000000 2.233213 0.719424 0.000000 0.000000 0.000000
    4 0.000000 -1.663670 1.258993 0.000000 0.000000 0.000000
    5 0.000000 -2.967625 1.273980 0.000000 0.000000 0.000000
    6 0.000000 -1.019184 1.678656 0.000000 0.000000 0.000000
    7 0.000000 -1.558753 2.323140 0.000000 0.000000 0.000000
    8 10.526246 0.894828 -7.028891 -1.074946 -2.151494 -5.636608
    9 -0.244755 -8.933564 0.000000 -0.515662 0.189144 -0.672137
    10 -0.920665 -3.347901 2.152544 1.098142 1.234531 1.490960
    11 -0.000001 2.323140 0.854316 0.000000 0.000000 0.000000
    12 0.000001 -1.064149 1.708633 0.000000 0.000000 0.000000
    13 0.000001 -1.693644 1.258993 0.000000 0.000000 0.000000
    14 0.000001 -2.997601 1.229017 0.000000 0.000000 0.000000
    15 0.000000 -1.258993 2.323142 0.000000 0.000000 0.000000
    16 0.000000 -0.456721 0.000000 0.000000 0.000000 0.000000
    17 -0.421910 0.233313 0.477535 0.297598 -0.077155 -3.023973
    18 1.827484 -0.104693 -0.000001 0.000000 0.000000 -0.409436
    19 -1.090122 -1.829638 -0.122573 0.000000 -1.179440 -1.638864
    20 1.390341 -0.000583 0.000000 0.000324 -0.198674 0.001940
    21 0.964939 -0.010943 -0.000001 0.000000 0.100333 0.000000
    22 -0.348493 -1.994085 -0.122573 -0.076324 0.022079 -1.459462
    23 1.546317 0.004627 0.000000 0.000000 0.001783 0.000000
    24 1.135737 0.008475 0.000001 0.000000 0.090336 0.020944
    25 0.310263 -1.738958 -0.122573 -0.056788 0.215043 -1.460940
    26 1.569654 0.049780 0.000001 0.000000 0.033152 -0.010472
    27 1.096338 0.003407 0.000000 0.000000 -0.014384 0.005236
    28 0.956485 -1.335291 -0.122573 0.000000 0.110385 -1.445133
    29 1.346260 0.018204 0.000000 0.000264 0.147458 -0.001677
    30 0.874448 -0.001050 -0.000001 0.000000 -0.150476 0.000000
    31 -0.017482 -0.437063 0.000000 0.000000 0.000000 0.000000
    32 0.472028 0.192308 0.472822 -0.166556 -0.157012 -0.184963
    33 1.857547 0.010603 0.000001 0.000000 0.000000 -0.020045
    34 0.996041 -0.010017 0.000000 0.000000 0.000000 0.001772
    35 1.137759 -1.867485 -0.137081 0.000000 -1.017780 -1.523672
    36 1.365642 0.014869 0.000000 -0.000204 -0.177631 -0.002947
    37 0.938013 -0.005664 0.000000 0.000000 0.274102 0.010472
    38 0.409682 -2.071857 -0.137081 0.066118 0.133151 -1.722575
    39 1.470906 0.007359 0.000000 0.000000 0.129324 0.010472
    40 1.152100 0.010338 -0.000001 0.000000 0.028510 0.005236
    41 -0.292847 -1.816392 -0.137081 0.018088 0.252943 -1.716144
    42 1.511617 -0.004263 0.000001 0.000000 0.055663 0.036652
    43 1.099637 -0.010806 0.000000 0.000000 0.075794 0.010472
    44 -0.957058 -1.356555 -0.137080 0.000000 0.346777 -1.685988
    45 1.351390 -0.010799 -0.000001 0.000000 0.111770 0.005229
    46 0.859052 0.017735 -0.000001 0.000000 -0.060130 -0.010472
  time 2
    0 -10.845633 -0.592325 -5.788099 -0.873004 2.035985 -0.629440
    1 0.026864 -9.077094 0.000000 0.062846 0.099678 0.499564
    2 0.649189 -3.001260 2.167099 -0.673483 -1.549641 -0.151662
    3 0.000000 2.233213 0.719424 0.000000 0.000000 0.000000
    4 0.000000 -1.663670 1.258993 0.000000 0.000000 0.000000
    5 0.000000 -2.967625 1.273980 0.000000 0.000000 0.000000
    6 0.000000 -1.019184 1.678656 0.000000 0.000000 0.000000
    7 0.000000 -1.558753 2.323140 0.000000 0.000000 0.000000
    8 9.975448 0.426064 -6.923419 -0.781100 -1.941102 -5.853938
    9 -0.244755 -8.933564 0.000000 -0.685829 0.013384 -0.713719
    10 -0.627688 -4.090111 1.988477 0.404666 1.225459 1.465544
    11 -0.000001 2.323140 0.854316 0.000000 0.000000 0.000000
    12 0.000001 -1.064149 1.708633 0.000000 0.000000 0.000000
    13 0.000001 -1.693644 1.258993 0.000000 0.000000 0.000000
    14 0.000001 -2.997601 1.229017 0.000000 0.000000 0.000000
    15 0.000000 -1.258993 2.323142 0.000000 0.000000 0.000000
    16 0.000000 -0.456721 0.000000 0.000000 0.000000 0.000000
    17 -0.421910 0.233313 0.477535 0.301422 -0.071211 -3.033630
    18 1.827484 -0.104693 -0.000001 0.000000 0.000000 -0.420489
    19 -1.090122 -1.829638 -0.122573 0.000000 -1.193411 -1.638864
    20 1.390341 -0.000583 0.000000 0.000312 -0.195323 0.001952
    21 0.964939 -0.010943 -0.000001 0.000000 0.109460 0.000000
    22 -0.348493 -1.994085 -0.122573 -0.076324 0.025405 -1.459711
    23 1.546317 0.004627 0.000000 0.000000 0.021033 0.000000
    24 1.135737 0.008475 0.000001 0.000000 0.104555 0.020944
    25 0.310263 -1.738958 -0.122573 -0.056835 0.219765 -1.461228
    26 1.569654 0.049780 0.000001 0.000000 0.051284 -0.010472
    27 1.096338 0.003407 0.000000 0.000000 -0.000165 0.005236
    28 0.956485 -1.335291 -0.122573 0.000000 0.114835 -1.445133
    29 1.346260 0.018204 0.000000 0.000288 0.156462 -0.001677
    30 0.874448 -0.001050 -0.000001 0.000000 -0.135777 0.000000
    31 -0.017482 -0.437063 0.000000 0.000000 0.000000 0.000000
    32 0.472028 0.192308 0.472822 -0.171185 -0.148448 -0.172248
    33 1.857547 0.010603 0.000001 0.000000 0.000000 -0.012512
    34 0.996041 -0.010017 0.000000 0.000000 0.000000 0.016658
    35 1.137759 -1.867485 -0.137081 0.000000 -1.034480 -1.523672
    36 1.365642 0.014869 0.000000 -0.000192 -0.174174 -0.002947
    37 0.938013 -0.005664 0.000000 0.000000 0.289441 0.010472
    38 0.409682 -2.071857 -0.137081 0.066178 0.140305 -1.722083
    39 1.470906 0.007359 0.000000 0.000000 0.159550 0.010472
    40 1.152100 0.010338 -0.000001 0.000000 0.048025 0.005236
    41 -0.292847 -1.816392 -0.137081 0.018124 0.261202 -1.715988
    42 1.511617 -0.004263 0.000001 0.000000 0.083347 0.036652
    43 1.099637 -0.010806 0.000000 0.000000 0.096670 0.010472
    44 -0.957058 -1.356555 -0.137080 0.000000 0.356852 -1.685988
    45 1.351390 -0.010799 -0.000001 0.000000 0.126716 0.005229
    46 0.859052 0.017735 -0.000001 0.000000 -0.037437 -0.010472
  time 3
    0 -10.408120 -1.221250 -5.643563 -0.680100 1.886814 -0.496825
    1 0.026864 -9.077094 0.000000 -0.016717 0.002247 0.582452
    2 0.000731 -3.989571 2.124129 -1.337525 -1.549641 -0.151662
    3 0.000000 2.233213 0.719424 0.000000 0.000000 0.000000
    4 0.000000 -1.663670 1.258993 0.000000 0.000000 0.000000
    5 0.000000 -2.967625 1.273980 0.000000 0.000000 0.000000
    6 0.000000 -1.019184 1.678656 0.000000 0.000000 0.000000
    7 0.000000 -1.558753 2.323140 0.000000 0.000000 0.000000
    8 9.522309 0.023708 -6.849198 -0.233576 -1.811191 -0.056581
    9 -0.244755 -8.933564 0.000000 -0.812608 -0.115311 -0.711598
    10 0.544223 -4.726849 1.773626 -0.403924 1.210622 1.465544
    11 -0.000001 2.323140 0.854316 0.000000 0.000000 0.000000
    12 0.000001 -1.064149 1.708633 0.000000 0.000000 0.000000
    13 0.000001 -1.693644 1.258993 0.000000 0.000000 0.000000
    14 0.000001 -2.997601 1.229017 0.000000 0.000000 0.000000
    15 0.000000 -1.258993 2.323142 0.000000 0.000000 0.000000
    16 0.000000 -0.456721 0.000000 0.000000 0.000000 0.000000
    17 -0.421910 0.233313 0.477535 0.308590 -0.059710 -3.052155
    18 1.827484 -0.104693 -0.000001 0.000000 0.000000 -0.441788
    19 -1.090122 -1.829638 -0.122573 0.000000 -1.220292 -1.638864
    20 1.390341 -0.000583 0.000000 0.000300 -0.188871 0.001952
    21 0.964939 -0.010943 -0.000001 0.000000 0.127050 0.000000
    22 -0.348493 -1.994085 -0.122573 -0.076348 0.031854 -1.460197
    23 1.546317 0.004627 0.000000 0.000000 0.058128 0.000000
    24 1.135737 0.008475 0.000001 0.000000 0.131957 0.020944
    25 0.310263 -1.738958 -0.122573 -0.056955 0.228848 -1.461743
    26 1.569654 0.049780 0.000001 0.000000 0.086225 -0.010472
    27 1.096338 0.003407 0.000000 0.000000 0.027237 0.005236
    28 0.956485 -1.335291 -0.122573 0.000000 0.123409 -1.445133
    29 1.346260 0.018204 0.000000 0.000360 0.173841 -0.001665
    30 0.874448 -0.001050 -0.000001 0.000000 -0.107354 0.000000
    31 -0.017482 -0.437063 0.000000 0.000000 0.000000 0.000000
    32 0.472028 0.192308 0.472822 -0.178921 -0.133508 -0.150486
    33 1.857547 0.010603 0.000001 0.000000 0.000000 0.000490
    34 0.996041 -0.010017 0.000000 0.000000 0.000000 0.042379
    35 1.137759 -1.867485 -0.137081 0.000000 -1.063301 -1.523672
    36 1.365642 0.014869 0.000000 -0.000180 -0.168221 -0.002959
    37 0.938013 -0.005664 0.000000 0.000000 0.315913 0.010472
    38 0.409682 -2.071857 -0.137081 0.066285 0.152653 -1.721256
    39 1.470906 0.007359 0.000000 0.000000 0.211714 0.010472
    40 1.152100 0.010338 -0.000001 0.000000 0.081703 0.005236
    41 -0.292847 -1.816392 -0.137081 0.018196 0.275454 -1.715737
    42 1.511617 -0.004263 0.000001 0.000000 0.131122 0.036652
    43 1.099637 -0.010806 0.000000 0.000000 0.132698 0.010472
    44 -0.957058 -1.356555 -0.137080 0.000000 0.374239 -1.685988
    45 1.351390 -0.010799 -0.000001 0.000000 0.152562 0.005229
    46 0.859052 0.017735 -0.000001 0.000000 0.001771 -0.010472
  time 4
    0 -10.025296 -1.690015 -5.541997 -0.319802 1.770245 -0.189795
    1 0.026864 -9.077094 0.000000 -0.089118 -0.074959 0.664402
    2 -0.921172 -4.716156 2.034282 -2.030042 -1.549641 -0.151662
    3 0.000000 2.233213 0.719424 0.000000 0.000000 0.000000
    4 0.000000 -1.663670 1.258993 0.000000 0.000000 0.000000
    5 0.000000 -2.967625 1.273980 0.000000 0.000000 0.000000
    6 0.000000 -1.019184 1.678656 0.000000 0.000000 0.000000
    7 0.000000 -1.558753 2.323140 0.000000 0.000000 0.000000
    8 9.170736 -0.308333 -6.806228 0.516188 -1.801956 -0.756005
    9 -0.244755 -8.933564 0.000000 -0.920824 -0.177958 -0.643078
    10 1.856763 -4.980763 1.617372 -1.155002 1.200447 1.493685
    11 -0.000001 2.323140 0.854316 0.000000 0.000000 0.000000
    12 0.000001 -1.064149 1.708633 0.000000 0.000000 0.000000
    13 0.000001 -1.693644 1.258993 0.000000 0.000000 0.000000
    14 0.000001 -2.997601 1.229017 0.000000 0.000000 0.000000
    15 0.000000 -1.258993 2.323142 0.000000 0.000000 0.000000
    16 0.000000 -0.456721 0.000000 0.000000 0.000000 0.000000
    17 -0.421910 0.233313 0.477535 0.317610 -0.044554 -3.076101
    18 1.827484 -0.104693 -0.000001 0.000000 0.000000 -0.469504
    19 -1.090122 -1.829638 -0.122573 0.000000 -1.255326 -1.638864
    20 1.390341 -0.000583 0.000000 0.000276 -0.180446 0.001952
    21 0.964939 -0.010943 -0.000001 0.000000 0.149939 0.000000
    22 -0.348493 -1.994085 -0.122573 -0.076372 0.040218 -1.460862
    23 1.546317 0.004627 0.000000 0.000000 0.106399 0.000000
    24 1.135737 0.008475 0.000001 0.000000 0.167614 0.020944
    25 0.310263 -1.738958 -0.122573 -0.057123 0.240652 -1.462438
    26 1.569654 0.049780 0.000001 0.000000 0.131693 -0.010472
    27 1.096338 0.003407 0.000000 0.000000 0.062894 0.005236
    28 0.956485 -1.335291 -0.122573 0.000000 0.134661 -1.445133
    29 1.346260 0.018204 0.000000 0.000431 0.196420 -0.001653
    30 0.874448 -0.001050 -0.000001 0.000000 -0.070511 0.000000
    31 -0.017482 -0.437063 0.000000 0.000000 0.000000 0.000000
    32 0.472028 0.192308 0.472822 -0.187825 -0.115169 -0.124336
    33 1.857547 0.010603 0.000001 0.000000 0.000000 0.016256
    34 0.996041 -0.010017 0.000000 0.000000 0.000000 0.073502
    35 1.137759 -1.867485 -0.137081 0.000000 -1.098251 -1.523672
    36 1.365642 0.014869 0.000000 -0.000156 -0.161014 -0.002959
    37 0.938013 -0.005664 0.000000 0.000000 0.348015 0.010472
    38 0.409682 -2.071857 -0.137081 0.066453 0.167626 -1.720262
    39 1.470906 0.007359 0.000000 0.000000 0.274970 0.010472
    40 1.152100 0.010338 -0.000001 0.000000 0.122543 0.005236
    41 -0.292847 -1.816392 -0.137081 0.018292 0.292754 -1.715401
    42 1.511617 -0.004263 0.000001 0.000000 0.189058 0.036652
    43 1.099637 -0.010806 0.000000 0.000000 0.176387 0.010472
    44 -0.957058 -1.356555 -0.137080 0.000000 0.395324 -1.685988
    45 1.351390 -0.010799 -0.000001 0.000000 0.183905 0.005229
    46 0.859052 0.017735 -0.000001 0.000000 0.049261 -0.010472
  time 5
    0 -9.697161 -1.998618 -5.463870 0.388991 1.715118 0.472952
    1 0.026864 -9.077094 0.000000 -0.164781 -0.140675 0.734376
    2 -1.932922 -4.446616 2.022563 -2.641160 -1.549641 -0.151662
    3 0.000000 2.233213 0.719424 0.000000 0.000000 0.000000
    4 0.000000 -1.663670 1.258993 0.000000 0.000000 0.000000
    5 0.000000 -2.967625 1.273980 0.000000 0.000000 0.000000
    6 0.000000 -1.019184 1.678656 0.000000 0.000000 0.000000
    7 0.000000 -1.558753 2.323140 0.000000 0.000000 0.000000
    8 8.916822 -0.573967 -6.798416 0.981179 -1.881768 -1.180260
    9 -0.244755 -8.933564 0.000000 -0.969679 -0.148681 -0.546836
    10 2.552097 -4.453403 1.601746 -1.704158 1.198937 1.523050
    11 -0.000001 2.323140 0.854316 0.000000 0.000000 0.000000
    12 0.000001 -1.064149 1.708633 0.000000 0.000000 0.000000
    13 0.000001 -1.693644 1.258993 0.000000 0.000000 0.000000
    14 0.000001 -2.997601 1.229017 0.000000 0.000000 0.000000
    15 0.000000 -1.258993 2.323142 0.000000 0.000000 0.000000
    16 0.000000 -0.456721 0.000000 0.000000 0.000000 0.000000
    17 -0.421910 0.233313 0.477535 0.327093 -0.027600 -3.102280
    18 1.827484 -0.104693 -0.000001 0.000000 0.000000 -0.500042
    19 -1.090122 -1.829638 -0.122573 0.000000 -1.293885 -1.638864
    20 1.390341 -0.000583 0.000000 0.000252 -0.171191 0.001964
    21 0.964939 -0.010943 -0.000001 0.000000 0.175131 0.000000
    22 -0.348493 -1.994085 -0.122573 -0.076396 0.049439 -1.461555
    23 1.546317 0.004627 0.000000 0.000000 0.159526 0.000000
    24 1.135737 0.008475 0.000001 0.000000 0.206858 0.020944
    25 0.310263 -1.738958 -0.122573 -0.057315 0.253656 -1.463205
    26 1.569654 0.049780 0.000001 0.000000 0.181736 -0.010472
    27 1.096338 0.003407 0.000000 0.000000 0.102138 0.005236
    28 0.956485 -1.335291 -0.122573 0.000000 0.146962 -1.445133
    29 1.346260 0.018204 0.000000 0.000515 0.221270 -0.001629
    30 0.874448 -0.001050 -0.000001 0.000000 -0.029921 0.000000
    31 -0.017482 -0.437063 0.000000 0.000000 0.000000 0.000000
    32 0.472028 0.192308 0.472822 -0.196283 -0.096508 -0.098185
    33 1.857547 0.010603 0.000001 0.000000 0.000000 0.032131
    34 0.996041 -0.010017 0.000000 0.000000 0.000000 0.104870
    35 1.137759 -1.867485 -0.137081 0.000000 -1.133443 -1.523672
    36 1.365642 0.014869 0.000000 -0.000144 -0.153755 -0.002959
    37 0.938013 -0.005664 0.000000 0.000000 0.380339 0.010472
    38 0.409682 -2.071857 -0.137081 0.066645 0.182703 -1.719243
    39 1.470906 0.007359 0.000000 0.000000 0.338663 0.010472
    40 1.152100 0.010338 -0.000001 0.000000 0.163665 0.005236
    41 -0.292847 -1.816392 -0.137081 0.018375 0.310139 -1.715053
    42 1.511617 -0.004263 0.000001 0.000000 0.247393 0.036652
    43 1.099637 -0.010806 0.000000 0.000000 0.220377 0.010472
    44 -0.957058 -1.356555 -0.137080 0.000000 0.416554 -1.685988
    45 1.351390 -0.010799 -0.000001 0.000000 0.215496 0.005229
    46 0.859052 0.017735 -0.000001 0.000000 0.097078 -0.010472
  time 6
    0 -9.419808 -2.143154 -5.428713 1.090970 1.747361 1.135943
    1 0.026864 -9.077094 0.000000 -0.254237 -0.203333 0.784042
    2 -2.768885 -3.837223 2.034282 3.221699 -1.549641 -0.151662
    3 0.000000 2.233213 0.719424 0.000000 0.000000 0.000000
    4 0.000000 -1.663670 1.258993 0.000000 0.000000 0.000000
    5 0.000000 -2.967625 1.273980 0.000000 0.000000 0.000000
    6 0.000000 -1.019184 1.678656 0.000000 0.000000 0.000000
    7 0.000000 -1.558753 2.323140 0.000000 0.000000 0.000000
    8 8.760567 -0.773191 -6.821854 1.189936 -1.988748 -1.356261
    9 -0.244755 -8.933564 0.000000 -0.941186 -0.026463 -0.421435
    10 2.880232 -3.594002 1.777533 -1.940515 1.195881 1.494130
    11 -0.000001 2.323140 0.854316 0.000000 0.000000 0.000000
    12 0.000001 -1.064149 1.708633 0.000000 0.000000 0.000000
    13 0.000001 -1.693644 1.258993 0.000000 0.000000 0.000000
    14 0.000001 -2.997601 1.229017 0.000000 0.000000 0.000000
    15 0.000000 -1.258993 2.323142 0.000000 0.000000 0.000000
    16 0.000000 -0.456721 0.000000 0.000000 0.000000 0.000000
    17 -0.421910 0.233313 0.477535 0.335873 -0.010899 -3.127605
    18 1.827484 -0.104693 -0.000001 0.000000 0.000000 -0.529639
    19 -1.090122 -1.829638 -0.122573 0.000000 -1.331382 -1.638864
    20 1.390341 -0.000583 0.000000 0.000240 -0.162187 0.001964
    21 0.964939 -0.010943 -0.000001 0.000000 0.199601 0.000000
    22 -0.348493 -1.994085 -0.122573 -0.076432 0.058408 -1.462234
    23 1.546317 0.004627 0.000000 0.000000 0.211190 0.000000
    24 1.135737 0.008475 0.000001 0.000000 0.244979 0.020944
    25 0.310263 -1.738958 -0.122573 -0.057507 0.266300 -1.463960
    26 1.569654 0.049780 0.000001 0.000000 0.230290 -0.010472
    27 1.096338 0.003407 0.000000 0.000000 0.140259 0.005236
    28 0.956485 -1.335291 -0.122573 0.000000 0.158973 -1.445133
    29 1.346260 0.018204 0.000000 0.000611 0.245409 -0.001605
    30 0.874448 -0.001050 -0.000001 0.000000 0.009648 0.000000
    31 -0.017482 -0.437063 0.000000 0.000000 0.000000 0.000000
    32 0.472028 0.192308 0.472822 -0.202973 -0.080718 -0.076513
    33 1.857547 0.010603 0.000001 0.000000 0.000000 0.045396
    34 0.996041 -0.010017 0.000000 0.000000 0.000000 0.131081
    35 1.137759 -1.867485 -0.137081 0.000000 -1.162849 -1.523672
    36 1.365642 0.014869 0.000000 -0.000132 -0.147673 -0.002959
    37 0.938013 -0.005664 0.000000 0.000000 0.407349 0.010472
    38 0.409682 -2.071857 -0.137081 0.066801 0.195301 -1.718380
    39 1.470906 0.007359 0.000000 0.000000 0.391823 0.010472
    40 1.152100 0.010338 -0.000001 0.000000 0.198027 0.005236
    41 -0.292847 -1.816392 -0.137081 0.018459 0.324681 -1.714790
    42 1.511617 -0.004263 0.000001 0.000000 0.296139 0.036652
    43 1.099637 -0.010806 0.000000 0.000000 0.257136 0.010472
    44 -0.957058 -1.356555 -0.137080 0.000000 0.434295 -1.685988
    45 1.351390 -0.010799 -0.000001 0.000000 0.241836 0.005229
    46 0.859052 0.017735 -0.000001 0.000000 0.137035 -0.010472
  time 7
    0 -9.193239 -2.127528 -5.428713 1.426472 1.819461 1.439652
    1 0.026864 -9.077094 0.000000 -0.368298 -0.271942 0.807805
    2 -3.003267 -3.411428 2.049908 -2.351420 -1.562794 -0.995558
    3 0.000000 2.233213 0.719424 0.000000 0.000000 0.000000
    4 0.000000 -1.663670 1.258993 0.000000 0.000000 0.000000
    5 0.000000 -2.967625 1.273980 0.000000 0.000000 0.000000
    6 0.000000 -1.019184 1.678656 0.000000 0.000000 0.000000
    7 0.000000 -1.558753 2.323140 0.000000 0.000000 0.000000
    8 8.701972 -0.906008 -6.880449 1.244460 -2.047280 -1.396635
    9 -0.244755 -8.933564 0.000000 -0.844986 0.114389 -0.305425
    10 2.923202 -2.570533 2.379114 -2.523475 1.171336 1.409038
    11 -0.000001 2.323140 0.854316 0.000000 0.000000 0.000000
    12 0.000001 -1.064149 1.708633 0.000000 0.000000 0.000000
    13 0.000001 -1.693644 1.258993 0.000000 0.000000 0.000000
    14 0.000001 -2.997601 1.229017 0.000000 0.000000 0.000000
    15 0.000000 -1.258993 2.323142 0.000000 0.000000 0.000000
    16 0.000000 -0.456721 0.000000 0.000000 0.000000 0.000000
    17 -0.421910 0.233313 0.477535 0.343006 0.003440 -3.148956
    18 1.827484 -0.104693 -0.000001 0.000000 0.000000 -0.554869
    19 -1.090122 -1.829638 -0.122573 0.000000 -1.363231 -1.638864
    20 1.390341 -0.000583 0.000000 0.000216 -0.154576 0.001976
    21 0.964939 -0.010943 -0.000001 0.000000 0.220409 0.000000
    22 -0.348493 -1.994085 -0.122573 -0.076468 0.066016 -1.462817
    23 1.546317 0.004627 0.000000 0.000000 0.255014 0.000000
    24 1.135737 0.008475 0.000001 0.000000 0.277394 0.020944
    25 0.310263 -1.738958 -0.122573 -0.057674 0.277024 -1.464620
    26 1.569654 0.049780 0.000001 0.000000 0.271680 -0.010472
    27 1.096338 0.003407 0.000000 0.000000 0.172674 0.005236
    28 0.956485 -1.335291 -0.122573 0.000000 0.169176 -1.445133
    29 1.346260 0.018204 0.000000 0.000683 0.265935 -0.001593
    30 0.874448 -0.001050 -0.000001 0.000000 0.043133 0.000000
    31 -0.017482 -0.437063 0.000000 0.000000 0.000000 0.000000
    32 0.472028 0.192308 0.472822 -0.206833 -0.071149 -0.063498
    33 1.857547 0.010603 0.000001 0.000000 0.000000 0.053395
    34 0.996041 -0.010017 0.000000 0.000000 0.000000 0.146919
    35 1.137759 -1.867485 -0.137081 0.000000 -1.180583 -1.523672
    36 1.365642 0.014869 0.000000 -0.000120 -0.143999 -0.002959
    37 0.938013 -0.005664 0.000000 0.000000 0.423669 0.010472
    38 0.409682 -2.071857 -0.137081 0.066909 0.202913 -1.717865
    39 1.470906 0.007359 0.000000 0.000000 0.423981 0.010472
    40 1.152100 0.010338 -0.000001 0.000000 0.218748 0.005236
    41 -0.292847 -1.816392 -0.137081 0.018519 0.333467 -1.714598
    42 1.511617 -0.004263 0.000001 0.000000 0.325592 0.036652
    43 1.099637 -0.010806 0.000000 0.000000 0.279347 0.010472
    44 -0.957058 -1.356555 -0.137080 0.000000 0.445014 -1.685988
    45 1.351390 -0.010799 -0.000001 0.000000 0.257739 0.005229
    46 0.859052 0.017735 -0.000001 0.000000 0.161131 -0.010472
  time 8
    0 -9.021359 -1.951741 -5.463870 -1.565952 1.244587 -1.576615
    1 0.026864 -9.077094 0.000000 -0.517497 -0.357112 0.803713
    2 -2.948578 -2.864537 2.065533 -0.656512 -1.506628 -3.060284
    3 0.000000 2.233213 0.719424 0.000000 0.000000 0.000000
    4 0.000000 -1.663670 1.258993 0.000000 0.000000 0.000000
    5 0.000000 -2.967625 1.273980 0.000000 0.000000 0.000000
    6 0.000000 -1.019184 1.678656 0.000000 0.000000 0.000000
    7 0.000000 -1.558753 2.323140 0.000000 0.000000 0.000000
    8 8.807444 -0.933352 -6.997640 1.257408 -2.107016 -1.400262
    9 -0.244755 -8.933564 0.000000 -0.738102 0.206884 -0.226201
    10 2.520846 -1.754102 2.933818 3.080494 1.135502 1.398138
    11 -0.000001 2.323140 0.854316 0.000000 0.000000 0.000000
    12 0.000001 -1.064149 1.708633 0.000000 0.000000 0.000000
    13 0.000001 -1.693644 1.258993 0.000000 0.000000 0.000000
    14 0.000001 -2.997601 1.229017 0.000000 0.000000 0.000000
    15 0.000000 -1.258993 2.323142 0.000000 0.000000 0.000000
    16 0.000000 -0.456721 0.000000 0.000000 0.000000 0.000000
    17 -0.421910 0.233313 0.477535 0.347688 0.013262 -3.163376
    18 1.827484 -0.104693 -0.000001 0.000000 0.000000 -0.571868
    19 -1.090122 -1.829638 -0.122573 0.000000 -1.384761 -1.638864
    20 1.390341 -0.000583 0.000000 0.000204 -0.149377 0.001976
    21 0.964939 -0.010943 -0.000001 0.000000 0.234503 0.000000
    22 -0.348493 -1.994085 -0.122573 -0.076504 0.071206 -1.463219
    23 1.546317 0.004627 0.000000 0.000000 0.284737 0.000000
    24 1.135737 0.008475 0.000001 0.000000 0.299307 0.020944
    25 0.310263 -1.738958 -0.122573 -0.057794 0.284306 -1.465051
    26 1.569654 0.049780 0.000001 0.000000 0.299567 -0.010472
    27 1.096338 0.003407 0.000000 0.000000 0.194587 0.005236
    28 0.956485 -1.335291 -0.122573 0.000000 0.176086 -1.445133
    29 1.346260 0.018204 0.000000 0.000743 0.279783 -0.001569
    30 0.874448 -0.001050 -0.000001 0.000000 0.065862 0.000000
    31 -0.017482 -0.437063 0.000000 0.000000 0.000000 0.000000
    32 0.472028 0.192308 0.472822 -0.206864 -0.071085 -0.063408
    33 1.857547 0.010603 0.000001 0.000000 0.000000 0.053426
    34 0.996041 -0.010017 0.000000 0.000000 0.000000 0.147011
    35 1.137759 -1.867485 -0.137081 0.000000 -1.180686 -1.523672
    36 1.365642 0.014869 0.000000 -0.000120 -0.143986 -0.002959
    37 0.938013 -0.005664 0.000000 0.000000 0.423732 0.010472
    38 0.409682 -2.071857 -0.137081 0.066909 0.202928 -1.717865
    39 1.470906 0.007359 0.000000 0.000000 0.424168 0.010472
    40 1.152100 0.010338 -0.000001 0.000000 0.218829 0.005236
    41 -0.292847 -1.816392 -0.137081 0.018519 0.333501 -1.714598
    42 1.511617 -0.004263 0.000001 0.000000 0.325649 0.036652
    43 1.099637 -0.010806 0.000000 0.000000 0.279433 0.010472
    44 -0.957058 -1.356555 -0.137080 0.000000 0.445034 -1.685988
    45 1.351390 -0.010799 -0.000001 0.000000 0.257863 0.005229
    46 0.859052 0.017735 -0.000001 0.000000 0.161271 -0.010472
  time 9
    0 -8.900261 -1.611887 -5.541997 -1.499168 1.169800 -1.525417
    1 0.026864 -9.077094 0.000000 -0.627800 -0.450134 0.724766
    2 -2.823574 -1.930914 2.081159 -0.843184 -1.434503 2.895625
    3 0.000000 2.233213 0.719424 0.000000 0.000000 0.000000
    4 0.000000 -1.663670 1.258993 0.000000 0.000000 0.000000
    5 0.000000 -2.967625 1.273980 0.000000 0.000000 0.000000
    6 0.000000 -1.019184 1.678656 0.000000 0.000000 0.000000
    7 0.000000 -1.558753 2.323140 0.000000 0.000000 0.000000
    8 9.084796 -0.851319 -7.181240 1.212838 -2.128117 -1.360652
    9 -0.244755 -8.933564 0.000000 -0.699931 0.221696 -0.220596
    10 1.313778 -1.722851 2.961163 2.395131 1.131595 1.467879
    11 -0.000001 2.323140 0.854316 0.000000 0.000000 0.000000
    12 0.000001 -1.064149 1.708633 0.000000 0.000000 0.000000
    13 0.000001 -1.693644 1.258993 0.000000 0.000000 0.000000
    14 0.000001 -2.997601 1.229017 0.000000 0.000000 0.000000
    15 0.000000 -1.258993 2.323142 0.000000 0.000000 0.000000
    16 0.000000 -0.456721 0.000000 0.000000 0.000000 0.000000
    17 -0.421910 0.233313 0.477535 0.349077 0.016308 -3.167843
    18 1.827484 -0.104693 -0.000001 0.000000 0.000000 -0.577243
    19 -1.090122 -1.829638 -0.122573 0.000000 -1.391513 -1.638864
    20 1.390341 -0.000583 0.000000 0.000204 -0.147764 0.001976
    21 0.964939 -0.010943 -0.000001 0.000000 0.238887 0.000000
    22 -0.348493 -1.994085 -0.122573 -0.076504 0.072818 -1.463343
    23 1.546317 0.004627 0.000000 0.000000 0.294040 0.000000
    24 1.135737 0.008475 0.000001 0.000000 0.306136 0.020944
    25 0.310263 -1.738958 -0.122573 -0.057830 0.286547 -1.465195
    26 1.569654 0.049780 0.000001 0.000000 0.308385 -0.010472
    27 1.096338 0.003407 0.000000 0.000000 0.201416 0.005236
    28 0.956485 -1.335291 -0.122573 0.000000 0.178221 -1.445133
    29 1.346260 0.018204 0.000000 0.000755 0.284162 -0.001569
    30 0.874448 -0.001050 -0.000001 0.000000 0.072919 0.000000
    31 -0.017482 -0.437063 0.000000 0.000000 0.000000 0.000000
    32 0.472028 0.192308 0.472822 -0.201712 -0.083783 -0.080661
    33 1.857547 0.010603 0.000001 0.000000 0.000000 0.042848
    34 0.996041 -0.010017 0.000000 0.000000 0.000000 0.126048
    35 1.137759 -1.867485 -0.137081 0.000000 -1.157202 -1.523672
    36 1.365642 0.014869 0.000000 -0.000132 -0.148838 -0.002959
    37 0.938013 -0.005664 0.000000 0.000000 0.402162 0.010472
    38 0.409682 -2.071857 -0.137081 0.066765 0.192897 -1.718548
    39 1.470906 0.007359 0.000000 0.000000 0.381664 0.010472
    40 1.152100 0.010338 -0.000001 0.000000 0.191428 0.005236
    41 -0.292847 -1.816392 -0.137081 0.018447 0.321888 -1.714838
    42 1.511617 -0.004263 0.000001 0.000000 0.286778 0.036652
    43 1.099637 -0.010806 0.000000 0.000000 0.250077 0.010472
    44 -0.957058 -1.356555 -0.137080 0.000000 0.430888 -1.685988
    45 1.351390 -0.010799 -0.000001 0.000000 0.236803 0.005229
    46 0.859052 0.017735 -0.000001 0.000000 0.129362 -0.010472
  time 10
    0 -8.833853 -1.111872 -5.643563 -1.495762 1.136885 -1.524120
    1 0.026864 -9.077094 0.000000 -0.682721 -0.580905 0.487626
    2 -2.421218 -1.102764 2.073346 -1.106653 -1.398565 2.567144
    3 0.000000 2.233213 0.719424 0.000000 0.000000 0.000000
    4 0.000000 -1.663670 1.258993 0.000000 0.000000 0.000000
    5 0.000000 -2.967625 1.273980 0.000000 0.000000 0.000000
    6 0.000000 -1.019184 1.678656 0.000000 0.000000 0.000000
    7 0.000000 -1.558753 2.323140 0.000000 0.000000 0.000000
    8 9.463714 -0.698970 -7.396090 1.129423 -2.123879 -1.292886
    9 -0.244755 -8.933564 0.000000 -0.701946 0.190311 -0.279926
    10 0.020770 -2.043173 2.711155 1.707064 1.176526 1.526498
    11 -0.000001 2.323140 0.854316 0.000000 0.000000 0.000000
    12 0.000001 -1.064149 1.708633 0.000000 0.000000 0.000000
    13 0.000001 -1.693644 1.258993 0.000000 0.000000 0.000000
    14 0.000001 -2.997601 1.229017 0.000000 0.000000 0.000000
    15 0.000000 -1.258993 2.323142 0.000000 0.000000 0.000000
    16 0.000000 -0.456721 0.000000 0.000000 0.000000 0.000000
    17 -0.421910 0.233313 0.477535 0.346402 0.010513 -3.159369
    18 1.827484 -0.104693 -0.000001 0.000000 0.000000 -0.567131
    19 -1.090122 -1.829638 -0.122573 0.000000 -1.378731 -1.638864
    20 1.390341 -0.000583 0.000000 0.000204 -0.150834 0.001976
    21 0.964939 -0.010943 -0.000001 0.000000 0.230564 0.000000
    22 -0.348493 -1.994085 -0.122573 -0.076492 0.069745 -1.463122
    23 1.546317 0.004627 0.000000 0.000000 0.276428 0.000000
    24 1.135737 0.008475 0.000001 0.000000 0.293213 0.020944
    25 0.310263 -1.738958 -0.122573 -0.057758 0.282266 -1.464919
    26 1.569654 0.049780 0.000001 0.000000 0.291796 -0.010472
    27 1.096338 0.003407 0.000000 0.000000 0.188493 0.005236
    28 0.956485 -1.335291 -0.122573 0.000000 0.174132 -1.445133
    29 1.346260 0.018204 0.000000 0.000719 0.275952 -0.001581
    30 0.874448 -0.001050 -0.000001 0.000000 0.059486 0.000000
    31 -0.017482 -0.437063 0.000000 0.000000 0.000000 0.000000
    32 0.472028 0.192308 0.472822 -0.189286 -0.112052 -0.119887
    33 1.857547 0.010603 0.000001 0.000000 0.000000 0.018943
    34 0.996041 -0.010017 0.000000 0.000000 0.000000 0.078811
    35 1.137759 -1.867485 -0.137081 0.000000 -1.104209 -1.523672
    36 1.365642 0.014869 0.000000 -0.000156 -0.159784 -0.002959
    37 0.938013 -0.005664 0.000000 0.000000 0.353487 0.010472
    38 0.409682 -2.071857 -0.137081 0.066477 0.170179 -1.720094
    39 1.470906 0.007359 0.000000 0.000000 0.285752 0.010472
    40 1.152100 0.010338 -0.000001 0.000000 0.129504 0.005236
    41 -0.292847 -1.816392 -0.137081 0.018304 0.295683 -1.715341
    42 1.511617 -0.004263 0.000001 0.000000 0.198933 0.036652
    43 1.099637 -0.010806 0.000000 0.000000 0.183833 0.010472
    44 -0.957058 -1.356555 -0.137080 0.000000 0.398918 -1.685988
    45 1.351390 -0.010799 -0.000001 0.000000 0.189248 0.005229
    46 0.859052 0.017735 -0.000001 0.000000 0.057355 -0.010472
  time 11
    0 -8.841666 -0.295441 -5.819350 -1.561832 1.123540 -1.576129
    1 0.026864 -9.077094 0.000000 -0.665100 -0.662630 0.185617
    2 -1.468064 -0.778535 2.034282 -1.363795 -1.419791 2.224991
    3 0.000000 2.233213 0.719424 0.000000 0.000000 0.000000
    4 0.000000 -1.663670 1.258993 0.000000 0.000000 0.000000
    5 0.000000 -2.967625 1.273980 0.000000 0.000000 0.000000
    6 0.000000 -1.019184 1.678656 0.000000 0.000000 0.000000
    7 0.000000 -1.558753 2.323140 0.000000 0.000000 0.000000
    8 9.862163 -0.523184 -7.614847 1.020024 -2.107685 -1.205458
    9 -0.244755 -8.933564 0.000000 -0.685397 0.142177 -0.378288
    10 -0.690190 -2.461155 2.277548 1.021610 1.233860 1.487233
    11 -0.000001 2.323140 0.854316 0.000000 0.000000 0.000000
    12 0.000001 -1.064149 1.708633 0.000000 0.000000 0.000000
    13 0.000001 -1.693644 1.258993 0.000000 0.000000 0.000000
    14 0.000001 -2.997601 1.229017 0.000000 0.000000 0.000000
    15 0.000000 -1.258993 2.323142 0.000000 0.000000 0.000000
    16 0.000000 -0.456721 0.000000 0.000000 0.000000 0.000000
    17 -0.421910 0.233313 0.477535 0.338291 -0.006129 -3.134733
    18 1.827484 -0.104693 -0.000001 0.000000 0.000000 -0.538105
    19 -1.090122 -1.829638 -0.122573 0.000000 -1.342041 -1.638864
    20 1.390341 -0.000583 0.000000 0.000228 -0.159650 0.001964
    21 0.964939 -0.010943 -0.000001 0.000000 0.206565 0.000000
    22 -0.348493 -1.994085 -0.122573 -0.076444 0.060977 -1.462428
    23 1.546317 0.004627 0.000000 0.000000 0.225876 0.000000
    24 1.135737 0.008475 0.000001 0.000000 0.255827 0.020944
    25 0.310263 -1.738958 -0.122573 -0.057567 0.269861 -1.464176
    26 1.569654 0.049780 0.000001 0.000000 0.244179 -0.010472
    27 1.096338 0.003407 0.000000 0.000000 0.151107 0.005236
    28 0.956485 -1.335291 -0.122573 0.000000 0.162374 -1.445133
    29 1.346260 0.018204 0.000000 0.000635 0.252251 -0.001605
    30 0.874448 -0.001050 -0.000001 0.000000 0.020842 0.000000
    31 -0.017482 -0.437063 0.000000 0.000000 0.000000 0.000000
    32 0.472028 0.192308 0.472822 -0.165972 -0.158055 -0.186526
    33 1.857547 0.010603 0.000001 0.000000 0.000000 -0.020962
    34 0.996041 -0.010017 0.000000 0.000000 0.000000 -0.000039
    35 1.137759 -1.867485 -0.137081 0.000000 -1.015748 -1.523672
    36 1.365642 0.014869 0.000000 -0.000204 -0.178066 -0.002947
    37 0.938013 -0.005664 0.000000 0.000000 0.272236 0.010472
    38 0.409682 -2.071857 -0.137081 0.066106 0.132280 -1.722635
    39 1.470906 0.007359 0.000000 0.000000 0.125647 0.010472
    40 1.152100 0.010338 -0.000001 0.000000 0.026137 0.005236
    41 -0.292847 -1.816392 -0.137081 0.018088 0.251939 -1.716180
    42 1.511617 -0.004263 0.000001 0.000000 0.052295 0.036652
    43 1.099637 -0.010806 0.000000 0.000000 0.073255 0.010472
    44 -0.957058 -1.356555 -0.137080 0.000000 0.345552 -1.685988
    45 1.351390 -0.010799 -0.000001 0.000000 0.109948 0.005229
    46 0.859052 0.017735 -0.000001 0.000000 -0.062843 -0.010472
  time 12
    0 -8.900261 0.685058 -6.026387 1.439227 1.995546 1.456340
    1 0.026864 -9.077094 0.000000 -0.673467 -0.646015 -0.028587
    2 -0.401625 -0.946509 1.956155 -1.504158 -1.490233 1.831502
    3 0.000000 2.233213 0.719424 0.000000 0.000000 0.000000
    4 0.000000 -1.663670 1.258993 0.000000 0.000000 0.000000
    5 0.000000 -2.967625 1.273980 0.000000 0.000000 0.000000
    6 0.000000 -1.019184 1.678656 0.000000 0.000000 0.000000
    7 0.000000 -1.558753 2.323140 0.000000 0.000000 0.000000
    8 10.205924 -0.366929 -7.798446 0.901728 -2.091045 -1.111539
    9 -0.244755 -8.933564 0.000000 -0.578944 0.129449 -0.482432
    10 -0.733160 -2.758039 1.886911 1.288256 1.279953 1.467268
    11 -0.000001 2.323140 0.854316 0.000000 0.000000 0.000000
    12 0.000001 -1.064149 1.708633 0.000000 0.000000 0.000000
    13 0.000001 -1.693644 1.258993 0.000000 0.000000 0.000000
    14 0.000001 -2.997601 1.229017 0.000000 0.000000 0.000000
    15 0.000000 -1.258993 2.323142 0.000000 0.000000 0.000000
    16 0.000000 -0.456721 0.000000 0.000000 0.000000 0.000000
    17 -0.421910 0.233313 0.477535 0.322892 -0.035208 -3.090587
    18 1.827484 -0.104693 -0.000001 0.000000 0.000000 -0.486335
    19 -1.090122 -1.829638 -0.122573 0.000000 -1.276644 -1.638864
    20 1.390341 -0.000583 0.000000 0.000264 -0.175341 0.001964
    21 0.964939 -0.010943 -0.000001 0.000000 0.163839 0.000000
    22 -0.348493 -1.994085 -0.122573 -0.076384 0.045307 -1.461236
    23 1.546317 0.004627 0.000000 0.000000 0.135771 0.000000
    24 1.135737 0.008475 0.000001 0.000000 0.189267 0.020944
    25 0.310263 -1.738958 -0.122573 -0.057231 0.247854 -1.462882
    26 1.569654 0.049780 0.000001 0.000000 0.159305 -0.010472
    27 1.096338 0.003407 0.000000 0.000000 0.084547 0.005236
    28 0.956485 -1.335291 -0.122573 0.000000 0.141499 -1.445133
    29 1.346260 0.018204 0.000000 0.000479 0.210104 -0.001641
    30 0.874448 -0.001050 -0.000001 0.000000 -0.048074 0.000000
    31 -0.017482 -0.437063 0.000000 0.000000 0.000000 0.000000
    32 0.472028 0.192308 0.472822 -0.118005 -0.233461 -0.305405
    33 1.857547 0.010603 0.000001 0.000000 0.000000 -0.089851
    34 0.996041 -0.010017 0.000000 0.000000 0.000000 -0.136161
    35 1.137759 -1.867485 -0.137081 0.000000 -0.863034 -1.523672
    36 1.365642 0.014869 0.000000 -0.000276 -0.209586 -0.002935
    37 0.938013 -0.005664 0.000000 0.000000 0.131967 0.010472
    38 0.409682 -2.071857 -0.137081 0.065662 0.066855 -1.726973
    39 1.470906 0.007359 0.000000 0.000000 -0.150749 0.010472
    40 1.152100 0.010338 -0.000001 0.000000 -0.152312 0.005236
    41 -0.292847 -1.816392 -0.137081 0.017800 0.176421 -1.717546
    42 1.511617 -0.004263 0.000001 0.000000 -0.200852 0.036652
    43 1.099637 -0.010806 0.000000 0.000000 -0.117643 0.010472
    44 -0.957058 -1.356555 -0.137080 0.000000 0.253423 -1.685988
    45 1.351390 -0.010799 -0.000001 0.000000 -0.027005 0.005229
    46 0.859052 0.017735 -0.000001 0.000000 -0.270394 -0.010472
  time 13
    0 -8.951044 1.360860 -6.182642 1.226518 1.958422 1.286461
    1 0.026864 -9.077094 0.000000 -0.760831 -0.544534 -0.050060
    2 0.379649 -1.735596 1.827245 0.080108 -1.549641 -0.151662
    3 0.000000 2.233213 0.719424 0.000000 0.000000 0.000000
    4 0.000000 -1.663670 1.258993 0.000000 0.000000 0.000000
    5 0.000000 -2.967625 1.273980 0.000000 0.000000 0.000000
    6 0.000000 -1.019184 1.678656 0.000000 0.000000 0.000000
    7 0.000000 -1.558753 2.323140 0.000000 0.000000 0.000000
    8 10.416868 -0.273176 -7.915637 0.799904 -2.081631 -1.032797
    9 -0.244755 -8.933564 0.000000 -0.456841 0.153714 -0.545852
    10 -0.522216 -3.008047 1.504087 1.321519 1.345664 1.417826
    11 -0.000001 2.323140 0.854316 0.000000 0.000000 0.000000
    12 0.000001 -1.064149 1.708633 0.000000 0.000000 0.000000
    13 0.000001 -1.693644 1.258993 0.000000 0.000000 0.000000
    14 0.000001 -2.997601 1.229017 0.000000 0.000000 0.000000
    15 0.000000 -1.258993 2.323142 0.000000 0.000000 0.000000
    16 0.000000 -0.456721 0.000000 0.000000 0.000000 0.000000
    17 -0.421910 0.233313 0.477535 0.297238 -0.077719 -3.023020
    18 1.827484 -0.104693 -0.000001 0.000000 0.000000 -0.408361
    19 -1.090122 -1.829638 -0.122573 0.000000 -1.178081 -1.638864
    20 1.390341 -0.000583 0.000000 0.000324 -0.199003 0.001940
    21 0.964939 -0.010943 -0.000001 0.000000 0.099445 0.000000
    22 -0.348493 -1.994085 -0.122573 -0.076324 0.021727 -1.459420
    23 1.546317 0.004627 0.000000 0.000000 -0.000089 0.000000
    24 1.135737 0.008475 0.000001 0.000000 0.088953 0.020944
    25 0.310263 -1.738958 -0.122573 -0.056788 0.214603 -1.460916
    26 1.569654 0.049780 0.000001 0.000000 0.031333 -0.010472
    27 1.096338 0.003407 0.000000 0.000000 -0.015767 0.005236
    28 0.956485 -1.335291 -0.122573 0.000000 0.109951 -1.445133
    29 1.346260 0.018204 0.000000 0.000252 0.146610 -0.001677
    30 0.874448 -0.001050 -0.000001 0.000000 -0.151887 0.000000
    31 -0.017482 -0.437063 0.000000 0.000000 0.000000 0.000000
    32 0.472028 0.192308 0.472822 0.008516 -0.364412 -0.563303
    33 1.857547 0.010603 0.000001 0.000000 0.000000 -0.228158
    34 0.996041 -0.010017 0.000000 0.000000 0.000000 -0.409451
    35 1.137759 -1.867485 -0.137081 0.000000 -0.556436 -1.523672
    36 1.365642 0.014869 0.000000 -0.000419 -0.272907 -0.002887
    37 0.938013 -0.005664 0.000000 0.000000 -0.149646 0.010472
    38 0.409682 -2.071857 -0.137081 0.065650 -0.064498 -1.735602
    39 1.470906 0.007359 0.000000 0.000000 -0.705660 0.010472
    40 1.152100 0.010338 -0.000001 0.000000 -0.510577 0.005236
    41 -0.292847 -1.816392 -0.137081 0.017537 0.024808 -1.720255
    42 1.511617 -0.004263 0.000001 0.000000 -0.709088 0.036652
    43 1.099637 -0.010806 0.000000 0.000000 -0.500902 0.010472
    44 -0.957058 -1.356555 -0.137080 0.000000 0.068458 -1.685988
    45 1.351390 -0.010799 -0.000001 0.000000 -0.301991 0.005229
    46 0.859052 0.017735 -0.000001 0.000000 -0.686947 -0.010472
  time 14
    0 -8.974482 1.423362 -6.233425 0.953759 1.927342 1.062385
    1 0.026864 -9.077094 0.000000 -0.886699 -0.328648 0.028174
    2 0.356211 -1.641843 1.331136 1.286908 -1.337536 -1.079352
    3 0.000000 2.233213 0.719424 0.000000 0.000000 0.000000
    4 0.000000 -1.663670 1.258993 0.000000 0.000000 0.000000
    5 0.000000 -2.967625 1.273980 0.000000 0.000000 0.000000
    6 0.000000 -1.019184 1.678656 0.000000 0.000000 0.000000
    7 0.000000 -1.558753 2.323140 0.000000 0.000000 0.000000
    8 10.491089 -0.241925 -7.970326 0.745733 -2.083059 -0.996527
    9 -0.244755 -8.933564 0.000000 -0.281710 0.207256 -0.622022
    10 -0.447995 -3.297118 1.097825 1.106255 1.424619 1.235742
    11 -0.000001 2.323140 0.854316 0.000000 0.000000 0.000000
    12 0.000001 -1.064149 1.708633 0.000000 0.000000 0.000000
    13 0.000001 -1.693644 1.258993 0.000000 0.000000 0.000000
    14 0.000001 -2.997601 1.229017 0.000000 0.000000 0.000000
    15 0.000000 -1.258993 2.323142 0.000000 0.000000 0.000000
    16 0.000000 -0.456721 0.000000 0.000000 0.000000 0.000000
    17 -0.421910 0.233313 0.477535 0.259873 -0.129666 -2.934037
    18 1.827484 -0.104693 -0.000001 0.000000 0.000000 -0.307979
    19 -1.090122 -1.829638 -0.122573 0.000000 -1.051194 -1.638864
    20 1.390341 -0.000583 0.000000 0.000384 -0.229446 0.001916
    21 0.964939 -0.010943 -0.000001 0.000000 0.016545 0.000000
    22 -0.348493 -1.994085 -0.122573 -0.076312 -0.008606 -1.457105
    23 1.546317 0.004627 0.000000 0.000000 -0.174917 0.000000
    24 1.135737 0.008475 0.000001 0.000000 -0.040190 0.020944
    25 0.310263 -1.738958 -0.122573 -0.056320 0.171789 -1.458447
    26 1.569654 0.049780 0.000001 0.000000 -0.133289 -0.010472
    27 1.096338 0.003407 0.000000 0.000000 -0.144910 0.005236
    28 0.956485 -1.335291 -0.122573 0.000000 0.069322 -1.445133
    29 1.346260 0.018204 0.000000 -0.000024 0.064806 -0.001713
    30 0.874448 -0.001050 -0.000001 0.000000 -0.285534 0.000000
    31 -0.017482 -0.437063 0.000000 0.000000 0.000000 0.000000
    32 0.472028 0.192308 0.472822 0.178191 -0.459676 -0.857061
    33 1.857547 0.010603 0.000001 0.000000 0.000000 -0.369633
    34 0.996041 -0.010017 0.000000 0.000000 0.000000 -0.689001
    35 1.137759 -1.867485 -0.137081 0.000000 -0.242779 -1.523672
    36 1.365642 0.014869 0.000000 -0.000575 -0.337687 -0.002839
    37 0.938013 -0.005664 0.000000 0.000000 -0.437710 0.010472
    38 0.409682 -2.071857 -0.137081 0.066849 -0.198875 -1.744578
    39 1.470906 0.007359 0.000000 0.000000 -1.273285 0.010472
    40 1.152100 0.010338 -0.000001 0.000000 -0.877051 0.005236
    41 -0.292847 -1.816392 -0.137081 0.017668 -0.130279 -1.722963
    42 1.511617 -0.004263 0.000001 0.000000 -1.228968 0.036652
    43 1.099637 -0.010806 0.000000 0.000000 -0.892942 0.010472
    44 -0.957058 -1.356555 -0.137080 0.000000 -0.120743 -1.685988
    45 1.351390 -0.010799 -0.000001 0.000000 -0.583246 0.005229
    46 0.859052 0.017735 -0.000001 0.000000 -1.113139 -0.010472
  time 15
    0 -8.994014 1.079601 -6.217799 0.670385 1.914132 0.828184
    1 0.026864 -9.077094 0.000000 -0.922864 -0.095101 0.131259
    2 0.188237 -1.876225 0.952218 1.312699 -1.124339 -1.126876
    3 0.000000 2.233213 0.719424 0.000000 0.000000 0.000000
    4 0.000000 -1.663670 1.258993 0.000000 0.000000 0.000000
    5 0.000000 -2.967625 1.273980 0.000000 0.000000 0.000000
    6 0.000000 -1.019184 1.678656 0.000000 0.000000 0.000000
    7 0.000000 -1.558753 2.323140 0.000000 0.000000 0.000000
    8 10.487182 -0.238019 -7.985952 0.742738 -2.086539 -1.001395
    9 -0.244755 -8.933564 0.000000 -0.113667 0.274023 -0.674182
    10 -0.397212 -3.594002 0.679843 0.360045 1.511651 0.436940
    11 -0.000001 2.323140 0.854316 0.000000 0.000000 0.000000
    12 0.000001 -1.064149 1.708633 0.000000 0.000000 0.000000
    13 0.000001 -1.693644 1.258993 0.000000 0.000000 0.000000
    14 0.000001 -2.997601 1.229017 0.000000 0.000000 0.000000
    15 0.000000 -1.258993 2.323142 0.000000 0.000000 0.000000
    16 0.000000 -0.456721 0.000000 0.000000 0.000000 0.000000
    17 -0.421910 0.233313 0.477535 0.171714 -0.221553 -2.749895
    18 1.827484 -0.104693 -0.000001 0.000000 0.000000 -0.109197
    19 -1.090122 -1.829638 -0.122573 0.000000 -0.799840 -1.638864
    20 1.390341 -0.000583 0.000000 0.000539 -0.289752 0.001868
    21 0.964939 -0.010943 -0.000001 0.000000 -0.147617 0.000000
    22 -0.348493 -1.994085 -0.122573 -0.076480 -0.068767 -1.452517
    23 1.546317 0.004627 0.000000 0.000000 -0.521120 0.000000
    24 1.135737 0.008475 0.000001 0.000000 -0.295927 0.020944
    25 0.310263 -1.738958 -0.122573 -0.055721 0.087041 -1.453666
    26 1.569654 0.049780 0.000001 0.000000 -0.459446 -0.010472
    27 1.096338 0.003407 0.000000 0.000000 -0.400647 0.005236
    28 0.956485 -1.335291 -0.122573 0.000000 -0.011068 -1.445133
    29 1.346260 0.018204 0.000000 -0.000587 -0.097104 -0.001701
    30 0.874448 -0.001050 -0.000001 0.000000 -0.550249 0.000000
    31 -0.017482 -0.437063 0.000000 0.000000 0.000000 0.000000
    32 0.472028 0.192308 0.472822 0.297069 -0.493084 -1.048320
    33 1.857547 0.010603 0.000001 0.000000 0.000000 -0.455531
    34 0.996041 -0.010017 0.000000 0.000000 0.000000 -0.858702
    35 1.137759 -1.867485 -0.137081 0.000000 -0.052360 -1.523672
    36 1.365642 0.014869 0.000000 -0.000671 -0.377004 -0.002803
    37 0.938013 -0.005664 0.000000 0.000000 -0.612611 0.010472
    38 0.409682 -2.071857 -0.137081 0.068179 -0.280440 -1.750247
    39 1.470906 0.007359 0.000000 0.000000 -1.617923 0.010472
    40 1.152100 0.010338 -0.000001 0.000000 -1.099558 0.005236
    41 -0.292847 -1.816392 -0.137081 0.017968 -0.224442 -1.724665
    42 1.511617 -0.004263 0.000001 0.000012 -1.544617 0.036640
    43 1.099637 -0.010806 0.000000 0.000000 -1.130973 0.010472
    44 -0.957058 -1.356555 -0.137080 0.000000 -0.235619 -1.685988
    45 1.351390 -0.010799 -0.000001 0.000000 -0.753982 0.005229
    46 0.859052 0.017735 -0.000001 0.000000 -1.371829 -0.010472
  time 16
    0 -9.009640 0.622556 -6.182642 0.449674 1.913325 0.652148
    1 0.026864 -9.077094 0.000000 -0.815929 0.041484 0.218276
    2 0.145267 -2.512963 0.760806 1.261117 -1.242564 -1.146685
    3 0.000000 2.233213 0.719424 0.000000 0.000000 0.000000
    4 0.000000 -1.663670 1.258993 0.000000 0.000000 0.000000
    5 0.000000 -2.967625 1.273980 0.000000 0.000000 0.000000
    6 0.000000 -1.019184 1.678656 0.000000 0.000000 0.000000
    7 0.000000 -1.558753 2.323140 0.000000 0.000000 0.000000
    8 10.440306 -0.249738 -7.970326 0.769075 -2.085557 -1.033942
    9 -0.244755 -8.933564 0.000000 0.040059 0.341657 -0.698343
    10 -0.397212 -3.594002 0.679843 0.360045 1.511651 0.436940
    11 -0.000001 2.323140 0.854316 0.000000 0.000000 0.000000
    12 0.000001 -1.064149 1.708633 0.000000 0.000000 0.000000
    13 0.000001 -1.693644 1.258993 0.000000 0.000000 0.000000
    14 0.000001 -2.997601 1.229017 0.000000 0.000000 0.000000
    15 0.000000 -1.258993 2.323142 0.000000 0.000000 0.000000
    16 0.000000 -0.456721 0.000000 0.000000 0.000000 0.000000
    17 -0.421910 0.233313 0.477535 0.018822 -0.318879 -2.472698
    18 1.827484 -0.104693 -0.000001 0.000000 0.000000 0.168835
    19 -1.090122 -1.829638 -0.122573 0.000000 -0.448437 -1.638864
    20 1.390341 -0.000583 0.000000 0.000779 -0.374096 0.001772
    21 0.964939 -0.010943 -0.000001 0.000000 -0.377200 0.000000
    22 -0.348493 -1.994085 -0.122573 -0.077211 -0.152861 -1.446002
    23 1.546317 0.004627 0.000000 0.000000 -1.005290 0.000000
    24 1.135737 0.008475 0.000001 0.000000 -0.653577 0.020944
    25 0.310263 -1.738958 -0.122573 -0.055517 -0.031438 -1.447062
    26 1.569654 0.049780 0.000001 0.000000 -0.915449 -0.010472
    27 1.096338 0.003407 0.000000 0.000000 -0.758297 0.005236
    28 0.956485 -1.335291 -0.122573 0.000000 -0.123585 -1.445133
    29 1.346260 0.018204 0.000000 -0.001426 -0.323603 -0.001521
    30 0.874448 -0.001050 -0.000001 0.000000 -0.920383 0.000000
    31 -0.017482 -0.437063 0.000000 0.000000 0.000000 0.000000
    32 0.472028 0.192308 0.472822 0.314678 -0.496149 -1.076154
    33 1.857547 0.010603 0.000001 0.000000 0.000000 -0.467756
    34 0.996041 -0.010017 0.000000 0.000000 0.000000 -0.882888
    35 1.137759 -1.867485 -0.137081 0.000000 -0.025226 -1.523672
    36 1.365642 0.014869 0.000000 -0.000695 -0.382598 -0.002803
    37 0.938013 -0.005664 0.000000 0.000000 -0.637534 0.010472
    38 0.409682 -2.071857 -0.137081 0.068407 -0.292065 -1.751074
    39 1.470906 0.007359 0.000000 0.000000 -1.666970 0.010472
    40 1.152100 0.010338 -0.000001 0.000000 -1.131264 0.005236
    41 -0.292847 -1.816392 -0.137081 0.018016 -0.237860 -1.724905
    42 1.511617 -0.004263 0.000001 -0.000024 -1.589596 0.036676
    43 1.099637 -0.010806 0.000000 0.000000 -1.164891 0.010472
    44 -0.957058 -1.356555 -0.137080 0.000000 -0.251988 -1.685988
    45 1.351390 -0.010799 -0.000001 0.000000 -0.778285 0.005229
    46 0.859052 0.017735 -0.000001 0.000000 -1.408698 -0.010472
  time 17
    0 -9.021359 0.353016 -6.182642 0.349697 1.907593 0.586691
    1 0.026864 -9.077094 0.000000 -0.678998 0.052340 0.256455
    2 0.231207 -3.555964 0.741274 0.080108 -1.549641 -0.151662
    3 0.000000 2.233213 0.719424 0.000000 0.000000 0.000000
    4 0.000000 -1.663670 1.258993 0.000000 0.000000 0.000000
    5 0.000000 -2.967625 1.273980 0.000000 0.000000 0.000000
    6 0.000000 -1.019184 1.678656 0.000000 0.000000 0.000000
    7 0.000000 -1.558753 2.323140 0.000000 0.000000 0.000000
    8 10.373898 -0.261457 -7.935169 0.818666 -2.079044 -1.086055
    9 -0.244755 -8.933564 0.000000 0.171731 0.397953 -0.694935
    10 -0.397212 -3.594002 0.679843 0.360045 1.511651 0.436940
    11 -0.000001 2.323140 0.854316 0.000000 0.000000 0.000000
    12 0.000001 -1.064149 1.708633 0.000000 0.000000 0.000000
    13 0.000001 -1.693644 1.258993 0.000000 0.000000 0.000000
    14 0.000001 -2.997601 1.229017 0.000000 0.000000 0.000000
    15 0.000000 -1.258993 2.323142 0.000000 0.000000 0.000000
    16 0.000000 -0.456721 0.000000 0.000000 0.000000 0.000000
    17 -0.421910 0.233313 0.477535 -0.212797 -0.375551 -2.091539
    18 1.827484 -0.104693 -0.000001 0.000000 0.000000 0.523599
    19 -1.090122 -1.829638 -0.122573 0.000000 0.000000 -1.638864
    20 1.390341 -0.000583 0.000000 0.001091 -0.481727 0.001641
    21 0.964939 -0.010943 -0.000001 0.000000 -0.670206 0.000000
    22 -0.348493 -1.994085 -0.122573 -0.078961 -0.260133 -1.437435
    23 1.546317 0.004627 0.000000 0.000000 -1.623155 0.000000
    24 1.135737 0.008475 0.000001 0.000000 -1.110029 0.020944
    25 0.310263 -1.738958 -0.122573 -0.056428 -0.182688 -1.438565
    26 1.569654 0.049780 0.000001 0.000000 -1.497495 -0.010472
    27 1.096338 0.003407 0.000000 0.000000 -1.214749 0.005236
    28 0.956485 -1.335291 -0.122573 0.000000 -0.267035 -1.445133
    29 1.346260 0.018204 0.000000 -0.002732 -0.612611 -0.000934
    30 0.874448 -0.001050 -0.000001 0.000000 -1.392772 0.000000
    31 -0.017482 -0.437063 0.000000 0.000000 0.000000 0.000000
    32 0.472028 0.192308 0.472822 0.355109 -0.501545 -1.139727
    33 1.857547 0.010603 0.000001 0.000000 0.000000 -0.495606
    34 0.996041 -0.010017 0.000000 0.000000 0.000000 -0.937859
    35 1.137759 -1.867485 -0.137081 0.000000 0.036479 -1.523672
    36 1.365642 0.014869 0.000000 -0.000731 -0.395350 -0.002779
    37 0.938013 -0.005664 0.000000 0.000000 -0.694179 0.010472
    38 0.409682 -2.071857 -0.137081 0.068982 -0.318486 -1.752979
    39 1.470906 0.007359 0.000000 0.000000 -1.778588 0.010472
    40 1.152100 0.010338 -0.000001 0.000000 -1.203328 0.005236
    41 -0.292847 -1.816392 -0.137081 0.018160 -0.268356 -1.725468
    42 1.511617 -0.004263 0.000001 0.000000 -1.691825 0.036652
    43 1.099637 -0.010806 0.000000 0.000000 -1.242025 0.010472
    44 -0.957058 -1.356555 -0.137080 0.000000 -0.289193 -1.685988
    45 1.351390 -0.010799 -0.000001 0.000000 -0.833622 0.005229
    46 0.859052 0.017735 -0.000001 0.000000 -1.492448 -0.010472
  time 18
    0 -9.025265 0.368642 -6.229518 0.408796 1.883276 0.655550
    1 0.026864 -9.077094 0.000000 -0.469525 0.002577 0.288101
    2 0.231207 -3.555964 0.741274 0.080108 -1.549641 -0.151662
    3 0.000000 2.233213 0.719424 0.000000 0.000000 0.000000
    4 0.000000 -1.663670 1.258993 0.000000 0.000000 0.000000
    5 0.000000 -2.967625 1.273980 0.000000 0.000000 0.000000
    6 0.000000 -1.019184 1.678656 0.000000 0.000000 0.000000
    7 0.000000 -1.558753 2.323140 0.000000 0.000000 0.000000
    8 10.315302 -0.257551 -7.884386 0.877946 -2.068381 -1.147045
    9 -0.244755 -8.933564 0.000000 0.271025 0.432193 -0.668451
    10 -0.397212 -3.594002 0.679843 0.360045 1.511651 0.436940
    11 -0.000001 2.323140 0.854316 0.000000 0.000000 0.000000
    12 0.000001 -1.064149 1.708633 0.000000 0.000000 0.000000
    13 0.000001 -1.693644 1.258993 0.000000 0.000000 0.000000
    14 0.000001 -2.997601 1.229017 0.000000 0.000000 0.000000
    15 0.000000 -1.258993 2.323142 0.000000 0.000000 0.000000
    16 0.000000 -0.456721 0.000000 0.000000 0.000000 0.000000
    17 -0.421910 0.233313 0.477535 -0.212797 -0.375551 -2.091539
    18 1.827484 -0.104693 -0.000001 0.000000 0.000000 0.523599
    19 -1.090122 -1.829638 -0.122573 0.000000 0.000000 -1.638864
    20 1.390341 -0.000583 0.000000 0.001091 -0.481727 0.001641
    21 0.964939 -0.010943 -0.000001 0.000000 -0.670206 0.000000
    22 -0.348493 -1.994085 -0.122573 -0.078961 -0.260133 -1.437435
    23 1.546317 0.004627 0.000000 0.000000 -1.623155 0.000000
    24 1.135737 0.008475 0.000001 0.000000 -1.110029 0.020944
    25 0.310263 -1.738958 -0.122573 -0.056428 -0.182688 -1.438565
    26 1.569654 0.049780 0.000001 0.000000 -1.497495 -0.010472
    27 1.096338 0.003407 0.000000 0.000000 -1.214749 0.005236
    28 0.956485 -1.335291 -0.122573 0.000000 -0.267035 -1.445133
    29 1.346260 0.018204 0.000000 -0.002732 -0.612611 -0.000934
    30 0.874448 -0.001050 -0.000001 0.000000 -1.392772 0.000000
    31 -0.017482 -0.437063 0.000000 0.000000 0.000000 0.000000
    32 0.472028 0.192308 0.472822 0.386481 -0.504147 -1.188871
    33 1.857547 0.010603 0.000001 0.000000 0.000000 -0.516995
    34 0.996041 -0.010017 0.000000 0.000000 0.000000 -0.980123
    35 1.137759 -1.867485 -0.137081 0.000000 0.083894 -1.523672
    36 1.365642 0.014869 0.000000 -0.000755 -0.405144 -0.002779
    37 0.938013 -0.005664 0.000000 0.000000 -0.737730 0.010472
    38 0.409682 -2.071857 -0.137081 0.069449 -0.338799 -1.754466
    39 1.470906 0.007359 0.000000 0.000000 -1.864405 0.010472
    40 1.152100 0.010338 -0.000001 0.000000 -1.258733 0.005236
    41 -0.292847 -1.816392 -0.137081 0.018280 -0.291803 -1.725911
    42 1.511617 -0.004263 0.000001 0.000000 -1.770423 0.036652
    43 1.099637 -0.010806 0.000000 0.000000 -1.301296 0.010472
    44 -0.957058 -1.356555 -0.137080 0.000000 -0.317818 -1.685988
    45 1.351390 -0.010799 -0.000001 0.000000 -0.876112 0.005229
    46 0.859052 0.017735 -0.000001 -0.000012 -1.556875 -0.010460
  time 19
    0 -9.029171 0.513178 -6.303739 0.729880 1.835225 0.964201
    1 0.026864 -9.077094 0.000000 -0.254733 -0.095542 0.282920
    2 0.231207 -3.555964 0.741274 0.080108 -1.549641 -0.151662
    3 0.000000 2.233213 0.719424 0.000000 0.000000 0.000000
    4 0.000000 -1.663670 1.258993 0.000000 0.000000 0.000000
    5 0.000000 -2.967625 1.273980 0.000000 0.000000 0.000000
    6 0.000000 -1.019184 1.678656 0.000000 0.000000 0.000000
    7 0.000000 -1.558753 2.323140 0.000000 0.000000 0.000000
    8 10.264519 -0.241925 -7.825791 0.932734 -2.053615 -1.205648
    9 -0.244755 -8.933564 0.000000 0.301568 0.439636 -0.653631
    10 -0.397212 -3.594002 0.679843 0.360045 1.511651 0.436940
    11 -0.000001 2.323140 0.854316 0.000000 0.000000 0.000000
    12 0.000001 -1.064149 1.708633 0.000000 0.000000 0.000000
    13 0.000001 -1.693644 1.258993 0.000000 0.000000 0.000000
    14 0.000001 -2.997601 1.229017 0.000000 0.000000 0.000000
    15 0.000000 -1.258993 2.323142 0.000000 0.000000 0.000000
    16 0.000000 -0.456721 0.000000 0.000000 0.000000 0.000000
    17 -0.421910 0.233313 0.477535 -0.212797 -0.375551 -2.091539
    18 1.827484 -0.104693 -0.000001 0.000000 0.000000 0.523599
    19 -1.090122 -1.829638 -0.122573 0.000000 0.000000 -1.638864
    20 1.390341 -0.000583 0.000000 0.001091 -0.481727 0.001641
    21 0.964939 -0.010943 -0.000001 0.000000 -0.670206 0.000000
    22 -0.348493 -1.994085 -0.122573 -0.078961 -0.260133 -1.437435
    23 1.546317 0.004627 0.000000 0.000000 -1.623155 0.000000
    24 1.135737 0.008475 0.000001 0.000000 -1.110029 0.020944
    25 0.310263 -1.738958 -0.122573 -0.056428 -0.182688 -1.438565
    26 1.569654 0.049780 0.000001 0.000000 -1.497495 -0.010472
    27 1.096338 0.003407 0.000000 0.000000 -1.214749 0.005236
    28 0.956485 -1.335291 -0.122573 0.000000 -0.267035 -1.445133
    29 1.346260 0.018204 0.000000 -0.002732 -0.612611 -0.000934
    30 0.874448 -0.001050 -0.000001 0.000000 -1.392772 0.000000
    31 -0.017482 -0.437063 0.000000 0.000000 0.000000 0.000000
    32 0.472028 0.192308 0.472822 0.405828 -0.505061 -1.219110
    33 1.857547 0.010603 0.000001 0.000000 0.000000 -0.530121
    34 0.996041 -0.010017 0.000000 0.000000 0.000000 -1.006058
    35 1.137759 -1.867485 -0.137081 0.000000 0.112991 -1.523672
    36 1.365642 0.014869 0.000000 -0.000779 -0.411161 -0.002767
    37 0.938013 -0.005664 0.000000 0.000000 -0.764487 0.010472
    38 0.409682 -2.071857 -0.137081 0.069773 -0.351265 -1.755376
    39 1.470906 0.007359 0.000000 0.000000 -1.917129 0.010472
    40 1.152100 0.010338 -0.000001 0.000000 -1.292773 0.005236
    41 -0.292847 -1.816392 -0.137081 0.018352 -0.306208 -1.726187
    42 1.511617 -0.004263 0.000001 0.000000 -1.818713 0.036652
    43 1.099637 -0.010806 0.000000 0.000000 -1.337668 0.010472
    44 -0.957058 -1.356555 -0.137080 0.000000 -0.335372 -1.685988
    45 1.351390 -0.010799 -0.000001 0.000000 -0.902268 0.005229
    46 0.859052 0.017735 -0.000001 0.000000 -1.596505 -0.010472
  time 20
    0 -9.025265 0.720215 -6.385773 1.249967 1.830567 1.458689
    1 0.026864 -9.077094 0.000000 -0.038771 -0.208816 0.242715
    2 0.231207 -3.555964 0.741274 0.080108 -1.549641 -0.151662
    3 0.000000 2.233213 0.719424 0.000000 0.000000 0.000000
    4 0.000000 -1.663670 1.258993 0.000000 0.000000 0.000000
    5 0.000000 -2.967625 1.273980 0.000000 0.000000 0.000000
    6 0.000000 -1.019184 1.678656 0.000000 0.000000 0.000000
    7 0.000000 -1.558753 2.323140 0.000000 0.000000 0.000000
    8 10.202017 -0.218487 -7.743757 0.967526 -2.033405 -1.249076
    9 -0.244755 -8.933564 0.000000 0.356288 0.449386 -0.619851
    10 -0.397212 -3.594002 0.679843 0.360045 1.511651 0.436940
    11 -0.000001 2.323140 0.854316 0.000000 0.000000 0.000000
    12 0.000001 -1.064149 1.708633 0.000000 0.000000 0.000000
    13 0.000001 -1.693644 1.258993 0.000000 0.000000 0.000000
    14 0.000001 -2.997601 1.229017 0.000000 0.000000 0.000000
    15 0.000000 -1.258993 2.323142 0.000000 0.000000 0.000000
    16 0.000000 -0.456721 0.000000 0.000000 0.000000 0.000000
    17 -0.421910 0.233313 0.477535 -0.212797 -0.375551 -2.091539
    18 1.827484 -0.104693 -0.000001 0.000000 0.000000 0.523599
    19 -1.090122 -1.829638 -0.122573 0.000000 0.000000 -1.638864
    20 1.390341 -0.000583 0.000000 0.001091 -0.481727 0.001641
    21 0.964939 -0.010943 -0.000001 0.000000 -0.670206 0.000000
    22 -0.348493 -1.994085 -0.122573 -0.078961 -0.260133 -1.437435
    23 1.546317 0.004627 0.000000 0.000000 -1.623155 0.000000
    24 1.135737 0.008475 0.000001 0.000000 -1.110029 0.020944
    25 0.310263 -1.738958 -0.122573 -0.056428 -0.182688 -1.438565
    26 1.569654 0.049780 0.000001 0.000000 -1.497495 -0.010472
    27 1.096338 0.003407 0.000000 0.000000 -1.214749 0.005236
    28 0.956485 -1.335291 -0.122573 0.000000 -0.267035 -1.445133
    29 1.346260 0.018204 0.000000 -0.002732 -0.612611 -0.000934
    30 0.874448 -0.001050 -0.000001 0.000000 -1.392772 0.000000
    31 -0.017482 -0.437063 0.000000 0.000000 0.000000 0.000000
    32 0.472028 0.192308 0.472822 0.414702 -0.505332 -1.232967
    33 1.857547 0.010603 0.000001 0.000000 0.000000 -0.536148
    34 0.996041 -0.010017 0.000000 0.000000 0.000000 -1.017998
    35 1.137759 -1.867485 -0.137081 0.000000 0.126351 -1.523672
    36 1.365642 0.014869 0.000000 -0.000791 -0.413900 -0.002767
    37 0.938013 -0.005664 0.000000 0.000000 -0.776758 0.010472
    38 0.409682 -2.071857 -0.137081 0.069917 -0.356989 -1.755820
    39 1.470906 0.007359 0.000000 0.000000 -1.941310 0.010472
    40 1.152100 0.010338 -0.000001 0.000000 -1.308385 0.005236
    41 -0.292847 -1.816392 -0.137081 0.018387 -0.312815 -1.726331
    42 1.511617 -0.004263 0.000001 0.000000 -1.840860 0.036652
    43 1.099637 -0.010806 0.000000 0.000000 -1.354369 0.010472
    44 -0.957058 -1.356555 -0.137080 0.000000 -0.343432 -1.685988
    45 1.351390 -0.010799 -0.000001 0.000000 -0.914218 0.005229
    46 0.859052 0.017735 -0.000001 0.000000 -1.614612 -0.010472
  time 21
    0 -9.021359 0.923346 -6.459994 -1.500674 1.261739 -1.313412
    1 0.026864 -9.077094 0.000000 0.173184 -0.307983 0.182463
    2 0.231207 -3.555964 0.741274 0.080108 -1.549641 -0.151662
    3 0.000000 2.233213 0.719424 0.000000 0.000000 0.000000
    4 0.000000 -1.663670 1.258993 0.000000 0.000000 0.000000
    5 0.000000 -2.967625 1.273980 0.000000 0.000000 0.000000
    6 0.000000 -1.019184 1.678656 0.000000 0.000000 0.000000
    7 0.000000 -1.558753 2.323140 0.000000 0.000000 0.000000
    8 10.131703 -0.195049 -7.646098 0.975102 -2.023858 -1.261484
    9 -0.244755 -8.933564 0.000000 0.388918 0.450131 -0.587686
    10 -0.397212 -3.594002 0.679843 0.360045 1.511651 0.436940
    11 -0.000001 2.323140 0.854316 0.000000 0.000000 0.000000
    12 0.000001 -1.064149 1.708633 0.000000 0.000000 0.000000
    13 0.000001 -1.693644 1.258993 0.000000 0.000000 0.000000
    14 0.000001 -2.997601 1.229017 0.000000 0.000000 0.000000
    15 0.000000 -1.258993 2.323142 0.000000 0.000000 0.000000
    16 0.000000 -0.456721 0.000000 0.000000 0.000000 0.000000
    17 -0.421910 0.233313 0.477535 -0.212797 -0.375551 -2.091539
    18 1.827484 -0.104693 -0.000001 0.000000 0.000000 0.523599
    19 -1.090122 -1.829638 -0.122573 0.000000 0.000000 -1.638864
    20 1.390341 -0.000583 0.000000 0.001091 -0.481727 0.001641
    21 0.964939 -0.010943 -0.000001 0.000000 -0.670206 0.000000
    22 -0.348493 -1.994085 -0.122573 -0.078961 -0.260133 -1.437435
    23 1.546317 0.004627 0.000000 0.000000 -1.623155 0.000000
    24 1.135737 0.008475 0.000001 0.000000 -1.110029 0.020944
    25 0.310263 -1.738958 -0.122573 -0.056428 -0.182688 -1.438565
    26 1.569654 0.049780 0.000001 0.000000 -1.497495 -0.010472
    27 1.096338 0.003407 0.000000 0.000000 -1.214749 0.005236
    28 0.956485 -1.335291 -0.122573 0.000000 -0.267035 -1.445133
    29 1.346260 0.018204 0.000000 -0.002732 -0.612611 -0.000934
    30 0.874448 -0.001050 -0.000001 0.000000 -1.392772 0.000000
    31 -0.017482 -0.437063 0.000000 0.000000 0.000000 0.000000
    32 0.472028 0.192308 0.472822 0.414778 -0.505332 -1.233087
    33 1.857547 0.010603 0.000001 0.000000 0.000000 -0.536194
    34 0.996041 -0.010017 0.000000 0.000000 0.000000 -1.018059
    35 1.137759 -1.867485 -0.137081 0.000000 0.126455 -1.523672
    36 1.365642 0.014869 0.000000 -0.000791 -0.413939 -0.002767
    37 0.938013 -0.005664 0.000000 0.000000 -0.776853 0.010472
    38 0.409682 -2.071857 -0.137081 0.069917 -0.357033 -1.755820
    39 1.470906 0.007359 0.000000 0.000000 -1.941497 0.010472
    40 1.152100 0.010338 -0.000001 0.000000 -1.308506 0.005236
    41 -0.292847 -1.816392 -0.137081 0.018387 -0.312866 -1.726331
    42 1.511617 -0.004263 0.000001 0.000000 -1.841031 0.036652
    43 1.099637 -0.010806 0.000000 0.000000 -1.354498 0.010472
    44 -0.957058 -1.356555 -0.137080 0.000000 -0.343494 -1.685988
    45 1.351390 -0.010799 -0.000001 0.000000 -0.914342 0.005229
    46 0.859052 0.017735 -0.000001 0.000000 -1.614799 -0.010472
  time 22
    0 -9.021359 1.052256 -6.510777 -1.359343 1.222420 -1.171886
    1 0.026864 -9.077094 0.000000 0.366348 -0.373176 0.130921
    2 0.231207 -3.555964 0.741274 0.080108 -1.549641 -0.151662
    3 0.000000 2.233213 0.719424 0.000000 0.000000 0.000000
    4 0.000000 -1.663670 1.258993 0.000000 0.000000 0.000000
    5 0.000000 -2.967625 1.273980 0.000000 0.000000 0.000000
    6 0.000000 -1.019184 1.678656 0.000000 0.000000 0.000000
    7 0.000000 -1.558753 2.323140 0.000000 0.000000 0.000000
    8 10.049669 -0.163798 -7.528907 0.989283 -2.003693 -1.285536
    9 -0.244755 -8.933564 0.000000 0.401294 0.443581 -0.557541
    10 -0.397212 -3.594002 0.679843 0.360045 1.511651 0.436940
    11 -0.000001 2.323140 0.854316 0.000000 0.000000 0.000000
    12 0.000001 -1.064149 1.708633 0.000000 0.000000 0.000000
    13 0.000001 -1.693644 1.258993 0.000000 0.000000 0.000000
    14 0.000001 -2.997601 1.229017 0.000000 0.000000 0.000000
    15 0.000000 -1.258993 2.323142 0.000000 0.000000 0.000000
    16 0.000000 -0.456721 0.000000 0.000000 0.000000 0.000000
    17 -0.421910 0.233313 0.477535 -0.212797 -0.375551 -2.091539
    18 1.827484 -0.104693 -0.000001 0.000000 0.000000 0.523599
    19 -1.090122 -1.829638 -0.122573 0.000000 0.000000 -1.638864
    20 1.390341 -0.000583 0.000000 0.001091 -0.481727 0.001641
    21 0.964939 -0.010943 -0.000001 0.000000 -0.670206 0.000000
    22 -0.348493 -1.994085 -0.122573 -0.078961 -0.260133 -1.437435
    23 1.546317 0.004627 0.000000 0.000000 -1.623155 0.000000
    24 1.135737 0.008475 0.000001 0.000000 -1.110029 0.020944
    25 0.310263 -1.738958 -0.122573 -0.056428 -0.182688 -1.438565
    26 1.569654 0.049780 0.000001 0.000000 -1.497495 -0.010472
    27 1.096338 0.003407 0.000000 0.000000 -1.214749 0.005236
    28 0.956485 -1.335291 -0.122573 0.000000 -0.267035 -1.445133
    29 1.346260 0.018204 0.000000 -0.002732 -0.612611 -0.000934
    30 0.874448 -0.001050 -0.000001 0.000000 -1.392772 0.000000
    31 -0.017482 -0.437063 0.000000 0.000000 0.000000 0.000000
    32 0.472028 0.192308 0.472822 0.407704 -0.505139 -1.222056
    33 1.857547 0.010603 0.000001 0.000000 0.000000 -0.531410
    34 0.996041 -0.010017 0.000000 0.000000 0.000000 -1.008637
    35 1.137759 -1.867485 -0.137081 0.000000 0.115849 -1.523672
    36 1.365642 0.014869 0.000000 -0.000779 -0.411750 -0.002767
    37 0.938013 -0.005664 0.000000 0.000000 -0.767112 0.010472
    38 0.409682 -2.071857 -0.137081 0.069809 -0.352489 -1.755472
    39 1.470906 0.007359 0.000000 0.000000 -1.922302 0.010472
    40 1.152100 0.010338 -0.000001 0.000000 -1.296113 0.005236
    41 -0.292847 -1.816392 -0.137081 0.018363 -0.307622 -1.726211
    42 1.511617 -0.004263 0.000001 0.000000 -1.823450 0.036652
    43 1.099637 -0.010806 0.000000 0.000000 -1.341240 0.010472
    44 -0.957058 -1.356555 -0.137080 0.000000 -0.337096 -1.685988
    45 1.351390 -0.010799 -0.000001 0.000000 -0.904831 0.005229
    46 0.859052 0.017735 -0.000001 0.000000 -1.600388 -0.010472
  time 23
    0 -9.021359 1.110852 -6.538122 -1.350708 1.217135 -1.154874
    1 0.026864 -9.077094 0.000000 0.456477 -0.395467 0.115342
    2 0.231207 -3.555964 0.741274 0.080108 -1.549641 -0.151662
    3 0.000000 2.233213 0.719424 0.000000 0.000000 0.000000
    4 0.000000 -1.663670 1.258993 0.000000 0.000000 0.000000
    5 0.000000 -2.967625 1.273980 0.000000 0.000000 0.000000
    6 0.000000 -1.019184 1.678656 0.000000 0.000000 0.000000
    7 0.000000 -1.558753 2.323140 0.000000 0.000000 0.000000
    8 9.955916 -0.128640 -7.392184 0.998355 -1.985759 -1.303194
    9 -0.244755 -8.933564 0.000000 0.396941 0.431523 -0.528406
    10 -0.397212 -3.594002 0.679843 0.360045 1.511651 0.436940
    11 -0.000001 2.323140 0.854316 0.000000 0.000000 0.000000
    12 0.000001 -1.064149 1.708633 0.000000 0.000000 0.000000
    13 0.000001 -1.693644 1.258993 0.000000 0.000000 0.000000
    14 0.000001 -2.997601 1.229017 0.000000 0.000000 0.000000
    15 0.000000 -1.258993 2.323142 0.000000 0.000000 0.000000
    16 0.000000 -0.456721 0.000000 0.000000 0.000000 0.000000
    17 -0.421910 0.233313 0.477535 -0.212797 -0.375551 -2.091539
    18 1.827484 -0.104693 -0.000001 0.000000 0.000000 0.523599
    19 -1.090122 -1.829638 -0.122573 0.000000 0.000000 -1.638864
    20 1.390341 -0.000583 0.000000 0.001091 -0.481727 0.001641
    21 0.964939 -0.010943 -0.000001 0.000000 -0.670206 0.000000
    22 -0.348493 -1.994085 -0.122573 -0.078961 -0.260133 -1.437435
    23 1.546317 0.004627 0.000000 0.000000 -1.623155 0.000000
    24 1.135737 0.008475 0.000001 0.000000 -1.110029 0.020944
    25 0.310263 -1.738958 -0.122573 -0.056428 -0.182688 -1.438565
    26 1.569654 0.049780 0.000001 0.000000 -1.497495 -0.010472
    27 1.096338 0.003407 0.000000 0.000000 -1.214749 0.005236
    28 0.956485 -1.335291 -0.122573 0.000000 -0.267035 -1.445133
    29 1.346260 0.018204 0.000000 -0.002732 -0.612611 -0.000934
    30 0.874448 -0.001050 -0.000001 0.000000 -1.392772 0.000000
    31 -0.017482 -0.437063 0.000000 0.000000 0.000000 0.000000
    32 0.472028 0.192308 0.472822 0.395201 -0.504623 -1.202518
    33 1.857547 0.010603 0.000001 0.000000 0.000000 -0.522914
    34 0.996041 -0.010017 0.000000 0.000000 0.000000 -0.991848
    35 1.137759 -1.867485 -0.137081 0.000000 0.097014 -1.523672
    36 1.365642 0.014869 0.000000 -0.000755 -0.407858 -0.002767
    37 0.938013 -0.005664 0.000000 0.000000 -0.749812 0.010472
    38 0.409682 -2.071857 -0.137081 0.069593 -0.344420 -1.754873
    39 1.470906 0.007359 0.000000 0.000000 -1.888212 0.010472
    40 1.152100 0.010338 -0.000001 0.000000 -1.274104 0.005236
    41 -0.292847 -1.816392 -0.137081 0.018316 -0.298308 -1.726031
    42 1.511617 -0.004263 0.000001 0.000000 -1.792228 0.036652
    43 1.099637 -0.010806 0.000000 0.000000 -1.317696 0.010472
    44 -0.957058 -1.356555 -0.137080 0.000000 -0.325733 -1.685988
    45 1.351390 -0.010799 -0.000001 0.000000 -0.887909 0.005229
    46 0.859052 0.017735 -0.000001 0.000048 -1.574748 -0.010520
  time 24
    0 -9.021359 1.138197 -6.553747 -1.357046 1.214135 -1.144829
    1 0.026864 -9.077094 0.000000 0.468780 -0.400234 0.125440
    2 0.231207 -3.555964 0.741274 0.080108 -1.549641 -0.151662
    3 0.000000 2.233213 0.719424 0.000000 0.000000 0.000000
    4 0.000000 -1.663670 1.258993 0.000000 0.000000 0.000000
    5 0.000000 -2.967625 1.273980 0.000000 0.000000 0.000000
    6 0.000000 -1.019184 1.678656 0.000000 0.000000 0.000000
    7 0.000000 -1.558753 2.323140 0.000000 0.000000 0.000000
    8 9.854351 -0.089577 -7.239835 1.002055 -1.969610 -1.314265
    9 -0.244755 -8.933564 0.000000 0.379564 0.415495 -0.499044
    10 -0.397212 -3.594002 0.679843 0.360045 1.511651 0.436940
    11 -0.000001 2.323140 0.854316 0.000000 0.000000 0.000000
    12 0.000001 -1.064149 1.708633 0.000000 0.000000 0.000000
    13 0.000001 -1.693644 1.258993 0.000000 0.000000 0.000000
    14 0.000001 -2.997601 1.229017 0.000000 0.000000 0.000000
    15 0.000000 -1.258993 2.323142 0.000000 0.000000 0.000000
    16 0.000000 -0.456721 0.000000 0.000000 0.000000 0.000000
    17 -0.421910 0.233313 0.477535 -0.212797 -0.375551 -2.091539
    18 1.827484 -0.104693 -0.000001 0.000000 0.000000 0.523599
    19 -1.090122 -1.829638 -0.122573 0.000000 0.000000 -1.638864
    20 1.390341 -0.000583 0.000000 0.001091 -0.481727 0.001641
    21 0.964939 -0.010943 -0.000001 0.000000 -0.670206 0.000000
    22 -0.348493 -1.994085 -0.122573 -0.078961 -0.260133 -1.437435
    23 1.546317 0.004627 0.000000 0.000000 -1.623155 0.000000
    24 1.135737 0.008475 0.000001 0.000000 -1.110029 0.020944
    25 0.310263 -1.738958 -0.122573 -0.056428 -0.182688 -1.438565
    26 1.569654 0.049780 0.000001 0.000000 -1.497495 -0.010472
    27 1.096338 0.003407 0.000000 0.000000 -1.214749 0.005236
    28 0.956485 -1.335291 -0.122573 0.000000 -0.267035 -1.445133
    29 1.346260 0.018204 0.000000 -0.002732 -0.612611 -0.000934
    30 0.874448 -0.001050 -0.000001 0.000000 -1.392772 0.000000
    31 -0.017482 -0.437063 0.000000 0.000000 0.000000 0.000000
    32 0.472028 0.192308 0.472822 0.378946 -0.503657 -1.177089
    33 1.857547 0.010603 0.000001 0.000000 0.000000 -0.511870
    34 0.996041 -0.010017 0.000000 0.000000 0.000000 -0.969994
    35 1.137759 -1.867485 -0.137081 0.000000 0.072531 -1.523672
    36 1.365642 0.014869 0.000000 -0.000743 -0.402801 -0.002779
    37 0.938013 -0.005664 0.000000 0.000000 -0.727324 0.010472
    38 0.409682 -2.071857 -0.137081 0.069342 -0.333931 -1.754106
    39 1.470906 0.007359 0.000000 0.000000 -1.843901 0.010472
    40 1.152100 0.010338 -0.000001 0.000000 -1.245496 0.005236
    41 -0.292847 -1.816392 -0.137081 0.018256 -0.286201 -1.725816
    42 1.511617 -0.004263 0.000001 0.000000 -1.751644 0.036652
    43 1.099637 -0.010806 0.000000 0.000000 -1.287092 0.010472
    44 -0.957058 -1.356555 -0.137080 0.000000 -0.310963 -1.685988
    45 1.351390 -0.010799 -0.000001 0.000000 -0.865984 0.005229
    46 0.859052 0.017735 -0.000001 0.000000 -1.541529 -0.010472
  time 25
    0 -9.021359 1.138197 -6.553747 -1.391428 1.220046 -1.162894
    1 0.026864 -9.077094 0.000000 0.403364 -0.386650 0.160202
    2 0.231207 -3.555964 0.741274 0.080108 -1.549641 -0.151662
    3 0.000000 2.233213 0.719424 0.000000 0.000000 0.000000
    4 0.000000 -1.663670 1.258993 0.000000 0.000000 0.000000
    5 0.000000 -2.967625 1.273980 0.000000 0.000000 0.000000
    6 0.000000 -1.019184 1.678656 0.000000 0.000000 0.000000
    7 0.000000 -1.558753 2.323140 0.000000 0.000000 0.000000
    8 9.741066 -0.042700 -7.064049 1.000998 -1.954486 -1.319801
    9 -0.244755 -8.933564 0.000000 0.352870 0.396738 -0.468016
    10 -0.397212 -3.594002 0.679843 0.360045 1.511651 0.436940
    11 -0.000001 2.323140 0.854316 0.000000 0.000000 0.000000
    12 0.000001 -1.064149 1.708633 0.000000 0.000000 0.000000
    13 0.000001 -1.693644 1.258993 0.000000 0.000000 0.000000
    14 0.000001 -2.997601 1.229017 0.000000 0.000000 0.000000
    15 0.000000 -1.258993 2.323142 0.000000 0.000000 0.000000
    16 0.000000 -0.456721 0.000000 0.000000 0.000000 0.000000
    17 -0.421910 0.233313 0.477535 -0.212797 -0.375551 -2.091539
    18 1.827484 -0.104693 -0.000001 0.000000 0.000000 0.523599
    19 -1.090122 -1.829638 -0.122573 0.000000 0.000000 -1.638864
    20 1.390341 -0.000583 0.000000 0.001091 -0.481727 0.001641
    21 0.964939 -0.010943 -0.000001 0.000000 -0.670206 0.000000
    22 -0.348493 -1.994085 -0.122573 -0.078961 -0.260133 -1.437435
    23 1.546317 0.004627 0.000000 0.000000 -1.623155 0.000000
    24 1.135737 0.008475 0.000001 0.000000 -1.110029 0.020944
    25 0.310263 -1.738958 -0.122573 -0.056428 -0.182688 -1.438565
    26 1.569654 0.049780 0.000001 0.000000 -1.497495 -0.010472
    27 1.096338 0.003407 0.000000 0.000000 -1.214749 0.005236
    28 0.956485 -1.335291 -0.122573 0.000000 -0.267035 -1.445133
    29 1.346260 0.018204 0.000000 -0.002732 -0.612611 -0.000934
    30 0.874448 -0.001050 -0.000001 0.000000 -1.392772 0.000000
    31 -0.017482 -0.437063 0.000000 0.000000 0.000000 0.000000
    32 0.472028 0.192308 0.472822 0.360660 -0.502099 -1.148413
    33 1.857547 0.010603 0.000001 0.000000 0.000000 -0.499396
    34 0.996041 -0.010017 0.000000 0.000000 0.000000 -0.945379
    35 1.137759 -1.867485 -0.137081 0.000000 0.044881 -1.523672
    36 1.365642 0.014869 0.000000 -0.000731 -0.397091 -0.002779
    37 0.938013 -0.005664 0.000000 0.000000 -0.701927 0.010472
    38 0.409682 -2.071857 -0.137081 0.069066 -0.322085 -1.753231
    39 1.470906 0.007359 0.000000 0.000000 -1.793857 0.010472
    40 1.152100 0.010338 -0.000001 0.000000 -1.213186 0.005236
    41 -0.292847 -1.816392 -0.137081 0.018184 -0.272528 -1.725552
    42 1.511617 -0.004263 0.000001 0.000000 -1.705809 0.036652
    43 1.099637 -0.010806 0.000000 0.000000 -1.252528 0.010472
    44 -0.957058 -1.356555 -0.137080 0.000000 -0.294282 -1.685988
    45 1.351390 -0.010799 -0.000001 0.000000 -0.841156 0.005229
    46 0.859052 0.017735 -0.000001 0.000000 -1.503911 -0.010472
  time 26
    0 -9.021359 1.110852 -6.538122 -1.453062 1.232854 -1.207693
    1 0.026864 -9.077094 0.000000 0.311959 -0.363670 0.204537
    2 0.231207 -3.555964 0.741274 0.080108 -1.549641 -0.151662
    3 0.000000 2.233213 0.719424 0.000000 0.000000 0.000000
    4 0.000000 -1.663670 1.258993 0.000000 0.000000 0.000000
    5 0.000000 -2.967625 1.273980 0.000000 0.000000 0.000000
    6 0.000000 -1.019184 1.678656 0.000000 0.000000 0.000000
    7 0.000000 -1.558753 2.323140 0.000000 0.000000 0.000000
    8 9.619968 0.004176 -6.872637 0.995713 -1.939585 -1.320851
    9 -0.244755 -8.933564 0.000000 0.320672 0.376542 -0.434058
    10 -0.397212 -3.594002 0.679843 0.360045 1.511651 0.436940
    11 -0.000001 2.323140 0.854316 0.000000 0.000000 0.000000
    12 0.000001 -1.064149 1.708633 0.000000 0.000000 0.000000
    13 0.000001 -1.693644 1.258993 0.000000 0.000000 0.000000
    14 0.000001 -2.997601 1.229017 0.000000 0.000000 0.000000
    15 0.000000 -1.258993 2.323142 0.000000 0.000000 0.000000
    16 0.000000 -0.456721 0.000000 0.000000 0.000000 0.000000
    17 -0.421910 0.233313 0.477535 -0.212797 -0.375551 -2.091539
    18 1.827484 -0.104693 -0.000001 0.000000 0.000000 0.523599
    19 -1.090122 -1.829638 -0.122573 0.000000 0.000000 -1.638864
    20 1.390341 -0.000583 0.000000 0.001091 -0.481727 0.001641
    21 0.964939 -0.010943 -0.000001 0.000000 -0.670206 0.000000
    22 -0.348493 -1.994085 -0.122573 -0.078961 -0.260133 -1.437435
    23 1.546317 0.004627 0.000000 0.000000 -1.623155 0.000000
    24 1.135737 0.008475 0.000001 0.000000 -1.110029 0.020944
    25 0.310263 -1.738958 -0.122573 -0.056428 -0.182688 -1.438565
    26 1.569654 0.049780 0.000001 0.000000 -1.497495 -0.010472
    27 1.096338 0.003407 0.000000 0.000000 -1.214749 0.005236
    28 0.956485 -1.335291 -0.122573 0.000000 -0.267035 -1.445133
    29 1.346260 0.018204 0.000000 -0.002732 -0.612611 -0.000934
    30 0.874448 -0.001050 -0.000001 0.000000 -1.392772 0.000000
    31 -0.017482 -0.437063 0.000000 0.000000 0.000000 0.000000
    32 0.472028 0.192308 0.472822 0.342037 -0.500051 -1.119197
    33 1.857547 0.010603 0.000001 0.000000 0.000000 -0.486644
    34 0.996041 -0.010017 0.000000 0.000000 0.000000 -0.920118
    35 1.137759 -1.867485 -0.137081 0.000000 0.016576 -1.523672
    36 1.365642 0.014869 0.000000 -0.000719 -0.391253 -0.002791
    37 0.938013 -0.005664 0.000000 0.000000 -0.675930 0.010472
    38 0.409682 -2.071857 -0.137081 0.068778 -0.309974 -1.752344
    39 1.470906 0.007359 0.000000 0.000000 -1.742628 0.010472
    40 1.152100 0.010338 -0.000001 0.000000 -1.180111 0.005236
    41 -0.292847 -1.816392 -0.137081 0.018112 -0.258531 -1.725276
    42 1.511617 -0.004263 0.000001 0.000000 -1.658890 0.036652
    43 1.099637 -0.010806 0.000000 0.000000 -1.217146 0.010472
    44 -0.957058 -1.356555 -0.137080 0.000000 -0.277207 -1.685988
    45 1.351390 -0.010799 -0.000001 0.000000 -0.815804 0.005229
    46 0.859052 0.017735 -0.000001 0.000000 -1.465452 -0.010472
  time 27
    0 -9.021359 1.052256 -6.510777 -1.543453 1.249827 -1.280279
    1 0.026864 -9.077094 0.000000 0.244132 -0.344244 0.246469
    2 0.231207 -3.555964 0.741274 0.080108 -1.549641 -0.151662
    3 0.000000 2.233213 0.719424 0.000000 0.000000 0.000000
    4 0.000000 -1.663670 1.258993 0.000000 0.000000 0.000000
    5 0.000000 -2.967625 1.273980 0.000000 0.000000 0.000000
    6 0.000000 -1.019184 1.678656 0.000000 0.000000 0.000000
    7 0.000000 -1.558753 2.323140 0.000000 0.000000 0.000000
    8 9.487152 0.058865 -6.665599 0.987169 -1.924328 -1.318465
    9 -0.244755 -8.933564 0.000000 0.286566 0.355924 -0.396087
    10 -0.397212 -3.594002 0.679843 0.360045 1.511651 0.436940
    11 -0.000001 2.323140 0.854316 0.000000 0.000000 0.000000
    12 0.000001 -1.064149 1.708633 0.000000 0.000000 0.000000
    13 0.000001 -1.693644 1.258993 0.000000 0.000000 0.000000
    14 0.000001 -2.997601 1.229017 0.000000 0.000000 0.000000
    15 0.000000 -1.258993 2.323142 0.000000 0.000000 0.000000
    16 0.000000 -0.456721 0.000000 0.000000 0.000000 0.000000
    17 -0.421910 0.233313 0.477535 -0.212797 -0.375551 -2.091539
    18 1.827484 -0.104693 -0.000001 0.000000 0.000000 0.523599
    19 -1.090122 -1.829638 -0.122573 0.000000 0.000000 -1.638864
    20 1.390341 -0.000583 0.000000 0.001091 -0.481727 0.001641
    21 0.964939 -0.010943 -0.000001 0.000000 -0.670206 0.000000
    22 -0.348493 -1.994085 -0.122573 -0.078961 -0.260133 -1.437435
    23 1.546317 0.004627 0.000000 0.000000 -1.623155 0.000000
    24 1.135737 0.008475 0.000001 0.000000 -1.110029 0.020944
    25 0.310263 -1.738958 -0.122573 -0.056428 -0.182688 -1.438565
    26 1.569654 0.049780 0.000001 0.000000 -1.497495 -0.010472
    27 1.096338 0.003407 0.000000 0.000000 -1.214749 0.005236
    28 0.956485 -1.335291 -0.122573 0.000000 -0.267035 -1.445133
    29 1.346260 0.018204 0.000000 -0.002732 -0.612611 -0.000934
    30 0.874448 -0.001050 -0.000001 0.000000 -1.392772 0.000000
    31 -0.017482 -0.437063 0.000000 0.000000 0.000000 0.000000
    32 0.472028 0.192308 0.472822 0.324736 -0.497707 -1.091964
    33 1.857547 0.010603 0.000001 0.000000 0.000000 -0.474730
    34 0.996041 -0.010017 0.000000 0.000000 0.000000 -0.896608
    35 1.137759 -1.867485 -0.137081 0.000000 -0.009800 -1.523672
    36 1.365642 0.014869 0.000000 -0.000695 -0.385786 -0.002791
    37 0.938013 -0.005664 0.000000 0.000000 -0.651703 0.010472
    38 0.409682 -2.071857 -0.137081 0.068551 -0.298674 -1.751529
    39 1.470906 0.007359 0.000000 0.000000 -1.694890 0.010472
    40 1.152100 0.010338 -0.000001 0.000000 -1.149290 0.005236
    41 -0.292847 -1.816392 -0.137081 0.018052 -0.245488 -1.725049
    42 1.511617 -0.004263 0.000001 -0.000012 -1.615167 0.036664
    43 1.099637 -0.010806 0.000000 0.000000 -1.184175 0.010472
    44 -0.957058 -1.356555 -0.137080 0.000000 -0.261295 -1.685988
    45 1.351390 -0.010799 -0.000001 0.000000 -0.792150 0.005229
    46 0.859052 0.017735 -0.000001 0.000000 -1.429659 -0.010472
  time 28
    0 -9.021359 0.970223 -6.471713 -1.664741 1.267829 -1.382352
    1 0.026864 -9.077094 0.000000 0.244132 -0.344244 0.246469
    2 0.231207 -3.555964 0.741274 0.080108 -1.549641 -0.151662
    3 0.000000 2.233213 0.719424 0.000000 0.000000 0.000000
    4 0.000000 -1.663670 1.258993 0.000000 0.000000 0.000000
    5 0.000000 -2.967625 1.273980 0.000000 0.000000 0.000000
    6 0.000000 -1.019184 1.678656 0.000000 0.000000 0.000000
    7 0.000000 -1.558753 2.323140 0.000000 0.000000 0.000000
    8 9.342616 0.117461 -6.435123 0.976335 -1.907911 -1.314265
    9 -0.244755 -8.933564 0.000000 0.254224 0.335827 -0.353167
    10 -0.397212 -3.594002 0.679843 0.360045 1.511651 0.436940
    11 -0.000001 2.323140 0.854316 0.000000 0.000000 0.000000
    12 0.000001 -1.064149 1.708633 0.000000 0.000000 0.000000
    13 0.000001 -1.693644 1.258993 0.000000 0.000000 0.000000
    14 0.000001 -2.997601 1.229017 0.000000 0.000000 0.000000
    15 0.000000 -1.258993 2.323142 0.000000 0.000000 0.000000
    16 0.000000 -0.456721 0.000000 0.000000 0.000000 0.000000
    17 -0.421910 0.233313 0.477535 -0.212797 -0.375551 -2.091539
    18 1.827484 -0.104693 -0.000001 0.000000 0.000000 0.523599
    19 -1.090122 -1.829638 -0.122573 0.000000 0.000000 -1.638864
    20 1.390341 -0.000583 0.000000 0.001091 -0.481727 0.001641
    21 0.964939 -0.010943 -0.000001 0.000000 -0.670206 0.000000
    22 -0.348493 -1.994085 -0.122573 -0.078961 -0.260133 -1.437435
    23 1.546317 0.004627 0.000000 0.000000 -1.623155 0.000000
    24 1.135737 0.008475 0.000001 0.000000 -1.110029 0.020944
    25 0.310263 -1.738958 -0.122573 -0.056428 -0.182688 -1.438565
    26 1.569654 0.049780 0.000001 0.000000 -1.497495 -0.010472
    27 1.096338 0.003407 0.000000 0.000000 -1.214749 0.005236
    28 0.956485 -1.335291 -0.122573 0.000000 -0.267035 -1.445133
    29 1.346260 0.018204 0.000000 -0.002732 -0.612611 -0.000934
    30 0.874448 -0.001050 -0.000001 0.000000 -1.392772 0.000000
    31 -0.017482 -0.437063 0.000000 0.000000 0.000000 0.000000
    32 0.472028 0.192308 0.472822 0.310418 -0.495454 -1.069421
    33 1.857547 0.010603 0.000001 0.000000 0.000000 -0.464820
    34 0.996041 -0.010017 0.000000 0.000000 0.000000 -0.877026
    35 1.137759 -1.867485 -0.137081 0.000000 -0.031769 -1.523672
    36 1.365642 0.014869 0.000000 -0.000683 -0.381241 -0.002803
    37 0.938013 -0.005664 0.000000 0.000000 -0.631524 0.010472
    38 0.409682 -2.071857 -0.137081 0.068347 -0.289262 -1.750858
    39 1.470906 0.007359 0.000000 0.000000 -1.655129 0.010472
    40 1.152100 0.010338 -0.000001 0.000000 -1.123619 0.005236
    41 -0.292847 -1.816392 -0.137081 0.018004 -0.234625 -1.724845
    42 1.511617 -0.004263 0.000001 -0.000072 -1.578751 0.036724
    43 1.099637 -0.010806 0.000000 0.000000 -1.156713 0.010472
    44 -0.957058 -1.356555 -0.137080 0.000000 -0.248041 -1.685988
    45 1.351390 -0.010799 -0.000001 0.000000 -0.772417 0.005229
    46 0.859052 0.017735 -0.000001 0.000000 -1.399761 -0.010472
  time 29
    0 -9.021359 0.856938 -6.417024 -1.817479 1.283279 -1.513670
    1 0.026864 -9.077094 0.000000 0.244132 -0.344244 0.246469
    2 0.231207 -3.555964 0.741274 0.080108 -1.549641 -0.151662
    3 0.000000 2.233213 0.719424 0.000000 0.000000 0.000000
    4 0.000000 -1.663670 1.258993 0.000000 0.000000 0.000000
    5 0.000000 -2.967625 1.273980 0.000000 0.000000 0.000000
    6 0.000000 -1.019184 1.678656 0.000000 0.000000 0.000000
    7 0.000000 -1.558753 2.323140 0.000000 0.000000 0.000000
    8 9.190268 0.179963 -6.189022 0.964179 -1.889664 -1.309589
    9 -0.244755 -8.933564 0.000000 0.227242 0.316946 -0.304567
    10 -0.397212 -3.594002 0.679843 0.360045 1.511651 0.436940
    11 -0.000001 2.323140 0.854316 0.000000 0.000000 0.000000
    12 0.000001 -1.064149 1.708633 0.000000 0.000000 0.000000
    13 0.000001 -1.693644 1.258993 0.000000 0.000000 0.000000
    14 0.000001 -2.997601 1.229017 0.000000 0.000000 0.000000
    15 0.000000 -1.258993 2.323142 0.000000 0.000000 0.000000
    16 0.000000 -0.456721 0.000000 0.000000 0.000000 0.000000
    17 -0.421910 0.233313 0.477535 -0.212797 -0.375551 -2.091539
    18 1.827484 -0.104693 -0.000001 0.000000 0.000000 0.523599
    19 -1.090122 -1.829638 -0.122573 0.000000 0.000000 -1.638864
    20 1.390341 -0.000583 0.000000 0.001091 -0.481727 0.001641
    21 0.964939 -0.010943 -0.000001 0.000000 -0.670206 0.000000
    22 -0.348493 -1.994085 -0.122573 -0.078961 -0.260133 -1.437435
    23 1.546317 0.004627 0.000000 0.000000 -1.623155 0.000000
    24 1.135737 0.008475 0.000001 0.000000 -1.110029 0.020944
    25 0.310263 -1.738958 -0.122573 -0.056428 -0.182688 -1.438565
    26 1.569654 0.049780 0.000001 0.000000 -1.497495 -0.010472
    27 1.096338 0.003407 0.000000 0.000000 -1.214749 0.005236
    28 0.956485 -1.335291 -0.122573 0.000000 -0.267035 -1.445133
    29 1.346260 0.018204 0.000000 -0.002732 -0.612611 -0.000934
    30 0.874448 -0.001050 -0.000001 0.000000 -1.392772 0.000000
    31 -0.017482 -0.437063 0.000000 0.000000 0.000000 0.000000
    32 0.472028 0.192308 0.472822 0.300668 -0.493741 -1.053971
    33 1.857547 0.010603 0.000001 0.000000 0.000000 -0.458032
    34 0.996041 -0.010017 0.000000 0.000000 0.000000 -0.863644
    35 1.137759 -1.867485 -0.137081 0.000000 -0.046816 -1.523672
    36 1.365642 0.014869 0.000000 -0.000683 -0.378143 -0.002803
    37 0.938013 -0.005664 0.000000 0.000000 -0.617671 0.010472
    38 0.409682 -2.071857 -0.137081 0.068215 -0.282800 -1.750415
    39 1.470906 0.007359 0.000000 0.000000 -1.627894 0.010472
    40 1.152100 0.010338 -0.000001 0.000000 -1.105996 0.005236
    41 -0.292847 -1.816392 -0.137081 0.017968 -0.227183 -1.724701
    42 1.511617 -0.004263 0.000001 0.000024 -1.553807 0.036628
    43 1.099637 -0.010806 0.000000 0.000000 -1.137860 0.010472
    44 -0.957058 -1.356555 -0.137080 0.000000 -0.238963 -1.685988
    45 1.351390 -0.010799 -0.000001 0.000000 -0.758954 0.005229
    46 0.859052 0.017735 -0.000001 0.000000 -1.379362 -0.010472
  time 30
    0 -9.021359 0.716309 -6.354522 1.144762 1.848839 1.472704
    1 0.026864 -9.077094 0.000000 0.244132 -0.344244 0.246469
    2 0.231207 -3.555964 0.741274 0.080108 -1.549641 -0.151662
    3 0.000000 2.233213 0.719424 0.000000 0.000000 0.000000
    4 0.000000 -1.663670 1.258993 0.000000 0.000000 0.000000
    5 0.000000 -2.967625 1.273980 0.000000 0.000000 0.000000
    6 0.000000 -1.019184 1.678656 0.000000 0.000000 0.000000
    7 0.000000 -1.558753 2.323140 0.000000 0.000000 0.000000
    8 9.026200 0.250277 -5.923389 0.952200 -1.868830 -1.306152
    9 -0.244755 -8.933564 0.000000 0.209146 0.299578 -0.249756
    10 -0.397212 -3.594002 0.679843 0.360045 1.511651 0.436940
    11 -0.000001 2.323140 0.854316 0.000000 0.000000 0.000000
    12 0.000001 -1.064149 1.708633 0.000000 0.000000 0.000000
    13 0.000001 -1.693644 1.258993 0.000000 0.000000 0.000000
    14 0.000001 -2.997601 1.229017 0.000000 0.000000 0.000000
    15 0.000000 -1.258993 2.323142 0.000000 0.000000 0.000000
    16 0.000000 -0.456721 0.000000 0.000000 0.000000 0.000000
    17 -0.421910 0.233313 0.477535 -0.212797 -0.375551 -2.091539
    18 1.827484 -0.104693 -0.000001 0.000000 0.000000 0.523599
    19 -1.090122 -1.829638 -0.122573 0.000000 0.000000 -1.638864
    20 1.390341 -0.000583 0.000000 0.001091 -0.481727 0.001641
    21 0.964939 -0.010943 -0.000001 0.000000 -0.670206 0.000000
    22 -0.348493 -1.994085 -0.122573 -0.078961 -0.260133 -1.437435
    23 1.546317 0.004627 0.000000 0.000000 -1.623155 0.000000
    24 1.135737 0.008475 0.000001 0.000000 -1.110029 0.020944
    25 0.310263 -1.738958 -0.122573 -0.056428 -0.182688 -1.438565
    26 1.569654 0.049780 0.000001 0.000000 -1.497495 -0.010472
    27 1.096338 0.003407 0.000000 0.000000 -1.214749 0.005236
    28 0.956485 -1.335291 -0.122573 0.000000 -0.267035 -1.445133
    29 1.346260 0.018204 0.000000 -0.002732 -0.612611 -0.000934
    30 0.874448 -0.001050 -0.000001 0.000000 -1.392772 0.000000
    31 -0.017482 -0.437063 0.000000 0.000000 0.000000 0.000000
    32 0.472028 0.192308 0.472822 0.297069 -0.493084 -1.048320
    33 1.857547 0.010603 0.000001 0.000000 0.000000 -0.455531
    34 0.996041 -0.010017 0.000000 0.000000 0.000000 -0.858702
    35 1.137759 -1.867485 -0.137081 0.000000 -0.052360 -1.523672
    36 1.365642 0.014869 0.000000 -0.000671 -0.377004 -0.002803
    37 0.938013 -0.005664 0.000000 0.000000 -0.612611 0.010472
    38 0.409682 -2.071857 -0.137081 0.068179 -0.280440 -1.750247
    39 1.470906 0.007359 0.000000 0.000000 -1.617923 0.010472
    40 1.152100 0.010338 -0.000001 0.000000 -1.099558 0.005236
    41 -0.292847 -1.816392 -0.137081 0.017968 -0.224442 -1.724665
    42 1.511617 -0.004263 0.000001 0.000012 -1.544617 0.036640
    43 1.099637 -0.010806 0.000000 0.000000 -1.130973 0.010472
    44 -0.957058 -1.356555 -0.137080 0.000000 -0.235619 -1.685988
    45 1.351390 -0.010799 -0.000001 0.000000 -0.753982 0.005229
    46 0.859052 0.017735 -0.000001 0.000000 -1.371829 -0.010472
  time 31
    0 -9.021359 0.552241 -6.272488 0.951779 1.847629 1.307118
    1 0.026864 -9.077094 0.000000 0.244132 -0.344244 0.246469
    2 0.231207 -3.555964 0.741274 0.080108 -1.549641 -0.151662
    3 0.000000 2.233213 0.719424 0.000000 0.000000 0.000000
    4 0.000000 -1.663670 1.258993 0.000000 0.000000 0.000000
    5 0.000000 -2.967625 1.273980 0.000000 0.000000 0.000000
    6 0.000000 -1.019184 1.678656 0.000000 0.000000 0.000000
    7 0.000000 -1.558753 2.323140 0.000000 0.000000 0.000000
    8 9.026200 0.250277 -5.923389 0.942158 -1.844739 -1.306152
    9 -0.244755 -8.933564 0.000000 0.209146 0.299578 -0.249756
    10 -0.397212 -3.594002 0.679843 0.360045 1.511651 0.436940
    11 -0.000001 2.323140 0.854316 0.000000 0.000000 0.000000
    12 0.000001 -1.064149 1.708633 0.000000 0.000000 0.000000
    13 0.000001 -1.693644 1.258993 0.000000 0.000000 0.000000
    14 0.000001 -2.997601 1.229017 0.000000 0.000000 0.000000
    15 0.000000 -1.258993 2.323142 0.000000 0.000000 0.000000
    16 0.000000 -0.456721 0.000000 0.000000 0.000000 0.000000
    17 -0.421910 0.233313 0.477535 -0.212797 -0.375551 -2.091539
    18 1.827484 -0.104693 -0.000001 0.000000 0.000000 0.523599
    19 -1.090122 -1.829638 -0.122573 0.000000 0.000000 -1.638864
    20 1.390341 -0.000583 0.000000 0.001091 -0.481727 0.001641
    21 0.964939 -0.010943 -0.000001 0.000000 -0.670206 0.000000
    22 -0.348493 -1.994085 -0.122573 -0.078961 -0.260133 -1.437435
    23 1.546317 0.004627 0.000000 0.000000 -1.623155 0.000000
    24 1.135737 0.008475 0.000001 0.000000 -1.110029 0.020944
    25 0.310263 -1.738958 -0.122573 -0.056428 -0.182688 -1.438565
    26 1.569654 0.049780 0.000001 0.000000 -1.497495 -0.010472
    27 1.096338 0.003407 0.000000 0.000000 -1.214749 0.005236
    28 0.956485 -1.335291 -0.122573 0.000000 -0.267035 -1.445133
    29 1.346260 0.018204 0.000000 -0.002732 -0.612611 -0.000934
    30 0.874448 -0.001050 -0.000001 0.000000 -1.392772 0.000000
    31 -0.017482 -0.437063 0.000000 0.000000 0.000000 0.000000
    32 0.472028 0.192308 0.472822 0.297069 -0.493084 -1.048320
    33 1.857547 0.010603 0.000001 0.000000 0.000000 -0.455531
    34 0.996041 -0.010017 0.000000 0.000000 0.000000 -0.858702
    35 1.137759 -1.867485 -0.137081 0.000000 -0.052360 -1.523672
    36 1.365642 0.014869 0.000000 -0.000671 -0.377004 -0.002803
    37 0.938013 -0.005664 0.000000 0.000000 -0.612611 0.010472
    38 0.409682 -2.071857 -0.137081 0.068179 -0.280440 -1.750247
    39 1.470906 0.007359 0.000000 0.000000 -1.617923 0.010472
    40 1.152100 0.010338 -0.000001 0.000000 -1.099558 0.005236
    41 -0.292847 -1.816392 -0.137081 0.017968 -0.224442 -1.724665
    42 1.511617 -0.004263 0.000001 0.000012 -1.544617 0.036640
    43 1.099637 -0.010806 0.000000 0.000000 -1.130973 0.010472
    44 -0.957058 -1.356555 -0.137080 0.000000 -0.235619 -1.685988
    45 1.351390 -0.010799 -0.000001 0.000000 -0.753982 0.005229
    46 0.859052 0.017735 -0.000001 0.000000 -1.371829 -0.010472
  time 32
    0 -9.021359 0.353016 -6.182642 0.762836 1.855332 1.149472
    1 0.026864 -9.077094 0.000000 0.244132 -0.344244 0.246469
    2 0.231207 -3.555964 0.741274 0.080108 -1.549641 -0.151662
    3 0.000000 2.233213 0.719424 0.000000 0.000000 0.000000
    4 0.000000 -1.663670 1.258993 0.000000 0.000000 0.000000
    5 0.000000 -2.967625 1.273980 0.000000 0.000000 0.000000
    6 0.000000 -1.019184 1.678656 0.000000 0.000000 0.000000
    7 0.000000 -1.558753 2.323140 0.000000 0.000000 0.000000
    8 9.026200 0.250277 -5.923389 0.936433 -1.816589 -1.312356
    9 -0.244755 -8.933564 0.000000 0.209146 0.299578 -0.249756
    10 -0.397212 -3.594002 0.679843 0.360045 1.511651 0.436940
    11 -0.000001 2.323140 0.854316 0.000000 0.000000 0.000000
    12 0.000001 -1.064149 1.708633 0.000000 0.000000 0.000000
    13 0.000001 -1.693644 1.258993 0.000000 0.000000 0.000000
    14 0.000001 -2.997601 1.229017 0.000000 0.000000 0.000000
    15 0.000000 -1.258993 2.323142 0.000000 0.000000 0.000000
    16 0.000000 -0.456721 0.000000 0.000000 0.000000 0.000000
    17 -0.421910 0.233313 0.477535 -0.212797 -0.375551 -2.091539
    18 1.827484 -0.104693 -0.000001 0.000000 0.000000 0.523599
    19 -1.090122 -1.829638 -0.122573 0.000000 0.000000 -1.638864
    20 1.390341 -0.000583 0.000000 0.001091 -0.481727 0.001641
    21 0.964939 -0.010943 -0.000001 0.000000 -0.670206 0.000000
    22 -0.348493 -1.994085 -0.122573 -0.078961 -0.260133 -1.437435
    23 1.546317 0.004627 0.000000 0.000000 -1.623155 0.000000
    24 1.135737 0.008475 0.000001 0.000000 -1.110029 0.020944
    25 0.310263 -1.738958 -0.122573 -0.056428 -0.182688 -1.438565
    26 1.569654 0.049780 0.000001 0.000000 -1.497495 -0.010472
    27 1.096338 0.003407 0.000000 0.000000 -1.214749 0.005236
    28 0.956485 -1.335291 -0.122573 0.000000 -0.267035 -1.445133
    29 1.346260 0.018204 0.000000 -0.002732 -0.612611 -0.000934
    30 0.874448 -0.001050 -0.000001 0.000000 -1.392772 0.000000
    31 -0.017482 -0.437063 0.000000 0.000000 0.000000 0.000000
    32 0.472028 0.192308 0.472822 0.297069 -0.493084 -1.048320
    33 1.857547 0.010603 0.000001 0.000000 0.000000 -0.455531
    34 0.996041 -0.010017 0.000000 0.000000 0.000000 -0.858702
    35 1.137759 -1.867485 -0.137081 0.000000 -0.052360 -1.523672
    36 1.365642 0.014869 0.000000 -0.000671 -0.377004 -0.002803
    37 0.938013 -0.005664 0.000000 0.000000 -0.612611 0.010472
    38 0.409682 -2.071857 -0.137081 0.068179 -0.280440 -1.750247
    39 1.470906 0.007359 0.000000 0.000000 -1.617923 0.010472
    40 1.152100 0.010338 -0.000001 0.000000 -1.099558 0.005236
    41 -0.292847 -1.816392 -0.137081 0.017968 -0.224442 -1.724665
    42 1.511617 -0.004263 0.000001 0.000012 -1.544617 0.036640
    43 1.099637 -0.010806 0.000000 0.000000 -1.130973 0.010472
    44 -0.957058 -1.356555 -0.137080 0.000000 -0.235619 -1.685988
    45 1.351390 -0.010799 -0.000001 0.000000 -0.753982 0.005229
    46 0.859052 0.017735 -0.000001 0.000000 -1.371829 -0.010472
end
