version 1
nodes
  0 "Bone01" -1
  1 "Bone_Lefthand" 0
  2 "Bone02" 1
  3 "Bone03" 2
  4 "Bone50" 3
  5 "Bone25" 3
  6 "Bone48" 3
  7 "Bone_FoldingStock" 3
  8 "Bone04" -1
  9 "Bone_Righthand" 8
  10 "Bone27" 9
  11 "Bone28" 10
  12 "Bone29" 11
  13 "Bone31" 9
  14 "Bone32" 13
  15 "Bone33" 14
  16 "Bone35" 9
  17 "Bone36" 16
  18 "Bone37" 17
  19 "Bone39" 9
  20 "Bone40" 19
  21 "Bone41" 20
  22 "Bone43" 9
  23 "Bone44" 22
  24 "Bone45" 23
  25 "Bone_Se_Hand-R" 9
  26 "Bone05" 1
  27 "Bone06" 26
  28 "Bone07" 27
  29 "Bone21" 1
  30 "Bone22" 29
  31 "Bone23" 30
  32 "Bone17" 1
  33 "Bone18" 32
  34 "Bone19" 33
  35 "Bone13" 1
  36 "Bone14" 35
  37 "Bone15" 36
  38 "Bone09" 1
  39 "Bone10" 38
  40 "Bone11" 39
  41 "Bone_Se_Hand-L" 1
end
skeleton
  time 0
    0 8.154767 5.236848 -6.603200 0.624627 -1.839704 -0.869850
    1 -0.071918 -8.498730 -0.104137 0.265980 0.108421 -0.146997
    2 -0.563170 -3.210679 1.056120 0.801033 1.623797 0.763429
    3 0.000000 2.038369 1.408873 0.000000 0.000000 0.000000
    4 0.000000 -2.240708 2.058080 0.000000 0.000000 0.000000
    5 0.000000 -2.855216 0.622003 0.000000 0.000000 0.000000
    6 0.000001 -5.238309 0.651978 0.000000 0.000000 0.000000
    7 0.839505 -1.616282 -2.380197 0.000000 0.000001 -0.000001
    8 -3.218361 -5.883655 -9.196404 -0.487830 0.412239 0.748728
    9 0.096946 -8.450419 -0.009363 0.195977 -0.461932 0.182005
    10 -0.586769 -1.264477 0.200164 -0.050397 -0.309084 -2.670453
    11 1.522835 0.058680 0.016850 -0.000014 0.000010 0.093021
    12 1.117947 0.048424 -0.005765 0.000000 0.000000 0.087218
    13 -0.963867 -2.785143 -0.085346 -0.446848 0.000001 -0.000001
    14 0.028478 -1.403067 0.006272 -0.907559 -0.000007 -0.000010
    15 0.021412 -0.957782 0.020047 -0.445076 -0.000003 -0.000008
    16 -0.249534 -2.846963 -0.174215 -0.473669 -0.000004 0.000010
    17 0.043235 -1.683940 0.096015 -1.322673 0.000001 0.000000
    18 0.031729 -1.160830 0.058836 -0.532354 0.000000 0.000000
    19 0.447951 -2.798983 -0.200441 -0.838269 0.073356 0.082665
    20 -0.032909 -1.480207 0.004935 -0.969806 0.000000 0.000000
    21 -0.027023 -1.076921 -0.020212 -0.453804 0.000000 0.000000
    22 1.164474 -2.543939 -0.170327 -0.892506 0.048909 0.064445
    23 0.024033 -1.129040 0.017807 -0.758521 0.000000 -0.000001
    24 0.014896 -0.883992 -0.019846 -0.523616 0.000000 0.000000
    25 -0.111496 -0.128692 -0.041031 0.322897 0.160753 1.329802
    26 0.583509 -1.197274 0.185379 0.221827 -1.044986 -0.742632
    27 1.535926 0.010247 0.005009 0.029548 -0.081112 -0.888724
    28 1.100770 0.004528 -0.010675 0.000000 0.000000 -0.706676
    29 0.957766 -2.746777 -0.090301 0.167513 -0.016835 -0.000986
    30 -0.033419 -1.397128 -0.011255 -1.123919 0.000000 0.000000
    31 -0.022361 -0.957433 0.018783 -0.429133 0.000000 0.000000
    32 0.250029 -2.820664 -0.238396 -0.960177 0.057277 -0.106688
    33 -0.049759 -1.680544 0.100479 -1.613589 0.000000 0.000000
    34 -0.034141 -1.148311 0.084779 -1.431177 0.000000 0.000000
    35 -0.488517 -2.755600 -0.228261 -1.056420 -0.000003 -0.122179
    36 0.039889 -1.479791 0.029854 -1.617528 0.000000 0.000000
    37 0.028785 -1.075733 -0.023110 -1.186852 0.000000 0.000000
    38 -1.180679 -2.507216 -0.193861 -0.933834 0.142518 -0.179217
    39 -0.024967 -1.123934 0.017595 -1.144416 0.000000 0.000000
    40 -0.020058 -0.890965 0.010091 -1.058979 0.000000 0.000000
    41 0.120180 -0.051600 -0.063059 0.012085 -2.987703 1.512552
  time 1
    0 8.154767 5.236848 -6.603200 0.624627 -1.839704 -0.869850
    1 -0.071918 -8.498730 -0.104137 0.265980 0.108421 -0.146997
    2 -0.563170 -3.210679 1.056120 0.801033 1.623797 0.763429
    3 0.000000 2.038369 1.408873 0.000000 0.000000 0.000000
    4 0.000000 -2.240708 2.058080 0.000000 0.000000 0.000000
    5 0.000000 -2.855216 0.622003 0.000000 0.000000 0.000000
    6 0.000001 -5.238309 0.651978 0.000000 0.000000 0.000000
    7 0.839505 -1.616282 -2.380197 0.000000 0.000001 -0.000001
    8 -3.218361 -5.883655 -9.196404 -0.487830 0.412239 0.748728
    9 0.096946 -8.450419 -0.009363 0.195977 -0.461932 0.182005
    10 -0.586769 -1.264477 0.200164 -0.050397 -0.309084 -2.670453
    11 1.522835 0.058680 0.016850 -0.000014 0.000010 0.093021
    12 1.117947 0.048424 -0.005765 0.000000 0.000000 0.087218
    13 -0.963867 -2.785143 -0.085346 -0.446848 0.000001 -0.000001
    14 0.028478 -1.403067 0.006272 -0.907559 -0.000007 -0.000010
    15 0.021412 -0.957782 0.020047 -0.445076 -0.000003 -0.000008
    16 -0.249534 -2.846963 -0.174215 -0.473669 -0.000004 0.000010
    17 0.043235 -1.683940 0.096015 -1.322673 0.000001 0.000000
    18 0.031729 -1.160830 0.058836 -0.532354 0.000000 0.000000
    19 0.447951 -2.798983 -0.200441 -0.838269 0.073356 0.082665
    20 -0.032909 -1.480207 0.004935 -0.969806 0.000000 0.000000
    21 -0.027023 -1.076921 -0.020212 -0.453804 0.000000 0.000000
    22 1.164474 -2.543939 -0.170327 -0.892506 0.048909 0.064445
    23 0.024033 -1.129040 0.017807 -0.758521 0.000000 -0.000001
    24 0.014896 -0.883992 -0.019846 -0.523616 0.000000 0.000000
    25 -0.111496 -0.128692 -0.041031 0.322897 0.160753 1.329802
    26 0.583509 -1.197274 0.185379 0.221827 -1.044986 -0.742632
    27 1.535926 0.010247 0.005009 0.029548 -0.081112 -0.888724
    28 1.100770 0.004528 -0.010675 0.000000 0.000000 -0.706676
    29 0.957766 -2.746777 -0.090301 0.167513 -0.016835 -0.000986
    30 -0.033419 -1.397128 -0.011255 -1.123919 0.000000 0.000000
    31 -0.022361 -0.957433 0.018783 -0.429133 0.000000 0.000000
    32 0.250029 -2.820664 -0.238396 -0.960177 0.057277 -0.106688
    33 -0.049759 -1.680544 0.100479 -1.613589 0.000000 0.000000
    34 -0.034141 -1.148311 0.084779 -1.431177 0.000000 0.000000
    35 -0.488517 -2.755600 -0.228261 -1.056420 -0.000003 -0.122179
    36 0.039889 -1.479791 0.029854 -1.617528 0.000000 0.000000
    37 0.028785 -1.075733 -0.023110 -1.186852 0.000000 0.000000
    38 -1.180679 -2.507216 -0.193861 -0.933834 0.142518 -0.179217
    39 -0.024967 -1.123934 0.017595 -1.144416 0.000000 0.000000
    40 -0.020058 -0.890965 0.010091 -1.058979 0.000000 0.000000
    41 0.120180 -0.051600 -0.063059 0.012085 -2.987703 1.512552
  time 2
    0 8.154767 5.236848 -6.603200 0.624627 -1.839704 -0.869850
    1 -0.071918 -8.498730 -0.104137 0.265980 0.108421 -0.146997
    2 -0.563170 -3.210679 1.056120 0.801033 1.623797 0.763429
    3 0.000000 2.038369 1.408873 0.000000 0.000000 0.000000
    4 0.000000 -2.240708 2.058080 0.000000 0.000000 0.000000
    5 0.000000 -2.855216 0.622003 0.000000 0.000000 0.000000
    6 0.000001 -5.238309 0.651978 0.000000 0.000000 0.000000
    7 0.839505 -1.616282 -2.380197 0.000000 0.000001 -0.000001
    8 -3.218361 -5.883655 -9.196404 -0.487830 0.412239 0.748728
    9 0.096946 -8.450419 -0.009363 0.195977 -0.461932 0.182005
    10 -0.586769 -1.264477 0.200164 -0.050397 -0.309084 -2.670453
    11 1.522835 0.058680 0.016850 -0.000014 0.000010 0.093021
    12 1.117947 0.048424 -0.005765 0.000000 0.000000 0.087218
    13 -0.963867 -2.785143 -0.085346 -0.446848 0.000001 -0.000001
    14 0.028478 -1.403067 0.006272 -0.907559 -0.000007 -0.000010
    15 0.021412 -0.957782 0.020047 -0.445076 -0.000003 -0.000008
    16 -0.249534 -2.846963 -0.174215 -0.473669 -0.000004 0.000010
    17 0.043235 -1.683940 0.096015 -1.322673 0.000001 0.000000
    18 0.031729 -1.160830 0.058836 -0.532354 0.000000 0.000000
    19 0.447951 -2.798983 -0.200441 -0.838269 0.073356 0.082665
    20 -0.032909 -1.480207 0.004935 -0.969806 0.000000 0.000000
    21 -0.027023 -1.076921 -0.020212 -0.453804 0.000000 0.000000
    22 1.164474 -2.543939 -0.170327 -0.892506 0.048909 0.064445
    23 0.024033 -1.129040 0.017807 -0.758521 0.000000 -0.000001
    24 0.014896 -0.883992 -0.019846 -0.523616 0.000000 0.000000
    25 -0.111496 -0.128692 -0.041031 0.322897 0.160753 1.329802
    26 0.583509 -1.197274 0.185379 0.221827 -1.044986 -0.742632
    27 1.535926 0.010247 0.005009 0.029548 -0.081112 -0.888724
    28 1.100770 0.004528 -0.010675 0.000000 0.000000 -0.706676
    29 0.957766 -2.746777 -0.090301 0.167513 -0.016835 -0.000986
    30 -0.033419 -1.397128 -0.011255 -1.123919 0.000000 0.000000
    31 -0.022361 -0.957433 0.018783 -0.429133 0.000000 0.000000
    32 0.250029 -2.820664 -0.238396 -0.960177 0.057277 -0.106688
    33 -0.049759 -1.680544 0.100479 -1.613589 0.000000 0.000000
    34 -0.034141 -1.148311 0.084779 -1.431177 0.000000 0.000000
    35 -0.488517 -2.755600 -0.228261 -1.056420 -0.000003 -0.122179
    36 0.039889 -1.479791 0.029854 -1.617528 0.000000 0.000000
    37 0.028785 -1.075733 -0.023110 -1.186852 0.000000 0.000000
    38 -1.180679 -2.507216 -0.193861 -0.933834 0.142518 -0.179217
    39 -0.024967 -1.123934 0.017595 -1.144416 0.000000 0.000000
    40 -0.020058 -0.890965 0.010091 -1.058979 0.000000 0.000000
    41 0.120180 -0.051600 -0.063059 0.012085 -2.987703 1.512552
  time 3
    0 8.154767 5.236848 -6.603200 0.624627 -1.839704 -0.869850
    1 -0.071918 -8.498730 -0.104137 0.265980 0.108421 -0.146997
    2 -0.563170 -3.210679 1.056120 0.801033 1.623797 0.763429
    3 0.000000 2.038369 1.408873 0.000000 0.000000 0.000000
    4 0.000000 -2.240708 2.058080 0.000000 0.000000 0.000000
    5 0.000000 -2.855216 0.622003 0.000000 0.000000 0.000000
    6 0.000001 -5.238309 0.651978 0.000000 0.000000 0.000000
    7 0.839505 -1.616282 -2.380197 0.000000 0.000001 -0.000001
    8 -3.218361 -5.883655 -9.196404 -0.487830 0.412239 0.748728
    9 0.096946 -8.450419 -0.009363 0.195977 -0.461932 0.182005
    10 -0.586769 -1.264477 0.200164 -0.050397 -0.309084 -2.670453
    11 1.522835 0.058680 0.016850 -0.000014 0.000010 0.093021
    12 1.117947 0.048424 -0.005765 0.000000 0.000000 0.087218
    13 -0.963867 -2.785143 -0.085346 -0.446848 0.000001 -0.000001
    14 0.028478 -1.403067 0.006272 -0.907559 -0.000007 -0.000010
    15 0.021412 -0.957782 0.020047 -0.445076 -0.000003 -0.000008
    16 -0.249534 -2.846963 -0.174215 -0.473669 -0.000004 0.000010
    17 0.043235 -1.683940 0.096015 -1.322673 0.000001 0.000000
    18 0.031729 -1.160830 0.058836 -0.532354 0.000000 0.000000
    19 0.447951 -2.798983 -0.200441 -0.838269 0.073356 0.082665
    20 -0.032909 -1.480207 0.004935 -0.969806 0.000000 0.000000
    21 -0.027023 -1.076921 -0.020212 -0.453804 0.000000 0.000000
    22 1.164474 -2.543939 -0.170327 -0.892506 0.048909 0.064445
    23 0.024033 -1.129040 0.017807 -0.758521 0.000000 -0.000001
    24 0.014896 -0.883992 -0.019846 -0.523616 0.000000 0.000000
    25 -0.111496 -0.128692 -0.041031 0.322897 0.160753 1.329802
    26 0.583509 -1.197274 0.185379 0.221827 -1.044986 -0.742632
    27 1.535926 0.010247 0.005009 0.029548 -0.081112 -0.888724
    28 1.100770 0.004528 -0.010675 0.000000 0.000000 -0.706676
    29 0.957766 -2.746777 -0.090301 0.167513 -0.016835 -0.000986
    30 -0.033419 -1.397128 -0.011255 -1.123919 0.000000 0.000000
    31 -0.022361 -0.957433 0.018783 -0.429133 0.000000 0.000000
    32 0.250029 -2.820664 -0.238396 -0.960177 0.057277 -0.106688
    33 -0.049759 -1.680544 0.100479 -1.613589 0.000000 0.000000
    34 -0.034141 -1.148311 0.084779 -1.431177 0.000000 0.000000
    35 -0.488517 -2.755600 -0.228261 -1.056420 -0.000003 -0.122179
    36 0.039889 -1.479791 0.029854 -1.617528 0.000000 0.000000
    37 0.028785 -1.075733 -0.023110 -1.186852 0.000000 0.000000
    38 -1.180679 -2.507216 -0.193861 -0.933834 0.142518 -0.179217
    39 -0.024967 -1.123934 0.017595 -1.144416 0.000000 0.000000
    40 -0.020058 -0.890965 0.010091 -1.058979 0.000000 0.000000
    41 0.120180 -0.051600 -0.063059 0.012085 -2.987703 1.512552
  time 4
    0 8.154767 5.236848 -6.603200 0.624627 -1.839704 -0.869850
    1 -0.071918 -8.498730 -0.104137 0.265980 0.108421 -0.146997
    2 -0.563170 -3.210679 1.056120 0.801033 1.623797 0.763429
    3 0.000000 2.038369 1.408873 0.000000 0.000000 0.000000
    4 0.000000 -2.240708 2.058080 0.000000 0.000000 0.000000
    5 0.000000 -2.855216 0.622003 0.000000 0.000000 0.000000
    6 0.000001 -5.238309 0.651978 0.000000 0.000000 0.000000
    7 0.839505 -1.616282 -2.380197 0.000000 0.000001 -0.000001
    8 -3.218361 -5.883655 -9.196404 -0.487830 0.412239 0.748728
    9 0.096946 -8.450419 -0.009363 0.195977 -0.461932 0.182005
    10 -0.586769 -1.264477 0.200164 -0.050397 -0.309084 -2.670453
    11 1.522835 0.058680 0.016850 -0.000014 0.000010 0.093021
    12 1.117947 0.048424 -0.005765 0.000000 0.000000 0.087218
    13 -0.963867 -2.785143 -0.085346 -0.446848 0.000001 -0.000001
    14 0.028478 -1.403067 0.006272 -0.907559 -0.000007 -0.000010
    15 0.021412 -0.957782 0.020047 -0.445076 -0.000003 -0.000008
    16 -0.249534 -2.846963 -0.174215 -0.473669 -0.000004 0.000010
    17 0.043235 -1.683940 0.096015 -1.322673 0.000001 0.000000
    18 0.031729 -1.160830 0.058836 -0.532354 0.000000 0.000000
    19 0.447951 -2.798983 -0.200441 -0.838269 0.073356 0.082665
    20 -0.032909 -1.480207 0.004935 -0.969806 0.000000 0.000000
    21 -0.027023 -1.076921 -0.020212 -0.453804 0.000000 0.000000
    22 1.164474 -2.543939 -0.170327 -0.892506 0.048909 0.064445
    23 0.024033 -1.129040 0.017807 -0.758521 0.000000 -0.000001
    24 0.014896 -0.883992 -0.019846 -0.523616 0.000000 0.000000
    25 -0.111496 -0.128692 -0.041031 0.322897 0.160753 1.329802
    26 0.583509 -1.197274 0.185379 0.221827 -1.044986 -0.742632
    27 1.535926 0.010247 0.005009 0.029548 -0.081112 -0.888724
    28 1.100770 0.004528 -0.010675 0.000000 0.000000 -0.706676
    29 0.957766 -2.746777 -0.090301 0.167513 -0.016835 -0.000986
    30 -0.033419 -1.397128 -0.011255 -1.123919 0.000000 0.000000
    31 -0.022361 -0.957433 0.018783 -0.429133 0.000000 0.000000
    32 0.250029 -2.820664 -0.238396 -0.960177 0.057277 -0.106688
    33 -0.049759 -1.680544 0.100479 -1.613589 0.000000 0.000000
    34 -0.034141 -1.148311 0.084779 -1.431177 0.000000 0.000000
    35 -0.488517 -2.755600 -0.228261 -1.056420 -0.000003 -0.122179
    36 0.039889 -1.479791 0.029854 -1.617528 0.000000 0.000000
    37 0.028785 -1.075733 -0.023110 -1.186852 0.000000 0.000000
    38 -1.180679 -2.507216 -0.193861 -0.933834 0.142518 -0.179217
    39 -0.024967 -1.123934 0.017595 -1.144416 0.000000 0.000000
    40 -0.020058 -0.890965 0.010091 -1.058979 0.000000 0.000000
    41 0.120180 -0.051600 -0.063059 0.012085 -2.987703 1.512552
  time 5
    0 8.154767 5.236848 -6.603200 0.624627 -1.839704 -0.869850
    1 -0.071918 -8.498730 -0.104137 0.265980 0.108421 -0.146997
    2 -0.563170 -3.210679 1.056120 0.801033 1.623797 0.763429
    3 0.000000 2.038369 1.408873 0.000000 0.000000 0.000000
    4 0.000000 -2.240708 2.058080 0.000000 0.000000 0.000000
    5 0.000000 -2.855216 0.622003 0.000000 0.000000 0.000000
    6 0.000001 -5.238309 0.651978 0.000000 0.000000 0.000000
    7 0.839505 -1.616282 -2.380197 0.000000 0.000001 -0.000001
    8 -3.218361 -5.883655 -9.196404 -0.487830 0.412239 0.748728
    9 0.096946 -8.450419 -0.009363 0.195977 -0.461932 0.182005
    10 -0.586769 -1.264477 0.200164 -0.050397 -0.309084 -2.670453
    11 1.522835 0.058680 0.016850 -0.000014 0.000010 0.093021
    12 1.117947 0.048424 -0.005765 0.000000 0.000000 0.087218
    13 -0.963867 -2.785143 -0.085346 -0.446848 0.000001 -0.000001
    14 0.028478 -1.403067 0.006272 -0.907559 -0.000007 -0.000010
    15 0.021412 -0.957782 0.020047 -0.445076 -0.000003 -0.000008
    16 -0.249534 -2.846963 -0.174215 -0.473669 -0.000004 0.000010
    17 0.043235 -1.683940 0.096015 -1.322673 0.000001 0.000000
    18 0.031729 -1.160830 0.058836 -0.532354 0.000000 0.000000
    19 0.447951 -2.798983 -0.200441 -0.838269 0.073356 0.082665
    20 -0.032909 -1.480207 0.004935 -0.969806 0.000000 0.000000
    21 -0.027023 -1.076921 -0.020212 -0.453804 0.000000 0.000000
    22 1.164474 -2.543939 -0.170327 -0.892506 0.048909 0.064445
    23 0.024033 -1.129040 0.017807 -0.758521 0.000000 -0.000001
    24 0.014896 -0.883992 -0.019846 -0.523616 0.000000 0.000000
    25 -0.111496 -0.128692 -0.041031 0.322897 0.160753 1.329802
    26 0.583509 -1.197274 0.185379 0.221827 -1.044986 -0.742632
    27 1.535926 0.010247 0.005009 0.029548 -0.081112 -0.888724
    28 1.100770 0.004528 -0.010675 0.000000 0.000000 -0.706676
    29 0.957766 -2.746777 -0.090301 0.167513 -0.016835 -0.000986
    30 -0.033419 -1.397128 -0.011255 -1.123919 0.000000 0.000000
    31 -0.022361 -0.957433 0.018783 -0.429133 0.000000 0.000000
    32 0.250029 -2.820664 -0.238396 -0.960177 0.057277 -0.106688
    33 -0.049759 -1.680544 0.100479 -1.613589 0.000000 0.000000
    34 -0.034141 -1.148311 0.084779 -1.431177 0.000000 0.000000
    35 -0.488517 -2.755600 -0.228261 -1.056420 -0.000003 -0.122179
    36 0.039889 -1.479791 0.029854 -1.617528 0.000000 0.000000
    37 0.028785 -1.075733 -0.023110 -1.186852 0.000000 0.000000
    38 -1.180679 -2.507216 -0.193861 -0.933834 0.142518 -0.179217
    39 -0.024967 -1.123934 0.017595 -1.144416 0.000000 0.000000
    40 -0.020058 -0.890965 0.010091 -1.058979 0.000000 0.000000
    41 0.120180 -0.051600 -0.063059 0.012085 -2.987703 1.512552
  time 6
    0 8.154767 5.236848 -6.603200 0.624627 -1.839704 -0.869850
    1 -0.071918 -8.498730 -0.104137 0.265980 0.108421 -0.146997
    2 -0.563170 -3.210679 1.056120 0.801033 1.623797 0.763429
    3 0.000000 2.038369 1.408873 0.000000 0.000000 0.000000
    4 0.000000 -2.240708 2.058080 0.000000 0.000000 0.000000
    5 0.000000 -2.855216 0.622003 0.000000 0.000000 0.000000
    6 0.000001 -5.238309 0.651978 0.000000 0.000000 0.000000
    7 0.839505 -1.616282 -2.380197 0.000000 0.000001 -0.000001
    8 -3.218361 -5.883655 -9.196404 -0.487830 0.412239 0.748728
    9 0.096946 -8.450419 -0.009363 0.195977 -0.461932 0.182005
    10 -0.586769 -1.264477 0.200164 -0.050397 -0.309084 -2.670453
    11 1.522835 0.058680 0.016850 -0.000014 0.000010 0.093021
    12 1.117947 0.048424 -0.005765 0.000000 0.000000 0.087218
    13 -0.963867 -2.785143 -0.085346 -0.446848 0.000001 -0.000001
    14 0.028478 -1.403067 0.006272 -0.907559 -0.000007 -0.000010
    15 0.021412 -0.957782 0.020047 -0.445076 -0.000003 -0.000008
    16 -0.249534 -2.846963 -0.174215 -0.473669 -0.000004 0.000010
    17 0.043235 -1.683940 0.096015 -1.322673 0.000001 0.000000
    18 0.031729 -1.160830 0.058836 -0.532354 0.000000 0.000000
    19 0.447951 -2.798983 -0.200441 -0.838269 0.073356 0.082665
    20 -0.032909 -1.480207 0.004935 -0.969806 0.000000 0.000000
    21 -0.027023 -1.076921 -0.020212 -0.453804 0.000000 0.000000
    22 1.164474 -2.543939 -0.170327 -0.892506 0.048909 0.064445
    23 0.024033 -1.129040 0.017807 -0.758521 0.000000 -0.000001
    24 0.014896 -0.883992 -0.019846 -0.523616 0.000000 0.000000
    25 -0.111496 -0.128692 -0.041031 0.322897 0.160753 1.329802
    26 0.583509 -1.197274 0.185379 0.221827 -1.044986 -0.742632
    27 1.535926 0.010247 0.005009 0.029548 -0.081112 -0.888724
    28 1.100770 0.004528 -0.010675 0.000000 0.000000 -0.706676
    29 0.957766 -2.746777 -0.090301 0.167513 -0.016835 -0.000986
    30 -0.033419 -1.397128 -0.011255 -1.123919 0.000000 0.000000
    31 -0.022361 -0.957433 0.018783 -0.429133 0.000000 0.000000
    32 0.250029 -2.820664 -0.238396 -0.960177 0.057277 -0.106688
    33 -0.049759 -1.680544 0.100479 -1.613589 0.000000 0.000000
    34 -0.034141 -1.148311 0.084779 -1.431177 0.000000 0.000000
    35 -0.488517 -2.755600 -0.228261 -1.056420 -0.000003 -0.122179
    36 0.039889 -1.479791 0.029854 -1.617528 0.000000 0.000000
    37 0.028785 -1.075733 -0.023110 -1.186852 0.000000 0.000000
    38 -1.180679 -2.507216 -0.193861 -0.933834 0.142518 -0.179217
    39 -0.024967 -1.123934 0.017595 -1.144416 0.000000 0.000000
    40 -0.020058 -0.890965 0.010091 -1.058979 0.000000 0.000000
    41 0.120180 -0.051600 -0.063059 0.012085 -2.987703 1.512552
  time 7
    0 8.154767 5.236848 -6.603200 0.624627 -1.839704 -0.869850
    1 -0.071918 -8.498730 -0.104137 0.265980 0.108421 -0.146997
    2 -0.563170 -3.210679 1.056120 0.801033 1.623797 0.763429
    3 0.000000 2.038369 1.408873 0.000000 0.000000 0.000000
    4 0.000000 -2.240708 2.058080 0.000000 0.000000 0.000000
    5 0.000000 -2.855216 0.622003 0.000000 0.000000 0.000000
    6 0.000001 -5.238309 0.651978 0.000000 0.000000 0.000000
    7 0.839505 -1.616282 -2.380197 0.000000 0.000001 -0.000001
    8 -3.218361 -5.883655 -9.196404 -0.487830 0.412239 0.748728
    9 0.096946 -8.450419 -0.009363 0.195977 -0.461932 0.182005
    10 -0.586769 -1.264477 0.200164 -0.050397 -0.309084 -2.670453
    11 1.522835 0.058680 0.016850 -0.000014 0.000010 0.093021
    12 1.117947 0.048424 -0.005765 0.000000 0.000000 0.087218
    13 -0.963867 -2.785143 -0.085346 -0.446848 0.000001 -0.000001
    14 0.028478 -1.403067 0.006272 -0.907559 -0.000007 -0.000010
    15 0.021412 -0.957782 0.020047 -0.445076 -0.000003 -0.000008
    16 -0.249534 -2.846963 -0.174215 -0.473669 -0.000004 0.000010
    17 0.043235 -1.683940 0.096015 -1.322673 0.000001 0.000000
    18 0.031729 -1.160830 0.058836 -0.532354 0.000000 0.000000
    19 0.447951 -2.798983 -0.200441 -0.838269 0.073356 0.082665
    20 -0.032909 -1.480207 0.004935 -0.969806 0.000000 0.000000
    21 -0.027023 -1.076921 -0.020212 -0.453804 0.000000 0.000000
    22 1.164474 -2.543939 -0.170327 -0.892506 0.048909 0.064445
    23 0.024033 -1.129040 0.017807 -0.758521 0.000000 -0.000001
    24 0.014896 -0.883992 -0.019846 -0.523616 0.000000 0.000000
    25 -0.111496 -0.128692 -0.041031 0.322897 0.160753 1.329802
    26 0.583509 -1.197274 0.185379 0.221827 -1.044986 -0.742632
    27 1.535926 0.010247 0.005009 0.029548 -0.081112 -0.888724
    28 1.100770 0.004528 -0.010675 0.000000 0.000000 -0.706676
    29 0.957766 -2.746777 -0.090301 0.167513 -0.016835 -0.000986
    30 -0.033419 -1.397128 -0.011255 -1.123919 0.000000 0.000000
    31 -0.022361 -0.957433 0.018783 -0.429133 0.000000 0.000000
    32 0.250029 -2.820664 -0.238396 -0.960177 0.057277 -0.106688
    33 -0.049759 -1.680544 0.100479 -1.613589 0.000000 0.000000
    34 -0.034141 -1.148311 0.084779 -1.431177 0.000000 0.000000
    35 -0.488517 -2.755600 -0.228261 -1.056420 -0.000003 -0.122179
    36 0.039889 -1.479791 0.029854 -1.617528 0.000000 0.000000
    37 0.028785 -1.075733 -0.023110 -1.186852 0.000000 0.000000
    38 -1.180679 -2.507216 -0.193861 -0.933834 0.142518 -0.179217
    39 -0.024967 -1.123934 0.017595 -1.144416 0.000000 0.000000
    40 -0.020058 -0.890965 0.010091 -1.058979 0.000000 0.000000
    41 0.120180 -0.051600 -0.063059 0.012085 -2.987703 1.512552
  time 8
    0 8.154767 5.236848 -6.603200 0.624627 -1.839704 -0.869850
    1 -0.071918 -8.498730 -0.104137 0.265980 0.108421 -0.146997
    2 -0.563170 -3.210679 1.056120 0.801033 1.623797 0.763429
    3 0.000000 2.038369 1.408873 0.000000 0.000000 0.000000
    4 0.000000 -2.240708 2.058080 0.000000 0.000000 0.000000
    5 0.000000 -2.855216 0.622003 0.000000 0.000000 0.000000
    6 0.000001 -5.238309 0.651978 0.000000 0.000000 0.000000
    7 0.839505 -1.616282 -2.380197 0.000000 0.000001 -0.000001
    8 -3.218361 -5.883655 -9.196404 -0.487830 0.412239 0.748728
    9 0.096946 -8.450419 -0.009363 0.195977 -0.461932 0.182005
    10 -0.586769 -1.264477 0.200164 -0.050397 -0.309084 -2.670453
    11 1.522835 0.058680 0.016850 -0.000014 0.000010 0.093021
    12 1.117947 0.048424 -0.005765 0.000000 0.000000 0.087218
    13 -0.963867 -2.785143 -0.085346 -0.446848 0.000001 -0.000001
    14 0.028478 -1.403067 0.006272 -0.907559 -0.000007 -0.000010
    15 0.021412 -0.957782 0.020047 -0.445076 -0.000003 -0.000008
    16 -0.249534 -2.846963 -0.174215 -0.473669 -0.000004 0.000010
    17 0.043235 -1.683940 0.096015 -1.322673 0.000001 0.000000
    18 0.031729 -1.160830 0.058836 -0.532354 0.000000 0.000000
    19 0.447951 -2.798983 -0.200441 -0.838269 0.073356 0.082665
    20 -0.032909 -1.480207 0.004935 -0.969806 0.000000 0.000000
    21 -0.027023 -1.076921 -0.020212 -0.453804 0.000000 0.000000
    22 1.164474 -2.543939 -0.170327 -0.892506 0.048909 0.064445
    23 0.024033 -1.129040 0.017807 -0.758521 0.000000 -0.000001
    24 0.014896 -0.883992 -0.019846 -0.523616 0.000000 0.000000
    25 -0.111496 -0.128692 -0.041031 0.322897 0.160753 1.329802
    26 0.583509 -1.197274 0.185379 0.221827 -1.044986 -0.742632
    27 1.535926 0.010247 0.005009 0.029548 -0.081112 -0.888724
    28 1.100770 0.004528 -0.010675 0.000000 0.000000 -0.706676
    29 0.957766 -2.746777 -0.090301 0.167513 -0.016835 -0.000986
    30 -0.033419 -1.397128 -0.011255 -1.123919 0.000000 0.000000
    31 -0.022361 -0.957433 0.018783 -0.429133 0.000000 0.000000
    32 0.250029 -2.820664 -0.238396 -0.960177 0.057277 -0.106688
    33 -0.049759 -1.680544 0.100479 -1.613589 0.000000 0.000000
    34 -0.034141 -1.148311 0.084779 -1.431177 0.000000 0.000000
    35 -0.488517 -2.755600 -0.228261 -1.056420 -0.000003 -0.122179
    36 0.039889 -1.479791 0.029854 -1.617528 0.000000 0.000000
    37 0.028785 -1.075733 -0.023110 -1.186852 0.000000 0.000000
    38 -1.180679 -2.507216 -0.193861 -0.933834 0.142518 -0.179217
    39 -0.024967 -1.123934 0.017595 -1.144416 0.000000 0.000000
    40 -0.020058 -0.890965 0.010091 -1.058979 0.000000 0.000000
    41 0.120180 -0.051600 -0.063059 0.012085 -2.987703 1.512552
  time 9
    0 8.154767 5.236848 -6.603200 0.624627 -1.839704 -0.869850
    1 -0.071918 -8.498730 -0.104137 0.265980 0.108421 -0.146997
    2 -0.563170 -3.210679 1.056120 0.801033 1.623797 0.763429
    3 0.000000 2.038369 1.408873 0.000000 0.000000 0.000000
    4 0.000000 -2.240708 2.058080 0.000000 0.000000 0.000000
    5 0.000000 -2.855216 0.622003 0.000000 0.000000 0.000000
    6 0.000001 -5.238309 0.651978 0.000000 0.000000 0.000000
    7 0.839505 -1.616282 -2.380197 0.000000 0.000001 -0.000001
    8 -3.218361 -5.883655 -9.196404 -0.487830 0.412239 0.748728
    9 0.096946 -8.450419 -0.009363 0.195977 -0.461932 0.182005
    10 -0.586769 -1.264477 0.200164 -0.050397 -0.309084 -2.670453
    11 1.522835 0.058680 0.016850 -0.000014 0.000010 0.093021
    12 1.117947 0.048424 -0.005765 0.000000 0.000000 0.087218
    13 -0.963867 -2.785143 -0.085346 -0.446848 0.000001 -0.000001
    14 0.028478 -1.403067 0.006272 -0.907559 -0.000007 -0.000010
    15 0.021412 -0.957782 0.020047 -0.445076 -0.000003 -0.000008
    16 -0.249534 -2.846963 -0.174215 -0.473669 -0.000004 0.000010
    17 0.043235 -1.683940 0.096015 -1.322673 0.000001 0.000000
    18 0.031729 -1.160830 0.058836 -0.532354 0.000000 0.000000
    19 0.447951 -2.798983 -0.200441 -0.838269 0.073356 0.082665
    20 -0.032909 -1.480207 0.004935 -0.969806 0.000000 0.000000
    21 -0.027023 -1.076921 -0.020212 -0.453804 0.000000 0.000000
    22 1.164474 -2.543939 -0.170327 -0.892506 0.048909 0.064445
    23 0.024033 -1.129040 0.017807 -0.758521 0.000000 -0.000001
    24 0.014896 -0.883992 -0.019846 -0.523616 0.000000 0.000000
    25 -0.111496 -0.128692 -0.041031 0.322897 0.160753 1.329802
    26 0.583509 -1.197274 0.185379 0.221827 -1.044986 -0.742632
    27 1.535926 0.010247 0.005009 0.029548 -0.081112 -0.888724
    28 1.100770 0.004528 -0.010675 0.000000 0.000000 -0.706676
    29 0.957766 -2.746777 -0.090301 0.167513 -0.016835 -0.000986
    30 -0.033419 -1.397128 -0.011255 -1.123919 0.000000 0.000000
    31 -0.022361 -0.957433 0.018783 -0.429133 0.000000 0.000000
    32 0.250029 -2.820664 -0.238396 -0.960177 0.057277 -0.106688
    33 -0.049759 -1.680544 0.100479 -1.613589 0.000000 0.000000
    34 -0.034141 -1.148311 0.084779 -1.431177 0.000000 0.000000
    35 -0.488517 -2.755600 -0.228261 -1.056420 -0.000003 -0.122179
    36 0.039889 -1.479791 0.029854 -1.617528 0.000000 0.000000
    37 0.028785 -1.075733 -0.023110 -1.186852 0.000000 0.000000
    38 -1.180679 -2.507216 -0.193861 -0.933834 0.142518 -0.179217
    39 -0.024967 -1.123934 0.017595 -1.144416 0.000000 0.000000
    40 -0.020058 -0.890965 0.010091 -1.058979 0.000000 0.000000
    41 0.120180 -0.051600 -0.063059 0.012085 -2.987703 1.512552
  time 10
    0 8.154767 5.236848 -6.603200 0.624627 -1.839704 -0.869850
    1 -0.071918 -8.498730 -0.104137 0.265980 0.108421 -0.146997
    2 -0.563170 -3.210679 1.056120 0.801033 1.623797 0.763429
    3 0.000000 2.038369 1.408873 0.000000 0.000000 0.000000
    4 0.000000 -2.240708 2.058080 0.000000 0.000000 0.000000
    5 0.000000 -2.855216 0.622003 0.000000 0.000000 0.000000
    6 0.000001 -5.238309 0.651978 0.000000 0.000000 0.000000
    7 0.839505 -1.616282 -2.380197 0.000000 0.000001 -0.000001
    8 -3.218361 -5.883655 -9.196404 -0.487830 0.412239 0.748728
    9 0.096946 -8.450419 -0.009363 0.195977 -0.461932 0.182005
    10 -0.586769 -1.264477 0.200164 -0.050397 -0.309084 -2.670453
    11 1.522835 0.058680 0.016850 -0.000014 0.000010 0.093021
    12 1.117947 0.048424 -0.005765 0.000000 0.000000 0.087218
    13 -0.963867 -2.785143 -0.085346 -0.446848 0.000001 -0.000001
    14 0.028478 -1.403067 0.006272 -0.907559 -0.000007 -0.000010
    15 0.021412 -0.957782 0.020047 -0.445076 -0.000003 -0.000008
    16 -0.249534 -2.846963 -0.174215 -0.473669 -0.000004 0.000010
    17 0.043235 -1.683940 0.096015 -1.322673 0.000001 0.000000
    18 0.031729 -1.160830 0.058836 -0.532354 0.000000 0.000000
    19 0.447951 -2.798983 -0.200441 -0.838269 0.073356 0.082665
    20 -0.032909 -1.480207 0.004935 -0.969806 0.000000 0.000000
    21 -0.027023 -1.076921 -0.020212 -0.453804 0.000000 0.000000
    22 1.164474 -2.543939 -0.170327 -0.892506 0.048909 0.064445
    23 0.024033 -1.129040 0.017807 -0.758521 0.000000 -0.000001
    24 0.014896 -0.883992 -0.019846 -0.523616 0.000000 0.000000
    25 -0.111496 -0.128692 -0.041031 0.322897 0.160753 1.329802
    26 0.583509 -1.197274 0.185379 0.221827 -1.044986 -0.742632
    27 1.535926 0.010247 0.005009 0.029548 -0.081112 -0.888724
    28 1.100770 0.004528 -0.010675 0.000000 0.000000 -0.706676
    29 0.957766 -2.746777 -0.090301 0.167513 -0.016835 -0.000986
    30 -0.033419 -1.397128 -0.011255 -1.123919 0.000000 0.000000
    31 -0.022361 -0.957433 0.018783 -0.429133 0.000000 0.000000
    32 0.250029 -2.820664 -0.238396 -0.960177 0.057277 -0.106688
    33 -0.049759 -1.680544 0.100479 -1.613589 0.000000 0.000000
    34 -0.034141 -1.148311 0.084779 -1.431177 0.000000 0.000000
    35 -0.488517 -2.755600 -0.228261 -1.056420 -0.000003 -0.122179
    36 0.039889 -1.479791 0.029854 -1.617528 0.000000 0.000000
    37 0.028785 -1.075733 -0.023110 -1.186852 0.000000 0.000000
    38 -1.180679 -2.507216 -0.193861 -0.933834 0.142518 -0.179217
    39 -0.024967 -1.123934 0.017595 -1.144416 0.000000 0.000000
    40 -0.020058 -0.890965 0.010091 -1.058979 0.000000 0.000000
    41 0.120180 -0.051600 -0.063059 0.012085 -2.987703 1.512552
  time 11
    0 8.154767 5.236848 -6.603200 0.624627 -1.839704 -0.869850
    1 -0.071918 -8.498730 -0.104137 0.265980 0.108421 -0.146997
    2 -0.563170 -3.210679 1.056120 0.801033 1.623797 0.763429
    3 0.000000 2.038369 1.408873 0.000000 0.000000 0.000000
    4 0.000000 -2.240708 2.058080 0.000000 0.000000 0.000000
    5 0.000000 -2.855216 0.622003 0.000000 0.000000 0.000000
    6 0.000001 -5.238309 0.651978 0.000000 0.000000 0.000000
    7 0.839505 -1.616282 -2.380197 0.000000 0.000001 -0.000001
    8 -3.218361 -5.883655 -9.196404 -0.487830 0.412239 0.748728
    9 0.096946 -8.450419 -0.009363 0.195977 -0.461932 0.182005
    10 -0.586769 -1.264477 0.200164 -0.050397 -0.309084 -2.670453
    11 1.522835 0.058680 0.016850 -0.000014 0.000010 0.093021
    12 1.117947 0.048424 -0.005765 0.000000 0.000000 0.087218
    13 -0.963867 -2.785143 -0.085346 -0.446848 0.000001 -0.000001
    14 0.028478 -1.403067 0.006272 -0.907559 -0.000007 -0.000010
    15 0.021412 -0.957782 0.020047 -0.445076 -0.000003 -0.000008
    16 -0.249534 -2.846963 -0.174215 -0.473669 -0.000004 0.000010
    17 0.043235 -1.683940 0.096015 -1.322673 0.000001 0.000000
    18 0.031729 -1.160830 0.058836 -0.532354 0.000000 0.000000
    19 0.447951 -2.798983 -0.200441 -0.838269 0.073356 0.082665
    20 -0.032909 -1.480207 0.004935 -0.969806 0.000000 0.000000
    21 -0.027023 -1.076921 -0.020212 -0.453804 0.000000 0.000000
    22 1.164474 -2.543939 -0.170327 -0.892506 0.048909 0.064445
    23 0.024033 -1.129040 0.017807 -0.758521 0.000000 -0.000001
    24 0.014896 -0.883992 -0.019846 -0.523616 0.000000 0.000000
    25 -0.111496 -0.128692 -0.041031 0.322897 0.160753 1.329802
    26 0.583509 -1.197274 0.185379 0.221827 -1.044986 -0.742632
    27 1.535926 0.010247 0.005009 0.029548 -0.081112 -0.888724
    28 1.100770 0.004528 -0.010675 0.000000 0.000000 -0.706676
    29 0.957766 -2.746777 -0.090301 0.167513 -0.016835 -0.000986
    30 -0.033419 -1.397128 -0.011255 -1.123919 0.000000 0.000000
    31 -0.022361 -0.957433 0.018783 -0.429133 0.000000 0.000000
    32 0.250029 -2.820664 -0.238396 -0.960177 0.057277 -0.106688
    33 -0.049759 -1.680544 0.100479 -1.613589 0.000000 0.000000
    34 -0.034141 -1.148311 0.084779 -1.431177 0.000000 0.000000
    35 -0.488517 -2.755600 -0.228261 -1.056420 -0.000003 -0.122179
    36 0.039889 -1.479791 0.029854 -1.617528 0.000000 0.000000
    37 0.028785 -1.075733 -0.023110 -1.186852 0.000000 0.000000
    38 -1.180679 -2.507216 -0.193861 -0.933834 0.142518 -0.179217
    39 -0.024967 -1.123934 0.017595 -1.144416 0.000000 0.000000
    40 -0.020058 -0.890965 0.010091 -1.058979 0.000000 0.000000
    41 0.120180 -0.051600 -0.063059 0.012085 -2.987703 1.512552
  time 12
    0 8.154767 5.236848 -6.603200 0.624627 -1.839704 -0.869850
    1 -0.071918 -8.498730 -0.104137 0.265980 0.108421 -0.146997
    2 -0.563170 -3.210679 1.056120 0.801033 1.623797 0.763429
    3 0.000000 2.038369 1.408873 0.000000 0.000000 0.000000
    4 0.000000 -2.240708 2.058080 0.000000 0.000000 0.000000
    5 0.000000 -2.855216 0.622003 0.000000 0.000000 0.000000
    6 0.000001 -5.238309 0.651978 0.000000 0.000000 0.000000
    7 0.839505 -1.616282 -2.380197 0.000000 0.000001 -0.000001
    8 -3.218361 -5.883655 -9.196404 -0.487830 0.412239 0.748728
    9 0.096946 -8.450419 -0.009363 0.195977 -0.461932 0.182005
    10 -0.586769 -1.264477 0.200164 -0.050397 -0.309084 -2.670453
    11 1.522835 0.058680 0.016850 -0.000014 0.000010 0.093021
    12 1.117947 0.048424 -0.005765 0.000000 0.000000 0.087218
    13 -0.963867 -2.785143 -0.085346 -0.446848 0.000001 -0.000001
    14 0.028478 -1.403067 0.006272 -0.907559 -0.000007 -0.000010
    15 0.021412 -0.957782 0.020047 -0.445076 -0.000003 -0.000008
    16 -0.249534 -2.846963 -0.174215 -0.473669 -0.000004 0.000010
    17 0.043235 -1.683940 0.096015 -1.322673 0.000001 0.000000
    18 0.031729 -1.160830 0.058836 -0.532354 0.000000 0.000000
    19 0.447951 -2.798983 -0.200441 -0.838269 0.073356 0.082665
    20 -0.032909 -1.480207 0.004935 -0.969806 0.000000 0.000000
    21 -0.027023 -1.076921 -0.020212 -0.453804 0.000000 0.000000
    22 1.164474 -2.543939 -0.170327 -0.892506 0.048909 0.064445
    23 0.024033 -1.129040 0.017807 -0.758521 0.000000 -0.000001
    24 0.014896 -0.883992 -0.019846 -0.523616 0.000000 0.000000
    25 -0.111496 -0.128692 -0.041031 0.322897 0.160753 1.329802
    26 0.583509 -1.197274 0.185379 0.221827 -1.044986 -0.742632
    27 1.535926 0.010247 0.005009 0.029548 -0.081112 -0.888724
    28 1.100770 0.004528 -0.010675 0.000000 0.000000 -0.706676
    29 0.957766 -2.746777 -0.090301 0.167513 -0.016835 -0.000986
    30 -0.033419 -1.397128 -0.011255 -1.123919 0.000000 0.000000
    31 -0.022361 -0.957433 0.018783 -0.429133 0.000000 0.000000
    32 0.250029 -2.820664 -0.238396 -0.960177 0.057277 -0.106688
    33 -0.049759 -1.680544 0.100479 -1.613589 0.000000 0.000000
    34 -0.034141 -1.148311 0.084779 -1.431177 0.000000 0.000000
    35 -0.488517 -2.755600 -0.228261 -1.056420 -0.000003 -0.122179
    36 0.039889 -1.479791 0.029854 -1.617528 0.000000 0.000000
    37 0.028785 -1.075733 -0.023110 -1.186852 0.000000 0.000000
    38 -1.180679 -2.507216 -0.193861 -0.933834 0.142518 -0.179217
    39 -0.024967 -1.123934 0.017595 -1.144416 0.000000 0.000000
    40 -0.020058 -0.890965 0.010091 -1.058979 0.000000 0.000000
    41 0.120180 -0.051600 -0.063059 0.012085 -2.987703 1.512552
  time 13
    0 8.154767 5.236848 -6.603200 0.624627 -1.839704 -0.869850
    1 -0.071918 -8.498730 -0.104137 0.265980 0.108421 -0.146997
    2 -0.563170 -3.210679 1.056120 0.801033 1.623797 0.763429
    3 0.000000 2.038369 1.408873 0.000000 0.000000 0.000000
    4 0.000000 -2.240708 2.058080 0.000000 0.000000 0.000000
    5 0.000000 -2.855216 0.622003 0.000000 0.000000 0.000000
    6 0.000001 -5.238309 0.651978 0.000000 0.000000 0.000000
    7 0.839505 -1.616282 -2.380197 0.000000 0.000001 -0.000001
    8 -3.218361 -5.883655 -9.196404 -0.487830 0.412239 0.748728
    9 0.096946 -8.450419 -0.009363 0.195977 -0.461932 0.182005
    10 -0.586769 -1.264477 0.200164 -0.050397 -0.309084 -2.670453
    11 1.522835 0.058680 0.016850 -0.000014 0.000010 0.093021
    12 1.117947 0.048424 -0.005765 0.000000 0.000000 0.087218
    13 -0.963867 -2.785143 -0.085346 -0.446848 0.000001 -0.000001
    14 0.028478 -1.403067 0.006272 -0.907559 -0.000007 -0.000010
    15 0.021412 -0.957782 0.020047 -0.445076 -0.000003 -0.000008
    16 -0.249534 -2.846963 -0.174215 -0.473669 -0.000004 0.000010
    17 0.043235 -1.683940 0.096015 -1.322673 0.000001 0.000000
    18 0.031729 -1.160830 0.058836 -0.532354 0.000000 0.000000
    19 0.447951 -2.798983 -0.200441 -0.838269 0.073356 0.082665
    20 -0.032909 -1.480207 0.004935 -0.969806 0.000000 0.000000
    21 -0.027023 -1.076921 -0.020212 -0.453804 0.000000 0.000000
    22 1.164474 -2.543939 -0.170327 -0.892506 0.048909 0.064445
    23 0.024033 -1.129040 0.017807 -0.758521 0.000000 -0.000001
    24 0.014896 -0.883992 -0.019846 -0.523616 0.000000 0.000000
    25 -0.111496 -0.128692 -0.041031 0.322897 0.160753 1.329802
    26 0.583509 -1.197274 0.185379 0.221827 -1.044986 -0.742632
    27 1.535926 0.010247 0.005009 0.029548 -0.081112 -0.888724
    28 1.100770 0.004528 -0.010675 0.000000 0.000000 -0.706676
    29 0.957766 -2.746777 -0.090301 0.167513 -0.016835 -0.000986
    30 -0.033419 -1.397128 -0.011255 -1.123919 0.000000 0.000000
    31 -0.022361 -0.957433 0.018783 -0.429133 0.000000 0.000000
    32 0.250029 -2.820664 -0.238396 -0.960177 0.057277 -0.106688
    33 -0.049759 -1.680544 0.100479 -1.613589 0.000000 0.000000
    34 -0.034141 -1.148311 0.084779 -1.431177 0.000000 0.000000
    35 -0.488517 -2.755600 -0.228261 -1.056420 -0.000003 -0.122179
    36 0.039889 -1.479791 0.029854 -1.617528 0.000000 0.000000
    37 0.028785 -1.075733 -0.023110 -1.186852 0.000000 0.000000
    38 -1.180679 -2.507216 -0.193861 -0.933834 0.142518 -0.179217
    39 -0.024967 -1.123934 0.017595 -1.144416 0.000000 0.000000
    40 -0.020058 -0.890965 0.010091 -1.058979 0.000000 0.000000
    41 0.120180 -0.051600 -0.063059 0.012085 -2.987703 1.512552
  time 14
    0 8.154767 5.236848 -6.603200 0.624627 -1.839704 -0.869850
    1 -0.071918 -8.498730 -0.104137 0.265980 0.108421 -0.146997
    2 -0.563170 -3.210679 1.056120 0.801033 1.623797 0.763429
    3 0.000000 2.038369 1.408873 0.000000 0.000000 0.000000
    4 0.000000 -2.240708 2.058080 0.000000 0.000000 0.000000
    5 0.000000 -2.855216 0.622003 0.000000 0.000000 0.000000
    6 0.000001 -5.238309 0.651978 0.000000 0.000000 0.000000
    7 0.839505 -1.616282 -2.380197 0.000000 0.000001 -0.000001
    8 -3.218361 -5.883655 -9.196404 -0.487830 0.412239 0.748728
    9 0.096946 -8.450419 -0.009363 0.195977 -0.461932 0.182005
    10 -0.586769 -1.264477 0.200164 -0.050397 -0.309084 -2.670453
    11 1.522835 0.058680 0.016850 -0.000014 0.000010 0.093021
    12 1.117947 0.048424 -0.005765 0.000000 0.000000 0.087218
    13 -0.963867 -2.785143 -0.085346 -0.446848 0.000001 -0.000001
    14 0.028478 -1.403067 0.006272 -0.907559 -0.000007 -0.000010
    15 0.021412 -0.957782 0.020047 -0.445076 -0.000003 -0.000008
    16 -0.249534 -2.846963 -0.174215 -0.473669 -0.000004 0.000010
    17 0.043235 -1.683940 0.096015 -1.322673 0.000001 0.000000
    18 0.031729 -1.160830 0.058836 -0.532354 0.000000 0.000000
    19 0.447951 -2.798983 -0.200441 -0.838269 0.073356 0.082665
    20 -0.032909 -1.480207 0.004935 -0.969806 0.000000 0.000000
    21 -0.027023 -1.076921 -0.020212 -0.453804 0.000000 0.000000
    22 1.164474 -2.543939 -0.170327 -0.892506 0.048909 0.064445
    23 0.024033 -1.129040 0.017807 -0.758521 0.000000 -0.000001
    24 0.014896 -0.883992 -0.019846 -0.523616 0.000000 0.000000
    25 -0.111496 -0.128692 -0.041031 0.322897 0.160753 1.329802
    26 0.583509 -1.197274 0.185379 0.221827 -1.044986 -0.742632
    27 1.535926 0.010247 0.005009 0.029548 -0.081112 -0.888724
    28 1.100770 0.004528 -0.010675 0.000000 0.000000 -0.706676
    29 0.957766 -2.746777 -0.090301 0.167513 -0.016835 -0.000986
    30 -0.033419 -1.397128 -0.011255 -1.123919 0.000000 0.000000
    31 -0.022361 -0.957433 0.018783 -0.429133 0.000000 0.000000
    32 0.250029 -2.820664 -0.238396 -0.960177 0.057277 -0.106688
    33 -0.049759 -1.680544 0.100479 -1.613589 0.000000 0.000000
    34 -0.034141 -1.148311 0.084779 -1.431177 0.000000 0.000000
    35 -0.488517 -2.755600 -0.228261 -1.056420 -0.000003 -0.122179
    36 0.039889 -1.479791 0.029854 -1.617528 0.000000 0.000000
    37 0.028785 -1.075733 -0.023110 -1.186852 0.000000 0.000000
    38 -1.180679 -2.507216 -0.193861 -0.933834 0.142518 -0.179217
    39 -0.024967 -1.123934 0.017595 -1.144416 0.000000 0.000000
    40 -0.020058 -0.890965 0.010091 -1.058979 0.000000 0.000000
    41 0.120180 -0.051600 -0.063059 0.012085 -2.987703 1.512552
  time 15
    0 8.154767 5.236848 -6.603200 0.624627 -1.839704 -0.869850
    1 -0.071918 -8.498730 -0.104137 0.265980 0.108421 -0.146997
    2 -0.563170 -3.210679 1.056120 0.801033 1.623797 0.763429
    3 0.000000 2.038369 1.408873 0.000000 0.000000 0.000000
    4 0.000000 -2.240708 2.058080 0.000000 0.000000 0.000000
    5 0.000000 -2.855216 0.622003 0.000000 0.000000 0.000000
    6 0.000001 -5.238309 0.651978 0.000000 0.000000 0.000000
    7 0.839505 -1.616282 -2.380197 0.000000 0.000001 -0.000001
    8 -3.218361 -5.883655 -9.196404 -0.487830 0.412239 0.748728
    9 0.096946 -8.450419 -0.009363 0.195977 -0.461932 0.182005
    10 -0.586769 -1.264477 0.200164 -0.050397 -0.309084 -2.670453
    11 1.522835 0.058680 0.016850 -0.000014 0.000010 0.093021
    12 1.117947 0.048424 -0.005765 0.000000 0.000000 0.087218
    13 -0.963867 -2.785143 -0.085346 -0.446848 0.000001 -0.000001
    14 0.028478 -1.403067 0.006272 -0.907559 -0.000007 -0.000010
    15 0.021412 -0.957782 0.020047 -0.445076 -0.000003 -0.000008
    16 -0.249534 -2.846963 -0.174215 -0.473669 -0.000004 0.000010
    17 0.043235 -1.683940 0.096015 -1.322673 0.000001 0.000000
    18 0.031729 -1.160830 0.058836 -0.532354 0.000000 0.000000
    19 0.447951 -2.798983 -0.200441 -0.838269 0.073356 0.082665
    20 -0.032909 -1.480207 0.004935 -0.969806 0.000000 0.000000
    21 -0.027023 -1.076921 -0.020212 -0.453804 0.000000 0.000000
    22 1.164474 -2.543939 -0.170327 -0.892506 0.048909 0.064445
    23 0.024033 -1.129040 0.017807 -0.758521 0.000000 -0.000001
    24 0.014896 -0.883992 -0.019846 -0.523616 0.000000 0.000000
    25 -0.111496 -0.128692 -0.041031 0.322897 0.160753 1.329802
    26 0.583509 -1.197274 0.185379 0.221827 -1.044986 -0.742632
    27 1.535926 0.010247 0.005009 0.029548 -0.081112 -0.888724
    28 1.100770 0.004528 -0.010675 0.000000 0.000000 -0.706676
    29 0.957766 -2.746777 -0.090301 0.167513 -0.016835 -0.000986
    30 -0.033419 -1.397128 -0.011255 -1.123919 0.000000 0.000000
    31 -0.022361 -0.957433 0.018783 -0.429133 0.000000 0.000000
    32 0.250029 -2.820664 -0.238396 -0.960177 0.057277 -0.106688
    33 -0.049759 -1.680544 0.100479 -1.613589 0.000000 0.000000
    34 -0.034141 -1.148311 0.084779 -1.431177 0.000000 0.000000
    35 -0.488517 -2.755600 -0.228261 -1.056420 -0.000003 -0.122179
    36 0.039889 -1.479791 0.029854 -1.617528 0.000000 0.000000
    37 0.028785 -1.075733 -0.023110 -1.186852 0.000000 0.000000
    38 -1.180679 -2.507216 -0.193861 -0.933834 0.142518 -0.179217
    39 -0.024967 -1.123934 0.017595 -1.144416 0.000000 0.000000
    40 -0.020058 -0.890965 0.010091 -1.058979 0.000000 0.000000
    41 0.120180 -0.051600 -0.063059 0.012085 -2.987703 1.512552
  time 16
    0 8.154767 5.236848 -6.603200 0.624627 -1.839704 -0.869850
    1 -0.071918 -8.498730 -0.104137 0.265980 0.108421 -0.146997
    2 -0.563170 -3.210679 1.056120 0.801033 1.623797 0.763429
    3 0.000000 2.038369 1.408873 0.000000 0.000000 0.000000
    4 0.000000 -2.240708 2.058080 0.000000 0.000000 0.000000
    5 0.000000 -2.855216 0.622003 0.000000 0.000000 0.000000
    6 0.000001 -5.238309 0.651978 0.000000 0.000000 0.000000
    7 0.839505 -1.616282 -2.380197 0.000000 0.000001 -0.000001
    8 -3.218361 -5.883655 -9.196404 -0.487830 0.412239 0.748728
    9 0.096946 -8.450419 -0.009363 0.195977 -0.461932 0.182005
    10 -0.586769 -1.264477 0.200164 -0.050397 -0.309084 -2.670453
    11 1.522835 0.058680 0.016850 -0.000014 0.000010 0.093021
    12 1.117947 0.048424 -0.005765 0.000000 0.000000 0.087218
    13 -0.963867 -2.785143 -0.085346 -0.446848 0.000001 -0.000001
    14 0.028478 -1.403067 0.006272 -0.907559 -0.000007 -0.000010
    15 0.021412 -0.957782 0.020047 -0.445076 -0.000003 -0.000008
    16 -0.249534 -2.846963 -0.174215 -0.473669 -0.000004 0.000010
    17 0.043235 -1.683940 0.096015 -1.322673 0.000001 0.000000
    18 0.031729 -1.160830 0.058836 -0.532354 0.000000 0.000000
    19 0.447951 -2.798983 -0.200441 -0.838269 0.073356 0.082665
    20 -0.032909 -1.480207 0.004935 -0.969806 0.000000 0.000000
    21 -0.027023 -1.076921 -0.020212 -0.453804 0.000000 0.000000
    22 1.164474 -2.543939 -0.170327 -0.892506 0.048909 0.064445
    23 0.024033 -1.129040 0.017807 -0.758521 0.000000 -0.000001
    24 0.014896 -0.883992 -0.019846 -0.523616 0.000000 0.000000
    25 -0.111496 -0.128692 -0.041031 0.322897 0.160753 1.329802
    26 0.583509 -1.197274 0.185379 0.221827 -1.044986 -0.742632
    27 1.535926 0.010247 0.005009 0.029548 -0.081112 -0.888724
    28 1.100770 0.004528 -0.010675 0.000000 0.000000 -0.706676
    29 0.957766 -2.746777 -0.090301 0.167513 -0.016835 -0.000986
    30 -0.033419 -1.397128 -0.011255 -1.123919 0.000000 0.000000
    31 -0.022361 -0.957433 0.018783 -0.429133 0.000000 0.000000
    32 0.250029 -2.820664 -0.238396 -0.960177 0.057277 -0.106688
    33 -0.049759 -1.680544 0.100479 -1.613589 0.000000 0.000000
    34 -0.034141 -1.148311 0.084779 -1.431177 0.000000 0.000000
    35 -0.488517 -2.755600 -0.228261 -1.056420 -0.000003 -0.122179
    36 0.039889 -1.479791 0.029854 -1.617528 0.000000 0.000000
    37 0.028785 -1.075733 -0.023110 -1.186852 0.000000 0.000000
    38 -1.180679 -2.507216 -0.193861 -0.933834 0.142518 -0.179217
    39 -0.024967 -1.123934 0.017595 -1.144416 0.000000 0.000000
    40 -0.020058 -0.890965 0.010091 -1.058979 0.000000 0.000000
    41 0.120180 -0.051600 -0.063059 0.012085 -2.987703 1.512552
  time 17
    0 8.154767 5.236848 -6.603200 0.624627 -1.839704 -0.869850
    1 -0.071918 -8.498730 -0.104137 0.265980 0.108421 -0.146997
    2 -0.563170 -3.210679 1.056120 0.801033 1.623797 0.763429
    3 0.000000 2.038369 1.408873 0.000000 0.000000 0.000000
    4 0.000000 -2.240708 2.058080 0.000000 0.000000 0.000000
    5 0.000000 -2.855216 0.622003 0.000000 0.000000 0.000000
    6 0.000001 -5.238309 0.651978 0.000000 0.000000 0.000000
    7 0.839505 -1.616282 -2.380197 0.000000 0.000001 -0.000001
    8 -3.218361 -5.883655 -9.196404 -0.487830 0.412239 0.748728
    9 0.096946 -8.450419 -0.009363 0.195977 -0.461932 0.182005
    10 -0.586769 -1.264477 0.200164 -0.050397 -0.309084 -2.670453
    11 1.522835 0.058680 0.016850 -0.000014 0.000010 0.093021
    12 1.117947 0.048424 -0.005765 0.000000 0.000000 0.087218
    13 -0.963867 -2.785143 -0.085346 -0.446848 0.000001 -0.000001
    14 0.028478 -1.403067 0.006272 -0.907559 -0.000007 -0.000010
    15 0.021412 -0.957782 0.020047 -0.445076 -0.000003 -0.000008
    16 -0.249534 -2.846963 -0.174215 -0.473669 -0.000004 0.000010
    17 0.043235 -1.683940 0.096015 -1.322673 0.000001 0.000000
    18 0.031729 -1.160830 0.058836 -0.532354 0.000000 0.000000
    19 0.447951 -2.798983 -0.200441 -0.838269 0.073356 0.082665
    20 -0.032909 -1.480207 0.004935 -0.969806 0.000000 0.000000
    21 -0.027023 -1.076921 -0.020212 -0.453804 0.000000 0.000000
    22 1.164474 -2.543939 -0.170327 -0.892506 0.048909 0.064445
    23 0.024033 -1.129040 0.017807 -0.758521 0.000000 -0.000001
    24 0.014896 -0.883992 -0.019846 -0.523616 0.000000 0.000000
    25 -0.111496 -0.128692 -0.041031 0.322897 0.160753 1.329802
    26 0.583509 -1.197274 0.185379 0.221827 -1.044986 -0.742632
    27 1.535926 0.010247 0.005009 0.029548 -0.081112 -0.888724
    28 1.100770 0.004528 -0.010675 0.000000 0.000000 -0.706676
    29 0.957766 -2.746777 -0.090301 0.167513 -0.016835 -0.000986
    30 -0.033419 -1.397128 -0.011255 -1.123919 0.000000 0.000000
    31 -0.022361 -0.957433 0.018783 -0.429133 0.000000 0.000000
    32 0.250029 -2.820664 -0.238396 -0.960177 0.057277 -0.106688
    33 -0.049759 -1.680544 0.100479 -1.613589 0.000000 0.000000
    34 -0.034141 -1.148311 0.084779 -1.431177 0.000000 0.000000
    35 -0.488517 -2.755600 -0.228261 -1.056420 -0.000003 -0.122179
    36 0.039889 -1.479791 0.029854 -1.617528 0.000000 0.000000
    37 0.028785 -1.075733 -0.023110 -1.186852 0.000000 0.000000
    38 -1.180679 -2.507216 -0.193861 -0.933834 0.142518 -0.179217
    39 -0.024967 -1.123934 0.017595 -1.144416 0.000000 0.000000
    40 -0.020058 -0.890965 0.010091 -1.058979 0.000000 0.000000
    41 0.120180 -0.051600 -0.063059 0.012085 -2.987703 1.512552
  time 18
    0 8.154767 5.236848 -6.603200 0.624627 -1.839704 -0.869850
    1 -0.071918 -8.498730 -0.104137 0.265980 0.108421 -0.146997
    2 -0.563170 -3.210679 1.056120 0.801033 1.623797 0.763429
    3 0.000000 2.038369 1.408873 0.000000 0.000000 0.000000
    4 0.000000 -2.240708 2.058080 0.000000 0.000000 0.000000
    5 0.000000 -2.855216 0.622003 0.000000 0.000000 0.000000
    6 0.000001 -5.238309 0.651978 0.000000 0.000000 0.000000
    7 0.839505 -1.616282 -2.380197 0.000000 0.000001 -0.000001
    8 -3.218361 -5.883655 -9.196404 -0.487830 0.412239 0.748728
    9 0.096946 -8.450419 -0.009363 0.195977 -0.461932 0.182005
    10 -0.586769 -1.264477 0.200164 -0.050397 -0.309084 -2.670453
    11 1.522835 0.058680 0.016850 -0.000014 0.000010 0.093021
    12 1.117947 0.048424 -0.005765 0.000000 0.000000 0.087218
    13 -0.963867 -2.785143 -0.085346 -0.446848 0.000001 -0.000001
    14 0.028478 -1.403067 0.006272 -0.907559 -0.000007 -0.000010
    15 0.021412 -0.957782 0.020047 -0.445076 -0.000003 -0.000008
    16 -0.249534 -2.846963 -0.174215 -0.473669 -0.000004 0.000010
    17 0.043235 -1.683940 0.096015 -1.322673 0.000001 0.000000
    18 0.031729 -1.160830 0.058836 -0.532354 0.000000 0.000000
    19 0.447951 -2.798983 -0.200441 -0.838269 0.073356 0.082665
    20 -0.032909 -1.480207 0.004935 -0.969806 0.000000 0.000000
    21 -0.027023 -1.076921 -0.020212 -0.453804 0.000000 0.000000
    22 1.164474 -2.543939 -0.170327 -0.892506 0.048909 0.064445
    23 0.024033 -1.129040 0.017807 -0.758521 0.000000 -0.000001
    24 0.014896 -0.883992 -0.019846 -0.523616 0.000000 0.000000
    25 -0.111496 -0.128692 -0.041031 0.322897 0.160753 1.329802
    26 0.583509 -1.197274 0.185379 0.221827 -1.044986 -0.742632
    27 1.535926 0.010247 0.005009 0.029548 -0.081112 -0.888724
    28 1.100770 0.004528 -0.010675 0.000000 0.000000 -0.706676
    29 0.957766 -2.746777 -0.090301 0.167513 -0.016835 -0.000986
    30 -0.033419 -1.397128 -0.011255 -1.123919 0.000000 0.000000
    31 -0.022361 -0.957433 0.018783 -0.429133 0.000000 0.000000
    32 0.250029 -2.820664 -0.238396 -0.960177 0.057277 -0.106688
    33 -0.049759 -1.680544 0.100479 -1.613589 0.000000 0.000000
    34 -0.034141 -1.148311 0.084779 -1.431177 0.000000 0.000000
    35 -0.488517 -2.755600 -0.228261 -1.056420 -0.000003 -0.122179
    36 0.039889 -1.479791 0.029854 -1.617528 0.000000 0.000000
    37 0.028785 -1.075733 -0.023110 -1.186852 0.000000 0.000000
    38 -1.180679 -2.507216 -0.193861 -0.933834 0.142518 -0.179217
    39 -0.024967 -1.123934 0.017595 -1.144416 0.000000 0.000000
    40 -0.020058 -0.890965 0.010091 -1.058979 0.000000 0.000000
    41 0.120180 -0.051600 -0.063059 0.012085 -2.987703 1.512552
  time 19
    0 8.154767 5.236848 -6.603200 0.624627 -1.839704 -0.869850
    1 -0.071918 -8.498730 -0.104137 0.265980 0.108421 -0.146997
    2 -0.563170 -3.210679 1.056120 0.801033 1.623797 0.763429
    3 0.000000 2.038369 1.408873 0.000000 0.000000 0.000000
    4 0.000000 -2.240708 2.058080 0.000000 0.000000 0.000000
    5 0.000000 -2.855216 0.622003 0.000000 0.000000 0.000000
    6 0.000001 -5.238309 0.651978 0.000000 0.000000 0.000000
    7 0.839505 -1.616282 -2.380197 0.000000 0.000001 -0.000001
    8 -3.218361 -5.883655 -9.196404 -0.487830 0.412239 0.748728
    9 0.096946 -8.450419 -0.009363 0.195977 -0.461932 0.182005
    10 -0.586769 -1.264477 0.200164 -0.050397 -0.309084 -2.670453
    11 1.522835 0.058680 0.016850 -0.000014 0.000010 0.093021
    12 1.117947 0.048424 -0.005765 0.000000 0.000000 0.087218
    13 -0.963867 -2.785143 -0.085346 -0.446848 0.000001 -0.000001
    14 0.028478 -1.403067 0.006272 -0.907559 -0.000007 -0.000010
    15 0.021412 -0.957782 0.020047 -0.445076 -0.000003 -0.000008
    16 -0.249534 -2.846963 -0.174215 -0.473669 -0.000004 0.000010
    17 0.043235 -1.683940 0.096015 -1.322673 0.000001 0.000000
    18 0.031729 -1.160830 0.058836 -0.532354 0.000000 0.000000
    19 0.447951 -2.798983 -0.200441 -0.838269 0.073356 0.082665
    20 -0.032909 -1.480207 0.004935 -0.969806 0.000000 0.000000
    21 -0.027023 -1.076921 -0.020212 -0.453804 0.000000 0.000000
    22 1.164474 -2.543939 -0.170327 -0.892506 0.048909 0.064445
    23 0.024033 -1.129040 0.017807 -0.758521 0.000000 -0.000001
    24 0.014896 -0.883992 -0.019846 -0.523616 0.000000 0.000000
    25 -0.111496 -0.128692 -0.041031 0.322897 0.160753 1.329802
    26 0.583509 -1.197274 0.185379 0.221827 -1.044986 -0.742632
    27 1.535926 0.010247 0.005009 0.029548 -0.081112 -0.888724
    28 1.100770 0.004528 -0.010675 0.000000 0.000000 -0.706676
    29 0.957766 -2.746777 -0.090301 0.167513 -0.016835 -0.000986
    30 -0.033419 -1.397128 -0.011255 -1.123919 0.000000 0.000000
    31 -0.022361 -0.957433 0.018783 -0.429133 0.000000 0.000000
    32 0.250029 -2.820664 -0.238396 -0.960177 0.057277 -0.106688
    33 -0.049759 -1.680544 0.100479 -1.613589 0.000000 0.000000
    34 -0.034141 -1.148311 0.084779 -1.431177 0.000000 0.000000
    35 -0.488517 -2.755600 -0.228261 -1.056420 -0.000003 -0.122179
    36 0.039889 -1.479791 0.029854 -1.617528 0.000000 0.000000
    37 0.028785 -1.075733 -0.023110 -1.186852 0.000000 0.000000
    38 -1.180679 -2.507216 -0.193861 -0.933834 0.142518 -0.179217
    39 -0.024967 -1.123934 0.017595 -1.144416 0.000000 0.000000
    40 -0.020058 -0.890965 0.010091 -1.058979 0.000000 0.000000
    41 0.120180 -0.051600 -0.063059 0.012085 -2.987703 1.512552
  time 20
    0 8.154767 5.236848 -6.603200 0.624627 -1.839704 -0.869850
    1 -0.071918 -8.498730 -0.104137 0.265980 0.108421 -0.146997
    2 -0.563170 -3.210679 1.056120 0.801033 1.623797 0.763429
    3 0.000000 2.038369 1.408873 0.000000 0.000000 0.000000
    4 0.000000 -2.240708 2.058080 0.000000 0.000000 0.000000
    5 0.000000 -2.855216 0.622003 0.000000 0.000000 0.000000
    6 0.000001 -5.238309 0.651978 0.000000 0.000000 0.000000
    7 0.839505 -1.616282 -2.380197 0.000000 0.000001 -0.000001
    8 -3.218361 -5.883655 -9.196404 -0.487830 0.412239 0.748728
    9 0.096946 -8.450419 -0.009363 0.195977 -0.461932 0.182005
    10 -0.586769 -1.264477 0.200164 -0.050397 -0.309084 -2.670453
    11 1.522835 0.058680 0.016850 -0.000014 0.000010 0.093021
    12 1.117947 0.048424 -0.005765 0.000000 0.000000 0.087218
    13 -0.963867 -2.785143 -0.085346 -0.446848 0.000001 -0.000001
    14 0.028478 -1.403067 0.006272 -0.907559 -0.000007 -0.000010
    15 0.021412 -0.957782 0.020047 -0.445076 -0.000003 -0.000008
    16 -0.249534 -2.846963 -0.174215 -0.473669 -0.000004 0.000010
    17 0.043235 -1.683940 0.096015 -1.322673 0.000001 0.000000
    18 0.031729 -1.160830 0.058836 -0.532354 0.000000 0.000000
    19 0.447951 -2.798983 -0.200441 -0.838269 0.073356 0.082665
    20 -0.032909 -1.480207 0.004935 -0.969806 0.000000 0.000000
    21 -0.027023 -1.076921 -0.020212 -0.453804 0.000000 0.000000
    22 1.164474 -2.543939 -0.170327 -0.892506 0.048909 0.064445
    23 0.024033 -1.129040 0.017807 -0.758521 0.000000 -0.000001
    24 0.014896 -0.883992 -0.019846 -0.523616 0.000000 0.000000
    25 -0.111496 -0.128692 -0.041031 0.322897 0.160753 1.329802
    26 0.583509 -1.197274 0.185379 0.221827 -1.044986 -0.742632
    27 1.535926 0.010247 0.005009 0.029548 -0.081112 -0.888724
    28 1.100770 0.004528 -0.010675 0.000000 0.000000 -0.706676
    29 0.957766 -2.746777 -0.090301 0.167513 -0.016835 -0.000986
    30 -0.033419 -1.397128 -0.011255 -1.123919 0.000000 0.000000
    31 -0.022361 -0.957433 0.018783 -0.429133 0.000000 0.000000
    32 0.250029 -2.820664 -0.238396 -0.960177 0.057277 -0.106688
    33 -0.049759 -1.680544 0.100479 -1.613589 0.000000 0.000000
    34 -0.034141 -1.148311 0.084779 -1.431177 0.000000 0.000000
    35 -0.488517 -2.755600 -0.228261 -1.056420 -0.000003 -0.122179
    36 0.039889 -1.479791 0.029854 -1.617528 0.000000 0.000000
    37 0.028785 -1.075733 -0.023110 -1.186852 0.000000 0.000000
    38 -1.180679 -2.507216 -0.193861 -0.933834 0.142518 -0.179217
    39 -0.024967 -1.123934 0.017595 -1.144416 0.000000 0.000000
    40 -0.020058 -0.890965 0.010091 -1.058979 0.000000 0.000000
    41 0.120180 -0.051600 -0.063059 0.012085 -2.987703 1.512552
  time 21
    0 8.154767 5.236848 -6.603200 0.624627 -1.839704 -0.869850
    1 -0.071918 -8.498730 -0.104137 0.265980 0.108421 -0.146997
    2 -0.563170 -3.210679 1.056120 0.801033 1.623797 0.763429
    3 0.000000 2.038369 1.408873 0.000000 0.000000 0.000000
    4 0.000000 -2.240708 2.058080 0.000000 0.000000 0.000000
    5 0.000000 -2.855216 0.622003 0.000000 0.000000 0.000000
    6 0.000001 -5.238309 0.651978 0.000000 0.000000 0.000000
    7 0.839505 -1.616282 -2.380197 0.000000 0.000001 -0.000001
    8 -3.218361 -5.883655 -9.196404 -0.487830 0.412239 0.748728
    9 0.096946 -8.450419 -0.009363 0.195977 -0.461932 0.182005
    10 -0.586769 -1.264477 0.200164 -0.050397 -0.309084 -2.670453
    11 1.522835 0.058680 0.016850 -0.000014 0.000010 0.093021
    12 1.117947 0.048424 -0.005765 0.000000 0.000000 0.087218
    13 -0.963867 -2.785143 -0.085346 -0.446848 0.000001 -0.000001
    14 0.028478 -1.403067 0.006272 -0.907559 -0.000007 -0.000010
    15 0.021412 -0.957782 0.020047 -0.445076 -0.000003 -0.000008
    16 -0.249534 -2.846963 -0.174215 -0.473669 -0.000004 0.000010
    17 0.043235 -1.683940 0.096015 -1.322673 0.000001 0.000000
    18 0.031729 -1.160830 0.058836 -0.532354 0.000000 0.000000
    19 0.447951 -2.798983 -0.200441 -0.838269 0.073356 0.082665
    20 -0.032909 -1.480207 0.004935 -0.969806 0.000000 0.000000
    21 -0.027023 -1.076921 -0.020212 -0.453804 0.000000 0.000000
    22 1.164474 -2.543939 -0.170327 -0.892506 0.048909 0.064445
    23 0.024033 -1.129040 0.017807 -0.758521 0.000000 -0.000001
    24 0.014896 -0.883992 -0.019846 -0.523616 0.000000 0.000000
    25 -0.111496 -0.128692 -0.041031 0.322897 0.160753 1.329802
    26 0.583509 -1.197274 0.185379 0.221827 -1.044986 -0.742632
    27 1.535926 0.010247 0.005009 0.029548 -0.081112 -0.888724
    28 1.100770 0.004528 -0.010675 0.000000 0.000000 -0.706676
    29 0.957766 -2.746777 -0.090301 0.167513 -0.016835 -0.000986
    30 -0.033419 -1.397128 -0.011255 -1.123919 0.000000 0.000000
    31 -0.022361 -0.957433 0.018783 -0.429133 0.000000 0.000000
    32 0.250029 -2.820664 -0.238396 -0.960177 0.057277 -0.106688
    33 -0.049759 -1.680544 0.100479 -1.613589 0.000000 0.000000
    34 -0.034141 -1.148311 0.084779 -1.431177 0.000000 0.000000
    35 -0.488517 -2.755600 -0.228261 -1.056420 -0.000003 -0.122179
    36 0.039889 -1.479791 0.029854 -1.617528 0.000000 0.000000
    37 0.028785 -1.075733 -0.023110 -1.186852 0.000000 0.000000
    38 -1.180679 -2.507216 -0.193861 -0.933834 0.142518 -0.179217
    39 -0.024967 -1.123934 0.017595 -1.144416 0.000000 0.000000
    40 -0.020058 -0.890965 0.010091 -1.058979 0.000000 0.000000
    41 0.120180 -0.051600 -0.063059 0.012085 -2.987703 1.512552
  time 22
    0 8.154767 5.236848 -6.603200 0.624627 -1.839704 -0.869850
    1 -0.071918 -8.498730 -0.104137 0.265980 0.108421 -0.146997
    2 -0.563170 -3.210679 1.056120 0.801033 1.623797 0.763429
    3 0.000000 2.038369 1.408873 0.000000 0.000000 0.000000
    4 0.000000 -2.240708 2.058080 0.000000 0.000000 0.000000
    5 0.000000 -2.855216 0.622003 0.000000 0.000000 0.000000
    6 0.000001 -5.238309 0.651978 0.000000 0.000000 0.000000
    7 0.839505 -1.616282 -2.380197 0.000000 0.000001 -0.000001
    8 -3.218361 -5.883655 -9.196404 -0.487830 0.412239 0.748728
    9 0.096946 -8.450419 -0.009363 0.195977 -0.461932 0.182005
    10 -0.586769 -1.264477 0.200164 -0.050397 -0.309084 -2.670453
    11 1.522835 0.058680 0.016850 -0.000014 0.000010 0.093021
    12 1.117947 0.048424 -0.005765 0.000000 0.000000 0.087218
    13 -0.963867 -2.785143 -0.085346 -0.446848 0.000001 -0.000001
    14 0.028478 -1.403067 0.006272 -0.907559 -0.000007 -0.000010
    15 0.021412 -0.957782 0.020047 -0.445076 -0.000003 -0.000008
    16 -0.249534 -2.846963 -0.174215 -0.473669 -0.000004 0.000010
    17 0.043235 -1.683940 0.096015 -1.322673 0.000001 0.000000
    18 0.031729 -1.160830 0.058836 -0.532354 0.000000 0.000000
    19 0.447951 -2.798983 -0.200441 -0.838269 0.073356 0.082665
    20 -0.032909 -1.480207 0.004935 -0.969806 0.000000 0.000000
    21 -0.027023 -1.076921 -0.020212 -0.453804 0.000000 0.000000
    22 1.164474 -2.543939 -0.170327 -0.892506 0.048909 0.064445
    23 0.024033 -1.129040 0.017807 -0.758521 0.000000 -0.000001
    24 0.014896 -0.883992 -0.019846 -0.523616 0.000000 0.000000
    25 -0.111496 -0.128692 -0.041031 0.322897 0.160753 1.329802
    26 0.583509 -1.197274 0.185379 0.221827 -1.044986 -0.742632
    27 1.535926 0.010247 0.005009 0.029548 -0.081112 -0.888724
    28 1.100770 0.004528 -0.010675 0.000000 0.000000 -0.706676
    29 0.957766 -2.746777 -0.090301 0.167513 -0.016835 -0.000986
    30 -0.033419 -1.397128 -0.011255 -1.123919 0.000000 0.000000
    31 -0.022361 -0.957433 0.018783 -0.429133 0.000000 0.000000
    32 0.250029 -2.820664 -0.238396 -0.960177 0.057277 -0.106688
    33 -0.049759 -1.680544 0.100479 -1.613589 0.000000 0.000000
    34 -0.034141 -1.148311 0.084779 -1.431177 0.000000 0.000000
    35 -0.488517 -2.755600 -0.228261 -1.056420 -0.000003 -0.122179
    36 0.039889 -1.479791 0.029854 -1.617528 0.000000 0.000000
    37 0.028785 -1.075733 -0.023110 -1.186852 0.000000 0.000000
    38 -1.180679 -2.507216 -0.193861 -0.933834 0.142518 -0.179217
    39 -0.024967 -1.123934 0.017595 -1.144416 0.000000 0.000000
    40 -0.020058 -0.890965 0.010091 -1.058979 0.000000 0.000000
    41 0.120180 -0.051600 -0.063059 0.012085 -2.987703 1.512552
  time 23
    0 8.154767 5.236848 -6.603200 0.624627 -1.839704 -0.869850
    1 -0.071918 -8.498730 -0.104137 0.265980 0.108421 -0.146997
    2 -0.563170 -3.210679 1.056120 0.801033 1.623797 0.763429
    3 0.000000 2.038369 1.408873 0.000000 0.000000 0.000000
    4 0.000000 -2.240708 2.058080 0.000000 0.000000 0.000000
    5 0.000000 -2.855216 0.622003 0.000000 0.000000 0.000000
    6 0.000001 -5.238309 0.651978 0.000000 0.000000 0.000000
    7 0.839505 -1.616282 -2.380197 0.000000 0.000001 -0.000001
    8 -3.218361 -5.883655 -9.196404 -0.487830 0.412239 0.748728
    9 0.096946 -8.450419 -0.009363 0.195977 -0.461932 0.182005
    10 -0.586769 -1.264477 0.200164 -0.050397 -0.309084 -2.670453
    11 1.522835 0.058680 0.016850 -0.000014 0.000010 0.093021
    12 1.117947 0.048424 -0.005765 0.000000 0.000000 0.087218
    13 -0.963867 -2.785143 -0.085346 -0.446848 0.000001 -0.000001
    14 0.028478 -1.403067 0.006272 -0.907559 -0.000007 -0.000010
    15 0.021412 -0.957782 0.020047 -0.445076 -0.000003 -0.000008
    16 -0.249534 -2.846963 -0.174215 -0.473669 -0.000004 0.000010
    17 0.043235 -1.683940 0.096015 -1.322673 0.000001 0.000000
    18 0.031729 -1.160830 0.058836 -0.532354 0.000000 0.000000
    19 0.447951 -2.798983 -0.200441 -0.838269 0.073356 0.082665
    20 -0.032909 -1.480207 0.004935 -0.969806 0.000000 0.000000
    21 -0.027023 -1.076921 -0.020212 -0.453804 0.000000 0.000000
    22 1.164474 -2.543939 -0.170327 -0.892506 0.048909 0.064445
    23 0.024033 -1.129040 0.017807 -0.758521 0.000000 -0.000001
    24 0.014896 -0.883992 -0.019846 -0.523616 0.000000 0.000000
    25 -0.111496 -0.128692 -0.041031 0.322897 0.160753 1.329802
    26 0.583509 -1.197274 0.185379 0.221827 -1.044986 -0.742632
    27 1.535926 0.010247 0.005009 0.029548 -0.081112 -0.888724
    28 1.100770 0.004528 -0.010675 0.000000 0.000000 -0.706676
    29 0.957766 -2.746777 -0.090301 0.167513 -0.016835 -0.000986
    30 -0.033419 -1.397128 -0.011255 -1.123919 0.000000 0.000000
    31 -0.022361 -0.957433 0.018783 -0.429133 0.000000 0.000000
    32 0.250029 -2.820664 -0.238396 -0.960177 0.057277 -0.106688
    33 -0.049759 -1.680544 0.100479 -1.613589 0.000000 0.000000
    34 -0.034141 -1.148311 0.084779 -1.431177 0.000000 0.000000
    35 -0.488517 -2.755600 -0.228261 -1.056420 -0.000003 -0.122179
    36 0.039889 -1.479791 0.029854 -1.617528 0.000000 0.000000
    37 0.028785 -1.075733 -0.023110 -1.186852 0.000000 0.000000
    38 -1.180679 -2.507216 -0.193861 -0.933834 0.142518 -0.179217
    39 -0.024967 -1.123934 0.017595 -1.144416 0.000000 0.000000
    40 -0.020058 -0.890965 0.010091 -1.058979 0.000000 0.000000
    41 0.120180 -0.051600 -0.063059 0.012085 -2.987703 1.512552
  time 24
    0 8.154767 5.236848 -6.603200 0.624627 -1.839704 -0.869850
    1 -0.071918 -8.498730 -0.104137 0.265980 0.108421 -0.146997
    2 -0.563170 -3.210679 1.056120 0.801033 1.623797 0.763429
    3 0.000000 2.038369 1.408873 0.000000 0.000000 0.000000
    4 0.000000 -2.240708 2.058080 0.000000 0.000000 0.000000
    5 0.000000 -2.855216 0.622003 0.000000 0.000000 0.000000
    6 0.000001 -5.238309 0.651978 0.000000 0.000000 0.000000
    7 0.839505 -1.616282 -2.380197 0.000000 0.000001 -0.000001
    8 -3.218361 -5.883655 -9.196404 -0.487830 0.412239 0.748728
    9 0.096946 -8.450419 -0.009363 0.195977 -0.461932 0.182005
    10 -0.586769 -1.264477 0.200164 -0.050397 -0.309084 -2.670453
    11 1.522835 0.058680 0.016850 -0.000014 0.000010 0.093021
    12 1.117947 0.048424 -0.005765 0.000000 0.000000 0.087218
    13 -0.963867 -2.785143 -0.085346 -0.446848 0.000001 -0.000001
    14 0.028478 -1.403067 0.006272 -0.907559 -0.000007 -0.000010
    15 0.021412 -0.957782 0.020047 -0.445076 -0.000003 -0.000008
    16 -0.249534 -2.846963 -0.174215 -0.473669 -0.000004 0.000010
    17 0.043235 -1.683940 0.096015 -1.322673 0.000001 0.000000
    18 0.031729 -1.160830 0.058836 -0.532354 0.000000 0.000000
    19 0.447951 -2.798983 -0.200441 -0.838269 0.073356 0.082665
    20 -0.032909 -1.480207 0.004935 -0.969806 0.000000 0.000000
    21 -0.027023 -1.076921 -0.020212 -0.453804 0.000000 0.000000
    22 1.164474 -2.543939 -0.170327 -0.892506 0.048909 0.064445
    23 0.024033 -1.129040 0.017807 -0.758521 0.000000 -0.000001
    24 0.014896 -0.883992 -0.019846 -0.523616 0.000000 0.000000
    25 -0.111496 -0.128692 -0.041031 0.322897 0.160753 1.329802
    26 0.583509 -1.197274 0.185379 0.221827 -1.044986 -0.742632
    27 1.535926 0.010247 0.005009 0.029548 -0.081112 -0.888724
    28 1.100770 0.004528 -0.010675 0.000000 0.000000 -0.706676
    29 0.957766 -2.746777 -0.090301 0.167513 -0.016835 -0.000986
    30 -0.033419 -1.397128 -0.011255 -1.123919 0.000000 0.000000
    31 -0.022361 -0.957433 0.018783 -0.429133 0.000000 0.000000
    32 0.250029 -2.820664 -0.238396 -0.960177 0.057277 -0.106688
    33 -0.049759 -1.680544 0.100479 -1.613589 0.000000 0.000000
    34 -0.034141 -1.148311 0.084779 -1.431177 0.000000 0.000000
    35 -0.488517 -2.755600 -0.228261 -1.056420 -0.000003 -0.122179
    36 0.039889 -1.479791 0.029854 -1.617528 0.000000 0.000000
    37 0.028785 -1.075733 -0.023110 -1.186852 0.000000 0.000000
    38 -1.180679 -2.507216 -0.193861 -0.933834 0.142518 -0.179217
    39 -0.024967 -1.123934 0.017595 -1.144416 0.000000 0.000000
    40 -0.020058 -0.890965 0.010091 -1.058979 0.000000 0.000000
    41 0.120180 -0.051600 -0.063059 0.012085 -2.987703 1.512552
  time 25
    0 8.154767 5.236848 -6.603200 0.624627 -1.839704 -0.869850
    1 -0.071918 -8.498730 -0.104137 0.265980 0.108421 -0.146997
    2 -0.563170 -3.210679 1.056120 0.801033 1.623797 0.763429
    3 0.000000 2.038369 1.408873 0.000000 0.000000 0.000000
    4 0.000000 -2.240708 2.058080 0.000000 0.000000 0.000000
    5 0.000000 -2.855216 0.622003 0.000000 0.000000 0.000000
    6 0.000001 -5.238309 0.651978 0.000000 0.000000 0.000000
    7 0.839505 -1.616282 -2.380197 0.000000 0.000001 -0.000001
    8 -3.218361 -5.883655 -9.196404 -0.487830 0.412239 0.748728
    9 0.096946 -8.450419 -0.009363 0.195977 -0.461932 0.182005
    10 -0.586769 -1.264477 0.200164 -0.050397 -0.309084 -2.670453
    11 1.522835 0.058680 0.016850 -0.000014 0.000010 0.093021
    12 1.117947 0.048424 -0.005765 0.000000 0.000000 0.087218
    13 -0.963867 -2.785143 -0.085346 -0.446848 0.000001 -0.000001
    14 0.028478 -1.403067 0.006272 -0.907559 -0.000007 -0.000010
    15 0.021412 -0.957782 0.020047 -0.445076 -0.000003 -0.000008
    16 -0.249534 -2.846963 -0.174215 -0.473669 -0.000004 0.000010
    17 0.043235 -1.683940 0.096015 -1.322673 0.000001 0.000000
    18 0.031729 -1.160830 0.058836 -0.532354 0.000000 0.000000
    19 0.447951 -2.798983 -0.200441 -0.838269 0.073356 0.082665
    20 -0.032909 -1.480207 0.004935 -0.969806 0.000000 0.000000
    21 -0.027023 -1.076921 -0.020212 -0.453804 0.000000 0.000000
    22 1.164474 -2.543939 -0.170327 -0.892506 0.048909 0.064445
    23 0.024033 -1.129040 0.017807 -0.758521 0.000000 -0.000001
    24 0.014896 -0.883992 -0.019846 -0.523616 0.000000 0.000000
    25 -0.111496 -0.128692 -0.041031 0.322897 0.160753 1.329802
    26 0.583509 -1.197274 0.185379 0.221827 -1.044986 -0.742632
    27 1.535926 0.010247 0.005009 0.029548 -0.081112 -0.888724
    28 1.100770 0.004528 -0.010675 0.000000 0.000000 -0.706676
    29 0.957766 -2.746777 -0.090301 0.167513 -0.016835 -0.000986
    30 -0.033419 -1.397128 -0.011255 -1.123919 0.000000 0.000000
    31 -0.022361 -0.957433 0.018783 -0.429133 0.000000 0.000000
    32 0.250029 -2.820664 -0.238396 -0.960177 0.057277 -0.106688
    33 -0.049759 -1.680544 0.100479 -1.613589 0.000000 0.000000
    34 -0.034141 -1.148311 0.084779 -1.431177 0.000000 0.000000
    35 -0.488517 -2.755600 -0.228261 -1.056420 -0.000003 -0.122179
    36 0.039889 -1.479791 0.029854 -1.617528 0.000000 0.000000
    37 0.028785 -1.075733 -0.023110 -1.186852 0.000000 0.000000
    38 -1.180679 -2.507216 -0.193861 -0.933834 0.142518 -0.179217
    39 -0.024967 -1.123934 0.017595 -1.144416 0.000000 0.000000
    40 -0.020058 -0.890965 0.010091 -1.058979 0.000000 0.000000
    41 0.120180 -0.051600 -0.063059 0.012085 -2.987703 1.512552
  time 26
    0 8.154767 5.236848 -6.603200 0.624627 -1.839704 -0.869850
    1 -0.071918 -8.498730 -0.104137 0.265980 0.108421 -0.146997
    2 -0.563170 -3.210679 1.056120 0.801033 1.623797 0.763429
    3 0.000000 2.038369 1.408873 0.000000 0.000000 0.000000
    4 0.000000 -2.240708 2.058080 0.000000 0.000000 0.000000
    5 0.000000 -2.855216 0.622003 0.000000 0.000000 0.000000
    6 0.000001 -5.238309 0.651978 0.000000 0.000000 0.000000
    7 0.839505 -1.616282 -2.380197 0.000000 0.000001 -0.000001
    8 -3.218361 -5.883655 -9.196404 -0.487830 0.412239 0.748728
    9 0.096946 -8.450419 -0.009363 0.195977 -0.461932 0.182005
    10 -0.586769 -1.264477 0.200164 -0.050397 -0.309084 -2.670453
    11 1.522835 0.058680 0.016850 -0.000014 0.000010 0.093021
    12 1.117947 0.048424 -0.005765 0.000000 0.000000 0.087218
    13 -0.963867 -2.785143 -0.085346 -0.446848 0.000001 -0.000001
    14 0.028478 -1.403067 0.006272 -0.907559 -0.000007 -0.000010
    15 0.021412 -0.957782 0.020047 -0.445076 -0.000003 -0.000008
    16 -0.249534 -2.846963 -0.174215 -0.473669 -0.000004 0.000010
    17 0.043235 -1.683940 0.096015 -1.322673 0.000001 0.000000
    18 0.031729 -1.160830 0.058836 -0.532354 0.000000 0.000000
    19 0.447951 -2.798983 -0.200441 -0.838269 0.073356 0.082665
    20 -0.032909 -1.480207 0.004935 -0.969806 0.000000 0.000000
    21 -0.027023 -1.076921 -0.020212 -0.453804 0.000000 0.000000
    22 1.164474 -2.543939 -0.170327 -0.892506 0.048909 0.064445
    23 0.024033 -1.129040 0.017807 -0.758521 0.000000 -0.000001
    24 0.014896 -0.883992 -0.019846 -0.523616 0.000000 0.000000
    25 -0.111496 -0.128692 -0.041031 0.322897 0.160753 1.329802
    26 0.583509 -1.197274 0.185379 0.221827 -1.044986 -0.742632
    27 1.535926 0.010247 0.005009 0.029548 -0.081112 -0.888724
    28 1.100770 0.004528 -0.010675 0.000000 0.000000 -0.706676
    29 0.957766 -2.746777 -0.090301 0.167513 -0.016835 -0.000986
    30 -0.033419 -1.397128 -0.011255 -1.123919 0.000000 0.000000
    31 -0.022361 -0.957433 0.018783 -0.429133 0.000000 0.000000
    32 0.250029 -2.820664 -0.238396 -0.960177 0.057277 -0.106688
    33 -0.049759 -1.680544 0.100479 -1.613589 0.000000 0.000000
    34 -0.034141 -1.148311 0.084779 -1.431177 0.000000 0.000000
    35 -0.488517 -2.755600 -0.228261 -1.056420 -0.000003 -0.122179
    36 0.039889 -1.479791 0.029854 -1.617528 0.000000 0.000000
    37 0.028785 -1.075733 -0.023110 -1.186852 0.000000 0.000000
    38 -1.180679 -2.507216 -0.193861 -0.933834 0.142518 -0.179217
    39 -0.024967 -1.123934 0.017595 -1.144416 0.000000 0.000000
    40 -0.020058 -0.890965 0.010091 -1.058979 0.000000 0.000000
    41 0.120180 -0.051600 -0.063059 0.012085 -2.987703 1.512552
  time 27
    0 8.154767 5.236848 -6.603200 0.624627 -1.839704 -0.869850
    1 -0.071918 -8.498730 -0.104137 0.265980 0.108421 -0.146997
    2 -0.563170 -3.210679 1.056120 0.801033 1.623797 0.763429
    3 0.000000 2.038369 1.408873 0.000000 0.000000 0.000000
    4 0.000000 -2.240708 2.058080 0.000000 0.000000 0.000000
    5 0.000000 -2.855216 0.622003 0.000000 0.000000 0.000000
    6 0.000001 -5.238309 0.651978 0.000000 0.000000 0.000000
    7 0.839505 -1.616282 -2.380197 0.000000 0.000001 -0.000001
    8 -3.218361 -5.883655 -9.196404 -0.487830 0.412239 0.748728
    9 0.096946 -8.450419 -0.009363 0.195977 -0.461932 0.182005
    10 -0.586769 -1.264477 0.200164 -0.050397 -0.309084 -2.670453
    11 1.522835 0.058680 0.016850 -0.000014 0.000010 0.093021
    12 1.117947 0.048424 -0.005765 0.000000 0.000000 0.087218
    13 -0.963867 -2.785143 -0.085346 -0.446848 0.000001 -0.000001
    14 0.028478 -1.403067 0.006272 -0.907559 -0.000007 -0.000010
    15 0.021412 -0.957782 0.020047 -0.445076 -0.000003 -0.000008
    16 -0.249534 -2.846963 -0.174215 -0.473669 -0.000004 0.000010
    17 0.043235 -1.683940 0.096015 -1.322673 0.000001 0.000000
    18 0.031729 -1.160830 0.058836 -0.532354 0.000000 0.000000
    19 0.447951 -2.798983 -0.200441 -0.838269 0.073356 0.082665
    20 -0.032909 -1.480207 0.004935 -0.969806 0.000000 0.000000
    21 -0.027023 -1.076921 -0.020212 -0.453804 0.000000 0.000000
    22 1.164474 -2.543939 -0.170327 -0.892506 0.048909 0.064445
    23 0.024033 -1.129040 0.017807 -0.758521 0.000000 -0.000001
    24 0.014896 -0.883992 -0.019846 -0.523616 0.000000 0.000000
    25 -0.111496 -0.128692 -0.041031 0.322897 0.160753 1.329802
    26 0.583509 -1.197274 0.185379 0.221827 -1.044986 -0.742632
    27 1.535926 0.010247 0.005009 0.029548 -0.081112 -0.888724
    28 1.100770 0.004528 -0.010675 0.000000 0.000000 -0.706676
    29 0.957766 -2.746777 -0.090301 0.167513 -0.016835 -0.000986
    30 -0.033419 -1.397128 -0.011255 -1.123919 0.000000 0.000000
    31 -0.022361 -0.957433 0.018783 -0.429133 0.000000 0.000000
    32 0.250029 -2.820664 -0.238396 -0.960177 0.057277 -0.106688
    33 -0.049759 -1.680544 0.100479 -1.613589 0.000000 0.000000
    34 -0.034141 -1.148311 0.084779 -1.431177 0.000000 0.000000
    35 -0.488517 -2.755600 -0.228261 -1.056420 -0.000003 -0.122179
    36 0.039889 -1.479791 0.029854 -1.617528 0.000000 0.000000
    37 0.028785 -1.075733 -0.023110 -1.186852 0.000000 0.000000
    38 -1.180679 -2.507216 -0.193861 -0.933834 0.142518 -0.179217
    39 -0.024967 -1.123934 0.017595 -1.144416 0.000000 0.000000
    40 -0.020058 -0.890965 0.010091 -1.058979 0.000000 0.000000
    41 0.120180 -0.051600 -0.063059 0.012085 -2.987703 1.512552
  time 28
    0 8.154767 5.236848 -6.603200 0.624627 -1.839704 -0.869850
    1 -0.071918 -8.498730 -0.104137 0.265980 0.108421 -0.146997
    2 -0.563170 -3.210679 1.056120 0.801033 1.623797 0.763429
    3 0.000000 2.038369 1.408873 0.000000 0.000000 0.000000
    4 0.000000 -2.240708 2.058080 0.000000 0.000000 0.000000
    5 0.000000 -2.855216 0.622003 0.000000 0.000000 0.000000
    6 0.000001 -5.238309 0.651978 0.000000 0.000000 0.000000
    7 0.839505 -1.616282 -2.380197 0.000000 0.000001 -0.000001
    8 -3.218361 -5.883655 -9.196404 -0.487830 0.412239 0.748728
    9 0.096946 -8.450419 -0.009363 0.195977 -0.461932 0.182005
    10 -0.586769 -1.264477 0.200164 -0.050397 -0.309084 -2.670453
    11 1.522835 0.058680 0.016850 -0.000014 0.000010 0.093021
    12 1.117947 0.048424 -0.005765 0.000000 0.000000 0.087218
    13 -0.963867 -2.785143 -0.085346 -0.446848 0.000001 -0.000001
    14 0.028478 -1.403067 0.006272 -0.907559 -0.000007 -0.000010
    15 0.021412 -0.957782 0.020047 -0.445076 -0.000003 -0.000008
    16 -0.249534 -2.846963 -0.174215 -0.473669 -0.000004 0.000010
    17 0.043235 -1.683940 0.096015 -1.322673 0.000001 0.000000
    18 0.031729 -1.160830 0.058836 -0.532354 0.000000 0.000000
    19 0.447951 -2.798983 -0.200441 -0.838269 0.073356 0.082665
    20 -0.032909 -1.480207 0.004935 -0.969806 0.000000 0.000000
    21 -0.027023 -1.076921 -0.020212 -0.453804 0.000000 0.000000
    22 1.164474 -2.543939 -0.170327 -0.892506 0.048909 0.064445
    23 0.024033 -1.129040 0.017807 -0.758521 0.000000 -0.000001
    24 0.014896 -0.883992 -0.019846 -0.523616 0.000000 0.000000
    25 -0.111496 -0.128692 -0.041031 0.322897 0.160753 1.329802
    26 0.583509 -1.197274 0.185379 0.221827 -1.044986 -0.742632
    27 1.535926 0.010247 0.005009 0.029548 -0.081112 -0.888724
    28 1.100770 0.004528 -0.010675 0.000000 0.000000 -0.706676
    29 0.957766 -2.746777 -0.090301 0.167513 -0.016835 -0.000986
    30 -0.033419 -1.397128 -0.011255 -1.123919 0.000000 0.000000
    31 -0.022361 -0.957433 0.018783 -0.429133 0.000000 0.000000
    32 0.250029 -2.820664 -0.238396 -0.960177 0.057277 -0.106688
    33 -0.049759 -1.680544 0.100479 -1.613589 0.000000 0.000000
    34 -0.034141 -1.148311 0.084779 -1.431177 0.000000 0.000000
    35 -0.488517 -2.755600 -0.228261 -1.056420 -0.000003 -0.122179
    36 0.039889 -1.479791 0.029854 -1.617528 0.000000 0.000000
    37 0.028785 -1.075733 -0.023110 -1.186852 0.000000 0.000000
    38 -1.180679 -2.507216 -0.193861 -0.933834 0.142518 -0.179217
    39 -0.024967 -1.123934 0.017595 -1.144416 0.000000 0.000000
    40 -0.020058 -0.890965 0.010091 -1.058979 0.000000 0.000000
    41 0.120180 -0.051600 -0.063059 0.012085 -2.987703 1.512552
  time 29
    0 8.154767 5.236848 -6.603200 0.624627 -1.839704 -0.869850
    1 -0.071918 -8.498730 -0.104137 0.265980 0.108421 -0.146997
    2 -0.563170 -3.210679 1.056120 0.801033 1.623797 0.763429
    3 0.000000 2.038369 1.408873 0.000000 0.000000 0.000000
    4 0.000000 -2.240708 2.058080 0.000000 0.000000 0.000000
    5 0.000000 -2.855216 0.622003 0.000000 0.000000 0.000000
    6 0.000001 -5.238309 0.651978 0.000000 0.000000 0.000000
    7 0.839505 -1.616282 -2.380197 0.000000 0.000001 -0.000001
    8 -3.218361 -5.883655 -9.196404 -0.487830 0.412239 0.748728
    9 0.096946 -8.450419 -0.009363 0.195977 -0.461932 0.182005
    10 -0.586769 -1.264477 0.200164 -0.050397 -0.309084 -2.670453
    11 1.522835 0.058680 0.016850 -0.000014 0.000010 0.093021
    12 1.117947 0.048424 -0.005765 0.000000 0.000000 0.087218
    13 -0.963867 -2.785143 -0.085346 -0.446848 0.000001 -0.000001
    14 0.028478 -1.403067 0.006272 -0.907559 -0.000007 -0.000010
    15 0.021412 -0.957782 0.020047 -0.445076 -0.000003 -0.000008
    16 -0.249534 -2.846963 -0.174215 -0.473669 -0.000004 0.000010
    17 0.043235 -1.683940 0.096015 -1.322673 0.000001 0.000000
    18 0.031729 -1.160830 0.058836 -0.532354 0.000000 0.000000
    19 0.447951 -2.798983 -0.200441 -0.838269 0.073356 0.082665
    20 -0.032909 -1.480207 0.004935 -0.969806 0.000000 0.000000
    21 -0.027023 -1.076921 -0.020212 -0.453804 0.000000 0.000000
    22 1.164474 -2.543939 -0.170327 -0.892506 0.048909 0.064445
    23 0.024033 -1.129040 0.017807 -0.758521 0.000000 -0.000001
    24 0.014896 -0.883992 -0.019846 -0.523616 0.000000 0.000000
    25 -0.111496 -0.128692 -0.041031 0.322897 0.160753 1.329802
    26 0.583509 -1.197274 0.185379 0.221827 -1.044986 -0.742632
    27 1.535926 0.010247 0.005009 0.029548 -0.081112 -0.888724
    28 1.100770 0.004528 -0.010675 0.000000 0.000000 -0.706676
    29 0.957766 -2.746777 -0.090301 0.167513 -0.016835 -0.000986
    30 -0.033419 -1.397128 -0.011255 -1.123919 0.000000 0.000000
    31 -0.022361 -0.957433 0.018783 -0.429133 0.000000 0.000000
    32 0.250029 -2.820664 -0.238396 -0.960177 0.057277 -0.106688
    33 -0.049759 -1.680544 0.100479 -1.613589 0.000000 0.000000
    34 -0.034141 -1.148311 0.084779 -1.431177 0.000000 0.000000
    35 -0.488517 -2.755600 -0.228261 -1.056420 -0.000003 -0.122179
    36 0.039889 -1.479791 0.029854 -1.617528 0.000000 0.000000
    37 0.028785 -1.075733 -0.023110 -1.186852 0.000000 0.000000
    38 -1.180679 -2.507216 -0.193861 -0.933834 0.142518 -0.179217
    39 -0.024967 -1.123934 0.017595 -1.144416 0.000000 0.000000
    40 -0.020058 -0.890965 0.010091 -1.058979 0.000000 0.000000
    41 0.120180 -0.051600 -0.063059 0.012085 -2.987703 1.512552
  time 30
    0 8.154767 5.236848 -6.603200 0.624627 -1.839704 -0.869850
    1 -0.071918 -8.498730 -0.104137 0.265980 0.108421 -0.146997
    2 -0.563170 -3.210679 1.056120 0.801033 1.623797 0.763429
    3 0.000000 2.038369 1.408873 0.000000 0.000000 0.000000
    4 0.000000 -2.240708 2.058080 0.000000 0.000000 0.000000
    5 0.000000 -2.855216 0.622003 0.000000 0.000000 0.000000
    6 0.000001 -5.238309 0.651978 0.000000 0.000000 0.000000
    7 0.839505 -1.616282 -2.380197 0.000000 0.000001 -0.000001
    8 -3.218361 -5.883655 -9.196404 -0.487830 0.412239 0.748728
    9 0.096946 -8.450419 -0.009363 0.195977 -0.461932 0.182005
    10 -0.586769 -1.264477 0.200164 -0.050397 -0.309084 -2.670453
    11 1.522835 0.058680 0.016850 -0.000014 0.000010 0.093021
    12 1.117947 0.048424 -0.005765 0.000000 0.000000 0.087218
    13 -0.963867 -2.785143 -0.085346 -0.446848 0.000001 -0.000001
    14 0.028478 -1.403067 0.006272 -0.907559 -0.000007 -0.000010
    15 0.021412 -0.957782 0.020047 -0.445076 -0.000003 -0.000008
    16 -0.249534 -2.846963 -0.174215 -0.473669 -0.000004 0.000010
    17 0.043235 -1.683940 0.096015 -1.322673 0.000001 0.000000
    18 0.031729 -1.160830 0.058836 -0.532354 0.000000 0.000000
    19 0.447951 -2.798983 -0.200441 -0.838269 0.073356 0.082665
    20 -0.032909 -1.480207 0.004935 -0.969806 0.000000 0.000000
    21 -0.027023 -1.076921 -0.020212 -0.453804 0.000000 0.000000
    22 1.164474 -2.543939 -0.170327 -0.892506 0.048909 0.064445
    23 0.024033 -1.129040 0.017807 -0.758521 0.000000 -0.000001
    24 0.014896 -0.883992 -0.019846 -0.523616 0.000000 0.000000
    25 -0.111496 -0.128692 -0.041031 0.322897 0.160753 1.329802
    26 0.583509 -1.197274 0.185379 0.221827 -1.044986 -0.742632
    27 1.535926 0.010247 0.005009 0.029548 -0.081112 -0.888724
    28 1.100770 0.004528 -0.010675 0.000000 0.000000 -0.706676
    29 0.957766 -2.746777 -0.090301 0.167513 -0.016835 -0.000986
    30 -0.033419 -1.397128 -0.011255 -1.123919 0.000000 0.000000
    31 -0.022361 -0.957433 0.018783 -0.429133 0.000000 0.000000
    32 0.250029 -2.820664 -0.238396 -0.960177 0.057277 -0.106688
    33 -0.049759 -1.680544 0.100479 -1.613589 0.000000 0.000000
    34 -0.034141 -1.148311 0.084779 -1.431177 0.000000 0.000000
    35 -0.488517 -2.755600 -0.228261 -1.056420 -0.000003 -0.122179
    36 0.039889 -1.479791 0.029854 -1.617528 0.000000 0.000000
    37 0.028785 -1.075733 -0.023110 -1.186852 0.000000 0.000000
    38 -1.180679 -2.507216 -0.193861 -0.933834 0.142518 -0.179217
    39 -0.024967 -1.123934 0.017595 -1.144416 0.000000 0.000000
    40 -0.020058 -0.890965 0.010091 -1.058979 0.000000 0.000000
    41 0.120180 -0.051600 -0.063059 0.012085 -2.987703 1.512552
  time 31
    0 8.154767 5.236848 -6.603200 0.624627 -1.839704 -0.869850
    1 -0.071918 -8.498730 -0.104137 0.265980 0.108421 -0.146997
    2 -0.563170 -3.210679 1.056120 0.801033 1.623797 0.763429
    3 0.000000 2.038369 1.408873 0.000000 0.000000 0.000000
    4 0.000000 -2.240708 2.058080 0.000000 0.000000 0.000000
    5 0.000000 -2.855216 0.622003 0.000000 0.000000 0.000000
    6 0.000001 -5.238309 0.651978 0.000000 0.000000 0.000000
    7 0.839505 -1.616282 -2.380197 0.000000 0.000001 -0.000001
    8 -3.218361 -5.883655 -9.196404 -0.487830 0.412239 0.748728
    9 0.096946 -8.450419 -0.009363 0.195977 -0.461932 0.182005
    10 -0.586769 -1.264477 0.200164 -0.050397 -0.309084 -2.670453
    11 1.522835 0.058680 0.016850 -0.000014 0.000010 0.093021
    12 1.117947 0.048424 -0.005765 0.000000 0.000000 0.087218
    13 -0.963867 -2.785143 -0.085346 -0.446848 0.000001 -0.000001
    14 0.028478 -1.403067 0.006272 -0.907559 -0.000007 -0.000010
    15 0.021412 -0.957782 0.020047 -0.445076 -0.000003 -0.000008
    16 -0.249534 -2.846963 -0.174215 -0.473669 -0.000004 0.000010
    17 0.043235 -1.683940 0.096015 -1.322673 0.000001 0.000000
    18 0.031729 -1.160830 0.058836 -0.532354 0.000000 0.000000
    19 0.447951 -2.798983 -0.200441 -0.838269 0.073356 0.082665
    20 -0.032909 -1.480207 0.004935 -0.969806 0.000000 0.000000
    21 -0.027023 -1.076921 -0.020212 -0.453804 0.000000 0.000000
    22 1.164474 -2.543939 -0.170327 -0.892506 0.048909 0.064445
    23 0.024033 -1.129040 0.017807 -0.758521 0.000000 -0.000001
    24 0.014896 -0.883992 -0.019846 -0.523616 0.000000 0.000000
    25 -0.111496 -0.128692 -0.041031 0.322897 0.160753 1.329802
    26 0.583509 -1.197274 0.185379 0.221827 -1.044986 -0.742632
    27 1.535926 0.010247 0.005009 0.029548 -0.081112 -0.888724
    28 1.100770 0.004528 -0.010675 0.000000 0.000000 -0.706676
    29 0.957766 -2.746777 -0.090301 0.167513 -0.016835 -0.000986
    30 -0.033419 -1.397128 -0.011255 -1.123919 0.000000 0.000000
    31 -0.022361 -0.957433 0.018783 -0.429133 0.000000 0.000000
    32 0.250029 -2.820664 -0.238396 -0.960177 0.057277 -0.106688
    33 -0.049759 -1.680544 0.100479 -1.613589 0.000000 0.000000
    34 -0.034141 -1.148311 0.084779 -1.431177 0.000000 0.000000
    35 -0.488517 -2.755600 -0.228261 -1.056420 -0.000003 -0.122179
    36 0.039889 -1.479791 0.029854 -1.617528 0.000000 0.000000
    37 0.028785 -1.075733 -0.023110 -1.186852 0.000000 0.000000
    38 -1.180679 -2.507216 -0.193861 -0.933834 0.142518 -0.179217
    39 -0.024967 -1.123934 0.017595 -1.144416 0.000000 0.000000
    40 -0.020058 -0.890965 0.010091 -1.058979 0.000000 0.000000
    41 0.120180 -0.051600 -0.063059 0.012085 -2.987703 1.512552
  time 32
    0 8.154767 5.236848 -6.603200 0.624627 -1.839704 -0.869850
    1 -0.071918 -8.498730 -0.104137 0.265980 0.108421 -0.146997
    2 -0.563170 -3.210679 1.056120 0.801033 1.623797 0.763429
    3 0.000000 2.038369 1.408873 0.000000 0.000000 0.000000
    4 0.000000 -2.240708 2.058080 0.000000 0.000000 0.000000
    5 0.000000 -2.855216 0.622003 0.000000 0.000000 0.000000
    6 0.000001 -5.238309 0.651978 0.000000 0.000000 0.000000
    7 0.839505 -1.616282 -2.380197 0.000000 0.000001 -0.000001
    8 -3.218361 -5.883655 -9.196404 -0.487830 0.412239 0.748728
    9 0.096946 -8.450419 -0.009363 0.195977 -0.461932 0.182005
    10 -0.586769 -1.264477 0.200164 -0.050397 -0.309084 -2.670453
    11 1.522835 0.058680 0.016850 -0.000014 0.000010 0.093021
    12 1.117947 0.048424 -0.005765 0.000000 0.000000 0.087218
    13 -0.963867 -2.785143 -0.085346 -0.446848 0.000001 -0.000001
    14 0.028478 -1.403067 0.006272 -0.907559 -0.000007 -0.000010
    15 0.021412 -0.957782 0.020047 -0.445076 -0.000003 -0.000008
    16 -0.249534 -2.846963 -0.174215 -0.473669 -0.000004 0.000010
    17 0.043235 -1.683940 0.096015 -1.322673 0.000001 0.000000
    18 0.031729 -1.160830 0.058836 -0.532354 0.000000 0.000000
    19 0.447951 -2.798983 -0.200441 -0.838269 0.073356 0.082665
    20 -0.032909 -1.480207 0.004935 -0.969806 0.000000 0.000000
    21 -0.027023 -1.076921 -0.020212 -0.453804 0.000000 0.000000
    22 1.164474 -2.543939 -0.170327 -0.892506 0.048909 0.064445
    23 0.024033 -1.129040 0.017807 -0.758521 0.000000 -0.000001
    24 0.014896 -0.883992 -0.019846 -0.523616 0.000000 0.000000
    25 -0.111496 -0.128692 -0.041031 0.322897 0.160753 1.329802
    26 0.583509 -1.197274 0.185379 0.221827 -1.044986 -0.742632
    27 1.535926 0.010247 0.005009 0.029548 -0.081112 -0.888724
    28 1.100770 0.004528 -0.010675 0.000000 0.000000 -0.706676
    29 0.957766 -2.746777 -0.090301 0.167513 -0.016835 -0.000986
    30 -0.033419 -1.397128 -0.011255 -1.123919 0.000000 0.000000
    31 -0.022361 -0.957433 0.018783 -0.429133 0.000000 0.000000
    32 0.250029 -2.820664 -0.238396 -0.960177 0.057277 -0.106688
    33 -0.049759 -1.680544 0.100479 -1.613589 0.000000 0.000000
    34 -0.034141 -1.148311 0.084779 -1.431177 0.000000 0.000000
    35 -0.488517 -2.755600 -0.228261 -1.056420 -0.000003 -0.122179
    36 0.039889 -1.479791 0.029854 -1.617528 0.000000 0.000000
    37 0.028785 -1.075733 -0.023110 -1.186852 0.000000 0.000000
    38 -1.180679 -2.507216 -0.193861 -0.933834 0.142518 -0.179217
    39 -0.024967 -1.123934 0.017595 -1.144416 0.000000 0.000000
    40 -0.020058 -0.890965 0.010091 -1.058979 0.000000 0.000000
    41 0.120180 -0.051600 -0.063059 0.012085 -2.987703 1.512552
  time 33
    0 8.154767 5.236848 -6.603200 0.624627 -1.839704 -0.869850
    1 -0.071918 -8.498730 -0.104137 0.265980 0.108421 -0.146997
    2 -0.563170 -3.210679 1.056120 0.801033 1.623797 0.763429
    3 0.000000 2.038369 1.408873 0.000000 0.000000 0.000000
    4 0.000000 -2.240708 2.058080 0.000000 0.000000 0.000000
    5 0.000000 -2.855216 0.622003 0.000000 0.000000 0.000000
    6 0.000001 -5.238309 0.651978 0.000000 0.000000 0.000000
    7 0.839505 -1.616282 -2.380197 0.000000 0.000001 -0.000001
    8 -3.218361 -5.883655 -9.196404 -0.487830 0.412239 0.748728
    9 0.096946 -8.450419 -0.009363 0.195977 -0.461932 0.182005
    10 -0.586769 -1.264477 0.200164 -0.050397 -0.309084 -2.670453
    11 1.522835 0.058680 0.016850 -0.000014 0.000010 0.093021
    12 1.117947 0.048424 -0.005765 0.000000 0.000000 0.087218
    13 -0.963867 -2.785143 -0.085346 -0.446848 0.000001 -0.000001
    14 0.028478 -1.403067 0.006272 -0.907559 -0.000007 -0.000010
    15 0.021412 -0.957782 0.020047 -0.445076 -0.000003 -0.000008
    16 -0.249534 -2.846963 -0.174215 -0.473669 -0.000004 0.000010
    17 0.043235 -1.683940 0.096015 -1.322673 0.000001 0.000000
    18 0.031729 -1.160830 0.058836 -0.532354 0.000000 0.000000
    19 0.447951 -2.798983 -0.200441 -0.838269 0.073356 0.082665
    20 -0.032909 -1.480207 0.004935 -0.969806 0.000000 0.000000
    21 -0.027023 -1.076921 -0.020212 -0.453804 0.000000 0.000000
    22 1.164474 -2.543939 -0.170327 -0.892506 0.048909 0.064445
    23 0.024033 -1.129040 0.017807 -0.758521 0.000000 -0.000001
    24 0.014896 -0.883992 -0.019846 -0.523616 0.000000 0.000000
    25 -0.111496 -0.128692 -0.041031 0.322897 0.160753 1.329802
    26 0.583509 -1.197274 0.185379 0.221827 -1.044986 -0.742632
    27 1.535926 0.010247 0.005009 0.029548 -0.081112 -0.888724
    28 1.100770 0.004528 -0.010675 0.000000 0.000000 -0.706676
    29 0.957766 -2.746777 -0.090301 0.167513 -0.016835 -0.000986
    30 -0.033419 -1.397128 -0.011255 -1.123919 0.000000 0.000000
    31 -0.022361 -0.957433 0.018783 -0.429133 0.000000 0.000000
    32 0.250029 -2.820664 -0.238396 -0.960177 0.057277 -0.106688
    33 -0.049759 -1.680544 0.100479 -1.613589 0.000000 0.000000
    34 -0.034141 -1.148311 0.084779 -1.431177 0.000000 0.000000
    35 -0.488517 -2.755600 -0.228261 -1.056420 -0.000003 -0.122179
    36 0.039889 -1.479791 0.029854 -1.617528 0.000000 0.000000
    37 0.028785 -1.075733 -0.023110 -1.186852 0.000000 0.000000
    38 -1.180679 -2.507216 -0.193861 -0.933834 0.142518 -0.179217
    39 -0.024967 -1.123934 0.017595 -1.144416 0.000000 0.000000
    40 -0.020058 -0.890965 0.010091 -1.058979 0.000000 0.000000
    41 0.120180 -0.051600 -0.063059 0.012085 -2.987703 1.512552
  time 34
    0 8.154767 5.236848 -6.603200 0.624627 -1.839704 -0.869850
    1 -0.071918 -8.498730 -0.104137 0.265980 0.108421 -0.146997
    2 -0.563170 -3.210679 1.056120 0.801033 1.623797 0.763429
    3 0.000000 2.038369 1.408873 0.000000 0.000000 0.000000
    4 0.000000 -2.240708 2.058080 0.000000 0.000000 0.000000
    5 0.000000 -2.855216 0.622003 0.000000 0.000000 0.000000
    6 0.000001 -5.238309 0.651978 0.000000 0.000000 0.000000
    7 0.839505 -1.616282 -2.380197 0.000000 0.000001 -0.000001
    8 -3.218361 -5.883655 -9.196404 -0.487830 0.412239 0.748728
    9 0.096946 -8.450419 -0.009363 0.195977 -0.461932 0.182005
    10 -0.586769 -1.264477 0.200164 -0.050397 -0.309084 -2.670453
    11 1.522835 0.058680 0.016850 -0.000014 0.000010 0.093021
    12 1.117947 0.048424 -0.005765 0.000000 0.000000 0.087218
    13 -0.963867 -2.785143 -0.085346 -0.446848 0.000001 -0.000001
    14 0.028478 -1.403067 0.006272 -0.907559 -0.000007 -0.000010
    15 0.021412 -0.957782 0.020047 -0.445076 -0.000003 -0.000008
    16 -0.249534 -2.846963 -0.174215 -0.473669 -0.000004 0.000010
    17 0.043235 -1.683940 0.096015 -1.322673 0.000001 0.000000
    18 0.031729 -1.160830 0.058836 -0.532354 0.000000 0.000000
    19 0.447951 -2.798983 -0.200441 -0.838269 0.073356 0.082665
    20 -0.032909 -1.480207 0.004935 -0.969806 0.000000 0.000000
    21 -0.027023 -1.076921 -0.020212 -0.453804 0.000000 0.000000
    22 1.164474 -2.543939 -0.170327 -0.892506 0.048909 0.064445
    23 0.024033 -1.129040 0.017807 -0.758521 0.000000 -0.000001
    24 0.014896 -0.883992 -0.019846 -0.523616 0.000000 0.000000
    25 -0.111496 -0.128692 -0.041031 0.322897 0.160753 1.329802
    26 0.583509 -1.197274 0.185379 0.221827 -1.044986 -0.742632
    27 1.535926 0.010247 0.005009 0.029548 -0.081112 -0.888724
    28 1.100770 0.004528 -0.010675 0.000000 0.000000 -0.706676
    29 0.957766 -2.746777 -0.090301 0.167513 -0.016835 -0.000986
    30 -0.033419 -1.397128 -0.011255 -1.123919 0.000000 0.000000
    31 -0.022361 -0.957433 0.018783 -0.429133 0.000000 0.000000
    32 0.250029 -2.820664 -0.238396 -0.960177 0.057277 -0.106688
    33 -0.049759 -1.680544 0.100479 -1.613589 0.000000 0.000000
    34 -0.034141 -1.148311 0.084779 -1.431177 0.000000 0.000000
    35 -0.488517 -2.755600 -0.228261 -1.056420 -0.000003 -0.122179
    36 0.039889 -1.479791 0.029854 -1.617528 0.000000 0.000000
    37 0.028785 -1.075733 -0.023110 -1.186852 0.000000 0.000000
    38 -1.180679 -2.507216 -0.193861 -0.933834 0.142518 -0.179217
    39 -0.024967 -1.123934 0.017595 -1.144416 0.000000 0.000000
    40 -0.020058 -0.890965 0.010091 -1.058979 0.000000 0.000000
    41 0.120180 -0.051600 -0.063059 0.012085 -2.987703 1.512552
end
