version 1
nodes
  0 "Bone_Root" -1
  1 "Bone04" 0
  2 "Bone_Righthand" 1
  3 "gatling_root" 2
  4 "load" 3
  5 "gun01" 3
  6 "gun02" 5
  7 "gunstock" 3
  8 "trigger" 7
  9 "magazine" 3
  10 "Bone39" 2
  11 "Bone40" 10
  12 "Bone41" 11
  13 "Bone35" 2
  14 "Bone36" 13
  15 "Bone37" 14
  16 "Bone31" 2
  17 "Bone32" 16
  18 "Bone33" 17
  19 "Bone43" 2
  20 "Bone44" 19
  21 "Bone45" 20
  22 "Bone27" 2
  23 "Bone28" 22
  24 "Bone29" 23
  25 "Bone_Se_Hand-R" 2
  26 "Bone01" 0
  27 "Bone_Lefthand" 26
  28 "Bone13" 27
  29 "Bone14" 28
  30 "Bone15" 29
  31 "Bone17" 27
  32 "Bone18" 31
  33 "Bone19" 32
  34 "Bone21" 27
  35 "Bone22" 34
  36 "Bone23" 35
  37 "Bone09" 27
  38 "Bone10" 37
  39 "Bone11" 38
  40 "Bone05" 27
  41 "Bone06" 40
  42 "Bone07" 41
  43 "Bone_Se_Hand-L" 27
end
skeleton
  time 0
    0 0.000000 0.000000 0.000000 0.000000 0.000000 -0.000094
    1 0.058160 -6.761723 -12.482568 -0.100045 -5.934615 0.632231
    2 0.096944 -8.450418 -0.009364 0.278066 -0.276658 0.114440
    3 3.768138 0.512573 0.996006 4.368260 0.090750 0.732941
    4 -3.054055 -6.061510 0.000003 0.000001 0.000001 0.005300
    5 -2.010682 -3.271751 0.000002 0.000000 0.000000 -3.136292
    6 11.679249 -0.000002 0.000000 0.000000 0.000000 0.000000
    7 10.482985 -0.550526 -0.000004 0.000000 0.000000 -3.136292
    8 4.552885 2.143378 -0.000001 0.000000 0.000000 -1.570796
    9 3.124239 -3.246087 -0.000008 0.000000 0.000000 -3.136292
    10 0.447952 -2.798983 -0.200442 -0.738074 -0.102210 0.041797
    11 -0.032910 -1.480206 0.004936 -0.802775 0.000000 0.000002
    12 -0.027022 -1.076919 -0.020212 -0.434237 0.000000 0.000000
    13 -0.249534 -2.846962 -0.174215 -0.372660 -0.091819 0.024622
    14 0.043235 -1.683940 0.096014 -1.033446 0.002823 -0.000167
    15 0.031729 -1.160831 0.058836 -1.000043 0.000642 0.008372
    16 -0.963866 -2.785142 -0.085346 -0.269123 0.014961 -0.024958
    17 0.028479 -1.403069 0.006271 -0.285440 0.000000 0.000000
    18 0.021413 -0.957782 0.020047 -0.431473 0.000000 0.000000
    19 1.164474 -2.543938 -0.170328 -0.858262 -0.318398 0.068471
    20 0.024033 -1.129042 0.017806 -0.500933 0.000000 0.000001
    21 0.014896 -0.883989 -0.019845 -0.267454 0.000000 0.000000
    22 -0.547706 -1.276194 0.008752 -0.015000 -0.716336 -2.528360
    23 1.522835 0.128996 -0.182375 0.265658 0.160195 0.522271
    24 1.117948 0.048424 -0.005764 -0.002580 -0.025066 0.158722
    25 -0.139399 -0.111697 0.014397 0.285382 -0.030687 1.580508
    26 9.587823 7.275833 -11.673667 1.277329 -1.936197 -1.354487
    27 -0.071918 -8.498732 -0.104137 -0.036395 0.273210 -0.341615
    28 -0.488517 -2.755600 -0.228261 -1.091352 -0.300440 -0.445601
    29 0.039888 -1.479789 0.029853 -0.928028 0.000000 0.000000
    30 0.028786 -1.075730 -0.023111 -1.481379 0.000000 0.000000
    31 0.250028 -2.820664 -0.238396 -0.620838 -0.150751 -0.537343
    32 -0.049759 -1.680545 0.100480 -1.463615 0.000000 -0.000002
    33 -0.034141 -1.148312 0.084779 -1.087260 0.000000 0.000000
    34 0.957766 -2.746776 -0.090301 -0.063286 -0.242586 -0.427231
    35 -0.033419 -1.397128 -0.011255 -0.779083 0.124808 -0.122316
    36 -0.022361 -0.957434 0.018783 -1.043272 0.000000 0.000000
    37 -1.180680 -2.507215 -0.193861 -1.402521 -0.167650 -0.612250
    38 -0.024966 -1.123935 0.017594 -0.977951 0.000000 0.000001
    39 -0.020057 -0.890966 0.010091 -0.933396 0.000000 0.000000
    40 0.583510 -1.197274 0.185377 0.272562 -1.003483 -0.533072
    41 1.535926 0.010244 0.005008 0.440185 -0.138709 -1.296608
    42 1.100770 0.004526 -0.010676 -0.011449 0.011503 -0.607426
    43 0.120152 -0.050266 -0.054488 0.287568 3.110905 1.561085
  time 1
    0 0.000000 0.000000 0.000000 0.049952 0.000000 -0.000094
    1 0.058160 -5.648408 -12.482568 -0.095934 -5.937680 0.633339
    2 0.096944 -8.450418 -0.009364 0.278066 -0.276658 0.114440
    3 3.768138 0.512573 0.996006 4.368260 0.090750 0.732941
    4 -0.061776 -6.049791 0.000003 0.000001 0.000001 0.005300
    5 -1.170813 -3.271751 0.000002 0.000000 0.000000 -3.136292
    6 11.679249 -0.000002 0.000000 -0.123489 0.000000 0.000000
    7 10.482985 -0.550526 -0.000004 0.000000 0.000000 -3.136292
    8 5.939646 -2.712239 -0.000001 0.000000 0.000000 -4.706992
    9 3.124239 -3.246087 -0.000008 -0.316575 0.000000 -3.136292
    10 0.447952 -2.798983 -0.200442 -0.738074 -0.102210 0.041797
    11 -0.032910 -1.480206 0.004936 -0.802775 0.000000 0.000002
    12 -0.027022 -1.076919 -0.020212 -0.434237 0.000000 0.000000
    13 -0.249534 -2.846962 -0.174215 -0.372660 -0.091819 0.024622
    14 0.043235 -1.683940 0.096014 -1.033446 0.002823 -0.000167
    15 0.031729 -1.160831 0.058836 -1.000043 0.000642 0.008372
    16 -0.963866 -2.785142 -0.085346 -0.269123 0.014961 -0.024958
    17 0.028479 -1.403069 0.006271 -0.285440 0.000000 0.000000
    18 0.021413 -0.957782 0.020047 -0.431473 0.000000 0.000000
    19 1.164474 -2.543938 -0.170328 -0.858262 -0.318398 0.068471
    20 0.024033 -1.129042 0.017806 -0.500933 0.000000 0.000001
    21 0.014896 -0.883989 -0.019845 -0.267454 0.000000 0.000000
    22 -0.547706 -1.276194 0.008752 -0.015000 -0.716336 -2.528360
    23 1.522835 0.128996 -0.182375 0.265658 0.160195 0.522271
    24 1.117948 0.048424 -0.005764 -0.002580 -0.025066 0.158722
    25 -0.139399 -0.111697 0.014397 0.285382 -0.030687 1.580508
    26 9.587823 7.717253 -11.673667 1.294652 -1.969311 -1.370513
    27 -0.071918 -8.498732 -0.104137 -0.036395 0.273210 -0.341615
    28 -0.488517 -2.755600 -0.228261 -1.091352 -0.300440 -0.445601
    29 0.039888 -1.479789 0.029853 -0.928028 0.000000 0.000000
    30 0.028786 -1.075730 -0.023111 -1.481379 0.000000 0.000000
    31 0.250028 -2.820664 -0.238396 -0.620838 -0.150751 -0.537343
    32 -0.049759 -1.680545 0.100480 -1.463615 0.000000 -0.000002
    33 -0.034141 -1.148312 0.084779 -1.087260 0.000000 0.000000
    34 0.957766 -2.746776 -0.090301 -0.063286 -0.242586 -0.427231
    35 -0.033419 -1.397128 -0.011255 -0.779083 0.124808 -0.122316
    36 -0.022361 -0.957434 0.018783 -1.043272 0.000000 0.000000
    37 -1.180680 -2.507215 -0.193861 -1.402521 -0.167650 -0.612250
    38 -0.024966 -1.123935 0.017594 -0.977951 0.000000 0.000001
    39 -0.020057 -0.890966 0.010091 -0.933396 0.000000 0.000000
    40 0.583510 -1.197274 0.185377 0.272562 -1.003483 -0.533072
    41 1.535926 0.010244 0.005008 0.440185 -0.138709 -1.296608
    42 1.100770 0.004526 -0.010676 -0.011449 0.011503 -0.607426
    43 0.120152 -0.050266 -0.054488 0.287568 3.110905 1.561085
  time 2
    0 0.000000 0.000000 0.000000 0.046249 0.000000 -0.000094
    1 0.058160 -4.535092 -12.482568 -0.091802 -5.940840 0.634517
    2 0.096944 -8.450418 -0.009364 0.278066 -0.276658 0.114440
    3 3.768138 0.512573 0.996006 4.368260 0.090750 0.732941
    4 -0.370379 -6.053697 0.000003 0.000001 0.000001 0.005300
    5 -0.327037 -3.267845 0.000002 0.000000 0.000000 -3.136292
    6 11.679249 -0.000002 0.000000 -0.465386 0.000000 0.000000
    7 10.482985 -0.550526 -0.000004 0.000000 0.000000 -3.136292
    8 4.552885 2.143378 -0.000001 0.000000 0.000000 -1.570796
    9 3.124239 -3.246087 -0.000008 -1.108589 0.000000 -3.136292
    10 0.447952 -2.798983 -0.200442 -0.738074 -0.102210 0.041797
    11 -0.032910 -1.480206 0.004936 -0.802775 0.000000 0.000002
    12 -0.027022 -1.076919 -0.020212 -0.434237 0.000000 0.000000
    13 -0.249534 -2.846962 -0.174215 -0.372660 -0.091819 0.024622
    14 0.043235 -1.683940 0.096014 -1.033446 0.002823 -0.000167
    15 0.031729 -1.160831 0.058836 -1.000043 0.000642 0.008372
    16 -0.963866 -2.785142 -0.085346 -0.269123 0.014961 -0.024958
    17 0.028479 -1.403069 0.006271 -0.285440 0.000000 0.000000
    18 0.021413 -0.957782 0.020047 -0.431473 0.000000 0.000000
    19 1.164474 -2.543938 -0.170328 -0.858262 -0.318398 0.068471
    20 0.024033 -1.129042 0.017806 -0.500933 0.000000 0.000001
    21 0.014896 -0.883989 -0.019845 -0.267454 0.000000 0.000000
    22 -0.547706 -1.276194 0.008752 -0.015000 -0.716336 -2.528360
    23 1.522835 0.128996 -0.182375 0.265658 0.160195 0.522271
    24 1.117948 0.048424 -0.005764 -0.002580 -0.025066 0.158722
    25 -0.139399 -0.111697 0.014397 0.285382 -0.030687 1.580508
    26 9.587823 8.166486 -11.673667 1.311975 -2.002520 -1.386444
    27 -0.071918 -8.498732 -0.104137 -0.036395 0.273210 -0.341615
    28 -0.488517 -2.755600 -0.228261 -1.091352 -0.300440 -0.445601
    29 0.039888 -1.479789 0.029853 -0.928028 0.000000 0.000000
    30 0.028786 -1.075730 -0.023111 -1.481379 0.000000 0.000000
    31 0.250028 -2.820664 -0.238396 -0.620838 -0.150751 -0.537343
    32 -0.049759 -1.680545 0.100480 -1.463615 0.000000 -0.000002
    33 -0.034141 -1.148312 0.084779 -1.087260 0.000000 0.000000
    34 0.957766 -2.746776 -0.090301 -0.063286 -0.242586 -0.427231
    35 -0.033419 -1.397128 -0.011255 -0.779083 0.124808 -0.122316
    36 -0.022361 -0.957434 0.018783 -1.043272 0.000000 0.000000
    37 -1.180680 -2.507215 -0.193861 -1.402521 -0.167650 -0.612250
    38 -0.024966 -1.123935 0.017594 -0.977951 0.000000 0.000001
    39 -0.020057 -0.890966 0.010091 -0.933396 0.000000 0.000000
    40 0.583510 -1.197274 0.185377 0.272562 -1.003483 -0.533072
    41 1.535926 0.010244 0.005008 0.440185 -0.138709 -1.296608
    42 1.100770 0.004526 -0.010676 -0.011449 0.011503 -0.607426
    43 0.120152 -0.050266 -0.054488 0.287568 3.110905 1.561085
  time 3
    0 0.000000 0.000000 0.000000 0.036984 0.000000 -0.000094
    1 0.058160 -4.632752 -12.482568 -0.134093 -5.912492 0.619416
    2 0.096944 -8.450418 -0.009364 0.278066 -0.276658 0.114440
    3 3.768138 0.512573 0.996006 4.368260 0.090750 0.732941
    4 -1.116496 -6.057604 0.000003 0.000001 0.000001 0.005300
    5 -0.502824 -3.267845 0.000002 0.000000 0.000000 -3.136292
    6 11.679249 -0.000002 0.000000 -0.981682 0.000000 0.000000
    7 10.482985 -0.550526 -0.000004 0.000000 0.000000 -3.136292
    8 4.552885 2.143378 -0.000001 0.000000 0.000000 -1.570796
    9 3.124239 -3.246087 -0.000008 1.003511 -3.141592 -6.277788
    10 0.447952 -2.798983 -0.200442 -0.738074 -0.102210 0.041797
    11 -0.032910 -1.480206 0.004936 -0.802775 0.000000 0.000002
    12 -0.027022 -1.076919 -0.020212 -0.434237 0.000000 0.000000
    13 -0.249534 -2.846962 -0.174215 -0.372660 -0.091819 0.024622
    14 0.043235 -1.683940 0.096014 -1.033446 0.002823 -0.000167
    15 0.031729 -1.160831 0.058836 -1.000043 0.000642 0.008372
    16 -0.963866 -2.785142 -0.085346 -0.269123 0.014961 -0.024958
    17 0.028479 -1.403069 0.006271 -0.285440 0.000000 0.000000
    18 0.021413 -0.957782 0.020047 -0.431473 0.000000 0.000000
    19 1.164474 -2.543938 -0.170328 -0.858262 -0.318398 0.068471
    20 0.024033 -1.129042 0.017806 -0.500933 0.000000 0.000001
    21 0.014896 -0.883989 -0.019845 -0.267454 0.000000 0.000000
    22 -0.547706 -1.276194 0.008752 -0.015000 -0.716336 -2.528360
    23 1.522835 0.128996 -0.182375 0.265658 0.160195 0.522271
    24 1.117948 0.048424 -0.005764 -0.002580 -0.025066 0.158722
    25 -0.139399 -0.111697 0.014397 0.285382 -0.030687 1.580508
    26 9.587823 8.127422 -11.673667 1.310444 -1.999553 -1.385117
    27 -0.071918 -8.498732 -0.104137 -0.036395 0.273210 -0.341615
    28 -0.488517 -2.755600 -0.228261 -1.091352 -0.300440 -0.445601
    29 0.039888 -1.479789 0.029853 -0.928028 0.000000 0.000000
    30 0.028786 -1.075730 -0.023111 -1.481379 0.000000 0.000000
    31 0.250028 -2.820664 -0.238396 -0.620838 -0.150751 -0.537343
    32 -0.049759 -1.680545 0.100480 -1.463615 0.000000 -0.000002
    33 -0.034141 -1.148312 0.084779 -1.087260 0.000000 0.000000
    34 0.957766 -2.746776 -0.090301 -0.063286 -0.242586 -0.427231
    35 -0.033419 -1.397128 -0.011255 -0.779083 0.124808 -0.122316
    36 -0.022361 -0.957434 0.018783 -1.043272 0.000000 0.000000
    37 -1.180680 -2.507215 -0.193861 -1.402521 -0.167650 -0.612250
    38 -0.024966 -1.123935 0.017594 -0.977951 0.000000 0.000001
    39 -0.020057 -0.890966 0.010091 -0.933396 0.000000 0.000000
    40 0.583510 -1.197274 0.185377 0.272562 -1.003483 -0.533072
    41 1.535926 0.010244 0.005008 0.440185 -0.138709 -1.296608
    42 1.100770 0.004526 -0.010676 -0.011449 0.011503 -0.607426
    43 0.120152 -0.050266 -0.054488 0.287568 3.110905 1.561085
  time 4
    0 0.000000 0.000000 0.000000 0.024976 0.000000 -0.000094
    1 0.058160 -4.882759 -12.482568 -0.176406 -5.884049 0.604316
    2 0.096944 -8.450418 -0.009364 0.278066 -0.276658 0.114440
    3 3.768138 0.512573 0.996006 4.368260 0.090750 0.732941
    4 -2.003242 -6.061510 0.000003 0.000001 0.000001 0.005300
    5 -0.920805 -3.271751 0.000002 0.000000 0.000000 -3.136292
    6 11.679249 -0.000002 0.000000 -1.628849 0.000000 0.000000
    7 10.482985 -0.550526 -0.000004 0.000000 0.000000 -3.136292
    8 4.552885 2.143378 -0.000001 0.000000 0.000000 -1.570796
    9 3.124239 -3.246087 -0.000008 -0.025694 3.141592 -6.277788
    10 0.447952 -2.798983 -0.200442 -0.738074 -0.102210 0.041797
    11 -0.032910 -1.480206 0.004936 -0.802775 0.000000 0.000002
    12 -0.027022 -1.076919 -0.020212 -0.434237 0.000000 0.000000
    13 -0.249534 -2.846962 -0.174215 -0.372660 -0.091819 0.024622
    14 0.043235 -1.683940 0.096014 -1.033446 0.002823 -0.000167
    15 0.031729 -1.160831 0.058836 -1.000043 0.000642 0.008372
    16 -0.963866 -2.785142 -0.085346 -0.269123 0.014961 -0.024958
    17 0.028479 -1.403069 0.006271 -0.285440 0.000000 0.000000
    18 0.021413 -0.957782 0.020047 -0.431473 0.000000 0.000000
    19 1.164474 -2.543938 -0.170328 -0.858262 -0.318398 0.068471
    20 0.024033 -1.129042 0.017806 -0.500933 0.000000 0.000001
    21 0.014896 -0.883989 -0.019845 -0.267454 0.000000 0.000000
    22 -0.547706 -1.276194 0.008752 -0.015000 -0.716336 -2.528360
    23 1.522835 0.128996 -0.182375 0.265658 0.160195 0.522271
    24 1.117948 0.048424 -0.005764 -0.002580 -0.025066 0.158722
    25 -0.139399 -0.111697 0.014397 0.285382 -0.030687 1.580508
    26 9.587823 8.021950 -11.673667 1.306520 -1.992184 -1.381418
    27 -0.071918 -8.498732 -0.104137 -0.036395 0.273210 -0.341615
    28 -0.488517 -2.755600 -0.228261 -1.091352 -0.300440 -0.445601
    29 0.039888 -1.479789 0.029853 -0.928028 0.000000 0.000000
    30 0.028786 -1.075730 -0.023111 -1.481379 0.000000 0.000000
    31 0.250028 -2.820664 -0.238396 -0.620838 -0.150751 -0.537343
    32 -0.049759 -1.680545 0.100480 -1.463615 0.000000 -0.000002
    33 -0.034141 -1.148312 0.084779 -1.087260 0.000000 0.000000
    34 0.957766 -2.746776 -0.090301 -0.063286 -0.242586 -0.427231
    35 -0.033419 -1.397128 -0.011255 -0.779083 0.124808 -0.122316
    36 -0.022361 -0.957434 0.018783 -1.043272 0.000000 0.000000
    37 -1.180680 -2.507215 -0.193861 -1.402521 -0.167650 -0.612250
    38 -0.024966 -1.123935 0.017594 -0.977951 0.000000 0.000001
    39 -0.020057 -0.890966 0.010091 -0.933396 0.000000 0.000000
    40 0.583510 -1.197274 0.185377 0.272562 -1.003483 -0.533072
    41 1.535926 0.010244 0.005008 0.440185 -0.138709 -1.296608
    42 1.100770 0.004526 -0.010676 -0.011449 0.011503 -0.607426
    43 0.120152 -0.050266 -0.054488 0.287568 3.110905 1.561085
  time 5
    0 0.000000 0.000000 0.000000 0.012931 0.000000 -0.000094
    1 0.058160 -5.242145 -12.482568 -0.170746 -5.887784 0.606394
    2 0.096944 -8.450418 -0.009364 0.278066 -0.276658 0.114440
    3 3.768138 0.512573 0.996006 4.368260 0.090750 0.732941
    4 -2.749358 -6.061510 0.000003 0.000001 0.000001 0.005300
    5 -1.420820 -3.271751 0.000002 0.000000 0.000000 -3.136292
    6 11.679249 -0.000002 0.000000 -2.363457 0.000000 0.000000
    7 10.482985 -0.550526 -0.000004 0.000000 0.000000 -3.136292
    8 4.552885 2.143378 -0.000001 0.000000 0.000000 -1.570796
    9 3.124239 -3.246087 -0.000008 -0.817707 3.141592 -6.277788
    10 0.447952 -2.798983 -0.200442 -0.738074 -0.102210 0.041797
    11 -0.032910 -1.480206 0.004936 -0.802775 0.000000 0.000002
    12 -0.027022 -1.076919 -0.020212 -0.434237 0.000000 0.000000
    13 -0.249534 -2.846962 -0.174215 -0.372660 -0.091819 0.024622
    14 0.043235 -1.683940 0.096014 -1.033446 0.002823 -0.000167
    15 0.031729 -1.160831 0.058836 -1.000043 0.000642 0.008372
    16 -0.963866 -2.785142 -0.085346 -0.269123 0.014961 -0.024958
    17 0.028479 -1.403069 0.006271 -0.285440 0.000000 0.000000
    18 0.021413 -0.957782 0.020047 -0.431473 0.000000 0.000000
    19 1.164474 -2.543938 -0.170328 -0.858262 -0.318398 0.068471
    20 0.024033 -1.129042 0.017806 -0.500933 0.000000 0.000001
    21 0.014896 -0.883989 -0.019845 -0.267454 0.000000 0.000000
    22 -0.547706 -1.276194 0.008752 -0.015000 -0.716336 -2.528360
    23 1.522835 0.128996 -0.182375 0.265658 0.160195 0.522271
    24 1.117948 0.048424 -0.005764 -0.002580 -0.025066 0.158722
    25 -0.139399 -0.111697 0.014397 0.285382 -0.030687 1.580508
    26 9.587823 7.885227 -11.673667 1.301064 -1.981561 -1.376393
    27 -0.071918 -8.498732 -0.104137 -0.036395 0.273210 -0.341615
    28 -0.488517 -2.755600 -0.228261 -1.091352 -0.300440 -0.445601
    29 0.039888 -1.479789 0.029853 -0.928028 0.000000 0.000000
    30 0.028786 -1.075730 -0.023111 -1.481379 0.000000 0.000000
    31 0.250028 -2.820664 -0.238396 -0.620838 -0.150751 -0.537343
    32 -0.049759 -1.680545 0.100480 -1.463615 0.000000 -0.000002
    33 -0.034141 -1.148312 0.084779 -1.087260 0.000000 0.000000
    34 0.957766 -2.746776 -0.090301 -0.063286 -0.242586 -0.427231
    35 -0.033419 -1.397128 -0.011255 -0.779083 0.124808 -0.122316
    36 -0.022361 -0.957434 0.018783 -1.043272 0.000000 0.000000
    37 -1.180680 -2.507215 -0.193861 -1.402521 -0.167650 -0.612250
    38 -0.024966 -1.123935 0.017594 -0.977951 0.000000 0.000001
    39 -0.020057 -0.890966 0.010091 -0.933396 0.000000 0.000000
    40 0.583510 -1.197274 0.185377 0.272562 -1.003483 -0.533072
    41 1.535926 0.010244 0.005008 0.440185 -0.138709 -1.296608
    42 1.100770 0.004526 -0.010676 -0.011449 0.011503 -0.607426
    43 0.120152 -0.050266 -0.054488 0.287568 3.110905 1.561085
  time 6
    0 0.000000 0.000000 0.000000 0.003679 0.000000 -0.000094
    1 0.058160 -5.648408 -12.482568 -0.156606 -5.897169 0.611589
    2 0.096944 -8.450418 -0.009364 0.278066 -0.276658 0.114440
    3 3.768138 0.512573 0.996006 4.368260 0.090750 0.732941
    4 -3.054055 -6.061510 0.000003 0.000001 0.000001 0.005300
    5 -1.842708 -3.271751 0.000002 0.000000 0.000000 -3.136292
    6 11.679249 -0.000002 0.000000 3.141592 0.000000 0.000000
    7 10.482985 -0.550526 -0.000004 0.000000 0.000000 -3.136292
    8 4.552885 2.143378 -0.000001 0.000000 0.000000 -1.570796
    9 3.124239 -3.246087 -0.000008 -1.134379 3.141592 -6.277788
    10 0.447952 -2.798983 -0.200442 -0.738074 -0.102210 0.041797
    11 -0.032910 -1.480206 0.004936 -0.802775 0.000000 0.000002
    12 -0.027022 -1.076919 -0.020212 -0.434237 0.000000 0.000000
    13 -0.249534 -2.846962 -0.174215 -0.372660 -0.091819 0.024622
    14 0.043235 -1.683940 0.096014 -1.033446 0.002823 -0.000167
    15 0.031729 -1.160831 0.058836 -1.000043 0.000642 0.008372
    16 -0.963866 -2.785142 -0.085346 -0.269123 0.014961 -0.024958
    17 0.028479 -1.403069 0.006271 -0.285440 0.000000 0.000000
    18 0.021413 -0.957782 0.020047 -0.431473 0.000000 0.000000
    19 1.164474 -2.543938 -0.170328 -0.858262 -0.318398 0.068471
    20 0.024033 -1.129042 0.017806 -0.500933 0.000000 0.000001
    21 0.014896 -0.883989 -0.019845 -0.267454 0.000000 0.000000
    22 -0.547706 -1.276194 0.008752 -0.015000 -0.716336 -2.528360
    23 1.522835 0.128996 -0.182375 0.265658 0.160195 0.522271
    24 1.117948 0.048424 -0.005764 -0.002580 -0.025066 0.158722
    25 -0.139399 -0.111697 0.014397 0.285382 -0.030687 1.580508
    26 9.587823 7.717253 -11.673667 1.294652 -1.969311 -1.370513
    27 -0.071918 -8.498732 -0.104137 -0.036395 0.273210 -0.341615
    28 -0.488517 -2.755600 -0.228261 -1.091352 -0.300440 -0.445601
    29 0.039888 -1.479789 0.029853 -0.928028 0.000000 0.000000
    30 0.028786 -1.075730 -0.023111 -1.481379 0.000000 0.000000
    31 0.250028 -2.820664 -0.238396 -0.620838 -0.150751 -0.537343
    32 -0.049759 -1.680545 0.100480 -1.463615 0.000000 -0.000002
    33 -0.034141 -1.148312 0.084779 -1.087260 0.000000 0.000000
    34 0.957766 -2.746776 -0.090301 -0.063286 -0.242586 -0.427231
    35 -0.033419 -1.397128 -0.011255 -0.779083 0.124808 -0.122316
    36 -0.022361 -0.957434 0.018783 -1.043272 0.000000 0.000000
    37 -1.180680 -2.507215 -0.193861 -1.402521 -0.167650 -0.612250
    38 -0.024966 -1.123935 0.017594 -0.977951 0.000000 0.000001
    39 -0.020057 -0.890966 0.010091 -0.933396 0.000000 0.000000
    40 0.583510 -1.197274 0.185377 0.272562 -1.003483 -0.533072
    41 1.535926 0.010244 0.005008 0.440185 -0.138709 -1.296608
    42 1.100770 0.004526 -0.010676 -0.011449 0.011503 -0.607426
    43 0.120152 -0.050266 -0.054488 0.287568 3.110905 1.561085
  time 7
    0 0.000000 0.000000 0.000000 0.000000 0.000000 -0.000094
    1 0.058160 -6.058576 -12.482568 -0.138225 -5.909332 0.618308
    2 0.096944 -8.450418 -0.009364 0.278066 -0.276658 0.114440
    3 3.768138 0.512573 0.996006 4.368260 0.090750 0.732941
    4 -3.054055 -6.061510 0.000003 0.000001 0.000001 0.005300
    5 -2.010682 -3.271751 0.000002 0.000000 0.000000 -3.136292
    6 11.679249 -0.000002 0.000000 2.363457 0.000000 0.000000
    7 10.482985 -0.550526 -0.000004 0.000000 0.000000 -3.136292
    8 4.552885 2.143378 -0.000001 0.000000 0.000000 -1.570796
    9 3.124239 -3.246087 -0.000008 0.000000 0.000000 -3.136292
    10 0.447952 -2.798983 -0.200442 -0.738074 -0.102210 0.041797
    11 -0.032910 -1.480206 0.004936 -0.802775 0.000000 0.000002
    12 -0.027022 -1.076919 -0.020212 -0.434237 0.000000 0.000000
    13 -0.249534 -2.846962 -0.174215 -0.372660 -0.091819 0.024622
    14 0.043235 -1.683940 0.096014 -1.033446 0.002823 -0.000167
    15 0.031729 -1.160831 0.058836 -1.000043 0.000642 0.008372
    16 -0.963866 -2.785142 -0.085346 -0.269123 0.014961 -0.024958
    17 0.028479 -1.403069 0.006271 -0.285440 0.000000 0.000000
    18 0.021413 -0.957782 0.020047 -0.431473 0.000000 0.000000
    19 1.164474 -2.543938 -0.170328 -0.858262 -0.318398 0.068471
    20 0.024033 -1.129042 0.017806 -0.500933 0.000000 0.000001
    21 0.014896 -0.883989 -0.019845 -0.267454 0.000000 0.000000
    22 -0.547706 -1.276194 0.008752 -0.015000 -0.716336 -2.528360
    23 1.522835 0.128996 -0.182375 0.265658 0.160195 0.522271
    24 1.117948 0.048424 -0.005764 -0.002580 -0.025066 0.158722
    25 -0.139399 -0.111697 0.014397 0.285382 -0.030687 1.580508
    26 9.587823 7.557092 -11.673667 1.288335 -1.957156 -1.364634
    27 -0.071918 -8.498732 -0.104137 -0.036395 0.273210 -0.341615
    28 -0.488517 -2.755600 -0.228261 -1.091352 -0.300440 -0.445601
    29 0.039888 -1.479789 0.029853 -0.928028 0.000000 0.000000
    30 0.028786 -1.075730 -0.023111 -1.481379 0.000000 0.000000
    31 0.250028 -2.820664 -0.238396 -0.620838 -0.150751 -0.537343
    32 -0.049759 -1.680545 0.100480 -1.463615 0.000000 -0.000002
    33 -0.034141 -1.148312 0.084779 -1.087260 0.000000 0.000000
    34 0.957766 -2.746776 -0.090301 -0.063286 -0.242586 -0.427231
    35 -0.033419 -1.397128 -0.011255 -0.779083 0.124808 -0.122316
    36 -0.022361 -0.957434 0.018783 -1.043272 0.000000 0.000000
    37 -1.180680 -2.507215 -0.193861 -1.402521 -0.167650 -0.612250
    38 -0.024966 -1.123935 0.017594 -0.977951 0.000000 0.000001
    39 -0.020057 -0.890966 0.010091 -0.933396 0.000000 0.000000
    40 0.583510 -1.197274 0.185377 0.272562 -1.003483 -0.533072
    41 1.535926 0.010244 0.005008 0.440185 -0.138709 -1.296608
    42 1.100770 0.004526 -0.010676 -0.011449 0.011503 -0.607426
    43 0.120152 -0.050266 -0.054488 0.287568 3.110905 1.561085
  time 8
    0 0.000000 0.000000 0.000000 0.000000 0.000000 -0.000094
    1 0.058160 -6.414056 -12.482568 -0.119845 -5.921495 0.625027
    2 0.096944 -8.450418 -0.009364 0.278066 -0.276658 0.114440
    3 3.768138 0.512573 0.996006 4.368260 0.090750 0.732941
    4 -3.054055 -6.061510 0.000003 0.000001 0.000001 0.005300
    5 -2.010682 -3.271751 0.000002 0.000000 0.000000 -3.136292
    6 11.679249 -0.000002 0.000000 1.628849 0.000000 0.000000
    7 10.482985 -0.550526 -0.000004 0.000000 0.000000 -3.136292
    8 4.552885 2.143378 -0.000001 0.000000 0.000000 -1.570796
    9 3.124239 -3.246087 -0.000008 0.000000 0.000000 -3.136292
    10 0.447952 -2.798983 -0.200442 -0.738074 -0.102210 0.041797
    11 -0.032910 -1.480206 0.004936 -0.802775 0.000000 0.000002
    12 -0.027022 -1.076919 -0.020212 -0.434237 0.000000 0.000000
    13 -0.249534 -2.846962 -0.174215 -0.372660 -0.091819 0.024622
    14 0.043235 -1.683940 0.096014 -1.033446 0.002823 -0.000167
    15 0.031729 -1.160831 0.058836 -1.000043 0.000642 0.008372
    16 -0.963866 -2.785142 -0.085346 -0.269123 0.014961 -0.024958
    17 0.028479 -1.403069 0.006271 -0.285440 0.000000 0.000000
    18 0.021413 -0.957782 0.020047 -0.431473 0.000000 0.000000
    19 1.164474 -2.543938 -0.170328 -0.858262 -0.318398 0.068471
    20 0.024033 -1.129042 0.017806 -0.500933 0.000000 0.000001
    21 0.014896 -0.883989 -0.019845 -0.267454 0.000000 0.000000
    22 -0.547706 -1.276194 0.008752 -0.015000 -0.716336 -2.528360
    23 1.522835 0.128996 -0.182375 0.265658 0.160195 0.522271
    24 1.117948 0.048424 -0.005764 -0.002580 -0.025066 0.158722
    25 -0.139399 -0.111697 0.014397 0.285382 -0.030687 1.580508
    26 9.587823 7.416463 -11.673667 1.282784 -1.946533 -1.359513
    27 -0.071918 -8.498732 -0.104137 -0.036395 0.273210 -0.341615
    28 -0.488517 -2.755600 -0.228261 -1.091352 -0.300440 -0.445601
    29 0.039888 -1.479789 0.029853 -0.928028 0.000000 0.000000
    30 0.028786 -1.075730 -0.023111 -1.481379 0.000000 0.000000
    31 0.250028 -2.820664 -0.238396 -0.620838 -0.150751 -0.537343
    32 -0.049759 -1.680545 0.100480 -1.463615 0.000000 -0.000002
    33 -0.034141 -1.148312 0.084779 -1.087260 0.000000 0.000000
    34 0.957766 -2.746776 -0.090301 -0.063286 -0.242586 -0.427231
    35 -0.033419 -1.397128 -0.011255 -0.779083 0.124808 -0.122316
    36 -0.022361 -0.957434 0.018783 -1.043272 0.000000 0.000000
    37 -1.180680 -2.507215 -0.193861 -1.402521 -0.167650 -0.612250
    38 -0.024966 -1.123935 0.017594 -0.977951 0.000000 0.000001
    39 -0.020057 -0.890966 0.010091 -0.933396 0.000000 0.000000
    40 0.583510 -1.197274 0.185377 0.272562 -1.003483 -0.533072
    41 1.535926 0.010244 0.005008 0.440185 -0.138709 -1.296608
    42 1.100770 0.004526 -0.010676 -0.011449 0.011503 -0.607426
    43 0.120152 -0.050266 -0.054488 0.287568 3.110905 1.561085
  time 9
    0 0.000000 0.000000 0.000000 0.000000 0.000000 -0.000094
    1 0.058160 -6.667970 -12.482568 -0.105683 -5.930880 0.630153
    2 0.096944 -8.450418 -0.009364 0.278066 -0.276658 0.114440
    3 3.768138 0.512573 0.996006 4.368260 0.090750 0.732941
    4 -3.054055 -6.061510 0.000003 0.000001 0.000001 0.005300
    5 -2.010682 -3.271751 0.000002 0.000000 0.000000 -3.136292
    6 11.679249 -0.000002 0.000000 0.981682 0.000000 0.000000
    7 10.482985 -0.550526 -0.000004 0.000000 0.000000 -3.136292
    8 4.552885 2.143378 -0.000001 0.000000 0.000000 -1.570796
    9 3.124239 -3.246087 -0.000008 0.000000 0.000000 -3.136292
    10 0.447952 -2.798983 -0.200442 -0.738074 -0.102210 0.041797
    11 -0.032910 -1.480206 0.004936 -0.802775 0.000000 0.000002
    12 -0.027022 -1.076919 -0.020212 -0.434237 0.000000 0.000000
    13 -0.249534 -2.846962 -0.174215 -0.372660 -0.091819 0.024622
    14 0.043235 -1.683940 0.096014 -1.033446 0.002823 -0.000167
    15 0.031729 -1.160831 0.058836 -1.000043 0.000642 0.008372
    16 -0.963866 -2.785142 -0.085346 -0.269123 0.014961 -0.024958
    17 0.028479 -1.403069 0.006271 -0.285440 0.000000 0.000000
    18 0.021413 -0.957782 0.020047 -0.431473 0.000000 0.000000
    19 1.164474 -2.543938 -0.170328 -0.858262 -0.318398 0.068471
    20 0.024033 -1.129042 0.017806 -0.500933 0.000000 0.000001
    21 0.014896 -0.883989 -0.019845 -0.267454 0.000000 0.000000
    22 -0.547706 -1.276194 0.008752 -0.015000 -0.716336 -2.528360
    23 1.522835 0.128996 -0.182375 0.265658 0.160195 0.522271
    24 1.117948 0.048424 -0.005764 -0.002580 -0.025066 0.158722
    25 -0.139399 -0.111697 0.014397 0.285382 -0.030687 1.580508
    26 9.587823 7.310991 -11.673667 1.278860 -1.939069 -1.355910
    27 -0.071918 -8.498732 -0.104137 -0.036395 0.273210 -0.341615
    28 -0.488517 -2.755600 -0.228261 -1.091352 -0.300440 -0.445601
    29 0.039888 -1.479789 0.029853 -0.928028 0.000000 0.000000
    30 0.028786 -1.075730 -0.023111 -1.481379 0.000000 0.000000
    31 0.250028 -2.820664 -0.238396 -0.620838 -0.150751 -0.537343
    32 -0.049759 -1.680545 0.100480 -1.463615 0.000000 -0.000002
    33 -0.034141 -1.148312 0.084779 -1.087260 0.000000 0.000000
    34 0.957766 -2.746776 -0.090301 -0.063286 -0.242586 -0.427231
    35 -0.033419 -1.397128 -0.011255 -0.779083 0.124808 -0.122316
    36 -0.022361 -0.957434 0.018783 -1.043272 0.000000 0.000000
    37 -1.180680 -2.507215 -0.193861 -1.402521 -0.167650 -0.612250
    38 -0.024966 -1.123935 0.017594 -0.977951 0.000000 0.000001
    39 -0.020057 -0.890966 0.010091 -0.933396 0.000000 0.000000
    40 0.583510 -1.197274 0.185377 0.272562 -1.003483 -0.533072
    41 1.535926 0.010244 0.005008 0.440185 -0.138709 -1.296608
    42 1.100770 0.004526 -0.010676 -0.011449 0.011503 -0.607426
    43 0.120152 -0.050266 -0.054488 0.287568 3.110905 1.561085
  time 10
    0 0.000000 0.000000 0.000000 0.000000 0.000000 -0.000094
    1 0.058160 -6.761723 -12.482568 -0.100045 -5.934615 0.632231
    2 0.096944 -8.450418 -0.009364 0.278066 -0.276658 0.114440
    3 3.768138 0.512573 0.996006 4.368260 0.090750 0.732941
    4 -3.054055 -6.061510 0.000003 0.000001 0.000001 0.005300
    5 -2.010682 -3.271751 0.000002 0.000000 0.000000 -3.136292
    6 11.679249 -0.000002 0.000000 0.465386 0.000000 0.000000
    7 10.482985 -0.550526 -0.000004 0.000000 0.000000 -3.136292
    8 4.552885 2.143378 -0.000001 0.000000 0.000000 -1.570796
    9 3.124239 -3.246087 -0.000008 0.000000 0.000000 -3.136292
    10 0.447952 -2.798983 -0.200442 -0.738074 -0.102210 0.041797
    11 -0.032910 -1.480206 0.004936 -0.802775 0.000000 0.000002
    12 -0.027022 -1.076919 -0.020212 -0.434237 0.000000 0.000000
    13 -0.249534 -2.846962 -0.174215 -0.372660 -0.091819 0.024622
    14 0.043235 -1.683940 0.096014 -1.033446 0.002823 -0.000167
    15 0.031729 -1.160831 0.058836 -1.000043 0.000642 0.008372
    16 -0.963866 -2.785142 -0.085346 -0.269123 0.014961 -0.024958
    17 0.028479 -1.403069 0.006271 -0.285440 0.000000 0.000000
    18 0.021413 -0.957782 0.020047 -0.431473 0.000000 0.000000
    19 1.164474 -2.543938 -0.170328 -0.858262 -0.318398 0.068471
    20 0.024033 -1.129042 0.017806 -0.500933 0.000000 0.000001
    21 0.014896 -0.883989 -0.019845 -0.267454 0.000000 0.000000
    22 -0.547706 -1.276194 0.008752 -0.015000 -0.716336 -2.528360
    23 1.522835 0.128996 -0.182375 0.265658 0.160195 0.522271
    24 1.117948 0.048424 -0.005764 -0.002580 -0.025066 0.158722
    25 -0.139399 -0.111697 0.014397 0.285382 -0.030687 1.580508
    26 9.587823 7.275833 -11.673667 1.277329 -1.936197 -1.354487
    27 -0.071918 -8.498732 -0.104137 -0.036395 0.273210 -0.341615
    28 -0.488517 -2.755600 -0.228261 -1.091352 -0.300440 -0.445601
    29 0.039888 -1.479789 0.029853 -0.928028 0.000000 0.000000
    30 0.028786 -1.075730 -0.023111 -1.481379 0.000000 0.000000
    31 0.250028 -2.820664 -0.238396 -0.620838 -0.150751 -0.537343
    32 -0.049759 -1.680545 0.100480 -1.463615 0.000000 -0.000002
    33 -0.034141 -1.148312 0.084779 -1.087260 0.000000 0.000000
    34 0.957766 -2.746776 -0.090301 -0.063286 -0.242586 -0.427231
    35 -0.033419 -1.397128 -0.011255 -0.779083 0.124808 -0.122316
    36 -0.022361 -0.957434 0.018783 -1.043272 0.000000 0.000000
    37 -1.180680 -2.507215 -0.193861 -1.402521 -0.167650 -0.612250
    38 -0.024966 -1.123935 0.017594 -0.977951 0.000000 0.000001
    39 -0.020057 -0.890966 0.010091 -0.933396 0.000000 0.000000
    40 0.583510 -1.197274 0.185377 0.272562 -1.003483 -0.533072
    41 1.535926 0.010244 0.005008 0.440185 -0.138709 -1.296608
    42 1.100770 0.004526 -0.010676 -0.011449 0.011503 -0.607426
    43 0.120152 -0.050266 -0.054488 0.287568 3.110905 1.561085
  time 11
    0 0.000000 0.000000 0.000000 0.000000 0.000000 -0.000094
    1 0.058160 -6.761723 -12.482568 -0.100045 -5.934615 0.632231
    2 0.096944 -8.450418 -0.009364 0.278066 -0.276658 0.114440
    3 3.768138 0.512573 0.996006 4.368260 0.090750 0.732941
    4 -3.054055 -6.061510 0.000003 0.000001 0.000001 0.005300
    5 -2.010682 -3.271751 0.000002 0.000000 0.000000 -3.136292
    6 11.679249 -0.000002 0.000000 0.123489 0.000000 0.000000
    7 10.482985 -0.550526 -0.000004 0.000000 0.000000 -3.136292
    8 4.552885 2.143378 -0.000001 0.000000 0.000000 -1.570796
    9 3.124239 -3.246087 -0.000008 0.000000 0.000000 -3.136292
    10 0.447952 -2.798983 -0.200442 -0.738074 -0.102210 0.041797
    11 -0.032910 -1.480206 0.004936 -0.802775 0.000000 0.000002
    12 -0.027022 -1.076919 -0.020212 -0.434237 0.000000 0.000000
    13 -0.249534 -2.846962 -0.174215 -0.372660 -0.091819 0.024622
    14 0.043235 -1.683940 0.096014 -1.033446 0.002823 -0.000167
    15 0.031729 -1.160831 0.058836 -1.000043 0.000642 0.008372
    16 -0.963866 -2.785142 -0.085346 -0.269123 0.014961 -0.024958
    17 0.028479 -1.403069 0.006271 -0.285440 0.000000 0.000000
    18 0.021413 -0.957782 0.020047 -0.431473 0.000000 0.000000
    19 1.164474 -2.543938 -0.170328 -0.858262 -0.318398 0.068471
    20 0.024033 -1.129042 0.017806 -0.500933 0.000000 0.000001
    21 0.014896 -0.883989 -0.019845 -0.267454 0.000000 0.000000
    22 -0.547706 -1.276194 0.008752 -0.015000 -0.716336 -2.528360
    23 1.522835 0.128996 -0.182375 0.265658 0.160195 0.522271
    24 1.117948 0.048424 -0.005764 -0.002580 -0.025066 0.158722
    25 -0.139399 -0.111697 0.014397 0.285382 -0.030687 1.580508
    26 9.587823 7.275833 -11.673667 1.277329 -1.936197 -1.354487
    27 -0.071918 -8.498732 -0.104137 -0.036395 0.273210 -0.341615
    28 -0.488517 -2.755600 -0.228261 -1.091352 -0.300440 -0.445601
    29 0.039888 -1.479789 0.029853 -0.928028 0.000000 0.000000
    30 0.028786 -1.075730 -0.023111 -1.481379 0.000000 0.000000
    31 0.250028 -2.820664 -0.238396 -0.620838 -0.150751 -0.537343
    32 -0.049759 -1.680545 0.100480 -1.463615 0.000000 -0.000002
    33 -0.034141 -1.148312 0.084779 -1.087260 0.000000 0.000000
    34 0.957766 -2.746776 -0.090301 -0.063286 -0.242586 -0.427231
    35 -0.033419 -1.397128 -0.011255 -0.779083 0.124808 -0.122316
    36 -0.022361 -0.957434 0.018783 -1.043272 0.000000 0.000000
    37 -1.180680 -2.507215 -0.193861 -1.402521 -0.167650 -0.612250
    38 -0.024966 -1.123935 0.017594 -0.977951 0.000000 0.000001
    39 -0.020057 -0.890966 0.010091 -0.933396 0.000000 0.000000
    40 0.583510 -1.197274 0.185377 0.272562 -1.003483 -0.533072
    41 1.535926 0.010244 0.005008 0.440185 -0.138709 -1.296608
    42 1.100770 0.004526 -0.010676 -0.011449 0.011503 -0.607426
    43 0.120152 -0.050266 -0.054488 0.287568 3.110905 1.561085
  time 12
    0 0.000000 0.000000 0.000000 0.000012 0.000000 -0.000094
    1 0.058160 -6.761723 -12.482568 -0.100045 -5.934615 0.632231
    2 0.096944 -8.450418 -0.009364 0.278066 -0.276658 0.114440
    3 3.768138 0.512573 0.996006 4.368260 0.090750 0.732941
    4 -3.054055 -6.061510 0.000003 0.000001 0.000001 0.005300
    5 -2.010682 -3.271751 0.000002 0.000000 0.000000 -3.136292
    6 11.679249 -0.000002 0.000000 0.000000 0.000000 0.000000
    7 10.482985 -0.550526 -0.000004 0.000000 0.000000 -3.136292
    8 4.552885 2.143378 -0.000001 0.000000 0.000000 -1.570796
    9 3.124239 -3.246087 -0.000008 0.000000 0.000000 -3.136292
    10 0.447952 -2.798983 -0.200442 -0.738074 -0.102210 0.041797
    11 -0.032910 -1.480206 0.004936 -0.802775 0.000000 0.000002
    12 -0.027022 -1.076919 -0.020212 -0.434237 0.000000 0.000000
    13 -0.249534 -2.846962 -0.174215 -0.372660 -0.091819 0.024622
    14 0.043235 -1.683940 0.096014 -1.033446 0.002823 -0.000167
    15 0.031729 -1.160831 0.058836 -1.000043 0.000642 0.008372
    16 -0.963866 -2.785142 -0.085346 -0.269123 0.014961 -0.024958
    17 0.028479 -1.403069 0.006271 -0.285440 0.000000 0.000000
    18 0.021413 -0.957782 0.020047 -0.431473 0.000000 0.000000
    19 1.164474 -2.543938 -0.170328 -0.858262 -0.318398 0.068471
    20 0.024033 -1.129042 0.017806 -0.500933 0.000000 0.000001
    21 0.014896 -0.883989 -0.019845 -0.267454 0.000000 0.000000
    22 -0.547706 -1.276194 0.008752 -0.015000 -0.716336 -2.528360
    23 1.522835 0.128996 -0.182375 0.265658 0.160195 0.522271
    24 1.117948 0.048424 -0.005764 -0.002580 -0.025066 0.158722
    25 -0.139399 -0.111697 0.014397 0.285382 -0.030687 1.580508
    26 9.587823 7.275833 -11.673667 1.277329 -1.936197 -1.354487
    27 -0.071918 -8.498732 -0.104137 -0.036395 0.273210 -0.341615
    28 -0.488517 -2.755600 -0.228261 -1.091352 -0.300440 -0.445601
    29 0.039888 -1.479789 0.029853 -0.928028 0.000000 0.000000
    30 0.028786 -1.075730 -0.023111 -1.481379 0.000000 0.000000
    31 0.250028 -2.820664 -0.238396 -0.620838 -0.150751 -0.537343
    32 -0.049759 -1.680545 0.100480 -1.463615 0.000000 -0.000002
    33 -0.034141 -1.148312 0.084779 -1.087260 0.000000 0.000000
    34 0.957766 -2.746776 -0.090301 -0.063286 -0.242586 -0.427231
    35 -0.033419 -1.397128 -0.011255 -0.779083 0.124808 -0.122316
    36 -0.022361 -0.957434 0.018783 -1.043272 0.000000 0.000000
    37 -1.180680 -2.507215 -0.193861 -1.402521 -0.167650 -0.612250
    38 -0.024966 -1.123935 0.017594 -0.977951 0.000000 0.000001
    39 -0.020057 -0.890966 0.010091 -0.933396 0.000000 0.000000
    40 0.583510 -1.197274 0.185377 0.272562 -1.003483 -0.533072
    41 1.535926 0.010244 0.005008 0.440185 -0.138709 -1.296608
    42 1.100770 0.004526 -0.010676 -0.011449 0.011503 -0.607426
    43 0.120152 -0.050266 -0.054488 0.287568 3.110905 1.561085
  time 13
    0 0.000000 0.000000 0.000000 0.000012 0.000000 -0.000094
    1 0.058160 -6.761723 -12.482568 -0.100045 -5.934615 0.632231
    2 0.096944 -8.450418 -0.009364 0.278066 -0.276658 0.114440
    3 3.768138 0.512573 0.996006 4.368260 0.090750 0.732941
    4 -3.054055 -6.061510 0.000003 0.000001 0.000001 0.005300
    5 -2.010682 -3.271751 0.000002 0.000000 0.000000 -3.136292
    6 11.679249 -0.000002 0.000000 0.000000 0.000000 0.000000
    7 10.482985 -0.550526 -0.000004 0.000000 0.000000 -3.136292
    8 4.552885 2.143378 -0.000001 0.000000 0.000000 -1.570796
    9 3.124239 -3.246087 -0.000008 0.000000 0.000000 -3.136292
    10 0.447952 -2.798983 -0.200442 -0.738074 -0.102210 0.041797
    11 -0.032910 -1.480206 0.004936 -0.802775 0.000000 0.000002
    12 -0.027022 -1.076919 -0.020212 -0.434237 0.000000 0.000000
    13 -0.249534 -2.846962 -0.174215 -0.372660 -0.091819 0.024622
    14 0.043235 -1.683940 0.096014 -1.033446 0.002823 -0.000167
    15 0.031729 -1.160831 0.058836 -1.000043 0.000642 0.008372
    16 -0.963866 -2.785142 -0.085346 -0.269123 0.014961 -0.024958
    17 0.028479 -1.403069 0.006271 -0.285440 0.000000 0.000000
    18 0.021413 -0.957782 0.020047 -0.431473 0.000000 0.000000
    19 1.164474 -2.543938 -0.170328 -0.858262 -0.318398 0.068471
    20 0.024033 -1.129042 0.017806 -0.500933 0.000000 0.000001
    21 0.014896 -0.883989 -0.019845 -0.267454 0.000000 0.000000
    22 -0.547706 -1.276194 0.008752 -0.015000 -0.716336 -2.528360
    23 1.522835 0.128996 -0.182375 0.265658 0.160195 0.522271
    24 1.117948 0.048424 -0.005764 -0.002580 -0.025066 0.158722
    25 -0.139399 -0.111697 0.014397 0.285382 -0.030687 1.580508
    26 9.587823 7.275833 -11.673667 1.277329 -1.936197 -1.354487
    27 -0.071918 -8.498732 -0.104137 -0.036395 0.273210 -0.341615
    28 -0.488517 -2.755600 -0.228261 -1.091352 -0.300440 -0.445601
    29 0.039888 -1.479789 0.029853 -0.928028 0.000000 0.000000
    30 0.028786 -1.075730 -0.023111 -1.481379 0.000000 0.000000
    31 0.250028 -2.820664 -0.238396 -0.620838 -0.150751 -0.537343
    32 -0.049759 -1.680545 0.100480 -1.463615 0.000000 -0.000002
    33 -0.034141 -1.148312 0.084779 -1.087260 0.000000 0.000000
    34 0.957766 -2.746776 -0.090301 -0.063286 -0.242586 -0.427231
    35 -0.033419 -1.397128 -0.011255 -0.779083 0.124808 -0.122316
    36 -0.022361 -0.957434 0.018783 -1.043272 0.000000 0.000000
    37 -1.180680 -2.507215 -0.193861 -1.402521 -0.167650 -0.612250
    38 -0.024966 -1.123935 0.017594 -0.977951 0.000000 0.000001
    39 -0.020057 -0.890966 0.010091 -0.933396 0.000000 0.000000
    40 0.583510 -1.197274 0.185377 0.272562 -1.003483 -0.533072
    41 1.535926 0.010244 0.005008 0.440185 -0.138709 -1.296608
    42 1.100770 0.004526 -0.010676 -0.011449 0.011503 -0.607426
    43 0.120152 -0.050266 -0.054488 0.287568 3.110905 1.561085
  time 14
    0 0.000000 0.000000 0.000000 0.000024 0.000000 -0.000094
    1 0.058160 -6.761723 -12.482568 -0.100045 -5.934615 0.632231
    2 0.096944 -8.450418 -0.009364 0.278066 -0.276658 0.114440
    3 3.768138 0.512573 0.996006 4.368260 0.090750 0.732941
    4 -3.054055 -6.061510 0.000003 0.000001 0.000001 0.005300
    5 -2.010682 -3.271751 0.000002 0.000000 0.000000 -3.136292
    6 11.679249 -0.000002 0.000000 0.000000 0.000000 0.000000
    7 10.482985 -0.550526 -0.000004 0.000000 0.000000 -3.136292
    8 4.552885 2.143378 -0.000001 0.000000 0.000000 -1.570796
    9 3.124239 -3.246087 -0.000008 0.000000 0.000000 -3.136292
    10 0.447952 -2.798983 -0.200442 -0.738074 -0.102210 0.041797
    11 -0.032910 -1.480206 0.004936 -0.802775 0.000000 0.000002
    12 -0.027022 -1.076919 -0.020212 -0.434237 0.000000 0.000000
    13 -0.249534 -2.846962 -0.174215 -0.372660 -0.091819 0.024622
    14 0.043235 -1.683940 0.096014 -1.033446 0.002823 -0.000167
    15 0.031729 -1.160831 0.058836 -1.000043 0.000642 0.008372
    16 -0.963866 -2.785142 -0.085346 -0.269123 0.014961 -0.024958
    17 0.028479 -1.403069 0.006271 -0.285440 0.000000 0.000000
    18 0.021413 -0.957782 0.020047 -0.431473 0.000000 0.000000
    19 1.164474 -2.543938 -0.170328 -0.858262 -0.318398 0.068471
    20 0.024033 -1.129042 0.017806 -0.500933 0.000000 0.000001
    21 0.014896 -0.883989 -0.019845 -0.267454 0.000000 0.000000
    22 -0.547706 -1.276194 0.008752 -0.015000 -0.716336 -2.528360
    23 1.522835 0.128996 -0.182375 0.265658 0.160195 0.522271
    24 1.117948 0.048424 -0.005764 -0.002580 -0.025066 0.158722
    25 -0.139399 -0.111697 0.014397 0.285382 -0.030687 1.580508
    26 9.587823 7.275833 -11.673667 1.277329 -1.936197 -1.354487
    27 -0.071918 -8.498732 -0.104137 -0.036395 0.273210 -0.341615
    28 -0.488517 -2.755600 -0.228261 -1.091352 -0.300440 -0.445601
    29 0.039888 -1.479789 0.029853 -0.928028 0.000000 0.000000
    30 0.028786 -1.075730 -0.023111 -1.481379 0.000000 0.000000
    31 0.250028 -2.820664 -0.238396 -0.620838 -0.150751 -0.537343
    32 -0.049759 -1.680545 0.100480 -1.463615 0.000000 -0.000002
    33 -0.034141 -1.148312 0.084779 -1.087260 0.000000 0.000000
    34 0.957766 -2.746776 -0.090301 -0.063286 -0.242586 -0.427231
    35 -0.033419 -1.397128 -0.011255 -0.779083 0.124808 -0.122316
    36 -0.022361 -0.957434 0.018783 -1.043272 0.000000 0.000000
    37 -1.180680 -2.507215 -0.193861 -1.402521 -0.167650 -0.612250
    38 -0.024966 -1.123935 0.017594 -0.977951 0.000000 0.000001
    39 -0.020057 -0.890966 0.010091 -0.933396 0.000000 0.000000
    40 0.583510 -1.197274 0.185377 0.272562 -1.003483 -0.533072
    41 1.535926 0.010244 0.005008 0.440185 -0.138709 -1.296608
    42 1.100770 0.004526 -0.010676 -0.011449 0.011503 -0.607426
    43 0.120152 -0.050266 -0.054488 0.287568 3.110905 1.561085
  time 15
    0 0.000000 0.000000 0.000000 0.000024 0.000000 -0.000094
    1 0.058160 -6.761723 -12.482568 -0.100045 -5.934615 0.632231
    2 0.096944 -8.450418 -0.009364 0.278066 -0.276658 0.114440
    3 3.768138 0.512573 0.996006 4.368260 0.090750 0.732941
    4 -3.054055 -6.061510 0.000003 0.000001 0.000001 0.005300
    5 -2.010682 -3.271751 0.000002 0.000000 0.000000 -3.136292
    6 11.679249 -0.000002 0.000000 0.000000 0.000000 0.000000
    7 10.482985 -0.550526 -0.000004 0.000000 0.000000 -3.136292
    8 4.552885 2.143378 -0.000001 0.000000 0.000000 -1.570796
    9 3.124239 -3.246087 -0.000008 0.000000 0.000000 -3.136292
    10 0.447952 -2.798983 -0.200442 -0.738074 -0.102210 0.041797
    11 -0.032910 -1.480206 0.004936 -0.802775 0.000000 0.000002
    12 -0.027022 -1.076919 -0.020212 -0.434237 0.000000 0.000000
    13 -0.249534 -2.846962 -0.174215 -0.372660 -0.091819 0.024622
    14 0.043235 -1.683940 0.096014 -1.033446 0.002823 -0.000167
    15 0.031729 -1.160831 0.058836 -1.000043 0.000642 0.008372
    16 -0.963866 -2.785142 -0.085346 -0.269123 0.014961 -0.024958
    17 0.028479 -1.403069 0.006271 -0.285440 0.000000 0.000000
    18 0.021413 -0.957782 0.020047 -0.431473 0.000000 0.000000
    19 1.164474 -2.543938 -0.170328 -0.858262 -0.318398 0.068471
    20 0.024033 -1.129042 0.017806 -0.500933 0.000000 0.000001
    21 0.014896 -0.883989 -0.019845 -0.267454 0.000000 0.000000
    22 -0.547706 -1.276194 0.008752 -0.015000 -0.716336 -2.528360
    23 1.522835 0.128996 -0.182375 0.265658 0.160195 0.522271
    24 1.117948 0.048424 -0.005764 -0.002580 -0.025066 0.158722
    25 -0.139399 -0.111697 0.014397 0.285382 -0.030687 1.580508
    26 9.587823 7.275833 -11.673667 1.277329 -1.936197 -1.354487
    27 -0.071918 -8.498732 -0.104137 -0.036395 0.273210 -0.341615
    28 -0.488517 -2.755600 -0.228261 -1.091352 -0.300440 -0.445601
    29 0.039888 -1.479789 0.029853 -0.928028 0.000000 0.000000
    30 0.028786 -1.075730 -0.023111 -1.481379 0.000000 0.000000
    31 0.250028 -2.820664 -0.238396 -0.620838 -0.150751 -0.537343
    32 -0.049759 -1.680545 0.100480 -1.463615 0.000000 -0.000002
    33 -0.034141 -1.148312 0.084779 -1.087260 0.000000 0.000000
    34 0.957766 -2.746776 -0.090301 -0.063286 -0.242586 -0.427231
    35 -0.033419 -1.397128 -0.011255 -0.779083 0.124808 -0.122316
    36 -0.022361 -0.957434 0.018783 -1.043272 0.000000 0.000000
    37 -1.180680 -2.507215 -0.193861 -1.402521 -0.167650 -0.612250
    38 -0.024966 -1.123935 0.017594 -0.977951 0.000000 0.000001
    39 -0.020057 -0.890966 0.010091 -0.933396 0.000000 0.000000
    40 0.583510 -1.197274 0.185377 0.272562 -1.003483 -0.533072
    41 1.535926 0.010244 0.005008 0.440185 -0.138709 -1.296608
    42 1.100770 0.004526 -0.010676 -0.011449 0.011503 -0.607426
    43 0.120152 -0.050266 -0.054488 0.287568 3.110905 1.561085
  time 16
    0 0.000000 0.000000 0.000000 0.000036 0.000000 -0.000094
    1 0.058160 -6.761723 -12.482568 -0.100045 -5.934615 0.632231
    2 0.096944 -8.450418 -0.009364 0.278066 -0.276658 0.114440
    3 3.768138 0.512573 0.996006 4.368260 0.090750 0.732941
    4 -3.054055 -6.061510 0.000003 0.000001 0.000001 0.005300
    5 -2.010682 -3.271751 0.000002 0.000000 0.000000 -3.136292
    6 11.679249 -0.000002 0.000000 0.000000 0.000000 0.000000
    7 10.482985 -0.550526 -0.000004 0.000000 0.000000 -3.136292
    8 4.552885 2.143378 -0.000001 0.000000 0.000000 -1.570796
    9 3.124239 -3.246087 -0.000008 0.000000 0.000000 -3.136292
    10 0.447952 -2.798983 -0.200442 -0.738074 -0.102210 0.041797
    11 -0.032910 -1.480206 0.004936 -0.802775 0.000000 0.000002
    12 -0.027022 -1.076919 -0.020212 -0.434237 0.000000 0.000000
    13 -0.249534 -2.846962 -0.174215 -0.372660 -0.091819 0.024622
    14 0.043235 -1.683940 0.096014 -1.033446 0.002823 -0.000167
    15 0.031729 -1.160831 0.058836 -1.000043 0.000642 0.008372
    16 -0.963866 -2.785142 -0.085346 -0.269123 0.014961 -0.024958
    17 0.028479 -1.403069 0.006271 -0.285440 0.000000 0.000000
    18 0.021413 -0.957782 0.020047 -0.431473 0.000000 0.000000
    19 1.164474 -2.543938 -0.170328 -0.858262 -0.318398 0.068471
    20 0.024033 -1.129042 0.017806 -0.500933 0.000000 0.000001
    21 0.014896 -0.883989 -0.019845 -0.267454 0.000000 0.000000
    22 -0.547706 -1.276194 0.008752 -0.015000 -0.716336 -2.528360
    23 1.522835 0.128996 -0.182375 0.265658 0.160195 0.522271
    24 1.117948 0.048424 -0.005764 -0.002580 -0.025066 0.158722
    25 -0.139399 -0.111697 0.014397 0.285382 -0.030687 1.580508
    26 9.587823 7.275833 -11.673667 1.277329 -1.936197 -1.354487
    27 -0.071918 -8.498732 -0.104137 -0.036395 0.273210 -0.341615
    28 -0.488517 -2.755600 -0.228261 -1.091352 -0.300440 -0.445601
    29 0.039888 -1.479789 0.029853 -0.928028 0.000000 0.000000
    30 0.028786 -1.075730 -0.023111 -1.481379 0.000000 0.000000
    31 0.250028 -2.820664 -0.238396 -0.620838 -0.150751 -0.537343
    32 -0.049759 -1.680545 0.100480 -1.463615 0.000000 -0.000002
    33 -0.034141 -1.148312 0.084779 -1.087260 0.000000 0.000000
    34 0.957766 -2.746776 -0.090301 -0.063286 -0.242586 -0.427231
    35 -0.033419 -1.397128 -0.011255 -0.779083 0.124808 -0.122316
    36 -0.022361 -0.957434 0.018783 -1.043272 0.000000 0.000000
    37 -1.180680 -2.507215 -0.193861 -1.402521 -0.167650 -0.612250
    38 -0.024966 -1.123935 0.017594 -0.977951 0.000000 0.000001
    39 -0.020057 -0.890966 0.010091 -0.933396 0.000000 0.000000
    40 0.583510 -1.197274 0.185377 0.272562 -1.003483 -0.533072
    41 1.535926 0.010244 0.005008 0.440185 -0.138709 -1.296608
    42 1.100770 0.004526 -0.010676 -0.011449 0.011503 -0.607426
    43 0.120152 -0.050266 -0.054488 0.287568 3.110905 1.561085
  time 17
    0 0.000000 0.000000 -0.007813 0.000048 0.000000 -0.000094
    1 0.058160 -6.761723 -12.482568 -0.100045 -5.934615 0.632231
    2 0.096944 -8.450418 -0.009364 0.278066 -0.276658 0.114440
    3 3.768138 0.512573 0.996006 4.368260 0.090750 0.732941
    4 -3.054055 -6.061510 0.000003 0.000001 0.000001 0.005300
    5 -2.010682 -3.271751 0.000002 0.000000 0.000000 -3.136292
    6 11.679249 -0.000002 0.000000 0.000000 0.000000 0.000000
    7 10.482985 -0.550526 -0.000004 0.000000 0.000000 -3.136292
    8 4.552885 2.143378 -0.000001 0.000000 0.000000 -1.570796
    9 3.124239 -3.246087 -0.000008 0.000000 0.000000 -3.136292
    10 0.447952 -2.798983 -0.200442 -0.738074 -0.102210 0.041797
    11 -0.032910 -1.480206 0.004936 -0.802775 0.000000 0.000002
    12 -0.027022 -1.076919 -0.020212 -0.434237 0.000000 0.000000
    13 -0.249534 -2.846962 -0.174215 -0.372660 -0.091819 0.024622
    14 0.043235 -1.683940 0.096014 -1.033446 0.002823 -0.000167
    15 0.031729 -1.160831 0.058836 -1.000043 0.000642 0.008372
    16 -0.963866 -2.785142 -0.085346 -0.269123 0.014961 -0.024958
    17 0.028479 -1.403069 0.006271 -0.285440 0.000000 0.000000
    18 0.021413 -0.957782 0.020047 -0.431473 0.000000 0.000000
    19 1.164474 -2.543938 -0.170328 -0.858262 -0.318398 0.068471
    20 0.024033 -1.129042 0.017806 -0.500933 0.000000 0.000001
    21 0.014896 -0.883989 -0.019845 -0.267454 0.000000 0.000000
    22 -0.547706 -1.276194 0.008752 -0.015000 -0.716336 -2.528360
    23 1.522835 0.128996 -0.182375 0.265658 0.160195 0.522271
    24 1.117948 0.048424 -0.005764 -0.002580 -0.025066 0.158722
    25 -0.139399 -0.111697 0.014397 0.285382 -0.030687 1.580508
    26 9.587823 7.275833 -11.673667 1.277329 -1.936197 -1.354487
    27 -0.071918 -8.498732 -0.104137 -0.036395 0.273210 -0.341615
    28 -0.488517 -2.755600 -0.228261 -1.091352 -0.300440 -0.445601
    29 0.039888 -1.479789 0.029853 -0.928028 0.000000 0.000000
    30 0.028786 -1.075730 -0.023111 -1.481379 0.000000 0.000000
    31 0.250028 -2.820664 -0.238396 -0.620838 -0.150751 -0.537343
    32 -0.049759 -1.680545 0.100480 -1.463615 0.000000 -0.000002
    33 -0.034141 -1.148312 0.084779 -1.087260 0.000000 0.000000
    34 0.957766 -2.746776 -0.090301 -0.063286 -0.242586 -0.427231
    35 -0.033419 -1.397128 -0.011255 -0.779083 0.124808 -0.122316
    36 -0.022361 -0.957434 0.018783 -1.043272 0.000000 0.000000
    37 -1.180680 -2.507215 -0.193861 -1.402521 -0.167650 -0.612250
    38 -0.024966 -1.123935 0.017594 -0.977951 0.000000 0.000001
    39 -0.020057 -0.890966 0.010091 -0.933396 0.000000 0.000000
    40 0.583510 -1.197274 0.185377 0.272562 -1.003483 -0.533072
    41 1.535926 0.010244 0.005008 0.440185 -0.138709 -1.296608
    42 1.100770 0.004526 -0.010676 -0.011449 0.011503 -0.607426
    43 0.120152 -0.050266 -0.054488 0.287568 3.110905 1.561085
  time 18
    0 0.000000 0.000000 -0.007813 0.000048 0.000000 -0.000094
    1 0.058160 -6.761723 -12.482568 -0.100045 -5.934615 0.632231
    2 0.096944 -8.450418 -0.009364 0.278066 -0.276658 0.114440
    3 3.768138 0.512573 0.996006 4.368260 0.090750 0.732941
    4 -3.054055 -6.061510 0.000003 0.000001 0.000001 0.005300
    5 -2.010682 -3.271751 0.000002 0.000000 0.000000 -3.136292
    6 11.679249 -0.000002 0.000000 0.000000 0.000000 0.000000
    7 10.482985 -0.550526 -0.000004 0.000000 0.000000 -3.136292
    8 4.552885 2.143378 -0.000001 0.000000 0.000000 -1.570796
    9 3.124239 -3.246087 -0.000008 0.000000 0.000000 -3.136292
    10 0.447952 -2.798983 -0.200442 -0.738074 -0.102210 0.041797
    11 -0.032910 -1.480206 0.004936 -0.802775 0.000000 0.000002
    12 -0.027022 -1.076919 -0.020212 -0.434237 0.000000 0.000000
    13 -0.249534 -2.846962 -0.174215 -0.372660 -0.091819 0.024622
    14 0.043235 -1.683940 0.096014 -1.033446 0.002823 -0.000167
    15 0.031729 -1.160831 0.058836 -1.000043 0.000642 0.008372
    16 -0.963866 -2.785142 -0.085346 -0.269123 0.014961 -0.024958
    17 0.028479 -1.403069 0.006271 -0.285440 0.000000 0.000000
    18 0.021413 -0.957782 0.020047 -0.431473 0.000000 0.000000
    19 1.164474 -2.543938 -0.170328 -0.858262 -0.318398 0.068471
    20 0.024033 -1.129042 0.017806 -0.500933 0.000000 0.000001
    21 0.014896 -0.883989 -0.019845 -0.267454 0.000000 0.000000
    22 -0.547706 -1.276194 0.008752 -0.015000 -0.716336 -2.528360
    23 1.522835 0.128996 -0.182375 0.265658 0.160195 0.522271
    24 1.117948 0.048424 -0.005764 -0.002580 -0.025066 0.158722
    25 -0.139399 -0.111697 0.014397 0.285382 -0.030687 1.580508
    26 9.587823 7.275833 -11.673667 1.277329 -1.936197 -1.354487
    27 -0.071918 -8.498732 -0.104137 -0.036395 0.273210 -0.341615
    28 -0.488517 -2.755600 -0.228261 -1.091352 -0.300440 -0.445601
    29 0.039888 -1.479789 0.029853 -0.928028 0.000000 0.000000
    30 0.028786 -1.075730 -0.023111 -1.481379 0.000000 0.000000
    31 0.250028 -2.820664 -0.238396 -0.620838 -0.150751 -0.537343
    32 -0.049759 -1.680545 0.100480 -1.463615 0.000000 -0.000002
    33 -0.034141 -1.148312 0.084779 -1.087260 0.000000 0.000000
    34 0.957766 -2.746776 -0.090301 -0.063286 -0.242586 -0.427231
    35 -0.033419 -1.397128 -0.011255 -0.779083 0.124808 -0.122316
    36 -0.022361 -0.957434 0.018783 -1.043272 0.000000 0.000000
    37 -1.180680 -2.507215 -0.193861 -1.402521 -0.167650 -0.612250
    38 -0.024966 -1.123935 0.017594 -0.977951 0.000000 0.000001
    39 -0.020057 -0.890966 0.010091 -0.933396 0.000000 0.000000
    40 0.583510 -1.197274 0.185377 0.272562 -1.003483 -0.533072
    41 1.535926 0.010244 0.005008 0.440185 -0.138709 -1.296608
    42 1.100770 0.004526 -0.010676 -0.011449 0.011503 -0.607426
    43 0.120152 -0.050266 -0.054488 0.287568 3.110905 1.561085
end
