version 1
nodes
  0 "root" -1
  1 "Bone01" 0
  2 "Bone_Lefthand" 1
  3 "Bone02" 2
  4 "Bone42" 3
  5 "Bone20" 3
  6 "Bone12" 3
  7 "Bone24" 3
  8 "Bone25" 7
  9 "Bone03" 8
  10 "Bone08" 9
  11 "Dummy01" 10
  12 "Bone16" 11
  13 "Bone47" 9
  14 "Bone49" 3
  15 "Bone48" 3
  16 "Dummy03" 7
  17 "Bone34" 16
  18 "Dummy02" 7
  19 "Bone26" 18
  20 "Bone38" 3
  21 "Dummy04" 20
  22 "Bone30" 21
  23 "Dummy05" 20
  24 "Bone46" 23
  25 "Bone_L_Upper" 1
  26 "Bone13" 2
  27 "Bone14" 26
  28 "Bone15" 27
  29 "Bone17" 2
  30 "Bone18" 29
  31 "Bone19" 30
  32 "Bone21" 2
  33 "Bone22" 32
  34 "Bone23" 33
  35 "Bone09" 2
  36 "Bone10" 35
  37 "Bone11" 36
  38 "Bone05" 2
  39 "Bone06" 38
  40 "Bone07" 39
  41 "Bone_Se_Hand-L" 2
  42 "Bone04" 0
  43 "Bone_Righthand" 42
  44 "Bone39" 43
  45 "Bone40" 44
  46 "Bone41" 45
  47 "Bone35" 43
  48 "Bone36" 47
  49 "Bone37" 48
  50 "Bone31" 43
  51 "Bone32" 50
  52 "Bone33" 51
  53 "Bone43" 43
  54 "Bone44" 53
  55 "Bone45" 54
  56 "Bone27" 43
  57 "Bone28" 56
  58 "Bone29" 57
  59 "Bone_Se_Hand-R" 43
  60 "Bone_R_Upper" 42
end
skeleton
  time 0
    0 -0.349399 2.955262 0.203512 0.000000 0.000000 0.000000
    1 10.499485 1.915690 -7.965875 -0.147542 -1.181467 -0.315814
    2 -0.071918 -8.498731 -0.104137 0.225880 0.078000 -0.197577
    3 3.368457 -4.357613 0.461421 0.088531 0.124698 -1.545787
    4 0.045777 -1.573664 0.000000 0.000000 0.000000 -1.570796
    5 2.296397 1.496177 2.107536 0.000000 0.000000 -3.141592
    6 -1.216037 1.038362 1.092521 -3.141592 0.350890 -1.570796
    7 7.000000 1.781222 0.000000 0.000000 -0.001160 1.570796
    8 0.584018 2.854836 0.002934 0.000000 0.001160 0.000000
    9 0.000000 0.849938 0.000001 0.000000 0.000000 0.000000
    10 1.015859 2.730335 -0.003613 0.000000 0.000000 0.000000
    11 0.107326 0.941765 0.000000 0.000000 0.000000 0.000000
    12 -116.166410 346.228824 38.067568 0.000000 0.000000 0.000000
    13 0.340879 1.910698 1.116732 1.570796 -1.570796 0.000000
    14 16.890455 0.818869 0.000001 0.000000 0.000000 1.570796
    15 -3.944752 -2.325425 3.502361 0.153864 0.437764 0.224146
    16 0.000424 -3.540242 0.365661 0.000000 0.001160 0.000000
    17 -116.167608 346.241600 38.067568 0.000000 0.000000 0.000000
    18 -0.000366 -3.540242 -0.315491 0.000000 0.001160 0.000000
    19 0.000000 0.000000 0.000000 0.000000 0.000000 0.000000
    20 10.442629 -2.311492 -0.001769 0.000000 0.000000 -1.570796
    21 -0.498922 2.487837 1.492354 0.000000 0.000000 0.000000
    22 116.167608 -346.241669 38.067568 0.000000 0.000000 0.000000
    23 -0.498922 2.487837 -1.544641 0.000000 0.000000 0.000000
    24 0.000000 -0.000004 -0.000003 0.000000 0.000000 0.000000
    25 1.257180 8.762585 -0.153713 -1.570562 0.002683 -1.566807
    26 -0.488518 -2.755602 -0.228260 -1.030852 -0.134082 -0.416251
    27 0.039887 -1.479790 0.029854 -2.134253 0.000000 0.000001
    28 0.028786 -1.075731 -0.023109 -0.271941 0.000000 0.000000
    29 0.250027 -2.820665 -0.238396 -0.636386 -0.105209 -0.434549
    30 -0.049759 -1.680544 0.100479 -2.262150 0.000000 -0.000002
    31 -0.034142 -1.148312 0.084782 -0.535851 0.000000 0.000000
    32 0.957766 -2.746780 -0.090302 0.329289 -0.172344 0.119866
    33 -0.033420 -1.397129 -0.011257 -1.115580 0.000000 -0.000001
    34 -0.022360 -0.957436 0.018784 -1.148807 0.000000 0.000000
    35 -1.180681 -2.507217 -0.193859 -1.049595 -0.031145 -0.514372
    36 -0.024967 -1.123934 0.017597 -1.878163 0.000000 0.000001
    37 -0.020057 -0.890968 0.010090 -0.444208 0.000000 0.000000
    38 0.583510 -1.197277 0.185379 0.371183 -0.693166 -0.903076
    39 1.535927 0.010246 0.005009 -0.002964 -0.012979 -0.682290
    40 1.100771 0.004527 -0.010679 -0.016147 -0.001453 -1.484153
    41 0.120153 -0.050270 -0.054489 0.287569 3.110905 1.561085
    42 -4.567775 2.546321 -9.735955 0.219906 -3.702384 0.720055
    43 0.096944 -8.450418 -0.009365 0.059230 -0.978540 -0.086953
    44 0.447953 -2.798986 -0.200443 -1.500846 0.042804 0.170619
    45 -0.032909 -1.480204 0.004940 -1.460121 0.000000 0.000002
    46 -0.027022 -1.076920 -0.020210 -1.447967 0.000000 0.000000
    47 -0.249534 -2.846964 -0.174213 -1.192968 0.002631 0.073866
    48 0.043235 -1.683941 0.096012 -1.708398 0.002823 -0.000167
    49 0.031729 -1.160830 0.058838 -1.504756 0.000642 0.008372
    50 -0.963866 -2.785145 -0.085350 0.086459 -0.085398 0.045715
    51 0.028479 -1.403067 0.006271 -0.394742 0.000000 0.000000
    52 0.021413 -0.957781 0.020046 -0.339924 0.000000 0.000000
    53 1.164475 -2.543940 -0.170330 -1.568557 -0.015463 0.162804
    54 0.024032 -1.129042 0.017807 -1.240409 0.000000 0.000001
    55 0.014898 -0.883989 -0.019848 -1.492828 0.000000 0.000000
    56 -0.586770 -1.264477 0.200161 -0.184940 -0.610644 -2.623896
    57 1.522835 0.058681 0.016848 0.001410 0.008985 0.834983
    58 1.117947 0.048424 -0.005766 0.010783 -0.022777 -0.386720
    59 -0.139399 -0.111698 0.014397 0.993312 0.112209 1.338754
    60 -6.260806 6.983652 -0.294122 1.580804 -0.005023 -0.912799
  time 1
    0 -0.349399 2.955262 0.203512 0.000000 0.000000 0.000000
    1 10.526830 1.911783 -7.969781 -0.139106 -1.174623 -0.329052
    2 -0.071918 -8.498731 -0.104137 0.225282 0.066890 -0.191453
    3 3.368457 -4.357613 0.461421 0.088531 0.124698 -1.545787
    4 0.045777 -1.573664 0.000000 0.000000 0.000000 -1.570796
    5 2.296397 1.496177 2.107536 0.000000 0.000000 -3.141592
    6 -1.216037 1.038362 1.092521 0.000000 2.790686 1.570796
    7 7.000000 1.781222 0.000000 0.000000 -0.001160 1.570796
    8 0.584018 2.854836 0.002934 0.000000 0.001160 0.000000
    9 0.000000 0.849938 0.000001 0.000000 0.000000 0.000000
    10 1.015859 2.730335 -0.003613 0.000000 0.000000 0.000000
    11 0.107326 0.941765 0.000000 0.000000 0.000000 0.000000
    12 -116.166410 346.228824 38.067568 0.000000 0.000000 0.000000
    13 0.340879 1.910698 1.116732 1.570796 -1.570796 0.000000
    14 16.890455 0.818869 0.000001 0.000000 0.000000 1.570796
    15 -3.347077 -0.649592 3.459391 0.100353 0.463190 0.247150
    16 0.000424 -3.540242 0.365661 0.000000 0.001160 0.000000
    17 -116.167608 346.231033 38.067568 0.000000 0.000000 0.000000
    18 -0.000366 -3.540242 -0.315491 0.000000 0.001160 0.000000
    19 0.000000 0.000000 0.000000 0.000000 0.000000 0.000000
    20 10.442629 -2.311492 -0.001769 0.000000 0.000000 -1.570796
    21 -0.498922 2.487837 1.492354 0.000000 0.000000 0.000000
    22 116.167608 -346.231102 38.067568 0.000000 0.000000 0.000000
    23 -0.498922 2.487837 -1.544641 0.000000 0.000000 0.000000
    24 0.000000 -0.000004 -0.000003 0.000000 0.000000 0.000000
    25 1.257180 8.762585 -0.153713 -1.570562 0.002683 -1.566807
    26 -0.488518 -2.755602 -0.228260 -1.030852 -0.134082 -0.416251
    27 0.039887 -1.479790 0.029854 -2.134253 0.000000 0.000001
    28 0.028786 -1.075731 -0.023109 -0.271941 0.000000 0.000000
    29 0.250027 -2.820665 -0.238396 -0.636386 -0.105209 -0.434549
    30 -0.049759 -1.680544 0.100479 -2.262150 0.000000 -0.000002
    31 -0.034142 -1.148312 0.084782 -0.535851 0.000000 0.000000
    32 0.957766 -2.746780 -0.090302 0.329289 -0.172344 0.119866
    33 -0.033420 -1.397129 -0.011257 -1.115580 0.000000 -0.000001
    34 -0.022360 -0.957436 0.018784 -1.148807 0.000000 0.000000
    35 -1.180681 -2.507217 -0.193859 -1.049595 -0.031145 -0.514372
    36 -0.024967 -1.123934 0.017597 -1.878163 0.000000 0.000001
    37 -0.020057 -0.890968 0.010090 -0.444208 0.000000 0.000000
    38 0.583510 -1.197277 0.185379 0.371183 -0.693166 -0.903076
    39 1.535927 0.010246 0.005009 -0.002964 -0.012979 -0.682290
    40 1.100771 0.004527 -0.010679 -0.016147 -0.001453 -1.484153
    41 0.120153 -0.050270 -0.054489 0.287569 3.110905 1.561085
    42 -4.177138 1.456444 -8.208565 0.184048 -3.481638 0.631466
    43 0.096944 -8.450418 -0.009365 0.090113 -1.136258 -0.187548
    44 0.447953 -2.798986 -0.200443 -1.500846 0.042804 0.170619
    45 -0.032909 -1.480204 0.004940 -1.460121 0.000000 0.000002
    46 -0.027022 -1.076920 -0.020210 -1.447967 0.000000 0.000000
    47 -0.249534 -2.846964 -0.174213 -1.192968 0.002631 0.073866
    48 0.043235 -1.683941 0.096012 -1.708398 0.002823 -0.000167
    49 0.031729 -1.160830 0.058838 -1.504756 0.000642 0.008372
    50 -0.963866 -2.785145 -0.085350 0.086459 -0.085398 0.045715
    51 0.028479 -1.403067 0.006271 -0.394742 0.000000 0.000000
    52 0.021413 -0.957781 0.020046 -0.339924 0.000000 0.000000
    53 1.164475 -2.543940 -0.170330 -1.568557 -0.015463 0.162804
    54 0.024032 -1.129042 0.017807 -1.240409 0.000000 0.000001
    55 0.014898 -0.883989 -0.019848 -1.492828 0.000000 0.000000
    56 -0.586770 -1.264477 0.200161 -0.165456 -0.596646 -2.624529
    57 1.522835 0.058681 0.016848 0.001410 0.008985 0.834983
    58 1.117947 0.048424 -0.005766 0.010783 -0.022777 -0.386720
    59 -0.139399 -0.111698 0.014397 1.000338 0.087714 1.357059
    60 -6.260806 6.983652 -0.294122 1.580804 -0.005023 -0.912799
  time 2
    0 -0.349399 2.955262 0.203512 0.000000 0.000000 0.000000
    1 10.519017 1.919596 -7.989313 -0.127123 -1.164409 -0.343100
    2 -0.071918 -8.498731 -0.104137 0.223844 0.049764 -0.181901
    3 3.368457 -4.357613 0.461421 0.088531 0.124698 -1.545787
    4 0.045777 -1.573664 0.000000 0.000000 0.000000 -1.570796
    5 2.296397 1.496177 2.107536 0.000000 0.000000 -3.141592
    6 -1.216037 1.038362 1.092521 -3.141592 0.350890 -1.570796
    7 7.000000 1.781222 0.000000 0.000000 -0.001160 1.570796
    8 0.584018 2.854836 0.002934 0.000000 0.001160 0.000000
    9 0.000000 0.849938 0.000001 0.000000 0.000000 0.000000
    10 1.015859 2.730335 -0.003613 0.000000 0.000000 0.000000
    11 0.107326 0.941765 0.000000 0.000000 0.000000 0.000000
    12 -116.166410 346.228824 38.067568 0.000000 0.000000 0.000000
    13 0.340879 1.910698 1.116732 1.570796 -1.570796 0.000000
    14 16.890455 0.818869 0.000001 0.000000 0.000000 1.570796
    15 -2.858781 0.409034 2.498425 -0.043843 0.416489 0.274302
    16 0.000424 -3.540242 0.365661 0.000000 0.001160 0.000000
    17 -116.167608 346.241600 38.067568 0.000000 0.000000 0.000000
    18 -0.000366 -3.540242 -0.315491 0.000000 0.001160 0.000000
    19 0.000000 0.000000 0.000000 0.000000 0.000000 0.000000
    20 10.442629 -2.311492 -0.001769 0.000000 0.000000 -1.570796
    21 -0.498922 2.487837 1.492354 0.000000 0.000000 0.000000
    22 116.167608 -346.231102 38.067568 0.000000 0.000000 0.000000
    23 -0.498922 2.487837 -1.544641 0.000000 0.000000 0.000000
    24 0.000000 -0.000004 -0.000003 0.000000 0.000000 0.000000
    25 1.257180 8.762585 -0.153713 -1.570562 0.002683 -1.566807
    26 -0.488518 -2.755602 -0.228260 -1.030852 -0.134082 -0.416251
    27 0.039887 -1.479790 0.029854 -2.134253 0.000000 0.000001
    28 0.028786 -1.075731 -0.023109 -0.271941 0.000000 0.000000
    29 0.250027 -2.820665 -0.238396 -0.636386 -0.105209 -0.434549
    30 -0.049759 -1.680544 0.100479 -2.262150 0.000000 -0.000002
    31 -0.034142 -1.148312 0.084782 -0.535851 0.000000 0.000000
    32 0.957766 -2.746780 -0.090302 0.329289 -0.172344 0.119866
    33 -0.033420 -1.397129 -0.011257 -1.115580 0.000000 -0.000001
    34 -0.022360 -0.957436 0.018784 -1.148807 0.000000 0.000000
    35 -1.180681 -2.507217 -0.193859 -1.049595 -0.031145 -0.514372
    36 -0.024967 -1.123934 0.017597 -1.878163 0.000000 0.000001
    37 -0.020057 -0.890968 0.010090 -0.444208 0.000000 0.000000
    38 0.583510 -1.197277 0.185379 0.371183 -0.693166 -0.903076
    39 1.535927 0.010246 0.005009 -0.002964 -0.012979 -0.682290
    40 1.100771 0.004527 -0.010679 -0.016147 -0.001453 -1.484153
    41 0.120153 -0.050270 -0.054489 0.287569 3.110905 1.561085
    42 -3.005227 0.557979 -7.646048 0.205136 -3.099051 0.506217
    43 0.096944 -8.450418 -0.009365 0.236978 -1.308416 -0.376266
    44 0.447953 -2.798986 -0.200443 -1.500846 0.042804 0.170619
    45 -0.032909 -1.480204 0.004940 -1.460121 0.000000 0.000002
    46 -0.027022 -1.076920 -0.020210 -1.447967 0.000000 0.000000
    47 -0.249534 -2.846964 -0.174213 -1.192968 0.002631 0.073866
    48 0.043235 -1.683941 0.096012 -1.708398 0.002823 -0.000167
    49 0.031729 -1.160830 0.058838 -1.504756 0.000642 0.008372
    50 -0.963866 -2.785145 -0.085350 0.086459 -0.085398 0.045715
    51 0.028479 -1.403067 0.006271 -0.394742 0.000000 0.000000
    52 0.021413 -0.957781 0.020046 -0.339924 0.000000 0.000000
    53 1.164475 -2.543940 -0.170330 -1.568557 -0.015463 0.162804
    54 0.024032 -1.129042 0.017807 -1.240409 0.000000 0.000001
    55 0.014898 -0.883989 -0.019848 -1.492828 0.000000 0.000000
    56 -0.586770 -1.264477 0.200161 -0.116417 -0.554400 -2.626958
    57 1.522835 0.058681 0.016848 0.001410 0.008985 0.834983
    58 1.117947 0.048424 -0.005766 0.010783 -0.022777 -0.386720
    59 -0.139399 -0.111698 0.014397 1.005227 0.070728 1.369750
    60 -6.260806 6.983652 -0.294122 1.580804 -0.005023 -0.912799
  time 3
    0 -0.349399 2.955262 0.203512 0.000000 0.000000 0.000000
    1 10.499485 1.915690 -7.965875 -0.112168 -1.158140 -0.357598
    2 -0.071918 -8.498731 -0.104137 0.222676 0.029714 -0.170923
    3 3.368457 -4.357613 0.461421 0.088531 0.124698 -1.545787
    4 0.045777 -1.573664 0.000000 0.000000 0.000000 -1.570796
    5 2.296397 1.496177 2.107536 0.000000 0.000000 -3.141592
    6 -1.216037 1.038362 1.092521 0.000000 2.790686 1.570796
    7 7.000000 1.781222 0.000000 0.000000 -0.001160 1.570796
    8 0.584018 2.854836 0.002934 0.000000 0.001160 0.000000
    9 0.000000 0.849938 0.000001 0.000000 0.000000 0.000000
    10 1.015859 2.730335 -0.003613 0.000000 0.000000 0.000000
    11 0.107326 0.941765 0.000000 0.000000 0.000000 0.000000
    12 -116.166410 346.228824 38.067568 0.000000 0.000000 0.000000
    13 0.340879 1.910698 1.116732 1.570796 -1.570796 0.000000
    14 16.890455 0.818869 0.000001 0.000000 0.000000 1.570796
    15 -2.042350 0.666854 1.361671 -0.357913 0.324161 0.423813
    16 0.000424 -3.540242 0.365661 0.000000 0.001160 0.000000
    17 -116.167608 346.231033 38.067568 0.000000 0.000000 0.000000
    18 -0.000366 -3.540242 -0.315491 0.000000 0.001160 0.000000
    19 0.000000 0.000000 0.000000 0.000000 0.000000 0.000000
    20 10.442629 -2.311492 -0.001769 0.000000 0.000000 -1.570796
    21 -0.498922 2.487837 1.492354 0.000000 0.000000 0.000000
    22 116.167608 -346.231102 38.067568 0.000000 0.000000 0.000000
    23 -0.498922 2.487837 -1.544641 0.000000 0.000000 0.000000
    24 0.000000 -0.000004 -0.000003 0.000000 0.000000 0.000000
    25 1.257180 8.762585 -0.153713 -1.570562 0.002683 -1.566807
    26 -0.488518 -2.755602 -0.228260 -1.030852 -0.134082 -0.416251
    27 0.039887 -1.479790 0.029854 -2.134253 0.000000 0.000001
    28 0.028786 -1.075731 -0.023109 -0.271941 0.000000 0.000000
    29 0.250027 -2.820665 -0.238396 -0.636386 -0.105209 -0.434549
    30 -0.049759 -1.680544 0.100479 -2.262150 0.000000 -0.000002
    31 -0.034142 -1.148312 0.084782 -0.535851 0.000000 0.000000
    32 0.957766 -2.746780 -0.090302 0.329289 -0.172344 0.119866
    33 -0.033420 -1.397129 -0.011257 -1.115580 0.000000 -0.000001
    34 -0.022360 -0.957436 0.018784 -1.148807 0.000000 0.000000
    35 -1.180681 -2.507217 -0.193859 -1.049595 -0.031145 -0.514372
    36 -0.024967 -1.123934 0.017597 -1.878163 0.000000 0.000001
    37 -0.020057 -0.890968 0.010090 -0.444208 0.000000 0.000000
    38 0.583510 -1.197277 0.185379 0.371183 -0.693166 -0.903076
    39 1.535927 0.010246 0.005009 -0.002964 -0.012979 -0.682290
    40 1.100771 0.004527 -0.010679 -0.016147 -0.001453 -1.484153
    41 0.120153 -0.050270 -0.054489 0.287569 3.110905 1.561085
    42 -2.302081 -0.297516 -7.267130 0.263834 -2.764433 0.391618
    43 0.096944 -8.450418 -0.009365 0.100012 -1.152877 -0.187581
    44 0.447953 -2.798986 -0.200443 -1.500846 0.042804 0.170619
    45 -0.032909 -1.480204 0.004940 -1.460121 0.000000 0.000002
    46 -0.027022 -1.076920 -0.020210 -1.447967 0.000000 0.000000
    47 -0.249534 -2.846964 -0.174213 -1.192968 0.002631 0.073866
    48 0.043235 -1.683941 0.096012 -1.708398 0.002823 -0.000167
    49 0.031729 -1.160830 0.058838 -1.504756 0.000642 0.008372
    50 -0.963866 -2.785145 -0.085350 0.086459 -0.085398 0.045715
    51 0.028479 -1.403067 0.006271 -0.394742 0.000000 0.000000
    52 0.021413 -0.957781 0.020046 -0.339924 0.000000 0.000000
    53 1.164475 -2.543940 -0.170330 -1.568557 -0.015463 0.162804
    54 0.024032 -1.129042 0.017807 -1.240409 0.000000 0.000001
    55 0.014898 -0.883989 -0.019848 -1.492828 0.000000 0.000000
    56 -0.586770 -1.264477 0.200161 -0.051864 -0.483499 -2.631936
    57 1.522835 0.058681 0.016848 0.001410 0.008985 0.834983
    58 1.117947 0.048424 -0.005766 0.014079 -0.020908 -0.537170
    59 -0.139399 -0.111698 0.014397 1.007055 0.064371 1.374503
    60 -6.260806 6.983652 -0.294122 1.580804 -0.005023 -0.912799
  time 4
    0 -0.349399 2.955262 0.203512 0.000000 0.000000 0.000000
    1 10.472141 1.892251 -7.868216 -0.090982 -1.157380 -0.376149
    2 -0.071918 -8.498731 -0.104137 0.223003 0.009820 -0.160568
    3 3.368457 -4.357613 0.461421 0.088531 0.124698 -1.545787
    4 0.045777 -1.573664 0.000000 0.000000 0.000000 -1.570796
    5 2.296397 1.496177 2.107536 0.000000 0.000000 -3.141592
    6 -1.216037 1.038362 1.092521 0.000000 2.790686 1.570796
    7 7.000000 1.781222 0.000000 0.000000 -0.001160 1.570796
    8 0.584018 2.854836 0.002934 0.000000 0.001160 0.000000
    9 0.000000 0.849938 0.000001 0.000000 0.000000 0.000000
    10 1.015859 2.730335 -0.003613 0.000000 0.000000 0.000000
    11 0.107326 0.941765 0.000000 0.000000 0.000000 0.000000
    12 -116.166410 346.228824 38.067568 0.000000 0.000000 0.000000
    13 0.340879 1.910698 1.116732 1.570796 -1.570796 0.000000
    14 16.890455 0.818869 0.000001 0.000000 0.000000 1.570796
    15 -1.659526 1.248903 1.099944 -0.375385 0.292105 0.142757
    16 0.000424 -3.540242 0.365661 0.000000 0.001160 0.000000
    17 -116.167608 346.231033 38.067568 0.000000 0.000000 0.000000
    18 -0.000366 -3.540242 -0.315491 0.000000 0.001160 0.000000
    19 0.000000 0.000000 0.000000 0.000000 0.000000 0.000000
    20 10.442629 -2.311492 -0.001769 0.000000 0.000000 -1.570796
    21 -0.498922 2.487837 1.492354 0.000000 0.000000 0.000000
    22 116.167608 -346.231102 38.067568 0.000000 0.000000 0.000000
    23 -0.498922 2.487837 -1.544641 0.000000 0.000000 0.000000
    24 0.000000 -0.000004 -0.000003 0.000000 0.000000 0.000000
    25 1.257180 8.762585 -0.153713 -1.570562 0.002683 -1.566807
    26 -0.488518 -2.755602 -0.228260 -1.030852 -0.134082 -0.416251
    27 0.039887 -1.479790 0.029854 -2.134253 0.000000 0.000001
    28 0.028786 -1.075731 -0.023109 -0.271941 0.000000 0.000000
    29 0.250027 -2.820665 -0.238396 -0.636386 -0.105209 -0.434549
    30 -0.049759 -1.680544 0.100479 -2.262150 0.000000 -0.000002
    31 -0.034142 -1.148312 0.084782 -0.535851 0.000000 0.000000
    32 0.957766 -2.746780 -0.090302 0.329289 -0.172344 0.119866
    33 -0.033420 -1.397129 -0.011257 -1.115580 0.000000 -0.000001
    34 -0.022360 -0.957436 0.018784 -1.148807 0.000000 0.000000
    35 -1.180681 -2.507217 -0.193859 -1.049595 -0.031145 -0.514372
    36 -0.024967 -1.123934 0.017597 -1.878163 0.000000 0.000001
    37 -0.020057 -0.890968 0.010090 -0.444208 0.000000 0.000000
    38 0.583510 -1.197277 0.185379 0.371183 -0.693166 -0.903076
    39 1.535927 0.010246 0.005009 -0.002964 -0.012979 -0.682290
    40 1.100771 0.004527 -0.010679 -0.016147 -0.001453 -1.484153
    41 0.120153 -0.050270 -0.054489 0.287569 3.110905 1.561085
    42 -2.567714 -1.254576 -6.657736 0.245486 -2.709611 0.445713
    43 0.096944 -8.450418 -0.009365 0.010836 -1.137130 -0.142256
    44 0.447953 -2.798986 -0.200443 -1.500846 0.042804 0.170619
    45 -0.032909 -1.480204 0.004940 -1.460121 0.000000 0.000002
    46 -0.027022 -1.076920 -0.020210 -1.447967 0.000000 0.000000
    47 -0.249534 -2.846964 -0.174213 -1.192968 0.002631 0.073866
    48 0.043235 -1.683941 0.096012 -1.708398 0.002823 -0.000167
    49 0.031729 -1.160830 0.058838 -1.504756 0.000642 0.008372
    50 -0.963866 -2.785145 -0.085350 -0.046519 -0.085398 0.045715
    51 0.028479 -1.403067 0.006271 -0.571395 0.000000 0.000000
    52 0.021413 -0.957781 0.020046 -0.460476 0.000000 0.000000
    53 1.164475 -2.543940 -0.170330 -1.568557 -0.015463 0.162804
    54 0.024032 -1.129042 0.017807 -1.240409 0.000000 0.000001
    55 0.014898 -0.883989 -0.019848 -1.492828 0.000000 0.000000
    56 -0.586770 -1.264477 0.200161 0.085375 -0.269227 -2.656278
    57 1.522835 0.058681 0.016848 0.001410 0.008985 0.804786
    58 1.117947 0.048424 -0.005766 0.008530 -0.023676 -0.290193
    59 -0.139399 -0.111698 0.014397 1.007033 0.064371 1.374503
    60 -5.874076 7.296161 -0.290216 1.580804 -0.005023 -0.974639
  time 5
    0 -0.349399 2.955262 0.203512 0.000000 0.000000 0.000000
    1 10.433077 1.857094 -7.731493 -0.064236 -1.158325 -0.398572
    2 -0.071918 -8.498731 -0.104137 0.226208 -0.006875 -0.152946
    3 3.368457 -4.357613 0.461421 0.088531 0.124698 -1.545787
    4 0.045777 -1.573664 0.000000 0.000000 0.000000 -1.570796
    5 3.077671 1.496177 2.107536 0.000000 0.000000 -3.141592
    6 -1.216037 1.038362 1.092521 0.000000 2.790686 1.570796
    7 7.000000 1.781222 0.000000 0.000000 -0.001160 1.570796
    8 0.584018 2.854836 0.002934 0.000000 0.001160 0.000000
    9 0.000000 0.849938 0.000001 0.000000 0.000000 0.000000
    10 1.015859 2.730335 -0.003613 0.000000 0.000000 0.000000
    11 0.107326 0.941765 0.000000 0.000000 0.000000 0.000000
    12 -116.166410 346.228824 38.067568 0.000000 0.000000 0.000000
    13 0.340879 1.910698 1.116732 1.570796 -1.570796 0.000000
    14 16.890455 0.818869 0.000001 0.000000 0.000000 1.570796
    15 -1.202480 1.381720 0.779622 -0.529076 0.182604 0.079589
    16 0.000424 -3.540242 0.365661 0.000000 0.001160 0.000000
    17 -116.167608 346.231033 38.067568 0.000000 0.000000 0.000000
    18 -0.000366 -3.540242 -0.315491 0.000000 0.001160 0.000000
    19 0.000000 0.000000 0.000000 0.000000 0.000000 0.000000
    20 10.442629 -2.311492 -0.001769 0.000000 0.000000 -1.570796
    21 -0.498922 2.487837 1.492354 0.000000 0.000000 0.000000
    22 116.167608 -346.231102 38.067568 0.000000 0.000000 0.000000
    23 -0.498922 2.487837 -1.544641 0.000000 0.000000 0.000000
    24 0.000000 -0.000004 -0.000003 0.000000 0.000000 0.000000
    25 1.257180 8.762585 -0.153713 -1.570562 0.002683 -1.566807
    26 -0.488518 -2.755602 -0.228260 -1.030852 -0.134082 -0.416251
    27 0.039887 -1.479790 0.029854 -2.134253 0.000000 0.000001
    28 0.028786 -1.075731 -0.023109 -0.271941 0.000000 0.000000
    29 0.250027 -2.820665 -0.238396 -0.636386 -0.105209 -0.434549
    30 -0.049759 -1.680544 0.100479 -2.262150 0.000000 -0.000002
    31 -0.034142 -1.148312 0.084782 -0.535851 0.000000 0.000000
    32 0.957766 -2.746780 -0.090302 0.329289 -0.172344 0.119866
    33 -0.033420 -1.397129 -0.011257 -1.115580 0.000000 -0.000001
    34 -0.022360 -0.957436 0.018784 -1.148807 0.000000 0.000000
    35 -1.180681 -2.507217 -0.193859 -1.049595 -0.031145 -0.514372
    36 -0.024967 -1.123934 0.017597 -1.878163 0.000000 0.000001
    37 -0.020057 -0.890968 0.010090 -0.444208 0.000000 0.000000
    38 0.583510 -1.197277 0.185379 0.371183 -0.693166 -0.903076
    39 1.535927 0.010246 0.005009 -0.002964 -0.012979 -0.682290
    40 1.100771 0.004527 -0.010679 -0.016147 -0.001453 -1.484153
    41 0.120153 -0.050270 -0.054489 0.287569 3.110905 1.561085
    42 -3.220078 -2.250700 -6.075687 0.210770 -2.765745 0.568512
    43 0.096944 -8.450418 -0.009365 -0.133894 -1.090854 0.010175
    44 0.447953 -2.798986 -0.200443 -1.500846 0.042804 0.170619
    45 -0.032909 -1.480204 0.004940 -1.460121 0.000000 0.000002
    46 -0.027022 -1.076920 -0.020210 -1.447967 0.000000 0.000000
    47 -0.249534 -2.846964 -0.174213 -1.192968 0.002631 0.073866
    48 0.043235 -1.683941 0.096012 -1.708398 0.002823 -0.000167
    49 0.031729 -1.160830 0.058838 -1.504756 0.000642 0.008372
    50 -0.963866 -2.785145 -0.085350 -0.339145 -0.085398 0.045715
    51 0.028479 -1.403067 0.006271 -0.959929 0.000000 0.000000
    52 0.021413 -0.957781 0.020046 -0.725770 0.000000 0.000000
    53 1.164475 -2.543940 -0.170330 -1.568557 -0.015463 0.162804
    54 0.024032 -1.129042 0.017807 -1.240409 0.000000 0.000001
    55 0.014898 -0.883989 -0.019848 -1.492828 0.000000 0.000000
    56 -0.586770 -1.264477 0.200161 -0.015472 -0.361029 -2.564196
    57 1.522835 0.058681 0.016848 0.001410 0.008985 0.731095
    58 1.117947 0.048424 -0.005766 0.005282 -0.024647 -0.154082
    59 -0.139399 -0.111698 0.014397 1.007055 0.064371 1.374503
    60 -5.018581 7.987589 -0.282403 1.580804 -0.005023 -1.110714
  time 6
    0 -0.349399 2.955262 0.203512 0.000000 0.000000 0.000000
    1 10.394014 1.821937 -7.594770 -0.037970 -1.160257 -0.420094
    2 -0.071918 -8.498731 -0.104137 0.244424 -0.019591 -0.152707
    3 3.368457 -4.357613 0.461421 0.088531 0.124698 -1.545787
    4 0.045777 -1.573664 0.000000 0.000000 0.000000 -1.570796
    5 3.987855 1.496177 2.107536 0.000000 0.000000 -3.141592
    6 -1.216037 1.038362 1.092521 -3.141592 0.350890 -1.570796
    7 7.000000 1.781222 0.000000 0.000000 -0.001160 1.570796
    8 0.584018 2.854836 0.002934 0.000000 0.001160 0.000000
    9 0.000000 0.849938 0.000001 0.000000 0.000000 0.000000
    10 1.015859 2.730335 -0.003613 0.000000 0.000000 0.000000
    11 0.107326 0.941765 0.000000 0.000000 0.000000 0.000000
    12 -116.166410 346.228824 38.067568 0.000000 0.000000 0.000000
    13 0.340879 1.910698 1.116732 1.570796 -1.570796 0.000000
    14 16.890455 0.818869 0.000001 0.000000 0.000000 1.570796
    15 -0.343079 1.338749 0.685869 -0.629832 0.125934 0.151636
    16 0.000424 -3.540242 0.365661 0.000000 0.001160 0.000000
    17 -116.167608 346.241600 38.067568 0.000000 0.000000 0.000000
    18 -0.000366 -3.540242 -0.315491 0.000000 0.001160 0.000000
    19 0.000000 0.000000 0.000000 0.000000 0.000000 0.000000
    20 10.442629 -2.311492 -0.001769 0.000000 0.000000 -1.570796
    21 -0.498922 2.487837 1.492354 0.000000 0.000000 0.000000
    22 116.167608 -346.241669 38.067568 0.000000 0.000000 0.000000
    23 -0.498922 2.487837 -1.544641 0.000000 0.000000 0.000000
    24 0.000000 -0.000004 -0.000003 0.000000 0.000000 0.000000
    25 1.257180 8.762585 -0.153713 -1.570562 0.002683 -1.566807
    26 -0.488518 -2.755602 -0.228260 -1.030852 -0.134082 -0.416251
    27 0.039887 -1.479790 0.029854 -2.134253 0.000000 0.000001
    28 0.028786 -1.075731 -0.023109 -0.271941 0.000000 0.000000
    29 0.250027 -2.820665 -0.238396 -0.636386 -0.105209 -0.434549
    30 -0.049759 -1.680544 0.100479 -2.262150 0.000000 -0.000002
    31 -0.034142 -1.148312 0.084782 -0.535851 0.000000 0.000000
    32 0.957766 -2.746780 -0.090302 0.329289 -0.172344 0.119866
    33 -0.033420 -1.397129 -0.011257 -1.115580 0.000000 -0.000001
    34 -0.022360 -0.957436 0.018784 -1.148807 0.000000 0.000000
    35 -1.180681 -2.507217 -0.193859 -1.049595 -0.031145 -0.514372
    36 -0.024967 -1.123934 0.017597 -1.878163 0.000000 0.000001
    37 -0.020057 -0.890968 0.010090 -0.444208 0.000000 0.000000
    38 0.583510 -1.197277 0.185379 0.371183 -0.693166 -0.903076
    39 1.535927 0.010246 0.005009 -0.002964 -0.012979 -0.682290
    40 1.100771 0.004527 -0.010679 -0.016147 -0.001453 -1.484153
    41 0.120153 -0.050270 -0.054489 0.287569 3.110905 1.561085
    42 -3.884160 -3.094476 -5.743646 0.182677 -2.909143 0.708463
    43 0.096944 -8.450418 -0.009365 -0.270969 -0.811020 0.399597
    44 0.447953 -2.798986 -0.200443 -1.500846 0.042804 0.170619
    45 -0.032909 -1.480204 0.004940 -1.460121 0.000000 0.000002
    46 -0.027022 -1.076920 -0.020210 -1.447967 0.000000 0.000000
    47 -0.249534 -2.846964 -0.174213 -1.192968 0.002631 0.073866
    48 0.043235 -1.683941 0.096012 -1.708398 0.002823 -0.000167
    49 0.031729 -1.160830 0.058838 -1.504756 0.000642 0.008372
    50 -0.963866 -2.785145 -0.085350 -0.631749 -0.085398 0.045715
    51 0.028479 -1.403067 0.006271 -1.348509 0.000000 0.000000
    52 0.021413 -0.957781 0.020046 -0.991014 0.000000 0.000000
    53 1.164475 -2.543940 -0.170330 -1.568557 -0.015463 0.162804
    54 0.024032 -1.129042 0.017807 -1.240409 0.000000 0.000001
    55 0.014898 -0.883989 -0.019848 -1.492828 0.000000 0.000000
    56 -0.586770 -1.264477 0.200161 -0.045105 -0.440115 -2.598066
    57 1.522835 0.058681 0.016848 0.001410 0.008985 0.639453
    58 1.117947 0.048424 -0.005766 0.007367 -0.024095 -0.239420
    59 -0.139399 -0.111698 0.014397 1.007033 0.064371 1.374503
    60 -4.159179 8.679016 -0.274590 1.580804 -0.005023 -1.246809
  time 7
    0 -0.349399 2.955262 0.203512 0.000000 0.000000 0.000000
    1 10.362763 1.790686 -7.485391 -0.018413 -1.162600 -0.435583
    2 -0.071918 -8.498731 -0.104137 0.263609 -0.020501 -0.158855
    3 3.368457 -4.357613 0.461421 0.088531 0.124698 -1.545787
    4 0.045777 -1.573664 0.000000 0.000000 0.000000 -1.570796
    5 4.636313 1.496177 2.107536 0.000000 0.000000 -3.141592
    6 -1.216037 1.038362 1.092521 0.000000 2.790686 1.570796
    7 7.000000 1.781222 0.000000 0.000000 -0.001160 1.570796
    8 0.584018 2.854836 0.002934 0.000000 0.001160 0.000000
    9 0.000000 0.849938 0.000001 0.000000 0.000000 0.000000
    10 1.015859 2.730335 -0.003613 0.000000 0.000000 0.000000
    11 0.107326 0.941765 0.000000 0.000000 0.000000 0.000000
    12 -116.166410 346.228824 38.067568 0.000000 0.000000 0.000000
    13 0.340879 1.910698 1.116732 1.570796 -1.570796 0.000000
    14 16.890455 0.818869 0.000001 0.000000 0.000000 1.570796
    15 -0.147761 1.487191 0.619461 -0.501648 0.309016 0.034249
    16 0.000424 -3.540242 0.365661 0.000000 0.001160 0.000000
    17 -116.167608 346.231033 38.067568 0.000000 0.000000 0.000000
    18 -0.000366 -3.540242 -0.315491 0.000000 0.001160 0.000000
    19 0.000000 0.000000 0.000000 0.000000 0.000000 0.000000
    20 10.442629 -2.311492 -0.001769 0.000000 0.000000 -1.570796
    21 -0.498922 2.487837 1.492354 0.000000 0.000000 0.000000
    22 116.167608 -346.231102 38.067568 0.000000 0.000000 0.000000
    23 -0.498922 2.487837 -1.544641 0.000000 0.000000 0.000000
    24 0.000000 -0.000004 -0.000003 0.000000 0.000000 0.000000
    25 1.257180 8.762585 -0.153713 -1.570562 0.002683 -1.566807
    26 -0.488518 -2.755602 -0.228260 -1.030852 -0.134082 -0.416251
    27 0.039887 -1.479790 0.029854 -2.134253 0.000000 0.000001
    28 0.028786 -1.075731 -0.023109 -0.271941 0.000000 0.000000
    29 0.250027 -2.820665 -0.238396 -0.636386 -0.105209 -0.434549
    30 -0.049759 -1.680544 0.100479 -2.262150 0.000000 -0.000002
    31 -0.034142 -1.148312 0.084782 -0.535851 0.000000 0.000000
    32 0.957766 -2.746780 -0.090302 0.329289 -0.172344 0.119866
    33 -0.033420 -1.397129 -0.011257 -1.115580 0.000000 -0.000001
    34 -0.022360 -0.957436 0.018784 -1.148807 0.000000 0.000000
    35 -1.180681 -2.507217 -0.193859 -1.049595 -0.031145 -0.514372
    36 -0.024967 -1.123934 0.017597 -1.878163 0.000000 0.000001
    37 -0.020057 -0.890968 0.010090 -0.444208 0.000000 0.000000
    38 0.583510 -1.197277 0.185379 0.371183 -0.693166 -0.903076
    39 1.535927 0.010246 0.005009 -0.002964 -0.012979 -0.682290
    40 1.100771 0.004527 -0.010679 -0.016147 -0.001453 -1.484153
    41 0.120153 -0.050270 -0.054489 0.287569 3.110905 1.561085
    42 -4.192764 -3.610117 -5.880369 0.198969 -3.361934 0.889221
    43 0.096944 -8.450418 -0.009365 -0.235212 -0.563768 0.629459
    44 0.447953 -2.798986 -0.200443 -1.500846 0.042804 0.170619
    45 -0.032909 -1.480204 0.004940 -1.460121 0.000000 0.000002
    46 -0.027022 -1.076920 -0.020210 -1.447967 0.000000 0.000000
    47 -0.249534 -2.846964 -0.174213 -1.192968 0.002631 0.073866
    48 0.043235 -1.683941 0.096012 -1.708398 0.002823 -0.000167
    49 0.031729 -1.160830 0.058838 -1.504756 0.000642 0.008372
    50 -0.963866 -2.785145 -0.085350 -0.764750 -0.085398 0.045715
    51 0.028479 -1.403067 0.006271 -1.525115 0.000000 0.000000
    52 0.021413 -0.957781 0.020046 -1.111565 0.000000 0.000000
    53 1.164475 -2.543940 -0.170330 -1.568557 -0.015463 0.162804
    54 0.024032 -1.129042 0.017807 -1.240409 0.000000 0.000001
    55 0.014898 -0.883989 -0.019848 -1.492828 0.000000 0.000000
    56 -0.586770 -1.264477 0.200161 -0.051864 -0.483499 -2.631936
    57 1.522835 0.058681 0.016848 0.001410 0.008985 0.555320
    58 1.117947 0.048424 -0.005766 0.010783 -0.022777 -0.386720
    59 -0.139399 -0.111698 0.014397 1.007055 0.064371 1.374503
    60 -3.772449 8.987619 -0.270684 1.580804 -0.005023 -1.308649
  time 8
    0 -0.349399 2.955262 0.203512 0.000000 0.000000 0.000000
    1 10.351043 1.782873 -7.442421 -0.012182 -1.165005 -0.439906
    2 -0.071918 -8.498731 -0.104137 0.267070 -0.003651 -0.168310
    3 3.368457 -4.357613 0.461421 0.088531 0.124698 -1.545787
    4 0.045777 -1.573664 0.000000 0.000000 0.000000 -1.570796
    5 4.937103 1.496177 2.107536 0.000000 0.000000 -3.141592
    6 -1.216037 1.038362 1.092521 0.000000 2.790686 1.570796
    7 7.000000 1.781222 0.000000 0.000000 -0.001160 1.570796
    8 0.584018 2.854836 0.002934 0.000000 0.001160 0.000000
    9 0.000000 0.849938 0.000001 0.000000 0.000000 0.000000
    10 1.015859 2.730335 -0.003613 0.000000 0.000000 0.000000
    11 0.107326 0.941765 0.000000 0.000000 0.000000 0.000000
    12 -116.166410 346.228824 38.067568 0.000000 0.000000 0.000000
    13 0.340879 1.910698 1.116732 1.570796 -1.570796 0.000000
    14 16.890455 0.818869 0.000001 0.000000 0.000000 1.570796
    15 0.121779 1.580944 0.553053 -0.390608 0.494005 0.208649
    16 0.000424 -3.540242 0.365661 0.000000 0.001160 0.000000
    17 -116.167608 346.231033 38.067568 0.000000 0.000000 0.000000
    18 -0.000366 -3.540242 -0.315491 0.000000 0.001160 0.000000
    19 0.000000 0.000000 0.000000 0.000000 0.000000 0.000000
    20 10.442629 -2.311492 -0.001769 0.000000 0.000000 -1.570796
    21 -0.498922 2.487837 1.492354 0.000000 0.000000 0.000000
    22 116.167608 -346.231102 38.067568 0.000000 0.000000 0.000000
    23 -0.498922 2.487837 -1.544641 0.000000 0.000000 0.000000
    24 0.000000 -0.000004 -0.000003 0.000000 0.000000 0.000000
    25 1.257180 8.762585 -0.153713 -1.570562 0.002683 -1.566807
    26 -0.488518 -2.755602 -0.228260 -1.030852 -0.134082 -0.416251
    27 0.039887 -1.479790 0.029854 -2.134253 0.000000 0.000001
    28 0.028786 -1.075731 -0.023109 -0.271941 0.000000 0.000000
    29 0.250027 -2.820665 -0.238396 -0.636386 -0.105209 -0.434549
    30 -0.049759 -1.680544 0.100479 -2.262150 0.000000 -0.000002
    31 -0.034142 -1.148312 0.084782 -0.535851 0.000000 0.000000
    32 0.957766 -2.746780 -0.090302 0.329289 -0.172344 0.119866
    33 -0.033420 -1.397129 -0.011257 -1.115580 0.000000 -0.000001
    34 -0.022360 -0.957436 0.018784 -1.148807 0.000000 0.000000
    35 -1.180681 -2.507217 -0.193859 -1.049595 -0.031145 -0.514372
    36 -0.024967 -1.123934 0.017597 -1.878163 0.000000 0.000001
    37 -0.020057 -0.890968 0.010090 -0.444208 0.000000 0.000000
    38 0.583510 -1.197277 0.185379 0.371183 -0.693166 -0.903076
    39 1.535927 0.010246 0.005009 -0.002964 -0.012979 -0.682290
    40 1.100771 0.004527 -0.010679 -0.016147 -0.001453 -1.484153
    41 0.120153 -0.050270 -0.054489 0.287569 3.110905 1.561085
    42 -4.192764 -3.938252 -6.384291 0.228433 -3.327087 0.891766
    43 0.096944 -8.450418 -0.009365 -0.194323 -0.552160 0.617018
    44 0.447953 -2.798986 -0.200443 -1.500846 0.042804 0.170619
    45 -0.032909 -1.480204 0.004940 -1.460121 0.000000 0.000002
    46 -0.027022 -1.076920 -0.020210 -1.447967 0.000000 0.000000
    47 -0.249534 -2.846964 -0.174213 -1.192968 0.002631 0.073866
    48 0.043235 -1.683941 0.096012 -1.708398 0.002823 -0.000167
    49 0.031729 -1.160830 0.058838 -1.504756 0.000642 0.008372
    50 -0.963866 -2.785145 -0.085350 -0.717618 -0.085398 0.045715
    51 0.028479 -1.403067 0.006271 -1.462504 0.000000 0.000000
    52 0.021413 -0.957781 0.020046 -1.068844 0.000000 0.000000
    53 1.164475 -2.543940 -0.170330 -1.568557 -0.015463 0.162804
    54 0.024032 -1.129042 0.017807 -1.240409 0.000000 0.000001
    55 0.014898 -0.883989 -0.019848 -1.492828 0.000000 0.000000
    56 -0.586770 -1.264477 0.200161 0.003334 -0.472210 -2.627215
    57 1.522835 0.058681 0.016848 0.001410 0.008985 0.465400
    58 1.117947 0.048424 -0.005766 0.013983 -0.020608 -0.542086
    59 -0.139399 -0.111698 0.014397 1.006637 0.065810 1.373426
    60 -3.772449 8.987619 -0.270684 1.580804 -0.005023 -1.308649
  time 9
    0 -0.349399 2.955262 0.203512 0.000000 0.000000 0.000000
    1 10.386201 1.806311 -7.426796 -0.011703 -1.167348 -0.441707
    2 -0.071918 -8.498731 -0.104137 0.265062 0.020378 -0.179552
    3 3.368457 -4.357613 0.461421 0.088531 0.124698 -1.545787
    4 0.045777 -1.573664 0.000000 0.000000 0.000000 -1.570796
    5 4.980073 1.496177 2.107536 0.000000 0.000000 -3.141592
    6 -1.216037 1.038362 1.092521 0.000000 2.790686 1.570796
    7 7.000000 1.781222 0.000000 0.000000 -0.001160 1.570796
    8 0.584018 2.854836 0.002934 0.000000 0.001160 0.000000
    9 0.000000 0.849938 0.000001 0.000000 0.000000 0.000000
    10 1.015859 2.730335 -0.003613 0.000000 0.000000 0.000000
    11 0.107326 0.941765 0.000000 0.000000 0.000000 0.000000
    12 -116.166410 346.228824 38.067568 0.000000 0.000000 0.000000
    13 0.340879 1.910698 1.116732 1.570796 -1.570796 0.000000
    14 16.890455 0.818869 0.000001 0.000000 0.000000 1.570796
    15 1.742922 2.631758 -1.614982 -0.181523 0.745253 0.500419
    16 0.000424 -3.540242 0.365661 0.000000 0.001160 0.000000
    17 -116.167608 346.231033 38.067568 0.000000 0.000000 0.000000
    18 -0.000366 -3.540242 -0.315491 0.000000 0.001160 0.000000
    19 0.000000 0.000000 0.000000 0.000000 0.000000 0.000000
    20 10.442629 -2.311492 -0.001769 0.000000 0.000000 -1.570796
    21 -0.498922 2.487837 1.492354 0.000000 0.000000 0.000000
    22 116.167608 -346.231102 38.067568 0.000000 0.000000 0.000000
    23 -0.498922 2.487837 -1.544641 0.000000 0.000000 0.000000
    24 0.000000 -0.000004 -0.000003 0.000000 0.000000 0.000000
    25 1.257180 8.762585 -0.153713 -1.570562 0.002683 -1.566807
    26 -0.488518 -2.755602 -0.228260 -1.030852 -0.134082 -0.416251
    27 0.039887 -1.479790 0.029854 -2.134253 0.000000 0.000001
    28 0.028786 -1.075731 -0.023109 -0.271941 0.000000 0.000000
    29 0.250027 -2.820665 -0.238396 -0.636386 -0.105209 -0.434549
    30 -0.049759 -1.680544 0.100479 -2.262150 0.000000 -0.000002
    31 -0.034142 -1.148312 0.084782 -0.535851 0.000000 0.000000
    32 0.957766 -2.746780 -0.090302 0.329289 -0.172344 0.119866
    33 -0.033420 -1.397129 -0.011257 -1.115580 0.000000 -0.000001
    34 -0.022360 -0.957436 0.018784 -1.148807 0.000000 0.000000
    35 -1.180681 -2.507217 -0.193859 -1.049595 -0.031145 -0.514372
    36 -0.024967 -1.123934 0.017597 -1.878163 0.000000 0.000001
    37 -0.020057 -0.890968 0.010090 -0.444208 0.000000 0.000000
    38 0.583510 -1.197277 0.185379 0.371183 -0.693166 -0.903076
    39 1.535927 0.010246 0.005009 -0.002964 -0.012979 -0.682290
    40 1.100771 0.004527 -0.010679 -0.016147 -0.001453 -1.484153
    41 0.120153 -0.050270 -0.054489 0.287569 3.110905 1.561085
    42 -4.192764 -4.297638 -6.935089 0.242213 -3.203519 0.877441
    43 0.096944 -8.450418 -0.009365 -0.152506 -0.622710 0.519760
    44 0.447953 -2.798986 -0.200443 -1.500846 0.042804 0.170619
    45 -0.032909 -1.480204 0.004940 -1.460121 0.000000 0.000002
    46 -0.027022 -1.076920 -0.020210 -1.447967 0.000000 0.000000
    47 -0.249534 -2.846964 -0.174213 -1.192968 0.002631 0.073866
    48 0.043235 -1.683941 0.096012 -1.708398 0.002823 -0.000167
    49 0.031729 -1.160830 0.058838 -1.504756 0.000642 0.008372
    50 -0.963866 -2.785145 -0.085350 -0.596000 -0.085398 0.045715
    51 0.028479 -1.403067 0.006271 -1.301023 0.000000 0.000000
    52 0.021413 -0.957781 0.020046 -0.958609 0.000000 0.000000
    53 1.164475 -2.543940 -0.170330 -1.568557 -0.015463 0.162804
    54 0.024032 -1.129042 0.017807 -1.240409 0.000000 0.000001
    55 0.014898 -0.883989 -0.019848 -1.492828 0.000000 0.000000
    56 -0.586770 -1.264477 0.200161 0.105828 -0.451261 -2.618422
    57 1.522835 0.058681 0.016848 0.001410 0.008985 0.373732
    58 1.117947 0.048424 -0.005766 0.017147 -0.018175 -0.700805
    59 -0.139399 -0.111698 0.014397 1.005491 0.069796 1.370454
    60 -3.772449 8.987619 -0.270684 1.580804 -0.005023 -1.308649
  time 10
    0 -0.349399 2.955262 0.203512 0.000000 0.000000 0.000000
    1 10.468235 1.868813 -7.411170 -0.010073 -1.169937 -0.447380
    2 -0.071918 -8.498731 -0.104137 0.260091 0.040284 -0.187989
    3 3.368457 -4.357613 0.461421 0.088531 0.124698 -1.545787
    4 0.045777 -1.573664 0.000000 0.000000 0.000000 -1.570796
    5 4.636313 1.496177 2.107536 0.000000 0.000000 -3.141592
    6 -1.216037 1.038362 1.092521 -3.141592 0.350890 -1.570796
    7 7.000000 1.781222 0.000000 0.000000 -0.001160 1.570796
    8 0.584018 2.854836 0.002934 0.000000 0.001160 0.000000
    9 0.000000 0.849938 0.000001 0.000000 0.000000 0.000000
    10 1.015859 2.730335 -0.003613 0.000000 0.000000 0.000000
    11 0.107326 0.941765 0.000000 0.000000 0.000000 0.000000
    12 -116.166410 346.228824 38.067568 0.000000 0.000000 0.000000
    13 0.340879 1.910698 1.116732 1.570796 -1.570796 0.000000
    14 16.890455 0.818869 0.000001 0.000000 0.000000 1.570796
    15 -11.734052 -14.376574 -23.252361 -0.161879 0.747161 0.529355
    16 0.000424 -3.540242 0.365661 0.000000 0.001160 0.000000
    17 -116.167608 346.231033 38.067568 0.000000 0.000000 0.000000
    18 -0.000366 -3.540242 -0.315491 0.000000 0.001160 0.000000
    19 0.000000 0.000000 0.000000 0.000000 0.000000 0.000000
    20 10.442629 -2.311492 -0.001769 0.000000 0.000000 -1.570796
    21 -0.498922 2.487837 1.492354 0.000000 0.000000 0.000000
    22 116.167608 -346.231102 38.067568 0.000000 0.000000 0.000000
    23 -0.498922 2.487837 -1.544641 0.000000 0.000000 0.000000
    24 0.000000 -0.000004 -0.000003 0.000000 0.000000 0.000000
    25 1.257180 8.762585 -0.153713 -1.570562 0.002683 -1.566807
    26 -0.488518 -2.755602 -0.228260 -1.030852 -0.134082 -0.416251
    27 0.039887 -1.479790 0.029854 -2.134253 0.000000 0.000001
    28 0.028786 -1.075731 -0.023109 -0.271941 0.000000 0.000000
    29 0.250027 -2.820665 -0.238396 -0.636386 -0.105209 -0.434549
    30 -0.049759 -1.680544 0.100479 -2.262150 0.000000 -0.000002
    31 -0.034142 -1.148312 0.084782 -0.535851 0.000000 0.000000
    32 0.957766 -2.746780 -0.090302 0.329289 -0.172344 0.119866
    33 -0.033420 -1.397129 -0.011257 -1.115580 0.000000 -0.000001
    34 -0.022360 -0.957436 0.018784 -1.148807 0.000000 0.000000
    35 -1.180681 -2.507217 -0.193859 -1.049595 -0.031145 -0.514372
    36 -0.024967 -1.123934 0.017597 -1.878163 0.000000 0.000001
    37 -0.020057 -0.890968 0.010090 -0.444208 0.000000 0.000000
    38 0.583510 -1.197277 0.185379 0.371183 -0.693166 -0.903076
    39 1.535927 0.010246 0.005009 -0.002964 -0.012979 -0.682290
    40 1.100771 0.004527 -0.010679 -0.016147 -0.001453 -1.484153
    41 0.120153 -0.050270 -0.054489 0.287569 3.110905 1.561085
    42 -4.196670 -4.621866 -7.439010 0.251501 -3.147239 0.854728
    43 0.096944 -8.450418 -0.009365 -0.093134 -0.719401 0.417059
    44 0.447953 -2.798986 -0.200443 -1.500846 0.042804 0.170619
    45 -0.032909 -1.480204 0.004940 -1.460121 0.000000 0.000002
    46 -0.027022 -1.076920 -0.020210 -1.447967 0.000000 0.000000
    47 -0.249534 -2.846964 -0.174213 -1.192968 0.002631 0.073866
    48 0.043235 -1.683941 0.096012 -1.708398 0.002823 -0.000167
    49 0.031729 -1.160830 0.058838 -1.504756 0.000642 0.008372
    50 -0.963866 -2.785145 -0.085350 -0.429714 -0.085398 0.045715
    51 0.028479 -1.403067 0.006271 -1.080218 0.000000 0.000000
    52 0.021413 -0.957781 0.020046 -0.807857 0.000000 0.000000
    53 1.164475 -2.543940 -0.170330 -1.568557 -0.015463 0.162804
    54 0.024032 -1.129042 0.017807 -1.240409 0.000000 0.000001
    55 0.014898 -0.883989 -0.019848 -1.492828 0.000000 0.000000
    56 -0.586770 -1.264477 0.200161 0.161025 -0.439971 -2.613701
    57 1.522835 0.058681 0.016848 0.001410 0.008985 0.331746
    58 1.117947 0.048424 -0.005766 0.018573 -0.017025 -0.773572
    59 -0.139399 -0.111698 0.014397 1.003729 0.075892 1.365903
    60 -3.772449 8.987619 -0.270684 1.580804 -0.005023 -1.308649
  time 11
    0 -0.349399 2.955262 0.203512 0.000000 0.000000 0.000000
    1 10.554175 1.935221 -7.418983 -0.014867 -1.172876 -0.447380
    2 -0.071918 -8.498731 -0.104137 0.251902 0.053791 -0.192172
    3 3.368457 -4.357613 0.461421 0.088531 0.124698 -1.545787
    4 0.045777 -1.573664 0.000000 0.000000 0.000000 -1.570796
    5 2.296397 1.496177 2.107536 0.000000 0.000000 -3.141592
    6 -1.216037 1.038362 1.092521 0.000000 2.790686 1.570796
    7 7.000000 1.781222 0.000000 0.000000 -0.001160 1.570796
    8 0.584018 2.854836 0.002934 0.000000 0.001160 0.000000
    9 0.000000 0.849938 0.000001 0.000000 0.000000 0.000000
    10 1.015859 2.730335 -0.003613 0.000000 0.000000 0.000000
    11 0.107326 0.941765 0.000000 0.000000 0.000000 0.000000
    12 -116.166410 346.228824 38.067568 0.000000 0.000000 0.000000
    13 0.340879 1.910698 1.116732 1.570796 -1.570796 0.000000
    14 16.890455 0.818869 0.000001 0.000000 0.000000 1.570796
    15 -13.644266 -16.482107 -26.041509 -0.144003 0.754078 0.548211
    16 0.000424 -3.540242 0.365661 0.000000 0.001160 0.000000
    17 -116.167608 346.231033 38.067568 0.000000 0.000000 0.000000
    18 -0.000366 -3.540242 -0.315491 0.000000 0.001160 0.000000
    19 0.000000 0.000000 0.000000 0.000000 0.000000 0.000000
    20 10.442629 -2.311492 -0.001769 0.000000 0.000000 -1.570796
    21 -0.498922 2.487837 1.492354 0.000000 0.000000 0.000000
    22 116.167608 -346.241669 38.067568 0.000000 0.000000 0.000000
    23 -0.498922 2.487837 -1.544641 0.000000 0.000000 0.000000
    24 0.000000 -0.000004 -0.000003 0.000000 0.000000 0.000000
    25 1.257180 8.762585 -0.153713 -1.570562 0.002683 -1.566807
    26 -0.488518 -2.755602 -0.228260 -1.030852 -0.134082 -0.416251
    27 0.039887 -1.479790 0.029854 -2.134253 0.000000 0.000001
    28 0.028786 -1.075731 -0.023109 -0.271941 0.000000 0.000000
    29 0.250027 -2.820665 -0.238396 -0.636386 -0.105209 -0.434549
    30 -0.049759 -1.680544 0.100479 -2.262150 0.000000 -0.000002
    31 -0.034142 -1.148312 0.084782 -0.535851 0.000000 0.000000
    32 0.957766 -2.746780 -0.090302 0.329289 -0.172344 0.119866
    33 -0.033420 -1.397129 -0.011257 -1.115580 0.000000 -0.000001
    34 -0.022360 -0.957436 0.018784 -1.148807 0.000000 0.000000
    35 -1.180681 -2.507217 -0.193859 -1.049595 -0.031145 -0.514372
    36 -0.024967 -1.123934 0.017597 -1.878163 0.000000 0.000001
    37 -0.020057 -0.890968 0.010090 -0.444208 0.000000 0.000000
    38 0.583510 -1.197277 0.185379 0.371183 -0.693166 -0.903076
    39 1.535927 0.010246 0.005009 -0.002964 -0.012979 -0.682290
    40 1.100771 0.004527 -0.010679 -0.016147 -0.001453 -1.484153
    41 0.120153 -0.050270 -0.054489 0.287569 3.110905 1.561085
    42 -4.302142 -3.578866 -8.536700 0.252338 -3.250613 0.820800
    43 0.096944 -8.450418 -0.009365 0.000096 -0.836881 0.321615
    44 0.447953 -2.798986 -0.200443 -1.500846 0.042804 0.170619
    45 -0.032909 -1.480204 0.004940 -1.460121 0.000000 0.000002
    46 -0.027022 -1.076920 -0.020210 -1.447967 0.000000 0.000000
    47 -0.249534 -2.846964 -0.174213 -1.192968 0.002631 0.073866
    48 0.043235 -1.683941 0.096012 -1.708398 0.002823 -0.000167
    49 0.031729 -1.160830 0.058838 -1.504756 0.000642 0.008372
    50 -0.963866 -2.785145 -0.085350 -0.248554 -0.085398 0.045715
    51 0.028479 -1.403067 0.006271 -0.839639 0.000000 0.000000
    52 0.021413 -0.957781 0.020046 -0.643632 0.000000 0.000000
    53 1.164475 -2.543940 -0.170330 -1.568557 -0.015463 0.162804
    54 0.024032 -1.129042 0.017807 -1.240409 0.000000 0.000001
    55 0.014898 -0.883989 -0.019848 -1.492828 0.000000 0.000000
    56 -0.586770 -1.264477 0.200161 0.106970 -0.466637 -2.613975
    57 1.522835 0.058681 0.016848 0.001410 0.008985 0.410388
    58 1.117947 0.048424 -0.005766 0.017830 -0.017804 -0.733476
    59 -0.139399 -0.111698 0.014397 1.001505 0.083632 1.360117
    60 -3.772449 8.987619 -0.270684 1.580804 -0.005023 -1.308649
  time 12
    0 -0.349399 2.955262 0.203512 0.000000 0.000000 0.000000
    1 10.616677 1.982098 -7.493204 -0.033943 -1.176206 -0.432251
    2 -0.071918 -8.498731 -0.104137 0.240878 0.065368 -0.194521
    3 3.368457 -4.357613 0.461421 0.088531 0.124698 -1.545787
    4 0.045777 -1.573664 0.000000 0.000000 0.000000 -1.570796
    5 2.296397 1.496177 2.107536 0.000000 0.000000 -3.141592
    6 -1.216037 1.038362 1.092521 -3.141592 0.350890 -1.570796
    7 7.000000 1.781222 0.000000 0.000000 -0.001160 1.570796
    8 0.584018 2.854836 0.002934 0.000000 0.001160 0.000000
    9 0.000000 0.849938 0.000001 0.000000 0.000000 0.000000
    10 1.015859 2.730335 -0.003613 0.000000 0.000000 0.000000
    11 0.107326 0.941765 0.000000 0.000000 0.000000 0.000000
    12 -116.166410 346.228824 38.067568 0.000000 0.000000 0.000000
    13 0.340879 1.910698 1.116732 1.570796 -1.570796 0.000000
    14 16.890455 0.818869 0.000001 0.000000 0.000000 1.570796
    15 -14.253660 -16.552422 -26.369644 -0.123341 0.762641 0.560776
    16 0.000424 -3.540242 0.365661 0.000000 0.001160 0.000000
    17 -116.167608 346.241600 38.067568 0.000000 0.000000 0.000000
    18 -0.000366 -3.540242 -0.315491 0.000000 0.001160 0.000000
    19 0.000000 0.000000 0.000000 0.000000 0.000000 0.000000
    20 10.442629 -2.311492 -0.001769 0.000000 0.000000 -1.570796
    21 -0.498922 2.487837 1.492354 0.000000 0.000000 0.000000
    22 116.167608 -346.231102 38.067568 0.000000 0.000000 0.000000
    23 -0.498922 2.487837 -1.544641 0.000000 0.000000 0.000000
    24 0.000000 -0.000004 -0.000003 0.000000 0.000000 0.000000
    25 1.257180 8.762585 -0.153713 -1.570562 0.002683 -1.566807
    26 -0.488518 -2.755602 -0.228260 -1.030852 -0.134082 -0.416251
    27 0.039887 -1.479790 0.029854 -2.134253 0.000000 0.000001
    28 0.028786 -1.075731 -0.023109 -0.271941 0.000000 0.000000
    29 0.250027 -2.820665 -0.238396 -0.636386 -0.105209 -0.434549
    30 -0.049759 -1.680544 0.100479 -2.262150 0.000000 -0.000002
    31 -0.034142 -1.148312 0.084782 -0.535851 0.000000 0.000000
    32 0.957766 -2.746780 -0.090302 0.329289 -0.172344 0.119866
    33 -0.033420 -1.397129 -0.011257 -1.115580 0.000000 -0.000001
    34 -0.022360 -0.957436 0.018784 -1.148807 0.000000 0.000000
    35 -1.180681 -2.507217 -0.193859 -1.049595 -0.031145 -0.514372
    36 -0.024967 -1.123934 0.017597 -1.878163 0.000000 0.000001
    37 -0.020057 -0.890968 0.010090 -0.444208 0.000000 0.000000
    38 0.583510 -1.197277 0.185379 0.371183 -0.693166 -0.903076
    39 1.535927 0.010246 0.005009 -0.002964 -0.012979 -0.682290
    40 1.100771 0.004527 -0.010679 -0.016147 -0.001453 -1.484153
    41 0.120153 -0.050270 -0.054489 0.287569 3.110905 1.561085
    42 -4.513086 -0.949879 -10.388319 0.243583 -3.406185 0.779522
    43 0.096944 -8.450418 -0.009365 0.150433 -0.974121 0.176117
    44 0.447953 -2.798986 -0.200443 -1.500846 0.042804 0.170619
    45 -0.032909 -1.480204 0.004940 -1.460121 0.000000 0.000002
    46 -0.027022 -1.076920 -0.020210 -1.447967 0.000000 0.000000
    47 -0.249534 -2.846964 -0.174213 -1.192968 0.002631 0.073866
    48 0.043235 -1.683941 0.096012 -1.708398 0.002823 -0.000167
    49 0.031729 -1.160830 0.058838 -1.504756 0.000642 0.008372
    50 -0.963866 -2.785145 -0.085350 -0.082268 -0.085398 0.045715
    51 0.028479 -1.403067 0.006271 -0.618835 0.000000 0.000000
    52 0.021413 -0.957781 0.020046 -0.492880 0.000000 0.000000
    53 1.164475 -2.543940 -0.170330 -1.568557 -0.015463 0.162804
    54 0.024032 -1.129042 0.017807 -1.240409 0.000000 0.000001
    55 0.014898 -0.883989 -0.019848 -1.492828 0.000000 0.000000
    56 -0.586770 -1.264477 0.200161 -0.011967 -0.525313 -2.615309
    57 1.522835 0.058681 0.016848 0.001410 0.008985 0.583364
    58 1.117947 0.048424 -0.005766 0.015924 -0.019589 -0.634465
    59 -0.139399 -0.111698 0.014397 0.998950 0.092564 1.353427
    60 -3.772449 8.987619 -0.270684 1.580804 -0.005023 -1.308649
  time 13
    0 -0.349399 2.955262 0.203512 0.000000 0.000000 0.000000
    1 10.608864 1.986004 -7.661178 -0.075357 -1.179556 -0.391728
    2 -0.071918 -8.498731 -0.104137 0.230922 0.073829 -0.196031
    3 3.368457 -4.357613 0.461421 0.088531 0.124698 -1.545787
    4 0.045777 -1.573664 0.000000 0.000000 0.000000 -1.570796
    5 2.296397 1.496177 2.107536 0.000000 0.000000 -3.141592
    6 -1.216037 1.038362 1.092521 0.000000 2.790686 1.570796
    7 7.000000 1.781222 0.000000 0.000000 -0.001160 1.570796
    8 0.584018 2.854836 0.002934 0.000000 0.001160 0.000000
    9 0.000000 0.849938 0.000001 0.000000 0.000000 0.000000
    10 1.015859 2.730335 -0.003613 0.000000 0.000000 0.000000
    11 0.107326 0.941765 0.000000 0.000000 0.000000 0.000000
    12 -116.166410 346.228824 38.067568 0.000000 0.000000 0.000000
    13 0.340879 1.910698 1.116732 1.570796 -1.570796 0.000000
    14 16.890455 0.818869 0.000001 0.000000 0.000000 1.570796
    15 -13.945057 -15.251601 -25.119606 -0.103928 0.769009 0.561667
    16 0.000424 -3.540242 0.365661 0.000000 0.001160 0.000000
    17 -116.167608 346.231033 38.067568 0.000000 0.000000 0.000000
    18 -0.000366 -3.540242 -0.315491 0.000000 0.001160 0.000000
    19 0.000000 0.000000 0.000000 0.000000 0.000000 0.000000
    20 10.442629 -2.311492 -0.001769 0.000000 0.000000 -1.570796
    21 -0.498922 2.487837 1.492354 0.000000 0.000000 0.000000
    22 116.167608 -346.231102 38.067568 0.000000 0.000000 0.000000
    23 -0.498922 2.487837 -1.544641 0.000000 0.000000 0.000000
    24 0.000000 -0.000004 -0.000003 0.000000 0.000000 0.000000
    25 1.257180 8.762585 -0.153713 -1.570562 0.002683 -1.566807
    26 -0.488518 -2.755602 -0.228260 -1.030852 -0.134082 -0.416251
    27 0.039887 -1.479790 0.029854 -2.134253 0.000000 0.000001
    28 0.028786 -1.075731 -0.023109 -0.271941 0.000000 0.000000
    29 0.250027 -2.820665 -0.238396 -0.636386 -0.105209 -0.434549
    30 -0.049759 -1.680544 0.100479 -2.262150 0.000000 -0.000002
    31 -0.034142 -1.148312 0.084782 -0.535851 0.000000 0.000000
    32 0.957766 -2.746780 -0.090302 0.329289 -0.172344 0.119866
    33 -0.033420 -1.397129 -0.011257 -1.115580 0.000000 -0.000001
    34 -0.022360 -0.957436 0.018784 -1.148807 0.000000 0.000000
    35 -1.180681 -2.507217 -0.193859 -1.049595 -0.031145 -0.514372
    36 -0.024967 -1.123934 0.017597 -1.878163 0.000000 0.000001
    37 -0.020057 -0.890968 0.010090 -0.444208 0.000000 0.000000
    38 0.583510 -1.197277 0.185379 0.371183 -0.693166 -0.903076
    39 1.535927 0.010246 0.005009 -0.002964 -0.012979 -0.682290
    40 1.100771 0.004527 -0.010679 -0.016147 -0.001453 -1.484153
    41 0.120153 -0.050270 -0.054489 0.287569 3.110905 1.561085
    42 -4.657622 1.636137 -12.165717 0.228966 -3.570870 0.740977
    43 0.096944 -8.450418 -0.009365 0.351192 -1.088520 -0.017557
    44 0.447953 -2.798986 -0.200443 -1.500846 0.042804 0.170619
    45 -0.032909 -1.480204 0.004940 -1.460121 0.000000 0.000002
    46 -0.027022 -1.076920 -0.020210 -1.447967 0.000000 0.000000
    47 -0.249534 -2.846964 -0.174213 -1.192968 0.002631 0.073866
    48 0.043235 -1.683941 0.096012 -1.708398 0.002823 -0.000167
    49 0.031729 -1.160830 0.058838 -1.504756 0.000642 0.008372
    50 -0.963866 -2.785145 -0.085350 0.039304 -0.085398 0.045715
    51 0.028479 -1.403067 0.006271 -0.457353 0.000000 0.000000
    52 0.021413 -0.957781 0.020046 -0.382646 0.000000 0.000000
    53 1.164475 -2.543940 -0.170330 -1.568557 -0.015463 0.162804
    54 0.024032 -1.129042 0.017807 -1.240409 0.000000 0.000001
    55 0.014898 -0.883989 -0.019848 -1.492828 0.000000 0.000000
    56 -0.586770 -1.264477 0.200161 -0.130904 -0.583978 -2.618388
    57 1.522835 0.058681 0.016848 0.001410 0.008985 0.756367
    58 1.117947 0.048424 -0.005766 0.013407 -0.021519 -0.508288
    59 -0.139399 -0.111698 0.014397 0.996175 0.102249 1.346205
    60 -3.772449 8.987619 -0.270684 1.580804 -0.005023 -1.308649
end
