version 1
nodes
  0 "root" -1
  1 "Bone01" 0
  2 "Bone_Lefthand" 1
  3 "Bone02" 2
  4 "Bone42" 3
  5 "Bone20" 3
  6 "Bone12" 3
  7 "Bone24" 3
  8 "Bone25" 7
  9 "Bone03" 8
  10 "Bone08" 9
  11 "Dummy01" 10
  12 "Bone16" 11
  13 "Bone47" 9
  14 "Bone49" 3
  15 "Bone48" 3
  16 "Dummy03" 7
  17 "Bone34" 16
  18 "Dummy02" 7
  19 "Bone26" 18
  20 "Bone38" 3
  21 "Dummy04" 20
  22 "Bone30" 21
  23 "Dummy05" 20
  24 "Bone46" 23
  25 "Bone_L_Upper" 1
  26 "Bone13" 2
  27 "Bone14" 26
  28 "Bone15" 27
  29 "Bone17" 2
  30 "Bone18" 29
  31 "Bone19" 30
  32 "Bone21" 2
  33 "Bone22" 32
  34 "Bone23" 33
  35 "Bone09" 2
  36 "Bone10" 35
  37 "Bone11" 36
  38 "Bone05" 2
  39 "Bone06" 38
  40 "Bone07" 39
  41 "Bone_Se_Hand-L" 2
  42 "Bone04" 0
  43 "Bone_Righthand" 42
  44 "Bone39" 43
  45 "Bone40" 44
  46 "Bone41" 45
  47 "Bone35" 43
  48 "Bone36" 47
  49 "Bone37" 48
  50 "Bone31" 43
  51 "Bone32" 50
  52 "Bone33" 51
  53 "Bone43" 43
  54 "Bone44" 53
  55 "Bone45" 54
  56 "Bone27" 43
  57 "Bone28" 56
  58 "Bone29" 57
  59 "Bone_Se_Hand-R" 43
  60 "Bone_R_Upper" 42
end
skeleton
  time 0
    0 -0.349399 1.166145 0.203512 0.000000 0.000000 0.000000
    1 9.765088 1.993817 -10.680801 -1.570640 -1.330575 1.222899
    2 -0.071918 -8.498731 -0.104137 0.222248 0.087947 -0.241321
    3 3.368457 -4.357613 0.461421 0.088531 0.124698 -1.545787
    4 0.045777 -1.573664 0.000000 0.000000 0.000000 -1.570796
    5 2.296397 1.496177 2.107536 0.000000 0.000000 -3.141592
    6 -1.216037 1.038362 1.092521 -3.141592 0.350890 -1.570796
    7 7.000000 1.781222 0.000000 0.000000 -0.001160 1.570796
    8 0.584018 2.854836 0.002934 0.000000 0.001160 0.000000
    9 0.000000 0.849938 0.000001 0.000000 0.000000 0.000000
    10 1.015859 2.730335 -0.003613 0.000000 0.000000 0.000000
    11 0.107326 0.941765 0.000000 0.000000 0.000000 0.000000
    12 -1.477025 238.684828 -0.003906 0.000000 0.000000 0.000000
    13 0.340879 1.910698 1.116732 1.570796 -1.570796 0.000000
    14 16.890455 0.818869 0.000001 0.000000 0.000000 1.570796
    15 -26.285277 0.194183 5.096160 -0.003056 -0.000024 0.006205
    16 0.000424 -3.540242 0.365661 0.000000 0.001160 0.000000
    17 -1.625050 262.151184 -0.003906 0.000000 0.000000 0.000000
    18 -0.000366 -3.540242 -0.315491 0.000000 0.001160 0.000000
    19 0.000000 0.000000 0.000000 0.000000 0.000000 0.000000
    20 10.442629 -2.311492 -0.001769 0.000000 0.000000 -1.570796
    21 -0.498922 2.487837 1.492354 0.000000 0.000000 0.000000
    22 1.625050 -262.153803 -0.003906 0.000000 0.000000 0.000000
    23 -0.498922 2.487837 -1.544641 0.000000 0.000000 0.000000
    24 0.000000 -0.000004 -0.000003 0.000000 0.000000 0.000000
    25 1.257180 8.762585 -0.153713 -1.570562 0.002683 -1.566807
    26 -0.488518 -2.755602 -0.228260 -1.030852 -0.134082 -0.416251
    27 0.039887 -1.479790 0.029854 -2.134253 0.000000 0.000001
    28 0.028786 -1.075731 -0.023109 -0.271941 0.000000 0.000000
    29 0.250027 -2.820665 -0.238396 -0.636386 -0.105209 -0.434549
    30 -0.049759 -1.680544 0.100479 -2.262150 0.000000 -0.000002
    31 -0.034142 -1.148312 0.084782 -0.535851 0.000000 0.000000
    32 0.957766 -2.746780 -0.090302 0.329289 -0.172344 0.119866
    33 -0.033420 -1.397129 -0.011257 -1.115580 0.000000 -0.000001
    34 -0.022360 -0.957436 0.018784 -1.148807 0.000000 0.000000
    35 -1.180681 -2.507217 -0.193859 -1.049595 -0.031145 -0.514372
    36 -0.024967 -1.123934 0.017597 -1.878163 0.000000 0.000001
    37 -0.020057 -0.890968 0.010090 -0.444208 0.000000 0.000000
    38 0.583510 -1.197277 0.185379 0.371183 -0.693166 -0.903076
    39 1.535927 0.010246 0.005009 -0.002964 -0.012979 -0.682290
    40 1.100771 0.004527 -0.010679 -0.016147 -0.001453 -1.484153
    41 0.120153 -0.050270 -0.054489 0.287569 3.110905 1.561085
    42 1.049584 -10.661113 -11.591481 -1.188773 -5.231858 -0.608018
    43 0.096944 -8.450418 -0.009365 -0.551544 -1.146061 0.972292
    44 0.447953 -2.798986 -0.200443 -1.306894 0.042804 0.170619
    45 -0.032909 -1.480204 0.004940 -0.850471 0.000000 0.000002
    46 -0.027022 -1.076920 -0.020210 0.112600 0.000000 0.000000
    47 -0.249534 -2.846964 -0.174213 -0.971787 0.002631 0.073866
    48 0.043235 -1.683941 0.096012 -1.074566 0.002823 -0.000167
    49 0.031729 -1.160830 0.058838 -0.088407 0.000642 0.008372
    50 -0.963866 -2.785145 -0.085350 -0.707785 0.070929 0.053157
    51 0.028479 -1.403067 0.006271 -0.957956 0.000000 0.000000
    52 0.021413 -0.957781 0.020046 -0.398172 0.000000 0.000000
    53 1.164475 -2.543940 -0.170330 -1.568557 -0.015463 0.162804
    54 0.024032 -1.129042 0.017807 -0.644368 0.000000 0.000001
    55 0.014898 -0.883989 -0.019848 0.077953 0.000000 0.000000
    56 -0.586770 -1.264477 0.200161 0.201872 -0.127401 -2.712608
    57 1.522835 0.058681 0.016848 0.001410 0.008985 0.421961
    58 1.117947 0.048424 -0.005766 -0.003922 -0.024898 0.212364
    59 -0.139399 -0.111698 0.014397 0.905457 0.418178 1.110065
    60 -6.260806 6.983652 -0.294122 1.580804 -0.005023 -0.912799
  time 1
    0 -0.349399 1.193490 0.203512 0.000000 0.000000 0.000000
    1 9.776807 2.017255 -10.305790 -1.346031 -1.348681 0.991106
    2 -0.071918 -8.498731 -0.104137 0.222747 0.086641 -0.235568
    3 3.368457 -4.357613 0.461421 0.088531 0.124698 -1.545787
    4 0.045777 -1.573664 0.000000 0.000000 0.000000 -1.570796
    5 2.296397 1.496177 2.107536 0.000000 0.000000 -3.141592
    6 -1.216037 1.038362 1.092521 -3.141592 0.350890 -1.570796
    7 7.000000 1.781222 0.000000 0.000000 -0.001160 1.570796
    8 0.584018 2.854836 0.002934 0.000000 0.001160 0.000000
    9 0.000000 0.849938 0.000001 0.000000 0.000000 0.000000
    10 1.015859 2.730335 -0.003613 0.000000 0.000000 0.000000
    11 0.107326 0.941765 0.000000 0.000000 0.000000 0.000000
    12 -1.477025 238.684828 -0.003906 0.000000 0.000000 0.000000
    13 0.340879 1.910698 1.116732 1.570796 -1.570796 0.000000
    14 16.890455 0.818869 0.000001 0.000000 0.000000 1.570796
    15 -24.859452 -2.223859 4.865684 0.037558 -0.005271 0.048460
    16 0.000424 -3.540242 0.365661 0.000000 0.001160 0.000000
    17 -1.625050 262.151184 -0.003906 0.000000 0.000000 0.000000
    18 -0.000366 -3.540242 -0.315491 0.000000 0.001160 0.000000
    19 0.000000 0.000000 0.000000 0.000000 0.000000 0.000000
    20 10.442629 -2.311492 -0.001769 0.000000 0.000000 -1.570796
    21 -0.498922 2.487837 1.492354 0.000000 0.000000 0.000000
    22 1.625050 -262.153803 -0.003906 0.000000 0.000000 0.000000
    23 -0.498922 2.487837 -1.544641 0.000000 0.000000 0.000000
    24 0.000000 -0.000004 -0.000003 0.000000 0.000000 0.000000
    25 1.257180 8.762585 -0.153713 -1.570562 0.002683 -1.566807
    26 -0.488518 -2.755602 -0.228260 -1.030852 -0.134082 -0.416251
    27 0.039887 -1.479790 0.029854 -2.134253 0.000000 0.000001
    28 0.028786 -1.075731 -0.023109 -0.271941 0.000000 0.000000
    29 0.250027 -2.820665 -0.238396 -0.636386 -0.105209 -0.434549
    30 -0.049759 -1.680544 0.100479 -2.262150 0.000000 -0.000002
    31 -0.034142 -1.148312 0.084782 -0.535851 0.000000 0.000000
    32 0.957766 -2.746780 -0.090302 0.329289 -0.172344 0.119866
    33 -0.033420 -1.397129 -0.011257 -1.115580 0.000000 -0.000001
    34 -0.022360 -0.957436 0.018784 -1.148807 0.000000 0.000000
    35 -1.180681 -2.507217 -0.193859 -1.049595 -0.031145 -0.514372
    36 -0.024967 -1.123934 0.017597 -1.878163 0.000000 0.000001
    37 -0.020057 -0.890968 0.010090 -0.444208 0.000000 0.000000
    38 0.583510 -1.197277 0.185379 0.371183 -0.693166 -0.903076
    39 1.535927 0.010246 0.005009 -0.002964 -0.012979 -0.682290
    40 1.100771 0.004527 -0.010679 -0.016147 -0.001453 -1.484153
    41 0.120153 -0.050270 -0.054489 0.287569 3.110905 1.561085
    42 1.045678 -11.641612 -12.978242 -1.149108 -5.241627 -0.562216
    43 0.096944 -8.450418 -0.009365 -0.562974 -1.142825 0.984830
    44 0.447953 -2.798986 -0.200443 -1.306894 0.042804 0.170619
    45 -0.032909 -1.480204 0.004940 -0.850471 0.000000 0.000002
    46 -0.027022 -1.076920 -0.020210 0.112600 0.000000 0.000000
    47 -0.249534 -2.846964 -0.174213 -0.971787 0.002631 0.073866
    48 0.043235 -1.683941 0.096012 -1.074566 0.002823 -0.000167
    49 0.031729 -1.160830 0.058838 -0.088407 0.000642 0.008372
    50 -0.963866 -2.785145 -0.085350 -0.707785 0.070929 0.053157
    51 0.028479 -1.403067 0.006271 -0.957956 0.000000 0.000000
    52 0.021413 -0.957781 0.020046 -0.398172 0.000000 0.000000
    53 1.164475 -2.543940 -0.170330 -1.568557 -0.015463 0.162804
    54 0.024032 -1.129042 0.017807 -0.644368 0.000000 0.000001
    55 0.014898 -0.883989 -0.019848 0.077953 0.000000 0.000000
    56 -0.586770 -1.264477 0.200161 0.201872 -0.127401 -2.712608
    57 1.522835 0.058681 0.016848 0.001410 0.008985 0.421961
    58 1.117947 0.048424 -0.005766 -0.003922 -0.024898 0.212364
    59 -0.139399 -0.111698 0.014397 0.905457 0.418178 1.110065
    60 -6.260806 6.983652 -0.294122 1.580804 -0.005023 -0.912799
  time 2
    0 -0.349399 1.267711 0.203512 0.000000 0.000000 0.000000
    1 9.796339 2.044600 -9.938591 -1.079530 -1.353450 0.717529
    2 -0.071918 -8.498731 -0.104137 0.223274 0.085263 -0.229432
    3 3.368457 -4.357613 0.461421 0.088531 0.124698 -1.545787
    4 0.045777 -1.573664 0.000000 0.000000 0.000000 -1.570796
    5 2.296397 1.496177 2.107536 0.000000 0.000000 -3.141592
    6 -1.216037 1.038362 1.092521 -3.141592 0.350890 -1.570796
    7 7.000000 1.781222 0.000000 0.000000 -0.001160 1.570796
    8 0.584018 2.854836 0.002934 0.000000 0.001160 0.000000
    9 0.000000 0.849938 0.000001 0.000000 0.000000 0.000000
    10 1.015859 2.730335 -0.003613 0.000000 0.000000 0.000000
    11 0.107326 0.941765 0.000000 0.000000 0.000000 0.000000
    12 -1.477025 238.684828 -0.003906 0.000000 0.000000 0.000000
    13 0.340879 1.910698 1.116732 1.570796 -1.570796 0.000000
    14 16.890455 0.818869 0.000001 0.000000 0.000000 1.570796
    15 -23.265654 -4.536430 4.443796 0.081516 -0.013524 0.092223
    16 0.000424 -3.540242 0.365661 0.000000 0.001160 0.000000
    17 -1.625050 262.151184 -0.003906 0.000000 0.000000 0.000000
    18 -0.000366 -3.540242 -0.315491 0.000000 0.001160 0.000000
    19 0.000000 0.000000 0.000000 0.000000 0.000000 0.000000
    20 10.442629 -2.311492 -0.001769 0.000000 0.000000 -1.570796
    21 -0.498922 2.487837 1.492354 0.000000 0.000000 0.000000
    22 1.625050 -262.153803 -0.003906 0.000000 0.000000 0.000000
    23 -0.498922 2.487837 -1.544641 0.000000 0.000000 0.000000
    24 0.000000 -0.000004 -0.000003 0.000000 0.000000 0.000000
    25 1.257180 8.762585 -0.153713 -1.570562 0.002683 -1.566807
    26 -0.488518 -2.755602 -0.228260 -1.030852 -0.134082 -0.416251
    27 0.039887 -1.479790 0.029854 -2.134253 0.000000 0.000001
    28 0.028786 -1.075731 -0.023109 -0.271941 0.000000 0.000000
    29 0.250027 -2.820665 -0.238396 -0.636386 -0.105209 -0.434549
    30 -0.049759 -1.680544 0.100479 -2.262150 0.000000 -0.000002
    31 -0.034142 -1.148312 0.084782 -0.535851 0.000000 0.000000
    32 0.957766 -2.746780 -0.090302 0.329289 -0.172344 0.119866
    33 -0.033420 -1.397129 -0.011257 -1.115580 0.000000 -0.000001
    34 -0.022360 -0.957436 0.018784 -1.148807 0.000000 0.000000
    35 -1.180681 -2.507217 -0.193859 -1.049595 -0.031145 -0.514372
    36 -0.024967 -1.123934 0.017597 -1.878163 0.000000 0.000001
    37 -0.020057 -0.890968 0.010090 -0.444208 0.000000 0.000000
    38 0.583510 -1.197277 0.185379 0.371183 -0.693166 -0.903060
    39 1.535927 0.010246 0.005009 -0.002964 -0.012979 -0.682290
    40 1.100771 0.004527 -0.010679 -0.016147 -0.001453 -1.484153
    41 0.120153 -0.050270 -0.054489 0.287569 3.110905 1.561085
    42 1.037865 -12.376009 -14.478288 -1.074574 -5.263716 -0.475230
    43 0.096944 -8.450418 -0.009365 -0.585316 -1.136165 1.009420
    44 0.447953 -2.798986 -0.200443 -1.306894 0.042804 0.170619
    45 -0.032909 -1.480204 0.004940 -0.850471 0.000000 0.000002
    46 -0.027022 -1.076920 -0.020210 0.112600 0.000000 0.000000
    47 -0.249534 -2.846964 -0.174213 -0.971787 0.002631 0.073866
    48 0.043235 -1.683941 0.096012 -1.074566 0.002823 -0.000167
    49 0.031729 -1.160830 0.058838 -0.088407 0.000642 0.008372
    50 -0.963866 -2.785145 -0.085350 -0.707785 0.070929 0.053157
    51 0.028479 -1.403067 0.006271 -0.957956 0.000000 0.000000
    52 0.021413 -0.957781 0.020046 -0.398172 0.000000 0.000000
    53 1.164475 -2.543940 -0.170330 -1.568557 -0.015463 0.162804
    54 0.024032 -1.129042 0.017807 -0.644368 0.000000 0.000001
    55 0.014898 -0.883989 -0.019848 0.077953 0.000000 0.000000
    56 -0.586770 -1.264477 0.200161 0.201872 -0.127401 -2.712608
    57 1.522835 0.058681 0.016848 0.001410 0.008985 0.421961
    58 1.117947 0.048424 -0.005766 -0.003922 -0.024898 0.212364
    59 -0.139399 -0.111698 0.014397 0.905457 0.418178 1.110065
    60 -6.260806 6.983652 -0.294122 1.580804 -0.005023 -0.912799
  time 3
    0 -0.349399 1.384902 0.203512 0.000000 0.000000 0.000000
    1 9.811965 2.068038 -9.579205 -0.814370 -1.341981 0.445392
    2 -0.071918 -8.498731 -0.104137 0.223815 0.083824 -0.223116
    3 3.368457 -4.357613 0.461421 0.088531 0.124698 -1.545787
    4 0.045777 -1.573664 0.000000 0.000000 0.000000 -1.570796
    5 2.296397 1.496177 2.107536 0.000000 0.000000 -3.141592
    6 -1.216037 1.038362 1.092521 -3.141592 0.350890 -1.570796
    7 7.000000 1.781222 0.000000 0.000000 -0.001160 1.570796
    8 0.584018 2.854836 0.002934 0.000000 0.001160 0.000000
    9 0.000000 0.849938 0.000001 0.000000 0.000000 0.000000
    10 1.015859 2.730335 -0.003613 0.000000 0.000000 0.000000
    11 0.107326 0.941765 0.000000 0.000000 0.000000 0.000000
    12 -1.477025 238.684828 -0.003906 0.000000 0.000000 0.000000
    13 0.340879 1.910698 1.116732 1.570796 -1.570796 0.000000
    14 16.890455 0.818869 0.000001 0.000000 0.000000 1.570796
    15 -21.515600 -6.681027 3.818777 0.126974 -0.024758 0.135814
    16 0.000424 -3.540242 0.365661 0.000000 0.001160 0.000000
    17 -1.625050 262.151184 -0.003906 0.000000 0.000000 0.000000
    18 -0.000366 -3.540242 -0.315491 0.000000 0.001160 0.000000
    19 0.000000 0.000000 0.000000 0.000000 0.000000 0.000000
    20 10.442629 -2.311492 -0.001769 0.000000 0.000000 -1.570796
    21 -0.498922 2.487837 1.492354 0.000000 0.000000 0.000000
    22 1.625050 -262.153803 -0.003906 0.000000 0.000000 0.000000
    23 -0.498922 2.487837 -1.544641 0.000000 0.000000 0.000000
    24 0.000000 -0.000004 -0.000003 0.000000 0.000000 0.000000
    25 1.257180 8.762585 -0.153713 -1.570562 0.002683 -1.566807
    26 -0.488518 -2.755602 -0.228260 -1.030852 -0.134082 -0.416251
    27 0.039887 -1.479790 0.029854 -2.134253 0.000000 0.000001
    28 0.028786 -1.075731 -0.023109 -0.271941 0.000000 0.000000
    29 0.250027 -2.820665 -0.238396 -0.636386 -0.105209 -0.434549
    30 -0.049759 -1.680544 0.100479 -2.262150 0.000000 -0.000002
    31 -0.034142 -1.148312 0.084782 -0.535851 0.000000 0.000000
    32 0.957766 -2.746780 -0.090302 0.329289 -0.172344 0.119866
    33 -0.033420 -1.397129 -0.011257 -1.115580 0.000000 -0.000001
    34 -0.022360 -0.957436 0.018784 -1.148807 0.000000 0.000000
    35 -1.180681 -2.507217 -0.193859 -1.049595 -0.031145 -0.514372
    36 -0.024967 -1.123934 0.017597 -1.878163 0.000000 0.000001
    37 -0.020057 -0.890968 0.010090 -0.444208 0.000000 0.000000
    38 0.583510 -1.197277 0.185379 0.371183 -0.693166 -0.903076
    39 1.535927 0.010246 0.005009 -0.002964 -0.012979 -0.682290
    40 1.100771 0.004527 -0.010679 -0.016147 -0.001453 -1.484153
    41 0.120153 -0.050270 -0.054489 0.287569 3.110905 1.561085
    42 1.037865 -12.551796 -16.212716 -1.022956 -5.282379 -0.414349
    43 0.096944 -8.450418 -0.009365 -0.601577 -1.131030 1.027401
    44 0.447953 -2.798986 -0.200443 -1.306894 0.042804 0.170619
    45 -0.032909 -1.480204 0.004940 -0.850471 0.000000 0.000002
    46 -0.027022 -1.076920 -0.020210 0.112600 0.000000 0.000000
    47 -0.249534 -2.846964 -0.174213 -0.971787 0.002631 0.073866
    48 0.043235 -1.683941 0.096012 -1.074566 0.002823 -0.000167
    49 0.031729 -1.160830 0.058838 -0.088407 0.000642 0.008372
    50 -0.963866 -2.785145 -0.085350 -0.707785 0.070929 0.053157
    51 0.028479 -1.403067 0.006271 -0.957956 0.000000 0.000000
    52 0.021413 -0.957781 0.020046 -0.398172 0.000000 0.000000
    53 1.164475 -2.543940 -0.170330 -1.568557 -0.015463 0.162804
    54 0.024032 -1.129042 0.017807 -0.644368 0.000000 0.000001
    55 0.014898 -0.883989 -0.019848 0.077953 0.000000 0.000000
    56 -0.586770 -1.264477 0.200161 0.201872 -0.127401 -2.712608
    57 1.522835 0.058681 0.016848 0.001410 0.008985 0.421961
    58 1.117947 0.048424 -0.005766 -0.003922 -0.024898 0.212364
    59 -0.139399 -0.111698 0.014397 0.905457 0.418178 1.110065
    60 -6.260806 6.983652 -0.294122 1.580804 -0.005023 -0.912799
  time 4
    0 -0.349399 1.529438 0.203512 0.000000 0.000000 0.000000
    1 9.835403 2.087570 -9.239351 -0.591679 -1.316620 0.215491
    2 -0.071918 -8.498731 -0.104137 0.224328 0.082410 -0.216884
    3 3.368457 -4.357613 0.461421 0.088531 0.124698 -1.545787
    4 0.045777 -1.573664 0.000000 0.000000 0.000000 -1.570796
    5 2.296397 1.496177 2.107536 0.000000 0.000000 -3.141592
    6 -1.216037 1.038362 1.092521 -3.141592 0.350890 -1.570796
    7 7.000000 1.781222 0.000000 0.000000 -0.001160 1.570796
    8 0.584018 2.854836 0.002934 0.000000 0.001160 0.000000
    9 0.000000 0.849938 0.000001 0.000000 0.000000 0.000000
    10 1.015859 2.730335 -0.003613 0.000000 0.000000 0.000000
    11 0.107326 0.941765 0.000000 0.000000 0.000000 0.000000
    12 -1.477025 238.684828 -0.003906 0.000000 0.000000 0.000000
    13 0.340879 1.910698 1.116732 1.570796 -1.570796 0.000000
    14 16.890455 0.818869 0.000001 0.000000 0.000000 1.570796
    15 -19.640543 -8.606867 3.006253 0.172124 -0.038615 0.177640
    16 0.000424 -3.540242 0.365661 0.000000 0.001160 0.000000
    17 -1.625050 262.151184 -0.003906 0.000000 0.000000 0.000000
    18 -0.000366 -3.540242 -0.315491 0.000000 0.001160 0.000000
    19 0.000000 0.000000 0.000000 0.000000 0.000000 0.000000
    20 10.442629 -2.311492 -0.001769 0.000000 0.000000 -1.570796
    21 -0.498922 2.487837 1.492354 0.000000 0.000000 0.000000
    22 1.625050 -262.153803 -0.003906 0.000000 0.000000 0.000000
    23 -0.498922 2.487837 -1.544641 0.000000 0.000000 0.000000
    24 0.000000 -0.000004 -0.000003 0.000000 0.000000 0.000000
    25 1.257180 8.762585 -0.153713 -1.570562 0.002683 -1.566807
    26 -0.488518 -2.755602 -0.228260 -1.030852 -0.134082 -0.416251
    27 0.039887 -1.479790 0.029854 -2.134253 0.000000 0.000001
    28 0.028786 -1.075731 -0.023109 -0.271941 0.000000 0.000000
    29 0.250027 -2.820665 -0.238396 -0.636386 -0.105209 -0.434549
    30 -0.049759 -1.680544 0.100479 -2.262150 0.000000 -0.000002
    31 -0.034142 -1.148312 0.084782 -0.535851 0.000000 0.000000
    32 0.957766 -2.746780 -0.090302 0.329289 -0.172344 0.119866
    33 -0.033420 -1.397129 -0.011257 -1.115580 0.000000 -0.000001
    34 -0.022360 -0.957436 0.018784 -1.148807 0.000000 0.000000
    35 -1.180681 -2.507217 -0.193859 -1.049595 -0.031145 -0.514372
    36 -0.024967 -1.123934 0.017597 -1.878163 0.000000 0.000001
    37 -0.020057 -0.890968 0.010090 -0.444208 0.000000 0.000000
    38 0.583510 -1.197277 0.185379 0.371183 -0.693166 -0.903076
    39 1.535927 0.010246 0.005009 -0.002964 -0.012979 -0.682290
    40 1.100771 0.004527 -0.010679 -0.016147 -0.001453 -1.484153
    41 0.120153 -0.050270 -0.054489 0.287569 3.110905 1.561085
    42 1.041771 -11.860368 -18.286998 -1.039705 -5.275964 -0.434234
    43 0.096944 -8.450418 -0.009365 -0.596207 -1.132773 1.021439
    44 0.447953 -2.798986 -0.200443 -1.306894 0.042804 0.170619
    45 -0.032909 -1.480204 0.004940 -0.850471 0.000000 0.000002
    46 -0.027022 -1.076920 -0.020210 0.112600 0.000000 0.000000
    47 -0.249534 -2.846964 -0.174213 -0.971787 0.002631 0.073866
    48 0.043235 -1.683941 0.096012 -1.074566 0.002823 -0.000167
    49 0.031729 -1.160830 0.058838 -0.088407 0.000642 0.008372
    50 -0.963866 -2.785145 -0.085350 -0.707785 0.070929 0.053157
    51 0.028479 -1.403067 0.006271 -0.957956 0.000000 0.000000
    52 0.021413 -0.957781 0.020046 -0.398172 0.000000 0.000000
    53 1.164475 -2.543940 -0.170330 -1.568557 -0.015463 0.162804
    54 0.024032 -1.129042 0.017807 -0.644368 0.000000 0.000001
    55 0.014898 -0.883989 -0.019848 0.077953 0.000000 0.000000
    56 -0.586770 -1.264477 0.200161 0.201872 -0.127401 -2.712608
    57 1.522835 0.058681 0.016848 0.001410 0.008985 0.421961
    58 1.117947 0.048424 -0.005766 -0.003922 -0.024898 0.212364
    59 -0.139399 -0.111698 0.014397 0.905457 0.418178 1.110065
    60 -6.260806 6.983652 -0.294122 1.580804 -0.005023 -0.912799
  time 5
    0 -0.349399 1.693505 0.203512 0.000000 0.000000 0.000000
    1 9.862747 2.107102 -8.926842 -0.424492 -1.282976 0.041150
    2 -0.071918 -8.498731 -0.104137 0.224812 0.081068 -0.210988
    3 3.368457 -4.357613 0.461421 0.088531 0.124698 -1.545787
    4 0.045777 -1.573664 0.000000 0.000000 0.000000 -1.570796
    5 2.296397 1.496177 2.107536 0.000000 0.000000 -3.141592
    6 -1.216037 1.038362 1.092521 0.000000 2.790686 1.570796
    7 7.000000 1.781222 0.000000 0.000000 -0.001160 1.570796
    8 0.584018 2.854836 0.002934 0.000000 0.001160 0.000000
    9 0.000000 0.849938 0.000001 0.000000 0.000000 0.000000
    10 1.015859 2.730335 -0.003613 0.000000 0.000000 0.000000
    11 0.107326 0.941765 0.000000 0.000000 0.000000 0.000000
    12 -1.477025 238.684828 -0.003906 0.000000 0.000000 0.000000
    13 0.340879 1.910698 1.116732 1.570796 -1.570796 0.000000
    14 16.890455 0.818869 0.000001 0.000000 0.000000 1.570796
    15 -17.679546 -10.278793 2.037473 0.215179 -0.054333 0.216346
    16 0.000424 -3.540242 0.365661 0.000000 0.001160 0.000000
    17 -1.625050 262.151184 -0.003906 0.000000 0.000000 0.000000
    18 -0.000366 -3.540242 -0.315491 0.000000 0.001160 0.000000
    19 0.000000 0.000000 0.000000 0.000000 0.000000 0.000000
    20 10.442629 -2.311492 -0.001769 0.000000 0.000000 -1.570796
    21 -0.498922 2.487837 1.492354 0.000000 0.000000 0.000000
    22 1.625050 -262.153803 -0.003906 0.000000 0.000000 0.000000
    23 -0.498922 2.487837 -1.544641 0.000000 0.000000 0.000000
    24 0.000000 -0.000004 -0.000003 0.000000 0.000000 0.000000
    25 1.257180 8.762585 -0.153713 -1.570562 0.002683 -1.566807
    26 -0.488518 -2.755602 -0.228260 -1.030852 -0.134082 -0.416251
    27 0.039887 -1.479790 0.029854 -2.134253 0.000000 0.000001
    28 0.028786 -1.075731 -0.023109 -0.271941 0.000000 0.000000
    29 0.250027 -2.820665 -0.238396 -0.636386 -0.105209 -0.434549
    30 -0.049759 -1.680544 0.100479 -2.262150 0.000000 -0.000002
    31 -0.034142 -1.148312 0.084782 -0.535851 0.000000 0.000000
    32 0.957766 -2.746780 -0.090302 0.329289 -0.172344 0.119866
    33 -0.033420 -1.397129 -0.011257 -1.115580 0.000000 -0.000001
    34 -0.022360 -0.957436 0.018784 -1.148807 0.000000 0.000000
    35 -1.180681 -2.507217 -0.193859 -1.049595 -0.031145 -0.514372
    36 -0.024967 -1.123934 0.017597 -1.878163 0.000000 0.000001
    37 -0.020057 -0.890968 0.010090 -0.444208 0.000000 0.000000
    38 0.583510 -1.197277 0.185379 0.371183 -0.693166 -0.903076
    39 1.535927 0.010246 0.005009 -0.002964 -0.012979 -0.682290
    40 1.100771 0.004527 -0.010679 -0.016147 -0.001453 -1.484153
    41 0.120153 -0.050270 -0.054489 0.287569 3.110905 1.561085
    42 1.049584 -9.993124 -20.822231 -1.188773 -5.231858 -0.608018
    43 0.096944 -8.450418 -0.009365 -0.551544 -1.146061 0.972292
    44 0.447953 -2.798986 -0.200443 -1.306894 0.042804 0.170619
    45 -0.032909 -1.480204 0.004940 -0.850471 0.000000 0.000002
    46 -0.027022 -1.076920 -0.020210 0.112600 0.000000 0.000000
    47 -0.249534 -2.846964 -0.174213 -0.971787 0.002631 0.073866
    48 0.043235 -1.683941 0.096012 -1.074566 0.002823 -0.000167
    49 0.031729 -1.160830 0.058838 -0.088407 0.000642 0.008372
    50 -0.963866 -2.785145 -0.085350 -0.707785 0.070929 0.053157
    51 0.028479 -1.403067 0.006271 -0.957956 0.000000 0.000000
    52 0.021413 -0.957781 0.020046 -0.398172 0.000000 0.000000
    53 1.164475 -2.543940 -0.170330 -1.568557 -0.015463 0.162804
    54 0.024032 -1.129042 0.017807 -0.644368 0.000000 0.000001
    55 0.014898 -0.883989 -0.019848 0.077953 0.000000 0.000000
    56 -0.586770 -1.264477 0.200161 0.201872 -0.127401 -2.712608
    57 1.522835 0.058681 0.016848 0.001410 0.008985 0.421961
    58 1.117947 0.048424 -0.005766 -0.003922 -0.024898 0.212364
    59 -0.139399 -0.111698 0.014397 0.905457 0.418178 1.110065
    60 -6.260806 6.983652 -0.294122 1.580804 -0.005023 -0.912799
  time 6
    0 -0.349399 1.865385 0.203512 0.000000 0.000000 0.000000
    1 9.893998 2.118821 -8.641677 -0.306005 -1.246844 -0.084652
    2 -0.071918 -8.498731 -0.104137 0.225239 0.079846 -0.205630
    3 3.368457 -4.357613 0.461421 0.088531 0.124698 -1.545787
    4 0.045777 -1.573664 0.000000 0.000000 0.000000 -1.570796
    5 2.296397 1.496177 2.107536 0.000000 0.000000 -3.141592
    6 -1.216037 1.038362 1.092521 0.000000 2.790686 1.570796
    7 7.000000 1.781222 0.000000 0.000000 -0.001160 1.570796
    8 0.584018 2.854836 0.002934 0.000000 0.001160 0.000000
    9 0.000000 0.849938 0.000001 0.000000 0.000000 0.000000
    10 1.015859 2.730335 -0.003613 0.000000 0.000000 0.000000
    11 0.107326 0.941765 0.000000 0.000000 0.000000 0.000000
    12 -1.477025 238.684828 -0.003906 0.000000 0.000000 0.000000
    13 0.340879 1.910698 1.116732 1.570796 -1.570796 0.000000
    14 16.890455 0.818869 0.000001 0.000000 0.000000 1.570796
    15 -15.675578 -11.685085 0.951502 0.254351 -0.070933 0.250767
    16 0.000424 -3.540242 0.365661 0.000000 0.001160 0.000000
    17 -1.625050 262.151184 -0.003906 0.000000 0.000000 0.000000
    18 -0.000366 -3.540242 -0.315491 0.000000 0.001160 0.000000
    19 0.000000 0.000000 0.000000 0.000000 0.000000 0.000000
    20 10.442629 -2.311492 -0.001769 0.000000 0.000000 -1.570796
    21 -0.498922 2.487837 1.492354 0.000000 0.000000 0.000000
    22 1.625050 -262.153803 -0.003906 0.000000 0.000000 0.000000
    23 -0.498922 2.487837 -1.544641 0.000000 0.000000 0.000000
    24 0.000000 -0.000004 -0.000003 0.000000 0.000000 0.000000
    25 1.257180 8.762585 -0.153713 -1.570562 0.002683 -1.566807
    26 -0.488518 -2.755602 -0.228260 -1.030852 -0.134082 -0.416251
    27 0.039887 -1.479790 0.029854 -2.134253 0.000000 0.000001
    28 0.028786 -1.075731 -0.023109 -0.271941 0.000000 0.000000
    29 0.250027 -2.820665 -0.238396 -0.636386 -0.105209 -0.434549
    30 -0.049759 -1.680544 0.100479 -2.262150 0.000000 -0.000002
    31 -0.034142 -1.148312 0.084782 -0.535851 0.000000 0.000000
    32 0.957766 -2.746780 -0.090302 0.329289 -0.172344 0.119866
    33 -0.033420 -1.397129 -0.011257 -1.115580 0.000000 -0.000001
    34 -0.022360 -0.957436 0.018784 -1.148807 0.000000 0.000000
    35 -1.180681 -2.507217 -0.193859 -1.049595 -0.031145 -0.514372
    36 -0.024967 -1.123934 0.017597 -1.878163 0.000000 0.000001
    37 -0.020057 -0.890968 0.010090 -0.444208 0.000000 0.000000
    38 0.583510 -1.197277 0.185379 0.371183 -0.693166 -0.903076
    39 1.535927 0.010246 0.005009 -0.002964 -0.012979 -0.682290
    40 1.100771 0.004527 -0.010679 -0.016147 -0.001453 -1.484153
    41 0.120153 -0.050270 -0.054489 0.287569 3.110905 1.561085
    42 1.123805 4.991708 -28.384962 -1.628818 -5.196647 -1.111559
    43 0.096944 -8.450418 -0.009365 -0.436316 -1.173136 0.846621
    44 0.447953 -2.798986 -0.200443 -1.327049 0.042804 0.170619
    45 -0.032909 -1.480204 0.004940 -0.913871 0.000000 0.000002
    46 -0.027022 -1.076920 -0.020210 -0.049678 0.000000 0.000000
    47 -0.249534 -2.846964 -0.174213 -0.994813 0.002631 0.073866
    48 0.043235 -1.683941 0.096012 -1.140481 0.002823 -0.000167
    49 0.031729 -1.160830 0.058838 -0.235723 0.000642 0.008372
    50 -0.963866 -2.785145 -0.085350 -0.646600 0.070929 0.053157
    51 0.028479 -1.403067 0.006271 -0.950864 0.000000 0.000000
    52 0.021413 -0.957781 0.020046 -0.436886 0.000000 0.000000
    53 1.164475 -2.543940 -0.170330 -1.568557 -0.015463 0.162804
    54 0.024032 -1.129042 0.017807 -0.706358 0.000000 0.000001
    55 0.014898 -0.883989 -0.019848 -0.085362 0.000000 0.000000
    56 -0.586770 -1.264477 0.200161 0.161645 -0.177652 -2.703388
    57 1.522835 0.058681 0.016848 0.001410 0.008985 0.464916
    58 1.117947 0.048424 -0.005766 -0.002388 -0.024683 0.150069
    59 -0.139399 -0.111698 0.014397 0.907218 0.412069 1.114645
    60 -6.260806 6.983652 -0.294122 1.580804 -0.005023 -0.912799
  time 7
    0 -0.349399 2.033359 0.203512 0.000000 0.000000 0.000000
    1 9.929156 2.122727 -8.395575 -0.224808 -1.213036 -0.173263
    2 -0.071918 -8.498731 -0.104137 0.225596 0.078803 -0.201088
    3 3.368457 -4.357613 0.461421 0.088531 0.124698 -1.545787
    4 0.045777 -1.573664 0.000000 0.000000 0.000000 -1.570796
    5 2.296397 1.496177 2.107536 0.000000 0.000000 -3.141592
    6 -1.216037 1.038362 1.092521 0.000000 2.790686 1.570796
    7 7.000000 1.781222 0.000000 0.000000 -0.001160 1.570796
    8 0.584018 2.854836 0.002934 0.000000 0.001160 0.000000
    9 0.000000 0.849938 0.000001 0.000000 0.000000 0.000000
    10 1.015859 2.730335 -0.003613 0.000000 0.000000 0.000000
    11 0.107326 0.941765 0.000000 0.000000 0.000000 0.000000
    12 -1.477025 238.684828 -0.003906 0.000000 0.000000 0.000000
    13 0.340879 1.910698 1.116732 1.570796 -1.570796 0.000000
    14 16.890455 0.818869 0.000001 0.000000 0.000000 1.570796
    15 -13.679424 -12.845277 -0.200877 0.287968 -0.087152 0.279959
    16 0.000424 -3.540242 0.365661 0.000000 0.001160 0.000000
    17 -1.625050 262.151184 -0.003906 0.000000 0.000000 0.000000
    18 -0.000366 -3.540242 -0.315491 0.000000 0.001160 0.000000
    19 0.000000 0.000000 0.000000 0.000000 0.000000 0.000000
    20 10.442629 -2.311492 -0.001769 0.000000 0.000000 -1.570796
    21 -0.498922 2.487837 1.492354 0.000000 0.000000 0.000000
    22 1.625050 -262.153803 -0.003906 0.000000 0.000000 0.000000
    23 -0.498922 2.487837 -1.544641 0.000000 0.000000 0.000000
    24 0.000000 -0.000004 -0.000003 0.000000 0.000000 0.000000
    25 1.257180 8.762585 -0.153713 -1.570562 0.002683 -1.566807
    26 -0.488518 -2.755602 -0.228260 -1.030852 -0.134082 -0.416251
    27 0.039887 -1.479790 0.029854 -2.134253 0.000000 0.000001
    28 0.028786 -1.075731 -0.023109 -0.271941 0.000000 0.000000
    29 0.250027 -2.820665 -0.238396 -0.636386 -0.105209 -0.434549
    30 -0.049759 -1.680544 0.100479 -2.262150 0.000000 -0.000002
    31 -0.034142 -1.148312 0.084782 -0.535851 0.000000 0.000000
    32 0.957766 -2.746780 -0.090302 0.329289 -0.172344 0.119866
    33 -0.033420 -1.397129 -0.011257 -1.115580 0.000000 -0.000001
    34 -0.022360 -0.957436 0.018784 -1.148807 0.000000 0.000000
    35 -1.180681 -2.507217 -0.193859 -1.049595 -0.031145 -0.514372
    36 -0.024967 -1.123934 0.017597 -1.878163 0.000000 0.000001
    37 -0.020057 -0.890968 0.010090 -0.444208 0.000000 0.000000
    38 0.583510 -1.197277 0.185379 0.371183 -0.693166 -0.903076
    39 1.535927 0.010246 0.005009 -0.002964 -0.012979 -0.682290
    40 1.100771 0.004527 -0.010679 -0.016147 -0.001453 -1.484153
    41 0.120153 -0.050270 -0.054489 0.287569 3.110905 1.561085
    42 1.244902 8.280871 -28.888884 0.957934 -4.093865 1.377777
    43 0.096944 -8.450418 -0.009365 -0.240970 -1.201020 0.636068
    44 0.447953 -2.798986 -0.200443 -1.375134 0.042804 0.170619
    45 -0.032909 -1.480204 0.004940 -1.065076 0.000000 0.000002
    46 -0.027022 -1.076920 -0.020210 -0.436720 0.000000 0.000000
    47 -0.249534 -2.846964 -0.174213 -1.049647 0.002631 0.073866
    48 0.043235 -1.683941 0.096012 -1.297637 0.002823 -0.000167
    49 0.031729 -1.160830 0.058838 -0.586938 0.000642 0.008372
    50 -0.963866 -2.785145 -0.085350 -0.496808 0.070929 0.053157
    51 0.028479 -1.403067 0.006271 -0.930573 0.000000 0.000000
    52 0.021413 -0.957781 0.020046 -0.529241 0.000000 0.000000
    53 1.164475 -2.543940 -0.170330 -1.568557 -0.015463 0.162804
    54 0.024032 -1.129042 0.017807 -0.854156 0.000000 0.000001
    55 0.014898 -0.883989 -0.019848 -0.474921 0.000000 0.000000
    56 -0.586770 -1.264477 0.200161 0.065698 -0.297498 -2.681389
    57 1.522835 0.058681 0.016848 0.001410 0.008985 0.567351
    58 1.117947 0.048424 -0.005766 0.001243 -0.024155 0.001514
    59 -0.139399 -0.111698 0.014397 0.912086 0.395068 1.127351
    60 -6.260806 6.983652 -0.294122 1.580804 -0.005023 -0.912799
  time 8
    0 -0.349399 2.189614 0.203512 0.000000 0.000000 0.000000
    1 9.976032 2.122727 -8.188538 -0.171700 -1.185352 -0.234047
    2 -0.071918 -8.498731 -0.104137 0.225880 0.078000 -0.197577
    3 3.368457 -4.357613 0.461421 0.088531 0.124698 -1.545787
    4 0.045777 -1.573664 0.000000 0.000000 0.000000 -1.570796
    5 2.296397 1.496177 2.107536 0.000000 0.000000 -3.141592
    6 -1.216037 1.038362 1.092521 0.000000 2.790686 1.570796
    7 7.000000 1.781222 0.000000 0.000000 -0.001160 1.570796
    8 0.584018 2.854836 0.002934 0.000000 0.001160 0.000000
    9 0.000000 0.849938 0.000001 0.000000 0.000000 0.000000
    10 1.015859 2.730335 -0.003613 0.000000 0.000000 0.000000
    11 0.107326 0.941765 0.000000 0.000000 0.000000 0.000000
    12 -1.477025 238.684828 -0.003906 0.000000 0.000000 0.000000
    13 0.340879 1.910698 1.116732 1.570796 -1.570796 0.000000
    14 16.890455 0.818869 0.000001 0.000000 0.000000 1.570796
    15 -11.734052 -13.798431 -1.361068 0.314339 -0.101654 0.303135
    16 0.000424 -3.540242 0.365661 0.000000 0.001160 0.000000
    17 -1.625050 262.151184 -0.003906 0.000000 0.000000 0.000000
    18 -0.000366 -3.540242 -0.315491 0.000000 0.001160 0.000000
    19 0.000000 0.000000 0.000000 0.000000 0.000000 0.000000
    20 10.442629 -2.311492 -0.001769 0.000000 0.000000 -1.570796
    21 -0.498922 2.487837 1.492354 0.000000 0.000000 0.000000
    22 1.625050 -262.153803 -0.003906 0.000000 0.000000 0.000000
    23 -0.498922 2.487837 -1.544641 0.000000 0.000000 0.000000
    24 0.000000 -0.000004 -0.000003 0.000000 0.000000 0.000000
    25 1.257180 8.762585 -0.153713 -1.570562 0.002683 -1.566807
    26 -0.488518 -2.755602 -0.228260 -1.030852 -0.134082 -0.416251
    27 0.039887 -1.479790 0.029854 -2.134253 0.000000 0.000001
    28 0.028786 -1.075731 -0.023109 -0.271941 0.000000 0.000000
    29 0.250027 -2.820665 -0.238396 -0.636386 -0.105209 -0.434549
    30 -0.049759 -1.680544 0.100479 -2.262150 0.000000 -0.000002
    31 -0.034142 -1.148312 0.084782 -0.535851 0.000000 0.000000
    32 0.957766 -2.746780 -0.090302 0.329289 -0.172344 0.119866
    33 -0.033420 -1.397129 -0.011257 -1.115580 0.000000 -0.000001
    34 -0.022360 -0.957436 0.018784 -1.148807 0.000000 0.000000
    35 -1.180681 -2.507217 -0.193859 -1.049595 -0.031145 -0.514372
    36 -0.024967 -1.123934 0.017597 -1.878163 0.000000 0.000001
    37 -0.020057 -0.890968 0.010090 -0.444208 0.000000 0.000000
    38 0.583510 -1.197277 0.185379 0.371183 -0.693166 -0.903076
    39 1.535927 0.010246 0.005009 -0.002964 -0.012979 -0.682290
    40 1.100771 0.004527 -0.010679 -0.016147 -0.001453 -1.484153
    41 0.120153 -0.050270 -0.054489 0.287569 3.110905 1.561085
    42 1.369906 9.374655 -28.060733 0.661702 -3.810789 0.969893
    43 0.096944 -8.450418 -0.009365 0.002468 -1.212192 0.375719
    44 0.447953 -2.798986 -0.200443 -1.432548 0.042804 0.170619
    45 -0.032909 -1.480204 0.004940 -1.245516 0.000000 0.000002
    46 -0.027022 -1.076920 -0.020210 -0.898647 0.000000 0.000000
    47 -0.249534 -2.846964 -0.174213 -1.115108 0.002631 0.073866
    48 0.043235 -1.683941 0.096012 -1.485266 0.002823 -0.000167
    49 0.031729 -1.160830 0.058838 -1.006180 0.000642 0.008372
    50 -0.963866 -2.785145 -0.085350 -0.309009 0.070929 0.053157
    51 0.028479 -1.403067 0.006271 -0.898304 0.000000 0.000000
    52 0.021413 -0.957781 0.020046 -0.639526 0.000000 0.000000
    53 1.164475 -2.543940 -0.170330 -1.568557 -0.015463 0.162804
    54 0.024032 -1.129042 0.017807 -1.030621 0.000000 0.000001
    55 0.014898 -0.883989 -0.019848 -0.939867 0.000000 0.000000
    56 -0.586770 -1.264477 0.200161 -0.048804 -0.440534 -2.655132
    57 1.522835 0.058681 0.016848 0.001410 0.008985 0.689621
    58 1.117947 0.048424 -0.005766 0.005605 -0.023520 -0.175845
    59 -0.139399 -0.111698 0.014397 0.919508 0.369245 1.146646
    60 -6.260806 6.983652 -0.294122 1.580804 -0.005023 -0.912799
  time 9
    0 -0.349399 2.326337 0.203512 0.000000 0.000000 0.000000
    1 10.034628 2.107102 -8.047909 -0.142269 -1.167985 -0.271599
    2 -0.071918 -8.498731 -0.104137 0.226023 0.078383 -0.195887
    3 3.368457 -4.357613 0.461421 0.088531 0.124698 -1.545787
    4 0.045777 -1.573664 0.000000 0.000000 0.000000 -1.570796
    5 2.296397 1.496177 2.107536 0.000000 0.000000 -3.141592
    6 -1.216037 1.038362 1.092521 -3.141592 0.350890 -1.570796
    7 7.000000 1.781222 0.000000 0.000000 -0.001160 1.570796
    8 0.584018 2.854836 0.002934 0.000000 0.001160 0.000000
    9 0.000000 0.849938 0.000001 0.000000 0.000000 0.000000
    10 1.015859 2.730335 -0.003613 0.000000 0.000000 0.000000
    11 0.107326 0.941765 0.000000 0.000000 0.000000 0.000000
    12 -1.477025 238.684828 -0.003906 0.000000 0.000000 0.000000
    13 0.340879 1.910698 1.116732 1.570796 -1.570796 0.000000
    14 16.890455 0.818869 0.000001 0.000000 0.000000 1.570796
    15 -9.894152 -14.587518 -2.462664 0.331523 -0.112816 0.319848
    16 0.000424 -3.540242 0.365661 0.000000 0.001160 0.000000
    17 -1.625050 262.151184 -0.003906 0.000000 0.000000 0.000000
    18 -0.000366 -3.540242 -0.315491 0.000000 0.001160 0.000000
    19 0.000000 0.000000 0.000000 0.000000 0.000000 0.000000
    20 10.442629 -2.311492 -0.001769 0.000000 0.000000 -1.570796
    21 -0.498922 2.487837 1.492354 0.000000 0.000000 0.000000
    22 1.625050 -262.153803 -0.003906 0.000000 0.000000 0.000000
    23 -0.498922 2.487837 -1.544641 0.000000 0.000000 0.000000
    24 0.000000 -0.000004 -0.000003 0.000000 0.000000 0.000000
    25 1.257180 8.762585 -0.153713 -1.570562 0.002683 -1.566807
    26 -0.488518 -2.755602 -0.228260 -1.030852 -0.134082 -0.416251
    27 0.039887 -1.479790 0.029854 -2.134253 0.000000 0.000001
    28 0.028786 -1.075731 -0.023109 -0.271941 0.000000 0.000000
    29 0.250027 -2.820665 -0.238396 -0.636386 -0.105209 -0.434549
    30 -0.049759 -1.680544 0.100479 -2.262150 0.000000 -0.000002
    31 -0.034142 -1.148312 0.084782 -0.535851 0.000000 0.000000
    32 0.957766 -2.746780 -0.090302 0.329289 -0.172344 0.119866
    33 -0.033420 -1.397129 -0.011257 -1.115580 0.000000 -0.000001
    34 -0.022360 -0.957436 0.018784 -1.148807 0.000000 0.000000
    35 -1.180681 -2.507217 -0.193859 -1.049595 -0.031145 -0.514372
    36 -0.024967 -1.123934 0.017597 -1.878163 0.000000 0.000001
    37 -0.020057 -0.890968 0.010090 -0.444208 0.000000 0.000000
    38 0.583510 -1.197277 0.185379 0.371183 -0.693166 -0.903076
    39 1.535927 0.010246 0.005009 -0.002964 -0.012979 -0.682290
    40 1.100771 0.004527 -0.010679 -0.016147 -0.001453 -1.484153
    41 0.120153 -0.050270 -0.054489 0.287569 3.110905 1.561085
    42 1.416783 10.175460 -27.041171 0.542403 -3.522973 0.746160
    43 0.096944 -8.450418 -0.009365 0.228179 -1.202202 0.134356
    44 0.447953 -2.798986 -0.200443 -1.480633 0.042804 0.170619
    45 -0.032909 -1.480204 0.004940 -1.396721 0.000000 0.000002
    46 -0.027022 -1.076920 -0.020210 -1.285634 0.000000 0.000000
    47 -0.249534 -2.846964 -0.174213 -1.169980 0.002631 0.073866
    48 0.043235 -1.683941 0.096012 -1.642483 0.002823 -0.000167
    49 0.031729 -1.160830 0.058838 -1.357440 0.000642 0.008372
    50 -0.963866 -2.785145 -0.085350 -0.133826 0.070929 0.053157
    51 0.028479 -1.403067 0.006271 -0.855468 0.000000 0.000000
    52 0.021413 -0.957781 0.020046 -0.731880 0.000000 0.000000
    53 1.164475 -2.543940 -0.170330 -1.568557 -0.015463 0.162804
    54 0.024032 -1.129042 0.017807 -1.178418 0.000000 0.000001
    55 0.014898 -0.883989 -0.019848 -1.329426 0.000000 0.000000
    56 -0.586770 -1.264477 0.200161 -0.144732 -0.560380 -2.633133
    57 1.522835 0.058681 0.016848 0.001410 0.008985 0.792028
    58 1.117947 0.048424 -0.005766 0.009249 -0.023005 -0.324426
    59 -0.139399 -0.111698 0.014397 0.928868 0.336614 1.171038
    60 -6.260806 6.983652 -0.294122 1.580804 -0.005023 -0.912799
  time 10
    0 -0.349399 2.455247 0.203512 0.000000 0.000000 0.000000
    1 10.108849 2.083663 -7.969781 -0.130478 -1.161223 -0.292041
    2 -0.071918 -8.498731 -0.104137 0.226037 0.080205 -0.196115
    3 3.368457 -4.357613 0.461421 0.088531 0.124698 -1.545787
    4 0.045777 -1.573664 0.000000 0.000000 0.000000 -1.570796
    5 2.296397 1.496177 2.107536 0.000000 0.000000 -3.141592
    6 -1.216037 1.038362 1.092521 -3.141592 0.350890 -1.570796
    7 7.000000 1.781222 0.000000 0.000000 -0.001160 1.570796
    8 0.584018 2.854836 0.002934 0.000000 0.001160 0.000000
    9 0.000000 0.849938 0.000001 0.000000 0.000000 0.000000
    10 1.015859 2.730335 -0.003613 0.000000 0.000000 0.000000
    11 0.107326 0.941765 0.000000 0.000000 0.000000 0.000000
    12 -1.477025 238.684828 -0.003906 0.000000 0.000000 0.000000
    13 0.340879 1.910698 1.116732 1.570796 -1.570796 0.000000
    14 16.890455 0.818869 0.000001 0.000000 0.000000 1.570796
    15 -8.573799 -15.099252 -3.200968 0.340057 -0.119852 0.330956
    16 0.000424 -3.540242 0.365661 0.000000 0.001160 0.000000
    17 -1.625050 262.151184 -0.003906 0.000000 0.000000 0.000000
    18 -0.000366 -3.540242 -0.315491 0.000000 0.001160 0.000000
    19 0.000000 0.000000 0.000000 0.000000 0.000000 0.000000
    20 10.442629 -2.311492 -0.001769 0.000000 0.000000 -1.570796
    21 -0.498922 2.487837 1.492354 0.000000 0.000000 0.000000
    22 1.625050 -262.153803 -0.003906 0.000000 0.000000 0.000000
    23 -0.498922 2.487837 -1.544641 0.000000 0.000000 0.000000
    24 0.000000 -0.000004 -0.000003 0.000000 0.000000 0.000000
    25 1.257180 8.762585 -0.153713 -1.570562 0.002683 -1.566807
    26 -0.488518 -2.755602 -0.228260 -1.030852 -0.134082 -0.416251
    27 0.039887 -1.479790 0.029854 -2.134253 0.000000 0.000001
    28 0.028786 -1.075731 -0.023109 -0.271941 0.000000 0.000000
    29 0.250027 -2.820665 -0.238396 -0.636386 -0.105209 -0.434549
    30 -0.049759 -1.680544 0.100479 -2.262150 0.000000 -0.000002
    31 -0.034142 -1.148312 0.084782 -0.535851 0.000000 0.000000
    32 0.957766 -2.746780 -0.090302 0.329289 -0.172344 0.119866
    33 -0.033420 -1.397129 -0.011257 -1.115580 0.000000 -0.000001
    34 -0.022360 -0.957436 0.018784 -1.148807 0.000000 0.000000
    35 -1.180681 -2.507217 -0.193859 -1.049595 -0.031145 -0.514372
    36 -0.024967 -1.123934 0.017597 -1.878163 0.000000 0.000001
    37 -0.020057 -0.890968 0.010090 -0.444208 0.000000 0.000000
    38 0.583510 -1.197277 0.185379 0.371183 -0.693166 -0.903076
    39 1.535927 0.010246 0.005009 -0.002964 -0.012979 -0.682290
    40 1.100771 0.004527 -0.010679 -0.016147 -0.001453 -1.484153
    41 0.120153 -0.050270 -0.054489 0.287569 3.110905 1.561085
    42 1.049584 10.066082 -25.447372 0.489034 -3.339043 0.633445
    43 0.096944 -8.450418 -0.009365 0.378797 -1.183437 -0.027601
    44 0.447953 -2.798986 -0.200443 -1.500846 0.042804 0.170619
    45 -0.032909 -1.480204 0.004940 -1.460121 0.000000 0.000002
    46 -0.027022 -1.076920 -0.020210 -1.447967 0.000000 0.000000
    47 -0.249534 -2.846964 -0.174213 -1.192968 0.002631 0.073866
    48 0.043235 -1.683941 0.096012 -1.708398 0.002823 -0.000167
    49 0.031729 -1.160830 0.058838 -1.504756 0.000642 0.008372
    50 -0.963866 -2.785145 -0.085350 -0.021835 0.070929 0.053157
    51 0.028479 -1.403067 0.006271 -0.803332 0.000000 0.000000
    52 0.021413 -0.957781 0.020046 -0.770645 0.000000 0.000000
    53 1.164475 -2.543940 -0.170330 -1.568557 -0.015463 0.162804
    54 0.024032 -1.129042 0.017807 -1.240409 0.000000 0.000001
    55 0.014898 -0.883989 -0.019848 -1.492828 0.000000 0.000000
    56 -0.586770 -1.264477 0.200161 -0.184940 -0.610644 -2.623896
    57 1.522835 0.058681 0.016848 0.001410 0.008985 0.834983
    58 1.117947 0.048424 -0.005766 0.010783 -0.022777 -0.386720
    59 -0.139399 -0.111698 0.014397 0.939616 0.299215 1.198991
    60 -6.260806 6.983652 -0.294122 1.580804 -0.005023 -0.912799
  time 11
    0 -0.349399 2.595876 0.203512 0.000000 0.000000 0.000000
    1 10.190882 2.048506 -7.938530 -0.129615 -1.162251 -0.301766
    2 -0.071918 -8.498731 -0.104137 0.225966 0.082542 -0.197457
    3 3.368457 -4.357613 0.461421 0.088531 0.124698 -1.545787
    4 0.045777 -1.573664 0.000000 0.000000 0.000000 -1.570796
    5 2.296397 1.496177 2.107536 0.000000 0.000000 -3.141592
    6 -1.216037 1.038362 1.092521 0.000000 2.790686 1.570796
    7 7.000000 1.781222 0.000000 0.000000 -0.001160 1.570796
    8 0.584018 2.854836 0.002934 0.000000 0.001160 0.000000
    9 0.000000 0.849938 0.000001 0.000000 0.000000 0.000000
    10 1.015859 2.730335 -0.003613 0.000000 0.000000 0.000000
    11 0.107326 0.941765 0.000000 0.000000 0.000000 0.000000
    12 -1.477025 238.684828 -0.003906 0.000000 0.000000 0.000000
    13 0.340879 1.910698 1.116732 1.570796 -1.570796 0.000000
    14 16.890455 0.818869 0.000001 0.000000 0.000000 1.570796
    15 -7.472203 -12.528861 -1.540761 0.306478 -0.136763 0.344138
    16 0.000424 -3.540242 0.365661 0.000000 0.001160 0.000000
    17 -1.625050 262.151184 -0.003906 0.000000 0.000000 0.000000
    18 -0.000366 -3.540242 -0.315491 0.000000 0.001160 0.000000
    19 0.000000 0.000000 0.000000 0.000000 0.000000 0.000000
    20 10.442629 -2.311492 -0.001769 0.000000 0.000000 -1.570796
    21 -0.498922 2.487837 1.492354 0.000000 0.000000 0.000000
    22 1.625050 -262.153803 -0.003906 0.000000 0.000000 0.000000
    23 -0.498922 2.487837 -1.544641 0.000000 0.000000 0.000000
    24 0.000000 -0.000004 -0.000003 0.000000 0.000000 0.000000
    25 1.257180 8.762585 -0.153713 -1.570562 0.002683 -1.566807
    26 -0.488518 -2.755602 -0.228260 -1.030852 -0.134082 -0.416251
    27 0.039887 -1.479790 0.029854 -2.134253 0.000000 0.000001
    28 0.028786 -1.075731 -0.023109 -0.271941 0.000000 0.000000
    29 0.250027 -2.820665 -0.238396 -0.636386 -0.105209 -0.434549
    30 -0.049759 -1.680544 0.100479 -2.262150 0.000000 -0.000002
    31 -0.034142 -1.148312 0.084782 -0.535851 0.000000 0.000000
    32 0.957766 -2.746780 -0.090302 0.329289 -0.172344 0.119866
    33 -0.033420 -1.397129 -0.011257 -1.115580 0.000000 -0.000001
    34 -0.022360 -0.957436 0.018784 -1.148807 0.000000 0.000000
    35 -1.180681 -2.507217 -0.193859 -1.049595 -0.031145 -0.514372
    36 -0.024967 -1.123934 0.017597 -1.878163 0.000000 0.000001
    37 -0.020057 -0.890968 0.010090 -0.444208 0.000000 0.000000
    38 0.583510 -1.197277 0.185379 0.371183 -0.693166 -0.903076
    39 1.535927 0.010246 0.005009 -0.002964 -0.012979 -0.682290
    40 1.100771 0.004527 -0.010679 -0.016147 -0.001453 -1.484153
    41 0.120153 -0.050270 -0.054489 0.287569 3.110905 1.561085
    42 -0.106701 8.648070 -22.330090 0.440081 -3.320088 0.614408
    43 0.096944 -8.450418 -0.009365 0.463897 -1.169464 -0.110539
    44 0.447953 -2.798986 -0.200443 -1.500846 0.042804 0.170619
    45 -0.032909 -1.480204 0.004940 -1.460121 0.000000 0.000002
    46 -0.027022 -1.076920 -0.020210 -1.447967 0.000000 0.000000
    47 -0.249534 -2.846964 -0.174213 -1.192968 0.002631 0.073866
    48 0.043235 -1.683941 0.096012 -1.708398 0.002823 -0.000167
    49 0.031729 -1.160830 0.058838 -1.504756 0.000642 0.008372
    50 -0.963866 -2.785145 -0.085350 0.030042 0.054666 0.052390
    51 0.028479 -1.403067 0.006271 -0.724798 0.000000 0.000000
    52 0.021413 -0.957781 0.020046 -0.725820 0.000000 0.000000
    53 1.164475 -2.543940 -0.170330 -1.568557 -0.015463 0.162804
    54 0.024032 -1.129042 0.017807 -1.240409 0.000000 0.000001
    55 0.014898 -0.883989 -0.019848 -1.492828 0.000000 0.000000
    56 -0.586770 -1.264477 0.200161 -0.184940 -0.610644 -2.623896
    57 1.522835 0.058681 0.016848 0.001410 0.008985 0.834983
    58 1.117947 0.048424 -0.005766 0.010783 -0.022777 -0.386720
    59 -0.139399 -0.111698 0.014397 0.951135 0.259104 1.228968
    60 -6.260806 6.983652 -0.294122 1.580804 -0.005023 -0.912799
  time 12
    0 -0.349399 2.728693 0.203512 0.000000 0.000000 0.000000
    1 10.276822 2.009442 -7.942437 -0.135271 -1.167964 -0.304918
    2 -0.071918 -8.498731 -0.104137 0.225852 0.084436 -0.199087
    3 3.368457 -4.357613 0.461421 0.088531 0.124698 -1.545787
    4 0.045777 -1.573664 0.000000 0.000000 0.000000 -1.570796
    5 2.296397 1.496177 2.107536 0.000000 0.000000 -3.141592
    6 -1.216037 1.038362 1.092521 -3.141592 0.350890 -1.570796
    7 7.000000 1.781222 0.000000 0.000000 -0.001160 1.570796
    8 0.584018 2.854836 0.002934 0.000000 0.001160 0.000000
    9 0.000000 0.849938 0.000001 0.000000 0.000000 0.000000
    10 1.015859 2.730335 -0.003613 0.000000 0.000000 0.000000
    11 0.107326 0.941765 0.000000 0.000000 0.000000 0.000000
    12 -1.477025 238.684828 -0.003906 0.000000 0.000000 0.000000
    13 0.340879 1.910698 1.116732 1.570796 -1.570796 0.000000
    14 16.890455 0.818869 0.000001 0.000000 0.000000 1.570796
    15 -6.077629 -9.802216 0.474925 0.355837 -0.068787 0.261755
    16 0.000424 -3.540242 0.365661 0.000000 0.001160 0.000000
    17 -1.625050 262.151184 -0.003906 0.000000 0.000000 0.000000
    18 -0.000366 -3.540242 -0.315491 0.000000 0.001160 0.000000
    19 0.000000 0.000000 0.000000 0.000000 0.000000 0.000000
    20 10.442629 -2.311492 -0.001769 0.000000 0.000000 -1.570796
    21 -0.498922 2.487837 1.492354 0.000000 0.000000 0.000000
    22 1.625050 -262.153803 -0.003906 0.000000 0.000000 0.000000
    23 -0.498922 2.487837 -1.544641 0.000000 0.000000 0.000000
    24 0.000000 -0.000004 -0.000003 0.000000 0.000000 0.000000
    25 1.257180 8.762585 -0.153713 -1.570562 0.002683 -1.566807
    26 -0.488518 -2.755602 -0.228260 -1.030852 -0.134082 -0.416251
    27 0.039887 -1.479790 0.029854 -2.134253 0.000000 0.000001
    28 0.028786 -1.075731 -0.023109 -0.271941 0.000000 0.000000
    29 0.250027 -2.820665 -0.238396 -0.636386 -0.105209 -0.434549
    30 -0.049759 -1.680544 0.100479 -2.262150 0.000000 -0.000002
    31 -0.034142 -1.148312 0.084782 -0.535851 0.000000 0.000000
    32 0.957766 -2.746780 -0.090302 0.329289 -0.172344 0.119866
    33 -0.033420 -1.397129 -0.011257 -1.115580 0.000000 -0.000001
    34 -0.022360 -0.957436 0.018784 -1.148807 0.000000 0.000000
    35 -1.180681 -2.507217 -0.193859 -1.049595 -0.031145 -0.514372
    36 -0.024967 -1.123934 0.017597 -1.878163 0.000000 0.000001
    37 -0.020057 -0.890968 0.010090 -0.444208 0.000000 0.000000
    38 0.583510 -1.197277 0.185379 0.371183 -0.693166 -0.903076
    39 1.535927 0.010246 0.005009 -0.002964 -0.012979 -0.682290
    40 1.100771 0.004527 -0.010679 -0.016147 -0.001453 -1.484153
    41 0.120153 -0.050270 -0.054489 0.287569 3.110905 1.561085
    42 -1.446586 7.073803 -18.931548 0.381231 -3.421713 0.649844
    43 0.096944 -8.450418 -0.009365 0.518524 -1.161248 -0.151457
    44 0.447953 -2.798986 -0.200443 -1.500846 0.042804 0.170619
    45 -0.032909 -1.480204 0.004940 -1.460121 0.000000 0.000002
    46 -0.027022 -1.076920 -0.020210 -1.447967 0.000000 0.000000
    47 -0.249534 -2.846964 -0.174213 -1.192968 0.002631 0.073866
    48 0.043235 -1.683941 0.096012 -1.708398 0.002823 -0.000167
    49 0.031729 -1.160830 0.058838 -1.504756 0.000642 0.008372
    50 -0.963866 -2.785145 -0.085350 0.061981 0.015908 0.050533
    51 0.028479 -1.403067 0.006271 -0.618976 0.000000 0.000000
    52 0.021413 -0.957781 0.020046 -0.619041 0.000000 0.000000
    53 1.164475 -2.543940 -0.170330 -1.568557 -0.015463 0.162804
    54 0.024032 -1.129042 0.017807 -1.240409 0.000000 0.000001
    55 0.014898 -0.883989 -0.019848 -1.492828 0.000000 0.000000
    56 -0.586770 -1.264477 0.200161 -0.184940 -0.610644 -2.623896
    57 1.522835 0.058681 0.016848 0.001410 0.008985 0.834983
    58 1.117947 0.048424 -0.005766 0.010783 -0.022777 -0.386720
    59 -0.139399 -0.111698 0.014397 0.962852 0.218308 1.259462
    60 -6.260806 6.983652 -0.294122 1.580804 -0.005023 -0.912799
  time 13
    0 -0.349399 2.845884 0.203512 0.000000 0.000000 0.000000
    1 10.362763 1.978191 -7.958062 -0.143036 -1.175178 -0.305548
    2 -0.071918 -8.498731 -0.104137 0.225766 0.084951 -0.200189
    3 3.368457 -4.357613 0.461421 0.088531 0.124698 -1.545787
    4 0.045777 -1.573664 0.000000 0.000000 0.000000 -1.570796
    5 2.296397 1.496177 2.107536 0.000000 0.000000 -3.141592
    6 -1.216037 1.038362 1.092521 -3.141592 0.350890 -1.570796
    7 7.000000 1.781222 0.000000 0.000000 -0.001160 1.570796
    8 0.584018 2.854836 0.002934 0.000000 0.001160 0.000000
    9 0.000000 0.849938 0.000001 0.000000 0.000000 0.000000
    10 1.015859 2.730335 -0.003613 0.000000 0.000000 0.000000
    11 0.107326 0.941765 0.000000 0.000000 0.000000 0.000000
    12 -1.477025 238.684828 -0.003906 0.000000 0.000000 0.000000
    13 0.340879 1.910698 1.116732 1.570796 -1.570796 0.000000
    14 16.890455 0.818869 0.000001 0.000000 0.000000 1.570796
    15 -4.663523 -7.079476 2.373421 0.418671 0.045007 0.147145
    16 0.000424 -3.540242 0.365661 0.000000 0.001160 0.000000
    17 -1.625050 262.151184 -0.003906 0.000000 0.000000 0.000000
    18 -0.000366 -3.540242 -0.315491 0.000000 0.001160 0.000000
    19 0.000000 0.000000 0.000000 0.000000 0.000000 0.000000
    20 10.442629 -2.311492 -0.001769 0.000000 0.000000 -1.570796
    21 -0.498922 2.487837 1.492354 0.000000 0.000000 0.000000
    22 1.625050 -262.153803 -0.003906 0.000000 0.000000 0.000000
    23 -0.498922 2.487837 -1.544641 0.000000 0.000000 0.000000
    24 0.000000 -0.000004 -0.000003 0.000000 0.000000 0.000000
    25 1.257180 8.762585 -0.153713 -1.570562 0.002683 -1.566807
    26 -0.488518 -2.755602 -0.228260 -1.030852 -0.134082 -0.416251
    27 0.039887 -1.479790 0.029854 -2.134253 0.000000 0.000001
    28 0.028786 -1.075731 -0.023109 -0.271941 0.000000 0.000000
    29 0.250027 -2.820665 -0.238396 -0.636386 -0.105209 -0.434549
    30 -0.049759 -1.680544 0.100479 -2.262150 0.000000 -0.000002
    31 -0.034142 -1.148312 0.084782 -0.535851 0.000000 0.000000
    32 0.957766 -2.746780 -0.090302 0.329289 -0.172344 0.119866
    33 -0.033420 -1.397129 -0.011257 -1.115580 0.000000 -0.000001
    34 -0.022360 -0.957436 0.018784 -1.148807 0.000000 0.000000
    35 -1.180681 -2.507217 -0.193859 -1.049595 -0.031145 -0.514372
    36 -0.024967 -1.123934 0.017597 -1.878163 0.000000 0.000001
    37 -0.020057 -0.890968 0.010090 -0.444208 0.000000 0.000000
    38 0.583510 -1.197277 0.185379 0.371183 -0.693166 -0.903076
    39 1.535927 0.010246 0.005009 -0.002964 -0.012979 -0.682290
    40 1.100771 0.004527 -0.010679 -0.016147 -0.001453 -1.484153
    41 0.120153 -0.050270 -0.054489 0.287569 3.110905 1.561085
    42 -2.766939 5.456566 -15.517382 0.324283 -3.571088 0.700075
    43 0.096944 -8.450418 -0.009365 0.546689 -1.157545 -0.168239
    44 0.447953 -2.798986 -0.200443 -1.500846 0.042804 0.170619
    45 -0.032909 -1.480204 0.004940 -1.460121 0.000000 0.000002
    46 -0.027022 -1.076920 -0.020210 -1.447967 0.000000 0.000000
    47 -0.249534 -2.846964 -0.174213 -1.192968 0.002631 0.073866
    48 0.043235 -1.683941 0.096012 -1.708398 0.002823 -0.000167
    49 0.031729 -1.160830 0.058838 -1.504756 0.000642 0.008372
    50 -0.963866 -2.785145 -0.085350 0.078817 -0.030364 0.048328
    51 0.028479 -1.403067 0.006271 -0.511556 0.000000 0.000000
    52 0.021413 -0.957781 0.020046 -0.491528 0.000000 0.000000
    53 1.164475 -2.543940 -0.170330 -1.568557 -0.015463 0.162804
    54 0.024032 -1.129042 0.017807 -1.240409 0.000000 0.000001
    55 0.014898 -0.883989 -0.019848 -1.492828 0.000000 0.000000
    56 -0.586770 -1.264477 0.200161 -0.184940 -0.610644 -2.623896
    57 1.522835 0.058681 0.016848 0.001410 0.008985 0.834983
    58 1.117947 0.048424 -0.005766 0.010783 -0.022777 -0.386720
    59 -0.139399 -0.111698 0.014397 0.974173 0.178868 1.288936
    60 -6.260806 6.983652 -0.294122 1.580804 -0.005023 -0.912799
  time 14
    0 -0.349399 2.924011 0.203512 0.000000 0.000000 0.000000
    1 10.436984 1.943034 -7.969781 -0.148692 -1.180727 -0.307710
    2 -0.071918 -8.498731 -0.104137 0.225752 0.083117 -0.199950
    3 3.368457 -4.357613 0.461421 0.088531 0.124698 -1.545787
    4 0.045777 -1.573664 0.000000 0.000000 0.000000 -1.570796
    5 2.296397 1.496177 2.107536 0.000000 0.000000 -3.141592
    6 -1.216037 1.038362 1.092521 0.000000 2.790686 1.570796
    7 7.000000 1.781222 0.000000 0.000000 -0.001160 1.570796
    8 0.584018 2.854836 0.002934 0.000000 0.001160 0.000000
    9 0.000000 0.849938 0.000001 0.000000 0.000000 0.000000
    10 1.015859 2.730335 -0.003613 0.000000 0.000000 0.000000
    11 0.107326 0.941765 0.000000 0.000000 0.000000 0.000000
    12 -1.477025 238.684828 -0.003906 0.000000 0.000000 0.000000
    13 0.340879 1.910698 1.116732 1.570796 -1.570796 0.000000
    14 16.890455 0.818869 0.000001 0.000000 0.000000 1.570796
    15 -3.460362 -4.493460 3.846122 0.443235 0.155891 0.056859
    16 0.000424 -3.540242 0.365661 0.000000 0.001160 0.000000
    17 -1.625050 262.151184 -0.003906 0.000000 0.000000 0.000000
    18 -0.000366 -3.540242 -0.315491 0.000000 0.001160 0.000000
    19 0.000000 0.000000 0.000000 0.000000 0.000000 0.000000
    20 10.442629 -2.311492 -0.001769 0.000000 0.000000 -1.570796
    21 -0.498922 2.487837 1.492354 0.000000 0.000000 0.000000
    22 1.625050 -262.153803 -0.003906 0.000000 0.000000 0.000000
    23 -0.498922 2.487837 -1.544641 0.000000 0.000000 0.000000
    24 0.000000 -0.000004 -0.000003 0.000000 0.000000 0.000000
    25 1.257180 8.762585 -0.153713 -1.570562 0.002683 -1.566807
    26 -0.488518 -2.755602 -0.228260 -1.030852 -0.134082 -0.416251
    27 0.039887 -1.479790 0.029854 -2.134253 0.000000 0.000001
    28 0.028786 -1.075731 -0.023109 -0.271941 0.000000 0.000000
    29 0.250027 -2.820665 -0.238396 -0.636386 -0.105209 -0.434549
    30 -0.049759 -1.680544 0.100479 -2.262150 0.000000 -0.000002
    31 -0.034142 -1.148312 0.084782 -0.535851 0.000000 0.000000
    32 0.957766 -2.746780 -0.090302 0.329289 -0.172344 0.119866
    33 -0.033420 -1.397129 -0.011257 -1.115580 0.000000 -0.000001
    34 -0.022360 -0.957436 0.018784 -1.148807 0.000000 0.000000
    35 -1.180681 -2.507217 -0.193859 -1.049595 -0.031145 -0.514372
    36 -0.024967 -1.123934 0.017597 -1.878163 0.000000 0.000001
    37 -0.020057 -0.890968 0.010090 -0.444208 0.000000 0.000000
    38 0.583510 -1.197277 0.185379 0.371183 -0.693166 -0.903076
    39 1.535927 0.010246 0.005009 -0.002964 -0.012979 -0.682290
    40 1.100771 0.004527 -0.010679 -0.016147 -0.001453 -1.484153
    41 0.120153 -0.050270 -0.054489 0.287569 3.110905 1.561085
    42 -3.876348 3.909644 -12.364942 0.272133 -3.691303 0.732966
    43 0.096944 -8.450418 -0.009365 0.549299 -1.155740 -0.175723
    44 0.447953 -2.798986 -0.200443 -1.500846 0.042804 0.170619
    45 -0.032909 -1.480204 0.004940 -1.460121 0.000000 0.000002
    46 -0.027022 -1.076920 -0.020210 -1.447967 0.000000 0.000000
    47 -0.249534 -2.846964 -0.174213 -1.192968 0.002631 0.073866
    48 0.043235 -1.683941 0.096012 -1.708398 0.002823 -0.000167
    49 0.031729 -1.160830 0.058838 -1.504756 0.000642 0.008372
    50 -0.963866 -2.785145 -0.085350 0.085364 -0.069134 0.046482
    51 0.028479 -1.403067 0.006271 -0.428232 0.000000 0.000000
    52 0.021413 -0.957781 0.020046 -0.384699 0.000000 0.000000
    53 1.164475 -2.543940 -0.170330 -1.568557 -0.015463 0.162804
    54 0.024032 -1.129042 0.017807 -1.240409 0.000000 0.000001
    55 0.014898 -0.883989 -0.019848 -1.492828 0.000000 0.000000
    56 -0.586770 -1.264477 0.200161 -0.184940 -0.610644 -2.623896
    57 1.522835 0.058681 0.016848 0.001410 0.008985 0.834983
    58 1.117947 0.048424 -0.005766 0.010783 -0.022777 -0.386720
    59 -0.139399 -0.111698 0.014397 0.984524 0.142812 1.315869
    60 -6.260806 6.983652 -0.294122 1.580804 -0.005023 -0.912799
  time 15
    0 -0.349399 2.955262 0.203512 0.000000 0.000000 0.000000
    1 10.499485 1.915690 -7.965875 -0.147542 -1.181467 -0.315814
    2 -0.071918 -8.498731 -0.104137 0.225880 0.078000 -0.197577
    3 3.368457 -4.357613 0.461421 0.088531 0.124698 -1.545787
    4 0.045777 -1.573664 0.000000 0.000000 0.000000 -1.570796
    5 2.296397 1.496177 2.107536 0.000000 0.000000 -3.141592
    6 -1.216037 1.038362 1.092521 -3.141592 0.350890 -1.570796
    7 7.000000 1.781222 0.000000 0.000000 -0.001160 1.570796
    8 0.584018 2.854836 0.002934 0.000000 0.001160 0.000000
    9 0.000000 0.849938 0.000001 0.000000 0.000000 0.000000
    10 1.015859 2.730335 -0.003613 0.000000 0.000000 0.000000
    11 0.107326 0.941765 0.000000 0.000000 0.000000 0.000000
    12 -1.477025 238.684828 -0.003906 0.000000 0.000000 0.000000
    13 0.340879 1.910698 1.116732 1.570796 -1.570796 0.000000
    14 16.890455 0.818869 0.000001 0.000000 0.000000 1.570796
    15 -2.616586 -2.169170 4.709430 0.398604 0.207386 0.038963
    16 0.000424 -3.540242 0.365661 0.000000 0.001160 0.000000
    17 -1.625050 262.151184 -0.003906 0.000000 0.000000 0.000000
    18 -0.000366 -3.540242 -0.315491 0.000000 0.001160 0.000000
    19 0.000000 0.000000 0.000000 0.000000 0.000000 0.000000
    20 10.442629 -2.311492 -0.001769 0.000000 0.000000 -1.570796
    21 -0.498922 2.487837 1.492354 0.000000 0.000000 0.000000
    22 1.625050 -262.153803 -0.003906 0.000000 0.000000 0.000000
    23 -0.498922 2.487837 -1.544641 0.000000 0.000000 0.000000
    24 0.000000 -0.000004 -0.000003 0.000000 0.000000 0.000000
    25 1.257180 8.762585 -0.153713 -1.570562 0.002683 -1.566807
    26 -0.488518 -2.755602 -0.228260 -1.030852 -0.134082 -0.416251
    27 0.039887 -1.479790 0.029854 -2.134253 0.000000 0.000001
    28 0.028786 -1.075731 -0.023109 -0.271941 0.000000 0.000000
    29 0.250027 -2.820665 -0.238396 -0.636386 -0.105209 -0.434549
    30 -0.049759 -1.680544 0.100479 -2.262150 0.000000 -0.000002
    31 -0.034142 -1.148312 0.084782 -0.535851 0.000000 0.000000
    32 0.957766 -2.746780 -0.090302 0.329289 -0.172344 0.119866
    33 -0.033420 -1.397129 -0.011257 -1.115580 0.000000 -0.000001
    34 -0.022360 -0.957436 0.018784 -1.148807 0.000000 0.000000
    35 -1.180681 -2.507217 -0.193859 -1.049595 -0.031145 -0.514372
    36 -0.024967 -1.123934 0.017597 -1.878163 0.000000 0.000001
    37 -0.020057 -0.890968 0.010090 -0.444208 0.000000 0.000000
    38 0.583510 -1.197277 0.185379 0.371183 -0.693166 -0.903076
    39 1.535927 0.010246 0.005009 -0.002964 -0.012979 -0.682290
    40 1.100771 0.004527 -0.010679 -0.016147 -0.001453 -1.484153
    41 0.120153 -0.050270 -0.054489 0.287569 3.110905 1.561085
    42 -4.567775 2.546321 -9.735955 0.219906 -3.702384 0.720055
    43 0.096944 -8.450418 -0.009365 0.526050 -1.152877 -0.187581
    44 0.447953 -2.798986 -0.200443 -1.500846 0.042804 0.170619
    45 -0.032909 -1.480204 0.004940 -1.460121 0.000000 0.000002
    46 -0.027022 -1.076920 -0.020210 -1.447967 0.000000 0.000000
    47 -0.249534 -2.846964 -0.174213 -1.192968 0.002631 0.073866
    48 0.043235 -1.683941 0.096012 -1.708398 0.002823 -0.000167
    49 0.031729 -1.160830 0.058838 -1.504756 0.000642 0.008372
    50 -0.963866 -2.785145 -0.085350 0.086459 -0.085398 0.045715
    51 0.028479 -1.403067 0.006271 -0.394742 0.000000 0.000000
    52 0.021413 -0.957781 0.020046 -0.339924 0.000000 0.000000
    53 1.164475 -2.543940 -0.170330 -1.568557 -0.015463 0.162804
    54 0.024032 -1.129042 0.017807 -1.240409 0.000000 0.000001
    55 0.014898 -0.883989 -0.019848 -1.492828 0.000000 0.000000
    56 -0.586770 -1.264477 0.200161 -0.184940 -0.610644 -2.623896
    57 1.522835 0.058681 0.016848 0.001410 0.008985 0.834983
    58 1.117947 0.048424 -0.005766 0.010783 -0.022777 -0.386720
    59 -0.139399 -0.111698 0.014397 0.993312 0.112209 1.338754
    60 -6.260806 6.983652 -0.294122 1.580804 -0.005023 -0.912799
end
