// Created by Crowbar 0.49.0.0

$modelname "weapons/tfa_cso/c_x-15.mdl"

$Include "csonline_gmod.qci"

$bodygroup "weapon"
{
	studio "v_kronos5_kronos5"
}
$bodygroup "weapon"
{
	studio "v_kronos5_scope"
}
$bodygroup "lens_on"
{
	studio "v_kronos5_lens_on"
}
$bodygroup "effect"
{
	studio "v_kronos5_ef"
}

$CDMaterials "models\weapons\tfa_cso\x-15\"

$attachment 0 "argus5_root" 17 0 0
//$attachment 1 "argus5_root" 3 0 0

$sequence "idle" {
	"v_kronos5_anims\idle"
	fps 30
	loop
	activity "ACT_VM_IDLE" 1
	snap
}
$sequence "idle2" {
	"v_kronos5_anims\idle2"
	fps 30
	loop
}
$sequence "idle3" {
	"v_kronos5_anims\idle3"
	fps 30
	loop
}
$sequence "shoot1" {
	"v_kronos5_anims\shoot1"
	{ event 5001 0 "#I3 S0.15 R2 F0 P30 T0.01 A1 L0 O0" }
	fps 30
	activity "ACT_VM_PRIMARYATTACK" 1
	snap
}
$sequence "shoot2" {
	"v_kronos5_anims\shoot2"
	{ event 5001 0 "#I3 S0.15 R2 F0 P30 T0.01 A1 L0 O0" }
	fps 30
}
$sequence "shoot3" {
	"v_kronos5_anims\shoot3"
	{ event 5001 0 "#I3 S0.15 R2 F0 P30 T0.01 A1 L0 O0" }
	fps 30
}
$sequence "reload" {
	"v_kronos5_anims\reload"
	{ event 5004 12 "X-15.ClipOut" }
	{ event 5004 26 "X-15.ClipIn1" }
	{ event 5004 46 "X-15.ClipIn2" }
	{ event 5004 70 "X-15.Boltpull" }
	fps 30
	activity "ACT_VM_RELOAD" 1
	snap
}
$sequence "reload2" {
	"v_kronos5_anims\reload2"
	{ event 5004 12 "weapons/kronos5_clipout.wav" }
	{ event 5004 26 "weapons/kronos5_clipin1.wav" }
	{ event 5004 46 "weapons/kronos5_clipin2.wav" }
	{ event 5004 70 "weapons/kronos5_boltpull.wav" }
	fps 30
}
$sequence "draw" {
	"v_kronos5_anims\draw"
	{ event 5004 8 "X-15.Boltpull" }
	fps 30
	activity "ACT_VM_DRAW" 1
	snap
}
$sequence "draw2" {
	"v_kronos5_anims\draw2"
	{ event 5004 8 "weapons/kronos5_boltpull.wav" }
	fps 30
}
$sequence "scan_activate" {
	"v_kronos5_anims\scan_activate"
	{ event 5004 1 "weapons/kronos5_scan_activate.wav" }
	fps 30
}
$sequence "zoom" {
	"v_kronos5_anims\zoom"
	{ event 5004 2 "weapons/kronos5_zoom.wav" }
	fps 30
}
$sequence "scan_deactivate" {
	"v_kronos5_anims\scan_deactivate"
	{ event 5004 12 "weapons/kronos5_scan_deacivate.wav" }
	fps 30
}
