// Created by Crowbar 0.49.0.0

$modelname "weapons/tfa_cso/w_block_missile.mdl"

$bodygroup "body"
{
	studio "block_missile"
}

$collisionmodel "block_missile.smd"
{
	$mass 9
}

$CDMaterials "models\weapons\tfa_cso\v2rocket\"

$sequence "idle" {
	"block_missile_anims\idle"
	fps 1
	loop
}
