version 1
nodes
  0 "Bone01" -1
end
skeleton
  time 0
    0 0.000000 0.000000 0.000000 -1.570796 0.000000 -1.570796
end
triangles
rpg7_rocket_p.bmp
  0 0.969997 9.440000 0.300000 0.866025 0.000000 0.500000 0.755906 0.519685
  0 0.719997 7.760000 0.750000 0.767209 0.000000 0.641397 0.574803 0.464567
  0 0.969997 7.760001 0.300000 0.938727 -0.011313 0.344476 0.574803 0.519685
rpg7_rocket_p.bmp
  0 0.969997 7.760001 0.300000 0.938727 -0.011313 0.344476 0.574803 0.519685
  0 0.719997 7.760000 0.750000 0.767209 0.000000 0.641397 0.574803 0.464567
  0 0.719998 6.660000 0.750000 0.749382 -0.030660 0.661427 0.456693 0.464567
rpg7_rocket_p.bmp
  0 0.719997 7.760000 0.750000 0.767209 0.000000 0.641397 0.574803 0.464567
  0 0.269997 7.760000 1.010000 0.171862 0.000000 0.985121 0.574803 0.409449
  0 0.719998 6.660000 0.750000 0.749382 -0.030660 0.661427 0.456693 0.464567
rpg7_rocket_p.bmp
  0 0.719998 6.660000 0.750000 0.749382 -0.030660 0.661427 0.456693 0.464567
  0 0.269997 7.760000 1.010000 0.171862 0.000000 0.985121 0.574803 0.409449
  0 0.269998 6.660000 1.010000 0.258819 0.000000 0.965926 0.456693 0.409449
rpg7_rocket_p.bmp
  0 0.269997 7.760000 1.010000 0.171862 0.000000 0.985121 0.574803 0.409449
  0 -0.240003 7.760000 1.010000 -0.171862 0.000000 0.985121 0.574803 0.354331
  0 0.269998 6.660000 1.010000 0.258819 0.000000 0.965926 0.456693 0.409449
rpg7_rocket_p.bmp
  0 0.269998 6.660000 1.010000 0.258819 0.000000 0.965926 0.456693 0.409449
  0 -0.240003 7.760000 1.010000 -0.171862 0.000000 0.985121 0.574803 0.354331
  0 -0.240002 6.660000 1.010000 -0.258819 0.000000 0.965926 0.456693 0.354331
rpg7_rocket_p.bmp
  0 -0.240003 7.760000 1.010000 -0.171862 0.000000 0.985121 0.574803 0.354331
  0 -0.680003 7.760000 0.750000 -0.767209 0.000000 0.641398 0.574803 0.299213
  0 -0.240002 6.660000 1.010000 -0.258819 0.000000 0.965926 0.456693 0.354331
rpg7_rocket_p.bmp
  0 -0.240002 6.660000 1.010000 -0.258819 0.000000 0.965926 0.456693 0.354331
  0 -0.680003 7.760000 0.750000 -0.767209 0.000000 0.641398 0.574803 0.299213
  0 -0.680002 6.660000 0.750000 -0.749383 -0.030660 0.661427 0.456693 0.299213
rpg7_rocket_p.bmp
  0 -0.680003 7.760000 0.750000 -0.767209 0.000000 0.641398 0.574803 0.299213
  0 -0.940003 7.760000 0.300000 -0.938727 -0.011313 0.344476 0.574803 0.244094
  0 -0.680002 6.660000 0.750000 -0.749383 -0.030660 0.661427 0.456693 0.299213
rpg7_rocket_p.bmp
  0 -0.680002 6.660000 0.750000 -0.749383 -0.030660 0.661427 0.456693 0.299213
  0 -0.940003 7.760000 0.300000 -0.938727 -0.011313 0.344476 0.574803 0.244094
  0 -0.940002 6.660000 0.040000 -0.997388 -0.072228 0.000000 0.456693 0.220472
rpg7_rocket_p.bmp
  0 -0.940003 7.760000 0.300000 -0.938727 -0.011313 0.344476 0.574803 0.244094
  0 -0.940002 7.760000 0.040000 -1.000000 0.000000 0.000000 0.574803 0.220472
  0 -0.940002 6.660000 0.040000 -0.997388 -0.072228 0.000000 0.456693 0.220472
rpg7_rocket_p.bmp
  0 -0.940002 6.660000 0.040000 -0.997388 -0.072228 0.000000 0.456693 0.220472
  0 -0.940002 7.760000 0.040000 -1.000000 0.000000 0.000000 0.574803 0.220472
  0 -0.940002 7.760000 -0.210000 -0.938727 -0.011313 -0.344476 0.574803 0.244094
rpg7_rocket_p.bmp
  0 0.599997 10.390001 0.630000 0.707107 0.000000 0.707107 0.984252 0.181102
  0 0.839997 8.660000 0.040000 1.000000 0.000000 0.000000 0.826772 0.244094
  0 0.839997 10.390001 0.040000 1.000000 0.000000 0.000000 0.984252 0.244094
rpg7_rocket_p.bmp
  0 0.839997 10.390001 0.040000 1.000000 0.000000 0.000000 0.984252 0.244094
  0 0.839997 8.660000 0.040000 1.000000 0.000000 0.000000 0.826772 0.244094
  0 0.599997 10.390001 -0.530000 0.707107 0.000000 -0.707107 0.984252 0.181102
rpg7_rocket_p.bmp
  0 0.839997 8.660000 0.040000 1.000000 0.000000 0.000000 0.826772 0.244094
  0 0.599997 8.660000 -0.530000 0.707107 0.000000 -0.707107 0.826772 0.181102
  0 0.599997 10.390001 -0.530000 0.707107 0.000000 -0.707107 0.984252 0.181102
rpg7_rocket_p.bmp
  0 0.599997 10.390001 -0.530000 0.707107 0.000000 -0.707107 0.984252 0.181102
  0 0.599997 8.660000 -0.530000 0.707107 0.000000 -0.707107 0.826772 0.181102
  0 0.009997 10.390000 -0.780000 0.000000 0.000000 -1.000000 0.984252 0.125984
rpg7_rocket_p.bmp
  0 0.599997 8.660000 -0.530000 0.707107 0.000000 -0.707107 0.826772 0.181102
  0 0.009998 8.660000 -0.780000 0.000000 0.000000 -1.000000 0.826772 0.125984
  0 0.009997 10.390000 -0.780000 0.000000 0.000000 -1.000000 0.984252 0.125984
rpg7_rocket_p.bmp
  0 0.009997 10.390000 -0.780000 0.000000 0.000000 -1.000000 0.984252 0.125984
  0 0.009998 8.660000 -0.780000 0.000000 0.000000 -1.000000 0.826772 0.125984
  0 -0.570003 10.390000 -0.530000 -0.707107 0.000000 -0.707107 0.984252 0.062992
rpg7_rocket_p.bmp
  0 0.009998 8.660000 -0.780000 0.000000 0.000000 -1.000000 0.826772 0.125984
  0 -0.570003 8.660000 -0.530000 -0.707107 0.000000 -0.707107 0.826772 0.062992
  0 -0.570003 10.390000 -0.530000 -0.707107 0.000000 -0.707107 0.984252 0.062992
rpg7_rocket_p.bmp
  0 -0.570003 10.390000 -0.530000 -0.707107 0.000000 -0.707107 0.984252 0.062992
  0 -0.570003 8.660000 -0.530000 -0.707107 0.000000 -0.707107 0.826772 0.062992
  0 -0.810003 10.390000 0.040000 -1.000000 0.000000 0.000000 0.984252 0.007874
rpg7_rocket_p.bmp
  0 -0.570003 8.660000 -0.530000 -0.707107 0.000000 -0.707107 0.826772 0.062992
  0 -0.810003 8.660000 0.040000 -1.000000 0.000000 0.000000 0.826772 0.007874
  0 -0.810003 10.390000 0.040000 -1.000000 0.000000 0.000000 0.984252 0.007874
rpg7_rocket_p.bmp
  0 -0.810003 10.390000 0.040000 -1.000000 0.000000 0.000000 0.984252 0.007874
  0 -0.810003 8.660000 0.040000 -1.000000 0.000000 0.000000 0.826772 0.007874
  0 -0.570003 8.660000 0.630000 -0.707107 0.000000 0.707107 0.826772 0.062992
rpg7_rocket_p.bmp
  0 0.429994 18.740000 0.460000 0.707107 0.000000 0.707107 0.811024 0.149606
  0 0.609997 10.350001 0.040000 1.000000 0.000000 0.000000 0.015748 0.196850
  0 0.609994 18.740000 0.040000 1.000000 0.000000 0.000000 0.811024 0.196850
rpg7_rocket_p.bmp
  0 0.609994 18.740000 0.040000 1.000000 0.000000 0.000000 0.811024 0.196850
  0 0.609997 10.350001 0.040000 1.000000 0.000000 0.000000 0.015748 0.196850
  0 0.429994 18.740000 -0.370000 0.707107 0.000000 -0.707107 0.811024 0.149606
rpg7_rocket_p.bmp
  0 0.609997 10.350001 0.040000 1.000000 0.000000 0.000000 0.015748 0.196850
  0 0.429997 10.350001 -0.370000 0.707107 0.000000 -0.707107 0.015748 0.149606
  0 0.429994 18.740000 -0.370000 0.707107 0.000000 -0.707107 0.811024 0.149606
rpg7_rocket_p.bmp
  0 0.429994 18.740000 -0.370000 0.707107 0.000000 -0.707107 0.811024 0.149606
  0 0.429997 10.350001 -0.370000 0.707107 0.000000 -0.707107 0.015748 0.149606
  0 0.009994 18.740000 -0.540000 0.000000 0.000000 -1.000000 0.811024 0.102362
rpg7_rocket_p.bmp
  0 0.429997 10.350001 -0.370000 0.707107 0.000000 -0.707107 0.015748 0.149606
  0 0.009997 10.350000 -0.540000 0.000000 0.000000 -1.000000 0.015748 0.102362
  0 0.009994 18.740000 -0.540000 0.000000 0.000000 -1.000000 0.811024 0.102362
rpg7_rocket_p.bmp
  0 0.009994 18.740000 -0.540000 0.000000 0.000000 -1.000000 0.811024 0.102362
  0 0.009997 10.350000 -0.540000 0.000000 0.000000 -1.000000 0.015748 0.102362
  0 -0.400006 18.740000 -0.370000 -0.707107 0.000000 -0.707107 0.811024 0.055118
rpg7_rocket_p.bmp
  0 0.009997 10.350000 -0.540000 0.000000 0.000000 -1.000000 0.015748 0.102362
  0 -0.400003 10.350000 -0.370000 -0.707107 0.000000 -0.707107 0.015748 0.055118
  0 -0.400006 18.740000 -0.370000 -0.707107 0.000000 -0.707107 0.811024 0.055118
rpg7_rocket_p.bmp
  0 -0.400006 18.740000 -0.370000 -0.707107 0.000000 -0.707107 0.811024 0.055118
  0 -0.400003 10.350000 -0.370000 -0.707107 0.000000 -0.707107 0.015748 0.055118
  0 -0.580006 18.740000 0.040000 -1.000000 0.000000 0.000000 0.811024 0.007874
rpg7_rocket_p.bmp
  0 -0.400003 10.350000 -0.370000 -0.707107 0.000000 -0.707107 0.015748 0.055118
  0 -0.580003 10.350000 0.040000 -1.000000 0.000000 0.000000 0.015748 0.007874
  0 -0.580006 18.740000 0.040000 -1.000000 0.000000 0.000000 0.811024 0.007874
rpg7_rocket_p.bmp
  0 -0.580006 18.740000 0.040000 -1.000000 0.000000 0.000000 0.811024 0.007874
  0 -0.580003 10.350000 0.040000 -1.000000 0.000000 0.000000 0.015748 0.007874
  0 -0.400003 10.350000 0.460000 -0.707107 0.000000 0.707107 0.015748 0.055118
rpg7_rocket_p.bmp
  0 0.969998 6.660000 0.040000 0.988548 0.150905 0.000000 0.393701 0.582677
  0 1.159999 2.640000 -1.100000 0.762330 0.076736 -0.642624 0.015748 0.535433
  0 0.719998 6.660000 -0.650000 0.758103 0.155492 -0.633326 0.393701 0.511811
rpg7_rocket_p.bmp
  0 0.719998 6.660000 -0.650000 0.758103 0.155492 -0.633326 0.393701 0.511811
  0 1.159999 2.640000 -1.100000 0.762330 0.076736 -0.642624 0.015748 0.535433
  0 0.269998 6.660000 -0.910000 0.255646 0.156101 -0.954085 0.393701 0.456693
rpg7_rocket_p.bmp
  0 1.159999 2.640000 -1.100000 0.762330 0.076736 -0.642624 0.015748 0.535433
  0 0.430000 2.640000 -1.520000 0.258044 0.077302 -0.963036 0.015748 0.464567
  0 0.269998 6.660000 -0.910000 0.255646 0.156101 -0.954085 0.393701 0.456693
rpg7_rocket_p.bmp
  0 0.269998 6.660000 -0.910000 0.255646 0.156101 -0.954085 0.393701 0.456693
  0 0.430000 2.640000 -1.520000 0.258044 0.077302 -0.963036 0.015748 0.464567
  0 -0.240002 6.660000 -0.910000 -0.255647 0.156101 -0.954084 0.393701 0.401575
rpg7_rocket_p.bmp
  0 0.430000 2.640000 -1.520000 0.258044 0.077302 -0.963036 0.015748 0.464567
  0 -0.400000 2.640000 -1.520000 -0.258045 0.077302 -0.963035 0.015748 0.393701
  0 -0.240002 6.660000 -0.910000 -0.255647 0.156101 -0.954084 0.393701 0.401575
rpg7_rocket_p.bmp
  0 -0.240002 6.660000 -0.910000 -0.255647 0.156101 -0.954084 0.393701 0.401575
  0 -0.400000 2.640000 -1.520000 -0.258045 0.077302 -0.963035 0.015748 0.393701
  0 -0.680002 6.660000 -0.650000 -0.758104 0.155492 -0.633325 0.393701 0.346457
rpg7_rocket_p.bmp
  0 -0.400000 2.640000 -1.520000 -0.258045 0.077302 -0.963035 0.015748 0.393701
  0 -1.130000 2.640000 -1.100000 -0.762330 0.076736 -0.642623 0.015748 0.322835
  0 -0.680002 6.660000 -0.650000 -0.758104 0.155492 -0.633325 0.393701 0.346457
rpg7_rocket_p.bmp
  0 -0.680002 6.660000 -0.650000 -0.758104 0.155492 -0.633325 0.393701 0.346457
  0 -1.130000 2.640000 -1.100000 -0.762330 0.076736 -0.642623 0.015748 0.322835
  0 -0.940002 6.660000 0.040000 -0.988548 0.150905 0.000000 0.393701 0.275591
rpg7_rocket_p.bmp
  0 -1.130000 2.640000 -1.100000 -0.762330 0.076736 -0.642623 0.015748 0.322835
  0 -1.560001 2.640000 0.040000 -0.997225 0.074450 0.000000 0.015748 0.220472
  0 -0.940002 6.660000 0.040000 -0.988548 0.150905 0.000000 0.393701 0.275591
rpg7_rocket_p.bmp
  0 -0.940002 6.660000 0.040000 -0.988548 0.150905 0.000000 0.393701 0.275591
  0 -1.560001 2.640000 0.040000 -0.997225 0.074450 0.000000 0.015748 0.220472
  0 -1.130001 2.640000 1.200000 -0.762330 0.076736 0.642623 0.015748 0.322835
rpg7_rocket_p.bmp
  0 1.589999 2.640001 0.040000 0.997225 0.074449 0.000000 0.740157 0.976378
  0 1.160000 0.370000 -1.100000 0.767209 0.000000 -0.641398 0.543307 0.874016
  0 1.159999 2.640000 -1.100000 0.762330 0.076736 -0.642624 0.740157 0.874016
rpg7_rocket_p.bmp
  0 1.159999 2.640000 -1.100000 0.762330 0.076736 -0.642624 0.740157 0.874016
  0 1.160000 0.370000 -1.100000 0.767209 0.000000 -0.641398 0.543307 0.874016
  0 0.430000 2.640000 -1.520000 0.258044 0.077302 -0.963036 0.740157 0.803150
rpg7_rocket_p.bmp
  0 1.160000 0.370000 -1.100000 0.767209 0.000000 -0.641398 0.543307 0.874016
  0 0.430000 0.370000 -1.520000 0.258819 -0.000001 -0.965926 0.543307 0.803150
  0 0.430000 2.640000 -1.520000 0.258044 0.077302 -0.963036 0.740157 0.803150
rpg7_rocket_p.bmp
  0 0.430000 2.640000 -1.520000 0.258044 0.077302 -0.963036 0.740157 0.803150
  0 0.430000 0.370000 -1.520000 0.258819 -0.000001 -0.965926 0.543307 0.803150
  0 -0.400000 2.640000 -1.520000 -0.258045 0.077302 -0.963035 0.740157 0.732283
rpg7_rocket_p.bmp
  0 0.430000 0.370000 -1.520000 0.258819 -0.000001 -0.965926 0.543307 0.803150
  0 -0.400000 0.370000 -1.520000 -0.258819 -0.000001 -0.965926 0.543307 0.732283
  0 -0.400000 2.640000 -1.520000 -0.258045 0.077302 -0.963035 0.740157 0.732283
rpg7_rocket_p.bmp
  0 -0.400000 2.640000 -1.520000 -0.258045 0.077302 -0.963035 0.740157 0.732283
  0 -0.400000 0.370000 -1.520000 -0.258819 -0.000001 -0.965926 0.543307 0.732283
  0 -1.130000 2.640000 -1.100000 -0.762330 0.076736 -0.642623 0.740157 0.661417
rpg7_rocket_p.bmp
  0 -0.400000 0.370000 -1.520000 -0.258819 -0.000001 -0.965926 0.543307 0.732283
  0 -1.130000 0.370000 -1.100000 -0.767209 0.000000 -0.641397 0.543307 0.661417
  0 -1.130000 2.640000 -1.100000 -0.762330 0.076736 -0.642623 0.740157 0.661417
rpg7_rocket_p.bmp
  0 -1.130000 2.640000 -1.100000 -0.762330 0.076736 -0.642623 0.740157 0.661417
  0 -1.130000 0.370000 -1.100000 -0.767209 0.000000 -0.641397 0.543307 0.661417
  0 -1.560001 2.640000 0.040000 -0.997225 0.074450 0.000000 0.740157 0.551181
rpg7_rocket_p.bmp
  0 -1.130000 0.370000 -1.100000 -0.767209 0.000000 -0.641397 0.543307 0.661417
  0 -1.560000 0.370000 0.040000 -1.000000 0.000000 0.000000 0.543307 0.551181
  0 -1.560001 2.640000 0.040000 -0.997225 0.074450 0.000000 0.740157 0.551181
rpg7_rocket_p.bmp
  0 -1.560001 2.640000 0.040000 -0.997225 0.074450 0.000000 0.740157 0.551181
  0 -1.560000 0.370000 0.040000 -1.000000 0.000000 0.000000 0.543307 0.551181
  0 -1.130000 0.370000 1.200000 -0.767209 0.000000 0.641398 0.543307 0.661417
rpg7_rocket_p.bmp
  0 0.969998 7.760001 -0.210000 0.938727 -0.011313 -0.344476 0.574803 0.519685
  0 0.719998 6.660000 -0.650000 0.749382 -0.030661 -0.661427 0.456693 0.464567
  0 0.719998 7.760000 -0.650000 0.767209 0.000000 -0.641398 0.574803 0.464567
rpg7_rocket_p.bmp
  0 0.719998 7.760000 -0.650000 0.767209 0.000000 -0.641398 0.574803 0.464567
  0 0.719998 6.660000 -0.650000 0.749382 -0.030661 -0.661427 0.456693 0.464567
  0 0.269998 7.760000 -0.910000 0.171862 0.000000 -0.985121 0.574803 0.409449
rpg7_rocket_p.bmp
  0 0.719998 6.660000 -0.650000 0.749382 -0.030661 -0.661427 0.456693 0.464567
  0 0.269998 6.660000 -0.910000 0.258819 -0.000001 -0.965926 0.456693 0.409449
  0 0.269998 7.760000 -0.910000 0.171862 0.000000 -0.985121 0.574803 0.409449
rpg7_rocket_p.bmp
  0 0.269998 7.760000 -0.910000 0.171862 0.000000 -0.985121 0.574803 0.409449
  0 0.269998 6.660000 -0.910000 0.258819 -0.000001 -0.965926 0.456693 0.409449
  0 -0.240002 7.760000 -0.910000 -0.171862 0.000000 -0.985121 0.574803 0.354331
rpg7_rocket_p.bmp
  0 0.269998 6.660000 -0.910000 0.258819 -0.000001 -0.965926 0.456693 0.409449
  0 -0.240002 6.660000 -0.910000 -0.258819 -0.000001 -0.965926 0.456693 0.354331
  0 -0.240002 7.760000 -0.910000 -0.171862 0.000000 -0.985121 0.574803 0.354331
rpg7_rocket_p.bmp
  0 -0.240002 7.760000 -0.910000 -0.171862 0.000000 -0.985121 0.574803 0.354331
  0 -0.240002 6.660000 -0.910000 -0.258819 -0.000001 -0.965926 0.456693 0.354331
  0 -0.680002 7.760000 -0.650000 -0.767209 0.000000 -0.641397 0.574803 0.299213
rpg7_rocket_p.bmp
  0 -0.240002 6.660000 -0.910000 -0.258819 -0.000001 -0.965926 0.456693 0.354331
  0 -0.680002 6.660000 -0.650000 -0.749383 -0.030660 -0.661426 0.456693 0.299213
  0 -0.680002 7.760000 -0.650000 -0.767209 0.000000 -0.641397 0.574803 0.299213
rpg7_rocket_p.bmp
  0 -0.680002 7.760000 -0.650000 -0.767209 0.000000 -0.641397 0.574803 0.299213
  0 -0.680002 6.660000 -0.650000 -0.749383 -0.030660 -0.661426 0.456693 0.299213
  0 -0.940002 7.760000 -0.210000 -0.938727 -0.011313 -0.344476 0.574803 0.244094
rpg7_rocket_p.bmp
  0 -0.680002 6.660000 -0.650000 -0.749383 -0.030660 -0.661426 0.456693 0.299213
  0 -0.940002 6.660000 0.040000 -0.997388 -0.072228 0.000000 0.456693 0.220472
  0 -0.940002 7.760000 -0.210000 -0.938727 -0.011313 -0.344476 0.574803 0.244094
rpg7_rocket_p.bmp
  0 0.210001 -5.180000 0.390000 0.500000 0.000000 0.866025 0.976378 0.543307
  0 0.410002 -7.190000 0.040000 1.000000 0.000000 0.000000 0.795276 0.582677
  0 0.410002 -5.180000 0.040000 1.000000 0.000000 0.000000 0.976378 0.582677
rpg7_rocket_p.bmp
  0 0.410002 -5.180000 0.040000 1.000000 0.000000 0.000000 0.976378 0.582677
  0 0.410002 -7.190000 0.040000 1.000000 0.000000 0.000000 0.795276 0.582677
  0 0.210002 -5.180000 -0.300000 0.500000 0.000000 -0.866026 0.976378 0.543307
rpg7_rocket_p.bmp
  0 0.410002 -7.190000 0.040000 1.000000 0.000000 0.000000 0.795276 0.582677
  0 0.210002 -7.190000 -0.300000 0.500000 0.000000 -0.866026 0.795276 0.543307
  0 0.210002 -5.180000 -0.300000 0.500000 0.000000 -0.866026 0.976378 0.543307
rpg7_rocket_p.bmp
  0 0.210002 -5.180000 -0.300000 0.500000 0.000000 -0.866026 0.976378 0.543307
  0 0.210002 -7.190000 -0.300000 0.500000 0.000000 -0.866026 0.795276 0.543307
  0 -0.179998 -5.180000 -0.300000 -0.500000 0.000000 -0.866025 0.976378 0.503937
rpg7_rocket_p.bmp
  0 0.210002 -7.190000 -0.300000 0.500000 0.000000 -0.866026 0.795276 0.543307
  0 -0.179998 -7.190000 -0.300000 -0.500000 0.000000 -0.866025 0.795276 0.503937
  0 -0.179998 -5.180000 -0.300000 -0.500000 0.000000 -0.866025 0.976378 0.503937
rpg7_rocket_p.bmp
  0 -0.179998 -5.180000 -0.300000 -0.500000 0.000000 -0.866025 0.976378 0.503937
  0 -0.179998 -7.190000 -0.300000 -0.500000 0.000000 -0.866025 0.795276 0.503937
  0 -0.379998 -5.180000 0.040000 -1.000000 0.000000 0.000000 0.976378 0.464567
rpg7_rocket_p.bmp
  0 -0.179998 -7.190000 -0.300000 -0.500000 0.000000 -0.866025 0.795276 0.503937
  0 -0.379998 -7.190000 0.040000 -1.000000 0.000000 0.000000 0.795276 0.464567
  0 -0.379998 -5.180000 0.040000 -1.000000 0.000000 0.000000 0.976378 0.464567
rpg7_rocket_p.bmp
  0 -0.379998 -5.180000 0.040000 -1.000000 0.000000 0.000000 0.976378 0.464567
  0 -0.379998 -7.190000 0.040000 -1.000000 0.000000 0.000000 0.795276 0.464567
  0 -0.179998 -7.190000 0.390000 -0.500000 0.000000 0.866026 0.795276 0.503937
rpg7_rocket_p.bmp
  0 -0.240003 9.440000 -0.910000 0.000000 1.000000 0.000000 0.763780 0.637795
  0 -0.680003 9.439999 -0.650000 0.000000 1.000000 0.000000 0.779528 0.614173
  0 0.269997 9.440000 -0.910000 0.000000 1.000000 0.000000 0.763780 0.661417
rpg7_rocket_p.bmp
  0 0.269997 9.440000 -0.910000 0.000000 1.000000 0.000000 0.763780 0.661417
  0 -0.680003 9.439999 -0.650000 0.000000 1.000000 0.000000 0.779528 0.614173
  0 0.719997 9.440000 -0.650000 0.000000 1.000000 0.000000 0.779528 0.677165
rpg7_rocket_p.bmp
  0 -0.680003 9.439999 -0.650000 0.000000 1.000000 0.000000 0.779528 0.614173
  0 -0.940003 9.439999 0.300000 0.000000 1.000000 0.000000 0.826772 0.606299
  0 0.719997 9.440000 -0.650000 0.000000 1.000000 0.000000 0.779528 0.677165
rpg7_rocket_p.bmp
  0 0.719997 9.440000 -0.650000 0.000000 1.000000 0.000000 0.779528 0.677165
  0 -0.940003 9.439999 0.300000 0.000000 1.000000 0.000000 0.826772 0.606299
  0 0.969997 9.440000 -0.210000 0.000000 1.000000 0.000000 0.803150 0.692913
rpg7_rocket_p.bmp
  0 -0.940003 9.439999 0.300000 0.000000 1.000000 0.000000 0.826772 0.606299
  0 -0.680003 9.439999 0.750000 0.000000 1.000000 0.000000 0.842520 0.614173
  0 0.969997 9.440000 -0.210000 0.000000 1.000000 0.000000 0.803150 0.692913
rpg7_rocket_p.bmp
  0 0.969997 9.440000 -0.210000 0.000000 1.000000 0.000000 0.803150 0.692913
  0 -0.680003 9.439999 0.750000 0.000000 1.000000 0.000000 0.842520 0.614173
  0 0.269997 9.440000 1.010000 0.000000 1.000000 0.000000 0.858268 0.661417
rpg7_rocket_p.bmp
  0 -0.680003 9.439999 0.750000 0.000000 1.000000 0.000000 0.842520 0.614173
  0 -0.240003 9.440000 1.010000 0.000000 1.000000 0.000000 0.858268 0.637795
  0 0.269997 9.440000 1.010000 0.000000 1.000000 0.000000 0.858268 0.661417
rpg7_rocket_p.bmp
  0 0.719998 6.660000 0.750000 0.758104 0.155492 0.633325 0.393701 0.511811
  0 0.269998 6.660000 1.010000 0.255646 0.156101 0.954085 0.393701 0.456693
  0 1.159999 2.640000 1.200000 0.762330 0.076736 0.642623 0.015748 0.535433
rpg7_rocket_p.bmp
  0 1.159999 2.640000 1.200000 0.762330 0.076736 0.642623 0.015748 0.535433
  0 0.269998 6.660000 1.010000 0.255646 0.156101 0.954085 0.393701 0.456693
  0 0.429999 2.640000 1.620000 0.258045 0.077303 0.963035 0.015748 0.464567
rpg7_rocket_p.bmp
  0 0.269998 6.660000 1.010000 0.255646 0.156101 0.954085 0.393701 0.456693
  0 -0.240002 6.660000 1.010000 -0.255646 0.156101 0.954085 0.393701 0.401575
  0 0.429999 2.640000 1.620000 0.258045 0.077303 0.963035 0.015748 0.464567
rpg7_rocket_p.bmp
  0 0.429999 2.640000 1.620000 0.258045 0.077303 0.963035 0.015748 0.464567
  0 -0.240002 6.660000 1.010000 -0.255646 0.156101 0.954085 0.393701 0.401575
  0 -0.400001 2.640000 1.620000 -0.258045 0.077303 0.963035 0.015748 0.393701
rpg7_rocket_p.bmp
  0 -0.240002 6.660000 1.010000 -0.255646 0.156101 0.954085 0.393701 0.401575
  0 -0.680002 6.660000 0.750000 -0.758104 0.155492 0.633326 0.393701 0.346457
  0 -0.400001 2.640000 1.620000 -0.258045 0.077303 0.963035 0.015748 0.393701
rpg7_rocket_p.bmp
  0 -0.400001 2.640000 1.620000 -0.258045 0.077303 0.963035 0.015748 0.393701
  0 -0.680002 6.660000 0.750000 -0.758104 0.155492 0.633326 0.393701 0.346457
  0 -1.130001 2.640000 1.200000 -0.762330 0.076736 0.642623 0.015748 0.322835
rpg7_rocket_p.bmp
  0 -0.680002 6.660000 0.750000 -0.758104 0.155492 0.633326 0.393701 0.346457
  0 -0.940002 6.660000 0.040000 -0.988548 0.150905 0.000000 0.393701 0.275591
  0 -1.130001 2.640000 1.200000 -0.762330 0.076736 0.642623 0.015748 0.322835
rpg7_rocket_p.bmp
  0 1.159999 2.640000 1.200000 0.762330 0.076736 0.642623 0.740157 0.874016
  0 0.429999 2.640000 1.620000 0.258045 0.077303 0.963035 0.740157 0.803150
  0 1.159999 0.370000 1.200000 0.767209 0.000000 0.641397 0.543307 0.874016
rpg7_rocket_p.bmp
  0 1.159999 0.370000 1.200000 0.767209 0.000000 0.641397 0.543307 0.874016
  0 0.429999 2.640000 1.620000 0.258045 0.077303 0.963035 0.740157 0.803150
  0 0.429999 0.370000 1.620000 0.258819 0.000000 0.965926 0.543307 0.803150
rpg7_rocket_p.bmp
  0 0.429999 2.640000 1.620000 0.258045 0.077303 0.963035 0.740157 0.803150
  0 -0.400001 2.640000 1.620000 -0.258045 0.077303 0.963035 0.740157 0.732283
  0 0.429999 0.370000 1.620000 0.258819 0.000000 0.965926 0.543307 0.803150
rpg7_rocket_p.bmp
  0 0.429999 0.370000 1.620000 0.258819 0.000000 0.965926 0.543307 0.803150
  0 -0.400001 2.640000 1.620000 -0.258045 0.077303 0.963035 0.740157 0.732283
  0 -0.400001 0.370000 1.620000 -0.258819 0.000000 0.965926 0.543307 0.732283
rpg7_rocket_p.bmp
  0 -0.400001 2.640000 1.620000 -0.258045 0.077303 0.963035 0.740157 0.732283
  0 -1.130001 2.640000 1.200000 -0.762330 0.076736 0.642623 0.740157 0.661417
  0 -0.400001 0.370000 1.620000 -0.258819 0.000000 0.965926 0.543307 0.732283
rpg7_rocket_p.bmp
  0 -0.400001 0.370000 1.620000 -0.258819 0.000000 0.965926 0.543307 0.732283
  0 -1.130001 2.640000 1.200000 -0.762330 0.076736 0.642623 0.740157 0.661417
  0 -1.130000 0.370000 1.200000 -0.767209 0.000000 0.641398 0.543307 0.661417
rpg7_rocket_p.bmp
  0 -1.130001 2.640000 1.200000 -0.762330 0.076736 0.642623 0.740157 0.661417
  0 -1.560001 2.640000 0.040000 -0.997225 0.074450 0.000000 0.740157 0.551181
  0 -1.130000 0.370000 1.200000 -0.767209 0.000000 0.641398 0.543307 0.661417
rpg7_rocket_p.bmp
  0 0.599997 10.390001 0.630000 0.707107 0.000000 0.707107 0.984252 0.181102
  0 0.009996 10.390000 0.870000 0.000000 0.000000 1.000000 0.984252 0.125984
  0 0.599997 8.660000 0.630000 0.707107 0.000000 0.707107 0.826772 0.181102
rpg7_rocket_p.bmp
  0 0.599997 8.660000 0.630000 0.707107 0.000000 0.707107 0.826772 0.181102
  0 0.009996 10.390000 0.870000 0.000000 0.000000 1.000000 0.984252 0.125984
  0 0.009997 8.660000 0.870000 0.000000 0.000000 1.000000 0.826772 0.125984
rpg7_rocket_p.bmp
  0 0.009996 10.390000 0.870000 0.000000 0.000000 1.000000 0.984252 0.125984
  0 -0.570003 10.390000 0.630000 -0.707107 0.000000 0.707107 0.984252 0.062992
  0 0.009997 8.660000 0.870000 0.000000 0.000000 1.000000 0.826772 0.125984
rpg7_rocket_p.bmp
  0 0.009997 8.660000 0.870000 0.000000 0.000000 1.000000 0.826772 0.125984
  0 -0.570003 10.390000 0.630000 -0.707107 0.000000 0.707107 0.984252 0.062992
  0 -0.570003 8.660000 0.630000 -0.707107 0.000000 0.707107 0.826772 0.062992
rpg7_rocket_p.bmp
  0 -0.570003 10.390000 0.630000 -0.707107 0.000000 0.707107 0.984252 0.062992
  0 -0.810003 10.390000 0.040000 -1.000000 0.000000 0.000000 0.984252 0.007874
  0 -0.570003 8.660000 0.630000 -0.707107 0.000000 0.707107 0.826772 0.062992
rpg7_rocket_p.bmp
  0 0.429994 18.740000 0.460000 0.707107 0.000000 0.707107 0.811024 0.149606
  0 0.009994 18.740000 0.640000 0.000000 0.000000 1.000000 0.811024 0.102362
  0 0.429997 10.350001 0.460000 0.707107 0.000000 0.707107 0.015748 0.149606
rpg7_rocket_p.bmp
  0 0.429997 10.350001 0.460000 0.707107 0.000000 0.707107 0.015748 0.149606
  0 0.009994 18.740000 0.640000 0.000000 0.000000 1.000000 0.811024 0.102362
  0 0.009997 10.350000 0.640000 0.000000 0.000000 1.000000 0.015748 0.102362
rpg7_rocket_p.bmp
  0 0.009994 18.740000 0.640000 0.000000 0.000000 1.000000 0.811024 0.102362
  0 -0.400006 18.740000 0.460000 -0.707107 0.000000 0.707107 0.811024 0.055118
  0 0.009997 10.350000 0.640000 0.000000 0.000000 1.000000 0.015748 0.102362
rpg7_rocket_p.bmp
  0 0.009997 10.350000 0.640000 0.000000 0.000000 1.000000 0.015748 0.102362
  0 -0.400006 18.740000 0.460000 -0.707107 0.000000 0.707107 0.811024 0.055118
  0 -0.400003 10.350000 0.460000 -0.707107 0.000000 0.707107 0.015748 0.055118
rpg7_rocket_p.bmp
  0 -0.400006 18.740000 0.460000 -0.707107 0.000000 0.707107 0.811024 0.055118
  0 -0.580006 18.740000 0.040000 -1.000000 0.000000 0.000000 0.811024 0.007874
  0 -0.400003 10.350000 0.460000 -0.707107 0.000000 0.707107 0.015748 0.055118
rpg7_rocket_p.bmp
  0 1.160000 0.370000 -1.100000 0.745516 -0.213131 -0.631491 0.543307 0.874016
  0 0.210002 -5.180000 -0.300000 0.484747 -0.245112 -0.839607 0.023622 0.787402
  0 0.430000 0.370000 -1.520000 0.249884 -0.218313 -0.943344 0.543307 0.803150
rpg7_rocket_p.bmp
  0 0.430000 0.370000 -1.520000 0.249884 -0.218313 -0.943344 0.543307 0.803150
  0 0.210002 -5.180000 -0.300000 0.484747 -0.245112 -0.839607 0.023622 0.787402
  0 -0.400000 0.370000 -1.520000 -0.249884 -0.218313 -0.943344 0.543307 0.732283
rpg7_rocket_p.bmp
  0 0.210002 -5.180000 -0.300000 0.484747 -0.245112 -0.839607 0.023622 0.787402
  0 -0.179998 -5.180000 -0.300000 -0.497404 -0.229363 -0.836649 0.023622 0.748031
  0 -0.400000 0.370000 -1.520000 -0.249884 -0.218313 -0.943344 0.543307 0.732283
rpg7_rocket_p.bmp
  0 -0.400000 0.370000 -1.520000 -0.249884 -0.218313 -0.943344 0.543307 0.732283
  0 -0.179998 -5.180000 -0.300000 -0.497404 -0.229363 -0.836649 0.023622 0.748031
  0 -1.130000 0.370000 -1.100000 -0.746799 -0.218988 -0.627961 0.543307 0.661417
rpg7_rocket_p.bmp
  0 -0.179998 -5.180000 -0.300000 -0.497404 -0.229363 -0.836649 0.023622 0.748031
  0 -1.560000 0.370000 0.040000 -0.975851 -0.218439 0.000000 0.543307 0.551181
  0 -1.130000 0.370000 -1.100000 -0.746799 -0.218988 -0.627961 0.543307 0.661417
rpg7_rocket_p.bmp
  0 -0.400001 0.370000 1.620000 -0.249884 -0.218313 0.943344 0.543307 0.732283
  0 0.210001 -5.180000 0.390000 0.484747 -0.245111 0.839607 0.023622 0.787402
  0 0.429999 0.370000 1.620000 0.249884 -0.218313 0.943344 0.543307 0.803150
rpg7_rocket_p.bmp
  0 0.429999 0.370000 1.620000 0.249884 -0.218313 0.943344 0.543307 0.803150
  0 0.210001 -5.180000 0.390000 0.484747 -0.245111 0.839607 0.023622 0.787402
  0 1.159999 0.370000 1.200000 0.745516 -0.213130 0.631491 0.543307 0.874016
rpg7_rocket_p.bmp
  0 0.210001 -5.180000 0.390000 0.484747 -0.245111 0.839607 0.023622 0.787402
  0 0.410002 -5.180000 0.040000 0.970376 -0.241599 0.000000 0.023622 0.826772
  0 1.159999 0.370000 1.200000 0.745516 -0.213130 0.631491 0.543307 0.874016
rpg7_rocket_p.bmp
  0 1.159999 0.370000 1.200000 0.745516 -0.213130 0.631491 0.543307 0.874016
  0 0.410002 -5.180000 0.040000 0.970376 -0.241599 0.000000 0.023622 0.826772
  0 1.590000 0.370001 0.040000 0.978417 -0.206640 0.000000 0.543307 0.976378
rpg7_rocket_p.bmp
  0 0.410002 -5.180000 0.040000 0.970376 -0.241599 0.000000 0.023622 0.826772
  0 1.160000 0.370000 -1.100000 0.745516 -0.213131 -0.631491 0.543307 0.874016
  0 1.590000 0.370001 0.040000 0.978417 -0.206640 0.000000 0.543307 0.976378
rpg7_rocket_p.bmp
  0 0.599997 10.390001 -0.530000 0.000000 1.000000 0.000000 0.826772 0.291339
  0 -0.810003 10.390000 0.040000 0.000000 1.000000 0.000000 0.976378 0.346457
  0 0.839997 10.390001 0.040000 0.000000 1.000000 0.000000 0.803150 0.346457
rpg7_rocket_p.bmp
  0 0.839997 10.390001 0.040000 0.000000 1.000000 0.000000 0.803150 0.346457
  0 -0.810003 10.390000 0.040000 0.000000 1.000000 0.000000 0.976378 0.346457
  0 0.599997 10.390001 0.630000 0.000000 1.000000 0.000000 0.826772 0.291339
rpg7_rocket_p.bmp
  0 -0.810003 10.390000 0.040000 0.000000 1.000000 0.000000 0.976378 0.346457
  0 -0.570003 10.390000 0.630000 0.000000 1.000000 0.000000 0.952756 0.291339
  0 0.599997 10.390001 0.630000 0.000000 1.000000 0.000000 0.826772 0.291339
rpg7_rocket_p.bmp
  0 0.599997 10.390001 0.630000 0.000000 1.000000 0.000000 0.826772 0.291339
  0 -0.570003 10.390000 0.630000 0.000000 1.000000 0.000000 0.952756 0.291339
  0 0.009996 10.390000 0.870000 0.000000 1.000000 0.000000 0.889764 0.259843
rpg7_rocket_p.bmp
  0 0.429994 18.740000 -0.370000 0.000000 1.000000 0.000000 0.834646 0.425197
  0 -0.580006 18.740000 0.040000 0.000000 1.000000 0.000000 0.976378 0.362205
  0 0.609994 18.740000 0.040000 0.000000 1.000000 0.000000 0.811024 0.362205
rpg7_rocket_p.bmp
  0 0.609994 18.740000 0.040000 0.000000 1.000000 0.000000 0.811024 0.362205
  0 -0.580006 18.740000 0.040000 0.000000 1.000000 0.000000 0.976378 0.362205
  0 0.429994 18.740000 0.460000 0.000000 1.000000 0.000000 0.834646 0.425197
rpg7_rocket_p.bmp
  0 -0.580006 18.740000 0.040000 0.000000 1.000000 0.000000 0.976378 0.362205
  0 -0.400006 18.740000 0.460000 0.000000 1.000000 0.000000 0.952756 0.425197
  0 0.429994 18.740000 0.460000 0.000000 1.000000 0.000000 0.834646 0.425197
rpg7_rocket_p.bmp
  0 0.429994 18.740000 0.460000 0.000000 1.000000 0.000000 0.834646 0.425197
  0 -0.400006 18.740000 0.460000 0.000000 1.000000 0.000000 0.952756 0.425197
  0 0.009994 18.740000 0.640000 0.000000 1.000000 0.000000 0.889764 0.448819
rpg7_rocket_p.bmp
  0 -0.179999 -5.180000 0.390000 -0.497404 -0.229362 0.836650 0.023622 0.748031
  0 -1.560000 0.370000 0.040000 -0.975851 -0.218439 0.000000 0.543307 0.551181
  0 -0.379998 -5.180000 0.040000 -0.975851 -0.218439 0.000000 0.023622 0.708661
rpg7_rocket_p.bmp
  0 -0.179999 -5.180000 0.390000 -0.497404 -0.229362 0.836650 0.023622 0.748031
  0 -1.130000 0.370000 1.200000 -0.746799 -0.218988 0.627962 0.543307 0.661417
  0 -1.560000 0.370000 0.040000 -0.975851 -0.218439 0.000000 0.543307 0.551181
rpg7_rocket_p.bmp
  0 -0.179999 -5.180000 0.390000 -0.497404 -0.229362 0.836650 0.023622 0.748031
  0 -0.400001 0.370000 1.620000 -0.249884 -0.218313 0.943344 0.543307 0.732283
  0 -1.130000 0.370000 1.200000 -0.746799 -0.218988 0.627962 0.543307 0.661417
rpg7_rocket_p.bmp
  0 -0.179999 -5.180000 0.390000 -0.497404 -0.229362 0.836650 0.023622 0.748031
  0 0.210001 -5.180000 0.390000 0.484747 -0.245111 0.839607 0.023622 0.787402
  0 -0.400001 0.370000 1.620000 -0.249884 -0.218313 0.943344 0.543307 0.732283
rpg7_rocket_p.bmp
  0 0.969998 6.660000 0.040000 0.997388 -0.072229 0.000000 0.456693 0.543307
  0 0.969997 7.760001 0.300000 0.938727 -0.011313 0.344476 0.574803 0.519685
  0 0.719998 6.660000 0.750000 0.749382 -0.030660 0.661427 0.456693 0.464567
rpg7_rocket_p.bmp
  0 0.969998 6.660000 0.040000 0.997388 -0.072229 0.000000 0.456693 0.543307
  0 0.969998 7.760001 0.040000 1.000000 0.000000 0.000000 0.574803 0.543307
  0 0.969997 7.760001 0.300000 0.938727 -0.011313 0.344476 0.574803 0.519685
rpg7_rocket_p.bmp
  0 0.969998 6.660000 0.040000 0.997388 -0.072229 0.000000 0.456693 0.543307
  0 0.969998 7.760001 -0.210000 0.938727 -0.011313 -0.344476 0.574803 0.519685
  0 0.969998 7.760001 0.040000 1.000000 0.000000 0.000000 0.574803 0.543307
rpg7_rocket_p.bmp
  0 0.969998 6.660000 0.040000 0.997388 -0.072229 0.000000 0.456693 0.543307
  0 0.719998 6.660000 -0.650000 0.749382 -0.030661 -0.661427 0.456693 0.464567
  0 0.969998 7.760001 -0.210000 0.938727 -0.011313 -0.344476 0.574803 0.519685
rpg7_rocket_p.bmp
  0 0.210002 -7.190000 0.390000 0.000000 -1.000000 0.000000 0.874016 0.677165
  0 -0.179998 -7.190000 0.390000 0.000000 -1.000000 0.000000 0.874016 0.622047
  0 0.410002 -7.190000 0.040000 0.000000 -1.000000 0.000000 0.921260 0.708661
rpg7_rocket_p.bmp
  0 0.410002 -7.190000 0.040000 0.000000 -1.000000 0.000000 0.921260 0.708661
  0 -0.179998 -7.190000 0.390000 0.000000 -1.000000 0.000000 0.874016 0.622047
  0 -0.179998 -7.190000 -0.300000 0.000000 -1.000000 0.000000 0.968504 0.622047
rpg7_rocket_p.bmp
  0 -0.179998 -7.190000 0.390000 0.000000 -1.000000 0.000000 0.874016 0.622047
  0 -0.379998 -7.190000 0.040000 0.000000 -1.000000 0.000000 0.921260 0.598425
  0 -0.179998 -7.190000 -0.300000 0.000000 -1.000000 0.000000 0.968504 0.622047
rpg7_rocket_p.bmp
  0 -0.179998 -7.190000 0.390000 -0.500000 0.000000 0.866026 0.795276 0.503937
  0 0.210002 -7.190000 0.390000 0.500000 0.000000 0.866025 0.795276 0.543307
  0 -0.179999 -5.180000 0.390000 -0.500000 0.000000 0.866026 0.976378 0.503937
rpg7_rocket_p.bmp
  0 -0.179999 -5.180000 0.390000 -0.500000 0.000000 0.866026 0.976378 0.503937
  0 0.210002 -7.190000 0.390000 0.500000 0.000000 0.866025 0.795276 0.543307
  0 0.210001 -5.180000 0.390000 0.500000 0.000000 0.866025 0.976378 0.543307
rpg7_rocket_p.bmp
  0 0.210002 -7.190000 0.390000 0.500000 0.000000 0.866025 0.795276 0.543307
  0 0.410002 -7.190000 0.040000 1.000000 0.000000 0.000000 0.795276 0.582677
  0 0.210001 -5.180000 0.390000 0.500000 0.000000 0.866025 0.976378 0.543307
rpg7_rocket_p.bmp
  0 1.159999 2.640000 -1.100000 0.762330 0.076736 -0.642624 0.015748 0.535433
  0 0.969998 6.660000 0.040000 0.988548 0.150905 0.000000 0.393701 0.582677
  0 1.589999 2.640001 0.040000 0.997225 0.074449 0.000000 0.015748 0.637795
rpg7_rocket_p.bmp
  0 1.589999 2.640001 0.040000 0.997225 0.074449 0.000000 0.015748 0.637795
  0 0.969998 6.660000 0.040000 0.988548 0.150905 0.000000 0.393701 0.582677
  0 1.159999 2.640000 1.200000 0.762330 0.076736 0.642623 0.015748 0.535433
rpg7_rocket_p.bmp
  0 0.969998 6.660000 0.040000 0.988548 0.150905 0.000000 0.393701 0.582677
  0 0.719998 6.660000 0.750000 0.758104 0.155492 0.633325 0.393701 0.511811
  0 1.159999 2.640000 1.200000 0.762330 0.076736 0.642623 0.015748 0.535433
rpg7_rocket_p.bmp
  0 1.160000 0.370000 -1.100000 0.767209 0.000000 -0.641398 0.543307 0.874016
  0 1.589999 2.640001 0.040000 0.997225 0.074449 0.000000 0.740157 0.976378
  0 1.590000 0.370001 0.040000 1.000000 0.000000 0.000000 0.543307 0.976378
rpg7_rocket_p.bmp
  0 1.590000 0.370001 0.040000 1.000000 0.000000 0.000000 0.543307 0.976378
  0 1.589999 2.640001 0.040000 0.997225 0.074449 0.000000 0.740157 0.976378
  0 1.159999 0.370000 1.200000 0.767209 0.000000 0.641397 0.543307 0.874016
rpg7_rocket_p.bmp
  0 1.589999 2.640001 0.040000 0.997225 0.074449 0.000000 0.740157 0.976378
  0 1.159999 2.640000 1.200000 0.762330 0.076736 0.642623 0.740157 0.874016
  0 1.159999 0.370000 1.200000 0.767209 0.000000 0.641397 0.543307 0.874016
rpg7_rocket_p.bmp
  0 0.269998 7.760000 -0.910000 0.171862 0.000000 -0.985121 0.574803 0.409449
  0 -0.240002 7.760000 -0.910000 -0.171862 0.000000 -0.985121 0.574803 0.354331
  0 0.269997 9.440000 -0.910000 0.000000 0.000000 -1.000000 0.755906 0.409449
rpg7_rocket_p.bmp
  0 0.269997 9.440000 -0.910000 0.000000 0.000000 -1.000000 0.755906 0.409449
  0 -0.240002 7.760000 -0.910000 -0.171862 0.000000 -0.985121 0.574803 0.354331
  0 -0.240003 9.440000 -0.910000 0.000000 0.000000 -1.000000 0.755906 0.354331
rpg7_rocket_p.bmp
  0 0.969998 7.760001 -0.210000 0.938727 -0.011313 -0.344476 0.574803 0.519685
  0 0.719998 7.760000 -0.650000 0.767209 0.000000 -0.641398 0.574803 0.464567
  0 0.969997 9.440000 -0.210000 0.866025 0.000000 -0.500000 0.755906 0.519685
rpg7_rocket_p.bmp
  0 0.969997 9.440000 -0.210000 0.866025 0.000000 -0.500000 0.755906 0.519685
  0 0.719998 7.760000 -0.650000 0.767209 0.000000 -0.641398 0.574803 0.464567
  0 0.719997 9.440000 -0.650000 0.866025 0.000000 -0.500000 0.755906 0.464567
rpg7_rocket_p.bmp
  0 -0.680002 7.760000 -0.650000 -0.767209 0.000000 -0.641397 0.574803 0.299213
  0 -0.940002 7.760000 -0.210000 -0.938727 -0.011313 -0.344476 0.574803 0.244094
  0 -0.680003 9.439999 -0.650000 -0.866026 0.000000 -0.499999 0.755906 0.299213
rpg7_rocket_p.bmp
  0 -0.680003 9.439999 -0.650000 -0.866026 0.000000 -0.499999 0.755906 0.299213
  0 -0.940002 7.760000 -0.210000 -0.938727 -0.011313 -0.344476 0.574803 0.244094
  0 -0.940003 9.439999 -0.210000 -0.866026 0.000000 -0.499999 0.755906 0.244094
rpg7_rocket_p.bmp
  0 0.969997 9.440000 0.300000 0.192524 0.981292 0.000000 0.826772 0.708661
  0 1.499997 9.340001 0.300000 0.192524 0.981292 0.000000 0.826772 0.779528
  0 0.969997 9.440000 -0.210000 0.192524 0.981292 0.000000 0.763780 0.708661
rpg7_rocket_p.bmp
  0 0.969997 9.440000 -0.210000 0.192524 0.981292 0.000000 0.763780 0.708661
  0 1.499997 9.340001 0.300000 0.192524 0.981292 0.000000 0.826772 0.779528
  0 1.499997 9.340001 -0.210000 0.192524 0.981292 0.000000 0.763780 0.779528
rpg7_rocket_p.bmp
  0 0.969998 7.760001 -0.210000 0.948883 -0.315628 0.000000 0.763780 0.984252
  0 1.499997 9.340001 -0.210000 0.948883 -0.315628 0.000000 0.763780 0.779528
  0 0.969997 7.760001 0.300000 0.948883 -0.315628 0.000000 0.826772 0.984252
rpg7_rocket_p.bmp
  0 0.969997 7.760001 0.300000 0.948883 -0.315628 0.000000 0.826772 0.984252
  0 1.499997 9.340001 -0.210000 0.948883 -0.315628 0.000000 0.763780 0.779528
  0 1.499997 9.340001 0.300000 0.948883 -0.315628 0.000000 0.826772 0.779528
rpg7_rocket_p.bmp
  0 -0.940003 9.439999 -0.210000 -0.192523 0.981292 0.000000 0.826772 0.708661
  0 -1.470003 9.340000 -0.210000 -0.192523 0.981292 0.000000 0.826772 0.779528
  0 -0.940003 9.439999 0.300000 -0.192523 0.981292 0.000000 0.763780 0.708661
rpg7_rocket_p.bmp
  0 -0.940003 9.439999 0.300000 -0.192523 0.981292 0.000000 0.763780 0.708661
  0 -1.470003 9.340000 -0.210000 -0.192523 0.981292 0.000000 0.826772 0.779528
  0 -1.470003 9.340000 0.300000 -0.192523 0.981292 0.000000 0.763780 0.779528
rpg7_rocket_p.bmp
  0 -0.940003 7.760000 0.300000 -0.948883 -0.315627 0.000000 0.763780 0.984252
  0 -1.470003 9.340000 0.300000 -0.948883 -0.315627 0.000000 0.763780 0.779528
  0 -0.940002 7.760000 -0.210000 -0.948883 -0.315627 0.000000 0.826772 0.984252
rpg7_rocket_p.bmp
  0 -0.940002 7.760000 -0.210000 -0.948883 -0.315627 0.000000 0.826772 0.984252
  0 -1.470003 9.340000 0.300000 -0.948883 -0.315627 0.000000 0.763780 0.779528
  0 -1.470003 9.340000 -0.210000 -0.948883 -0.315627 0.000000 0.826772 0.779528
rpg7_rocket_p.bmp
  0 -0.240003 9.440000 -0.910000 -0.096261 0.981292 -0.166730 0.763780 0.708661
  0 -0.500003 9.340000 -1.370000 -0.096261 0.981292 -0.166730 0.763780 0.779528
  0 -0.680003 9.439999 -0.650000 -0.096261 0.981292 -0.166730 0.826772 0.708661
rpg7_rocket_p.bmp
  0 -0.680003 9.439999 -0.650000 -0.096261 0.981292 -0.166730 0.826772 0.708661
  0 -0.500003 9.340000 -1.370000 -0.096261 0.981292 -0.166730 0.763780 0.779528
  0 -0.950003 9.340000 -1.110000 -0.096261 0.981292 -0.166730 0.826772 0.779528
rpg7_rocket_p.bmp
  0 -0.680002 7.760000 -0.650000 -0.474442 -0.315628 -0.821756 0.826772 0.984252
  0 -0.950003 9.340000 -1.110000 -0.474442 -0.315628 -0.821756 0.826772 0.779528
  0 -0.240002 7.760000 -0.910000 -0.474442 -0.315628 -0.821756 0.763780 0.984252
rpg7_rocket_p.bmp
  0 -0.240002 7.760000 -0.910000 -0.474442 -0.315628 -0.821756 0.763780 0.984252
  0 -0.950003 9.340000 -1.110000 -0.474442 -0.315628 -0.821756 0.826772 0.779528
  0 -0.500003 9.340000 -1.370000 -0.474442 -0.315628 -0.821756 0.763780 0.779528
rpg7_rocket_p.bmp
  0 0.719997 9.440000 -0.650000 0.096262 0.981292 -0.166730 0.826772 0.708661
  0 0.979997 9.340000 -1.110000 0.096262 0.981292 -0.166730 0.826772 0.779528
  0 0.269997 9.440000 -0.910000 0.096262 0.981292 -0.166730 0.763780 0.708661
rpg7_rocket_p.bmp
  0 0.269997 9.440000 -0.910000 0.096262 0.981292 -0.166730 0.763780 0.708661
  0 0.979997 9.340000 -1.110000 0.096262 0.981292 -0.166730 0.826772 0.779528
  0 0.529997 9.340000 -1.370000 0.096262 0.981292 -0.166730 0.763780 0.779528
rpg7_rocket_p.bmp
  0 0.269998 7.760000 -0.910000 0.474441 -0.315628 -0.821757 0.763780 0.984252
  0 0.529997 9.340000 -1.370000 0.474441 -0.315628 -0.821757 0.763780 0.779528
  0 0.719998 7.760000 -0.650000 0.474441 -0.315628 -0.821757 0.826772 0.984252
rpg7_rocket_p.bmp
  0 0.719998 7.760000 -0.650000 0.474441 -0.315628 -0.821757 0.826772 0.984252
  0 0.529997 9.340000 -1.370000 0.474441 -0.315628 -0.821757 0.763780 0.779528
  0 0.979997 9.340000 -1.110000 0.474441 -0.315628 -0.821757 0.826772 0.779528
rpg7_rocket_p.bmp
  0 0.719997 9.440000 0.750000 0.000000 1.000000 0.000000 0.842520 0.677165
  0 0.969997 9.440000 0.300000 0.000000 1.000000 0.000000 0.826772 0.692913
  0 0.269997 9.440000 1.010000 0.000000 1.000000 0.000000 0.858268 0.661417
rpg7_rocket_p.bmp
  0 0.269997 9.440000 1.010000 0.000000 1.000000 0.000000 0.858268 0.661417
  0 0.969997 9.440000 0.300000 0.000000 1.000000 0.000000 0.826772 0.692913
  0 0.969997 9.440000 -0.210000 0.000000 1.000000 0.000000 0.803150 0.692913
rpg7_rocket_p.bmp
  0 -0.810003 10.390000 0.040000 0.000000 1.000000 0.000000 0.976378 0.346457
  0 0.599997 10.390001 -0.530000 0.000000 1.000000 0.000000 0.826772 0.291339
  0 -0.570003 10.390000 -0.530000 0.000000 1.000000 0.000000 0.952756 0.291339
rpg7_rocket_p.bmp
  0 -0.570003 10.390000 -0.530000 0.000000 1.000000 0.000000 0.952756 0.291339
  0 0.599997 10.390001 -0.530000 0.000000 1.000000 0.000000 0.826772 0.291339
  0 0.009997 10.390000 -0.780000 0.000000 1.000000 0.000000 0.889764 0.259843
rpg7_rocket_p.bmp
  0 -0.580006 18.740000 0.040000 0.000000 1.000000 0.000000 0.976378 0.362205
  0 0.429994 18.740000 -0.370000 0.000000 1.000000 0.000000 0.834646 0.425197
  0 -0.400006 18.740000 -0.370000 0.000000 1.000000 0.000000 0.952756 0.425197
rpg7_rocket_p.bmp
  0 -0.400006 18.740000 -0.370000 0.000000 1.000000 0.000000 0.952756 0.425197
  0 0.429994 18.740000 -0.370000 0.000000 1.000000 0.000000 0.834646 0.425197
  0 0.009994 18.740000 -0.540000 0.000000 1.000000 0.000000 0.889764 0.448819
rpg7_rocket_p.bmp
  0 -0.240003 9.440000 1.010000 0.000000 0.000000 1.000000 0.755906 0.354331
  0 -0.240003 7.760000 1.010000 -0.171862 0.000000 0.985121 0.574803 0.354331
  0 0.269997 9.440000 1.010000 0.000000 0.000000 1.000000 0.755906 0.409449
rpg7_rocket_p.bmp
  0 0.269997 9.440000 1.010000 0.000000 0.000000 1.000000 0.755906 0.409449
  0 -0.240003 7.760000 1.010000 -0.171862 0.000000 0.985121 0.574803 0.354331
  0 0.269997 7.760000 1.010000 0.171862 0.000000 0.985121 0.574803 0.409449
rpg7_rocket_p.bmp
  0 -0.940003 9.439999 0.300000 -0.866025 0.000000 0.500000 0.755906 0.244094
  0 -0.940003 7.760000 0.300000 -0.938727 -0.011313 0.344476 0.574803 0.244094
  0 -0.680003 9.439999 0.750000 -0.866025 0.000000 0.500000 0.755906 0.299213
rpg7_rocket_p.bmp
  0 -0.680003 9.439999 0.750000 -0.866025 0.000000 0.500000 0.755906 0.299213
  0 -0.940003 7.760000 0.300000 -0.938727 -0.011313 0.344476 0.574803 0.244094
  0 -0.680003 7.760000 0.750000 -0.767209 0.000000 0.641398 0.574803 0.299213
rpg7_rocket_p.bmp
  0 -0.950003 9.340000 1.200000 -0.096261 0.981292 0.166730 0.826772 0.779528
  0 -0.500003 9.340000 1.460000 -0.096261 0.981292 0.166730 0.763780 0.779528
  0 -0.680003 9.439999 0.750000 -0.096261 0.981292 0.166730 0.826772 0.708661
rpg7_rocket_p.bmp
  0 -0.680003 9.439999 0.750000 -0.096261 0.981292 0.166730 0.826772 0.708661
  0 -0.500003 9.340000 1.460000 -0.096261 0.981292 0.166730 0.763780 0.779528
  0 -0.240003 9.440000 1.010000 -0.096261 0.981292 0.166730 0.763780 0.708661
rpg7_rocket_p.bmp
  0 -0.500003 9.340000 1.460000 -0.474441 -0.315628 0.821757 0.763780 0.779528
  0 -0.950003 9.340000 1.200000 -0.474441 -0.315628 0.821757 0.826772 0.779528
  0 -0.240003 7.760000 1.010000 -0.474441 -0.315628 0.821757 0.763780 0.984252
rpg7_rocket_p.bmp
  0 -0.240003 7.760000 1.010000 -0.474441 -0.315628 0.821757 0.763780 0.984252
  0 -0.950003 9.340000 1.200000 -0.474441 -0.315628 0.821757 0.826772 0.779528
  0 -0.680003 7.760000 0.750000 -0.474441 -0.315628 0.821757 0.826772 0.984252
rpg7_rocket_p.bmp
  0 0.529997 9.340000 1.460000 0.096262 0.981292 0.166730 0.826772 0.779528
  0 0.979997 9.340000 1.200000 0.096262 0.981292 0.166730 0.763780 0.779528
  0 0.269997 9.440000 1.010000 0.096262 0.981292 0.166730 0.826772 0.708661
rpg7_rocket_p.bmp
  0 0.269997 9.440000 1.010000 0.096262 0.981292 0.166730 0.826772 0.708661
  0 0.979997 9.340000 1.200000 0.096262 0.981292 0.166730 0.763780 0.779528
  0 0.719997 9.440000 0.750000 0.096262 0.981292 0.166730 0.763780 0.708661
rpg7_rocket_p.bmp
  0 0.979997 9.340000 1.200000 0.474441 -0.315628 0.821757 0.763780 0.779528
  0 0.529997 9.340000 1.460000 0.474441 -0.315628 0.821757 0.826772 0.779528
  0 0.719997 7.760000 0.750000 0.474441 -0.315628 0.821757 0.763780 0.984252
rpg7_rocket_p.bmp
  0 0.719997 7.760000 0.750000 0.474441 -0.315628 0.821757 0.763780 0.984252
  0 0.529997 9.340000 1.460000 0.474441 -0.315628 0.821757 0.826772 0.779528
  0 0.269997 7.760000 1.010000 0.474441 -0.315628 0.821757 0.826772 0.984252
rpg7_rocket_p.bmp
  0 1.499997 9.340001 -0.210000 0.000000 0.000000 -1.000000 0.937008 0.724409
  0 0.969998 7.760001 -0.210000 0.000000 0.000000 -1.000000 0.858268 0.968504
  0 0.969997 9.440000 -0.210000 0.000000 0.000000 -1.000000 0.858268 0.708661
rpg7_rocket_p.bmp
  0 -1.470003 9.340000 -0.210000 0.000000 0.000000 -1.000000 0.937008 0.724409
  0 -0.940003 9.439999 -0.210000 0.000000 0.000000 -1.000000 0.858268 0.708661
  0 -0.940002 7.760000 -0.210000 0.000000 0.000000 -1.000000 0.858268 0.968504
rpg7_rocket_p.bmp
  0 -0.950003 9.340000 -1.110000 -0.866025 0.000000 0.500000 0.937008 0.724409
  0 -0.680002 7.760000 -0.650000 -0.866025 0.000000 0.500000 0.858268 0.968504
  0 -0.680003 9.439999 -0.650000 -0.866025 0.000000 0.500000 0.858268 0.708661
rpg7_rocket_p.bmp
  0 -0.500003 9.340000 -1.370000 0.866025 0.000000 -0.500000 0.937008 0.724409
  0 -0.240003 9.440000 -0.910000 0.866025 0.000000 -0.500000 0.858268 0.708661
  0 -0.240002 7.760000 -0.910000 0.866025 0.000000 -0.500000 0.858268 0.968504
rpg7_rocket_p.bmp
  0 0.529997 9.340000 -1.370000 -0.866026 0.000000 -0.499999 0.937008 0.724409
  0 0.269998 7.760000 -0.910000 -0.866026 0.000000 -0.499999 0.858268 0.968504
  0 0.269997 9.440000 -0.910000 -0.866026 0.000000 -0.499999 0.858268 0.708661
rpg7_rocket_p.bmp
  0 0.979997 9.340000 -1.110000 0.866025 0.000000 0.500000 0.937008 0.724409
  0 0.719997 9.440000 -0.650000 0.866025 0.000000 0.500000 0.858268 0.708661
  0 0.719998 7.760000 -0.650000 0.866025 0.000000 0.500000 0.858268 0.968504
rpg7_rocket_p.bmp
  0 -0.940003 9.439999 0.300000 0.000000 1.000000 0.000000 0.826772 0.606299
  0 -0.680003 9.439999 -0.650000 0.000000 1.000000 0.000000 0.779528 0.614173
  0 -0.940003 9.439999 -0.210000 0.000000 1.000000 0.000000 0.803150 0.606299
rpg7_rocket_p.bmp
  0 -0.179998 -7.190000 -0.300000 0.000000 -1.000000 0.000000 0.968504 0.622047
  0 0.210002 -7.190000 -0.300000 0.000000 -1.000000 0.000000 0.968504 0.677165
  0 0.410002 -7.190000 0.040000 0.000000 -1.000000 0.000000 0.921260 0.708661
rpg7_rocket_p.bmp
  0 0.719997 7.760000 0.750000 0.767209 0.000000 0.641397 0.574803 0.464567
  0 0.969997 9.440000 0.300000 0.866025 0.000000 0.500000 0.755906 0.519685
  0 0.719997 9.440000 0.750000 0.866025 0.000000 0.500000 0.755906 0.464567
rpg7_rocket_p.bmp
  0 0.969997 9.440000 0.300000 0.000000 0.000000 1.000000 0.858268 0.708661
  0 0.969997 7.760001 0.300000 0.000000 0.000000 1.000000 0.858268 0.968504
  0 1.499997 9.340001 0.300000 0.000000 0.000000 1.000000 0.937008 0.724409
rpg7_rocket_p.bmp
  0 -0.940003 7.760000 0.300000 0.000000 0.000000 1.000000 0.858268 0.968504
  0 -0.940003 9.439999 0.300000 0.000000 0.000000 1.000000 0.858268 0.708661
  0 -1.470003 9.340000 0.300000 0.000000 0.000000 1.000000 0.937008 0.724409
rpg7_rocket_p.bmp
  0 -0.680003 9.439999 0.750000 -0.866026 0.000000 -0.499999 0.858268 0.708661
  0 -0.680003 7.760000 0.750000 -0.866026 0.000000 -0.499999 0.858268 0.968504
  0 -0.950003 9.340000 1.200000 -0.866026 0.000000 -0.499999 0.937008 0.724409
rpg7_rocket_p.bmp
  0 -0.240003 7.760000 1.010000 0.866025 0.000000 0.500000 0.858268 0.968504
  0 -0.240003 9.440000 1.010000 0.866025 0.000000 0.500000 0.858268 0.708661
  0 -0.500003 9.340000 1.460000 0.866025 0.000000 0.500000 0.937008 0.724409
rpg7_rocket_p.bmp
  0 0.269997 9.440000 1.010000 -0.866025 0.000000 0.500000 0.858268 0.708661
  0 0.269997 7.760000 1.010000 -0.866025 0.000000 0.500000 0.858268 0.968504
  0 0.529997 9.340000 1.460000 -0.866025 0.000000 0.500000 0.937008 0.724409
rpg7_rocket_p.bmp
  0 0.719997 7.760000 0.750000 0.866025 0.000000 -0.500000 0.858268 0.968504
  0 0.719997 9.440000 0.750000 0.866025 0.000000 -0.500000 0.858268 0.708661
  0 0.979997 9.340000 1.200000 0.866025 0.000000 -0.500000 0.937008 0.724409
rpg7_rocket_p.bmp
  0 -0.379998 -5.180000 0.040000 -1.000000 0.000000 0.000000 0.976378 0.464567
  0 -0.179998 -7.190000 0.390000 -0.500000 0.000000 0.866026 0.795276 0.503937
  0 -0.179999 -5.180000 0.390000 -0.500000 0.000000 0.866026 0.976378 0.503937
rpg7_rocket_p.bmp
  0 0.839997 8.660000 0.040000 1.000000 0.000000 0.000000 0.826772 0.244094
  0 0.599997 10.390001 0.630000 0.707107 0.000000 0.707107 0.984252 0.181102
  0 0.599997 8.660000 0.630000 0.707107 0.000000 0.707107 0.826772 0.181102
rpg7_rocket_p.bmp
  0 0.609997 10.350001 0.040000 1.000000 0.000000 0.000000 0.015748 0.196850
  0 0.429994 18.740000 0.460000 0.707107 0.000000 0.707107 0.811024 0.149606
  0 0.429997 10.350001 0.460000 0.707107 0.000000 0.707107 0.015748 0.149606
rpg7_rocket_p.bmp
  0 1.160000 0.370000 -1.100000 0.745516 -0.213131 -0.631491 0.543307 0.874016
  0 0.410002 -5.180000 0.040000 0.970376 -0.241599 0.000000 0.023622 0.826772
  0 0.210002 -5.180000 -0.300000 0.484747 -0.245112 -0.839607 0.023622 0.787402
rpg7_rocket_p.bmp
  0 -1.560000 0.370000 0.040000 -0.975851 -0.218439 0.000000 0.543307 0.551181
  0 -0.179998 -5.180000 -0.300000 -0.497404 -0.229363 -0.836649 0.023622 0.748031
  0 -0.379998 -5.180000 0.040000 -0.975851 -0.218439 0.000000 0.023622 0.708661
end
