version 1
nodes
  0 "root" -1
  1 "Bone01" 0
  2 "Bone_L_Upper" 1
  3 "Bone_Lefthand" 1
  4 "Bone13" 3
  5 "Bone14" 4
  6 "Bone15" 5
  7 "Bone17" 3
  8 "Bone18" 7
  9 "Bone19" 8
  10 "Bone21" 3
  11 "Bone22" 10
  12 "Bone23" 11
  13 "Bone09" 3
  14 "Bone10" 13
  15 "Bone11" 14
  16 "Bone05" 3
  17 "Bone06" 16
  18 "Bone07" 17
  19 "Bone_Se_Hand-L" 3
  20 "Bone04" 0
  21 "Bone_Righthand" 20
  22 "Bone39" 21
  23 "Bone40" 22
  24 "Bone41" 23
  25 "Bone35" 21
  26 "Bone36" 25
  27 "Bone37" 26
  28 "Bone31" 21
  29 "Bone32" 28
  30 "Bone33" 29
  31 "Bone43" 21
  32 "Bone44" 31
  33 "Bone45" 32
  34 "Bone27" 21
  35 "Bone28" 34
  36 "Bone29" 35
  37 "Bone_Se_Hand-R" 21
  38 "Bone_R_Upper" 20
  39 "Bip01 L Clavicle" -1
  40 "Bip01 L UpperArm" 39
  41 "Bip01 L Forearm" 40
  42 "Bip01 L Hand" 41
  43 "gungnir" 42
  44 "Bone064" 43
  45 "magicball" 44
  46 "Bone070" 44
  47 "Bone073" 44
  48 "Bone071" 44
  49 "Bone072" 44
  50 "Bone074" 44
  51 "Bone076" 44
  52 "Bone075" 44
  53 "Bone069" 44
  54 "Bone053" 53
  55 "Bone060" 53
  56 "Bone048" 53
  57 "Bone066" 44
  58 "Bone052" 57
  59 "Bone063" 57
  60 "Bone050" 57
  61 "Bone065" 44
  62 "Bone054" 61
  63 "Bone058" 61
  64 "Bone046" 61
  65 "adlightningbon" -1
  66 "gungnir_chagrefxB01" 44
  67 "gungnir_chagrefxB02" 66
  68 "gungnir_chagrefxB03" 66
  69 "gungnir_chagrefxc01" 44
  70 "gungnir_chagrefx01" 44
  71 "gungnir_chagrefx02" 70
  72 "gungnir_chagrefx03" 70
  73 "gungnir_chagrefxd01" 44
  74 "Bone077" -1
  75 "Dummy001" -1
  76 "Dummy005" 75
  77 "Dummy003" 75
  78 "Dummy004" 75
  79 "Dummy002" 75
  80 "Dummy006" -1
  81 "Dummy007" 80
  82 "Dummy008" 80
  83 "Dummy009" 80
  84 "Dummy010" 80
  85 "Dummy011" -1
  86 "Dummy012" 85
  87 "Dummy013" 85
  88 "Dummy014" 85
  89 "Dummy015" 85
  90 "Dummy016" -1
  91 "Dummy017" 90
  92 "Dummy018" 90
  93 "Dummy019" 90
  94 "Dummy020" 90
  95 "Bone078" -1
  96 "efxline1" -1
  97 "efelecdumr" -1
  98 "efelecdums" 97
  99 "Dummy81021" -1
  100 "Dummy81022" 99
  101 "Dummy81023" 99
  102 "Dummy81024" 99
  103 "Dummy81025" 99
  104 "Dummy01119" -1
  105 "Dummy01219" 104
  106 "Dummy01319" 104
  107 "Dummy01419" 104
  108 "Dummy01519" 104
  109 "Dummy01619" -1
  110 "Dummy01719" 109
  111 "Dummy01819" 109
  112 "Dummy01919" 109
  113 "Dummy02019" 109
  114 "Dummy8102119" -1
  115 "Dummy8102219" 114
  116 "Dummy8102319" 114
  117 "Dummy8102419" 114
  118 "Dummy8102519" 114
  119 "ballfx02" 45
  120 "ballfx01" 45
  121 "shoot_elecr" -1
  122 "shoot_elecs" 121
  123 "gungnir_blade001" -1
  124 "gungnir_blade003" -1
  125 "gungnir_blade002" -1
end
skeleton
  time 0
    0 0.001265 -0.569176 -20.601572 0.000000 0.000000 0.000000
    1 9.310103 -5.299614 -12.557959 3.138909 -0.000224 -1.566807
    2 1.257180 8.762585 -0.153713 -1.570562 0.002683 -1.566807
    3 -0.071921 -8.498736 -0.104134 -0.025046 0.287591 0.014898
    4 -0.488518 -2.755602 -0.228260 0.106454 0.010332 -0.264490
    5 0.039887 -1.479790 0.029854 -0.055395 0.000000 0.000001
    6 0.028786 -1.075731 -0.023109 0.002099 0.000000 0.000000
    7 0.250027 -2.820665 -0.238396 0.041826 -0.002921 0.008443
    8 -0.049759 -1.680544 0.100479 0.019826 0.000000 -0.000002
    9 -0.034142 -1.148312 0.084782 -0.040115 0.000000 0.000000
    10 0.957766 -2.746780 -0.090302 -0.017221 -0.162277 0.191558
    11 -0.033420 -1.397129 -0.011257 0.013931 0.000000 -0.000001
    12 -0.022360 -0.957436 0.018784 0.003845 0.000000 0.000000
    13 -1.180681 -2.507217 -0.193859 0.082999 0.013294 -0.477915
    14 -0.024967 -1.123934 0.017597 -0.018065 0.000000 0.000001
    15 -0.020057 -0.890968 0.010090 -0.060797 0.000000 0.000000
    16 0.583510 -1.197277 0.185379 0.158049 -0.404973 -0.364290
    17 1.535927 0.010246 0.005009 -0.002964 -0.012979 0.000887
    18 1.100771 0.004527 -0.010679 -0.002796 0.015973 0.003458
    19 0.120153 -0.050270 -0.054489 0.287569 3.110905 1.561085
    20 -9.310107 -5.231260 -12.513384 0.004984 -3.131565 -1.566847
    21 0.096944 -8.450418 -0.009365 -0.032965 -0.297907 -0.004663
    22 0.447953 -2.798986 -0.200443 0.106456 -0.010396 0.265094
    23 -0.032909 -1.480204 0.004940 -0.055403 0.000000 0.000002
    24 -0.027022 -1.076920 -0.020210 0.002094 0.000000 0.000000
    25 -0.249534 -2.846964 -0.174213 0.041903 -0.000125 -0.008396
    26 0.043235 -1.683941 0.096012 0.019757 0.002823 -0.000167
    27 0.031729 -1.160830 0.058838 -0.040181 0.000642 0.008372
    28 -0.963866 -2.785145 -0.085350 -0.017227 0.162276 -0.191556
    29 0.028479 -1.403067 0.006271 0.013941 0.000000 0.000000
    30 0.021413 -0.957781 0.020046 0.003851 0.000000 0.000000
    31 1.164475 -2.543940 -0.170330 0.083003 -0.013294 0.477915
    32 0.024032 -1.129042 0.017807 -0.018074 0.000000 0.000001
    33 0.014898 -0.883989 -0.019848 -0.060801 0.000000 0.000000
    34 -0.586770 -1.264477 0.200161 -0.152092 -0.410513 -2.814816
    35 1.522835 0.058681 0.016848 0.001410 0.008985 -0.046880
    36 1.117947 0.048424 -0.005766 -0.000243 -0.025198 0.065422
    37 -0.139399 -0.111698 0.014397 0.285382 -0.030687 1.580508
    38 -1.393470 8.839177 -0.239433 1.580804 -0.005023 -1.566847
    39 12.504827 0.717644 -8.955355 -0.124316 -0.576456 0.654580
    40 4.065896 0.000000 -0.000001 -0.569172 0.893237 -1.442811
    41 5.727316 0.000001 0.000000 0.000000 0.000000 -1.478976
    42 9.229777 0.000002 0.000000 -1.992040 -0.078982 0.084532
    43 3.121754 1.118371 -0.913563 2.558465 0.253146 -0.182021
    44 11.071188 0.000000 -0.000001 0.000000 0.000000 0.000000
    45 3.556409 -1.843847 1.155964 0.000000 0.498387 1.570796
    46 2.390777 -1.292302 1.978140 0.749127 -0.286789 -1.340332
    47 4.594266 -1.214511 2.080248 -0.738399 -0.246311 -1.743235
    48 2.359571 -2.305063 0.250360 -0.983482 -0.667108 -1.354557
    49 4.656978 -2.343248 0.146677 1.011314 -0.719578 -1.858369
    50 3.215159 0.000003 2.620673 0.000000 -0.481368 -3.141592
    51 3.121354 -2.072975 -1.172838 1.116134 2.891032 0.469420
    52 3.124867 2.103987 -1.190379 -1.117015 2.889357 -0.472963
    53 7.014220 -2.797903 -1.582981 -1.570796 0.514872 -1.570796
    54 0.000000 0.000002 0.000000 0.000000 0.349066 -0.000001
    55 0.000000 0.000002 0.000000 -0.000001 0.872665 -0.000001
    56 -0.443073 0.000006 3.458307 -0.000001 0.000000 0.000000
    57 6.887265 0.000003 3.240103 -3.141592 -1.570451 0.000000
    58 0.000000 0.000000 0.000000 0.000000 0.349066 0.000000
    59 0.000000 0.000000 0.000000 0.000000 0.872665 0.000000
    60 -0.438941 0.000000 3.585266 0.000000 0.000000 0.000000
    61 6.917892 2.827009 -1.599447 1.570796 0.514872 1.570796
    62 0.000000 0.000000 0.000000 0.000000 0.349066 0.000000
    63 0.000000 0.000000 0.000000 0.000000 0.872665 0.000000
    64 -0.481428 -0.000002 3.554642 0.000000 0.000000 0.000000
    65 8.068464 -26.539349 -6.371304 1.545101 -0.556542 -3.031507
    66 -139.476181 -6.847344 30.242878 -0.449627 2.071722 1.047993
    67 -0.000001 0.000000 0.000000 0.000000 0.000000 0.000000
    68 -0.000002 0.000008 0.000003 0.000000 0.000000 0.000000
    69 -135.943268 -15.671940 3.954328 0.185069 -0.608022 0.332936
    70 -128.156448 -11.260362 19.049923 0.312408 -1.396518 1.339534
    71 0.000000 0.000000 0.000000 0.000000 0.000000 0.000000
    72 0.000000 0.000000 0.000000 0.000000 0.001990 0.000000
    73 -106.568375 -4.477859 31.493366 -0.911486 0.308585 0.576328
    74 -0.903572 84.051888 -75.625259 1.570797 -1.570796 0.000000
    75 -43.703346 76.324181 -84.497192 0.000000 0.000000 0.000000
    76 -16.526161 16.526237 0.000000 0.000000 0.000000 0.000000
    77 16.525921 16.525917 0.000000 0.000000 0.000000 0.000000
    78 16.525682 -16.525612 0.000000 0.000000 0.000000 0.000000
    79 -16.525921 -16.525917 0.000000 0.000000 0.000000 0.000000
    80 -121.150276 76.265152 -84.497192 0.000000 0.000000 0.000000
    81 -16.740288 16.740356 0.000000 0.000000 0.000000 0.000000
    82 16.740044 16.740044 0.000000 0.000000 0.000000 0.000000
    83 16.739799 -16.739731 0.000000 0.000000 0.000000 0.000000
    84 -16.740044 -16.740044 0.000000 0.000000 0.000000 0.000000
    85 -158.853149 75.715485 -84.497192 0.000000 0.000000 0.000000
    86 -14.652008 14.652077 0.000000 0.000000 0.000000 0.000000
    87 14.651794 14.651802 0.000000 0.000000 0.000000 0.000000
    88 14.651581 -14.651527 0.000000 0.000000 0.000000 0.000000
    89 -14.651794 -14.651798 0.000000 0.000000 0.000000 0.000000
    90 -82.086914 76.586624 -84.497192 0.000000 0.000000 0.000000
    91 -16.421143 16.421211 0.000000 0.000000 0.000000 0.000000
    92 16.420898 16.420898 0.000000 0.000000 0.000000 0.000000
    93 16.420662 -16.420593 0.000000 0.000000 0.000000 0.000000
    94 -16.420898 -16.420898 0.000000 0.000000 0.000000 0.000000
    95 -5.020584 104.671562 -75.625259 1.570797 -1.570796 0.000000
    96 -25.499226 32.843437 -7.066200 0.441228 1.104907 -2.963469
    97 -24.607151 27.106182 -7.195526 -0.310691 -0.892452 0.023825
    98 0.000000 -13.179944 -0.050854 0.000000 0.000000 0.000000
    99 39.947548 -85.857788 -50.510788 -0.449173 0.062892 -0.940101
    100 -14.651985 14.652081 -0.000019 0.000000 0.000000 0.000000
    101 14.651802 14.651814 -0.000008 0.000000 0.000000 0.000000
    102 14.651573 -14.651527 0.000011 0.000000 0.000000 0.000000
    103 -14.651794 -14.651812 0.000004 0.000000 0.000000 0.000000
    104 -101.545227 -92.616295 -81.998543 1.051518 -2.158346 -0.519035
    105 -14.652016 14.652081 0.000015 0.000000 0.000000 0.000000
    106 14.651810 14.651814 0.000015 0.000000 0.000000 0.000000
    107 14.651585 -14.651522 -0.000015 0.000000 0.000000 0.000000
    108 -14.651802 -14.651802 -0.000015 0.000000 0.000000 0.000000
    109 3.090007 -88.541824 126.922211 0.504917 -0.042813 -0.212784
    110 -16.421141 16.421215 0.000000 0.000000 0.000000 0.000000
    111 16.420900 16.420910 0.000015 0.000000 0.000000 0.000000
    112 16.420660 -16.420589 0.000015 0.000000 0.000000 0.000000
    113 -16.420902 -16.420895 0.000000 0.000000 0.000000 0.000000
    114 84.320137 -153.887299 -12.565396 -0.449173 0.062892 -0.940101
    115 -14.651993 14.652077 -0.000015 0.000000 0.000000 0.000000
    116 14.651794 14.651807 -0.000011 0.000000 0.000000 0.000000
    117 14.651581 -14.651535 0.000013 0.000000 0.000000 0.000000
    118 -14.651779 -14.651814 0.000005 0.000000 0.000000 0.000000
    119 0.033020 0.000002 0.000001 0.000000 -1.570451 0.000000
    120 0.033022 0.000002 0.000002 0.000000 -1.570796 0.000000
    121 -7.470986 70.814056 -7.829574 -0.027775 3.038441 -0.177069
    122 -0.000010 -50.272392 -0.000009 0.000000 0.000000 0.000000
    123 -39.663200 -134.110794 -14.498636 3.112200 -0.406702 1.269945
    124 -77.418777 -104.675583 0.364775 0.836412 0.398371 0.848420
    125 76.120850 -116.304535 28.837309 -0.901921 0.453801 1.873521
end
triangles
$0b_gungnir_elecfx04.bmp
  0 -4.598735 -39.319176 -19.241572 0.023826 0.969114 0.245458 0.747554 1.000000
  44 10.349960 -38.139001 -7.696548 -0.044347 0.534390 0.844074 0.747554 0.786693
  0 -0.268735 -38.229176 -12.531572 -0.196212 0.959299 0.203090 0.996086 1.000000
$0b_gungnir_elecfx04.bmp
  0 -0.268735 -38.229176 -12.531572 -0.196212 0.959299 0.203090 0.996086 1.000000
  44 10.349960 -38.139001 -7.696548 -0.044347 0.534390 0.844074 0.747554 0.786693
  44 11.776859 -36.730807 0.099467 -0.737728 0.603365 0.302834 0.996086 0.792564
$0b_gungnir_elecfx04.bmp
  44 10.349960 -38.139001 -7.696548 -0.044347 0.534390 0.844074 0.747554 0.786693
  44 9.703105 -41.061555 -7.111016 -0.229797 0.307820 0.923277 0.747554 0.673190
  44 11.776859 -36.730807 0.099467 -0.737728 0.603365 0.302834 0.996086 0.792564
$0b_gungnir_elecfx04.bmp
  44 11.776859 -36.730807 0.099467 -0.737728 0.603365 0.302834 0.996086 0.792564
  44 9.703105 -41.061555 -7.111016 -0.229797 0.307820 0.923277 0.747554 0.673190
  44 11.122391 -39.641676 0.682653 -0.873140 0.314647 0.372322 0.996086 0.681018
$0b_gungnir_elecfx04.bmp
  44 9.703105 -41.061555 -7.111016 -0.229797 0.307820 0.923277 0.747554 0.673190
  44 8.711792 -45.516147 -6.218543 -0.067828 0.301751 0.950971 0.747554 0.500978
  44 11.122391 -39.641676 0.682653 -0.873140 0.314647 0.372322 0.996086 0.681018
$0b_gungnir_elecfx04.bmp
  44 11.122391 -39.641676 0.682653 -0.873140 0.314647 0.372322 0.996086 0.681018
  44 8.711792 -45.516147 -6.218543 -0.067828 0.301751 0.950971 0.747554 0.500978
  44 8.355014 -44.260617 -0.300050 -0.857908 0.468201 0.211618 0.996086 0.500978
$0b_gungnir_elecfx04.bmp
  0 -8.788735 -38.329174 -20.901572 -0.023327 0.971571 0.235597 0.739726 1.000000
  44 8.325526 -37.393412 -6.194828 -0.107522 0.574808 0.811193 0.737769 0.786693
  0 -4.598735 -39.319176 -19.241572 0.023826 0.969114 0.245458 0.747554 1.000000
$0b_gungnir_elecfx04.bmp
  0 -4.598735 -39.319176 -19.241572 0.023826 0.969114 0.245458 0.747554 1.000000
  44 8.325526 -37.393412 -6.194828 -0.107522 0.574808 0.811193 0.737769 0.786693
  44 10.349960 -38.139001 -7.696548 -0.044347 0.534390 0.844074 0.747554 0.786693
$0b_gungnir_elecfx04.bmp
  44 8.325526 -37.393412 -6.194828 -0.107522 0.574808 0.811193 0.737769 0.786693
  44 7.659149 -40.315678 -5.629762 -0.101113 0.400943 0.910506 0.737769 0.673190
  44 10.349960 -38.139001 -7.696548 -0.044347 0.534390 0.844074 0.747554 0.786693
$0b_gungnir_elecfx04.bmp
  44 10.349960 -38.139001 -7.696548 -0.044347 0.534390 0.844074 0.747554 0.786693
  44 7.659149 -40.315678 -5.629762 -0.101113 0.400943 0.910506 0.737769 0.673190
  44 9.703105 -41.061555 -7.111016 -0.229797 0.307820 0.923277 0.747554 0.673190
$0b_gungnir_elecfx04.bmp
  44 7.659149 -40.315678 -5.629762 -0.101113 0.400943 0.910506 0.737769 0.673190
  44 4.674065 -43.716778 -1.716439 0.025987 0.483055 0.875204 0.735812 0.500978
  44 9.703105 -41.061555 -7.111016 -0.229797 0.307820 0.923277 0.747554 0.673190
$0b_gungnir_elecfx04.bmp
  44 9.703105 -41.061555 -7.111016 -0.229797 0.307820 0.923277 0.747554 0.673190
  44 4.674065 -43.716778 -1.716439 0.025987 0.483055 0.875204 0.735812 0.500978
  44 8.711792 -45.516147 -6.218543 -0.067828 0.301751 0.950971 0.747554 0.500978
$0b_gungnir_elecfx04.bmp
  56 7.357031 -37.546752 -20.283886 -0.373574 0.893349 0.249741 0.499022 1.000000
  44 4.815417 -37.972599 -12.138714 -0.525833 0.771579 0.358002 0.499022 0.780822
  0 -8.788735 -38.329174 -20.901572 -0.023327 0.971571 0.235597 0.739726 1.000000
$0b_gungnir_elecfx04.bmp
  0 -8.788735 -38.329174 -20.901572 -0.023327 0.971571 0.235597 0.739726 1.000000
  44 4.815417 -37.972599 -12.138714 -0.525833 0.771579 0.358002 0.499022 0.780822
  44 8.325526 -37.393412 -6.194828 -0.107522 0.574808 0.811193 0.737769 0.786693
$0b_gungnir_elecfx04.bmp
  44 4.815417 -37.972599 -12.138714 -0.525833 0.771579 0.358002 0.499022 0.780822
  44 3.330241 -40.456470 -10.356487 -0.686026 0.462816 0.561400 0.499022 0.667319
  44 8.325526 -37.393412 -6.194828 -0.107522 0.574808 0.811193 0.737769 0.786693
$0b_gungnir_elecfx04.bmp
  44 8.325526 -37.393412 -6.194828 -0.107522 0.574808 0.811193 0.737769 0.786693
  44 3.330241 -40.456470 -10.356487 -0.686026 0.462816 0.561400 0.499022 0.667319
  44 7.659149 -40.315678 -5.629762 -0.101113 0.400943 0.910506 0.737769 0.673190
$0b_gungnir_elecfx04.bmp
  44 3.330241 -40.456470 -10.356487 -0.686026 0.462816 0.561400 0.499022 0.667319
  44 1.348912 -44.047154 -7.149165 -0.651259 0.534534 0.538642 0.499022 0.500978
  44 7.659149 -40.315678 -5.629762 -0.101113 0.400943 0.910506 0.737769 0.673190
$0b_gungnir_elecfx04.bmp
  44 7.659149 -40.315678 -5.629762 -0.101113 0.400943 0.910506 0.737769 0.673190
  44 1.348912 -44.047154 -7.149165 -0.651259 0.534534 0.538642 0.499022 0.500978
  44 4.674065 -43.716778 -1.716439 0.025987 0.483055 0.875204 0.735812 0.500978
$0b_gungnir_elecfx04.bmp
  44 -1.504685 -16.825195 -20.695432 -0.185982 0.858077 0.478660 0.500978 0.497065
  44 -1.277941 -19.165780 -15.911955 -0.167736 0.810864 0.560682 0.500978 0.373777
  44 6.859979 -13.059799 -20.089473 -0.185982 0.858077 0.478660 1.000000 0.497065
$0b_gungnir_elecfx04.bmp
  44 6.859979 -13.059799 -20.089473 -0.185982 0.858077 0.478660 1.000000 0.497065
  44 -1.277941 -19.165780 -15.911955 -0.167736 0.810864 0.560682 0.500978 0.373777
  44 8.158643 -14.941593 -15.305623 -0.167736 0.810864 0.560682 1.000000 0.373777
$0b_gungnir_elecfx04.bmp
  44 -1.277941 -19.165780 -15.911955 -0.167736 0.810864 0.560682 0.500978 0.373777
  44 0.260682 -20.987887 -13.271527 -0.103725 0.615724 0.781105 0.500978 0.248532
  44 8.158643 -14.941593 -15.305623 -0.167736 0.810864 0.560682 1.000000 0.373777
$0b_gungnir_elecfx04.bmp
  44 8.158643 -14.941593 -15.305623 -0.167736 0.810864 0.560682 1.000000 0.373777
  44 0.260682 -20.987887 -13.271527 -0.103725 0.615724 0.781105 0.500978 0.248532
  44 8.623193 -17.232066 -12.663649 -0.107522 0.574808 0.811193 1.000000 0.248532
$0b_gungnir_elecfx04.bmp
  44 0.260682 -20.987887 -13.271527 -0.103725 0.615724 0.781105 0.500978 0.248532
  44 3.583756 -26.516280 -11.906591 -0.031128 0.362509 0.931460 0.500978 0.000000
  44 8.623193 -17.232066 -12.663649 -0.107522 0.574808 0.811193 1.000000 0.248532
$0b_gungnir_elecfx04.bmp
  44 8.623193 -17.232066 -12.663649 -0.107522 0.574808 0.811193 1.000000 0.248532
  44 3.583756 -26.516280 -11.906591 -0.031128 0.362509 0.931460 0.500978 0.000000
  44 11.938654 -22.748774 -11.301060 -0.031128 0.362509 0.931460 1.000000 0.000000
$0b_gungnir_elecfx04.bmp
  44 16.847243 -9.317311 0.624050 -0.655142 0.747709 0.108261 0.000000 0.504892
  44 13.576460 -13.105022 -1.831011 -0.920026 0.336767 -0.200351 0.000000 0.379648
  44 13.752734 -13.154654 8.388179 -0.655142 0.747709 0.108261 0.504892 0.504892
$0b_gungnir_elecfx04.bmp
  44 13.752734 -13.154654 8.388179 -0.655142 0.747709 0.108261 0.504892 0.504892
  44 13.576460 -13.105022 -1.831011 -0.920026 0.336767 -0.200351 0.000000 0.379648
  44 10.491717 -16.944475 5.933547 -0.936708 0.240219 -0.254701 0.504892 0.379648
$0b_gungnir_elecfx04.bmp
  44 13.576460 -13.105022 -1.831011 -0.920026 0.336767 -0.200351 0.000000 0.379648
  44 14.623795 -17.664382 -3.343832 -0.936708 0.240219 -0.254701 0.000000 0.252446
  44 10.491717 -16.944475 5.933547 -0.936708 0.240219 -0.254701 0.504892 0.379648
$0b_gungnir_elecfx04.bmp
  44 10.491717 -16.944475 5.933547 -0.936708 0.240219 -0.254701 0.504892 0.379648
  44 14.623795 -17.664382 -3.343832 -0.936708 0.240219 -0.254701 0.000000 0.252446
  44 11.533597 -21.484540 4.406656 -0.920026 0.336767 -0.200351 0.504892 0.252446
$0b_gungnir_elecfx04.bmp
  44 14.623795 -17.664382 -3.343832 -0.936708 0.240219 -0.254701 0.000000 0.252446
  44 8.549871 -25.080424 2.188661 -0.749932 0.661500 -0.004490 0.504892 0.125245
  44 11.533597 -21.484540 4.406656 -0.920026 0.336767 -0.200351 0.504892 0.252446
$0b_gungnir_elecfx04.bmp
  44 14.623795 -17.664382 -3.343832 -0.936708 0.240219 -0.254701 0.000000 0.252446
  44 12.247568 -21.245935 -6.268114 -0.749932 0.661500 -0.004490 0.000000 0.125245
  44 8.549871 -25.080424 2.188661 -0.749932 0.661500 -0.004490 0.504892 0.125245
$0b_gungnir_elecfx04.bmp
  44 8.549871 -25.080424 2.188661 -0.749932 0.661500 -0.004490 0.504892 0.125245
  44 12.247568 -21.245935 -6.268114 -0.749932 0.661500 -0.004490 0.000000 0.125245
  44 6.786603 -28.668906 -1.437643 -0.792452 0.606969 -0.060076 0.504892 0.000000
$0b_gungnir_elecfx04.bmp
  44 12.247568 -21.245935 -6.268114 -0.749932 0.661500 -0.004490 0.000000 0.125245
  44 9.878948 -24.837207 -9.180244 -0.749932 0.661500 -0.004490 0.000000 0.000000
  44 6.786603 -28.668906 -1.437643 -0.792452 0.606969 -0.060076 0.504892 0.000000
$0b_gungnir_elecfx04.bmp
  56 0.794390 -27.356794 -12.859435 -0.216303 -0.957109 0.192759 0.499022 0.000000
  56 1.468235 -27.741747 -14.024657 -0.216303 -0.957109 0.192759 0.499022 0.499022
  56 1.134269 -27.391533 -12.651407 -0.216303 -0.957109 0.192759 0.000000 0.000000
$0b_gungnir_elecfx04.bmp
  56 1.134269 -27.391533 -12.651407 -0.216303 -0.957109 0.192759 0.000000 0.000000
  56 1.468235 -27.741747 -14.024657 -0.216303 -0.957109 0.192759 0.499022 0.499022
  56 1.808114 -27.776486 -13.816630 -0.216303 -0.957109 0.192759 0.000000 0.499022
$0b_gungnir_elecfx04.bmp
  60 11.315029 -26.587288 2.696937 0.216302 0.957109 -0.192757 0.499022 0.499022
  60 9.703720 -26.239158 2.626316 0.216302 0.957109 -0.192757 0.499022 1.000000
  60 11.314669 -26.465630 3.304883 0.216302 0.957109 -0.192757 0.000000 0.499022
$0b_gungnir_elecfx04.bmp
  60 11.314669 -26.465630 3.304883 0.216302 0.957109 -0.192757 0.000000 0.499022
  60 9.703720 -26.239158 2.626316 0.216302 0.957109 -0.192757 0.499022 1.000000
  60 9.703359 -26.117500 3.234263 0.216302 0.957109 -0.192757 0.000000 1.000000
$0b_gungnir_elecfx03.bmp
  65 11.373041 -26.230953 -5.845693 -0.096338 0.995110 0.021815 0.504892 0.994129
  65 9.051139 -26.373863 -9.580442 -0.096338 0.995110 0.021815 0.504892 0.500978
  65 7.085789 -26.704834 -3.162166 -0.096338 0.995110 0.021815 0.996086 0.994129
$0b_gungnir_elecfx03.bmp
  65 7.085789 -26.704834 -3.162166 -0.096338 0.995110 0.021815 0.996086 0.994129
  65 9.051139 -26.373863 -9.580442 -0.096338 0.995110 0.021815 0.504892 0.500978
  65 4.763888 -26.847744 -6.896915 -0.096338 0.995110 0.021815 0.996086 0.500978
end
