version 1
nodes
  0 "Bone01" -1
  1 "Bone_Lefthand" 0
  2 "bone_CSOKATANA" 1
  3 "Bone13" 1
  4 "Bone14" 3
  5 "Bone15" 4
  6 "Bone17" 1
  7 "Bone18" 6
  8 "Bone19" 7
  9 "Bone21" 1
  10 "Bone22" 9
  11 "Bone23" 10
  12 "Bone09" 1
  13 "Bone10" 12
  14 "Bone11" 13
  15 "Bone05" 1
  16 "Bone06" 15
  17 "Bone07" 16
  18 "Bone_Se_Hand-L" 1
  19 "Bone_L_Upper" 0
  20 "Bone04" -1
  21 "Bone_Righthand" 20
  22 "Bone39" 21
  23 "Bone40" 22
  24 "Bone41" 23
  25 "Bone35" 21
  26 "Bone36" 25
  27 "Bone37" 26
  28 "Bone31" 21
  29 "Bone32" 28
  30 "Bone33" 29
  31 "Bone43" 21
  32 "Bone44" 31
  33 "Bone45" 32
  34 "Bone27" 21
  35 "Bone28" 34
  36 "Bone29" 35
  37 "Bone_Se_Hand-R" 21
  38 "Bone_R_Upper" 20
end
skeleton
  time 0
    0 6.990665 -6.106958 -5.618796 -0.001582 -3.127037 -0.383441
    1 -0.071917 -8.498733 -0.104137 -0.403715 1.224068 -0.472297
    2 -5.100550 -1.762691 0.321306 -1.446559 -0.040586 -0.172614
    3 -0.488517 -2.755600 -0.228261 -0.556271 -0.078090 -0.184169
    4 0.039887 -1.479790 0.029853 -1.691238 0.000000 0.000000
    5 0.028785 -1.075733 -0.023111 -1.188295 0.000000 0.000000
    6 0.250028 -2.820663 -0.238396 -0.625974 -0.088227 -0.176288
    7 -0.049759 -1.680546 0.100480 -1.823573 0.000000 -0.000002
    8 -0.034141 -1.148310 0.084779 -1.231054 0.000000 0.000000
    9 0.957766 -2.746775 -0.090300 -0.199682 -0.161663 -0.072896
    10 -0.033419 -1.397129 -0.011255 -1.506450 0.000000 -0.000001
    11 -0.022360 -0.957436 0.018783 -1.180180 0.000000 0.000000
    12 -1.180680 -2.507214 -0.193861 -0.264604 0.105802 -0.141551
    13 -0.024966 -1.123934 0.017594 -1.381450 0.000527 -0.001102
    14 -0.020057 -0.890966 0.010091 -1.221542 0.303126 -0.062835
    15 0.583510 -1.197275 0.185377 0.961577 -0.980230 -0.836369
    16 1.535927 0.010246 0.005008 -0.492002 -0.171312 -0.750284
    17 1.100770 0.004526 -0.010676 0.157114 0.008459 -0.803540
    18 -0.086886 -0.085423 0.066609 -2.196086 6.162291 -1.553269
    19 1.956419 8.625857 -0.153718 -1.570562 0.002683 -1.647364
    20 -15.033484 -2.733229 -6.765661 -0.318695 -2.673511 -0.693359
    21 0.085225 -8.450418 -0.009364 0.009156 0.151435 -0.169507
    22 0.447952 -2.798985 -0.200442 -0.880509 -0.020918 0.447991
    23 -0.032910 -1.480204 0.004936 -1.362458 0.000000 0.000002
    24 -0.027022 -1.076918 -0.020212 -0.884463 0.000000 0.000000
    25 -0.249534 -2.846962 -0.174216 -0.594658 0.097034 0.359290
    26 0.043235 -1.683941 0.096014 -1.405296 -0.025568 -0.007490
    27 0.031729 -1.160830 0.058836 -1.043458 0.000642 0.008372
    28 -0.963867 -2.785143 -0.085346 -0.599334 0.273625 0.176582
    29 0.028479 -1.403069 0.006271 -1.046428 0.000000 0.000000
    30 0.021413 -0.957779 0.020047 -0.919378 0.000000 0.000000
    31 1.164475 -2.543938 -0.170328 -0.703057 -0.018328 0.399498
    32 0.024033 -1.129042 0.017806 -1.257150 0.000000 0.000001
    33 0.014897 -0.883989 -0.019845 -0.962905 0.000000 0.000000
    34 -0.586770 -1.264477 0.200164 0.123282 -1.098809 -2.829001
    35 1.522835 0.058680 0.016850 0.018905 -0.144142 0.958155
    36 1.117948 0.048426 -0.005764 -0.016806 -0.017552 0.819053
    37 0.040294 -0.099979 0.006584 0.355279 0.029631 1.587699
    38 -3.358374 7.917274 -3.524691 1.689492 -0.377886 -1.300939
  time 1
    0 3.049138 -6.868700 -6.364912 -0.002349 2.918528 -0.680590
    1 -0.071917 -8.498733 -0.104137 0.566831 1.815083 0.577163
    2 -5.100550 -1.762691 0.321306 -1.446559 -0.040586 -0.172614
    3 -0.488517 -2.755600 -0.228261 -0.561728 -0.079181 -0.182384
    4 0.039887 -1.479790 0.029853 -1.699162 0.000000 0.000000
    5 0.028785 -1.075733 -0.023111 -1.186078 0.000000 0.000000
    6 0.250028 -2.820663 -0.238396 -0.630086 -0.089246 -0.173793
    7 -0.049759 -1.680546 0.100480 -1.825468 0.000000 -0.000002
    8 -0.034141 -1.148310 0.084779 -1.230582 0.000000 0.000000
    9 0.957766 -2.746775 -0.090300 -0.208586 -0.162993 -0.071443
    10 -0.033419 -1.397129 -0.011255 -1.504308 0.000000 -0.000001
    11 -0.022360 -0.957436 0.018783 -1.177432 0.000000 0.000000
    12 -1.180680 -2.507214 -0.193861 -0.265620 0.102339 -0.139570
    13 -0.024966 -1.123934 0.017594 -1.386418 0.002001 -0.004146
    14 -0.020057 -0.890966 0.010091 -1.227869 0.301676 -0.062536
    15 0.583510 -1.197275 0.185377 0.949436 -0.979001 -0.832090
    16 1.535927 0.010246 0.005008 -0.490121 -0.170980 -0.757419
    17 1.100770 0.004526 -0.010676 0.152117 0.006817 -0.807764
    18 0.124058 -0.089330 0.343962 -1.909153 0.046388 -1.404647
    19 1.862666 8.629763 -0.153718 -1.570562 0.002779 -1.636470
    20 -15.033484 -2.733229 -6.765661 -0.306554 -2.673511 -0.693359
    21 0.073506 -8.450418 -0.009364 0.009445 0.142686 -0.164539
    22 0.447952 -2.798985 -0.200442 -0.962854 -0.020918 0.447943
    23 -0.032910 -1.480204 0.004936 -1.423521 0.000000 0.000002
    24 -0.027022 -1.076918 -0.020212 -0.937985 0.000000 0.000000
    25 -0.249534 -2.846962 -0.174216 -0.688931 0.091258 0.360862
    26 0.043235 -1.683941 0.096014 -1.458211 -0.024130 -0.007118
    27 0.031729 -1.160830 0.058836 -1.088990 0.000642 0.008372
    28 -0.963867 -2.785143 -0.085346 -0.733738 0.273625 0.176582
    29 0.028479 -1.403069 0.006271 -1.125304 0.000000 0.000000
    30 0.021413 -0.957779 0.020047 -0.971346 0.000000 0.000000
    31 1.164475 -2.543938 -0.170328 -0.807599 -0.017776 0.403123
    32 0.024033 -1.129042 0.017806 -1.329965 0.000000 0.000001
    33 0.014897 -0.883989 -0.019845 -1.008088 0.000000 0.000000
    34 -0.586770 -1.264477 0.200164 0.186007 -1.127412 -2.862203
    35 1.522835 0.058680 0.016850 0.013132 -0.142452 1.001537
    36 1.117948 0.048426 -0.005764 -0.017237 -0.017072 0.844303
    37 0.040294 -0.099979 0.006584 0.353738 0.030020 1.587219
    38 -3.358374 7.893836 -3.512971 1.687778 -0.378275 -1.300373
  time 2
    0 -0.915827 -7.044486 -6.736017 6.279352 2.767334 -0.941230
    1 -0.071917 -8.498733 -0.104137 -0.368614 1.791195 -0.194078
    2 -5.100550 -1.762691 0.321306 -1.446559 -0.040586 -0.172614
    3 -0.488517 -2.755600 -0.228261 -0.569860 -0.080799 -0.179735
    4 0.039887 -1.479790 0.029853 -1.710928 0.000000 0.000000
    5 0.028785 -1.075733 -0.023111 -1.182406 0.000000 0.000000
    6 0.250028 -2.820663 -0.238396 -0.636191 -0.090756 -0.170084
    7 -0.049759 -1.680546 0.100480 -1.828224 0.000000 -0.000002
    8 -0.034141 -1.148310 0.084779 -1.229855 0.000000 0.000000
    9 0.957766 -2.746775 -0.090300 -0.221773 -0.164994 -0.069303
    10 -0.033419 -1.397129 -0.011255 -1.501067 0.000000 -0.000001
    11 -0.022360 -0.957436 0.018783 -1.173345 0.000000 0.000000
    12 -1.180680 -2.507214 -0.193861 -0.267145 0.097185 -0.136642
    13 -0.024966 -1.123934 0.017594 -1.393709 0.004195 -0.008688
    14 -0.020057 -0.890966 0.010091 -1.237124 0.299028 -0.061984
    15 0.583510 -1.197275 0.185377 0.931410 -0.977089 -0.825754
    16 1.535927 0.010246 0.005008 -0.487320 -0.170482 -0.768026
    17 1.100770 0.004526 -0.010676 0.144710 0.004396 -0.814003
    18 0.335002 -0.093236 0.515842 1.256603 3.156625 1.485866
    19 1.768913 8.633670 -0.153718 -1.570562 0.002875 -1.625576
    20 -15.033484 -2.733229 -6.765661 -0.272242 -2.673511 -0.693359
    21 0.057880 -8.450418 -0.013270 0.010226 0.118989 -0.151040
    22 0.447952 -2.798985 -0.200442 -1.034525 -0.020930 0.447763
    23 -0.032910 -1.480204 0.004936 -1.478372 0.000000 0.000002
    24 -0.027022 -1.076918 -0.020212 -0.986141 0.000000 0.000000
    25 -0.249534 -2.846962 -0.174216 -0.771636 0.087398 0.361950
    26 0.043235 -1.683941 0.096014 -1.505960 -0.023172 -0.006866
    27 0.031729 -1.160830 0.058836 -1.130289 0.000642 0.008372
    28 -0.963867 -2.785143 -0.085346 -0.851905 0.273625 0.176582
    29 0.028479 -1.403069 0.006271 -1.193217 0.000000 0.000000
    30 0.021413 -0.957779 0.020047 -1.016407 0.000000 0.000000
    31 1.164475 -2.543938 -0.170328 -0.898775 -0.017405 0.405572
    32 0.024033 -1.129042 0.017806 -1.392853 0.000000 0.000001
    33 0.014897 -0.883989 -0.019845 -1.047492 0.000000 0.000000
    34 -0.586770 -1.264477 0.200164 0.239698 -1.151936 -2.891004
    35 1.522835 0.058680 0.016850 0.008093 -0.141230 1.038827
    36 1.117948 0.048426 -0.005764 -0.017621 -0.016665 0.866291
    37 0.040294 -0.103885 0.006584 0.349516 0.031072 1.585949
    38 -3.358374 7.866491 -3.497346 1.685633 -0.378761 -1.299659
  time 3
    0 -2.978390 -7.036674 -6.685235 6.248192 2.782243 -1.072317
    1 -0.071917 -8.498733 -0.104137 0.143724 1.063196 0.177632
    2 -5.100550 -1.762691 0.321306 -1.446559 -0.040586 -0.172614
    3 -0.488517 -2.755600 -0.228261 -0.579786 -0.082776 -0.176499
    4 0.039887 -1.479790 0.029853 -1.725155 0.000000 0.000000
    5 0.028785 -1.075733 -0.023111 -1.177245 0.000000 0.000000
    6 0.250028 -2.820663 -0.238396 -0.643656 -0.092602 -0.165549
    7 -0.049759 -1.680546 0.100480 -1.831554 0.000000 -0.000002
    8 -0.034141 -1.148310 0.084779 -1.229019 0.000000 0.000000
    9 0.957766 -2.746775 -0.090300 -0.237945 -0.167448 -0.066695
    10 -0.033419 -1.397129 -0.011255 -1.497073 0.000000 -0.000001
    11 -0.022360 -0.957436 0.018783 -1.168391 0.000000 0.000000
    12 -1.180680 -2.507214 -0.193861 -0.268991 0.090881 -0.133042
    13 -0.024966 -1.123934 0.017594 -1.402566 0.006903 -0.014297
    14 -0.020057 -0.890966 0.010091 -1.248410 0.295013 -0.061145
    15 0.583510 -1.197275 0.185377 0.909349 -0.974813 -0.817974
    16 1.535927 0.010246 0.005008 -0.483891 -0.169874 -0.781044
    17 1.100770 0.004526 -0.010676 0.135638 0.001424 -0.821660
    18 0.147497 -0.015109 -0.085739 1.013193 3.161705 1.558409
    19 1.725943 8.637576 -0.153718 -1.570562 0.002971 -1.620607
    20 -15.033484 -2.733229 -6.765661 -0.219102 -2.673511 -0.693359
    21 0.038348 -8.450418 -0.013270 0.011355 0.084056 -0.131171
    22 0.447952 -2.798985 -0.200442 -1.095991 -0.020942 0.447428
    23 -0.032910 -1.480204 0.004936 -1.526953 0.000000 0.000002
    24 -0.027022 -1.076918 -0.020212 -1.028823 0.000000 0.000000
    25 -0.249534 -2.846962 -0.174216 -0.843170 0.084942 0.362716
    26 0.043235 -1.683941 0.096014 -1.548438 -0.022560 -0.006711
    27 0.031729 -1.160830 0.058836 -1.167256 0.000642 0.008372
    28 -0.963867 -2.785143 -0.085346 -0.954373 0.273625 0.176582
    29 0.028479 -1.403069 0.006271 -1.250780 0.000000 0.000000
    30 0.021413 -0.957779 0.020047 -1.054918 0.000000 0.000000
    31 1.164475 -2.543938 -0.170328 -0.977151 -0.017165 0.407110
    32 0.024033 -1.129042 0.017806 -1.446369 0.000000 0.000001
    33 0.014897 -0.883989 -0.019845 -1.081366 0.000000 0.000000
    34 -0.586770 -1.264477 0.200164 0.285000 -1.172646 -2.915559
    35 1.522835 0.058680 0.016850 0.003763 -0.140379 1.070349
    36 1.117948 0.048426 -0.005764 -0.017944 -0.016305 0.885175
    37 0.040294 -0.107792 0.006584 0.343354 0.032627 1.584067
    38 -3.354467 7.831334 -3.485627 1.683188 -0.379320 -1.298846
  time 4
    0 -2.314307 -8.083581 -6.618826 6.264203 2.804224 -1.055356
    1 -0.071917 -8.498733 -0.104137 -0.035760 0.076284 0.078451
    2 -5.100550 -1.762691 0.321306 -1.446559 -0.040586 -0.172614
    3 -0.488517 -2.755600 -0.228261 -0.590702 -0.084957 -0.172928
    4 0.039887 -1.479790 0.029853 -1.740703 0.000000 0.000000
    5 0.028785 -1.075733 -0.023111 -1.170483 0.000000 0.000000
    6 0.250028 -2.820663 -0.238396 -0.651880 -0.094627 -0.160543
    7 -0.049759 -1.680546 0.100480 -1.835286 0.000000 -0.000002
    8 -0.034141 -1.148310 0.084779 -1.228037 0.000000 0.000000
    9 0.957766 -2.746775 -0.090300 -0.255778 -0.170151 -0.063805
    10 -0.033419 -1.397129 -0.011255 -1.492673 0.000000 -0.000001
    11 -0.022360 -0.957436 0.018783 -1.162894 0.000000 0.000000
    12 -1.180680 -2.507214 -0.193861 -0.271024 0.083930 -0.129079
    13 -0.024966 -1.123934 0.017594 -1.412233 0.009911 -0.020529
    14 -0.020057 -0.890966 0.010091 -1.260673 0.289440 -0.059983
    15 0.583510 -1.197275 0.185377 0.885034 -0.972264 -0.809361
    16 1.535927 0.010246 0.005008 -0.480130 -0.169211 -0.795315
    17 1.100770 0.004526 -0.010676 0.125655 -0.001860 -0.830080
    18 0.006867 -0.085423 0.144737 0.207422 3.202346 1.515304
    19 3.136143 8.336786 -0.153718 -1.570562 0.003066 -1.778376
    20 -15.033484 -2.733229 -6.765661 -0.150301 -2.673511 -0.693359
    21 0.018817 -8.450418 -0.017177 0.012772 0.041666 -0.107046
    22 0.447952 -2.798985 -0.200442 -1.147720 -0.020966 0.446924
    23 -0.032910 -1.480204 0.004936 -1.569205 0.000000 0.000002
    24 -0.027022 -1.076918 -0.020212 -1.066031 0.000000 0.000000
    25 -0.249534 -2.846962 -0.174216 -0.903893 0.083408 0.363294
    26 0.043235 -1.683941 0.096014 -1.585541 -0.022177 -0.006615
    27 0.031729 -1.160830 0.058836 -1.199744 0.000642 0.008372
    28 -0.963867 -2.785143 -0.085346 -1.041563 0.273625 0.176582
    29 0.028479 -1.403069 0.006271 -1.298647 0.000000 0.000000
    30 0.021413 -0.957779 0.020047 -1.087201 0.000000 0.000000
    31 1.164475 -2.543938 -0.170328 -1.043251 -0.017021 0.408078
    32 0.024033 -1.129042 0.017806 -1.491012 0.000000 0.000001
    33 0.014897 -0.883989 -0.019845 -1.110010 0.000000 0.000000
    34 -0.586770 -1.264477 0.200164 0.322393 -1.189801 -2.936113
    35 1.522835 0.058680 0.016850 0.000122 -0.139768 1.096470
    36 1.117948 0.048426 -0.005764 -0.018220 -0.016018 0.901063
    37 0.040294 -0.111698 0.010491 0.335850 0.034514 1.581778
    38 -3.354467 7.800083 -3.470001 1.680600 -0.379903 -1.297984
  time 5
    0 -0.122834 -9.825821 -6.396163 0.058820 2.850290 -0.961641
    1 -0.071917 -8.498733 -0.104137 -0.045064 -0.020681 -0.351123
    2 -5.100550 -1.762691 0.321306 -1.446559 -0.040586 -0.172614
    3 -0.488517 -2.755600 -0.228261 -0.601837 -0.087175 -0.169296
    4 0.039887 -1.479790 0.029853 -1.756191 0.000000 0.000000
    5 0.028785 -1.075733 -0.023111 -1.162196 0.000000 0.000000
    6 0.250028 -2.820663 -0.238396 -0.660262 -0.096700 -0.155451
    7 -0.049759 -1.680546 0.100480 -1.839075 0.000000 -0.000002
    8 -0.034141 -1.148310 0.084779 -1.227092 0.000000 0.000000
    9 0.957766 -2.746775 -0.090300 -0.273897 -0.172883 -0.060869
    10 -0.033419 -1.397129 -0.011255 -1.488216 0.000000 -0.000001
    11 -0.022360 -0.957436 0.018783 -1.157288 0.000000 0.000000
    12 -1.180680 -2.507214 -0.193861 -0.273110 0.076871 -0.125048
    13 -0.024966 -1.123934 0.017594 -1.421900 0.013015 -0.026940
    14 -0.020057 -0.890966 0.010091 -1.272935 0.282129 -0.058461
    15 0.583510 -1.197275 0.185377 0.860316 -0.969714 -0.800636
    16 1.535927 0.010246 0.005008 -0.476296 -0.168533 -0.809876
    17 1.100770 0.004526 -0.010676 0.115492 -0.005192 -0.838635
    18 -0.075166 -0.179176 0.168175 3.165432 6.201110 -1.061433
    19 4.546342 8.035995 -0.153718 -1.570562 0.003162 -1.936050
    20 -15.033484 -2.733229 -6.765661 -0.069007 -2.673511 -0.693359
    21 -0.000715 -8.450418 -0.021083 0.014277 -0.004501 -0.080761
    22 0.447952 -2.798985 -0.200442 -1.190180 -0.021002 0.446229
    23 -0.032910 -1.480204 0.004936 -1.605011 0.000000 0.000002
    24 -0.027022 -1.076918 -0.020212 -1.097623 0.000000 0.000000
    25 -0.249534 -2.846962 -0.174216 -0.954236 0.082281 0.363818
    26 0.043235 -1.683941 0.096014 -1.617165 -0.021901 -0.006543
    27 0.031729 -1.160830 0.058836 -1.227555 0.000642 0.008372
    28 -0.963867 -2.785143 -0.085346 -1.113972 0.273625 0.176582
    29 0.028479 -1.403069 0.006271 -1.337473 0.000000 0.000000
    30 0.021413 -0.957779 0.020047 -1.113579 0.000000 0.000000
    31 1.164475 -2.543938 -0.170328 -1.097642 -0.016913 0.408799
    32 0.024033 -1.129042 0.017806 -1.527392 0.000000 0.000001
    33 0.014897 -0.883989 -0.019845 -1.133572 0.000000 0.000000
    34 -0.586770 -1.264477 0.200164 0.352496 -1.203607 -2.952914
    35 1.522835 0.058680 0.016850 -0.002897 -0.139300 1.117608
    36 1.117948 0.048426 -0.005764 -0.018448 -0.015778 0.914116
    37 0.040294 -0.111698 0.010491 0.327662 0.036559 1.579310
    38 -3.350561 7.764926 -3.458282 1.678023 -0.380487 -1.297147
  time 6
    0 3.334303 -11.568062 -5.497698 0.256421 2.954463 -0.489997
    1 -0.071917 -8.498733 -0.104137 0.079902 -0.001888 -0.588164
    2 -5.100550 -1.762691 0.321306 -1.446559 -0.040586 -0.172614
    3 -0.488517 -2.755600 -0.228261 -0.612313 -0.089260 -0.165869
    4 0.039887 -1.479790 0.029853 -1.770478 0.000000 0.000000
    5 0.028785 -1.075733 -0.023111 -1.152308 0.000000 0.000000
    6 0.250028 -2.820663 -0.238396 -0.668170 -0.098642 -0.150664
    7 -0.049759 -1.680546 0.100480 -1.842635 0.000000 -0.000002
    8 -0.034141 -1.148310 0.084779 -1.226183 0.000000 0.000000
    9 0.957766 -2.746775 -0.090300 -0.290978 -0.175483 -0.058104
    10 -0.033419 -1.397129 -0.011255 -1.484048 0.000000 -0.000001
    11 -0.022360 -0.957436 0.018783 -1.152044 0.000000 0.000000
    12 -1.180680 -2.507214 -0.193861 -0.275063 0.070196 -0.121241
    13 -0.024966 -1.123934 0.017594 -1.430757 0.015999 -0.033112
    14 -0.020057 -0.890966 0.010091 -1.284182 0.272877 -0.056543
    15 0.583510 -1.197275 0.185377 0.836977 -0.967256 -0.792412
    16 1.535927 0.010246 0.005008 -0.472683 -0.167897 -0.823617
    17 1.100770 0.004526 -0.010676 0.105904 -0.008332 -0.846728
    18 -0.141575 -0.269023 0.175988 3.238100 6.199576 -1.085423
    19 3.011139 8.340692 -0.153718 -1.570562 0.003258 -1.764138
    20 -15.033484 -2.733229 -6.765661 0.021260 -2.673511 -0.693359
    21 -0.020247 -8.450418 -0.021083 0.015810 -0.050637 -0.054498
    22 0.447952 -2.798985 -0.200442 -1.223838 -0.021050 0.445306
    23 -0.032910 -1.480204 0.004936 -1.634487 0.000000 0.000002
    24 -0.027022 -1.076918 -0.020212 -1.123633 0.000000 0.000000
    25 -0.249534 -2.846962 -0.174216 -0.994562 0.081083 0.364423
    26 0.043235 -1.683941 0.096014 -1.643205 -0.021590 -0.006459
    27 0.031729 -1.160830 0.058836 -1.250690 0.000642 0.008372
    28 -0.963867 -2.785143 -0.085346 -1.172175 0.273625 0.176582
    29 0.028479 -1.403069 0.006271 -1.367827 0.000000 0.000000
    30 0.021413 -0.957779 0.020047 -1.134410 0.000000 0.000000
    31 1.164475 -2.543938 -0.170328 -1.140888 -0.016794 0.409559
    32 0.024033 -1.129042 0.017806 -1.555952 0.000000 0.000001
    33 0.014897 -0.883989 -0.019845 -1.152303 0.000000 0.000000
    34 -0.586770 -1.264477 0.200164 0.375871 -1.214355 -2.966145
    35 1.522835 0.058680 0.016850 -0.005273 -0.138869 1.134037
    36 1.117948 0.048426 -0.005764 -0.018627 -0.015586 0.924495
    37 0.040294 -0.115604 0.010491 0.319503 0.038619 1.576829
    38 -3.350561 7.729768 -3.450469 1.675578 -0.381046 -1.296334
  time 7
    0 9.260265 -12.614969 -4.817990 0.457664 3.085682 -6.098745
    1 -0.071917 -8.498733 -0.104137 0.079021 0.011980 -0.761651
    2 -5.100550 -1.762691 0.321306 -1.446559 -0.040586 -0.172614
    3 -0.488517 -2.755600 -0.228261 -0.621360 -0.091058 -0.162921
    4 0.039887 -1.479790 0.029853 -1.782244 0.000000 0.000000
    5 0.028785 -1.075733 -0.023111 -1.140785 0.000000 0.000000
    6 0.250028 -2.820663 -0.238396 -0.674971 -0.100320 -0.146533
    7 -0.049759 -1.680546 0.100480 -1.845735 0.000000 -0.000002
    8 -0.034141 -1.148310 0.084779 -1.225384 0.000000 0.000000
    9 0.957766 -2.746775 -0.090300 -0.305722 -0.177704 -0.055714
    10 -0.033419 -1.397129 -0.011255 -1.480401 0.000000 -0.000001
    11 -0.022360 -0.957436 0.018783 -1.147488 0.000000 0.000000
    12 -1.180680 -2.507214 -0.193861 -0.276748 0.064455 -0.117968
    13 -0.024966 -1.123934 0.017594 -1.438102 0.018660 -0.038613
    14 -0.020057 -0.890966 0.010091 -1.293476 0.261516 -0.054182
    15 0.583510 -1.197275 0.185377 0.816899 -0.965162 -0.785354
    16 1.535927 0.010246 0.005008 -0.469550 -0.167358 -0.835477
    17 1.100770 0.004526 -0.010676 0.097647 -0.011040 -0.853676
    18 -0.204077 -0.300274 0.168175 3.101584 6.208203 -0.775278
    19 1.409527 8.649295 -0.153718 -1.570562 0.003354 -1.584199
    20 -15.033484 -2.733229 -6.765661 0.117511 -2.673511 -0.693359
    21 -0.039779 -8.450418 -0.024989 0.017198 -0.093059 -0.030374
    22 0.447952 -2.798985 -0.200442 -1.249211 -0.021098 0.444144
    23 -0.032910 -1.480204 0.004936 -1.657459 0.000000 0.000002
    24 -0.027022 -1.076918 -0.020212 -1.143918 0.000000 0.000000
    25 -0.249534 -2.846962 -0.174216 -1.025230 0.079321 0.365269
    26 0.043235 -1.683941 0.096014 -1.663609 -0.021146 -0.006351
    27 0.031729 -1.160830 0.058836 -1.268903 0.000642 0.008372
    28 -0.963867 -2.785143 -0.085346 -1.216555 0.273625 0.176582
    29 0.028479 -1.403069 0.006271 -1.390363 0.000000 0.000000
    30 0.021413 -0.957779 0.020047 -1.150015 0.000000 0.000000
    31 1.164475 -2.543938 -0.170328 -1.173555 -0.016626 0.410678
    32 0.024033 -1.129042 0.017806 -1.577248 0.000000 0.000001
    33 0.014897 -0.883989 -0.019845 -1.166450 0.000000 0.000000
    34 -0.586770 -1.264477 0.200164 0.393053 -1.222307 -2.976084
    35 1.522835 0.058680 0.016850 -0.007093 -0.138342 1.146221
    36 1.117948 0.048426 -0.005764 -0.018771 -0.015455 0.932305
    37 0.040294 -0.115604 0.010491 0.312000 0.040506 1.574540
    38 -3.350561 7.702424 -3.442657 1.673433 -0.381532 -1.295620
  time 8
    0 22.561452 -12.095422 -5.185189 0.551431 -3.124648 -5.414468
    1 -0.071917 -8.498733 -0.104137 0.079021 0.011980 -0.761651
    2 -5.100550 -1.762691 0.321306 -1.446559 -0.040586 -0.172614
    3 -0.488517 -2.755600 -0.228261 -0.628136 -0.092412 -0.160703
    4 0.039887 -1.479790 0.029853 -1.790168 0.000000 0.000000
    5 0.028785 -1.075733 -0.023111 -1.127590 0.000000 0.000000
    6 0.250028 -2.820663 -0.238396 -0.680063 -0.101578 -0.143432
    7 -0.049759 -1.680546 0.100480 -1.848032 0.000000 -0.000002
    8 -0.034141 -1.148310 0.084779 -1.224802 0.000000 0.000000
    9 0.957766 -2.746775 -0.090300 -0.316754 -0.179384 -0.053934
    10 -0.033419 -1.397129 -0.011255 -1.477681 0.000000 -0.000001
    11 -0.022360 -0.957436 0.018783 -1.144088 0.000000 0.000000
    12 -1.180680 -2.507214 -0.193861 -0.278005 0.060153 -0.115505
    13 -0.024966 -1.123934 0.017594 -1.443017 0.020781 -0.042988
    14 -0.020057 -0.890966 0.010091 -1.299764 0.247865 -0.051366
    15 0.583510 -1.197275 0.185377 0.801833 -0.963615 -0.780019
    16 1.535927 0.010246 0.005008 -0.467227 -0.166944 -0.844349
    17 1.100770 0.004526 -0.010676 0.091451 -0.013066 -0.858908
    18 -0.204077 -0.300274 0.168175 3.101584 6.208203 -0.775278
    19 1.323587 8.653202 -0.153718 -1.570562 0.003450 -1.574452
    20 -15.033484 -2.733229 -6.765661 0.216400 -2.673511 -0.693359
    21 -0.051498 -8.450418 -0.024989 0.018356 -0.127991 -0.010481
    22 0.447952 -2.798985 -0.200442 -1.266766 -0.021170 0.442718
    23 -0.032910 -1.480204 0.004936 -1.673926 0.000000 0.000002
    24 -0.027022 -1.076918 -0.020212 -1.158515 0.000000 0.000000
    25 -0.249534 -2.846962 -0.174216 -1.046672 0.076469 0.366478
    26 0.043235 -1.683941 0.096014 -1.678325 -0.020439 -0.006159
    27 0.031729 -1.160830 0.058836 -1.282046 0.000642 0.008372
    28 -0.963867 -2.785143 -0.085346 -1.247648 0.273625 0.176582
    29 0.028479 -1.403069 0.006271 -1.405649 0.000000 0.000000
    30 0.021413 -0.957779 0.020047 -1.160752 0.000000 0.000000
    31 1.164475 -2.543938 -0.170328 -1.196208 -0.016350 0.412482
    32 0.024033 -1.129042 0.017806 -1.591777 0.000000 0.000001
    33 0.014897 -0.883989 -0.019845 -1.176314 0.000000 0.000000
    34 -0.586770 -1.264477 0.200164 0.404633 -1.227637 -2.982884
    35 1.522835 0.058680 0.016850 -0.008336 -0.137623 1.154436
    36 1.117948 0.048426 -0.005764 -0.018867 -0.015359 0.937708
    37 0.040294 -0.119511 0.010491 0.305809 0.042061 1.572658
    38 -3.350561 7.678985 -3.434844 1.671707 -0.381921 -1.295054
  time 9
    0 31.862517 -11.278991 -5.985995 0.580002 -2.913148 -5.009518
    1 -0.071917 -8.498733 -0.104137 0.079021 0.011980 -0.761651
    2 -5.100550 -1.762691 0.321306 -1.446559 -0.040586 -0.172614
    3 -0.488517 -2.755600 -0.228261 -0.631799 -0.093143 -0.159493
    4 0.039887 -1.479790 0.029853 -1.793110 0.000000 0.000000
    5 0.028785 -1.075733 -0.023111 -1.112759 0.000000 0.000000
    6 0.250028 -2.820663 -0.238396 -0.682847 -0.102273 -0.141746
    7 -0.049759 -1.680546 0.100480 -1.849295 0.000000 -0.000002
    8 -0.034141 -1.148310 0.084779 -1.224475 0.000000 0.000000
    9 0.957766 -2.746775 -0.090300 -0.322777 -0.180290 -0.052965
    10 -0.033419 -1.397129 -0.011255 -1.476233 0.000000 -0.000001
    11 -0.022360 -0.957436 0.018783 -1.142244 0.000000 0.000000
    12 -1.180680 -2.507214 -0.193861 -0.278700 0.057816 -0.114179
    13 -0.024966 -1.123934 0.017594 -1.444853 0.022136 -0.045816
    14 -0.020057 -0.890966 0.010091 -1.302107 0.231722 -0.048034
    15 0.583510 -1.197275 0.185377 0.793627 -0.962750 -0.777129
    16 1.535927 0.010246 0.005008 -0.465955 -0.166722 -0.849170
    17 1.100770 0.004526 -0.010676 0.088083 -0.014168 -0.861741
    18 -0.204077 -0.300274 0.168175 3.101584 6.208203 -0.775278
    19 1.304055 8.653202 -0.153718 -1.570562 0.003450 -1.571967
    20 -15.033484 -2.733229 -6.765661 0.314674 -2.673511 -0.693359
    21 -0.059311 -8.450418 -0.024989 0.019137 -0.151688 0.002972
    22 0.447952 -2.798985 -0.200442 -1.276925 -0.021254 0.440992
    23 -0.032910 -1.480204 0.004936 -1.683830 0.000000 0.000002
    24 -0.027022 -1.076918 -0.020212 -1.167281 0.000000 0.000000
    25 -0.249534 -2.846962 -0.174216 -1.059249 0.072070 0.368212
    26 0.043235 -1.683941 0.096014 -1.687196 -0.019337 -0.005884
    27 0.031729 -1.160830 0.058836 -1.290069 0.000642 0.008372
    28 -0.963867 -2.785143 -0.085346 -1.265951 0.273625 0.176582
    29 0.028479 -1.403069 0.006271 -1.414384 0.000000 0.000000
    30 0.021413 -0.957779 0.020047 -1.166944 0.000000 0.000000
    31 1.164475 -2.543938 -0.170328 -1.209371 -0.015931 0.415272
    32 0.024033 -1.129042 0.017806 -1.600151 0.000000 0.000001
    33 0.014897 -0.883989 -0.019845 -1.182043 0.000000 0.000000
    34 -0.586770 -1.264477 0.200164 0.411174 -1.230695 -2.986792
    35 1.522835 0.058680 0.016850 -0.009069 -0.136592 1.159144
    36 1.117948 0.048426 -0.005764 -0.018927 -0.015299 0.940865
    37 0.040294 -0.119511 0.010491 0.301615 0.043112 1.571388
    38 -3.346655 7.663360 -3.430938 1.670581 -0.382164 -1.294685
  time 10
    0 30.081213 -10.661784 -7.087591 0.499370 -2.294992 -5.253964
    1 -0.071917 -8.498733 -0.104137 0.080924 0.019735 -0.743682
    2 -5.100550 -1.762691 0.321306 -1.446559 -0.040586 -0.172614
    3 -0.488517 -2.755600 -0.228261 -0.633557 -0.093491 -0.158930
    4 0.039887 -1.479790 0.029853 -1.694539 0.000000 0.000000
    5 0.028785 -1.075733 -0.023111 -0.885426 0.000000 0.000000
    6 0.250028 -2.820663 -0.238396 -0.684144 -0.102597 -0.140937
    7 -0.049759 -1.680546 0.100480 -1.849869 0.000000 -0.000002
    8 -0.034141 -1.148310 0.084779 -1.224329 0.000000 0.000000
    9 0.957766 -2.746775 -0.090300 -0.325606 -0.180728 -0.052497
    10 -0.033419 -1.397129 -0.011255 -1.475539 0.000000 -0.000001
    11 -0.022360 -0.957436 0.018783 -1.141376 0.000000 0.000000
    12 -1.180680 -2.507214 -0.193861 -0.279021 0.056701 -0.113541
    13 -0.024966 -1.123934 0.017594 -1.305787 0.022843 -0.047266
    14 -0.020057 -0.890966 0.010091 -1.117898 0.194989 -0.040472
    15 0.583510 -1.197275 0.185377 0.789726 -0.962340 -0.775740
    16 1.535927 0.010246 0.005008 -0.465347 -0.166612 -0.851436
    17 1.100770 0.004526 -0.010676 0.086477 -0.014696 -0.863077
    18 -0.196264 -0.296367 0.164269 3.171088 6.212324 -0.914723
    19 1.292336 8.653202 -0.153718 -1.570562 0.003450 -1.570534
    20 -15.033484 -2.733229 -6.765661 0.409165 -2.673511 -0.693359
    21 -0.063217 -8.450418 -0.024989 0.019426 -0.160405 0.007962
    22 0.447952 -2.798985 -0.200442 -1.280202 -0.021362 0.438954
    23 -0.032910 -1.480204 0.004936 -1.687112 0.000000 0.000002
    24 -0.027022 -1.076918 -0.020212 -1.170214 0.000000 0.000000
    25 -0.249534 -2.846962 -0.174216 -1.063357 0.065598 0.370590
    26 0.043235 -1.683941 0.096014 -1.690171 -0.017719 -0.005464
    27 0.031729 -1.160830 0.058836 -1.292776 0.000642 0.008372
    28 -0.963867 -2.785143 -0.085346 -1.271963 0.273625 0.176582
    29 0.028479 -1.403069 0.006271 -1.417135 0.000000 0.000000
    30 0.021413 -0.957779 0.020047 -1.168912 0.000000 0.000000
    31 1.164475 -2.543938 -0.170328 -1.213651 -0.015307 0.419373
    32 0.024033 -1.129042 0.017806 -1.602813 0.000000 0.000001
    33 0.014897 -0.883989 -0.019845 -1.183886 0.000000 0.000000
    34 -0.586770 -1.264477 0.200164 0.413238 -1.231627 -2.988054
    35 1.522835 0.058680 0.016850 -0.009291 -0.135142 1.160620
    36 1.117948 0.048426 -0.005764 -0.018939 -0.015287 0.941854
    37 0.040294 -0.119511 0.010491 0.300075 0.043501 1.570920
    38 -3.346655 7.655547 -3.430938 1.670161 -0.382261 -1.294537
  time 11
    0 25.944368 -10.040672 -8.400131 0.307618 -1.464858 -5.791726
    1 -0.071917 -8.498733 -0.104137 0.086175 0.041302 -0.693658
    2 -5.100550 -1.762691 0.321306 -1.446559 -0.040586 -0.172614
    3 -0.488517 -2.755600 -0.228261 -0.635096 -0.093790 -0.158438
    4 0.039887 -1.479790 0.029853 -1.477648 0.000000 0.000000
    5 0.028785 -1.075733 -0.023111 -0.405749 0.000000 0.000000
    6 0.250028 -2.820663 -0.238396 -0.685282 -0.102872 -0.140245
    7 -0.049759 -1.680546 0.100480 -1.850386 0.000000 -0.000002
    8 -0.034141 -1.148310 0.084779 -1.224220 0.000000 0.000000
    9 0.957766 -2.746775 -0.090300 -0.328072 -0.181093 -0.052091
    10 -0.033419 -1.397129 -0.011255 -1.474902 0.000000 -0.000001
    11 -0.022360 -0.957436 0.018783 -1.140616 0.000000 0.000000
    12 -1.180680 -2.507214 -0.193861 -0.279316 0.055742 -0.112990
    13 -0.024966 -1.123934 0.017594 -0.999843 0.023202 -0.048009
    14 -0.020057 -0.890966 0.010091 -0.712655 0.136840 -0.028511
    15 0.583510 -1.197275 0.185377 0.786363 -0.962021 -0.774573
    16 1.535927 0.010246 0.005008 -0.464831 -0.166515 -0.853413
    17 1.100770 0.004526 -0.010676 0.085099 -0.015151 -0.864248
    18 -0.184545 -0.292461 0.156456 3.324189 6.221622 -1.224486
    19 1.280617 8.653202 -0.153718 -1.570562 0.003450 -1.569292
    20 -15.033484 -2.733229 -6.765661 0.496530 -2.673511 -0.693359
    21 -0.063217 -8.450418 -0.024989 0.019426 -0.160405 0.007962
    22 0.447952 -2.798985 -0.200442 -0.961216 -0.021590 0.434268
    23 -0.032910 -1.480204 0.004936 -1.264065 0.000000 0.000002
    24 -0.027022 -1.076918 -0.020212 -0.866288 0.000000 0.000000
    25 -0.249534 -2.846962 -0.174216 -0.777798 0.040838 0.379498
    26 0.043235 -1.683941 0.096014 -1.246864 -0.011547 -0.003870
    27 0.031729 -1.160830 0.058836 -0.967998 0.000642 0.008372
    28 -0.963867 -2.785143 -0.085346 -0.904786 0.273625 0.176582
    29 0.028479 -1.403069 0.006271 -1.019568 0.000000 0.000000
    30 0.021413 -0.957779 0.020047 -0.844324 0.000000 0.000000
    31 1.164475 -2.543938 -0.170328 -0.962816 -0.012946 0.435014
    32 0.024033 -1.129042 0.017806 -1.191932 0.000000 0.000001
    33 0.014897 -0.883989 -0.019845 -0.844793 0.000000 0.000000
    34 -0.586770 -1.264477 0.200164 0.285750 -1.140548 -2.891650
    35 1.522835 0.058680 0.016850 0.014442 -0.106415 0.953909
    36 1.117948 0.048426 -0.005764 -0.015344 -0.017156 0.769917
    37 0.040294 -0.119511 0.010491 0.300075 0.043501 1.570920
    38 -3.346655 7.655547 -3.430938 1.670161 -0.382261 -1.294537
  time 12
    0 21.268444 -9.482061 -9.497821 0.080009 -0.736508 -0.046333
    1 -0.071917 -8.498733 -0.104137 0.094174 0.074133 -0.617408
    2 -5.100550 -1.762691 0.321306 -1.446559 -0.040586 -0.172614
    3 -0.488517 -2.755600 -0.228261 -0.636378 -0.094054 -0.158007
    4 0.039887 -1.479790 0.029853 -1.260816 0.000000 0.000000
    5 0.028785 -1.075733 -0.023111 0.070001 0.000000 0.000000
    6 0.250028 -2.820663 -0.238396 -0.686263 -0.103112 -0.139655
    7 -0.049759 -1.680546 0.100480 -1.850845 0.000000 -0.000002
    8 -0.034141 -1.148310 0.084779 -1.224075 0.000000 0.000000
    9 0.957766 -2.746775 -0.090300 -0.330201 -0.181414 -0.051763
    10 -0.033419 -1.397129 -0.011255 -1.474381 0.000000 -0.000001
    11 -0.022360 -0.957436 0.018783 -1.139965 0.000000 0.000000
    12 -1.180680 -2.507214 -0.193861 -0.279556 0.054915 -0.112525
    13 -0.024966 -1.123934 0.017594 -0.693952 0.023382 -0.048393
    14 -0.020057 -0.890966 0.010091 -0.307372 0.083065 -0.017450
    15 0.583510 -1.197275 0.185377 0.783504 -0.961703 -0.773573
    16 1.535927 0.010246 0.005008 -0.464370 -0.166446 -0.855149
    17 1.100770 0.004526 -0.010676 0.083913 -0.015534 -0.865256
    18 -0.165013 -0.284648 0.144737 -2.805903 6.231015 -1.541991
    19 1.268898 8.653202 -0.153718 -1.570562 0.003546 -1.568145
    20 -15.033484 -2.733229 -6.765661 0.573512 -2.673511 -0.693359
    21 -0.063217 -8.450418 -0.024989 0.019426 -0.160405 0.007962
    22 0.447952 -2.798985 -0.200442 -0.368746 -0.021997 0.425795
    23 -0.032910 -1.480204 0.004936 -0.478449 0.000000 0.000002
    24 -0.027022 -1.076918 -0.020212 -0.301832 0.000000 0.000000
    25 -0.249534 -2.846962 -0.174216 -0.247403 0.002907 0.393136
    26 0.043235 -1.683941 0.096014 -0.423550 -0.002079 -0.001425
    27 0.031729 -1.160830 0.058836 -0.364910 0.000642 0.008372
    28 -0.963867 -2.785143 -0.085346 -0.222929 0.273625 0.176582
    29 0.028479 -1.403069 0.006271 -0.281210 0.000000 0.000000
    30 0.021413 -0.957779 0.020047 -0.241460 0.000000 0.000000
    31 1.164475 -2.543938 -0.170328 -0.491592 -0.009315 0.458989
    32 0.024033 -1.129042 0.017806 -0.428899 0.000000 0.000001
    33 0.014897 -0.883989 -0.019845 -0.215029 0.000000 0.000000
    34 -0.586770 -1.264477 0.200164 0.048896 -0.959379 -2.712689
    35 1.522835 0.058680 0.016850 0.058556 -0.049008 0.570023
    36 1.117948 0.048426 -0.005764 -0.008285 -0.020728 0.433638
    37 0.040294 -0.119511 0.010491 0.300075 0.043501 1.570920
    38 -3.346655 7.655547 -3.430938 1.670161 -0.382261 -1.294537
  time 13
    0 17.869903 -9.048454 -9.958772 6.175039 -0.423989 -0.290779
    1 -0.071917 -8.498733 -0.104137 0.104289 0.115794 -0.520760
    2 -5.100550 -1.762691 0.321306 -1.446559 -0.040586 -0.172614
    3 -0.488517 -2.755600 -0.228261 -0.637477 -0.094270 -0.157659
    4 0.039887 -1.479790 0.029853 -1.162245 0.000000 0.000000
    5 0.028785 -1.075733 -0.023111 0.285521 0.000000 0.000000
    6 0.250028 -2.820663 -0.238396 -0.687085 -0.103316 -0.139166
    7 -0.049759 -1.680546 0.100480 -1.851189 0.000000 -0.000002
    8 -0.034141 -1.148310 0.084779 -1.224002 0.000000 0.000000
    9 0.957766 -2.746775 -0.090300 -0.331966 -0.181677 -0.051466
    10 -0.033419 -1.397129 -0.011255 -1.473976 0.000000 -0.000001
    11 -0.022360 -0.957436 0.018783 -1.139423 0.000000 0.000000
    12 -1.180680 -2.507214 -0.193861 -0.279744 0.054220 -0.112129
    13 -0.024966 -1.123934 0.017594 -0.554886 0.023550 -0.048716
    14 -0.020057 -0.890966 0.010091 -0.123202 0.059408 -0.012596
    15 0.583510 -1.197275 0.185377 0.781049 -0.961429 -0.772684
    16 1.535927 0.010246 0.005008 -0.464001 -0.166377 -0.856547
    17 1.100770 0.004526 -0.010676 0.082918 -0.015858 -0.866101
    18 -0.137668 -0.272929 0.129111 0.405198 3.189023 1.436836
    19 1.261085 8.657108 -0.153718 -1.570562 0.003546 -1.567094
    20 -15.033484 -2.733229 -6.765661 0.636946 -2.673511 -0.693359
    21 -0.063217 -8.450418 -0.024989 0.019426 -0.160405 0.007962
    22 0.447952 -2.798985 -0.200442 -0.049432 -0.022512 0.415273
    23 -0.032910 -1.480204 0.004936 -0.055403 0.000000 0.000002
    24 -0.027022 -1.076918 -0.020212 0.002094 0.000000 0.000000
    25 -0.249534 -2.846962 -0.174216 0.038335 -0.016724 0.400204
    26 0.043235 -1.683941 0.096014 0.019757 0.002823 -0.000167
    27 0.031729 -1.160830 0.058836 -0.040181 0.000642 0.008372
    28 -0.963867 -2.785143 -0.085346 0.144172 0.273625 0.176582
    29 0.028479 -1.403069 0.006271 0.116314 0.000000 0.000000
    30 0.021413 -0.957779 0.020047 0.083128 0.000000 0.000000
    31 1.164475 -2.543938 -0.170328 -0.221698 -0.007434 0.471404
    32 0.024033 -1.129042 0.017806 -0.018074 0.000000 0.000001
    33 0.014897 -0.883989 -0.019845 0.124063 0.000000 0.000000
    34 -0.586770 -1.264477 0.200164 -0.079074 -0.826211 -2.616285
    35 1.522835 0.058680 0.016850 0.082311 -0.001034 0.363358
    36 1.117948 0.048426 -0.005764 -0.003383 -0.022933 0.202400
    37 0.040294 -0.119511 0.010491 0.300075 0.043501 1.570920
    38 -3.346655 7.655547 -3.430938 1.670161 -0.382261 -1.294537
  time 14
    0 15.690149 -8.728132 -9.892364 6.021541 -0.441287 -0.258199
    1 -0.071917 -8.498733 -0.104137 0.115953 0.163739 -0.409507
    2 -5.100550 -1.762691 0.321306 -1.446559 -0.040586 -0.172614
    3 -0.488517 -2.755600 -0.228261 -0.638356 -0.094449 -0.157360
    4 0.039887 -1.479790 0.029853 -1.184276 0.000000 0.000000
    5 0.028785 -1.075733 -0.023111 0.239502 0.000000 0.000000
    6 0.250028 -2.820663 -0.238396 -0.687781 -0.103484 -0.138745
    7 -0.049759 -1.680546 0.100480 -1.851534 0.000000 -0.000002
    8 -0.034141 -1.148310 0.084779 -1.223930 0.000000 0.000000
    9 0.957766 -2.746775 -0.090300 -0.333446 -0.181911 -0.051232
    10 -0.033419 -1.397129 -0.011255 -1.473571 0.000000 -0.000001
    11 -0.022360 -0.957436 0.018783 -1.138953 0.000000 0.000000
    12 -1.180680 -2.507214 -0.193861 -0.279931 0.053645 -0.111801
    13 -0.024966 -1.123934 0.017594 -0.585669 0.023741 -0.049124
    14 -0.020057 -0.890966 0.010091 -0.163934 0.063926 -0.013519
    15 0.583510 -1.197275 0.185377 0.779065 -0.961247 -0.771961
    16 1.535927 0.010246 0.005008 -0.463688 -0.166322 -0.857752
    17 1.100770 0.004526 -0.010676 0.082091 -0.016134 -0.866782
    18 -0.106417 -0.257304 0.113486 0.400021 3.188448 1.408067
    19 1.257179 8.657108 -0.153718 -1.570562 0.003546 -1.566234
    20 -14.767851 -2.799637 -7.015668 0.689910 -2.677129 -0.667207
    21 -0.059311 -8.450418 -0.024989 0.037449 -0.142390 0.007801
    22 0.447952 -2.798985 -0.200442 -0.049058 -0.023016 0.405362
    23 -0.032910 -1.480204 0.004936 -0.055403 0.000000 0.000002
    24 -0.027022 -1.076918 -0.020212 0.002094 0.000000 0.000000
    25 -0.249534 -2.846962 -0.174216 0.038516 -0.016724 0.399908
    26 0.043235 -1.683941 0.096014 0.019757 0.002823 -0.000167
    27 0.031729 -1.160830 0.058836 -0.040181 0.000642 0.008372
    28 -0.963867 -2.785143 -0.085346 0.142066 0.273625 0.176582
    29 0.028479 -1.403069 0.006271 0.116314 0.000000 0.000000
    30 0.021413 -0.957779 0.020047 0.083128 0.000000 0.000000
    31 1.164475 -2.543938 -0.170328 -0.195936 -0.007446 0.471062
    32 0.024033 -1.129042 0.017806 -0.018074 0.000000 0.000001
    33 0.014897 -0.883989 -0.019845 0.124063 0.000000 0.000000
    34 -0.586770 -1.264477 0.200164 -0.079771 -0.764317 -2.622347
    35 1.522835 0.058680 0.016850 0.075473 0.031049 0.401110
    36 1.117948 0.048426 -0.005764 -0.001561 -0.023364 0.120898
    37 0.040294 -0.119511 0.010491 0.293998 0.052301 1.571651
    38 -3.350561 7.636015 -3.434844 1.669298 -0.383792 -1.292936
  time 15
    0 13.498676 -8.458592 -9.716577 5.853375 -0.489838 -0.170904
    1 -0.071917 -8.498733 -0.104137 0.128535 0.215419 -0.289547
    2 -5.100550 -1.762691 0.321306 -1.446559 -0.040586 -0.172614
    3 -0.488517 -2.755600 -0.228261 -0.639088 -0.094593 -0.157120
    4 0.039887 -1.479790 0.029853 -1.243407 0.000000 0.000000
    5 0.028785 -1.075733 -0.023111 0.115802 0.000000 0.000000
    6 0.250028 -2.820663 -0.238396 -0.688319 -0.103628 -0.138408
    7 -0.049759 -1.680546 0.100480 -1.851764 0.000000 -0.000002
    8 -0.034141 -1.148310 0.084779 -1.223857 0.000000 0.000000
    9 0.957766 -2.746775 -0.090300 -0.334640 -0.182086 -0.051044
    10 -0.033419 -1.397129 -0.011255 -1.473281 0.000000 -0.000001
    11 -0.022360 -0.957436 0.018783 -1.138591 0.000000 0.000000
    12 -1.180680 -2.507214 -0.193861 -0.280065 0.053178 -0.111543
    13 -0.024966 -1.123934 0.017594 -0.668137 0.023933 -0.049531
    14 -0.020057 -0.890966 0.010091 -0.273201 0.076258 -0.016047
    15 0.583510 -1.197275 0.185377 0.777417 -0.961065 -0.771406
    16 1.535927 0.010246 0.005008 -0.463430 -0.166266 -0.858716
    17 1.100770 0.004526 -0.010676 0.081420 -0.016349 -0.867355
    18 -0.075166 -0.241678 0.090048 0.386025 3.188160 1.383695
    19 1.249366 8.657108 -0.153718 -1.570562 0.003546 -1.565374
    20 -14.060798 -2.975424 -7.683657 0.737683 -2.687191 -0.595909
    21 -0.043685 -8.450418 -0.024989 0.085703 -0.093543 0.007296
    22 0.447952 -2.798985 -0.200442 -0.048824 -0.023447 0.397032
    23 -0.032910 -1.480204 0.004936 -0.055403 0.000000 0.000002
    24 -0.027022 -1.076918 -0.020212 0.002094 0.000000 0.000000
    25 -0.249534 -2.846962 -0.174216 0.038660 -0.016688 0.398739
    26 0.043235 -1.683941 0.096014 0.019757 0.002823 -0.000167
    27 0.031729 -1.160830 0.058836 -0.040181 0.000642 0.008372
    28 -0.963867 -2.785143 -0.085346 0.136245 0.273625 0.176582
    29 0.028479 -1.403069 0.006271 0.116314 0.000000 0.000000
    30 0.021413 -0.957779 0.020047 0.083128 0.000000 0.000000
    31 1.164475 -2.543938 -0.170328 -0.175262 -0.007505 0.469449
    32 0.024033 -1.129042 0.017806 -0.018074 0.000000 0.000001
    33 0.014897 -0.883989 -0.019845 0.124063 0.000000 0.000000
    34 -0.586770 -1.264477 0.200164 -0.080414 -0.705480 -2.638563
    35 1.522835 0.058680 0.016850 0.057157 0.065229 0.502412
    36 1.117948 0.048426 -0.005764 -0.000027 -0.023712 0.053492
    37 0.044200 -0.119511 0.010491 0.277479 0.075864 1.573833
    38 -3.358374 7.585233 -3.446563 1.666901 -0.388118 -1.288479
  time 16
    0 11.369704 -8.228116 -9.450944 5.679456 -0.564383 -0.044513
    1 -0.071917 -8.498733 -0.104137 0.141433 0.268402 -0.166673
    2 -5.100550 -1.762691 0.321306 -1.446559 -0.040586 -0.172614
    3 -0.488517 -2.755600 -0.228261 -0.639674 -0.094713 -0.156928
    4 0.039887 -1.479790 0.029853 -1.328951 0.000000 0.000000
    5 0.028785 -1.075733 -0.023111 -0.063840 0.000000 0.000000
    6 0.250028 -2.820663 -0.238396 -0.688762 -0.103735 -0.138138
    7 -0.049759 -1.680546 0.100480 -1.851936 0.000000 -0.000002
    8 -0.034141 -1.148310 0.084779 -1.223821 0.000000 0.000000
    9 0.957766 -2.746775 -0.090300 -0.335574 -0.182233 -0.050888
    10 -0.033419 -1.397129 -0.011255 -1.473050 0.000000 -0.000001
    11 -0.022360 -0.957436 0.018783 -1.138302 0.000000 0.000000
    12 -1.180680 -2.507214 -0.193861 -0.280172 0.052806 -0.111319
    13 -0.024966 -1.123934 0.017594 -0.787598 0.024125 -0.049915
    14 -0.020057 -0.890966 0.010091 -0.431362 0.094498 -0.019799
    15 0.583510 -1.197275 0.185377 0.776139 -0.960929 -0.770961
    16 1.535927 0.010246 0.005008 -0.463227 -0.166239 -0.859488
    17 1.100770 0.004526 -0.010676 0.080892 -0.016529 -0.867790
    18 -0.040009 -0.226053 0.070516 0.365796 3.187968 1.363624
    19 1.241554 8.657108 -0.153718 -1.570562 0.003546 -1.564609
    20 -13.033423 -3.237151 -8.656343 0.780002 -2.702371 -0.489963
    21 -0.020247 -8.450418 -0.021083 0.155567 -0.021580 0.006330
    22 0.447952 -2.798985 -0.200442 -0.048683 -0.023855 0.389374
    23 -0.032910 -1.480204 0.004936 -0.055403 0.000000 0.000002
    24 -0.027022 -1.076918 -0.020212 0.002094 0.000000 0.000000
    25 -0.249534 -2.846962 -0.174216 0.038768 -0.016592 0.396226
    26 0.043235 -1.683941 0.096014 0.019757 0.002823 -0.000167
    27 0.031729 -1.160830 0.058836 -0.040181 0.000642 0.008372
    28 -0.963867 -2.785143 -0.085346 0.127630 0.273625 0.176582
    29 0.028479 -1.403069 0.006271 0.116314 0.000000 0.000000
    30 0.021413 -0.957779 0.020047 0.083128 0.000000 0.000000
    31 1.164475 -2.543938 -0.170328 -0.158706 -0.007661 0.465728
    32 0.024033 -1.129042 0.017806 -0.018074 0.000000 0.000001
    33 0.014897 -0.883989 -0.019845 0.124063 0.000000 0.000000
    34 -0.586770 -1.264477 0.200164 -0.080977 -0.650897 -2.662071
    35 1.522835 0.058680 0.016850 0.030627 0.099924 0.649034
    36 1.117948 0.048426 -0.005764 0.001267 -0.023988 -0.001101
    37 0.044200 -0.119511 0.010491 0.252773 0.109984 1.577416
    38 -3.373999 7.503199 -3.462189 1.663330 -0.394851 -1.281731
  time 17
    0 9.377456 -8.017172 -9.122809 5.508221 -0.659668 -6.177704
    1 -0.071917 -8.498733 -0.104137 0.154014 0.320026 -0.046713
    2 -5.100550 -1.762691 0.321306 -1.446559 -0.040586 -0.172614
    3 -0.488517 -2.755600 -0.228261 -0.640114 -0.094797 -0.156784
    4 0.039887 -1.479790 0.029853 -1.430463 0.000000 0.000000
    5 0.028785 -1.075733 -0.023111 -0.277797 0.000000 0.000000
    6 0.250028 -2.820663 -0.238396 -0.689110 -0.103807 -0.137936
    7 -0.049759 -1.680546 0.100480 -1.852108 0.000000 -0.000002
    8 -0.034141 -1.148310 0.084779 -1.223748 0.000000 0.000000
    9 0.957766 -2.746775 -0.090300 -0.336301 -0.182335 -0.050763
    10 -0.033419 -1.397129 -0.011255 -1.472876 0.000000 -0.000001
    11 -0.022360 -0.957436 0.018783 -1.138085 0.000000 0.000000
    12 -1.180680 -2.507214 -0.193861 -0.280252 0.052531 -0.111164
    13 -0.024966 -1.123934 0.017594 -0.929202 0.024293 -0.050262
    14 -0.020057 -0.890966 0.010091 -0.618851 0.116790 -0.024389
    15 0.583510 -1.197275 0.185377 0.775130 -0.960838 -0.770572
    16 1.535927 0.010246 0.005008 -0.463080 -0.166211 -0.860066
    17 1.100770 0.004526 -0.010676 0.080485 -0.016661 -0.868145
    18 -0.008758 -0.210427 0.047078 0.341829 3.187873 1.347376
    19 1.237647 8.657108 -0.153718 -1.570562 0.003546 -1.564036
    20 -11.814636 -3.561379 -9.808722 0.816514 -2.721611 -0.360061
    21 0.007098 -8.450418 -0.021083 0.238421 0.065686 0.004789
    22 0.447952 -2.798985 -0.200442 -0.048590 -0.024286 0.381476
    23 -0.032910 -1.480204 0.004936 -0.055403 0.000000 0.000002
    24 -0.027022 -1.076918 -0.020212 0.002094 0.000000 0.000000
    25 -0.249534 -2.846962 -0.174216 0.038876 -0.016436 0.391940
    26 0.043235 -1.683941 0.096014 0.019757 0.002823 -0.000167
    27 0.031729 -1.160830 0.058836 -0.040181 0.000642 0.008372
    28 -0.963867 -2.785143 -0.085346 0.117138 0.273625 0.176582
    29 0.028479 -1.403069 0.006271 0.116314 0.000000 0.000000
    30 0.021413 -0.957779 0.020047 0.083128 0.000000 0.000000
    31 1.164475 -2.543938 -0.170328 -0.145462 -0.007937 0.459008
    32 0.024033 -1.129042 0.017806 -0.018074 0.000000 0.000001
    33 0.014897 -0.883989 -0.019845 0.124063 0.000000 0.000000
    34 -0.586770 -1.264477 0.200164 -0.081486 -0.601643 -2.689919
    35 1.522835 0.058680 0.016850 -0.000810 0.133565 0.822886
    36 1.117948 0.048426 -0.005764 0.002322 -0.024203 -0.044005
    37 0.044200 -0.119511 0.010491 0.222304 0.150441 1.582342
    38 -3.393531 7.401633 -3.493440 1.658896 -0.403528 -1.273260
  time 18
    0 7.584433 -7.810135 -8.755610 5.348683 -0.770722 -6.020074
    1 -0.071917 -8.498733 -0.104137 0.165679 0.367970 0.064506
    2 -5.100550 -1.762691 0.321306 -1.446559 -0.040586 -0.172614
    3 -0.488517 -2.755600 -0.228261 -0.640444 -0.094869 -0.156677
    4 0.039887 -1.479790 0.029853 -1.537198 0.000000 0.000000
    5 0.028785 -1.075733 -0.023111 -0.504404 0.000000 0.000000
    6 0.250028 -2.820663 -0.238396 -0.689331 -0.103879 -0.137784
    7 -0.049759 -1.680546 0.100480 -1.852223 0.000000 -0.000002
    8 -0.034141 -1.148310 0.084779 -1.223748 0.000000 0.000000
    9 0.957766 -2.746775 -0.090300 -0.336846 -0.182422 -0.050685
    10 -0.033419 -1.397129 -0.011255 -1.472760 0.000000 -0.000001
    11 -0.022360 -0.957436 0.018783 -1.137904 0.000000 0.000000
    12 -1.180680 -2.507214 -0.193861 -0.280305 0.052315 -0.111043
    13 -0.024966 -1.123934 0.017594 -1.078205 0.024437 -0.050562
    14 -0.020057 -0.890966 0.010091 -0.816143 0.141250 -0.029410
    15 0.583510 -1.197275 0.185377 0.774391 -0.960747 -0.770350
    16 1.535927 0.010246 0.005008 -0.462969 -0.166183 -0.860500
    17 1.100770 0.004526 -0.010676 0.080185 -0.016757 -0.868390
    18 0.022493 -0.194802 0.027546 0.316616 3.187777 1.334760
    19 1.233741 8.657108 -0.153718 -1.570562 0.003546 -1.563558
    20 -10.533347 -3.920765 -11.019697 0.846955 -2.743411 -0.216701
    21 0.034442 -8.450418 -0.017177 0.325585 0.160475 0.002558
    22 0.447952 -2.798985 -0.200442 -0.048496 -0.024754 0.372464
    23 -0.032910 -1.480204 0.004936 -0.055403 0.000000 0.000002
    24 -0.027022 -1.076918 -0.020212 0.002094 0.000000 0.000000
    25 -0.249534 -2.846962 -0.174216 0.038948 -0.016196 0.385410
    26 0.043235 -1.683941 0.096014 0.019757 0.002823 -0.000167
    27 0.031729 -1.160830 0.058836 -0.040181 0.000642 0.008372
    28 -0.963867 -2.785143 -0.085346 0.105612 0.273625 0.176582
    29 0.028479 -1.403069 0.006271 0.116314 0.000000 0.000000
    30 0.021413 -0.957779 0.020047 0.083128 0.000000 0.000000
    31 1.164475 -2.543938 -0.170328 -0.134600 -0.008404 0.448454
    32 0.024033 -1.129042 0.017806 -0.018074 0.000000 0.000001
    33 0.014897 -0.883989 -0.019845 0.124063 0.000000 0.000000
    34 -0.586770 -1.264477 0.200164 -0.081888 -0.558827 -2.719212
    35 1.522835 0.058680 0.016850 -0.033890 0.164605 1.005783
    36 1.117948 0.048426 -0.005764 0.003149 -0.024371 -0.076424
    37 0.048107 -0.119511 0.010491 0.188439 0.193016 1.588610
    38 -3.420876 7.288349 -3.528597 1.653922 -0.413784 -1.263607
  time 19
    0 6.068761 -7.591378 -8.372786 5.209375 -0.892194 -5.870206
    1 -0.071917 -8.498733 -0.104137 0.175828 0.409632 0.161154
    2 -5.100550 -1.762691 0.321306 -1.446559 -0.040586 -0.172614
    3 -0.488517 -2.755600 -0.228261 -0.640700 -0.094917 -0.156605
    4 0.039887 -1.479790 0.029853 -1.638650 0.000000 0.000000
    5 0.028785 -1.075733 -0.023111 -0.721996 0.000000 0.000000
    6 0.250028 -2.820663 -0.238396 -0.689521 -0.103915 -0.137683
    7 -0.049759 -1.680546 0.100480 -1.852280 0.000000 -0.000002
    8 -0.034141 -1.148310 0.084779 -1.223712 0.000000 0.000000
    9 0.957766 -2.746775 -0.090300 -0.337210 -0.182481 -0.050622
    10 -0.033419 -1.397129 -0.011255 -1.472645 0.000000 -0.000001
    11 -0.022360 -0.957436 0.018783 -1.137796 0.000000 0.000000
    12 -1.180680 -2.507214 -0.193861 -0.280359 0.052171 -0.110957
    13 -0.024966 -1.123934 0.017594 -1.219809 0.024568 -0.050826
    14 -0.020057 -0.890966 0.010091 -1.003632 0.166011 -0.034504
    15 0.583510 -1.197275 0.185377 0.773886 -0.960701 -0.770183
    16 1.535927 0.010246 0.005008 -0.462895 -0.166183 -0.860790
    17 1.100770 0.004526 -0.010676 0.079982 -0.016829 -0.868581
    18 0.045931 -0.179176 0.008014 0.292649 3.187681 1.325489
    19 1.229834 8.657108 -0.153718 -1.570562 0.003546 -1.563080
    20 -9.314560 -4.291870 -12.168169 0.871149 -2.766799 -0.070668
    21 0.061787 -8.450418 -0.017177 0.408439 0.255005 -0.000455
    22 0.447952 -2.798985 -0.200442 -0.048356 -0.025305 0.361414
    23 -0.032910 -1.480204 0.004936 -0.055403 0.000000 0.000002
    24 -0.027022 -1.076918 -0.020212 0.002094 0.000000 0.000000
    25 -0.249534 -2.846962 -0.174216 0.039020 -0.015849 0.376193
    26 0.043235 -1.683941 0.096014 0.019757 0.002823 -0.000167
    27 0.031729 -1.160830 0.058836 -0.040181 0.000642 0.008372
    28 -0.963867 -2.785143 -0.085346 0.093972 0.273625 0.176582
    29 0.028479 -1.403069 0.006271 0.116314 0.000000 0.000000
    30 0.021413 -0.957779 0.020047 0.083128 0.000000 0.000000
    31 1.164475 -2.543938 -0.170328 -0.125192 -0.009075 0.433192
    32 0.024033 -1.129042 0.017806 -0.018074 0.000000 0.000001
    33 0.014897 -0.883989 -0.019845 0.124063 0.000000 0.000000
    34 -0.586770 -1.264477 0.200164 -0.082210 -0.523612 -2.747059
    35 1.522835 0.058680 0.016850 -0.065349 0.191462 1.179635
    36 1.117948 0.048426 -0.005764 0.003772 -0.024503 -0.099588
    37 0.048107 -0.119511 0.010491 0.153548 0.233458 1.596148
    38 -3.448220 7.167251 -3.575473 1.648757 -0.425183 -1.253338
  time 20
    0 4.896851 -7.353090 -7.997775 5.099022 -1.018921 -5.743814
    1 -0.071917 -8.498733 -0.104137 0.183828 0.442519 0.237404
    2 -5.100550 -1.762691 0.321306 -1.446559 -0.040586 -0.172614
    3 -0.488517 -2.755600 -0.228261 -0.640810 -0.094941 -0.156557
    4 0.039887 -1.479790 0.029853 -1.724255 0.000000 0.000000
    5 0.028785 -1.075733 -0.023111 -0.908872 0.000000 0.000000
    6 0.250028 -2.820663 -0.238396 -0.689616 -0.103939 -0.137616
    7 -0.049759 -1.680546 0.100480 -1.852338 0.000000 -0.000002
    8 -0.034141 -1.148310 0.084779 -1.223712 0.000000 0.000000
    9 0.957766 -2.746775 -0.090300 -0.337443 -0.182510 -0.050576
    10 -0.033419 -1.397129 -0.011255 -1.472587 0.000000 -0.000001
    11 -0.022360 -0.957436 0.018783 -1.137723 0.000000 0.000000
    12 -1.180680 -2.507214 -0.193861 -0.280386 0.052087 -0.110906
    13 -0.024966 -1.123934 0.017594 -1.339217 0.024664 -0.051017
    14 -0.020057 -0.890966 0.010091 -1.161793 0.189177 -0.039274
    15 0.583510 -1.197275 0.185377 0.773583 -0.960656 -0.770072
    16 1.535927 0.010246 0.005008 -0.462840 -0.166170 -0.860982
    17 1.100770 0.004526 -0.010676 0.079850 -0.016865 -0.868690
    18 0.069369 -0.167457 -0.011518 0.272613 3.187393 1.319181
    19 1.225928 8.657108 -0.153718 -1.570562 0.003546 -1.562889
    20 -8.291091 -4.651256 -13.140855 0.888745 -2.790363 -6.215404
    21 0.085225 -8.450418 -0.013270 0.478303 0.341529 -0.004364
    22 0.447952 -2.798985 -0.200442 -0.048122 -0.025976 0.347440
    23 -0.032910 -1.480204 0.004936 -0.055403 0.000000 0.000002
    24 -0.027022 -1.076918 -0.020212 0.002094 0.000000 0.000000
    25 -0.249534 -2.846962 -0.174216 0.039128 -0.015357 0.363845
    26 0.043235 -1.683941 0.096014 0.019757 0.002823 -0.000167
    27 0.031729 -1.160830 0.058836 -0.040181 0.000642 0.008372
    28 -0.963867 -2.785143 -0.085346 0.083097 0.273625 0.176582
    29 0.028479 -1.403069 0.006271 0.116314 0.000000 0.000000
    30 0.021413 -0.957779 0.020047 0.083128 0.000000 0.000000
    31 1.164475 -2.543938 -0.170328 -0.116349 -0.010022 0.412368
    32 0.024033 -1.129042 0.017806 -0.018074 0.000000 0.000001
    33 0.014897 -0.883989 -0.019845 0.124063 0.000000 0.000000
    34 -0.586770 -1.264477 0.200164 -0.082451 -0.497049 -2.770537
    35 1.522835 0.058680 0.016850 -0.091880 0.212579 1.326257
    36 1.117948 0.048426 -0.005764 0.004191 -0.024623 -0.114647
    37 0.048107 -0.119511 0.010491 0.120026 0.267593 1.604933
    38 -3.483378 7.050060 -3.634069 1.643735 -0.437287 -1.243020
  time 21
    0 4.142921 -7.071831 -7.657921 5.026444 -1.145745 -5.656423
    1 -0.071917 -8.498733 -0.104137 0.189079 0.464086 0.287427
    2 -5.100550 -1.762691 0.321306 -1.446559 -0.040586 -0.172614
    3 -0.488517 -2.755600 -0.228261 -0.640883 -0.094953 -0.156533
    4 0.039887 -1.479790 0.029853 -1.783385 0.000000 0.000000
    5 0.028785 -1.075733 -0.023111 -1.043367 0.000000 0.000000
    6 0.250028 -2.820663 -0.238396 -0.689679 -0.103951 -0.137582
    7 -0.049759 -1.680546 0.100480 -1.852395 0.000000 -0.000002
    8 -0.034141 -1.148310 0.084779 -1.223712 0.000000 0.000000
    9 0.957766 -2.746775 -0.090300 -0.337547 -0.182525 -0.050560
    10 -0.033419 -1.397129 -0.011255 -1.472587 0.000000 -0.000001
    11 -0.022360 -0.957436 0.018783 -1.137687 0.000000 0.000000
    12 -1.180680 -2.507214 -0.193861 -0.280386 0.052039 -0.110888
    13 -0.024966 -1.123934 0.017594 -1.421738 0.024724 -0.051149
    14 -0.020057 -0.890966 0.010091 -1.271060 0.208903 -0.043324
    15 0.583510 -1.197275 0.185377 0.773415 -0.960656 -0.770016
    16 1.535927 0.010246 0.005008 -0.462822 -0.166170 -0.861031
    17 1.100770 0.004526 -0.010676 0.079790 -0.016889 -0.868744
    18 0.081088 -0.151832 -0.027143 0.258616 3.187010 1.315645
    19 1.225928 8.657108 -0.153718 -1.570562 0.003546 -1.562698
    20 -7.580132 -4.963766 -13.808844 0.899479 -2.812957 -6.095524
    21 0.096944 -8.450418 -0.013270 0.526586 0.412265 -0.009239
    22 0.447952 -2.798985 -0.200442 -0.047653 -0.026803 0.329643
    23 -0.032910 -1.480204 0.004936 -0.055403 0.000000 0.000002
    24 -0.027022 -1.076918 -0.020212 0.002094 0.000000 0.000000
    25 -0.249534 -2.846962 -0.174216 0.039272 -0.014722 0.347896
    26 0.043235 -1.683941 0.096014 0.019757 0.002823 -0.000167
    27 0.031729 -1.160830 0.058836 -0.040181 0.000642 0.008372
    28 -0.963867 -2.785143 -0.085346 0.073830 0.273625 0.176582
    29 0.028479 -1.403069 0.006271 0.116314 0.000000 0.000000
    30 0.021413 -0.957779 0.020047 0.083128 0.000000 0.000000
    31 1.164475 -2.543938 -0.170328 -0.107223 -0.011257 0.385109
    32 0.024033 -1.129042 0.017806 -0.018074 0.000000 0.000001
    33 0.014897 -0.883989 -0.019845 0.124063 0.000000 0.000000
    34 -0.586770 -1.264477 0.200164 -0.082612 -0.480301 -2.786784
    35 1.522835 0.058680 0.016850 -0.110196 0.226397 1.427559
    36 1.117948 0.048426 -0.005764 0.004431 -0.024731 -0.122805
    37 0.052013 -0.119511 0.010491 0.090270 0.291156 1.614916
    38 -3.518535 6.940682 -3.700477 1.639169 -0.449731 -1.233194
  time 22
    0 3.877288 -6.735883 -7.372756 5.000366 -1.267598 -5.623843
    1 -0.071917 -8.498733 -0.104137 0.190947 0.471784 0.305397
    2 -5.100550 -1.762691 0.321306 -1.446559 -0.040586 -0.172614
    3 -0.488517 -2.755600 -0.228261 -0.640920 -0.094965 -0.156533
    4 0.039887 -1.479790 0.029853 -1.805416 0.000000 0.000000
    5 0.028785 -1.075733 -0.023111 -1.103817 0.000000 0.000000
    6 0.250028 -2.820663 -0.238396 -0.689679 -0.103963 -0.137582
    7 -0.049759 -1.680546 0.100480 -1.852395 0.000000 -0.000002
    8 -0.034141 -1.148310 0.084779 -1.223712 0.000000 0.000000
    9 0.957766 -2.746775 -0.090300 -0.337599 -0.182539 -0.050560
    10 -0.033419 -1.397129 -0.011255 -1.472587 0.000000 -0.000001
    11 -0.022360 -0.957436 0.018783 -1.137687 0.000000 0.000000
    12 -1.180680 -2.507214 -0.193861 -0.280412 0.052027 -0.110871
    13 -0.024966 -1.123934 0.017594 -1.452522 0.024736 -0.051185
    14 -0.020057 -0.890966 0.010091 -1.311831 0.223297 -0.046284
    15 0.583510 -1.197275 0.185377 0.773382 -0.960656 -0.769961
    16 1.535927 0.010246 0.005008 -0.462803 -0.166156 -0.861079
    17 1.100770 0.004526 -0.010676 0.079766 -0.016889 -0.868744
    18 0.084995 -0.144019 -0.042769 0.253439 3.186339 1.314498
    19 1.225928 8.657108 -0.153718 -1.570562 0.003546 -1.562602
    20 -7.314499 -5.217680 -14.058852 0.903086 -2.833344 -6.004659
    21 0.100850 -8.450418 -0.009364 0.544580 0.459433 -0.015265
    22 0.447952 -2.798985 -0.200442 -0.047045 -0.027810 0.307124
    23 -0.032910 -1.480204 0.004936 -0.055403 0.000000 0.000002
    24 -0.027022 -1.076918 -0.020212 0.002094 0.000000 0.000000
    25 -0.249534 -2.846962 -0.174216 0.039452 -0.013919 0.327902
    26 0.043235 -1.683941 0.096014 0.019757 0.002823 -0.000167
    27 0.031729 -1.160830 0.058836 -0.040181 0.000642 0.008372
    28 -0.963867 -2.785143 -0.085346 0.067129 0.273625 0.176582
    29 0.028479 -1.403069 0.006271 0.116314 0.000000 0.000000
    30 0.021413 -0.957779 0.020047 0.083128 0.000000 0.000000
    31 1.164475 -2.543938 -0.170328 -0.096846 -0.012851 0.350579
    32 0.024033 -1.129042 0.017806 -0.018074 0.000000 0.000001
    33 0.014897 -0.883989 -0.019845 0.124063 0.000000 0.000000
    34 -0.586770 -1.264477 0.200164 -0.082666 -0.474476 -2.792815
    35 1.522835 0.058680 0.016850 -0.117034 0.231347 1.465357
    36 1.117948 0.048426 -0.005764 0.004515 -0.024850 -0.125239
    37 0.055919 -0.119511 0.010491 0.066591 0.299956 1.626049
    38 -3.561505 6.846929 -3.782511 1.635394 -0.462103 -1.224428
  time 23
    0 3.959322 -6.321808 -7.111029 5.052714 -1.394995 -5.662364
    1 -0.071917 -8.498733 -0.104137 0.190383 0.415009 0.291105
    2 -5.100550 -1.762691 0.321306 -1.446559 -0.040586 -0.172614
    3 -0.488517 -2.755600 -0.228261 -0.639455 -0.094665 -0.157000
    4 0.039887 -1.479790 0.029853 -1.803435 0.000000 0.000000
    5 0.028785 -1.075733 -0.023111 -1.119048 0.000000 0.000000
    6 0.250028 -2.820663 -0.238396 -0.688604 -0.103687 -0.138239
    7 -0.049759 -1.680546 0.100480 -1.851878 0.000000 -0.000002
    8 -0.034141 -1.148310 0.084779 -1.223821 0.000000 0.000000
    9 0.957766 -2.746775 -0.090300 -0.335211 -0.182174 -0.050950
    10 -0.033419 -1.397129 -0.011255 -1.473166 0.000000 -0.000001
    11 -0.022360 -0.957436 0.018783 -1.138410 0.000000 0.000000
    12 -1.180680 -2.507214 -0.193861 -0.280118 0.052950 -0.111405
    13 -0.024966 -1.123934 0.017594 -1.451280 0.024329 -0.050322
    14 -0.020057 -0.890966 0.010091 -1.310269 0.234095 -0.048514
    15 0.583510 -1.197275 0.185377 0.776644 -0.960974 -0.771128
    16 1.535927 0.010246 0.005008 -0.463319 -0.166252 -0.859150
    17 1.100770 0.004526 -0.010676 0.081096 -0.016457 -0.867627
    18 0.084995 -0.136206 -0.050582 0.254302 3.184901 1.320519
    19 1.237647 8.657108 -0.153718 -1.570562 0.003546 -1.564131
    20 -7.357469 -5.409092 -13.980724 0.900799 -2.852849 -5.943096
    21 0.100850 -8.450418 -0.009364 0.529942 0.487844 -0.039803
    22 0.447952 -2.798985 -0.200442 -0.045921 -0.029332 0.272297
    23 -0.032910 -1.480204 0.004936 -0.055403 0.000000 0.000002
    24 -0.027022 -1.076918 -0.020212 0.002094 0.000000 0.000000
    25 -0.249534 -2.846962 -0.174216 0.039741 -0.012625 0.295991
    26 0.043235 -1.683941 0.096014 0.019757 0.002823 -0.000167
    27 0.031729 -1.160830 0.058836 -0.040181 0.000642 0.008372
    28 -0.963867 -2.785143 -0.085346 0.062151 0.273625 0.176582
    29 0.028479 -1.403069 0.006271 0.116314 0.000000 0.000000
    30 0.021413 -0.957779 0.020047 0.083128 0.000000 0.000000
    31 1.164475 -2.543938 -0.170328 -0.085499 -0.015451 0.294903
    32 0.024033 -1.129042 0.017806 -0.018074 0.000000 0.000001
    33 0.014897 -0.883989 -0.019845 0.124063 0.000000 0.000000
    34 -0.586770 -1.264477 0.200164 -0.082666 -0.474476 -2.792815
    35 1.522835 0.058680 0.016850 -0.117034 0.231347 1.465357
    36 1.117948 0.048426 -0.005764 0.004347 -0.024958 -0.118740
    37 0.055919 -0.119511 0.010491 0.049159 0.296240 1.641965
    38 -3.612288 6.757082 -3.880170 1.631978 -0.475616 -1.215784
  time 24
    0 4.197611 -5.837418 -6.833677 5.190296 -1.538735 -5.761733
    1 -0.071917 -8.498733 -0.104137 0.188727 0.268628 0.254194
    2 -5.100550 -1.762691 0.321306 -1.446559 -0.040586 -0.172614
    3 -0.488517 -2.755600 -0.228261 -0.635389 -0.093862 -0.158331
    4 0.039887 -1.479790 0.029853 -1.797972 0.000000 0.000000
    5 0.028785 -1.075733 -0.023111 -1.132425 0.000000 0.000000
    6 0.250028 -2.820663 -0.238396 -0.685535 -0.102932 -0.140111
    7 -0.049759 -1.680546 0.100480 -1.850501 0.000000 -0.000002
    8 -0.034141 -1.148310 0.084779 -1.224184 0.000000 0.000000
    9 0.957766 -2.746775 -0.090300 -0.328591 -0.181166 -0.052013
    10 -0.033419 -1.397129 -0.011255 -1.474786 0.000000 -0.000001
    11 -0.022360 -0.957436 0.018783 -1.140436 0.000000 0.000000
    12 -1.180680 -2.507214 -0.193861 -0.279369 0.055539 -0.112869
    13 -0.024966 -1.123934 0.017594 -1.447877 0.023166 -0.047925
    14 -0.020057 -0.890966 0.010091 -1.305895 0.244294 -0.050623
    15 0.583510 -1.197275 0.185377 0.785657 -0.961930 -0.774295
    16 1.535927 0.010246 0.005008 -0.464720 -0.166501 -0.853847
    17 1.100770 0.004526 -0.010676 0.084811 -0.015235 -0.864494
    18 0.081088 -0.128393 -0.058394 0.256890 3.182505 1.337054
    19 1.272804 8.653202 -0.153718 -1.570562 0.003546 -1.568240
    20 -7.478566 -5.569253 -13.761968 0.894112 -2.873325 -5.901004
    21 0.100850 -8.450418 -0.009364 0.492189 0.508377 -0.092443
    22 0.447952 -2.798985 -0.200442 -0.044283 -0.031453 0.223004
    23 -0.032910 -1.480204 0.004936 -0.055403 0.000000 0.000002
    24 -0.027022 -1.076918 -0.020212 0.002094 0.000000 0.000000
    25 -0.249534 -2.846962 -0.174216 0.040137 -0.010719 0.249327
    26 0.043235 -1.683941 0.096014 0.019757 0.002823 -0.000167
    27 0.031729 -1.160830 0.058836 -0.040181 0.000642 0.008372
    28 -0.963867 -2.785143 -0.085346 0.057480 0.273625 0.176582
    29 0.028479 -1.403069 0.006271 0.116314 0.000000 0.000000
    30 0.021413 -0.957779 0.020047 0.083128 0.000000 0.000000
    31 1.164475 -2.543938 -0.170328 -0.074314 -0.019334 0.213240
    32 0.024033 -1.129042 0.017806 -0.018074 0.000000 0.000001
    33 0.014897 -0.883989 -0.019845 0.124063 0.000000 0.000000
    34 -0.586770 -1.264477 0.200164 -0.082666 -0.474476 -2.792815
    35 1.522835 0.058680 0.016850 -0.117034 0.231347 1.465357
    36 1.117948 0.048426 -0.005764 0.003928 -0.025042 -0.101915
    37 0.059826 -0.115604 0.010491 0.035637 0.286662 1.664184
    38 -3.670883 6.659423 -4.005174 1.628359 -0.491487 -1.206106
  time 25
    0 4.556996 -5.294433 -6.544605 5.383390 -1.692987 -5.897611
    1 -0.071917 -8.498733 -0.104137 0.185943 0.068302 0.203754
    2 -5.100550 -1.762691 0.321306 -1.446559 -0.040586 -0.172614
    3 -0.488517 -2.755600 -0.228261 -0.629199 -0.092628 -0.160356
    4 0.039887 -1.479790 0.029853 -1.789568 0.000000 0.000000
    5 0.028785 -1.075733 -0.023111 -1.144093 0.000000 0.000000
    6 0.250028 -2.820663 -0.238396 -0.680886 -0.101782 -0.142943
    7 -0.049759 -1.680546 0.100480 -1.848376 0.000000 -0.000002
    8 -0.034141 -1.148310 0.084779 -1.224729 0.000000 0.000000
    9 0.957766 -2.746775 -0.090300 -0.318494 -0.179647 -0.053653
    10 -0.033419 -1.397129 -0.011255 -1.477275 0.000000 -0.000001
    11 -0.022360 -0.957436 0.018783 -1.143546 0.000000 0.000000
    12 -1.180680 -2.507214 -0.193861 -0.278219 0.059470 -0.115126
    13 -0.024966 -1.123934 0.017594 -1.442693 0.021392 -0.044270
    14 -0.020057 -0.890966 0.010091 -1.299295 0.253846 -0.052600
    15 0.583510 -1.197275 0.185377 0.799445 -0.963341 -0.779186
    16 1.535927 0.010246 0.005008 -0.466858 -0.166875 -0.845747
    17 1.100770 0.004526 -0.010676 0.090468 -0.013389 -0.859725
    18 0.073276 -0.120581 -0.066207 0.260917 3.179246 1.362382
    19 1.327494 8.653202 -0.153718 -1.570562 0.003450 -1.574643
    20 -7.658259 -5.702070 -13.445552 0.883818 -2.894418 -5.873325
    21 0.100850 -8.450418 -0.009364 0.440579 0.522324 -0.161550
    22 0.447952 -2.798985 -0.200442 -0.042364 -0.033862 0.166461
    23 -0.032910 -1.480204 0.004936 -0.055403 0.000000 0.000002
    24 -0.027022 -1.076918 -0.020212 0.002094 0.000000 0.000000
    25 -0.249534 -2.846962 -0.174216 0.040606 -0.008502 0.195084
    26 0.043235 -1.683941 0.096014 0.019757 0.002823 -0.000167
    27 0.031729 -1.160830 0.058836 -0.040181 0.000642 0.008372
    28 -0.963867 -2.785143 -0.085346 0.053114 0.273625 0.176582
    29 0.028479 -1.403069 0.006271 0.116314 0.000000 0.000000
    30 0.021413 -0.957779 0.020047 0.083128 0.000000 0.000000
    31 1.164475 -2.543938 -0.170328 -0.063896 -0.023864 0.118194
    32 0.024033 -1.129042 0.017806 -0.018074 0.000000 0.000001
    33 0.014897 -0.883989 -0.019845 0.124063 0.000000 0.000000
    34 -0.586770 -1.264477 0.200164 -0.082666 -0.474476 -2.792815
    35 1.522835 0.058680 0.016850 -0.117034 0.231347 1.465357
    36 1.117948 0.048426 -0.005764 0.003364 -0.025102 -0.078938
    37 0.063732 -0.115604 0.014397 0.024795 0.273555 1.689508
    38 -3.737292 6.553951 -4.141897 1.624584 -0.509084 -1.195714
  time 26
    0 5.010135 -4.716290 -6.247721 5.602563 -1.852305 -6.045659
    1 -0.071917 -8.498733 -0.104137 0.182101 -0.149911 0.148804
    2 -5.100550 -1.762691 0.321306 -1.446559 -0.040586 -0.172614
    3 -0.488517 -2.755600 -0.228261 -0.621360 -0.091058 -0.162921
    4 0.039887 -1.479790 0.029853 -1.779003 0.000000 0.000000
    5 0.028785 -1.075733 -0.023111 -1.154090 0.000000 0.000000
    6 0.250028 -2.820663 -0.238396 -0.674971 -0.100320 -0.146533
    7 -0.049759 -1.680546 0.100480 -1.845735 0.000000 -0.000002
    8 -0.034141 -1.148310 0.084779 -1.225384 0.000000 0.000000
    9 0.957766 -2.746775 -0.090300 -0.305722 -0.177704 -0.055714
    10 -0.033419 -1.397129 -0.011255 -1.480401 0.000000 -0.000001
    11 -0.022360 -0.957436 0.018783 -1.147488 0.000000 0.000000
    12 -1.180680 -2.507214 -0.193861 -0.276748 0.064455 -0.117968
    13 -0.024966 -1.123934 0.017594 -1.436050 0.019151 -0.039632
    14 -0.020057 -0.890966 0.010091 -1.290899 0.262690 -0.054434
    15 0.583510 -1.197275 0.185377 0.816866 -0.965162 -0.785354
    16 1.535927 0.010246 0.005008 -0.469550 -0.167358 -0.835477
    17 1.100770 0.004526 -0.010676 0.097647 -0.011040 -0.853676
    18 0.069369 -0.116674 -0.074020 0.265902 3.175412 1.394400
    19 1.397808 8.649295 -0.153718 -1.570562 0.003354 -1.582765
    20 -7.880922 -5.815354 -13.062728 0.870445 -2.915600 -5.855381
    21 0.100850 -8.450418 -0.009364 0.384340 0.530912 -0.235532
    22 0.447952 -2.798985 -0.200442 -0.040397 -0.036271 0.109894
    23 -0.032910 -1.480204 0.004936 -0.055403 0.000000 0.000002
    24 -0.027022 -1.076918 -0.020212 0.002094 0.000000 0.000000
    25 -0.249534 -2.846962 -0.174216 0.041074 -0.006261 0.140425
    26 0.043235 -1.683941 0.096014 0.019757 0.002823 -0.000167
    27 0.031729 -1.160830 0.058836 -0.040181 0.000642 0.008372
    28 -0.963867 -2.785143 -0.085346 0.049094 0.273625 0.176582
    29 0.028479 -1.403069 0.006271 0.116314 0.000000 0.000000
    30 0.021413 -0.957779 0.020047 0.083128 0.000000 0.000000
    31 1.164475 -2.543938 -0.170328 -0.054811 -0.028455 0.022332
    32 0.024033 -1.129042 0.017806 -0.018074 0.000000 0.000001
    33 0.014897 -0.883989 -0.019845 0.124063 0.000000 0.000000
    34 -0.586770 -1.264477 0.200164 -0.093602 -0.482078 -2.772876
    35 1.522835 0.058680 0.016850 -0.133707 0.217852 1.384315
    36 1.117948 0.048426 -0.005764 0.002741 -0.025126 -0.053902
    37 0.067639 -0.115604 0.014397 0.015352 0.259282 1.714759
    38 -3.811513 6.448479 -4.294245 1.620761 -0.527823 -1.184903
  time 27
    0 5.537495 -4.122522 -5.954744 5.818380 -2.011049 -6.181536
    1 -0.071917 -8.498733 -0.104137 0.177168 -0.350180 0.098364
    2 -5.100550 -1.762691 0.321306 -1.446559 -0.040586 -0.172614
    3 -0.488517 -2.755600 -0.228261 -0.612313 -0.089260 -0.165869
    4 0.039887 -1.479790 0.029853 -1.766756 0.000000 0.000000
    5 0.028785 -1.075733 -0.023111 -1.162595 0.000000 0.000000
    6 0.250028 -2.820663 -0.238396 -0.668170 -0.098642 -0.150664
    7 -0.049759 -1.680546 0.100480 -1.842635 0.000000 -0.000002
    8 -0.034141 -1.148310 0.084779 -1.226183 0.000000 0.000000
    9 0.957766 -2.746775 -0.090300 -0.291004 -0.175483 -0.058104
    10 -0.033419 -1.397129 -0.011255 -1.484048 0.000000 -0.000001
    11 -0.022360 -0.957436 0.018783 -1.152044 0.000000 0.000000
    12 -1.180680 -2.507214 -0.193861 -0.275063 0.070196 -0.121241
    13 -0.024966 -1.123934 0.017594 -1.428489 0.016575 -0.034299
    14 -0.020057 -0.890966 0.010091 -1.281253 0.270792 -0.056112
    15 0.583510 -1.197275 0.185377 0.836977 -0.967256 -0.792412
    16 1.535927 0.010246 0.005008 -0.472665 -0.167897 -0.823665
    17 1.100770 0.004526 -0.010676 0.105892 -0.008332 -0.846728
    18 0.057650 -0.112768 -0.081833 0.271750 3.171099 1.431197
    19 1.479842 8.645389 -0.153718 -1.570562 0.003258 -1.592130
    20 -8.138743 -5.909107 -12.652559 0.854521 -2.936340 -5.842209
    21 0.100850 -8.450418 -0.009364 0.332731 0.535497 -0.302753
    22 0.447952 -2.798985 -0.200442 -0.038712 -0.038368 0.060541
    23 -0.032910 -1.480204 0.004936 -0.055403 0.000000 0.000002
    24 -0.027022 -1.076918 -0.020212 0.002094 0.000000 0.000000
    25 -0.249534 -2.846962 -0.174216 0.041471 -0.004308 0.092524
    26 0.043235 -1.683941 0.096014 0.019757 0.002823 -0.000167
    27 0.031729 -1.160830 0.058836 -0.040181 0.000642 0.008372
    28 -0.963867 -2.785143 -0.085346 0.045456 0.273625 0.176582
    29 0.028479 -1.403069 0.006271 0.116314 0.000000 0.000000
    30 0.021413 -0.957779 0.020047 0.083128 0.000000 0.000000
    31 1.164475 -2.543938 -0.170328 -0.047623 -0.032481 -0.061723
    32 0.024033 -1.129042 0.017806 -0.018074 0.000000 0.000001
    33 0.014897 -0.883989 -0.019845 0.124063 0.000000 0.000000
    34 -0.586770 -1.264477 0.200164 -0.123330 -0.502758 -2.718689
    35 1.522835 0.058680 0.016850 -0.171627 0.185818 1.195095
    36 1.117948 0.048426 -0.005764 0.002166 -0.025150 -0.030925
    37 0.071545 -0.115604 0.014397 0.006080 0.246190 1.736751
    38 -3.885734 6.339101 -4.454406 1.616973 -0.547122 -1.173945
  time 28
    0 6.100012 -3.524848 -5.669579 6.001215 -2.163581 0.002153
    1 -0.071917 -8.498733 -0.104137 0.171212 -0.496618 0.061453
    2 -5.100550 -1.762691 0.321306 -1.446559 -0.040586 -0.172614
    3 -0.488517 -2.755600 -0.228261 -0.602569 -0.087318 -0.169045
    4 0.039887 -1.479790 0.029853 -1.753610 0.000000 0.000000
    5 0.028785 -1.075733 -0.023111 -1.169684 0.000000 0.000000
    6 0.250028 -2.820663 -0.238396 -0.660831 -0.096832 -0.155114
    7 -0.049759 -1.680546 0.100480 -1.839362 0.000000 -0.000002
    8 -0.034141 -1.148310 0.084779 -1.227019 0.000000 0.000000
    9 0.957766 -2.746775 -0.090300 -0.275117 -0.173073 -0.060666
    10 -0.033419 -1.397129 -0.011255 -1.487927 0.000000 -0.000001
    11 -0.022360 -0.957436 0.018783 -1.156927 0.000000 0.000000
    12 -1.180680 -2.507214 -0.193861 -0.273244 0.076380 -0.124773
    13 -0.024966 -1.123934 0.017594 -1.420280 0.013794 -0.028534
    14 -0.020057 -0.890966 0.010091 -1.270865 0.278114 -0.057634
    15 0.583510 -1.197275 0.185377 0.858634 -0.969532 -0.800080
    16 1.535927 0.010246 0.005008 -0.476038 -0.168492 -0.810888
    17 1.100770 0.004526 -0.010676 0.114797 -0.005408 -0.839235
    18 0.049837 -0.104955 -0.085739 0.277981 3.166594 1.470957
    19 1.565782 8.641482 -0.153718 -1.570562 0.003162 -1.602260
    20 -8.408282 -5.998954 -12.250203 0.836837 -2.956198 -5.829038
    21 0.096944 -8.450418 -0.009364 0.294978 0.537272 -0.351622
    22 0.447952 -2.798985 -0.200442 -0.037542 -0.039854 0.025618
    23 -0.032910 -1.480204 0.004936 -0.055403 0.000000 0.000002
    24 -0.027022 -1.076918 -0.020212 0.002094 0.000000 0.000000
    25 -0.249534 -2.846962 -0.174216 0.041723 -0.002905 0.058517
    26 0.043235 -1.683941 0.096014 0.019757 0.002823 -0.000167
    27 0.031729 -1.160830 0.058836 -0.040181 0.000642 0.008372
    28 -0.963867 -2.785143 -0.085346 0.042163 0.273625 0.176582
    29 0.028479 -1.403069 0.006271 0.116314 0.000000 0.000000
    30 0.021413 -0.957779 0.020047 0.083128 0.000000 0.000000
    31 1.164475 -2.543938 -0.170328 -0.042899 -0.035346 -0.121405
    32 0.024033 -1.129042 0.017806 -0.018074 0.000000 0.000001
    33 0.014897 -0.883989 -0.019845 0.124063 0.000000 0.000000
    34 -0.586770 -1.264477 0.200164 -0.167103 -0.533195 -2.638840
    35 1.522835 0.058680 0.016850 -0.212655 0.147970 0.978277
    36 1.117948 0.048426 -0.005764 0.001746 -0.025150 -0.014127
    37 0.075451 -0.115604 0.014397 -0.004276 0.236613 1.752271
    38 -3.963861 6.233629 -4.614568 1.613318 -0.566371 -1.163184
  time 29
    0 6.682061 -2.946705 -5.403946 6.121444 -2.304453 -0.036368
    1 -0.071917 -8.498733 -0.104137 0.164199 -0.553449 0.047160
    2 -5.100550 -1.762691 0.321306 -1.446559 -0.040586 -0.172614
    3 -0.488517 -2.755600 -0.228261 -0.592606 -0.085329 -0.172305
    4 0.039887 -1.479790 0.029853 -1.740103 0.000000 0.000000
    5 0.028785 -1.075733 -0.023111 -1.175463 0.000000 0.000000
    6 0.250028 -2.820663 -0.238396 -0.653335 -0.094987 -0.159683
    7 -0.049759 -1.680546 0.100480 -1.835975 0.000000 -0.000002
    8 -0.034141 -1.148310 0.084779 -1.227892 0.000000 0.000000
    9 0.957766 -2.746775 -0.090300 -0.258867 -0.170619 -0.063305
    10 -0.033419 -1.397129 -0.011255 -1.491921 0.000000 -0.000001
    11 -0.022360 -0.957436 0.018783 -1.161917 0.000000 0.000000
    12 -1.180680 -2.507214 -0.193861 -0.271371 0.082720 -0.128390
    13 -0.024966 -1.123934 0.017594 -1.411855 0.010942 -0.022650
    14 -0.020057 -0.890966 0.010091 -1.260204 0.284598 -0.058976
    15 0.583510 -1.197275 0.185377 0.880797 -0.971854 -0.807860
    16 1.535927 0.010246 0.005008 -0.479467 -0.169100 -0.797822
    17 1.100770 0.004526 -0.010676 0.123917 -0.002423 -0.831524
    18 0.042025 -0.101049 -0.093552 0.284404 3.161993 1.511672
    19 1.655629 8.637576 -0.153718 -1.570562 0.003066 -1.612580
    20 -8.681728 -6.080987 -11.890817 0.817833 -2.974732 -5.810903
    21 0.096944 -8.450418 -0.009364 0.280340 0.537595 -0.370479
    22 0.447952 -2.798985 -0.200442 -0.037074 -0.040405 0.012375
    23 -0.032910 -1.480204 0.004936 -0.055403 0.000000 0.000002
    24 -0.027022 -1.076918 -0.020212 0.002094 0.000000 0.000000
    25 -0.249534 -2.846962 -0.174216 0.041831 -0.002378 0.045591
    26 0.043235 -1.683941 0.096014 0.019757 0.002823 -0.000167
    27 0.031729 -1.160830 0.058836 -0.040181 0.000642 0.008372
    28 -0.963867 -2.785143 -0.085346 0.039291 0.273625 0.176582
    29 0.028479 -1.403069 0.006271 0.116314 0.000000 0.000000
    30 0.021413 -0.957779 0.020047 0.083128 0.000000 0.000000
    31 1.164475 -2.543938 -0.170328 -0.041203 -0.036436 -0.144108
    32 0.024033 -1.129042 0.017806 -0.018074 0.000000 0.000001
    33 0.014897 -0.883989 -0.019845 0.124063 0.000000 0.000000
    34 -0.586770 -1.264477 0.200164 -0.220312 -0.570186 -2.541882
    35 1.522835 0.058680 0.016850 -0.238697 0.117038 0.814625
    36 1.117948 0.048426 -0.005764 0.001591 -0.025150 -0.007601
    37 0.079358 -0.111698 0.014397 -0.016971 0.232897 1.758168
    38 -4.038082 6.135970 -4.770822 1.609855 -0.584989 -1.152866
  time 30
    0 7.244579 -2.407626 -5.157844 6.188461 -2.448288 -0.036080
    1 -0.071917 -8.498733 -0.104137 0.153732 -0.504259 0.047542
    2 -5.100550 -1.762691 0.321306 -1.446559 -0.040586 -0.172614
    3 -0.488517 -2.755600 -0.228261 -0.582863 -0.083388 -0.175480
    4 0.039887 -1.479790 0.029853 -1.726956 0.000000 0.000000
    5 0.028785 -1.075733 -0.023111 -1.180080 0.000000 0.000000
    6 0.250028 -2.820663 -0.238396 -0.645996 -0.093177 -0.164133
    7 -0.049759 -1.680546 0.100480 -1.832645 0.000000 -0.000002
    8 -0.034141 -1.148310 0.084779 -1.228728 0.000000 0.000000
    9 0.957766 -2.746775 -0.090300 -0.243007 -0.168208 -0.065867
    10 -0.033419 -1.397129 -0.011255 -1.495799 0.000000 -0.000001
    11 -0.022360 -0.957436 0.018783 -1.166836 0.000000 0.000000
    12 -1.180680 -2.507214 -0.193861 -0.269552 0.088916 -0.131922
    13 -0.024966 -1.123934 0.017594 -1.403700 0.008162 -0.016885
    14 -0.020057 -0.890966 0.010091 -1.249777 0.290207 -0.060151
    15 0.583510 -1.197275 0.185377 0.902455 -0.974084 -0.815529
    16 1.535927 0.010246 0.005008 -0.482822 -0.169694 -0.785094
    17 1.100770 0.004526 -0.010676 0.132810 0.000489 -0.824031
    18 0.030306 -0.097142 -0.097458 0.290540 3.157584 1.551432
    19 1.741569 8.633670 -0.153718 -1.570562 0.002971 -1.622709
    20 -9.021582 -6.151302 -11.515805 0.780882 -2.990089 -5.794677
    21 0.096944 -8.450418 -0.009364 0.284100 0.527845 -0.351645
    22 0.447952 -2.798985 -0.200442 -0.037729 -0.039638 0.030879
    23 -0.032910 -1.480204 0.004936 -0.055403 0.000000 0.000002
    24 -0.027022 -1.076918 -0.020212 0.002094 0.000000 0.000000
    25 -0.249534 -2.846962 -0.174216 0.041687 -0.003145 0.064281
    26 0.043235 -1.683941 0.096014 0.019757 0.002823 -0.000167
    27 0.031729 -1.160830 0.058836 -0.040181 0.000642 0.008372
    28 -0.963867 -2.785143 -0.085346 0.036802 0.273625 0.176582
    29 0.028479 -1.403069 0.006271 0.116314 0.000000 0.000000
    30 0.021413 -0.957779 0.020047 0.083128 0.000000 0.000000
    31 1.164475 -2.543938 -0.170328 -0.041365 -0.034854 -0.111287
    32 0.024033 -1.129042 0.017806 -0.018074 0.000000 0.000001
    33 0.014897 -0.883989 -0.019845 0.124063 0.000000 0.000000
    34 -0.586770 -1.264477 0.200164 -0.278185 -0.610410 -2.436370
    35 1.522835 0.058680 0.016850 -0.249331 0.092158 0.704646
    36 1.117948 0.048426 -0.005764 0.001950 -0.025090 -0.021991
    37 0.083264 -0.111698 0.014397 -0.034460 0.245470 1.747298
    38 -4.108397 6.042217 -4.919264 1.606691 -0.602367 -1.143335
  time 31
    0 7.771938 -1.927143 -4.939088 6.233619 -2.602636 -0.035601
    1 -0.071917 -8.498733 -0.104137 0.139142 -0.381426 0.048444
    2 -5.100550 -1.762691 0.321306 -1.446559 -0.040586 -0.172614
    3 -0.488517 -2.755600 -0.228261 -0.573852 -0.081590 -0.178429
    4 0.039887 -1.479790 0.029853 -1.714710 0.000000 0.000000
    5 0.028785 -1.075733 -0.023111 -1.183569 0.000000 0.000000
    6 0.250028 -2.820663 -0.238396 -0.639196 -0.091499 -0.168264
    7 -0.049759 -1.680546 0.100480 -1.829544 0.000000 -0.000002
    8 -0.034141 -1.148310 0.084779 -1.229528 0.000000 0.000000
    9 0.957766 -2.746775 -0.090300 -0.228288 -0.165988 -0.068257
    10 -0.033419 -1.397129 -0.011255 -1.499446 0.000000 -0.000001
    11 -0.022360 -0.957436 0.018783 -1.171356 0.000000 0.000000
    12 -1.180680 -2.507214 -0.193861 -0.267867 0.094644 -0.135195
    13 -0.024966 -1.123934 0.017594 -1.396086 0.005585 -0.011552
    14 -0.020057 -0.890966 0.010091 -1.240131 0.294893 -0.061121
    15 0.583510 -1.197275 0.185377 0.922532 -0.976178 -0.822587
    16 1.535927 0.010246 0.005008 -0.485937 -0.170247 -0.773233
    17 1.100770 0.004526 -0.010676 0.141067 0.003197 -0.817082
    18 0.022493 -0.097142 -0.101364 -2.845209 -0.011889 -1.553269
    19 1.823603 8.633670 -0.153718 -1.570562 0.002875 -1.632074
    20 -9.466908 -6.198179 -11.074386 0.732668 -3.001562 -5.786946
    21 0.096944 -8.450418 -0.009364 0.293531 0.503438 -0.304546
    22 0.447952 -2.798985 -0.200442 -0.039368 -0.037709 0.077128
    23 -0.032910 -1.480204 0.004936 -0.055403 0.000000 0.000002
    24 -0.027022 -1.076918 -0.020212 0.002094 0.000000 0.000000
    25 -0.249534 -2.846962 -0.174216 0.041326 -0.005075 0.110986
    26 0.043235 -1.683941 0.096014 0.019757 0.002823 -0.000167
    27 0.031729 -1.160830 0.058836 -0.040181 0.000642 0.008372
    28 -0.963867 -2.785143 -0.085346 0.034735 0.273625 0.176582
    29 0.028479 -1.403069 0.006271 0.116314 0.000000 0.000000
    30 0.021413 -0.957779 0.020047 0.083128 0.000000 0.000000
    31 1.164475 -2.543938 -0.170328 -0.041768 -0.030923 -0.029282
    32 0.024033 -1.129042 0.017806 -0.018074 0.000000 0.000001
    33 0.014897 -0.883989 -0.019845 0.124063 0.000000 0.000000
    34 -0.586770 -1.264477 0.200164 -0.336059 -0.650664 -2.330858
    35 1.522835 0.058680 0.016850 -0.256702 0.065768 0.599652
    36 1.117948 0.048426 -0.005764 0.002837 -0.024946 -0.057914
    37 0.087170 -0.111698 0.014397 -0.056171 0.276897 1.720152
    38 -4.170899 5.960183 -5.048175 1.603910 -0.617898 -1.134864
  time 32
    0 8.225077 -1.520880 -4.759395 6.261327 -2.751154 -0.034930
    1 -0.071917 -8.498733 -0.104137 0.123072 -0.221686 0.049623
    2 -5.100550 -1.762691 0.321306 -1.446559 -0.040586 -0.172614
    3 -0.488517 -2.755600 -0.228261 -0.565977 -0.080032 -0.180993
    4 0.039887 -1.479790 0.029853 -1.704084 0.000000 0.000000
    5 0.028785 -1.075733 -0.023111 -1.186114 0.000000 0.000000
    6 0.250028 -2.820663 -0.238396 -0.633281 -0.090037 -0.171854
    7 -0.049759 -1.680546 0.100480 -1.826903 0.000000 -0.000002
    8 -0.034141 -1.148310 0.084779 -1.230218 0.000000 0.000000
    9 0.957766 -2.746775 -0.090300 -0.215491 -0.164045 -0.070334
    10 -0.033419 -1.397129 -0.011255 -1.502572 0.000000 -0.000001
    11 -0.022360 -0.957436 0.018783 -1.175298 0.000000 0.000000
    12 -1.180680 -2.507214 -0.193861 -0.266423 0.099642 -0.138037
    13 -0.024966 -1.123934 0.017594 -1.389497 0.003344 -0.006914
    14 -0.020057 -0.890966 0.010091 -1.231735 0.298620 -0.061900
    15 0.583510 -1.197275 0.185377 0.939986 -0.977999 -0.828755
    16 1.535927 0.010246 0.005008 -0.488647 -0.170717 -0.762964
    17 1.100770 0.004526 -0.010676 0.148234 0.005546 -0.811033
    18 0.014680 -0.093236 -0.101364 -2.840128 -0.008438 -1.521251
    19 1.893917 8.629763 -0.153718 -1.570562 0.002779 -1.640197
    20 -9.935672 -6.233336 -10.625153 0.708650 -3.010565 -5.782842
    21 0.096944 -8.450418 -0.009364 0.305768 0.471702 -0.243328
    22 0.447952 -2.798985 -0.200442 -0.041474 -0.035216 0.137242
    23 -0.032910 -1.480204 0.004936 -0.055403 0.000000 0.000002
    24 -0.027022 -1.076918 -0.020212 0.002094 0.000000 0.000000
    25 -0.249534 -2.846962 -0.174216 0.040894 -0.007567 0.171691
    26 0.043235 -1.683941 0.096014 0.019757 0.002823 -0.000167
    27 0.031729 -1.160830 0.058836 -0.040181 0.000642 0.008372
    28 -0.963867 -2.785143 -0.085346 0.033088 0.273625 0.176582
    29 0.028479 -1.403069 0.006271 0.116314 0.000000 0.000000
    30 0.021413 -0.957779 0.020047 0.083128 0.000000 0.000000
    31 1.164475 -2.543938 -0.170328 -0.042253 -0.025794 0.077324
    32 0.024033 -1.129042 0.017806 -0.018074 0.000000 0.000001
    33 0.014897 -0.883989 -0.019845 0.124063 0.000000 0.000000
    34 -0.586770 -1.264477 0.200164 -0.389268 -0.687626 -2.233930
    35 1.522835 0.058680 0.016850 -0.261386 0.040564 0.506335
    36 1.117948 0.048426 -0.005764 0.004000 -0.024767 -0.104616
    37 0.091077 -0.111698 0.014397 -0.078794 0.317757 1.684858
    38 -4.221681 5.893775 -5.161459 1.601597 -0.631047 -1.127772
  time 33
    0 8.584463 -1.204464 -4.622672 6.275804 -2.877500 -0.034260
    1 -0.071917 -8.498733 -0.104137 0.108306 -0.061946 0.050837
    2 -5.100550 -1.762691 0.321306 -1.446559 -0.040586 -0.172614
    3 -0.488517 -2.755600 -0.228261 -0.559787 -0.078797 -0.183019
    4 0.039887 -1.479790 0.029853 -1.695740 0.000000 0.000000
    5 0.028785 -1.075733 -0.023111 -1.187786 0.000000 0.000000
    6 0.250028 -2.820663 -0.238396 -0.628631 -0.088886 -0.174686
    7 -0.049759 -1.680546 0.100480 -1.824779 0.000000 -0.000002
    8 -0.034141 -1.148310 0.084779 -1.230727 0.000000 0.000000
    9 0.957766 -2.746775 -0.090300 -0.205419 -0.162511 -0.071959
    10 -0.033419 -1.397129 -0.011255 -1.505061 0.000000 -0.000001
    11 -0.022360 -0.957436 0.018783 -1.178408 0.000000 0.000000
    12 -1.180680 -2.507214 -0.193861 -0.265246 0.103573 -0.140277
    13 -0.024966 -1.123934 0.017594 -1.384258 0.001570 -0.003259
    14 -0.020057 -0.890966 0.010091 -1.225135 0.301341 -0.062464
    15 0.583510 -1.197275 0.185377 0.953774 -0.979411 -0.833646
    16 1.535927 0.010246 0.005008 -0.490785 -0.171091 -0.754864
    17 1.100770 0.004526 -0.010676 0.153903 0.007404 -0.806265
    18 0.010774 -0.089330 -0.105271 -2.836197 -0.005659 -1.495923
    19 1.948606 8.625857 -0.153718 -1.570562 0.002683 -1.646599
    20 -10.361467 -6.252868 -10.230610 0.719383 -3.017802 -5.780169
    21 0.096944 -8.450418 -0.009364 0.318005 0.439998 -0.182086
    22 0.447952 -2.798985 -0.200442 -0.043628 -0.032711 0.197357
    23 -0.032910 -1.480204 0.004936 -0.055403 0.000000 0.000002
    24 -0.027022 -1.076918 -0.020212 0.002094 0.000000 0.000000
    25 -0.249534 -2.846962 -0.174216 0.040425 -0.010060 0.232410
    26 0.043235 -1.683941 0.096014 0.019757 0.002823 -0.000167
    27 0.031729 -1.160830 0.058836 -0.040181 0.000642 0.008372
    28 -0.963867 -2.785143 -0.085346 0.031901 0.273625 0.176582
    29 0.028479 -1.403069 0.006271 0.116314 0.000000 0.000000
    30 0.021413 -0.957779 0.020047 0.083128 0.000000 0.000000
    31 1.164475 -2.543938 -0.170328 -0.042778 -0.020677 0.183931
    32 0.024033 -1.129042 0.017806 -0.018074 0.000000 0.000001
    33 0.014897 -0.883989 -0.019845 0.124063 0.000000 0.000000
    34 -0.586770 -1.264477 0.200164 -0.433068 -0.718092 -2.154081
    35 1.522835 0.058680 0.016850 -0.263984 0.019232 0.431339
    36 1.117948 0.048426 -0.005764 0.005162 -0.024575 -0.151319
    37 0.094983 -0.111698 0.014397 -0.099050 0.358618 1.649563
    38 -4.264651 5.842992 -5.247399 1.599836 -0.641158 -1.122330
  time 34
    0 8.822752 -1.001333 -4.532825 -0.001678 -2.965234 -0.033685
    1 -0.071917 -8.498733 -0.104137 0.097452 0.060944 0.051739
    2 -5.100550 -1.762691 0.321306 -1.446559 -0.040586 -0.172614
    3 -0.488517 -2.755600 -0.228261 -0.555721 -0.077982 -0.184349
    4 0.039887 -1.479790 0.029853 -1.690217 0.000000 0.000000
    5 0.028785 -1.075733 -0.023111 -1.188731 0.000000 0.000000
    6 0.250028 -2.820663 -0.238396 -0.625563 -0.088131 -0.176541
    7 -0.049759 -1.680546 0.100480 -1.823401 0.000000 -0.000002
    8 -0.034141 -1.148310 0.084779 -1.231091 0.000000 0.000000
    9 0.957766 -2.746775 -0.090300 -0.198800 -0.161532 -0.073036
    10 -0.033419 -1.397129 -0.011255 -1.506682 0.000000 -0.000001
    11 -0.022360 -0.957436 0.018783 -1.180434 0.000000 0.000000
    12 -1.180680 -2.507214 -0.193861 -0.264497 0.106150 -0.141758
    13 -0.024966 -1.123934 0.017594 -1.380856 0.000407 -0.000850
    14 -0.020057 -0.890966 0.010091 -1.220800 0.302994 -0.062811
    15 0.583510 -1.197275 0.185377 0.962787 -0.980366 -0.836813
    16 1.535927 0.010246 0.005008 -0.492186 -0.171339 -0.749560
    17 1.100770 0.004526 -0.010676 0.157606 0.008614 -0.803131
    18 0.006867 -0.089330 -0.105271 -2.833609 -0.003934 -1.479388
    19 1.987670 8.625857 -0.153718 -1.570562 0.002683 -1.650804
    20 -10.666163 -6.264587 -9.953258 0.739355 -3.022568 -5.779119
    21 0.096944 -8.450418 -0.009364 0.327436 0.415590 -0.134988
    22 0.447952 -2.798985 -0.200442 -0.045266 -0.030782 0.243606
    23 -0.032910 -1.480204 0.004936 -0.055403 0.000000 0.000002
    24 -0.027022 -1.076918 -0.020212 0.002094 0.000000 0.000000
    25 -0.249534 -2.846962 -0.174216 0.040065 -0.011978 0.279115
    26 0.043235 -1.683941 0.096014 0.019757 0.002823 -0.000167
    27 0.031729 -1.160830 0.058836 -0.040181 0.000642 0.008372
    28 -0.963867 -2.785143 -0.085346 0.031212 0.273625 0.176582
    29 0.028479 -1.403069 0.006271 0.116314 0.000000 0.000000
    30 0.021413 -0.957779 0.020047 0.083128 0.000000 0.000000
    31 1.164475 -2.543938 -0.170328 -0.043141 -0.016734 0.265955
    32 0.024033 -1.129042 0.017806 -0.018074 0.000000 0.000001
    33 0.014897 -0.883989 -0.019845 0.124063 0.000000 0.000000
    34 -0.586770 -1.264477 0.200164 -0.462795 -0.738743 -2.099894
    35 1.522835 0.058680 0.016850 -0.265116 0.004479 0.381449
    36 1.117948 0.048426 -0.005764 0.006049 -0.024431 -0.187242
    37 0.094983 -0.111698 0.014397 -0.113600 0.390044 1.622406
    38 -4.288090 5.807835 -5.305995 1.598721 -0.647647 -1.118833
  time 35
    0 8.904785 -0.931019 -4.501574 -0.000815 -2.998111 -0.033493
    1 -0.071917 -8.498733 -0.104137 0.093223 0.110077 0.052121
    2 -5.100550 -1.762691 0.321306 -1.446559 -0.040586 -0.172614
    3 -0.488517 -2.755600 -0.228261 -0.554293 -0.077695 -0.184816
    4 0.039887 -1.479790 0.029853 -1.688296 0.000000 0.000000
    5 0.028785 -1.075733 -0.023111 -1.188986 0.000000 0.000000
    6 0.250028 -2.820663 -0.238396 -0.624487 -0.087856 -0.177215
    7 -0.049759 -1.680546 0.100480 -1.822884 0.000000 -0.000002
    8 -0.034141 -1.148310 0.084779 -1.231236 0.000000 0.000000
    9 0.957766 -2.746775 -0.090300 -0.196411 -0.161167 -0.073411
    10 -0.033419 -1.397129 -0.011255 -1.507260 0.000000 -0.000001
    11 -0.022360 -0.957436 0.018783 -1.181193 0.000000 0.000000
    12 -1.180680 -2.507214 -0.193861 -0.264229 0.107072 -0.142275
    13 -0.024966 -1.123934 0.017594 -1.379614 0.000000 0.000001
    14 -0.020057 -0.890966 0.010091 -1.219238 0.303570 -0.062931
    15 0.583510 -1.197275 0.185377 0.966049 -0.980731 -0.837980
    16 1.535927 0.010246 0.005008 -0.492684 -0.171436 -0.747632
    17 1.100770 0.004526 -0.010676 0.158936 0.009058 -0.802014
    18 0.002961 -0.089330 -0.105271 -2.832650 -0.003263 -1.473462
    19 1.999389 8.625857 -0.153718 -1.570562 0.002683 -1.652333
    20 -10.787261 -6.268493 -9.847786 0.750089 -3.024333 -5.778928
    21 0.096944 -8.450418 -0.009364 0.331197 0.405840 -0.116153
    22 0.447952 -2.798985 -0.200442 -0.045921 -0.030015 0.262098
    23 -0.032910 -1.480204 0.004936 -0.055403 0.000000 0.000002
    24 -0.027022 -1.076918 -0.020212 0.002094 0.000000 0.000000
    25 -0.249534 -2.846962 -0.174216 0.039921 -0.012757 0.297792
    26 0.043235 -1.683941 0.096014 0.019757 0.002823 -0.000167
    27 0.031729 -1.160830 0.058836 -0.040181 0.000642 0.008372
    28 -0.963867 -2.785143 -0.085346 0.030944 0.273625 0.176582
    29 0.028479 -1.403069 0.006271 0.116314 0.000000 0.000000
    30 0.021413 -0.957779 0.020047 0.083128 0.000000 0.000000
    31 1.164475 -2.543938 -0.170328 -0.043303 -0.015164 0.298757
    32 0.024033 -1.129042 0.017806 -0.018074 0.000000 0.000001
    33 0.014897 -0.883989 -0.019845 0.124063 0.000000 0.000000
    34 -0.586770 -1.264477 0.200164 -0.473732 -0.746374 -2.079924
    35 1.522835 0.058680 0.016850 -0.265360 -0.001034 0.363358
    36 1.117948 0.048426 -0.005764 0.006408 -0.024371 -0.201606
    37 0.094983 -0.111698 0.014397 -0.119192 0.402618 1.611548
    38 -4.299809 5.796116 -5.325527 1.598325 -0.649956 -1.117602
end
