// Created by Crowbar 0.49.0.0

$modelname "weapons/tfa_cso/c_budgetswordslayer.mdl"

$Include "csonline_gmod.qci"

$bodygroup "weapon"
{
	studio "v_dualswordm_v_ref_1"
}
$bodygroup "weapon"
{
	studio "v_dualswordm_v_ref_1_2"
}
$bodygroup "weapon"
{
	studio "v_dualswordm_v_ref_2"
}
$bodygroup "weapon"
{
	studio "v_dualswordm_v_ref_2_2"
}
$bodygroup "weapon"
{
	studio "v_dualswordm_stab_fx"
}

$CDMaterials "models\weapons\tfa_cso\budgetslayer\"

$attachment 0 "phantom_1" 9.5 1.2 -3
$attachment 1 "phantom_2" 9.5 1.2 3

$sequence "idle_a" {
	"v_dualswordm_anims\idle_a"
	{ event 5004 1 "Hellfire.Idle" }
	fps 30
	activity "ACT_VM_IDLE" 1
	snap
	loop
}
$sequence "slash_1" {
	"v_dualswordm_anims\slash_1"
	fps 30
	activity "ACT_VM_HITLEFT" 1
	{ event 5004 1 "Hellfire.Slash1" }
	{ event 5004 54 "Hellfire.SlashEnd" }
	snap
}
$sequence "slash_2" {
	"v_dualswordm_anims\slash_2"
	fps 30
	activity "ACT_VM_HITRIGHT" 1
	{ event 5004 1 "Hellfire.Slash2" }
	{ event 5004 54 "Hellfire.SlashEnd" }
	snap
}
$sequence "slash_3" {
	"v_dualswordm_anims\slash_3"
	fps 30
	activity "ACT_VM_PRIMARYATTACK" 1
	{ event 5004 1 "Hellfire.Slash3" }
	{ event 5004 54 "Hellfire.SlashEnd" }
	snap
}
$sequence "slash_4" {
	"v_dualswordm_anims\slash_4"
	fps 30
	activity "ACT_VM_PULLBACK" 1
	{ event 5004 1 "Hellfire.Slash4" }
	{ event 5004 54 "Hellfire.SlashEnd" }
	snap
}
$sequence "slash_end" {
	"v_dualswordm_anims\slash_end"
	{ event 5004 13 "weapons/dualsword_slash_end.wav" }
	fps 30
}
$sequence "draw_a" {
	"v_dualswordm_anims\draw_a"
	activity "ACT_VM_DRAW" 1
	snap
	fps 30
}
$sequence "idle_b" {
	"v_dualswordm_anims\idle_b"
	{ event 5004 1 "weapons/dualsword_idle_b.wav" }
	fps 30
	loop
}
$sequence "stab1" {
	"v_dualswordm_anims\stab1"
	{ event 5004 1 "Hellfire.Stab1" }
	{ event 5004 31 "Hellfire.StabEnd" }
	activity "ACT_VM_MISSLEFT" 1
	fps 30
	snap
}
$sequence "stab2" {
	"v_dualswordm_anims\stab2"
	{ event 5004 1 "Hellfire.Stab2" }
	{ event 5004 41 "Hellfire.StabEnd" }
	activity "ACT_VM_MISSRIGHT" 1
	fps 30
	snap
}
$sequence "stab_end" {
	"v_dualswordm_anims\stab_end"
	{ event 5004 10 "weapons/dualsword_stab_end.wav" }
	fps 30
}
$sequence "draw_b" {
	"v_dualswordm_anims\draw_b"
	fps 30
}
$sequence "swab_a" {
	"v_dualswordm_anims\swab_a"
	fps 30
}
$sequence "swab_b" {
	"v_dualswordm_anims\swab_b"
	fps 30
}
$sequence "skill_start" {
	"v_dualswordm_anims\skill_start"
	activity "ACT_VM_RECOIL1" 1
	{ event 5004 44 "Hellfire.SkillStart" }
	{ event 5004 350 "Hellfire.SkillEnd" }
	snap
	fps 45
}
$sequence "skill_loop" {
	"v_dualswordm_anims\skill_loop"
	{ event 5004 320 "weapons/dualsword_skill_loop_end.wav" }
	fps 60
}
