version 1
nodes
  0 "Bone04" -1
  1 "Bone_Righthand" 0
  2 "Pyramid01" 1
  3 "Woman_knife01" 2
  4 "Bone27" 1
  5 "Bone28" 4
  6 "Bone29" 5
  7 "Bone31" 1
  8 "Bone32" 7
  9 "Bone33" 8
  10 "Bone35" 1
  11 "Bone36" 10
  12 "Bone37" 11
  13 "Bone39" 1
  14 "Bone40" 13
  15 "Bone41" 14
  16 "Bone43" 1
  17 "Bone44" 16
  18 "Bone45" 17
  19 "Bone_Se_Hand-R" 1
  20 "Bone01" -1
  21 "Bone_Lefthand" 20
  22 "Bone05" 21
  23 "Bone06" 22
  24 "Bone07" 23
  25 "Bone21" 21
  26 "Bone22" 25
  27 "Bone23" 26
  28 "Bone17" 21
  29 "Bone18" 28
  30 "Bone19" 29
  31 "Bone13" 21
  32 "Bone14" 31
  33 "Bone15" 32
  34 "Bone09" 21
  35 "Bone10" 34
  36 "Bone11" 35
  37 "Bone_Se_Hand-L" 21
end
skeleton
  time 0
    0 -5.759477 -4.743260 -12.063797 -1.836327 1.140794 -1.343615
    1 0.096946 -8.450418 -0.009361 -0.285595 -0.054151 0.309057
    2 -2.442360 -3.492689 0.163798 1.361005 0.599188 1.126382
    3 0.000000 -0.000001 -0.257390 0.000001 0.000000 0.000000
    4 -0.591284 -1.257738 0.232709 -0.507549 -0.916660 -2.714421
    5 1.522835 0.058680 0.016851 0.418252 -0.512244 0.674257
    6 1.117947 0.048424 -0.005765 -0.415570 -0.081215 0.133337
    7 -0.963866 -2.785142 -0.085346 -0.727167 0.156738 0.050687
    8 0.028478 -1.403067 0.006271 -0.387019 0.000001 0.000000
    9 0.021413 -0.957781 0.020047 -0.267092 0.000000 0.000000
    10 -0.249534 -2.846962 -0.174215 -0.329594 0.169504 0.071581
    11 0.043235 -1.683940 0.096015 -0.488516 0.000001 0.000000
    12 0.031730 -1.160831 0.058835 -0.445564 0.000000 0.000000
    13 0.447952 -2.798983 -0.200441 -0.551739 0.248006 0.261062
    14 -0.032910 -1.480207 0.004936 -0.609748 -0.007898 -0.023729
    15 -0.027023 -1.076921 -0.020212 -0.689134 -0.007466 -0.029722
    16 1.164475 -2.543939 -0.170327 -0.865232 0.145176 0.218749
    17 0.024033 -1.129040 0.017806 -0.588697 0.000000 0.000000
    18 0.014896 -0.883992 -0.019846 -0.771131 0.000000 0.000000
    19 -0.138978 -0.111855 0.014349 0.292965 -0.021070 1.509950
    20 8.548269 -1.447416 -11.099910 0.111857 2.765372 -0.452856
    21 -0.071918 -8.498731 -0.104136 -0.378101 0.535019 -0.079298
    22 0.583509 -1.197274 0.185379 0.716085 -0.542283 -0.907635
    23 1.535926 0.010246 0.005008 0.003652 -0.343832 -0.303069
    24 1.100770 0.004528 -0.010675 -0.183878 -0.228394 -0.095478
    25 0.957766 -2.746777 -0.090301 0.117883 -0.321653 0.159298
    26 -0.033419 -1.397128 -0.011256 -0.471200 0.000000 0.000000
    27 -0.022361 -0.957433 0.018783 -0.248136 0.000000 0.000000
    28 0.250028 -2.820664 -0.238396 -0.276556 -0.160291 0.005542
    29 -0.049759 -1.680544 0.100480 -0.473283 0.000000 0.000000
    30 -0.034141 -1.148309 0.084779 -0.339827 0.000000 0.000000
    31 -0.488517 -2.755600 -0.228261 -0.633627 0.010338 -0.264487
    32 0.039888 -1.479791 0.029853 -0.522865 0.000000 0.000000
    33 0.028786 -1.075732 -0.023110 -0.497595 0.000000 0.000000
    34 -1.180679 -2.507216 -0.193861 -1.188923 0.013296 -0.477906
    35 -0.024967 -1.123935 0.017594 -0.277683 0.000000 0.000000
    36 -0.020058 -0.890965 0.010091 -0.510932 0.000000 0.000000
    37 0.118324 -0.052288 -0.052882 0.287560 3.110893 1.561059
  time 1
    0 -6.345433 -4.102615 -11.255178 -1.839090 1.102481 -1.381415
    1 0.096946 -8.450418 -0.009361 -0.130104 -0.033288 0.229593
    2 -2.739244 -3.344247 -0.015895 2.087261 -0.037007 1.032226
    3 0.000000 -0.000001 -0.257390 0.000001 0.000000 0.000000
    4 -0.591284 -1.257738 0.232709 -0.507549 -0.916660 -2.714421
    5 1.522835 0.058680 0.016851 0.418252 -0.512244 0.674257
    6 1.117947 0.048424 -0.005765 -0.415570 -0.081215 0.133337
    7 -0.963866 -2.785142 -0.085346 -0.471614 0.151453 0.009388
    8 0.028478 -1.403067 0.006271 -0.387019 0.000001 0.000000
    9 0.021413 -0.957781 0.020047 -0.267092 0.000000 0.000000
    10 -0.249534 -2.846962 -0.174215 -0.329594 0.169504 0.071581
    11 0.043235 -1.683940 0.096015 -0.488516 0.000001 0.000000
    12 0.031730 -1.160831 0.058835 -0.445564 0.000000 0.000000
    13 0.447952 -2.798983 -0.200441 -0.551739 0.248006 0.261062
    14 -0.032910 -1.480207 0.004936 -0.609748 -0.007898 -0.023729
    15 -0.027023 -1.076921 -0.020212 -0.689134 -0.007466 -0.029722
    16 1.164475 -2.543939 -0.170327 -0.865232 0.145176 0.218749
    17 0.024033 -1.129040 0.017806 -0.588697 0.000000 0.000000
    18 0.014896 -0.883992 -0.019846 -0.771131 0.000000 0.000000
    19 -0.138978 -0.111855 0.014349 0.292965 -0.021070 1.509950
    20 8.528737 -1.545075 -10.978812 0.102659 2.780540 -0.475992
    21 -0.071918 -8.498731 -0.104136 -0.388619 0.538340 -0.089000
    22 0.583509 -1.197274 0.185379 0.716085 -0.542283 -0.907635
    23 1.535926 0.010246 0.005008 0.003652 -0.343832 -0.303069
    24 1.100770 0.004528 -0.010675 -0.183878 -0.228394 -0.095478
    25 0.957766 -2.746777 -0.090301 0.117883 -0.321653 0.159298
    26 -0.033419 -1.397128 -0.011256 -0.471200 0.000000 0.000000
    27 -0.022361 -0.957433 0.018783 -0.248136 0.000000 0.000000
    28 0.250028 -2.820664 -0.238396 -0.276556 -0.160291 0.005542
    29 -0.049759 -1.680544 0.100480 -0.473283 0.000000 0.000000
    30 -0.034141 -1.148309 0.084779 -0.339827 0.000000 0.000000
    31 -0.488517 -2.755600 -0.228261 -0.633627 0.010338 -0.264487
    32 0.039888 -1.479791 0.029853 -0.522865 0.000000 0.000000
    33 0.028786 -1.075732 -0.023110 -0.497595 0.000000 0.000000
    34 -1.180679 -2.507216 -0.193861 -1.188923 0.013296 -0.477906
    35 -0.024967 -1.123935 0.017594 -0.277683 0.000000 0.000000
    36 -0.020058 -0.890965 0.010091 -0.510932 0.000000 0.000000
    37 0.118324 -0.052288 -0.052882 0.287560 3.110893 1.561059
  time 2
    0 -6.845448 -3.551817 -10.540313 -1.843065 1.068050 -1.421894
    1 0.096946 -8.450418 -0.009361 -0.001522 -0.032282 0.172345
    2 -2.118132 -3.859888 1.089608 2.963453 -0.039556 0.810070
    3 0.000000 -0.000001 -0.257390 0.000001 0.000000 0.000000
    4 -0.591284 -1.257738 0.232709 -0.507549 -0.916660 -2.714421
    5 1.522835 0.058680 0.016851 0.418252 -0.512244 0.674257
    6 1.117947 0.048424 -0.005765 -0.415570 -0.081215 0.133337
    7 -0.963866 -2.785142 -0.085346 -0.134923 0.146168 -0.031899
    8 0.028478 -1.403067 0.006271 -0.387019 0.000001 0.000000
    9 0.021413 -0.957781 0.020047 -0.267092 0.000000 0.000000
    10 -0.249534 -2.846962 -0.174215 -0.356438 0.169792 0.071677
    11 0.043235 -1.683940 0.096015 -0.488516 0.000001 0.000000
    12 0.031730 -1.160831 0.058835 -0.445564 0.000000 0.000000
    13 0.447952 -2.798983 -0.200441 -0.551739 0.248006 0.261062
    14 -0.032910 -1.480207 0.004936 -0.609748 -0.007898 -0.023729
    15 -0.027023 -1.076921 -0.020212 -0.689134 -0.007466 -0.029722
    16 1.164475 -2.543939 -0.170327 -0.880947 0.141090 0.220307
    17 0.024033 -1.129040 0.017806 -0.588697 0.000000 0.000000
    18 0.014896 -0.883992 -0.019846 -0.771131 0.000000 0.000000
    19 -0.138978 -0.111855 0.014349 0.292965 -0.021070 1.509950
    20 8.474048 -1.795083 -10.662397 0.078306 2.821059 -0.537526
    21 -0.071918 -8.498731 -0.104136 -0.417097 0.547323 -0.115299
    22 0.583509 -1.197274 0.185379 0.716085 -0.542283 -0.907635
    23 1.535926 0.010246 0.005008 0.003652 -0.343832 -0.303069
    24 1.100770 0.004528 -0.010675 -0.183878 -0.228394 -0.095478
    25 0.957766 -2.746777 -0.090301 0.117883 -0.321653 0.159298
    26 -0.033419 -1.397128 -0.011256 -0.471200 0.000000 0.000000
    27 -0.022361 -0.957433 0.018783 -0.248136 0.000000 0.000000
    28 0.250028 -2.820664 -0.238396 -0.276556 -0.160291 0.005542
    29 -0.049759 -1.680544 0.100480 -0.473283 0.000000 0.000000
    30 -0.034141 -1.148309 0.084779 -0.339827 0.000000 0.000000
    31 -0.488517 -2.755600 -0.228261 -0.633627 0.010338 -0.264487
    32 0.039888 -1.479791 0.029853 -0.522865 0.000000 0.000000
    33 0.028786 -1.075732 -0.023110 -0.497595 0.000000 0.000000
    34 -1.180679 -2.507216 -0.193861 -1.188923 0.013296 -0.477906
    35 -0.024967 -1.123935 0.017594 -0.277683 0.000000 0.000000
    36 -0.020058 -0.890965 0.010091 -0.510932 0.000000 0.000000
    37 0.118324 -0.052288 -0.052882 0.287560 3.110893 1.561059
  time 3
    0 -7.263430 -3.094772 -9.915293 -1.848186 1.037581 -1.465149
    1 0.096946 -8.450418 -0.009361 0.100135 -0.051099 0.137314
    2 -1.360296 -4.481001 1.792754 -2.531376 0.168702 0.572406
    3 0.000000 -0.000001 -0.257390 0.000001 0.000000 0.000000
    4 -0.591284 -1.257738 0.232709 -0.507549 -0.916660 -2.714421
    5 1.522835 0.058680 0.016851 0.418252 -0.512244 0.674257
    6 1.117947 0.048424 -0.005765 -0.415570 -0.081215 0.133337
    7 -0.963866 -2.785142 -0.085346 -0.017108 0.148014 -0.030401
    8 0.028478 -1.403067 0.006271 -0.387019 0.000001 0.000000
    9 0.021413 -0.957781 0.020047 -0.267092 0.000000 0.000000
    10 -0.249534 -2.846962 -0.174215 -0.427272 0.170607 0.071929
    11 0.043235 -1.683940 0.096015 -0.546493 0.000001 0.000000
    12 0.031730 -1.160831 0.058835 -0.445564 0.000000 0.000000
    13 0.447952 -2.798983 -0.200441 -0.576446 0.249097 0.255513
    14 -0.032910 -1.480207 0.004936 -0.666413 -0.007922 -0.023801
    15 -0.027023 -1.076921 -0.020212 -0.644064 -0.006040 -0.026714
    16 1.164475 -2.543939 -0.170327 -0.922434 0.129785 0.224405
    17 0.024033 -1.129040 0.017806 -0.625909 0.000000 0.000000
    18 0.014896 -0.883992 -0.019846 -0.771131 0.000000 0.000000
    19 -0.138978 -0.111855 0.014349 0.292965 -0.021070 1.509950
    20 8.395921 -2.162282 -10.205351 0.043895 2.879375 -0.626079
    21 -0.071918 -8.498731 -0.104136 -0.458856 0.560540 -0.154000
    22 0.583509 -1.197274 0.185379 0.716085 -0.542283 -0.907635
    23 1.535926 0.010246 0.005008 0.003652 -0.343832 -0.303069
    24 1.100770 0.004528 -0.010675 -0.183878 -0.228394 -0.095478
    25 0.957766 -2.746777 -0.090301 0.117883 -0.321653 0.159298
    26 -0.033419 -1.397128 -0.011256 -0.471200 0.000000 0.000000
    27 -0.022361 -0.957433 0.018783 -0.248136 0.000000 0.000000
    28 0.250028 -2.820664 -0.238396 -0.276556 -0.160291 0.005542
    29 -0.049759 -1.680544 0.100480 -0.473283 0.000000 0.000000
    30 -0.034141 -1.148309 0.084779 -0.339827 0.000000 0.000000
    31 -0.488517 -2.755600 -0.228261 -0.633627 0.010338 -0.264487
    32 0.039888 -1.479791 0.029853 -0.522865 0.000000 0.000000
    33 0.028786 -1.075732 -0.023110 -0.497595 0.000000 0.000000
    34 -1.180679 -2.507216 -0.193861 -1.188923 0.013296 -0.477906
    35 -0.024967 -1.123935 0.017594 -0.277683 0.000000 0.000000
    36 -0.020058 -0.890965 0.010091 -0.510932 0.000000 0.000000
    37 0.118324 -0.052288 -0.052882 0.287560 3.110893 1.561059
  time 4
    0 -7.595471 -2.727574 -9.387934 -1.854452 1.010911 -1.511082
    1 0.096946 -8.450418 -0.009361 0.174920 -0.089773 0.124499
    2 -1.340764 -4.457563 1.820099 -1.794280 -0.165114 0.811746
    3 0.000000 -0.000001 -0.257390 0.000001 0.000000 0.000000
    4 -0.591284 -1.257738 0.232709 -0.507549 -0.916660 -2.714421
    5 1.522835 0.058680 0.016851 0.418252 -0.512244 0.674257
    6 1.117947 0.048424 -0.005765 -0.415570 -0.081215 0.133337
    7 -0.963866 -2.785142 -0.085346 0.041223 0.151932 -0.025224
    8 0.028478 -1.403067 0.006271 -0.387019 0.000001 0.000000
    9 0.021413 -0.957781 0.020047 -0.267092 0.000000 0.000000
    10 -0.249534 -2.846962 -0.174215 -0.527410 0.171817 0.072312
    11 0.043235 -1.683940 0.096015 -0.695887 0.000001 0.000000
    12 0.031730 -1.160831 0.058835 -0.426201 0.000000 0.000000
    13 0.447952 -2.798983 -0.200441 -0.640203 0.251913 0.241072
    14 -0.032910 -1.480207 0.004936 -0.812515 -0.007982 -0.023981
    15 -0.027023 -1.076921 -0.020212 -0.560344 -0.002828 -0.019978
    16 1.164475 -2.543939 -0.170327 -0.981073 0.112662 0.230194
    17 0.024033 -1.129040 0.017806 -0.721795 0.000000 0.000000
    18 0.014896 -0.883992 -0.019846 -0.658844 0.000000 0.000000
    19 -0.138978 -0.111855 0.014349 0.292965 -0.021070 1.509950
    20 8.302168 -2.595889 -9.658460 0.004388 2.948024 -0.729948
    21 -0.071918 -8.498731 -0.104136 -0.509261 0.576567 -0.200906
    22 0.583509 -1.197274 0.185379 0.716085 -0.542283 -0.907635
    23 1.535926 0.010246 0.005008 0.003652 -0.343832 -0.303069
    24 1.100770 0.004528 -0.010675 -0.183878 -0.228394 -0.095478
    25 0.957766 -2.746777 -0.090301 0.117883 -0.321653 0.159298
    26 -0.033419 -1.397128 -0.011256 -0.471200 0.000000 0.000000
    27 -0.022361 -0.957433 0.018783 -0.248136 0.000000 0.000000
    28 0.250028 -2.820664 -0.238396 -0.276556 -0.160291 0.005542
    29 -0.049759 -1.680544 0.100480 -0.473283 0.000000 0.000000
    30 -0.034141 -1.148309 0.084779 -0.339827 0.000000 0.000000
    31 -0.488517 -2.755600 -0.228261 -0.633627 0.010338 -0.264487
    32 0.039888 -1.479791 0.029853 -0.522865 0.000000 0.000000
    33 0.028786 -1.075732 -0.023110 -0.497595 0.000000 0.000000
    34 -1.180679 -2.507216 -0.193861 -1.188923 0.013296 -0.477906
    35 -0.024967 -1.123935 0.017594 -0.277683 0.000000 0.000000
    36 -0.020058 -0.890965 0.010091 -0.510932 0.000000 0.000000
    37 0.118324 -0.052288 -0.052882 0.287560 3.110893 1.561059
  time 5
    0 -7.845479 -2.454128 -8.950420 -1.861931 0.988204 -1.559696
    1 0.096946 -8.450418 -0.009361 0.222797 -0.148287 0.133899
    2 -1.278262 -4.391154 1.792754 -1.036328 0.287180 0.768952
    3 0.000000 -0.000001 -0.257390 0.000001 0.000000 0.000000
    4 -0.591284 -1.257738 0.232709 -0.507549 -0.916660 -2.714421
    5 1.522835 0.058680 0.016851 0.418252 -0.512244 0.674257
    6 1.117947 0.048424 -0.005765 -0.415570 -0.081215 0.133337
    7 -0.963866 -2.785142 -0.085346 0.083845 0.155528 -0.015265
    8 0.028478 -1.403067 0.006271 -0.387019 0.000001 0.000000
    9 0.021413 -0.957781 0.020047 -0.267092 0.000000 0.000000
    10 -0.249534 -2.846962 -0.174215 -0.642199 0.173304 0.072791
    11 0.043235 -1.683940 0.096015 -0.900255 0.000001 0.000000
    12 0.031730 -1.160831 0.058835 -0.406810 0.000000 0.000000
    13 0.447952 -2.798983 -0.200441 -0.727390 0.255772 0.221057
    14 -0.032910 -1.480207 0.004936 -1.012278 -0.008066 -0.024233
    15 -0.027023 -1.076921 -0.020212 -0.515275 0.000515 -0.012895
    16 1.164475 -2.543939 -0.170327 -1.048272 0.091150 0.236845
    17 0.024033 -1.129040 0.017806 -0.852933 0.000000 0.000000
    18 0.014896 -0.883992 -0.019846 -0.546586 0.000000 0.000000
    19 -0.138978 -0.111855 0.014349 0.292965 -0.021070 1.509950
    20 8.204509 -3.052934 -9.088130 -0.035152 3.019483 -0.837700
    21 -0.071918 -8.498731 -0.104136 -0.563766 0.593930 -0.251848
    22 0.583509 -1.197274 0.185379 0.716085 -0.542283 -0.907635
    23 1.535926 0.010246 0.005008 0.003652 -0.343832 -0.303069
    24 1.100770 0.004528 -0.010675 -0.183878 -0.228394 -0.095478
    25 0.957766 -2.746777 -0.090301 0.117883 -0.321653 0.159298
    26 -0.033419 -1.397128 -0.011256 -0.471200 0.000000 0.000000
    27 -0.022361 -0.957433 0.018783 -0.248136 0.000000 0.000000
    28 0.250028 -2.820664 -0.238396 -0.276556 -0.160291 0.005542
    29 -0.049759 -1.680544 0.100480 -0.473283 0.000000 0.000000
    30 -0.034141 -1.148309 0.084779 -0.339827 0.000000 0.000000
    31 -0.488517 -2.755600 -0.228261 -0.633627 0.010338 -0.264487
    32 0.039888 -1.479791 0.029853 -0.522865 0.000000 0.000000
    33 0.028786 -1.075732 -0.023110 -0.497595 0.000000 0.000000
    34 -1.180679 -2.507216 -0.193861 -1.188923 0.013296 -0.477906
    35 -0.024967 -1.123935 0.017594 -0.277683 0.000000 0.000000
    36 -0.020058 -0.890965 0.010091 -0.510932 0.000000 0.000000
    37 0.118324 -0.052288 -0.052882 0.287560 3.110893 1.561059
  time 6
    0 -8.013452 -2.270528 -8.606660 1.271024 2.172100 1.530596
    1 0.096946 -8.450418 -0.009361 0.243767 -0.226659 0.165516
    2 -1.372015 -4.461469 1.718533 -0.120722 0.245359 0.905998
    3 0.000000 -0.000001 -0.257390 0.000001 0.000000 0.000000
    4 -0.591284 -1.257738 0.232709 -0.507549 -0.916660 -2.714421
    5 1.522835 0.058680 0.016851 0.418252 -0.512244 0.674257
    6 1.117947 0.048424 -0.005765 -0.415570 -0.081215 0.133337
    7 -0.963866 -2.785142 -0.085346 0.103192 0.156738 0.050687
    8 0.028478 -1.403067 0.006271 -0.387019 0.000001 0.000000
    9 0.021413 -0.957781 0.020047 -0.267092 0.000000 0.000000
    10 -0.249534 -2.846962 -0.174215 -0.756988 0.174969 0.073319
    11 0.043235 -1.683940 0.096015 -1.122896 0.000001 0.000000
    12 0.031730 -1.160831 0.058835 -0.473208 0.000000 0.000000
    13 0.447952 -2.798983 -0.200441 -0.822350 0.259967 0.198802
    14 -0.032910 -1.480207 0.004936 -1.229974 -0.008162 -0.024532
    15 -0.027023 -1.076921 -0.020212 -0.600722 0.004075 -0.005405
    16 1.164475 -2.543939 -0.170327 -1.115502 0.066635 0.243485
    17 0.024033 -1.129040 0.017806 -0.995799 0.000000 0.000000
    18 0.014896 -0.883992 -0.019846 -0.656669 0.000000 0.000000
    19 -0.138978 -0.111855 0.014349 0.292965 -0.021070 1.509950
    20 8.110756 -3.486541 -8.533425 -0.069729 3.086229 -0.937794
    21 -0.071918 -8.498731 -0.104136 -0.617648 0.611227 -0.302603
    22 0.583509 -1.197274 0.185379 0.716085 -0.542283 -0.907635
    23 1.535926 0.010246 0.005008 0.003652 -0.343832 -0.303069
    24 1.100770 0.004528 -0.010675 -0.183878 -0.228394 -0.095478
    25 0.957766 -2.746777 -0.090301 0.117883 -0.321653 0.159298
    26 -0.033419 -1.397128 -0.011256 -0.471200 0.000000 0.000000
    27 -0.022361 -0.957433 0.018783 -0.248136 0.000000 0.000000
    28 0.250028 -2.820664 -0.238396 -0.276556 -0.160291 0.005542
    29 -0.049759 -1.680544 0.100480 -0.473283 0.000000 0.000000
    30 -0.034141 -1.148309 0.084779 -0.339827 0.000000 0.000000
    31 -0.488517 -2.755600 -0.228261 -0.633627 0.010338 -0.264487
    32 0.039888 -1.479791 0.029853 -0.522865 0.000000 0.000000
    33 0.028786 -1.075732 -0.023110 -0.497595 0.000000 0.000000
    34 -1.180679 -2.507216 -0.193861 -1.188923 0.013296 -0.477906
    35 -0.024967 -1.123935 0.017594 -0.277683 0.000000 0.000000
    36 -0.020058 -0.890965 0.010091 -0.510932 0.000000 0.000000
    37 0.118324 -0.052288 -0.052882 0.287560 3.110893 1.561059
  time 7
    0 -8.060329 -2.239277 -8.344933 1.269137 2.176146 1.483131
    1 0.096946 -8.450418 -0.009361 0.223187 -0.362521 0.249359
    2 -1.485300 -4.559128 1.573998 0.906234 0.013783 0.929932
    3 0.000000 -0.000001 -0.257390 0.000001 0.000000 0.000000
    4 -0.591284 -1.257738 0.232709 -0.491074 -0.735056 -2.570486
    5 1.522835 0.058680 0.016851 0.419990 -0.405384 0.577303
    6 1.117947 0.048424 -0.005765 -0.431007 -0.058756 0.044802
    7 -0.963866 -2.785142 -0.085346 -0.092517 0.168783 0.049237
    8 0.028478 -1.403067 0.006271 -0.387470 0.000001 0.000000
    9 0.021413 -0.957781 0.020047 -0.282387 0.000000 0.000000
    10 -0.249534 -2.846962 -0.174215 -0.857090 0.176683 0.073870
    11 0.043235 -1.683940 0.096015 -1.327213 0.000001 0.000000
    12 0.031730 -1.160831 0.058835 -0.639148 0.000000 0.000000
    13 0.447952 -2.798983 -0.200441 -0.909537 0.263826 0.177613
    14 -0.032910 -1.480207 0.004936 -1.429737 -0.008269 -0.024844
    15 -0.027023 -1.076921 -0.020212 -0.788712 0.008126 0.003104
    16 1.164475 -2.543939 -0.170327 -1.174171 0.040560 0.249285
    17 0.024033 -1.129040 0.017806 -1.126937 0.000000 0.000000
    18 0.014896 -0.883992 -0.019846 -0.919205 0.000000 0.000000
    19 -0.138978 -0.111855 0.014349 0.292965 -0.021070 1.509950
    20 8.032628 -3.845927 -8.060755 -0.094314 3.140798 -1.018581
    21 -0.071918 -8.498731 -0.104136 -0.666359 0.626986 -0.349001
    22 0.583509 -1.197274 0.185379 0.716085 -0.542283 -0.907635
    23 1.535926 0.010246 0.005008 0.003652 -0.343832 -0.303069
    24 1.100770 0.004528 -0.010675 -0.183878 -0.228394 -0.095478
    25 0.957766 -2.746777 -0.090301 0.117883 -0.321653 0.159298
    26 -0.033419 -1.397128 -0.011256 -0.471200 0.000000 0.000000
    27 -0.022361 -0.957433 0.018783 -0.248136 0.000000 0.000000
    28 0.250028 -2.820664 -0.238396 -0.276556 -0.160291 0.005542
    29 -0.049759 -1.680544 0.100480 -0.473283 0.000000 0.000000
    30 -0.034141 -1.148309 0.084779 -0.339827 0.000000 0.000000
    31 -0.488517 -2.755600 -0.228261 -0.633627 0.010338 -0.264487
    32 0.039888 -1.479791 0.029853 -0.522865 0.000000 0.000000
    33 0.028786 -1.075732 -0.023110 -0.497595 0.000000 0.000000
    34 -1.180679 -2.507216 -0.193861 -1.188923 0.013296 -0.477906
    35 -0.024967 -1.123935 0.017594 -0.277683 0.000000 0.000000
    36 -0.020058 -0.890965 0.010091 -0.510932 0.000000 0.000000
    37 0.118324 -0.052288 -0.052882 0.287560 3.110893 1.561059
  time 8
    0 -8.025172 -2.297873 -8.173053 1.266172 2.176228 1.432987
    1 0.096946 -8.450418 -0.009361 0.175718 -0.518241 0.355417
    2 -1.500925 -4.754447 1.671657 1.969388 0.227422 0.611179
    3 0.000000 -0.000001 -0.257390 0.000001 0.000000 0.000000
    4 -0.591284 -1.257738 0.232709 -0.460487 -0.397782 -2.303194
    5 1.522835 0.058680 0.016851 0.423226 -0.206958 0.397287
    6 1.117947 0.048424 -0.005765 -0.459686 -0.011945 -0.119565
    7 -0.963866 -2.785142 -0.085346 -0.455977 0.188090 0.046528
    8 0.028478 -1.403067 0.006271 -0.389223 0.000001 0.000000
    9 0.021413 -0.957781 0.020047 -0.324083 0.000000 0.000000
    10 -0.249534 -2.846962 -0.174215 -0.927889 0.178349 0.074397
    11 0.043235 -1.683940 0.096015 -1.476658 0.000001 0.000000
    12 0.031730 -1.160831 0.058835 -0.854901 0.000000 0.000000
    13 0.447952 -2.798983 -0.200441 -0.973258 0.266642 0.160811
    14 -0.032910 -1.480207 0.004936 -1.575839 -0.008365 -0.025144
    15 -0.027023 -1.076921 -0.020212 -0.976730 0.011457 0.010115
    16 1.164475 -2.543939 -0.170327 -1.215658 0.014341 0.253384
    17 0.024033 -1.129040 0.017806 -1.222823 0.000000 0.000000
    18 0.014896 -0.883992 -0.019846 -1.232474 0.000000 0.000000
    19 -0.138978 -0.111855 0.014349 0.292965 -0.021070 1.509950
    20 7.977939 -4.095934 -7.728713 -0.103909 3.175636 -1.068628
    21 -0.071918 -8.498731 -0.104136 -0.705222 0.639802 -0.386820
    22 0.583509 -1.197274 0.185379 0.716085 -0.542283 -0.907635
    23 1.535926 0.010246 0.005008 0.003652 -0.343832 -0.303069
    24 1.100770 0.004528 -0.010675 -0.183878 -0.228394 -0.095478
    25 0.957766 -2.746777 -0.090301 0.117883 -0.321653 0.159298
    26 -0.033419 -1.397128 -0.011256 -0.471200 0.000000 0.000000
    27 -0.022361 -0.957433 0.018783 -0.248136 0.000000 0.000000
    28 0.250028 -2.820664 -0.238396 -0.276556 -0.160291 0.005542
    29 -0.049759 -1.680544 0.100480 -0.473283 0.000000 0.000000
    30 -0.034141 -1.148309 0.084779 -0.339827 0.000000 0.000000
    31 -0.488517 -2.755600 -0.228261 -0.633627 0.010338 -0.264487
    32 0.039888 -1.479791 0.029853 -0.522865 0.000000 0.000000
    33 0.028786 -1.075732 -0.023110 -0.497595 0.000000 0.000000
    34 -1.180679 -2.507216 -0.193861 -1.188923 0.013296 -0.477906
    35 -0.024967 -1.123935 0.017594 -0.277683 0.000000 0.000000
    36 -0.020058 -0.890965 0.010091 -0.510932 0.000000 0.000000
    37 0.118324 -0.052288 -0.052882 0.287560 3.110893 1.561059
  time 9
    0 -8.013452 -2.270528 -8.133989 1.238143 2.205128 1.360545
    1 0.096946 -8.450418 -0.009361 0.145284 -0.580813 0.393663
    2 -1.676712 -4.820855 1.136484 3.010400 0.222229 0.619795
    3 0.000000 -0.000001 -0.257390 0.000001 0.000000 0.000000
    4 -0.591284 -1.257738 0.232709 -0.444012 -0.216178 -2.159259
    5 1.522835 0.058680 0.016851 0.424975 -0.100113 0.300351
    6 1.117947 0.048424 -0.005765 -0.475134 0.028312 -0.208057
    7 -0.963866 -2.785142 -0.085346 -0.651686 0.198193 0.045078
    8 0.028478 -1.403067 0.006271 -0.393081 0.000001 0.000000
    9 0.021413 -0.957781 0.020047 -0.385814 0.000000 0.000000
    10 -0.249534 -2.846962 -0.174215 -0.954768 0.179823 0.074865
    11 0.043235 -1.683940 0.096015 -1.534634 0.000001 0.000000
    12 0.031730 -1.160831 0.058835 -1.070599 0.000000 0.000000
    13 0.447952 -2.798983 -0.200441 -0.998002 0.267745 0.151726
    14 -0.032910 -1.480207 0.004936 -1.632505 -0.008449 -0.025371
    15 -0.027023 -1.076921 -0.020212 -1.062206 0.012835 0.013015
    16 1.164475 -2.543939 -0.170327 -1.231373 -0.010621 0.254942
    17 0.024033 -1.129040 0.017806 -1.260002 0.000000 0.000000
    18 0.014896 -0.883992 -0.019846 -1.495011 0.000000 0.000000
    19 -0.138978 -0.111855 0.014349 0.292965 -0.021070 1.509950
    20 7.950595 -4.224845 -7.525582 -0.095571 3.189354 -1.085724
    21 -0.071918 -8.498731 -0.104136 -0.729600 0.648205 -0.411864
    22 0.583509 -1.197274 0.185379 0.716085 -0.542283 -0.907635
    23 1.535926 0.010246 0.005008 0.003652 -0.343832 -0.303069
    24 1.100770 0.004528 -0.010675 -0.183878 -0.228394 -0.095478
    25 0.957766 -2.746777 -0.090301 0.117883 -0.321653 0.159298
    26 -0.033419 -1.397128 -0.011256 -0.471200 0.000000 0.000000
    27 -0.022361 -0.957433 0.018783 -0.248136 0.000000 0.000000
    28 0.250028 -2.820664 -0.238396 -0.276556 -0.160291 0.005542
    29 -0.049759 -1.680544 0.100480 -0.473283 0.000000 0.000000
    30 -0.034141 -1.148309 0.084779 -0.339827 0.000000 0.000000
    31 -0.488517 -2.755600 -0.228261 -0.633627 0.010338 -0.264487
    32 0.039888 -1.479791 0.029853 -0.522865 0.000000 0.000000
    33 0.028786 -1.075732 -0.023110 -0.497595 0.000000 0.000000
    34 -1.180679 -2.507216 -0.193861 -1.188923 0.013296 -0.477906
    35 -0.024967 -1.123935 0.017594 -0.277683 0.000000 0.000000
    36 -0.020058 -0.890965 0.010091 -0.510932 0.000000 0.000000
    37 0.118324 -0.052288 -0.052882 0.287560 3.110893 1.561059
  time 10
    0 -8.079861 -2.000989 -8.325401 1.149675 2.305038 1.224084
    1 0.096946 -8.450418 -0.009361 0.156344 -0.445651 0.283205
    2 -1.528270 -4.957578 0.757567 -2.168386 0.149349 0.685326
    3 0.000000 -0.000001 -0.257390 0.000001 0.000000 0.000000
    4 -0.591284 -1.257738 0.232709 -0.450809 -0.279123 -2.161404
    5 1.522835 0.058680 0.016851 0.405081 -0.169989 0.413403
    6 1.117947 0.048424 -0.005765 -0.475050 0.053288 -0.141866
    7 -0.963866 -2.785142 -0.085346 -0.448519 0.173924 0.120317
    8 0.028478 -1.403067 0.006271 -0.706401 0.000001 0.000000
    9 0.021413 -0.957781 0.020047 -0.494312 0.000000 0.000000
    10 -0.249534 -2.846962 -0.174215 -0.646274 0.181621 0.075440
    11 0.043235 -1.683940 0.096015 -1.193597 0.000001 0.000000
    12 0.031730 -1.160831 0.058835 -1.236567 0.000000 0.000000
    13 0.447952 -2.798983 -0.200441 -0.819832 0.252237 0.148467
    14 -0.032910 -1.480207 0.004936 -1.496156 -0.008509 -0.025575
    15 -0.027023 -1.076921 -0.020212 -1.001739 0.011277 0.009636
    16 1.164475 -2.543939 -0.170327 -1.106073 -0.041966 0.250088
    17 0.024033 -1.129040 0.017806 -1.175573 0.000000 0.000000
    18 0.014896 -0.883992 -0.019846 -1.605093 0.000000 0.000000
    19 -0.138978 -0.111855 0.014349 0.292965 -0.021070 1.509950
    20 7.938876 -4.275627 -7.412297 -0.071053 3.186786 -1.077365
    21 -0.071918 -8.498731 -0.104136 -0.737265 0.653377 -0.424292
    22 0.583509 -1.197274 0.185379 0.716085 -0.542283 -0.907635
    23 1.535926 0.010246 0.005008 0.003652 -0.343832 -0.303069
    24 1.100770 0.004528 -0.010675 -0.183878 -0.228394 -0.095478
    25 0.957766 -2.746777 -0.090301 0.117883 -0.321653 0.159298
    26 -0.033419 -1.397128 -0.011256 -0.471200 0.000000 0.000000
    27 -0.022361 -0.957433 0.018783 -0.248136 0.000000 0.000000
    28 0.250028 -2.820664 -0.238396 -0.276556 -0.160291 0.005542
    29 -0.049759 -1.680544 0.100480 -0.473283 0.000000 0.000000
    30 -0.034141 -1.148309 0.084779 -0.339827 0.000000 0.000000
    31 -0.488517 -2.755600 -0.228261 -0.633627 0.010338 -0.264487
    32 0.039888 -1.479791 0.029853 -0.522865 0.000000 0.000000
    33 0.028786 -1.075732 -0.023110 -0.497595 0.000000 0.000000
    34 -1.180679 -2.507216 -0.193861 -1.188923 0.013296 -0.477906
    35 -0.024967 -1.123935 0.017594 -0.277683 0.000000 0.000000
    36 -0.020058 -0.890965 0.010091 -0.510932 0.000000 0.000000
    37 0.118324 -0.052288 -0.052882 0.287560 3.110893 1.561059
  time 11
    0 -8.169707 -1.641603 -8.645723 1.036278 2.433766 1.065325
    1 0.096946 -8.450418 -0.009361 0.184458 -0.217358 0.104934
    2 -1.274356 -5.082582 0.491933 -1.324166 0.057304 0.790780
    3 0.000000 -0.000001 -0.257390 0.000001 0.000000 0.000000
    4 -0.591284 -1.257738 0.232709 -0.464175 -0.398692 -2.170045
    5 1.522835 0.058680 0.016851 0.363830 -0.299752 0.623372
    6 1.117947 0.048424 -0.005765 -0.474906 0.071720 -0.018946
    7 -0.963866 -2.785142 -0.085346 -0.102173 0.123505 0.195568
    8 0.028478 -1.403067 0.006271 -1.282892 0.000001 0.000000
    9 0.021413 -0.957781 0.020047 -0.622872 0.000000 0.000000
    10 -0.249534 -2.846962 -0.174215 -0.073278 0.183526 0.076051
    11 0.043235 -1.683940 0.096015 -0.560287 0.000001 0.000000
    12 0.031730 -1.160831 0.058835 -1.302965 0.000000 0.000000
    13 0.447952 -2.798983 -0.200441 -0.427837 0.217961 0.146657
    14 -0.032910 -1.480207 0.004936 -1.170998 -0.008581 -0.025779
    15 -0.027023 -1.076921 -0.020212 -0.850617 0.007383 0.001163
    16 1.164475 -2.543939 -0.170327 -0.807312 -0.082160 0.238176
    17 0.024033 -1.129040 0.017806 -0.974236 0.000000 0.000000
    18 0.014896 -0.883992 -0.019846 -1.429391 0.000000 0.000000
    19 -0.138978 -0.111855 0.014349 0.292965 -0.021070 1.509950
    20 7.946688 -4.248283 -7.373234 -0.032373 3.169865 -1.046625
    21 -0.071918 -8.498731 -0.104136 -0.730357 0.657322 -0.427606
    22 0.583509 -1.197274 0.185379 0.716085 -0.542283 -0.907635
    23 1.535926 0.010246 0.005008 0.003652 -0.343832 -0.303069
    24 1.100770 0.004528 -0.010675 -0.183878 -0.228394 -0.095478
    25 0.957766 -2.746777 -0.090301 0.117883 -0.321653 0.159298
    26 -0.033419 -1.397128 -0.011256 -0.471200 0.000000 0.000000
    27 -0.022361 -0.957433 0.018783 -0.248136 0.000000 0.000000
    28 0.250028 -2.820664 -0.238396 -0.276556 -0.160291 0.005542
    29 -0.049759 -1.680544 0.100480 -0.473283 0.000000 0.000000
    30 -0.034141 -1.148309 0.084779 -0.339827 0.000000 0.000000
    31 -0.488517 -2.755600 -0.228261 -0.633627 0.010338 -0.264487
    32 0.039888 -1.479791 0.029853 -0.522865 0.000000 0.000000
    33 0.028786 -1.075732 -0.023110 -0.497595 0.000000 0.000000
    34 -1.180679 -2.507216 -0.193861 -1.188923 0.013296 -0.477906
    35 -0.024967 -1.123935 0.017594 -0.277683 0.000000 0.000000
    36 -0.020058 -0.890965 0.010091 -0.510932 0.000000 0.000000
    37 0.118324 -0.052288 -0.052882 0.287560 3.110893 1.561059
  time 12
    0 -8.212677 -1.461910 -8.813697 0.980152 2.497593 0.989056
    1 0.096946 -8.450418 -0.009361 0.200343 -0.096650 0.011570
    2 -1.129820 -5.121645 0.292709 -1.040187 0.040783 0.982204
    3 0.000000 -0.000001 -0.257390 0.000001 0.000000 0.000000
    4 -0.591284 -1.257738 0.232709 -0.473539 -0.470909 -2.188406
    5 1.522835 0.058680 0.016851 0.328907 -0.369628 0.736423
    6 1.117947 0.048424 -0.005765 -0.474822 0.078899 0.047245
    7 -0.963866 -2.785142 -0.085346 0.207316 0.041351 -0.263945
    8 0.028478 -1.403067 0.006271 -1.592755 0.000001 0.000000
    9 0.021413 -0.957781 0.020047 -0.684961 0.000000 0.000000
    10 -0.249534 -2.846962 -0.174215 0.235251 0.184413 0.076327
    11 0.043235 -1.683940 0.096015 -0.219301 0.000001 0.000000
    12 0.031730 -1.160831 0.058835 -1.049220 0.000000 0.000000
    13 0.447952 -2.798983 -0.200441 -0.035879 0.183325 0.145890
    14 -0.032910 -1.480207 0.004936 -0.782934 -0.008641 -0.025947
    15 -0.027023 -1.076921 -0.020212 -0.654166 0.002313 -0.009839
    16 1.164475 -2.543939 -0.170327 -0.450689 -0.122138 0.223123
    17 0.024033 -1.129040 0.017806 -0.733895 0.000000 0.000000
    18 0.014896 -0.883992 -0.019846 -1.039594 0.000000 0.000000
    19 -0.138978 -0.111855 0.014349 0.292965 -0.021070 1.509950
    20 7.962314 -4.158436 -7.408391 0.018384 3.140587 -0.996416
    21 -0.071918 -8.498731 -0.104136 -0.710748 0.660019 -0.422795
    22 0.583509 -1.197274 0.185379 0.716085 -0.542283 -0.907635
    23 1.535926 0.010246 0.005008 0.003652 -0.343832 -0.303069
    24 1.100770 0.004528 -0.010675 -0.183878 -0.228394 -0.095478
    25 0.957766 -2.746777 -0.090301 0.117883 -0.321653 0.159298
    26 -0.033419 -1.397128 -0.011256 -0.471200 0.000000 0.000000
    27 -0.022361 -0.957433 0.018783 -0.248136 0.000000 0.000000
    28 0.250028 -2.820664 -0.238396 -0.276556 -0.160291 0.005542
    29 -0.049759 -1.680544 0.100480 -0.473283 0.000000 0.000000
    30 -0.034141 -1.148309 0.084779 -0.339827 0.000000 0.000000
    31 -0.488517 -2.755600 -0.228261 -0.633627 0.010338 -0.264487
    32 0.039888 -1.479791 0.029853 -0.522865 0.000000 0.000000
    33 0.028786 -1.075732 -0.023110 -0.497595 0.000000 0.000000
    34 -1.180679 -2.507216 -0.193861 -1.188923 0.013296 -0.477906
    35 -0.024967 -1.123935 0.017594 -0.277683 0.000000 0.000000
    36 -0.020058 -0.890965 0.010091 -0.510932 0.000000 0.000000
    37 0.118324 -0.052288 -0.052882 0.287560 3.110893 1.561059
  time 13
    0 -8.208771 -1.571288 -8.731664 1.001106 2.518483 1.004558
    1 0.096946 -8.450418 -0.009361 0.214317 -0.110923 0.010224
    2 -1.180603 -5.367747 0.300521 -0.568419 -0.198156 0.622332
    3 0.000000 -0.000001 -0.257390 0.000001 0.000000 0.000000
    4 -0.591284 -1.257738 0.232709 -0.477130 -0.482113 -2.222418
    5 1.522835 0.058680 0.016851 0.305118 -0.356744 0.714824
    6 1.117947 0.048424 -0.005765 -0.475685 0.073697 0.040448
    7 -0.963866 -2.785142 -0.085346 0.330139 -0.037652 -0.145789
    8 0.028478 -1.403067 0.006271 -1.264205 0.000001 0.000000
    9 0.021413 -0.957781 0.020047 -0.614053 0.000000 0.000000
    10 -0.249534 -2.846962 -0.174215 0.234162 0.181861 0.075512
    11 0.043235 -1.683940 0.096015 -0.219555 0.000001 0.000000
    12 0.031730 -1.160831 0.058835 -0.558643 0.000000 0.000000
    13 0.447952 -2.798983 -0.200441 0.142327 0.166691 0.145722
    14 -0.032910 -1.480207 0.004936 -0.457776 -0.008677 -0.026066
    15 -0.027023 -1.076921 -0.020212 -0.457687 -0.002744 -0.020841
    16 1.164475 -2.543939 -0.170327 -0.151898 -0.152804 0.208849
    17 0.024033 -1.129040 0.017806 -0.532557 0.000000 0.000000
    18 0.014896 -0.883992 -0.019846 -0.641695 0.000000 0.000000
    19 -0.138978 -0.111855 0.014349 0.292965 -0.021070 1.509950
    20 7.993565 -4.017807 -7.498237 0.079200 3.100853 -0.929651
    21 -0.071918 -8.498731 -0.104136 -0.680264 0.661401 -0.410794
    22 0.583509 -1.197274 0.185379 0.716085 -0.542283 -0.907635
    23 1.535926 0.010246 0.005008 0.003652 -0.343832 -0.303069
    24 1.100770 0.004528 -0.010675 -0.183878 -0.228394 -0.095478
    25 0.957766 -2.746777 -0.090301 0.117883 -0.321653 0.159298
    26 -0.033419 -1.397128 -0.011256 -0.471200 0.000000 0.000000
    27 -0.022361 -0.957433 0.018783 -0.248136 0.000000 0.000000
    28 0.250028 -2.820664 -0.238396 -0.276556 -0.160291 0.005542
    29 -0.049759 -1.680544 0.100480 -0.473283 0.000000 0.000000
    30 -0.034141 -1.148309 0.084779 -0.339827 0.000000 0.000000
    31 -0.488517 -2.755600 -0.228261 -0.633627 0.010338 -0.264487
    32 0.039888 -1.479791 0.029853 -0.522865 0.000000 0.000000
    33 0.028786 -1.075732 -0.023110 -0.497595 0.000000 0.000000
    34 -1.180679 -2.507216 -0.193861 -1.188923 0.013296 -0.477906
    35 -0.024967 -1.123935 0.017594 -0.277683 0.000000 0.000000
    36 -0.020058 -0.890965 0.010091 -0.510932 0.000000 0.000000
    37 0.118324 -0.052288 -0.052882 0.287560 3.110893 1.561059
  time 14
    0 -8.204865 -1.872079 -8.497281 1.045104 2.562906 1.041688
    1 0.096946 -8.450418 -0.009361 0.251802 -0.149203 0.006568
    2 -2.723619 -6.063080 1.577904 0.266339 0.233275 0.893169
    3 0.000000 -0.000001 -0.257390 0.000001 0.000000 0.000000
    4 -0.591284 -1.257738 0.232709 -0.480240 -0.488864 -2.272262
    5 1.522835 0.058680 0.016851 0.279638 -0.322200 0.656937
    6 1.117947 0.048424 -0.005765 -0.478010 0.059520 0.022279
    7 -0.963866 -2.785142 -0.085346 0.409331 -0.082354 -0.027621
    8 0.028478 -1.403067 0.006271 -0.621583 0.000001 0.000000
    9 0.021413 -0.957781 0.020047 -0.462096 0.000000 0.000000
    10 -0.249534 -2.846962 -0.174215 0.230648 0.174981 0.073331
    11 0.043235 -1.683940 0.096015 -0.220370 0.000001 0.000000
    12 0.031730 -1.160831 0.058835 -0.236947 0.000000 0.000000
    13 0.447952 -2.798983 -0.200441 0.134298 0.165313 0.145782
    14 -0.032910 -1.480207 0.004936 -0.321473 -0.008689 -0.026102
    15 -0.027023 -1.076921 -0.020212 -0.306535 -0.006651 -0.029314
    16 1.164475 -2.543939 -0.170327 -0.026568 -0.165047 0.199310
    17 0.024033 -1.129040 0.017806 -0.448129 0.000000 0.000000
    18 0.014896 -0.883992 -0.019846 -0.441657 0.000000 0.000000
    19 -0.138978 -0.111855 0.014349 0.292965 -0.021070 1.509950
    20 8.036535 -3.826395 -7.638867 0.147989 3.052599 -0.849403
    21 -0.071918 -8.498731 -0.104136 -0.640867 0.661379 -0.392513
    22 0.583509 -1.197274 0.185379 0.716085 -0.542283 -0.907635
    23 1.535926 0.010246 0.005008 0.003652 -0.343832 -0.303069
    24 1.100770 0.004528 -0.010675 -0.183878 -0.228394 -0.095478
    25 0.957766 -2.746777 -0.090301 0.117883 -0.321653 0.159298
    26 -0.033419 -1.397128 -0.011256 -0.471200 0.000000 0.000000
    27 -0.022361 -0.957433 0.018783 -0.248136 0.000000 0.000000
    28 0.250028 -2.820664 -0.238396 -0.276556 -0.160291 0.005542
    29 -0.049759 -1.680544 0.100480 -0.473283 0.000000 0.000000
    30 -0.034141 -1.148309 0.084779 -0.339827 0.000000 0.000000
    31 -0.488517 -2.755600 -0.228261 -0.633627 0.010338 -0.264487
    32 0.039888 -1.479791 0.029853 -0.522865 0.000000 0.000000
    33 0.028786 -1.075732 -0.023110 -0.497595 0.000000 0.000000
    34 -1.180679 -2.507216 -0.193861 -1.188923 0.013296 -0.477906
    35 -0.024967 -1.123935 0.017594 -0.277683 0.000000 0.000000
    36 -0.020058 -0.890965 0.010091 -0.510932 0.000000 0.000000
    37 0.118324 -0.052288 -0.052882 0.287560 3.110893 1.561059
  time 15
    0 -8.193145 -2.305686 -8.145708 1.084049 2.603283 1.086378
    1 0.096946 -8.450418 -0.009361 0.306045 -0.204611 0.001286
    2 -3.637709 -6.688100 2.589654 0.516784 0.262823 1.156395
    3 0.000000 -0.000001 -0.257390 0.000001 0.000000 0.000000
    4 -0.591284 -1.257738 0.232709 -0.482903 -0.492518 -2.332640
    5 1.522835 0.058680 0.016851 0.253656 -0.272196 0.573116
    6 1.117947 0.048424 -0.005765 -0.481366 0.038547 -0.004064
    7 -0.963866 -2.785142 -0.085346 0.456853 0.020294 -0.265215
    8 0.028478 -1.403067 0.006271 -0.179609 0.000001 0.000000
    9 0.021413 -0.957781 0.020047 -0.320390 0.000000 0.000000
    10 -0.249534 -2.846962 -0.174215 0.224429 0.165046 0.070155
    11 0.043235 -1.683940 0.096015 -0.221693 0.000001 0.000000
    12 0.031730 -1.160831 0.058835 -0.151621 0.000000 0.000000
    13 0.447952 -2.798983 -0.200441 0.111014 0.164174 0.145986
    14 -0.032910 -1.480207 0.004936 -0.324385 -0.008557 -0.025719
    15 -0.027023 -1.076921 -0.020212 -0.246069 -0.008209 -0.032694
    16 1.164475 -2.543939 -0.170327 -0.042433 -0.154017 0.194180
    17 0.024033 -1.129040 0.017806 -0.450021 0.000000 0.000000
    18 0.014896 -0.883992 -0.019846 -0.416893 0.000000 0.000000
    19 -0.138978 -0.111855 0.014349 0.292965 -0.021070 1.509950
    20 8.083411 -3.603732 -7.822466 0.222768 2.997819 -0.758585
    21 -0.071918 -8.498731 -0.104136 -0.594339 0.659907 -0.368940
    22 0.583509 -1.197274 0.185379 0.716085 -0.542283 -0.907635
    23 1.535926 0.010246 0.005008 0.003652 -0.343832 -0.303069
    24 1.100770 0.004528 -0.010675 -0.183878 -0.228394 -0.095478
    25 0.957766 -2.746777 -0.090301 0.117883 -0.321653 0.159298
    26 -0.033419 -1.397128 -0.011256 -0.471200 0.000000 0.000000
    27 -0.022361 -0.957433 0.018783 -0.248136 0.000000 0.000000
    28 0.250028 -2.820664 -0.238396 -0.276556 -0.160291 0.005542
    29 -0.049759 -1.680544 0.100480 -0.473283 0.000000 0.000000
    30 -0.034141 -1.148309 0.084779 -0.339827 0.000000 0.000000
    31 -0.488517 -2.755600 -0.228261 -0.633627 0.010338 -0.264487
    32 0.039888 -1.479791 0.029853 -0.522865 0.000000 0.000000
    33 0.028786 -1.075732 -0.023110 -0.497595 0.000000 0.000000
    34 -1.180679 -2.507216 -0.193861 -1.188923 0.013296 -0.477906
    35 -0.024967 -1.123935 0.017594 -0.277683 0.000000 0.000000
    36 -0.020058 -0.890965 0.010091 -0.510932 0.000000 0.000000
    37 0.118324 -0.052288 -0.052882 0.287560 3.110893 1.561059
  time 16
    0 -8.181426 -2.829139 -7.704288 1.108372 2.631109 1.129728
    1 0.096946 -8.450418 -0.009361 0.370364 -0.270306 -0.004961
    2 -4.247103 -7.199834 3.245924 0.797181 0.245453 1.347580
    3 0.000000 -0.000001 -0.257390 0.000001 0.000000 0.000000
    4 -0.591284 -1.257738 0.232709 -0.485121 -0.494481 -2.398256
    5 1.522835 0.058680 0.016851 0.228368 -0.212915 0.473735
    6 1.117947 0.048424 -0.005765 -0.485333 0.012911 -0.035294
    7 -0.963866 -2.785142 -0.085346 0.466797 0.030948 -0.258791
    8 0.028478 -1.403067 0.006271 -0.045894 0.000001 0.000000
    9 0.021413 -0.957781 0.020047 -0.201475 0.000000 0.000000
    10 -0.249534 -2.846962 -0.174215 0.215259 0.153253 0.066404
    11 0.043235 -1.683940 0.096015 -0.223475 0.000001 0.000000
    12 0.031730 -1.160831 0.058835 -0.095545 0.000000 0.000000
    13 0.447952 -2.798983 -0.200441 0.073789 0.163239 0.146333
    14 -0.032910 -1.480207 0.004936 -0.334692 -0.008209 -0.024652
    15 -0.027023 -1.076921 -0.020212 -0.247450 -0.008042 -0.032023
    16 1.164475 -2.543939 -0.170327 -0.085566 -0.123712 0.190381
    17 0.024033 -1.129040 0.017806 -0.456207 0.000000 0.000000
    18 0.014896 -0.883992 -0.019846 -0.404152 0.000000 0.000000
    19 -0.138978 -0.111855 0.014349 0.292965 -0.021070 1.509950
    20 8.138100 -3.353724 -8.033410 0.301418 2.938446 -0.660216
    21 -0.071918 -8.498731 -0.104136 -0.542642 0.656898 -0.340983
    22 0.583509 -1.197274 0.185379 0.716085 -0.542283 -0.907635
    23 1.535926 0.010246 0.005008 0.003652 -0.343832 -0.303069
    24 1.100770 0.004528 -0.010675 -0.183878 -0.228394 -0.095478
    25 0.957766 -2.746777 -0.090301 0.117883 -0.321653 0.159298
    26 -0.033419 -1.397128 -0.011256 -0.471200 0.000000 0.000000
    27 -0.022361 -0.957433 0.018783 -0.248136 0.000000 0.000000
    28 0.250028 -2.820664 -0.238396 -0.276556 -0.160291 0.005542
    29 -0.049759 -1.680544 0.100480 -0.473283 0.000000 0.000000
    30 -0.034141 -1.148309 0.084779 -0.339827 0.000000 0.000000
    31 -0.488517 -2.755600 -0.228261 -0.633627 0.010338 -0.264487
    32 0.039888 -1.479791 0.029853 -0.522865 0.000000 0.000000
    33 0.028786 -1.075732 -0.023110 -0.497595 0.000000 0.000000
    34 -1.180679 -2.507216 -0.193861 -1.188923 0.013296 -0.477906
    35 -0.024967 -1.123935 0.017594 -0.277683 0.000000 0.000000
    36 -0.020058 -0.890965 0.010091 -0.510932 0.000000 0.000000
    37 0.118324 -0.052288 -0.052882 0.287560 3.110893 1.561059
  time 17
    0 -8.169707 -3.387750 -7.208180 1.128855 2.655715 1.175375
    1 0.096946 -8.450418 -0.009361 0.438024 -0.339432 -0.011550
    2 -4.559612 -7.438122 3.867036 1.089704 0.202027 1.479792
    3 0.000000 -0.000001 -0.257390 0.000001 0.000000 0.000000
    4 -0.591284 -1.257738 0.232709 -0.486904 -0.496109 -2.463811
    5 1.522835 0.058680 0.016851 0.204986 -0.150527 0.369168
    6 1.117947 0.048424 -0.005765 -0.489515 -0.015204 -0.068123
    7 -0.963866 -2.785142 -0.085346 0.474543 0.035586 -0.240647
    8 0.028478 -1.403067 0.006271 0.027301 0.000001 0.000000
    9 0.021413 -0.957781 0.020047 -0.077958 0.000000 0.000000
    10 -0.249534 -2.846962 -0.174215 0.202750 0.140849 0.062449
    11 0.043235 -1.683940 0.096015 -0.225663 0.000001 0.000000
    12 0.031730 -1.160831 0.058835 -0.062836 0.000000 0.000000
    13 0.447952 -2.798983 -0.200441 0.023754 0.162508 0.146849
    14 -0.032910 -1.480207 0.004936 -0.354613 -0.007670 -0.023046
    15 -0.027023 -1.076921 -0.020212 -0.250875 -0.007586 -0.030201
    16 1.164475 -2.543939 -0.170327 -0.149264 -0.078320 0.187733
    17 0.024033 -1.129040 0.017806 -0.467461 0.000000 0.000000
    18 0.014896 -0.883992 -0.019846 -0.398455 0.000000 0.000000
    19 -0.138978 -0.111855 0.014349 0.292965 -0.021070 1.509950
    20 8.196696 -3.084185 -8.267792 0.381954 2.876414 -0.557210
    21 -0.071918 -8.498731 -0.104136 -0.487557 0.652329 -0.309606
    22 0.583509 -1.197274 0.185379 0.716085 -0.542283 -0.907635
    23 1.535926 0.010246 0.005008 0.003652 -0.343832 -0.303069
    24 1.100770 0.004528 -0.010675 -0.183878 -0.228394 -0.095478
    25 0.957766 -2.746777 -0.090301 0.117883 -0.321653 0.159298
    26 -0.033419 -1.397128 -0.011256 -0.471200 0.000000 0.000000
    27 -0.022361 -0.957433 0.018783 -0.248136 0.000000 0.000000
    28 0.250028 -2.820664 -0.238396 -0.276556 -0.160291 0.005542
    29 -0.049759 -1.680544 0.100480 -0.473283 0.000000 0.000000
    30 -0.034141 -1.148309 0.084779 -0.339827 0.000000 0.000000
    31 -0.488517 -2.755600 -0.228261 -0.633627 0.010338 -0.264487
    32 0.039888 -1.479791 0.029853 -0.522865 0.000000 0.000000
    33 0.028786 -1.075732 -0.023110 -0.497595 0.000000 0.000000
    34 -1.180679 -2.507216 -0.193861 -1.188923 0.013296 -0.477906
    35 -0.024967 -1.123935 0.017594 -0.277683 0.000000 0.000000
    36 -0.020058 -0.890965 0.010091 -0.510932 0.000000 0.000000
    37 0.118324 -0.052288 -0.052882 0.287560 3.110893 1.561059
  time 18
    0 -8.154082 -3.926829 -6.684726 1.148126 2.676275 1.228773
    1 0.096946 -8.450418 -0.009361 0.502343 -0.405127 -0.017797
    2 -4.606489 -7.203740 4.644404 1.385811 0.137548 1.562843
    3 0.000000 -0.000001 -0.257390 0.000001 0.000000 0.000000
    4 -0.591284 -1.257738 0.232709 -0.488266 -0.498790 -2.524034
    5 1.522835 0.058680 0.016851 0.184708 -0.091246 0.269787
    6 1.117947 0.048424 -0.005765 -0.493494 -0.043644 -0.099352
    7 -0.963866 -2.785142 -0.085346 0.480236 0.037683 -0.212543
    8 0.028478 -1.403067 0.006271 0.057962 0.000001 0.000000
    9 0.021413 -0.957781 0.020047 0.019020 0.000000 0.000000
    10 -0.249534 -2.846962 -0.174215 0.186728 0.129056 0.058698
    11 0.043235 -1.683940 0.096015 -0.228209 0.000001 0.000000
    12 0.031730 -1.160831 0.058835 -0.047558 0.000000 0.000000
    13 0.447952 -2.798983 -0.200441 -0.037777 0.161957 0.147532
    14 -0.032910 -1.480207 0.004936 -0.386459 -0.007011 -0.021045
    15 -0.027023 -1.076921 -0.020212 -0.255307 -0.006915 -0.027541
    16 1.164475 -2.543939 -0.170327 -0.226910 -0.022027 0.186007
    17 0.024033 -1.129040 0.017806 -0.484462 0.000000 0.000000
    18 0.014896 -0.883992 -0.019846 -0.394819 0.000000 0.000000
    19 -0.138978 -0.111855 0.014349 0.292965 -0.021070 1.509950
    20 8.255291 -2.806833 -8.509987 0.462325 2.813656 -0.452586
    21 -0.071918 -8.498731 -0.104136 -0.431046 0.646088 -0.275716
    22 0.583509 -1.197274 0.185379 0.716085 -0.542283 -0.907635
    23 1.535926 0.010246 0.005008 0.003652 -0.343832 -0.303069
    24 1.100770 0.004528 -0.010675 -0.183878 -0.228394 -0.095478
    25 0.957766 -2.746777 -0.090301 0.117883 -0.321653 0.159298
    26 -0.033419 -1.397128 -0.011256 -0.471200 0.000000 0.000000
    27 -0.022361 -0.957433 0.018783 -0.248136 0.000000 0.000000
    28 0.250028 -2.820664 -0.238396 -0.276556 -0.160291 0.005542
    29 -0.049759 -1.680544 0.100480 -0.473283 0.000000 0.000000
    30 -0.034141 -1.148309 0.084779 -0.339827 0.000000 0.000000
    31 -0.488517 -2.755600 -0.228261 -0.633627 0.010338 -0.264487
    32 0.039888 -1.479791 0.029853 -0.522865 0.000000 0.000000
    33 0.028786 -1.075732 -0.023110 -0.497595 0.000000 0.000000
    34 -1.180679 -2.507216 -0.193861 -1.188923 0.013296 -0.477906
    35 -0.024967 -1.123935 0.017594 -0.277683 0.000000 0.000000
    36 -0.020058 -0.890965 0.010091 -0.510932 0.000000 0.000000
    37 0.118324 -0.052288 -0.052882 0.287560 3.110893 1.561059
  time 19
    0 -8.134550 -4.399500 -6.165179 1.168676 2.692046 1.294994
    1 0.096946 -8.450418 -0.009361 0.556604 -0.460535 -0.023080
    2 -4.309605 -6.535751 5.523337 -1.465466 3.093274 -1.535702
    3 0.000000 -0.000001 -0.257390 0.000001 0.000000 0.000000
    4 -0.591284 -1.257738 0.232709 -0.489218 -0.503897 -2.573602
    5 1.522835 0.058680 0.016851 0.168733 -0.041242 0.185966
    6 1.117947 0.048424 -0.005765 -0.496850 -0.070250 -0.125696
    7 -0.963866 -2.785142 -0.085346 0.484127 0.040668 -0.176206
    8 0.028478 -1.403067 0.006271 0.064174 0.000001 0.000000
    9 0.021413 -0.957781 0.020047 0.058291 0.000000 0.000000
    10 -0.249534 -2.846962 -0.174215 0.166806 0.119109 0.055534
    11 0.043235 -1.683940 0.096015 -0.231059 0.000001 0.000000
    12 0.031730 -1.160831 0.058835 -0.043799 0.000000 0.000000
    13 0.447952 -2.798983 -0.200441 -0.109599 0.161585 0.148407
    14 -0.032910 -1.480207 0.004936 -0.432447 -0.006268 -0.018816
    15 -0.027023 -1.076921 -0.020212 -0.259739 -0.006124 -0.024389
    16 1.164475 -2.543939 -0.170327 -0.311770 0.040993 0.185036
    17 0.024033 -1.129040 0.017806 -0.508020 0.000000 0.000000
    18 0.014896 -0.883992 -0.019846 -0.388205 0.000000 0.000000
    19 -0.138978 -0.111855 0.014349 0.292965 -0.021070 1.509950
    20 8.313887 -2.533387 -8.756088 0.540446 2.752138 -0.349256
    21 -0.071918 -8.498731 -0.104136 -0.374937 0.638153 -0.240302
    22 0.583509 -1.197274 0.185379 0.714874 -0.542211 -0.899484
    23 1.535926 0.010246 0.005008 0.003521 -0.337331 -0.304568
    24 1.100770 0.004528 -0.010675 -0.181278 -0.227085 -0.098240
    25 0.957766 -2.746777 -0.090301 0.112216 -0.317950 0.160964
    26 -0.033419 -1.397128 -0.011256 -0.472420 0.000000 0.000000
    27 -0.022361 -0.957433 0.018783 -0.246717 0.000000 0.000000
    28 0.250028 -2.820664 -0.238396 -0.276240 -0.157187 0.005602
    29 -0.049759 -1.680544 0.100480 -0.478224 0.000000 0.000000
    30 -0.034141 -1.148309 0.084779 -0.342619 0.000000 0.000000
    31 -0.488517 -2.755600 -0.228261 -0.630822 0.010338 -0.264487
    32 0.039888 -1.479791 0.029853 -0.526627 0.000000 0.000000
    33 0.028786 -1.075732 -0.023110 -0.500624 0.000000 0.000000
    34 -1.180679 -2.507216 -0.193861 -1.178754 0.013296 -0.477906
    35 -0.024967 -1.123935 0.017594 -0.282984 0.000000 0.000000
    36 -0.020058 -0.890965 0.010091 -0.508104 0.000000 0.000000
    37 0.118324 -0.052288 -0.052882 0.287560 3.110893 1.561059
  time 20
    0 -8.118924 -4.751073 -5.680789 1.193000 2.702037 1.379397
    1 0.096946 -8.450418 -0.009361 0.594071 -0.498814 -0.026736
    2 -3.583020 -5.719320 6.109292 -1.192053 -3.065991 -1.526942
    3 0.000000 -0.000001 -0.257390 0.000001 0.000000 0.000000
    4 -0.591284 -1.257738 0.232709 -0.489785 -0.512819 -2.607219
    5 1.522835 0.058680 0.016851 0.158270 -0.006713 0.128060
    6 1.117947 0.048424 -0.005765 -0.499163 -0.092865 -0.143865
    7 -0.963866 -2.785142 -0.085346 0.486288 0.048014 -0.133361
    8 0.028478 -1.403067 0.006271 -0.183266 0.000001 0.000000
    9 0.021413 -0.957781 0.020047 -0.105021 0.000000 0.000000
    10 -0.249534 -2.846962 -0.174215 0.142738 0.112242 0.053340
    11 0.043235 -1.683940 0.096015 -0.389972 0.000001 0.000000
    12 0.031730 -1.160831 0.058835 -0.193453 0.000000 0.000000
    13 0.447952 -2.798983 -0.200441 -0.190473 0.161370 0.149473
    14 -0.032910 -1.480207 0.004936 -0.494937 -0.005489 -0.016479
    15 -0.027023 -1.076921 -0.020212 -0.263164 -0.005273 -0.021021
    16 1.164475 -2.543939 -0.170327 -0.397229 0.106569 0.184593
    17 0.024033 -1.129040 0.017806 -0.538878 0.000000 0.000000
    18 0.014896 -0.883992 -0.019846 -0.373690 0.000000 0.000000
    19 -0.138978 -0.111855 0.014349 0.292965 -0.021070 1.509950
    20 8.372483 -2.271660 -8.994377 0.614298 2.693792 -0.250241
    21 -0.071918 -8.498731 -0.104136 -0.321189 0.628434 -0.204301
    22 0.583509 -1.197274 0.185379 0.711531 -0.541996 -0.876964
    23 1.535926 0.010246 0.005008 0.003155 -0.319321 -0.308706
    24 1.100770 0.004528 -0.010675 -0.174087 -0.223468 -0.105893
    25 0.957766 -2.746777 -0.090301 0.096557 -0.307715 0.165590
    26 -0.033419 -1.397128 -0.011256 -0.475775 0.000000 0.000000
    27 -0.022361 -0.957433 0.018783 -0.242720 0.000000 0.000000
    28 0.250028 -2.820664 -0.238396 -0.275383 -0.148630 0.005757
    29 -0.049759 -1.680544 0.100480 -0.491904 0.000000 0.000000
    30 -0.034141 -1.148309 0.084779 -0.350253 0.000000 0.000000
    31 -0.488517 -2.755600 -0.228261 -0.623042 0.010338 -0.264487
    32 0.039888 -1.479791 0.029853 -0.537055 0.000000 0.000000
    33 0.028786 -1.075732 -0.023110 -0.509012 0.000000 0.000000
    34 -1.180679 -2.507216 -0.193861 -1.150667 0.013296 -0.477906
    35 -0.024967 -1.123935 0.017594 -0.297612 0.000000 0.000000
    36 -0.020058 -0.890965 0.010091 -0.500213 0.000000 0.000000
    37 0.118324 -0.052288 -0.052882 0.287560 3.110893 1.561059
  time 21
    0 -8.103299 -4.934672 -5.258901 1.223724 2.705588 1.487150
    1 0.096946 -8.450418 -0.009361 0.608063 -0.513088 -0.028102
    2 -2.415016 -4.953672 6.074135 -0.946292 -2.895212 -1.550924
    3 0.000000 -0.000001 -0.257390 0.000001 0.000000 0.000000
    4 -0.591284 -1.257738 0.232709 -0.489978 -0.526911 -2.619611
    5 1.522835 0.058680 0.016851 0.154507 0.006186 0.106462
    6 1.117947 0.048424 -0.005765 -0.500026 -0.109319 -0.150662
    7 -0.963866 -2.785142 -0.085346 0.486973 0.063151 -0.085758
    8 0.028478 -1.403067 0.006271 -0.524140 0.000001 0.000000
    9 0.021413 -0.957781 0.020047 -0.268332 0.000000 0.000000
    10 -0.249534 -2.846962 -0.174215 0.114208 0.109677 0.052525
    11 0.043235 -1.683940 0.096015 -0.665754 0.000001 0.000000
    12 0.031730 -1.160831 0.058835 -0.343108 0.000000 0.000000
    13 0.447952 -2.798983 -0.200441 -0.279193 0.161298 0.150744
    14 -0.032910 -1.480207 0.004936 -0.576099 -0.004722 -0.014202
    15 -0.027023 -1.076921 -0.020212 -0.264545 -0.004458 -0.017785
    16 1.164475 -2.543939 -0.170327 -0.476551 0.170485 0.184485
    17 0.024033 -1.129040 0.017806 -0.577712 0.000000 0.000000
    18 0.014896 -0.883992 -0.019846 -0.346262 0.000000 0.000000
    19 -0.138978 -0.111855 0.014349 0.292965 -0.021070 1.509950
    20 8.423265 -2.029465 -9.217040 0.681797 2.640553 -0.158506
    21 -0.071918 -8.498731 -0.104136 -0.271541 0.616866 -0.168620
    22 0.583509 -1.197274 0.185379 0.706497 -0.541660 -0.842936
    23 1.535926 0.010246 0.005008 0.002614 -0.292138 -0.314955
    24 1.100770 0.004528 -0.010675 -0.163217 -0.218014 -0.117467
    25 0.957766 -2.746777 -0.090301 0.072876 -0.292243 0.172565
    26 -0.033419 -1.397128 -0.011256 -0.480843 0.000000 0.000000
    27 -0.022361 -0.957433 0.018783 -0.236692 0.000000 0.000000
    28 0.250028 -2.820664 -0.238396 -0.274075 -0.135698 0.005997
    29 -0.049759 -1.680544 0.100480 -0.512571 0.000000 0.000000
    30 -0.034141 -1.148309 0.084779 -0.361823 0.000000 0.000000
    31 -0.488517 -2.755600 -0.228261 -0.611282 0.010338 -0.264487
    32 0.039888 -1.479791 0.029853 -0.552811 0.000000 0.000000
    33 0.028786 -1.075732 -0.023110 -0.521681 0.000000 0.000000
    34 -1.180679 -2.507216 -0.193861 -1.108213 0.013296 -0.477906
    35 -0.024967 -1.123935 0.017594 -0.319744 0.000000 0.000000
    36 -0.020058 -0.890965 0.010091 -0.488354 0.000000 0.000000
    37 0.118324 -0.052288 -0.052882 0.287560 3.110893 1.561059
  time 22
    0 -8.079861 -4.993268 -4.837013 -1.880056 0.483038 -1.464479
    1 0.096946 -8.450418 -0.009361 0.572303 -0.357404 0.033003
    2 -1.637648 -4.004424 4.722531 2.323466 -0.484958 1.551642
    3 0.000000 -0.000001 -0.257390 0.000001 0.000000 0.000000
    4 -0.591284 -1.257738 0.232709 -0.450737 -0.559964 -2.593401
    5 1.522835 0.058680 0.016851 0.169248 0.005852 0.162144
    6 1.117947 0.048424 -0.005765 -0.457037 -0.117229 -0.142932
    7 -0.963866 -2.785142 -0.085346 0.372617 0.104090 -0.008793
    8 0.028478 -1.403067 0.006271 -0.650240 0.000001 0.000000
    9 0.021413 -0.957781 0.020047 -0.261498 0.000000 0.000000
    10 -0.249534 -2.846962 -0.174215 -0.007328 0.120571 0.071186
    11 0.043235 -1.683940 0.096015 -0.944182 0.000001 0.000000
    12 0.031730 -1.160831 0.058835 -0.301956 0.000000 0.000000
    13 0.447952 -2.798983 -0.200441 -0.409079 0.183517 0.168421
    14 -0.032910 -1.480207 0.004936 -0.819263 -0.003727 -0.011218
    15 -0.027023 -1.076921 -0.020212 -0.221002 -0.003511 -0.014022
    16 1.164475 -2.543939 -0.170327 -0.562759 0.246399 0.282279
    17 0.024033 -1.129040 0.017806 -0.757452 0.000000 0.000000
    18 0.014896 -0.883992 -0.019846 -0.249379 0.000000 0.000000
    19 -0.138978 -0.111855 0.014349 0.292965 -0.021070 1.509950
    20 8.470142 -1.814615 -9.412358 0.740959 2.594384 -0.077018
    21 -0.071918 -8.498731 -0.104136 -0.227910 0.603403 -0.134222
    22 0.583509 -1.197274 0.185379 0.700169 -0.541253 -0.800287
    23 1.535926 0.010246 0.005008 0.001926 -0.258054 -0.322788
    24 1.100770 0.004528 -0.010675 -0.149591 -0.211157 -0.131951
    25 0.957766 -2.746777 -0.090301 0.043226 -0.272864 0.181326
    26 -0.033419 -1.397128 -0.011256 -0.487202 0.000000 0.000000
    27 -0.022361 -0.957433 0.018783 -0.229116 0.000000 0.000000
    28 0.250028 -2.820664 -0.238396 -0.272451 -0.119483 0.006297
    29 -0.049759 -1.680544 0.100480 -0.538471 0.000000 0.000000
    30 -0.034141 -1.148309 0.084779 -0.376352 0.000000 0.000000
    31 -0.488517 -2.755600 -0.228261 -0.596537 0.010338 -0.264487
    32 0.039888 -1.479791 0.029853 -0.572555 0.000000 0.000000
    33 0.028786 -1.075732 -0.023110 -0.537526 0.000000 0.000000
    34 -1.180679 -2.507216 -0.193861 -1.055009 0.013296 -0.477906
    35 -0.024967 -1.123935 0.017594 -0.347487 0.000000 0.000000
    36 -0.020058 -0.890965 0.010091 -0.473499 0.000000 0.000000
    37 0.118324 -0.052288 -0.052882 0.287560 3.110893 1.561059
  time 23
    0 -8.044703 -5.024519 -4.450283 -1.827029 0.587572 -1.201891
    1 0.096946 -8.450418 -0.009361 0.488332 -0.068263 0.167444
    2 -0.911063 -2.879390 2.503714 -0.853776 -2.310468 -1.568539
    3 0.000000 -0.000001 -0.257390 0.000001 0.000000 0.000000
    4 -0.591284 -1.257738 0.232709 -0.357155 -0.613955 -2.530925
    5 1.522835 0.058680 0.016851 0.204531 0.004685 0.296795
    6 1.117947 0.048424 -0.005765 -0.362455 -0.119291 -0.115078
    7 -0.963866 -2.785142 -0.085346 0.097320 0.167896 0.096276
    8 0.028478 -1.403067 0.006271 -0.728745 0.000001 0.000000
    9 0.021413 -0.957781 0.020047 -0.246478 0.000000 0.000000
    10 -0.249534 -2.846962 -0.174215 -0.255247 0.144529 0.112233
    11 0.043235 -1.683940 0.096015 -1.266030 0.000001 0.000000
    12 0.031730 -1.160831 0.058835 -0.225509 0.000000 0.000000
    13 0.447952 -2.798983 -0.200441 -0.590424 0.232390 0.205525
    14 -0.032910 -1.480207 0.004936 -1.223272 -0.002469 -0.007442
    15 -0.027023 -1.076921 -0.020212 -0.115293 -0.002373 -0.009468
    16 1.164475 -2.543939 -0.170327 -0.664172 0.343737 0.466782
    17 0.024033 -1.129040 0.017806 -1.083337 0.000000 0.000000
    18 0.014896 -0.883992 -0.019846 -0.106744 0.000000 0.000000
    19 -0.138978 -0.111855 0.014349 0.292965 -0.021070 1.509950
    20 8.505299 -1.642735 -9.564707 0.789697 2.557249 -0.008742
    21 -0.071918 -8.498731 -0.104136 -0.192212 0.587957 -0.102043
    22 0.583509 -1.197274 0.185379 0.692990 -0.540785 -0.751890
    23 1.535926 0.010246 0.005008 0.001165 -0.219383 -0.331676
    24 1.100770 0.004528 -0.010675 -0.134142 -0.203396 -0.148395
    25 0.957766 -2.746777 -0.090301 0.009580 -0.250860 0.191249
    26 -0.033419 -1.397128 -0.011256 -0.494428 0.000000 0.000000
    27 -0.022361 -0.957433 0.018783 -0.220541 0.000000 0.000000
    28 0.250028 -2.820664 -0.238396 -0.270602 -0.101087 0.006632
    29 -0.049759 -1.680544 0.100480 -0.567850 0.000000 0.000000
    30 -0.034141 -1.148309 0.084779 -0.392798 0.000000 0.000000
    31 -0.488517 -2.755600 -0.228261 -0.579801 0.010338 -0.264487
    32 0.039888 -1.479791 0.029853 -0.594951 0.000000 0.000000
    33 0.028786 -1.075732 -0.023110 -0.555554 0.000000 0.000000
    34 -1.180679 -2.507216 -0.193861 -0.994637 0.013296 -0.477906
    35 -0.024967 -1.123935 0.017594 -0.378947 0.000000 0.000000
    36 -0.020058 -0.890965 0.010091 -0.456618 0.000000 0.000000
    37 0.118324 -0.052288 -0.052882 0.287560 3.110893 1.561059
  time 24
    0 -8.029078 -5.032331 -4.282309 -1.744423 0.694831 -0.963896
    1 0.096946 -8.450418 -0.009361 0.391018 0.087403 0.301906
    2 0.612421 -1.812951 0.925540 -0.976243 -1.940306 -1.483669
    3 0.000000 -0.000001 -0.257390 0.000001 0.000000 0.000000
    4 -0.591284 -1.257738 0.232709 -0.245459 -0.672654 -2.456345
    5 1.522835 0.058680 0.016851 0.246992 0.002442 0.461806
    6 1.117947 0.048424 -0.005765 -0.267896 -0.120932 -0.059993
    7 -0.963866 -2.785142 -0.085346 -0.236957 0.226668 0.189001
    8 0.028478 -1.403067 0.006271 -0.870676 0.000001 0.000000
    9 0.021413 -0.957781 0.020047 -0.231431 0.000000 0.000000
    10 -0.249534 -2.846962 -0.174215 -0.546945 0.168498 0.153280
    11 0.043235 -1.683940 0.096015 -1.570774 0.000001 0.000000
    12 0.031730 -1.160831 0.058835 -0.184330 0.000000 0.000000
    13 0.447952 -2.798983 -0.200441 -0.787425 0.281263 0.242294
    14 -0.032910 -1.480207 0.004936 -1.573574 -0.001342 -0.004027
    15 -0.027023 -1.076921 -0.020212 0.015338 -0.001258 -0.005046
    16 1.164475 -2.543939 -0.170327 -0.767201 0.452092 0.574715
    17 0.024033 -1.129040 0.017806 -1.364709 0.000000 0.000000
    18 0.014896 -0.883992 -0.019846 -0.033566 0.000000 0.000000
    19 -0.138978 -0.111855 0.014349 0.292965 -0.021070 1.509950
    20 8.532644 -1.517731 -9.677992 0.825995 2.531083 0.043354
    21 -0.071918 -8.498731 -0.104136 -0.166319 0.570481 -0.073071
    22 0.583509 -1.197274 0.185379 0.685392 -0.540294 -0.700619
    23 1.535926 0.010246 0.005008 0.000331 -0.178398 -0.341104
    24 1.100770 0.004528 -0.010675 -0.117759 -0.195162 -0.165809
    25 0.957766 -2.746777 -0.090301 -0.026093 -0.227550 0.201772
    26 -0.033419 -1.397128 -0.011256 -0.502077 0.000000 0.000000
    27 -0.022361 -0.957433 0.018783 -0.211450 0.000000 0.000000
    28 0.250028 -2.820664 -0.238396 -0.268640 -0.081600 0.006992
    29 -0.049759 -1.680544 0.100480 -0.598983 0.000000 0.000000
    30 -0.034141 -1.148309 0.084779 -0.410253 0.000000 0.000000
    31 -0.488517 -2.755600 -0.228261 -0.562071 0.010338 -0.264487
    32 0.039888 -1.479791 0.029853 -0.618685 0.000000 0.000000
    33 0.028786 -1.075732 -0.023110 -0.574631 0.000000 0.000000
    34 -1.180679 -2.507216 -0.193861 -0.930682 0.013296 -0.477906
    35 -0.024967 -1.123935 0.017594 -0.412300 0.000000 0.000000
    36 -0.020058 -0.890965 0.010091 -0.438724 0.000000 0.000000
    37 0.118324 -0.052288 -0.052882 0.287560 3.110893 1.561059
  time 25
    0 -8.310336 -4.602631 -5.290152 -1.550374 0.813980 -0.777386
    1 0.096946 -8.450418 -0.009361 0.273477 -0.029122 0.427991
    2 0.940556 -1.875453 0.620844 2.707954 -1.398421 0.934240
    3 0.000000 -0.000001 -0.257390 0.000001 0.000000 0.000000
    4 -0.591284 -1.257738 0.232709 -0.151890 -0.719799 -2.393857
    5 1.522835 0.058680 0.016851 0.283222 -0.001150 0.608553
    6 1.117947 0.048424 -0.005765 -0.224896 -0.127608 0.029342
    7 -0.963866 -2.785142 -0.085346 -0.528431 0.252471 0.228898
    8 0.028478 -1.403067 0.006271 -1.276730 0.000001 0.000000
    9 0.021413 -0.957781 0.020047 -0.224597 0.000000 0.000000
    10 -0.249534 -2.846962 -0.174215 -0.799889 0.179392 0.171928
    11 0.043235 -1.683940 0.096015 -1.797996 0.000001 0.000000
    12 0.031730 -1.160831 0.058835 -0.560249 0.000000 0.000000
    13 0.447952 -2.798983 -0.200441 -0.964280 0.303483 0.258941
    14 -0.032910 -1.480207 0.004936 -1.767744 -0.000431 -0.001306
    15 -0.027023 -1.076921 -0.020212 0.257980 -0.000407 -0.001630
    16 1.164475 -2.543939 -0.170327 -0.873823 0.611961 0.581091
    17 0.024033 -1.129040 0.017806 -1.509029 0.000000 0.000000
    18 0.014896 -0.883992 -0.019846 -0.049312 0.000000 0.000000
    19 -0.138978 -0.111855 0.014349 0.292965 -0.021070 1.509950
    20 8.548269 -1.447416 -9.736587 0.847733 2.517818 0.076251
    21 -0.071918 -8.498731 -0.104136 -0.152102 0.550889 -0.048188
    22 0.583509 -1.197274 0.185379 0.677794 -0.539814 -0.649349
    23 1.535926 0.010246 0.005008 -0.000473 -0.137434 -0.350520
    24 1.100770 0.004528 -0.010675 -0.101389 -0.186929 -0.183245
    25 0.957766 -2.746777 -0.090301 -0.061738 -0.204240 0.212294
    26 -0.033419 -1.397128 -0.011256 -0.509726 0.000000 0.000000
    27 -0.022361 -0.957433 0.018783 -0.202392 0.000000 0.000000
    28 0.250028 -2.820664 -0.238396 -0.266678 -0.062113 0.007351
    29 -0.049759 -1.680544 0.100480 -0.630115 0.000000 0.000000
    30 -0.034141 -1.148309 0.084779 -0.427674 0.000000 0.000000
    31 -0.488517 -2.755600 -0.228261 -0.544363 0.010338 -0.264487
    32 0.039888 -1.479791 0.029853 -0.642419 0.000000 0.000000
    33 0.028786 -1.075732 -0.023110 -0.593708 0.000000 0.000000
    34 -1.180679 -2.507216 -0.193861 -0.866726 0.013296 -0.477906
    35 -0.024967 -1.123935 0.017594 -0.445618 0.000000 0.000000
    36 -0.020058 -0.890965 0.010091 -0.420831 0.000000 0.000000
    37 0.118324 -0.052288 -0.052882 0.287560 3.110893 1.561059
  time 26
    0 -8.587689 -4.172930 -6.297996 -1.407330 0.887881 -0.687623
    1 0.096946 -8.450418 -0.009361 0.146175 -0.199727 0.522058
    2 0.475698 -2.223119 0.683345 -2.933321 -1.361414 0.108613
    3 0.000000 -0.000001 -0.257390 0.000001 0.000000 0.000000
    4 -0.591284 -1.257738 0.232709 -0.112649 -0.739110 -2.367659
    5 1.522835 0.058680 0.016851 0.297819 -0.015565 0.713435
    6 1.117947 0.048424 -0.005765 -0.272966 -0.194074 0.665663
    7 -0.963866 -2.785142 -0.085346 -0.693552 0.115751 0.001442
    8 0.028478 -1.403067 0.006271 -1.577425 0.000001 0.000000
    9 0.021413 -0.957781 0.020047 -0.534657 0.000000 0.000000
    10 -0.249534 -2.846962 -0.174215 -0.916013 0.020488 0.024134
    11 0.043235 -1.683940 0.096015 -1.887124 0.000001 0.000000
    12 0.031730 -1.160831 0.058835 -0.936169 0.000000 0.000000
    13 0.447952 -2.798983 -0.200441 -1.053511 0.154874 0.156736
    14 -0.032910 -1.480207 0.004936 -1.835919 0.000000 0.000000
    15 -0.027023 -1.076921 -0.020212 -0.685018 0.000000 0.000000
    16 1.164475 -2.543939 -0.170327 -1.007384 0.138881 0.328959
    17 0.024033 -1.129040 0.017806 -1.555569 0.000000 0.000000
    18 0.014896 -0.883992 -0.019846 -0.971684 0.000000 0.000000
    19 -0.138978 -0.111855 0.014349 0.292965 -0.021070 1.509950
    20 8.552176 -1.427884 -9.756119 0.857362 2.515612 0.095342
    21 -0.071918 -8.498731 -0.104136 -0.151389 0.529156 -0.028383
    22 0.583509 -1.197274 0.185379 0.670615 -0.539347 -0.600952
    23 1.535926 0.010246 0.005008 -0.001248 -0.098743 -0.359408
    24 1.100770 0.004528 -0.010675 -0.085928 -0.179167 -0.199689
    25 0.957766 -2.746777 -0.090301 -0.095411 -0.182236 0.222217
    26 -0.033419 -1.397128 -0.011256 -0.516929 0.000000 0.000000
    27 -0.022361 -0.957433 0.018783 -0.193817 0.000000 0.000000
    28 0.250028 -2.820664 -0.238396 -0.264828 -0.043717 0.007699
    29 -0.049759 -1.680544 0.100480 -0.659495 0.000000 0.000000
    30 -0.034141 -1.148309 0.084779 -0.444154 0.000000 0.000000
    31 -0.488517 -2.755600 -0.228261 -0.527627 0.010338 -0.264487
    32 0.039888 -1.479791 0.029853 -0.664815 0.000000 0.000000
    33 0.028786 -1.075732 -0.023110 -0.611737 0.000000 0.000000
    34 -1.180679 -2.507216 -0.193861 -0.806324 0.013296 -0.477906
    35 -0.024967 -1.123935 0.017594 -0.477078 0.000000 0.000000
    36 -0.020058 -0.890965 0.010091 -0.403950 0.000000 0.000000
    37 0.118324 -0.052288 -0.052882 0.287560 3.110893 1.561059
  time 27
    0 -8.529093 -4.219807 -6.688632 -1.383680 0.875743 -0.693078
    1 0.096946 -8.450418 -0.009361 0.026444 -0.283844 0.496548
    2 0.538200 -2.211400 0.632563 -2.768225 -1.365190 -0.093726
    3 0.000000 -0.000001 -0.257390 0.000001 0.000000 0.000000
    4 -0.591284 -1.257738 0.232709 -0.112649 -0.739110 -2.367659
    5 1.522835 0.058680 0.016851 0.297819 -0.015565 0.713435
    6 1.117947 0.048424 -0.005765 -0.321024 -0.255028 1.247566
    7 -0.963866 -2.785142 -0.085346 -0.693552 0.115751 0.001442
    8 0.028478 -1.403067 0.006271 -1.577425 0.000001 0.000000
    9 0.021413 -0.957781 0.020047 -0.844718 0.000000 0.000000
    10 -0.249534 -2.846962 -0.174215 -0.916013 0.020488 0.024134
    11 0.043235 -1.683940 0.096015 -1.887124 0.000001 0.000000
    12 0.031730 -1.160831 0.058835 -0.936169 0.000000 0.000000
    13 0.447952 -2.798983 -0.200441 -1.053511 0.154874 0.156736
    14 -0.032910 -1.480207 0.004936 -1.835919 0.000000 0.000000
    15 -0.027023 -1.076921 -0.020212 -0.685018 0.000000 0.000000
    16 1.164475 -2.543939 -0.170327 -1.007384 0.138881 0.328959
    17 0.024033 -1.129040 0.017806 -1.555569 0.000000 0.000000
    18 0.014896 -0.883992 -0.019846 -0.971684 0.000000 0.000000
    19 -0.138978 -0.111855 0.014349 0.292965 -0.021070 1.509950
    20 8.552176 -1.423978 -9.756119 0.860274 2.519299 0.108447
    21 -0.071918 -8.498731 -0.104136 -0.166141 0.505173 -0.014538
    22 0.583509 -1.197274 0.185379 0.664299 -0.538928 -0.558303
    23 1.535926 0.010246 0.005008 -0.001936 -0.064659 -0.367240
    24 1.100770 0.004528 -0.010675 -0.072314 -0.172310 -0.214172
    25 0.957766 -2.746777 -0.090301 -0.125061 -0.162845 0.230978
    26 -0.033419 -1.397128 -0.011256 -0.523287 0.000000 0.000000
    27 -0.022361 -0.957433 0.018783 -0.186241 0.000000 0.000000
    28 0.250028 -2.820664 -0.238396 -0.263204 -0.027501 0.007999
    29 -0.049759 -1.680544 0.100480 -0.685395 0.000000 0.000000
    30 -0.034141 -1.148309 0.084779 -0.458650 0.000000 0.000000
    31 -0.488517 -2.755600 -0.228261 -0.512882 0.010338 -0.264487
    32 0.039888 -1.479791 0.029853 -0.684560 0.000000 0.000000
    33 0.028786 -1.075732 -0.023110 -0.627610 0.000000 0.000000
    34 -1.180679 -2.507216 -0.193861 -0.753119 0.013296 -0.477906
    35 -0.024967 -1.123935 0.017594 -0.504820 0.000000 0.000000
    36 -0.020058 -0.890965 0.010091 -0.389053 0.000000 0.000000
    37 0.118324 -0.052288 -0.052882 0.287560 3.110893 1.561059
  time 28
    0 -8.400183 -4.329185 -7.555846 -1.331731 0.848907 -0.705231
    1 0.096946 -8.450418 -0.009361 -0.091505 -0.328336 0.380646
    2 0.565544 -2.156711 0.667720 -2.708599 -1.402575 -0.130728
    3 0.000000 -0.000001 -0.257390 0.000001 0.000000 0.000000
    4 -0.591284 -1.257738 0.232709 -0.112649 -0.739110 -2.367659
    5 1.522835 0.058680 0.016851 0.297819 -0.015565 0.713435
    6 1.117947 0.048424 -0.005765 -0.321024 -0.255028 1.247566
    7 -0.963866 -2.785142 -0.085346 -0.693552 0.115751 0.001442
    8 0.028478 -1.403067 0.006271 -1.577425 0.000001 0.000000
    9 0.021413 -0.957781 0.020047 -0.844718 0.000000 0.000000
    10 -0.249534 -2.846962 -0.174215 -0.916013 0.020488 0.024134
    11 0.043235 -1.683940 0.096015 -1.887124 0.000001 0.000000
    12 0.031730 -1.160831 0.058835 -0.936169 0.000000 0.000000
    13 0.447952 -2.798983 -0.200441 -1.053511 0.154874 0.156736
    14 -0.032910 -1.480207 0.004936 -1.835919 0.000000 0.000000
    15 -0.027023 -1.076921 -0.020212 -0.685018 0.000000 0.000000
    16 1.164475 -2.543939 -0.170327 -1.007384 0.138881 0.328959
    17 0.024033 -1.129040 0.017806 -1.555569 0.000000 0.000000
    18 0.014896 -0.883992 -0.019846 -0.971684 0.000000 0.000000
    19 -0.138978 -0.111855 0.014349 0.292965 -0.021070 1.509950
    20 8.552176 -1.431791 -9.748306 0.859083 2.525795 0.116591
    21 -0.071918 -8.498731 -0.104136 -0.201349 0.472273 -0.003179
    22 0.583509 -1.197274 0.185379 0.659254 -0.538604 -0.524275
    23 1.535926 0.010246 0.005008 -0.002477 -0.037476 -0.373501
    24 1.100770 0.004528 -0.010675 -0.061444 -0.166871 -0.225726
    25 0.957766 -2.746777 -0.090301 -0.148742 -0.147373 0.237953
    26 -0.033419 -1.397128 -0.011256 -0.528355 0.000000 0.000000
    27 -0.022361 -0.957433 0.018783 -0.180213 0.000000 0.000000
    28 0.250028 -2.820664 -0.238396 -0.261896 -0.014570 0.008238
    29 -0.049759 -1.680544 0.100480 -0.706061 0.000000 0.000000
    30 -0.034141 -1.148309 0.084779 -0.470219 0.000000 0.000000
    31 -0.488517 -2.755600 -0.228261 -0.501122 0.010338 -0.264487
    32 0.039888 -1.479791 0.029853 -0.700290 0.000000 0.000000
    33 0.028786 -1.075732 -0.023110 -0.640280 0.000000 0.000000
    34 -1.180679 -2.507216 -0.193861 -0.710697 0.013296 -0.477906
    35 -0.024967 -1.123935 0.017594 -0.526952 0.000000 0.000000
    36 -0.020058 -0.890965 0.010091 -0.377194 0.000000 0.000000
    37 0.118324 -0.052288 -0.052882 0.287560 3.110893 1.561059
  time 29
    0 -8.271273 -4.434657 -8.423060 -1.279783 0.822072 -0.717385
    1 0.096946 -8.450418 -0.009361 -0.181489 -0.345805 0.253255
    2 0.577263 -2.234839 0.667720 -2.393567 -1.470546 -0.405538
    3 0.000000 -0.000001 -0.257390 0.000001 0.000000 0.000000
    4 -0.591284 -1.257738 0.232709 -0.112649 -0.739110 -2.367659
    5 1.522835 0.058680 0.016851 0.297819 -0.015565 0.713435
    6 1.117947 0.048424 -0.005765 -0.321024 -0.255028 1.247566
    7 -0.963866 -2.785142 -0.085346 -0.693552 0.115751 0.001442
    8 0.028478 -1.403067 0.006271 -1.577425 0.000001 0.000000
    9 0.021413 -0.957781 0.020047 -0.844718 0.000000 0.000000
    10 -0.249534 -2.846962 -0.174215 -0.916013 0.020488 0.024134
    11 0.043235 -1.683940 0.096015 -1.887124 0.000001 0.000000
    12 0.031730 -1.160831 0.058835 -0.936169 0.000000 0.000000
    13 0.447952 -2.798983 -0.200441 -1.053511 0.154874 0.156736
    14 -0.032910 -1.480207 0.004936 -1.835919 0.000000 0.000000
    15 -0.027023 -1.076921 -0.020212 -0.685018 0.000000 0.000000
    16 1.164475 -2.543939 -0.170327 -1.007384 0.138881 0.328959
    17 0.024033 -1.129040 0.017806 -1.555569 0.000000 0.000000
    18 0.014896 -0.883992 -0.019846 -0.971684 0.000000 0.000000
    19 -0.138978 -0.111855 0.014349 0.292965 -0.021070 1.509950
    20 8.548269 -1.443510 -9.740493 0.856436 2.531959 0.120743
    21 -0.071918 -8.498731 -0.104136 -0.242617 0.437479 0.006870
    22 0.583509 -1.197274 0.185379 0.655922 -0.538388 -0.501755
    23 1.535926 0.010246 0.005008 -0.002843 -0.019508 -0.377639
    24 1.100770 0.004528 -0.010675 -0.054265 -0.163253 -0.233379
    25 0.957766 -2.746777 -0.090301 -0.164374 -0.137138 0.242579
    26 -0.033419 -1.397128 -0.011256 -0.531710 0.000000 0.000000
    27 -0.022361 -0.957433 0.018783 -0.176248 0.000000 0.000000
    28 0.250028 -2.820664 -0.238396 -0.261039 -0.006013 0.008394
    29 -0.049759 -1.680544 0.100480 -0.719715 0.000000 0.000000
    30 -0.034141 -1.148309 0.084779 -0.477854 0.000000 0.000000
    31 -0.488517 -2.755600 -0.228261 -0.493342 0.010338 -0.264487
    32 0.039888 -1.479791 0.029853 -0.710693 0.000000 0.000000
    33 0.028786 -1.075732 -0.023110 -0.648639 0.000000 0.000000
    34 -1.180679 -2.507216 -0.193861 -0.682579 0.013296 -0.477906
    35 -0.024967 -1.123935 0.017594 -0.541581 0.000000 0.000000
    36 -0.020058 -0.890965 0.010091 -0.369387 0.000000 0.000000
    37 0.118324 -0.052288 -0.052882 0.287560 3.110893 1.561059
  time 30
    0 -8.212677 -4.485440 -8.813697 -1.256200 0.809934 -0.722839
    1 0.096946 -8.450418 -0.009361 -0.217323 -0.348822 0.193256
    2 0.585076 -2.269996 0.593499 -1.932824 -1.496225 -0.846929
    3 0.000000 -0.000001 -0.257390 0.000001 0.000000 0.000000
    4 -0.591284 -1.257738 0.232709 -0.112649 -0.739110 -2.367659
    5 1.522835 0.058680 0.016851 0.297819 -0.015565 0.713435
    6 1.117947 0.048424 -0.005765 -0.321024 -0.255028 1.247566
    7 -0.963866 -2.785142 -0.085346 -0.693552 0.115751 0.001442
    8 0.028478 -1.403067 0.006271 -1.577425 0.000001 0.000000
    9 0.021413 -0.957781 0.020047 -0.844718 0.000000 0.000000
    10 -0.249534 -2.846962 -0.174215 -0.916013 0.020488 0.024134
    11 0.043235 -1.683940 0.096015 -1.887124 0.000001 0.000000
    12 0.031730 -1.160831 0.058835 -0.936169 0.000000 0.000000
    13 0.447952 -2.798983 -0.200441 -1.053511 0.154874 0.156736
    14 -0.032910 -1.480207 0.004936 -1.835919 0.000000 0.000000
    15 -0.027023 -1.076921 -0.020212 -0.685018 0.000000 0.000000
    16 1.164475 -2.543939 -0.170327 -1.007384 0.138881 0.328959
    17 0.024033 -1.129040 0.017806 -1.555569 0.000000 0.000000
    18 0.014896 -0.883992 -0.019846 -0.971684 0.000000 0.000000
    19 -0.138978 -0.111855 0.014349 0.292965 -0.021070 1.509950
    20 8.548269 -1.447416 -9.736587 0.854980 2.534708 0.121876
    21 -0.071918 -8.498731 -0.104136 -0.262494 0.421297 0.011227
    22 0.583509 -1.197274 0.185379 0.654724 -0.538304 -0.493604
    23 1.535926 0.010246 0.005008 -0.002975 -0.012986 -0.379127
    24 1.100770 0.004528 -0.010675 -0.051664 -0.161944 -0.236161
    25 0.957766 -2.746777 -0.090301 -0.170041 -0.133447 0.244245
    26 -0.033419 -1.397128 -0.011256 -0.532931 0.000000 0.000000
    27 -0.022361 -0.957433 0.018783 -0.174797 0.000000 0.000000
    28 0.250028 -2.820664 -0.238396 -0.260724 -0.002921 0.008442
    29 -0.049759 -1.680544 0.100480 -0.724656 0.000000 0.000000
    30 -0.034141 -1.148309 0.084779 -0.480612 0.000000 0.000000
    31 -0.488517 -2.755600 -0.228261 -0.490515 0.010338 -0.264487
    32 0.039888 -1.479791 0.029853 -0.714480 0.000000 0.000000
    33 0.028786 -1.075732 -0.023110 -0.651668 0.000000 0.000000
    34 -1.180679 -2.507216 -0.193861 -0.672471 0.013296 -0.477906
    35 -0.024967 -1.123935 0.017594 -0.546881 0.000000 0.000000
    36 -0.020058 -0.890965 0.010091 -0.366517 0.000000 0.000000
    37 0.118324 -0.052288 -0.052882 0.287560 3.110893 1.561059
end
