version 1
nodes
  0 "Bone04" -1
  1 "Bone_Righthand" 0
  2 "Pyramid01" 1
  3 "Woman_knife01" 2
  4 "Bone27" 1
  5 "Bone28" 4
  6 "Bone29" 5
  7 "Bone31" 1
  8 "Bone32" 7
  9 "Bone33" 8
  10 "Bone35" 1
  11 "Bone36" 10
  12 "Bone37" 11
  13 "Bone39" 1
  14 "Bone40" 13
  15 "Bone41" 14
  16 "Bone43" 1
  17 "Bone44" 16
  18 "Bone45" 17
  19 "Bone_Se_Hand-R" 1
  20 "Bone01" -1
  21 "Bone_Lefthand" 20
  22 "Bone05" 21
  23 "Bone06" 22
  24 "Bone07" 23
  25 "Bone21" 21
  26 "Bone22" 25
  27 "Bone23" 26
  28 "Bone17" 21
  29 "Bone18" 28
  30 "Bone19" 29
  31 "Bone13" 21
  32 "Bone14" 31
  33 "Bone15" 32
  34 "Bone09" 21
  35 "Bone10" 34
  36 "Bone11" 35
  37 "Bone_Se_Hand-L" 21
end
skeleton
  time 0
    0 -8.212677 -4.485440 -8.813697 -1.256200 0.809934 -0.722839
    1 0.096946 -8.450418 -0.009361 -0.217323 -0.348822 0.193256
    2 0.585076 -2.269996 0.593499 -1.932824 -1.496225 -0.846929
    3 0.000000 -0.000001 -0.257390 0.000001 0.000000 0.000000
    4 -0.591284 -1.257738 0.232709 -0.112649 -0.739110 -2.367659
    5 1.522835 0.058680 0.016851 0.297819 -0.015565 0.713435
    6 1.117947 0.048424 -0.005765 -0.321024 -0.255028 1.247566
    7 -0.963866 -2.785142 -0.085346 -0.693552 0.115751 0.001442
    8 0.028478 -1.403067 0.006271 -1.577425 0.000001 0.000000
    9 0.021413 -0.957781 0.020047 -0.844718 0.000000 0.000000
    10 -0.249534 -2.846962 -0.174215 -0.916013 0.020488 0.024134
    11 0.043235 -1.683940 0.096015 -1.887124 0.000001 0.000000
    12 0.031730 -1.160831 0.058835 -0.936169 0.000000 0.000000
    13 0.447952 -2.798983 -0.200441 -1.053511 0.154874 0.156736
    14 -0.032910 -1.480207 0.004936 -1.835919 0.000000 0.000000
    15 -0.027023 -1.076921 -0.020212 -0.685018 0.000000 0.000000
    16 1.164475 -2.543939 -0.170327 -1.007384 0.138881 0.328959
    17 0.024033 -1.129040 0.017806 -1.555569 0.000000 0.000000
    18 0.014896 -0.883992 -0.019846 -0.971684 0.000000 0.000000
    19 -0.138978 -0.111855 0.014349 0.292965 -0.021070 1.509950
    20 8.548269 -1.447416 -9.736587 0.854980 2.534708 0.121876
    21 -0.071918 -8.498731 -0.104136 -0.262494 0.421297 0.011227
    22 0.583509 -1.197274 0.185379 0.654724 -0.538304 -0.493604
    23 1.535926 0.010246 0.005008 -0.002975 -0.012986 -0.379127
    24 1.100770 0.004528 -0.010675 -0.051664 -0.161944 -0.236161
    25 0.957766 -2.746777 -0.090301 -0.170041 -0.133447 0.244245
    26 -0.033419 -1.397128 -0.011256 -0.532931 0.000000 0.000000
    27 -0.022361 -0.957433 0.018783 -0.174797 0.000000 0.000000
    28 0.250028 -2.820664 -0.238396 -0.260724 -0.002921 0.008442
    29 -0.049759 -1.680544 0.100480 -0.724656 0.000000 0.000000
    30 -0.034141 -1.148309 0.084779 -0.480612 0.000000 0.000000
    31 -0.488517 -2.755600 -0.228261 -0.490515 0.010338 -0.264487
    32 0.039888 -1.479791 0.029853 -0.714480 0.000000 0.000000
    33 0.028786 -1.075732 -0.023110 -0.651668 0.000000 0.000000
    34 -1.180679 -2.507216 -0.193861 -0.672471 0.013296 -0.477906
    35 -0.024967 -1.123935 0.017594 -0.546881 0.000000 0.000000
    36 -0.020058 -0.890965 0.010091 -0.366517 0.000000 0.000000
    37 0.118324 -0.052288 -0.052882 0.287560 3.110893 1.561059
  time 1
    0 -8.157988 -4.446376 -8.860574 -1.246430 0.802255 -0.703413
    1 0.096946 -8.450418 -0.009361 -0.217360 -0.350797 0.192754
    2 0.585076 -2.269996 0.593499 -1.932824 -1.496225 -0.846881
    3 0.000000 -0.000001 -0.257390 0.000001 0.000000 0.000000
    4 -0.591284 -1.257738 0.232709 -0.112649 -0.739110 -2.367659
    5 1.522835 0.058680 0.016851 0.297819 -0.015565 0.713435
    6 1.117947 0.048424 -0.005765 -0.321024 -0.255028 1.247566
    7 -0.963866 -2.785142 -0.085346 -0.693552 0.115751 0.001442
    8 0.028478 -1.403067 0.006271 -1.577425 0.000001 0.000000
    9 0.021413 -0.957781 0.020047 -0.844718 0.000000 0.000000
    10 -0.249534 -2.846962 -0.174215 -0.916013 0.020488 0.024134
    11 0.043235 -1.683940 0.096015 -1.887124 0.000001 0.000000
    12 0.031730 -1.160831 0.058835 -0.936169 0.000000 0.000000
    13 0.447952 -2.798983 -0.200441 -1.053511 0.154874 0.156736
    14 -0.032910 -1.480207 0.004936 -1.835919 0.000000 0.000000
    15 -0.027023 -1.076921 -0.020212 -0.685018 0.000000 0.000000
    16 1.164475 -2.543939 -0.170327 -1.007384 0.138881 0.328959
    17 0.024033 -1.129040 0.017806 -1.555569 0.000000 0.000000
    18 0.014896 -0.883992 -0.019846 -0.971684 0.000000 0.000000
    19 -0.138978 -0.111855 0.014349 0.292965 -0.021070 1.509950
    20 8.634209 -1.455229 -9.720962 0.851373 2.542655 0.115728
    21 -0.071918 -8.498731 -0.104136 -0.262806 0.419336 0.007886
    22 0.583509 -1.197274 0.185379 0.693182 -0.538820 -0.510859
    23 1.535926 0.010246 0.005008 0.011128 -0.048164 -0.368583
    24 1.100770 0.004528 -0.010675 -0.067412 -0.058225 -0.177637
    25 0.957766 -2.746777 -0.090301 -0.305147 -0.129384 0.253629
    26 -0.033419 -1.397128 -0.011256 -0.632178 0.000000 0.000000
    27 -0.022361 -0.957433 0.018783 -0.341848 0.000623 0.002744
    28 0.250028 -2.820664 -0.238396 -0.298974 -0.002873 0.009113
    29 -0.049759 -1.680544 0.100480 -0.808066 0.000324 0.000479
    30 -0.034141 -1.148309 0.084779 -0.681497 0.001115 0.002133
    31 -0.488517 -2.755600 -0.228261 -0.447070 0.010758 -0.259154
    32 0.039888 -1.479791 0.029853 -0.729529 0.000000 0.000000
    33 0.028786 -1.075732 -0.023110 -0.709482 0.000000 0.000000
    34 -1.180679 -2.507216 -0.193861 -0.509243 0.015525 -0.460456
    35 -0.024967 -1.123935 0.017594 -0.632828 0.000000 0.000000
    36 -0.020058 -0.890965 0.010091 -0.395425 0.000000 0.000000
    37 0.118324 -0.052288 -0.052882 0.287560 3.110893 1.561059
end
