version 1
nodes
  0 "Bone01" -1
  1 "Bone_Lefthand" 0
  2 "Bone_AK47" 1
  3 "Bone03" 2
  4 "Bone25" 3
  5 "Bone48" 3
  6 "Bone50" 3
  7 "Bone52" 3
  8 "Bone 04" 1
  9 "Bone13" 8
  10 "Bone14" 9
  11 "Bone15" 10
  12 "Bone17" 8
  13 "Bone18" 12
  14 "Bone19" 13
  15 "Bone21" 8
  16 "Bone22" 15
  17 "Bone23" 16
  18 "Bone05" 8
  19 "Bone06" 18
  20 "Bone07" 19
  21 "Bone04" -1
  22 "Bone_Righthand" 21
  23 "Bone26" 22
  24 "Bone35" 23
  25 "Bone36" 24
  26 "Bone37" 25
  27 "Bone31" 23
  28 "Bone32" 27
  29 "Bone33" 28
  30 "Bone39" 23
  31 "Bone40" 30
  32 "Bone41" 31
  33 "Bone43" 23
  34 "Bone44" 33
  35 "Bone45" 34
  36 "Bone27" 23
  37 "Bone28" 36
  38 "Bone29" 37
  39 "Bone09" 8
  40 "Bone10" 39
  41 "Bone11" 40
end
skeleton
  time 0
    0 8.606581 3.165656 -8.096399 -0.774287 -1.331380 0.567298
    1 0.000000 -8.563283 -0.000001 0.347509 -0.125220 -0.169570
    2 -0.834451 -3.073736 0.513625 -1.247037 1.437608 -1.233844
    3 0.000000 2.160510 0.950626 0.000000 0.000000 0.000000
    4 0.000000 -3.344303 1.710279 0.000000 0.000000 0.000000
    5 0.000000 -4.793800 0.448359 0.000000 0.000000 0.000000
    6 0.000000 -6.345618 1.761433 0.000000 0.000000 0.000000
    7 0.000000 -5.765820 2.989244 0.000000 0.000000 0.000000
    8 -0.003480 -0.404829 0.000000 0.000000 0.000000 0.000000
    9 -0.519309 -2.501155 -0.278957 -1.003564 0.000000 -0.122173
    10 -0.010598 -1.208185 0.000000 -1.090831 0.000000 0.000000
    11 0.000000 -0.763066 -0.000001 -1.343903 0.000000 0.000000
    12 0.105981 -2.607134 -0.278957 -0.890118 0.000000 -0.148353
    13 0.000000 -1.250579 0.000000 -1.213004 0.000000 0.000000
    14 0.000000 -0.932634 0.000000 -1.483530 0.000000 0.000000
    15 0.763064 -2.490557 -0.278957 -0.235619 0.000000 0.130900
    16 -0.012322 -1.280918 0.000000 -0.349066 0.000000 0.000000
    17 -0.001697 -0.749371 0.000000 -0.593412 0.000000 0.000000
    18 0.354567 0.016267 0.318133 0.342077 -0.443527 -1.083976
    19 1.887165 0.012878 0.000000 -0.305433 0.000000 -0.401426
    20 1.001875 -0.000270 0.000000 0.000000 0.000000 -0.488692
    21 0.176275 -10.373125 -10.080679 -0.554979 0.255020 0.648698
    22 0.089929 -8.543161 0.000000 0.512980 0.031489 0.240363
    23 0.000000 -0.359712 0.000000 0.000000 0.000000 0.000000
    24 -0.170480 -2.636147 -0.277656 -1.692969 0.000000 0.000000
    25 0.010599 -1.261176 0.000001 -0.253073 0.000000 0.000000
    26 -0.000001 -0.943232 -0.000002 -0.532326 0.000000 0.000000
    27 -0.827563 -2.508973 -0.277657 -1.396263 0.000000 0.000000
    28 -0.000001 -1.292972 0.000000 -0.445059 0.000000 0.000000
    29 0.000000 -0.752466 -0.000001 -0.445059 0.000000 0.000000
    30 0.444211 -2.561960 -0.277656 -1.727307 -0.046226 -0.024599
    31 0.021020 -1.208185 0.000000 -0.427606 0.000000 0.000000
    32 0.010596 -0.741866 -0.000001 -0.453786 0.000000 0.000000
    33 1.047444 -2.222821 -0.277656 -1.508123 -0.078971 -0.038609
    34 0.000000 -0.996223 0.000000 -0.863938 0.000000 0.000000
    35 -0.000001 -0.614690 0.000000 -0.523599 0.000000 0.000000
    36 -0.308255 -0.007814 0.307166 -0.145110 -0.159878 -2.467082
    37 1.978379 0.019543 0.000000 -0.087921 -0.056961 -0.023672
    38 0.982426 0.003186 0.000000 0.000000 0.000000 0.418879
    39 -1.122644 -2.197476 -0.281120 -0.933746 0.000001 -0.087266
    40 0.007812 -0.964973 0.000001 -0.610853 0.000000 0.000000
    41 -0.007812 -0.630317 0.000000 -1.213004 0.000000 0.000000
  time 1
    0 8.606581 3.165656 -8.096399 -0.774287 -1.331380 0.567298
    1 0.000000 -8.563283 -0.000001 0.347509 -0.125220 -0.169570
    2 -0.834451 -3.073736 0.513625 -1.247037 1.437608 -1.233844
    3 0.000000 2.160510 0.950626 0.000000 0.000000 0.000000
    4 0.000000 -3.344303 1.710279 0.000000 0.000000 0.000000
    5 0.000000 -4.793800 0.448359 0.000000 0.000000 0.000000
    6 0.000000 -6.345618 1.761433 0.000000 0.000000 0.000000
    7 0.000000 -5.765820 2.989244 0.000000 0.000000 0.000000
    8 -0.003480 -0.404829 0.000000 0.000000 0.000000 0.000000
    9 -0.519309 -2.501155 -0.278957 -1.003564 0.000000 -0.122173
    10 -0.010598 -1.208185 0.000000 -1.090831 0.000000 0.000000
    11 0.000000 -0.763066 -0.000001 -1.343903 0.000000 0.000000
    12 0.105981 -2.607134 -0.278957 -0.890118 0.000000 -0.148353
    13 0.000000 -1.250579 0.000000 -1.213004 0.000000 0.000000
    14 0.000000 -0.932634 0.000000 -1.483530 0.000000 0.000000
    15 0.763064 -2.490557 -0.278957 -0.235619 0.000000 0.130900
    16 -0.012322 -1.280918 0.000000 -0.349066 0.000000 0.000000
    17 -0.001697 -0.749371 0.000000 -0.593412 0.000000 0.000000
    18 0.354567 0.016267 0.318133 0.342077 -0.443527 -1.083976
    19 1.887165 0.012878 0.000000 -0.305433 0.000000 -0.401426
    20 1.001875 -0.000270 0.000000 0.000000 0.000000 -0.488692
    21 0.176275 -10.373125 -10.080679 -0.554979 0.255020 0.648698
    22 0.089929 -8.543161 0.000000 0.512980 0.031489 0.240363
    23 0.000000 -0.359712 0.000000 0.000000 0.000000 0.000000
    24 -0.170480 -2.636147 -0.277656 -1.692969 0.000000 0.000000
    25 0.010599 -1.261176 0.000001 -0.253073 0.000000 0.000000
    26 -0.000001 -0.943232 -0.000002 -0.532326 0.000000 0.000000
    27 -0.827563 -2.508973 -0.277657 -1.396263 0.000000 0.000000
    28 -0.000001 -1.292972 0.000000 -0.445059 0.000000 0.000000
    29 0.000000 -0.752466 -0.000001 -0.445059 0.000000 0.000000
    30 0.444211 -2.561960 -0.277656 -1.727307 -0.046226 -0.024599
    31 0.021020 -1.208185 0.000000 -0.427606 0.000000 0.000000
    32 0.010596 -0.741866 -0.000001 -0.453786 0.000000 0.000000
    33 1.047444 -2.222821 -0.277656 -1.508123 -0.078971 -0.038609
    34 0.000000 -0.996223 0.000000 -0.863938 0.000000 0.000000
    35 -0.000001 -0.614690 0.000000 -0.523599 0.000000 0.000000
    36 -0.308255 -0.007814 0.307166 -0.145110 -0.159878 -2.467082
    37 1.978379 0.019543 0.000000 -0.087921 -0.056961 -0.023672
    38 0.982426 0.003186 0.000000 0.000000 0.000000 0.418879
    39 -1.122644 -2.197476 -0.281120 -0.933746 0.000001 -0.087266
    40 0.007812 -0.964973 0.000001 -0.610853 0.000000 0.000000
    41 -0.007812 -0.630317 0.000000 -1.213004 0.000000 0.000000
  time 2
    0 8.606581 3.165656 -8.096399 -0.774287 -1.331380 0.567298
    1 0.000000 -8.563283 -0.000001 0.347509 -0.125220 -0.169570
    2 -0.834451 -3.073736 0.513625 -1.247037 1.437608 -1.233844
    3 0.000000 2.160510 0.950626 0.000000 0.000000 0.000000
    4 0.000000 -3.344303 1.710279 0.000000 0.000000 0.000000
    5 0.000000 -4.793800 0.448359 0.000000 0.000000 0.000000
    6 0.000000 -6.345618 1.761433 0.000000 0.000000 0.000000
    7 0.000000 -5.765820 2.989244 0.000000 0.000000 0.000000
    8 -0.003480 -0.404829 0.000000 0.000000 0.000000 0.000000
    9 -0.519309 -2.501155 -0.278957 -1.003564 0.000000 -0.122173
    10 -0.010598 -1.208185 0.000000 -1.090831 0.000000 0.000000
    11 0.000000 -0.763066 -0.000001 -1.343903 0.000000 0.000000
    12 0.105981 -2.607134 -0.278957 -0.890118 0.000000 -0.148353
    13 0.000000 -1.250579 0.000000 -1.213004 0.000000 0.000000
    14 0.000000 -0.932634 0.000000 -1.483530 0.000000 0.000000
    15 0.763064 -2.490557 -0.278957 -0.235619 0.000000 0.130900
    16 -0.012322 -1.280918 0.000000 -0.349066 0.000000 0.000000
    17 -0.001697 -0.749371 0.000000 -0.593412 0.000000 0.000000
    18 0.354567 0.016267 0.318133 0.342077 -0.443527 -1.083976
    19 1.887165 0.012878 0.000000 -0.305433 0.000000 -0.401426
    20 1.001875 -0.000270 0.000000 0.000000 0.000000 -0.488692
    21 0.176275 -10.373125 -10.080679 -0.554979 0.255020 0.648698
    22 0.089929 -8.543161 0.000000 0.512980 0.031489 0.240363
    23 0.000000 -0.359712 0.000000 0.000000 0.000000 0.000000
    24 -0.170480 -2.636147 -0.277656 -1.692969 0.000000 0.000000
    25 0.010599 -1.261176 0.000001 -0.253073 0.000000 0.000000
    26 -0.000001 -0.943232 -0.000002 -0.532326 0.000000 0.000000
    27 -0.827563 -2.508973 -0.277657 -1.396263 0.000000 0.000000
    28 -0.000001 -1.292972 0.000000 -0.445059 0.000000 0.000000
    29 0.000000 -0.752466 -0.000001 -0.445059 0.000000 0.000000
    30 0.444211 -2.561960 -0.277656 -1.727307 -0.046226 -0.024599
    31 0.021020 -1.208185 0.000000 -0.427606 0.000000 0.000000
    32 0.010596 -0.741866 -0.000001 -0.453786 0.000000 0.000000
    33 1.047444 -2.222821 -0.277656 -1.508123 -0.078971 -0.038609
    34 0.000000 -0.996223 0.000000 -0.863938 0.000000 0.000000
    35 -0.000001 -0.614690 0.000000 -0.523599 0.000000 0.000000
    36 -0.308255 -0.007814 0.307166 -0.145110 -0.159878 -2.467082
    37 1.978379 0.019543 0.000000 -0.087921 -0.056961 -0.023672
    38 0.982426 0.003186 0.000000 0.000000 0.000000 0.418879
    39 -1.122644 -2.197476 -0.281120 -0.933746 0.000001 -0.087266
    40 0.007812 -0.964973 0.000001 -0.610853 0.000000 0.000000
    41 -0.007812 -0.630317 0.000000 -1.213004 0.000000 0.000000
  time 3
    0 8.606581 3.165656 -8.096399 -0.774287 -1.331380 0.567298
    1 0.000000 -8.563283 -0.000001 0.347509 -0.125220 -0.169570
    2 -0.834451 -3.073736 0.513625 -1.247037 1.437608 -1.233844
    3 0.000000 2.160510 0.950626 0.000000 0.000000 0.000000
    4 0.000000 -3.344303 1.710279 0.000000 0.000000 0.000000
    5 0.000000 -4.793800 0.448359 0.000000 0.000000 0.000000
    6 0.000000 -6.345618 1.761433 0.000000 0.000000 0.000000
    7 0.000000 -5.765820 2.989244 0.000000 0.000000 0.000000
    8 -0.003480 -0.404829 0.000000 0.000000 0.000000 0.000000
    9 -0.519309 -2.501155 -0.278957 -1.003564 0.000000 -0.122173
    10 -0.010598 -1.208185 0.000000 -1.090831 0.000000 0.000000
    11 0.000000 -0.763066 -0.000001 -1.343903 0.000000 0.000000
    12 0.105981 -2.607134 -0.278957 -0.890118 0.000000 -0.148353
    13 0.000000 -1.250579 0.000000 -1.213004 0.000000 0.000000
    14 0.000000 -0.932634 0.000000 -1.483530 0.000000 0.000000
    15 0.763064 -2.490557 -0.278957 -0.235619 0.000000 0.130900
    16 -0.012322 -1.280918 0.000000 -0.349066 0.000000 0.000000
    17 -0.001697 -0.749371 0.000000 -0.593412 0.000000 0.000000
    18 0.354567 0.016267 0.318133 0.342077 -0.443527 -1.083976
    19 1.887165 0.012878 0.000000 -0.305433 0.000000 -0.401426
    20 1.001875 -0.000270 0.000000 0.000000 0.000000 -0.488692
    21 0.176275 -10.373125 -10.080679 -0.554979 0.255020 0.648698
    22 0.089929 -8.543161 0.000000 0.512980 0.031489 0.240363
    23 0.000000 -0.359712 0.000000 0.000000 0.000000 0.000000
    24 -0.170480 -2.636147 -0.277656 -1.692969 0.000000 0.000000
    25 0.010599 -1.261176 0.000001 -0.253073 0.000000 0.000000
    26 -0.000001 -0.943232 -0.000002 -0.532326 0.000000 0.000000
    27 -0.827563 -2.508973 -0.277657 -1.396263 0.000000 0.000000
    28 -0.000001 -1.292972 0.000000 -0.445059 0.000000 0.000000
    29 0.000000 -0.752466 -0.000001 -0.445059 0.000000 0.000000
    30 0.444211 -2.561960 -0.277656 -1.727307 -0.046226 -0.024599
    31 0.021020 -1.208185 0.000000 -0.427606 0.000000 0.000000
    32 0.010596 -0.741866 -0.000001 -0.453786 0.000000 0.000000
    33 1.047444 -2.222821 -0.277656 -1.508123 -0.078971 -0.038609
    34 0.000000 -0.996223 0.000000 -0.863938 0.000000 0.000000
    35 -0.000001 -0.614690 0.000000 -0.523599 0.000000 0.000000
    36 -0.308255 -0.007814 0.307166 -0.145110 -0.159878 -2.467082
    37 1.978379 0.019543 0.000000 -0.087921 -0.056961 -0.023672
    38 0.982426 0.003186 0.000000 0.000000 0.000000 0.418879
    39 -1.122644 -2.197476 -0.281120 -0.933746 0.000001 -0.087266
    40 0.007812 -0.964973 0.000001 -0.610853 0.000000 0.000000
    41 -0.007812 -0.630317 0.000000 -1.213004 0.000000 0.000000
  time 4
    0 8.606581 3.165656 -8.096399 -0.774287 -1.331380 0.567298
    1 0.000000 -8.563283 -0.000001 0.347509 -0.125220 -0.169570
    2 -0.834451 -3.073736 0.513625 -1.247037 1.437608 -1.233844
    3 0.000000 2.160510 0.950626 0.000000 0.000000 0.000000
    4 0.000000 -3.344303 1.710279 0.000000 0.000000 0.000000
    5 0.000000 -4.793800 0.448359 0.000000 0.000000 0.000000
    6 0.000000 -6.345618 1.761433 0.000000 0.000000 0.000000
    7 0.000000 -5.765820 2.989244 0.000000 0.000000 0.000000
    8 -0.003480 -0.404829 0.000000 0.000000 0.000000 0.000000
    9 -0.519309 -2.501155 -0.278957 -1.003564 0.000000 -0.122173
    10 -0.010598 -1.208185 0.000000 -1.090831 0.000000 0.000000
    11 0.000000 -0.763066 -0.000001 -1.343903 0.000000 0.000000
    12 0.105981 -2.607134 -0.278957 -0.890118 0.000000 -0.148353
    13 0.000000 -1.250579 0.000000 -1.213004 0.000000 0.000000
    14 0.000000 -0.932634 0.000000 -1.483530 0.000000 0.000000
    15 0.763064 -2.490557 -0.278957 -0.235619 0.000000 0.130900
    16 -0.012322 -1.280918 0.000000 -0.349066 0.000000 0.000000
    17 -0.001697 -0.749371 0.000000 -0.593412 0.000000 0.000000
    18 0.354567 0.016267 0.318133 0.342077 -0.443527 -1.083976
    19 1.887165 0.012878 0.000000 -0.305433 0.000000 -0.401426
    20 1.001875 -0.000270 0.000000 0.000000 0.000000 -0.488692
    21 0.176275 -10.373125 -10.080679 -0.554979 0.255020 0.648698
    22 0.089929 -8.543161 0.000000 0.512980 0.031489 0.240363
    23 0.000000 -0.359712 0.000000 0.000000 0.000000 0.000000
    24 -0.170480 -2.636147 -0.277656 -1.692969 0.000000 0.000000
    25 0.010599 -1.261176 0.000001 -0.253073 0.000000 0.000000
    26 -0.000001 -0.943232 -0.000002 -0.532326 0.000000 0.000000
    27 -0.827563 -2.508973 -0.277657 -1.396263 0.000000 0.000000
    28 -0.000001 -1.292972 0.000000 -0.445059 0.000000 0.000000
    29 0.000000 -0.752466 -0.000001 -0.445059 0.000000 0.000000
    30 0.444211 -2.561960 -0.277656 -1.727307 -0.046226 -0.024599
    31 0.021020 -1.208185 0.000000 -0.427606 0.000000 0.000000
    32 0.010596 -0.741866 -0.000001 -0.453786 0.000000 0.000000
    33 1.047444 -2.222821 -0.277656 -1.508123 -0.078971 -0.038609
    34 0.000000 -0.996223 0.000000 -0.863938 0.000000 0.000000
    35 -0.000001 -0.614690 0.000000 -0.523599 0.000000 0.000000
    36 -0.308255 -0.007814 0.307166 -0.145110 -0.159878 -2.467082
    37 1.978379 0.019543 0.000000 -0.087921 -0.056961 -0.023672
    38 0.982426 0.003186 0.000000 0.000000 0.000000 0.418879
    39 -1.122644 -2.197476 -0.281120 -0.933746 0.000001 -0.087266
    40 0.007812 -0.964973 0.000001 -0.610853 0.000000 0.000000
    41 -0.007812 -0.630317 0.000000 -1.213004 0.000000 0.000000
  time 5
    0 8.606581 3.165656 -8.096399 -0.774287 -1.331380 0.567298
    1 0.000000 -8.563283 -0.000001 0.347509 -0.125220 -0.169570
    2 -0.834451 -3.073736 0.513625 -1.247037 1.437608 -1.233844
    3 0.000000 2.160510 0.950626 0.000000 0.000000 0.000000
    4 0.000000 -3.344303 1.710279 0.000000 0.000000 0.000000
    5 0.000000 -4.793800 0.448359 0.000000 0.000000 0.000000
    6 0.000000 -6.345618 1.761433 0.000000 0.000000 0.000000
    7 0.000000 -5.765820 2.989244 0.000000 0.000000 0.000000
    8 -0.003480 -0.404829 0.000000 0.000000 0.000000 0.000000
    9 -0.519309 -2.501155 -0.278957 -1.003564 0.000000 -0.122173
    10 -0.010598 -1.208185 0.000000 -1.090831 0.000000 0.000000
    11 0.000000 -0.763066 -0.000001 -1.343903 0.000000 0.000000
    12 0.105981 -2.607134 -0.278957 -0.890118 0.000000 -0.148353
    13 0.000000 -1.250579 0.000000 -1.213004 0.000000 0.000000
    14 0.000000 -0.932634 0.000000 -1.483530 0.000000 0.000000
    15 0.763064 -2.490557 -0.278957 -0.235619 0.000000 0.130900
    16 -0.012322 -1.280918 0.000000 -0.349066 0.000000 0.000000
    17 -0.001697 -0.749371 0.000000 -0.593412 0.000000 0.000000
    18 0.354567 0.016267 0.318133 0.342077 -0.443527 -1.083976
    19 1.887165 0.012878 0.000000 -0.305433 0.000000 -0.401426
    20 1.001875 -0.000270 0.000000 0.000000 0.000000 -0.488692
    21 0.176275 -10.373125 -10.080679 -0.554979 0.255020 0.648698
    22 0.089929 -8.543161 0.000000 0.512980 0.031489 0.240363
    23 0.000000 -0.359712 0.000000 0.000000 0.000000 0.000000
    24 -0.170480 -2.636147 -0.277656 -1.692969 0.000000 0.000000
    25 0.010599 -1.261176 0.000001 -0.253073 0.000000 0.000000
    26 -0.000001 -0.943232 -0.000002 -0.532326 0.000000 0.000000
    27 -0.827563 -2.508973 -0.277657 -1.396263 0.000000 0.000000
    28 -0.000001 -1.292972 0.000000 -0.445059 0.000000 0.000000
    29 0.000000 -0.752466 -0.000001 -0.445059 0.000000 0.000000
    30 0.444211 -2.561960 -0.277656 -1.727307 -0.046226 -0.024599
    31 0.021020 -1.208185 0.000000 -0.427606 0.000000 0.000000
    32 0.010596 -0.741866 -0.000001 -0.453786 0.000000 0.000000
    33 1.047444 -2.222821 -0.277656 -1.508123 -0.078971 -0.038609
    34 0.000000 -0.996223 0.000000 -0.863938 0.000000 0.000000
    35 -0.000001 -0.614690 0.000000 -0.523599 0.000000 0.000000
    36 -0.308255 -0.007814 0.307166 -0.145110 -0.159878 -2.467082
    37 1.978379 0.019543 0.000000 -0.087921 -0.056961 -0.023672
    38 0.982426 0.003186 0.000000 0.000000 0.000000 0.418879
    39 -1.122644 -2.197476 -0.281120 -0.933746 0.000001 -0.087266
    40 0.007812 -0.964973 0.000001 -0.610853 0.000000 0.000000
    41 -0.007812 -0.630317 0.000000 -1.213004 0.000000 0.000000
  time 6
    0 8.606581 3.165656 -8.096399 -0.774287 -1.331380 0.567298
    1 0.000000 -8.563283 -0.000001 0.347509 -0.125220 -0.169570
    2 -0.834451 -3.073736 0.513625 -1.247037 1.437608 -1.233844
    3 0.000000 2.160510 0.950626 0.000000 0.000000 0.000000
    4 0.000000 -3.344303 1.710279 0.000000 0.000000 0.000000
    5 0.000000 -4.793800 0.448359 0.000000 0.000000 0.000000
    6 0.000000 -6.345618 1.761433 0.000000 0.000000 0.000000
    7 0.000000 -5.765820 2.989244 0.000000 0.000000 0.000000
    8 -0.003480 -0.404829 0.000000 0.000000 0.000000 0.000000
    9 -0.519309 -2.501155 -0.278957 -1.003564 0.000000 -0.122173
    10 -0.010598 -1.208185 0.000000 -1.090831 0.000000 0.000000
    11 0.000000 -0.763066 -0.000001 -1.343903 0.000000 0.000000
    12 0.105981 -2.607134 -0.278957 -0.890118 0.000000 -0.148353
    13 0.000000 -1.250579 0.000000 -1.213004 0.000000 0.000000
    14 0.000000 -0.932634 0.000000 -1.483530 0.000000 0.000000
    15 0.763064 -2.490557 -0.278957 -0.235619 0.000000 0.130900
    16 -0.012322 -1.280918 0.000000 -0.349066 0.000000 0.000000
    17 -0.001697 -0.749371 0.000000 -0.593412 0.000000 0.000000
    18 0.354567 0.016267 0.318133 0.342077 -0.443527 -1.083976
    19 1.887165 0.012878 0.000000 -0.305433 0.000000 -0.401426
    20 1.001875 -0.000270 0.000000 0.000000 0.000000 -0.488692
    21 0.176275 -10.373125 -10.080679 -0.554979 0.255020 0.648698
    22 0.089929 -8.543161 0.000000 0.512980 0.031489 0.240363
    23 0.000000 -0.359712 0.000000 0.000000 0.000000 0.000000
    24 -0.170480 -2.636147 -0.277656 -1.692969 0.000000 0.000000
    25 0.010599 -1.261176 0.000001 -0.253073 0.000000 0.000000
    26 -0.000001 -0.943232 -0.000002 -0.532326 0.000000 0.000000
    27 -0.827563 -2.508973 -0.277657 -1.396263 0.000000 0.000000
    28 -0.000001 -1.292972 0.000000 -0.445059 0.000000 0.000000
    29 0.000000 -0.752466 -0.000001 -0.445059 0.000000 0.000000
    30 0.444211 -2.561960 -0.277656 -1.727307 -0.046226 -0.024599
    31 0.021020 -1.208185 0.000000 -0.427606 0.000000 0.000000
    32 0.010596 -0.741866 -0.000001 -0.453786 0.000000 0.000000
    33 1.047444 -2.222821 -0.277656 -1.508123 -0.078971 -0.038609
    34 0.000000 -0.996223 0.000000 -0.863938 0.000000 0.000000
    35 -0.000001 -0.614690 0.000000 -0.523599 0.000000 0.000000
    36 -0.308255 -0.007814 0.307166 -0.145110 -0.159878 -2.467082
    37 1.978379 0.019543 0.000000 -0.087921 -0.056961 -0.023672
    38 0.982426 0.003186 0.000000 0.000000 0.000000 0.418879
    39 -1.122644 -2.197476 -0.281120 -0.933746 0.000001 -0.087266
    40 0.007812 -0.964973 0.000001 -0.610853 0.000000 0.000000
    41 -0.007812 -0.630317 0.000000 -1.213004 0.000000 0.000000
  time 7
    0 8.606581 3.165656 -8.096399 -0.774287 -1.331380 0.567298
    1 0.000000 -8.563283 -0.000001 0.347509 -0.125220 -0.169570
    2 -0.834451 -3.073736 0.513625 -1.247037 1.437608 -1.233844
    3 0.000000 2.160510 0.950626 0.000000 0.000000 0.000000
    4 0.000000 -3.344303 1.710279 0.000000 0.000000 0.000000
    5 0.000000 -4.793800 0.448359 0.000000 0.000000 0.000000
    6 0.000000 -6.345618 1.761433 0.000000 0.000000 0.000000
    7 0.000000 -5.765820 2.989244 0.000000 0.000000 0.000000
    8 -0.003480 -0.404829 0.000000 0.000000 0.000000 0.000000
    9 -0.519309 -2.501155 -0.278957 -1.003564 0.000000 -0.122173
    10 -0.010598 -1.208185 0.000000 -1.090831 0.000000 0.000000
    11 0.000000 -0.763066 -0.000001 -1.343903 0.000000 0.000000
    12 0.105981 -2.607134 -0.278957 -0.890118 0.000000 -0.148353
    13 0.000000 -1.250579 0.000000 -1.213004 0.000000 0.000000
    14 0.000000 -0.932634 0.000000 -1.483530 0.000000 0.000000
    15 0.763064 -2.490557 -0.278957 -0.235619 0.000000 0.130900
    16 -0.012322 -1.280918 0.000000 -0.349066 0.000000 0.000000
    17 -0.001697 -0.749371 0.000000 -0.593412 0.000000 0.000000
    18 0.354567 0.016267 0.318133 0.342077 -0.443527 -1.083976
    19 1.887165 0.012878 0.000000 -0.305433 0.000000 -0.401426
    20 1.001875 -0.000270 0.000000 0.000000 0.000000 -0.488692
    21 0.176275 -10.373125 -10.080679 -0.554979 0.255020 0.648698
    22 0.089929 -8.543161 0.000000 0.512980 0.031489 0.240363
    23 0.000000 -0.359712 0.000000 0.000000 0.000000 0.000000
    24 -0.170480 -2.636147 -0.277656 -1.692969 0.000000 0.000000
    25 0.010599 -1.261176 0.000001 -0.253073 0.000000 0.000000
    26 -0.000001 -0.943232 -0.000002 -0.532326 0.000000 0.000000
    27 -0.827563 -2.508973 -0.277657 -1.396263 0.000000 0.000000
    28 -0.000001 -1.292972 0.000000 -0.445059 0.000000 0.000000
    29 0.000000 -0.752466 -0.000001 -0.445059 0.000000 0.000000
    30 0.444211 -2.561960 -0.277656 -1.727307 -0.046226 -0.024599
    31 0.021020 -1.208185 0.000000 -0.427606 0.000000 0.000000
    32 0.010596 -0.741866 -0.000001 -0.453786 0.000000 0.000000
    33 1.047444 -2.222821 -0.277656 -1.508123 -0.078971 -0.038609
    34 0.000000 -0.996223 0.000000 -0.863938 0.000000 0.000000
    35 -0.000001 -0.614690 0.000000 -0.523599 0.000000 0.000000
    36 -0.308255 -0.007814 0.307166 -0.145110 -0.159878 -2.467082
    37 1.978379 0.019543 0.000000 -0.087921 -0.056961 -0.023672
    38 0.982426 0.003186 0.000000 0.000000 0.000000 0.418879
    39 -1.122644 -2.197476 -0.281120 -0.933746 0.000001 -0.087266
    40 0.007812 -0.964973 0.000001 -0.610853 0.000000 0.000000
    41 -0.007812 -0.630317 0.000000 -1.213004 0.000000 0.000000
  time 8
    0 8.606581 3.165656 -8.096399 -0.774287 -1.331380 0.567298
    1 0.000000 -8.563283 -0.000001 0.347509 -0.125220 -0.169570
    2 -0.834451 -3.073736 0.513625 -1.247037 1.437608 -1.233844
    3 0.000000 2.160510 0.950626 0.000000 0.000000 0.000000
    4 0.000000 -3.344303 1.710279 0.000000 0.000000 0.000000
    5 0.000000 -4.793800 0.448359 0.000000 0.000000 0.000000
    6 0.000000 -6.345618 1.761433 0.000000 0.000000 0.000000
    7 0.000000 -5.765820 2.989244 0.000000 0.000000 0.000000
    8 -0.003480 -0.404829 0.000000 0.000000 0.000000 0.000000
    9 -0.519309 -2.501155 -0.278957 -1.003564 0.000000 -0.122173
    10 -0.010598 -1.208185 0.000000 -1.090831 0.000000 0.000000
    11 0.000000 -0.763066 -0.000001 -1.343903 0.000000 0.000000
    12 0.105981 -2.607134 -0.278957 -0.890118 0.000000 -0.148353
    13 0.000000 -1.250579 0.000000 -1.213004 0.000000 0.000000
    14 0.000000 -0.932634 0.000000 -1.483530 0.000000 0.000000
    15 0.763064 -2.490557 -0.278957 -0.235619 0.000000 0.130900
    16 -0.012322 -1.280918 0.000000 -0.349066 0.000000 0.000000
    17 -0.001697 -0.749371 0.000000 -0.593412 0.000000 0.000000
    18 0.354567 0.016267 0.318133 0.342077 -0.443527 -1.083976
    19 1.887165 0.012878 0.000000 -0.305433 0.000000 -0.401426
    20 1.001875 -0.000270 0.000000 0.000000 0.000000 -0.488692
    21 0.176275 -10.373125 -10.080679 -0.554979 0.255020 0.648698
    22 0.089929 -8.543161 0.000000 0.512980 0.031489 0.240363
    23 0.000000 -0.359712 0.000000 0.000000 0.000000 0.000000
    24 -0.170480 -2.636147 -0.277656 -1.692969 0.000000 0.000000
    25 0.010599 -1.261176 0.000001 -0.253073 0.000000 0.000000
    26 -0.000001 -0.943232 -0.000002 -0.532326 0.000000 0.000000
    27 -0.827563 -2.508973 -0.277657 -1.396263 0.000000 0.000000
    28 -0.000001 -1.292972 0.000000 -0.445059 0.000000 0.000000
    29 0.000000 -0.752466 -0.000001 -0.445059 0.000000 0.000000
    30 0.444211 -2.561960 -0.277656 -1.727307 -0.046226 -0.024599
    31 0.021020 -1.208185 0.000000 -0.427606 0.000000 0.000000
    32 0.010596 -0.741866 -0.000001 -0.453786 0.000000 0.000000
    33 1.047444 -2.222821 -0.277656 -1.508123 -0.078971 -0.038609
    34 0.000000 -0.996223 0.000000 -0.863938 0.000000 0.000000
    35 -0.000001 -0.614690 0.000000 -0.523599 0.000000 0.000000
    36 -0.308255 -0.007814 0.307166 -0.145110 -0.159878 -2.467082
    37 1.978379 0.019543 0.000000 -0.087921 -0.056961 -0.023672
    38 0.982426 0.003186 0.000000 0.000000 0.000000 0.418879
    39 -1.122644 -2.197476 -0.281120 -0.933746 0.000001 -0.087266
    40 0.007812 -0.964973 0.000001 -0.610853 0.000000 0.000000
    41 -0.007812 -0.630317 0.000000 -1.213004 0.000000 0.000000
  time 9
    0 8.606581 3.165656 -8.096399 -0.774287 -1.331380 0.567298
    1 0.000000 -8.563283 -0.000001 0.347509 -0.125220 -0.169570
    2 -0.834451 -3.073736 0.513625 -1.247037 1.437608 -1.233844
    3 0.000000 2.160510 0.950626 0.000000 0.000000 0.000000
    4 0.000000 -3.344303 1.710279 0.000000 0.000000 0.000000
    5 0.000000 -4.793800 0.448359 0.000000 0.000000 0.000000
    6 0.000000 -6.345618 1.761433 0.000000 0.000000 0.000000
    7 0.000000 -5.765820 2.989244 0.000000 0.000000 0.000000
    8 -0.003480 -0.404829 0.000000 0.000000 0.000000 0.000000
    9 -0.519309 -2.501155 -0.278957 -1.003564 0.000000 -0.122173
    10 -0.010598 -1.208185 0.000000 -1.090831 0.000000 0.000000
    11 0.000000 -0.763066 -0.000001 -1.343903 0.000000 0.000000
    12 0.105981 -2.607134 -0.278957 -0.890118 0.000000 -0.148353
    13 0.000000 -1.250579 0.000000 -1.213004 0.000000 0.000000
    14 0.000000 -0.932634 0.000000 -1.483530 0.000000 0.000000
    15 0.763064 -2.490557 -0.278957 -0.235619 0.000000 0.130900
    16 -0.012322 -1.280918 0.000000 -0.349066 0.000000 0.000000
    17 -0.001697 -0.749371 0.000000 -0.593412 0.000000 0.000000
    18 0.354567 0.016267 0.318133 0.342077 -0.443527 -1.083976
    19 1.887165 0.012878 0.000000 -0.305433 0.000000 -0.401426
    20 1.001875 -0.000270 0.000000 0.000000 0.000000 -0.488692
    21 0.176275 -10.373125 -10.080679 -0.554979 0.255020 0.648698
    22 0.089929 -8.543161 0.000000 0.512980 0.031489 0.240363
    23 0.000000 -0.359712 0.000000 0.000000 0.000000 0.000000
    24 -0.170480 -2.636147 -0.277656 -1.692969 0.000000 0.000000
    25 0.010599 -1.261176 0.000001 -0.253073 0.000000 0.000000
    26 -0.000001 -0.943232 -0.000002 -0.532326 0.000000 0.000000
    27 -0.827563 -2.508973 -0.277657 -1.396263 0.000000 0.000000
    28 -0.000001 -1.292972 0.000000 -0.445059 0.000000 0.000000
    29 0.000000 -0.752466 -0.000001 -0.445059 0.000000 0.000000
    30 0.444211 -2.561960 -0.277656 -1.727307 -0.046226 -0.024599
    31 0.021020 -1.208185 0.000000 -0.427606 0.000000 0.000000
    32 0.010596 -0.741866 -0.000001 -0.453786 0.000000 0.000000
    33 1.047444 -2.222821 -0.277656 -1.508123 -0.078971 -0.038609
    34 0.000000 -0.996223 0.000000 -0.863938 0.000000 0.000000
    35 -0.000001 -0.614690 0.000000 -0.523599 0.000000 0.000000
    36 -0.308255 -0.007814 0.307166 -0.145110 -0.159878 -2.467082
    37 1.978379 0.019543 0.000000 -0.087921 -0.056961 -0.023672
    38 0.982426 0.003186 0.000000 0.000000 0.000000 0.418879
    39 -1.122644 -2.197476 -0.281120 -0.933746 0.000001 -0.087266
    40 0.007812 -0.964973 0.000001 -0.610853 0.000000 0.000000
    41 -0.007812 -0.630317 0.000000 -1.213004 0.000000 0.000000
  time 10
    0 8.606581 3.165656 -8.096399 -0.774287 -1.331380 0.567298
    1 0.000000 -8.563283 -0.000001 0.347509 -0.125220 -0.169570
    2 -0.834451 -3.073736 0.513625 -1.247037 1.437608 -1.233844
    3 0.000000 2.160510 0.950626 0.000000 0.000000 0.000000
    4 0.000000 -3.344303 1.710279 0.000000 0.000000 0.000000
    5 0.000000 -4.793800 0.448359 0.000000 0.000000 0.000000
    6 0.000000 -6.345618 1.761433 0.000000 0.000000 0.000000
    7 0.000000 -5.765820 2.989244 0.000000 0.000000 0.000000
    8 -0.003480 -0.404829 0.000000 0.000000 0.000000 0.000000
    9 -0.519309 -2.501155 -0.278957 -1.003564 0.000000 -0.122173
    10 -0.010598 -1.208185 0.000000 -1.090831 0.000000 0.000000
    11 0.000000 -0.763066 -0.000001 -1.343903 0.000000 0.000000
    12 0.105981 -2.607134 -0.278957 -0.890118 0.000000 -0.148353
    13 0.000000 -1.250579 0.000000 -1.213004 0.000000 0.000000
    14 0.000000 -0.932634 0.000000 -1.483530 0.000000 0.000000
    15 0.763064 -2.490557 -0.278957 -0.235619 0.000000 0.130900
    16 -0.012322 -1.280918 0.000000 -0.349066 0.000000 0.000000
    17 -0.001697 -0.749371 0.000000 -0.593412 0.000000 0.000000
    18 0.354567 0.016267 0.318133 0.342077 -0.443527 -1.083976
    19 1.887165 0.012878 0.000000 -0.305433 0.000000 -0.401426
    20 1.001875 -0.000270 0.000000 0.000000 0.000000 -0.488692
    21 0.176275 -10.373125 -10.080679 -0.554979 0.255020 0.648698
    22 0.089929 -8.543161 0.000000 0.512980 0.031489 0.240363
    23 0.000000 -0.359712 0.000000 0.000000 0.000000 0.000000
    24 -0.170480 -2.636147 -0.277656 -1.692969 0.000000 0.000000
    25 0.010599 -1.261176 0.000001 -0.253073 0.000000 0.000000
    26 -0.000001 -0.943232 -0.000002 -0.532326 0.000000 0.000000
    27 -0.827563 -2.508973 -0.277657 -1.396263 0.000000 0.000000
    28 -0.000001 -1.292972 0.000000 -0.445059 0.000000 0.000000
    29 0.000000 -0.752466 -0.000001 -0.445059 0.000000 0.000000
    30 0.444211 -2.561960 -0.277656 -1.727307 -0.046226 -0.024599
    31 0.021020 -1.208185 0.000000 -0.427606 0.000000 0.000000
    32 0.010596 -0.741866 -0.000001 -0.453786 0.000000 0.000000
    33 1.047444 -2.222821 -0.277656 -1.508123 -0.078971 -0.038609
    34 0.000000 -0.996223 0.000000 -0.863938 0.000000 0.000000
    35 -0.000001 -0.614690 0.000000 -0.523599 0.000000 0.000000
    36 -0.308255 -0.007814 0.307166 -0.145110 -0.159878 -2.467082
    37 1.978379 0.019543 0.000000 -0.087921 -0.056961 -0.023672
    38 0.982426 0.003186 0.000000 0.000000 0.000000 0.418879
    39 -1.122644 -2.197476 -0.281120 -0.933746 0.000001 -0.087266
    40 0.007812 -0.964973 0.000001 -0.610853 0.000000 0.000000
    41 -0.007812 -0.630317 0.000000 -1.213004 0.000000 0.000000
  time 11
    0 8.606581 3.165656 -8.096399 -0.774287 -1.331380 0.567298
    1 0.000000 -8.563283 -0.000001 0.347509 -0.125220 -0.169570
    2 -0.834451 -3.073736 0.513625 -1.247037 1.437608 -1.233844
    3 0.000000 2.160510 0.950626 0.000000 0.000000 0.000000
    4 0.000000 -3.344303 1.710279 0.000000 0.000000 0.000000
    5 0.000000 -4.793800 0.448359 0.000000 0.000000 0.000000
    6 0.000000 -6.345618 1.761433 0.000000 0.000000 0.000000
    7 0.000000 -5.765820 2.989244 0.000000 0.000000 0.000000
    8 -0.003480 -0.404829 0.000000 0.000000 0.000000 0.000000
    9 -0.519309 -2.501155 -0.278957 -1.003564 0.000000 -0.122173
    10 -0.010598 -1.208185 0.000000 -1.090831 0.000000 0.000000
    11 0.000000 -0.763066 -0.000001 -1.343903 0.000000 0.000000
    12 0.105981 -2.607134 -0.278957 -0.890118 0.000000 -0.148353
    13 0.000000 -1.250579 0.000000 -1.213004 0.000000 0.000000
    14 0.000000 -0.932634 0.000000 -1.483530 0.000000 0.000000
    15 0.763064 -2.490557 -0.278957 -0.235619 0.000000 0.130900
    16 -0.012322 -1.280918 0.000000 -0.349066 0.000000 0.000000
    17 -0.001697 -0.749371 0.000000 -0.593412 0.000000 0.000000
    18 0.354567 0.016267 0.318133 0.342077 -0.443527 -1.083976
    19 1.887165 0.012878 0.000000 -0.305433 0.000000 -0.401426
    20 1.001875 -0.000270 0.000000 0.000000 0.000000 -0.488692
    21 0.176275 -10.373125 -10.080679 -0.554979 0.255020 0.648698
    22 0.089929 -8.543161 0.000000 0.512980 0.031489 0.240363
    23 0.000000 -0.359712 0.000000 0.000000 0.000000 0.000000
    24 -0.170480 -2.636147 -0.277656 -1.692969 0.000000 0.000000
    25 0.010599 -1.261176 0.000001 -0.253073 0.000000 0.000000
    26 -0.000001 -0.943232 -0.000002 -0.532326 0.000000 0.000000
    27 -0.827563 -2.508973 -0.277657 -1.396263 0.000000 0.000000
    28 -0.000001 -1.292972 0.000000 -0.445059 0.000000 0.000000
    29 0.000000 -0.752466 -0.000001 -0.445059 0.000000 0.000000
    30 0.444211 -2.561960 -0.277656 -1.727307 -0.046226 -0.024599
    31 0.021020 -1.208185 0.000000 -0.427606 0.000000 0.000000
    32 0.010596 -0.741866 -0.000001 -0.453786 0.000000 0.000000
    33 1.047444 -2.222821 -0.277656 -1.508123 -0.078971 -0.038609
    34 0.000000 -0.996223 0.000000 -0.863938 0.000000 0.000000
    35 -0.000001 -0.614690 0.000000 -0.523599 0.000000 0.000000
    36 -0.308255 -0.007814 0.307166 -0.145110 -0.159878 -2.467082
    37 1.978379 0.019543 0.000000 -0.087921 -0.056961 -0.023672
    38 0.982426 0.003186 0.000000 0.000000 0.000000 0.418879
    39 -1.122644 -2.197476 -0.281120 -0.933746 0.000001 -0.087266
    40 0.007812 -0.964973 0.000001 -0.610853 0.000000 0.000000
    41 -0.007812 -0.630317 0.000000 -1.213004 0.000000 0.000000
  time 12
    0 8.606581 3.165656 -8.096399 -0.774287 -1.331380 0.567298
    1 0.000000 -8.563283 -0.000001 0.347509 -0.125220 -0.169570
    2 -0.834451 -3.073736 0.513625 -1.247037 1.437608 -1.233844
    3 0.000000 2.160510 0.950626 0.000000 0.000000 0.000000
    4 0.000000 -3.344303 1.710279 0.000000 0.000000 0.000000
    5 0.000000 -4.793800 0.448359 0.000000 0.000000 0.000000
    6 0.000000 -6.345618 1.761433 0.000000 0.000000 0.000000
    7 0.000000 -5.765820 2.989244 0.000000 0.000000 0.000000
    8 -0.003480 -0.404829 0.000000 0.000000 0.000000 0.000000
    9 -0.519309 -2.501155 -0.278957 -1.003564 0.000000 -0.122173
    10 -0.010598 -1.208185 0.000000 -1.090831 0.000000 0.000000
    11 0.000000 -0.763066 -0.000001 -1.343903 0.000000 0.000000
    12 0.105981 -2.607134 -0.278957 -0.890118 0.000000 -0.148353
    13 0.000000 -1.250579 0.000000 -1.213004 0.000000 0.000000
    14 0.000000 -0.932634 0.000000 -1.483530 0.000000 0.000000
    15 0.763064 -2.490557 -0.278957 -0.235619 0.000000 0.130900
    16 -0.012322 -1.280918 0.000000 -0.349066 0.000000 0.000000
    17 -0.001697 -0.749371 0.000000 -0.593412 0.000000 0.000000
    18 0.354567 0.016267 0.318133 0.342077 -0.443527 -1.083976
    19 1.887165 0.012878 0.000000 -0.305433 0.000000 -0.401426
    20 1.001875 -0.000270 0.000000 0.000000 0.000000 -0.488692
    21 0.176275 -10.373125 -10.080679 -0.554979 0.255020 0.648698
    22 0.089929 -8.543161 0.000000 0.512980 0.031489 0.240363
    23 0.000000 -0.359712 0.000000 0.000000 0.000000 0.000000
    24 -0.170480 -2.636147 -0.277656 -1.692969 0.000000 0.000000
    25 0.010599 -1.261176 0.000001 -0.253073 0.000000 0.000000
    26 -0.000001 -0.943232 -0.000002 -0.532326 0.000000 0.000000
    27 -0.827563 -2.508973 -0.277657 -1.396263 0.000000 0.000000
    28 -0.000001 -1.292972 0.000000 -0.445059 0.000000 0.000000
    29 0.000000 -0.752466 -0.000001 -0.445059 0.000000 0.000000
    30 0.444211 -2.561960 -0.277656 -1.727307 -0.046226 -0.024599
    31 0.021020 -1.208185 0.000000 -0.427606 0.000000 0.000000
    32 0.010596 -0.741866 -0.000001 -0.453786 0.000000 0.000000
    33 1.047444 -2.222821 -0.277656 -1.508123 -0.078971 -0.038609
    34 0.000000 -0.996223 0.000000 -0.863938 0.000000 0.000000
    35 -0.000001 -0.614690 0.000000 -0.523599 0.000000 0.000000
    36 -0.308255 -0.007814 0.307166 -0.145110 -0.159878 -2.467082
    37 1.978379 0.019543 0.000000 -0.087921 -0.056961 -0.023672
    38 0.982426 0.003186 0.000000 0.000000 0.000000 0.418879
    39 -1.122644 -2.197476 -0.281120 -0.933746 0.000001 -0.087266
    40 0.007812 -0.964973 0.000001 -0.610853 0.000000 0.000000
    41 -0.007812 -0.630317 0.000000 -1.213004 0.000000 0.000000
  time 13
    0 8.606581 3.165656 -8.096399 -0.774287 -1.331380 0.567298
    1 0.000000 -8.563283 -0.000001 0.347509 -0.125220 -0.169570
    2 -0.834451 -3.073736 0.513625 -1.247037 1.437608 -1.233844
    3 0.000000 2.160510 0.950626 0.000000 0.000000 0.000000
    4 0.000000 -3.344303 1.710279 0.000000 0.000000 0.000000
    5 0.000000 -4.793800 0.448359 0.000000 0.000000 0.000000
    6 0.000000 -6.345618 1.761433 0.000000 0.000000 0.000000
    7 0.000000 -5.765820 2.989244 0.000000 0.000000 0.000000
    8 -0.003480 -0.404829 0.000000 0.000000 0.000000 0.000000
    9 -0.519309 -2.501155 -0.278957 -1.003564 0.000000 -0.122173
    10 -0.010598 -1.208185 0.000000 -1.090831 0.000000 0.000000
    11 0.000000 -0.763066 -0.000001 -1.343903 0.000000 0.000000
    12 0.105981 -2.607134 -0.278957 -0.890118 0.000000 -0.148353
    13 0.000000 -1.250579 0.000000 -1.213004 0.000000 0.000000
    14 0.000000 -0.932634 0.000000 -1.483530 0.000000 0.000000
    15 0.763064 -2.490557 -0.278957 -0.235619 0.000000 0.130900
    16 -0.012322 -1.280918 0.000000 -0.349066 0.000000 0.000000
    17 -0.001697 -0.749371 0.000000 -0.593412 0.000000 0.000000
    18 0.354567 0.016267 0.318133 0.342077 -0.443527 -1.083976
    19 1.887165 0.012878 0.000000 -0.305433 0.000000 -0.401426
    20 1.001875 -0.000270 0.000000 0.000000 0.000000 -0.488692
    21 0.176275 -10.373125 -10.080679 -0.554979 0.255020 0.648698
    22 0.089929 -8.543161 0.000000 0.512980 0.031489 0.240363
    23 0.000000 -0.359712 0.000000 0.000000 0.000000 0.000000
    24 -0.170480 -2.636147 -0.277656 -1.692969 0.000000 0.000000
    25 0.010599 -1.261176 0.000001 -0.253073 0.000000 0.000000
    26 -0.000001 -0.943232 -0.000002 -0.532326 0.000000 0.000000
    27 -0.827563 -2.508973 -0.277657 -1.396263 0.000000 0.000000
    28 -0.000001 -1.292972 0.000000 -0.445059 0.000000 0.000000
    29 0.000000 -0.752466 -0.000001 -0.445059 0.000000 0.000000
    30 0.444211 -2.561960 -0.277656 -1.727307 -0.046226 -0.024599
    31 0.021020 -1.208185 0.000000 -0.427606 0.000000 0.000000
    32 0.010596 -0.741866 -0.000001 -0.453786 0.000000 0.000000
    33 1.047444 -2.222821 -0.277656 -1.508123 -0.078971 -0.038609
    34 0.000000 -0.996223 0.000000 -0.863938 0.000000 0.000000
    35 -0.000001 -0.614690 0.000000 -0.523599 0.000000 0.000000
    36 -0.308255 -0.007814 0.307166 -0.145110 -0.159878 -2.467082
    37 1.978379 0.019543 0.000000 -0.087921 -0.056961 -0.023672
    38 0.982426 0.003186 0.000000 0.000000 0.000000 0.418879
    39 -1.122644 -2.197476 -0.281120 -0.933746 0.000001 -0.087266
    40 0.007812 -0.964973 0.000001 -0.610853 0.000000 0.000000
    41 -0.007812 -0.630317 0.000000 -1.213004 0.000000 0.000000
  time 14
    0 8.606581 3.165656 -8.096399 -0.774287 -1.331380 0.567298
    1 0.000000 -8.563283 -0.000001 0.347509 -0.125220 -0.169570
    2 -0.834451 -3.073736 0.513625 -1.247037 1.437608 -1.233844
    3 0.000000 2.160510 0.950626 0.000000 0.000000 0.000000
    4 0.000000 -3.344303 1.710279 0.000000 0.000000 0.000000
    5 0.000000 -4.793800 0.448359 0.000000 0.000000 0.000000
    6 0.000000 -6.345618 1.761433 0.000000 0.000000 0.000000
    7 0.000000 -5.765820 2.989244 0.000000 0.000000 0.000000
    8 -0.003480 -0.404829 0.000000 0.000000 0.000000 0.000000
    9 -0.519309 -2.501155 -0.278957 -1.003564 0.000000 -0.122173
    10 -0.010598 -1.208185 0.000000 -1.090831 0.000000 0.000000
    11 0.000000 -0.763066 -0.000001 -1.343903 0.000000 0.000000
    12 0.105981 -2.607134 -0.278957 -0.890118 0.000000 -0.148353
    13 0.000000 -1.250579 0.000000 -1.213004 0.000000 0.000000
    14 0.000000 -0.932634 0.000000 -1.483530 0.000000 0.000000
    15 0.763064 -2.490557 -0.278957 -0.235619 0.000000 0.130900
    16 -0.012322 -1.280918 0.000000 -0.349066 0.000000 0.000000
    17 -0.001697 -0.749371 0.000000 -0.593412 0.000000 0.000000
    18 0.354567 0.016267 0.318133 0.342077 -0.443527 -1.083976
    19 1.887165 0.012878 0.000000 -0.305433 0.000000 -0.401426
    20 1.001875 -0.000270 0.000000 0.000000 0.000000 -0.488692
    21 0.176275 -10.373125 -10.080679 -0.554979 0.255020 0.648698
    22 0.089929 -8.543161 0.000000 0.512980 0.031489 0.240363
    23 0.000000 -0.359712 0.000000 0.000000 0.000000 0.000000
    24 -0.170480 -2.636147 -0.277656 -1.692969 0.000000 0.000000
    25 0.010599 -1.261176 0.000001 -0.253073 0.000000 0.000000
    26 -0.000001 -0.943232 -0.000002 -0.532326 0.000000 0.000000
    27 -0.827563 -2.508973 -0.277657 -1.396263 0.000000 0.000000
    28 -0.000001 -1.292972 0.000000 -0.445059 0.000000 0.000000
    29 0.000000 -0.752466 -0.000001 -0.445059 0.000000 0.000000
    30 0.444211 -2.561960 -0.277656 -1.727307 -0.046226 -0.024599
    31 0.021020 -1.208185 0.000000 -0.427606 0.000000 0.000000
    32 0.010596 -0.741866 -0.000001 -0.453786 0.000000 0.000000
    33 1.047444 -2.222821 -0.277656 -1.508123 -0.078971 -0.038609
    34 0.000000 -0.996223 0.000000 -0.863938 0.000000 0.000000
    35 -0.000001 -0.614690 0.000000 -0.523599 0.000000 0.000000
    36 -0.308255 -0.007814 0.307166 -0.145110 -0.159878 -2.467082
    37 1.978379 0.019543 0.000000 -0.087921 -0.056961 -0.023672
    38 0.982426 0.003186 0.000000 0.000000 0.000000 0.418879
    39 -1.122644 -2.197476 -0.281120 -0.933746 0.000001 -0.087266
    40 0.007812 -0.964973 0.000001 -0.610853 0.000000 0.000000
    41 -0.007812 -0.630317 0.000000 -1.213004 0.000000 0.000000
  time 15
    0 8.606581 3.165656 -8.096399 -0.774287 -1.331380 0.567298
    1 0.000000 -8.563283 -0.000001 0.347509 -0.125220 -0.169570
    2 -0.834451 -3.073736 0.513625 -1.247037 1.437608 -1.233844
    3 0.000000 2.160510 0.950626 0.000000 0.000000 0.000000
    4 0.000000 -3.344303 1.710279 0.000000 0.000000 0.000000
    5 0.000000 -4.793800 0.448359 0.000000 0.000000 0.000000
    6 0.000000 -6.345618 1.761433 0.000000 0.000000 0.000000
    7 0.000000 -5.765820 2.989244 0.000000 0.000000 0.000000
    8 -0.003480 -0.404829 0.000000 0.000000 0.000000 0.000000
    9 -0.519309 -2.501155 -0.278957 -1.003564 0.000000 -0.122173
    10 -0.010598 -1.208185 0.000000 -1.090831 0.000000 0.000000
    11 0.000000 -0.763066 -0.000001 -1.343903 0.000000 0.000000
    12 0.105981 -2.607134 -0.278957 -0.890118 0.000000 -0.148353
    13 0.000000 -1.250579 0.000000 -1.213004 0.000000 0.000000
    14 0.000000 -0.932634 0.000000 -1.483530 0.000000 0.000000
    15 0.763064 -2.490557 -0.278957 -0.235619 0.000000 0.130900
    16 -0.012322 -1.280918 0.000000 -0.349066 0.000000 0.000000
    17 -0.001697 -0.749371 0.000000 -0.593412 0.000000 0.000000
    18 0.354567 0.016267 0.318133 0.342077 -0.443527 -1.083976
    19 1.887165 0.012878 0.000000 -0.305433 0.000000 -0.401426
    20 1.001875 -0.000270 0.000000 0.000000 0.000000 -0.488692
    21 0.176275 -10.373125 -10.080679 -0.554979 0.255020 0.648698
    22 0.089929 -8.543161 0.000000 0.512980 0.031489 0.240363
    23 0.000000 -0.359712 0.000000 0.000000 0.000000 0.000000
    24 -0.170480 -2.636147 -0.277656 -1.692969 0.000000 0.000000
    25 0.010599 -1.261176 0.000001 -0.253073 0.000000 0.000000
    26 -0.000001 -0.943232 -0.000002 -0.532326 0.000000 0.000000
    27 -0.827563 -2.508973 -0.277657 -1.396263 0.000000 0.000000
    28 -0.000001 -1.292972 0.000000 -0.445059 0.000000 0.000000
    29 0.000000 -0.752466 -0.000001 -0.445059 0.000000 0.000000
    30 0.444211 -2.561960 -0.277656 -1.727307 -0.046226 -0.024599
    31 0.021020 -1.208185 0.000000 -0.427606 0.000000 0.000000
    32 0.010596 -0.741866 -0.000001 -0.453786 0.000000 0.000000
    33 1.047444 -2.222821 -0.277656 -1.508123 -0.078971 -0.038609
    34 0.000000 -0.996223 0.000000 -0.863938 0.000000 0.000000
    35 -0.000001 -0.614690 0.000000 -0.523599 0.000000 0.000000
    36 -0.308255 -0.007814 0.307166 -0.145110 -0.159878 -2.467082
    37 1.978379 0.019543 0.000000 -0.087921 -0.056961 -0.023672
    38 0.982426 0.003186 0.000000 0.000000 0.000000 0.418879
    39 -1.122644 -2.197476 -0.281120 -0.933746 0.000001 -0.087266
    40 0.007812 -0.964973 0.000001 -0.610853 0.000000 0.000000
    41 -0.007812 -0.630317 0.000000 -1.213004 0.000000 0.000000
  time 16
    0 8.606581 3.165656 -8.096399 -0.774287 -1.331380 0.567298
    1 0.000000 -8.563283 -0.000001 0.347509 -0.125220 -0.169570
    2 -0.834451 -3.073736 0.513625 -1.247037 1.437608 -1.233844
    3 0.000000 2.160510 0.950626 0.000000 0.000000 0.000000
    4 0.000000 -3.344303 1.710279 0.000000 0.000000 0.000000
    5 0.000000 -4.793800 0.448359 0.000000 0.000000 0.000000
    6 0.000000 -6.345618 1.761433 0.000000 0.000000 0.000000
    7 0.000000 -5.765820 2.989244 0.000000 0.000000 0.000000
    8 -0.003480 -0.404829 0.000000 0.000000 0.000000 0.000000
    9 -0.519309 -2.501155 -0.278957 -1.003564 0.000000 -0.122173
    10 -0.010598 -1.208185 0.000000 -1.090831 0.000000 0.000000
    11 0.000000 -0.763066 -0.000001 -1.343903 0.000000 0.000000
    12 0.105981 -2.607134 -0.278957 -0.890118 0.000000 -0.148353
    13 0.000000 -1.250579 0.000000 -1.213004 0.000000 0.000000
    14 0.000000 -0.932634 0.000000 -1.483530 0.000000 0.000000
    15 0.763064 -2.490557 -0.278957 -0.235619 0.000000 0.130900
    16 -0.012322 -1.280918 0.000000 -0.349066 0.000000 0.000000
    17 -0.001697 -0.749371 0.000000 -0.593412 0.000000 0.000000
    18 0.354567 0.016267 0.318133 0.342077 -0.443527 -1.083976
    19 1.887165 0.012878 0.000000 -0.305433 0.000000 -0.401426
    20 1.001875 -0.000270 0.000000 0.000000 0.000000 -0.488692
    21 0.176275 -10.373125 -10.080679 -0.554979 0.255020 0.648698
    22 0.089929 -8.543161 0.000000 0.512980 0.031489 0.240363
    23 0.000000 -0.359712 0.000000 0.000000 0.000000 0.000000
    24 -0.170480 -2.636147 -0.277656 -1.692969 0.000000 0.000000
    25 0.010599 -1.261176 0.000001 -0.253073 0.000000 0.000000
    26 -0.000001 -0.943232 -0.000002 -0.532326 0.000000 0.000000
    27 -0.827563 -2.508973 -0.277657 -1.396263 0.000000 0.000000
    28 -0.000001 -1.292972 0.000000 -0.445059 0.000000 0.000000
    29 0.000000 -0.752466 -0.000001 -0.445059 0.000000 0.000000
    30 0.444211 -2.561960 -0.277656 -1.727307 -0.046226 -0.024599
    31 0.021020 -1.208185 0.000000 -0.427606 0.000000 0.000000
    32 0.010596 -0.741866 -0.000001 -0.453786 0.000000 0.000000
    33 1.047444 -2.222821 -0.277656 -1.508123 -0.078971 -0.038609
    34 0.000000 -0.996223 0.000000 -0.863938 0.000000 0.000000
    35 -0.000001 -0.614690 0.000000 -0.523599 0.000000 0.000000
    36 -0.308255 -0.007814 0.307166 -0.145110 -0.159878 -2.467082
    37 1.978379 0.019543 0.000000 -0.087921 -0.056961 -0.023672
    38 0.982426 0.003186 0.000000 0.000000 0.000000 0.418879
    39 -1.122644 -2.197476 -0.281120 -0.933746 0.000001 -0.087266
    40 0.007812 -0.964973 0.000001 -0.610853 0.000000 0.000000
    41 -0.007812 -0.630317 0.000000 -1.213004 0.000000 0.000000
end
