// Created by Crowbar 0.49.0.0

$modelname "weapons/tfa_cso/c_gunkata.mdl"

$Include "csonline_gmod.qci"

$bodygroup "weapon"
{
	studio "v_gunkata_ref_left"
}
$bodygroup "weapon"
{
	studio "v_gunkata_ref_left2"
}
$bodygroup "weapon"
{
	studio "v_gunkata_ref_right"
}
$bodygroup "weapon"
{
	studio "v_gunkata_ref_right2"
}
$bodygroup "fx"
{
	studio "v_gunkata_ref_fx01"
}
$bodygroup "fx"
{
	studio "v_gunkata_ref_fx02"
}

$CDMaterials "models\weapons\tfa_cso\gunkata\"

$attachment 0 "gunkata_root" 2.557 0 8.776
//$attachment 1 "gunkata_root" 2.585 -0.953 0.953
$attachment 2 "gunkata_root001" 2.557 0 8.776
//$attachment 3 "gunkata_root001" 2.585 0.953 0.953
//$attachment 4 "root" -1 -25 0
//$attachment 5 "root" 1 -26 0.2

$definebone "gunkata_root001" "" -10.000000 0.000000 0.000000 -89.999983 89.999983 0.000000 0.000000 0.000000 0.000000 -0.000000 0.000000 0.000000
$definebone "gunkata_root" "" 0.000000 0.000000 0.000000 -89.999983 89.999983 0.000000 0.000000 0.000000 0.000000 -0.000000 0.000000 0.000000
$definebone "slide" "gunkata_root" 3.096915 -0.000001 -3.559005 -89.980216 -179.999966 0.000000 0.000000 0.000000 0.000000 -0.000000 0.000000 -0.000000
$definebone "gunkata_knife" "gunkata_root" -3.157606 0.000000 -1.771385 -0.000000 0.000000 0.000000 0.000000 0.000000 0.000000 -0.000000 0.000000 0.000000
$definebone "kata_triger" "gunkata_root" 1.347458 0.000000 -0.036606 -0.000036 180.000007 -179.999939 0.000000 0.000000 0.000000 0.000000 0.000000 0.000000
$definebone "kata_2" "gunkata_root" 2.980681 -0.000001 -3.026972 -0.000000 0.000000 0.000000 0.000000 0.000000 0.000000 -0.000000 0.000000 0.000000
$definebone "gunkata_megazine" "gunkata_root" -2.772562 0.000000 -3.715392 -27.441356 0.000000 0.000000 0.000000 0.000000 0.000000 0.000000 0.000000 0.000000
$definebone "slide001" "gunkata_root001" 3.096915 -0.000002 -3.559005 -89.980216 -179.999966 0.000000 0.000000 0.000000 0.000000 -0.000000 0.000000 -0.000000
$definebone "gunkata_knife001" "gunkata_root001" -3.157606 0.000002 -1.771385 -0.000000 0.000000 0.000000 0.000000 0.000000 0.000000 -0.000000 0.000000 0.000000
$definebone "kata_triger001" "gunkata_root001" 1.347458 0.000000 -0.036606 -0.000036 180.000007 -179.999939 0.000000 0.000000 0.000000 0.000000 0.000000 0.000000
$definebone "kata_005" "gunkata_root001" 2.980681 -0.000001 -3.026972 -0.000000 0.000000 0.000000 0.000000 0.000000 0.000000 -0.000000 0.000000 0.000000
$definebone "gunkata_megazine001" "gunkata_root001" -2.772562 -0.000001 -3.715392 -27.441356 0.000000 0.000000 -0.000000 0.000000 0.000000 0.000000 0.000000 0.000000
$definebone "fx01" "" -2.190114 12.446608 0.000000 0.000036 -180.000007 -179.999939 0.000000 0.000000 0.000000 -0.000000 0.000000 0.000000
$definebone "fx02" "" -2.190114 12.446608 0.000000 0.000036 -180.000007 -179.999939 0.000000 0.000000 0.000000 -0.000000 0.000000 0.000000
$definebone "trail01" "" 19.098476 35.886223 -5.245475 -58.127253 -76.379397 56.506415 0.000000 0.000000 0.000000 -0.000000 -0.000001 0.000002
$definebone "trail02" "trail01" 0.000002 40.432777 -0.000011 -0.000000 -0.000001 0.000002 0.000002 -0.000008 0.000000 -0.000000 -0.000001 0.000002

$sequence "idle" {
	"v_gunkata_anims\idle"
	fps 30
	snap
}
$sequence "idle2" {
	"v_gunkata_anims\idle2"
	fps 30
	snap
}
$sequence "shoot" {
	"v_gunkata_anims\shoot"
	{ event 5001 0 "#I77 S0.06 R2 F0 P30 T0.1 A1 L0 O0 X0" }
	fps 30
	snap
}
$sequence "shoot_last" {
	"v_gunkata_anims\shoot_last"
	{ event 5001 0 "#I77 S0.06 R2 F0 P30 T0.1 A1 L0 O0 X0" }
	fps 30
	snap
}
$sequence "shoot2" {
	"v_gunkata_anims\shoot2"
	{ event 5021 0 "#I77 S0.06 R2 F0 P60 T0.1 A1 L0 O0 X2" }
	fps 30
	snap
}
$sequence "shoot2_last" {
	"v_gunkata_anims\shoot2_last"
	{ event 5021 0 "#I77 S0.06 R2 F0 P60 T0.1 A1 L0 O0 X2" }
	fps 30
	snap
}
$sequence "reload" {
	"v_gunkata_anims\reload"
	{ event 5004 1 "Gunkata.Reload" }
	fps 30
	snap
}
$sequence "reload2" {
	"v_gunkata_anims\reload2"
	{ event 5004 3 "Gunkata.Reload2" }
	fps 30
	snap
}
$sequence "draw" {
	"v_gunkata_anims\draw"
	{ event 5004 1 "Gunkata.Draw" }
	fps 30
	snap
}
$sequence "draw2" {
	"v_gunkata_anims\draw2"
	{ event 5004 1 "Gunkata.Draw2" }
	fps 30
	snap
}
$sequence "skill_01" {
	"v_gunkata_anims\skill_01"
	{ event 5004 1 "Gunkata.Skill1" }
	fps 30
	snap
}
$sequence "skill_02" {
	"v_gunkata_anims\skill_02"
	{ event 5004 1 "Gunkata.Skill2" }
	fps 30
	snap
}
$sequence "skill_03" {
	"v_gunkata_anims\skill_03"
	{ event 5004 1 "Gunkata.Skill3" }
	{ event 5001 3 "#I77 S0.06 R2 F0 P30 T0.1 A1 L0 O0" }
	fps 30
	snap
}
$sequence "skill_04" {
	"v_gunkata_anims\skill_04"
	{ event 5004 1 "Gunkata.Skill4" }
	{ event 5021 24 "#I77 S0.06 R2 F0 P30 T0.1 A1 L0 O0" }
	fps 30
	snap
}
$sequence "skill_05" {
	"v_gunkata_anims\skill_05"
	{ event 5004 1 "Gunkata.Skill5" }
	fps 30
	snap
}
$sequence "skill_last" {
	"v_gunkata_anims\skill_last"
	{ event 5004 1 "Gunkata.Skilllast" }
	fps 30
	snap
}
