version 1
nodes
  0 "root" -1
  1 "Bone01" 0
  2 "Bone_Lefthand" 1
  3 "Bone02" 2
  4 "Bone47" 3
  5 "Bone49" 3
  6 "Bone26" 3
  7 "Bone24" 3
  8 "Dummy01" 3
  9 "Bone08" 8
  10 "Bone16" 8
  11 "Bone34" 3
  12 "Bone38" 11
  13 "Bone42" 12
  14 "Bone_L_Upper" 1
  15 "Bone13" 2
  16 "Bone14" 15
  17 "Bone15" 16
  18 "Bone17" 2
  19 "Bone18" 18
  20 "Bone19" 19
  21 "Bone21" 2
  22 "Bone22" 21
  23 "Bone23" 22
  24 "Bone09" 2
  25 "Bone10" 24
  26 "Bone11" 25
  27 "Bone05" 2
  28 "Bone06" 27
  29 "Bone07" 28
  30 "Bone_Se_Hand-L" 2
  31 "Bone04" 0
  32 "Bone_Righthand" 31
  33 "Bone39" 32
  34 "Bone40" 33
  35 "Bone41" 34
  36 "Bone35" 32
  37 "Bone36" 36
  38 "Bone37" 37
  39 "Bone31" 32
  40 "Bone32" 39
  41 "Bone33" 40
  42 "Bone43" 32
  43 "Bone44" 42
  44 "Bone45" 43
  45 "Bone27" 32
  46 "Bone28" 45
  47 "Bone29" 46
  48 "Bone_Se_Hand-R" 32
  49 "Bone_R_Upper" 31
end
skeleton
  time 0
    0 -1.701054 -1.756239 3.259746 0.000000 0.000000 0.000000
    1 9.213061 4.706442 -8.820692 -0.139891 -1.665450 -0.055872
    2 -0.071918 -8.498730 -0.104137 0.150845 0.279811 0.049468
    3 2.902373 -1.028308 1.363887 0.246174 3.088492 1.568953
    4 9.016968 -0.977799 -0.495297 1.570796 1.570796 0.000000
    5 4.408684 -0.044232 0.000002 0.000001 0.000000 -1.570796
    6 3.872081 1.346180 0.000001 0.000000 0.000000 2.043748
    7 6.106668 1.919336 0.000002 0.000000 0.000000 1.570795
    8 7.604102 4.136611 0.000002 0.000001 0.000000 1.348977
    9 23.985891 20.395915 -0.074224 -0.000001 0.000000 0.000000
    10 0.000000 0.000000 0.000000 0.000000 0.000000 0.000000
    11 1.218365 -1.897359 0.000000 0.000002 0.000001 -1.685017
    12 0.585307 -0.000003 0.000000 -0.000002 0.000000 -0.249335
    13 0.606010 0.000000 0.000000 -0.000002 0.000000 -0.267288
    14 1.257180 8.762585 -0.153713 -1.570562 0.002683 -1.566807
    15 -0.488518 -2.755602 -0.228260 -0.871614 -0.202562 -0.209541
    16 0.039887 -1.479790 0.029854 -2.058952 0.000000 0.000001
    17 0.028786 -1.075731 -0.023109 -0.606348 0.000000 0.000000
    18 0.250027 -2.820665 -0.238396 -0.797118 -0.167517 -0.114938
    19 -0.049759 -1.680544 0.100479 -1.934764 0.000000 -0.000002
    20 -0.034142 -1.148312 0.084782 -0.925906 0.000000 0.000000
    21 0.957766 -2.746780 -0.090302 0.020255 -0.194156 0.008841
    22 -0.033420 -1.397129 -0.011257 -1.230839 0.000000 -0.000001
    23 -0.022360 -0.957436 0.018784 -0.975516 0.000000 0.000000
    24 -1.180681 -2.507217 -0.193859 -0.671429 -0.081516 -0.261329
    25 -0.024967 -1.123934 0.017597 -2.056303 0.000000 0.000001
    26 -0.020057 -0.890968 0.010090 -0.677843 0.000000 0.000000
    27 0.583510 -1.197277 0.185379 0.180209 -0.812070 -1.291294
    28 1.535927 0.010246 0.005009 -0.002964 -0.012979 -0.506650
    29 1.100771 0.004527 -0.010679 -0.015488 -0.004784 -1.694062
    30 0.120153 -0.050270 -0.054489 0.287569 3.110905 1.561085
    31 -0.399679 -9.063408 -13.470444 0.476868 -3.297858 0.922708
    32 0.096944 -8.450418 -0.009365 -0.171351 -1.236953 0.379483
    33 0.447953 -2.798986 -0.200443 -1.198628 -0.014267 0.163836
    34 -0.032909 -1.480204 0.004940 -1.683884 0.000000 0.000002
    35 -0.027022 -1.076920 -0.020210 -0.971708 0.000000 0.000000
    36 -0.249534 -2.846964 -0.174213 -1.022486 0.040910 0.105577
    37 0.043235 -1.683941 0.096012 -1.580584 0.002823 -0.000167
    38 0.031729 -1.160830 0.058838 -1.629035 0.000642 0.008372
    39 -0.963866 -2.785145 -0.085350 -0.988719 0.073698 0.103385
    40 0.028479 -1.403067 0.006271 -1.327033 0.000000 0.000000
    41 0.021413 -0.957781 0.020046 -1.350994 0.000000 0.000000
    42 1.164475 -2.543940 -0.170330 -1.206683 -0.190581 0.231608
    43 0.024032 -1.129042 0.017807 -1.338123 0.000000 0.000001
    44 0.014898 -0.883989 -0.019848 -1.030508 0.000000 0.000000
    45 -0.586770 -1.264477 0.200161 0.369677 -0.600720 -2.485807
    46 1.522835 0.058681 0.016848 0.001410 0.008985 0.795215
    47 1.117947 0.048424 -0.005766 -0.022295 -0.011751 1.141767
    48 -0.139399 -0.111698 0.014397 0.879007 0.019582 1.538885
    49 -1.393470 8.839177 -0.239433 1.580804 -0.005023 -1.566847
  time 1
    0 -1.701054 -1.756239 3.259746 0.000000 0.000000 0.000000
    1 9.232593 5.257240 -8.789441 0.004872 -1.710521 -0.200804
    2 -0.071918 -8.498730 -0.104137 0.150845 0.279811 0.049468
    3 2.902373 -1.028308 1.363887 0.246174 3.088492 1.568953
    4 9.016968 -0.977799 -0.495297 1.570796 1.570796 0.000000
    5 4.408684 -0.044232 0.000002 0.000001 0.000000 -1.570796
    6 3.872081 1.346180 0.000001 0.000000 0.000000 2.043748
    7 6.106668 1.919336 0.000002 0.000000 0.000000 1.570795
    8 7.604102 4.136611 0.000002 0.000001 0.000000 1.348977
    9 23.985891 20.395915 -0.074224 -0.000001 0.000000 0.000000
    10 0.000000 0.000000 0.000000 0.000000 0.000000 0.000000
    11 1.218365 -1.897359 0.000000 0.000002 0.000001 -1.685017
    12 0.585307 -0.000003 0.000000 -0.000002 0.000000 -0.249335
    13 0.606010 0.000000 0.000000 -0.000002 0.000000 -0.267288
    14 1.257180 8.762585 -0.153713 -1.570562 0.002683 -1.566807
    15 -0.488518 -2.755602 -0.228260 -0.871614 -0.202562 -0.209541
    16 0.039887 -1.479790 0.029854 -2.058952 0.000000 0.000001
    17 0.028786 -1.075731 -0.023109 -0.606348 0.000000 0.000000
    18 0.250027 -2.820665 -0.238396 -0.797118 -0.167517 -0.114938
    19 -0.049759 -1.680544 0.100479 -1.934764 0.000000 -0.000002
    20 -0.034142 -1.148312 0.084782 -0.925906 0.000000 0.000000
    21 0.957766 -2.746780 -0.090302 0.020255 -0.194156 0.008841
    22 -0.033420 -1.397129 -0.011257 -1.230839 0.000000 -0.000001
    23 -0.022360 -0.957436 0.018784 -0.975516 0.000000 0.000000
    24 -1.180681 -2.507217 -0.193859 -0.671429 -0.081516 -0.261329
    25 -0.024967 -1.123934 0.017597 -2.056303 0.000000 0.000001
    26 -0.020057 -0.890968 0.010090 -0.677843 0.000000 0.000000
    27 0.583510 -1.197277 0.185379 0.180209 -0.812070 -1.291294
    28 1.535927 0.010246 0.005009 -0.002964 -0.012979 -0.506650
    29 1.100771 0.004527 -0.010679 -0.015488 -0.004784 -1.694062
    30 0.120153 -0.050270 -0.054489 0.287569 3.110905 1.561085
    31 -0.196548 -8.606363 -13.532946 0.524920 -3.305330 0.929300
    32 0.096944 -8.450418 -0.009365 -0.171351 -1.236953 0.379483
    33 0.447953 -2.798986 -0.200443 -1.198628 -0.014267 0.163836
    34 -0.032909 -1.480204 0.004940 -1.683884 0.000000 0.000002
    35 -0.027022 -1.076920 -0.020210 -0.971708 0.000000 0.000000
    36 -0.249534 -2.846964 -0.174213 -1.022486 0.040910 0.105577
    37 0.043235 -1.683941 0.096012 -1.580584 0.002823 -0.000167
    38 0.031729 -1.160830 0.058838 -1.629035 0.000642 0.008372
    39 -0.963866 -2.785145 -0.085350 -0.988719 0.073698 0.103385
    40 0.028479 -1.403067 0.006271 -1.327033 0.000000 0.000000
    41 0.021413 -0.957781 0.020046 -1.350994 0.000000 0.000000
    42 1.164475 -2.543940 -0.170330 -1.206683 -0.190581 0.231608
    43 0.024032 -1.129042 0.017807 -1.338123 0.000000 0.000001
    44 0.014898 -0.883989 -0.019848 -1.030508 0.000000 0.000000
    45 -0.586770 -1.264477 0.200161 0.369677 -0.600720 -2.485807
    46 1.522835 0.058681 0.016848 0.001410 0.008985 0.795215
    47 1.117947 0.048424 -0.005766 -0.022295 -0.011751 1.141767
    48 -0.139399 -0.111698 0.014397 0.879007 0.019582 1.538885
    49 -1.393470 8.839177 -0.239433 1.580804 -0.005023 -1.566847
  time 2
    0 -1.701054 -1.756239 3.259746 0.000000 0.000000 0.000000
    1 9.244312 5.526779 -8.734752 0.069304 -1.730277 -0.265283
    2 -0.071918 -8.498730 -0.104137 0.150845 0.279811 0.049468
    3 2.902373 -1.028308 1.363887 0.246174 3.088492 1.568953
    4 9.016968 -0.977799 -0.495297 1.570796 1.570796 0.000000
    5 4.408684 -0.044232 0.000002 0.000001 0.000000 -1.570796
    6 3.872081 1.346180 0.000001 0.000000 0.000000 2.043748
    7 6.106668 1.919336 0.000002 0.000000 0.000000 1.570795
    8 7.604102 4.136611 0.000002 0.000001 0.000000 1.348977
    9 23.985891 20.395915 -0.074224 -0.000001 0.000000 0.000000
    10 0.000000 0.000000 0.000000 0.000000 0.000000 0.000000
    11 1.218365 -1.897359 0.000000 0.000002 0.000001 -1.685017
    12 0.585307 -0.000003 0.000000 -0.000002 0.000000 -0.249335
    13 0.606010 0.000000 0.000000 -0.000002 0.000000 -0.267288
    14 1.257180 8.762585 -0.153713 -1.570562 0.002683 -1.566807
    15 -0.488518 -2.755602 -0.228260 -0.871614 -0.202562 -0.209541
    16 0.039887 -1.479790 0.029854 -2.058952 0.000000 0.000001
    17 0.028786 -1.075731 -0.023109 -0.606348 0.000000 0.000000
    18 0.250027 -2.820665 -0.238396 -0.797118 -0.167517 -0.114938
    19 -0.049759 -1.680544 0.100479 -1.934764 0.000000 -0.000002
    20 -0.034142 -1.148312 0.084782 -0.925906 0.000000 0.000000
    21 0.957766 -2.746780 -0.090302 0.020255 -0.194156 0.008841
    22 -0.033420 -1.397129 -0.011257 -1.230839 0.000000 -0.000001
    23 -0.022360 -0.957436 0.018784 -0.975516 0.000000 0.000000
    24 -1.180681 -2.507217 -0.193859 -0.671429 -0.081516 -0.261329
    25 -0.024967 -1.123934 0.017597 -2.056303 0.000000 0.000001
    26 -0.020057 -0.890968 0.010090 -0.677843 0.000000 0.000000
    27 0.583510 -1.197277 0.185379 0.180209 -0.812070 -1.291294
    28 1.535927 0.010246 0.005009 -0.002964 -0.012979 -0.506650
    29 1.100771 0.004527 -0.010679 -0.015488 -0.004784 -1.694062
    30 0.120153 -0.050270 -0.054489 0.287569 3.110905 1.561085
    31 -0.110608 -8.395419 -13.443100 0.547154 -3.304276 0.932125
    32 0.096944 -8.450418 -0.009365 -0.171351 -1.236953 0.379483
    33 0.447953 -2.798986 -0.200443 -1.198628 -0.014267 0.163836
    34 -0.032909 -1.480204 0.004940 -1.683884 0.000000 0.000002
    35 -0.027022 -1.076920 -0.020210 -0.971708 0.000000 0.000000
    36 -0.249534 -2.846964 -0.174213 -1.022486 0.040910 0.105577
    37 0.043235 -1.683941 0.096012 -1.580584 0.002823 -0.000167
    38 0.031729 -1.160830 0.058838 -1.629035 0.000642 0.008372
    39 -0.963866 -2.785145 -0.085350 -0.988719 0.073698 0.103385
    40 0.028479 -1.403067 0.006271 -1.327033 0.000000 0.000000
    41 0.021413 -0.957781 0.020046 -1.350994 0.000000 0.000000
    42 1.164475 -2.543940 -0.170330 -1.206683 -0.190581 0.231608
    43 0.024032 -1.129042 0.017807 -1.338123 0.000000 0.000001
    44 0.014898 -0.883989 -0.019848 -1.030508 0.000000 0.000000
    45 -0.586770 -1.264477 0.200161 0.369677 -0.600720 -2.485807
    46 1.522835 0.058681 0.016848 0.001410 0.008985 0.795215
    47 1.117947 0.048424 -0.005766 -0.022295 -0.011751 1.141767
    48 -0.139399 -0.111698 0.014397 0.879007 0.019582 1.538885
    49 -1.393470 8.839177 -0.239433 1.580804 -0.005023 -1.566847
  time 3
    0 -1.701054 -1.756239 3.259746 0.000000 0.000000 0.000000
    1 9.236500 5.397869 -8.488650 0.034255 -1.692170 -0.230117
    2 -0.071918 -8.498730 -0.104137 0.150845 0.279811 0.049468
    3 2.902373 -1.028308 1.363887 0.246174 3.088492 1.568953
    4 9.016968 -0.977799 -0.495297 1.570796 1.570796 0.000000
    5 4.408684 -0.044232 0.000002 0.000001 0.000000 -1.570796
    6 3.872081 1.346180 0.000001 0.000000 0.000000 1.921119
    7 6.106668 1.919336 0.000002 0.000000 0.000000 1.570795
    8 7.604102 4.136611 0.000002 0.000001 0.000000 1.348977
    9 23.985891 20.395915 -0.074224 -0.000001 0.000000 0.000000
    10 0.000000 0.000000 0.000000 0.000000 0.000000 0.000000
    11 1.218365 -1.897359 0.000000 0.000002 0.000001 -1.685017
    12 0.585307 -0.000003 0.000000 -0.000002 0.000000 -0.249335
    13 0.606010 0.000000 0.000000 -0.000002 0.000000 -0.267288
    14 1.257180 8.762585 -0.153713 -1.570562 0.002683 -1.566807
    15 -0.488518 -2.755602 -0.228260 -0.871614 -0.202562 -0.209541
    16 0.039887 -1.479790 0.029854 -2.058952 0.000000 0.000001
    17 0.028786 -1.075731 -0.023109 -0.606348 0.000000 0.000000
    18 0.250027 -2.820665 -0.238396 -0.797118 -0.167517 -0.114938
    19 -0.049759 -1.680544 0.100479 -1.934764 0.000000 -0.000002
    20 -0.034142 -1.148312 0.084782 -0.925879 0.000000 0.000000
    21 0.957766 -2.746780 -0.090302 0.020255 -0.194156 0.008841
    22 -0.033420 -1.397129 -0.011257 -1.046823 0.000000 -0.000001
    23 -0.022360 -0.957436 0.018784 -0.975516 0.000000 0.000000
    24 -1.180681 -2.507217 -0.193859 -0.671429 -0.081516 -0.261329
    25 -0.024967 -1.123934 0.017597 -2.056303 0.000000 0.000001
    26 -0.020057 -0.890968 0.010090 -0.677843 0.000000 0.000000
    27 0.583510 -1.197277 0.185379 0.180209 -0.812070 -1.291294
    28 1.535927 0.010246 0.005009 -0.002964 -0.012979 -0.506650
    29 1.100771 0.004527 -0.010679 -0.015488 -0.004784 -1.694062
    30 0.120153 -0.050270 -0.054489 0.287569 3.110905 1.561085
    31 -0.278582 -8.461827 -13.056369 0.509608 -3.294218 0.926663
    32 0.096944 -8.450418 -0.009365 -0.171351 -1.236953 0.379483
    33 0.447953 -2.798986 -0.200443 -1.198628 -0.014267 0.163836
    34 -0.032909 -1.480204 0.004940 -1.683884 0.000000 0.000002
    35 -0.027022 -1.076920 -0.020210 -0.971708 0.000000 0.000000
    36 -0.249534 -2.846964 -0.174213 -1.022486 0.040910 0.105577
    37 0.043235 -1.683941 0.096012 -1.580584 0.002823 -0.000167
    38 0.031729 -1.160830 0.058838 -1.629035 0.000642 0.008372
    39 -0.963866 -2.785145 -0.085350 -0.988719 0.073698 0.103385
    40 0.028479 -1.403067 0.006271 -1.327033 0.000000 0.000000
    41 0.021413 -0.957781 0.020046 -1.350994 0.000000 0.000000
    42 1.164475 -2.543940 -0.170330 -1.206683 -0.190581 0.231608
    43 0.024032 -1.129042 0.017807 -1.338123 0.000000 0.000001
    44 0.014898 -0.883989 -0.019848 -1.030508 0.000000 0.000000
    45 -0.586770 -1.264477 0.200161 0.369677 -0.600720 -2.485807
    46 1.522835 0.058681 0.016848 0.001410 0.008985 0.795215
    47 1.117947 0.048424 -0.005766 -0.022295 -0.011751 1.141767
    48 -0.139399 -0.111698 0.014397 0.879007 0.019582 1.538885
    49 -1.393470 8.839177 -0.239433 1.580804 -0.005023 -1.566847
  time 4
    0 -1.701054 -1.756239 3.259746 0.000000 0.000000 0.000000
    1 9.220874 5.100985 -8.187860 -0.137530 -1.634187 -0.058245
    2 -0.071918 -8.498730 -0.104137 0.150845 0.279811 0.049468
    3 2.902373 -1.028308 1.363887 0.246174 3.088492 1.568953
    4 12.020966 -0.977799 -0.495297 1.570796 1.570796 0.000000
    5 4.408684 -0.044232 0.000002 0.000001 0.000000 -1.570796
    6 3.872081 1.346180 0.000001 0.000000 0.000000 1.693412
    7 6.106668 1.919336 0.000002 0.000000 0.000000 1.570795
    8 7.604102 4.136611 0.000002 0.000001 0.000000 1.348977
    9 23.985891 20.395915 -0.074224 -0.000001 0.000000 0.000000
    10 0.000000 0.000000 0.000000 0.000000 0.000000 0.000000
    11 1.218365 -1.897359 0.000000 0.000002 0.000001 -1.685017
    12 0.585307 -0.000003 0.000000 -0.000002 0.000000 -0.249335
    13 0.606010 0.000000 0.000000 -0.000002 0.000000 -0.267288
    14 1.257180 8.762585 -0.153713 -1.570562 0.002683 -1.566807
    15 -0.488518 -2.755602 -0.228260 -0.871614 -0.202562 -0.209541
    16 0.039887 -1.479790 0.029854 -2.058952 0.000000 0.000001
    17 0.028786 -1.075731 -0.023109 -0.606348 0.000000 0.000000
    18 0.250027 -2.820665 -0.238396 -0.797118 -0.167517 -0.114938
    19 -0.049759 -1.680544 0.100479 -1.934764 0.000000 -0.000002
    20 -0.034142 -1.148312 0.084782 -0.925879 0.000000 0.000000
    21 0.957766 -2.746780 -0.090302 0.020255 -0.194156 0.008841
    22 -0.033420 -1.397129 -0.011257 -0.705040 0.000000 -0.000001
    23 -0.022360 -0.957436 0.018784 -0.975516 0.000000 0.000000
    24 -1.180681 -2.507217 -0.193859 -0.671429 -0.081516 -0.261329
    25 -0.024967 -1.123934 0.017597 -2.056303 0.000000 0.000001
    26 -0.020057 -0.890968 0.010090 -0.677843 0.000000 0.000000
    27 0.583510 -1.197277 0.185379 0.180209 -0.812070 -1.291294
    28 1.535927 0.010246 0.005009 -0.002964 -0.012979 -0.506650
    29 1.100771 0.004527 -0.010679 -0.015488 -0.004784 -1.694062
    30 0.120153 -0.050270 -0.054489 0.287569 3.110905 1.561085
    31 -0.528589 -8.661052 -12.560260 0.450725 -3.280232 0.918942
    32 0.096944 -8.450418 -0.009365 -0.171351 -1.236953 0.379483
    33 0.447953 -2.798986 -0.200443 -1.198628 -0.014267 0.163836
    34 -0.032909 -1.480204 0.004940 -1.683884 0.000000 0.000002
    35 -0.027022 -1.076920 -0.020210 -0.971708 0.000000 0.000000
    36 -0.249534 -2.846964 -0.174213 -1.022486 0.040910 0.105577
    37 0.043235 -1.683941 0.096012 -1.580584 0.002823 -0.000167
    38 0.031729 -1.160830 0.058838 -1.629035 0.000642 0.008372
    39 -0.963866 -2.785145 -0.085350 -0.988719 0.073698 0.103385
    40 0.028479 -1.403067 0.006271 -1.327033 0.000000 0.000000
    41 0.021413 -0.957781 0.020046 -1.350994 0.000000 0.000000
    42 1.164475 -2.543940 -0.170330 -1.206683 -0.190581 0.231608
    43 0.024032 -1.129042 0.017807 -1.338123 0.000000 0.000001
    44 0.014898 -0.883989 -0.019848 -1.030508 0.000000 0.000000
    45 -0.586770 -1.264477 0.200161 0.369677 -0.600720 -2.485807
    46 1.522835 0.058681 0.016848 0.001410 0.008985 0.795215
    47 1.117947 0.048424 -0.005766 -0.022295 -0.011751 1.141767
    48 -0.139399 -0.111698 0.014397 0.879007 0.019582 1.538885
    49 -1.393470 8.839177 -0.239433 1.580804 -0.005023 -1.566847
  time 5
    0 -1.701054 -1.756239 3.259746 0.000000 0.000000 0.000000
    1 9.213061 4.847071 -7.992541 -0.689454 -1.601610 0.493803
    2 -0.071918 -8.498730 -0.104137 0.150845 0.279811 0.049468
    3 2.902373 -1.028308 1.363887 0.246174 3.088492 1.568953
    4 12.020966 -0.977799 -0.495297 1.570796 1.570796 0.000000
    5 6.283741 -0.044232 0.000002 0.000001 0.000000 -1.570796
    6 3.872081 1.346180 0.000001 0.000000 0.000000 1.570797
    7 6.106668 1.919336 0.000002 0.000000 0.000000 1.570795
    8 7.604102 4.136611 0.000002 0.000001 0.000000 1.348977
    9 23.985891 20.395915 -0.074224 -0.000001 0.000000 0.000000
    10 0.000000 0.000000 0.000000 0.000000 0.000000 0.000000
    11 1.218365 -1.897359 0.000000 0.000002 0.000001 -1.685017
    12 0.585307 -0.000003 0.000000 -0.000002 0.000000 -0.249335
    13 0.606010 0.000000 0.000000 -0.000002 0.000000 -0.267288
    14 1.257180 8.762585 -0.153713 -1.570562 0.002683 -1.566807
    15 -0.488518 -2.755602 -0.228260 -0.871614 -0.202562 -0.209541
    16 0.039887 -1.479790 0.029854 -2.058952 0.000000 0.000001
    17 0.028786 -1.075731 -0.023109 -0.606348 0.000000 0.000000
    18 0.250027 -2.820665 -0.238396 -0.797118 -0.167517 -0.114938
    19 -0.049759 -1.680544 0.100479 -1.934764 0.000000 -0.000002
    20 -0.034142 -1.148312 0.084782 -0.925879 0.000000 0.000000
    21 0.957766 -2.746780 -0.090302 0.020255 -0.194156 0.008841
    22 -0.033420 -1.397129 -0.011257 -0.520985 0.000000 -0.000001
    23 -0.022360 -0.957436 0.018784 -0.975516 0.000000 0.000000
    24 -1.180681 -2.507217 -0.193859 -0.671429 -0.081516 -0.261329
    25 -0.024967 -1.123934 0.017597 -2.056303 0.000000 0.000001
    26 -0.020057 -0.890968 0.010090 -0.677843 0.000000 0.000000
    27 0.583510 -1.197277 0.185379 0.180209 -0.812070 -1.291294
    28 1.535927 0.010246 0.005009 -0.002964 -0.012979 -0.506650
    29 1.100771 0.004527 -0.010679 -0.015488 -0.004784 -1.694062
    30 0.120153 -0.050270 -0.054489 0.287569 3.110905 1.561085
    31 -0.688750 -8.840745 -12.259470 0.410573 -3.272665 0.914140
    32 0.096944 -8.450418 -0.009365 -0.171351 -1.236953 0.379483
    33 0.447953 -2.798986 -0.200443 -1.198628 -0.014267 0.163836
    34 -0.032909 -1.480204 0.004940 -1.683884 0.000000 0.000002
    35 -0.027022 -1.076920 -0.020210 -0.971708 0.000000 0.000000
    36 -0.249534 -2.846964 -0.174213 -1.022486 0.040910 0.105577
    37 0.043235 -1.683941 0.096012 -1.580584 0.002823 -0.000167
    38 0.031729 -1.160830 0.058838 -1.629035 0.000642 0.008372
    39 -0.963866 -2.785145 -0.085350 -0.988719 0.073698 0.103385
    40 0.028479 -1.403067 0.006271 -1.327033 0.000000 0.000000
    41 0.021413 -0.957781 0.020046 -1.350994 0.000000 0.000000
    42 1.164475 -2.543940 -0.170330 -1.206683 -0.190581 0.231608
    43 0.024032 -1.129042 0.017807 -1.338123 0.000000 0.000001
    44 0.014898 -0.883989 -0.019848 -1.030508 0.000000 0.000000
    45 -0.586770 -1.264477 0.200161 0.369677 -0.600720 -2.485807
    46 1.522835 0.058681 0.016848 0.001410 0.008985 0.795215
    47 1.117947 0.048424 -0.005766 -0.022295 -0.011751 1.141767
    48 -0.139399 -0.111698 0.014397 0.879007 0.019582 1.538885
    49 -1.393470 8.839177 -0.239433 1.580804 -0.005023 -1.566847
  time 6
    0 -1.701054 -1.756239 3.259746 0.000000 0.000000 0.000000
    1 9.213061 4.698629 -7.914414 -1.091683 -1.601610 0.896069
    2 -0.071918 -8.498730 -0.104137 0.150845 0.279811 0.049468
    3 2.902373 -1.028308 1.363887 0.246174 3.088492 1.568953
    4 12.020966 -0.977799 -0.495297 1.570796 1.570796 0.000000
    5 6.283741 -0.044232 0.000002 0.000001 0.000000 -1.570796
    6 3.872081 1.346180 0.000001 0.000000 0.000000 1.570797
    7 6.106668 1.919336 0.000002 0.000000 0.000000 1.570795
    8 7.604102 4.136611 0.000002 0.000001 0.000000 1.348977
    9 23.985891 20.395915 -0.074224 -0.000001 0.000000 0.000000
    10 0.000000 0.000000 0.000000 0.000000 0.000000 0.000000
    11 1.218365 -1.897359 0.000000 0.000002 0.000001 -1.685017
    12 0.585307 -0.000003 0.000000 -0.000002 0.000000 -0.249335
    13 0.606010 0.000000 0.000000 -0.000002 0.000000 -0.267288
    14 1.257180 8.762585 -0.153713 -1.570562 0.002683 -1.566807
    15 -0.488518 -2.755602 -0.228260 -0.871614 -0.202562 -0.209541
    16 0.039887 -1.479790 0.029854 -2.058952 0.000000 0.000001
    17 0.028786 -1.075731 -0.023109 -0.606348 0.000000 0.000000
    18 0.250027 -2.820665 -0.238396 -0.797118 -0.167517 -0.114938
    19 -0.049759 -1.680544 0.100479 -1.934764 0.000000 -0.000002
    20 -0.034142 -1.148312 0.084782 -0.925879 0.000000 0.000000
    21 0.957766 -2.746780 -0.090302 0.020255 -0.194156 0.008841
    22 -0.033420 -1.397129 -0.011257 -0.520985 0.000000 -0.000001
    23 -0.022360 -0.957436 0.018784 -0.975516 0.000000 0.000000
    24 -1.180681 -2.507217 -0.193859 -0.671429 -0.081516 -0.261329
    25 -0.024967 -1.123934 0.017597 -2.056303 0.000000 0.000001
    26 -0.020057 -0.890968 0.010090 -0.677843 0.000000 0.000000
    27 0.583510 -1.197277 0.185379 0.180209 -0.812070 -1.291294
    28 1.535927 0.010246 0.005009 -0.002964 -0.012979 -0.506650
    29 1.100771 0.004527 -0.010679 -0.015488 -0.004784 -1.694062
    30 0.120153 -0.050270 -0.054489 0.287569 3.110905 1.561085
    31 -0.720001 -8.950123 -12.232125 0.398438 -3.275347 0.912727
    32 0.096944 -8.450418 -0.009365 -0.171351 -1.236953 0.379483
    33 0.447953 -2.798986 -0.200443 -1.198628 -0.014267 0.163836
    34 -0.032909 -1.480204 0.004940 -1.683884 0.000000 0.000002
    35 -0.027022 -1.076920 -0.020210 -0.971708 0.000000 0.000000
    36 -0.249534 -2.846964 -0.174213 -1.022486 0.040910 0.105577
    37 0.043235 -1.683941 0.096012 -1.580584 0.002823 -0.000167
    38 0.031729 -1.160830 0.058838 -1.629035 0.000642 0.008372
    39 -0.963866 -2.785145 -0.085350 -0.988719 0.073698 0.103385
    40 0.028479 -1.403067 0.006271 -1.327033 0.000000 0.000000
    41 0.021413 -0.957781 0.020046 -1.350994 0.000000 0.000000
    42 1.164475 -2.543940 -0.170330 -1.206683 -0.190581 0.231608
    43 0.024032 -1.129042 0.017807 -1.338123 0.000000 0.000001
    44 0.014898 -0.883989 -0.019848 -1.030508 0.000000 0.000000
    45 -0.586770 -1.264477 0.200161 0.369677 -0.600720 -2.485807
    46 1.522835 0.058681 0.016848 0.001410 0.008985 0.795215
    47 1.117947 0.048424 -0.005766 -0.022295 -0.011751 1.141767
    48 -0.139399 -0.111698 0.014397 0.879007 0.019582 1.538885
    49 -1.393470 8.839177 -0.239433 1.580804 -0.005023 -1.566847
  time 7
    0 -1.701054 -1.756239 3.259746 0.000000 0.000000 0.000000
    1 9.213061 4.569719 -7.871444 -1.180409 -1.608843 0.984800
    2 -0.071918 -8.498730 -0.104137 0.150845 0.279811 0.049468
    3 2.902373 -1.028308 1.363887 0.246174 3.088492 1.568953
    4 12.020966 -0.977799 -0.495297 1.570796 1.570796 0.000000
    5 6.283741 -0.044232 0.000002 0.000001 0.000000 -1.570796
    6 3.872081 1.346180 0.000001 0.000000 0.000000 1.570797
    7 6.106668 1.919336 0.000002 0.000000 0.000000 1.570795
    8 7.604102 4.136611 0.000002 0.000001 0.000000 1.348977
    9 23.985891 20.395915 -0.074224 -0.000001 0.000000 0.000000
    10 0.000000 0.000000 0.000000 0.000000 0.000000 0.000000
    11 1.218365 -1.897359 0.000000 0.000002 0.000001 -1.685017
    12 0.585307 -0.000003 0.000000 -0.000002 0.000000 -0.249335
    13 0.606010 0.000000 0.000000 -0.000002 0.000000 -0.267288
    14 1.257180 8.762585 -0.153713 -1.570562 0.002683 -1.566807
    15 -0.488518 -2.755602 -0.228260 -0.871614 -0.202562 -0.209541
    16 0.039887 -1.479790 0.029854 -2.058952 0.000000 0.000001
    17 0.028786 -1.075731 -0.023109 -0.606348 0.000000 0.000000
    18 0.250027 -2.820665 -0.238396 -0.797118 -0.167517 -0.114938
    19 -0.049759 -1.680544 0.100479 -1.934764 0.000000 -0.000002
    20 -0.034142 -1.148312 0.084782 -0.925906 0.000000 0.000000
    21 0.957766 -2.746780 -0.090302 0.020255 -0.194156 0.008841
    22 -0.033420 -1.397129 -0.011257 -0.520985 0.000000 -0.000001
    23 -0.022360 -0.957436 0.018784 -0.975516 0.000000 0.000000
    24 -1.180681 -2.507217 -0.193859 -0.671429 -0.081516 -0.261329
    25 -0.024967 -1.123934 0.017597 -2.056303 0.000000 0.000001
    26 -0.020057 -0.890968 0.010090 -0.677843 0.000000 0.000000
    27 0.583510 -1.197277 0.185379 0.180209 -0.812070 -1.291294
    28 1.535927 0.010246 0.005009 -0.002964 -0.012979 -0.506650
    29 1.100771 0.004527 -0.010679 -0.015488 -0.004784 -1.694062
    30 0.120153 -0.050270 -0.054489 0.287569 3.110905 1.561085
    31 -0.712189 -9.051689 -12.314159 0.395099 -3.282531 0.912351
    32 0.096944 -8.450418 -0.009365 -0.171351 -1.236953 0.379483
    33 0.447953 -2.798986 -0.200443 -1.198628 -0.014267 0.163836
    34 -0.032909 -1.480204 0.004940 -1.683884 0.000000 0.000002
    35 -0.027022 -1.076920 -0.020210 -0.971708 0.000000 0.000000
    36 -0.249534 -2.846964 -0.174213 -1.022486 0.040910 0.105577
    37 0.043235 -1.683941 0.096012 -1.580584 0.002823 -0.000167
    38 0.031729 -1.160830 0.058838 -1.629035 0.000642 0.008372
    39 -0.963866 -2.785145 -0.085350 -0.988719 0.073698 0.103385
    40 0.028479 -1.403067 0.006271 -1.327033 0.000000 0.000000
    41 0.021413 -0.957781 0.020046 -1.350994 0.000000 0.000000
    42 1.164475 -2.543940 -0.170330 -1.206683 -0.190581 0.231608
    43 0.024032 -1.129042 0.017807 -1.338123 0.000000 0.000001
    44 0.014898 -0.883989 -0.019848 -1.030508 0.000000 0.000000
    45 -0.586770 -1.264477 0.200161 0.369677 -0.600720 -2.485807
    46 1.522835 0.058681 0.016848 0.001410 0.008985 0.795215
    47 1.117947 0.048424 -0.005766 -0.022295 -0.011751 1.141767
    48 -0.139399 -0.111698 0.014397 0.879007 0.019582 1.538885
    49 -1.393470 8.839177 -0.239433 1.580804 -0.005023 -1.566847
  time 8
    0 -1.701054 -1.756239 3.259746 0.000000 0.000000 0.000000
    1 9.213061 4.452528 -7.871444 -1.118810 -1.617361 0.923221
    2 -0.071918 -8.498730 -0.104137 0.150845 0.279811 0.049468
    3 2.902373 -1.028308 1.363887 0.246174 3.088492 1.568953
    4 12.020966 -0.977799 -0.495297 1.570796 1.570796 0.000000
    5 6.283741 -0.044232 0.000002 0.000001 0.000000 -1.570796
    6 3.872081 1.346180 0.000001 0.000000 0.000000 1.570797
    7 6.106668 1.919336 0.000002 0.000000 0.000000 1.570795
    8 7.604102 4.136611 0.000002 0.000001 0.000000 1.348977
    9 23.985891 20.395915 -0.074224 -0.000001 0.000000 0.000000
    10 0.000000 0.000000 0.000000 0.000000 0.000000 0.000000
    11 1.218365 -1.897359 0.000000 0.000002 0.000001 -1.685017
    12 0.585307 -0.000003 0.000000 -0.000002 0.000000 -0.249335
    13 0.606010 0.000000 0.000000 -0.000002 0.000000 -0.267288
    14 1.257180 8.762585 -0.153713 -1.570562 0.002683 -1.566807
    15 -0.488518 -2.755602 -0.228260 -0.871614 -0.202562 -0.209541
    16 0.039887 -1.479790 0.029854 -2.058952 0.000000 0.000001
    17 0.028786 -1.075731 -0.023109 -0.606348 0.000000 0.000000
    18 0.250027 -2.820665 -0.238396 -0.797118 -0.167517 -0.114938
    19 -0.049759 -1.680544 0.100479 -1.934764 0.000000 -0.000002
    20 -0.034142 -1.148312 0.084782 -0.925879 0.000000 0.000000
    21 0.957766 -2.746780 -0.090302 0.020255 -0.194156 0.008841
    22 -0.033420 -1.397129 -0.011257 -0.520985 0.000000 -0.000001
    23 -0.022360 -0.957436 0.018784 -0.975516 0.000000 0.000000
    24 -1.180681 -2.507217 -0.193859 -0.671429 -0.081516 -0.261329
    25 -0.024967 -1.123934 0.017597 -2.056303 0.000000 0.000001
    26 -0.020057 -0.890968 0.010090 -0.677843 0.000000 0.000000
    27 0.583510 -1.197277 0.185379 0.180209 -0.812070 -1.291294
    28 1.535927 0.010246 0.005009 -0.002964 -0.012979 -0.506650
    29 1.100771 0.004527 -0.010679 -0.015488 -0.004784 -1.694062
    30 0.120153 -0.050270 -0.054489 0.287569 3.110905 1.561085
    31 -0.680938 -9.141535 -12.454788 0.397379 -3.291152 0.912633
    32 0.096944 -8.450418 -0.009365 -0.171351 -1.236953 0.379483
    33 0.447953 -2.798986 -0.200443 -1.198628 -0.014267 0.163836
    34 -0.032909 -1.480204 0.004940 -1.683884 0.000000 0.000002
    35 -0.027022 -1.076920 -0.020210 -0.971708 0.000000 0.000000
    36 -0.249534 -2.846964 -0.174213 -1.022486 0.040910 0.105577
    37 0.043235 -1.683941 0.096012 -1.580584 0.002823 -0.000167
    38 0.031729 -1.160830 0.058838 -1.629035 0.000642 0.008372
    39 -0.963866 -2.785145 -0.085350 -0.988719 0.073698 0.103385
    40 0.028479 -1.403067 0.006271 -1.327033 0.000000 0.000000
    41 0.021413 -0.957781 0.020046 -1.350994 0.000000 0.000000
    42 1.164475 -2.543940 -0.170330 -1.206683 -0.190581 0.231608
    43 0.024032 -1.129042 0.017807 -1.338123 0.000000 0.000001
    44 0.014898 -0.883989 -0.019848 -1.030508 0.000000 0.000000
    45 -0.586770 -1.264477 0.200161 0.369677 -0.600720 -2.485807
    46 1.522835 0.058681 0.016848 0.001410 0.008985 0.795215
    47 1.117947 0.048424 -0.005766 -0.022295 -0.011751 1.141767
    48 -0.139399 -0.111698 0.014397 0.879007 0.019582 1.538885
    49 -1.393470 8.839177 -0.239433 1.580804 -0.005023 -1.566847
  time 9
    0 -1.701054 -1.756239 3.259746 0.000000 0.000000 0.000000
    1 9.213061 4.347056 -7.902695 -1.034072 -1.624713 0.838497
    2 -0.071918 -8.498730 -0.104137 0.150845 0.279811 0.049468
    3 2.902373 -1.028308 1.363887 0.246174 3.088492 1.568953
    4 12.020966 -0.977799 -0.495297 1.570796 1.570796 0.000000
    5 6.283741 -0.044232 0.000002 0.000001 0.000000 -1.570796
    6 3.872081 1.346180 0.000001 0.000000 0.000000 1.570797
    7 6.106668 1.919336 0.000002 0.000000 0.000000 1.570795
    8 7.604102 4.136611 0.000002 0.000001 0.000000 1.348977
    9 23.985891 20.395915 -0.074224 -0.000001 0.000000 0.000000
    10 0.000000 0.000000 0.000000 0.000000 0.000000 0.000000
    11 1.218365 -1.897359 0.000000 0.000002 0.000001 -1.685017
    12 0.585307 -0.000003 0.000000 -0.000002 0.000000 -0.249335
    13 0.606010 0.000000 0.000000 -0.000002 0.000000 -0.267288
    14 1.257180 8.762585 -0.153713 -1.570562 0.002683 -1.566807
    15 -0.488518 -2.755602 -0.228260 -0.871614 -0.202562 -0.209541
    16 0.039887 -1.479790 0.029854 -2.058952 0.000000 0.000001
    17 0.028786 -1.075731 -0.023109 -0.606348 0.000000 0.000000
    18 0.250027 -2.820665 -0.238396 -0.797118 -0.167517 -0.114938
    19 -0.049759 -1.680544 0.100479 -1.934764 0.000000 -0.000002
    20 -0.034142 -1.148312 0.084782 -0.925906 0.000000 0.000000
    21 0.957766 -2.746780 -0.090302 0.020255 -0.194156 0.008841
    22 -0.033420 -1.397129 -0.011257 -0.520985 0.000000 -0.000001
    23 -0.022360 -0.957436 0.018784 -0.975516 0.000000 0.000000
    24 -1.180681 -2.507217 -0.193859 -0.671429 -0.081516 -0.261329
    25 -0.024967 -1.123934 0.017597 -2.056303 0.000000 0.000001
    26 -0.020057 -0.890968 0.010090 -0.677843 0.000000 0.000000
    27 0.583510 -1.197277 0.185379 0.180209 -0.812070 -1.291294
    28 1.535927 0.010246 0.005009 -0.002964 -0.012979 -0.506650
    29 1.100771 0.004527 -0.010679 -0.015488 -0.004784 -1.694062
    30 0.120153 -0.050270 -0.054489 0.287569 3.110905 1.561085
    31 -0.641874 -9.231382 -12.603230 0.401940 -3.298337 0.913198
    32 0.096944 -8.450418 -0.009365 -0.171351 -1.236953 0.379483
    33 0.447953 -2.798986 -0.200443 -1.198628 -0.014267 0.163836
    34 -0.032909 -1.480204 0.004940 -1.683884 0.000000 0.000002
    35 -0.027022 -1.076920 -0.020210 -0.971708 0.000000 0.000000
    36 -0.249534 -2.846964 -0.174213 -1.022486 0.040910 0.105577
    37 0.043235 -1.683941 0.096012 -1.580584 0.002823 -0.000167
    38 0.031729 -1.160830 0.058838 -1.629035 0.000642 0.008372
    39 -0.963866 -2.785145 -0.085350 -0.988719 0.073698 0.103385
    40 0.028479 -1.403067 0.006271 -1.327033 0.000000 0.000000
    41 0.021413 -0.957781 0.020046 -1.350994 0.000000 0.000000
    42 1.164475 -2.543940 -0.170330 -1.206683 -0.190581 0.231608
    43 0.024032 -1.129042 0.017807 -1.338123 0.000000 0.000001
    44 0.014898 -0.883989 -0.019848 -1.030508 0.000000 0.000000
    45 -0.586770 -1.264477 0.200161 0.369677 -0.600720 -2.485807
    46 1.522835 0.058681 0.016848 0.001410 0.008985 0.795215
    47 1.117947 0.048424 -0.005766 -0.022295 -0.011751 1.141767
    48 -0.139399 -0.111698 0.014397 0.879007 0.019582 1.538885
    49 -1.393470 8.839177 -0.239433 1.580804 -0.005023 -1.566847
  time 10
    0 -1.701054 -1.756239 3.259746 0.000000 0.000000 0.000000
    1 9.213061 4.253303 -7.976916 -0.977038 -1.627851 0.781452
    2 -0.071918 -8.498730 -0.104137 0.150845 0.279811 0.049468
    3 2.902373 -1.028308 1.363887 0.246174 3.088492 1.568953
    4 12.020966 -0.977799 -0.495297 1.570796 1.570796 0.000000
    5 6.283741 -0.044232 0.000002 0.000001 0.000000 -1.570796
    6 3.872081 1.346180 0.000001 0.000000 0.000000 1.570797
    7 6.106668 1.919336 0.000002 0.000000 0.000000 1.570795
    8 7.604102 4.136611 0.000002 0.000001 0.000000 1.348977
    9 23.985891 20.395915 -0.074224 -0.000001 0.000000 0.000000
    10 0.000000 0.000000 0.000000 0.000000 0.000000 0.000000
    11 1.218365 -1.897359 0.000000 0.000002 0.000001 -1.685017
    12 0.585307 -0.000003 0.000000 -0.000002 0.000000 -0.249335
    13 0.606010 0.000000 0.000000 -0.000002 0.000000 -0.267288
    14 1.257180 8.762585 -0.153713 -1.570562 0.002683 -1.566807
    15 -0.488518 -2.755602 -0.228260 -0.871614 -0.202562 -0.209541
    16 0.039887 -1.479790 0.029854 -2.058952 0.000000 0.000001
    17 0.028786 -1.075731 -0.023109 -0.606348 0.000000 0.000000
    18 0.250027 -2.820665 -0.238396 -0.797118 -0.167517 -0.114938
    19 -0.049759 -1.680544 0.100479 -1.934764 0.000000 -0.000002
    20 -0.034142 -1.148312 0.084782 -0.925906 0.000000 0.000000
    21 0.957766 -2.746780 -0.090302 0.020255 -0.194156 0.008841
    22 -0.033420 -1.397129 -0.011257 -0.520985 0.000000 -0.000001
    23 -0.022360 -0.957436 0.018784 -0.975516 0.000000 0.000000
    24 -1.180681 -2.507217 -0.193859 -0.671429 -0.081516 -0.261329
    25 -0.024967 -1.123934 0.017597 -2.056303 0.000000 0.000001
    26 -0.020057 -0.890968 0.010090 -0.677843 0.000000 0.000000
    27 0.583510 -1.197277 0.185379 0.180209 -0.812070 -1.291294
    28 1.535927 0.010246 0.005009 -0.002964 -0.012979 -0.506650
    29 1.100771 0.004527 -0.010679 -0.015488 -0.004784 -1.694062
    30 0.120153 -0.050270 -0.054489 0.287569 3.110905 1.561085
    31 -0.622342 -9.325135 -12.724328 0.405442 -3.301115 0.913669
    32 0.096944 -8.450418 -0.009365 -0.171351 -1.236953 0.379483
    33 0.447953 -2.798986 -0.200443 -1.198628 -0.014267 0.163836
    34 -0.032909 -1.480204 0.004940 -1.683884 0.000000 0.000002
    35 -0.027022 -1.076920 -0.020210 -0.971708 0.000000 0.000000
    36 -0.249534 -2.846964 -0.174213 -1.022486 0.040910 0.105577
    37 0.043235 -1.683941 0.096012 -1.580584 0.002823 -0.000167
    38 0.031729 -1.160830 0.058838 -1.629035 0.000642 0.008372
    39 -0.963866 -2.785145 -0.085350 -0.988719 0.073698 0.103385
    40 0.028479 -1.403067 0.006271 -1.327033 0.000000 0.000000
    41 0.021413 -0.957781 0.020046 -1.350994 0.000000 0.000000
    42 1.164475 -2.543940 -0.170330 -1.206683 -0.190581 0.231608
    43 0.024032 -1.129042 0.017807 -1.338123 0.000000 0.000001
    44 0.014898 -0.883989 -0.019848 -1.030508 0.000000 0.000000
    45 -0.586770 -1.264477 0.200161 0.369677 -0.600720 -2.485807
    46 1.522835 0.058681 0.016848 0.001410 0.008985 0.795215
    47 1.117947 0.048424 -0.005766 -0.022295 -0.011751 1.141767
    48 -0.139399 -0.111698 0.014397 0.879007 0.019582 1.538885
    49 -1.393470 8.839177 -0.239433 1.580804 -0.005023 -1.566847
  time 11
    0 -1.701054 -1.756239 3.259746 0.000000 0.000000 0.000000
    1 9.213061 4.163456 -8.101920 -0.923939 -1.626357 0.728362
    2 -0.071918 -8.498730 -0.104137 0.150845 0.279811 0.049468
    3 2.902373 -1.028308 1.363887 0.246174 3.088492 1.568953
    4 12.020966 -0.977799 -0.495297 1.570796 1.570796 0.000000
    5 6.283741 -0.044232 0.000002 0.000001 0.000000 -1.570796
    6 3.872081 1.346180 0.000001 0.000000 0.000000 1.570797
    7 6.106668 1.919336 0.000002 0.000000 0.000000 1.570795
    8 7.604102 4.136611 0.000002 0.000001 0.000000 1.348977
    9 23.985891 20.395915 -0.074224 -0.000001 0.000000 0.000000
    10 0.000000 0.000000 0.000000 0.000000 0.000000 0.000000
    11 1.218365 -1.897359 0.000000 0.000002 0.000001 -1.685017
    12 0.585307 -0.000003 0.000000 -0.000002 0.000000 -0.249335
    13 0.606010 0.000000 0.000000 -0.000002 0.000000 -0.267288
    14 1.257180 8.762585 -0.153713 -1.570562 0.002683 -1.566807
    15 -0.488518 -2.755602 -0.228260 -0.871614 -0.202562 -0.209541
    16 0.039887 -1.479790 0.029854 -2.058952 0.000000 0.000001
    17 0.028786 -1.075731 -0.023109 -0.606348 0.000000 0.000000
    18 0.250027 -2.820665 -0.238396 -0.797118 -0.167517 -0.114938
    19 -0.049759 -1.680544 0.100479 -1.934764 0.000000 -0.000002
    20 -0.034142 -1.148312 0.084782 -0.925906 0.000000 0.000000
    21 0.957766 -2.746780 -0.090302 0.020255 -0.194156 0.008841
    22 -0.033420 -1.397129 -0.011257 -0.520985 0.000000 -0.000001
    23 -0.022360 -0.957436 0.018784 -0.975516 0.000000 0.000000
    24 -1.180681 -2.507217 -0.193859 -0.671429 -0.081516 -0.261329
    25 -0.024967 -1.123934 0.017597 -2.056303 0.000000 0.000001
    26 -0.020057 -0.890968 0.010090 -0.677843 0.000000 0.000000
    27 0.583510 -1.197277 0.185379 0.180209 -0.812070 -1.291294
    28 1.535927 0.010246 0.005009 -0.002964 -0.012979 -0.506650
    29 1.100771 0.004527 -0.010679 -0.015488 -0.004784 -1.694062
    30 0.120153 -0.050270 -0.054489 0.287569 3.110905 1.561085
    31 -0.618436 -9.430607 -12.814174 0.408211 -3.299199 0.914045
    32 0.096944 -8.450418 -0.009365 -0.171351 -1.236953 0.379483
    33 0.447953 -2.798986 -0.200443 -1.198628 -0.014267 0.163836
    34 -0.032909 -1.480204 0.004940 -1.683884 0.000000 0.000002
    35 -0.027022 -1.076920 -0.020210 -0.971708 0.000000 0.000000
    36 -0.249534 -2.846964 -0.174213 -1.022486 0.040910 0.105577
    37 0.043235 -1.683941 0.096012 -1.580584 0.002823 -0.000167
    38 0.031729 -1.160830 0.058838 -1.629035 0.000642 0.008372
    39 -0.963866 -2.785145 -0.085350 -0.988719 0.073698 0.103385
    40 0.028479 -1.403067 0.006271 -1.327033 0.000000 0.000000
    41 0.021413 -0.957781 0.020046 -1.350994 0.000000 0.000000
    42 1.164475 -2.543940 -0.170330 -1.206683 -0.190581 0.231608
    43 0.024032 -1.129042 0.017807 -1.338123 0.000000 0.000001
    44 0.014898 -0.883989 -0.019848 -1.030508 0.000000 0.000000
    45 -0.586770 -1.264477 0.200161 0.369677 -0.600720 -2.485807
    46 1.522835 0.058681 0.016848 0.001410 0.008985 0.795215
    47 1.117947 0.048424 -0.005766 -0.022295 -0.011751 1.141767
    48 -0.139399 -0.111698 0.014397 0.879007 0.019582 1.538885
    49 -1.393470 8.839177 -0.239433 1.580804 -0.005023 -1.566847
  time 12
    0 -1.701054 -1.756239 3.259746 0.000000 0.000000 0.000000
    1 9.213061 4.073610 -8.273800 -0.832223 -1.623009 0.636626
    2 -0.071918 -8.498730 -0.104137 0.150845 0.279811 0.049468
    3 2.902373 -1.028308 1.363887 0.246174 3.088492 1.568953
    4 12.020966 -0.977799 -0.495297 1.570796 1.570796 0.000000
    5 6.283741 -0.044232 0.000002 0.000001 0.000000 -1.570796
    6 3.872081 1.346180 0.000001 0.000000 0.000000 1.570797
    7 6.106668 1.919336 0.000002 0.000000 0.000000 1.570795
    8 7.604102 4.136611 0.000002 0.000001 0.000000 1.348977
    9 23.985891 20.395915 -0.074224 -0.000001 0.000000 0.000000
    10 0.000000 0.000000 0.000000 0.000000 0.000000 0.000000
    11 1.218365 -1.897359 0.000000 0.000002 0.000001 -1.685017
    12 0.585307 -0.000003 0.000000 -0.000002 0.000000 -0.249335
    13 0.606010 0.000000 0.000000 -0.000002 0.000000 -0.267288
    14 1.257180 8.762585 -0.153713 -1.570562 0.002683 -1.566807
    15 -0.488518 -2.755602 -0.228260 -0.871614 -0.202562 -0.209541
    16 0.039887 -1.479790 0.029854 -2.058952 0.000000 0.000001
    17 0.028786 -1.075731 -0.023109 -0.606348 0.000000 0.000000
    18 0.250027 -2.820665 -0.238396 -0.797118 -0.167517 -0.114938
    19 -0.049759 -1.680544 0.100479 -1.934764 0.000000 -0.000002
    20 -0.034142 -1.148312 0.084782 -0.925906 0.000000 0.000000
    21 0.957766 -2.746780 -0.090302 0.020255 -0.194156 0.008841
    22 -0.033420 -1.397129 -0.011257 -0.520985 0.000000 -0.000001
    23 -0.022360 -0.957436 0.018784 -0.975516 0.000000 0.000000
    24 -1.180681 -2.507217 -0.193859 -0.671429 -0.081516 -0.261329
    25 -0.024967 -1.123934 0.017597 -2.056303 0.000000 0.000001
    26 -0.020057 -0.890968 0.010090 -0.677843 0.000000 0.000000
    27 0.583510 -1.197277 0.185379 0.180209 -0.812070 -1.291294
    28 1.535927 0.010246 0.005009 -0.002964 -0.012979 -0.506650
    29 1.100771 0.004527 -0.010679 -0.015488 -0.004784 -1.694062
    30 0.120153 -0.050270 -0.054489 0.287569 3.110905 1.561085
    31 -0.618436 -9.543891 -12.911834 0.412283 -3.294793 0.914516
    32 0.096944 -8.450418 -0.009365 -0.171351 -1.236953 0.379483
    33 0.447953 -2.798986 -0.200443 -1.198628 -0.014267 0.163836
    34 -0.032909 -1.480204 0.004940 -1.683884 0.000000 0.000002
    35 -0.027022 -1.076920 -0.020210 -0.971708 0.000000 0.000000
    36 -0.249534 -2.846964 -0.174213 -1.022486 0.040910 0.105577
    37 0.043235 -1.683941 0.096012 -1.580584 0.002823 -0.000167
    38 0.031729 -1.160830 0.058838 -1.629035 0.000642 0.008372
    39 -0.963866 -2.785145 -0.085350 -0.988719 0.073698 0.103385
    40 0.028479 -1.403067 0.006271 -1.327033 0.000000 0.000000
    41 0.021413 -0.957781 0.020046 -1.350994 0.000000 0.000000
    42 1.164475 -2.543940 -0.170330 -1.206683 -0.190581 0.231608
    43 0.024032 -1.129042 0.017807 -1.338123 0.000000 0.000001
    44 0.014898 -0.883989 -0.019848 -1.030508 0.000000 0.000000
    45 -0.586770 -1.264477 0.200161 0.369677 -0.600720 -2.485807
    46 1.522835 0.058681 0.016848 0.001410 0.008985 0.795215
    47 1.117947 0.048424 -0.005766 -0.022295 -0.011751 1.141767
    48 -0.139399 -0.111698 0.014397 0.879007 0.019582 1.538885
    49 -1.393470 8.839177 -0.239433 1.580804 -0.005023 -1.566847
  time 13
    0 -1.701054 -1.756239 3.259746 0.000000 0.000000 0.000000
    1 9.213061 3.987670 -8.473025 -0.702204 -1.619034 0.506615
    2 -0.071918 -8.498730 -0.104137 0.150845 0.279811 0.049468
    3 2.902373 -1.028308 1.363887 0.246174 3.088492 1.568953
    4 12.020966 -0.977799 -0.495297 1.570796 1.570796 0.000000
    5 6.283741 -0.044232 0.000002 0.000001 0.000000 -1.570796
    6 3.872081 1.346180 0.000001 0.000000 0.000000 1.570797
    7 6.106668 1.919336 0.000002 0.000000 0.000000 1.570795
    8 7.604102 4.136611 0.000002 0.000001 0.000000 1.348977
    9 23.985891 20.395915 -0.074224 -0.000001 0.000000 0.000000
    10 0.000000 0.000000 0.000000 0.000000 0.000000 0.000000
    11 1.218365 -1.897359 0.000000 0.000002 0.000001 -1.685017
    12 0.585307 -0.000003 0.000000 -0.000002 0.000000 -0.249335
    13 0.606010 0.000000 0.000000 -0.000002 0.000000 -0.267288
    14 1.257180 8.762585 -0.153713 -1.570562 0.002683 -1.566807
    15 -0.488518 -2.755602 -0.228260 -0.871614 -0.202562 -0.209541
    16 0.039887 -1.479790 0.029854 -2.058952 0.000000 0.000001
    17 0.028786 -1.075731 -0.023109 -0.606348 0.000000 0.000000
    18 0.250027 -2.820665 -0.238396 -0.797118 -0.167517 -0.114938
    19 -0.049759 -1.680544 0.100479 -1.934764 0.000000 -0.000002
    20 -0.034142 -1.148312 0.084782 -0.925879 0.000000 0.000000
    21 0.957766 -2.746780 -0.090302 0.020255 -0.194156 0.008841
    22 -0.033420 -1.397129 -0.011257 -0.520985 0.000000 -0.000001
    23 -0.022360 -0.957436 0.018784 -0.975516 0.000000 0.000000
    24 -1.180681 -2.507217 -0.193859 -0.671429 -0.081516 -0.261329
    25 -0.024967 -1.123934 0.017597 -2.056303 0.000000 0.000001
    26 -0.020057 -0.890968 0.010090 -0.677843 0.000000 0.000000
    27 0.583510 -1.197277 0.185379 0.180209 -0.812070 -1.291294
    28 1.535927 0.010246 0.005009 -0.002964 -0.012979 -0.506650
    29 1.100771 0.004527 -0.010679 -0.015488 -0.004784 -1.694062
    30 0.120153 -0.050270 -0.054489 0.287569 3.110905 1.561085
    31 -0.622342 -9.664989 -13.005586 0.417170 -3.288854 0.915081
    32 0.096944 -8.450418 -0.009365 -0.171351 -1.236953 0.379483
    33 0.447953 -2.798986 -0.200443 -1.198628 -0.014267 0.163836
    34 -0.032909 -1.480204 0.004940 -1.683884 0.000000 0.000002
    35 -0.027022 -1.076920 -0.020210 -0.971708 0.000000 0.000000
    36 -0.249534 -2.846964 -0.174213 -1.022486 0.040910 0.105577
    37 0.043235 -1.683941 0.096012 -1.580584 0.002823 -0.000167
    38 0.031729 -1.160830 0.058838 -1.629035 0.000642 0.008372
    39 -0.963866 -2.785145 -0.085350 -0.988719 0.073698 0.103385
    40 0.028479 -1.403067 0.006271 -1.327033 0.000000 0.000000
    41 0.021413 -0.957781 0.020046 -1.350994 0.000000 0.000000
    42 1.164475 -2.543940 -0.170330 -1.206683 -0.190581 0.231608
    43 0.024032 -1.129042 0.017807 -1.338123 0.000000 0.000001
    44 0.014898 -0.883989 -0.019848 -1.030508 0.000000 0.000000
    45 -0.586770 -1.264477 0.200161 0.369677 -0.600720 -2.485807
    46 1.522835 0.058681 0.016848 0.001410 0.008985 0.795215
    47 1.117947 0.048424 -0.005766 -0.022295 -0.011751 1.141767
    48 -0.139399 -0.111698 0.014397 0.879007 0.019582 1.538885
    49 -1.393470 8.839177 -0.239433 1.580804 -0.005023 -1.566847
  time 14
    0 -1.701054 -1.756239 3.259746 0.000000 0.000000 0.000000
    1 9.213061 3.909542 -8.680062 -0.540179 -1.615567 0.344548
    2 -0.071918 -8.498730 -0.104137 0.150845 0.279811 0.049468
    3 2.902373 -1.028308 1.363887 0.246174 3.088492 1.568953
    4 12.020966 -0.977799 -0.495297 1.570796 1.570796 0.000000
    5 6.283741 -0.044232 0.000002 0.000001 0.000000 -1.570796
    6 3.872081 1.346180 0.000001 0.000000 0.000000 1.570797
    7 6.106668 1.919336 0.000002 0.000000 0.000000 1.570795
    8 7.604102 4.136611 0.000002 0.000001 0.000000 1.348977
    9 23.985891 20.395915 -0.074224 -0.000001 0.000000 0.000000
    10 0.000000 0.000000 0.000000 0.000000 0.000000 0.000000
    11 1.218365 -1.897359 0.000000 0.000002 0.000001 -1.685017
    12 0.585307 -0.000003 0.000000 -0.000002 0.000000 -0.249335
    13 0.606010 0.000000 0.000000 -0.000002 0.000000 -0.267288
    14 1.257180 8.762585 -0.153713 -1.570562 0.002683 -1.566807
    15 -0.488518 -2.755602 -0.228260 -0.871614 -0.202562 -0.209541
    16 0.039887 -1.479790 0.029854 -2.058952 0.000000 0.000001
    17 0.028786 -1.075731 -0.023109 -0.606348 0.000000 0.000000
    18 0.250027 -2.820665 -0.238396 -0.797118 -0.167517 -0.114938
    19 -0.049759 -1.680544 0.100479 -1.934764 0.000000 -0.000002
    20 -0.034142 -1.148312 0.084782 -0.925879 0.000000 0.000000
    21 0.957766 -2.746780 -0.090302 0.020255 -0.194156 0.008841
    22 -0.033420 -1.397129 -0.011257 -0.520985 0.000000 -0.000001
    23 -0.022360 -0.957436 0.018784 -0.975516 0.000000 0.000000
    24 -1.180681 -2.507217 -0.193859 -0.671429 -0.081516 -0.261329
    25 -0.024967 -1.123934 0.017597 -2.056303 0.000000 0.000001
    26 -0.020057 -0.890968 0.010090 -0.677843 0.000000 0.000000
    27 0.583510 -1.197277 0.185379 0.180209 -0.812070 -1.291294
    28 1.535927 0.010246 0.005009 -0.002964 -0.012979 -0.506650
    29 1.100771 0.004527 -0.010679 -0.015488 -0.004784 -1.694062
    30 0.120153 -0.050270 -0.054489 0.287569 3.110905 1.561085
    31 -0.622342 -9.778274 -13.099339 0.422219 -3.282244 0.915646
    32 0.096944 -8.450418 -0.009365 -0.171351 -1.236953 0.379483
    33 0.447953 -2.798986 -0.200443 -1.198628 -0.014267 0.163836
    34 -0.032909 -1.480204 0.004940 -1.683884 0.000000 0.000002
    35 -0.027022 -1.076920 -0.020210 -0.971708 0.000000 0.000000
    36 -0.249534 -2.846964 -0.174213 -1.022486 0.040910 0.105577
    37 0.043235 -1.683941 0.096012 -1.580584 0.002823 -0.000167
    38 0.031729 -1.160830 0.058838 -1.629035 0.000642 0.008372
    39 -0.963866 -2.785145 -0.085350 -0.988719 0.073698 0.103385
    40 0.028479 -1.403067 0.006271 -1.327033 0.000000 0.000000
    41 0.021413 -0.957781 0.020046 -1.350994 0.000000 0.000000
    42 1.164475 -2.543940 -0.170330 -1.206683 -0.190581 0.231608
    43 0.024032 -1.129042 0.017807 -1.338123 0.000000 0.000001
    44 0.014898 -0.883989 -0.019848 -1.030508 0.000000 0.000000
    45 -0.586770 -1.264477 0.200161 0.369677 -0.600720 -2.485807
    46 1.522835 0.058681 0.016848 0.001410 0.008985 0.795215
    47 1.117947 0.048424 -0.005766 -0.022295 -0.011751 1.141767
    48 -0.139399 -0.111698 0.014397 0.879007 0.019582 1.538885
    49 -1.393470 8.839177 -0.239433 1.580804 -0.005023 -1.566847
  time 15
    0 -1.701054 -1.756239 3.259746 0.000000 0.000000 0.000000
    1 9.213061 3.843134 -8.867568 -0.366715 -1.613415 0.171094
    2 -0.071918 -8.498730 -0.104137 0.150845 0.279811 0.049468
    3 2.902373 -1.028308 1.363887 0.246174 3.088492 1.568953
    4 12.020966 -0.977799 -0.495297 1.570796 1.570796 0.000000
    5 6.283741 -0.044232 0.000002 0.000001 0.000000 -1.570796
    6 3.872081 1.346180 0.000001 0.000000 0.000000 1.570797
    7 6.106668 1.919336 0.000002 0.000000 0.000000 1.570795
    8 7.604102 4.136611 0.000002 0.000001 0.000000 1.348977
    9 23.985891 20.395915 -0.074224 -0.000001 0.000000 0.000000
    10 0.000000 0.000000 0.000000 0.000000 0.000000 0.000000
    11 1.218365 -1.897359 0.000000 0.000002 0.000001 -1.685017
    12 0.585307 -0.000003 0.000000 -0.000002 0.000000 -0.249335
    13 0.606010 0.000000 0.000000 -0.000002 0.000000 -0.267288
    14 1.257180 8.762585 -0.153713 -1.570562 0.002683 -1.566807
    15 -0.488518 -2.755602 -0.228260 -0.871614 -0.202562 -0.209541
    16 0.039887 -1.479790 0.029854 -2.058952 0.000000 0.000001
    17 0.028786 -1.075731 -0.023109 -0.606348 0.000000 0.000000
    18 0.250027 -2.820665 -0.238396 -0.797118 -0.167517 -0.114938
    19 -0.049759 -1.680544 0.100479 -1.934764 0.000000 -0.000002
    20 -0.034142 -1.148312 0.084782 -0.925906 0.000000 0.000000
    21 0.957766 -2.746780 -0.090302 0.020255 -0.194156 0.008841
    22 -0.033420 -1.397129 -0.011257 -0.520985 0.000000 -0.000001
    23 -0.022360 -0.957436 0.018784 -0.975516 0.000000 0.000000
    24 -1.180681 -2.507217 -0.193859 -0.671429 -0.081516 -0.261329
    25 -0.024967 -1.123934 0.017597 -2.056303 0.000000 0.000001
    26 -0.020057 -0.890968 0.010090 -0.677843 0.000000 0.000000
    27 0.583510 -1.197277 0.185379 0.180209 -0.812070 -1.291294
    28 1.535927 0.010246 0.005009 -0.002964 -0.012979 -0.506650
    29 1.100771 0.004527 -0.010679 -0.015488 -0.004784 -1.694062
    30 0.120153 -0.050270 -0.054489 0.287569 3.110905 1.561085
    31 -0.626248 -9.875933 -13.177467 0.426943 -3.275922 0.916117
    32 0.096944 -8.450418 -0.009365 -0.171351 -1.236953 0.379483
    33 0.447953 -2.798986 -0.200443 -1.198628 -0.014267 0.163836
    34 -0.032909 -1.480204 0.004940 -1.683884 0.000000 0.000002
    35 -0.027022 -1.076920 -0.020210 -0.971708 0.000000 0.000000
    36 -0.249534 -2.846964 -0.174213 -1.022486 0.040910 0.105577
    37 0.043235 -1.683941 0.096012 -1.580584 0.002823 -0.000167
    38 0.031729 -1.160830 0.058838 -1.629035 0.000642 0.008372
    39 -0.963866 -2.785145 -0.085350 -0.988719 0.073698 0.103385
    40 0.028479 -1.403067 0.006271 -1.327033 0.000000 0.000000
    41 0.021413 -0.957781 0.020046 -1.350994 0.000000 0.000000
    42 1.164475 -2.543940 -0.170330 -1.206683 -0.190581 0.231608
    43 0.024032 -1.129042 0.017807 -1.338123 0.000000 0.000001
    44 0.014898 -0.883989 -0.019848 -1.030508 0.000000 0.000000
    45 -0.586770 -1.264477 0.200161 0.369677 -0.600720 -2.485807
    46 1.522835 0.058681 0.016848 0.001410 0.008985 0.795215
    47 1.117947 0.048424 -0.005766 -0.022295 -0.011751 1.141767
    48 -0.139399 -0.111698 0.014397 0.879007 0.019582 1.538885
    49 -1.393470 8.839177 -0.239433 1.580804 -0.005023 -1.566847
  time 16
    0 -1.701054 -1.756239 3.259746 0.000000 0.000000 0.000000
    1 9.213061 3.792351 -9.019917 -0.216024 -1.612698 0.020416
    2 -0.071918 -8.498730 -0.104137 0.150845 0.279811 0.049468
    3 2.902373 -1.028308 1.363887 0.246174 3.088492 1.568953
    4 12.020966 -0.977799 -0.495297 1.570796 1.570796 0.000000
    5 6.283741 -0.044232 0.000002 0.000001 0.000000 -1.570796
    6 3.872081 1.346180 0.000001 0.000000 0.000000 1.570797
    7 6.106668 1.919336 0.000002 0.000000 0.000000 1.570795
    8 7.604102 4.136611 0.000002 0.000001 0.000000 1.348977
    9 23.985891 20.395915 -0.074224 -0.000001 0.000000 0.000000
    10 0.000000 0.000000 0.000000 0.000000 0.000000 0.000000
    11 1.218365 -1.897359 0.000000 0.000002 0.000001 -1.685017
    12 0.585307 -0.000003 0.000000 -0.000002 0.000000 -0.249335
    13 0.606010 0.000000 0.000000 -0.000002 0.000000 -0.267288
    14 1.257180 8.762585 -0.153713 -1.570562 0.002683 -1.566807
    15 -0.488518 -2.755602 -0.228260 -0.871614 -0.202562 -0.209541
    16 0.039887 -1.479790 0.029854 -2.058952 0.000000 0.000001
    17 0.028786 -1.075731 -0.023109 -0.606348 0.000000 0.000000
    18 0.250027 -2.820665 -0.238396 -0.797118 -0.167517 -0.114938
    19 -0.049759 -1.680544 0.100479 -1.934764 0.000000 -0.000002
    20 -0.034142 -1.148312 0.084782 -0.925879 0.000000 0.000000
    21 0.957766 -2.746780 -0.090302 0.020255 -0.194156 0.008841
    22 -0.033420 -1.397129 -0.011257 -0.520985 0.000000 -0.000001
    23 -0.022360 -0.957436 0.018784 -0.975516 0.000000 0.000000
    24 -1.180681 -2.507217 -0.193859 -0.671429 -0.081516 -0.261329
    25 -0.024967 -1.123934 0.017597 -2.056303 0.000000 0.000001
    26 -0.020057 -0.890968 0.010090 -0.677843 0.000000 0.000000
    27 0.583510 -1.197277 0.185379 0.180209 -0.812070 -1.291294
    28 1.535927 0.010246 0.005009 -0.002964 -0.012979 -0.506650
    29 1.100771 0.004527 -0.010679 -0.015488 -0.004784 -1.694062
    30 0.120153 -0.050270 -0.054489 0.287569 3.110905 1.561085
    31 -0.630155 -9.954060 -13.239969 0.430771 -3.270749 0.916494
    32 0.096944 -8.450418 -0.009365 -0.171351 -1.236953 0.379483
    33 0.447953 -2.798986 -0.200443 -1.198628 -0.014267 0.163836
    34 -0.032909 -1.480204 0.004940 -1.683884 0.000000 0.000002
    35 -0.027022 -1.076920 -0.020210 -0.971708 0.000000 0.000000
    36 -0.249534 -2.846964 -0.174213 -1.022486 0.040910 0.105577
    37 0.043235 -1.683941 0.096012 -1.580584 0.002823 -0.000167
    38 0.031729 -1.160830 0.058838 -1.629035 0.000642 0.008372
    39 -0.963866 -2.785145 -0.085350 -0.988719 0.073698 0.103385
    40 0.028479 -1.403067 0.006271 -1.327033 0.000000 0.000000
    41 0.021413 -0.957781 0.020046 -1.350994 0.000000 0.000000
    42 1.164475 -2.543940 -0.170330 -1.206683 -0.190581 0.231608
    43 0.024032 -1.129042 0.017807 -1.338123 0.000000 0.000001
    44 0.014898 -0.883989 -0.019848 -1.030508 0.000000 0.000000
    45 -0.586770 -1.264477 0.200161 0.369677 -0.600720 -2.485807
    46 1.522835 0.058681 0.016848 0.001410 0.008985 0.795215
    47 1.117947 0.048424 -0.005766 -0.022295 -0.011751 1.141767
    48 -0.139399 -0.111698 0.014397 0.879007 0.019582 1.538885
    49 -1.393470 8.839177 -0.239433 1.580804 -0.005023 -1.566847
  time 17
    0 -1.701054 -1.756239 3.259746 0.000000 0.000000 0.000000
    1 9.213061 3.757194 -9.113669 -0.123416 -1.612758 -0.072216
    2 -0.071918 -8.498730 -0.104137 0.150845 0.279811 0.049468
    3 2.902373 -1.028308 1.363887 0.246174 3.088492 1.568953
    4 12.020966 -0.977799 -0.495297 1.570796 1.570796 0.000000
    5 6.283741 -0.044232 0.000002 0.000001 0.000000 -1.570796
    6 3.872081 1.346180 0.000001 0.000000 0.000000 1.570797
    7 6.106668 1.919336 0.000002 0.000000 0.000000 1.570795
    8 7.604102 4.136611 0.000002 0.000001 0.000000 1.348977
    9 23.985891 20.395915 -0.074224 -0.000001 0.000000 0.000000
    10 0.000000 0.000000 0.000000 0.000000 0.000000 0.000000
    11 1.218365 -1.897359 0.000000 0.000002 0.000001 -1.685017
    12 0.585307 -0.000003 0.000000 -0.000002 0.000000 -0.249335
    13 0.606010 0.000000 0.000000 -0.000002 0.000000 -0.267288
    14 1.257180 8.762585 -0.153713 -1.570562 0.002683 -1.566807
    15 -0.488518 -2.755602 -0.228260 -0.871614 -0.202562 -0.209541
    16 0.039887 -1.479790 0.029854 -2.058952 0.000000 0.000001
    17 0.028786 -1.075731 -0.023109 -0.606348 0.000000 0.000000
    18 0.250027 -2.820665 -0.238396 -0.797118 -0.167517 -0.114938
    19 -0.049759 -1.680544 0.100479 -1.934764 0.000000 -0.000002
    20 -0.034142 -1.148312 0.084782 -0.925879 0.000000 0.000000
    21 0.957766 -2.746780 -0.090302 0.020255 -0.194156 0.008841
    22 -0.033420 -1.397129 -0.011257 -0.520985 0.000000 -0.000001
    23 -0.022360 -0.957436 0.018784 -0.975516 0.000000 0.000000
    24 -1.180681 -2.507217 -0.193859 -0.671429 -0.081516 -0.261329
    25 -0.024967 -1.123934 0.017597 -2.056303 0.000000 0.000001
    26 -0.020057 -0.890968 0.010090 -0.677843 0.000000 0.000000
    27 0.583510 -1.197277 0.185379 0.180209 -0.812070 -1.291294
    28 1.535927 0.010246 0.005009 -0.002964 -0.012979 -0.506650
    29 1.100771 0.004527 -0.010679 -0.015488 -0.004784 -1.694062
    30 0.120153 -0.050270 -0.054489 0.287569 3.110905 1.561085
    31 -0.630155 -10.004843 -13.282939 0.433133 -3.267684 0.916682
    32 0.096944 -8.450418 -0.009365 -0.171351 -1.236953 0.379483
    33 0.447953 -2.798986 -0.200443 -1.198628 -0.014267 0.163836
    34 -0.032909 -1.480204 0.004940 -1.683884 0.000000 0.000002
    35 -0.027022 -1.076920 -0.020210 -0.971708 0.000000 0.000000
    36 -0.249534 -2.846964 -0.174213 -1.022486 0.040910 0.105577
    37 0.043235 -1.683941 0.096012 -1.580584 0.002823 -0.000167
    38 0.031729 -1.160830 0.058838 -1.629035 0.000642 0.008372
    39 -0.963866 -2.785145 -0.085350 -0.988719 0.073698 0.103385
    40 0.028479 -1.403067 0.006271 -1.327033 0.000000 0.000000
    41 0.021413 -0.957781 0.020046 -1.350994 0.000000 0.000000
    42 1.164475 -2.543940 -0.170330 -1.206683 -0.190581 0.231608
    43 0.024032 -1.129042 0.017807 -1.338123 0.000000 0.000001
    44 0.014898 -0.883989 -0.019848 -1.030508 0.000000 0.000000
    45 -0.586770 -1.264477 0.200161 0.369677 -0.600720 -2.485807
    46 1.522835 0.058681 0.016848 0.001410 0.008985 0.795215
    47 1.117947 0.048424 -0.005766 -0.022295 -0.011751 1.141767
    48 -0.139399 -0.111698 0.014397 0.879007 0.019582 1.538885
    49 -1.393470 8.839177 -0.239433 1.580804 -0.005023 -1.566847
  time 18
    0 -1.701054 -1.756239 3.259746 0.000000 0.000000 0.000000
    1 9.213061 3.737662 -9.164452 -0.078292 -1.612997 -0.117346
    2 -0.071918 -8.498730 -0.104137 0.150845 0.279811 0.049468
    3 2.902373 -1.028308 1.363887 0.246174 3.088492 1.568953
    4 12.020966 -0.977799 -0.495297 1.570796 1.570796 0.000000
    5 6.283741 -0.044232 0.000002 0.000001 0.000000 -1.570796
    6 3.872081 1.346180 0.000001 0.000000 0.000000 1.570797
    7 6.106668 1.919336 0.000002 0.000000 0.000000 1.570795
    8 7.604102 4.136611 0.000002 0.000001 0.000000 1.348977
    9 23.985891 20.395915 -0.074224 -0.000001 0.000000 0.000000
    10 0.000000 0.000000 0.000000 0.000000 0.000000 0.000000
    11 1.218365 -1.897359 0.000000 0.000002 0.000001 -1.685017
    12 0.585307 -0.000003 0.000000 -0.000002 0.000000 -0.249335
    13 0.606010 0.000000 0.000000 -0.000002 0.000000 -0.267288
    14 1.257180 8.762585 -0.153713 -1.570562 0.002683 -1.566807
    15 -0.488518 -2.755602 -0.228260 -0.871614 -0.202562 -0.209541
    16 0.039887 -1.479790 0.029854 -2.058952 0.000000 0.000001
    17 0.028786 -1.075731 -0.023109 -0.606348 0.000000 0.000000
    18 0.250027 -2.820665 -0.238396 -0.797118 -0.167517 -0.114938
    19 -0.049759 -1.680544 0.100479 -1.934764 0.000000 -0.000002
    20 -0.034142 -1.148312 0.084782 -0.925879 0.000000 0.000000
    21 0.957766 -2.746780 -0.090302 0.020255 -0.194156 0.008841
    22 -0.033420 -1.397129 -0.011257 -0.520985 0.000000 -0.000001
    23 -0.022360 -0.957436 0.018784 -0.975516 0.000000 0.000000
    24 -1.180681 -2.507217 -0.193859 -0.671429 -0.081516 -0.261329
    25 -0.024967 -1.123934 0.017597 -2.056303 0.000000 0.000001
    26 -0.020057 -0.890968 0.010090 -0.677843 0.000000 0.000000
    27 0.583510 -1.197277 0.185379 0.180209 -0.812070 -1.291294
    28 1.535927 0.010246 0.005009 -0.002964 -0.012979 -0.506650
    29 1.100771 0.004527 -0.010679 -0.015488 -0.004784 -1.694062
    30 0.120153 -0.050270 -0.054489 0.287569 3.110905 1.561085
    31 -0.630155 -10.036094 -13.310283 0.434354 -3.266247 0.916776
    32 0.096944 -8.450418 -0.009365 -0.171351 -1.236953 0.379483
    33 0.447953 -2.798986 -0.200443 -1.198628 -0.014267 0.163836
    34 -0.032909 -1.480204 0.004940 -1.683884 0.000000 0.000002
    35 -0.027022 -1.076920 -0.020210 -0.971708 0.000000 0.000000
    36 -0.249534 -2.846964 -0.174213 -1.022486 0.040910 0.105577
    37 0.043235 -1.683941 0.096012 -1.580584 0.002823 -0.000167
    38 0.031729 -1.160830 0.058838 -1.629035 0.000642 0.008372
    39 -0.963866 -2.785145 -0.085350 -0.988719 0.073698 0.103385
    40 0.028479 -1.403067 0.006271 -1.327033 0.000000 0.000000
    41 0.021413 -0.957781 0.020046 -1.350994 0.000000 0.000000
    42 1.164475 -2.543940 -0.170330 -1.206683 -0.190581 0.231608
    43 0.024032 -1.129042 0.017807 -1.338123 0.000000 0.000001
    44 0.014898 -0.883989 -0.019848 -1.030508 0.000000 0.000000
    45 -0.586770 -1.264477 0.200161 0.369677 -0.600720 -2.485807
    46 1.522835 0.058681 0.016848 0.001410 0.008985 0.795215
    47 1.117947 0.048424 -0.005766 -0.022295 -0.011751 1.141767
    48 -0.139399 -0.111698 0.014397 0.879007 0.019582 1.538885
    49 -1.393470 8.839177 -0.239433 1.580804 -0.005023 -1.566847
  time 19
    0 -1.701054 -1.756239 3.259746 0.000000 0.000000 0.000000
    1 9.213061 3.718130 -9.203516 -0.049172 -1.613176 -0.146448
    2 -0.071918 -8.498730 -0.104137 0.150845 0.279811 0.049468
    3 2.902373 -1.028308 1.363887 0.246174 3.088492 1.568953
    4 12.020966 -0.977799 -0.495297 1.570796 1.570796 0.000000
    5 6.283741 -0.044232 0.000002 0.000001 0.000000 -1.570796
    6 3.872081 1.346180 0.000001 0.000000 0.000000 1.570797
    7 6.106668 1.919336 0.000002 0.000000 0.000000 1.570795
    8 7.604102 4.136611 0.000002 0.000001 0.000000 1.348977
    9 23.985891 20.395915 -0.074224 -0.000001 0.000000 0.000000
    10 0.000000 0.000000 0.000000 0.000000 0.000000 0.000000
    11 1.218365 -1.897359 0.000000 0.000002 0.000001 -1.685017
    12 0.585307 -0.000003 0.000000 -0.000002 0.000000 -0.249335
    13 0.606010 0.000000 0.000000 -0.000002 0.000000 -0.267288
    14 1.257180 8.762585 -0.153713 -1.570562 0.002683 -1.566807
    15 -0.488518 -2.755602 -0.228260 -0.871614 -0.202562 -0.209541
    16 0.039887 -1.479790 0.029854 -2.058952 0.000000 0.000001
    17 0.028786 -1.075731 -0.023109 -0.606348 0.000000 0.000000
    18 0.250027 -2.820665 -0.238396 -0.797118 -0.167517 -0.114938
    19 -0.049759 -1.680544 0.100479 -1.934764 0.000000 -0.000002
    20 -0.034142 -1.148312 0.084782 -0.925879 0.000000 0.000000
    21 0.957766 -2.746780 -0.090302 0.020255 -0.194156 0.008841
    22 -0.033420 -1.397129 -0.011257 -0.520985 0.000000 -0.000001
    23 -0.022360 -0.957436 0.018784 -0.975516 0.000000 0.000000
    24 -1.180681 -2.507217 -0.193859 -0.671429 -0.081516 -0.261329
    25 -0.024967 -1.123934 0.017597 -2.056303 0.000000 0.000001
    26 -0.020057 -0.890968 0.010090 -0.677843 0.000000 0.000000
    27 0.583510 -1.197277 0.185379 0.180209 -0.812070 -1.291294
    28 1.535927 0.010246 0.005009 -0.002964 -0.012979 -0.506650
    29 1.100771 0.004527 -0.010679 -0.015488 -0.004784 -1.694062
    30 0.120153 -0.050270 -0.054489 0.287569 3.110905 1.561085
    31 -0.630155 -10.059532 -13.333721 0.435169 -3.265289 0.916870
    32 0.096944 -8.450418 -0.009365 -0.171351 -1.236953 0.379483
    33 0.447953 -2.798986 -0.200443 -1.198628 -0.014267 0.163836
    34 -0.032909 -1.480204 0.004940 -1.683884 0.000000 0.000002
    35 -0.027022 -1.076920 -0.020210 -0.971708 0.000000 0.000000
    36 -0.249534 -2.846964 -0.174213 -1.022486 0.040910 0.105577
    37 0.043235 -1.683941 0.096012 -1.580584 0.002823 -0.000167
    38 0.031729 -1.160830 0.058838 -1.629035 0.000642 0.008372
    39 -0.963866 -2.785145 -0.085350 -0.988719 0.073698 0.103385
    40 0.028479 -1.403067 0.006271 -1.327033 0.000000 0.000000
    41 0.021413 -0.957781 0.020046 -1.350994 0.000000 0.000000
    42 1.164475 -2.543940 -0.170330 -1.206683 -0.190581 0.231608
    43 0.024032 -1.129042 0.017807 -1.338123 0.000000 0.000001
    44 0.014898 -0.883989 -0.019848 -1.030508 0.000000 0.000000
    45 -0.586770 -1.264477 0.200161 0.369677 -0.600720 -2.485807
    46 1.522835 0.058681 0.016848 0.001410 0.008985 0.795215
    47 1.117947 0.048424 -0.005766 -0.022295 -0.011751 1.141767
    48 -0.139399 -0.111698 0.014397 0.879007 0.019582 1.538885
    49 -1.393470 8.839177 -0.239433 1.580804 -0.005023 -1.566847
  time 20
    0 -1.701054 -1.756239 3.259746 0.000000 0.000000 0.000000
    1 9.213061 3.706411 -9.230860 -0.033431 -1.613296 -0.162212
    2 -0.071918 -8.498730 -0.104137 0.150845 0.279811 0.049468
    3 2.902373 -1.028308 1.363887 0.246174 3.088492 1.568953
    4 12.020966 -0.977799 -0.495297 1.570796 1.570796 0.000000
    5 6.283741 -0.044232 0.000002 0.000001 0.000000 -1.570796
    6 3.872081 1.346180 0.000001 0.000000 0.000000 1.570797
    7 6.106668 1.919336 0.000002 0.000000 0.000000 1.570795
    8 7.604102 4.136611 0.000002 0.000001 0.000000 1.348977
    9 23.985891 20.395915 -0.074224 -0.000001 0.000000 0.000000
    10 0.000000 0.000000 0.000000 0.000000 0.000000 0.000000
    11 1.218365 -1.897359 0.000000 0.000002 0.000001 -1.685017
    12 0.585307 -0.000003 0.000000 -0.000002 0.000000 -0.249335
    13 0.606010 0.000000 0.000000 -0.000002 0.000000 -0.267288
    14 1.257180 8.762585 -0.153713 -1.570562 0.002683 -1.566807
    15 -0.488518 -2.755602 -0.228260 -0.871614 -0.202562 -0.209541
    16 0.039887 -1.479790 0.029854 -2.058952 0.000000 0.000001
    17 0.028786 -1.075731 -0.023109 -0.606348 0.000000 0.000000
    18 0.250027 -2.820665 -0.238396 -0.797118 -0.167517 -0.114938
    19 -0.049759 -1.680544 0.100479 -1.934764 0.000000 -0.000002
    20 -0.034142 -1.148312 0.084782 -0.925906 0.000000 0.000000
    21 0.957766 -2.746780 -0.090302 0.020255 -0.194156 0.008841
    22 -0.033420 -1.397129 -0.011257 -0.520985 0.000000 -0.000001
    23 -0.022360 -0.957436 0.018784 -0.975516 0.000000 0.000000
    24 -1.180681 -2.507217 -0.193859 -0.671429 -0.081516 -0.261329
    25 -0.024967 -1.123934 0.017597 -2.056303 0.000000 0.000001
    26 -0.020057 -0.890968 0.010090 -0.677843 0.000000 0.000000
    27 0.583510 -1.197277 0.185379 0.180209 -0.812070 -1.291294
    28 1.535927 0.010246 0.005009 -0.002964 -0.012979 -0.506650
    29 1.100771 0.004527 -0.010679 -0.015488 -0.004784 -1.694062
    30 0.120153 -0.050270 -0.054489 0.287569 3.110905 1.561085
    31 -0.630155 -10.071251 -13.349347 0.435576 -3.264714 0.916870
    32 0.096944 -8.450418 -0.009365 -0.171351 -1.236953 0.379483
    33 0.447953 -2.798986 -0.200443 -1.198628 -0.014267 0.163836
    34 -0.032909 -1.480204 0.004940 -1.683884 0.000000 0.000002
    35 -0.027022 -1.076920 -0.020210 -0.971708 0.000000 0.000000
    36 -0.249534 -2.846964 -0.174213 -1.022486 0.040910 0.105577
    37 0.043235 -1.683941 0.096012 -1.580584 0.002823 -0.000167
    38 0.031729 -1.160830 0.058838 -1.629035 0.000642 0.008372
    39 -0.963866 -2.785145 -0.085350 -0.988719 0.073698 0.103385
    40 0.028479 -1.403067 0.006271 -1.327033 0.000000 0.000000
    41 0.021413 -0.957781 0.020046 -1.350994 0.000000 0.000000
    42 1.164475 -2.543940 -0.170330 -1.206683 -0.190581 0.231608
    43 0.024032 -1.129042 0.017807 -1.338123 0.000000 0.000001
    44 0.014898 -0.883989 -0.019848 -1.030508 0.000000 0.000000
    45 -0.586770 -1.264477 0.200161 0.369677 -0.600720 -2.485807
    46 1.522835 0.058681 0.016848 0.001410 0.008985 0.795215
    47 1.117947 0.048424 -0.005766 -0.022295 -0.011751 1.141767
    48 -0.139399 -0.111698 0.014397 0.879007 0.019582 1.538885
    49 -1.393470 8.839177 -0.239433 1.580804 -0.005023 -1.566847
  time 21
    0 -1.701054 -1.756239 3.259746 0.000000 0.000000 0.000000
    1 9.213061 3.702505 -9.246486 -0.028709 -1.613356 -0.166904
    2 -0.071918 -8.498730 -0.104137 0.150845 0.279811 0.049468
    3 2.902373 -1.028308 1.363887 0.246174 3.088492 1.568953
    4 12.020966 -0.977799 -0.495297 1.570796 1.570796 0.000000
    5 6.283741 -0.044232 0.000002 0.000001 0.000000 -1.570796
    6 3.872081 1.346180 0.000001 0.000000 0.000000 1.570797
    7 6.106668 1.919336 0.000002 0.000000 0.000000 1.570795
    8 7.604102 4.136611 0.000002 0.000001 0.000000 1.348977
    9 23.985891 20.395915 -0.074224 -0.000001 0.000000 0.000000
    10 0.000000 0.000000 0.000000 0.000000 0.000000 0.000000
    11 1.218365 -1.897359 0.000000 0.000002 0.000001 -1.685017
    12 0.585307 -0.000003 0.000000 -0.000002 0.000000 -0.249335
    13 0.606010 0.000000 0.000000 -0.000002 0.000000 -0.267288
    14 1.257180 8.762585 -0.153713 -1.570562 0.002683 -1.566807
    15 -0.488518 -2.755602 -0.228260 -0.871614 -0.202562 -0.209541
    16 0.039887 -1.479790 0.029854 -2.058952 0.000000 0.000001
    17 0.028786 -1.075731 -0.023109 -0.606348 0.000000 0.000000
    18 0.250027 -2.820665 -0.238396 -0.797118 -0.167517 -0.114938
    19 -0.049759 -1.680544 0.100479 -1.934764 0.000000 -0.000002
    20 -0.034142 -1.148312 0.084782 -0.925906 0.000000 0.000000
    21 0.957766 -2.746780 -0.090302 0.020255 -0.194156 0.008841
    22 -0.033420 -1.397129 -0.011257 -0.520985 0.000000 -0.000001
    23 -0.022360 -0.957436 0.018784 -0.975516 0.000000 0.000000
    24 -1.180681 -2.507217 -0.193859 -0.671429 -0.081516 -0.261329
    25 -0.024967 -1.123934 0.017597 -2.056303 0.000000 0.000001
    26 -0.020057 -0.890968 0.010090 -0.677843 0.000000 0.000000
    27 0.583510 -1.197277 0.185379 0.180209 -0.812070 -1.291294
    28 1.535927 0.010246 0.005009 -0.002964 -0.012979 -0.506650
    29 1.100771 0.004527 -0.010679 -0.015488 -0.004784 -1.694062
    30 0.120153 -0.050270 -0.054489 0.287569 3.110905 1.561085
    31 -0.630155 -10.079064 -13.361066 0.435739 -3.264523 0.916870
    32 0.096944 -8.450418 -0.009365 -0.171351 -1.236953 0.379483
    33 0.447953 -2.798986 -0.200443 -1.198628 -0.014267 0.163836
    34 -0.032909 -1.480204 0.004940 -1.683884 0.000000 0.000002
    35 -0.027022 -1.076920 -0.020210 -0.971708 0.000000 0.000000
    36 -0.249534 -2.846964 -0.174213 -1.022486 0.040910 0.105577
    37 0.043235 -1.683941 0.096012 -1.580584 0.002823 -0.000167
    38 0.031729 -1.160830 0.058838 -1.629035 0.000642 0.008372
    39 -0.963866 -2.785145 -0.085350 -0.988719 0.073698 0.103385
    40 0.028479 -1.403067 0.006271 -1.327033 0.000000 0.000000
    41 0.021413 -0.957781 0.020046 -1.350994 0.000000 0.000000
    42 1.164475 -2.543940 -0.170330 -1.206683 -0.190581 0.231608
    43 0.024032 -1.129042 0.017807 -1.338123 0.000000 0.000001
    44 0.014898 -0.883989 -0.019848 -1.030508 0.000000 0.000000
    45 -0.586770 -1.264477 0.200161 0.369677 -0.600720 -2.485807
    46 1.522835 0.058681 0.016848 0.001410 0.008985 0.795215
    47 1.117947 0.048424 -0.005766 -0.022295 -0.011751 1.141767
    48 -0.139399 -0.111698 0.014397 0.879007 0.019582 1.538885
    49 -1.393470 8.839177 -0.239433 1.580804 -0.005023 -1.566847
  time 22
    0 -1.701054 -1.756239 3.259746 0.000000 0.000000 0.000000
    1 9.213061 3.698599 -9.250392 -0.032749 -1.613326 -0.162897
    2 -0.071918 -8.498730 -0.104137 0.150845 0.279811 0.049468
    3 2.902373 -1.028308 1.363887 0.246174 3.088492 1.568953
    4 12.020966 -0.977799 -0.495297 1.570796 1.570796 0.000000
    5 6.283741 -0.044232 0.000002 0.000001 0.000000 -1.570796
    6 3.872081 1.346180 0.000001 0.000000 0.000000 1.570797
    7 6.106668 1.919336 0.000002 0.000000 0.000000 1.570795
    8 7.604102 4.136611 0.000002 0.000001 0.000000 1.348977
    9 23.985891 20.395915 -0.074224 -0.000001 0.000000 0.000000
    10 0.000000 0.000000 0.000000 0.000000 0.000000 0.000000
    11 1.218365 -1.897359 0.000000 0.000002 0.000001 -1.685017
    12 0.585307 -0.000003 0.000000 -0.000002 0.000000 -0.249335
    13 0.606010 0.000000 0.000000 -0.000002 0.000000 -0.267288
    14 1.257180 8.762585 -0.153713 -1.570562 0.002683 -1.566807
    15 -0.488518 -2.755602 -0.228260 -0.871614 -0.202562 -0.209541
    16 0.039887 -1.479790 0.029854 -2.058952 0.000000 0.000001
    17 0.028786 -1.075731 -0.023109 -0.606348 0.000000 0.000000
    18 0.250027 -2.820665 -0.238396 -0.797118 -0.167517 -0.114938
    19 -0.049759 -1.680544 0.100479 -1.934764 0.000000 -0.000002
    20 -0.034142 -1.148312 0.084782 -0.925879 0.000000 0.000000
    21 0.957766 -2.746780 -0.090302 0.020255 -0.194156 0.008841
    22 -0.033420 -1.397129 -0.011257 -0.520985 0.000000 -0.000001
    23 -0.022360 -0.957436 0.018784 -0.975516 0.000000 0.000000
    24 -1.180681 -2.507217 -0.193859 -0.671429 -0.081516 -0.261329
    25 -0.024967 -1.123934 0.017597 -2.056303 0.000000 0.000001
    26 -0.020057 -0.890968 0.010090 -0.677843 0.000000 0.000000
    27 0.583510 -1.197277 0.185379 0.180209 -0.812070 -1.291294
    28 1.535927 0.010246 0.005009 -0.002964 -0.012979 -0.506650
    29 1.100771 0.004527 -0.010679 -0.015488 -0.004784 -1.694062
    30 0.120153 -0.050270 -0.054489 0.287569 3.110905 1.561085
    31 -0.630155 -10.079064 -13.368879 0.435576 -3.264714 0.916870
    32 0.096944 -8.450418 -0.009365 -0.171351 -1.236953 0.379483
    33 0.447953 -2.798986 -0.200443 -1.198628 -0.014267 0.163836
    34 -0.032909 -1.480204 0.004940 -1.683884 0.000000 0.000002
    35 -0.027022 -1.076920 -0.020210 -0.971708 0.000000 0.000000
    36 -0.249534 -2.846964 -0.174213 -1.022486 0.040910 0.105577
    37 0.043235 -1.683941 0.096012 -1.580584 0.002823 -0.000167
    38 0.031729 -1.160830 0.058838 -1.629035 0.000642 0.008372
    39 -0.963866 -2.785145 -0.085350 -0.988719 0.073698 0.103385
    40 0.028479 -1.403067 0.006271 -1.327033 0.000000 0.000000
    41 0.021413 -0.957781 0.020046 -1.350994 0.000000 0.000000
    42 1.164475 -2.543940 -0.170330 -1.206683 -0.190581 0.231608
    43 0.024032 -1.129042 0.017807 -1.338123 0.000000 0.000001
    44 0.014898 -0.883989 -0.019848 -1.030508 0.000000 0.000000
    45 -0.586770 -1.264477 0.200161 0.369677 -0.600720 -2.485807
    46 1.522835 0.058681 0.016848 0.001410 0.008985 0.795215
    47 1.117947 0.048424 -0.005766 -0.022295 -0.011751 1.141767
    48 -0.139399 -0.111698 0.014397 0.879007 0.019582 1.538885
    49 -1.393470 8.839177 -0.239433 1.580804 -0.005023 -1.566847
  time 23
    0 -1.701054 -1.756239 3.259746 0.000000 0.000000 0.000000
    1 9.213061 3.698599 -9.246486 -0.043295 -1.613236 -0.152300
    2 -0.071918 -8.498730 -0.104137 0.150845 0.279811 0.049468
    3 2.902373 -1.028308 1.363887 0.246174 3.088492 1.568953
    4 12.020966 -0.977799 -0.495297 1.570796 1.570796 0.000000
    5 6.283741 -0.044232 0.000002 0.000001 0.000000 -1.570796
    6 3.872081 1.346180 0.000001 0.000000 0.000000 1.570797
    7 6.106668 1.919336 0.000002 0.000000 0.000000 1.570795
    8 7.604102 4.136611 0.000002 0.000001 0.000000 1.348977
    9 23.985891 20.395915 -0.074224 -0.000001 0.000000 0.000000
    10 0.000000 0.000000 0.000000 0.000000 0.000000 0.000000
    11 1.218365 -1.897359 0.000000 0.000002 0.000001 -1.685017
    12 0.585307 -0.000003 0.000000 -0.000002 0.000000 -0.249335
    13 0.606010 0.000000 0.000000 -0.000002 0.000000 -0.267288
    14 1.257180 8.762585 -0.153713 -1.570562 0.002683 -1.566807
    15 -0.488518 -2.755602 -0.228260 -0.871614 -0.202562 -0.209541
    16 0.039887 -1.479790 0.029854 -2.058952 0.000000 0.000001
    17 0.028786 -1.075731 -0.023109 -0.606348 0.000000 0.000000
    18 0.250027 -2.820665 -0.238396 -0.797118 -0.167517 -0.114938
    19 -0.049759 -1.680544 0.100479 -1.934764 0.000000 -0.000002
    20 -0.034142 -1.148312 0.084782 -0.925906 0.000000 0.000000
    21 0.957766 -2.746780 -0.090302 0.020255 -0.194156 0.008841
    22 -0.033420 -1.397129 -0.011257 -0.520985 0.000000 -0.000001
    23 -0.022360 -0.957436 0.018784 -0.975516 0.000000 0.000000
    24 -1.180681 -2.507217 -0.193859 -0.671429 -0.081516 -0.261329
    25 -0.024967 -1.123934 0.017597 -2.056303 0.000000 0.000001
    26 -0.020057 -0.890968 0.010090 -0.677843 0.000000 0.000000
    27 0.583510 -1.197277 0.185379 0.180209 -0.812070 -1.291294
    28 1.535927 0.010246 0.005009 -0.002964 -0.012979 -0.506650
    29 1.100771 0.004527 -0.010679 -0.015488 -0.004784 -1.694062
    30 0.120153 -0.050270 -0.054489 0.287569 3.110905 1.561085
    31 -0.630155 -10.079064 -13.372785 0.435332 -3.265097 0.916870
    32 0.096944 -8.450418 -0.009365 -0.171351 -1.236953 0.379483
    33 0.447953 -2.798986 -0.200443 -1.198628 -0.014267 0.163836
    34 -0.032909 -1.480204 0.004940 -1.683884 0.000000 0.000002
    35 -0.027022 -1.076920 -0.020210 -0.971708 0.000000 0.000000
    36 -0.249534 -2.846964 -0.174213 -1.022486 0.040910 0.105577
    37 0.043235 -1.683941 0.096012 -1.580584 0.002823 -0.000167
    38 0.031729 -1.160830 0.058838 -1.629035 0.000642 0.008372
    39 -0.963866 -2.785145 -0.085350 -0.988719 0.073698 0.103385
    40 0.028479 -1.403067 0.006271 -1.327033 0.000000 0.000000
    41 0.021413 -0.957781 0.020046 -1.350994 0.000000 0.000000
    42 1.164475 -2.543940 -0.170330 -1.206683 -0.190581 0.231608
    43 0.024032 -1.129042 0.017807 -1.338123 0.000000 0.000001
    44 0.014898 -0.883989 -0.019848 -1.030508 0.000000 0.000000
    45 -0.586770 -1.264477 0.200161 0.369677 -0.600720 -2.485807
    46 1.522835 0.058681 0.016848 0.001410 0.008985 0.795215
    47 1.117947 0.048424 -0.005766 -0.022295 -0.011751 1.141767
    48 -0.139399 -0.111698 0.014397 0.879007 0.019582 1.538885
    49 -1.393470 8.839177 -0.239433 1.580804 -0.005023 -1.566847
  time 24
    0 -1.701054 -1.756239 3.259746 0.000000 0.000000 0.000000
    1 9.213061 3.706411 -9.234767 -0.058354 -1.613117 -0.137274
    2 -0.071918 -8.498730 -0.104137 0.150845 0.279811 0.049468
    3 2.902373 -1.028308 1.363887 0.246174 3.088492 1.568953
    4 12.020966 -0.977799 -0.495297 1.570796 1.570796 0.000000
    5 6.283741 -0.044232 0.000002 0.000001 0.000000 -1.570796
    6 3.872081 1.346180 0.000001 0.000000 0.000000 1.570797
    7 6.106668 1.919336 0.000002 0.000000 0.000000 1.570795
    8 7.604102 4.136611 0.000002 0.000001 0.000000 1.348977
    9 23.985891 20.395915 -0.074224 -0.000001 0.000000 0.000000
    10 0.000000 0.000000 0.000000 0.000000 0.000000 0.000000
    11 1.218365 -1.897359 0.000000 0.000002 0.000001 -1.685017
    12 0.585307 -0.000003 0.000000 -0.000002 0.000000 -0.249335
    13 0.606010 0.000000 0.000000 -0.000002 0.000000 -0.267288
    14 1.257180 8.762585 -0.153713 -1.570562 0.002683 -1.566807
    15 -0.488518 -2.755602 -0.228260 -0.871614 -0.202562 -0.209541
    16 0.039887 -1.479790 0.029854 -2.058952 0.000000 0.000001
    17 0.028786 -1.075731 -0.023109 -0.606348 0.000000 0.000000
    18 0.250027 -2.820665 -0.238396 -0.797118 -0.167517 -0.114938
    19 -0.049759 -1.680544 0.100479 -1.934764 0.000000 -0.000002
    20 -0.034142 -1.148312 0.084782 -0.925906 0.000000 0.000000
    21 0.957766 -2.746780 -0.090302 0.020255 -0.194156 0.008841
    22 -0.033420 -1.397129 -0.011257 -0.520985 0.000000 -0.000001
    23 -0.022360 -0.957436 0.018784 -0.975516 0.000000 0.000000
    24 -1.180681 -2.507217 -0.193859 -0.671429 -0.081516 -0.261329
    25 -0.024967 -1.123934 0.017597 -2.056303 0.000000 0.000001
    26 -0.020057 -0.890968 0.010090 -0.677843 0.000000 0.000000
    27 0.583510 -1.197277 0.185379 0.180209 -0.812070 -1.291294
    28 1.535927 0.010246 0.005009 -0.002964 -0.012979 -0.506650
    29 1.100771 0.004527 -0.010679 -0.015488 -0.004784 -1.694062
    30 0.120153 -0.050270 -0.054489 0.287569 3.110905 1.561085
    31 -0.630155 -10.071251 -13.368879 0.434925 -3.265576 0.916870
    32 0.096944 -8.450418 -0.009365 -0.171351 -1.236953 0.379483
    33 0.447953 -2.798986 -0.200443 -1.198628 -0.014267 0.163836
    34 -0.032909 -1.480204 0.004940 -1.683884 0.000000 0.000002
    35 -0.027022 -1.076920 -0.020210 -0.971708 0.000000 0.000000
    36 -0.249534 -2.846964 -0.174213 -1.022486 0.040910 0.105577
    37 0.043235 -1.683941 0.096012 -1.580584 0.002823 -0.000167
    38 0.031729 -1.160830 0.058838 -1.629035 0.000642 0.008372
    39 -0.963866 -2.785145 -0.085350 -0.988719 0.073698 0.103385
    40 0.028479 -1.403067 0.006271 -1.327033 0.000000 0.000000
    41 0.021413 -0.957781 0.020046 -1.350994 0.000000 0.000000
    42 1.164475 -2.543940 -0.170330 -1.206683 -0.190581 0.231608
    43 0.024032 -1.129042 0.017807 -1.338123 0.000000 0.000001
    44 0.014898 -0.883989 -0.019848 -1.030508 0.000000 0.000000
    45 -0.586770 -1.264477 0.200161 0.369677 -0.600720 -2.485807
    46 1.522835 0.058681 0.016848 0.001410 0.008985 0.795215
    47 1.117947 0.048424 -0.005766 -0.022295 -0.011751 1.141767
    48 -0.139399 -0.111698 0.014397 0.879007 0.019582 1.538885
    49 -1.393470 8.839177 -0.239433 1.580804 -0.005023 -1.566847
  time 25
    0 -1.701054 -1.756239 3.259746 0.000000 0.000000 0.000000
    1 9.213061 3.714224 -9.219141 -0.075721 -1.612997 -0.119929
    2 -0.071918 -8.498730 -0.104137 0.150845 0.279811 0.049468
    3 2.902373 -1.028308 1.363887 0.246174 3.088492 1.568953
    4 12.020966 -0.977799 -0.495297 1.570796 1.570796 0.000000
    5 6.283741 -0.044232 0.000002 0.000001 0.000000 -1.570796
    6 3.872081 1.346180 0.000001 0.000000 0.000000 1.570797
    7 6.106668 1.919336 0.000002 0.000000 0.000000 1.570795
    8 7.604102 4.136611 0.000002 0.000001 0.000000 1.348977
    9 23.985891 20.395915 -0.074224 -0.000001 0.000000 0.000000
    10 0.000000 0.000000 0.000000 0.000000 0.000000 0.000000
    11 1.218365 -1.897359 0.000000 0.000002 0.000001 -1.685017
    12 0.585307 -0.000003 0.000000 -0.000002 0.000000 -0.249335
    13 0.606010 0.000000 0.000000 -0.000002 0.000000 -0.267288
    14 1.257180 8.762585 -0.153713 -1.570562 0.002683 -1.566807
    15 -0.488518 -2.755602 -0.228260 -0.871614 -0.202562 -0.209541
    16 0.039887 -1.479790 0.029854 -2.058952 0.000000 0.000001
    17 0.028786 -1.075731 -0.023109 -0.606348 0.000000 0.000000
    18 0.250027 -2.820665 -0.238396 -0.797118 -0.167517 -0.114938
    19 -0.049759 -1.680544 0.100479 -1.934764 0.000000 -0.000002
    20 -0.034142 -1.148312 0.084782 -0.925906 0.000000 0.000000
    21 0.957766 -2.746780 -0.090302 0.020255 -0.194156 0.008841
    22 -0.033420 -1.397129 -0.011257 -0.520985 0.000000 -0.000001
    23 -0.022360 -0.957436 0.018784 -0.975516 0.000000 0.000000
    24 -1.180681 -2.507217 -0.193859 -0.671429 -0.081516 -0.261329
    25 -0.024967 -1.123934 0.017597 -2.056303 0.000000 0.000001
    26 -0.020057 -0.890968 0.010090 -0.677843 0.000000 0.000000
    27 0.583510 -1.197277 0.185379 0.180209 -0.812070 -1.291294
    28 1.535927 0.010246 0.005009 -0.002964 -0.012979 -0.506650
    29 1.100771 0.004527 -0.010679 -0.015488 -0.004784 -1.694062
    30 0.120153 -0.050270 -0.054489 0.287569 3.110905 1.561085
    31 -0.630155 -10.059532 -13.361066 0.434436 -3.266151 0.916776
    32 0.096944 -8.450418 -0.009365 -0.171351 -1.236953 0.379483
    33 0.447953 -2.798986 -0.200443 -1.198628 -0.014267 0.163836
    34 -0.032909 -1.480204 0.004940 -1.683884 0.000000 0.000002
    35 -0.027022 -1.076920 -0.020210 -0.971708 0.000000 0.000000
    36 -0.249534 -2.846964 -0.174213 -1.022486 0.040910 0.105577
    37 0.043235 -1.683941 0.096012 -1.580584 0.002823 -0.000167
    38 0.031729 -1.160830 0.058838 -1.629035 0.000642 0.008372
    39 -0.963866 -2.785145 -0.085350 -0.988719 0.073698 0.103385
    40 0.028479 -1.403067 0.006271 -1.327033 0.000000 0.000000
    41 0.021413 -0.957781 0.020046 -1.350994 0.000000 0.000000
    42 1.164475 -2.543940 -0.170330 -1.206683 -0.190581 0.231608
    43 0.024032 -1.129042 0.017807 -1.338123 0.000000 0.000001
    44 0.014898 -0.883989 -0.019848 -1.030508 0.000000 0.000000
    45 -0.586770 -1.264477 0.200161 0.369677 -0.600720 -2.485807
    46 1.522835 0.058681 0.016848 0.001410 0.008985 0.795215
    47 1.117947 0.048424 -0.005766 -0.022295 -0.011751 1.141767
    48 -0.139399 -0.111698 0.014397 0.879007 0.019582 1.538885
    49 -1.393470 8.839177 -0.239433 1.580804 -0.005023 -1.566847
  time 26
    0 -1.701054 -1.756239 3.259746 0.000000 0.000000 0.000000
    1 9.213061 3.722037 -9.195703 -0.093141 -1.612907 -0.102478
    2 -0.071918 -8.498730 -0.104137 0.150845 0.279811 0.049468
    3 2.902373 -1.028308 1.363887 0.246174 3.088492 1.568953
    4 12.020966 -0.977799 -0.495297 1.570796 1.570796 0.000000
    5 6.283741 -0.044232 0.000002 0.000001 0.000000 -1.570796
    6 3.872081 1.346180 0.000001 0.000000 0.000000 1.570797
    7 6.106668 1.919336 0.000002 0.000000 0.000000 1.570795
    8 7.604102 4.136611 0.000002 0.000001 0.000000 1.348977
    9 23.985891 20.395915 -0.074224 -0.000001 0.000000 0.000000
    10 0.000000 0.000000 0.000000 0.000000 0.000000 0.000000
    11 1.218365 -1.897359 0.000000 0.000002 0.000001 -1.685017
    12 0.585307 -0.000003 0.000000 -0.000002 0.000000 -0.249335
    13 0.606010 0.000000 0.000000 -0.000002 0.000000 -0.267288
    14 1.257180 8.762585 -0.153713 -1.570562 0.002683 -1.566807
    15 -0.488518 -2.755602 -0.228260 -0.871614 -0.202562 -0.209541
    16 0.039887 -1.479790 0.029854 -2.058952 0.000000 0.000001
    17 0.028786 -1.075731 -0.023109 -0.606348 0.000000 0.000000
    18 0.250027 -2.820665 -0.238396 -0.797118 -0.167517 -0.114938
    19 -0.049759 -1.680544 0.100479 -1.934764 0.000000 -0.000002
    20 -0.034142 -1.148312 0.084782 -0.925879 0.000000 0.000000
    21 0.957766 -2.746780 -0.090302 0.020255 -0.194156 0.008841
    22 -0.033420 -1.397129 -0.011257 -0.520985 0.000000 -0.000001
    23 -0.022360 -0.957436 0.018784 -0.975516 0.000000 0.000000
    24 -1.180681 -2.507217 -0.193859 -0.671429 -0.081516 -0.261329
    25 -0.024967 -1.123934 0.017597 -2.056303 0.000000 0.000001
    26 -0.020057 -0.890968 0.010090 -0.677843 0.000000 0.000000
    27 0.583510 -1.197277 0.185379 0.180209 -0.812070 -1.291294
    28 1.535927 0.010246 0.005009 -0.002964 -0.012979 -0.506650
    29 1.100771 0.004527 -0.010679 -0.015488 -0.004784 -1.694062
    30 0.120153 -0.050270 -0.054489 0.287569 3.110905 1.561085
    31 -0.630155 -10.047813 -13.349347 0.433947 -3.266726 0.916776
    32 0.096944 -8.450418 -0.009365 -0.171351 -1.236953 0.379483
    33 0.447953 -2.798986 -0.200443 -1.198628 -0.014267 0.163836
    34 -0.032909 -1.480204 0.004940 -1.683884 0.000000 0.000002
    35 -0.027022 -1.076920 -0.020210 -0.971708 0.000000 0.000000
    36 -0.249534 -2.846964 -0.174213 -1.022486 0.040910 0.105577
    37 0.043235 -1.683941 0.096012 -1.580584 0.002823 -0.000167
    38 0.031729 -1.160830 0.058838 -1.629035 0.000642 0.008372
    39 -0.963866 -2.785145 -0.085350 -0.988719 0.073698 0.103385
    40 0.028479 -1.403067 0.006271 -1.327033 0.000000 0.000000
    41 0.021413 -0.957781 0.020046 -1.350994 0.000000 0.000000
    42 1.164475 -2.543940 -0.170330 -1.206683 -0.190581 0.231608
    43 0.024032 -1.129042 0.017807 -1.338123 0.000000 0.000001
    44 0.014898 -0.883989 -0.019848 -1.030508 0.000000 0.000000
    45 -0.586770 -1.264477 0.200161 0.369677 -0.600720 -2.485807
    46 1.522835 0.058681 0.016848 0.001410 0.008985 0.795215
    47 1.117947 0.048424 -0.005766 -0.022295 -0.011751 1.141767
    48 -0.139399 -0.111698 0.014397 0.879007 0.019582 1.538885
    49 -1.393470 8.839177 -0.239433 1.580804 -0.005023 -1.566847
  time 27
    0 -1.701054 -1.756239 3.259746 0.000000 0.000000 0.000000
    1 9.213061 3.733756 -9.168359 -0.108462 -1.612818 -0.087189
    2 -0.071918 -8.498730 -0.104137 0.150845 0.279811 0.049468
    3 2.902373 -1.028308 1.363887 0.246174 3.088492 1.568953
    4 12.020966 -0.977799 -0.495297 1.570796 1.570796 0.000000
    5 6.283741 -0.044232 0.000002 0.000001 0.000000 -1.570796
    6 3.872081 1.346180 0.000001 0.000000 0.000000 1.570797
    7 6.106668 1.919336 0.000002 0.000000 0.000000 1.570795
    8 7.604102 4.136611 0.000002 0.000001 0.000000 1.348977
    9 23.985891 20.395915 -0.074224 -0.000001 0.000000 0.000000
    10 0.000000 0.000000 0.000000 0.000000 0.000000 0.000000
    11 1.218365 -1.897359 0.000000 0.000002 0.000001 -1.685017
    12 0.585307 -0.000003 0.000000 -0.000002 0.000000 -0.249335
    13 0.606010 0.000000 0.000000 -0.000002 0.000000 -0.267288
    14 1.257180 8.762585 -0.153713 -1.570562 0.002683 -1.566807
    15 -0.488518 -2.755602 -0.228260 -0.871614 -0.202562 -0.209541
    16 0.039887 -1.479790 0.029854 -2.058952 0.000000 0.000001
    17 0.028786 -1.075731 -0.023109 -0.606348 0.000000 0.000000
    18 0.250027 -2.820665 -0.238396 -0.797118 -0.167517 -0.114938
    19 -0.049759 -1.680544 0.100479 -1.934764 0.000000 -0.000002
    20 -0.034142 -1.148312 0.084782 -0.925906 0.000000 0.000000
    21 0.957766 -2.746780 -0.090302 0.020255 -0.194156 0.008841
    22 -0.033420 -1.397129 -0.011257 -0.520985 0.000000 -0.000001
    23 -0.022360 -0.957436 0.018784 -0.975516 0.000000 0.000000
    24 -1.180681 -2.507217 -0.193859 -0.671429 -0.081516 -0.261329
    25 -0.024967 -1.123934 0.017597 -2.056303 0.000000 0.000001
    26 -0.020057 -0.890968 0.010090 -0.677843 0.000000 0.000000
    27 0.583510 -1.197277 0.185379 0.180209 -0.812070 -1.291294
    28 1.535927 0.010246 0.005009 -0.002964 -0.012979 -0.506650
    29 1.100771 0.004527 -0.010679 -0.015488 -0.004784 -1.694062
    30 0.120153 -0.050270 -0.054489 0.287569 3.110905 1.561085
    31 -0.630155 -10.032188 -13.333721 0.433540 -3.267205 0.916682
    32 0.096944 -8.450418 -0.009365 -0.171351 -1.236953 0.379483
    33 0.447953 -2.798986 -0.200443 -1.198628 -0.014267 0.163836
    34 -0.032909 -1.480204 0.004940 -1.683884 0.000000 0.000002
    35 -0.027022 -1.076920 -0.020210 -0.971708 0.000000 0.000000
    36 -0.249534 -2.846964 -0.174213 -1.022486 0.040910 0.105577
    37 0.043235 -1.683941 0.096012 -1.580584 0.002823 -0.000167
    38 0.031729 -1.160830 0.058838 -1.629035 0.000642 0.008372
    39 -0.963866 -2.785145 -0.085350 -0.988719 0.073698 0.103385
    40 0.028479 -1.403067 0.006271 -1.327033 0.000000 0.000000
    41 0.021413 -0.957781 0.020046 -1.350994 0.000000 0.000000
    42 1.164475 -2.543940 -0.170330 -1.206683 -0.190581 0.231608
    43 0.024032 -1.129042 0.017807 -1.338123 0.000000 0.000001
    44 0.014898 -0.883989 -0.019848 -1.030508 0.000000 0.000000
    45 -0.586770 -1.264477 0.200161 0.369677 -0.600720 -2.485807
    46 1.522835 0.058681 0.016848 0.001410 0.008985 0.795215
    47 1.117947 0.048424 -0.005766 -0.022295 -0.011751 1.141767
    48 -0.139399 -0.111698 0.014397 0.879007 0.019582 1.538885
    49 -1.393470 8.839177 -0.239433 1.580804 -0.005023 -1.566847
  time 28
    0 -1.701054 -1.756239 3.259746 0.000000 0.000000 0.000000
    1 9.213061 3.745475 -9.141014 -0.119270 -1.612758 -0.076381
    2 -0.071918 -8.498730 -0.104137 0.150845 0.279811 0.049468
    3 2.902373 -1.028308 1.363887 0.246174 3.088492 1.568953
    4 12.020966 -0.977799 -0.495297 1.570796 1.570796 0.000000
    5 6.283741 -0.044232 0.000002 0.000001 0.000000 -1.570796
    6 3.872081 1.346180 0.000001 0.000000 0.000000 1.570797
    7 6.106668 1.919336 0.000002 0.000000 0.000000 1.570795
    8 7.604102 4.136611 0.000002 0.000001 0.000000 1.348977
    9 23.985891 20.395915 -0.074224 -0.000001 0.000000 0.000000
    10 0.000000 0.000000 0.000000 0.000000 0.000000 0.000000
    11 1.218365 -1.897359 0.000000 0.000002 0.000001 -1.685017
    12 0.585307 -0.000003 0.000000 -0.000002 0.000000 -0.249335
    13 0.606010 0.000000 0.000000 -0.000002 0.000000 -0.267288
    14 1.257180 8.762585 -0.153713 -1.570562 0.002683 -1.566807
    15 -0.488518 -2.755602 -0.228260 -0.871614 -0.202562 -0.209541
    16 0.039887 -1.479790 0.029854 -2.058952 0.000000 0.000001
    17 0.028786 -1.075731 -0.023109 -0.606348 0.000000 0.000000
    18 0.250027 -2.820665 -0.238396 -0.797118 -0.167517 -0.114938
    19 -0.049759 -1.680544 0.100479 -1.934764 0.000000 -0.000002
    20 -0.034142 -1.148312 0.084782 -0.925906 0.000000 0.000000
    21 0.957766 -2.746780 -0.090302 0.020255 -0.194156 0.008841
    22 -0.033420 -1.397129 -0.011257 -0.520985 0.000000 -0.000001
    23 -0.022360 -0.957436 0.018784 -0.975516 0.000000 0.000000
    24 -1.180681 -2.507217 -0.193859 -0.671429 -0.081516 -0.261329
    25 -0.024967 -1.123934 0.017597 -2.056303 0.000000 0.000001
    26 -0.020057 -0.890968 0.010090 -0.677843 0.000000 0.000000
    27 0.583510 -1.197277 0.185379 0.180209 -0.812070 -1.291294
    28 1.535927 0.010246 0.005009 -0.002964 -0.012979 -0.506650
    29 1.100771 0.004527 -0.010679 -0.015488 -0.004784 -1.694062
    30 0.120153 -0.050270 -0.054489 0.287569 3.110905 1.561085
    31 -0.630155 -10.020468 -13.310283 0.433296 -3.267588 0.916682
    32 0.096944 -8.450418 -0.009365 -0.171351 -1.236953 0.379483
    33 0.447953 -2.798986 -0.200443 -1.198628 -0.014267 0.163836
    34 -0.032909 -1.480204 0.004940 -1.683884 0.000000 0.000002
    35 -0.027022 -1.076920 -0.020210 -0.971708 0.000000 0.000000
    36 -0.249534 -2.846964 -0.174213 -1.022486 0.040910 0.105577
    37 0.043235 -1.683941 0.096012 -1.580584 0.002823 -0.000167
    38 0.031729 -1.160830 0.058838 -1.629035 0.000642 0.008372
    39 -0.963866 -2.785145 -0.085350 -0.988719 0.073698 0.103385
    40 0.028479 -1.403067 0.006271 -1.327033 0.000000 0.000000
    41 0.021413 -0.957781 0.020046 -1.350994 0.000000 0.000000
    42 1.164475 -2.543940 -0.170330 -1.206683 -0.190581 0.231608
    43 0.024032 -1.129042 0.017807 -1.338123 0.000000 0.000001
    44 0.014898 -0.883989 -0.019848 -1.030508 0.000000 0.000000
    45 -0.586770 -1.264477 0.200161 0.369677 -0.600720 -2.485807
    46 1.522835 0.058681 0.016848 0.001410 0.008985 0.795215
    47 1.117947 0.048424 -0.005766 -0.022295 -0.011751 1.141767
    48 -0.139399 -0.111698 0.014397 0.879007 0.019582 1.538885
    49 -1.393470 8.839177 -0.239433 1.580804 -0.005023 -1.566847
  time 29
    0 -1.701054 -1.756239 3.259746 0.000000 0.000000 0.000000
    1 9.213061 3.757194 -9.113669 -0.123416 -1.612758 -0.072216
    2 -0.071918 -8.498730 -0.104137 0.150845 0.279811 0.049468
    3 2.902373 -1.028308 1.363887 0.246174 3.088492 1.568953
    4 12.020966 -0.977799 -0.495297 1.570796 1.570796 0.000000
    5 6.283741 -0.044232 0.000002 0.000001 0.000000 -1.570796
    6 3.872081 1.346180 0.000001 0.000000 0.000000 1.570797
    7 6.106668 1.919336 0.000002 0.000000 0.000000 1.570795
    8 7.604102 4.136611 0.000002 0.000001 0.000000 1.348977
    9 23.985891 20.395915 -0.074224 -0.000001 0.000000 0.000000
    10 0.000000 0.000000 0.000000 0.000000 0.000000 0.000000
    11 1.218365 -1.897359 0.000000 0.000002 0.000001 -1.685017
    12 0.585307 -0.000003 0.000000 -0.000002 0.000000 -0.249335
    13 0.606010 0.000000 0.000000 -0.000002 0.000000 -0.267288
    14 1.257180 8.762585 -0.153713 -1.570562 0.002683 -1.566807
    15 -0.488518 -2.755602 -0.228260 -0.871614 -0.202562 -0.209541
    16 0.039887 -1.479790 0.029854 -2.058952 0.000000 0.000001
    17 0.028786 -1.075731 -0.023109 -0.606348 0.000000 0.000000
    18 0.250027 -2.820665 -0.238396 -0.797118 -0.167517 -0.114938
    19 -0.049759 -1.680544 0.100479 -1.934764 0.000000 -0.000002
    20 -0.034142 -1.148312 0.084782 -0.925879 0.000000 0.000000
    21 0.957766 -2.746780 -0.090302 0.020255 -0.194156 0.008841
    22 -0.033420 -1.397129 -0.011257 -0.520985 0.000000 -0.000001
    23 -0.022360 -0.957436 0.018784 -0.975516 0.000000 0.000000
    24 -1.180681 -2.507217 -0.193859 -0.671429 -0.081516 -0.261329
    25 -0.024967 -1.123934 0.017597 -2.056303 0.000000 0.000001
    26 -0.020057 -0.890968 0.010090 -0.677843 0.000000 0.000000
    27 0.583510 -1.197277 0.185379 0.180209 -0.812070 -1.291294
    28 1.535927 0.010246 0.005009 -0.002964 -0.012979 -0.506650
    29 1.100771 0.004527 -0.010679 -0.015488 -0.004784 -1.694062
    30 0.120153 -0.050270 -0.054489 0.287569 3.110905 1.561085
    31 -0.630155 -10.004843 -13.282939 0.433133 -3.267684 0.916682
    32 0.096944 -8.450418 -0.009365 -0.171351 -1.236953 0.379483
    33 0.447953 -2.798986 -0.200443 -1.198628 -0.014267 0.163836
    34 -0.032909 -1.480204 0.004940 -1.683884 0.000000 0.000002
    35 -0.027022 -1.076920 -0.020210 -0.971708 0.000000 0.000000
    36 -0.249534 -2.846964 -0.174213 -1.022486 0.040910 0.105577
    37 0.043235 -1.683941 0.096012 -1.580584 0.002823 -0.000167
    38 0.031729 -1.160830 0.058838 -1.629035 0.000642 0.008372
    39 -0.963866 -2.785145 -0.085350 -0.988719 0.073698 0.103385
    40 0.028479 -1.403067 0.006271 -1.327033 0.000000 0.000000
    41 0.021413 -0.957781 0.020046 -1.350994 0.000000 0.000000
    42 1.164475 -2.543940 -0.170330 -1.206683 -0.190581 0.231608
    43 0.024032 -1.129042 0.017807 -1.338123 0.000000 0.000001
    44 0.014898 -0.883989 -0.019848 -1.030508 0.000000 0.000000
    45 -0.586770 -1.264477 0.200161 0.369677 -0.600720 -2.485807
    46 1.522835 0.058681 0.016848 0.001410 0.008985 0.795215
    47 1.117947 0.048424 -0.005766 -0.022295 -0.011751 1.141767
    48 -0.139399 -0.111698 0.014397 0.879007 0.019582 1.538885
    49 -1.393470 8.839177 -0.239433 1.580804 -0.005023 -1.566847
end
