version 1
nodes
  0 "[PWS]SL8-upgrade" -1
end
skeleton
  time 0
    0 3.120604 2.609214 1.421311 -0.030992 -1.424404 -0.619018
  time 1
    0 3.120604 2.609214 1.421311 -0.030992 -1.424404 -0.619018
end
