// Created by Crowbar 0.34.0.0

$ModelName "weapons/tfa_cso/w_balrog5.mdl"

$BodyGroup "studio"
{
	studio "v_balrog5_v_ref"
}

$collisionmodel "v_balrog5_v_ref.smd"
{
	$mass 9
}

$CDMaterials "models\weapons\tfa_cso\balrog5\"

$attachment "0" "root" 0.30 -10.60 -0.50 rotate -0 0 0

$Sequence "idle" {
	"anims\idle.smd"
	fps 30
}