// Created by Crowbar 0.49.0.0

$modelname "weapons/tfa_cso/c_m4a1gold.mdl"

$Include "csonline_gmod.qci"

$bodygroup "weapon"
{
	studio "v_m4a1gold_NEXON_CSO_m4a1_Gold_REF"
}

$CDMaterials "models\weapons\tfa_cso\m4a1gold"

$attachment 0 "Bone50" 0 -18.5 0
//$attachment 1 "Bone50" 0 -1.25 0
//$attachment 2 "Bone50" 0 -14.25 0

$definebone "Bone01" "" 8.580676 3.429350 -7.942452 -76.559824 25.246186 -38.595928 0.000000 0.000000 0.000000 -0.000001 -0.000001 0.000001
$definebone "Bone_Lefthand" "Bone01" -0.071918 -8.498729 -0.104136 -8.454793 -9.220954 19.910343 0.000000 0.000000 0.000000 0.000000 -0.000001 0.000001
$definebone "Bone02" "Bone_Lefthand" -0.549374 -3.389827 1.033063 84.087519 -72.544021 -73.834209 0.000000 0.000000 -0.000000 -0.000000 -0.000002 -0.000000
$definebone "Bone03" "Bone02" 0.013587 1.872281 1.004920 -0.005558 -0.418834 0.935411 0.000000 0.000000 0.000000 -0.000000 -0.000002 -0.000000
$definebone "Bone50" "Bone03" -0.013947 -3.609847 2.626636 -0.000000 -0.000002 -0.000000 0.000000 0.000000 0.000000 -0.000000 -0.000002 -0.000000
$definebone "Bone54" "Bone03" -0.013948 -4.784638 0.650335 -0.000000 -0.000002 -0.000000 0.000000 0.000000 0.000000 -0.000000 -0.000002 -0.000000
$definebone "Bone25" "Bone03" -0.013948 -2.720515 1.100493 -0.000000 -0.000002 -0.000000 0.000000 0.000000 0.000000 -0.000000 -0.000002 -0.000000
$definebone "Bone52" "Bone03" -0.642550 -1.684088 2.571740 -0.000000 12.828295 -0.000000 0.000000 0.000000 0.000000 -0.000000 -0.000002 -0.000000
$definebone "Bone56" "Bone03" -0.666018 -4.704160 1.993689 14.399974 -0.000002 -0.000000 0.000000 0.000000 0.000000 -0.000003 -0.000001 -0.000001
$definebone "Bone48" "Bone03" 0.063042 -16.929035 2.806933 0.012433 0.418716 -0.935354 0.000000 0.000000 0.000000 -0.000000 -0.000002 -0.000000
$definebone "NEXON_CSO_BOZO" "Bone02" -0.089387 1.323563 4.001438 -0.005730 -0.463009 0.973512 0.000000 0.000000 0.000000 -0.000000 -0.000002 -0.000000

$sequence "idle" {
	"v_m4a1gold_anims\idle"
	fps 16
	activity "ACT_VM_IDLE_SILENCED" 1
	snap
	loop
}
$sequence "shoot1" {
	"v_m4a1gold_anims\shoot1"
	{ event 5001 0 "11" }
	fps 20
	activity "ACT_VM_PRIMARYATTACK_SILENCED" 1
	snap
}
$sequence "shoot2" {
	"v_m4a1gold_anims\shoot2"
	{ event 5001 0 "11" }
	fps 20
	activity "ACT_VM_PRIMARYATTACK_SILENCED" 2
	snap
}
$sequence "shoot3" {
	"v_m4a1gold_anims\shoot3"
	{ event 5001 0 "11" }
	fps 20
	activity "ACT_VM_PRIMARYATTACK_SILENCED" 3
	snap
}
$sequence "reload" {
	"v_m4a1gold_anims\reload"
	{ event 5004 25 "M4A1.ClipOut" }
	{ event 5004 53 "M4A1.ClipIn" }
	{ event 5004 88 "M4A1.BoltPull" }
	fps 37
	activity "ACT_VM_RELOAD_SILENCED" 1
	snap
}
$sequence "draw" {
	"v_m4a1gold_anims\draw"
	{ event 5004 1 "M4A1.Deploy" }
	{ event 5004 17 "M4A1.BoltPull" }
	fps 40
	activity "ACT_VM_DRAW_SILENCED" 1
	snap
}
$sequence "add_silencer" {
	"v_m4a1gold_anims\add_silencer"
	{ event 5004 28 "M4A1.SilencerOn" }
	fps 30
	activity "ACT_VM_ATTACH_SILENCER" 1
	snap
}
$sequence "idle_unsil" {
	"v_m4a1gold_anims\idle_unsil"
	fps 16
	activity "ACT_VM_IDLE" 1
	snap
}
$sequence "shoot1_unsil" {
	"v_m4a1gold_anims\shoot1_unsil"
	{ event 5021 0 "22" }
	fps 20
	activity "ACT_VM_PRIMARYATTACK" 1
	snap
}
$sequence "shoot2_unsil" {
	"v_m4a1gold_anims\shoot2_unsil"
	{ event 5021 0 "22" }
	fps 20
	activity "ACT_VM_PRIMARYATTACK" 2
	snap
}
$sequence "shoot3_unsil" {
	"v_m4a1gold_anims\shoot3_unsil"
	{ event 5021 0 "22" }
	fps 20
	activity "ACT_VM_PRIMARYATTACK" 3
	snap
}
$sequence "reload_unsil" {
	"v_m4a1gold_anims\reload_unsil"
	{ event 5004 25 "M4A1.ClipOut" }
	{ event 5004 53 "M4A1.ClipIn" }
	{ event 5004 88 "M4A1.BoltPull" }
	fps 37
	activity "ACT_VM_RELOAD" 1
	snap
}
$sequence "draw_unsil" {
	"v_m4a1gold_anims\draw_unsil"
	{ event 5004 1 "M4A1.Deploy" }
	{ event 5004 17 "M4A1.BoltPull" }
	fps 40
	activity "ACT_VM_DRAW" 1
	snap
}
$sequence "detach_silencer" {
	"v_m4a1gold_anims\detach_silencer"
	{ event 5004 21 "M4A1.SilencerOff" }
	fps 30
	activity "ACT_VM_DETACH_SILENCER" 1
	snap
}
