// Created by Crowbar 0.34.0.0

$ModelName "weapons/tfa_cso/w_usas12camo.mdl"

$BodyGroup "studio"
{
	studio "v_usas12camo_f_usas_camo_template"
}

$collisionmodel "v_usas12camo_f_usas_camo_template.smd"
{
	$mass 9
}

$CDMaterials "models\weapons\tfa_cso\usas12camo"

$attachment "0" "root" 0.00 -15.60 0.70 rotate -0 0 0

$Sequence "idle" {
	"anims\idle.smd"
	fps 30
}