version 1
nodes
  0 "Bone24" -1
  1 "Bone25" 0
  2 "Bone47" 1
  3 "Bone48" 2
  4 "Bone55" 3
  5 "Bone51" 3
  6 "Bone49" 3
  7 "Bone53" 3
  8 "Bone01" -1
  9 "Bone02" 8
  10 "Bone03" 9
  11 "Bone04" 10
  12 "Bone05" 11
  13 "Bone07" 10
  14 "Bone08" 13
  15 "Bone09" 14
  16 "Bone11" 10
  17 "Bone12" 16
  18 "Bone13" 17
  19 "Bone15" 10
  20 "Bone16" 19
  21 "Bone17" 20
  22 "Bone19" 10
  23 "Bone20" 22
  24 "Bone21" 23
  25 "Bone26" 1
  26 "Bone27" 25
  27 "Bone28" 26
  28 "Bone29" 27
  29 "Bone31" 25
  30 "Bone32" 29
  31 "Bone33" 30
  32 "Bone35" 25
  33 "Bone36" 32
  34 "Bone37" 33
  35 "Bone39" 25
  36 "Bone40" 35
  37 "Bone41" 36
  38 "Bone43" 25
  39 "Bone44" 38
  40 "Bone45" 39
end
skeleton
  time 0
    0 6.549563 1.324527 -7.103113 -1.443603 -1.359266 1.295283
    1 -0.244755 -8.933565 -0.000001 0.328257 -0.062774 -0.298039
    2 -0.069481 -3.465251 0.968036 1.218516 1.752558 1.295778
    3 0.000000 2.398083 0.584532 0.000000 0.000000 0.000000
    4 0.003905 -1.378896 1.049161 0.000000 0.000000 0.000000
    5 -0.000001 -1.588729 1.528777 0.000000 0.000000 0.000000
    6 -0.000001 -2.798934 1.423861 0.329861 0.000000 0.000000
    7 0.000000 -1.079136 2.293165 0.000000 0.000000 0.000000
    8 -1.704729 -2.854112 -12.300015 -0.571082 0.132516 0.726811
    9 0.026865 -9.077094 0.000000 0.462046 0.053114 0.094195
    10 0.000000 -0.456721 0.000000 0.000000 0.000000 0.000000
    11 -0.710981 0.147373 0.477534 0.100252 -0.070374 -2.415804
    12 1.647791 0.090625 0.000001 0.000000 0.000000 0.460771
    13 -1.090121 -1.829638 -0.122573 0.000000 -0.130889 -1.696450
    14 1.390341 -0.000582 0.000000 0.000000 -1.089060 0.005236
    15 0.964939 -0.010943 0.000000 0.000000 -0.884864 0.000000
    16 -0.348493 -1.994085 -0.122573 -0.000007 -0.450292 -1.644097
    17 1.546316 0.004628 0.000002 0.000000 -1.455639 -0.000001
    18 1.135736 0.008475 -0.000001 0.000000 -0.544558 0.020944
    19 0.310264 -1.738958 -0.122573 -0.000005 -0.785379 -1.518430
    20 1.569654 0.049780 0.000001 0.000000 -1.230502 -0.010472
    21 1.096338 0.003407 -0.000001 0.000000 -0.780198 0.005236
    22 0.956486 -1.335291 -0.122573 0.000000 -1.094316 -1.445133
    23 1.346260 0.018204 0.000000 0.000000 -1.356105 -0.005236
    24 0.874448 -0.001050 0.000000 0.000000 -0.926807 0.000000
    25 -0.017482 -0.437063 0.000000 0.000000 0.000000 0.000000
    26 0.714223 0.114180 0.472822 -0.048916 -0.322244 -0.907438
    27 1.728637 -0.122215 -0.000001 0.000000 0.000000 -0.528829
    28 0.882756 0.056391 0.000000 0.000000 0.000000 -0.534113
    29 1.137759 -1.867486 -0.137080 0.006196 -0.130751 -1.497905
    30 1.365644 0.014869 0.000000 0.003583 -0.832458 -0.013386
    31 0.938014 -0.005664 0.000001 -0.010043 -1.272279 0.024075
    32 0.409682 -2.071858 -0.137080 0.028594 -0.396954 -1.597491
    33 1.470907 0.007359 -0.000001 0.000000 -1.560324 0.010472
    34 1.152100 0.010338 0.000000 0.000000 -1.261865 0.005236
    35 -0.292848 -1.816393 -0.137080 0.008057 -0.298339 -1.671501
    36 1.511618 -0.004263 0.000000 0.000000 -1.544617 0.036652
    37 1.099637 -0.010806 -0.000001 0.000000 -1.314229 0.010472
    38 -0.957059 -1.356555 -0.137080 -0.026917 -0.376066 -1.612798
    39 1.351391 -0.010799 0.000000 0.000000 -0.842992 0.005229
    40 0.859052 0.017735 -0.000002 0.000000 -1.513199 -0.010472
  time 1
    0 6.549563 1.324527 -7.103113 -1.443603 -1.359266 1.295283
    1 -0.244755 -8.933565 -0.000001 0.328635 -0.121492 -0.121086
    2 -0.069481 -3.465251 0.968036 1.218516 1.752558 1.295778
    3 0.000000 2.398083 0.584532 0.000000 0.000000 0.000000
    4 0.003905 -1.378896 1.049161 0.000000 0.000000 0.000000
    5 -0.000001 -1.588729 1.528777 0.000000 0.000000 0.000000
    6 -0.000001 -2.798934 1.423861 0.337472 0.000000 0.000000
    7 0.000000 -0.723656 2.293165 0.000000 0.000000 0.000000
    8 -1.634415 -3.443974 -12.530491 -0.612245 0.167700 0.722558
    9 0.026865 -9.077094 0.000000 0.457842 0.057609 0.095166
    10 0.000000 -0.456721 0.000000 0.000000 0.000000 0.000000
    11 -0.710981 0.147373 0.477534 0.100252 -0.070374 -2.415804
    12 1.647791 0.090625 0.000001 0.000000 0.000000 0.460771
    13 -1.090121 -1.829638 -0.122573 0.000000 -0.130889 -1.696450
    14 1.390341 -0.000582 0.000000 0.000000 -1.089060 0.005236
    15 0.964939 -0.010943 0.000000 0.000000 -0.884864 0.000000
    16 -0.348493 -1.994085 -0.122573 -0.000007 -0.450292 -1.644097
    17 1.546316 0.004628 0.000002 0.000000 -1.455639 -0.000001
    18 1.135736 0.008475 -0.000001 0.000000 -0.544558 0.020944
    19 0.310264 -1.738958 -0.122573 -0.000005 -0.785379 -1.518430
    20 1.569654 0.049780 0.000001 0.000000 -1.230502 -0.010472
    21 1.096338 0.003407 -0.000001 0.000000 -0.780198 0.005236
    22 0.956486 -1.335291 -0.122573 0.000000 -1.094316 -1.445133
    23 1.346260 0.018204 0.000000 0.000000 -1.356105 -0.005236
    24 0.874448 -0.001050 0.000000 0.000000 -0.926807 0.000000
    25 -0.017482 -0.437063 0.000000 0.000000 0.000000 0.000000
    26 0.714223 0.114180 0.472822 -0.048916 -0.322244 -0.907438
    27 1.728637 -0.122215 -0.000001 0.000000 0.000000 -0.528829
    28 0.882756 0.056391 0.000000 0.000000 0.000000 -0.534113
    29 1.137759 -1.867486 -0.137080 0.006196 -0.130751 -1.497905
    30 1.365644 0.014869 0.000000 0.003691 -0.842738 -0.013457
    31 0.938014 -0.005664 0.000001 -0.010499 -1.281581 0.024506
    32 0.409682 -2.071858 -0.137080 0.028594 -0.396954 -1.597491
    33 1.470907 0.007359 -0.000001 0.000000 -1.560324 0.010472
    34 1.152100 0.010338 0.000000 0.000000 -1.261865 0.005236
    35 -0.292848 -1.816393 -0.137080 0.008057 -0.298339 -1.671501
    36 1.511618 -0.004263 0.000000 0.000000 -1.544617 0.036652
    37 1.099637 -0.010806 -0.000001 0.000000 -1.314229 0.010472
    38 -0.957059 -1.356555 -0.137080 -0.026917 -0.376066 -1.612798
    39 1.351391 -0.010799 0.000000 0.000000 -0.842992 0.005229
    40 0.859052 0.017735 -0.000002 0.000000 -1.513199 -0.010472
  time 2
    0 6.690192 1.570629 -6.903888 -1.286367 -1.321273 1.128800
    1 -0.244755 -8.933565 -0.000001 0.326555 -0.146997 -0.043647
    2 -0.069481 -3.465251 0.968036 1.218516 1.752558 1.295778
    3 0.000000 2.398083 0.584532 0.000000 0.000000 0.000000
    4 0.003905 -1.378896 1.049161 0.000000 0.000000 0.000000
    5 -0.000001 -1.588729 1.528777 0.000000 0.000000 0.000000
    6 -0.000001 -2.798934 1.423861 0.361998 0.000000 0.000000
    7 0.000000 0.346689 2.293165 0.000000 0.000000 0.000000
    8 -1.548474 -3.443974 -12.421113 -0.655608 0.204227 0.716399
    9 0.026865 -9.077094 0.000000 0.453791 0.062228 0.095716
    10 0.000000 -0.456721 0.000000 0.000000 0.000000 0.000000
    11 -0.710981 0.147373 0.477534 0.100252 -0.070374 -2.415804
    12 1.647791 0.090625 0.000001 0.000000 0.000000 0.460771
    13 -1.090121 -1.829638 -0.122573 0.000000 -0.130889 -1.696450
    14 1.390341 -0.000582 0.000000 0.000000 -1.089060 0.005236
    15 0.964939 -0.010943 0.000000 0.000000 -0.884864 0.000000
    16 -0.348493 -1.994085 -0.122573 -0.000007 -0.450292 -1.644097
    17 1.546316 0.004628 0.000002 0.000000 -1.455639 -0.000001
    18 1.135736 0.008475 -0.000001 0.000000 -0.544558 0.020944
    19 0.310264 -1.738958 -0.122573 -0.000005 -0.785379 -1.518430
    20 1.569654 0.049780 0.000001 0.000000 -1.230502 -0.010472
    21 1.096338 0.003407 -0.000001 0.000000 -0.780198 0.005236
    22 0.956486 -1.335291 -0.122573 0.000000 -1.094316 -1.445133
    23 1.346260 0.018204 0.000000 0.000000 -1.356105 -0.005236
    24 0.874448 -0.001050 0.000000 0.000000 -0.926807 0.000000
    25 -0.017482 -0.437063 0.000000 0.000000 0.000000 0.000000
    26 0.714223 0.114180 0.472822 -0.048916 -0.322244 -0.907438
    27 1.728637 -0.122215 -0.000001 0.000000 0.000000 -0.528829
    28 0.882756 0.056391 0.000000 0.000000 0.000000 -0.534113
    29 1.137759 -1.867486 -0.137080 0.006196 -0.130751 -1.497905
    30 1.365644 0.014869 0.000000 0.004075 -0.875808 -0.013745
    31 0.938014 -0.005664 0.000001 -0.012128 -1.311541 0.026088
    32 0.409682 -2.071858 -0.137080 0.028594 -0.396954 -1.597491
    33 1.470907 0.007359 -0.000001 0.000000 -1.560324 0.010472
    34 1.152100 0.010338 0.000000 0.000000 -1.261865 0.005236
    35 -0.292848 -1.816393 -0.137080 0.008057 -0.298339 -1.671501
    36 1.511618 -0.004263 0.000000 0.000000 -1.544617 0.036652
    37 1.099637 -0.010806 -0.000001 0.000000 -1.314229 0.010472
    38 -0.957059 -1.356555 -0.137080 -0.026917 -0.376066 -1.612798
    39 1.351391 -0.010799 0.000000 0.000000 -0.842992 0.005229
    40 0.859052 0.017735 -0.000002 0.000000 -1.513199 -0.010472
  time 3
    0 6.772226 1.730790 -6.771072 -1.239979 -1.302799 1.078888
    1 -0.244755 -8.933565 -0.000001 0.332526 -0.121534 -0.121394
    2 -0.069481 -3.465251 0.968036 1.218516 1.752558 1.295778
    3 0.000000 2.398083 0.584532 0.000000 0.000000 0.000000
    4 0.003905 -1.378896 1.049161 0.000000 0.000000 0.000000
    5 -0.000001 -1.588729 1.528777 0.000000 0.000000 0.000000
    6 -0.000001 -2.798934 1.423861 0.366863 0.000000 0.000000
    7 0.000000 0.346689 2.293165 0.000000 0.000000 0.000000
    8 -1.493785 -3.217404 -12.229701 -0.663778 0.210842 0.715812
    9 0.026865 -9.077094 0.000000 0.451152 0.063365 0.098272
    10 0.000000 -0.456721 0.000000 0.000000 0.000000 0.000000
    11 -0.710981 0.147373 0.477534 0.100252 -0.070374 -2.415804
    12 1.647791 0.090625 0.000001 0.000000 0.000000 0.460771
    13 -1.090121 -1.829638 -0.122573 0.000000 -0.130889 -1.696450
    14 1.390341 -0.000582 0.000000 0.000000 -1.089060 0.005236
    15 0.964939 -0.010943 0.000000 0.000000 -0.884864 0.000000
    16 -0.348493 -1.994085 -0.122573 -0.000007 -0.450292 -1.644097
    17 1.546316 0.004628 0.000002 0.000000 -1.455639 -0.000001
    18 1.135736 0.008475 -0.000001 0.000000 -0.544558 0.020944
    19 0.310264 -1.738958 -0.122573 -0.000005 -0.785379 -1.518430
    20 1.569654 0.049780 0.000001 0.000000 -1.230502 -0.010472
    21 1.096338 0.003407 -0.000001 0.000000 -0.780198 0.005236
    22 0.956486 -1.335291 -0.122573 0.000000 -1.094316 -1.445133
    23 1.346260 0.018204 0.000000 0.000000 -1.356105 -0.005236
    24 0.874448 -0.001050 0.000000 0.000000 -0.926807 0.000000
    25 -0.017482 -0.437063 0.000000 0.000000 0.000000 0.000000
    26 0.714223 0.114180 0.472822 -0.048916 -0.322244 -0.907438
    27 1.728637 -0.122215 -0.000001 0.000000 0.000000 -0.528829
    28 0.882756 0.056391 0.000000 0.000000 0.000000 -0.534113
    29 1.137759 -1.867486 -0.137080 0.006196 -0.130751 -1.497905
    30 1.365644 0.014869 0.000000 0.004147 -0.882387 -0.013817
    31 0.938014 -0.005664 0.000001 -0.012512 -1.317512 0.026435
    32 0.409682 -2.071858 -0.137080 0.028594 -0.396954 -1.597491
    33 1.470907 0.007359 -0.000001 0.000000 -1.560324 0.010472
    34 1.152100 0.010338 0.000000 0.000000 -1.261865 0.005236
    35 -0.292848 -1.816393 -0.137080 0.008057 -0.298339 -1.671501
    36 1.511618 -0.004263 0.000000 0.000000 -1.544617 0.036652
    37 1.099637 -0.010806 -0.000001 0.000000 -1.314229 0.010472
    38 -0.957059 -1.356555 -0.137080 -0.026917 -0.376066 -1.612798
    39 1.351391 -0.010799 0.000000 0.000000 -0.842992 0.005229
    40 0.859052 0.017735 -0.000002 0.000000 -1.513199 -0.010472
  time 4
    0 6.776132 1.773760 -6.735914 -1.288533 -1.311790 1.130722
    1 -0.244755 -8.933565 -0.000001 0.336065 -0.084207 -0.233069
    2 -0.069481 -3.465251 0.968036 1.218516 1.752558 1.295778
    3 0.000000 2.398083 0.584532 0.000000 0.000000 0.000000
    4 0.003905 -1.378896 1.049161 0.000000 0.000000 0.000000
    5 -0.000001 -1.588729 1.528777 0.000000 0.000000 0.000000
    6 -0.000001 -2.798934 1.423861 0.329861 0.000000 0.000000
    7 0.000000 -0.012697 2.293165 0.000000 0.000000 0.000000
    8 -1.564100 -3.123651 -12.229701 -0.651209 0.200104 0.718965
    9 0.026865 -9.077094 0.000000 0.449464 0.062459 0.101864
    10 0.000000 -0.456721 0.000000 0.000000 0.000000 0.000000
    11 -0.710981 0.147373 0.477534 0.100252 -0.070374 -2.415804
    12 1.647791 0.090625 0.000001 0.000000 0.000000 0.460771
    13 -1.090121 -1.829638 -0.122573 0.000000 -0.130889 -1.696450
    14 1.390341 -0.000582 0.000000 0.000000 -1.089060 0.005236
    15 0.964939 -0.010943 0.000000 0.000000 -0.884864 0.000000
    16 -0.348493 -1.994085 -0.122573 -0.000007 -0.450292 -1.644097
    17 1.546316 0.004628 0.000002 0.000000 -1.455639 -0.000001
    18 1.135736 0.008475 -0.000001 0.000000 -0.544558 0.020944
    19 0.310264 -1.738958 -0.122573 -0.000005 -0.785379 -1.518430
    20 1.569654 0.049780 0.000001 0.000000 -1.230502 -0.010472
    21 1.096338 0.003407 -0.000001 0.000000 -0.780198 0.005236
    22 0.956486 -1.335291 -0.122573 0.000000 -1.094316 -1.445133
    23 1.346260 0.018204 0.000000 0.000000 -1.356105 -0.005236
    24 0.874448 -0.001050 0.000000 0.000000 -0.926807 0.000000
    25 -0.017482 -0.437063 0.000000 0.000000 0.000000 0.000000
    26 0.714223 0.114180 0.472822 -0.048916 -0.322244 -0.907438
    27 1.728637 -0.122215 -0.000001 0.000000 0.000000 -0.528829
    28 0.882756 0.056391 0.000000 0.000000 0.000000 -0.534113
    29 1.137759 -1.867486 -0.137080 0.006196 -0.130751 -1.497905
    30 1.365644 0.014869 0.000000 0.003583 -0.832458 -0.013386
    31 0.938014 -0.005664 0.000001 -0.010043 -1.272279 0.024075
    32 0.409682 -2.071858 -0.137080 0.028594 -0.396954 -1.597491
    33 1.470907 0.007359 -0.000001 0.000000 -1.560324 0.010472
    34 1.152100 0.010338 0.000000 0.000000 -1.261865 0.005236
    35 -0.292848 -1.816393 -0.137080 0.008057 -0.298339 -1.671501
    36 1.511618 -0.004263 0.000000 0.000000 -1.544617 0.036652
    37 1.099637 -0.010806 -0.000001 0.000000 -1.314229 0.010472
    38 -0.957059 -1.356555 -0.137080 -0.026917 -0.376066 -1.612798
    39 1.351391 -0.010799 0.000000 0.000000 -0.842992 0.005229
    40 0.859052 0.017735 -0.000002 0.000000 -1.513199 -0.010472
  time 5
    0 6.705817 1.703445 -6.794510 -1.387721 -1.330940 1.235927
    1 -0.244755 -8.933565 -0.000001 0.335443 -0.062319 -0.298252
    2 -0.069481 -3.465251 0.968036 1.218516 1.752558 1.295778
    3 0.000000 2.398083 0.584532 0.000000 0.000000 0.000000
    4 0.003905 -1.378896 1.049161 0.000000 0.000000 0.000000
    5 -0.000001 -1.588729 1.528777 0.000000 0.000000 0.000000
    6 -0.000001 -2.806747 1.423861 0.296098 0.000000 0.000000
    7 0.000000 -1.079136 2.293165 0.000000 0.000000 0.000000
    8 -1.661759 -3.057243 -12.272671 -0.620541 0.173740 0.725271
    9 0.026865 -9.077094 0.000000 0.447776 0.059847 0.107430
    10 0.000000 -0.456721 0.000000 0.000000 0.000000 0.000000
    11 -0.710981 0.147373 0.477534 0.100252 -0.070374 -2.415804
    12 1.647791 0.090625 0.000001 0.000000 0.000000 0.460771
    13 -1.090121 -1.829638 -0.122573 0.000000 -0.130889 -1.696450
    14 1.390341 -0.000582 0.000000 0.000000 -1.089060 0.005236
    15 0.964939 -0.010943 0.000000 0.000000 -0.884864 0.000000
    16 -0.348493 -1.994085 -0.122573 -0.000007 -0.450292 -1.644097
    17 1.546316 0.004628 0.000002 0.000000 -1.455639 -0.000001
    18 1.135736 0.008475 -0.000001 0.000000 -0.544558 0.020944
    19 0.310264 -1.738958 -0.122573 -0.000005 -0.785379 -1.518430
    20 1.569654 0.049780 0.000001 0.000000 -1.230502 -0.010472
    21 1.096338 0.003407 -0.000001 0.000000 -0.780198 0.005236
    22 0.956486 -1.335291 -0.122573 0.000000 -1.094316 -1.445133
    23 1.346260 0.018204 0.000000 0.000000 -1.356105 -0.005236
    24 0.874448 -0.001050 0.000000 0.000000 -0.926807 0.000000
    25 -0.017482 -0.437063 0.000000 0.000000 0.000000 0.000000
    26 0.714223 0.114180 0.472822 -0.048916 -0.322244 -0.907438
    27 1.728637 -0.122215 -0.000001 0.000000 0.000000 -0.528829
    28 0.882756 0.056391 0.000000 0.000000 0.000000 -0.534113
    29 1.137759 -1.867486 -0.137080 0.006196 -0.130751 -1.497905
    30 1.365644 0.014869 0.000000 0.003164 -0.788365 -0.013062
    31 0.938014 -0.005664 0.000001 -0.008401 -1.232325 0.022517
    32 0.409682 -2.071858 -0.137080 0.028594 -0.396954 -1.597491
    33 1.470907 0.007359 -0.000001 0.000000 -1.560324 0.010472
    34 1.152100 0.010338 0.000000 0.000000 -1.261865 0.005236
    35 -0.292848 -1.816393 -0.137080 0.008057 -0.298339 -1.671501
    36 1.511618 -0.004263 0.000000 0.000000 -1.544617 0.036652
    37 1.099637 -0.010806 -0.000001 0.000000 -1.314229 0.010472
    38 -0.957059 -1.356555 -0.137080 -0.026917 -0.376066 -1.612798
    39 1.351391 -0.010799 0.000000 0.000000 -0.842992 0.005229
    40 0.859052 0.017735 -0.000002 0.000000 -1.513199 -0.010472
  time 6
    0 6.615971 1.594067 -6.880450 -1.452181 -1.343687 1.304068
    1 -0.244755 -8.933565 -0.000001 0.334579 -0.058930 -0.308591
    2 -0.069481 -3.465251 0.968036 1.218516 1.752558 1.295778
    3 0.000000 2.398083 0.584532 0.000000 0.000000 0.000000
    4 0.003905 -1.378896 1.049161 0.000000 0.000000 0.000000
    5 -0.000001 -1.588729 1.528777 0.000000 0.000000 0.000000
    6 -0.000001 -2.818466 1.423861 0.236889 0.000000 0.000000
    7 0.000000 -1.079136 2.293165 0.000000 0.000000 0.000000
    8 -1.700823 -3.033805 -12.296109 -0.589935 0.147184 0.730111
    9 0.026865 -9.077094 0.000000 0.447500 0.057005 0.111151
    10 0.000000 -0.456721 0.000000 0.000000 0.000000 0.000000
    11 -0.710981 0.147373 0.477534 0.100252 -0.070374 -2.415804
    12 1.647791 0.090625 0.000001 0.000000 0.000000 0.460771
    13 -1.090121 -1.829638 -0.122573 0.000000 -0.130889 -1.696450
    14 1.390341 -0.000582 0.000000 0.000000 -1.089060 0.005236
    15 0.964939 -0.010943 0.000000 0.000000 -0.884864 0.000000
    16 -0.348493 -1.994085 -0.122573 -0.000007 -0.450292 -1.644097
    17 1.546316 0.004628 0.000002 0.000000 -1.455639 -0.000001
    18 1.135736 0.008475 -0.000001 0.000000 -0.544558 0.020944
    19 0.310264 -1.738958 -0.122573 -0.000005 -0.785379 -1.518430
    20 1.569654 0.049780 0.000001 0.000000 -1.230502 -0.010472
    21 1.096338 0.003407 -0.000001 0.000000 -0.780198 0.005236
    22 0.956486 -1.335291 -0.122573 0.000000 -1.094316 -1.445133
    23 1.346260 0.018204 0.000000 0.000000 -1.356105 -0.005236
    24 0.874448 -0.001050 0.000000 0.000000 -0.926807 0.000000
    25 -0.017482 -0.437063 0.000000 0.000000 0.000000 0.000000
    26 0.714223 0.114180 0.472822 -0.048916 -0.322244 -0.907438
    27 1.728637 -0.122215 -0.000001 0.000000 0.000000 -0.528829
    28 0.882756 0.056391 0.000000 0.000000 0.000000 -0.534113
    29 1.137759 -1.867486 -0.137080 0.006196 -0.130751 -1.497905
    30 1.365644 0.014869 0.000000 0.002493 -0.711962 -0.012583
    31 0.938014 -0.005664 0.000001 -0.006316 -1.163120 0.020551
    32 0.409682 -2.071858 -0.137080 0.028594 -0.396954 -1.597491
    33 1.470907 0.007359 -0.000001 0.000000 -1.560324 0.010472
    34 1.152100 0.010338 0.000000 0.000000 -1.261865 0.005236
    35 -0.292848 -1.816393 -0.137080 0.008057 -0.298339 -1.671501
    36 1.511618 -0.004263 0.000000 0.000000 -1.544617 0.036652
    37 1.099637 -0.010806 -0.000001 0.000000 -1.314229 0.010472
    38 -0.957059 -1.356555 -0.137080 -0.026917 -0.376066 -1.612798
    39 1.351391 -0.010799 0.000000 0.000000 -0.842992 0.005229
    40 0.859052 0.017735 -0.000002 0.000000 -1.513199 -0.010472
  time 7
    0 6.549563 1.512033 -6.946858 -1.468837 -1.348613 1.321419
    1 -0.244755 -8.933565 -0.000001 0.333552 -0.062299 -0.298891
    2 -0.069481 -3.465251 0.968036 1.218516 1.752558 1.295778
    3 0.000000 2.398083 0.584532 0.000000 0.000000 0.000000
    4 0.003905 -1.378896 1.049161 0.000000 0.000000 0.000000
    5 -0.000001 -1.588729 1.528777 0.000000 0.000000 0.000000
    6 -0.000001 -2.837998 1.423861 0.186291 0.000000 0.000000
    7 0.000000 -1.079136 2.293165 0.000000 0.000000 0.000000
    8 -1.712542 -3.049430 -12.307828 -0.575732 0.134913 0.731650
    9 0.026865 -9.077094 0.000000 0.448482 0.055495 0.111442
    10 0.000000 -0.456721 0.000000 0.000000 0.000000 0.000000
    11 -0.710981 0.147373 0.477534 0.100252 -0.070374 -2.415804
    12 1.647791 0.090625 0.000001 0.000000 0.000000 0.460771
    13 -1.090121 -1.829638 -0.122573 0.000000 -0.130889 -1.696450
    14 1.390341 -0.000582 0.000000 0.000000 -1.089060 0.005236
    15 0.964939 -0.010943 0.000000 0.000000 -0.884864 0.000000
    16 -0.348493 -1.994085 -0.122573 -0.000007 -0.450292 -1.644097
    17 1.546316 0.004628 0.000002 0.000000 -1.455639 -0.000001
    18 1.135736 0.008475 -0.000001 0.000000 -0.544558 0.020944
    19 0.310264 -1.738958 -0.122573 -0.000005 -0.785379 -1.518430
    20 1.569654 0.049780 0.000001 0.000000 -1.230502 -0.010472
    21 1.096338 0.003407 -0.000001 0.000000 -0.780198 0.005236
    22 0.956486 -1.335291 -0.122573 0.000000 -1.094316 -1.445133
    23 1.346260 0.018204 0.000000 0.000000 -1.356105 -0.005236
    24 0.874448 -0.001050 0.000000 0.000000 -0.926807 0.000000
    25 -0.017482 -0.437063 0.000000 0.000000 0.000000 0.000000
    26 0.714223 0.114180 0.472822 -0.048916 -0.322244 -0.907438
    27 1.728637 -0.122215 -0.000001 0.000000 0.000000 -0.528829
    28 0.882756 0.056391 0.000000 0.000000 0.000000 -0.534113
    29 1.137759 -1.867486 -0.137080 0.006196 -0.130751 -1.497905
    30 1.365644 0.014869 0.000000 0.001977 -0.647546 -0.012259
    31 0.938014 -0.005664 0.000001 -0.004998 -1.104776 0.019377
    32 0.409682 -2.071858 -0.137080 0.028594 -0.396954 -1.597491
    33 1.470907 0.007359 -0.000001 0.000000 -1.560324 0.010472
    34 1.152100 0.010338 0.000000 0.000000 -1.261865 0.005236
    35 -0.292848 -1.816393 -0.137080 0.008057 -0.298339 -1.671501
    36 1.511618 -0.004263 0.000000 0.000000 -1.544617 0.036652
    37 1.099637 -0.010806 -0.000001 0.000000 -1.314229 0.010472
    38 -0.957059 -1.356555 -0.137080 -0.026917 -0.376066 -1.612798
    39 1.351391 -0.010799 0.000000 0.000000 -0.842992 0.005229
    40 0.859052 0.017735 -0.000002 0.000000 -1.513199 -0.010472
  time 8
    0 6.522218 1.469063 -6.978109 -1.476249 -1.354401 1.329326
    1 -0.244755 -8.933565 -0.000001 0.332661 -0.070359 -0.275113
    2 -0.069481 -3.465251 0.968036 1.218516 1.752558 1.295778
    3 0.000000 2.398083 0.584532 0.000000 0.000000 0.000000
    4 0.003905 -1.378896 1.049161 0.000000 0.000000 0.000000
    5 -0.000001 -1.588729 1.528777 0.000000 0.000000 0.000000
    6 -0.000001 -2.849717 1.423861 0.132480 0.000000 0.000000
    7 0.000000 -1.079136 2.293165 0.000000 0.000000 0.000000
    8 -1.716448 -3.053337 -12.319547 -0.573721 0.133187 0.731724
    9 0.026865 -9.077094 0.000000 0.448942 0.055228 0.111054
    10 0.000000 -0.456721 0.000000 0.000000 0.000000 0.000000
    11 -0.710981 0.147373 0.477534 0.100252 -0.070374 -2.415804
    12 1.647791 0.090625 0.000001 0.000000 0.000000 0.460771
    13 -1.090121 -1.829638 -0.122573 0.000000 -0.130889 -1.696450
    14 1.390341 -0.000582 0.000000 0.000000 -1.089060 0.005236
    15 0.964939 -0.010943 0.000000 0.000000 -0.884864 0.000000
    16 -0.348493 -1.994085 -0.122573 -0.000007 -0.450292 -1.644097
    17 1.546316 0.004628 0.000002 0.000000 -1.455639 -0.000001
    18 1.135736 0.008475 -0.000001 0.000000 -0.544558 0.020944
    19 0.310264 -1.738958 -0.122573 -0.000005 -0.785379 -1.518430
    20 1.569654 0.049780 0.000001 0.000000 -1.230502 -0.010472
    21 1.096338 0.003407 -0.000001 0.000000 -0.780198 0.005236
    22 0.956486 -1.335291 -0.122573 0.000000 -1.094316 -1.445133
    23 1.346260 0.018204 0.000000 0.000000 -1.356105 -0.005236
    24 0.874448 -0.001050 0.000000 0.000000 -0.926807 0.000000
    25 -0.017482 -0.437063 0.000000 0.000000 0.000000 0.000000
    26 0.714223 0.114180 0.472822 -0.048916 -0.322244 -0.907438
    27 1.728637 -0.122215 -0.000001 0.000000 0.000000 -0.528829
    28 0.882756 0.056391 0.000000 0.000000 0.000000 -0.534113
    29 1.137759 -1.867486 -0.137080 0.006196 -0.130751 -1.497905
    30 1.365644 0.014869 0.000000 0.001498 -0.579176 -0.011947
    31 0.938014 -0.005664 0.000001 -0.003907 -1.042835 0.018418
    32 0.409682 -2.071858 -0.137080 0.028594 -0.396954 -1.597491
    33 1.470907 0.007359 -0.000001 0.000000 -1.560324 0.010472
    34 1.152100 0.010338 0.000000 0.000000 -1.261865 0.005236
    35 -0.292848 -1.816393 -0.137080 0.008057 -0.298339 -1.671501
    36 1.511618 -0.004263 0.000000 0.000000 -1.544617 0.036652
    37 1.099637 -0.010806 -0.000001 0.000000 -1.314229 0.010472
    38 -0.957059 -1.356555 -0.137080 -0.026917 -0.376066 -1.612798
    39 1.351391 -0.010799 0.000000 0.000000 -0.842992 0.005229
    40 0.859052 0.017735 -0.000002 0.000000 -1.513199 -0.010472
  time 9
    0 6.514405 1.433906 -7.009360 -1.464923 -1.357234 1.317521
    1 -0.244755 -8.933565 -0.000001 0.332012 -0.077655 -0.253511
    2 -0.069481 -3.465251 0.968036 1.218516 1.752558 1.295778
    3 0.000000 2.398083 0.584532 0.000000 0.000000 0.000000
    4 0.003905 -1.378896 1.049161 0.000000 0.000000 0.000000
    5 -0.000001 -1.588729 1.528777 0.000000 0.000000 0.000000
    6 -0.000001 -2.873155 1.423861 0.063608 0.000000 0.000000
    7 0.000000 -1.079136 2.293165 0.000000 0.000000 0.000000
    8 -1.724261 -3.041618 -12.315641 -0.568882 0.129161 0.731870
    9 0.026865 -9.077094 0.000000 0.450323 0.054553 0.109792
    10 0.000000 -0.456721 0.000000 0.000000 0.000000 0.000000
    11 -0.710981 0.147373 0.477534 0.100252 -0.070374 -2.415804
    12 1.647791 0.090625 0.000001 0.000000 0.000000 0.460771
    13 -1.090121 -1.829638 -0.122573 0.000000 -0.130889 -1.696450
    14 1.390341 -0.000582 0.000000 0.000000 -1.089060 0.005236
    15 0.964939 -0.010943 0.000000 0.000000 -0.884864 0.000000
    16 -0.348493 -1.994085 -0.122573 -0.000007 -0.450292 -1.644097
    17 1.546316 0.004628 0.000002 0.000000 -1.455639 -0.000001
    18 1.135736 0.008475 -0.000001 0.000000 -0.544558 0.020944
    19 0.310264 -1.738958 -0.122573 -0.000005 -0.785379 -1.518430
    20 1.569654 0.049780 0.000001 0.000000 -1.230502 -0.010472
    21 1.096338 0.003407 -0.000001 0.000000 -0.780198 0.005236
    22 0.956486 -1.335291 -0.122573 0.000000 -1.094316 -1.445133
    23 1.346260 0.018204 0.000000 0.000000 -1.356105 -0.005236
    24 0.874448 -0.001050 0.000000 0.000000 -0.926807 0.000000
    25 -0.017482 -0.437063 0.000000 0.000000 0.000000 0.000000
    26 0.714223 0.114180 0.472822 -0.048916 -0.322244 -0.907438
    27 1.728637 -0.122215 -0.000001 0.000000 0.000000 -0.528829
    28 0.882756 0.056391 0.000000 0.000000 0.000000 -0.534113
    29 1.137759 -1.867486 -0.137080 0.006196 -0.130751 -1.497905
    30 1.365644 0.014869 0.000000 0.000947 -0.490642 -0.011660
    31 0.938014 -0.005664 0.000001 -0.002780 -0.962628 0.017459
    32 0.409682 -2.071858 -0.137080 0.028594 -0.396954 -1.597491
    33 1.470907 0.007359 -0.000001 0.000000 -1.560324 0.010472
    34 1.152100 0.010338 0.000000 0.000000 -1.261865 0.005236
    35 -0.292848 -1.816393 -0.137080 0.008057 -0.298339 -1.671501
    36 1.511618 -0.004263 0.000000 0.000000 -1.544617 0.036652
    37 1.099637 -0.010806 -0.000001 0.000000 -1.314229 0.010472
    38 -0.957059 -1.356555 -0.137080 -0.026917 -0.376066 -1.612798
    39 1.351391 -0.010799 0.000000 0.000000 -0.842992 0.005229
    40 0.859052 0.017735 -0.000002 0.000000 -1.513199 -0.010472
  time 10
    0 6.514405 1.406561 -7.032799 -1.449183 -1.358527 1.301103
    1 -0.244755 -8.933565 -0.000001 0.331958 -0.079309 -0.248661
    2 -0.069481 -3.465251 0.968036 1.218516 1.752558 1.295778
    3 0.000000 2.398083 0.584532 0.000000 0.000000 0.000000
    4 0.003905 -1.378896 1.049161 0.000000 0.000000 0.000000
    5 -0.000001 -1.588729 1.528777 0.000000 0.000000 0.000000
    6 -0.000001 -2.892687 1.423861 0.000000 0.000000 0.000000
    7 0.000000 -1.079136 2.293165 0.000000 0.000000 0.000000
    8 -1.720355 -3.022086 -12.300015 -0.564735 0.125805 0.731577
    9 0.026865 -9.077094 0.000000 0.452042 0.053913 0.107980
    10 0.000000 -0.456721 0.000000 0.000000 0.000000 0.000000
    11 -0.710981 0.147373 0.477534 0.100252 -0.070374 -2.415804
    12 1.647791 0.090625 0.000001 0.000000 0.000000 0.460771
    13 -1.090121 -1.829638 -0.122573 0.000000 -0.130889 -1.696450
    14 1.390341 -0.000582 0.000000 0.000000 -1.089060 0.005236
    15 0.964939 -0.010943 0.000000 0.000000 -0.884864 0.000000
    16 -0.348493 -1.994085 -0.122573 -0.000007 -0.450292 -1.644097
    17 1.546316 0.004628 0.000002 0.000000 -1.455639 -0.000001
    18 1.135736 0.008475 -0.000001 0.000000 -0.544558 0.020944
    19 0.310264 -1.738958 -0.122573 -0.000005 -0.785379 -1.518430
    20 1.569654 0.049780 0.000001 0.000000 -1.230502 -0.010472
    21 1.096338 0.003407 -0.000001 0.000000 -0.780198 0.005236
    22 0.956486 -1.335291 -0.122573 0.000000 -1.094316 -1.445133
    23 1.346260 0.018204 0.000000 0.000000 -1.356105 -0.005236
    24 0.874448 -0.001050 0.000000 0.000000 -0.926807 0.000000
    25 -0.017482 -0.437063 0.000000 0.000000 0.000000 0.000000
    26 0.714223 0.114180 0.472822 -0.048916 -0.322244 -0.907438
    27 1.728637 -0.122215 -0.000001 0.000000 0.000000 -0.528829
    28 0.882756 0.056391 0.000000 0.000000 0.000000 -0.534113
    29 1.137759 -1.867486 -0.137080 0.006196 -0.130751 -1.497905
    30 1.365644 0.014869 0.000000 0.000360 -0.387416 -0.011372
    31 0.938014 -0.005664 0.000001 -0.001774 -0.869132 0.016656
    32 0.409682 -2.071858 -0.137080 0.028594 -0.396954 -1.597491
    33 1.470907 0.007359 -0.000001 0.000000 -1.560324 0.010472
    34 1.152100 0.010338 0.000000 0.000000 -1.261865 0.005236
    35 -0.292848 -1.816393 -0.137080 0.008057 -0.298339 -1.671501
    36 1.511618 -0.004263 0.000000 0.000000 -1.544617 0.036652
    37 1.099637 -0.010806 -0.000001 0.000000 -1.314229 0.010472
    38 -0.957059 -1.356555 -0.137080 -0.026917 -0.376066 -1.612798
    39 1.351391 -0.010799 0.000000 0.000000 -0.842992 0.005229
    40 0.859052 0.017735 -0.000002 0.000000 -1.513199 -0.010472
  time 11
    0 6.522218 1.379216 -7.060143 -1.443686 -1.359266 1.295283
    1 -0.244755 -8.933565 -0.000001 0.332039 -0.078978 -0.249725
    2 -0.069481 -3.465251 0.968036 1.218516 1.752558 1.295778
    3 0.000000 2.398083 0.584532 0.000000 0.000000 0.000000
    4 0.003905 -1.378896 1.049161 0.000000 0.000000 0.000000
    5 -0.000001 -1.588729 1.528777 0.000000 0.000000 0.000000
    6 -0.000001 -2.892687 1.423861 0.000000 0.000000 0.000000
    7 0.000000 -1.079136 2.293165 0.000000 0.000000 0.000000
    8 -1.716448 -2.998648 -12.284390 -0.563038 0.124463 0.731210
    9 0.026865 -9.077094 0.000000 0.453668 0.053523 0.106071
    10 0.000000 -0.456721 0.000000 0.000000 0.000000 0.000000
    11 -0.710981 0.147373 0.477534 0.100252 -0.070374 -2.415804
    12 1.647791 0.090625 0.000001 0.000000 0.000000 0.460771
    13 -1.090121 -1.829638 -0.122573 0.000000 -0.130889 -1.696450
    14 1.390341 -0.000582 0.000000 0.000000 -1.089060 0.005236
    15 0.964939 -0.010943 0.000000 0.000000 -0.884864 0.000000
    16 -0.348493 -1.994085 -0.122573 -0.000007 -0.450292 -1.644097
    17 1.546316 0.004628 0.000002 0.000000 -1.455639 -0.000001
    18 1.135736 0.008475 -0.000001 0.000000 -0.544558 0.020944
    19 0.310264 -1.738958 -0.122573 -0.000005 -0.785379 -1.518430
    20 1.569654 0.049780 0.000001 0.000000 -1.230502 -0.010472
    21 1.096338 0.003407 -0.000001 0.000000 -0.780198 0.005236
    22 0.956486 -1.335291 -0.122573 0.000000 -1.094316 -1.445133
    23 1.346260 0.018204 0.000000 0.000000 -1.356105 -0.005236
    24 0.874448 -0.001050 0.000000 0.000000 -0.926807 0.000000
    25 -0.017482 -0.437063 0.000000 0.000000 0.000000 0.000000
    26 0.714223 0.114180 0.472822 -0.048916 -0.322244 -0.907438
    27 1.728637 -0.122215 -0.000001 0.000000 0.000000 -0.528829
    28 0.882756 0.056391 0.000000 0.000000 0.000000 -0.534113
    29 1.137759 -1.867486 -0.137080 0.006196 -0.130751 -1.497905
    30 1.365644 0.014869 0.000000 0.000360 -0.387416 -0.011372
    31 0.938014 -0.005664 0.000001 -0.001774 -0.869132 0.016656
    32 0.409682 -2.071858 -0.137080 0.028594 -0.396954 -1.597491
    33 1.470907 0.007359 -0.000001 0.000000 -1.560324 0.010472
    34 1.152100 0.010338 0.000000 0.000000 -1.261865 0.005236
    35 -0.292848 -1.816393 -0.137080 0.008057 -0.298339 -1.671501
    36 1.511618 -0.004263 0.000000 0.000000 -1.544617 0.036652
    37 1.099637 -0.010806 -0.000001 0.000000 -1.314229 0.010472
    38 -0.957059 -1.356555 -0.137080 -0.026917 -0.376066 -1.612798
    39 1.351391 -0.010799 0.000000 0.000000 -0.842992 0.005229
    40 0.859052 0.017735 -0.000002 0.000000 -1.513199 -0.010472
  time 12
    0 6.533937 1.359685 -7.075769 -1.443520 -1.359451 1.295118
    1 -0.244755 -8.933565 -0.000001 0.332309 -0.077800 -0.253251
    2 -0.069481 -3.465251 0.968036 1.218516 1.752558 1.295778
    3 0.000000 2.398083 0.584532 0.000000 0.000000 0.000000
    4 0.003905 -1.378896 1.049161 0.000000 0.000000 0.000000
    5 -0.000001 -1.588729 1.528777 0.000000 0.000000 0.000000
    6 -0.000001 -2.892687 1.423861 0.000000 0.000000 0.000000
    7 0.000000 -1.079136 2.293165 0.000000 0.000000 0.000000
    8 -1.708636 -2.975209 -12.268764 -0.563038 0.124655 0.730550
    9 0.026865 -9.077094 0.000000 0.455172 0.053292 0.104097
    10 0.000000 -0.456721 0.000000 0.000000 0.000000 0.000000
    11 -0.710981 0.147373 0.477534 0.100252 -0.070374 -2.415804
    12 1.647791 0.090625 0.000001 0.000000 0.000000 0.460771
    13 -1.090121 -1.829638 -0.122573 0.000000 -0.130889 -1.696450
    14 1.390341 -0.000582 0.000000 0.000000 -1.089060 0.005236
    15 0.964939 -0.010943 0.000000 0.000000 -0.884864 0.000000
    16 -0.348493 -1.994085 -0.122573 -0.000007 -0.450292 -1.644097
    17 1.546316 0.004628 0.000002 0.000000 -1.455639 -0.000001
    18 1.135736 0.008475 -0.000001 0.000000 -0.544558 0.020944
    19 0.310264 -1.738958 -0.122573 -0.000005 -0.785379 -1.518430
    20 1.569654 0.049780 0.000001 0.000000 -1.230502 -0.010472
    21 1.096338 0.003407 -0.000001 0.000000 -0.780198 0.005236
    22 0.956486 -1.335291 -0.122573 0.000000 -1.094316 -1.445133
    23 1.346260 0.018204 0.000000 0.000000 -1.356105 -0.005236
    24 0.874448 -0.001050 0.000000 0.000000 -0.926807 0.000000
    25 -0.017482 -0.437063 0.000000 0.000000 0.000000 0.000000
    26 0.714223 0.114180 0.472822 -0.048916 -0.322244 -0.907438
    27 1.728637 -0.122215 -0.000001 0.000000 0.000000 -0.528829
    28 0.882756 0.056391 0.000000 0.000000 0.000000 -0.534113
    29 1.137759 -1.867486 -0.137080 0.006196 -0.130751 -1.497905
    30 1.365644 0.014869 0.000000 0.000360 -0.387416 -0.011372
    31 0.938014 -0.005664 0.000001 -0.001774 -0.869132 0.016656
    32 0.409682 -2.071858 -0.137080 0.028594 -0.396954 -1.597491
    33 1.470907 0.007359 -0.000001 0.000000 -1.560324 0.010472
    34 1.152100 0.010338 0.000000 0.000000 -1.261865 0.005236
    35 -0.292848 -1.816393 -0.137080 0.008057 -0.298339 -1.671501
    36 1.511618 -0.004263 0.000000 0.000000 -1.544617 0.036652
    37 1.099637 -0.010806 -0.000001 0.000000 -1.314229 0.010472
    38 -0.957059 -1.356555 -0.137080 -0.026917 -0.376066 -1.612798
    39 1.351391 -0.010799 0.000000 0.000000 -0.842992 0.005229
    40 0.859052 0.017735 -0.000002 0.000000 -1.513199 -0.010472
  time 13
    0 6.545656 1.340153 -7.091394 -1.443103 -1.360128 1.294734
    1 -0.244755 -8.933565 -0.000001 0.332715 -0.076105 -0.258361
    2 -0.069481 -3.465251 0.968036 1.218516 1.752558 1.295778
    3 0.000000 2.398083 0.584532 0.000000 0.000000 0.000000
    4 0.003905 -1.378896 1.049161 0.000000 0.000000 0.000000
    5 -0.000001 -1.588729 1.528777 0.000000 0.000000 0.000000
    6 -0.000001 -2.892687 1.423861 0.000000 0.000000 0.000000
    7 0.000000 -1.079136 2.293165 0.000000 0.000000 0.000000
    8 -1.704729 -2.951771 -12.260952 -0.564295 0.125901 0.729891
    9 0.026865 -9.077094 0.000000 0.456584 0.053221 0.102090
    10 0.000000 -0.456721 0.000000 0.000000 0.000000 0.000000
    11 -0.710981 0.147373 0.477534 0.100252 -0.070374 -2.415804
    12 1.647791 0.090625 0.000001 0.000000 0.000000 0.460771
    13 -1.090121 -1.829638 -0.122573 0.000000 -0.130889 -1.696450
    14 1.390341 -0.000582 0.000000 0.000000 -1.089060 0.005236
    15 0.964939 -0.010943 0.000000 0.000000 -0.884864 0.000000
    16 -0.348493 -1.994085 -0.122573 -0.000007 -0.450292 -1.644097
    17 1.546316 0.004628 0.000002 0.000000 -1.455639 -0.000001
    18 1.135736 0.008475 -0.000001 0.000000 -0.544558 0.020944
    19 0.310264 -1.738958 -0.122573 -0.000005 -0.785379 -1.518430
    20 1.569654 0.049780 0.000001 0.000000 -1.230502 -0.010472
    21 1.096338 0.003407 -0.000001 0.000000 -0.780198 0.005236
    22 0.956486 -1.335291 -0.122573 0.000000 -1.094316 -1.445133
    23 1.346260 0.018204 0.000000 0.000000 -1.356105 -0.005236
    24 0.874448 -0.001050 0.000000 0.000000 -0.926807 0.000000
    25 -0.017482 -0.437063 0.000000 0.000000 0.000000 0.000000
    26 0.714223 0.114180 0.472822 -0.048916 -0.322244 -0.907438
    27 1.728637 -0.122215 -0.000001 0.000000 0.000000 -0.528829
    28 0.882756 0.056391 0.000000 0.000000 0.000000 -0.534113
    29 1.137759 -1.867486 -0.137080 0.006196 -0.130751 -1.497905
    30 1.365644 0.014869 0.000000 0.000360 -0.387416 -0.011372
    31 0.938014 -0.005664 0.000001 -0.001774 -0.869132 0.016656
    32 0.409682 -2.071858 -0.137080 0.028594 -0.396954 -1.597491
    33 1.470907 0.007359 -0.000001 0.000000 -1.560324 0.010472
    34 1.152100 0.010338 0.000000 0.000000 -1.261865 0.005236
    35 -0.292848 -1.816393 -0.137080 0.008057 -0.298339 -1.671501
    36 1.511618 -0.004263 0.000000 0.000000 -1.544617 0.036652
    37 1.099637 -0.010806 -0.000001 0.000000 -1.314229 0.010472
    38 -0.957059 -1.356555 -0.137080 -0.026917 -0.376066 -1.612798
    39 1.351391 -0.010799 0.000000 0.000000 -0.842992 0.005229
    40 0.859052 0.017735 -0.000002 0.000000 -1.513199 -0.010472
  time 14
    0 6.549563 1.324527 -7.103113 -1.442770 -1.360744 1.294349
    1 -0.244755 -8.933565 -0.000001 0.333147 -0.074162 -0.264134
    2 -0.069481 -3.465251 0.968036 1.218516 1.752558 1.295778
    3 0.000000 2.398083 0.584532 0.000000 0.000000 0.000000
    4 0.003905 -1.378896 1.049161 0.000000 0.000000 0.000000
    5 -0.000001 -1.588729 1.528777 0.000000 0.000000 0.000000
    6 -0.000001 -2.892687 1.423861 0.000000 0.000000 0.000000
    7 0.000000 -1.079136 2.293165 0.000000 0.000000 0.000000
    8 -1.700823 -2.928333 -12.260952 -0.566306 0.127818 0.729157
    9 0.026865 -9.077094 0.000000 0.457903 0.053221 0.100149
    10 0.000000 -0.456721 0.000000 0.000000 0.000000 0.000000
    11 -0.710981 0.147373 0.477534 0.100252 -0.070374 -2.415804
    12 1.647791 0.090625 0.000001 0.000000 0.000000 0.460771
    13 -1.090121 -1.829638 -0.122573 0.000000 -0.130889 -1.696450
    14 1.390341 -0.000582 0.000000 0.000000 -1.089060 0.005236
    15 0.964939 -0.010943 0.000000 0.000000 -0.884864 0.000000
    16 -0.348493 -1.994085 -0.122573 -0.000007 -0.450292 -1.644097
    17 1.546316 0.004628 0.000002 0.000000 -1.455639 -0.000001
    18 1.135736 0.008475 -0.000001 0.000000 -0.544558 0.020944
    19 0.310264 -1.738958 -0.122573 -0.000005 -0.785379 -1.518430
    20 1.569654 0.049780 0.000001 0.000000 -1.230502 -0.010472
    21 1.096338 0.003407 -0.000001 0.000000 -0.780198 0.005236
    22 0.956486 -1.335291 -0.122573 0.000000 -1.094316 -1.445133
    23 1.346260 0.018204 0.000000 0.000000 -1.356105 -0.005236
    24 0.874448 -0.001050 0.000000 0.000000 -0.926807 0.000000
    25 -0.017482 -0.437063 0.000000 0.000000 0.000000 0.000000
    26 0.714223 0.114180 0.472822 -0.048916 -0.322244 -0.907438
    27 1.728637 -0.122215 -0.000001 0.000000 0.000000 -0.528829
    28 0.882756 0.056391 0.000000 0.000000 0.000000 -0.534113
    29 1.137759 -1.867486 -0.137080 0.006196 -0.130751 -1.497905
    30 1.365644 0.014869 0.000000 0.000360 -0.387416 -0.011372
    31 0.938014 -0.005664 0.000001 -0.001774 -0.869132 0.016656
    32 0.409682 -2.071858 -0.137080 0.028594 -0.396954 -1.597491
    33 1.470907 0.007359 -0.000001 0.000000 -1.560324 0.010472
    34 1.152100 0.010338 0.000000 0.000000 -1.261865 0.005236
    35 -0.292848 -1.816393 -0.137080 0.008057 -0.298339 -1.671501
    36 1.511618 -0.004263 0.000000 0.000000 -1.544617 0.036652
    37 1.099637 -0.010806 -0.000001 0.000000 -1.314229 0.010472
    38 -0.957059 -1.356555 -0.137080 -0.026917 -0.376066 -1.612798
    39 1.351391 -0.010799 0.000000 0.000000 -0.842992 0.005229
    40 0.859052 0.017735 -0.000002 0.000000 -1.513199 -0.010472
  time 15
    0 6.549563 1.308902 -7.110926 -1.442604 -1.361052 1.294130
    1 -0.244755 -8.933565 -0.000001 0.333606 -0.072075 -0.270357
    2 -0.069481 -3.465251 0.968036 1.218516 1.752558 1.295778
    3 0.000000 2.398083 0.584532 0.000000 0.000000 0.000000
    4 0.003905 -1.378896 1.049161 0.000000 0.000000 0.000000
    5 -0.000001 -1.588729 1.528777 0.000000 0.000000 0.000000
    6 -0.000001 -2.892687 1.423861 0.000000 0.000000 0.000000
    7 0.000000 -1.079136 2.293165 0.000000 0.000000 0.000000
    8 -1.700823 -2.908801 -12.268764 -0.568380 0.129832 0.728351
    9 0.026865 -9.077094 0.000000 0.459161 0.053256 0.098240
    10 0.000000 -0.456721 0.000000 0.000000 0.000000 0.000000
    11 -0.710981 0.147373 0.477534 0.100252 -0.070374 -2.415804
    12 1.647791 0.090625 0.000001 0.000000 0.000000 0.460771
    13 -1.090121 -1.829638 -0.122573 0.000000 -0.130889 -1.696450
    14 1.390341 -0.000582 0.000000 0.000000 -1.089060 0.005236
    15 0.964939 -0.010943 0.000000 0.000000 -0.884864 0.000000
    16 -0.348493 -1.994085 -0.122573 -0.000007 -0.450292 -1.644097
    17 1.546316 0.004628 0.000002 0.000000 -1.455639 -0.000001
    18 1.135736 0.008475 -0.000001 0.000000 -0.544558 0.020944
    19 0.310264 -1.738958 -0.122573 -0.000005 -0.785379 -1.518430
    20 1.569654 0.049780 0.000001 0.000000 -1.230502 -0.010472
    21 1.096338 0.003407 -0.000001 0.000000 -0.780198 0.005236
    22 0.956486 -1.335291 -0.122573 0.000000 -1.094316 -1.445133
    23 1.346260 0.018204 0.000000 0.000000 -1.356105 -0.005236
    24 0.874448 -0.001050 0.000000 0.000000 -0.926807 0.000000
    25 -0.017482 -0.437063 0.000000 0.000000 0.000000 0.000000
    26 0.714223 0.114180 0.472822 -0.048916 -0.322244 -0.907438
    27 1.728637 -0.122215 -0.000001 0.000000 0.000000 -0.528829
    28 0.882756 0.056391 0.000000 0.000000 0.000000 -0.534113
    29 1.137759 -1.867486 -0.137080 0.006196 -0.130751 -1.497905
    30 1.365644 0.014869 0.000000 0.000360 -0.387416 -0.011372
    31 0.938014 -0.005664 0.000001 -0.001774 -0.869132 0.016656
    32 0.409682 -2.071858 -0.137080 0.028594 -0.396954 -1.597491
    33 1.470907 0.007359 -0.000001 0.000000 -1.560324 0.010472
    34 1.152100 0.010338 0.000000 0.000000 -1.261865 0.005236
    35 -0.292848 -1.816393 -0.137080 0.008057 -0.298339 -1.671501
    36 1.511618 -0.004263 0.000000 0.000000 -1.544617 0.036652
    37 1.099637 -0.010806 -0.000001 0.000000 -1.314229 0.010472
    38 -0.957059 -1.356555 -0.137080 -0.026917 -0.376066 -1.612798
    39 1.351391 -0.010799 0.000000 0.000000 -0.842992 0.005229
    40 0.859052 0.017735 -0.000002 0.000000 -1.513199 -0.010472
  time 16
    0 6.549563 1.301089 -7.122645 -1.442604 -1.361052 1.294130
    1 -0.244755 -8.933565 -0.000001 0.334066 -0.069905 -0.276840
    2 -0.069481 -3.465251 0.968036 1.218516 1.752558 1.295778
    3 0.000000 2.398083 0.584532 0.000000 0.000000 0.000000
    4 0.003905 -1.378896 1.049161 0.000000 0.000000 0.000000
    5 -0.000001 -1.588729 1.528777 0.000000 0.000000 0.000000
    6 -0.000001 -2.892687 1.423861 0.000000 0.000000 0.000000
    7 0.000000 -1.079136 2.293165 0.000000 0.000000 0.000000
    8 -1.700823 -2.885363 -12.284390 -0.570202 0.131557 0.727618
    9 0.026865 -9.077094 0.000000 0.460389 0.053256 0.096492
    10 0.000000 -0.456721 0.000000 0.000000 0.000000 0.000000
    11 -0.710981 0.147373 0.477534 0.100252 -0.070374 -2.415804
    12 1.647791 0.090625 0.000001 0.000000 0.000000 0.460771
    13 -1.090121 -1.829638 -0.122573 0.000000 -0.130889 -1.696450
    14 1.390341 -0.000582 0.000000 0.000000 -1.089060 0.005236
    15 0.964939 -0.010943 0.000000 0.000000 -0.884864 0.000000
    16 -0.348493 -1.994085 -0.122573 -0.000007 -0.450292 -1.644097
    17 1.546316 0.004628 0.000002 0.000000 -1.455639 -0.000001
    18 1.135736 0.008475 -0.000001 0.000000 -0.544558 0.020944
    19 0.310264 -1.738958 -0.122573 -0.000005 -0.785379 -1.518430
    20 1.569654 0.049780 0.000001 0.000000 -1.230502 -0.010472
    21 1.096338 0.003407 -0.000001 0.000000 -0.780198 0.005236
    22 0.956486 -1.335291 -0.122573 0.000000 -1.094316 -1.445133
    23 1.346260 0.018204 0.000000 0.000000 -1.356105 -0.005236
    24 0.874448 -0.001050 0.000000 0.000000 -0.926807 0.000000
    25 -0.017482 -0.437063 0.000000 0.000000 0.000000 0.000000
    26 0.714223 0.114180 0.472822 -0.048916 -0.322244 -0.907438
    27 1.728637 -0.122215 -0.000001 0.000000 0.000000 -0.528829
    28 0.882756 0.056391 0.000000 0.000000 0.000000 -0.534113
    29 1.137759 -1.867486 -0.137080 0.006196 -0.130751 -1.497905
    30 1.365644 0.014869 0.000000 0.000360 -0.387416 -0.011372
    31 0.938014 -0.005664 0.000001 -0.001774 -0.869132 0.016656
    32 0.409682 -2.071858 -0.137080 0.028594 -0.396954 -1.597491
    33 1.470907 0.007359 -0.000001 0.000000 -1.560324 0.010472
    34 1.152100 0.010338 0.000000 0.000000 -1.261865 0.005236
    35 -0.292848 -1.816393 -0.137080 0.008057 -0.298339 -1.671501
    36 1.511618 -0.004263 0.000000 0.000000 -1.544617 0.036652
    37 1.099637 -0.010806 -0.000001 0.000000 -1.314229 0.010472
    38 -0.957059 -1.356555 -0.137080 -0.026917 -0.376066 -1.612798
    39 1.351391 -0.010799 0.000000 0.000000 -0.842992 0.005229
    40 0.859052 0.017735 -0.000002 0.000000 -1.513199 -0.010472
  time 17
    0 6.549563 1.293276 -7.130458 -1.442687 -1.360867 1.294239
    1 -0.244755 -8.933565 -0.000001 0.334498 -0.067693 -0.283323
    2 -0.069481 -3.465251 0.968036 1.218516 1.752558 1.295778
    3 0.000000 2.398083 0.584532 0.000000 0.000000 0.000000
    4 0.003905 -1.378896 1.049161 0.000000 0.000000 0.000000
    5 -0.000001 -1.588729 1.528777 0.000000 0.000000 0.000000
    6 -0.000001 -2.892687 1.423861 0.000000 0.000000 0.000000
    7 0.000000 -1.079136 2.293165 0.000000 0.000000 0.000000
    8 -1.704729 -2.865831 -12.296109 -0.571082 0.132516 0.727104
    9 0.026865 -9.077094 0.000000 0.461555 0.053185 0.094842
    10 0.000000 -0.456721 0.000000 0.000000 0.000000 0.000000
    11 -0.710981 0.147373 0.477534 0.100252 -0.070374 -2.415804
    12 1.647791 0.090625 0.000001 0.000000 0.000000 0.460771
    13 -1.090121 -1.829638 -0.122573 0.000000 -0.130889 -1.696450
    14 1.390341 -0.000582 0.000000 0.000000 -1.089060 0.005236
    15 0.964939 -0.010943 0.000000 0.000000 -0.884864 0.000000
    16 -0.348493 -1.994085 -0.122573 -0.000007 -0.450292 -1.644097
    17 1.546316 0.004628 0.000002 0.000000 -1.455639 -0.000001
    18 1.135736 0.008475 -0.000001 0.000000 -0.544558 0.020944
    19 0.310264 -1.738958 -0.122573 -0.000005 -0.785379 -1.518430
    20 1.569654 0.049780 0.000001 0.000000 -1.230502 -0.010472
    21 1.096338 0.003407 -0.000001 0.000000 -0.780198 0.005236
    22 0.956486 -1.335291 -0.122573 0.000000 -1.094316 -1.445133
    23 1.346260 0.018204 0.000000 0.000000 -1.356105 -0.005236
    24 0.874448 -0.001050 0.000000 0.000000 -0.926807 0.000000
    25 -0.017482 -0.437063 0.000000 0.000000 0.000000 0.000000
    26 0.714223 0.114180 0.472822 -0.048916 -0.322244 -0.907438
    27 1.728637 -0.122215 -0.000001 0.000000 0.000000 -0.528829
    28 0.882756 0.056391 0.000000 0.000000 0.000000 -0.534113
    29 1.137759 -1.867486 -0.137080 0.006196 -0.130751 -1.497905
    30 1.365644 0.014869 0.000000 0.000360 -0.387416 -0.011372
    31 0.938014 -0.005664 0.000001 -0.001774 -0.869132 0.016656
    32 0.409682 -2.071858 -0.137080 0.028594 -0.396954 -1.597491
    33 1.470907 0.007359 -0.000001 0.000000 -1.560324 0.010472
    34 1.152100 0.010338 0.000000 0.000000 -1.261865 0.005236
    35 -0.292848 -1.816393 -0.137080 0.008057 -0.298339 -1.671501
    36 1.511618 -0.004263 0.000000 0.000000 -1.544617 0.036652
    37 1.099637 -0.010806 -0.000001 0.000000 -1.314229 0.010472
    38 -0.957059 -1.356555 -0.137080 -0.026917 -0.376066 -1.612798
    39 1.351391 -0.010799 0.000000 0.000000 -0.842992 0.005229
    40 0.859052 0.017735 -0.000002 0.000000 -1.513199 -0.010472
  time 18
    0 6.549563 1.289370 -7.134364 -1.442854 -1.360498 1.294404
    1 -0.244755 -8.933565 -0.000001 0.334930 -0.065544 -0.289663
    2 -0.069481 -3.465251 0.968036 1.218516 1.752558 1.295778
    3 0.000000 2.398083 0.584532 0.000000 0.000000 0.000000
    4 0.003905 -1.378896 1.049161 0.000000 0.000000 0.000000
    5 -0.000001 -1.588729 1.528777 0.000000 0.000000 0.000000
    6 -0.000001 -2.892687 1.423861 0.000000 0.000000 0.000000
    7 0.000000 -1.079136 2.293165 0.000000 0.000000 0.000000
    8 -1.704729 -2.854112 -12.300015 -0.571082 0.132516 0.726811
    9 0.026865 -9.077094 0.000000 0.462046 0.053114 0.094195
    10 0.000000 -0.456721 0.000000 0.000000 0.000000 0.000000
    11 -0.710981 0.147373 0.477534 0.100252 -0.070374 -2.415804
    12 1.647791 0.090625 0.000001 0.000000 0.000000 0.460771
    13 -1.090121 -1.829638 -0.122573 0.000000 -0.130889 -1.696450
    14 1.390341 -0.000582 0.000000 0.000000 -1.089060 0.005236
    15 0.964939 -0.010943 0.000000 0.000000 -0.884864 0.000000
    16 -0.348493 -1.994085 -0.122573 -0.000007 -0.450292 -1.644097
    17 1.546316 0.004628 0.000002 0.000000 -1.455639 -0.000001
    18 1.135736 0.008475 -0.000001 0.000000 -0.544558 0.020944
    19 0.310264 -1.738958 -0.122573 -0.000005 -0.785379 -1.518430
    20 1.569654 0.049780 0.000001 0.000000 -1.230502 -0.010472
    21 1.096338 0.003407 -0.000001 0.000000 -0.780198 0.005236
    22 0.956486 -1.335291 -0.122573 0.000000 -1.094316 -1.445133
    23 1.346260 0.018204 0.000000 0.000000 -1.356105 -0.005236
    24 0.874448 -0.001050 0.000000 0.000000 -0.926807 0.000000
    25 -0.017482 -0.437063 0.000000 0.000000 0.000000 0.000000
    26 0.714223 0.114180 0.472822 -0.048916 -0.322244 -0.907438
    27 1.728637 -0.122215 -0.000001 0.000000 0.000000 -0.528829
    28 0.882756 0.056391 0.000000 0.000000 0.000000 -0.534113
    29 1.137759 -1.867486 -0.137080 0.006196 -0.130751 -1.497905
    30 1.365644 0.014869 0.000000 0.000360 -0.387416 -0.011372
    31 0.938014 -0.005664 0.000001 -0.001774 -0.869132 0.016656
    32 0.409682 -2.071858 -0.137080 0.028594 -0.396954 -1.597491
    33 1.470907 0.007359 -0.000001 0.000000 -1.560324 0.010472
    34 1.152100 0.010338 0.000000 0.000000 -1.261865 0.005236
    35 -0.292848 -1.816393 -0.137080 0.008057 -0.298339 -1.671501
    36 1.511618 -0.004263 0.000000 0.000000 -1.544617 0.036652
    37 1.099637 -0.010806 -0.000001 0.000000 -1.314229 0.010472
    38 -0.957059 -1.356555 -0.137080 -0.026917 -0.376066 -1.612798
    39 1.351391 -0.010799 0.000000 0.000000 -0.842992 0.005229
    40 0.859052 0.017735 -0.000002 0.000000 -1.513199 -0.010472
  time 19
    0 6.549563 1.289370 -7.134364 -1.443103 -1.360128 1.294734
    1 -0.244755 -8.933565 -0.000001 0.335281 -0.063539 -0.295602
    2 -0.069481 -3.465251 0.968036 1.218516 1.752558 1.295778
    3 0.000000 2.398083 0.584532 0.000000 0.000000 0.000000
    4 0.003905 -1.378896 1.049161 0.000000 0.000000 0.000000
    5 -0.000001 -1.588729 1.528777 0.000000 0.000000 0.000000
    6 -0.000001 -2.892687 1.423861 0.000000 0.000000 0.000000
    7 0.000000 -1.079136 2.293165 0.000000 0.000000 0.000000
    8 -1.704729 -2.846299 -12.300015 -0.570956 0.132420 0.726738
    9 0.026865 -9.077094 0.000000 0.462537 0.053043 0.093613
    10 0.000000 -0.456721 0.000000 0.000000 0.000000 0.000000
    11 -0.710981 0.147373 0.477534 0.100252 -0.070374 -2.415804
    12 1.647791 0.090625 0.000001 0.000000 0.000000 0.460771
    13 -1.090121 -1.829638 -0.122573 0.000000 -0.130889 -1.696450
    14 1.390341 -0.000582 0.000000 0.000000 -1.089060 0.005236
    15 0.964939 -0.010943 0.000000 0.000000 -0.884864 0.000000
    16 -0.348493 -1.994085 -0.122573 -0.000007 -0.450292 -1.644097
    17 1.546316 0.004628 0.000002 0.000000 -1.455639 -0.000001
    18 1.135736 0.008475 -0.000001 0.000000 -0.544558 0.020944
    19 0.310264 -1.738958 -0.122573 -0.000005 -0.785379 -1.518430
    20 1.569654 0.049780 0.000001 0.000000 -1.230502 -0.010472
    21 1.096338 0.003407 -0.000001 0.000000 -0.780198 0.005236
    22 0.956486 -1.335291 -0.122573 0.000000 -1.094316 -1.445133
    23 1.346260 0.018204 0.000000 0.000000 -1.356105 -0.005236
    24 0.874448 -0.001050 0.000000 0.000000 -0.926807 0.000000
    25 -0.017482 -0.437063 0.000000 0.000000 0.000000 0.000000
    26 0.714223 0.114180 0.472822 -0.048916 -0.322244 -0.907438
    27 1.728637 -0.122215 -0.000001 0.000000 0.000000 -0.528829
    28 0.882756 0.056391 0.000000 0.000000 0.000000 -0.534113
    29 1.137759 -1.867486 -0.137080 0.006196 -0.130751 -1.497905
    30 1.365644 0.014869 0.000000 0.000360 -0.387416 -0.011372
    31 0.938014 -0.005664 0.000001 -0.001774 -0.869132 0.016656
    32 0.409682 -2.071858 -0.137080 0.028594 -0.396954 -1.597491
    33 1.470907 0.007359 -0.000001 0.000000 -1.560324 0.010472
    34 1.152100 0.010338 0.000000 0.000000 -1.261865 0.005236
    35 -0.292848 -1.816393 -0.137080 0.008057 -0.298339 -1.671501
    36 1.511618 -0.004263 0.000000 0.000000 -1.544617 0.036652
    37 1.099637 -0.010806 -0.000001 0.000000 -1.314229 0.010472
    38 -0.957059 -1.356555 -0.137080 -0.026917 -0.376066 -1.612798
    39 1.351391 -0.010799 0.000000 0.000000 -0.842992 0.005229
    40 0.859052 0.017735 -0.000002 0.000000 -1.513199 -0.010472
  time 20
    0 6.549563 1.293276 -7.130458 -1.443353 -1.359759 1.294898
    1 -0.244755 -8.933565 -0.000001 0.335470 -0.062609 -0.298347
    2 -0.069481 -3.465251 0.968036 1.218516 1.752558 1.295778
    3 0.000000 2.398083 0.584532 0.000000 0.000000 0.000000
    4 0.003905 -1.378896 1.049161 0.000000 0.000000 0.000000
    5 -0.000001 -1.588729 1.528777 0.000000 0.000000 0.000000
    6 -0.000001 -2.892687 1.423861 0.000000 0.000000 0.000000
    7 0.000000 -1.079136 2.293165 0.000000 0.000000 0.000000
    8 -1.704729 -2.842393 -12.300015 -0.570830 0.132420 0.726591
    9 0.026865 -9.077094 0.000000 0.462783 0.053007 0.093257
    10 0.000000 -0.456721 0.000000 0.000000 0.000000 0.000000
    11 -0.710981 0.147373 0.477534 0.100252 -0.070374 -2.415804
    12 1.647791 0.090625 0.000001 0.000000 0.000000 0.460771
    13 -1.090121 -1.829638 -0.122573 0.000000 -0.130889 -1.696450
    14 1.390341 -0.000582 0.000000 0.000000 -1.089060 0.005236
    15 0.964939 -0.010943 0.000000 0.000000 -0.884864 0.000000
    16 -0.348493 -1.994085 -0.122573 -0.000007 -0.450292 -1.644097
    17 1.546316 0.004628 0.000002 0.000000 -1.455639 -0.000001
    18 1.135736 0.008475 -0.000001 0.000000 -0.544558 0.020944
    19 0.310264 -1.738958 -0.122573 -0.000005 -0.785379 -1.518430
    20 1.569654 0.049780 0.000001 0.000000 -1.230502 -0.010472
    21 1.096338 0.003407 -0.000001 0.000000 -0.780198 0.005236
    22 0.956486 -1.335291 -0.122573 0.000000 -1.094316 -1.445133
    23 1.346260 0.018204 0.000000 0.000000 -1.356105 -0.005236
    24 0.874448 -0.001050 0.000000 0.000000 -0.926807 0.000000
    25 -0.017482 -0.437063 0.000000 0.000000 0.000000 0.000000
    26 0.714223 0.114180 0.472822 -0.048916 -0.322244 -0.907438
    27 1.728637 -0.122215 -0.000001 0.000000 0.000000 -0.528829
    28 0.882756 0.056391 0.000000 0.000000 0.000000 -0.534113
    29 1.137759 -1.867486 -0.137080 0.006196 -0.130751 -1.497905
    30 1.365644 0.014869 0.000000 0.000360 -0.387416 -0.011372
    31 0.938014 -0.005664 0.000001 -0.001774 -0.869132 0.016656
    32 0.409682 -2.071858 -0.137080 0.028594 -0.396954 -1.597491
    33 1.470907 0.007359 -0.000001 0.000000 -1.560324 0.010472
    34 1.152100 0.010338 0.000000 0.000000 -1.261865 0.005236
    35 -0.292848 -1.816393 -0.137080 0.008057 -0.298339 -1.671501
    36 1.511618 -0.004263 0.000000 0.000000 -1.544617 0.036652
    37 1.099637 -0.010806 -0.000001 0.000000 -1.314229 0.010472
    38 -0.957059 -1.356555 -0.137080 -0.026917 -0.376066 -1.612798
    39 1.351391 -0.010799 0.000000 0.000000 -0.842992 0.005229
    40 0.859052 0.017735 -0.000002 0.000000 -1.513199 -0.010472
  time 21
    0 6.549563 1.301089 -7.122645 -1.443520 -1.359451 1.295118
    1 -0.244755 -8.933565 -0.000001 0.335605 -0.061927 -0.300358
    2 -0.069481 -3.465251 0.968036 1.218516 1.752558 1.295778
    3 0.000000 2.398083 0.584532 0.000000 0.000000 0.000000
    4 0.003905 -1.378896 1.049161 0.000000 0.000000 0.000000
    5 -0.000001 -1.588729 1.528777 0.000000 0.000000 0.000000
    6 -0.000001 -2.892687 1.423861 0.000000 0.000000 0.000000
    7 0.000000 -1.079136 2.293165 0.000000 0.000000 0.000000
    8 -1.704729 -2.842393 -12.300015 -0.570956 0.132420 0.726664
    9 0.026865 -9.077094 0.000000 0.462537 0.053043 0.093580
    10 0.000000 -0.456721 0.000000 0.000000 0.000000 0.000000
    11 -0.710981 0.147373 0.477534 0.100252 -0.070374 -2.415804
    12 1.647791 0.090625 0.000001 0.000000 0.000000 0.460771
    13 -1.090121 -1.829638 -0.122573 0.000000 -0.130889 -1.696450
    14 1.390341 -0.000582 0.000000 0.000000 -1.089060 0.005236
    15 0.964939 -0.010943 0.000000 0.000000 -0.884864 0.000000
    16 -0.348493 -1.994085 -0.122573 -0.000007 -0.450292 -1.644097
    17 1.546316 0.004628 0.000002 0.000000 -1.455639 -0.000001
    18 1.135736 0.008475 -0.000001 0.000000 -0.544558 0.020944
    19 0.310264 -1.738958 -0.122573 -0.000005 -0.785379 -1.518430
    20 1.569654 0.049780 0.000001 0.000000 -1.230502 -0.010472
    21 1.096338 0.003407 -0.000001 0.000000 -0.780198 0.005236
    22 0.956486 -1.335291 -0.122573 0.000000 -1.094316 -1.445133
    23 1.346260 0.018204 0.000000 0.000000 -1.356105 -0.005236
    24 0.874448 -0.001050 0.000000 0.000000 -0.926807 0.000000
    25 -0.017482 -0.437063 0.000000 0.000000 0.000000 0.000000
    26 0.714223 0.114180 0.472822 -0.048916 -0.322244 -0.907438
    27 1.728637 -0.122215 -0.000001 0.000000 0.000000 -0.528829
    28 0.882756 0.056391 0.000000 0.000000 0.000000 -0.534113
    29 1.137759 -1.867486 -0.137080 0.006196 -0.130751 -1.497905
    30 1.365644 0.014869 0.000000 0.000360 -0.387416 -0.011372
    31 0.938014 -0.005664 0.000001 -0.001774 -0.869132 0.016656
    32 0.409682 -2.071858 -0.137080 0.028594 -0.396954 -1.597491
    33 1.470907 0.007359 -0.000001 0.000000 -1.560324 0.010472
    34 1.152100 0.010338 0.000000 0.000000 -1.261865 0.005236
    35 -0.292848 -1.816393 -0.137080 0.008057 -0.298339 -1.671501
    36 1.511618 -0.004263 0.000000 0.000000 -1.544617 0.036652
    37 1.099637 -0.010806 -0.000001 0.000000 -1.314229 0.010472
    38 -0.957059 -1.356555 -0.137080 -0.026917 -0.376066 -1.612798
    39 1.351391 -0.010799 0.000000 0.000000 -0.842992 0.005229
    40 0.859052 0.017735 -0.000002 0.000000 -1.513199 -0.010472
  time 22
    0 6.549563 1.308902 -7.110926 -1.443603 -1.359266 1.295173
    1 -0.244755 -8.933565 -0.000001 0.335551 -0.062278 -0.299364
    2 -0.069481 -3.465251 0.968036 1.218516 1.752558 1.295778
    3 0.000000 2.398083 0.584532 0.000000 0.000000 0.000000
    4 0.003905 -1.378896 1.049161 0.000000 0.000000 0.000000
    5 -0.000001 -1.588729 1.528777 0.000000 0.000000 0.000000
    6 -0.000001 -2.892687 1.423861 0.000000 0.000000 0.000000
    7 0.000000 -1.079136 2.293165 0.000000 0.000000 0.000000
    8 -1.704729 -2.846299 -12.300015 -0.571019 0.132516 0.726811
    9 0.026865 -9.077094 0.000000 0.462169 0.053096 0.094033
    10 0.000000 -0.456721 0.000000 0.000000 0.000000 0.000000
    11 -0.710981 0.147373 0.477534 0.100252 -0.070374 -2.415804
    12 1.647791 0.090625 0.000001 0.000000 0.000000 0.460771
    13 -1.090121 -1.829638 -0.122573 0.000000 -0.130889 -1.696450
    14 1.390341 -0.000582 0.000000 0.000000 -1.089060 0.005236
    15 0.964939 -0.010943 0.000000 0.000000 -0.884864 0.000000
    16 -0.348493 -1.994085 -0.122573 -0.000007 -0.450292 -1.644097
    17 1.546316 0.004628 0.000002 0.000000 -1.455639 -0.000001
    18 1.135736 0.008475 -0.000001 0.000000 -0.544558 0.020944
    19 0.310264 -1.738958 -0.122573 -0.000005 -0.785379 -1.518430
    20 1.569654 0.049780 0.000001 0.000000 -1.230502 -0.010472
    21 1.096338 0.003407 -0.000001 0.000000 -0.780198 0.005236
    22 0.956486 -1.335291 -0.122573 0.000000 -1.094316 -1.445133
    23 1.346260 0.018204 0.000000 0.000000 -1.356105 -0.005236
    24 0.874448 -0.001050 0.000000 0.000000 -0.926807 0.000000
    25 -0.017482 -0.437063 0.000000 0.000000 0.000000 0.000000
    26 0.714223 0.114180 0.472822 -0.048916 -0.322244 -0.907438
    27 1.728637 -0.122215 -0.000001 0.000000 0.000000 -0.528829
    28 0.882756 0.056391 0.000000 0.000000 0.000000 -0.534113
    29 1.137759 -1.867486 -0.137080 0.006196 -0.130751 -1.497905
    30 1.365644 0.014869 0.000000 0.000360 -0.387416 -0.011372
    31 0.938014 -0.005664 0.000001 -0.001774 -0.869132 0.016656
    32 0.409682 -2.071858 -0.137080 0.028594 -0.396954 -1.597491
    33 1.470907 0.007359 -0.000001 0.000000 -1.560324 0.010472
    34 1.152100 0.010338 0.000000 0.000000 -1.261865 0.005236
    35 -0.292848 -1.816393 -0.137080 0.008057 -0.298339 -1.671501
    36 1.511618 -0.004263 0.000000 0.000000 -1.544617 0.036652
    37 1.099637 -0.010806 -0.000001 0.000000 -1.314229 0.010472
    38 -0.957059 -1.356555 -0.137080 -0.026917 -0.376066 -1.612798
    39 1.351391 -0.010799 0.000000 0.000000 -0.842992 0.005229
    40 0.859052 0.017735 -0.000002 0.000000 -1.513199 -0.010472
  time 23
    0 6.549563 1.324527 -7.103113 -1.443686 -1.359266 1.295283
    1 -0.244755 -8.933565 -0.000001 0.335470 -0.062609 -0.298347
    2 -0.069481 -3.465251 0.968036 1.218516 1.752558 1.295778
    3 0.000000 2.398083 0.584532 0.000000 0.000000 0.000000
    4 0.003905 -1.378896 1.049161 0.000000 0.000000 0.000000
    5 -0.000001 -1.588729 1.528777 0.000000 0.000000 0.000000
    6 -0.000001 -2.892687 1.423861 0.000000 0.000000 0.000000
    7 0.000000 -1.079136 2.293165 0.000000 0.000000 0.000000
    8 -1.704729 -2.854112 -12.300015 -0.571082 0.132516 0.726811
    9 0.026865 -9.077094 0.000000 0.462046 0.053114 0.094195
    10 0.000000 -0.456721 0.000000 0.000000 0.000000 0.000000
    11 -0.710981 0.147373 0.477534 0.100252 -0.070374 -2.415804
    12 1.647791 0.090625 0.000001 0.000000 0.000000 0.460771
    13 -1.090121 -1.829638 -0.122573 0.000000 -0.130889 -1.696450
    14 1.390341 -0.000582 0.000000 0.000000 -1.089060 0.005236
    15 0.964939 -0.010943 0.000000 0.000000 -0.884864 0.000000
    16 -0.348493 -1.994085 -0.122573 -0.000007 -0.450292 -1.644097
    17 1.546316 0.004628 0.000002 0.000000 -1.455639 -0.000001
    18 1.135736 0.008475 -0.000001 0.000000 -0.544558 0.020944
    19 0.310264 -1.738958 -0.122573 -0.000005 -0.785379 -1.518430
    20 1.569654 0.049780 0.000001 0.000000 -1.230502 -0.010472
    21 1.096338 0.003407 -0.000001 0.000000 -0.780198 0.005236
    22 0.956486 -1.335291 -0.122573 0.000000 -1.094316 -1.445133
    23 1.346260 0.018204 0.000000 0.000000 -1.356105 -0.005236
    24 0.874448 -0.001050 0.000000 0.000000 -0.926807 0.000000
    25 -0.017482 -0.437063 0.000000 0.000000 0.000000 0.000000
    26 0.714223 0.114180 0.472822 -0.048916 -0.322244 -0.907438
    27 1.728637 -0.122215 -0.000001 0.000000 0.000000 -0.528829
    28 0.882756 0.056391 0.000000 0.000000 0.000000 -0.534113
    29 1.137759 -1.867486 -0.137080 0.006196 -0.130751 -1.497905
    30 1.365644 0.014869 0.000000 0.000360 -0.387416 -0.011372
    31 0.938014 -0.005664 0.000001 -0.001774 -0.869132 0.016656
    32 0.409682 -2.071858 -0.137080 0.028594 -0.396954 -1.597491
    33 1.470907 0.007359 -0.000001 0.000000 -1.560324 0.010472
    34 1.152100 0.010338 0.000000 0.000000 -1.261865 0.005236
    35 -0.292848 -1.816393 -0.137080 0.008057 -0.298339 -1.671501
    36 1.511618 -0.004263 0.000000 0.000000 -1.544617 0.036652
    37 1.099637 -0.010806 -0.000001 0.000000 -1.314229 0.010472
    38 -0.957059 -1.356555 -0.137080 -0.026917 -0.376066 -1.612798
    39 1.351391 -0.010799 0.000000 0.000000 -0.842992 0.005229
    40 0.859052 0.017735 -0.000002 0.000000 -1.513199 -0.010472
end
