// Created by Crowbar 0.49.0.0

$modelname "weapons/tfa_cso/c_bouncer.mdl"

$Include "csonline_gmod.qci"

$bodygroup "weapon"
{
	studio "v_bouncer01"
}
$bodygroup "weapon"
{
	studio "v_bouncer02"
}

$CDMaterials "models\weapons\tfa_cso\bouncer\"

$attachment 0 "bouncer_root" -2.4 15 0
//$attachment 1 "bouncer_root" -1 0.5 0
//$attachment 2 "bouncer_root" -1.4 14.6 0
//$attachment 3 "bouncer_root" 0 14.4 0

$definebone "bouncer_root" "" 5.347722 -7.787570 -5.099672 89.980216 -179.999966 0.000000 0.000000 0.000000 0.000000 -0.000000 -0.000000 0.000000
$definebone "trigger" "bouncer_root" 0.772819 1.987386 0.000108 -0.000000 -0.000000 0.000000 0.000000 0.000000 -0.000000 -0.000000 -0.000000 0.000000
$definebone "bone_bullet1" "bouncer_root" 17.082663 -18.096640 0.000027 0.000057 89.999928 0.000000 0.000000 0.000000 -0.000000 -0.000000 0.000000 0.000000
$definebone "magazine1" "bouncer_root" -1.428618 -0.139622 0.882533 0.000057 89.999983 0.000000 0.000000 0.000000 0.000000 -0.000000 0.000000 0.000000
$definebone "magazine2" "bouncer_root" -1.573682 -0.156902 0.000661 0.000057 89.999983 0.000000 0.000000 0.000000 0.000000 -0.000000 0.000000 0.000000
$definebone "pump" "bouncer_root" 1.310229 6.579790 -0.000740 -0.000000 90.000038 89.999525 0.000000 0.000000 -0.000000 -0.000000 0.000000 0.000000

$sequence "idle" {
	"v_bouncer_anims\idle"
	fps 30
	loop
	activity "ACT_VM_IDLE" 1
	snap
}
$sequence "shoot1" {
	"v_bouncer_anims\shoot"
	{ event 5001 0 "#I65 S0.065 R2 F0 P30 T999 A1 L0 O0 X0" }
	fps 30
	activity "ACT_VM_PRIMARYATTACK" 1
	snap
}
$sequence "shoot2" {
	"v_bouncer_anims\shoot_2"
	{ event 5001 0 "#I65 S0.065 R2 F0 P30 T999 A1 L0 O0 X0" }
	fps 30
	activity "ACT_VM_PRIMARYATTACK" 2
	snap
}
$sequence "reload_insert" {
	"v_bouncer_anims\reload_insert"
	{ event 5004 1 "Bouncer.Insert" }
	fps 30
	activity "ACT_VM_RELOAD" 1
	snap
}
$sequence "reload_after" {
	"v_bouncer_anims\reload_after"
	{ event 5004 11 "Bouncer.Reload_After" }
	fps 30
	activity "ACT_SHOTGUN_RELOAD_FINISH" 1
	snap
}
$sequence "reload_start" {
	"v_bouncer_anims\reload_start"
	fps 30
	activity "ACT_SHOTGUN_RELOAD_START" 1
	snap
}
$sequence "draw" {
	"v_bouncer_anims\draw"
	{ event 5004 3 "Bouncer.Draw" }
	fps 30
	activity "ACT_VM_DRAW" 1
	snap
}
