// Created by Crowbar 0.49.0.0

$modelname "weapons/tfa_cso/c_sprifle.mdl"

$Include "csonline_gmod.qci"

$bodygroup "weapon"
{
	studio "v_sprifle"
}

$CDMaterials "models\weapons\tfa_cso\savery\"

$attachment 0 "sprifle_root" -1 32 0
//$attachment 1 "sprifle_root" 0 15 1

$sequence "idle1" {
	"v_sprifle_anims\idle1"
	{ event 5004 0 "Savery.Idle" }
	fps 30
	loop
	activity "ACT_VM_IDLE" 1
	snap
}
$sequence "shoot1" {
	"v_sprifle_anims\shoot1"
	{ event 5001 0 "23" }
	fps 30
	activity "ACT_VM_PRIMARYATTACK" 1
	snap
}
$sequence "shoot2" {
	"v_sprifle_anims\shoot2"
	{ event 5001 0 "23" }
	fps 30
	activity "ACT_VM_PRIMARYATTACK" 2
	snap
}
$sequence "reload" {
	"v_sprifle_anims\reload"
	{ event 5004 0 "Savery.ClipOut" }
	{ event 5004 48 "Savery.ClipIn" }
	fps 30
	activity "ACT_VM_RELOAD" 1
	snap
}
$sequence "draw" {
	"v_sprifle_anims\draw"
	{ event 5004 2 "Savery.Draw" }
	fps 30
	activity "ACT_VM_DRAW" 1
	snap
}
