// Created by Crowbar 0.34.0.0

$ModelName "weapons/tfa_cso/w_violingun.mdl"

$BodyGroup "studio"
{
	studio "v_violingun_violingun_set"
}

$collisionmodel "v_violingun_violingun_set.smd"
{
	$mass 9
}

$CDMaterials "models\weapons\tfa_cso\violingun"

$attachment "0" "root" 0.60 -15.00 -1.30 rotate -0 0 0

$Sequence "idle" {
	"anims\idle.smd"
	fps 30
}