version 1
nodes
  0 "root" -1
  1 "Bone01" 0
  2 "Bone_Lefthand" 1
  3 "AT4_root" 2
  4 "AT4_lens" 3
  5 "Bone_L_Upper" 1
  6 "Bone13" 2
  7 "Bone14" 6
  8 "Bone15" 7
  9 "Bone17" 2
  10 "Bone18" 9
  11 "Bone19" 10
  12 "Bone21" 2
  13 "Bone22" 12
  14 "Bone23" 13
  15 "Bone09" 2
  16 "Bone10" 15
  17 "Bone11" 16
  18 "Bone05" 2
  19 "Bone06" 18
  20 "Bone07" 19
  21 "Bone_Se_Hand-L" 2
  22 "Bone04" 0
  23 "Bone_Righthand" 22
  24 "Bone39" 23
  25 "Bone40" 24
  26 "Bone41" 25
  27 "Bone35" 23
  28 "Bone36" 27
  29 "Bone37" 28
  30 "Bone31" 23
  31 "Bone32" 30
  32 "Bone33" 31
  33 "Bone43" 23
  34 "Bone44" 33
  35 "Bone45" 34
  36 "Bone27" 23
  37 "Bone28" 36
  38 "Bone29" 37
  39 "Bone_Se_Hand-R" 23
  40 "Bone_R_Upper" 22
end
skeleton
  time 0
    0 0.001154 -0.567689 -22.617259 0.000000 0.000000 0.000000
    1 18.009588 -8.897380 10.325552 1.158761 -2.719487 -1.344242
    2 -0.071921 -8.498736 -0.104134 -0.323161 0.102711 0.079207
    3 -1.879609 -3.584201 0.911484 0.316169 -0.168185 0.360303
    4 -2.855127 1.648684 1.176711 0.050587 0.000000 -3.140162
    5 1.343120 8.715708 1.092419 -1.422480 0.140206 -1.590417
    6 -0.488518 -2.755602 -0.228260 -0.381031 -0.035162 0.165783
    7 0.039887 -1.479790 0.029854 -1.069855 0.000000 0.000001
    8 0.028786 -1.075731 -0.023109 -0.231031 0.000000 0.000000
    9 0.250027 -2.820665 -0.238396 0.040160 -0.012053 0.230266
    10 -0.049759 -1.680544 0.100479 -1.590087 0.000000 -0.000002
    11 -0.034142 -1.148312 0.084782 -0.460177 0.000000 0.000000
    12 0.957766 -2.746780 -0.090302 -0.017221 -0.162277 0.191558
    13 -0.033420 -1.397129 -0.011257 -1.261472 0.000000 -0.000001
    14 -0.022360 -0.957436 0.018784 -0.566969 0.000000 0.000000
    15 -1.180681 -2.507217 -0.193859 -0.234855 -0.038887 0.160527
    16 -0.024967 -1.123934 0.017597 -0.664637 0.000000 0.000001
    17 -0.020057 -0.890968 0.010090 -0.340158 0.000000 0.000000
    18 0.583510 -1.197277 0.185379 0.396231 -0.133810 -0.943146
    19 1.535927 0.010246 0.005009 -0.365210 -0.013303 -0.218193
    20 1.100771 0.004527 -0.010679 -0.001813 0.016105 0.065336
    21 0.120153 -0.050270 -0.054489 0.287569 3.110905 1.561085
    22 0.252685 -15.618296 5.494978 1.003203 -3.101321 0.783393
    23 0.096944 -8.450418 -0.009365 1.026618 -0.339154 -0.206590
    24 0.447953 -2.798986 -0.200443 0.000747 0.016521 0.013537
    25 -0.032909 -1.480204 0.004940 -0.791070 0.000000 0.000002
    26 -0.027022 -1.076920 -0.020210 -0.564547 0.000000 0.000000
    27 -0.249534 -2.846964 -0.174213 0.099031 -0.000125 -0.008396
    28 0.043235 -1.683941 0.096012 -0.907534 0.002823 -0.000167
    29 0.031729 -1.160830 0.058838 -0.413501 0.000642 0.008372
    30 -0.963866 -2.785145 -0.085350 0.223413 0.162612 -0.001720
    31 0.028479 -1.403067 0.006271 -0.168681 0.000000 0.000000
    32 0.021413 -0.957781 0.020046 -0.392959 0.000000 0.000000
    33 1.164475 -2.543940 -0.170330 0.316824 0.028640 -0.027609
    34 0.024032 -1.129042 0.017807 -0.797294 0.000000 0.000001
    35 0.014898 -0.883989 -0.019848 -0.236543 0.000000 0.000000
    36 -0.676616 -1.377762 0.418918 -0.353613 0.031923 -2.390715
    37 1.432989 0.253999 0.016848 0.627556 0.007289 0.439087
    38 1.117947 0.048424 -0.005766 0.000009 -0.025198 0.055341
    39 -0.041740 0.021119 -0.243423 0.261931 0.632819 1.806394
    40 -7.038174 6.628172 -0.282403 1.574392 -0.010596 -0.787827
  time 1
    0 0.001154 -0.567689 -22.617259 0.000000 0.000000 0.000000
    1 18.009588 -8.897380 10.325552 1.158761 -2.719487 -1.344242
    2 -0.071921 -8.498736 -0.104134 -0.323161 0.102711 0.079207
    3 -1.879609 -3.584201 0.911484 0.316169 -0.168185 0.360303
    4 -2.855127 1.648684 1.176711 0.050587 0.000000 -3.140162
    5 1.343120 8.715708 1.092419 -1.422480 0.140206 -1.590417
    6 -0.488518 -2.755602 -0.228260 -0.381031 -0.035162 0.165783
    7 0.039887 -1.479790 0.029854 -1.069855 0.000000 0.000001
    8 0.028786 -1.075731 -0.023109 -0.231031 0.000000 0.000000
    9 0.250027 -2.820665 -0.238396 0.040160 -0.012053 0.230266
    10 -0.049759 -1.680544 0.100479 -1.590087 0.000000 -0.000002
    11 -0.034142 -1.148312 0.084782 -0.460177 0.000000 0.000000
    12 0.957766 -2.746780 -0.090302 -0.017221 -0.162277 0.191558
    13 -0.033420 -1.397129 -0.011257 -1.261472 0.000000 -0.000001
    14 -0.022360 -0.957436 0.018784 -0.566969 0.000000 0.000000
    15 -1.180681 -2.507217 -0.193859 -0.234855 -0.038887 0.160527
    16 -0.024967 -1.123934 0.017597 -0.664637 0.000000 0.000001
    17 -0.020057 -0.890968 0.010090 -0.340158 0.000000 0.000000
    18 0.583510 -1.197277 0.185379 0.396231 -0.133810 -0.943146
    19 1.535927 0.010246 0.005009 -0.365210 -0.013303 -0.218193
    20 1.100771 0.004527 -0.010679 -0.001813 0.016105 0.065336
    21 0.120153 -0.050270 -0.054489 0.287569 3.110905 1.561085
    22 0.252685 -15.618296 5.494978 1.003203 -3.101321 0.783393
    23 0.096944 -8.450418 -0.009365 1.026618 -0.339154 -0.206590
    24 0.447953 -2.798986 -0.200443 0.000747 0.016521 0.013537
    25 -0.032909 -1.480204 0.004940 -0.791070 0.000000 0.000002
    26 -0.027022 -1.076920 -0.020210 -0.564547 0.000000 0.000000
    27 -0.249534 -2.846964 -0.174213 0.099031 -0.000125 -0.008396
    28 0.043235 -1.683941 0.096012 -0.907534 0.002823 -0.000167
    29 0.031729 -1.160830 0.058838 -0.413501 0.000642 0.008372
    30 -0.963866 -2.785145 -0.085350 0.223413 0.162612 -0.001720
    31 0.028479 -1.403067 0.006271 -0.168681 0.000000 0.000000
    32 0.021413 -0.957781 0.020046 -0.392959 0.000000 0.000000
    33 1.164475 -2.543940 -0.170330 0.316824 0.028640 -0.027609
    34 0.024032 -1.129042 0.017807 -0.797294 0.000000 0.000001
    35 0.014898 -0.883989 -0.019848 -0.236543 0.000000 0.000000
    36 -0.676616 -1.377762 0.418918 -0.353613 0.031923 -2.390715
    37 1.432989 0.253999 0.016848 0.627556 0.007289 0.439087
    38 1.117947 0.048424 -0.005766 0.000009 -0.025198 0.055341
    39 -0.041740 0.021119 -0.243423 0.261931 0.632819 1.806394
    40 -7.038174 6.628172 -0.282403 1.574392 -0.010596 -0.787827
end
