version 1
nodes
  0 "Bone24" -1
  1 "Bone25" 0
  2 "Bone47" 1
  3 "Bone48" 2
  4 "Bone55" 3
  5 "Bone49" 3
  6 "Bone53" 3
  7 "Bone51" 3
  8 "Bone57" 3
  9 "Bone01" -1
  10 "Bone02" 9
  11 "Bone03" 10
  12 "Bone04" 11
  13 "Bone05" 12
  14 "Bone06" 13
  15 "Bone07" 11
  16 "Bone08" 15
  17 "Bone09" 16
  18 "Bone11" 11
  19 "Bone12" 18
  20 "Bone13" 19
  21 "Bone15" 11
  22 "Bone16" 21
  23 "Bone17" 22
  24 "Bone19" 11
  25 "Bone20" 24
  26 "Bone21" 25
  27 "Bone26" 1
  28 "Bone27" 27
  29 "Bone28" 28
  30 "Bone29" 29
  31 "Bone31" 27
  32 "Bone32" 31
  33 "Bone33" 32
  34 "Bone35" 27
  35 "Bone36" 34
  36 "Bone37" 35
  37 "Bone39" 27
  38 "Bone40" 37
  39 "Bone41" 38
  40 "Bone43" 27
  41 "Bone44" 40
  42 "Bone45" 41
end
skeleton
  time 0
    0 7.549593 2.824573 -8.353151 -1.443657 -1.359239 1.295243
    1 -0.244755 -8.933567 -0.000001 0.327698 -0.023128 -0.284547
    2 -0.686200 -3.387099 0.924607 1.218516 1.752558 1.295778
    3 0.000000 2.226937 0.999491 0.000000 0.000000 0.000000
    4 0.000000 -5.541041 1.209910 0.000000 0.000000 0.000000
    5 0.000000 -3.226430 1.771029 0.308915 0.000000 0.000000
    6 0.000000 -6.435323 1.946378 0.000000 0.000000 0.000000
    7 0.000000 -4.979922 3.296568 0.000000 0.000000 0.000000
    8 -0.002621 -10.920650 4.053535 0.007353 -0.041128 -0.003156
    9 -1.306279 -11.909076 -12.471897 -1.591613 0.827473 -0.688481
    10 0.026865 -9.077095 -0.000001 0.385475 0.048253 0.850025
    11 0.000000 -0.456722 0.000000 0.000000 0.000000 0.000000
    12 -0.710981 0.147372 0.477535 -0.188145 -0.719991 -1.997882
    13 1.647790 0.090625 0.000000 0.000000 0.000000 0.654477
    14 0.983506 0.005681 0.000000 0.000000 0.000000 0.916288
    15 -1.090122 -1.829639 -0.122573 -0.047519 -0.574205 -1.609130
    16 1.390341 -0.000584 0.000000 0.000000 -1.418949 0.005236
    17 0.964939 -0.010943 0.000000 0.000000 -1.141425 0.000000
    18 -0.348493 -1.994085 -0.122572 -0.000007 -0.816810 -1.644097
    19 1.546314 0.004627 0.000001 0.000000 -1.644100 0.000000
    20 1.135736 0.008475 -0.000001 0.000000 -1.031511 0.020944
    21 0.310263 -1.738958 -0.122572 0.049540 -0.605938 -1.587414
    22 1.569655 0.049780 0.000000 0.000000 -1.513189 -0.010472
    23 1.096339 0.003407 0.000001 0.000000 -1.151921 0.005236
    24 0.956485 -1.335291 -0.122573 0.046069 -0.432290 -1.554732
    25 1.346261 0.018204 0.000001 0.000000 -0.895329 -0.005236
    26 0.874448 -0.001050 0.000002 0.000000 -1.183345 0.000000
    27 -0.017482 -0.437063 0.000000 0.000000 0.000000 0.000000
    28 0.714223 0.114181 0.472822 -0.048914 -0.322244 -0.907441
    29 1.728638 -0.122215 0.000000 0.000000 0.000000 -0.528829
    30 0.882757 0.056391 0.000000 0.000000 0.000000 -0.534075
    31 1.137758 -1.867487 -0.137080 0.006196 -0.130751 -1.497905
    32 1.365644 0.014869 0.000000 0.003559 -0.680562 -0.015327
    33 0.938014 -0.005664 0.000001 -0.005393 -1.141385 0.018873
    34 0.409682 -2.071859 -0.137080 0.028594 -0.396954 -1.597491
    35 1.470907 0.007359 -0.000001 0.000000 -1.560324 0.010472
    36 1.152100 0.010338 0.000001 0.000000 -1.261865 0.005236
    37 -0.292848 -1.816393 -0.137080 0.008057 -0.298339 -1.671501
    38 1.511617 -0.004263 0.000000 0.000000 -1.544617 0.036652
    39 1.099637 -0.010806 0.000000 0.000000 -1.314229 0.010472
    40 -0.957059 -1.356556 -0.137080 -0.026917 -0.376066 -1.612798
    41 1.351391 -0.010799 -0.000001 0.000000 -0.842992 0.005229
    42 0.859052 0.017735 0.000000 0.000000 -1.513199 -0.010472
  time 1
    0 7.780069 3.355839 -9.200833 -1.586021 -1.252590 1.396520
    1 -0.244755 -8.933567 -0.000001 0.357592 0.006102 -0.386056
    2 -0.686200 -3.387099 0.924607 1.218516 1.752558 1.295778
    3 0.000000 2.226937 0.999491 0.000000 0.000000 0.000000
    4 0.000000 -5.541041 1.209910 0.000000 0.000000 0.000000
    5 0.000000 -3.226430 1.771029 0.312007 0.000000 0.000000
    6 0.000000 -6.435323 1.946378 0.000000 0.000000 0.000000
    7 0.000000 -4.444749 3.296568 0.000000 0.000000 0.000000
    8 -0.002621 -10.920650 4.053535 0.007353 -0.041128 -0.003156
    9 -1.540661 -11.373904 -12.362519 -1.574970 0.837469 -0.598914
    10 0.026865 -9.077095 -0.000001 0.558774 0.041860 0.845363
    11 0.000000 -0.456722 0.000000 0.000000 0.000000 0.000000
    12 -0.710981 0.147372 0.477535 -0.188145 -0.719991 -1.997882
    13 1.647790 0.090625 0.000000 0.000000 0.000000 0.654477
    14 0.983506 0.005681 0.000000 0.000000 0.000000 0.916288
    15 -1.090122 -1.829639 -0.122573 -0.047519 -0.574205 -1.609130
    16 1.390341 -0.000584 0.000000 0.000000 -1.418949 0.005236
    17 0.964939 -0.010943 0.000000 0.000000 -1.141425 0.000000
    18 -0.348493 -1.994085 -0.122572 -0.000007 -0.816810 -1.644097
    19 1.546314 0.004627 0.000001 0.000000 -1.644100 0.000000
    20 1.135736 0.008475 -0.000001 0.000000 -1.031511 0.020944
    21 0.310263 -1.738958 -0.122572 0.049540 -0.605938 -1.587414
    22 1.569655 0.049780 0.000000 0.000000 -1.513189 -0.010472
    23 1.096339 0.003407 0.000001 0.000000 -1.151921 0.005236
    24 0.956485 -1.335291 -0.122573 0.046069 -0.432290 -1.554732
    25 1.346261 0.018204 0.000001 0.000000 -0.895329 -0.005236
    26 0.874448 -0.001050 0.000002 0.000000 -1.183345 0.000000
    27 -0.017482 -0.437063 0.000000 0.000000 0.000000 0.000000
    28 0.714223 0.114181 0.472822 -0.048914 -0.322244 -0.907441
    29 1.728638 -0.122215 0.000000 0.000000 0.000000 -0.528829
    30 0.882757 0.056391 0.000000 0.000000 0.000000 -0.534075
    31 1.137758 -1.867487 -0.137080 0.006196 -0.130751 -1.497905
    32 1.365644 0.014869 0.000000 0.003643 -0.686687 -0.015399
    33 0.938014 -0.005664 0.000001 -0.005453 -1.144007 0.018921
    34 0.409682 -2.071859 -0.137080 0.028594 -0.396954 -1.597491
    35 1.470907 0.007359 -0.000001 0.000000 -1.560324 0.010472
    36 1.152100 0.010338 0.000001 0.000000 -1.261865 0.005236
    37 -0.292848 -1.816393 -0.137080 0.008057 -0.298339 -1.671501
    38 1.511617 -0.004263 0.000000 0.000000 -1.544617 0.036652
    39 1.099637 -0.010806 0.000000 0.000000 -1.314229 0.010472
    40 -0.957059 -1.356556 -0.137080 -0.026917 -0.376066 -1.612798
    41 1.351391 -0.010799 -0.000001 0.000000 -0.842992 0.005229
    42 0.859052 0.017735 0.000000 0.000000 -1.513199 -0.010472
  time 2
    0 7.920698 3.680067 -9.821946 -1.634338 -1.185096 1.425383
    1 -0.244755 -8.933567 -0.000001 0.368421 0.021527 -0.442899
    2 -0.686200 -3.387099 0.924607 1.218516 1.752558 1.295778
    3 0.000000 2.226937 0.999491 0.000000 0.000000 0.000000
    4 0.000000 -5.541041 1.209910 0.000000 0.000000 0.000000
    5 0.000000 -3.226430 1.771029 0.333136 0.000000 0.000000
    6 0.000000 -6.435323 1.946378 0.000000 0.000000 0.000000
    7 0.000000 -3.186898 3.296568 0.000000 0.000000 0.000000
    8 -0.002621 -10.920650 4.053535 0.007353 -0.041128 -0.003156
    9 -1.720354 -11.159053 -12.284391 -1.588839 0.832774 -0.555661
    10 0.026865 -9.077095 -0.000001 0.666996 0.021139 0.851959
    11 0.000000 -0.456722 0.000000 0.000000 0.000000 0.000000
    12 -0.710981 0.147372 0.477535 -0.188145 -0.719991 -1.997882
    13 1.647790 0.090625 0.000000 0.000000 0.000000 0.654477
    14 0.983506 0.005681 0.000000 0.000000 0.000000 0.916288
    15 -1.090122 -1.829639 -0.122573 -0.047519 -0.574205 -1.609130
    16 1.390341 -0.000584 0.000000 0.000000 -1.418949 0.005236
    17 0.964939 -0.010943 0.000000 0.000000 -1.141425 0.000000
    18 -0.348493 -1.994085 -0.122572 -0.000007 -0.816810 -1.644097
    19 1.546314 0.004627 0.000001 0.000000 -1.644100 0.000000
    20 1.135736 0.008475 -0.000001 0.000000 -1.031511 0.020944
    21 0.310263 -1.738958 -0.122572 0.049540 -0.605938 -1.587414
    22 1.569655 0.049780 0.000000 0.000000 -1.513189 -0.010472
    23 1.096339 0.003407 0.000001 0.000000 -1.151921 0.005236
    24 0.956485 -1.335291 -0.122573 0.046069 -0.432290 -1.554732
    25 1.346261 0.018204 0.000001 0.000000 -0.895329 -0.005236
    26 0.874448 -0.001050 0.000002 0.000000 -1.183345 0.000000
    27 -0.017482 -0.437063 0.000000 0.000000 0.000000 0.000000
    28 0.714223 0.114181 0.472822 -0.048914 -0.322244 -0.907441
    29 1.728638 -0.122215 0.000000 0.000000 0.000000 -0.528829
    30 0.882757 0.056391 0.000000 0.000000 0.000000 -0.534075
    31 1.137758 -1.867487 -0.137080 0.006196 -0.130751 -1.497905
    32 1.365644 0.014869 0.000000 0.004051 -0.716213 -0.015651
    33 0.938014 -0.005664 0.000001 -0.005789 -1.161866 0.019257
    34 0.409682 -2.071859 -0.137080 0.028594 -0.396954 -1.597491
    35 1.470907 0.007359 -0.000001 0.000000 -1.560324 0.010472
    36 1.152100 0.010338 0.000001 0.000000 -1.261865 0.005236
    37 -0.292848 -1.816393 -0.137080 0.008057 -0.298339 -1.671501
    38 1.511617 -0.004263 0.000000 0.000000 -1.544617 0.036652
    39 1.099637 -0.010806 0.000000 0.000000 -1.314229 0.010472
    40 -0.957059 -1.356556 -0.137080 -0.026917 -0.376066 -1.612798
    41 1.351391 -0.010799 -0.000001 0.000000 -0.842992 0.005229
    42 0.859052 0.017735 0.000000 0.000000 -1.513199 -0.010472
  time 3
    0 7.924605 3.703506 -10.138362 -1.642272 -1.149453 1.436242
    1 -0.244755 -8.933567 -0.000001 0.362454 0.022366 -0.463645
    2 -0.686200 -3.387099 0.924607 1.218516 1.752558 1.295778
    3 0.000000 2.226937 0.999491 0.000000 0.000000 0.000000
    4 0.000000 -5.541041 1.209910 0.000000 0.000000 0.000000
    5 0.000000 -3.226430 1.771029 0.359070 0.000000 0.000000
    6 0.000000 -6.435323 1.946378 0.000000 0.000000 0.000000
    7 0.000000 -3.186898 3.296568 0.000000 0.000000 0.000000
    8 -0.002621 -10.920650 4.053535 0.007353 -0.041128 -0.003156
    9 -1.837545 -11.409061 -12.245328 -1.657323 0.802787 -0.584943
    10 0.026865 -9.077095 -0.000001 0.678629 -0.026696 0.878593
    11 0.000000 -0.456722 0.000000 0.000000 0.000000 0.000000
    12 -0.710981 0.147372 0.477535 -0.188145 -0.719991 -1.997882
    13 1.647790 0.090625 0.000000 0.000000 0.000000 0.654477
    14 0.983506 0.005681 0.000000 0.000000 0.000000 0.916288
    15 -1.090122 -1.829639 -0.122573 -0.047519 -0.574205 -1.609130
    16 1.390341 -0.000584 0.000000 0.000000 -1.418949 0.005236
    17 0.964939 -0.010943 0.000000 0.000000 -1.141425 0.000000
    18 -0.348493 -1.994085 -0.122572 -0.000007 -0.816810 -1.644097
    19 1.546314 0.004627 0.000001 0.000000 -1.644100 0.000000
    20 1.135736 0.008475 -0.000001 0.000000 -1.031511 0.020944
    21 0.310263 -1.738958 -0.122572 0.049540 -0.605938 -1.587414
    22 1.569655 0.049780 0.000000 0.000000 -1.513189 -0.010472
    23 1.096339 0.003407 0.000001 0.000000 -1.151921 0.005236
    24 0.956485 -1.335291 -0.122573 0.046069 -0.432290 -1.554732
    25 1.346261 0.018204 0.000001 0.000000 -0.895329 -0.005236
    26 0.874448 -0.001050 0.000002 0.000000 -1.183345 0.000000
    27 -0.017482 -0.437063 0.000000 0.000000 0.000000 0.000000
    28 0.714223 0.114181 0.472822 -0.048914 -0.322244 -0.907441
    29 1.728638 -0.122215 0.000000 0.000000 0.000000 -0.528829
    30 0.882757 0.056391 0.000000 0.000000 0.000000 -0.534075
    31 1.137758 -1.867487 -0.137080 0.006196 -0.130751 -1.497905
    32 1.365644 0.014869 0.000000 0.004410 -0.741958 -0.015878
    33 0.938014 -0.005664 0.000001 -0.006256 -1.183805 0.019676
    34 0.409682 -2.071859 -0.137080 0.028594 -0.396954 -1.597491
    35 1.470907 0.007359 -0.000001 0.000000 -1.560324 0.010472
    36 1.152100 0.010338 0.000001 0.000000 -1.261865 0.005236
    37 -0.292848 -1.816393 -0.137080 0.008057 -0.298339 -1.671501
    38 1.511617 -0.004263 0.000000 0.000000 -1.544617 0.036652
    39 1.099637 -0.010806 0.000000 0.000000 -1.314229 0.010472
    40 -0.957059 -1.356556 -0.137080 -0.026917 -0.376066 -1.612798
    41 1.351391 -0.010799 -0.000001 0.000000 -0.842992 0.005229
    42 0.859052 0.017735 0.000000 0.000000 -1.513199 -0.010472
  time 4
    0 7.811320 3.453498 -10.181332 -1.635497 -1.132170 1.441812
    1 -0.244755 -8.933567 -0.000001 0.351419 0.018626 -0.474431
    2 -0.686200 -3.387099 0.924607 1.218516 1.752558 1.295778
    3 0.000000 2.226937 0.999491 0.000000 0.000000 0.000000
    4 0.000000 -5.541041 1.209910 0.000000 0.000000 0.000000
    5 0.000000 -3.226430 1.771029 0.371390 0.000000 0.000000
    6 0.000000 -6.435323 1.946378 0.000000 0.000000 0.000000
    7 0.000000 -3.690820 3.296568 0.000000 0.000000 0.000000
    8 -0.002621 -10.920650 4.053535 0.007353 -0.041128 -0.003156
    9 -1.900047 -11.979391 -12.233609 -1.728964 0.765455 -0.639487
    10 0.026865 -9.077095 -0.000001 0.632207 -0.072735 0.910632
    11 0.000000 -0.456722 0.000000 0.000000 0.000000 0.000000
    12 -0.710981 0.147372 0.477535 -0.188145 -0.719991 -1.997882
    13 1.647790 0.090625 0.000000 0.000000 0.000000 0.654477
    14 0.983506 0.005681 0.000000 0.000000 0.000000 0.916288
    15 -1.090122 -1.829639 -0.122573 -0.047519 -0.574205 -1.609130
    16 1.390341 -0.000584 0.000000 0.000000 -1.418949 0.005236
    17 0.964939 -0.010943 0.000000 0.000000 -1.141425 0.000000
    18 -0.348493 -1.994085 -0.122572 -0.000007 -0.816810 -1.644097
    19 1.546314 0.004627 0.000001 0.000000 -1.644100 0.000000
    20 1.135736 0.008475 -0.000001 0.000000 -1.031511 0.020944
    21 0.310263 -1.738958 -0.122572 0.049540 -0.605938 -1.587414
    22 1.569655 0.049780 0.000000 0.000000 -1.513189 -0.010472
    23 1.096339 0.003407 0.000001 0.000000 -1.151921 0.005236
    24 0.956485 -1.335291 -0.122573 0.046069 -0.432290 -1.554732
    25 1.346261 0.018204 0.000001 0.000000 -0.895329 -0.005236
    26 0.874448 -0.001050 0.000002 0.000000 -1.183345 0.000000
    27 -0.017482 -0.437063 0.000000 0.000000 0.000000 0.000000
    28 0.714223 0.114181 0.472822 -0.048914 -0.322244 -0.907441
    29 1.728638 -0.122215 0.000000 0.000000 0.000000 -0.528829
    30 0.882757 0.056391 0.000000 0.000000 0.000000 -0.534075
    31 1.137758 -1.867487 -0.137080 0.006196 -0.130751 -1.497905
    32 1.365644 0.014869 0.000000 0.004267 -0.731554 -0.015782
    33 0.938014 -0.005664 0.000001 -0.006484 -1.194254 0.019904
    34 0.409682 -2.071859 -0.137080 0.028594 -0.396954 -1.597491
    35 1.470907 0.007359 -0.000001 0.000000 -1.560324 0.010472
    36 1.152100 0.010338 0.000001 0.000000 -1.261865 0.005236
    37 -0.292848 -1.816393 -0.137080 0.008057 -0.298339 -1.671501
    38 1.511617 -0.004263 0.000000 0.000000 -1.544617 0.036652
    39 1.099637 -0.010806 0.000000 0.000000 -1.314229 0.010472
    40 -0.957059 -1.356556 -0.137080 -0.026917 -0.376066 -1.612798
    41 1.351391 -0.010799 -0.000001 0.000000 -0.842992 0.005229
    42 0.859052 0.017735 0.000000 0.000000 -1.513199 -0.010472
  time 5
    0 7.658972 3.117550 -10.095392 -1.619451 -1.137758 1.441419
    1 -0.244755 -8.933567 -0.000001 0.338999 0.011627 -0.470931
    2 -0.686200 -3.387099 0.924607 1.218516 1.752558 1.295778
    3 0.000000 2.226937 0.999491 0.000000 0.000000 0.000000
    4 0.000000 -5.541041 1.209910 0.000000 0.000000 0.000000
    5 0.000000 -3.226430 1.771029 0.351664 0.000000 0.000000
    6 0.000000 -6.435323 1.946378 0.000000 0.000000 0.000000
    7 0.000000 -4.979922 3.296568 0.000000 0.000000 0.000000
    8 -0.002621 -10.920650 4.053535 0.007353 -0.041128 -0.003156
    9 -1.931298 -12.428623 -12.233609 -1.752015 0.749780 -0.672118
    10 0.026865 -9.077095 -0.000001 0.579986 -0.089609 0.929033
    11 0.000000 -0.456722 0.000000 0.000000 0.000000 0.000000
    12 -0.710981 0.147372 0.477535 -0.188145 -0.719991 -1.997882
    13 1.647790 0.090625 0.000000 0.000000 0.000000 0.654477
    14 0.983506 0.005681 0.000000 0.000000 0.000000 0.916288
    15 -1.090122 -1.829639 -0.122573 -0.047519 -0.574205 -1.609130
    16 1.390341 -0.000584 0.000000 0.000000 -1.418949 0.005236
    17 0.964939 -0.010943 0.000000 0.000000 -1.141425 0.000000
    18 -0.348493 -1.994085 -0.122572 -0.000007 -0.816810 -1.644097
    19 1.546314 0.004627 0.000001 0.000000 -1.644100 0.000000
    20 1.135736 0.008475 -0.000001 0.000000 -1.031511 0.020944
    21 0.310263 -1.738958 -0.122572 0.049540 -0.605938 -1.587414
    22 1.569655 0.049780 0.000000 0.000000 -1.513189 -0.010472
    23 1.096339 0.003407 0.000001 0.000000 -1.151921 0.005236
    24 0.956485 -1.335291 -0.122573 0.046069 -0.432290 -1.554732
    25 1.346261 0.018204 0.000001 0.000000 -0.895329 -0.005236
    26 0.874448 -0.001050 0.000002 0.000000 -1.183345 0.000000
    27 -0.017482 -0.437063 0.000000 0.000000 0.000000 0.000000
    28 0.714223 0.114181 0.472822 -0.048914 -0.322244 -0.907441
    29 1.728638 -0.122215 0.000000 0.000000 0.000000 -0.528829
    30 0.882757 0.056391 0.000000 0.000000 0.000000 -0.534075
    31 1.137758 -1.867487 -0.137080 0.006196 -0.130751 -1.497905
    32 1.365644 0.014869 0.000000 0.003559 -0.680562 -0.015327
    33 0.938014 -0.005664 0.000001 -0.006100 -1.177540 0.019544
    34 0.409682 -2.071859 -0.137080 0.028594 -0.396954 -1.597491
    35 1.470907 0.007359 -0.000001 0.000000 -1.560324 0.010472
    36 1.152100 0.010338 0.000001 0.000000 -1.261865 0.005236
    37 -0.292848 -1.816393 -0.137080 0.008057 -0.298339 -1.671501
    38 1.511617 -0.004263 0.000000 0.000000 -1.544617 0.036652
    39 1.099637 -0.010806 0.000000 0.000000 -1.314229 0.010472
    40 -0.957059 -1.356556 -0.137080 -0.026917 -0.376066 -1.612798
    41 1.351391 -0.010799 -0.000001 0.000000 -0.842992 0.005229
    42 0.859052 0.017735 0.000000 0.000000 -1.513199 -0.010472
  time 6
    0 7.549593 2.875355 -10.005545 -1.602068 -1.159192 1.435286
    1 -0.244755 -8.933567 -0.000001 0.327875 0.003490 -0.455975
    2 -0.686200 -3.387099 0.924607 1.218516 1.752558 1.295778
    3 0.000000 2.226937 0.999491 0.000000 0.000000 0.000000
    4 0.000000 -5.541041 1.209910 0.000000 0.000000 0.000000
    5 0.000000 -3.226430 1.771029 0.308915 0.000000 0.000000
    6 0.000000 -6.435323 1.946378 0.000000 0.000000 0.000000
    7 0.000000 -4.979922 3.296568 0.000000 0.000000 0.000000
    8 -0.002621 -10.920650 4.053535 0.007353 -0.041128 -0.003156
    9 -1.927392 -12.557533 -12.241421 -1.739963 0.754702 -0.677285
    10 0.026865 -9.077095 -0.000001 0.554092 -0.086808 0.932455
    11 0.000000 -0.456722 0.000000 0.000000 0.000000 0.000000
    12 -0.710981 0.147372 0.477535 -0.188145 -0.719991 -1.997882
    13 1.647790 0.090625 0.000000 0.000000 0.000000 0.654477
    14 0.983506 0.005681 0.000000 0.000000 0.000000 0.916288
    15 -1.090122 -1.829639 -0.122573 -0.047519 -0.574205 -1.609130
    16 1.390341 -0.000584 0.000000 0.000000 -1.418949 0.005236
    17 0.964939 -0.010943 0.000000 0.000000 -1.141425 0.000000
    18 -0.348493 -1.994085 -0.122572 -0.000007 -0.816810 -1.644097
    19 1.546314 0.004627 0.000001 0.000000 -1.644100 0.000000
    20 1.135736 0.008475 -0.000001 0.000000 -1.031511 0.020944
    21 0.310263 -1.738958 -0.122572 0.049540 -0.605938 -1.587414
    22 1.569655 0.049780 0.000000 0.000000 -1.513189 -0.010472
    23 1.096339 0.003407 0.000001 0.000000 -1.151921 0.005236
    24 0.956485 -1.335291 -0.122573 0.046069 -0.432290 -1.554732
    25 1.346261 0.018204 0.000001 0.000000 -0.895329 -0.005236
    26 0.874448 -0.001050 0.000002 0.000000 -1.183345 0.000000
    27 -0.017482 -0.437063 0.000000 0.000000 0.000000 0.000000
    28 0.714223 0.114181 0.472822 -0.048914 -0.322244 -0.907441
    29 1.728638 -0.122215 0.000000 0.000000 0.000000 -0.528829
    30 0.882757 0.056391 0.000000 0.000000 0.000000 -0.534075
    31 1.137758 -1.867487 -0.137080 0.006196 -0.130751 -1.497905
    32 1.365644 0.014869 0.000000 0.002924 -0.629613 -0.014956
    33 0.938014 -0.005664 0.000001 -0.005393 -1.141385 0.018873
    34 0.409682 -2.071859 -0.137080 0.028594 -0.396954 -1.597491
    35 1.470907 0.007359 -0.000001 0.000000 -1.560324 0.010472
    36 1.152100 0.010338 0.000001 0.000000 -1.261865 0.005236
    37 -0.292848 -1.816393 -0.137080 0.008057 -0.298339 -1.671501
    38 1.511617 -0.004263 0.000000 0.000000 -1.544617 0.036652
    39 1.099637 -0.010806 0.000000 0.000000 -1.314229 0.010472
    40 -0.957059 -1.356556 -0.137080 -0.026917 -0.376066 -1.612798
    41 1.351391 -0.010799 -0.000001 0.000000 -0.842992 0.005229
    42 0.859052 0.017735 0.000000 0.000000 -1.513199 -0.010472
  time 7
    0 7.494904 2.754258 -9.946950 -1.590300 -1.178510 1.428534
    1 -0.244755 -8.933567 -0.000001 0.321215 -0.003126 -0.435133
    2 -0.686200 -3.387099 0.924607 1.218516 1.752558 1.295778
    3 0.000000 2.226937 0.999491 0.000000 0.000000 0.000000
    4 0.000000 -5.541041 1.209910 0.000000 0.000000 0.000000
    5 0.000000 -3.226430 1.771029 0.246403 0.000000 0.000000
    6 0.000000 -6.435323 1.946378 0.000000 0.000000 0.000000
    7 0.000000 -4.979922 3.296568 0.000000 0.000000 0.000000
    8 -0.002621 -10.920650 4.053535 0.007353 -0.041128 -0.003156
    9 -1.884421 -12.518470 -12.260953 -1.709547 0.769922 -0.670682
    10 0.026865 -9.077095 -0.000001 0.534609 -0.074964 0.929429
    11 0.000000 -0.456722 0.000000 0.000000 0.000000 0.000000
    12 -0.710981 0.147372 0.477535 -0.188145 -0.719991 -1.997882
    13 1.647790 0.090625 0.000000 0.000000 0.000000 0.654477
    14 0.983506 0.005681 0.000000 0.000000 0.000000 0.916288
    15 -1.090122 -1.829639 -0.122573 -0.047519 -0.574205 -1.609130
    16 1.390341 -0.000584 0.000000 0.000000 -1.418949 0.005236
    17 0.964939 -0.010943 0.000000 0.000000 -1.141425 0.000000
    18 -0.348493 -1.994085 -0.122572 -0.000007 -0.816810 -1.644097
    19 1.546314 0.004627 0.000001 0.000000 -1.644100 0.000000
    20 1.135736 0.008475 -0.000001 0.000000 -1.031511 0.020944
    21 0.310263 -1.738958 -0.122572 0.049540 -0.605938 -1.587414
    22 1.569655 0.049780 0.000000 0.000000 -1.513189 -0.010472
    23 1.096339 0.003407 0.000001 0.000000 -1.151921 0.005236
    24 0.956485 -1.335291 -0.122573 0.046069 -0.432290 -1.554732
    25 1.346261 0.018204 0.000001 0.000000 -0.895329 -0.005236
    26 0.874448 -0.001050 0.000002 0.000000 -1.183345 0.000000
    27 -0.017482 -0.437063 0.000000 0.000000 0.000000 0.000000
    28 0.714223 0.114181 0.472822 -0.048914 -0.322244 -0.907441
    29 1.728638 -0.122215 0.000000 0.000000 0.000000 -0.528829
    30 0.882757 0.056391 0.000000 0.000000 0.000000 -0.534075
    31 1.137758 -1.867487 -0.137080 0.006196 -0.130751 -1.497905
    32 1.365644 0.014869 0.000000 0.002001 -0.548992 -0.014428
    33 0.938014 -0.005664 0.000001 -0.004794 -1.105417 0.018334
    34 0.409682 -2.071859 -0.137080 0.028594 -0.396954 -1.597491
    35 1.470907 0.007359 -0.000001 0.000000 -1.560324 0.010472
    36 1.152100 0.010338 0.000001 0.000000 -1.261865 0.005236
    37 -0.292848 -1.816393 -0.137080 0.008057 -0.298339 -1.671501
    38 1.511617 -0.004263 0.000000 0.000000 -1.544617 0.036652
    39 1.099637 -0.010806 0.000000 0.000000 -1.314229 0.010472
    40 -0.957059 -1.356556 -0.137080 -0.026917 -0.376066 -1.612798
    41 1.351391 -0.010799 -0.000001 0.000000 -0.842992 0.005229
    42 0.859052 0.017735 0.000000 0.000000 -1.513199 -0.010472
  time 8
    0 7.455840 2.668318 -9.845384 -1.575324 -1.203137 1.418575
    1 -0.244755 -8.933567 -0.000001 0.318534 -0.007117 -0.417696
    2 -0.686200 -3.387099 0.924607 1.218516 1.752558 1.295778
    3 0.000000 2.226937 0.999491 0.000000 0.000000 0.000000
    4 0.000000 -5.541041 1.209910 0.000000 0.000000 0.000000
    5 0.000000 -3.226430 1.771029 0.136361 0.000000 0.000000
    6 0.000000 -6.435323 1.946378 0.000000 0.000000 0.000000
    7 0.000000 -4.979922 3.296568 0.000000 0.000000 0.000000
    8 -0.002621 -10.920650 4.053535 0.007353 -0.041128 -0.003156
    9 -1.814107 -12.385653 -12.288298 -1.668897 0.790065 -0.656042
    10 0.026865 -9.077095 -0.000001 0.522364 -0.055860 0.920056
    11 0.000000 -0.456722 0.000000 0.000000 0.000000 0.000000
    12 -0.710981 0.147372 0.477535 -0.188145 -0.719991 -1.997882
    13 1.647790 0.090625 0.000000 0.000000 0.000000 0.654477
    14 0.983506 0.005681 0.000000 0.000000 0.000000 0.916288
    15 -1.090122 -1.829639 -0.122573 -0.047519 -0.574205 -1.609130
    16 1.390341 -0.000584 0.000000 0.000000 -1.418949 0.005236
    17 0.964939 -0.010943 0.000000 0.000000 -1.141425 0.000000
    18 -0.348493 -1.994085 -0.122572 -0.000007 -0.816810 -1.644097
    19 1.546314 0.004627 0.000001 0.000000 -1.644100 0.000000
    20 1.135736 0.008475 -0.000001 0.000000 -1.031511 0.020944
    21 0.310263 -1.738958 -0.122572 0.049540 -0.605938 -1.587414
    22 1.569655 0.049780 0.000000 0.000000 -1.513189 -0.010472
    23 1.096339 0.003407 0.000001 0.000000 -1.151921 0.005236
    24 0.956485 -1.335291 -0.122573 0.046069 -0.432290 -1.554732
    25 1.346261 0.018204 0.000001 0.000000 -0.895329 -0.005236
    26 0.874448 -0.001050 0.000002 0.000000 -1.183345 0.000000
    27 -0.017482 -0.437063 0.000000 0.000000 0.000000 0.000000
    28 0.714223 0.114181 0.472822 -0.048914 -0.322244 -0.907441
    29 1.728638 -0.122215 0.000000 0.000000 0.000000 -0.528829
    30 0.882757 0.056391 0.000000 0.000000 0.000000 -0.534075
    31 1.137758 -1.867487 -0.137080 0.006196 -0.130751 -1.497905
    32 1.365644 0.014869 0.000000 0.001163 -0.467155 -0.014033
    33 0.938014 -0.005664 0.000001 -0.003967 -1.045451 0.017579
    34 0.409682 -2.071859 -0.137080 0.028594 -0.396954 -1.597491
    35 1.470907 0.007359 -0.000001 0.000000 -1.560324 0.010472
    36 1.152100 0.010338 0.000001 0.000000 -1.261865 0.005236
    37 -0.292848 -1.816393 -0.137080 0.008057 -0.298339 -1.671501
    38 1.511617 -0.004263 0.000000 0.000000 -1.544617 0.036652
    39 1.099637 -0.010806 0.000000 0.000000 -1.314229 0.010472
    40 -0.957059 -1.356556 -0.137080 -0.026917 -0.376066 -1.612798
    41 1.351391 -0.010799 -0.000001 0.000000 -0.842992 0.005229
    42 0.859052 0.017735 0.000000 0.000000 -1.513199 -0.010472
  time 9
    0 7.432402 2.613629 -9.700849 -1.562487 -1.225049 1.408166
    1 -0.244755 -8.933567 -0.000001 0.317208 -0.010844 -0.397166
    2 -0.686200 -3.387099 0.924607 1.218516 1.752558 1.295778
    3 0.000000 2.226937 0.999491 0.000000 0.000000 0.000000
    4 0.000000 -5.541041 1.209910 0.000000 0.000000 0.000000
    5 0.000000 -3.226430 1.771029 0.000000 0.000000 0.000000
    6 0.000000 -6.435323 1.946378 0.000000 0.000000 0.000000
    7 0.000000 -4.979922 3.296568 0.000000 0.000000 0.000000
    8 -0.002621 -10.920650 4.053535 0.007353 -0.041128 -0.003156
    9 -1.732073 -12.225492 -12.319549 -1.626429 0.810284 -0.642071
    10 0.026865 -9.077095 -0.000001 0.506158 -0.031688 0.906615
    11 0.000000 -0.456722 0.000000 0.000000 0.000000 0.000000
    12 -0.710981 0.147372 0.477535 -0.188145 -0.719991 -1.997882
    13 1.647790 0.090625 0.000000 0.000000 0.000000 0.654477
    14 0.983506 0.005681 0.000000 0.000000 0.000000 0.916288
    15 -1.090122 -1.829639 -0.122573 -0.047519 -0.574205 -1.609130
    16 1.390341 -0.000584 0.000000 0.000000 -1.418949 0.005236
    17 0.964939 -0.010943 0.000000 0.000000 -1.141425 0.000000
    18 -0.348493 -1.994085 -0.122572 -0.000007 -0.816810 -1.644097
    19 1.546314 0.004627 0.000001 0.000000 -1.644100 0.000000
    20 1.135736 0.008475 -0.000001 0.000000 -1.031511 0.020944
    21 0.310263 -1.738958 -0.122572 0.049540 -0.605938 -1.587414
    22 1.569655 0.049780 0.000000 0.000000 -1.513189 -0.010472
    23 1.096339 0.003407 0.000001 0.000000 -1.151921 0.005236
    24 0.956485 -1.335291 -0.122573 0.046069 -0.432290 -1.554732
    25 1.346261 0.018204 0.000001 0.000000 -0.895329 -0.005236
    26 0.874448 -0.001050 0.000002 0.000000 -1.183345 0.000000
    27 -0.017482 -0.437063 0.000000 0.000000 0.000000 0.000000
    28 0.714223 0.114181 0.472822 -0.048914 -0.322244 -0.907441
    29 1.728638 -0.122215 0.000000 0.000000 0.000000 -0.528829
    30 0.882757 0.056391 0.000000 0.000000 0.000000 -0.534075
    31 1.137758 -1.867487 -0.137080 0.006196 -0.130751 -1.497905
    32 1.365644 0.014869 0.000000 0.000204 -0.364393 -0.013625
    33 0.938014 -0.005664 0.000001 -0.003248 -0.981571 0.016944
    34 0.409682 -2.071859 -0.137080 0.028594 -0.396954 -1.597491
    35 1.470907 0.007359 -0.000001 0.000000 -1.560324 0.010472
    36 1.152100 0.010338 0.000001 0.000000 -1.261865 0.005236
    37 -0.292848 -1.816393 -0.137080 0.008057 -0.298339 -1.671501
    38 1.511617 -0.004263 0.000000 0.000000 -1.544617 0.036652
    39 1.099637 -0.010806 0.000000 0.000000 -1.314229 0.010472
    40 -0.957059 -1.356556 -0.137080 -0.026917 -0.376066 -1.612798
    41 1.351391 -0.010799 -0.000001 0.000000 -0.842992 0.005229
    42 0.859052 0.017735 0.000000 0.000000 -1.513199 -0.010472
  time 10
    0 7.424590 2.590190 -9.513343 -1.549918 -1.246363 1.396801
    1 -0.244755 -8.933567 -0.000001 0.318062 -0.013205 -0.378782
    2 -0.686200 -3.387099 0.924607 1.218516 1.752558 1.295778
    3 0.000000 2.226937 0.999491 0.000000 0.000000 0.000000
    4 0.000000 -5.541041 1.209910 0.000000 0.000000 0.000000
    5 0.000000 -3.226430 1.771029 0.000000 0.000000 0.000000
    6 0.000000 -6.435323 1.946378 0.000000 0.000000 0.000000
    7 0.000000 -4.979922 3.296568 0.000000 0.000000 0.000000
    8 -0.002621 -10.920650 4.053535 0.007353 -0.041128 -0.003156
    9 -1.653946 -12.120020 -12.350800 -1.594865 0.824671 -0.638530
    10 0.026865 -9.077095 -0.000001 0.480084 -0.008242 0.892926
    11 0.000000 -0.456722 0.000000 0.000000 0.000000 0.000000
    12 -0.710981 0.147372 0.477535 -0.188145 -0.719991 -1.997882
    13 1.647790 0.090625 0.000000 0.000000 0.000000 0.654477
    14 0.983506 0.005681 0.000000 0.000000 0.000000 0.916288
    15 -1.090122 -1.829639 -0.122573 -0.047519 -0.574205 -1.609130
    16 1.390341 -0.000584 0.000000 0.000000 -1.418949 0.005236
    17 0.964939 -0.010943 0.000000 0.000000 -1.141425 0.000000
    18 -0.348493 -1.994085 -0.122572 -0.000007 -0.816810 -1.644097
    19 1.546314 0.004627 0.000001 0.000000 -1.644100 0.000000
    20 1.135736 0.008475 -0.000001 0.000000 -1.031511 0.020944
    21 0.310263 -1.738958 -0.122572 0.049540 -0.605938 -1.587414
    22 1.569655 0.049780 0.000000 0.000000 -1.513189 -0.010472
    23 1.096339 0.003407 0.000001 0.000000 -1.151921 0.005236
    24 0.956485 -1.335291 -0.122573 0.046069 -0.432290 -1.554732
    25 1.346261 0.018204 0.000001 0.000000 -0.895329 -0.005236
    26 0.874448 -0.001050 0.000002 0.000000 -1.183345 0.000000
    27 -0.017482 -0.437063 0.000000 0.000000 0.000000 0.000000
    28 0.714223 0.114181 0.472822 -0.048914 -0.322244 -0.907441
    29 1.728638 -0.122215 0.000000 0.000000 0.000000 -0.528829
    30 0.882757 0.056391 0.000000 0.000000 0.000000 -0.534075
    31 1.137758 -1.867487 -0.137080 0.006196 -0.130751 -1.497905
    32 1.365644 0.014869 0.000000 -0.000659 -0.261734 -0.013374
    33 0.938014 -0.005664 0.000001 -0.002529 -0.901040 0.016320
    34 0.409682 -2.071859 -0.137080 0.028594 -0.396954 -1.597491
    35 1.470907 0.007359 -0.000001 0.000000 -1.560324 0.010472
    36 1.152100 0.010338 0.000001 0.000000 -1.261865 0.005236
    37 -0.292848 -1.816393 -0.137080 0.008057 -0.298339 -1.671501
    38 1.511617 -0.004263 0.000000 0.000000 -1.544617 0.036652
    39 1.099637 -0.010806 0.000000 0.000000 -1.314229 0.010472
    40 -0.957059 -1.356556 -0.137080 -0.026917 -0.376066 -1.612798
    41 1.351391 -0.010799 -0.000001 0.000000 -0.842992 0.005229
    42 0.859052 0.017735 0.000000 0.000000 -1.513199 -0.010472
  time 11
    0 7.432402 2.601910 -9.290680 -1.535476 -1.269194 1.382735
    1 -0.244755 -8.933567 -0.000001 0.320346 -0.014955 -0.360170
    2 -0.686200 -3.387099 0.924607 1.218516 1.752558 1.295778
    3 0.000000 2.226937 0.999491 0.000000 0.000000 0.000000
    4 0.000000 -5.541041 1.209910 0.000000 0.000000 0.000000
    5 0.000000 -3.226430 1.771029 0.000000 0.000000 0.000000
    6 0.000000 -6.435323 1.946378 0.000000 0.000000 0.000000
    7 0.000000 -4.979922 3.296568 0.000000 0.000000 0.000000
    8 -0.002621 -10.920650 4.053535 0.007353 -0.041128 -0.003156
    9 -1.575818 -12.061424 -12.378144 -1.579753 0.831562 -0.643506
    10 0.026865 -9.077095 -0.000001 0.454478 0.009002 0.882064
    11 0.000000 -0.456722 0.000000 0.000000 0.000000 0.000000
    12 -0.710981 0.147372 0.477535 -0.188145 -0.719991 -1.997882
    13 1.647790 0.090625 0.000000 0.000000 0.000000 0.654477
    14 0.983506 0.005681 0.000000 0.000000 0.000000 0.916288
    15 -1.090122 -1.829639 -0.122573 -0.047519 -0.574205 -1.609130
    16 1.390341 -0.000584 0.000000 0.000000 -1.418949 0.005236
    17 0.964939 -0.010943 0.000000 0.000000 -1.141425 0.000000
    18 -0.348493 -1.994085 -0.122572 -0.000007 -0.816810 -1.644097
    19 1.546314 0.004627 0.000001 0.000000 -1.644100 0.000000
    20 1.135736 0.008475 -0.000001 0.000000 -1.031511 0.020944
    21 0.310263 -1.738958 -0.122572 0.049540 -0.605938 -1.587414
    22 1.569655 0.049780 0.000000 0.000000 -1.513189 -0.010472
    23 1.096339 0.003407 0.000001 0.000000 -1.151921 0.005236
    24 0.956485 -1.335291 -0.122573 0.046069 -0.432290 -1.554732
    25 1.346261 0.018204 0.000001 0.000000 -0.895329 -0.005236
    26 0.874448 -0.001050 0.000002 0.000000 -1.183345 0.000000
    27 -0.017482 -0.437063 0.000000 0.000000 0.000000 0.000000
    28 0.714223 0.114181 0.472822 -0.048914 -0.322244 -0.907441
    29 1.728638 -0.122215 0.000000 0.000000 0.000000 -0.528829
    30 0.882757 0.056391 0.000000 0.000000 0.000000 -0.534075
    31 1.137758 -1.867487 -0.137080 0.006196 -0.130751 -1.497905
    32 1.365644 0.014869 0.000000 -0.000659 -0.261734 -0.013374
    33 0.938014 -0.005664 0.000001 -0.001942 -0.822028 0.015853
    34 0.409682 -2.071859 -0.137080 0.028594 -0.396954 -1.597491
    35 1.470907 0.007359 -0.000001 0.000000 -1.560324 0.010472
    36 1.152100 0.010338 0.000001 0.000000 -1.261865 0.005236
    37 -0.292848 -1.816393 -0.137080 0.008057 -0.298339 -1.671501
    38 1.511617 -0.004263 0.000000 0.000000 -1.544617 0.036652
    39 1.099637 -0.010806 0.000000 0.000000 -1.314229 0.010472
    40 -0.957059 -1.356556 -0.137080 -0.026917 -0.376066 -1.612798
    41 1.351391 -0.010799 -0.000001 0.000000 -0.842992 0.005229
    42 0.859052 0.017735 0.000000 0.000000 -1.513199 -0.010472
  time 12
    0 7.455840 2.640973 -9.017234 -1.515775 -1.295417 1.363548
    1 -0.244755 -8.933567 -0.000001 0.323293 -0.016824 -0.338969
    2 -0.686200 -3.387099 0.924607 1.218516 1.752558 1.295778
    3 0.000000 2.226937 0.999491 0.000000 0.000000 0.000000
    4 0.000000 -5.541041 1.209910 0.000000 0.000000 0.000000
    5 0.000000 -3.226430 1.771029 0.000000 0.000000 0.000000
    6 0.000000 -6.435323 1.946378 0.000000 0.000000 0.000000
    7 0.000000 -4.979922 3.296568 0.000000 0.000000 0.000000
    8 -0.002621 -10.920650 4.053535 0.007353 -0.041128 -0.003156
    9 -1.493785 -12.010642 -12.405489 -1.580135 0.831789 -0.655180
    10 0.026865 -9.077095 -0.000001 0.433698 0.021470 0.872691
    11 0.000000 -0.456722 0.000000 0.000000 0.000000 0.000000
    12 -0.710981 0.147372 0.477535 -0.188145 -0.719991 -1.997882
    13 1.647790 0.090625 0.000000 0.000000 0.000000 0.654477
    14 0.983506 0.005681 0.000000 0.000000 0.000000 0.916288
    15 -1.090122 -1.829639 -0.122573 -0.047519 -0.574205 -1.609130
    16 1.390341 -0.000584 0.000000 0.000000 -1.418949 0.005236
    17 0.964939 -0.010943 0.000000 0.000000 -1.141425 0.000000
    18 -0.348493 -1.994085 -0.122572 -0.000007 -0.816810 -1.644097
    19 1.546314 0.004627 0.000001 0.000000 -1.644100 0.000000
    20 1.135736 0.008475 -0.000001 0.000000 -1.031511 0.020944
    21 0.310263 -1.738958 -0.122572 0.049540 -0.605938 -1.587414
    22 1.569655 0.049780 0.000000 0.000000 -1.513189 -0.010472
    23 1.096339 0.003407 0.000001 0.000000 -1.151921 0.005236
    24 0.956485 -1.335291 -0.122573 0.046069 -0.432290 -1.554732
    25 1.346261 0.018204 0.000001 0.000000 -0.895329 -0.005236
    26 0.874448 -0.001050 0.000002 0.000000 -1.183345 0.000000
    27 -0.017482 -0.437063 0.000000 0.000000 0.000000 0.000000
    28 0.714223 0.114181 0.472822 -0.048914 -0.322244 -0.907441
    29 1.728638 -0.122215 0.000000 0.000000 0.000000 -0.528829
    30 0.882757 0.056391 0.000000 0.000000 0.000000 -0.534075
    31 1.137758 -1.867487 -0.137080 0.006196 -0.130751 -1.497905
    32 1.365644 0.014869 0.000000 -0.000659 -0.261734 -0.013374
    33 0.938014 -0.005664 0.000001 -0.001942 -0.822028 0.015853
    34 0.409682 -2.071859 -0.137080 0.028594 -0.396954 -1.597491
    35 1.470907 0.007359 -0.000001 0.000000 -1.560324 0.010472
    36 1.152100 0.010338 0.000001 0.000000 -1.261865 0.005236
    37 -0.292848 -1.816393 -0.137080 0.008057 -0.298339 -1.671501
    38 1.511617 -0.004263 0.000000 0.000000 -1.544617 0.036652
    39 1.099637 -0.010806 0.000000 0.000000 -1.314229 0.010472
    40 -0.957059 -1.356556 -0.137080 -0.026917 -0.376066 -1.612798
    41 1.351391 -0.010799 -0.000001 0.000000 -0.842992 0.005229
    42 0.859052 0.017735 0.000000 0.000000 -1.513199 -0.010472
  time 13
    0 7.494904 2.715194 -8.704725 -1.485288 -1.327148 1.334516
    1 -0.244755 -8.933567 -0.000001 0.326092 -0.019569 -0.312819
    2 -0.686200 -3.387099 0.924607 1.218516 1.752558 1.295778
    3 0.000000 2.226937 0.999491 0.000000 0.000000 0.000000
    4 0.000000 -5.541041 1.209910 0.000000 0.000000 0.000000
    5 0.000000 -3.226430 1.771029 0.000000 0.000000 0.000000
    6 0.000000 -6.435323 1.946378 0.000000 0.000000 0.000000
    7 0.000000 -4.979922 3.296568 0.000000 0.000000 0.000000
    8 -0.002621 -10.920650 4.053535 0.007353 -0.041128 -0.003156
    9 -1.403938 -11.959859 -12.436740 -1.588552 0.828382 -0.672022
    10 0.026865 -9.077095 -0.000001 0.412377 0.033161 0.862722
    11 0.000000 -0.456722 0.000000 0.000000 0.000000 0.000000
    12 -0.710981 0.147372 0.477535 -0.188145 -0.719991 -1.997882
    13 1.647790 0.090625 0.000000 0.000000 0.000000 0.654477
    14 0.983506 0.005681 0.000000 0.000000 0.000000 0.916288
    15 -1.090122 -1.829639 -0.122573 -0.047519 -0.574205 -1.609130
    16 1.390341 -0.000584 0.000000 0.000000 -1.418949 0.005236
    17 0.964939 -0.010943 0.000000 0.000000 -1.141425 0.000000
    18 -0.348493 -1.994085 -0.122572 -0.000007 -0.816810 -1.644097
    19 1.546314 0.004627 0.000001 0.000000 -1.644100 0.000000
    20 1.135736 0.008475 -0.000001 0.000000 -1.031511 0.020944
    21 0.310263 -1.738958 -0.122572 0.049540 -0.605938 -1.587414
    22 1.569655 0.049780 0.000000 0.000000 -1.513189 -0.010472
    23 1.096339 0.003407 0.000001 0.000000 -1.151921 0.005236
    24 0.956485 -1.335291 -0.122573 0.046069 -0.432290 -1.554732
    25 1.346261 0.018204 0.000001 0.000000 -0.895329 -0.005236
    26 0.874448 -0.001050 0.000002 0.000000 -1.183345 0.000000
    27 -0.017482 -0.437063 0.000000 0.000000 0.000000 0.000000
    28 0.714223 0.114181 0.472822 -0.048914 -0.322244 -0.907441
    29 1.728638 -0.122215 0.000000 0.000000 0.000000 -0.528829
    30 0.882757 0.056391 0.000000 0.000000 0.000000 -0.534075
    31 1.137758 -1.867487 -0.137080 0.006196 -0.130751 -1.497905
    32 1.365644 0.014869 0.000000 -0.000659 -0.261734 -0.013374
    33 0.938014 -0.005664 0.000001 -0.001942 -0.822028 0.015853
    34 0.409682 -2.071859 -0.137080 0.028594 -0.396954 -1.597491
    35 1.470907 0.007359 -0.000001 0.000000 -1.560324 0.010472
    36 1.152100 0.010338 0.000001 0.000000 -1.261865 0.005236
    37 -0.292848 -1.816393 -0.137080 0.008057 -0.298339 -1.671501
    38 1.511617 -0.004263 0.000000 0.000000 -1.544617 0.036652
    39 1.099637 -0.010806 0.000000 0.000000 -1.314229 0.010472
    40 -0.957059 -1.356556 -0.137080 -0.026917 -0.376066 -1.612798
    41 1.351391 -0.010799 -0.000001 0.000000 -0.842992 0.005229
    42 0.859052 0.017735 0.000000 0.000000 -1.513199 -0.010472
  time 14
    0 7.549593 2.824573 -8.353151 -1.443657 -1.359239 1.295243
    1 -0.244755 -8.933567 -0.000001 0.327698 -0.023128 -0.284547
    2 -0.686200 -3.387099 0.924607 1.218516 1.752558 1.295778
    3 0.000000 2.226937 0.999491 0.000000 0.000000 0.000000
    4 0.000000 -5.541041 1.209910 0.000000 0.000000 0.000000
    5 0.000000 -3.226430 1.771029 0.000000 0.000000 0.000000
    6 0.000000 -6.435323 1.946378 0.000000 0.000000 0.000000
    7 0.000000 -4.979922 3.296568 0.000000 0.000000 0.000000
    8 -0.002621 -10.920650 4.053535 0.007353 -0.041128 -0.003156
    9 -1.306279 -11.909076 -12.471897 -1.591613 0.827473 -0.688481
    10 0.026865 -9.077095 -0.000001 0.385475 0.048253 0.850025
    11 0.000000 -0.456722 0.000000 0.000000 0.000000 0.000000
    12 -0.710981 0.147372 0.477535 -0.188145 -0.719991 -1.997882
    13 1.647790 0.090625 0.000000 0.000000 0.000000 0.654477
    14 0.983506 0.005681 0.000000 0.000000 0.000000 0.916288
    15 -1.090122 -1.829639 -0.122573 -0.047519 -0.574205 -1.609130
    16 1.390341 -0.000584 0.000000 0.000000 -1.418949 0.005236
    17 0.964939 -0.010943 0.000000 0.000000 -1.141425 0.000000
    18 -0.348493 -1.994085 -0.122572 -0.000007 -0.816810 -1.644097
    19 1.546314 0.004627 0.000001 0.000000 -1.644100 0.000000
    20 1.135736 0.008475 -0.000001 0.000000 -1.031511 0.020944
    21 0.310263 -1.738958 -0.122572 0.049540 -0.605938 -1.587414
    22 1.569655 0.049780 0.000000 0.000000 -1.513189 -0.010472
    23 1.096339 0.003407 0.000001 0.000000 -1.151921 0.005236
    24 0.956485 -1.335291 -0.122573 0.046069 -0.432290 -1.554732
    25 1.346261 0.018204 0.000001 0.000000 -0.895329 -0.005236
    26 0.874448 -0.001050 0.000002 0.000000 -1.183345 0.000000
    27 -0.017482 -0.437063 0.000000 0.000000 0.000000 0.000000
    28 0.714223 0.114181 0.472822 -0.048914 -0.322244 -0.907441
    29 1.728638 -0.122215 0.000000 0.000000 0.000000 -0.528829
    30 0.882757 0.056391 0.000000 0.000000 0.000000 -0.534075
    31 1.137758 -1.867487 -0.137080 0.006196 -0.130751 -1.497905
    32 1.365644 0.014869 0.000000 -0.000659 -0.261734 -0.013374
    33 0.938014 -0.005664 0.000001 -0.001942 -0.822028 0.015853
    34 0.409682 -2.071859 -0.137080 0.028594 -0.396954 -1.597491
    35 1.470907 0.007359 -0.000001 0.000000 -1.560324 0.010472
    36 1.152100 0.010338 0.000001 0.000000 -1.261865 0.005236
    37 -0.292848 -1.816393 -0.137080 0.008057 -0.298339 -1.671501
    38 1.511617 -0.004263 0.000000 0.000000 -1.544617 0.036652
    39 1.099637 -0.010806 0.000000 0.000000 -1.314229 0.010472
    40 -0.957059 -1.356556 -0.137080 -0.026917 -0.376066 -1.612798
    41 1.351391 -0.010799 -0.000001 0.000000 -0.842992 0.005229
    42 0.859052 0.017735 0.000000 0.000000 -1.513199 -0.010472
end
