// Created by Crowbar 0.49.0.0

$modelname "weapons/tfa_cso/c_crossbow.mdl"

$Include "csonline_gmod.qci"

$bodygroup "weapon"
{
	studio "v_crossbow_v_ref"
}

$CDMaterials "models\weapons\tfa_cso\crossbow"

$attachment 0 "bone_load01" -38.117001 2.401 0

$definebone "Bone01" "" 0.497702 0.002174 -11.414404 -0.012834 -89.771431 179.847612 0.000000 0.000000 -0.000001 0.000000 0.000000 -0.000000
$definebone "Bone_Lefthand" "Bone01" -0.071918 -8.498729 -0.104137 16.477755 0.853593 -1.435030 0.000000 0.000000 0.000000 0.000005 0.000000 -0.000000
$definebone "bone_handle01" "Bone_Lefthand" -0.432209 9.361524 -11.607312 -56.440699 -177.904082 86.818174 0.000000 0.000000 0.000000 0.000000 0.000002 -0.000000
$definebone "bone_load01" "bone_handle01" -1.699721 2.222293 0.000421 -0.000000 -73.484025 -0.000000 0.000000 0.000000 -0.000000 -0.000000 -0.000002 -0.000000
$definebone "bone_trogger01" "bone_handle01" 0.037088 1.836796 -0.000000 0.000000 38.930371 -0.000000 0.000000 0.000000 0.000000 0.000000 0.000000 -0.000000
$definebone "bone_R_blow01" "bone_handle01" -5.655031 16.263660 1.047437 -64.252519 -73.333153 0.337930 0.000000 0.000000 0.000000 0.000002 -0.000001 -0.000000
$definebone "bone_R_blow02" "bone_R_blow01" 7.696723 0.021893 -0.405259 32.175475 -0.021945 -0.097804 0.000000 -0.000000 0.000000 -0.000002 -0.000000 -0.000001
$definebone "bone_R_blow03" "bone_R_blow02" 6.499036 0.037860 -0.093995 86.262695 -179.833173 -89.989717 0.000000 0.000000 -0.000000 0.000001 0.000000 0.000000
$definebone "bone_L_blow01" "bone_handle01" -5.655030 16.263659 -1.043029 64.252403 -73.333099 179.662145 0.000000 0.000000 0.000000 0.000003 0.000002 -0.000002
$definebone "bone_L_blow02" "bone_L_blow01" 7.721393 -0.021960 -0.393363 32.175488 0.021890 0.097744 0.000000 0.000000 0.000001 0.000009 0.000002 -0.000001
$definebone "bone_L_blow03" "bone_L_blow02" 6.490694 -0.037835 -0.107306 86.262544 179.833159 89.989519 0.000000 0.000000 0.000000 -0.000001 -0.000009 -0.000002
$definebone "bone_megazine01" "bone_handle01" -0.489117 10.226309 1.194557 -0.000000 -73.460755 -0.000000 0.000000 0.000000 -0.000000 -0.000000 -0.000002 -0.000000
$definebone "bone_megazine02" "bone_megazine01" 1.189390 -0.918512 -1.194556 -0.000000 0.211133 -0.000000 0.000000 0.000000 0.000000 -0.000000 -0.000002 -0.000000
$definebone "bone_megazine03" "bone_handle01" -2.647894 8.542627 -0.000005 -0.000000 -73.027823 -0.000000 0.000000 0.000000 0.000000 -0.000000 -0.000002 -0.000000

$sequence "idle1" {
	"v_crossbow_anims\idle1"
	fps 16
	loop
	activity "ACT_VM_IDLE" 1
	snap
}
$sequence "shoot" {
	"v_crossbow_anims\shoot"
	{ event 5001 0 "100112" }
	fps 30
	activity "ACT_VM_PRIMARYATTACK" 1
	snap
}
$sequence "shoot2" {
	"v_crossbow_anims\shoot2"
	{ event 5001 0 "100112" }
	fps 30
	activity "ACT_VM_PRIMARYATTACK" 2
	snap
}
$sequence "reload" {
	"v_crossbow_anims\reload"
	{ event 5004 21 "Crossbow.Foley1" }
	{ event 5004 44 "Crossbow.Foley2" }
	{ event 5004 73 "Crossbow.Foley3" }
	{ event 5004 85 "Crossbow.Foley4" }
	fps 30
	activity "ACT_VM_RELOAD" 1
	snap
}
$sequence "draw" {
	"v_crossbow_anims\draw"
	{ event 5004 9 "Crossbow.Draw" }
	fps 30
	activity "ACT_VM_DRAW" 1
	snap
}
