// Created by Crowbar 0.49.0.0

$modelname "weapons/tfa_cso/c_pgm.mdl"

$Include "csonline_gmod.qci"

$bodygroup "weapon"
{
	studio "v_pgm"
}

$CDMaterials "models\weapons\tfa_cso\pgm"

$attachment 0 "PGM_root" 5.175 0.581 21.052999
//$attachment 1 "PGM_root" 5 -1.3 0.54

$definebone "PGM_root" "" 0.867386 0.000000 0.000000 -89.999983 90.000038 0.000000 0.000000 0.000000 0.000000 -0.000000 0.000000 0.000000
$definebone "reload" "PGM_root" 5.242766 -0.009398 -9.099322 -0.000000 116.968248 -0.000000 -0.000000 0.000000 0.000000 -0.000000 0.000000 -0.000000
$definebone "megazine" "PGM_root" 4.337082 0.867384 -6.040190 -0.000000 -179.999966 0.000057 0.000000 0.000000 0.000000 -0.000000 0.000000 0.000000
$definebone "triger" "PGM_root" 3.672698 -0.009399 -9.741897 -0.000000 89.999983 0.000000 0.000000 0.000000 0.000000 -0.000000 0.000000 0.000000

$sequence "idle1" {
	"v_pgm_anims\idle1"
	fps 15
	loop
	activity "ACT_VM_IDLE" 1
	snap
}
$sequence "shoot1" {
	"v_pgm_anims\shoot1"
	{ event 5001 0 "23" }
	fps 30
	activity "ACT_VM_PRIMARYATTACK" 1
	snap
}
$sequence "shoot2" {
	"v_pgm_anims\shoot2"
	{ event 5001 0 "23" }
	fps 30
	activity "ACT_VM_PRIMARYATTACK" 2
	snap
}
$sequence "reload" {
	"v_pgm_anims\reload"
	{ event 5004 22 "PGM.ClipOut" }
	{ event 5004 61 "PGM.ClipIn" }
	fps 30
	activity "ACT_VM_RELOAD" 1
	snap
}
$sequence "draw" {
	"v_pgm_anims\draw"
	fps 30
	activity "ACT_VM_DRAW" 1
	snap
}
