version 1
nodes
  0 "Bip01" -1
  1 "Bip01 Pelvis" 0
  2 "Bip01 Spine" 1
  3 "Bip01 Spine1" 2
  4 "Bip01 Spine2" 3
  5 "Bip01 Spine3" 4
  6 "Bip01 Neck" 5
  7 "Bip01 L Clavicle" 6
  8 "Bip01 L UpperArm" 7
  9 "Bip01 L Forearm" 8
  10 "Bip01 L Hand" 9
  11 "epic_bone_R" 10
  12 "Bip01 R Clavicle" 6
  13 "Bip01 R UpperArm" 12
  14 "Bip01 R Forearm" 13
  15 "Bip01 R Hand" 14
  16 "epic_bone_L" 15
end
skeleton
  time 0
    0 -0.646914 0.003906 33.899609 -0.025849 0.174554 -1.569172
    1 -2.276911 0.000003 -1.238194 -1.570795 -1.570796 0.000000
    2 1.796852 0.711874 0.000649 -0.199888 0.010158 -0.093689
    3 4.119205 -0.003136 0.000752 -0.231819 0.053819 0.175471
    4 4.119362 -0.003175 0.000327 -0.099812 -0.003168 0.233245
    5 4.118828 -0.003258 0.000337 -0.102975 0.024013 0.065374
    6 4.119862 -0.003267 -0.000536 0.153682 -0.137389 0.344795
    7 0.237316 0.266273 1.696165 1.547105 -1.368745 1.247034
    8 5.849110 -0.000002 0.000000 -0.963964 0.675150 -0.637801
    9 9.697664 -0.000004 -0.000004 0.000000 0.000000 -1.300798
    10 10.762139 0.000000 0.000006 -1.831845 -0.152273 0.066446
    11 2.412140 0.770718 1.815136 -2.679299 1.373819 0.720708
    12 -0.237301 -0.259201 -1.696165 -1.267612 1.351832 1.501444
    13 5.849108 0.000002 0.000000 0.466786 -0.984841 -0.441862
    14 9.697660 0.000000 0.000000 0.000000 0.000000 -1.466661
    15 10.762132 0.000004 0.000004 1.919112 0.152273 0.066446
    16 3.335489 0.736414 -1.807621 -0.557104 -1.382124 0.814922
  time 1
    0 -0.646914 0.003906 33.899609 -0.025849 0.174554 -1.569172
    1 -2.276911 0.000003 -1.238194 -1.570795 -1.570796 0.000000
    2 1.796852 0.711874 0.000649 -0.199876 0.010158 -0.093078
    3 4.119205 -0.003136 0.000752 -0.231819 0.053735 0.176082
    4 4.119362 -0.003175 0.000327 -0.099824 -0.003324 0.233844
    5 4.118828 -0.003258 0.000337 -0.102975 0.023773 0.065949
    6 4.119862 -0.003267 -0.000536 0.153778 -0.137065 0.343153
    7 0.237316 0.266273 1.696165 1.546925 -1.368889 1.248880
    8 5.849110 -0.000002 0.000000 -0.969033 0.671878 -0.636686
    9 9.697664 -0.000004 -0.000004 0.000000 0.000000 -1.303231
    10 10.762139 0.000000 0.000006 -1.831845 -0.152273 0.066446
    11 2.412140 0.770718 1.815136 -2.679299 1.373819 0.720708
    12 -0.237301 -0.259201 -1.696165 -1.267936 1.351700 1.502774
    13 5.849108 0.000002 0.000000 0.471712 -0.983595 -0.444654
    14 9.697660 0.000000 0.000000 0.000000 0.000000 -1.468447
    15 10.762132 0.000004 0.000004 1.919112 0.152273 0.066446
    16 3.335489 0.736414 -1.807621 -0.557104 -1.382124 0.814922
end
