version 1
nodes
  0 "root" -1
  1 "Bone01" 0
  2 "Bone_Lefthand" 1
  3 "left_skull4_root" 2
  4 "left_skull4_grib" 3
  5 "left_skull4_magazine" 3
  6 "left_skull4_trigger" 3
  7 "Bone04" 0
  8 "Bone_Righthand" 7
  9 "right_skull4_root" 8
  10 "right_skull4_grib" 9
  11 "right_skull4_magazine" 9
  12 "right_skull4_trigger" 9
  13 "Bone_L_Upper" 1
  14 "Bone13" 2
  15 "Bone14" 14
  16 "Bone15" 15
  17 "Bone17" 2
  18 "Bone18" 17
  19 "Bone19" 18
  20 "Bone21" 2
  21 "Bone22" 20
  22 "Bone23" 21
  23 "Bone09" 2
  24 "Bone10" 23
  25 "Bone11" 24
  26 "Bone05" 2
  27 "Bone06" 26
  28 "Bone07" 27
  29 "Bone_Se_Hand-L" 2
  30 "Bone39" 8
  31 "Bone40" 30
  32 "Bone41" 31
  33 "Bone35" 8
  34 "Bone36" 33
  35 "Bone37" 34
  36 "Bone31" 8
  37 "Bone32" 36
  38 "Bone33" 37
  39 "Bone43" 8
  40 "Bone44" 39
  41 "Bone45" 40
  42 "Bone27" 8
  43 "Bone28" 42
  44 "Bone29" 43
  45 "Bone_Se_Hand-R" 8
  46 "Bone_R_Upper" 7
end
skeleton
  time 0
    0 0.000000 0.878933 -4.644612 -0.174533 0.000000 0.000000
    1 12.889416 4.357489 -7.910713 0.422454 -2.264821 -0.540887
    2 0.084337 -8.502637 0.173215 0.164431 0.543149 -0.359971
    3 1.776994 -2.723174 0.873419 0.134966 0.079135 3.004383
    4 -2.536482 9.152779 0.850404 0.000000 0.000000 -1.570796
    5 -1.546743 7.218124 0.000000 0.000000 0.000000 -0.002004
    6 -0.284830 1.799968 0.000000 0.000001 0.000000 0.000000
    7 -11.021444 5.345989 -7.558889 0.393734 2.082801 0.422417
    8 -0.227284 -8.466044 0.162515 0.053284 -0.334585 0.249785
    9 -1.471282 -3.093521 0.739297 3.070381 0.002168 0.135135
    10 -2.536482 9.152779 0.850403 0.000000 0.000000 -1.570796
    11 -1.546742 7.218122 -0.000001 0.000000 0.000000 -0.002004
    12 -0.284830 2.417173 0.000000 0.000001 0.000000 0.000000
    13 1.257180 8.762585 -0.153713 -1.570562 0.002683 -1.566807
    14 -0.488518 -2.755602 -0.228260 -0.647514 0.030346 -0.257527
    15 0.039887 -1.479790 0.029854 -1.670335 0.000000 0.000001
    16 0.028786 -1.075731 -0.023109 -1.197449 0.000000 0.000000
    17 0.250027 -2.820665 -0.238396 -0.482190 0.047366 -0.266951
    18 -0.049759 -1.680544 0.100479 -1.890537 0.000000 -0.000002
    19 -0.034142 -1.148312 0.084782 -1.087281 0.000000 0.000000
    20 0.953860 -3.043664 -0.031706 -0.200214 -0.028397 -0.018724
    21 -0.033420 -1.397129 -0.011257 -1.302073 0.136277 -0.074809
    22 -0.022360 -0.957436 0.018784 -0.829611 0.000000 0.000000
    23 -1.180681 -2.507217 -0.193859 -0.541359 0.150781 -0.464420
    24 -0.024967 -1.123934 0.017597 -1.488903 0.000000 0.000001
    25 -0.020057 -0.890968 0.010090 -1.277757 0.000000 0.000000
    26 0.583510 -1.197277 0.185379 0.316258 -1.087026 -0.583548
    27 1.535927 0.010246 0.005009 0.087412 0.030537 -1.135410
    28 1.100771 0.004527 -0.010679 -0.010778 0.012114 -0.550575
    29 0.120153 -0.050270 -0.054489 0.099906 3.110905 1.561085
    30 0.447953 -2.798986 -0.200443 -0.607948 0.000534 0.561976
    31 -0.032909 -1.480204 0.004940 -1.413633 0.000000 0.000002
    32 -0.027022 -1.076920 -0.020210 -1.481391 0.000000 0.000000
    33 -0.249534 -2.846964 -0.174213 -0.445831 0.004261 0.486845
    34 0.043235 -1.683941 0.096012 -1.469776 0.002823 -0.000167
    35 0.031729 -1.160830 0.058838 -1.698243 0.000642 0.008372
    36 -0.963866 -2.785145 -0.085350 0.057485 0.039254 0.065226
    37 0.028479 -1.403067 0.006271 -0.285462 0.000000 0.000000
    38 0.021413 -0.957781 0.020046 -0.387944 0.000000 0.000000
    39 1.164475 -2.543940 -0.170330 -0.557511 -0.035046 0.464229
    40 0.024032 -1.129042 0.017807 -1.373638 0.000000 0.000001
    41 0.014898 -0.883989 -0.019848 -1.103398 0.000000 0.000000
    42 -0.586770 -1.264477 0.200161 -0.683236 -0.842752 -2.270081
    43 1.522835 0.058681 0.016848 -0.059520 -0.122786 0.824758
    44 1.117947 0.048424 -0.005766 -0.016015 -0.019457 0.744725
    45 -0.041740 -0.115604 0.002678 0.136590 -0.022461 1.520273
    46 -1.393470 8.839177 -0.239433 1.580804 -0.005023 -1.566847
  time 1
    0 0.000000 2.222724 -4.644612 -0.174533 0.000000 0.000000
    1 12.889416 4.162170 -6.816930 0.423338 -2.265237 -0.542046
    2 0.084337 -8.502637 0.173215 0.140779 0.542410 -0.400395
    3 1.776994 -2.723174 0.873419 0.134966 0.079135 3.004383
    4 -2.540388 7.965242 0.795715 0.000000 0.000000 -1.570796
    5 -1.546743 7.218124 0.000000 0.000000 0.000000 -0.002004
    6 -0.284830 1.799968 0.000000 0.000001 0.000000 0.000000
    7 -11.033163 4.013917 -7.789365 0.393734 2.082801 0.422417
    8 -0.227284 -8.466044 0.162515 0.048858 -0.328129 0.250746
    9 -1.471282 -3.093521 0.739297 3.070381 0.002168 0.135135
    10 -2.536482 9.152779 0.850403 0.000000 0.000000 -1.570796
    11 -1.546742 7.218122 -0.000001 0.000000 0.000000 -0.002004
    12 -0.284830 2.417173 0.000000 0.000001 0.000000 0.000000
    13 1.257180 8.762585 -0.153713 -1.570562 0.002683 -1.566807
    14 -0.488518 -2.755602 -0.228260 -0.647514 0.030346 -0.257527
    15 0.039887 -1.479790 0.029854 -1.670335 0.000000 0.000001
    16 0.028786 -1.075731 -0.023109 -1.197449 0.000000 0.000000
    17 0.250027 -2.820665 -0.238396 -0.482190 0.047366 -0.266951
    18 -0.049759 -1.680544 0.100479 -1.890537 0.000000 -0.000002
    19 -0.034142 -1.148312 0.084782 -1.087281 0.000000 0.000000
    20 0.953860 -3.043664 -0.031706 -0.200214 -0.028397 -0.018724
    21 -0.033420 -1.397129 -0.011257 -1.302073 0.136277 -0.074809
    22 -0.022360 -0.957436 0.018784 -0.829611 0.000000 0.000000
    23 -1.180681 -2.507217 -0.193859 -0.541359 0.150781 -0.464420
    24 -0.024967 -1.123934 0.017597 -1.488903 0.000000 0.000001
    25 -0.020057 -0.890968 0.010090 -1.277757 0.000000 0.000000
    26 0.583510 -1.197277 0.185379 0.316258 -1.087026 -0.583548
    27 1.535927 0.010246 0.005009 0.087412 0.030537 -1.135410
    28 1.100771 0.004527 -0.010679 -0.010778 0.012114 -0.550575
    29 0.120153 -0.050270 -0.054489 0.099906 3.110905 1.561085
    30 0.447953 -2.798986 -0.200443 -0.607948 0.000534 0.561976
    31 -0.032909 -1.480204 0.004940 -1.413633 0.000000 0.000002
    32 -0.027022 -1.076920 -0.020210 -1.481391 0.000000 0.000000
    33 -0.249534 -2.846964 -0.174213 -0.445831 0.004261 0.486845
    34 0.043235 -1.683941 0.096012 -1.469776 0.002823 -0.000167
    35 0.031729 -1.160830 0.058838 -1.698243 0.000642 0.008372
    36 -0.963866 -2.785145 -0.085350 0.057485 0.039254 0.065226
    37 0.028479 -1.403067 0.006271 -0.285462 0.000000 0.000000
    38 0.021413 -0.957781 0.020046 -0.387944 0.000000 0.000000
    39 1.164475 -2.543940 -0.170330 -0.557511 -0.035046 0.464229
    40 0.024032 -1.129042 0.017807 -1.373638 0.000000 0.000001
    41 0.014898 -0.883989 -0.019848 -1.103430 0.000000 0.000000
    42 -0.586770 -1.264477 0.200161 -0.683236 -0.842752 -2.270081
    43 1.522835 0.058681 0.016848 -0.059520 -0.122786 0.824758
    44 1.117947 0.048424 -0.005766 -0.016015 -0.019457 0.744725
    45 -0.041740 -0.115604 0.002678 0.136590 -0.022461 1.520273
    46 -1.393470 8.839177 -0.239433 1.580804 -0.005023 -1.566847
  time 2
    0 0.000000 3.570421 -4.644612 -0.174533 0.000000 0.000000
    1 12.889416 4.185609 -7.004436 0.425854 -2.266400 -0.545368
    2 0.084337 -8.502637 0.173215 0.166957 0.522690 -0.375666
    3 1.776994 -2.723174 0.873419 0.134966 0.079135 3.004383
    4 -2.548201 7.250377 0.760558 0.000000 0.000000 -1.570796
    5 -1.546743 7.218124 0.000000 0.000000 0.000000 -0.002004
    6 -0.284830 1.799968 0.000000 0.000001 0.000000 0.000000
    7 -11.052695 2.689658 -8.019841 0.393734 2.082801 0.422417
    8 -0.227284 -8.466044 0.162515 0.039102 -0.313905 0.252933
    9 -1.471282 -3.093521 0.739297 3.070381 0.002168 0.135135
    10 -2.536482 9.152779 0.850403 0.000000 0.000000 -1.570796
    11 -1.546742 7.218122 -0.000001 0.000000 0.000000 -0.002004
    12 -0.284830 2.417173 0.000000 0.000001 0.000000 0.000000
    13 1.257180 8.762585 -0.153713 -1.570562 0.002683 -1.566807
    14 -0.488518 -2.755602 -0.228260 -0.647514 0.030346 -0.257527
    15 0.039887 -1.479790 0.029854 -1.670335 0.000000 0.000001
    16 0.028786 -1.075731 -0.023109 -1.197449 0.000000 0.000000
    17 0.250027 -2.820665 -0.238396 -0.482190 0.047366 -0.266951
    18 -0.049759 -1.680544 0.100479 -1.890537 0.000000 -0.000002
    19 -0.034142 -1.148312 0.084782 -1.087313 0.000000 0.000000
    20 0.953860 -3.043664 -0.031706 -0.200214 -0.028397 -0.018724
    21 -0.033420 -1.397129 -0.011257 -1.302073 0.136277 -0.074809
    22 -0.022360 -0.957436 0.018784 -0.829611 0.000000 0.000000
    23 -1.180681 -2.507217 -0.193859 -0.541359 0.150781 -0.464420
    24 -0.024967 -1.123934 0.017597 -1.488903 0.000000 0.000001
    25 -0.020057 -0.890968 0.010090 -1.277757 0.000000 0.000000
    26 0.583510 -1.197277 0.185379 0.316258 -1.087026 -0.583548
    27 1.535927 0.010246 0.005009 0.087412 0.030537 -1.135410
    28 1.100771 0.004527 -0.010679 -0.010778 0.012114 -0.550575
    29 0.120153 -0.050270 -0.054489 0.099906 3.110905 1.561085
    30 0.447953 -2.798986 -0.200443 -0.607948 0.000534 0.561976
    31 -0.032909 -1.480204 0.004940 -1.413633 0.000000 0.000002
    32 -0.027022 -1.076920 -0.020210 -1.481391 0.000000 0.000000
    33 -0.249534 -2.846964 -0.174213 -0.445831 0.004261 0.486845
    34 0.043235 -1.683941 0.096012 -1.469776 0.002823 -0.000167
    35 0.031729 -1.160830 0.058838 -1.698243 0.000642 0.008372
    36 -0.963866 -2.785145 -0.085350 0.057485 0.039254 0.065226
    37 0.028479 -1.403067 0.006271 -0.285462 0.000000 0.000000
    38 0.021413 -0.957781 0.020046 -0.387944 0.000000 0.000000
    39 1.164475 -2.543940 -0.170330 -0.557511 -0.035046 0.464229
    40 0.024032 -1.129042 0.017807 -1.373638 0.000000 0.000001
    41 0.014898 -0.883989 -0.019848 -1.103430 0.000000 0.000000
    42 -0.586770 -1.264477 0.200161 -0.683236 -0.842752 -2.270081
    43 1.522835 0.058681 0.016848 -0.059520 -0.122786 0.824758
    44 1.117947 0.048424 -0.005766 -0.016015 -0.019457 0.744725
    45 -0.041740 -0.115604 0.002678 0.136590 -0.022461 1.520273
    46 -1.393470 8.839177 -0.239433 1.580804 -0.005023 -1.566847
  time 3
    0 0.000000 3.500107 -4.644612 -0.174533 0.000000 0.000000
    1 12.889416 4.248110 -7.402885 0.429730 -2.268229 -0.550534
    2 0.084337 -8.502637 0.173215 0.215555 0.487828 -0.329739
    3 1.776994 -2.723174 0.873419 0.134966 0.079135 3.004383
    4 -2.548201 7.012088 0.748838 0.000000 0.000000 -1.570796
    5 -1.546743 7.218124 0.000000 0.000000 0.000000 -0.002004
    6 -0.284830 1.799968 0.000000 0.000001 0.000000 0.000000
    7 -11.080039 2.759972 -8.008122 0.393734 2.082801 0.422417
    8 -0.227284 -8.466044 0.162515 0.029346 -0.299680 0.255087
    9 -1.471282 -3.093521 0.739297 3.070381 0.002168 0.135135
    10 -2.536482 9.152779 0.850403 0.000000 0.000000 -1.570796
    11 -1.546742 7.218122 -0.000001 0.000000 0.000000 -0.002004
    12 -0.284830 2.417173 0.000000 0.000001 0.000000 0.000000
    13 1.257180 8.762585 -0.153713 -1.570562 0.002683 -1.566807
    14 -0.488518 -2.755602 -0.228260 -0.647514 0.030346 -0.257527
    15 0.039887 -1.479790 0.029854 -1.670335 0.000000 0.000001
    16 0.028786 -1.075731 -0.023109 -1.197449 0.000000 0.000000
    17 0.250027 -2.820665 -0.238396 -0.482190 0.047366 -0.266951
    18 -0.049759 -1.680544 0.100479 -1.890537 0.000000 -0.000002
    19 -0.034142 -1.148312 0.084782 -1.087313 0.000000 0.000000
    20 0.953860 -3.043664 -0.031706 -0.200214 -0.028397 -0.018724
    21 -0.033420 -1.397129 -0.011257 -1.302073 0.136277 -0.074809
    22 -0.022360 -0.957436 0.018784 -0.829611 0.000000 0.000000
    23 -1.180681 -2.507217 -0.193859 -0.541359 0.150781 -0.464420
    24 -0.024967 -1.123934 0.017597 -1.488903 0.000000 0.000001
    25 -0.020057 -0.890968 0.010090 -1.277757 0.000000 0.000000
    26 0.583510 -1.197277 0.185379 0.316258 -1.087026 -0.583548
    27 1.535927 0.010246 0.005009 0.087412 0.030537 -1.135410
    28 1.100771 0.004527 -0.010679 -0.010778 0.012114 -0.550575
    29 0.120153 -0.050270 -0.054489 0.099906 3.110905 1.561085
    30 0.447953 -2.798986 -0.200443 -0.607948 0.000534 0.561976
    31 -0.032909 -1.480204 0.004940 -1.413633 0.000000 0.000002
    32 -0.027022 -1.076920 -0.020210 -1.481391 0.000000 0.000000
    33 -0.249534 -2.846964 -0.174213 -0.445831 0.004261 0.486845
    34 0.043235 -1.683941 0.096012 -1.469776 0.002823 -0.000167
    35 0.031729 -1.160830 0.058838 -1.698243 0.000642 0.008372
    36 -0.963866 -2.785145 -0.085350 0.057485 0.039254 0.065226
    37 0.028479 -1.403067 0.006271 -0.285462 0.000000 0.000000
    38 0.021413 -0.957781 0.020046 -0.387944 0.000000 0.000000
    39 1.164475 -2.543940 -0.170330 -0.557511 -0.035046 0.464229
    40 0.024032 -1.129042 0.017807 -1.373638 0.000000 0.000001
    41 0.014898 -0.883989 -0.019848 -1.103398 0.000000 0.000000
    42 -0.586770 -1.264477 0.200161 -0.683236 -0.842752 -2.270081
    43 1.522835 0.058681 0.016848 -0.059520 -0.122786 0.824758
    44 1.117947 0.048424 -0.005766 -0.016015 -0.019457 0.744725
    45 -0.041740 -0.115604 0.002678 0.136590 -0.022461 1.520273
    46 -1.393470 8.839177 -0.239433 1.580804 -0.005023 -1.566847
  time 4
    0 0.000000 3.308695 -4.644612 -0.174533 0.000000 0.000000
    1 12.889416 4.330144 -7.750552 0.434829 -2.270598 -0.557335
    2 0.084337 -8.502637 0.173215 0.241733 0.469235 -0.305048
    3 1.776994 -2.723174 0.873419 0.134966 0.079135 3.004383
    4 -2.548201 7.012088 0.748838 0.000000 0.000000 -1.570796
    5 -1.546743 7.218124 0.000000 0.000000 0.000000 -0.002004
    6 -0.284830 1.799968 0.000000 0.000001 0.000000 0.000000
    7 -11.115197 2.951384 -7.976871 0.393734 2.082801 0.422417
    8 -0.227284 -8.466044 0.162515 0.024921 -0.293206 0.256048
    9 -1.471282 -3.093521 0.739297 3.070381 0.002168 0.135135
    10 -2.536482 9.152779 0.850403 0.000000 0.000000 -1.570796
    11 -1.546742 7.218122 -0.000001 0.000000 0.000000 -0.002004
    12 -0.284830 2.417173 0.000000 0.000001 0.000000 0.000000
    13 1.257180 8.762585 -0.153713 -1.570562 0.002683 -1.566807
    14 -0.488518 -2.755602 -0.228260 -0.647514 0.030346 -0.257527
    15 0.039887 -1.479790 0.029854 -1.670335 0.000000 0.000001
    16 0.028786 -1.075731 -0.023109 -1.197449 0.000000 0.000000
    17 0.250027 -2.820665 -0.238396 -0.482190 0.047366 -0.266951
    18 -0.049759 -1.680544 0.100479 -1.890537 0.000000 -0.000002
    19 -0.034142 -1.148312 0.084782 -1.087281 0.000000 0.000000
    20 0.953860 -3.043664 -0.031706 -0.200214 -0.028397 -0.018724
    21 -0.033420 -1.397129 -0.011257 -1.302073 0.136277 -0.074809
    22 -0.022360 -0.957436 0.018784 -0.829611 0.000000 0.000000
    23 -1.180681 -2.507217 -0.193859 -0.541359 0.150781 -0.464420
    24 -0.024967 -1.123934 0.017597 -1.488903 0.000000 0.000001
    25 -0.020057 -0.890968 0.010090 -1.277757 0.000000 0.000000
    26 0.583510 -1.197277 0.185379 0.316258 -1.087026 -0.583548
    27 1.535927 0.010246 0.005009 0.087412 0.030537 -1.135410
    28 1.100771 0.004527 -0.010679 -0.010778 0.012114 -0.550575
    29 0.120153 -0.050270 -0.054489 0.099906 3.110905 1.561085
    30 0.447953 -2.798986 -0.200443 -0.607948 0.000534 0.561976
    31 -0.032909 -1.480204 0.004940 -1.413633 0.000000 0.000002
    32 -0.027022 -1.076920 -0.020210 -1.481391 0.000000 0.000000
    33 -0.249534 -2.846964 -0.174213 -0.445831 0.004261 0.486845
    34 0.043235 -1.683941 0.096012 -1.469776 0.002823 -0.000167
    35 0.031729 -1.160830 0.058838 -1.698243 0.000642 0.008372
    36 -0.963866 -2.785145 -0.085350 0.057485 0.039254 0.065226
    37 0.028479 -1.403067 0.006271 -0.285462 0.000000 0.000000
    38 0.021413 -0.957781 0.020046 -0.387944 0.000000 0.000000
    39 1.164475 -2.543940 -0.170330 -0.557511 -0.035046 0.464229
    40 0.024032 -1.129042 0.017807 -1.373638 0.000000 0.000001
    41 0.014898 -0.883989 -0.019848 -1.103398 0.000000 0.000000
    42 -0.586770 -1.264477 0.200161 -0.683236 -0.842752 -2.270081
    43 1.522835 0.058681 0.016848 -0.059520 -0.122786 0.824758
    44 1.117947 0.048424 -0.005766 -0.016015 -0.019457 0.744725
    45 -0.041740 -0.115604 0.002678 0.136590 -0.022461 1.520273
    46 -1.393470 8.839177 -0.239433 1.580804 -0.005023 -1.566847
  time 5
    0 0.000000 3.027436 -4.644612 -0.174533 0.000000 0.000000
    1 12.889416 4.427803 -8.000560 0.440948 -2.273507 -0.565506
    2 0.084337 -8.502637 0.173215 0.239681 0.470643 -0.308009
    3 1.776994 -2.723174 0.873419 0.134966 0.079135 3.004383
    4 -2.548201 7.012088 0.748838 0.000000 0.000000 -1.570796
    5 -1.546743 7.218124 0.000000 0.000000 0.000000 -0.002004
    6 -0.284830 1.799968 0.000000 0.000001 0.000000 0.000000
    7 -11.142541 3.224830 -7.929994 0.393734 2.082801 0.422417
    8 -0.227284 -8.466044 0.162515 0.025382 -0.296321 0.255551
    9 -1.471282 -3.093521 0.739297 3.070381 0.002168 0.135135
    10 -2.536482 9.152779 0.850403 0.000000 0.000000 -1.570796
    11 -1.546742 7.218122 -0.000001 0.000000 0.000000 -0.002004
    12 -0.284830 2.417173 0.000000 0.000001 0.000000 0.000000
    13 1.257180 8.762585 -0.153713 -1.570562 0.002683 -1.566807
    14 -0.488518 -2.755602 -0.228260 -0.647514 0.030346 -0.257527
    15 0.039887 -1.479790 0.029854 -1.670335 0.000000 0.000001
    16 0.028786 -1.075731 -0.023109 -1.197449 0.000000 0.000000
    17 0.250027 -2.820665 -0.238396 -0.482190 0.047366 -0.266951
    18 -0.049759 -1.680544 0.100479 -1.890537 0.000000 -0.000002
    19 -0.034142 -1.148312 0.084782 -1.087281 0.000000 0.000000
    20 0.953860 -3.043664 -0.031706 -0.200214 -0.028397 -0.018724
    21 -0.033420 -1.397129 -0.011257 -1.302073 0.136277 -0.074809
    22 -0.022360 -0.957436 0.018784 -0.829611 0.000000 0.000000
    23 -1.180681 -2.507217 -0.193859 -0.541359 0.150781 -0.464420
    24 -0.024967 -1.123934 0.017597 -1.488903 0.000000 0.000001
    25 -0.020057 -0.890968 0.010090 -1.277757 0.000000 0.000000
    26 0.583510 -1.197277 0.185379 0.316258 -1.087026 -0.583548
    27 1.535927 0.010246 0.005009 0.087412 0.030537 -1.135410
    28 1.100771 0.004527 -0.010679 -0.010778 0.012114 -0.550575
    29 0.120153 -0.050270 -0.054489 0.099906 3.110905 1.561085
    30 0.447953 -2.798986 -0.200443 -0.607948 0.000534 0.561976
    31 -0.032909 -1.480204 0.004940 -1.413633 0.000000 0.000002
    32 -0.027022 -1.076920 -0.020210 -1.481391 0.000000 0.000000
    33 -0.249534 -2.846964 -0.174213 -0.445831 0.004261 0.486845
    34 0.043235 -1.683941 0.096012 -1.469776 0.002823 -0.000167
    35 0.031729 -1.160830 0.058838 -1.698243 0.000642 0.008372
    36 -0.963866 -2.785145 -0.085350 0.057485 0.039254 0.065226
    37 0.028479 -1.403067 0.006271 -0.285462 0.000000 0.000000
    38 0.021413 -0.957781 0.020046 -0.387944 0.000000 0.000000
    39 1.164475 -2.543940 -0.170330 -0.557511 -0.035046 0.464229
    40 0.024032 -1.129042 0.017807 -1.373638 0.000000 0.000001
    41 0.014898 -0.883989 -0.019848 -1.103398 0.000000 0.000000
    42 -0.586770 -1.264477 0.200161 -0.683236 -0.842752 -2.270081
    43 1.522835 0.058681 0.016848 -0.059520 -0.122786 0.824758
    44 1.117947 0.048424 -0.005766 -0.016015 -0.019457 0.744725
    45 -0.041740 -0.115604 0.002678 0.136590 -0.022461 1.520273
    46 -1.393470 8.839177 -0.239433 1.580804 -0.005023 -1.566847
  time 6
    0 0.000000 2.695395 -4.644612 -0.174533 0.000000 0.000000
    1 12.889416 4.541088 -8.270099 0.447951 -2.276748 -0.574837
    2 0.084337 -8.502637 0.173215 0.233839 0.474482 -0.316359
    3 1.776994 -2.723174 0.873419 0.134966 0.079135 3.004383
    4 -2.548201 7.012088 0.748838 0.000000 0.000000 -1.570796
    5 -1.546743 7.218124 0.000000 0.000000 0.000000 -0.002004
    6 -0.284830 1.799968 0.000000 0.000001 0.000000 0.000000
    7 -11.165979 3.552965 -7.871399 0.393734 2.082801 0.422417
    8 -0.227284 -8.466044 0.162515 0.026633 -0.304503 0.254159
    9 -1.471282 -3.093521 0.739297 3.070381 0.002168 0.135135
    10 -2.536482 9.152779 0.850403 0.000000 0.000000 -1.570796
    11 -1.546742 7.218122 -0.000001 0.000000 0.000000 -0.002004
    12 -0.284830 2.417173 0.000000 0.000001 0.000000 0.000000
    13 1.257180 8.762585 -0.153713 -1.570562 0.002683 -1.566807
    14 -0.488518 -2.755602 -0.228260 -0.647514 0.030346 -0.257527
    15 0.039887 -1.479790 0.029854 -1.670335 0.000000 0.000001
    16 0.028786 -1.075731 -0.023109 -1.197449 0.000000 0.000000
    17 0.250027 -2.820665 -0.238396 -0.482190 0.047366 -0.266951
    18 -0.049759 -1.680544 0.100479 -1.890537 0.000000 -0.000002
    19 -0.034142 -1.148312 0.084782 -1.087281 0.000000 0.000000
    20 0.953860 -3.039758 -0.031706 -0.200214 -0.028397 -0.018724
    21 -0.033420 -1.397129 -0.011257 -1.297615 0.136277 -0.074809
    22 -0.022360 -0.957436 0.018784 -0.827424 0.000000 0.000000
    23 -1.180681 -2.507217 -0.193859 -0.541359 0.150781 -0.464420
    24 -0.024967 -1.123934 0.017597 -1.488903 0.000000 0.000001
    25 -0.020057 -0.890968 0.010090 -1.277757 0.000000 0.000000
    26 0.583510 -1.197277 0.185379 0.316258 -1.087026 -0.583548
    27 1.535927 0.010246 0.005009 0.087412 0.030537 -1.135410
    28 1.100771 0.004527 -0.010679 -0.010778 0.012114 -0.550575
    29 0.120153 -0.050270 -0.054489 0.099906 3.110905 1.561085
    30 0.447953 -2.798986 -0.200443 -0.607948 0.000534 0.561976
    31 -0.032909 -1.480204 0.004940 -1.413633 0.000000 0.000002
    32 -0.027022 -1.076920 -0.020210 -1.481391 0.000000 0.000000
    33 -0.249534 -2.846964 -0.174213 -0.445831 0.004261 0.486845
    34 0.043235 -1.683941 0.096012 -1.469776 0.002823 -0.000167
    35 0.031729 -1.160830 0.058838 -1.698243 0.000642 0.008372
    36 -0.963866 -2.785145 -0.085350 0.057485 0.039254 0.065226
    37 0.028479 -1.403067 0.006271 -0.285462 0.000000 0.000000
    38 0.021413 -0.957781 0.020046 -0.387944 0.000000 0.000000
    39 1.164475 -2.543940 -0.170330 -0.557511 -0.035046 0.464229
    40 0.024032 -1.129042 0.017807 -1.373638 0.000000 0.000001
    41 0.014898 -0.883989 -0.019848 -1.103398 0.000000 0.000000
    42 -0.586770 -1.264477 0.200161 -0.683236 -0.842752 -2.270081
    43 1.522835 0.058681 0.016848 -0.059520 -0.122786 0.824758
    44 1.117947 0.048424 -0.005766 -0.016015 -0.019457 0.744725
    45 -0.041740 -0.115604 0.002678 0.136590 -0.022461 1.520273
    46 -1.393470 8.839177 -0.239433 1.580804 -0.005023 -1.566847
  time 7
    0 0.000000 2.347728 -4.644612 -0.174533 0.000000 0.000000
    1 12.889416 4.666092 -8.551358 0.455566 -2.280323 -0.584959
    2 0.084337 -8.502637 0.173215 0.224713 0.480186 -0.329340
    3 1.776994 -2.723174 0.873419 0.134966 0.079135 3.004383
    4 -2.548201 7.012088 0.748838 0.000000 0.000000 -1.570796
    5 -1.546743 7.218124 0.000000 0.000000 0.000000 -0.002004
    6 -0.284830 1.807781 0.000000 0.000001 0.000000 0.000000
    7 -11.173792 3.896726 -7.812803 0.393734 2.082801 0.422417
    8 -0.227284 -8.466044 0.162515 0.028461 -0.316100 0.252237
    9 -1.471282 -3.093521 0.739297 3.070381 0.002168 0.135135
    10 -2.536482 9.152779 0.850403 0.000000 0.000000 -1.570796
    11 -1.546742 7.218122 -0.000001 0.000000 0.000000 -0.002004
    12 -0.284830 2.417173 0.000000 0.000001 0.000000 0.000000
    13 1.257180 8.762585 -0.153713 -1.570562 0.002683 -1.566807
    14 -0.488518 -2.755602 -0.228260 -0.647514 0.030346 -0.257527
    15 0.039887 -1.479790 0.029854 -1.670335 0.000000 0.000001
    16 0.028786 -1.075731 -0.023109 -1.197449 0.000000 0.000000
    17 0.250027 -2.820665 -0.238396 -0.482190 0.047366 -0.266951
    18 -0.049759 -1.680544 0.100479 -1.890537 0.000000 -0.000002
    19 -0.034142 -1.148312 0.084782 -1.087281 0.000000 0.000000
    20 0.953860 -3.035851 -0.031706 -0.200214 -0.028397 -0.018724
    21 -0.033420 -1.397129 -0.011257 -1.284723 0.136277 -0.074809
    22 -0.022360 -0.957436 0.018784 -0.821141 0.000000 0.000000
    23 -1.180681 -2.507217 -0.193859 -0.541359 0.150781 -0.464420
    24 -0.024967 -1.123934 0.017597 -1.488903 0.000000 0.000001
    25 -0.020057 -0.890968 0.010090 -1.277757 0.000000 0.000000
    26 0.583510 -1.197277 0.185379 0.316258 -1.087026 -0.583548
    27 1.535927 0.010246 0.005009 0.087412 0.030537 -1.135410
    28 1.100771 0.004527 -0.010679 -0.010778 0.012114 -0.550575
    29 0.120153 -0.050270 -0.054489 0.099906 3.110905 1.561085
    30 0.447953 -2.798986 -0.200443 -0.607948 0.000534 0.561976
    31 -0.032909 -1.480204 0.004940 -1.413633 0.000000 0.000002
    32 -0.027022 -1.076920 -0.020210 -1.481391 0.000000 0.000000
    33 -0.249534 -2.846964 -0.174213 -0.445831 0.004261 0.486845
    34 0.043235 -1.683941 0.096012 -1.469776 0.002823 -0.000167
    35 0.031729 -1.160830 0.058838 -1.698243 0.000642 0.008372
    36 -0.963866 -2.785145 -0.085350 0.057485 0.039254 0.065226
    37 0.028479 -1.403067 0.006271 -0.285462 0.000000 0.000000
    38 0.021413 -0.957781 0.020046 -0.387944 0.000000 0.000000
    39 1.164475 -2.543940 -0.170330 -0.557511 -0.035046 0.464229
    40 0.024032 -1.129042 0.017807 -1.373638 0.000000 0.000001
    41 0.014898 -0.883989 -0.019848 -1.103430 0.000000 0.000000
    42 -0.586770 -1.264477 0.200161 -0.683236 -0.842752 -2.270081
    43 1.522835 0.058681 0.016848 -0.059520 -0.122786 0.824758
    44 1.117947 0.048424 -0.005766 -0.016015 -0.019457 0.744725
    45 -0.041740 -0.115604 0.002678 0.136590 -0.022461 1.520273
    46 -1.393470 8.839177 -0.239433 1.580804 -0.005023 -1.566847
  time 8
    0 0.000000 2.019593 -4.644612 -0.174533 0.000000 0.000000
    1 12.889416 4.795002 -8.836523 0.463590 -2.284063 -0.595713
    2 0.084337 -8.502637 0.173215 0.212808 0.487264 -0.346174
    3 1.776994 -2.723174 0.873419 0.134966 0.079135 3.004383
    4 -2.548201 7.012088 0.748838 0.000000 0.000000 -1.570796
    5 -1.546743 7.218124 0.000000 0.000000 0.000000 -0.002004
    6 -0.284830 1.815593 0.000000 0.000001 0.000000 0.000000
    7 -11.169886 4.220954 -7.754208 0.393734 2.082801 0.422417
    8 -0.227284 -8.466044 0.162515 0.030636 -0.329368 0.250017
    9 -1.471282 -3.093521 0.739297 3.070381 0.002168 0.135135
    10 -2.536482 9.152779 0.850403 0.000000 0.000000 -1.570796
    11 -1.546742 7.218122 -0.000001 0.000000 0.000000 -0.002004
    12 -0.284830 2.417173 0.000000 0.000001 0.000000 0.000000
    13 1.257180 8.762585 -0.153713 -1.570562 0.002683 -1.566807
    14 -0.488518 -2.755602 -0.228260 -0.647514 0.030346 -0.257527
    15 0.039887 -1.479790 0.029854 -1.670335 0.000000 0.000001
    16 0.028786 -1.075731 -0.023109 -1.197449 0.000000 0.000000
    17 0.250027 -2.820665 -0.238396 -0.482190 0.047366 -0.266951
    18 -0.049759 -1.680544 0.100479 -1.890537 0.000000 -0.000002
    19 -0.034142 -1.148312 0.084782 -1.087313 0.000000 0.000000
    20 0.953860 -3.031945 -0.035613 -0.200214 -0.028397 -0.018724
    21 -0.033420 -1.397129 -0.011257 -1.264119 0.136277 -0.074809
    22 -0.022360 -0.957436 0.018784 -0.811120 0.000000 0.000000
    23 -1.180681 -2.507217 -0.193859 -0.541359 0.150781 -0.464420
    24 -0.024967 -1.123934 0.017597 -1.488903 0.000000 0.000001
    25 -0.020057 -0.890968 0.010090 -1.277757 0.000000 0.000000
    26 0.583510 -1.197277 0.185379 0.316258 -1.087026 -0.583548
    27 1.535927 0.010246 0.005009 0.087412 0.030537 -1.135410
    28 1.100771 0.004527 -0.010679 -0.010778 0.012114 -0.550575
    29 0.120153 -0.050270 -0.054489 0.099906 3.110905 1.561085
    30 0.447953 -2.798986 -0.200443 -0.607948 0.000534 0.561976
    31 -0.032909 -1.480204 0.004940 -1.413633 0.000000 0.000002
    32 -0.027022 -1.076920 -0.020210 -1.481391 0.000000 0.000000
    33 -0.249534 -2.846964 -0.174213 -0.445831 0.004261 0.486845
    34 0.043235 -1.683941 0.096012 -1.469776 0.002823 -0.000167
    35 0.031729 -1.160830 0.058838 -1.698243 0.000642 0.008372
    36 -0.963866 -2.785145 -0.085350 0.057485 0.039254 0.065226
    37 0.028479 -1.403067 0.006271 -0.285462 0.000000 0.000000
    38 0.021413 -0.957781 0.020046 -0.387944 0.000000 0.000000
    39 1.164475 -2.543940 -0.170330 -0.557511 -0.035046 0.464229
    40 0.024032 -1.129042 0.017807 -1.373638 0.000000 0.000001
    41 0.014898 -0.883989 -0.019848 -1.103398 0.000000 0.000000
    42 -0.586770 -1.264477 0.200161 -0.683236 -0.842752 -2.270081
    43 1.522835 0.058681 0.016848 -0.059520 -0.122786 0.824758
    44 1.117947 0.048424 -0.005766 -0.016015 -0.019457 0.744725
    45 -0.041740 -0.115604 0.002678 0.136590 -0.022461 1.520273
    46 -1.393470 8.839177 -0.239433 1.580804 -0.005023 -1.566847
  time 9
    0 0.000000 1.738334 -4.644612 -0.174533 0.000000 0.000000
    1 12.889416 4.923912 -9.113875 0.471885 -2.287969 -0.606784
    2 0.084337 -8.502637 0.173215 0.198598 0.495152 -0.366082
    3 1.776994 -2.723174 0.873419 0.134966 0.079135 3.004383
    4 -2.548201 7.012088 0.748838 0.000000 0.000000 -1.570796
    5 -1.546743 7.218124 0.000000 0.000000 0.000000 -0.002004
    6 -0.284830 1.827312 0.000000 0.000001 0.000000 0.000000
    7 -11.165979 4.494400 -7.707331 0.393734 2.082801 0.422417
    8 -0.227284 -8.466044 0.162515 0.032945 -0.342654 0.247796
    9 -1.471282 -3.093521 0.739297 3.070381 0.002168 0.135135
    10 -2.536482 9.152779 0.850403 0.000000 0.000000 -1.570796
    11 -1.546742 7.218122 -0.000001 0.000000 0.000000 -0.002004
    12 -0.284830 2.417173 0.000000 0.000001 0.000000 0.000000
    13 1.257180 8.762585 -0.153713 -1.570562 0.002683 -1.566807
    14 -0.488518 -2.755602 -0.228260 -0.647514 0.030346 -0.257527
    15 0.039887 -1.479790 0.029854 -1.670335 0.000000 0.000001
    16 0.028786 -1.075731 -0.023109 -1.197449 0.000000 0.000000
    17 0.250027 -2.820665 -0.238396 -0.482190 0.047366 -0.266951
    18 -0.049759 -1.680544 0.100479 -1.890537 0.000000 -0.000002
    19 -0.034142 -1.148312 0.084782 -1.087281 0.000000 0.000000
    20 0.953860 -3.024132 -0.035613 -0.200214 -0.028397 -0.018724
    21 -0.033420 -1.397129 -0.011257 -1.236528 0.136277 -0.074809
    22 -0.022360 -0.957436 0.018784 -0.797690 0.000000 0.000000
    23 -1.180681 -2.507217 -0.193859 -0.541359 0.150781 -0.464420
    24 -0.024967 -1.123934 0.017597 -1.488903 0.000000 0.000001
    25 -0.020057 -0.890968 0.010090 -1.277757 0.000000 0.000000
    26 0.583510 -1.197277 0.185379 0.316258 -1.087026 -0.583548
    27 1.535927 0.010246 0.005009 0.087412 0.030537 -1.135410
    28 1.100771 0.004527 -0.010679 -0.010778 0.012114 -0.550575
    29 0.120153 -0.050270 -0.054489 0.099906 3.110905 1.561085
    30 0.447953 -2.798986 -0.200443 -0.607948 0.000534 0.561976
    31 -0.032909 -1.480204 0.004940 -1.413633 0.000000 0.000002
    32 -0.027022 -1.076920 -0.020210 -1.481391 0.000000 0.000000
    33 -0.249534 -2.846964 -0.174213 -0.445831 0.004261 0.486845
    34 0.043235 -1.683941 0.096012 -1.469776 0.002823 -0.000167
    35 0.031729 -1.160830 0.058838 -1.698243 0.000642 0.008372
    36 -0.963866 -2.785145 -0.085350 0.057485 0.039254 0.065226
    37 0.028479 -1.403067 0.006271 -0.285462 0.000000 0.000000
    38 0.021413 -0.957781 0.020046 -0.387944 0.000000 0.000000
    39 1.164475 -2.543940 -0.170330 -0.557511 -0.035046 0.464229
    40 0.024032 -1.129042 0.017807 -1.373638 0.000000 0.000001
    41 0.014898 -0.883989 -0.019848 -1.103398 0.000000 0.000000
    42 -0.586770 -1.264477 0.200161 -0.683236 -0.842752 -2.270081
    43 1.522835 0.058681 0.016848 -0.059520 -0.122786 0.824758
    44 1.117947 0.048424 -0.005766 -0.016015 -0.019457 0.744725
    45 -0.041740 -0.115604 0.002678 0.136590 -0.022461 1.520273
    46 -1.393470 8.839177 -0.239433 1.580804 -0.005023 -1.566847
  time 10
    0 0.000000 1.546922 -4.644612 -0.174533 0.000000 0.000000
    1 12.889416 5.045010 -9.375602 0.480248 -2.291876 -0.617907
    2 0.084337 -8.502637 0.173215 0.182556 0.503287 -0.388287
    3 1.776994 -2.723174 0.873419 0.134966 0.079135 3.004383
    4 -2.548201 7.012088 0.748838 0.000000 0.000000 -1.570796
    5 -1.546743 7.218124 0.000000 0.000000 0.000000 -0.002004
    6 -0.284830 1.839031 0.000000 0.000001 0.000000 0.000000
    7 -11.158167 4.685812 -7.672174 0.393734 2.082801 0.422417
    8 -0.227284 -8.466044 0.162515 0.035158 -0.354233 0.245874
    9 -1.471282 -3.093521 0.739297 3.070381 0.002168 0.135135
    10 -2.536482 9.152779 0.850403 0.000000 0.000000 -1.570796
    11 -1.546742 7.218122 -0.000001 0.000000 0.000000 -0.002004
    12 -0.284830 2.417173 0.000000 0.000001 0.000000 0.000000
    13 1.257180 8.762585 -0.153713 -1.570562 0.002683 -1.566807
    14 -0.488518 -2.755602 -0.228260 -0.647514 0.030346 -0.257527
    15 0.039887 -1.479790 0.029854 -1.670335 0.000000 0.000001
    16 0.028786 -1.075731 -0.023109 -1.197449 0.000000 0.000000
    17 0.250027 -2.820665 -0.238396 -0.482190 0.047366 -0.266951
    18 -0.049759 -1.680544 0.100479 -1.890537 0.000000 -0.000002
    19 -0.034142 -1.148312 0.084782 -1.087313 0.000000 0.000000
    20 0.953860 -3.012413 -0.039519 -0.200214 -0.028397 -0.018724
    21 -0.033420 -1.397129 -0.011257 -1.202711 0.136277 -0.074809
    22 -0.022360 -0.957436 0.018784 -0.781233 0.000000 0.000000
    23 -1.180681 -2.507217 -0.193859 -0.541359 0.150781 -0.464420
    24 -0.024967 -1.123934 0.017597 -1.488903 0.000000 0.000001
    25 -0.020057 -0.890968 0.010090 -1.277757 0.000000 0.000000
    26 0.583510 -1.197277 0.185379 0.316258 -1.087026 -0.583548
    27 1.535927 0.010246 0.005009 0.087412 0.030537 -1.135410
    28 1.100771 0.004527 -0.010679 -0.010778 0.012114 -0.550575
    29 0.120153 -0.050270 -0.054489 0.099906 3.110905 1.561085
    30 0.447953 -2.798986 -0.200443 -0.607948 0.000534 0.561976
    31 -0.032909 -1.480204 0.004940 -1.413633 0.000000 0.000002
    32 -0.027022 -1.076920 -0.020210 -1.481391 0.000000 0.000000
    33 -0.249534 -2.846964 -0.174213 -0.445831 0.004261 0.486845
    34 0.043235 -1.683941 0.096012 -1.469776 0.002823 -0.000167
    35 0.031729 -1.160830 0.058838 -1.698243 0.000642 0.008372
    36 -0.963866 -2.785145 -0.085350 0.057485 0.039254 0.065226
    37 0.028479 -1.403067 0.006271 -0.285462 0.000000 0.000000
    38 0.021413 -0.957781 0.020046 -0.387944 0.000000 0.000000
    39 1.164475 -2.543940 -0.170330 -0.557511 -0.035046 0.464229
    40 0.024032 -1.129042 0.017807 -1.373638 0.000000 0.000001
    41 0.014898 -0.883989 -0.019848 -1.103430 0.000000 0.000000
    42 -0.586770 -1.264477 0.200161 -0.683236 -0.842752 -2.270081
    43 1.522835 0.058681 0.016848 -0.059520 -0.122786 0.824758
    44 1.117947 0.048424 -0.005766 -0.016015 -0.019457 0.744725
    45 -0.041740 -0.115604 0.002678 0.136590 -0.022461 1.520273
    46 -1.393470 8.839177 -0.239433 1.580804 -0.005023 -1.566847
  time 11
    0 0.000000 1.472701 -4.644612 -0.174533 0.000000 0.000000
    1 12.889416 5.158294 -9.609984 0.488475 -2.295699 -0.628925
    2 0.084337 -8.502637 0.173215 0.165189 0.511175 -0.411991
    3 1.776994 -2.723174 0.873419 0.134966 0.079135 3.004383
    4 -2.548201 7.012088 0.748838 0.000000 0.000000 -1.570796
    5 -1.546743 7.218124 0.000000 0.000000 0.000000 -0.002004
    6 -0.284830 1.854657 0.000000 0.000001 0.000000 0.000000
    7 -11.146448 4.756127 -7.660455 0.393734 2.082801 0.422417
    8 -0.227284 -8.466044 0.162515 0.037082 -0.362433 0.244482
    9 -1.471282 -3.093521 0.739297 3.070381 0.002168 0.135135
    10 -2.536482 9.152779 0.850403 0.000000 0.000000 -1.570796
    11 -1.546742 7.218122 -0.000001 0.000000 0.000000 -0.002004
    12 -0.284830 2.417173 0.000000 0.000001 0.000000 0.000000
    13 1.257180 8.762585 -0.153713 -1.570562 0.002683 -1.566807
    14 -0.488518 -2.755602 -0.228260 -0.647514 0.030346 -0.257527
    15 0.039887 -1.479790 0.029854 -1.670335 0.000000 0.000001
    16 0.028786 -1.075731 -0.023109 -1.197449 0.000000 0.000000
    17 0.250027 -2.820665 -0.238396 -0.482190 0.047366 -0.266951
    18 -0.049759 -1.680544 0.100479 -1.890537 0.000000 -0.000002
    19 -0.034142 -1.148312 0.084782 -1.087281 0.000000 0.000000
    20 0.953860 -3.004600 -0.039519 -0.200214 -0.028397 -0.018724
    21 -0.033420 -1.397129 -0.011257 -1.163432 0.136277 -0.074809
    22 -0.022360 -0.957436 0.018784 -0.762106 0.000000 0.000000
    23 -1.180681 -2.507217 -0.193859 -0.541359 0.150781 -0.464420
    24 -0.024967 -1.123934 0.017597 -1.488903 0.000000 0.000001
    25 -0.020057 -0.890968 0.010090 -1.277757 0.000000 0.000000
    26 0.583510 -1.197277 0.185379 0.316258 -1.087026 -0.583548
    27 1.535927 0.010246 0.005009 0.087412 0.030537 -1.135410
    28 1.100771 0.004527 -0.010679 -0.010778 0.012114 -0.550575
    29 0.120153 -0.050270 -0.054489 0.099906 3.110905 1.561085
    30 0.447953 -2.798986 -0.200443 -0.607948 0.000534 0.561976
    31 -0.032909 -1.480204 0.004940 -1.413633 0.000000 0.000002
    32 -0.027022 -1.076920 -0.020210 -1.481391 0.000000 0.000000
    33 -0.249534 -2.846964 -0.174213 -0.445831 0.004261 0.486845
    34 0.043235 -1.683941 0.096012 -1.469776 0.002823 -0.000167
    35 0.031729 -1.160830 0.058838 -1.698243 0.000642 0.008372
    36 -0.963866 -2.785145 -0.085350 0.057485 0.039254 0.065226
    37 0.028479 -1.403067 0.006271 -0.285462 0.000000 0.000000
    38 0.021413 -0.957781 0.020046 -0.387944 0.000000 0.000000
    39 1.164475 -2.543940 -0.170330 -0.557511 -0.035046 0.464229
    40 0.024032 -1.129042 0.017807 -1.373638 0.000000 0.000001
    41 0.014898 -0.883989 -0.019848 -1.103430 0.000000 0.000000
    42 -0.586770 -1.264477 0.200161 -0.683236 -0.842752 -2.270081
    43 1.522835 0.058681 0.016848 -0.059520 -0.122786 0.824758
    44 1.117947 0.048424 -0.005766 -0.016015 -0.019457 0.744725
    45 -0.041740 -0.115604 0.002678 0.136590 -0.022461 1.520273
    46 -1.393470 8.839177 -0.239433 1.580804 -0.005023 -1.566847
  time 12
    0 0.000000 1.476608 -4.644612 -0.174533 0.000000 0.000000
    1 12.889416 5.255954 -9.809209 0.496430 -2.299398 -0.639416
    2 0.084337 -8.502637 0.173215 0.147000 0.518253 -0.436454
    3 1.776994 -2.723174 0.873419 0.134966 0.079135 3.004383
    4 -2.548201 7.012088 0.748838 0.000000 0.000000 -1.570796
    5 -1.546743 7.218124 0.000000 0.000000 0.000000 -0.002004
    6 -0.284830 1.870282 0.000000 0.000001 0.000000 0.000000
    7 -11.134728 4.756127 -7.660455 0.393734 2.082801 0.422417
    8 -0.227284 -8.466044 0.162515 0.038467 -0.365549 0.243985
    9 -1.471282 -3.093521 0.739297 3.070381 0.002168 0.135135
    10 -2.536482 9.152779 0.850403 0.000000 0.000000 -1.570796
    11 -1.546742 7.218122 -0.000001 0.000000 0.000000 -0.002004
    12 -0.284830 2.417173 0.000000 0.000001 0.000000 0.000000
    13 1.257180 8.762585 -0.153713 -1.570562 0.002683 -1.566807
    14 -0.488518 -2.755602 -0.228260 -0.647514 0.030346 -0.257527
    15 0.039887 -1.479790 0.029854 -1.670335 0.000000 0.000001
    16 0.028786 -1.075731 -0.023109 -1.197449 0.000000 0.000000
    17 0.250027 -2.820665 -0.238396 -0.482190 0.047366 -0.266951
    18 -0.049759 -1.680544 0.100479 -1.890537 0.000000 -0.000002
    19 -0.034142 -1.148312 0.084782 -1.087281 0.000000 0.000000
    20 0.953860 -2.988975 -0.043426 -0.200214 -0.028397 -0.018724
    21 -0.033420 -1.397129 -0.011257 -1.119334 0.136277 -0.074809
    22 -0.022360 -0.957436 0.018784 -0.740639 0.000000 0.000000
    23 -1.180681 -2.507217 -0.193859 -0.541359 0.150781 -0.464420
    24 -0.024967 -1.123934 0.017597 -1.488903 0.000000 0.000001
    25 -0.020057 -0.890968 0.010090 -1.277757 0.000000 0.000000
    26 0.583510 -1.197277 0.185379 0.316258 -1.087026 -0.583548
    27 1.535927 0.010246 0.005009 0.087412 0.030537 -1.135410
    28 1.100771 0.004527 -0.010679 -0.010778 0.012114 -0.550575
    29 0.120153 -0.050270 -0.054489 0.099906 3.110905 1.561085
    30 0.447953 -2.798986 -0.200443 -0.607948 0.000534 0.561976
    31 -0.032909 -1.480204 0.004940 -1.413633 0.000000 0.000002
    32 -0.027022 -1.076920 -0.020210 -1.481391 0.000000 0.000000
    33 -0.249534 -2.846964 -0.174213 -0.445831 0.004261 0.486845
    34 0.043235 -1.683941 0.096012 -1.469776 0.002823 -0.000167
    35 0.031729 -1.160830 0.058838 -1.698243 0.000642 0.008372
    36 -0.963866 -2.785145 -0.085350 0.057485 0.039254 0.065226
    37 0.028479 -1.403067 0.006271 -0.285462 0.000000 0.000000
    38 0.021413 -0.957781 0.020046 -0.387944 0.000000 0.000000
    39 1.164475 -2.543940 -0.170330 -0.557511 -0.035046 0.464229
    40 0.024032 -1.129042 0.017807 -1.373638 0.000000 0.000001
    41 0.014898 -0.883989 -0.019848 -1.103398 0.000000 0.000000
    42 -0.586770 -1.264477 0.200161 -0.683236 -0.842752 -2.270081
    43 1.522835 0.058681 0.016848 -0.059520 -0.122786 0.824758
    44 1.117947 0.048424 -0.005766 -0.016015 -0.019457 0.744725
    45 -0.041740 -0.115604 0.002678 0.136590 -0.022461 1.520273
    46 -1.393470 8.839177 -0.239433 1.580804 -0.005023 -1.566847
  time 13
    0 0.000000 1.476608 -4.644612 -0.174533 0.000000 0.000000
    1 12.889416 5.330175 -9.965463 0.503773 -2.302806 -0.649274
    2 0.084337 -8.502637 0.173215 0.128463 0.523993 -0.460860
    3 1.776994 -2.723174 0.873419 0.134966 0.079135 3.004383
    4 -2.548201 7.012088 0.748838 0.000000 0.000000 -1.570796
    5 -1.546743 7.218124 0.000000 0.000000 0.000000 -0.002004
    6 -0.284830 1.889814 0.000000 0.000001 0.000000 0.000000
    7 -11.119103 4.752221 -7.660455 0.393734 2.082801 0.422417
    8 -0.227284 -8.466044 0.162515 0.039391 -0.364760 0.244085
    9 -1.471282 -3.093521 0.739297 3.070381 0.002168 0.135135
    10 -2.536482 9.152779 0.850403 0.000000 0.000000 -1.570796
    11 -1.546742 7.218122 -0.000001 0.000000 0.000000 -0.002004
    12 -0.284830 2.417173 0.000000 0.000001 0.000000 0.000000
    13 1.257180 8.762585 -0.153713 -1.570562 0.002683 -1.566807
    14 -0.488518 -2.755602 -0.228260 -0.647514 0.030346 -0.257527
    15 0.039887 -1.479790 0.029854 -1.670335 0.000000 0.000001
    16 0.028786 -1.075731 -0.023109 -1.197449 0.000000 0.000000
    17 0.250027 -2.820665 -0.238396 -0.482190 0.047366 -0.266951
    18 -0.049759 -1.680544 0.100479 -1.890537 0.000000 -0.000002
    19 -0.034142 -1.148312 0.084782 -1.087281 0.000000 0.000000
    20 0.953860 -2.977256 -0.043426 -0.200214 -0.028397 -0.018724
    21 -0.033420 -1.397129 -0.011257 -1.071219 0.136277 -0.074809
    22 -0.022360 -0.957436 0.018784 -0.717213 0.000000 0.000000
    23 -1.180681 -2.507217 -0.193859 -0.541359 0.150781 -0.464420
    24 -0.024967 -1.123934 0.017597 -1.488903 0.000000 0.000001
    25 -0.020057 -0.890968 0.010090 -1.277757 0.000000 0.000000
    26 0.583510 -1.197277 0.185379 0.316258 -1.087026 -0.583548
    27 1.535927 0.010246 0.005009 0.087412 0.030537 -1.135410
    28 1.100771 0.004527 -0.010679 -0.010778 0.012114 -0.550575
    29 0.120153 -0.050270 -0.054489 0.099906 3.110905 1.561085
    30 0.447953 -2.798986 -0.200443 -0.607948 0.000534 0.561976
    31 -0.032909 -1.480204 0.004940 -1.413633 0.000000 0.000002
    32 -0.027022 -1.076920 -0.020210 -1.481391 0.000000 0.000000
    33 -0.249534 -2.846964 -0.174213 -0.445831 0.004261 0.486845
    34 0.043235 -1.683941 0.096012 -1.469776 0.002823 -0.000167
    35 0.031729 -1.160830 0.058838 -1.698243 0.000642 0.008372
    36 -0.963866 -2.785145 -0.085350 0.057485 0.039254 0.065226
    37 0.028479 -1.403067 0.006271 -0.285462 0.000000 0.000000
    38 0.021413 -0.957781 0.020046 -0.387944 0.000000 0.000000
    39 1.164475 -2.543940 -0.170330 -0.557511 -0.035046 0.464229
    40 0.024032 -1.129042 0.017807 -1.373638 0.000000 0.000001
    41 0.014898 -0.883989 -0.019848 -1.103398 0.000000 0.000000
    42 -0.586770 -1.264477 0.200161 -0.683236 -0.842752 -2.270081
    43 1.522835 0.058681 0.016848 -0.059520 -0.122786 0.824758
    44 1.117947 0.048424 -0.005766 -0.016015 -0.019457 0.744725
    45 -0.041740 -0.115604 0.002678 0.136590 -0.022461 1.520273
    46 -1.393470 8.839177 -0.239433 1.580804 -0.005023 -1.566847
  time 14
    0 0.000000 1.480514 -4.644612 -0.174533 0.000000 0.000000
    1 12.889416 5.380957 -10.063123 0.510504 -2.305881 -0.658183
    2 0.084337 -8.502637 0.173215 0.110085 0.527796 -0.484450
    3 1.776994 -2.723174 0.873419 0.134966 0.079135 3.004383
    4 -2.548201 7.012088 0.748838 0.000000 0.000000 -1.570796
    5 -1.546743 7.218124 0.000000 0.000000 0.000000 -0.002004
    6 -0.284830 1.909346 0.000000 0.000001 0.000000 0.000000
    7 -11.103477 4.748314 -7.664361 0.393734 2.082801 0.422417
    8 -0.227284 -8.466044 0.162515 0.040122 -0.362621 0.244350
    9 -1.471282 -3.093521 0.739297 3.070381 0.002168 0.135135
    10 -2.536482 9.152779 0.850403 0.000000 0.000000 -1.570796
    11 -1.546742 7.218122 -0.000001 0.000000 0.000000 -0.002004
    12 -0.284830 2.417173 0.000000 0.000001 0.000000 0.000000
    13 1.257180 8.762585 -0.153713 -1.570562 0.002683 -1.566807
    14 -0.488518 -2.755602 -0.228260 -0.647514 0.030346 -0.257527
    15 0.039887 -1.479790 0.029854 -1.670335 0.000000 0.000001
    16 0.028786 -1.075731 -0.023109 -1.197449 0.000000 0.000000
    17 0.250027 -2.820665 -0.238396 -0.482190 0.047366 -0.266951
    18 -0.049759 -1.680544 0.100479 -1.890537 0.000000 -0.000002
    19 -0.034142 -1.148312 0.084782 -1.087281 0.000000 0.000000
    20 0.953860 -2.961630 -0.047332 -0.200214 -0.028397 -0.018724
    21 -0.033420 -1.397129 -0.011257 -1.019771 0.136277 -0.074809
    22 -0.022360 -0.957436 0.018784 -0.692185 0.000000 0.000000
    23 -1.180681 -2.507217 -0.193859 -0.541359 0.150781 -0.464420
    24 -0.024967 -1.123934 0.017597 -1.488903 0.000000 0.000001
    25 -0.020057 -0.890968 0.010090 -1.277757 0.000000 0.000000
    26 0.583510 -1.197277 0.185379 0.316258 -1.087026 -0.583548
    27 1.535927 0.010246 0.005009 0.087412 0.030537 -1.135410
    28 1.100771 0.004527 -0.010679 -0.010778 0.012114 -0.550575
    29 0.120153 -0.050270 -0.054489 0.099906 3.110905 1.561085
    30 0.447953 -2.798986 -0.200443 -0.607948 0.000534 0.561976
    31 -0.032909 -1.480204 0.004940 -1.413633 0.000000 0.000002
    32 -0.027022 -1.076920 -0.020210 -1.481391 0.000000 0.000000
    33 -0.249534 -2.846964 -0.174213 -0.445831 0.004261 0.486845
    34 0.043235 -1.683941 0.096012 -1.469776 0.002823 -0.000167
    35 0.031729 -1.160830 0.058838 -1.698243 0.000642 0.008372
    36 -0.963866 -2.785145 -0.085350 0.057485 0.039254 0.065226
    37 0.028479 -1.403067 0.006271 -0.285462 0.000000 0.000000
    38 0.021413 -0.957781 0.020046 -0.387944 0.000000 0.000000
    39 1.164475 -2.543940 -0.170330 -0.557511 -0.035046 0.464229
    40 0.024032 -1.129042 0.017807 -1.373638 0.000000 0.000001
    41 0.014898 -0.883989 -0.019848 -1.103430 0.000000 0.000000
    42 -0.586770 -1.264477 0.200161 -0.683236 -0.842752 -2.270081
    43 1.522835 0.058681 0.016848 -0.059520 -0.122786 0.824758
    44 1.117947 0.048424 -0.005766 -0.016015 -0.019457 0.744725
    45 -0.041740 -0.115604 0.002678 0.136590 -0.022461 1.520273
    46 -1.393470 8.839177 -0.239433 1.580804 -0.005023 -1.566847
  time 15
    0 0.000000 1.488327 -4.644612 -0.174533 0.000000 0.000000
    1 12.889416 5.400489 -10.098280 0.516283 -2.308541 -0.665827
    2 0.084337 -8.502637 0.173215 0.092370 0.529205 -0.506445
    3 1.776994 -2.723174 0.873419 0.134966 0.079135 3.004383
    4 -2.548201 7.012088 0.748838 0.000000 0.000000 -1.570796
    5 -1.546743 7.218124 0.000000 0.000000 0.000000 -0.002004
    6 -0.284830 1.932784 0.000000 0.000001 0.000000 0.000000
    7 -11.091758 4.744408 -7.664361 0.393734 2.082801 0.422417
    8 -0.227284 -8.466044 0.162515 0.040680 -0.359468 0.244747
    9 -1.471282 -3.093521 0.739297 3.070381 0.002168 0.135135
    10 -2.536482 9.152779 0.850403 0.000000 0.000000 -1.570796
    11 -1.546742 7.218122 -0.000001 0.000000 0.000000 -0.002004
    12 -0.284830 2.417173 0.000000 0.000001 0.000000 0.000000
    13 1.257180 8.762585 -0.153713 -1.570562 0.002683 -1.566807
    14 -0.488518 -2.755602 -0.228260 -0.647514 0.030346 -0.257527
    15 0.039887 -1.479790 0.029854 -1.670335 0.000000 0.000001
    16 0.028786 -1.075731 -0.023109 -1.197449 0.000000 0.000000
    17 0.250027 -2.820665 -0.238396 -0.482190 0.047366 -0.266951
    18 -0.049759 -1.680544 0.100479 -1.890537 0.000000 -0.000002
    19 -0.034142 -1.148312 0.084782 -1.087281 0.000000 0.000000
    20 0.953860 -2.949911 -0.051238 -0.200214 -0.028397 -0.018724
    21 -0.033420 -1.397129 -0.011257 -0.965792 0.136277 -0.074809
    22 -0.022360 -0.957436 0.018784 -0.665911 0.000000 0.000000
    23 -1.180681 -2.507217 -0.193859 -0.541359 0.150781 -0.464420
    24 -0.024967 -1.123934 0.017597 -1.488903 0.000000 0.000001
    25 -0.020057 -0.890968 0.010090 -1.277757 0.000000 0.000000
    26 0.583510 -1.197277 0.185379 0.316258 -1.087026 -0.583548
    27 1.535927 0.010246 0.005009 0.087412 0.030537 -1.135410
    28 1.100771 0.004527 -0.010679 -0.010778 0.012114 -0.550575
    29 0.120153 -0.050270 -0.054489 0.099906 3.110905 1.561085
    30 0.447953 -2.798986 -0.200443 -0.607948 0.000534 0.561976
    31 -0.032909 -1.480204 0.004940 -1.413633 0.000000 0.000002
    32 -0.027022 -1.076920 -0.020210 -1.481391 0.000000 0.000000
    33 -0.249534 -2.846964 -0.174213 -0.445831 0.004261 0.486845
    34 0.043235 -1.683941 0.096012 -1.469776 0.002823 -0.000167
    35 0.031729 -1.160830 0.058838 -1.698243 0.000642 0.008372
    36 -0.963866 -2.785145 -0.085350 0.057485 0.039254 0.065226
    37 0.028479 -1.403067 0.006271 -0.285462 0.000000 0.000000
    38 0.021413 -0.957781 0.020046 -0.387944 0.000000 0.000000
    39 1.164475 -2.543940 -0.170330 -0.557511 -0.035046 0.464229
    40 0.024032 -1.129042 0.017807 -1.373638 0.000000 0.000001
    41 0.014898 -0.883989 -0.019848 -1.103398 0.000000 0.000000
    42 -0.586770 -1.264477 0.200161 -0.683236 -0.842752 -2.270081
    43 1.522835 0.058681 0.016848 -0.059520 -0.122786 0.824758
    44 1.117947 0.048424 -0.005766 -0.016015 -0.019457 0.744725
    45 -0.041740 -0.115604 0.002678 0.136590 -0.022461 1.520273
    46 -1.393470 8.839177 -0.239433 1.580804 -0.005023 -1.566847
  time 16
    0 0.000000 1.492233 -4.644612 -0.174533 0.000000 0.000000
    1 12.889416 5.396583 -10.031872 0.521315 -2.310827 -0.672575
    2 0.084337 -8.502637 0.173215 0.071181 0.524556 -0.530358
    3 1.776994 -2.723174 0.873419 0.134966 0.079135 3.004383
    4 -2.548201 7.012088 0.748838 0.000000 0.000000 -1.570796
    5 -1.546743 7.218124 0.000000 0.000000 0.000000 -0.002004
    6 -0.284830 1.956223 0.000000 0.000001 0.000000 0.000000
    7 -11.076133 4.736595 -7.664361 0.393734 2.082801 0.422417
    8 -0.227284 -8.466044 0.162515 0.041103 -0.355603 0.245244
    9 -1.471282 -3.093521 0.739297 3.070381 0.002168 0.135135
    10 -2.536482 9.152779 0.850403 0.000000 0.000000 -1.570796
    11 -1.546742 7.218122 -0.000001 0.000000 0.000000 -0.002004
    12 -0.284830 2.417173 0.000000 0.000001 0.000000 0.000000
    13 1.257180 8.762585 -0.153713 -1.570562 0.002683 -1.566807
    14 -0.488518 -2.755602 -0.228260 -0.647514 0.030346 -0.257527
    15 0.039887 -1.479790 0.029854 -1.670335 0.000000 0.000001
    16 0.028786 -1.075731 -0.023109 -1.197449 0.000000 0.000000
    17 0.250027 -2.820665 -0.238396 -0.482190 0.047366 -0.266951
    18 -0.049759 -1.680544 0.100479 -1.890537 0.000000 -0.000002
    19 -0.034142 -1.148312 0.084782 -1.087281 0.000000 0.000000
    20 0.953860 -2.934286 -0.055145 -0.200214 -0.028397 -0.018724
    21 -0.033420 -1.397129 -0.011257 -0.909967 0.136277 -0.074809
    22 -0.022360 -0.957436 0.018784 -0.638746 0.000000 0.000000
    23 -1.180681 -2.507217 -0.193859 -0.541359 0.150781 -0.464420
    24 -0.024967 -1.123934 0.017597 -1.488903 0.000000 0.000001
    25 -0.020057 -0.890968 0.010090 -1.277757 0.000000 0.000000
    26 0.583510 -1.197277 0.185379 0.316258 -1.087026 -0.583548
    27 1.535927 0.010246 0.005009 0.087412 0.030537 -1.135410
    28 1.100771 0.004527 -0.010679 -0.010778 0.012114 -0.550575
    29 0.120153 -0.050270 -0.054489 0.099906 3.110905 1.561085
    30 0.447953 -2.798986 -0.200443 -0.607948 0.000534 0.561976
    31 -0.032909 -1.480204 0.004940 -1.413633 0.000000 0.000002
    32 -0.027022 -1.076920 -0.020210 -1.481391 0.000000 0.000000
    33 -0.249534 -2.846964 -0.174213 -0.445831 0.004261 0.486845
    34 0.043235 -1.683941 0.096012 -1.469776 0.002823 -0.000167
    35 0.031729 -1.160830 0.058838 -1.698243 0.000642 0.008372
    36 -0.963866 -2.785145 -0.085350 0.057485 0.039254 0.065226
    37 0.028479 -1.403067 0.006271 -0.285462 0.000000 0.000000
    38 0.021413 -0.957781 0.020046 -0.387944 0.000000 0.000000
    39 1.164475 -2.543940 -0.170330 -0.557511 -0.035046 0.464229
    40 0.024032 -1.129042 0.017807 -1.373638 0.000000 0.000001
    41 0.014898 -0.883989 -0.019848 -1.103398 0.000000 0.000000
    42 -0.586770 -1.264477 0.200161 -0.683236 -0.842752 -2.270081
    43 1.522835 0.058681 0.016848 -0.059520 -0.122786 0.824758
    44 1.117947 0.048424 -0.005766 -0.016015 -0.019457 0.744725
    45 -0.041740 -0.115604 0.002678 0.136590 -0.022461 1.520273
    46 -1.393470 8.839177 -0.239433 1.580804 -0.005023 -1.566847
  time 17
    0 0.000000 1.500046 -4.644612 -0.174533 0.000000 0.000000
    1 12.889416 5.396583 -9.848272 0.525938 -2.312822 -0.678638
    2 0.084337 -8.502637 0.173215 0.044182 0.512337 -0.558673
    3 1.776994 -2.723174 0.873419 0.134966 0.079135 3.004383
    4 -2.548201 7.012088 0.748838 0.000000 0.000000 -1.570796
    5 -1.546743 7.218124 0.000000 0.000000 0.000000 -0.002004
    6 -0.284830 1.975754 0.000000 0.000001 0.000000 0.000000
    7 -11.060507 4.732689 -7.664361 0.393734 2.082801 0.422417
    8 -0.227284 -8.466044 0.162515 0.041469 -0.351380 0.245808
    9 -1.471282 -3.093521 0.739297 3.070381 0.002168 0.135135
    10 -2.536482 9.152779 0.850403 0.000000 0.000000 -1.570796
    11 -1.546742 7.218122 -0.000001 0.000000 0.000000 -0.002004
    12 -0.284830 2.417173 0.000000 0.000001 0.000000 0.000000
    13 1.257180 8.762585 -0.153713 -1.570562 0.002683 -1.566807
    14 -0.488518 -2.755602 -0.228260 -0.647514 0.030346 -0.257527
    15 0.039887 -1.479790 0.029854 -1.670335 0.000000 0.000001
    16 0.028786 -1.075731 -0.023109 -1.197449 0.000000 0.000000
    17 0.250027 -2.820665 -0.238396 -0.482190 0.047366 -0.266951
    18 -0.049759 -1.680544 0.100479 -1.890537 0.000000 -0.000002
    19 -0.034142 -1.148312 0.084782 -1.087281 0.000000 0.000000
    20 0.953860 -2.918660 -0.059051 -0.200214 -0.028397 -0.018724
    21 -0.033420 -1.397129 -0.011257 -0.853016 0.136277 -0.074809
    22 -0.022360 -0.957436 0.018784 -0.611048 0.000000 0.000000
    23 -1.180681 -2.507217 -0.193859 -0.541359 0.150781 -0.464420
    24 -0.024967 -1.123934 0.017597 -1.488903 0.000000 0.000001
    25 -0.020057 -0.890968 0.010090 -1.277757 0.000000 0.000000
    26 0.583510 -1.197277 0.185379 0.316258 -1.087026 -0.583548
    27 1.535927 0.010246 0.005009 0.087412 0.030537 -1.135410
    28 1.100771 0.004527 -0.010679 -0.010778 0.012114 -0.550575
    29 0.120153 -0.050270 -0.054489 0.099906 3.110905 1.561085
    30 0.447953 -2.798986 -0.200443 -0.607948 0.000534 0.561976
    31 -0.032909 -1.480204 0.004940 -1.413633 0.000000 0.000002
    32 -0.027022 -1.076920 -0.020210 -1.481391 0.000000 0.000000
    33 -0.249534 -2.846964 -0.174213 -0.445831 0.004261 0.486845
    34 0.043235 -1.683941 0.096012 -1.469776 0.002823 -0.000167
    35 0.031729 -1.160830 0.058838 -1.698243 0.000642 0.008372
    36 -0.963866 -2.785145 -0.085350 0.057485 0.039254 0.065226
    37 0.028479 -1.403067 0.006271 -0.285462 0.000000 0.000000
    38 0.021413 -0.957781 0.020046 -0.387944 0.000000 0.000000
    39 1.164475 -2.543940 -0.170330 -0.557511 -0.035046 0.464229
    40 0.024032 -1.129042 0.017807 -1.373638 0.000000 0.000001
    41 0.014898 -0.883989 -0.019848 -1.103430 0.000000 0.000000
    42 -0.586770 -1.264477 0.200161 -0.683236 -0.842752 -2.270081
    43 1.522835 0.058681 0.016848 -0.059520 -0.122786 0.824758
    44 1.117947 0.048424 -0.005766 -0.016015 -0.019457 0.744725
    45 -0.041740 -0.115604 0.002678 0.136590 -0.022461 1.520273
    46 -1.393470 8.839177 -0.239433 1.580804 -0.005023 -1.566847
  time 18
    0 0.000000 1.503952 -4.644612 -0.174533 0.000000 0.000000
    1 12.889416 5.392677 -9.598265 0.529950 -2.314526 -0.683962
    2 0.084337 -8.502637 0.173215 0.014531 0.495047 -0.588944
    3 1.776994 -2.723174 0.873419 0.134966 0.079135 3.004383
    4 -2.548201 7.012088 0.748838 0.000000 0.000000 -1.570796
    5 -1.546743 7.218124 0.000000 0.000000 0.000000 -0.002004
    6 -0.284830 1.999193 0.000000 0.000001 0.000000 0.000000
    7 -11.048788 4.724876 -7.668267 0.393734 2.082801 0.422417
    8 -0.227284 -8.466044 0.162515 0.041815 -0.347102 0.246404
    9 -1.471282 -3.093521 0.739297 3.070381 0.002168 0.135135
    10 -2.536482 9.152779 0.850403 0.000000 0.000000 -1.570796
    11 -1.546742 7.218122 -0.000001 0.000000 0.000000 -0.002004
    12 -0.284830 2.417173 0.000000 0.000001 0.000000 0.000000
    13 1.257180 8.762585 -0.153713 -1.570562 0.002683 -1.566807
    14 -0.488518 -2.755602 -0.228260 -0.647514 0.030346 -0.257527
    15 0.039887 -1.479790 0.029854 -1.670335 0.000000 0.000001
    16 0.028786 -1.075731 -0.023109 -1.197449 0.000000 0.000000
    17 0.250027 -2.820665 -0.238396 -0.482190 0.047366 -0.266951
    18 -0.049759 -1.680544 0.100479 -1.890537 0.000000 -0.000002
    19 -0.034142 -1.148312 0.084782 -1.087281 0.000000 0.000000
    20 0.957766 -2.899128 -0.059051 -0.200214 -0.028397 -0.018724
    21 -0.033420 -1.397129 -0.011257 -0.795745 0.136277 -0.074809
    22 -0.022360 -0.957436 0.018784 -0.583145 0.000000 0.000000
    23 -1.180681 -2.507217 -0.193859 -0.541359 0.150781 -0.464420
    24 -0.024967 -1.123934 0.017597 -1.488903 0.000000 0.000001
    25 -0.020057 -0.890968 0.010090 -1.277757 0.000000 0.000000
    26 0.583510 -1.197277 0.185379 0.316258 -1.087026 -0.583548
    27 1.535927 0.010246 0.005009 0.087412 0.030537 -1.135410
    28 1.100771 0.004527 -0.010679 -0.010778 0.012114 -0.550575
    29 0.120153 -0.050270 -0.054489 0.099906 3.110905 1.561085
    30 0.447953 -2.798986 -0.200443 -0.607948 0.000534 0.561976
    31 -0.032909 -1.480204 0.004940 -1.413633 0.000000 0.000002
    32 -0.027022 -1.076920 -0.020210 -1.481391 0.000000 0.000000
    33 -0.249534 -2.846964 -0.174213 -0.445831 0.004261 0.486845
    34 0.043235 -1.683941 0.096012 -1.469776 0.002823 -0.000167
    35 0.031729 -1.160830 0.058838 -1.698243 0.000642 0.008372
    36 -0.963866 -2.785145 -0.085350 0.057485 0.039254 0.065226
    37 0.028479 -1.403067 0.006271 -0.285462 0.000000 0.000000
    38 0.021413 -0.957781 0.020046 -0.387944 0.000000 0.000000
    39 1.164475 -2.543940 -0.170330 -0.557511 -0.035046 0.464229
    40 0.024032 -1.129042 0.017807 -1.373638 0.000000 0.000001
    41 0.014898 -0.883989 -0.019848 -1.103398 0.000000 0.000000
    42 -0.586770 -1.264477 0.200161 -0.683236 -0.842752 -2.270081
    43 1.522835 0.058681 0.016848 -0.059520 -0.122786 0.824758
    44 1.117947 0.048424 -0.005766 -0.016015 -0.019457 0.744725
    45 -0.041740 -0.115604 0.002678 0.136590 -0.022461 1.520273
    46 -1.393470 8.839177 -0.239433 1.580804 -0.005023 -1.566847
  time 19
    0 0.000000 1.511765 -4.644612 -0.174533 0.000000 0.000000
    1 12.889416 5.384864 -9.309193 0.533349 -2.315897 -0.688338
    2 0.084337 -8.502637 0.173215 -0.014710 0.475186 -0.618815
    3 1.776994 -2.723174 0.873419 0.134966 0.079135 3.004383
    4 -2.548201 7.012088 0.748838 0.000000 0.000000 -1.570796
    5 -1.546743 7.218124 0.000000 0.000000 0.000000 -0.002004
    6 -0.284830 2.022631 0.000000 0.000001 0.000000 0.000000
    7 -11.037069 4.720970 -7.668267 0.393734 2.082801 0.422417
    8 -0.227284 -8.466044 0.162515 0.042181 -0.343086 0.247001
    9 -1.471282 -3.093521 0.739297 3.070381 0.002168 0.135135
    10 -2.536482 9.152779 0.850403 0.000000 0.000000 -1.570796
    11 -1.546742 7.218122 -0.000001 0.000000 0.000000 -0.002004
    12 -0.284830 2.417173 0.000000 0.000001 0.000000 0.000000
    13 1.257180 8.762585 -0.153713 -1.570562 0.002683 -1.566807
    14 -0.488518 -2.755602 -0.228260 -0.647514 0.030346 -0.257527
    15 0.039887 -1.479790 0.029854 -1.670335 0.000000 0.000001
    16 0.028786 -1.075731 -0.023109 -1.197449 0.000000 0.000000
    17 0.250027 -2.820665 -0.238396 -0.482190 0.047366 -0.266951
    18 -0.049759 -1.680544 0.100479 -1.890537 0.000000 -0.000002
    19 -0.034142 -1.148312 0.084782 -1.087281 0.000000 0.000000
    20 0.957766 -2.883503 -0.062957 -0.200214 -0.028397 -0.018724
    21 -0.033420 -1.397129 -0.011257 -0.738794 0.136277 -0.074809
    22 -0.022360 -0.957436 0.018784 -0.555446 0.000000 0.000000
    23 -1.180681 -2.507217 -0.193859 -0.541359 0.150781 -0.464420
    24 -0.024967 -1.123934 0.017597 -1.488903 0.000000 0.000001
    25 -0.020057 -0.890968 0.010090 -1.277757 0.000000 0.000000
    26 0.583510 -1.197277 0.185379 0.316258 -1.087026 -0.583548
    27 1.535927 0.010246 0.005009 0.087412 0.030537 -1.135410
    28 1.100771 0.004527 -0.010679 -0.010778 0.012114 -0.550575
    29 0.120153 -0.050270 -0.054489 0.099906 3.110905 1.561085
    30 0.447953 -2.798986 -0.200443 -0.607948 0.000534 0.561976
    31 -0.032909 -1.480204 0.004940 -1.413633 0.000000 0.000002
    32 -0.027022 -1.076920 -0.020210 -1.481391 0.000000 0.000000
    33 -0.249534 -2.846964 -0.174213 -0.445831 0.004261 0.486845
    34 0.043235 -1.683941 0.096012 -1.469776 0.002823 -0.000167
    35 0.031729 -1.160830 0.058838 -1.698243 0.000642 0.008372
    36 -0.963866 -2.785145 -0.085350 0.057485 0.039254 0.065226
    37 0.028479 -1.403067 0.006271 -0.285462 0.000000 0.000000
    38 0.021413 -0.957781 0.020046 -0.387944 0.000000 0.000000
    39 1.164475 -2.543940 -0.170330 -0.557511 -0.035046 0.464229
    40 0.024032 -1.129042 0.017807 -1.373638 0.000000 0.000001
    41 0.014898 -0.883989 -0.019848 -1.103398 0.000000 0.000000
    42 -0.586770 -1.264477 0.200161 -0.683236 -0.842752 -2.270081
    43 1.522835 0.058681 0.016848 -0.059520 -0.122786 0.824758
    44 1.117947 0.048424 -0.005766 -0.016015 -0.019457 0.744725
    45 -0.041740 -0.115604 0.002678 0.136590 -0.022461 1.520273
    46 -1.393470 8.839177 -0.239433 1.580804 -0.005023 -1.566847
  time 20
    0 0.000000 1.519578 -4.644612 -0.174533 0.000000 0.000000
    1 12.889416 5.380957 -9.031841 0.535865 -2.316894 -0.691659
    2 0.084337 -8.502637 0.173215 -0.040415 0.455255 -0.645840
    3 1.776994 -2.723174 0.873419 0.134966 0.079135 3.004383
    4 -2.548201 7.012088 0.748838 0.000000 0.000000 -1.570796
    5 -1.546743 7.218124 0.000000 0.000000 0.000000 -0.002004
    6 -0.284830 2.046069 0.000000 0.000001 0.000000 0.000000
    7 -11.029256 4.713157 -7.668267 0.393734 2.082801 0.422417
    8 -0.227284 -8.466044 0.162515 0.042624 -0.339689 0.247564
    9 -1.471282 -3.093521 0.739297 3.070381 0.002168 0.135135
    10 -2.536482 9.152779 0.850403 0.000000 0.000000 -1.570796
    11 -1.546742 7.218122 -0.000001 0.000000 0.000000 -0.002004
    12 -0.284830 2.417173 0.000000 0.000001 0.000000 0.000000
    13 1.257180 8.762585 -0.153713 -1.570562 0.002683 -1.566807
    14 -0.488518 -2.755602 -0.228260 -0.647514 0.030346 -0.257527
    15 0.039887 -1.479790 0.029854 -1.670335 0.000000 0.000001
    16 0.028786 -1.075731 -0.023109 -1.197449 0.000000 0.000000
    17 0.250027 -2.820665 -0.238396 -0.482190 0.047366 -0.266951
    18 -0.049759 -1.680544 0.100479 -1.890537 0.000000 -0.000002
    19 -0.034142 -1.148312 0.084782 -1.087281 0.000000 0.000000
    20 0.957766 -2.867877 -0.066864 -0.200214 -0.028397 -0.018724
    21 -0.033420 -1.397129 -0.011257 -0.682968 0.136277 -0.074809
    22 -0.022360 -0.957436 0.018784 -0.528282 0.000000 0.000000
    23 -1.180681 -2.507217 -0.193859 -0.541359 0.150781 -0.464420
    24 -0.024967 -1.123934 0.017597 -1.488903 0.000000 0.000001
    25 -0.020057 -0.890968 0.010090 -1.277757 0.000000 0.000000
    26 0.583510 -1.197277 0.185379 0.316258 -1.087026 -0.583548
    27 1.535927 0.010246 0.005009 0.087412 0.030537 -1.135410
    28 1.100771 0.004527 -0.010679 -0.010778 0.012114 -0.550575
    29 0.120153 -0.050270 -0.054489 0.099906 3.110905 1.561085
    30 0.447953 -2.798986 -0.200443 -0.607948 0.000534 0.561976
    31 -0.032909 -1.480204 0.004940 -1.413633 0.000000 0.000002
    32 -0.027022 -1.076920 -0.020210 -1.481391 0.000000 0.000000
    33 -0.249534 -2.846964 -0.174213 -0.445831 0.004261 0.486845
    34 0.043235 -1.683941 0.096012 -1.469776 0.002823 -0.000167
    35 0.031729 -1.160830 0.058838 -1.698243 0.000642 0.008372
    36 -0.963866 -2.785145 -0.085350 0.057485 0.039254 0.065226
    37 0.028479 -1.403067 0.006271 -0.285462 0.000000 0.000000
    38 0.021413 -0.957781 0.020046 -0.387944 0.000000 0.000000
    39 1.164475 -2.543940 -0.170330 -0.557511 -0.035046 0.464229
    40 0.024032 -1.129042 0.017807 -1.373638 0.000000 0.000001
    41 0.014898 -0.883989 -0.019848 -1.103398 0.000000 0.000000
    42 -0.586770 -1.264477 0.200161 -0.683236 -0.842752 -2.270081
    43 1.522835 0.058681 0.016848 -0.059520 -0.122786 0.824758
    44 1.117947 0.048424 -0.005766 -0.016015 -0.019457 0.744725
    45 -0.041740 -0.115604 0.002678 0.136590 -0.022461 1.520273
    46 -1.393470 8.839177 -0.239433 1.580804 -0.005023 -1.566847
  time 21
    0 0.000000 1.523484 -4.644612 -0.174533 0.000000 0.000000
    1 12.889416 5.377051 -8.805272 0.537497 -2.317518 -0.693767
    2 0.084337 -8.502637 0.173215 -0.059456 0.437789 -0.667665
    3 1.776994 -2.723174 0.873419 0.134966 0.079135 3.004383
    4 -2.548201 7.012088 0.748838 0.000000 0.000000 -1.570796
    5 -1.546743 7.218124 0.000000 0.000000 0.000000 -0.002004
    6 -0.284830 2.065601 0.000000 0.000001 0.000000 0.000000
    7 -11.025350 4.709251 -7.668267 0.393734 2.082801 0.422417
    8 -0.227284 -8.466044 0.162515 0.043162 -0.337212 0.248061
    9 -1.471282 -3.093521 0.739297 3.070381 0.002168 0.135135
    10 -2.536482 9.152779 0.850403 0.000000 0.000000 -1.570796
    11 -1.546742 7.218122 -0.000001 0.000000 0.000000 -0.002004
    12 -0.284830 2.417173 0.000000 0.000001 0.000000 0.000000
    13 1.257180 8.762585 -0.153713 -1.570562 0.002683 -1.566807
    14 -0.488518 -2.755602 -0.228260 -0.647514 0.030346 -0.257527
    15 0.039887 -1.479790 0.029854 -1.670335 0.000000 0.000001
    16 0.028786 -1.075731 -0.023109 -1.197449 0.000000 0.000000
    17 0.250027 -2.820665 -0.238396 -0.482190 0.047366 -0.266951
    18 -0.049759 -1.680544 0.100479 -1.890537 0.000000 -0.000002
    19 -0.034142 -1.148312 0.084782 -1.087313 0.000000 0.000000
    20 0.957766 -2.856158 -0.070770 -0.200214 -0.028397 -0.018724
    21 -0.033420 -1.397129 -0.011257 -0.628990 0.136277 -0.074809
    22 -0.022360 -0.957436 0.018784 -0.501982 0.000000 0.000000
    23 -1.180681 -2.507217 -0.193859 -0.541359 0.150781 -0.464420
    24 -0.024967 -1.123934 0.017597 -1.488903 0.000000 0.000001
    25 -0.020057 -0.890968 0.010090 -1.277757 0.000000 0.000000
    26 0.583510 -1.197277 0.185379 0.316258 -1.087026 -0.583548
    27 1.535927 0.010246 0.005009 0.087412 0.030537 -1.135410
    28 1.100771 0.004527 -0.010679 -0.010778 0.012114 -0.550575
    29 0.120153 -0.050270 -0.054489 0.099906 3.110905 1.561085
    30 0.447953 -2.798986 -0.200443 -0.607948 0.000534 0.561976
    31 -0.032909 -1.480204 0.004940 -1.413633 0.000000 0.000002
    32 -0.027022 -1.076920 -0.020210 -1.481391 0.000000 0.000000
    33 -0.249534 -2.846964 -0.174213 -0.445831 0.004261 0.486845
    34 0.043235 -1.683941 0.096012 -1.469776 0.002823 -0.000167
    35 0.031729 -1.160830 0.058838 -1.698243 0.000642 0.008372
    36 -0.963866 -2.785145 -0.085350 0.057485 0.039254 0.065226
    37 0.028479 -1.403067 0.006271 -0.285462 0.000000 0.000000
    38 0.021413 -0.957781 0.020046 -0.387944 0.000000 0.000000
    39 1.164475 -2.543940 -0.170330 -0.557511 -0.035046 0.464229
    40 0.024032 -1.129042 0.017807 -1.373638 0.000000 0.000001
    41 0.014898 -0.883989 -0.019848 -1.103398 0.000000 0.000000
    42 -0.586770 -1.264477 0.200161 -0.683236 -0.842752 -2.270081
    43 1.522835 0.058681 0.016848 -0.059520 -0.122786 0.824758
    44 1.117947 0.048424 -0.005766 -0.016015 -0.019457 0.744725
    45 -0.041740 -0.115604 0.002678 0.136590 -0.022461 1.520273
    46 -1.393470 8.839177 -0.239433 1.580804 -0.005023 -1.566847
  time 22
    0 0.000000 1.527390 -4.644612 -0.174533 0.000000 0.000000
    1 12.889416 5.373145 -8.660736 0.538041 -2.317726 -0.694505
    2 0.084337 -8.502637 0.173215 -0.068772 0.425323 -0.681861
    3 1.776994 -2.723174 0.873419 0.134966 0.079135 3.004383
    4 -2.548201 7.012088 0.748838 0.000000 0.000000 -1.570796
    5 -1.546743 7.218124 0.000000 0.000000 0.000000 -0.002004
    6 -0.284830 2.085133 0.000000 0.000001 0.000000 0.000000
    7 -11.021444 4.705344 -7.672174 0.393734 2.082801 0.422417
    8 -0.227284 -8.466044 0.162515 0.043894 -0.336011 0.248426
    9 -1.471282 -3.093521 0.739297 3.070381 0.002168 0.135135
    10 -2.536482 9.152779 0.850403 0.000000 0.000000 -1.570796
    11 -1.546742 7.218122 -0.000001 0.000000 0.000000 -0.002004
    12 -0.284830 2.417173 0.000000 0.000001 0.000000 0.000000
    13 1.257180 8.762585 -0.153713 -1.570562 0.002683 -1.566807
    14 -0.488518 -2.755602 -0.228260 -0.647514 0.030346 -0.257527
    15 0.039887 -1.479790 0.029854 -1.670335 0.000000 0.000001
    16 0.028786 -1.075731 -0.023109 -1.197449 0.000000 0.000000
    17 0.250027 -2.820665 -0.238396 -0.482190 0.047366 -0.266951
    18 -0.049759 -1.680544 0.100479 -1.890537 0.000000 -0.000002
    19 -0.034142 -1.148312 0.084782 -1.087281 0.000000 0.000000
    20 0.957766 -2.840533 -0.074677 -0.200214 -0.028397 -0.018724
    21 -0.033420 -1.397129 -0.011257 -0.577582 0.136277 -0.074809
    22 -0.022360 -0.957436 0.018784 -0.476954 0.000000 0.000000
    23 -1.180681 -2.507217 -0.193859 -0.541359 0.150781 -0.464420
    24 -0.024967 -1.123934 0.017597 -1.488903 0.000000 0.000001
    25 -0.020057 -0.890968 0.010090 -1.277757 0.000000 0.000000
    26 0.583510 -1.197277 0.185379 0.316258 -1.087026 -0.583548
    27 1.535927 0.010246 0.005009 0.087412 0.030537 -1.135410
    28 1.100771 0.004527 -0.010679 -0.010778 0.012114 -0.550575
    29 0.120153 -0.050270 -0.054489 0.099906 3.110905 1.561085
    30 0.447953 -2.798986 -0.200443 -0.607948 0.000534 0.561976
    31 -0.032909 -1.480204 0.004940 -1.413633 0.000000 0.000002
    32 -0.027022 -1.076920 -0.020210 -1.481391 0.000000 0.000000
    33 -0.249534 -2.846964 -0.174213 -0.445831 0.004261 0.486845
    34 0.043235 -1.683941 0.096012 -1.469776 0.002823 -0.000167
    35 0.031729 -1.160830 0.058838 -1.698243 0.000642 0.008372
    36 -0.963866 -2.785145 -0.085350 0.057485 0.039254 0.065226
    37 0.028479 -1.403067 0.006271 -0.285462 0.000000 0.000000
    38 0.021413 -0.957781 0.020046 -0.387944 0.000000 0.000000
    39 1.164475 -2.543940 -0.170330 -0.557511 -0.035046 0.464229
    40 0.024032 -1.129042 0.017807 -1.373638 0.000000 0.000001
    41 0.014898 -0.883989 -0.019848 -1.103430 0.000000 0.000000
    42 -0.586770 -1.264477 0.200161 -0.683236 -0.842752 -2.270081
    43 1.522835 0.058681 0.016848 -0.059520 -0.122786 0.824758
    44 1.117947 0.048424 -0.005766 -0.016015 -0.019457 0.744725
    45 -0.041740 -0.115604 0.002678 0.136590 -0.022461 1.520273
    46 -1.393470 8.839177 -0.239433 1.580804 -0.005023 -1.566847
  time 23
    0 0.000000 1.531297 -4.644612 -0.174533 0.000000 0.000000
    1 12.889416 5.365332 -8.586515 0.538041 -2.317726 -0.694505
    2 0.084337 -8.502637 0.173215 -0.071803 0.416871 -0.690363
    3 1.776994 -2.723174 0.873419 0.134966 0.079135 3.004383
    4 -2.548201 7.012088 0.748838 0.000000 0.000000 -1.570796
    5 -1.546743 7.218124 0.000000 0.000000 0.000000 -0.002004
    6 -0.284830 2.104665 0.000000 0.000001 0.000000 0.000000
    7 -11.021444 4.701438 -7.672174 0.393734 2.082801 0.422417
    8 -0.227284 -8.466044 0.162515 0.044933 -0.335579 0.248757
    9 -1.471282 -3.093521 0.739297 3.070381 0.002168 0.135135
    10 -2.536482 9.152779 0.850403 0.000000 0.000000 -1.570796
    11 -1.546742 7.218122 -0.000001 0.000000 0.000000 -0.002004
    12 -0.284830 2.417173 0.000000 0.000001 0.000000 0.000000
    13 1.257180 8.762585 -0.153713 -1.570562 0.002683 -1.566807
    14 -0.488518 -2.755602 -0.228260 -0.647514 0.030346 -0.257527
    15 0.039887 -1.479790 0.029854 -1.670335 0.000000 0.000001
    16 0.028786 -1.075731 -0.023109 -1.197449 0.000000 0.000000
    17 0.250027 -2.820665 -0.238396 -0.482190 0.047366 -0.266951
    18 -0.049759 -1.680544 0.100479 -1.890537 0.000000 -0.000002
    19 -0.034142 -1.148312 0.084782 -1.087281 0.000000 0.000000
    20 0.957766 -2.824907 -0.074677 -0.200214 -0.028397 -0.018724
    21 -0.033420 -1.397129 -0.011257 -0.529467 0.136277 -0.074809
    22 -0.022360 -0.957436 0.018784 -0.453554 0.000000 0.000000
    23 -1.180681 -2.507217 -0.193859 -0.541359 0.150781 -0.464420
    24 -0.024967 -1.123934 0.017597 -1.488903 0.000000 0.000001
    25 -0.020057 -0.890968 0.010090 -1.277757 0.000000 0.000000
    26 0.583510 -1.197277 0.185379 0.316258 -1.087026 -0.583548
    27 1.535927 0.010246 0.005009 0.087412 0.030537 -1.135410
    28 1.100771 0.004527 -0.010679 -0.010778 0.012114 -0.550575
    29 0.120153 -0.050270 -0.054489 0.099906 3.110905 1.561085
    30 0.447953 -2.798986 -0.200443 -0.607948 0.000534 0.561976
    31 -0.032909 -1.480204 0.004940 -1.413633 0.000000 0.000002
    32 -0.027022 -1.076920 -0.020210 -1.481391 0.000000 0.000000
    33 -0.249534 -2.846964 -0.174213 -0.445831 0.004261 0.486845
    34 0.043235 -1.683941 0.096012 -1.469776 0.002823 -0.000167
    35 0.031729 -1.160830 0.058838 -1.698243 0.000642 0.008372
    36 -0.963866 -2.785145 -0.085350 0.057485 0.039254 0.065226
    37 0.028479 -1.403067 0.006271 -0.285462 0.000000 0.000000
    38 0.021413 -0.957781 0.020046 -0.387944 0.000000 0.000000
    39 1.164475 -2.543940 -0.170330 -0.557511 -0.035046 0.464229
    40 0.024032 -1.129042 0.017807 -1.373638 0.000000 0.000001
    41 0.014898 -0.883989 -0.019848 -1.103398 0.000000 0.000000
    42 -0.586770 -1.264477 0.200161 -0.683236 -0.842752 -2.270081
    43 1.522835 0.058681 0.016848 -0.059520 -0.122786 0.824758
    44 1.117947 0.048424 -0.005766 -0.016015 -0.019457 0.744725
    45 -0.041740 -0.115604 0.002678 0.136590 -0.022461 1.520273
    46 -1.393470 8.839177 -0.239433 1.580804 -0.005023 -1.566847
  time 24
    0 0.000000 1.531297 -4.644612 -0.174533 0.000000 0.000000
    1 12.889416 5.361426 -8.527920 0.538041 -2.317726 -0.694505
    2 0.084337 -8.502637 0.173215 -0.074171 0.409793 -0.696873
    3 1.776994 -2.723174 0.873419 0.134966 0.079135 3.004383
    4 -2.548201 7.012088 0.748838 0.000000 0.000000 -1.570796
    5 -1.546743 7.218124 0.000000 0.000000 0.000000 -0.002004
    6 -0.284830 2.124196 0.000000 0.000001 0.000000 0.000000
    7 -11.021444 4.701438 -7.672174 0.393734 2.082801 0.422417
    8 -0.227284 -8.466044 0.162515 0.046280 -0.335242 0.249022
    9 -1.471282 -3.093521 0.739297 3.070381 0.002168 0.135135
    10 -2.536482 9.152779 0.850403 0.000000 0.000000 -1.570796
    11 -1.546742 7.218122 -0.000001 0.000000 0.000000 -0.002004
    12 -0.284830 2.417173 0.000000 0.000001 0.000000 0.000000
    13 1.257180 8.762585 -0.153713 -1.570562 0.002683 -1.566807
    14 -0.488518 -2.755602 -0.228260 -0.647514 0.030346 -0.257527
    15 0.039887 -1.479790 0.029854 -1.670335 0.000000 0.000001
    16 0.028786 -1.075731 -0.023109 -1.197449 0.000000 0.000000
    17 0.250027 -2.820665 -0.238396 -0.482190 0.047366 -0.266951
    18 -0.049759 -1.680544 0.100479 -1.890537 0.000000 -0.000002
    19 -0.034142 -1.148312 0.084782 -1.087281 0.000000 0.000000
    20 0.957766 -2.813188 -0.078583 -0.200214 -0.028397 -0.018724
    21 -0.033420 -1.397129 -0.011257 -0.485369 0.136277 -0.074809
    22 -0.022360 -0.957436 0.018784 -0.432086 0.000000 0.000000
    23 -1.180681 -2.507217 -0.193859 -0.541359 0.150781 -0.464420
    24 -0.024967 -1.123934 0.017597 -1.488903 0.000000 0.000001
    25 -0.020057 -0.890968 0.010090 -1.277757 0.000000 0.000000
    26 0.583510 -1.197277 0.185379 0.316258 -1.087026 -0.583548
    27 1.535927 0.010246 0.005009 0.087412 0.030537 -1.135410
    28 1.100771 0.004527 -0.010679 -0.010778 0.012114 -0.550575
    29 0.120153 -0.050270 -0.054489 0.099906 3.110905 1.561085
    30 0.447953 -2.798986 -0.200443 -0.607948 0.000534 0.561976
    31 -0.032909 -1.480204 0.004940 -1.413633 0.000000 0.000002
    32 -0.027022 -1.076920 -0.020210 -1.481391 0.000000 0.000000
    33 -0.249534 -2.846964 -0.174213 -0.445831 0.004261 0.486845
    34 0.043235 -1.683941 0.096012 -1.469776 0.002823 -0.000167
    35 0.031729 -1.160830 0.058838 -1.698243 0.000642 0.008372
    36 -0.963866 -2.785145 -0.085350 0.057485 0.039254 0.065226
    37 0.028479 -1.403067 0.006271 -0.285462 0.000000 0.000000
    38 0.021413 -0.957781 0.020046 -0.387944 0.000000 0.000000
    39 1.164475 -2.543940 -0.170330 -0.557511 -0.035046 0.464229
    40 0.024032 -1.129042 0.017807 -1.373638 0.000000 0.000001
    41 0.014898 -0.883989 -0.019848 -1.103398 0.000000 0.000000
    42 -0.586770 -1.264477 0.200161 -0.683236 -0.842752 -2.270081
    43 1.522835 0.058681 0.016848 -0.059520 -0.122786 0.824758
    44 1.117947 0.048424 -0.005766 -0.016015 -0.019457 0.744725
    45 -0.041740 -0.115604 0.002678 0.136590 -0.022461 1.520273
    46 -1.393470 8.839177 -0.239433 1.580804 -0.005023 -1.566847
  time 25
    0 0.000000 1.523484 -4.644612 -0.174533 0.000000 0.000000
    1 12.889416 5.353613 -8.484949 0.538041 -2.317726 -0.694505
    2 0.084337 -8.502637 0.173215 -0.075971 0.404018 -0.701637
    3 1.776994 -2.723174 0.873419 0.134966 0.079135 3.004383
    4 -2.548201 7.012088 0.748838 0.000000 0.000000 -1.570796
    5 -1.546743 7.218124 0.000000 0.000000 0.000000 -0.002004
    6 -0.284830 2.139822 0.000000 0.000001 0.000000 0.000000
    7 -11.021444 4.709251 -7.668267 0.393734 2.082801 0.422417
    8 -0.227284 -8.466044 0.162515 0.047838 -0.334998 0.249254
    9 -1.471282 -3.093521 0.739297 3.070381 0.002168 0.135135
    10 -2.536482 9.152779 0.850403 0.000000 0.000000 -1.570796
    11 -1.546742 7.218122 -0.000001 0.000000 0.000000 -0.002004
    12 -0.284830 2.417173 0.000000 0.000001 0.000000 0.000000
    13 1.257180 8.762585 -0.153713 -1.570562 0.002683 -1.566807
    14 -0.488518 -2.755602 -0.228260 -0.647514 0.030346 -0.257527
    15 0.039887 -1.479790 0.029854 -1.670335 0.000000 0.000001
    16 0.028786 -1.075731 -0.023109 -1.197449 0.000000 0.000000
    17 0.250027 -2.820665 -0.238396 -0.482190 0.047366 -0.266951
    18 -0.049759 -1.680544 0.100479 -1.890537 0.000000 -0.000002
    19 -0.034142 -1.148312 0.084782 -1.087281 0.000000 0.000000
    20 0.957766 -2.801469 -0.078583 -0.200214 -0.028397 -0.018724
    21 -0.033420 -1.397129 -0.011257 -0.446050 0.136277 -0.074809
    22 -0.022360 -0.957436 0.018784 -0.412959 0.000000 0.000000
    23 -1.180681 -2.507217 -0.193859 -0.541359 0.150781 -0.464420
    24 -0.024967 -1.123934 0.017597 -1.488903 0.000000 0.000001
    25 -0.020057 -0.890968 0.010090 -1.277757 0.000000 0.000000
    26 0.583510 -1.197277 0.185379 0.316258 -1.087026 -0.583548
    27 1.535927 0.010246 0.005009 0.087412 0.030537 -1.135410
    28 1.100771 0.004527 -0.010679 -0.010778 0.012114 -0.550575
    29 0.120153 -0.050270 -0.054489 0.099906 3.110905 1.561085
    30 0.447953 -2.798986 -0.200443 -0.607948 0.000534 0.561976
    31 -0.032909 -1.480204 0.004940 -1.413633 0.000000 0.000002
    32 -0.027022 -1.076920 -0.020210 -1.481391 0.000000 0.000000
    33 -0.249534 -2.846964 -0.174213 -0.445831 0.004261 0.486845
    34 0.043235 -1.683941 0.096012 -1.469776 0.002823 -0.000167
    35 0.031729 -1.160830 0.058838 -1.698243 0.000642 0.008372
    36 -0.963866 -2.785145 -0.085350 0.057485 0.039254 0.065226
    37 0.028479 -1.403067 0.006271 -0.285462 0.000000 0.000000
    38 0.021413 -0.957781 0.020046 -0.387944 0.000000 0.000000
    39 1.164475 -2.543940 -0.170330 -0.557511 -0.035046 0.464229
    40 0.024032 -1.129042 0.017807 -1.373638 0.000000 0.000001
    41 0.014898 -0.883989 -0.019848 -1.103398 0.000000 0.000000
    42 -0.586770 -1.264477 0.200161 -0.683236 -0.842752 -2.270081
    43 1.522835 0.058681 0.016848 -0.059520 -0.122786 0.824758
    44 1.117947 0.048424 -0.005766 -0.016015 -0.019457 0.744725
    45 -0.041740 -0.115604 0.002678 0.136590 -0.022461 1.520273
    46 -1.393470 8.839177 -0.239433 1.580804 -0.005023 -1.566847
  time 26
    0 0.000000 1.500046 -4.644612 -0.174533 0.000000 0.000000
    1 12.889416 5.345800 -8.457605 0.538041 -2.317726 -0.694505
    2 0.084337 -8.502637 0.173215 -0.077266 0.399476 -0.704939
    3 1.776994 -2.723174 0.873419 0.134966 0.079135 3.004383
    4 -2.548201 7.012088 0.748838 0.000000 0.000000 -1.570796
    5 -1.546743 7.218124 0.000000 0.000000 0.000000 -0.002004
    6 -0.284830 2.151541 0.000000 0.000001 0.000000 0.000000
    7 -11.021444 4.732689 -7.664361 0.393734 2.082801 0.422417
    8 -0.227284 -8.466044 0.162515 0.049416 -0.334810 0.249420
    9 -1.471282 -3.093521 0.739297 3.070381 0.002168 0.135135
    10 -2.536482 9.152779 0.850403 0.000000 0.000000 -1.570796
    11 -1.546742 7.218122 -0.000001 0.000000 0.000000 -0.002004
    12 -0.284830 2.417173 0.000000 0.000001 0.000000 0.000000
    13 1.257180 8.762585 -0.153713 -1.570562 0.002683 -1.566807
    14 -0.488518 -2.755602 -0.228260 -0.647514 0.030346 -0.257527
    15 0.039887 -1.479790 0.029854 -1.670335 0.000000 0.000001
    16 0.028786 -1.075731 -0.023109 -1.197449 0.000000 0.000000
    17 0.250027 -2.820665 -0.238396 -0.482190 0.047366 -0.266951
    18 -0.049759 -1.680544 0.100479 -1.890537 0.000000 -0.000002
    19 -0.034142 -1.148312 0.084782 -1.087281 0.000000 0.000000
    20 0.957766 -2.793656 -0.082489 -0.200214 -0.028397 -0.018724
    21 -0.033420 -1.397129 -0.011257 -0.412233 0.136277 -0.074809
    22 -0.022360 -0.957436 0.018784 -0.396503 0.000000 0.000000
    23 -1.180681 -2.507217 -0.193859 -0.541359 0.150781 -0.464420
    24 -0.024967 -1.123934 0.017597 -1.488903 0.000000 0.000001
    25 -0.020057 -0.890968 0.010090 -1.277757 0.000000 0.000000
    26 0.583510 -1.197277 0.185379 0.316258 -1.087026 -0.583548
    27 1.535927 0.010246 0.005009 0.087412 0.030537 -1.135410
    28 1.100771 0.004527 -0.010679 -0.010778 0.012114 -0.550575
    29 0.120153 -0.050270 -0.054489 0.099906 3.110905 1.561085
    30 0.447953 -2.798986 -0.200443 -0.607948 0.000534 0.561976
    31 -0.032909 -1.480204 0.004940 -1.413633 0.000000 0.000002
    32 -0.027022 -1.076920 -0.020210 -1.481391 0.000000 0.000000
    33 -0.249534 -2.846964 -0.174213 -0.445831 0.004261 0.486845
    34 0.043235 -1.683941 0.096012 -1.469776 0.002823 -0.000167
    35 0.031729 -1.160830 0.058838 -1.698243 0.000642 0.008372
    36 -0.963866 -2.785145 -0.085350 0.057485 0.039254 0.065226
    37 0.028479 -1.403067 0.006271 -0.285462 0.000000 0.000000
    38 0.021413 -0.957781 0.020046 -0.387944 0.000000 0.000000
    39 1.164475 -2.543940 -0.170330 -0.557511 -0.035046 0.464229
    40 0.024032 -1.129042 0.017807 -1.373638 0.000000 0.000001
    41 0.014898 -0.883989 -0.019848 -1.103430 0.000000 0.000000
    42 -0.586770 -1.264477 0.200161 -0.683236 -0.842752 -2.270081
    43 1.522835 0.058681 0.016848 -0.059520 -0.122786 0.824758
    44 1.117947 0.048424 -0.005766 -0.016015 -0.019457 0.744725
    45 -0.041740 -0.115604 0.002678 0.136590 -0.022461 1.520273
    46 -1.393470 8.839177 -0.239433 1.580804 -0.005023 -1.566847
  time 27
    0 0.000000 1.472701 -4.644612 -0.174533 0.000000 0.000000
    1 12.889416 5.337987 -8.438073 0.538041 -2.317726 -0.694505
    2 0.084337 -8.502637 0.173215 -0.078182 0.396060 -0.707045
    3 1.776994 -2.723174 0.873419 0.134966 0.079135 3.004383
    4 -2.548201 7.012088 0.748838 0.000000 0.000000 -1.570796
    5 -1.546743 7.218124 0.000000 0.000000 0.000000 -0.002004
    6 -0.284830 2.163260 0.000000 0.000001 0.000000 0.000000
    7 -11.021444 4.760033 -7.660455 0.393734 2.082801 0.422417
    8 -0.227284 -8.466044 0.162515 0.050898 -0.334697 0.249586
    9 -1.471282 -3.093521 0.739297 3.070381 0.002168 0.135135
    10 -2.536482 9.152779 0.850403 0.000000 0.000000 -1.570796
    11 -1.546742 7.218122 -0.000001 0.000000 0.000000 -0.002004
    12 -0.284830 2.417173 0.000000 0.000001 0.000000 0.000000
    13 1.257180 8.762585 -0.153713 -1.570562 0.002683 -1.566807
    14 -0.488518 -2.755602 -0.228260 -0.647514 0.030346 -0.257527
    15 0.039887 -1.479790 0.029854 -1.670335 0.000000 0.000001
    16 0.028786 -1.075731 -0.023109 -1.197449 0.000000 0.000000
    17 0.250027 -2.820665 -0.238396 -0.482190 0.047366 -0.266951
    18 -0.049759 -1.680544 0.100479 -1.890537 0.000000 -0.000002
    19 -0.034142 -1.148312 0.084782 -1.087281 0.000000 0.000000
    20 0.957766 -2.785844 -0.082489 -0.200214 -0.028397 -0.018724
    21 -0.033420 -1.397129 -0.011257 -0.384641 0.136277 -0.074809
    22 -0.022360 -0.957436 0.018784 -0.383073 0.000000 0.000000
    23 -1.180681 -2.507217 -0.193859 -0.541359 0.150781 -0.464420
    24 -0.024967 -1.123934 0.017597 -1.488903 0.000000 0.000001
    25 -0.020057 -0.890968 0.010090 -1.277757 0.000000 0.000000
    26 0.583510 -1.197277 0.185379 0.316258 -1.087026 -0.583548
    27 1.535927 0.010246 0.005009 0.087412 0.030537 -1.135410
    28 1.100771 0.004527 -0.010679 -0.010778 0.012114 -0.550575
    29 0.120153 -0.050270 -0.054489 0.099906 3.110905 1.561085
    30 0.447953 -2.798986 -0.200443 -0.607948 0.000534 0.561976
    31 -0.032909 -1.480204 0.004940 -1.413633 0.000000 0.000002
    32 -0.027022 -1.076920 -0.020210 -1.481391 0.000000 0.000000
    33 -0.249534 -2.846964 -0.174213 -0.445831 0.004261 0.486845
    34 0.043235 -1.683941 0.096012 -1.469776 0.002823 -0.000167
    35 0.031729 -1.160830 0.058838 -1.698243 0.000642 0.008372
    36 -0.963866 -2.785145 -0.085350 0.057485 0.039254 0.065226
    37 0.028479 -1.403067 0.006271 -0.285462 0.000000 0.000000
    38 0.021413 -0.957781 0.020046 -0.387944 0.000000 0.000000
    39 1.164475 -2.543940 -0.170330 -0.557511 -0.035046 0.464229
    40 0.024032 -1.129042 0.017807 -1.373638 0.000000 0.000001
    41 0.014898 -0.883989 -0.019848 -1.103398 0.000000 0.000000
    42 -0.586770 -1.264477 0.200161 -0.683236 -0.842752 -2.270081
    43 1.522835 0.058681 0.016848 -0.059520 -0.122786 0.824758
    44 1.117947 0.048424 -0.005766 -0.016015 -0.019457 0.744725
    45 -0.041740 -0.115604 0.002678 0.136590 -0.022461 1.520273
    46 -1.393470 8.839177 -0.239433 1.580804 -0.005023 -1.566847
  time 28
    0 0.000000 1.441450 -4.644612 -0.174533 0.000000 0.000000
    1 12.889416 5.334081 -8.426354 0.538041 -2.317726 -0.694505
    2 0.084337 -8.502637 0.173215 -0.078719 0.393700 -0.708203
    3 1.776994 -2.723174 0.873419 0.134966 0.079135 3.004383
    4 -2.548201 7.012088 0.748838 0.000000 0.000000 -1.570796
    5 -1.546743 7.218124 0.000000 0.000000 0.000000 -0.002004
    6 -0.284830 2.171073 0.000000 0.000001 0.000000 0.000000
    7 -11.021444 4.787378 -7.656548 0.393734 2.082801 0.422417
    8 -0.227284 -8.466044 0.162515 0.052129 -0.334622 0.249685
    9 -1.471282 -3.093521 0.739297 3.070381 0.002168 0.135135
    10 -2.536482 9.152779 0.850403 0.000000 0.000000 -1.570796
    11 -1.546742 7.218122 -0.000001 0.000000 0.000000 -0.002004
    12 -0.284830 2.417173 0.000000 0.000001 0.000000 0.000000
    13 1.257180 8.762585 -0.153713 -1.570562 0.002683 -1.566807
    14 -0.488518 -2.755602 -0.228260 -0.647514 0.030346 -0.257527
    15 0.039887 -1.479790 0.029854 -1.670335 0.000000 0.000001
    16 0.028786 -1.075731 -0.023109 -1.197449 0.000000 0.000000
    17 0.250027 -2.820665 -0.238396 -0.482190 0.047366 -0.266951
    18 -0.049759 -1.680544 0.100479 -1.890537 0.000000 -0.000002
    19 -0.034142 -1.148312 0.084782 -1.087281 0.000000 0.000000
    20 0.957766 -2.781937 -0.086396 -0.200214 -0.028397 -0.018724
    21 -0.033420 -1.397129 -0.011257 -0.364038 0.136277 -0.074809
    22 -0.022360 -0.957436 0.018784 -0.373052 0.000000 0.000000
    23 -1.180681 -2.507217 -0.193859 -0.541359 0.150781 -0.464420
    24 -0.024967 -1.123934 0.017597 -1.488903 0.000000 0.000001
    25 -0.020057 -0.890968 0.010090 -1.277757 0.000000 0.000000
    26 0.583510 -1.197277 0.185379 0.316258 -1.087026 -0.583548
    27 1.535927 0.010246 0.005009 0.087412 0.030537 -1.135410
    28 1.100771 0.004527 -0.010679 -0.010778 0.012114 -0.550575
    29 0.120153 -0.050270 -0.054489 0.099906 3.110905 1.561085
    30 0.447953 -2.798986 -0.200443 -0.607948 0.000534 0.561976
    31 -0.032909 -1.480204 0.004940 -1.413633 0.000000 0.000002
    32 -0.027022 -1.076920 -0.020210 -1.481391 0.000000 0.000000
    33 -0.249534 -2.846964 -0.174213 -0.445831 0.004261 0.486845
    34 0.043235 -1.683941 0.096012 -1.469776 0.002823 -0.000167
    35 0.031729 -1.160830 0.058838 -1.698243 0.000642 0.008372
    36 -0.963866 -2.785145 -0.085350 0.057485 0.039254 0.065226
    37 0.028479 -1.403067 0.006271 -0.285462 0.000000 0.000000
    38 0.021413 -0.957781 0.020046 -0.387944 0.000000 0.000000
    39 1.164475 -2.543940 -0.170330 -0.557511 -0.035046 0.464229
    40 0.024032 -1.129042 0.017807 -1.373638 0.000000 0.000001
    41 0.014898 -0.883989 -0.019848 -1.103430 0.000000 0.000000
    42 -0.586770 -1.264477 0.200161 -0.683236 -0.842752 -2.270081
    43 1.522835 0.058681 0.016848 -0.059520 -0.122786 0.824758
    44 1.117947 0.048424 -0.005766 -0.016015 -0.019457 0.744725
    45 -0.041740 -0.115604 0.002678 0.136590 -0.022461 1.520273
    46 -1.393470 8.839177 -0.239433 1.580804 -0.005023 -1.566847
  time 29
    0 0.000000 1.418012 -4.644612 -0.174533 0.000000 0.000000
    1 12.889416 5.330175 -8.422448 0.538041 -2.317726 -0.694505
    2 0.084337 -8.502637 0.173215 -0.078971 0.392362 -0.708715
    3 1.776994 -2.723174 0.873419 0.134966 0.079135 3.004383
    4 -2.548201 7.012088 0.748838 0.000000 0.000000 -1.570796
    5 -1.546743 7.218124 0.000000 0.000000 0.000000 -0.002004
    6 -0.284830 2.174979 0.000000 0.000001 0.000000 0.000000
    7 -11.021444 4.810816 -7.652642 0.393734 2.082801 0.422417
    8 -0.227284 -8.466044 0.162515 0.052976 -0.334603 0.249752
    9 -1.471282 -3.093521 0.739297 3.070381 0.002168 0.135135
    10 -2.536482 9.152779 0.850403 0.000000 0.000000 -1.570796
    11 -1.546742 7.218122 -0.000001 0.000000 0.000000 -0.002004
    12 -0.284830 2.417173 0.000000 0.000001 0.000000 0.000000
    13 1.257180 8.762585 -0.153713 -1.570562 0.002683 -1.566807
    14 -0.488518 -2.755602 -0.228260 -0.647514 0.030346 -0.257527
    15 0.039887 -1.479790 0.029854 -1.670335 0.000000 0.000001
    16 0.028786 -1.075731 -0.023109 -1.197449 0.000000 0.000000
    17 0.250027 -2.820665 -0.238396 -0.482190 0.047366 -0.266951
    18 -0.049759 -1.680544 0.100479 -1.890537 0.000000 -0.000002
    19 -0.034142 -1.148312 0.084782 -1.087281 0.000000 0.000000
    20 0.957766 -2.778031 -0.086396 -0.200214 -0.028397 -0.018724
    21 -0.033420 -1.397129 -0.011257 -0.351146 0.136277 -0.074809
    22 -0.022360 -0.957436 0.018784 -0.366769 0.000000 0.000000
    23 -1.180681 -2.507217 -0.193859 -0.541359 0.150781 -0.464420
    24 -0.024967 -1.123934 0.017597 -1.488903 0.000000 0.000001
    25 -0.020057 -0.890968 0.010090 -1.277757 0.000000 0.000000
    26 0.583510 -1.197277 0.185379 0.316258 -1.087026 -0.583548
    27 1.535927 0.010246 0.005009 0.087412 0.030537 -1.135410
    28 1.100771 0.004527 -0.010679 -0.010778 0.012114 -0.550575
    29 0.120153 -0.050270 -0.054489 0.099906 3.110905 1.561085
    30 0.447953 -2.798986 -0.200443 -0.607948 0.000534 0.561976
    31 -0.032909 -1.480204 0.004940 -1.413633 0.000000 0.000002
    32 -0.027022 -1.076920 -0.020210 -1.481391 0.000000 0.000000
    33 -0.249534 -2.846964 -0.174213 -0.445831 0.004261 0.486845
    34 0.043235 -1.683941 0.096012 -1.469776 0.002823 -0.000167
    35 0.031729 -1.160830 0.058838 -1.698243 0.000642 0.008372
    36 -0.963866 -2.785145 -0.085350 0.057485 0.039254 0.065226
    37 0.028479 -1.403067 0.006271 -0.285462 0.000000 0.000000
    38 0.021413 -0.957781 0.020046 -0.387944 0.000000 0.000000
    39 1.164475 -2.543940 -0.170330 -0.557511 -0.035046 0.464229
    40 0.024032 -1.129042 0.017807 -1.373638 0.000000 0.000001
    41 0.014898 -0.883989 -0.019848 -1.103398 0.000000 0.000000
    42 -0.586770 -1.264477 0.200161 -0.683236 -0.842752 -2.270081
    43 1.522835 0.058681 0.016848 -0.059520 -0.122786 0.824758
    44 1.117947 0.048424 -0.005766 -0.016015 -0.019457 0.744725
    45 -0.041740 -0.115604 0.002678 0.136590 -0.022461 1.520273
    46 -1.393470 8.839177 -0.239433 1.580804 -0.005023 -1.566847
  time 30
    0 0.000000 1.410199 -4.644612 -0.174533 0.000000 0.000000
    1 12.889416 5.330175 -8.422448 0.538041 -2.317726 -0.694505
    2 0.084337 -8.502637 0.173215 -0.079034 0.391905 -0.708829
    3 1.776994 -2.723174 0.873419 0.134966 0.079135 3.004383
    4 -2.548201 7.012088 0.748838 0.000000 0.000000 -1.570796
    5 -1.546743 7.218124 0.000000 0.000000 0.000000 -0.002004
    6 -0.284830 2.178886 0.000000 0.000001 0.000000 0.000000
    7 -11.021444 4.818629 -7.648736 0.393734 2.082801 0.422417
    8 -0.227284 -8.466044 0.162515 0.053284 -0.334585 0.249785
    9 -1.471282 -3.093521 0.739297 3.070381 0.002168 0.135135
    10 -2.536482 9.152779 0.850403 0.000000 0.000000 -1.570796
    11 -1.546742 7.218122 -0.000001 0.000000 0.000000 -0.002004
    12 -0.284830 2.417173 0.000000 0.000001 0.000000 0.000000
    13 1.257180 8.762585 -0.153713 -1.570562 0.002683 -1.566807
    14 -0.488518 -2.755602 -0.228260 -0.647514 0.030346 -0.257527
    15 0.039887 -1.479790 0.029854 -1.670335 0.000000 0.000001
    16 0.028786 -1.075731 -0.023109 -1.197449 0.000000 0.000000
    17 0.250027 -2.820665 -0.238396 -0.482190 0.047366 -0.266951
    18 -0.049759 -1.680544 0.100479 -1.890537 0.000000 -0.000002
    19 -0.034142 -1.148312 0.084782 -1.087281 0.000000 0.000000
    20 0.957766 -2.774125 -0.086396 -0.200214 -0.028397 -0.018724
    21 -0.033420 -1.397129 -0.011257 -0.346688 0.136277 -0.074809
    22 -0.022360 -0.957436 0.018784 -0.364582 0.000000 0.000000
    23 -1.180681 -2.507217 -0.193859 -0.541359 0.150781 -0.464420
    24 -0.024967 -1.123934 0.017597 -1.488903 0.000000 0.000001
    25 -0.020057 -0.890968 0.010090 -1.277757 0.000000 0.000000
    26 0.583510 -1.197277 0.185379 0.316258 -1.087026 -0.583548
    27 1.535927 0.010246 0.005009 0.087412 0.030537 -1.135410
    28 1.100771 0.004527 -0.010679 -0.010778 0.012114 -0.550575
    29 0.120153 -0.050270 -0.054489 0.099906 3.110905 1.561085
    30 0.447953 -2.798986 -0.200443 -0.607948 0.000534 0.561976
    31 -0.032909 -1.480204 0.004940 -1.413633 0.000000 0.000002
    32 -0.027022 -1.076920 -0.020210 -1.481391 0.000000 0.000000
    33 -0.249534 -2.846964 -0.174213 -0.445831 0.004261 0.486845
    34 0.043235 -1.683941 0.096012 -1.469776 0.002823 -0.000167
    35 0.031729 -1.160830 0.058838 -1.698243 0.000642 0.008372
    36 -0.963866 -2.785145 -0.085350 0.057485 0.039254 0.065226
    37 0.028479 -1.403067 0.006271 -0.285462 0.000000 0.000000
    38 0.021413 -0.957781 0.020046 -0.387944 0.000000 0.000000
    39 1.164475 -2.543940 -0.170330 -0.557511 -0.035046 0.464229
    40 0.024032 -1.129042 0.017807 -1.373638 0.000000 0.000001
    41 0.014898 -0.883989 -0.019848 -1.103398 0.000000 0.000000
    42 -0.586770 -1.264477 0.200161 -0.683236 -0.842752 -2.270081
    43 1.522835 0.058681 0.016848 -0.059520 -0.122786 0.824758
    44 1.117947 0.048424 -0.005766 -0.016015 -0.019457 0.744725
    45 -0.041740 -0.115604 0.002678 0.136590 -0.022461 1.520273
    46 -1.393470 8.839177 -0.239433 1.580804 -0.005023 -1.566847
end
