version 1
nodes
  0 "Bone01" -1
  1 "Bone_Lefthand" 0
  2 "Bone02" 1
  3 "Bone03" 2
  4 "Bone50" 3
  5 "Bone51" 4
  6 "Bone25" 3
  7 "Bone48" 3
  8 "Bone 04" 1
  9 "Bone13" 8
  10 "Bone14" 9
  11 "Bone15" 10
  12 "Bone17" 8
  13 "Bone18" 12
  14 "Bone19" 13
  15 "Bone21" 8
  16 "Bone22" 15
  17 "Bone23" 16
  18 "Bone05" 8
  19 "Bone06" 18
  20 "Bone07" 19
  21 "Bone09" 8
  22 "Bone10" 21
  23 "Bone11" 22
  24 "Bone04" -1
  25 "Bone_Righthand" 24
  26 "Bone26" 25
  27 "Bone35" 26
  28 "Bone36" 27
  29 "Bone37" 28
  30 "Bone31" 26
  31 "Bone32" 30
  32 "Bone33" 31
  33 "Bone39" 26
  34 "Bone40" 33
  35 "Bone41" 34
  36 "Bone43" 26
  37 "Bone44" 36
  38 "Bone45" 37
  39 "Bone27" 26
  40 "Bone28" 39
  41 "Bone29" 40
end
skeleton
  time 0
    0 8.108126 5.368201 -6.440099 -0.774264 -1.331348 0.567266
    1 0.000000 -8.563283 -0.000004 0.364975 -0.051929 -0.366558
    2 -0.365361 -3.150737 0.772148 -1.247037 1.437608 -1.024404
    3 0.000000 2.038368 1.408873 0.000000 0.000000 0.000000
    4 0.000000 -2.240709 2.058080 0.000000 0.000000 0.000000
    5 0.000000 -0.974219 0.000000 0.000000 0.000000 0.000000
    6 0.000000 -2.855217 0.622003 0.000000 0.000000 0.000000
    7 0.000000 -5.238309 0.651979 0.000000 0.000000 0.000000
    8 -0.003480 -0.404828 0.000000 0.000000 0.000000 0.000000
    9 -0.519309 -2.501154 -0.278957 -1.247894 0.000000 -0.122173
    10 -0.010598 -1.208184 -0.000001 -0.820315 0.000000 0.000000
    11 0.000000 -0.763066 0.000000 -1.186845 0.000000 0.000000
    12 0.105982 -2.607133 -0.278958 -1.160622 0.000000 -0.148365
    13 0.000000 -1.250579 0.000000 -0.890128 0.000000 0.000000
    14 0.000000 -0.932634 0.000000 -1.431181 0.000000 0.000000
    15 0.763064 -2.490556 -0.278958 -0.496123 0.091514 0.385812
    16 -0.012321 -1.280917 0.000000 -0.740011 0.000000 0.000000
    17 -0.001696 -0.745903 0.000571 -0.811557 0.000000 0.000000
    18 0.354567 0.016267 0.318133 0.447314 -0.548032 -0.957455
    19 1.887165 0.012878 0.000000 0.005088 -0.086158 -0.597913
    20 1.001874 -0.000270 0.000001 0.000000 0.000000 -0.347338
    21 -1.123358 -2.195092 -0.278957 -1.143193 -0.000012 -0.087266
    22 0.010772 -0.963791 0.000001 -0.610865 0.000000 0.000000
    23 -0.010413 -0.631916 0.000000 -1.212992 0.000000 0.000000
    24 -1.050325 -5.439380 -8.057180 -0.380492 0.255020 0.648680
    25 0.089928 -8.543163 -0.000001 0.386068 0.122625 0.292074
    26 0.000001 -0.359714 0.000000 0.000000 0.000000 0.000000
    27 -0.170479 -2.636148 -0.277656 -1.274101 0.000000 0.000000
    28 0.010598 -1.261177 0.000001 -0.680651 0.000000 0.000000
    29 -0.000001 -0.943233 -0.000001 -0.532326 0.000000 0.000000
    30 -0.827562 -2.508973 -0.277656 -0.959961 0.000000 0.000000
    31 0.000000 -1.292971 0.000001 -0.907565 0.000000 0.000000
    32 -0.000001 -0.752466 0.000000 -0.445059 0.000000 0.000000
    33 0.444213 -2.561960 -0.277656 -1.448067 -0.046226 -0.024599
    34 0.021022 -1.208186 -0.000001 -0.375261 0.000000 0.000000
    35 0.010597 -0.741867 0.000000 -0.453786 0.000000 0.000000
    36 1.047445 -2.222821 -0.277656 -1.508123 -0.078971 -0.038609
    37 0.000000 -0.996223 -0.000001 -0.479986 0.000000 0.000000
    38 -0.000001 -0.614689 0.000000 -0.523599 0.000000 0.000000
    39 -0.308254 -0.007814 0.307166 0.260086 -0.189598 -2.510860
    40 1.978379 0.019543 0.000001 -0.000002 -0.000010 0.122129
    41 0.982426 0.003186 0.000001 0.000000 0.000000 0.288007
  time 1
    0 8.108126 5.368201 -6.440099 -0.774264 -1.331348 0.567266
    1 0.000000 -8.563283 -0.000004 0.364975 -0.051929 -0.366558
    2 -0.365361 -3.150737 0.772148 -1.247037 1.437608 -1.024404
    3 0.000000 2.038368 1.408873 0.000000 0.000000 0.000000
    4 0.000000 -2.240709 2.058080 0.000000 0.000000 0.000000
    5 0.000000 -0.974219 0.000000 0.000000 0.000000 0.000000
    6 0.000000 -2.855217 0.622003 0.000000 0.000000 0.000000
    7 0.000000 -5.238309 0.651979 0.000000 0.000000 0.000000
    8 -0.003480 -0.404828 0.000000 0.000000 0.000000 0.000000
    9 -0.519309 -2.501154 -0.278957 -1.247894 0.000000 -0.122173
    10 -0.010598 -1.208184 -0.000001 -0.820315 0.000000 0.000000
    11 0.000000 -0.763066 0.000000 -1.186845 0.000000 0.000000
    12 0.105982 -2.607133 -0.278958 -1.160622 0.000000 -0.148365
    13 0.000000 -1.250579 0.000000 -0.890128 0.000000 0.000000
    14 0.000000 -0.932634 0.000000 -1.431181 0.000000 0.000000
    15 0.763064 -2.490556 -0.278958 -0.496123 0.091514 0.385812
    16 -0.012321 -1.280917 0.000000 -0.740011 0.000000 0.000000
    17 -0.001696 -0.745903 0.000571 -0.811557 0.000000 0.000000
    18 0.354567 0.016267 0.318133 0.447314 -0.548032 -0.957455
    19 1.887165 0.012878 0.000000 0.005088 -0.086158 -0.597913
    20 1.001874 -0.000270 0.000001 0.000000 0.000000 -0.347338
    21 -1.123358 -2.195092 -0.278957 -1.143193 -0.000012 -0.087266
    22 0.010772 -0.963791 0.000001 -0.610865 0.000000 0.000000
    23 -0.010413 -0.631916 0.000000 -1.212992 0.000000 0.000000
    24 -1.050325 -5.439380 -8.057180 -0.380492 0.255020 0.648680
    25 0.089928 -8.543163 -0.000001 0.386068 0.122625 0.292074
    26 0.000001 -0.359714 0.000000 0.000000 0.000000 0.000000
    27 -0.170479 -2.636148 -0.277656 -1.274101 0.000000 0.000000
    28 0.010598 -1.261177 0.000001 -0.680651 0.000000 0.000000
    29 -0.000001 -0.943233 -0.000001 -0.532326 0.000000 0.000000
    30 -0.827562 -2.508973 -0.277656 -0.959961 0.000000 0.000000
    31 0.000000 -1.292971 0.000001 -0.907565 0.000000 0.000000
    32 -0.000001 -0.752466 0.000000 -0.445059 0.000000 0.000000
    33 0.444213 -2.561960 -0.277656 -1.448067 -0.046226 -0.024599
    34 0.021022 -1.208186 -0.000001 -0.375261 0.000000 0.000000
    35 0.010597 -0.741867 0.000000 -0.453786 0.000000 0.000000
    36 1.047445 -2.222821 -0.277656 -1.508123 -0.078971 -0.038609
    37 0.000000 -0.996223 -0.000001 -0.479986 0.000000 0.000000
    38 -0.000001 -0.614689 0.000000 -0.523599 0.000000 0.000000
    39 -0.308254 -0.007814 0.307166 0.260086 -0.189598 -2.510860
    40 1.978379 0.019543 0.000001 -0.000002 -0.000010 0.122129
    41 0.982426 0.003186 0.000001 0.000000 0.000000 0.288007
  time 2
    0 8.108126 5.368201 -6.440099 -0.774264 -1.331348 0.567266
    1 0.000000 -8.563283 -0.000004 0.364975 -0.051929 -0.366558
    2 -0.365361 -3.150737 0.772148 -1.247037 1.437608 -1.024404
    3 0.000000 2.038368 1.408873 0.000000 0.000000 0.000000
    4 0.000000 -2.240709 2.058080 0.000000 0.000000 0.000000
    5 0.000000 -0.974219 0.000000 0.000000 0.000000 0.000000
    6 0.000000 -2.855217 0.622003 0.000000 0.000000 0.000000
    7 0.000000 -5.238309 0.651979 0.000000 0.000000 0.000000
    8 -0.003480 -0.404828 0.000000 0.000000 0.000000 0.000000
    9 -0.519309 -2.501154 -0.278957 -1.247894 0.000000 -0.122173
    10 -0.010598 -1.208184 -0.000001 -0.820315 0.000000 0.000000
    11 0.000000 -0.763066 0.000000 -1.186845 0.000000 0.000000
    12 0.105982 -2.607133 -0.278958 -1.160622 0.000000 -0.148365
    13 0.000000 -1.250579 0.000000 -0.890128 0.000000 0.000000
    14 0.000000 -0.932634 0.000000 -1.431181 0.000000 0.000000
    15 0.763064 -2.490556 -0.278958 -0.496123 0.091514 0.385812
    16 -0.012321 -1.280917 0.000000 -0.740011 0.000000 0.000000
    17 -0.001696 -0.745903 0.000571 -0.811557 0.000000 0.000000
    18 0.354567 0.016267 0.318133 0.447314 -0.548032 -0.957455
    19 1.887165 0.012878 0.000000 0.005088 -0.086158 -0.597913
    20 1.001874 -0.000270 0.000001 0.000000 0.000000 -0.347338
    21 -1.123358 -2.195092 -0.278957 -1.143193 -0.000012 -0.087266
    22 0.010772 -0.963791 0.000001 -0.610865 0.000000 0.000000
    23 -0.010413 -0.631916 0.000000 -1.212992 0.000000 0.000000
    24 -1.050325 -5.439380 -8.057180 -0.380492 0.255020 0.648680
    25 0.089928 -8.543163 -0.000001 0.386068 0.122625 0.292074
    26 0.000001 -0.359714 0.000000 0.000000 0.000000 0.000000
    27 -0.170479 -2.636148 -0.277656 -1.274101 0.000000 0.000000
    28 0.010598 -1.261177 0.000001 -0.680651 0.000000 0.000000
    29 -0.000001 -0.943233 -0.000001 -0.532326 0.000000 0.000000
    30 -0.827562 -2.508973 -0.277656 -0.959961 0.000000 0.000000
    31 0.000000 -1.292971 0.000001 -0.907565 0.000000 0.000000
    32 -0.000001 -0.752466 0.000000 -0.445059 0.000000 0.000000
    33 0.444213 -2.561960 -0.277656 -1.448067 -0.046226 -0.024599
    34 0.021022 -1.208186 -0.000001 -0.375261 0.000000 0.000000
    35 0.010597 -0.741867 0.000000 -0.453786 0.000000 0.000000
    36 1.047445 -2.222821 -0.277656 -1.508123 -0.078971 -0.038609
    37 0.000000 -0.996223 -0.000001 -0.479986 0.000000 0.000000
    38 -0.000001 -0.614689 0.000000 -0.523599 0.000000 0.000000
    39 -0.308254 -0.007814 0.307166 0.260086 -0.189598 -2.510860
    40 1.978379 0.019543 0.000001 -0.000002 -0.000010 0.122129
    41 0.982426 0.003186 0.000001 0.000000 0.000000 0.288007
  time 3
    0 8.108126 5.368201 -6.440099 -0.774264 -1.331348 0.567266
    1 0.000000 -8.563283 -0.000004 0.364975 -0.051929 -0.366558
    2 -0.365361 -3.150737 0.772148 -1.247037 1.437608 -1.024404
    3 0.000000 2.038368 1.408873 0.000000 0.000000 0.000000
    4 0.000000 -2.240709 2.058080 0.000000 0.000000 0.000000
    5 0.000000 -0.974219 0.000000 0.000000 0.000000 0.000000
    6 0.000000 -2.855217 0.622003 0.000000 0.000000 0.000000
    7 0.000000 -5.238309 0.651979 0.000000 0.000000 0.000000
    8 -0.003480 -0.404828 0.000000 0.000000 0.000000 0.000000
    9 -0.519309 -2.501154 -0.278957 -1.247894 0.000000 -0.122173
    10 -0.010598 -1.208184 -0.000001 -0.820315 0.000000 0.000000
    11 0.000000 -0.763066 0.000000 -1.186845 0.000000 0.000000
    12 0.105982 -2.607133 -0.278958 -1.160622 0.000000 -0.148365
    13 0.000000 -1.250579 0.000000 -0.890128 0.000000 0.000000
    14 0.000000 -0.932634 0.000000 -1.431181 0.000000 0.000000
    15 0.763064 -2.490556 -0.278958 -0.496123 0.091514 0.385812
    16 -0.012321 -1.280917 0.000000 -0.740011 0.000000 0.000000
    17 -0.001696 -0.745903 0.000571 -0.811557 0.000000 0.000000
    18 0.354567 0.016267 0.318133 0.447314 -0.548032 -0.957455
    19 1.887165 0.012878 0.000000 0.005088 -0.086158 -0.597913
    20 1.001874 -0.000270 0.000001 0.000000 0.000000 -0.347338
    21 -1.123358 -2.195092 -0.278957 -1.143193 -0.000012 -0.087266
    22 0.010772 -0.963791 0.000001 -0.610865 0.000000 0.000000
    23 -0.010413 -0.631916 0.000000 -1.212992 0.000000 0.000000
    24 -1.050325 -5.439380 -8.057180 -0.380492 0.255020 0.648680
    25 0.089928 -8.543163 -0.000001 0.386068 0.122625 0.292074
    26 0.000001 -0.359714 0.000000 0.000000 0.000000 0.000000
    27 -0.170479 -2.636148 -0.277656 -1.274101 0.000000 0.000000
    28 0.010598 -1.261177 0.000001 -0.680651 0.000000 0.000000
    29 -0.000001 -0.943233 -0.000001 -0.532326 0.000000 0.000000
    30 -0.827562 -2.508973 -0.277656 -0.959961 0.000000 0.000000
    31 0.000000 -1.292971 0.000001 -0.907565 0.000000 0.000000
    32 -0.000001 -0.752466 0.000000 -0.445059 0.000000 0.000000
    33 0.444213 -2.561960 -0.277656 -1.448067 -0.046226 -0.024599
    34 0.021022 -1.208186 -0.000001 -0.375261 0.000000 0.000000
    35 0.010597 -0.741867 0.000000 -0.453786 0.000000 0.000000
    36 1.047445 -2.222821 -0.277656 -1.508123 -0.078971 -0.038609
    37 0.000000 -0.996223 -0.000001 -0.479986 0.000000 0.000000
    38 -0.000001 -0.614689 0.000000 -0.523599 0.000000 0.000000
    39 -0.308254 -0.007814 0.307166 0.260086 -0.189598 -2.510860
    40 1.978379 0.019543 0.000001 -0.000002 -0.000010 0.122129
    41 0.982426 0.003186 0.000001 0.000000 0.000000 0.288007
  time 4
    0 8.108126 5.368201 -6.440099 -0.774264 -1.331348 0.567266
    1 0.000000 -8.563283 -0.000004 0.364975 -0.051929 -0.366558
    2 -0.365361 -3.150737 0.772148 -1.247037 1.437608 -1.024404
    3 0.000000 2.038368 1.408873 0.000000 0.000000 0.000000
    4 0.000000 -2.240709 2.058080 0.000000 0.000000 0.000000
    5 0.000000 -0.974219 0.000000 0.000000 0.000000 0.000000
    6 0.000000 -2.855217 0.622003 0.000000 0.000000 0.000000
    7 0.000000 -5.238309 0.651979 0.000000 0.000000 0.000000
    8 -0.003480 -0.404828 0.000000 0.000000 0.000000 0.000000
    9 -0.519309 -2.501154 -0.278957 -1.247894 0.000000 -0.122173
    10 -0.010598 -1.208184 -0.000001 -0.820315 0.000000 0.000000
    11 0.000000 -0.763066 0.000000 -1.186845 0.000000 0.000000
    12 0.105982 -2.607133 -0.278958 -1.160622 0.000000 -0.148365
    13 0.000000 -1.250579 0.000000 -0.890128 0.000000 0.000000
    14 0.000000 -0.932634 0.000000 -1.431181 0.000000 0.000000
    15 0.763064 -2.490556 -0.278958 -0.496123 0.091514 0.385812
    16 -0.012321 -1.280917 0.000000 -0.740011 0.000000 0.000000
    17 -0.001696 -0.745903 0.000571 -0.811557 0.000000 0.000000
    18 0.354567 0.016267 0.318133 0.447314 -0.548032 -0.957455
    19 1.887165 0.012878 0.000000 0.005088 -0.086158 -0.597913
    20 1.001874 -0.000270 0.000001 0.000000 0.000000 -0.347338
    21 -1.123358 -2.195092 -0.278957 -1.143193 -0.000012 -0.087266
    22 0.010772 -0.963791 0.000001 -0.610865 0.000000 0.000000
    23 -0.010413 -0.631916 0.000000 -1.212992 0.000000 0.000000
    24 -1.050325 -5.439380 -8.057180 -0.380492 0.255020 0.648680
    25 0.089928 -8.543163 -0.000001 0.386068 0.122625 0.292074
    26 0.000001 -0.359714 0.000000 0.000000 0.000000 0.000000
    27 -0.170479 -2.636148 -0.277656 -1.274101 0.000000 0.000000
    28 0.010598 -1.261177 0.000001 -0.680651 0.000000 0.000000
    29 -0.000001 -0.943233 -0.000001 -0.532326 0.000000 0.000000
    30 -0.827562 -2.508973 -0.277656 -0.959961 0.000000 0.000000
    31 0.000000 -1.292971 0.000001 -0.907565 0.000000 0.000000
    32 -0.000001 -0.752466 0.000000 -0.445059 0.000000 0.000000
    33 0.444213 -2.561960 -0.277656 -1.448067 -0.046226 -0.024599
    34 0.021022 -1.208186 -0.000001 -0.375261 0.000000 0.000000
    35 0.010597 -0.741867 0.000000 -0.453786 0.000000 0.000000
    36 1.047445 -2.222821 -0.277656 -1.508123 -0.078971 -0.038609
    37 0.000000 -0.996223 -0.000001 -0.479986 0.000000 0.000000
    38 -0.000001 -0.614689 0.000000 -0.523599 0.000000 0.000000
    39 -0.308254 -0.007814 0.307166 0.260086 -0.189598 -2.510860
    40 1.978379 0.019543 0.000001 -0.000002 -0.000010 0.122129
    41 0.982426 0.003186 0.000001 0.000000 0.000000 0.288007
  time 5
    0 8.108126 5.368201 -6.440099 -0.774264 -1.331348 0.567266
    1 0.000000 -8.563283 -0.000004 0.364975 -0.051929 -0.366558
    2 -0.365361 -3.150737 0.772148 -1.247037 1.437608 -1.024404
    3 0.000000 2.038368 1.408873 0.000000 0.000000 0.000000
    4 0.000000 -2.240709 2.058080 0.000000 0.000000 0.000000
    5 0.000000 -0.974219 0.000000 0.000000 0.000000 0.000000
    6 0.000000 -2.855217 0.622003 0.000000 0.000000 0.000000
    7 0.000000 -5.238309 0.651979 0.000000 0.000000 0.000000
    8 -0.003480 -0.404828 0.000000 0.000000 0.000000 0.000000
    9 -0.519309 -2.501154 -0.278957 -1.247894 0.000000 -0.122173
    10 -0.010598 -1.208184 -0.000001 -0.820315 0.000000 0.000000
    11 0.000000 -0.763066 0.000000 -1.186845 0.000000 0.000000
    12 0.105982 -2.607133 -0.278958 -1.160622 0.000000 -0.148365
    13 0.000000 -1.250579 0.000000 -0.890128 0.000000 0.000000
    14 0.000000 -0.932634 0.000000 -1.431181 0.000000 0.000000
    15 0.763064 -2.490556 -0.278958 -0.496123 0.091514 0.385812
    16 -0.012321 -1.280917 0.000000 -0.740011 0.000000 0.000000
    17 -0.001696 -0.745903 0.000571 -0.811557 0.000000 0.000000
    18 0.354567 0.016267 0.318133 0.447314 -0.548032 -0.957455
    19 1.887165 0.012878 0.000000 0.005088 -0.086158 -0.597913
    20 1.001874 -0.000270 0.000001 0.000000 0.000000 -0.347338
    21 -1.123358 -2.195092 -0.278957 -1.143193 -0.000012 -0.087266
    22 0.010772 -0.963791 0.000001 -0.610865 0.000000 0.000000
    23 -0.010413 -0.631916 0.000000 -1.212992 0.000000 0.000000
    24 -1.050325 -5.439380 -8.057180 -0.380492 0.255020 0.648680
    25 0.089928 -8.543163 -0.000001 0.386068 0.122625 0.292074
    26 0.000001 -0.359714 0.000000 0.000000 0.000000 0.000000
    27 -0.170479 -2.636148 -0.277656 -1.274101 0.000000 0.000000
    28 0.010598 -1.261177 0.000001 -0.680651 0.000000 0.000000
    29 -0.000001 -0.943233 -0.000001 -0.532326 0.000000 0.000000
    30 -0.827562 -2.508973 -0.277656 -0.959961 0.000000 0.000000
    31 0.000000 -1.292971 0.000001 -0.907565 0.000000 0.000000
    32 -0.000001 -0.752466 0.000000 -0.445059 0.000000 0.000000
    33 0.444213 -2.561960 -0.277656 -1.448067 -0.046226 -0.024599
    34 0.021022 -1.208186 -0.000001 -0.375261 0.000000 0.000000
    35 0.010597 -0.741867 0.000000 -0.453786 0.000000 0.000000
    36 1.047445 -2.222821 -0.277656 -1.508123 -0.078971 -0.038609
    37 0.000000 -0.996223 -0.000001 -0.479986 0.000000 0.000000
    38 -0.000001 -0.614689 0.000000 -0.523599 0.000000 0.000000
    39 -0.308254 -0.007814 0.307166 0.260086 -0.189598 -2.510860
    40 1.978379 0.019543 0.000001 -0.000002 -0.000010 0.122129
    41 0.982426 0.003186 0.000001 0.000000 0.000000 0.288007
  time 6
    0 8.108126 5.368201 -6.440099 -0.774264 -1.331348 0.567266
    1 0.000000 -8.563283 -0.000004 0.364975 -0.051929 -0.366558
    2 -0.365361 -3.150737 0.772148 -1.247037 1.437608 -1.024404
    3 0.000000 2.038368 1.408873 0.000000 0.000000 0.000000
    4 0.000000 -2.240709 2.058080 0.000000 0.000000 0.000000
    5 0.000000 -0.974219 0.000000 0.000000 0.000000 0.000000
    6 0.000000 -2.855217 0.622003 0.000000 0.000000 0.000000
    7 0.000000 -5.238309 0.651979 0.000000 0.000000 0.000000
    8 -0.003480 -0.404828 0.000000 0.000000 0.000000 0.000000
    9 -0.519309 -2.501154 -0.278957 -1.247894 0.000000 -0.122173
    10 -0.010598 -1.208184 -0.000001 -0.820315 0.000000 0.000000
    11 0.000000 -0.763066 0.000000 -1.186845 0.000000 0.000000
    12 0.105982 -2.607133 -0.278958 -1.160622 0.000000 -0.148365
    13 0.000000 -1.250579 0.000000 -0.890128 0.000000 0.000000
    14 0.000000 -0.932634 0.000000 -1.431181 0.000000 0.000000
    15 0.763064 -2.490556 -0.278958 -0.496123 0.091514 0.385812
    16 -0.012321 -1.280917 0.000000 -0.740011 0.000000 0.000000
    17 -0.001696 -0.745903 0.000571 -0.811557 0.000000 0.000000
    18 0.354567 0.016267 0.318133 0.447314 -0.548032 -0.957455
    19 1.887165 0.012878 0.000000 0.005088 -0.086158 -0.597913
    20 1.001874 -0.000270 0.000001 0.000000 0.000000 -0.347338
    21 -1.123358 -2.195092 -0.278957 -1.143193 -0.000012 -0.087266
    22 0.010772 -0.963791 0.000001 -0.610865 0.000000 0.000000
    23 -0.010413 -0.631916 0.000000 -1.212992 0.000000 0.000000
    24 -1.050325 -5.439380 -8.057180 -0.380492 0.255020 0.648680
    25 0.089928 -8.543163 -0.000001 0.386068 0.122625 0.292074
    26 0.000001 -0.359714 0.000000 0.000000 0.000000 0.000000
    27 -0.170479 -2.636148 -0.277656 -1.274101 0.000000 0.000000
    28 0.010598 -1.261177 0.000001 -0.680651 0.000000 0.000000
    29 -0.000001 -0.943233 -0.000001 -0.532326 0.000000 0.000000
    30 -0.827562 -2.508973 -0.277656 -0.959961 0.000000 0.000000
    31 0.000000 -1.292971 0.000001 -0.907565 0.000000 0.000000
    32 -0.000001 -0.752466 0.000000 -0.445059 0.000000 0.000000
    33 0.444213 -2.561960 -0.277656 -1.448067 -0.046226 -0.024599
    34 0.021022 -1.208186 -0.000001 -0.375261 0.000000 0.000000
    35 0.010597 -0.741867 0.000000 -0.453786 0.000000 0.000000
    36 1.047445 -2.222821 -0.277656 -1.508123 -0.078971 -0.038609
    37 0.000000 -0.996223 -0.000001 -0.479986 0.000000 0.000000
    38 -0.000001 -0.614689 0.000000 -0.523599 0.000000 0.000000
    39 -0.308254 -0.007814 0.307166 0.260086 -0.189598 -2.510860
    40 1.978379 0.019543 0.000001 -0.000002 -0.000010 0.122129
    41 0.982426 0.003186 0.000001 0.000000 0.000000 0.288007
  time 7
    0 8.108126 5.368201 -6.440099 -0.774264 -1.331348 0.567266
    1 0.000000 -8.563283 -0.000004 0.364975 -0.051929 -0.366558
    2 -0.365361 -3.150737 0.772148 -1.247037 1.437608 -1.024404
    3 0.000000 2.038368 1.408873 0.000000 0.000000 0.000000
    4 0.000000 -2.240709 2.058080 0.000000 0.000000 0.000000
    5 0.000000 -0.974219 0.000000 0.000000 0.000000 0.000000
    6 0.000000 -2.855217 0.622003 0.000000 0.000000 0.000000
    7 0.000000 -5.238309 0.651979 0.000000 0.000000 0.000000
    8 -0.003480 -0.404828 0.000000 0.000000 0.000000 0.000000
    9 -0.519309 -2.501154 -0.278957 -1.247894 0.000000 -0.122173
    10 -0.010598 -1.208184 -0.000001 -0.820315 0.000000 0.000000
    11 0.000000 -0.763066 0.000000 -1.186845 0.000000 0.000000
    12 0.105982 -2.607133 -0.278958 -1.160622 0.000000 -0.148365
    13 0.000000 -1.250579 0.000000 -0.890128 0.000000 0.000000
    14 0.000000 -0.932634 0.000000 -1.431181 0.000000 0.000000
    15 0.763064 -2.490556 -0.278958 -0.496123 0.091514 0.385812
    16 -0.012321 -1.280917 0.000000 -0.740011 0.000000 0.000000
    17 -0.001696 -0.745903 0.000571 -0.811557 0.000000 0.000000
    18 0.354567 0.016267 0.318133 0.447314 -0.548032 -0.957455
    19 1.887165 0.012878 0.000000 0.005088 -0.086158 -0.597913
    20 1.001874 -0.000270 0.000001 0.000000 0.000000 -0.347338
    21 -1.123358 -2.195092 -0.278957 -1.143193 -0.000012 -0.087266
    22 0.010772 -0.963791 0.000001 -0.610865 0.000000 0.000000
    23 -0.010413 -0.631916 0.000000 -1.212992 0.000000 0.000000
    24 -1.050325 -5.439380 -8.057180 -0.380492 0.255020 0.648680
    25 0.089928 -8.543163 -0.000001 0.386068 0.122625 0.292074
    26 0.000001 -0.359714 0.000000 0.000000 0.000000 0.000000
    27 -0.170479 -2.636148 -0.277656 -1.274101 0.000000 0.000000
    28 0.010598 -1.261177 0.000001 -0.680651 0.000000 0.000000
    29 -0.000001 -0.943233 -0.000001 -0.532326 0.000000 0.000000
    30 -0.827562 -2.508973 -0.277656 -0.959961 0.000000 0.000000
    31 0.000000 -1.292971 0.000001 -0.907565 0.000000 0.000000
    32 -0.000001 -0.752466 0.000000 -0.445059 0.000000 0.000000
    33 0.444213 -2.561960 -0.277656 -1.448067 -0.046226 -0.024599
    34 0.021022 -1.208186 -0.000001 -0.375261 0.000000 0.000000
    35 0.010597 -0.741867 0.000000 -0.453786 0.000000 0.000000
    36 1.047445 -2.222821 -0.277656 -1.508123 -0.078971 -0.038609
    37 0.000000 -0.996223 -0.000001 -0.479986 0.000000 0.000000
    38 -0.000001 -0.614689 0.000000 -0.523599 0.000000 0.000000
    39 -0.308254 -0.007814 0.307166 0.260086 -0.189598 -2.510860
    40 1.978379 0.019543 0.000001 -0.000002 -0.000010 0.122129
    41 0.982426 0.003186 0.000001 0.000000 0.000000 0.288007
  time 8
    0 8.108126 5.368201 -6.440099 -0.774264 -1.331348 0.567266
    1 0.000000 -8.563283 -0.000004 0.364975 -0.051929 -0.366558
    2 -0.365361 -3.150737 0.772148 -1.247037 1.437608 -1.024404
    3 0.000000 2.038368 1.408873 0.000000 0.000000 0.000000
    4 0.000000 -2.240709 2.058080 0.000000 0.000000 0.000000
    5 0.000000 -0.974219 0.000000 0.000000 0.000000 0.000000
    6 0.000000 -2.855217 0.622003 0.000000 0.000000 0.000000
    7 0.000000 -5.238309 0.651979 0.000000 0.000000 0.000000
    8 -0.003480 -0.404828 0.000000 0.000000 0.000000 0.000000
    9 -0.519309 -2.501154 -0.278957 -1.247894 0.000000 -0.122173
    10 -0.010598 -1.208184 -0.000001 -0.820315 0.000000 0.000000
    11 0.000000 -0.763066 0.000000 -1.186845 0.000000 0.000000
    12 0.105982 -2.607133 -0.278958 -1.160622 0.000000 -0.148365
    13 0.000000 -1.250579 0.000000 -0.890128 0.000000 0.000000
    14 0.000000 -0.932634 0.000000 -1.431181 0.000000 0.000000
    15 0.763064 -2.490556 -0.278958 -0.496123 0.091514 0.385812
    16 -0.012321 -1.280917 0.000000 -0.740011 0.000000 0.000000
    17 -0.001696 -0.745903 0.000571 -0.811557 0.000000 0.000000
    18 0.354567 0.016267 0.318133 0.447314 -0.548032 -0.957455
    19 1.887165 0.012878 0.000000 0.005088 -0.086158 -0.597913
    20 1.001874 -0.000270 0.000001 0.000000 0.000000 -0.347338
    21 -1.123358 -2.195092 -0.278957 -1.143193 -0.000012 -0.087266
    22 0.010772 -0.963791 0.000001 -0.610865 0.000000 0.000000
    23 -0.010413 -0.631916 0.000000 -1.212992 0.000000 0.000000
    24 -1.050325 -5.439380 -8.057180 -0.380492 0.255020 0.648680
    25 0.089928 -8.543163 -0.000001 0.386068 0.122625 0.292074
    26 0.000001 -0.359714 0.000000 0.000000 0.000000 0.000000
    27 -0.170479 -2.636148 -0.277656 -1.274101 0.000000 0.000000
    28 0.010598 -1.261177 0.000001 -0.680651 0.000000 0.000000
    29 -0.000001 -0.943233 -0.000001 -0.532326 0.000000 0.000000
    30 -0.827562 -2.508973 -0.277656 -0.959961 0.000000 0.000000
    31 0.000000 -1.292971 0.000001 -0.907565 0.000000 0.000000
    32 -0.000001 -0.752466 0.000000 -0.445059 0.000000 0.000000
    33 0.444213 -2.561960 -0.277656 -1.448067 -0.046226 -0.024599
    34 0.021022 -1.208186 -0.000001 -0.375261 0.000000 0.000000
    35 0.010597 -0.741867 0.000000 -0.453786 0.000000 0.000000
    36 1.047445 -2.222821 -0.277656 -1.508123 -0.078971 -0.038609
    37 0.000000 -0.996223 -0.000001 -0.479986 0.000000 0.000000
    38 -0.000001 -0.614689 0.000000 -0.523599 0.000000 0.000000
    39 -0.308254 -0.007814 0.307166 0.260086 -0.189598 -2.510860
    40 1.978379 0.019543 0.000001 -0.000002 -0.000010 0.122129
    41 0.982426 0.003186 0.000001 0.000000 0.000000 0.288007
end
